1968
-0.353203, 1, 33, 500, 288
-0.393785, 1, 1, 500, 375
-0.469055, 1, 1, 256, 375
-0.489924, 1, 129, 500, 375
-0.495923, 225, 1, 480, 375
-0.573365, 33, 1, 288, 256
-0.586698, 97, 1, 352, 375
-0.636169, 129, 1, 384, 256
-0.646753, 257, 1, 500, 256
-0.768261, 257, 129, 500, 375
-0.797308, 129, 129, 384, 375
-0.806403, 33, 97, 288, 352
-0.8539, 113, 1, 240, 256
-0.856194, 1, 1, 500, 128
-0.862506, 1, 1, 128, 375
-0.863779, 321, 1, 448, 375
-0.870222, 33, 1, 160, 256
-0.870874, 177, 33, 304, 288
-0.871074, 1, 49, 500, 176
-0.873958, 289, 1, 416, 256
-0.879886, 337, 1, 464, 256
-0.88415, 81, 1, 208, 375
-0.8846, 273, 1, 400, 375
-0.888949, 129, 1, 256, 375
-0.891505, 257, 129, 384, 375
-0.89838, 97, 1, 352, 128
-0.898391, 1, 113, 500, 240
-0.900473, 1, 1, 256, 128
-0.901963, 193, 1, 320, 375
-0.904972, 257, 1, 500, 128
-0.905707, 193, 65, 448, 192
-0.908545, 337, 97, 464, 352
-0.911316, 209, 129, 336, 375
-0.913151, 161, 129, 288, 375
-0.91532, 369, 1, 496, 375
-0.916424, 113, 97, 240, 352
-0.917425, 241, 33, 368, 288
-0.919045, 33, 49, 288, 176
-0.920273, 145, 1, 208, 128
-0.923299, 161, 241, 416, 368
-0.926442, 113, 1, 240, 128
-0.930169, 33, 129, 288, 256
-0.93046, 161, 1, 288, 128
-0.930654, 425, 1, 488, 128
-0.930789, 169, 1, 232, 128
-0.931091, 65, 1, 192, 128
-0.93225, 305, 1, 432, 128
-0.932736, 1, 129, 128, 375
-0.932911, 337, 241, 464, 368
-0.933383, 337, 241, 400, 368
-0.93395, 105, 1, 168, 128
-0.933983, 385, 33, 448, 160
-0.934685, 273, 33, 336, 160
-0.935165, 1, 241, 500, 368
-0.936387, 417, 49, 480, 176
-0.936662, 209, 1, 336, 128
-0.937178, 345, 33, 408, 160
-0.937992, 249, 1, 312, 128
-0.938466, 305, 49, 432, 176
-0.93863, 369, 1, 496, 128
-0.939294, 321, 1, 384, 128
-0.939345, 257, 225, 500, 352
-0.939807, 193, 1, 256, 128
-0.940048, 225, 65, 288, 192
-0.940233, 129, 49, 256, 176
-0.941016, 49, 129, 176, 375
-0.941136, 273, 241, 400, 368
-0.941355, 161, 33, 224, 96
-0.941384, 241, 49, 368, 176
-0.942212, 257, 1, 384, 128
-0.942698, 297, 1, 360, 128
-0.944358, 137, 25, 200, 88
-0.944739, 193, 113, 448, 240
-0.94558, 385, 17, 448, 80
-0.945736, 425, 25, 488, 88
-0.946027, 1, 161, 500, 288
-0.946144, 193, 65, 320, 192
-0.947025, 273, 33, 336, 96
-0.947065, 233, 33, 296, 96
-0.947258, 225, 17, 288, 144
-0.947837, 353, 49, 480, 176
-0.948382, 305, 49, 368, 176
-0.948412, 17, 129, 144, 256
-0.948511, 225, 209, 352, 336
-0.948691, 177, 49, 240, 176
-0.948828, 1, 145, 64, 208
-0.948889, 25, 129, 88, 256
-0.94897, 417, 49, 480, 112
-0.949575, 337, 17, 400, 80
-0.94962, 377, 41, 440, 104
-0.950179, 65, 49, 192, 176
-0.951218, 17, 1, 144, 128
-0.951483, 1, 129, 64, 256
-0.951712, 17, 17, 80, 80
-0.951956, 297, 33, 360, 96
-0.95219, 137, 49, 200, 176
-0.952633, 17, 1, 80, 128
-0.953267, 393, 241, 456, 368
-0.953356, 201, 25, 264, 88
-0.953494, 65, 33, 128, 96
-0.953636, 177, 113, 304, 240
-0.953934, 97, 1, 160, 64
-0.95403, 337, 265, 400, 328
-0.954506, 233, 113, 296, 240
-0.955005, 113, 33, 176, 96
-0.95516, 97, 137, 160, 200
-0.955437, 137, 1, 200, 64
-0.955775, 73, 129, 136, 256
-0.955919, 129, 193, 384, 320
-0.955982, 369, 281, 432, 344
-0.956032, 177, 129, 240, 192
-0.95609, 361, 9, 424, 72
-0.956308, 65, 129, 192, 256
-0.956405, 369, 241, 432, 368
-0.956556, 201, 113, 264, 240
-0.957289, 201, 65, 264, 192
-0.957294, 249, 65, 312, 192
-0.957326, 177, 225, 304, 352
-0.957445, 241, 225, 304, 352
-0.957893, 345, 41, 408, 104
-0.958052, 265, 57, 328, 120
-0.958139, 49, 1, 112, 64
-0.958433, 177, 1, 240, 64
-0.958464, 297, 305, 360, 368
-0.959056, 25, 145, 88, 208
-0.959185, 329, 289, 392, 352
-0.959288, 289, 57, 352, 120
-0.959502, 225, 177, 480, 304
-0.959857, 129, 129, 256, 256
-0.959864, 313, 241, 376, 368
-0.959924, 321, 41, 384, 104
-0.960171, 401, 241, 464, 304
-0.960244, 209, 49, 272, 112
-0.960255, 297, 121, 360, 184
-0.960582, 49, 137, 112, 200
-0.960595, 113, 49, 176, 176
-0.960722, 145, 137, 208, 200
-0.960842, 49, 129, 112, 256
-0.960908, 185, 49, 248, 112
-0.960962, 273, 193, 400, 320
-0.961115, 121, 137, 184, 200
-0.961154, 417, 225, 480, 352
-0.961186, 25, 41, 88, 104
-0.961264, 249, 297, 312, 360
-0.96137, 305, 281, 368, 344
-0.961432, 273, 193, 336, 320
-0.961611, 81, 1, 144, 128
-0.961689, 337, 193, 464, 320
-0.961715, 225, 129, 288, 192
-0.961828, 273, 289, 336, 352
-0.961915, 49, 49, 112, 176
-0.962192, 201, 1, 264, 64
-0.962492, 369, 249, 432, 312
-0.962512, 89, 41, 152, 104
-0.962651, 369, 113, 432, 176
-0.962825, 273, 113, 336, 240
-0.962988, 49, 1, 112, 128
-0.96323, 225, 113, 352, 240
-0.963303, 273, 241, 336, 368
-0.963323, 129, 25, 256, 88
-0.963524, 73, 49, 136, 176
-0.963629, 273, 121, 336, 184
-0.963648, 225, 305, 288, 368
-0.964543, 73, 137, 136, 200
-0.96501, 177, 113, 240, 240
-0.965062, 305, 9, 368, 72
-0.965088, 249, 129, 312, 192
-0.965199, 241, 57, 304, 120
-0.965211, 337, 121, 400, 184
-0.965396, 201, 129, 264, 192
-0.965512, 393, 81, 456, 208
-0.965562, 241, 1, 304, 64
-0.965653, 165, 1, 196, 128
-0.965969, 129, 129, 192, 256
-0.966121, 453, 17, 484, 80
-0.96623, 161, 25, 192, 88
-0.966336, 417, 1, 480, 64
-0.966465, 17, 49, 144, 176
-0.966538, 97, 113, 160, 240
-0.966637, 1, 17, 128, 80
-0.966815, 345, 1, 408, 256
-0.966825, 257, 209, 320, 272
-0.966936, 353, 241, 384, 368
-0.966965, 177, 161, 304, 288
-0.967046, 149, 25, 180, 88
-0.967065, 405, 41, 436, 104
-0.967201, 265, 9, 328, 72
-0.967279, 273, 313, 336, 375
-0.967474, 49, 1, 176, 64
-0.967639, 385, 41, 416, 104
-0.967727, 353, 97, 480, 224
-0.967756, 209, 209, 272, 336
-0.967897, 393, 33, 424, 160
-0.967974, 433, 1, 464, 128
-0.967984, 369, 113, 432, 240
-0.968137, 437, 41, 468, 104
-0.968187, 177, 41, 304, 104
-0.968344, 249, 177, 312, 304
-0.968389, 401, 281, 464, 344
-0.968467, 469, 1, 500, 128
-0.968574, 329, 41, 360, 104
-0.968722, 217, 201, 280, 264
-0.968733, 201, 297, 264, 360
-0.96879, 73, 1, 136, 64
-0.968792, 153, 1, 184, 128
-0.968805, 321, 17, 448, 80
-0.968863, 1, 41, 64, 104
-0.968881, 321, 265, 448, 328
-0.968903, 417, 25, 448, 88
-0.969278, 33, 193, 288, 320
-0.969325, 173, 25, 204, 88
-0.969341, 269, 33, 300, 96
-0.969349, 25, 49, 88, 176
-0.969515, 409, 49, 440, 176
-0.969524, 133, 1, 164, 128
-0.969589, 457, 1, 488, 128
-0.969665, 169, 305, 232, 368
-0.969675, 349, 1, 380, 128
-0.969677, 37, 17, 68, 80
-0.969712, 49, 17, 80, 80
-0.969776, 433, 233, 496, 296
-0.969918, 197, 33, 228, 96
-0.969993, 369, 17, 400, 80
-0.970375, 145, 313, 208, 375
-0.970423, 393, 113, 456, 176
-0.970455, 137, 49, 200, 112
-0.970526, 469, 49, 500, 176
-0.970617, 25, 17, 56, 80
-0.970642, 425, 273, 488, 336
-0.970656, 405, 17, 436, 80
-0.97083, 209, 33, 240, 96
-0.970833, 405, 1, 436, 128
-0.970954, 81, 17, 112, 80
-0.971073, 469, 41, 500, 104
-0.971348, 153, 113, 216, 240
-0.971377, 305, 113, 432, 240
-0.971586, 369, 193, 432, 320
-0.971625, 113, 1, 176, 256
-0.971764, 249, 33, 280, 96
-0.971823, 321, 33, 352, 160
-0.971833, 73, 1, 136, 256
-0.971852, 33, 169, 96, 232
-0.97218, 177, 1, 240, 256
-0.972309, 273, 273, 400, 336
-0.972355, 9, 169, 72, 232
-0.972419, 305, 113, 368, 240
-0.972454, 33, 1, 96, 256
-0.972486, 145, 1, 272, 64
-0.972562, 73, 161, 136, 224
-0.972562, 337, 313, 400, 375
-0.972732, 409, 1, 472, 256
-0.972808, 277, 33, 308, 160
-0.97284, 229, 33, 260, 96
-0.972841, 313, 41, 344, 104
-0.972844, 49, 33, 176, 96
-0.972902, 185, 33, 216, 96
-0.972921, 177, 1, 208, 128
-0.972944, 69, 33, 100, 96
-0.973012, 369, 249, 496, 312
-0.973069, 377, 1, 440, 256
-0.973259, 189, 1, 220, 128
-0.973345, 449, 49, 480, 176
-0.973402, 33, 137, 160, 200
-0.973563, 69, 1, 100, 64
-0.973664, 229, 17, 260, 144
-0.973686, 381, 1, 412, 128
-0.973694, 13, 145, 44, 208
-0.973764, 129, 129, 256, 192
-0.973836, 321, 289, 448, 352
-0.973853, 385, 73, 448, 136
-0.973913, 177, 129, 304, 192
-0.973926, 353, 257, 384, 320
-0.974056, 253, 1, 284, 128
-0.97414, 141, 49, 172, 112
-0.974157, 37, 41, 68, 104
-0.97428, 201, 1, 232, 128
-0.974304, 97, 49, 224, 112
-0.974363, 297, 257, 360, 320
-0.974483, 281, 33, 312, 96
-0.974492, 9, 25, 40, 88
-0.974518, 433, 1, 496, 256
-0.974526, 369, 305, 432, 368
-0.974535, 321, 1, 384, 256
-0.974607, 305, 193, 368, 320
-0.974647, 417, 113, 480, 176
-0.974727, 153, 49, 184, 112
-0.974732, 385, 9, 416, 72
-0.974752, 301, 1, 332, 128
-0.974784, 421, 33, 452, 160
-0.97486, 257, 41, 384, 104
-0.974994, 445, 1, 476, 128
-0.975042, 153, 1, 184, 64
-0.975056, 265, 33, 296, 160
-0.975182, 365, 33, 396, 160
-0.975213, 457, 41, 488, 104
-0.975239, 345, 81, 408, 208
-0.975271, 469, 9, 500, 72
-0.975287, 337, 1, 368, 128
-0.975374, 213, 1, 244, 128
-0.975382, 393, 193, 456, 320
-0.975385, 29, 145, 60, 208
-0.975434, 121, 313, 184, 375
-0.975435, 369, 9, 496, 72
-0.975496, 137, 1, 200, 256
-0.975557, 225, 161, 288, 288
-0.975601, 225, 9, 352, 72
-0.975657, 185, 241, 248, 368
-0.975689, 281, 209, 344, 272
-0.97579, 201, 1, 264, 256
-0.975791, 349, 9, 380, 72
-0.975903, 337, 241, 400, 304
-0.975963, 369, 281, 496, 344
-0.976117, 257, 121, 384, 184
-0.976194, 125, 137, 156, 200
-0.976407, 301, 41, 332, 104
-0.976443, 113, 57, 176, 120
-0.976486, 53, 1, 84, 128
-0.976597, 349, 33, 380, 96
-0.97666, 129, 241, 256, 368
-0.976674, 437, 49, 468, 176
-0.976814, 145, 313, 272, 375
-0.976851, 5, 1, 36, 64
-0.976855, 289, 1, 320, 128
-0.976876, 213, 65, 244, 192
-0.97692, 25, 1, 56, 128
-0.976923, 333, 49, 364, 176
-0.976929, 333, 281, 364, 344
-0.977009, 433, 9, 464, 72
-0.977057, 129, 1, 160, 64
-0.977069, 245, 65, 276, 192
-0.977091, 321, 113, 448, 176
-0.977141, 81, 137, 208, 200
-0.97726, 1, 145, 32, 208
-0.977265, 213, 129, 244, 192
-0.97729, 321, 41, 448, 104
-0.977351, 217, 1, 248, 64
-0.977356, 193, 297, 320, 360
-0.977361, 417, 89, 480, 152
-0.977411, 201, 161, 264, 288
-0.97743, 225, 281, 288, 344
-0.977432, 161, 57, 224, 120
-0.977612, 233, 1, 296, 256
-0.977733, 329, 73, 392, 136
-0.977753, 193, 209, 256, 272
-0.977757, 225, 65, 256, 192
-0.977777, 249, 273, 312, 336
-0.977779, 241, 305, 368, 368
-0.977783, 369, 41, 496, 104
-0.977795, 381, 49, 412, 176
-0.9778, 97, 161, 160, 224
-0.97789, 25, 129, 56, 256
-0.9779, 97, 1, 224, 64
-0.977928, 241, 1, 272, 128
-0.977979, 101, 137, 132, 200
-0.977987, 1, 1, 64, 256
-0.978005, 385, 113, 416, 176
-0.978049, 189, 1, 220, 64
-0.978094, 197, 129, 228, 192
-0.978097, 169, 1, 200, 64
-0.978118, 133, 25, 164, 88
-0.978129, 269, 57, 300, 120
-0.978131, 297, 121, 328, 184
-0.978133, 305, 81, 368, 144
-0.978206, 189, 57, 220, 120
-0.978254, 65, 241, 320, 368
-0.978313, 121, 1, 152, 128
-0.978316, 217, 57, 248, 120
-0.978345, 289, 57, 320, 120
-0.978386, 373, 41, 404, 104
-0.978448, 41, 145, 72, 208
-0.97861, 377, 257, 408, 320
-0.978623, 345, 97, 408, 352
-0.978642, 141, 1, 172, 64
-0.978701, 145, 49, 176, 176
-0.978891, 417, 49, 448, 112
-0.978978, 305, 297, 336, 360
-0.978986, 249, 105, 312, 168
-0.979067, 37, 129, 68, 256
-0.979068, 57, 41, 88, 104
-0.979092, 365, 241, 396, 368
-0.979153, 361, 65, 424, 128
-0.97923, 289, 65, 320, 192
-0.979233, 225, 161, 352, 288
-0.97929, 261, 129, 292, 192
-0.979291, 57, 137, 88, 200
-0.979334, 77, 137, 108, 200
-0.97952, 273, 265, 336, 328
-0.979542, 417, 265, 448, 328
-0.979561, 421, 225, 452, 352
-0.979574, 1, 81, 64, 208
-0.979618, 117, 41, 148, 104
-0.979621, 393, 305, 456, 368
-0.979674, 345, 193, 408, 320
-0.979717, 285, 305, 316, 368
-0.979879, 369, 113, 496, 176
-0.979929, 273, 17, 400, 80
-0.97996, 209, 105, 272, 168
-0.98001, 169, 49, 200, 112
-0.980041, 305, 49, 336, 176
-0.980072, 321, 73, 448, 136
-0.980073, 181, 49, 212, 176
-0.980093, 129, 113, 192, 176
-0.980186, 389, 273, 420, 336
-0.980224, 137, 161, 200, 224
-0.980348, 209, 201, 336, 264
-0.980358, 9, 129, 40, 256
-0.980406, 373, 297, 404, 360
-0.980489, 409, 113, 440, 176
-0.980489, 229, 9, 260, 72
-0.980704, 289, 313, 416, 375
-0.980707, 165, 137, 196, 200
-0.980721, 25, 41, 56, 104
-0.980789, 329, 9, 360, 72
-0.98086, 145, 137, 176, 200
-0.98087, 333, 305, 364, 368
-0.980897, 429, 241, 460, 304
-0.980941, 57, 57, 120, 120
-0.981002, 265, 297, 296, 360
-0.98107, 177, 137, 208, 200
-0.981106, 57, 129, 88, 256
-0.98112, 305, 233, 368, 296
-0.981127, 1, 41, 128, 104
-0.981142, 329, 97, 392, 160
-0.98116, 97, 313, 224, 375
-0.981223, 185, 73, 248, 136
-0.981252, 213, 113, 244, 240
-0.981253, 105, 33, 136, 96
-0.981282, 193, 49, 224, 176
-0.981362, 73, 1, 104, 128
-0.981365, 257, 201, 288, 264
-0.981373, 245, 305, 276, 368
-0.981374, 333, 121, 364, 184
-0.981387, 409, 225, 440, 352
-0.981461, 345, 121, 376, 184
-0.981523, 13, 1, 44, 128
-0.981552, 113, 137, 144, 200
-0.981573, 249, 9, 280, 72
-0.981583, 225, 273, 352, 336
-0.981671, 341, 241, 372, 368
-0.981748, 297, 1, 360, 256
-0.98175, 253, 209, 284, 336
-0.9818, 389, 241, 420, 368
-0.981825, 265, 113, 296, 240
-0.981841, 225, 65, 352, 128
-0.981922, 77, 129, 108, 256
-0.981949, 17, 161, 144, 224
-0.982036, 281, 281, 312, 344
-0.982076, 433, 225, 464, 352
-0.982099, 285, 121, 316, 184
-0.982255, 265, 1, 328, 256
-0.98234, 269, 9, 300, 72
-0.982439, 225, 129, 256, 256
-0.982529, 97, 313, 160, 375
-0.982545, 241, 185, 304, 248
-0.982588, 133, 49, 164, 176
-0.982604, 373, 113, 404, 176
-0.982634, 361, 89, 424, 152
-0.982685, 105, 1, 136, 128
-0.982725, 449, 225, 480, 352
-0.982779, 257, 217, 384, 280
-0.982876, 233, 233, 296, 296
-0.982891, 49, 57, 176, 120
-0.982939, 249, 129, 280, 192
-0.982949, 1, 121, 64, 184
-0.982951, 417, 1, 448, 64
-0.982992, 449, 65, 480, 128
-0.983, 317, 297, 348, 360
-0.983062, 193, 153, 256, 216
-0.983091, 345, 65, 376, 192
-0.983195, 89, 145, 120, 208
-0.983211, 405, 257, 436, 320
-0.983243, 201, 57, 232, 120
-0.983244, 417, 241, 448, 304
-0.983254, 273, 65, 400, 128
-0.983255, 309, 121, 340, 184
-0.983277, 385, 217, 448, 280
-0.983283, 405, 73, 436, 136
-0.983292, 297, 129, 360, 375
-0.983294, 337, 225, 464, 288
-0.983297, 321, 129, 384, 375
-0.983349, 137, 1, 200, 375
-0.983381, 157, 313, 188, 375
-0.983424, 265, 129, 328, 375
-0.983442, 157, 81, 188, 208
-0.983626, 237, 129, 268, 192
-0.983667, 361, 225, 424, 288
-0.983756, 201, 1, 232, 64
-0.983812, 313, 273, 344, 336
-0.983875, 397, 113, 428, 176
-0.983889, 233, 57, 264, 120
-0.983911, 97, 129, 128, 256
-0.983925, 369, 81, 496, 144
-0.983976, 97, 1, 128, 64
-0.983995, 5, 169, 36, 232
-0.984021, 161, 209, 288, 272
-0.984043, 209, 129, 272, 375
-0.98412, 353, 281, 384, 344
-0.984165, 433, 281, 464, 344
-0.984204, 377, 241, 408, 368
-0.984208, 361, 41, 392, 104
-0.984246, 357, 121, 388, 184
-0.984251, 465, 65, 496, 128
-0.984346, 161, 161, 224, 288
-0.984359, 93, 49, 124, 176
-0.984427, 37, 1, 68, 128
-0.984487, 65, 161, 192, 224
-0.984517, 93, 41, 124, 104
-0.984565, 209, 73, 272, 136
-0.984577, 337, 129, 400, 256
-0.984579, 401, 281, 432, 344
-0.984629, 153, 209, 216, 272
-0.984633, 225, 129, 256, 192
-0.98474, 293, 281, 324, 344
-0.984751, 257, 193, 384, 256
-0.984811, 369, 65, 400, 128
-0.98482, 321, 121, 352, 184
-0.984831, 317, 9, 348, 72
-0.984885, 241, 97, 304, 352
-0.984902, 129, 49, 160, 112
-0.984908, 1, 1, 64, 375
-0.984959, 269, 217, 300, 280
-0.984994, 425, 297, 488, 360
-0.984998, 449, 273, 480, 336
-0.985018, 233, 289, 264, 352
-0.985035, 169, 65, 200, 192
-0.985059, 137, 129, 168, 256
-0.985135, 273, 249, 400, 312
-0.985191, 65, 49, 96, 176
-0.985235, 285, 241, 316, 368
-0.985481, 377, 97, 440, 352
-0.985514, 25, 1, 88, 375
-0.985573, 117, 65, 148, 192
-0.985593, 145, 65, 272, 128
-0.985783, 277, 113, 308, 240
-0.985786, 433, 177, 496, 304
-0.985822, 389, 97, 420, 224
-0.985903, 129, 33, 384, 96
-0.985928, 197, 129, 228, 256
-0.986022, 241, 209, 272, 336
-0.986037, 265, 193, 296, 320
-0.986066, 81, 113, 144, 176
-0.986255, 245, 113, 276, 240
-0.986321, 129, 153, 256, 216
-0.986435, 273, 145, 336, 208
-0.986533, 461, 225, 492, 352
-0.986548, 385, 1, 448, 375
-0.98676, 121, 113, 152, 240
-0.98677, 417, 97, 480, 224
-0.986808, 105, 113, 168, 176
-0.986987, 337, 217, 400, 280
-0.986989, 177, 105, 304, 168
-0.987067, 417, 1, 480, 375
-0.98708, 1, 177, 64, 304
-0.987084, 329, 241, 360, 368
-0.987088, 297, 241, 328, 368
-0.987154, 273, 185, 336, 248
-0.987159, 305, 145, 368, 208
-0.987166, 337, 313, 464, 375
-0.987175, 229, 241, 260, 368
-0.987197, 393, 129, 456, 256
-0.987324, 105, 1, 168, 375
-0.98733, 285, 193, 316, 320
-0.987434, 137, 33, 200, 64
-0.987475, 337, 1, 400, 375
-0.987475, 309, 113, 340, 240
-0.987508, 81, 113, 208, 176
-0.987524, 369, 137, 432, 200
-0.987537, 213, 209, 244, 336
-0.98758, 161, 105, 224, 168
-0.987582, 305, 1, 368, 375
-0.987588, 137, 73, 200, 136
-0.987589, 433, 45, 496, 76
-0.987656, 269, 241, 300, 368
-0.987761, 233, 153, 296, 216
-0.987804, 305, 209, 368, 272
-0.987826, 129, 193, 256, 320
-0.98786, 93, 1, 124, 128
-0.98797, 225, 241, 352, 304
-0.9881, 137, 21, 200, 52
-0.988116, 1, 177, 128, 304
-0.988132, 225, 41, 288, 72
-0.988147, 273, 241, 336, 304
-0.988207, 385, 45, 448, 76
-0.988218, 169, 153, 232, 216
-0.988236, 57, 41, 120, 72
-0.988256, 169, 41, 232, 72
-0.98826, 185, 113, 216, 240
-0.988276, 425, 33, 488, 64
-0.988332, 425, 209, 488, 272
-0.98838, 345, 29, 408, 60
-0.98842, 401, 97, 432, 224
-0.98843, 257, 97, 384, 160
-0.988433, 385, 29, 448, 60
-0.988445, 309, 225, 340, 352
-0.988536, 161, 225, 224, 352
-0.98854, 185, 105, 248, 168
-0.988555, 421, 81, 452, 208
-0.98857, 109, 129, 140, 256
-0.988583, 217, 1, 280, 375
-0.988618, 105, 49, 168, 80
-0.988645, 177, 29, 240, 60
-0.988652, 33, 33, 96, 64
-0.988831, 361, 1, 424, 375
-0.988884, 105, 141, 168, 172
-0.988889, 33, 25, 288, 88
-0.98892, 153, 53, 216, 84
-0.988981, 289, 65, 352, 96
-0.989016, 265, 33, 328, 64
-0.98905, 161, 185, 288, 248
-0.98907, 113, 37, 176, 68
-0.989105, 409, 57, 472, 88
-0.989114, 201, 241, 232, 368
-0.98913, 361, 49, 424, 80
-0.98913, 345, 13, 408, 44
-0.989169, 1, 33, 500, 96
-0.989183, 377, 121, 440, 152
-0.989198, 193, 41, 256, 72
-0.989202, 321, 29, 384, 60
-0.989209, 337, 293, 400, 324
-0.989211, 209, 29, 272, 60
-0.989225, 297, 193, 328, 320
-0.989267, 329, 261, 392, 292
-0.989267, 257, 9, 500, 72
-0.989315, 81, 49, 112, 176
-0.989315, 25, 121, 88, 184
-0.989342, 1, 1, 256, 64
-0.98935, 137, 141, 200, 172
-0.989353, 321, 49, 384, 80
-0.989401, 33, 21, 96, 52
-0.989414, 49, 1, 112, 375
-0.989415, 289, 113, 320, 240
-0.989463, 409, 45, 472, 76
-0.989463, 73, 145, 136, 176
-0.989478, 1, 33, 64, 64
-0.989517, 105, 153, 168, 184
-0.989563, 337, 305, 400, 336
-0.989571, 353, 193, 384, 320
-0.989593, 73, 157, 136, 188
-0.989602, 57, 29, 120, 60
-0.989613, 41, 165, 104, 196
-0.98962, 81, 41, 144, 72
-0.989635, 177, 137, 240, 168
-0.989656, 305, 309, 368, 340
-0.989666, 313, 125, 376, 156
-0.989667, 433, 57, 496, 88
-0.989684, 353, 121, 416, 152
-0.989687, 37, 81, 68, 208
-0.989696, 433, 241, 496, 272
-0.989712, 33, 149, 96, 180
-0.989715, 33, 53, 96, 84
-0.989757, 193, 53, 256, 84
-0.989781, 105, 49, 136, 176
-0.9898, 369, 289, 432, 320
-0.989804, 273, 97, 336, 160
-0.98981, 177, 233, 304, 296
-0.98982, 265, 129, 328, 160
-0.98983, 161, 329, 224, 360
-0.989837, 305, 273, 368, 304
-0.989846, 337, 277, 400, 308
-0.9899, 265, 61, 328, 92
-0.99, 209, 137, 272, 168
-0.990001, 241, 329, 304, 360
-0.990003, 377, 193, 408, 320
-0.990007, 305, 285, 368, 316
-0.990018, 369, 277, 432, 308
-0.990046, 409, 117, 472, 148
-0.990067, 217, 329, 280, 360
-0.990072, 369, 301, 432, 332
-0.990073, 265, 1, 328, 375
-0.990075, 97, 161, 160, 288
-0.990076, 369, 261, 432, 292
-0.990082, 9, 153, 72, 184
-0.990151, 225, 233, 288, 264
-0.990156, 241, 145, 368, 208
-0.990186, 185, 321, 248, 352
-0.990193, 229, 193, 260, 320
-0.9902, 241, 61, 304, 92
-0.990203, 201, 341, 264, 372
-0.990222, 273, 325, 336, 356
-0.990222, 145, 289, 272, 352
-0.990229, 25, 97, 88, 352
-0.990248, 97, 209, 224, 272
-0.990272, 401, 245, 464, 276
-0.990275, 17, 165, 80, 196
-0.990278, 129, 305, 384, 368
-0.990292, 129, 1, 384, 64
-0.990294, 321, 137, 448, 200
-0.990298, 161, 1, 224, 375
-0.990318, 377, 113, 408, 240
-0.990319, 225, 345, 288, 375
-0.990346, 345, 65, 408, 96
-0.990385, 265, 205, 328, 236
-0.990394, 425, 17, 488, 48
-0.990414, 129, 53, 192, 84
-0.990432, 161, 345, 224, 375
-0.990437, 33, 113, 160, 176
-0.990437, 193, 1, 256, 375
-0.990439, 289, 125, 352, 156
-0.990439, 201, 309, 264, 340
-0.990443, 1, 177, 64, 208
-0.990463, 81, 57, 144, 88
-0.990471, 9, 21, 72, 52
-0.990478, 57, 53, 120, 84
-0.990485, 401, 293, 464, 324
-0.990492, 73, 1, 136, 375
-0.990496, 249, 317, 312, 348
-0.990515, 321, 17, 384, 48
-0.990519, 1, 45, 64, 76
-0.990535, 113, 325, 176, 356
-0.990549, 289, 37, 352, 68
-0.990561, 401, 269, 464, 300
-0.990574, 241, 289, 304, 320
-0.990588, 1, 129, 64, 375
-0.99059, 1, 137, 256, 200
-0.990593, 305, 321, 368, 352
-0.990595, 377, 13, 440, 44
-0.9906, 177, 153, 304, 216
-0.990621, 305, 297, 368, 328
-0.990633, 193, 245, 256, 276
-0.990639, 105, 345, 168, 375
-0.990654, 233, 29, 296, 60
-0.990657, 417, 69, 480, 100
-0.990673, 137, 317, 200, 348
-0.990674, 433, 281, 496, 312
-0.990681, 137, 9, 200, 40
-0.990691, 73, 337, 136, 368
-0.990691, 233, 133, 296, 164
-0.990701, 129, 153, 192, 184
-0.990754, 33, 5, 96, 36
-0.990763, 257, 341, 320, 372
-0.99078, 161, 309, 224, 340
-0.990784, 81, 97, 144, 352
-0.990797, 273, 313, 336, 344
-0.9908, 53, 49, 84, 176
-0.990809, 401, 13, 464, 44
-0.990816, 233, 301, 296, 332
-0.99083, 321, 65, 384, 96
-0.990831, 369, 61, 432, 92
-0.990837, 297, 49, 360, 80
-0.990846, 433, 253, 496, 284
-0.990849, 249, 49, 312, 80
-0.990855, 241, 1, 304, 375
-0.990864, 129, 337, 192, 368
-0.990873, 241, 201, 304, 232
-0.990887, 281, 277, 344, 308
-0.990906, 193, 281, 448, 344
-0.990907, 81, 29, 144, 60
-0.990914, 153, 153, 216, 184
-0.990935, 257, 33, 500, 96
-0.990946, 401, 257, 464, 288
-0.990967, 265, 293, 328, 324
-0.990968, 329, 325, 392, 356
-0.990986, 409, 281, 472, 312
-0.991042, 393, 69, 456, 100
-0.991044, 9, 1, 72, 32
-0.991048, 433, 265, 496, 296
-0.991104, 241, 213, 304, 244
-0.991141, 225, 317, 288, 348
-0.991148, 169, 13, 232, 44
-0.991172, 369, 249, 432, 280
-0.991183, 1, 9, 500, 72
-0.991187, 129, 105, 256, 168
-0.991325, 129, 33, 256, 64
-0.991329, 225, 121, 480, 184
-0.991386, 1, 1, 32, 128
-0.991562, 173, 113, 204, 240
-0.991741, 149, 41, 180, 72
-0.991826, 33, 49, 288, 112
-0.991831, 365, 81, 396, 208
-0.99188, 449, 29, 480, 60
-0.991952, 245, 161, 276, 288
-0.991979, 225, 305, 480, 368
-0.992005, 97, 129, 352, 192
-0.992009, 329, 49, 360, 80
-0.992026, 161, 41, 192, 72
-0.992033, 161, 25, 192, 56
-0.992033, 171, 17, 186, 80
-0.992044, 169, 97, 232, 352
-0.992058, 1, 33, 128, 64
-0.992084, 65, 21, 96, 52
-0.992091, 417, 41, 448, 72
-0.992091, 133, 41, 164, 72
-0.992092, 49, 33, 80, 64
-0.9921, 97, 73, 224, 136
-0.992103, 369, 29, 400, 60
-0.992113, 25, 33, 56, 64
-0.992116, 385, 37, 416, 68
-0.992127, 173, 29, 204, 60
-0.992129, 53, 21, 84, 52
-0.992149, 253, 45, 284, 76
-0.992164, 437, 41, 468, 72
-0.992171, 233, 41, 264, 72
-0.992173, 405, 29, 436, 60
-0.99219, 65, 33, 96, 64
-0.992208, 281, 33, 296, 96
-0.992208, 25, 177, 88, 304
-0.992215, 1, 37, 32, 68
-0.992219, 401, 41, 432, 72
-0.992219, 149, 25, 180, 56
-0.992224, 153, 57, 184, 88
-0.992224, 77, 33, 108, 64
-0.992232, 37, 17, 68, 48
-0.992233, 331, 41, 346, 104
-0.992257, 401, 117, 432, 148
-0.992258, 299, 33, 314, 96
-0.992262, 405, 53, 436, 84
-0.992264, 329, 37, 360, 68
-0.992265, 321, 29, 448, 60
-0.992275, 273, 33, 304, 64
-0.992277, 329, 61, 360, 92
-0.992283, 197, 41, 228, 72
-0.992288, 209, 33, 240, 64
-0.99229, 465, 41, 496, 72
-0.992302, 417, 29, 448, 60
-0.992312, 385, 49, 416, 80
-0.992317, 25, 17, 56, 48
-0.992328, 309, 33, 324, 96
-0.992331, 77, 21, 108, 52
-0.992339, 211, 33, 226, 96
-0.992369, 337, 201, 464, 264
-0.99237, 349, 37, 380, 68
-0.992372, 105, 41, 136, 72
-0.992374, 317, 49, 348, 80
-0.992376, 321, 81, 352, 208
-0.992378, 333, 309, 364, 340
-0.992383, 273, 33, 288, 96
-0.992398, 141, 53, 172, 84
-0.992399, 349, 13, 380, 44
-0.992416, 317, 33, 348, 64
-0.992428, 273, 201, 304, 232
-0.992439, 1, 81, 32, 208
-0.992449, 353, 257, 384, 288
-0.992449, 37, 29, 68, 60
-0.992464, 457, 53, 488, 84
-0.992464, 245, 33, 276, 64
-0.992471, 293, 33, 308, 96
-0.992475, 437, 53, 468, 84
-0.992478, 265, 45, 296, 76
-0.9925, 93, 157, 124, 188
-0.9925, 437, 29, 468, 60
-0.992512, 277, 65, 308, 96
-0.992513, 25, 45, 56, 76
-0.992515, 305, 33, 336, 64
-0.992522, 185, 57, 216, 88
-0.99253, 465, 65, 496, 96
-0.99253, 377, 285, 408, 316
-0.992536, 173, 41, 204, 72
-0.992538, 361, 121, 392, 152
-0.992539, 265, 57, 296, 88
-0.99254, 129, 153, 160, 184
-0.992541, 169, 57, 200, 88
-0.992542, 201, 193, 232, 320
-0.992546, 73, 45, 104, 76
-0.992549, 229, 29, 260, 60
-0.992557, 389, 193, 420, 320
-0.992557, 61, 161, 92, 192
-0.992562, 125, 141, 156, 172
-0.992563, 217, 241, 248, 272
-0.992563, 333, 289, 364, 320
-0.992564, 93, 145, 124, 176
-0.992566, 345, 113, 376, 240
-0.992573, 213, 53, 244, 84
-0.992576, 53, 17, 68, 80
-0.992579, 401, 97, 464, 352
-0.992581, 401, 285, 432, 316
-0.992584, 321, 125, 352, 156
-0.992594, 239, 41, 254, 104
-0.992596, 417, 53, 448, 84
-0.992604, 309, 65, 340, 96
-0.992606, 129, 53, 160, 84
-0.992612, 41, 17, 56, 80
-0.992612, 37, 41, 68, 72
-0.992624, 21, 177, 52, 208
-0.992625, 257, 201, 288, 232
-0.99263, 193, 29, 224, 60
-0.99263, 1, 153, 32, 184
-0.992633, 199, 33, 214, 96
-0.992634, 369, 45, 400, 76
-0.992636, 13, 33, 44, 64
-0.992637, 49, 149, 80, 180
-0.992639, 49, 177, 112, 304
-0.992641, 329, 269, 360, 300
-0.992643, 469, 53, 500, 84
-0.992646, 469, 29, 500, 60
-0.992648, 245, 57, 276, 88
-0.992649, 293, 65, 324, 96
-0.99265, 185, 41, 216, 72
-0.992655, 285, 33, 316, 64
-0.992662, 93, 49, 124, 80
-0.992673, 377, 257, 408, 288
-0.992674, 109, 145, 140, 176
-0.992674, 265, 329, 296, 360
-0.992682, 377, 269, 408, 300
-0.992685, 241, 345, 272, 375
-0.992686, 233, 61, 264, 92
-0.992688, 457, 17, 488, 48
-0.992692, 233, 333, 264, 364
-0.992701, 149, 9, 180, 40
-0.992704, 141, 141, 172, 172
-0.992707, 437, 241, 468, 272
-0.992708, 389, 121, 420, 152
-0.992709, 29, 17, 44, 80
-0.992711, 13, 45, 44, 76
-0.992712, 353, 293, 384, 324
-0.992714, 225, 37, 352, 68
-0.992715, 417, 41, 432, 104
-0.992717, 261, 213, 292, 244
-0.992727, 49, 49, 80, 80
-0.992731, 349, 125, 380, 156
-0.992733, 65, 17, 80, 80
-0.992733, 81, 145, 112, 176
-0.992736, 315, 33, 330, 96
-0.992743, 25, 1, 56, 32
-0.992749, 373, 297, 404, 328
-0.992754, 277, 129, 308, 160
-0.992754, 177, 137, 208, 168
-0.992756, 29, 153, 60, 184
-0.992758, 1, 173, 32, 204
-0.992758, 389, 285, 420, 316
-0.99276, 17, 165, 48, 196
-0.992762, 257, 33, 288, 64
-0.992764, 285, 325, 316, 356
-0.992765, 197, 141, 228, 172
-0.992765, 309, 317, 340, 348
-0.992766, 37, 53, 68, 84
-0.992768, 257, 57, 500, 120
-0.992773, 29, 165, 60, 196
-0.992774, 121, 41, 152, 72
-0.992774, 245, 329, 276, 360
-0.992776, 61, 149, 92, 180
-0.992779, 77, 165, 108, 196
-0.992781, 413, 117, 444, 148
-0.992819, 429, 25, 444, 88
-0.992823, 181, 25, 196, 88
-0.992845, 191, 33, 206, 96
-0.992853, 1, 65, 128, 128
-0.992882, 49, 313, 176, 375
-0.992894, 459, 25, 474, 88
-0.992946, 165, 25, 180, 88
-0.992965, 97, 289, 224, 352
-0.992982, 377, 25, 392, 88
-0.993022, 49, 129, 112, 375
-0.993082, 471, 41, 486, 104
-0.993106, 49, 193, 176, 256
-0.993156, 149, 129, 180, 256
-0.993164, 221, 25, 236, 88
-0.993174, 13, 81, 44, 208
-0.993182, 407, 25, 422, 88
-0.993183, 229, 33, 244, 96
-0.993189, 65, 49, 192, 80
-0.993213, 321, 281, 448, 312
-0.993223, 161, 57, 416, 120
-0.993228, 97, 141, 224, 172
-0.993251, 237, 17, 252, 80
-0.993252, 185, 161, 216, 288
-0.993363, 129, 57, 256, 88
-0.993369, 89, 17, 104, 80
-0.993447, 321, 297, 448, 328
-0.993489, 321, 41, 336, 104
-0.993494, 177, 49, 304, 80
-0.993497, 341, 33, 356, 96
-0.993563, 321, 265, 448, 296
-0.993579, 21, 25, 36, 88
-0.99359, 79, 25, 94, 88
-0.993606, 321, 117, 448, 148
-0.993638, 33, 161, 288, 224
-0.993708, 1, 137, 500, 200
-0.993739, 425, 97, 488, 352
-0.993752, 71, 1, 86, 64
-0.99376, 225, 65, 352, 96
-0.99376, 205, 33, 220, 96
-0.99376, 161, 129, 192, 256
-0.993768, 417, 17, 432, 80
-0.993792, 353, 253, 480, 284
-0.993808, 249, 41, 264, 104
-0.993824, 49, 145, 176, 176
-0.99385, 1, 21, 128, 52
-0.993856, 287, 33, 302, 96
-0.993887, 65, 21, 192, 52
-0.993919, 1, 45, 128, 76
-0.99396, 321, 13, 448, 44
-0.993971, 241, 289, 368, 320
-0.993975, 155, 33, 170, 96
-0.994046, 209, 177, 336, 240
-0.99405, 437, 177, 468, 304
-0.994054, 97, 329, 224, 360
-0.994073, 369, 17, 496, 48
-0.994094, 193, 217, 448, 280
-0.994115, 59, 17, 74, 80
-0.994122, 369, 29, 496, 60
-0.994124, 193, 133, 320, 164
-0.994144, 145, 137, 272, 168
-0.994151, 449, 177, 480, 304
-0.994158, 173, 41, 188, 104
-0.99416, 321, 41, 448, 72
-0.994187, 369, 265, 496, 296
-0.994209, 35, 25, 50, 88
-0.994222, 177, 257, 304, 320
-0.99424, 1, 185, 128, 248
-0.994242, 485, 41, 500, 104
-0.994246, 71, 25, 86, 88
-0.99426, 439, 9, 454, 72
-0.994296, 481, 9, 496, 72
-0.994304, 469, 9, 484, 72
-0.994305, 225, 257, 480, 320
-0.994327, 321, 309, 448, 340
-0.994336, 243, 17, 258, 80
-0.994345, 1, 33, 16, 96
-0.994354, 47, 25, 62, 88
-0.994369, 35, 1, 50, 64
-0.994378, 49, 5, 176, 36
-0.994387, 113, 45, 240, 76
-0.994396, 155, 1, 170, 64
-0.9944, 49, 345, 176, 375
-0.9944, 127, 41, 142, 104
-0.994414, 273, 305, 400, 336
-0.994426, 219, 49, 234, 112
-0.994429, 267, 49, 282, 112
-0.994429, 307, 57, 322, 120
-0.994459, 213, 161, 244, 288
-0.994462, 273, 21, 400, 52
-0.994475, 345, 281, 360, 344
-0.994489, 21, 145, 36, 208
-0.994496, 97, 185, 224, 248
-0.9945, 5, 177, 36, 304
-0.994512, 273, 273, 400, 304
-0.994513, 181, 1, 196, 64
-0.994523, 377, 281, 392, 344
-0.994525, 449, 41, 464, 104
-0.994526, 451, 9, 466, 72
-0.994563, 167, 49, 182, 112
-0.994571, 145, 313, 272, 344
-0.994575, 21, 1, 36, 64
-0.994599, 47, 1, 62, 64
-0.994603, 177, 33, 304, 64
-0.99462, 411, 49, 426, 112
-0.994635, 11, 33, 26, 96
-0.994639, 387, 9, 402, 72
-0.994652, 45, 145, 60, 208
-0.994668, 83, 1, 98, 64
-0.994688, 1, 145, 16, 208
-0.994694, 321, 69, 448, 100
-0.994695, 1, 153, 128, 184
-0.994699, 409, 177, 440, 304
-0.99471, 49, 37, 176, 68
-0.994713, 185, 49, 200, 112
-0.994726, 81, 61, 208, 92
-0.994733, 135, 49, 150, 112
-0.994735, 333, 97, 364, 224
-0.994761, 161, 345, 288, 375
-0.994773, 29, 145, 44, 208
-0.994803, 289, 57, 304, 120
-0.994816, 113, 41, 128, 104
-0.994842, 61, 41, 76, 104
-0.99485, 193, 201, 320, 232
-0.994867, 367, 9, 382, 72
-0.994868, 179, 49, 194, 112
-0.994874, 97, 33, 112, 96
-0.99488, 53, 145, 68, 208
-0.994899, 15, 145, 30, 208
-0.994899, 129, 241, 384, 304
-0.994906, 77, 1, 92, 64
-0.994908, 209, 129, 224, 192
-0.994918, 121, 33, 136, 96
-0.994918, 299, 57, 314, 120
-0.994924, 225, 129, 240, 192
-0.994926, 387, 41, 402, 104
-0.994939, 273, 125, 400, 156
-0.994942, 133, 137, 148, 200
-0.994968, 369, 137, 496, 200
-0.994969, 367, 41, 382, 104
-0.994975, 369, 297, 496, 328
-0.995013, 145, 33, 160, 96
-0.995031, 275, 57, 290, 120
-0.995033, 219, 1, 234, 64
-0.995097, 205, 57, 220, 120
-0.995112, 1, 165, 128, 196
-0.995115, 397, 9, 412, 72
-0.995116, 145, 1, 160, 64
-0.995134, 33, 313, 288, 375
-0.995149, 191, 57, 206, 120
-0.995153, 289, 9, 304, 72
-0.995154, 259, 289, 274, 352
-0.995166, 41, 41, 56, 104
-0.995169, 225, 97, 480, 160
-0.99517, 423, 41, 438, 104
-0.995175, 241, 317, 368, 348
-0.995185, 25, 81, 56, 208
-0.995186, 305, 121, 320, 184
-0.995188, 283, 57, 298, 120
-0.995188, 379, 257, 394, 320
-0.995193, 161, 325, 288, 356
-0.995194, 109, 137, 124, 200
-0.995208, 177, 61, 304, 92
-0.995219, 231, 1, 246, 64
-0.995237, 475, 9, 490, 72
-0.99524, 205, 1, 220, 64
-0.995249, 315, 57, 330, 120
-0.995253, 343, 121, 358, 184
-0.995265, 145, 9, 272, 40
-0.995266, 7, 153, 22, 216
-0.995268, 219, 129, 234, 192
-0.995268, 145, 21, 272, 52
-0.995276, 249, 1, 264, 64
-0.995307, 213, 57, 228, 120
-0.995328, 99, 1, 114, 64
-0.995334, 197, 57, 212, 120
-0.995336, 423, 9, 438, 72
-0.995363, 417, 113, 432, 176
-0.995365, 341, 57, 356, 120
-0.995369, 191, 1, 206, 64
-0.995371, 35, 145, 50, 208
-0.99538, 405, 65, 420, 128
-0.995381, 97, 345, 224, 375
-0.995387, 299, 121, 314, 184
-0.995393, 17, 177, 48, 304
-0.995412, 365, 193, 396, 320
-0.995414, 429, 65, 444, 128
-0.995416, 275, 9, 290, 72
-0.995417, 261, 129, 276, 192
-0.995419, 385, 113, 400, 176
-0.995436, 257, 53, 384, 84
-0.995447, 369, 285, 496, 316
-0.995452, 355, 257, 370, 320
-0.995459, 75, 49, 90, 112
-0.995459, 81, 137, 96, 200
-0.995464, 161, 49, 176, 112
-0.995466, 445, 97, 476, 224
-0.995481, 273, 69, 400, 100
-0.995487, 241, 213, 368, 244
-0.995495, 273, 33, 400, 64
-0.995497, 273, 329, 400, 360
-0.995498, 1, 305, 500, 368
-0.99555, 369, 117, 496, 148
-0.995569, 193, 297, 320, 328
-0.995606, 193, 233, 320, 264
-0.995732, 209, 345, 336, 375
-0.99579, 1, 57, 500, 120
-0.99582, 133, 1, 164, 256
-0.995869, 49, 157, 176, 188
-0.99588, 369, 1, 400, 256
-0.995906, 389, 1, 420, 256
-0.995912, 353, 241, 480, 272
-0.995927, 197, 1, 228, 256
-0.99594, 305, 53, 432, 84
-0.995983, 209, 329, 336, 360
-0.996022, 177, 213, 304, 244
-0.996049, 65, 105, 320, 168
-0.996071, 209, 21, 336, 52
-0.996084, 193, 313, 320, 344
-0.99612, 129, 73, 256, 104
-0.996154, 129, 153, 384, 216
-0.996154, 349, 1, 380, 256
-0.99618, 105, 129, 168, 375
-0.996214, 369, 129, 496, 160
-0.996285, 333, 33, 348, 64
-0.996297, 113, 153, 240, 184
-0.9963, 33, 201, 288, 264
-0.996308, 241, 201, 368, 232
-0.996324, 83, 21, 98, 52
-0.996338, 1, 177, 128, 208
-0.996346, 209, 1, 240, 256
-0.996348, 273, 261, 400, 292
-0.996375, 17, 57, 144, 88
-0.996397, 271, 33, 286, 64
-0.996409, 171, 33, 186, 64
-0.996417, 117, 1, 148, 256
-0.996441, 369, 309, 496, 340
-0.996442, 49, 177, 176, 304
-0.996445, 1, 141, 128, 172
-0.996447, 413, 1, 444, 256
-0.996454, 73, 1, 104, 256
-0.996502, 5, 1, 36, 256
-0.996551, 53, 33, 68, 64
-0.996554, 281, 45, 296, 76
-0.996569, 197, 29, 212, 60
-0.99657, 217, 37, 232, 68
-0.996579, 417, 41, 432, 72
-0.996595, 181, 1, 212, 256
-0.996604, 271, 45, 286, 76
-0.996611, 1, 281, 500, 344
-0.996629, 187, 29, 202, 60
-0.996635, 193, 77, 320, 108
-0.996655, 87, 33, 102, 64
-0.996657, 237, 37, 252, 68
-0.99666, 401, 1, 432, 256
-0.996662, 181, 41, 196, 72
-0.996664, 241, 9, 368, 40
-0.996678, 1, 113, 500, 176
-0.996683, 37, 1, 68, 256
-0.996699, 153, 1, 184, 256
-0.996725, 465, 1, 496, 256
-0.996725, 47, 17, 62, 48
-0.996725, 129, 193, 384, 256
-0.996727, 331, 49, 346, 80
-0.996733, 1, 5, 128, 36
-0.996737, 321, 137, 448, 168
-0.99674, 163, 41, 178, 72
-0.996742, 303, 37, 318, 68
-0.996746, 11, 37, 26, 68
-0.996751, 243, 41, 258, 72
-0.996751, 57, 33, 88, 288
-0.996755, 257, 81, 384, 112
-0.996757, 27, 13, 42, 44
-0.996763, 181, 29, 196, 60
-0.996764, 305, 49, 320, 80
-0.996766, 73, 41, 88, 72
-0.996775, 61, 37, 76, 68
-0.99678, 65, 73, 320, 136
-0.996791, 49, 169, 176, 200
-0.996792, 31, 29, 46, 60
-0.996794, 187, 41, 202, 72
-0.996794, 287, 33, 302, 64
-0.996809, 127, 45, 142, 76
-0.996819, 319, 45, 334, 76
-0.996823, 145, 129, 208, 375
-0.996825, 337, 229, 464, 260
-0.996828, 59, 21, 74, 52
-0.996833, 1, 37, 16, 68
-0.996836, 103, 41, 118, 72
-0.996846, 297, 45, 312, 76
-0.996856, 317, 33, 332, 64
-0.99686, 287, 45, 302, 76
-0.996861, 23, 45, 38, 76
-0.996864, 311, 41, 326, 72
-0.996866, 173, 45, 188, 76
-0.99687, 113, 233, 240, 296
-0.996882, 369, 41, 496, 72
-0.99689, 173, 21, 188, 52
-0.996894, 229, 41, 244, 72
-0.996918, 37, 17, 52, 48
-0.996927, 89, 21, 104, 52
-0.996928, 97, 41, 112, 72
-0.99695, 21, 33, 36, 64
-0.996953, 113, 41, 128, 72
-0.996955, 17, 1, 48, 256
-0.996964, 207, 41, 222, 72
-0.99698, 195, 41, 210, 72
-0.996984, 441, 1, 472, 256
-0.996987, 321, 321, 448, 352
-0.99699, 277, 33, 292, 64
-0.996999, 45, 29, 60, 60
-0.996999, 289, 237, 416, 268
-0.997001, 153, 53, 168, 84
-0.997012, 341, 37, 356, 68
-0.997015, 271, 57, 286, 88
-0.997032, 293, 33, 308, 64
-0.997032, 135, 45, 150, 76
-0.997033, 209, 29, 224, 60
-0.997043, 165, 21, 180, 52
-0.99705, 325, 53, 340, 84
-0.997051, 161, 153, 288, 184
-0.997057, 169, 1, 200, 256
-0.997066, 247, 29, 262, 60
-0.99707, 53, 21, 68, 52
-0.997079, 119, 41, 134, 72
-0.997088, 97, 281, 352, 344
-0.997092, 79, 33, 94, 64
-0.997096, 221, 241, 236, 272
-0.99712, 325, 37, 340, 68
-0.997124, 449, 29, 464, 60
-0.997163, 237, 49, 252, 80
-0.997166, 97, 317, 224, 348
-0.997171, 39, 33, 54, 64
-0.997174, 429, 1, 460, 256
-0.997184, 257, 249, 384, 280
-0.997185, 145, 301, 272, 332
-0.997186, 1, 217, 500, 280
-0.99719, 407, 29, 422, 60
-0.997192, 275, 205, 290, 236
-0.997193, 237, 1, 268, 256
-0.997195, 257, 341, 384, 372
-0.997196, 257, 149, 384, 180
-0.99721, 187, 53, 202, 84
-0.997212, 67, 21, 82, 52
-0.997225, 289, 57, 304, 88
-0.997225, 79, 45, 94, 76
-0.99723, 81, 73, 208, 104
-0.997236, 49, 333, 176, 364
-0.997246, 93, 1, 124, 256
-0.99725, 45, 41, 60, 72
-0.997256, 1, 209, 128, 272
-0.997261, 143, 45, 158, 76
-0.997273, 197, 57, 212, 88
-0.997275, 105, 1, 136, 256
-0.99728, 223, 29, 238, 60
-0.997289, 209, 53, 224, 84
-0.997291, 429, 33, 444, 64
-0.997298, 329, 1, 360, 256
-0.99732, 367, 25, 382, 56
-0.997324, 201, 41, 216, 72
-0.997351, 279, 57, 294, 88
-0.997355, 453, 1, 484, 256
-0.997359, 387, 29, 402, 60
-0.99736, 471, 29, 486, 60
-0.99736, 67, 33, 82, 64
-0.997361, 307, 61, 322, 92
-0.997363, 97, 129, 224, 160
-0.997368, 369, 65, 496, 96
-0.997375, 153, 41, 168, 72
-0.997381, 333, 61, 348, 92
-0.997397, 447, 41, 462, 72
-0.997401, 73, 25, 88, 56
-0.997415, 233, 25, 248, 56
-0.997423, 241, 225, 368, 256
-0.997424, 221, 1, 252, 256
-0.997424, 29, 1, 44, 32
-0.997425, 417, 29, 432, 60
-0.997427, 29, 41, 44, 72
-0.997433, 97, 209, 224, 240
-0.997437, 415, 117, 430, 148
-0.997437, 227, 241, 242, 272
-0.99746, 161, 245, 288, 276
-0.997463, 417, 57, 432, 88
-0.997479, 113, 165, 240, 196
-0.99748, 315, 61, 330, 92
-0.997486, 109, 145, 124, 176
-0.997489, 345, 289, 360, 320
-0.997489, 301, 61, 316, 92
-0.997497, 361, 97, 392, 352
-0.997517, 89, 45, 104, 76
-0.997519, 249, 41, 264, 72
-0.997519, 471, 41, 486, 72
-0.997522, 339, 49, 354, 80
-0.997528, 471, 17, 486, 48
-0.997532, 1, 341, 128, 372
-0.997556, 485, 57, 500, 88
-0.997557, 1, 249, 500, 312
-0.997558, 345, 269, 360, 300
-0.99756, 49, 133, 176, 164
-0.997564, 389, 41, 404, 72
-0.997565, 365, 37, 380, 68
-0.997568, 35, 45, 50, 76
-0.997568, 385, 97, 416, 352
-0.997569, 239, 25, 254, 56
-0.99757, 167, 57, 182, 88
-0.99758, 147, 141, 162, 172
-0.997585, 459, 29, 474, 60
-0.997586, 61, 53, 76, 84
-0.997591, 379, 297, 394, 328
-0.997608, 161, 53, 176, 84
-0.997609, 97, 9, 224, 40
-0.997611, 55, 45, 70, 76
-0.997615, 67, 45, 82, 76
-0.997624, 341, 61, 356, 92
-0.997627, 261, 341, 276, 372
-0.99763, 95, 25, 110, 56
-0.99763, 17, 153, 32, 184
-0.997637, 377, 29, 392, 60
-0.997637, 257, 169, 384, 232
-0.997647, 305, 81, 432, 112
-0.99765, 3, 153, 18, 184
-0.997659, 323, 65, 338, 96
-0.997662, 367, 13, 382, 44
-0.997672, 175, 57, 190, 88
-0.997679, 265, 61, 280, 92
-0.997694, 249, 33, 280, 288
-0.997733, 1, 201, 128, 232
-0.997739, 353, 145, 480, 272
-0.997749, 49, 205, 176, 236
-0.997754, 269, 129, 300, 375
-0.997775, 321, 1, 448, 32
-0.997808, 369, 53, 496, 84
-0.997847, 349, 97, 380, 352
-0.997879, 265, 33, 296, 288
-0.997924, 373, 129, 404, 375
-0.997936, 209, 245, 336, 276
-0.997942, 193, 285, 320, 316
-0.997981, 49, 289, 176, 352
-0.997984, 289, 129, 320, 375
-0.998013, 209, 153, 336, 184
-0.998061, 321, 345, 448, 375
-0.998071, 241, 113, 368, 144
-0.99808, 145, 197, 272, 228
-0.998084, 177, 121, 304, 152
-0.998111, 1, 81, 500, 144
-0.998124, 1, 305, 128, 368
-0.998128, 225, 145, 480, 208
-0.998149, 1, 161, 500, 224
-0.998185, 17, 69, 144, 100
-0.998227, 353, 85, 480, 116
-0.998244, 281, 1, 312, 256
-0.99834, 433, 51, 496, 66
-0.998356, 121, 51, 184, 66
-0.998356, 137, 25, 200, 40
-0.99836, 313, 1, 344, 256
-0.998368, 237, 129, 268, 375
-0.99837, 425, 45, 488, 60
-0.998373, 433, 57, 496, 72
-0.998381, 369, 287, 432, 302
-0.998382, 49, 43, 112, 58
-0.998387, 289, 225, 416, 256
-0.998393, 137, 41, 200, 56
-0.998399, 417, 65, 480, 80
-0.998401, 143, 1, 158, 128
-0.998403, 145, 225, 272, 256
-0.998403, 369, 321, 496, 352
-0.998405, 337, 105, 464, 136
-0.998405, 393, 45, 456, 60
-0.998406, 25, 45, 88, 60
-0.998407, 209, 39, 272, 54
-0.998408, 345, 29, 408, 44
-0.998408, 393, 59, 456, 74
-0.998409, 257, 129, 288, 375
-0.998413, 137, 35, 200, 50
-0.998416, 57, 49, 120, 64
-0.998416, 225, 47, 288, 62
-0.998419, 425, 33, 488, 48
-0.998419, 393, 51, 456, 66
-0.998425, 345, 41, 408, 56
-0.998426, 153, 55, 216, 70
-0.998429, 81, 45, 144, 60
-0.998438, 177, 33, 240, 48
-0.998442, 305, 289, 368, 304
-0.998444, 369, 301, 432, 316
-0.998444, 297, 311, 360, 326
-0.998444, 257, 137, 384, 168
-0.998445, 193, 45, 256, 60
-0.998445, 345, 297, 408, 312
-0.998447, 361, 51, 424, 66
-0.998447, 321, 33, 384, 48
-0.998449, 321, 49, 384, 64
-0.99845, 329, 303, 392, 318
-0.998453, 209, 339, 272, 354
-0.998453, 337, 285, 400, 300
-0.998458, 33, 19, 96, 34
-0.998459, 385, 31, 448, 46
-0.99846, 361, 57, 424, 72
-0.998461, 329, 309, 392, 324
-0.998464, 345, 263, 408, 278
-0.998465, 401, 97, 432, 352
-0.998469, 337, 279, 400, 294
-0.99847, 201, 33, 264, 48
-0.99847, 97, 51, 160, 66
-0.998471, 265, 35, 328, 50
-0.998473, 9, 19, 72, 34
-0.998474, 209, 353, 272, 368
-0.998477, 233, 41, 296, 56
-0.998477, 305, 325, 368, 340
-0.998481, 57, 147, 120, 162
-0.998482, 113, 45, 176, 60
-0.998483, 337, 291, 400, 306
-0.998483, 405, 33, 420, 160
-0.998485, 393, 281, 456, 296
-0.998486, 377, 121, 440, 136
-0.998487, 169, 1, 184, 128
-0.998487, 193, 51, 256, 66
-0.998488, 281, 213, 312, 228
-0.998488, 1, 43, 64, 58
-0.998488, 257, 211, 288, 226
-0.998488, 425, 37, 456, 52
-0.998489, 457, 253, 488, 268
-0.998489, 17, 179, 48, 194
-0.998489, 465, 243, 496, 258
-0.998489, 201, 319, 232, 334
-0.998489, 161, 45, 224, 60
-0.998491, 317, 309, 348, 324
-0.998492, 93, 147, 124, 162
-0.998492, 301, 289, 332, 304
-0.998492, 369, 59, 400, 74
-0.998492, 241, 201, 304, 216
-0.998493, 393, 35, 424, 50
-0.998493, 369, 269, 432, 284
-0.998494, 193, 33, 224, 48
-0.998494, 161, 23, 224, 38
-0.998494, 377, 277, 408, 292
-0.998494, 109, 45, 140, 60
-0.998496, 377, 305, 408, 320
-0.998496, 85, 43, 116, 58
-0.998496, 385, 39, 448, 54
-0.998496, 249, 327, 312, 342
-0.998496, 233, 35, 296, 50
-0.998496, 21, 153, 52, 168
-0.998497, 361, 63, 424, 78
-0.998497, 369, 279, 432, 294
-0.998497, 405, 127, 436, 142
-0.998498, 49, 15, 80, 30
-0.998499, 369, 53, 400, 68
-0.998499, 273, 319, 336, 334
-0.998499, 49, 25, 112, 40
-0.9985, 85, 359, 116, 374
-0.9985, 193, 361, 256, 375
-0.9985, 459, 1, 474, 128
-0.998501, 257, 205, 288, 220
-0.998502, 53, 175, 84, 190
-0.998502, 273, 329, 336, 344
-0.998502, 297, 305, 360, 320
-0.998502, 321, 329, 352, 344
-0.998502, 369, 295, 432, 310
-0.998502, 177, 325, 240, 340
-0.998504, 213, 359, 244, 374
-0.998504, 413, 281, 444, 296
-0.998505, 137, 61, 200, 76
-0.998505, 17, 31, 48, 46
-0.998506, 109, 145, 140, 160
-0.998507, 369, 47, 400, 62
-0.998507, 369, 263, 432, 278
-0.998507, 169, 353, 232, 368
-0.998508, 197, 53, 228, 68
-0.998508, 245, 331, 276, 346
-0.998509, 465, 57, 496, 72
-0.998509, 73, 353, 136, 368
-0.99851, 149, 23, 180, 38
-0.99851, 185, 347, 248, 362
-0.998511, 41, 177, 72, 192
-0.998511, 217, 313, 280, 328
-0.998511, 377, 265, 408, 280
-0.998511, 233, 333, 296, 348
-0.998511, 17, 51, 80, 66
-0.998512, 393, 287, 456, 302
-0.998512, 257, 335, 320, 350
-0.998512, 425, 39, 488, 54
-0.998512, 465, 49, 496, 64
-0.998512, 105, 57, 168, 72
-0.998513, 453, 63, 484, 78
-0.998513, 33, 173, 96, 188
-0.998513, 329, 269, 392, 284
-0.998513, 235, 33, 250, 160
-0.998513, 233, 343, 296, 358
-0.998515, 297, 319, 360, 334
-0.998516, 193, 247, 256, 262
-0.998516, 345, 15, 408, 30
-0.998516, 97, 145, 160, 160
-0.998516, 233, 211, 296, 226
-0.998518, 377, 129, 440, 144
-0.998518, 281, 35, 312, 50
-0.998518, 57, 171, 120, 186
-0.998519, 153, 361, 216, 375
-0.998519, 409, 31, 440, 46
-0.998519, 305, 57, 368, 72
-0.99852, 17, 153, 80, 168
-0.99852, 341, 31, 372, 46
-0.99852, 97, 355, 128, 370
-0.998521, 33, 165, 96, 180
-0.998521, 321, 55, 352, 70
-0.998521, 433, 65, 464, 80
-0.998521, 153, 333, 216, 348
-0.998522, 369, 307, 432, 322
-0.998523, 245, 55, 276, 70
-0.998523, 241, 305, 304, 320
-0.998523, 185, 155, 248, 170
-0.998523, 281, 341, 312, 356
-0.998523, 305, 335, 336, 350
-0.998524, 417, 57, 448, 72
-0.998524, 265, 207, 328, 222
-0.998525, 329, 319, 360, 334
-0.998525, 49, 361, 112, 375
-0.998526, 161, 43, 192, 58
-0.998526, 417, 255, 480, 270
-0.998527, 321, 39, 384, 54
-0.998527, 161, 53, 192, 68
-0.998528, 361, 35, 424, 50
-0.998528, 233, 349, 264, 364
-0.998528, 225, 361, 288, 375
-0.998529, 161, 39, 224, 54
-0.998529, 329, 63, 392, 78
-0.998529, 9, 25, 72, 40
-0.998529, 281, 295, 344, 310
-0.99853, 201, 25, 264, 40
-0.998531, 249, 59, 312, 74
-0.998531, 121, 143, 184, 158
-0.998531, 417, 275, 480, 290
-0.998532, 9, 167, 72, 182
-0.998532, 469, 249, 500, 264
-0.998534, 481, 1, 496, 128
-0.998534, 49, 27, 80, 42
-0.998534, 337, 321, 400, 336
-0.998535, 449, 33, 480, 48
-0.998535, 305, 281, 368, 296
-0.998535, 241, 349, 304, 364
-0.998535, 225, 53, 288, 68
-0.998535, 433, 243, 496, 258
-0.998536, 385, 53, 416, 68
-0.998536, 209, 53, 240, 68
-0.998536, 329, 37, 360, 52
-0.998536, 65, 147, 96, 162
-0.998537, 25, 25, 56, 40
-0.998537, 181, 325, 212, 340
-0.998537, 385, 47, 416, 62
-0.998538, 169, 329, 200, 344
-0.998538, 305, 295, 368, 310
-0.998539, 281, 129, 344, 144
-0.998539, 369, 257, 432, 272
-0.99854, 337, 125, 400, 140
-0.99854, 337, 315, 400, 330
-0.998541, 437, 59, 468, 74
-0.998542, 153, 59, 184, 74
-0.998542, 349, 39, 380, 54
-0.998542, 417, 281, 480, 296
-0.998543, 241, 151, 304, 166
-0.998543, 9, 175, 72, 190
-0.998543, 405, 287, 436, 302
-0.998543, 217, 135, 280, 150
-0.998544, 353, 261, 384, 276
-0.998544, 113, 165, 176, 180
-0.998545, 401, 57, 432, 72
-0.998547, 245, 351, 276, 366
-0.998549, 221, 33, 252, 48
-0.998551, 405, 119, 436, 134
-0.998551, 373, 287, 404, 302
-0.998552, 265, 57, 296, 72
-0.998553, 253, 43, 284, 58
-0.998554, 249, 359, 280, 374
-0.998555, 81, 25, 112, 40
-0.998555, 437, 49, 468, 64
-0.998555, 309, 327, 340, 342
-0.998555, 149, 37, 180, 52
-0.998556, 237, 361, 268, 375
-0.998556, 333, 281, 364, 296
-0.998558, 385, 61, 416, 76
-0.998559, 337, 333, 464, 364
-0.998561, 429, 33, 444, 160
-0.998562, 209, 33, 240, 48
-0.998563, 155, 1, 170, 128
-0.998565, 69, 19, 100, 34
-0.998566, 365, 29, 396, 44
-0.998567, 253, 35, 284, 50
-0.998567, 237, 33, 268, 48
-0.998568, 53, 49, 84, 64
-0.998569, 257, 193, 500, 256
-0.998572, 333, 325, 364, 340
-0.998573, 377, 297, 408, 312
-0.998574, 233, 355, 264, 370
-0.998575, 329, 305, 360, 320
-0.998575, 329, 289, 360, 304
-0.998576, 243, 1, 258, 128
-0.998576, 65, 43, 96, 58
-0.998578, 465, 67, 496, 82
-0.998579, 293, 333, 324, 348
-0.998581, 269, 35, 300, 50
-0.998581, 289, 209, 416, 240
-0.998584, 329, 63, 360, 78
-0.998588, 5, 45, 36, 60
-0.998597, 177, 31, 208, 46
-0.998598, 21, 19, 52, 34
-0.998599, 337, 129, 368, 375
-0.9986, 233, 45, 264, 60
-0.998602, 193, 257, 320, 288
-0.998603, 253, 49, 284, 64
-0.998603, 269, 33, 284, 160
-0.998608, 161, 23, 192, 38
-0.998608, 45, 43, 76, 58
-0.99861, 205, 1, 220, 128
-0.998611, 195, 1, 210, 128
-0.998611, 469, 43, 500, 58
-0.998612, 377, 33, 392, 160
-0.998612, 339, 1, 354, 128
-0.998612, 417, 51, 448, 66
-0.998615, 37, 25, 68, 40
-0.998618, 133, 51, 164, 66
-0.998621, 483, 49, 498, 176
-0.998622, 417, 43, 448, 58
-0.998622, 405, 45, 436, 60
-0.998622, 161, 29, 192, 44
-0.998623, 9, 39, 40, 54
-0.998625, 401, 51, 432, 66
-0.998627, 149, 29, 180, 44
-0.998628, 437, 43, 468, 58
-0.998635, 29, 47, 60, 62
-0.998637, 149, 53, 180, 68
-0.998639, 275, 33, 290, 160
-0.998642, 217, 245, 248, 260
-0.998644, 161, 37, 192, 52
-0.998647, 323, 33, 338, 160
-0.998648, 293, 1, 324, 256
-0.99865, 49, 21, 80, 36
-0.99865, 385, 41, 416, 56
-0.998652, 307, 33, 322, 160
-0.998653, 185, 1, 200, 128
-0.998656, 293, 1, 308, 128
-0.998659, 213, 1, 228, 128
-0.998662, 313, 33, 328, 160
-0.998662, 69, 25, 100, 40
-0.998663, 233, 55, 264, 70
-0.998664, 439, 1, 454, 128
-0.998668, 283, 33, 298, 160
-0.998671, 133, 45, 164, 60
-0.998674, 329, 49, 360, 64
-0.998674, 449, 49, 464, 176
-0.998676, 149, 43, 180, 58
-0.998678, 225, 273, 352, 304
-0.998679, 29, 41, 60, 56
-0.998686, 305, 177, 432, 240
-0.99869, 369, 5, 496, 36
-0.998692, 37, 19, 68, 34
-0.998696, 355, 241, 370, 368
-0.998697, 329, 33, 344, 160
-0.998698, 177, 1, 192, 128
-0.998708, 397, 1, 412, 128
-0.99871, 411, 49, 426, 176
-0.998713, 129, 257, 256, 320
-0.998715, 413, 97, 444, 352
-0.998716, 229, 33, 244, 160
-0.998716, 135, 1, 150, 128
-0.998722, 127, 1, 142, 128
-0.998724, 301, 1, 316, 128
-0.998744, 161, 33, 176, 160
-0.998744, 27, 1, 42, 128
-0.998752, 223, 1, 238, 128
-0.998756, 471, 1, 486, 128
-0.998761, 369, 217, 496, 248
-0.998766, 417, 1, 432, 128
-0.998788, 257, 189, 384, 220
-0.998833, 351, 1, 366, 128
-0.998833, 149, 1, 164, 128
-0.998844, 469, 49, 484, 176
-0.998849, 385, 1, 400, 128
-0.998852, 249, 33, 264, 160
-0.998855, 345, 1, 360, 128
-0.998856, 53, 1, 68, 128
-0.998856, 61, 1, 76, 128
-0.998862, 223, 65, 238, 192
-0.998869, 35, 129, 50, 256
-0.998878, 369, 241, 384, 368
-0.998884, 463, 49, 478, 176
-0.998891, 455, 49, 470, 176
-0.998896, 465, 1, 480, 128
-0.998897, 341, 49, 356, 176
-0.998897, 1, 129, 16, 256
-0.998909, 309, 129, 340, 375
-0.99891, 411, 1, 426, 128
-0.998912, 81, 1, 96, 128
-0.998912, 387, 49, 402, 176
-0.998917, 215, 49, 230, 176
-0.998921, 151, 65, 166, 192
-0.998921, 447, 1, 462, 128
-0.998925, 335, 49, 350, 176
-0.998929, 423, 1, 438, 128
-0.998941, 371, 1, 386, 128
-0.998941, 399, 49, 414, 176
-0.998941, 423, 49, 438, 176
-0.998947, 65, 241, 192, 368
-0.998958, 27, 129, 42, 256
-0.998967, 263, 65, 278, 192
-0.99897, 453, 1, 468, 128
-0.998979, 145, 49, 160, 176
-0.998982, 9, 97, 40, 352
-0.998988, 53, 129, 68, 256
-0.99899, 87, 1, 102, 128
-0.999, 235, 113, 250, 240
-0.999, 121, 1, 136, 128
-0.999004, 371, 49, 386, 176
-0.999008, 241, 49, 256, 176
-0.999008, 87, 129, 102, 256
-0.999011, 301, 49, 316, 176
-0.999026, 477, 49, 492, 176
-0.999029, 275, 113, 290, 240
-0.999031, 43, 129, 58, 256
-0.999031, 209, 49, 224, 176
-0.999036, 257, 1, 272, 128
-0.99904, 435, 49, 450, 176
-0.999042, 67, 1, 82, 128
-0.999043, 293, 65, 308, 192
-0.999048, 379, 241, 394, 368
-0.999048, 365, 1, 380, 128
-0.999051, 93, 33, 108, 160
-0.999056, 263, 1, 278, 128
-0.999057, 347, 65, 362, 192
-0.999058, 391, 1, 406, 128
-0.999063, 115, 1, 130, 128
-0.999064, 137, 49, 152, 176
-0.999068, 225, 97, 256, 352
-0.999072, 325, 129, 356, 375
-0.999075, 59, 129, 74, 256
-0.999087, 435, 225, 450, 352
-0.999092, 187, 49, 202, 176
-0.999093, 37, 1, 52, 128
-0.999095, 197, 49, 212, 176
-0.999098, 255, 65, 270, 192
-0.999103, 109, 1, 124, 128
-0.999107, 45, 1, 60, 128
-0.999109, 405, 241, 420, 368
-0.999114, 81, 129, 96, 256
-0.999117, 417, 49, 432, 176
-0.999119, 427, 241, 442, 368
-0.999119, 417, 241, 432, 368
-0.999122, 83, 49, 98, 176
-0.999123, 281, 97, 296, 224
-0.999125, 357, 1, 372, 128
-0.999129, 229, 113, 244, 240
-0.999134, 269, 81, 284, 208
-0.999136, 99, 49, 114, 176
-0.999136, 77, 129, 108, 375
-0.999137, 21, 129, 52, 375
-0.999145, 7, 145, 22, 272
-0.999147, 365, 49, 380, 176
-0.999148, 203, 49, 218, 176
-0.999151, 21, 129, 36, 256
-0.999152, 441, 225, 456, 352
-0.999153, 181, 49, 196, 176
-0.999157, 93, 129, 108, 256
-0.999157, 405, 81, 420, 208
-0.999158, 269, 129, 284, 256
-0.999171, 157, 81, 172, 208
-0.999182, 259, 209, 274, 336
-0.999183, 355, 65, 370, 192
-0.999185, 361, 241, 376, 368
-0.999188, 347, 241, 362, 368
-0.99919, 241, 113, 256, 240
-0.999191, 209, 129, 240, 375
-0.999195, 393, 65, 408, 192
-0.999202, 65, 129, 80, 256
-0.999211, 197, 97, 228, 352
-0.999338, 37, 97, 68, 352
-0.999348, 185, 97, 216, 352
-0.999427, 113, 97, 144, 352
-0.999534, 1, 289, 256, 352
-0.999554, 97, 97, 128, 352
-0.999555, 57, 129, 88, 375
-0.999632, 429, 97, 460, 352
-0.999633, 461, 97, 492, 352
-0.9997, 449, 33, 464, 48
-0.999702, 79, 47, 94, 62
-0.999702, 257, 357, 272, 372
-0.999702, 153, 43, 168, 58
-0.999703, 23, 39, 38, 54
-0.999703, 191, 33, 206, 48
-0.999705, 93, 43, 108, 58
-0.999706, 259, 207, 274, 222
-0.999706, 63, 17, 78, 32
-0.999708, 103, 49, 118, 64
-0.999708, 345, 281, 360, 296
-0.999708, 311, 37, 326, 52
-0.999708, 165, 23, 180, 38
-0.999708, 171, 51, 186, 66
-0.999709, 389, 41, 404, 56
-0.99971, 401, 287, 416, 302
-0.999712, 153, 49, 168, 64
-0.999712, 409, 285, 424, 300
-0.999714, 311, 61, 326, 76
-0.999714, 219, 53, 234, 68
-0.999715, 327, 49, 342, 64
-0.999716, 129, 51, 144, 66
-0.99972, 27, 15, 42, 30
-0.999722, 7, 49, 22, 64
-0.999723, 49, 49, 64, 64
-0.999723, 189, 39, 204, 54
-0.999723, 221, 43, 236, 58
-0.999723, 305, 41, 320, 56
-0.999725, 341, 59, 356, 74
-0.999725, 295, 37, 310, 52
-0.999727, 29, 39, 44, 54
-0.999728, 367, 29, 382, 44
-0.999729, 295, 47, 310, 62
-0.99973, 231, 47, 246, 62
-0.999732, 303, 51, 318, 66
-0.999733, 61, 45, 76, 60
-0.999734, 13, 49, 28, 64
-0.999734, 205, 53, 220, 68
-0.999736, 29, 27, 44, 42
-0.999736, 233, 35, 248, 50
-0.999737, 99, 43, 114, 58
-0.999737, 245, 35, 260, 50
-0.999737, 277, 41, 292, 56
-0.999738, 331, 43, 346, 58
-0.999738, 197, 53, 212, 68
-0.999739, 23, 51, 38, 66
-0.999739, 317, 35, 332, 50
-0.999739, 303, 61, 318, 76
-0.999741, 317, 57, 332, 72
-0.999741, 1, 39, 16, 54
-0.999741, 73, 27, 88, 42
-0.999741, 311, 43, 326, 58
-0.999741, 123, 51, 138, 66
-0.999743, 287, 51, 302, 66
-0.999745, 171, 23, 186, 38
-0.999746, 39, 41, 54, 56
-0.999748, 341, 39, 356, 54
-0.99975, 345, 301, 360, 316
-0.99975, 113, 45, 128, 60
-0.99975, 53, 41, 68, 56
-0.999751, 181, 43, 196, 58
-0.999752, 243, 47, 258, 62
-0.999753, 297, 57, 312, 72
-0.999753, 161, 51, 176, 66
-0.999753, 1, 47, 16, 62
-0.999754, 227, 39, 242, 54
-0.999755, 123, 45, 138, 60
-0.999756, 87, 45, 102, 60
-0.999756, 189, 53, 204, 68
-0.999757, 217, 37, 232, 52
-0.999758, 287, 35, 302, 50
-0.999758, 153, 55, 168, 70
-0.999759, 165, 29, 180, 44
-0.999759, 197, 33, 212, 48
-0.999759, 7, 43, 22, 58
-0.999759, 187, 47, 202, 62
-0.99976, 53, 25, 68, 40
-0.999762, 309, 55, 324, 70
-0.999764, 221, 245, 236, 260
-0.999764, 145, 49, 160, 64
-0.999765, 81, 23, 96, 38
-0.999765, 225, 53, 240, 68
-0.999766, 247, 41, 262, 56
-0.999766, 135, 51, 150, 66
-0.999767, 243, 55, 258, 70
-0.999771, 239, 41, 254, 56
-0.999771, 333, 51, 348, 66
-0.999775, 211, 55, 226, 70
-0.999775, 35, 47, 50, 62
-0.999776, 301, 35, 316, 50
-0.999777, 73, 43, 88, 58
-0.999778, 97, 49, 112, 64
-0.999779, 281, 35, 296, 50
-0.999779, 135, 45, 150, 60
-0.999779, 277, 47, 292, 62
-0.99978, 239, 33, 254, 48
-0.99978, 341, 45, 356, 60
-0.999783, 215, 47, 230, 62
-0.999783, 329, 57, 344, 72
-0.999785, 271, 49, 286, 64
-0.999786, 45, 43, 60, 58
-0.999786, 275, 57, 290, 72
-0.999787, 89, 25, 104, 40
-0.999788, 63, 23, 78, 38
-0.999788, 231, 245, 246, 260
-0.999789, 185, 31, 200, 46
-0.999789, 163, 41, 178, 56
-0.99979, 177, 51, 192, 66
-0.999792, 281, 55, 296, 70
-0.999794, 237, 49, 252, 64
-0.999794, 43, 17, 58, 32
-0.999795, 55, 47, 70, 62
-0.999797, 15, 43, 30, 58
-0.9998, 211, 33, 226, 48
-0.9998, 53, 19, 68, 34
-0.999801, 335, 37, 350, 52
-0.999802, 233, 41, 248, 56
-0.999802, 237, 55, 252, 70
-0.999804, 171, 35, 186, 50
-0.999808, 33, 225, 288, 288
-0.99981, 223, 33, 238, 48
-0.999817, 29, 45, 44, 60
-0.999817, 271, 43, 286, 58
-0.999819, 269, 55, 284, 70
-0.999826, 417, 43, 432, 58
-0.999828, 25, 21, 40, 36
-0.999828, 23, 45, 38, 60
-0.999837, 169, 45, 184, 60
-0.999837, 43, 23, 58, 38
-0.999841, 271, 35, 286, 50
-0.999863, 35, 21, 50, 36
-0.999909, 49, 217, 176, 280
-0.999945, 125, 97, 156, 352
-0.999948, 449, 97, 480, 352
-1.00004, 73, 177, 136, 304
-1.00024, 137, 97, 168, 352
-1.00024, 173, 129, 204, 375
-1.00045, 257, 169, 500, 232
-1.00046, 153, 129, 184, 375
-1.00059, 1, 193, 500, 256
-1.00065, 33, 257, 288, 320
-1.00123, 369, 161, 496, 224
-1.00139, 49, 81, 176, 144
-1.00171, 65, 265, 192, 328
-1.00173, 17, 257, 144, 320
-1.00182, 65, 241, 192, 304
-1.00188, 1, 233, 128, 296
-1.00278, 1, 89, 128, 152
-1.00302, 129, 241, 192, 368
-1.00356, 1, 281, 128, 344
-1.00396, 105, 241, 168, 368
-1.00645, 17, 241, 144, 368
-1.00708, 137, 177, 200, 304
-1.00958, 73, 241, 136, 368
-1.01084, 49, 241, 112, 368
-1.01587, 25, 225, 88, 352
-1.0159, 1, 225, 64, 352
