1887
-0.446701, 1, 1, 500, 333
-0.47853, 193, 1, 448, 333
-0.500739, 1, 1, 500, 256
-0.528873, 97, 1, 352, 333
-0.592344, 1, 1, 256, 333
-0.669988, 193, 65, 448, 320
-0.703487, 65, 1, 320, 256
-0.862392, 193, 1, 320, 256
-0.865727, 177, 1, 304, 333
-0.87222, 289, 65, 416, 320
-0.880412, 129, 1, 256, 333
-0.881563, 241, 1, 368, 256
-0.886402, 369, 65, 496, 320
-0.888135, 1, 177, 500, 304
-0.888639, 369, 1, 496, 333
-0.894254, 129, 33, 256, 288
-0.900087, 289, 1, 416, 333
-0.900151, 241, 1, 368, 333
-0.901568, 1, 49, 500, 176
-0.903856, 129, 177, 384, 304
-0.920064, 81, 1, 208, 333
-0.927641, 49, 65, 176, 320
-0.928062, 17, 1, 144, 333
-0.93457, 129, 177, 256, 304
-0.935989, 337, 209, 400, 333
-0.938609, 209, 209, 336, 333
-0.940066, 1, 129, 500, 256
-0.94013, 225, 209, 480, 333
-0.940338, 289, 209, 416, 333
-0.940353, 33, 177, 288, 304
-0.940972, 97, 33, 352, 160
-0.941396, 177, 1, 304, 128
-0.941778, 369, 81, 496, 208
-0.942215, 305, 177, 368, 304
-0.943442, 201, 177, 264, 304
-0.94346, 249, 1, 312, 128
-0.943971, 1, 33, 128, 288
-0.947169, 225, 1, 288, 128
-0.947807, 129, 33, 256, 160
-0.948126, 273, 113, 400, 240
-0.948996, 177, 161, 240, 288
-0.949262, 257, 113, 500, 240
-0.949342, 193, 33, 448, 160
-0.950417, 353, 65, 416, 192
-0.950785, 201, 1, 264, 128
-0.951132, 1, 97, 256, 224
-0.951562, 321, 129, 448, 256
-0.952141, 1, 1, 500, 128
-0.952369, 153, 177, 216, 304
-0.952415, 217, 193, 280, 256
-0.953354, 161, 273, 224, 333
-0.954063, 329, 145, 392, 272
-0.955031, 321, 257, 384, 320
-0.955677, 225, 193, 288, 320
-0.95602, 353, 121, 416, 184
-0.956697, 97, 129, 352, 256
-0.956752, 353, 113, 416, 240
-0.956836, 113, 209, 176, 333
-0.956922, 353, 241, 416, 304
-0.957636, 129, 161, 192, 288
-0.957865, 225, 1, 352, 128
-0.958168, 209, 1, 272, 64
-0.958245, 273, 209, 336, 333
-0.958285, 361, 209, 424, 333
-0.959311, 137, 241, 200, 304
-0.959339, 1, 49, 256, 176
-0.959354, 225, 161, 480, 288
-0.959482, 249, 161, 312, 288
-0.959596, 113, 209, 176, 272
-0.959791, 241, 49, 368, 176
-0.959942, 241, 9, 304, 72
-0.959988, 329, 225, 392, 288
-0.960439, 321, 65, 448, 192
-0.960515, 97, 97, 160, 224
-0.961091, 337, 193, 464, 320
-0.961317, 345, 81, 408, 144
-0.961654, 289, 273, 352, 333
-0.961677, 345, 273, 408, 333
-0.962215, 177, 161, 304, 288
-0.962529, 241, 161, 368, 288
-0.962908, 177, 17, 240, 144
-0.962972, 193, 25, 256, 88
-0.962987, 193, 177, 256, 240
-0.963006, 129, 177, 192, 240
-0.9632, 369, 129, 496, 256
-0.963259, 329, 201, 392, 264
-0.964348, 185, 273, 248, 333
-0.964436, 217, 129, 280, 256
-0.964866, 433, 65, 496, 192
-0.965205, 193, 49, 320, 176
-0.965401, 369, 89, 432, 152
-0.965588, 1, 1, 256, 128
-0.965758, 113, 233, 176, 296
-0.965919, 161, 81, 416, 208
-0.965941, 329, 65, 392, 192
-0.9662, 273, 33, 336, 160
-0.966268, 241, 201, 304, 264
-0.96652, 249, 209, 312, 333
-0.966708, 89, 49, 152, 176
-0.966809, 209, 49, 272, 176
-0.967272, 65, 97, 192, 224
-0.967555, 193, 97, 256, 224
-0.967602, 161, 249, 224, 312
-0.967699, 113, 129, 240, 256
-0.968015, 205, 1, 236, 128
-0.968067, 169, 177, 232, 240
-0.968523, 377, 81, 440, 208
-0.96855, 249, 1, 312, 256
-0.968876, 121, 65, 184, 192
-0.968989, 257, 33, 320, 96
-0.969128, 113, 265, 176, 328
-0.969313, 369, 33, 496, 160
-0.969501, 297, 241, 360, 304
-0.969932, 81, 209, 208, 333
-0.970097, 129, 185, 256, 248
-0.970296, 297, 193, 360, 256
-0.970388, 289, 249, 416, 312
-0.970862, 369, 265, 432, 328
-0.971094, 177, 209, 240, 333
-0.971243, 153, 113, 216, 240
-0.971307, 137, 273, 200, 333
-0.97164, 225, 273, 288, 333
-0.971706, 345, 65, 408, 320
-0.971712, 105, 161, 168, 288
-0.971818, 177, 113, 304, 240
-0.971827, 265, 17, 296, 80
-0.971852, 193, 1, 256, 256
-0.971992, 353, 17, 416, 144
-0.972053, 361, 161, 424, 288
-0.972135, 337, 57, 400, 120
-0.972221, 193, 25, 224, 88
-0.972306, 257, 1, 288, 128
-0.973063, 249, 169, 312, 232
-0.97321, 273, 161, 336, 288
-0.973236, 241, 113, 304, 240
-0.973298, 193, 49, 256, 112
-0.973575, 369, 121, 496, 184
-0.973636, 33, 49, 160, 176
-0.973654, 353, 145, 416, 208
-0.973672, 193, 201, 256, 264
-0.973719, 433, 129, 496, 192
-0.973765, 321, 89, 384, 152
-0.97377, 433, 145, 496, 272
-0.973797, 245, 1, 276, 64
-0.973873, 233, 33, 296, 96
-0.974055, 205, 25, 236, 88
-0.974238, 325, 257, 356, 320
-0.974288, 373, 65, 404, 192
-0.974362, 433, 81, 496, 144
-0.97446, 137, 241, 168, 304
-0.97448, 161, 33, 288, 96
-0.974717, 377, 17, 440, 144
-0.97478, 373, 113, 404, 240
-0.974812, 193, 233, 256, 296
-0.975143, 225, 209, 352, 272
-0.975273, 353, 193, 384, 320
-0.975559, 369, 121, 400, 184
-0.975604, 245, 193, 276, 256
-0.975679, 225, 1, 288, 256
-0.97584, 217, 217, 280, 280
-0.975878, 469, 49, 500, 176
-0.975926, 17, 161, 144, 288
-0.975967, 249, 49, 312, 176
-0.976046, 357, 265, 388, 328
-0.976122, 321, 97, 448, 160
-0.976145, 373, 241, 404, 304
-0.976154, 361, 65, 392, 192
-0.976226, 281, 33, 344, 96
-0.976227, 129, 273, 256, 333
-0.97623, 205, 1, 236, 64
-0.976261, 229, 193, 260, 256
-0.976355, 153, 273, 184, 333
-0.976381, 65, 161, 192, 288
-0.976421, 253, 25, 284, 88
-0.976491, 357, 97, 388, 160
-0.976539, 193, 17, 224, 144
-0.976557, 337, 249, 368, 312
-0.976578, 209, 273, 336, 333
-0.976602, 385, 193, 448, 320
-0.976665, 197, 161, 228, 288
-0.976762, 189, 265, 220, 328
-0.976847, 145, 153, 208, 216
-0.976976, 137, 217, 200, 280
-0.976984, 129, 113, 192, 240
-0.977069, 265, 1, 328, 64
-0.977073, 269, 1, 300, 128
-0.97708, 257, 185, 384, 248
-0.977086, 265, 57, 328, 120
-0.977136, 369, 193, 400, 320
-0.977141, 305, 81, 368, 208
-0.977142, 353, 225, 384, 288
-0.977154, 289, 273, 416, 333
-0.977157, 377, 121, 440, 184
-0.97722, 337, 209, 368, 333
-0.977348, 305, 225, 432, 288
-0.977351, 245, 1, 276, 128
-0.9775, 289, 57, 352, 120
-0.977535, 193, 57, 320, 120
-0.977548, 225, 169, 288, 232
-0.977556, 113, 249, 240, 312
-0.977562, 245, 193, 276, 320
-0.977588, 225, 193, 256, 320
-0.977591, 265, 273, 328, 333
-0.977636, 329, 113, 392, 176
-0.977641, 153, 233, 184, 296
-0.977651, 125, 209, 156, 333
-0.977786, 273, 249, 336, 312
-0.977874, 381, 121, 412, 184
-0.977882, 33, 209, 160, 333
-0.977926, 177, 185, 304, 248
-0.977964, 233, 57, 296, 120
-0.978184, 273, 121, 400, 184
-0.978191, 465, 97, 496, 224
-0.978358, 81, 33, 208, 160
-0.97839, 273, 169, 336, 232
-0.978449, 469, 129, 500, 192
-0.978471, 321, 17, 448, 144
-0.978475, 205, 273, 236, 333
-0.978554, 89, 209, 152, 272
-0.978643, 129, 17, 192, 144
-0.978662, 373, 73, 404, 136
-0.978708, 229, 1, 260, 128
-0.978708, 137, 209, 168, 333
-0.978787, 409, 97, 472, 224
-0.978801, 129, 217, 160, 280
-0.97882, 169, 25, 232, 88
-0.978893, 353, 217, 416, 280
-0.9789, 113, 81, 240, 208
-0.979101, 177, 9, 304, 72
-0.979172, 97, 225, 224, 288
-0.979219, 201, 49, 232, 112
-0.979264, 205, 177, 236, 240
-0.97931, 353, 129, 384, 256
-0.979374, 317, 177, 348, 304
-0.97938, 337, 217, 368, 280
-0.979413, 281, 33, 312, 96
-0.979417, 393, 257, 456, 320
-0.979428, 97, 153, 160, 216
-0.97949, 465, 65, 496, 128
-0.979536, 185, 1, 248, 64
-0.979606, 369, 65, 432, 320
-0.979651, 369, 97, 496, 160
-0.979775, 281, 217, 344, 280
-0.979814, 297, 1, 360, 128
-0.979955, 113, 41, 240, 104
-0.979978, 217, 1, 248, 64
-0.980045, 153, 17, 216, 144
-0.98012, 193, 177, 224, 240
-0.980139, 313, 273, 344, 333
-0.980139, 105, 185, 168, 248
-0.980207, 161, 217, 224, 280
-0.980427, 461, 89, 492, 152
-0.980748, 213, 177, 244, 304
-0.980753, 345, 73, 376, 136
-0.980803, 217, 185, 248, 248
-0.980845, 97, 73, 160, 136
-0.980878, 353, 201, 384, 264
-0.980988, 169, 1, 232, 256
-0.981045, 341, 97, 372, 224
-0.981168, 233, 1, 264, 64
-0.98128, 297, 209, 328, 333
-0.981351, 17, 49, 80, 176
-0.981426, 321, 201, 448, 264
-0.981432, 385, 97, 416, 224
-0.98152, 297, 273, 328, 333
-0.981552, 321, 121, 448, 184
-0.981591, 141, 265, 172, 328
-0.981626, 273, 65, 336, 320
-0.981759, 17, 97, 144, 224
-0.981783, 89, 209, 152, 333
-0.981821, 145, 217, 272, 280
-0.981852, 169, 153, 232, 216
-0.981866, 233, 273, 264, 333
-0.981967, 409, 121, 472, 184
-0.981985, 193, 153, 256, 216
-0.981986, 241, 33, 368, 96
-0.98205, 321, 177, 384, 240
-0.982127, 125, 49, 156, 176
-0.982245, 385, 65, 448, 128
-0.982253, 217, 1, 280, 333
-0.982311, 273, 1, 400, 128
-0.982322, 165, 273, 196, 333
-0.982326, 273, 57, 400, 120
-0.9824, 321, 65, 384, 320
-0.982467, 265, 193, 328, 256
-0.982485, 241, 41, 272, 104
-0.982547, 369, 73, 496, 136
-0.982648, 185, 177, 216, 304
-0.982759, 165, 241, 196, 304
-0.982802, 217, 1, 248, 128
-0.98285, 321, 145, 448, 208
-0.982854, 325, 233, 356, 296
-0.982869, 257, 81, 384, 144
-0.982898, 341, 273, 372, 333
-0.982923, 265, 81, 328, 144
-0.982937, 189, 113, 220, 240
-0.98295, 377, 97, 408, 160
-0.982992, 469, 153, 500, 216
-0.983022, 433, 161, 496, 224
-0.983063, 309, 249, 340, 312
-0.983085, 357, 121, 388, 184
-0.983087, 169, 49, 232, 112
-0.983178, 433, 105, 496, 168
-0.983194, 141, 217, 172, 280
-0.983281, 129, 193, 160, 256
-0.983388, 305, 217, 368, 280
-0.983395, 353, 193, 416, 256
-0.983421, 161, 161, 192, 288
-0.983458, 81, 145, 144, 272
-0.983473, 381, 265, 412, 328
-0.983573, 157, 209, 188, 333
-0.983577, 329, 145, 392, 208
-0.983698, 17, 97, 80, 224
-0.983803, 221, 49, 252, 176
-0.983815, 453, 81, 484, 208
-0.983924, 121, 97, 152, 224
-0.983935, 369, 49, 496, 112
-0.983958, 297, 89, 360, 152
-0.983979, 345, 49, 376, 176
-0.984112, 233, 145, 264, 272
-0.984151, 193, 1, 256, 333
-0.984165, 261, 49, 292, 112
-0.984237, 385, 145, 448, 272
-0.984275, 281, 17, 312, 144
-0.984326, 125, 241, 156, 304
-0.984376, 213, 49, 244, 112
-0.984401, 249, 1, 312, 333
-0.984488, 113, 161, 240, 224
-0.984532, 133, 145, 164, 272
-0.984593, 149, 177, 180, 240
-0.984605, 277, 9, 308, 72
-0.984651, 1, 105, 64, 168
-0.984719, 209, 97, 272, 160
-0.984771, 217, 273, 248, 333
-0.984962, 117, 201, 148, 264
-0.984964, 201, 209, 232, 333
-0.984969, 293, 41, 324, 104
-0.984994, 193, 1, 224, 64
-0.985065, 373, 217, 404, 280
-0.985067, 265, 113, 328, 240
-0.985163, 313, 65, 376, 128
-0.985166, 177, 265, 208, 328
-0.985213, 129, 65, 256, 128
-0.985218, 209, 241, 336, 304
-0.985247, 129, 49, 192, 112
-0.985344, 189, 49, 220, 112
-0.985352, 337, 249, 464, 312
-0.985364, 257, 177, 288, 304
-0.985454, 209, 81, 336, 144
-0.985461, 105, 49, 168, 112
-0.985491, 249, 249, 312, 312
-0.985517, 389, 89, 420, 152
-0.985549, 321, 73, 448, 136
-0.985591, 225, 9, 352, 72
-0.985614, 225, 113, 352, 240
-0.985711, 241, 49, 272, 176
-0.985797, 465, 145, 496, 272
-0.985833, 265, 201, 296, 264
-0.98584, 241, 225, 304, 288
-0.985961, 145, 161, 176, 288
-0.98598, 369, 1, 432, 333
-0.98608, 369, 145, 496, 208
-0.986096, 49, 209, 176, 272
-0.986106, 165, 177, 196, 240
-0.986177, 457, 145, 488, 208
-0.986182, 49, 257, 176, 320
-0.986183, 321, 185, 352, 248
-0.986225, 285, 193, 316, 320
-0.986255, 145, 65, 208, 320
-0.986261, 425, 65, 488, 320
-0.986273, 177, 161, 304, 224
-0.986289, 377, 145, 440, 208
-0.986323, 381, 209, 412, 333
-0.986329, 417, 33, 480, 96
-0.9864, 153, 1, 216, 64
-0.9864, 17, 81, 80, 144
-0.986427, 337, 193, 368, 256
-0.986471, 269, 161, 300, 288
-0.986551, 297, 129, 360, 256
-0.986574, 385, 145, 416, 272
-0.986709, 225, 49, 256, 112
-0.986738, 245, 129, 276, 256
-0.986808, 377, 201, 440, 264
-0.986809, 369, 265, 400, 328
-0.986824, 397, 97, 428, 224
-0.986866, 225, 161, 352, 224
-0.9869, 177, 177, 208, 240
-0.986937, 217, 249, 280, 312
-0.987005, 337, 273, 464, 333
-0.987034, 233, 169, 264, 232
-0.98711, 181, 33, 212, 160
-0.987121, 189, 241, 220, 304
-0.987171, 281, 57, 312, 120
-0.987187, 161, 241, 288, 304
-0.98719, 217, 209, 248, 272
-0.987217, 233, 121, 296, 184
-0.987274, 377, 233, 440, 296
-0.987306, 81, 185, 208, 248
-0.987319, 345, 121, 376, 184
-0.987328, 173, 161, 204, 288
-0.987336, 201, 97, 232, 224
-0.98739, 361, 57, 424, 120
-0.98772, 333, 89, 364, 152
-0.987721, 97, 113, 160, 176
-0.987747, 193, 153, 224, 216
-0.987755, 217, 25, 248, 88
-0.98778, 365, 145, 396, 208
-0.987804, 121, 73, 184, 136
-0.987827, 313, 217, 344, 280
-0.987868, 409, 65, 472, 128
-0.987913, 385, 49, 416, 176
-0.987965, 121, 1, 184, 333
-0.988008, 181, 153, 212, 216
-0.988026, 81, 185, 144, 248
-0.988043, 457, 121, 488, 184
-0.988145, 401, 113, 432, 176
-0.988221, 97, 65, 160, 320
-0.988242, 125, 57, 156, 120
-0.988243, 89, 249, 152, 312
-0.988277, 113, 49, 144, 176
-0.98829, 137, 49, 168, 176
-0.988346, 229, 217, 260, 280
-0.988353, 169, 209, 200, 333
-0.988404, 297, 9, 360, 72
-0.988443, 113, 17, 240, 80
-0.988534, 5, 81, 36, 208
-0.988636, 133, 161, 164, 224
-0.98864, 249, 217, 280, 280
-0.988645, 305, 301, 368, 332
-0.988657, 193, 73, 256, 136
-0.988662, 261, 273, 292, 333
-0.988688, 345, 1, 408, 333
-0.988697, 121, 153, 184, 216
-0.988723, 1, 73, 32, 136
-0.988806, 65, 153, 192, 216
-0.988813, 305, 161, 336, 288
-0.988837, 297, 1, 328, 128
-0.988842, 129, 273, 384, 333
-0.988846, 193, 121, 256, 184
-0.98885, 5, 97, 36, 160
-0.988863, 205, 249, 236, 312
-0.988911, 177, 241, 208, 304
-0.988931, 121, 265, 152, 328
-0.988932, 217, 193, 280, 224
-0.98895, 281, 273, 312, 333
-0.989022, 313, 253, 376, 284
-0.98904, 297, 169, 360, 232
-0.989063, 409, 49, 472, 176
-0.989124, 169, 73, 232, 136
-0.989125, 353, 125, 416, 156
-0.989131, 177, 113, 208, 240
-0.989224, 321, 17, 384, 144
-0.989231, 269, 209, 300, 333
-0.989338, 329, 229, 392, 260
-0.989343, 393, 97, 456, 160
-0.989375, 373, 49, 404, 112
-0.989386, 97, 185, 352, 248
-0.989392, 345, 81, 408, 112
-0.989433, 365, 185, 396, 248
-0.98945, 369, 225, 496, 288
-0.98947, 353, 265, 416, 296
-0.989482, 185, 297, 248, 328
-0.989484, 449, 73, 480, 136
-0.989526, 97, 1, 160, 333
-0.989529, 241, 1, 304, 32
-0.989533, 185, 181, 248, 212
-0.989539, 81, 49, 144, 112
-0.989558, 113, 217, 176, 248
-0.989582, 305, 289, 368, 320
-0.989592, 237, 65, 268, 128
-0.989687, 209, 9, 272, 40
-0.989707, 181, 25, 212, 88
-0.989728, 325, 33, 356, 160
-0.989785, 321, 273, 384, 304
-0.989789, 345, 277, 408, 308
-0.9898, 193, 25, 256, 56
-0.989806, 361, 73, 392, 136
-0.989807, 353, 137, 416, 168
-0.989832, 257, 177, 288, 240
-0.989846, 257, 33, 320, 64
-0.989854, 213, 129, 244, 256
-0.989865, 293, 73, 324, 136
-0.98988, 249, 201, 312, 232
-0.989908, 113, 193, 144, 320
-0.989919, 305, 169, 432, 232
-0.989923, 273, 169, 304, 232
-0.989927, 353, 145, 384, 208
-0.989946, 205, 49, 236, 176
-0.989956, 377, 145, 408, 208
-0.989992, 345, 249, 408, 280
-0.989996, 257, 105, 320, 168
-0.990005, 313, 1, 376, 333
-0.990007, 389, 1, 420, 128
-0.990017, 273, 1, 336, 333
-0.990019, 17, 185, 144, 248
-0.990057, 209, 37, 272, 68
-0.990098, 165, 217, 196, 280
-0.990154, 209, 105, 336, 168
-0.990197, 241, 21, 304, 52
-0.990213, 385, 241, 416, 304
-0.990245, 185, 281, 248, 312
-0.990271, 281, 301, 344, 332
-0.990286, 137, 245, 200, 276
-0.990323, 193, 49, 256, 80
-0.990349, 153, 265, 216, 296
-0.990358, 225, 205, 288, 236
-0.990363, 145, 285, 208, 316
-0.990367, 337, 289, 400, 320
-0.990376, 153, 201, 184, 264
-0.990384, 129, 229, 192, 260
-0.990405, 325, 209, 356, 272
-0.990449, 229, 25, 260, 88
-0.990487, 297, 33, 360, 288
-0.990509, 225, 301, 288, 332
-0.990528, 353, 93, 416, 124
-0.990541, 121, 257, 184, 288
-0.990553, 329, 81, 360, 208
-0.990583, 469, 41, 500, 104
-0.990604, 145, 181, 208, 212
-0.990606, 345, 49, 376, 112
-0.990687, 257, 129, 288, 256
-0.990691, 457, 33, 488, 160
-0.990703, 193, 205, 256, 236
-0.990704, 197, 73, 228, 136
-0.990712, 49, 73, 176, 136
-0.990757, 393, 265, 424, 328
-0.990763, 469, 1, 500, 128
-0.990769, 233, 37, 296, 68
-0.990796, 329, 205, 392, 236
-0.990807, 289, 241, 352, 272
-0.990817, 305, 193, 368, 224
-0.990818, 225, 217, 288, 248
-0.990832, 241, 49, 304, 80
-0.99088, 329, 161, 360, 288
-0.990904, 321, 89, 384, 120
-0.990923, 353, 149, 416, 180
-0.990948, 137, 97, 168, 224
-0.990954, 273, 261, 336, 292
-0.990977, 297, 249, 328, 312
-0.990979, 377, 141, 440, 172
-0.991014, 245, 169, 276, 232
-0.991033, 353, 113, 416, 144
-0.99104, 313, 41, 376, 104
-0.99104, 265, 49, 296, 176
-0.991054, 121, 285, 184, 316
-0.991082, 161, 253, 224, 284
-0.9911, 21, 97, 52, 224
-0.991124, 169, 1, 232, 333
-0.991141, 281, 281, 344, 312
-0.991143, 265, 57, 328, 88
-0.991156, 329, 137, 392, 168
-0.991165, 273, 145, 400, 208
-0.991165, 433, 17, 496, 144
-0.991179, 377, 89, 440, 120
-0.991184, 433, 141, 496, 172
-0.991202, 233, 97, 296, 160
-0.991203, 329, 301, 392, 332
-0.991209, 121, 205, 184, 236
-0.991226, 129, 217, 384, 280
-0.991238, 225, 281, 288, 312
-0.991245, 361, 289, 424, 320
-0.991249, 169, 25, 232, 56
-0.991251, 209, 269, 272, 300
-0.991266, 1, 257, 500, 320
-0.991271, 161, 301, 224, 332
-0.991292, 297, 265, 360, 296
-0.991296, 329, 113, 392, 144
-0.991312, 121, 33, 184, 288
-0.99133, 309, 177, 340, 240
-0.99133, 201, 217, 264, 248
-0.99136, 281, 37, 344, 68
-0.991391, 105, 269, 168, 300
-0.991392, 185, 37, 248, 68
-0.991394, 277, 201, 308, 264
-0.991408, 129, 193, 192, 224
-0.991423, 177, 269, 240, 300
-0.991428, 313, 241, 376, 272
-0.991431, 193, 253, 256, 284
-0.991439, 177, 169, 240, 200
-0.991457, 145, 169, 208, 200
-0.991481, 337, 69, 400, 100
-0.991482, 265, 1, 328, 32
-0.991485, 353, 237, 416, 268
-0.991486, 113, 245, 176, 276
-0.991496, 105, 229, 168, 260
-0.991497, 217, 25, 280, 56
-0.991535, 49, 233, 176, 296
-0.991562, 369, 277, 432, 308
-0.991571, 89, 217, 152, 248
-0.991597, 337, 217, 400, 248
-0.991598, 185, 1, 248, 32
-0.991606, 153, 229, 216, 260
-0.991657, 149, 153, 180, 216
-0.991669, 129, 269, 192, 300
-0.991677, 289, 73, 352, 104
-0.991684, 289, 213, 352, 244
-0.991715, 361, 217, 424, 248
-0.991716, 241, 189, 304, 220
-0.991724, 341, 161, 372, 288
-0.991728, 89, 201, 152, 232
-0.991753, 193, 193, 256, 224
-0.991754, 249, 273, 280, 333
-0.991765, 265, 73, 328, 104
-0.991785, 281, 189, 344, 220
-0.991786, 129, 297, 192, 328
-0.991803, 217, 49, 280, 80
-0.991836, 17, 33, 80, 288
-0.991841, 145, 1, 208, 333
-0.991844, 33, 1, 160, 128
-0.991846, 377, 121, 440, 152
-0.991848, 193, 249, 448, 312
-0.991866, 25, 105, 88, 168
-0.991874, 233, 61, 296, 92
-0.99188, 145, 217, 208, 248
-0.991885, 161, 241, 224, 272
-0.991892, 433, 113, 496, 144
-0.991918, 233, 261, 296, 292
-0.991921, 209, 61, 272, 92
-0.991924, 297, 85, 360, 116
-0.991939, 17, 97, 48, 160
-0.991942, 329, 193, 392, 224
-0.991942, 385, 261, 448, 292
-0.991956, 309, 57, 340, 120
-0.991968, 321, 57, 352, 120
-0.991968, 329, 125, 392, 156
-0.992004, 433, 153, 496, 184
-0.992028, 389, 145, 420, 208
-0.992031, 105, 73, 168, 104
-0.992034, 265, 13, 328, 44
-0.99204, 301, 17, 332, 80
-0.992044, 121, 181, 184, 212
-0.992066, 185, 241, 248, 272
-0.992072, 377, 73, 440, 104
-0.992083, 225, 233, 288, 264
-0.992088, 217, 181, 280, 212
-0.992094, 393, 273, 456, 304
-0.992096, 385, 249, 448, 280
-0.992112, 121, 169, 184, 200
-0.992117, 425, 77, 488, 108
-0.992122, 193, 33, 224, 64
-0.992139, 249, 213, 312, 244
-0.992143, 137, 129, 200, 192
-0.99215, 289, 53, 352, 84
-0.992169, 265, 169, 328, 200
-0.99219, 153, 37, 216, 68
-0.992197, 237, 193, 268, 224
-0.992212, 241, 241, 272, 304
-0.992218, 397, 145, 428, 272
-0.99223, 273, 229, 336, 260
-0.992231, 313, 101, 376, 132
-0.992233, 297, 25, 360, 56
-0.992233, 289, 173, 352, 204
-0.992249, 325, 257, 356, 288
-0.992252, 265, 17, 296, 48
-0.992257, 249, 281, 312, 312
-0.992266, 433, 165, 496, 196
-0.992287, 169, 49, 232, 80
-0.992293, 433, 101, 496, 132
-0.992315, 277, 81, 308, 144
-0.992323, 365, 137, 396, 168
-0.992398, 1, 129, 64, 192
-0.992404, 377, 141, 408, 172
-0.992416, 293, 145, 324, 272
-0.992418, 381, 129, 412, 160
-0.99242, 213, 293, 244, 324
-0.992423, 205, 33, 236, 64
-0.99244, 249, 17, 280, 48
-0.992452, 305, 9, 432, 72
-0.992466, 129, 97, 192, 160
-0.992471, 321, 289, 352, 320
-0.99248, 281, 37, 312, 68
-0.992488, 193, 21, 224, 52
-0.992493, 1, 33, 32, 160
-0.992493, 225, 145, 288, 208
-0.992499, 25, 49, 56, 176
-0.992502, 233, 9, 264, 40
-0.992507, 317, 301, 348, 332
-0.992514, 265, 29, 296, 60
-0.992515, 321, 277, 352, 308
-0.992518, 157, 237, 188, 268
-0.992533, 465, 153, 496, 184
-0.992533, 213, 45, 244, 76
-0.99254, 245, 5, 276, 36
-0.992541, 97, 1, 160, 128
-0.992544, 353, 113, 384, 144
-0.992548, 361, 125, 392, 156
-0.99255, 205, 1, 236, 32
-0.99256, 337, 301, 368, 332
-0.992564, 337, 253, 368, 284
-0.992565, 305, 33, 432, 96
-0.99259, 261, 45, 292, 76
-0.992592, 337, 289, 368, 320
-0.992592, 221, 189, 252, 220
-0.992598, 193, 45, 224, 76
-0.992602, 305, 301, 336, 332
-0.992604, 229, 41, 260, 72
-0.992608, 205, 21, 236, 52
-0.992612, 33, 49, 160, 112
-0.992623, 213, 281, 244, 312
-0.99263, 73, 81, 136, 144
-0.992632, 265, 1, 296, 32
-0.99264, 133, 209, 164, 240
-0.992643, 345, 81, 376, 112
-0.992655, 253, 29, 284, 60
-0.99266, 373, 81, 404, 112
-0.992663, 465, 73, 496, 104
-0.992674, 333, 273, 364, 304
-0.992674, 145, 285, 176, 316
-0.99269, 137, 233, 168, 264
-0.992701, 257, 273, 500, 333
-0.992703, 201, 281, 232, 312
-0.992705, 193, 173, 224, 204
-0.992711, 249, 45, 280, 76
-0.992726, 181, 37, 212, 68
-0.992726, 453, 129, 484, 256
-0.992726, 377, 245, 408, 276
-0.992727, 141, 221, 172, 252
-0.992731, 265, 201, 296, 232
-0.992737, 169, 65, 232, 192
-0.992744, 253, 201, 284, 232
-0.992747, 309, 273, 340, 304
-0.992748, 217, 1, 248, 32
-0.992752, 281, 49, 312, 80
-0.992759, 381, 269, 412, 300
-0.992762, 353, 265, 384, 296
-0.992767, 353, 281, 384, 312
-0.99277, 345, 221, 376, 252
-0.992789, 157, 273, 188, 304
-0.992792, 369, 17, 400, 144
-0.992801, 465, 137, 496, 168
-0.992813, 181, 253, 212, 284
-0.992814, 185, 265, 216, 296
-0.99282, 145, 273, 176, 304
-0.992827, 125, 229, 156, 260
-0.992838, 313, 253, 344, 284
-0.99284, 125, 249, 156, 280
-0.992841, 349, 253, 380, 284
-0.992848, 381, 117, 412, 148
-0.992857, 469, 113, 500, 144
-0.992862, 211, 9, 226, 72
-0.992862, 221, 57, 252, 88
-0.992863, 369, 93, 400, 124
-0.992865, 169, 177, 200, 208
-0.99287, 137, 261, 168, 292
-0.992877, 229, 205, 260, 236
-0.992879, 281, 25, 312, 56
-0.99288, 249, 217, 280, 248
-0.992881, 241, 205, 272, 236
-0.992889, 361, 205, 392, 236
-0.992895, 173, 289, 204, 320
-0.992906, 301, 261, 332, 292
-0.992915, 357, 229, 388, 260
-0.992921, 149, 297, 180, 328
-0.992925, 325, 237, 356, 268
-0.992928, 169, 245, 200, 276
-0.992931, 233, 293, 264, 324
-0.992932, 209, 181, 240, 212
-0.992933, 341, 93, 372, 124
-0.99294, 365, 149, 396, 180
-0.992942, 137, 245, 168, 276
-0.992943, 389, 141, 420, 172
-0.992951, 341, 205, 372, 236
-0.99296, 433, 57, 496, 120
-0.992961, 193, 301, 224, 332
-0.992963, 353, 141, 384, 172
-0.992971, 217, 205, 248, 236
-0.992977, 221, 217, 252, 248
-0.992978, 233, 217, 264, 248
-0.992979, 153, 225, 184, 256
-0.992984, 309, 285, 340, 316
-0.992988, 361, 249, 392, 280
-0.992995, 181, 237, 212, 268
-0.992996, 313, 241, 344, 272
-0.992998, 117, 213, 148, 244
-0.993, 229, 29, 260, 60
-0.993011, 177, 301, 208, 332
-0.993016, 265, 57, 296, 88
-0.993018, 257, 185, 288, 216
-0.993023, 453, 81, 484, 112
-0.993028, 197, 245, 228, 276
-0.993031, 321, 189, 352, 220
-0.993035, 385, 89, 416, 120
-0.993044, 277, 301, 308, 332
-0.993045, 225, 281, 256, 312
-0.993049, 129, 193, 160, 224
-0.99305, 329, 85, 360, 116
-0.993052, 161, 285, 192, 316
-0.993053, 209, 57, 240, 88
-0.993062, 369, 109, 400, 140
-0.993062, 465, 125, 496, 156
-0.993066, 241, 33, 272, 64
-0.993066, 293, 301, 324, 332
-0.993076, 197, 269, 228, 300
-0.99308, 369, 289, 400, 320
-0.993084, 157, 261, 188, 292
-0.993085, 373, 233, 404, 264
-0.993089, 237, 57, 268, 88
-0.99309, 229, 177, 260, 208
-0.993091, 277, 1, 308, 32
-0.993094, 465, 85, 496, 116
-0.993099, 255, 1, 270, 64
-0.993102, 369, 277, 400, 308
-0.993102, 209, 257, 240, 288
-0.993205, 369, 177, 496, 240
-0.993291, 17, 57, 80, 120
-0.993291, 345, 169, 408, 232
-0.993352, 225, 193, 480, 256
-0.993376, 253, 49, 284, 176
-0.993376, 145, 65, 208, 192
-0.993378, 145, 25, 208, 88
-0.993399, 1, 185, 500, 248
-0.993409, 305, 113, 368, 176
-0.993453, 369, 201, 496, 264
-0.993465, 57, 105, 120, 168
-0.993573, 161, 113, 224, 176
-0.993594, 269, 25, 284, 88
-0.993615, 397, 193, 428, 320
-0.993633, 345, 1, 376, 128
-0.993652, 65, 65, 128, 192
-0.993667, 129, 185, 256, 216
-0.993667, 33, 97, 160, 160
-0.993671, 97, 41, 352, 104
-0.993672, 281, 145, 312, 272
-0.993696, 101, 81, 132, 208
-0.993697, 161, 137, 288, 200
-0.993715, 369, 25, 496, 88
-0.993719, 433, 9, 496, 72
-0.99372, 433, 1, 496, 333
-0.993741, 289, 277, 416, 308
-0.993761, 57, 129, 120, 256
-0.9938, 129, 277, 256, 308
-0.993865, 1, 177, 256, 240
-0.993905, 371, 121, 386, 184
-0.993923, 321, 117, 448, 148
-0.993972, 161, 89, 288, 152
-0.993977, 225, 33, 480, 96
-0.994021, 97, 249, 352, 312
-0.994078, 225, 297, 352, 328
-0.994078, 1, 129, 128, 192
-0.994095, 277, 9, 292, 72
-0.994113, 149, 257, 164, 320
-0.99413, 1, 161, 128, 224
-0.994166, 367, 225, 382, 288
-0.994173, 325, 265, 340, 328
-0.994184, 161, 37, 288, 68
-0.99421, 263, 9, 278, 72
-0.994232, 157, 241, 172, 304
-0.994235, 9, 1, 72, 128
-0.99424, 225, 97, 256, 224
-0.994265, 241, 209, 368, 240
-0.994269, 201, 17, 216, 80
-0.994273, 289, 253, 416, 284
-0.994287, 321, 17, 384, 80
-0.994301, 33, 273, 288, 333
-0.994304, 97, 241, 224, 272
-0.994353, 217, 1, 232, 64
-0.994359, 1, 57, 500, 120
-0.994361, 145, 289, 272, 320
-0.994368, 263, 41, 278, 104
-0.994397, 209, 285, 336, 316
-0.994425, 161, 65, 416, 128
-0.994441, 353, 137, 480, 168
-0.994494, 465, 73, 480, 136
-0.994495, 327, 241, 342, 304
-0.994538, 157, 273, 172, 333
-0.994545, 1, 201, 256, 264
-0.994579, 1, 73, 128, 136
-0.994585, 363, 89, 378, 152
-0.994608, 401, 49, 432, 176
-0.99462, 385, 41, 448, 104
-0.994632, 153, 113, 184, 240
-0.994675, 333, 257, 348, 320
-0.994679, 243, 193, 258, 256
-0.994688, 113, 89, 240, 152
-0.994708, 391, 81, 406, 144
-0.994754, 73, 137, 136, 200
-0.994769, 381, 121, 396, 184
-0.994771, 477, 121, 492, 184
-0.994771, 17, 145, 80, 272
-0.994793, 209, 197, 336, 228
-0.994797, 41, 81, 104, 144
-0.99481, 145, 301, 272, 332
-0.994815, 213, 33, 228, 96
-0.994825, 151, 233, 166, 296
-0.994846, 391, 121, 406, 184
-0.994862, 369, 169, 432, 232
-0.994872, 353, 249, 368, 312
-0.994879, 369, 77, 496, 108
-0.994899, 165, 97, 196, 224
-0.994914, 113, 137, 240, 200
-0.994921, 145, 113, 272, 176
-0.994936, 393, 249, 408, 312
-0.994949, 127, 225, 142, 288
-0.994961, 201, 41, 216, 104
-0.99501, 125, 1, 156, 128
-0.995012, 257, 89, 500, 152
-0.995018, 245, 1, 260, 64
-0.995022, 225, 225, 480, 288
-0.995026, 1, 217, 128, 280
-0.995027, 317, 129, 348, 256
-0.995049, 17, 1, 80, 333
-0.995062, 223, 9, 238, 72
-0.995063, 161, 49, 288, 80
-0.995063, 289, 265, 416, 296
-0.995081, 1, 233, 500, 296
-0.995085, 257, 193, 384, 224
-0.995091, 141, 233, 156, 296
-0.995105, 217, 177, 232, 240
-0.995123, 235, 193, 250, 256
-0.995126, 209, 45, 336, 76
-0.995127, 199, 265, 214, 328
-0.995151, 471, 137, 486, 200
-0.995154, 255, 201, 270, 264
-0.995171, 225, 185, 240, 248
-0.995179, 271, 1, 286, 64
-0.995179, 257, 121, 500, 184
-0.995185, 369, 125, 496, 156
-0.995205, 409, 145, 472, 208
-0.995207, 397, 121, 412, 184
-0.995207, 375, 201, 390, 264
-0.995211, 165, 273, 180, 333
-0.995227, 113, 253, 240, 284
-0.995244, 207, 273, 222, 333
-0.995245, 65, 25, 192, 88
-0.995257, 339, 249, 354, 312
-0.995276, 235, 1, 250, 64
-0.995278, 375, 257, 390, 320
-0.995313, 249, 193, 264, 256
-0.995334, 137, 201, 152, 264
-0.995344, 309, 33, 340, 160
-0.995357, 289, 289, 416, 320
-0.99536, 191, 33, 206, 96
-0.995371, 177, 25, 304, 56
-0.995386, 161, 197, 288, 228
-0.995404, 207, 33, 222, 96
-0.995407, 343, 217, 358, 280
-0.99541, 161, 221, 288, 252
-0.995447, 129, 249, 144, 312
-0.995447, 225, 9, 480, 72
-0.995452, 305, 233, 432, 264
-0.995456, 363, 257, 378, 320
-0.995462, 347, 249, 362, 312
-0.995489, 485, 129, 500, 192
-0.995499, 225, 221, 352, 252
-0.995502, 273, 301, 400, 332
-0.995523, 225, 273, 240, 333
-0.995539, 265, 201, 280, 264
-0.995559, 209, 273, 336, 304
-0.995567, 193, 177, 208, 240
-0.995575, 177, 181, 304, 212
-0.995626, 253, 25, 268, 88
-0.995633, 247, 25, 262, 88
-0.995637, 289, 129, 416, 160
-0.99564, 355, 217, 370, 280
-0.995641, 349, 217, 364, 280
-0.995642, 361, 201, 376, 264
-0.995654, 193, 169, 448, 232
-0.995657, 349, 273, 364, 333
-0.995659, 297, 49, 312, 112
-0.995663, 131, 193, 146, 256
-0.99571, 369, 81, 384, 144
-0.995726, 211, 177, 226, 240
-0.995727, 161, 61, 288, 92
-0.995747, 113, 145, 144, 272
-0.995748, 145, 233, 272, 264
-0.995751, 369, 109, 496, 140
-0.995789, 1, 249, 256, 312
-0.995815, 273, 117, 400, 148
-0.995818, 113, 37, 240, 68
-0.995823, 471, 65, 486, 128
-0.995833, 293, 49, 324, 176
-0.995841, 393, 65, 456, 320
-0.995863, 485, 89, 500, 152
-0.99589, 379, 225, 394, 288
-0.995893, 321, 97, 448, 128
-0.995897, 341, 273, 356, 333
-0.995921, 209, 65, 336, 96
-0.99593, 359, 113, 374, 176
-0.995969, 337, 225, 352, 288
-0.995973, 129, 265, 256, 296
-0.995977, 237, 273, 252, 333
-0.995984, 97, 221, 224, 252
-0.995991, 333, 185, 348, 248
-0.996, 1, 49, 256, 112
-0.996006, 133, 225, 148, 288
-0.996025, 231, 25, 246, 88
-0.996031, 355, 273, 370, 333
-0.996036, 193, 265, 208, 328
-0.99604, 225, 33, 352, 64
-0.996052, 121, 209, 136, 272
-0.996063, 73, 33, 136, 288
-0.996069, 193, 13, 320, 44
-0.996077, 401, 1, 464, 333
-0.996078, 209, 257, 336, 288
-0.996083, 65, 1, 320, 64
-0.996114, 215, 265, 230, 328
-0.996126, 375, 145, 390, 208
-0.99613, 337, 269, 464, 300
-0.996153, 271, 57, 286, 120
-0.996154, 157, 217, 172, 280
-0.996181, 163, 233, 178, 296
-0.996195, 369, 201, 384, 264
-0.9962, 365, 113, 380, 176
-0.996207, 227, 49, 242, 112
-0.996214, 219, 41, 234, 104
-0.996222, 205, 1, 236, 256
-0.99623, 205, 177, 220, 240
-0.996245, 289, 77, 416, 108
-0.996253, 151, 209, 166, 272
-0.996253, 305, 221, 432, 252
-0.996283, 265, 1, 296, 256
-0.996297, 467, 105, 482, 168
-0.996308, 381, 97, 396, 160
-0.996311, 199, 177, 214, 240
-0.996314, 319, 273, 334, 333
-0.996323, 369, 65, 496, 96
-0.996336, 465, 153, 480, 216
-0.996343, 139, 169, 154, 232
-0.996344, 341, 89, 356, 152
-0.996352, 101, 33, 132, 160
-0.99636, 287, 33, 302, 96
-0.996361, 249, 1, 280, 256
-0.996366, 145, 209, 272, 240
-0.996369, 469, 1, 500, 256
-0.996379, 161, 89, 416, 152
-0.99638, 369, 149, 496, 180
-0.99638, 235, 49, 250, 112
-0.996382, 275, 33, 290, 96
-0.996401, 171, 273, 186, 333
-0.996404, 175, 241, 190, 304
-0.996408, 475, 89, 490, 152
-0.99642, 113, 173, 240, 204
-0.996426, 277, 57, 292, 120
-0.996437, 23, 97, 38, 160
-0.996447, 241, 33, 256, 96
-0.996454, 289, 205, 416, 236
-0.996492, 305, 141, 432, 172
-0.996505, 209, 57, 224, 120
-0.996507, 145, 161, 160, 224
-0.996518, 397, 81, 412, 144
-0.996519, 299, 25, 314, 88
-0.99652, 369, 1, 496, 64
-0.996524, 459, 73, 474, 136
-0.996531, 225, 181, 352, 212
-0.996535, 143, 209, 158, 272
-0.996537, 341, 193, 356, 256
-0.996541, 337, 285, 464, 316
-0.996546, 113, 53, 240, 84
-0.996549, 1, 209, 500, 272
-0.99657, 311, 273, 326, 333
-0.996579, 361, 137, 376, 200
-0.996587, 143, 265, 158, 328
-0.996596, 211, 13, 226, 44
-0.9966, 193, 1, 224, 256
-0.996609, 1, 225, 256, 288
-0.996617, 209, 137, 336, 200
-0.99663, 97, 161, 352, 224
-0.99664, 241, 237, 368, 268
-0.996649, 205, 137, 220, 200
-0.996667, 369, 89, 496, 120
-0.99667, 193, 209, 320, 240
-0.996677, 215, 1, 230, 32
-0.996689, 465, 129, 480, 192
-0.996705, 255, 177, 270, 240
-0.99671, 209, 37, 224, 68
-0.996719, 177, 273, 192, 333
-0.996722, 351, 193, 366, 256
-0.996734, 233, 1, 264, 256
-0.99675, 65, 1, 128, 333
-0.996752, 137, 257, 152, 320
-0.996754, 133, 49, 148, 112
-0.996758, 187, 185, 202, 248
-0.99676, 269, 25, 284, 56
-0.996761, 293, 273, 308, 333
-0.996762, 1, 145, 256, 208
-0.996763, 381, 145, 396, 208
-0.99679, 337, 205, 464, 236
-0.996797, 179, 177, 194, 240
-0.996806, 209, 25, 224, 56
-0.996807, 287, 57, 302, 120
-0.99682, 257, 65, 500, 128
-0.996838, 273, 105, 400, 136
-0.996905, 97, 289, 224, 320
-0.996906, 353, 65, 384, 320
-0.996919, 81, 113, 208, 176
-0.996933, 269, 37, 284, 68
-0.996953, 369, 33, 400, 288
-0.996974, 263, 17, 278, 48
-0.996991, 113, 197, 240, 228
-0.996999, 177, 1, 304, 32
-0.997031, 201, 25, 216, 56
-0.997032, 65, 169, 192, 200
-0.997058, 371, 137, 386, 168
-0.997065, 1, 105, 256, 168
-0.997065, 177, 245, 304, 276
-0.997072, 65, 81, 320, 144
-0.997089, 1, 81, 500, 144
-0.997103, 161, 73, 288, 104
-0.997112, 273, 93, 400, 124
-0.997117, 465, 77, 480, 108
-0.997125, 305, 193, 432, 224
-0.997135, 149, 281, 164, 312
-0.997137, 275, 13, 290, 44
-0.997144, 157, 289, 172, 320
-0.997154, 409, 113, 440, 240
-0.997165, 221, 1, 236, 32
-0.997187, 225, 289, 240, 320
-0.997188, 381, 137, 396, 168
-0.997225, 335, 257, 350, 288
-0.997239, 153, 237, 168, 268
-0.997249, 305, 153, 432, 184
-0.997261, 255, 5, 270, 36
-0.99727, 417, 193, 480, 320
-0.997286, 73, 1, 136, 128
-0.99729, 215, 25, 230, 56
-0.99731, 263, 29, 278, 60
-0.997321, 65, 209, 192, 240
-0.997325, 217, 33, 248, 288
-0.997327, 337, 245, 464, 276
-0.997329, 337, 257, 464, 288
-0.997333, 219, 285, 234, 316
-0.997335, 201, 37, 216, 68
-0.997349, 241, 1, 256, 32
-0.997362, 367, 85, 382, 116
-0.997384, 253, 201, 268, 232
-0.997385, 235, 201, 250, 232
-0.997388, 241, 77, 368, 108
-0.997396, 323, 285, 338, 316
-0.997441, 213, 281, 228, 312
-0.997457, 231, 41, 246, 72
-0.997458, 243, 193, 258, 224
-0.997472, 377, 125, 392, 156
-0.997473, 191, 33, 206, 64
-0.997475, 457, 65, 488, 320
-0.997477, 327, 253, 342, 284
-0.997498, 329, 241, 344, 272
-0.997505, 317, 301, 332, 332
-0.997516, 325, 273, 340, 304
-0.997518, 355, 249, 370, 280
-0.997545, 263, 45, 278, 76
-0.997554, 279, 1, 294, 32
-0.997562, 363, 97, 378, 128
-0.997581, 161, 233, 176, 264
-0.997584, 225, 45, 240, 76
-0.997585, 293, 65, 324, 320
-0.997585, 349, 297, 364, 328
-0.997595, 235, 189, 250, 220
-0.997602, 237, 297, 252, 328
-0.997605, 477, 137, 492, 168
-0.997606, 289, 65, 416, 96
-0.997607, 469, 153, 484, 184
-0.99761, 359, 113, 374, 144
-0.997611, 137, 1, 168, 128
-0.99762, 217, 13, 232, 44
-0.997638, 209, 1, 224, 32
-0.99764, 149, 269, 164, 300
-0.997646, 129, 253, 144, 284
-0.99765, 389, 85, 404, 116
-0.997654, 277, 1, 308, 256
-0.997668, 381, 65, 412, 320
-0.997674, 331, 301, 346, 332
-0.997677, 279, 41, 294, 72
-0.99769, 361, 81, 376, 112
-0.997691, 231, 297, 246, 328
-0.997698, 249, 13, 264, 44
-0.997707, 393, 129, 408, 160
-0.997712, 229, 189, 244, 220
-0.997722, 97, 65, 224, 96
-0.997724, 159, 273, 174, 304
-0.997725, 81, 265, 208, 296
-0.997731, 181, 249, 196, 280
-0.997732, 193, 169, 320, 200
-0.997735, 219, 37, 234, 68
-0.997746, 193, 233, 320, 264
-0.997751, 157, 253, 172, 284
-0.997777, 195, 181, 210, 212
-0.997779, 191, 261, 206, 292
-0.997779, 149, 225, 164, 256
-0.997783, 193, 113, 320, 144
-0.997784, 149, 257, 164, 288
-0.997786, 479, 113, 494, 144
-0.997787, 275, 25, 290, 56
-0.997793, 485, 113, 500, 144
-0.997801, 367, 229, 382, 260
-0.997804, 205, 13, 220, 44
-0.997811, 401, 141, 416, 172
-0.997813, 253, 29, 268, 60
-0.997814, 341, 301, 356, 332
-0.997821, 271, 49, 286, 80
-0.997827, 345, 277, 360, 308
-0.99783, 365, 113, 380, 144
-0.99783, 49, 225, 176, 256
-0.99783, 349, 253, 364, 284
-0.99783, 197, 265, 212, 296
-0.997836, 381, 149, 396, 180
-0.99784, 131, 229, 146, 260
-0.997848, 201, 49, 216, 80
-0.997853, 113, 77, 240, 108
-0.997863, 137, 233, 152, 264
-0.997863, 395, 89, 410, 120
-0.997864, 343, 213, 358, 244
-0.997867, 127, 217, 142, 248
-0.997867, 235, 53, 250, 84
-0.997868, 65, 181, 192, 212
-0.997876, 341, 253, 356, 284
-0.997877, 231, 213, 246, 244
-0.997878, 241, 21, 368, 52
-0.997881, 337, 297, 464, 328
-0.997884, 273, 1, 288, 32
-0.997891, 17, 97, 144, 128
-0.997897, 373, 277, 388, 308
-0.997902, 129, 65, 160, 320
-0.997906, 181, 1, 212, 256
-0.997913, 237, 37, 252, 68
-0.997923, 147, 241, 162, 272
-0.997926, 259, 197, 274, 228
-0.997933, 235, 5, 250, 36
-0.997933, 209, 49, 224, 80
-0.997934, 203, 269, 218, 300
-0.997934, 375, 209, 390, 240
-0.997934, 337, 289, 352, 320
-0.997935, 49, 245, 176, 276
-0.997938, 225, 13, 240, 44
-0.99794, 289, 37, 304, 68
-0.997942, 459, 77, 474, 108
-0.997947, 223, 185, 238, 216
-0.99795, 349, 205, 364, 236
-0.99795, 395, 273, 410, 304
-0.997952, 343, 289, 358, 320
-0.997952, 385, 121, 400, 152
-0.997953, 387, 141, 402, 172
-0.99796, 353, 285, 368, 316
-0.997961, 299, 33, 314, 64
-0.997964, 251, 57, 266, 88
-0.997967, 123, 245, 138, 276
-0.99797, 241, 9, 368, 40
-0.997973, 371, 125, 386, 156
-0.997975, 469, 65, 484, 96
-0.99798, 49, 281, 176, 312
-0.997987, 273, 61, 288, 92
-0.997987, 169, 293, 184, 324
-0.997991, 339, 81, 354, 112
-0.997999, 333, 269, 348, 300
-0.998007, 247, 1, 262, 32
-0.99801, 373, 113, 388, 144
-0.99801, 331, 289, 346, 320
-0.998011, 377, 229, 392, 260
-0.998017, 351, 269, 366, 300
-0.998018, 231, 281, 246, 312
-0.99803, 347, 85, 362, 116
-0.998033, 269, 13, 284, 44
-0.998033, 479, 125, 494, 156
-0.998046, 257, 145, 500, 208
-0.998051, 45, 49, 76, 176
-0.998053, 113, 25, 240, 56
-0.998085, 353, 229, 480, 260
-0.998096, 169, 1, 200, 128
-0.998098, 65, 77, 192, 108
-0.998154, 353, 217, 480, 248
-0.998154, 241, 129, 368, 160
-0.998168, 113, 105, 240, 136
-0.998169, 353, 161, 480, 192
-0.998169, 97, 301, 224, 332
-0.998178, 1, 33, 32, 288
-0.998203, 17, 85, 144, 116
-0.998204, 129, 161, 256, 192
-0.998216, 257, 49, 384, 80
-0.998224, 5, 129, 36, 256
-0.998235, 17, 213, 144, 244
-0.998243, 305, 181, 432, 212
-0.998253, 369, 53, 496, 84
-0.998296, 305, 25, 432, 56
-0.998335, 305, 65, 336, 320
-0.998377, 49, 197, 176, 228
-0.99838, 257, 141, 384, 172
-0.9984, 273, 37, 400, 68
-0.99842, 241, 1, 304, 16
-0.99842, 1, 25, 128, 88
-0.998426, 465, 85, 496, 100
-0.998427, 241, 67, 272, 82
-0.998427, 301, 277, 332, 292
-0.998427, 201, 295, 232, 310
-0.998428, 137, 229, 168, 244
-0.998429, 217, 313, 248, 328
-0.998429, 211, 1, 226, 128
-0.99843, 313, 253, 344, 268
-0.998431, 133, 223, 164, 238
-0.998434, 225, 11, 256, 26
-0.998435, 193, 101, 320, 132
-0.998436, 373, 245, 404, 260
-0.998436, 157, 277, 188, 292
-0.998436, 365, 219, 396, 234
-0.998437, 325, 247, 356, 262
-0.998437, 365, 155, 396, 170
-0.998437, 345, 259, 376, 274
-0.998438, 209, 59, 240, 74
-0.998438, 205, 51, 236, 66
-0.998439, 169, 255, 200, 270
-0.998439, 309, 271, 340, 286
-0.998439, 305, 301, 336, 316
-0.998441, 357, 89, 388, 104
-0.998442, 225, 215, 256, 230
-0.998443, 293, 75, 324, 90
-0.998443, 125, 237, 156, 252
-0.998443, 225, 7, 288, 22
-0.998444, 389, 91, 420, 106
-0.998444, 353, 285, 384, 300
-0.998445, 393, 33, 424, 288
-0.998446, 225, 295, 256, 310
-0.998448, 313, 261, 344, 276
-0.998448, 329, 93, 360, 108
-0.998448, 1, 145, 500, 208
-0.998449, 353, 113, 384, 128
-0.998449, 377, 91, 408, 106
-0.998449, 341, 279, 372, 294
-0.998449, 145, 277, 176, 292
-0.99845, 193, 301, 256, 316
-0.998452, 345, 87, 408, 102
-0.998453, 229, 57, 260, 72
-0.998455, 225, 49, 256, 64
-0.998455, 261, 197, 292, 212
-0.998455, 325, 307, 356, 322
-0.998456, 233, 37, 264, 52
-0.998456, 313, 287, 344, 302
-0.998457, 233, 305, 264, 320
-0.998458, 125, 211, 156, 226
-0.998458, 197, 275, 228, 290
-0.998459, 225, 203, 288, 218
-0.998461, 237, 1, 268, 16
-0.998461, 337, 303, 368, 318
-0.998461, 221, 63, 252, 78
-0.998462, 361, 125, 392, 140
-0.998462, 237, 217, 268, 232
-0.998462, 461, 163, 492, 178
-0.998464, 217, 301, 248, 316
-0.998464, 317, 313, 348, 328
-0.998465, 365, 135, 396, 150
-0.998465, 249, 11, 280, 26
-0.998465, 353, 275, 384, 290
-0.998467, 353, 131, 384, 146
-0.998468, 205, 23, 236, 38
-0.998469, 305, 305, 368, 320
-0.998469, 193, 45, 224, 60
-0.99847, 389, 147, 420, 162
-0.998471, 161, 249, 192, 264
-0.998471, 321, 281, 352, 296
-0.998472, 213, 15, 244, 30
-0.998472, 345, 225, 376, 240
-0.998473, 181, 261, 212, 276
-0.998475, 381, 129, 412, 144
-0.998475, 353, 269, 384, 284
-0.998476, 177, 183, 240, 198
-0.998478, 141, 241, 172, 256
-0.998479, 465, 151, 496, 166
-0.998481, 381, 121, 412, 136
-0.998483, 297, 311, 328, 326
-0.998483, 145, 285, 176, 300
-0.998484, 245, 211, 276, 226
-0.998485, 181, 39, 212, 54
-0.998488, 257, 5, 288, 20
-0.998489, 229, 43, 260, 58
-0.99849, 281, 55, 312, 70
-0.998491, 229, 193, 260, 208
-0.998492, 353, 281, 416, 296
-0.998492, 245, 45, 276, 60
-0.998494, 149, 235, 180, 250
-0.998494, 341, 93, 372, 108
-0.998495, 357, 251, 388, 266
-0.998496, 209, 37, 272, 52
-0.998496, 193, 47, 256, 62
-0.998496, 193, 27, 224, 42
-0.998497, 245, 197, 276, 212
-0.998498, 261, 47, 292, 62
-0.998498, 281, 315, 344, 330
-0.998498, 325, 273, 356, 288
-0.998499, 41, 1, 104, 333
-0.998499, 465, 157, 496, 172
-0.9985, 161, 113, 416, 176
-0.998502, 277, 315, 308, 330
-0.998502, 205, 9, 236, 24
-0.998505, 205, 3, 236, 18
-0.998506, 245, 35, 276, 50
-0.998507, 265, 11, 296, 26
-0.998507, 313, 267, 376, 282
-0.998508, 157, 271, 188, 286
-0.998508, 261, 55, 292, 70
-0.998509, 205, 285, 236, 300
-0.99851, 369, 85, 400, 100
-0.998512, 461, 79, 492, 94
-0.998512, 217, 193, 280, 208
-0.998512, 313, 307, 344, 322
-0.998513, 353, 143, 416, 158
-0.998513, 353, 119, 384, 134
-0.998514, 257, 33, 320, 48
-0.998514, 181, 267, 212, 282
-0.998514, 305, 297, 368, 312
-0.998515, 345, 269, 408, 284
-0.998516, 113, 219, 176, 234
-0.998516, 265, 203, 296, 218
-0.998517, 97, 89, 224, 120
-0.998519, 249, 203, 312, 218
-0.99852, 313, 261, 376, 276
-0.99852, 329, 253, 392, 268
-0.998521, 353, 149, 416, 164
-0.998522, 321, 291, 384, 306
-0.998522, 225, 313, 288, 328
-0.998522, 205, 33, 236, 48
-0.998522, 257, 39, 320, 54
-0.998523, 377, 155, 408, 170
-0.998524, 321, 295, 352, 310
-0.998525, 381, 139, 412, 154
-0.998526, 321, 273, 384, 288
-0.998527, 325, 263, 356, 278
-0.998527, 209, 31, 272, 46
-0.99853, 345, 275, 408, 290
-0.998531, 193, 51, 224, 66
-0.998531, 353, 133, 416, 148
-0.998533, 253, 29, 284, 44
-0.998533, 217, 219, 280, 234
-0.998534, 305, 311, 368, 326
-0.998534, 353, 93, 416, 108
-0.998536, 337, 227, 400, 242
-0.998537, 345, 81, 408, 96
-0.998538, 253, 23, 284, 38
-0.998538, 113, 231, 176, 246
-0.998538, 209, 23, 272, 38
-0.998538, 217, 211, 280, 226
-0.998538, 353, 127, 416, 142
-0.998539, 365, 141, 396, 156
-0.998541, 273, 33, 304, 48
-0.998541, 197, 179, 228, 194
-0.998541, 341, 65, 372, 320
-0.998542, 129, 243, 192, 258
-0.998545, 257, 47, 320, 62
-0.998545, 337, 253, 368, 268
-0.998546, 185, 35, 248, 50
-0.998546, 153, 241, 184, 256
-0.998546, 281, 301, 344, 316
-0.998546, 369, 155, 432, 170
-0.998547, 241, 15, 304, 30
-0.998547, 245, 17, 276, 32
-0.998548, 193, 53, 256, 68
-0.998549, 257, 211, 320, 226
-0.99855, 237, 203, 268, 218
-0.99855, 145, 259, 208, 274
-0.99855, 353, 263, 416, 278
-0.998551, 241, 25, 304, 40
-0.998552, 329, 235, 392, 250
-0.998552, 237, 7, 268, 22
-0.998552, 121, 261, 184, 276
-0.998553, 225, 5, 256, 20
-0.998553, 145, 13, 272, 44
-0.998555, 113, 237, 176, 252
-0.998556, 341, 87, 372, 102
-0.998556, 213, 295, 244, 310
-0.998556, 233, 47, 296, 62
-0.998557, 281, 41, 312, 56
-0.998557, 377, 149, 408, 164
-0.998558, 353, 113, 416, 128
-0.99856, 353, 249, 416, 264
-0.998561, 113, 225, 176, 240
-0.998561, 137, 285, 200, 300
-0.998561, 257, 317, 320, 332
-0.998562, 153, 267, 216, 282
-0.998563, 329, 285, 392, 300
-0.998566, 265, 17, 296, 32
-0.998568, 305, 317, 336, 332
-0.998568, 177, 289, 240, 304
-0.998568, 177, 283, 240, 298
-0.998569, 321, 241, 384, 256
-0.998569, 205, 39, 236, 54
-0.998571, 261, 39, 292, 54
-0.998572, 209, 89, 336, 120
-0.998572, 241, 55, 304, 70
-0.998572, 321, 279, 384, 294
-0.998574, 153, 295, 216, 310
-0.998574, 185, 189, 248, 204
-0.998574, 213, 45, 244, 60
-0.998575, 65, 49, 192, 80
-0.998575, 161, 273, 224, 288
-0.998576, 201, 1, 264, 16
-0.998576, 169, 43, 232, 58
-0.998576, 185, 295, 248, 310
-0.998577, 145, 181, 208, 196
-0.998578, 353, 121, 416, 136
-0.998579, 137, 253, 200, 268
-0.99858, 321, 89, 384, 104
-0.998581, 209, 15, 272, 30
-0.998581, 33, 65, 160, 96
-0.998582, 129, 1, 256, 32
-0.998583, 273, 271, 336, 286
-0.998584, 305, 317, 368, 332
-0.998584, 185, 197, 248, 212
-0.998585, 233, 37, 296, 52
-0.998587, 113, 213, 176, 228
-0.998588, 361, 287, 424, 302
-0.998588, 377, 89, 440, 104
-0.998589, 145, 187, 208, 202
-0.998589, 265, 75, 328, 90
-0.998589, 273, 47, 304, 62
-0.998589, 325, 257, 356, 272
-0.99859, 209, 295, 272, 310
-0.998591, 153, 307, 216, 322
-0.998593, 177, 177, 240, 192
-0.998593, 353, 293, 416, 308
-0.998597, 169, 23, 232, 38
-0.998597, 365, 149, 396, 164
-0.998598, 289, 251, 352, 266
-0.9986, 241, 195, 304, 210
-0.9986, 193, 267, 256, 282
-0.9986, 193, 39, 224, 54
-0.998601, 353, 257, 416, 272
-0.998601, 369, 269, 432, 284
-0.998602, 281, 307, 344, 322
-0.998602, 209, 279, 272, 294
-0.998602, 273, 265, 336, 280
-0.998603, 145, 237, 208, 252
-0.998605, 153, 301, 216, 316
-0.998607, 153, 279, 216, 294
-0.998609, 185, 307, 248, 322
-0.99861, 273, 295, 336, 310
-0.99861, 225, 303, 288, 318
-0.99861, 297, 273, 360, 288
-0.99861, 169, 29, 232, 44
-0.99861, 313, 225, 376, 240
-0.998611, 209, 225, 272, 240
-0.998611, 185, 259, 248, 274
-0.998611, 89, 221, 152, 236
-0.998612, 177, 253, 240, 268
-0.998612, 329, 207, 392, 222
-0.998612, 281, 53, 344, 68
-0.998613, 305, 197, 368, 212
-0.998615, 217, 285, 280, 300
-0.998616, 113, 255, 176, 270
-0.998616, 289, 81, 352, 96
-0.998619, 305, 285, 368, 300
-0.998619, 329, 117, 392, 132
-0.998619, 337, 221, 400, 236
-0.998619, 121, 267, 184, 282
-0.99862, 217, 187, 280, 202
-0.99862, 137, 193, 200, 208
-0.998622, 185, 209, 248, 224
-0.998622, 267, 1, 282, 128
-0.998623, 265, 3, 328, 18
-0.998624, 265, 195, 328, 210
-0.998624, 329, 303, 392, 318
-0.998626, 201, 7, 264, 22
-0.998627, 233, 297, 296, 312
-0.998627, 281, 37, 344, 52
-0.998627, 17, 109, 144, 140
-0.998641, 265, 23, 296, 38
-0.998656, 33, 97, 64, 224
-0.998658, 193, 33, 224, 48
-0.998669, 1, 25, 256, 88
-0.998685, 367, 81, 382, 208
-0.998704, 219, 1, 234, 128
-0.998707, 261, 1, 276, 128
-0.998722, 65, 109, 192, 140
-0.998727, 41, 65, 104, 320
-0.998728, 17, 165, 144, 196
-0.998736, 467, 49, 482, 176
-0.998738, 361, 65, 376, 192
-0.998753, 161, 85, 288, 116
-0.998753, 273, 1, 288, 128
-0.998756, 17, 185, 144, 216
-0.998769, 157, 65, 188, 320
-0.998776, 279, 1, 294, 128
-0.99879, 235, 1, 250, 128
-0.998798, 305, 53, 432, 84
-0.998799, 477, 97, 492, 224
-0.998811, 375, 145, 390, 272
-0.998814, 365, 193, 380, 320
-0.998832, 353, 189, 480, 220
-0.998857, 141, 33, 172, 288
-0.998878, 421, 97, 452, 224
-0.99888, 249, 177, 264, 304
-0.998898, 375, 193, 390, 320
-0.998904, 305, 13, 432, 44
-0.998906, 369, 41, 496, 72
-0.99891, 305, 165, 432, 196
-0.998919, 243, 177, 258, 304
-0.998921, 241, 169, 368, 200
-0.998939, 133, 193, 148, 320
-0.998939, 471, 97, 486, 224
-0.99894, 13, 33, 44, 288
-0.998949, 367, 145, 382, 272
-0.998954, 335, 177, 350, 304
-0.998971, 479, 49, 494, 176
-0.998977, 485, 65, 500, 192
-0.998978, 241, 1, 256, 128
-0.99898, 1, 145, 128, 176
-0.998982, 201, 1, 216, 128
-0.998987, 129, 137, 384, 200
-0.998995, 33, 257, 160, 288
-0.999005, 357, 17, 388, 144
-0.99901, 1, 113, 500, 176
-0.999014, 25, 33, 56, 288
-0.999019, 225, 1, 240, 128
-0.999024, 97, 13, 224, 44
-0.999026, 1, 25, 500, 88
-0.999029, 65, 157, 192, 188
-0.999032, 349, 177, 364, 304
-0.99904, 197, 177, 212, 304
-0.999047, 341, 193, 356, 320
-0.999055, 357, 177, 372, 304
-0.999055, 255, 193, 270, 320
-0.999058, 153, 209, 168, 333
-0.999067, 211, 161, 226, 288
-0.999071, 109, 65, 140, 320
-0.999072, 381, 97, 396, 224
-0.999074, 235, 161, 250, 288
-0.999076, 203, 161, 218, 288
-0.999079, 329, 177, 344, 304
-0.999079, 127, 49, 142, 176
-0.999083, 299, 17, 314, 144
-0.999087, 359, 129, 374, 256
-0.999102, 147, 193, 162, 320
-0.999103, 445, 17, 476, 144
-0.999107, 375, 65, 390, 192
-0.999112, 135, 49, 150, 176
-0.999118, 191, 177, 206, 304
-0.999125, 125, 209, 140, 333
-0.999129, 229, 177, 244, 304
-0.999134, 473, 49, 488, 176
-0.999139, 387, 81, 402, 208
-0.999142, 159, 209, 174, 333
-0.999146, 145, 121, 272, 152
-0.999148, 193, 33, 208, 160
-0.999152, 49, 293, 176, 324
-0.999169, 205, 113, 220, 240
-0.999175, 221, 177, 236, 304
-0.999182, 197, 113, 212, 240
-0.999185, 141, 65, 156, 192
-0.999194, 139, 161, 154, 288
-0.999195, 135, 97, 150, 224
-0.999204, 313, 209, 328, 333
-0.999205, 139, 209, 154, 333
-0.999206, 307, 209, 322, 333
-0.999216, 393, 17, 408, 144
-0.999217, 247, 49, 262, 176
-0.999219, 213, 209, 228, 333
-0.999221, 465, 97, 480, 224
-0.999228, 395, 113, 410, 240
-0.999229, 319, 177, 334, 304
-0.999231, 381, 209, 396, 333
-0.999231, 261, 193, 276, 320
-0.999231, 277, 65, 308, 192
-0.999236, 121, 49, 136, 176
-0.99924, 393, 209, 408, 333
-0.99924, 263, 49, 278, 176
-0.999247, 347, 49, 362, 176
-0.999252, 301, 209, 316, 333
-0.999253, 267, 177, 282, 304
-0.999268, 251, 1, 266, 128
-0.999273, 183, 177, 198, 304
-0.999274, 165, 161, 180, 288
-0.999283, 165, 209, 180, 333
-0.999284, 401, 81, 416, 208
-0.999297, 387, 209, 402, 333
-0.999302, 207, 49, 222, 176
-0.999303, 125, 97, 140, 224
-0.999304, 483, 113, 498, 240
-0.999305, 287, 1, 302, 128
-0.999312, 413, 193, 444, 320
-0.999315, 235, 209, 250, 333
-0.999316, 41, 65, 104, 192
-0.999323, 441, 81, 472, 208
-0.999332, 295, 193, 310, 320
-0.999333, 153, 161, 168, 288
-0.999335, 353, 113, 368, 240
-0.999335, 23, 81, 38, 208
-0.999336, 381, 145, 396, 272
-0.999336, 169, 65, 200, 320
-0.999337, 177, 161, 192, 288
-0.999339, 241, 49, 256, 176
-0.999342, 101, 193, 132, 320
-0.999346, 65, 193, 128, 320
-0.999347, 205, 209, 220, 333
-0.999349, 33, 1, 160, 64
-0.999355, 381, 49, 396, 176
-0.999359, 187, 129, 202, 256
-0.999372, 369, 33, 384, 160
-0.999374, 45, 97, 76, 224
-0.999379, 293, 33, 308, 160
-0.99938, 271, 49, 286, 176
-0.999383, 15, 49, 30, 176
-0.999386, 485, 17, 500, 144
-0.999388, 387, 129, 402, 256
-0.99939, 257, 145, 272, 272
-0.999391, 245, 129, 260, 256
-0.999391, 469, 145, 484, 272
-0.999391, 257, 49, 272, 176
-0.999398, 145, 145, 160, 272
-0.999398, 393, 65, 408, 192
-0.999401, 475, 145, 490, 272
-0.99941, 325, 65, 356, 320
-0.999411, 341, 81, 356, 208
-0.999414, 273, 161, 288, 288
-0.999424, 171, 161, 186, 288
-0.999426, 221, 49, 236, 176
-0.99943, 459, 81, 474, 208
-0.999433, 285, 161, 300, 288
-0.999451, 473, 1, 488, 128
-0.99946, 227, 49, 242, 176
-0.999461, 223, 129, 238, 256
-0.999461, 217, 129, 232, 256
-0.999466, 337, 33, 352, 160
-0.999471, 235, 113, 250, 240
-0.999472, 235, 49, 250, 176
-0.999479, 159, 161, 174, 288
-0.999479, 251, 129, 266, 256
-0.999489, 401, 129, 416, 256
-0.999492, 403, 209, 418, 333
-0.999493, 279, 209, 294, 333
-0.99951, 171, 209, 186, 333
-0.99951, 147, 81, 162, 208
-0.999518, 313, 161, 328, 288
-0.999522, 305, 161, 320, 288
-0.999527, 187, 17, 202, 144
-0.999536, 279, 145, 294, 272
-0.999543, 405, 65, 436, 320
-0.999551, 441, 1, 472, 256
-0.999627, 293, 97, 324, 224
-0.99963, 231, 61, 246, 76
-0.999631, 381, 119, 396, 134
-0.999631, 243, 195, 258, 210
-0.999632, 151, 275, 166, 290
-0.999632, 205, 17, 220, 32
-0.999633, 235, 55, 250, 70
-0.999633, 289, 51, 304, 66
-0.999633, 259, 33, 274, 48
-0.999633, 331, 305, 346, 320
-0.999634, 157, 281, 172, 296
-0.999634, 153, 249, 168, 264
-0.999634, 195, 183, 210, 198
-0.999635, 235, 203, 250, 218
-0.999635, 373, 285, 388, 300
-0.999635, 477, 139, 492, 154
-0.999636, 159, 301, 174, 316
-0.999636, 395, 127, 410, 142
-0.999637, 389, 95, 404, 110
-0.999638, 149, 269, 164, 284
-0.999638, 367, 93, 382, 108
-0.999639, 349, 299, 364, 314
-0.999639, 157, 289, 172, 304
-0.999639, 217, 285, 232, 300
-0.999639, 369, 135, 384, 150
-0.999639, 253, 203, 268, 218
-0.999641, 317, 305, 332, 320
-0.999641, 359, 133, 374, 148
-0.999642, 339, 87, 354, 102
-0.999642, 379, 133, 394, 148
-0.999642, 293, 315, 308, 330
-0.999643, 123, 253, 138, 268
-0.999644, 207, 177, 222, 192
-0.999645, 263, 201, 278, 216
-0.999646, 459, 79, 474, 94
-0.999646, 361, 93, 376, 108
-0.999648, 279, 45, 294, 60
-0.999648, 153, 237, 168, 252
-0.999649, 271, 55, 286, 70
-0.99965, 159, 269, 174, 284
-0.999651, 365, 115, 380, 130
-0.999651, 395, 89, 410, 104
-0.999651, 279, 39, 294, 54
-0.999651, 259, 45, 274, 60
-0.999652, 331, 287, 346, 302
-0.999654, 237, 303, 252, 318
-0.999655, 479, 117, 494, 132
-0.999655, 253, 31, 268, 46
-0.999655, 237, 39, 252, 54
-0.999656, 219, 43, 234, 58
-0.999656, 145, 283, 160, 298
-0.999657, 221, 19, 236, 34
-0.999657, 219, 183, 234, 198
-0.999658, 191, 41, 206, 56
-0.99966, 379, 143, 394, 158
-0.99966, 277, 55, 292, 70
-0.999662, 201, 49, 216, 64
-0.999663, 147, 241, 162, 256
-0.999663, 345, 89, 360, 104
-0.999663, 259, 17, 274, 32
-0.999663, 249, 13, 264, 28
-0.999664, 209, 51, 224, 66
-0.999664, 325, 265, 340, 280
-0.999665, 477, 145, 492, 160
-0.999665, 131, 227, 146, 242
-0.999665, 231, 49, 246, 64
-0.999666, 325, 277, 340, 292
-0.999668, 205, 275, 220, 290
-0.999668, 211, 283, 226, 298
-0.999668, 157, 295, 172, 310
-0.999669, 247, 5, 262, 20
-0.999669, 241, 7, 256, 22
-0.99967, 325, 283, 340, 298
-0.999672, 257, 39, 272, 54
-0.999673, 359, 141, 374, 156
-0.999681, 153, 243, 168, 258
-0.999681, 323, 289, 338, 304
-0.999681, 183, 257, 198, 272
-0.999682, 249, 197, 264, 212
-0.999683, 215, 29, 230, 44
-0.999684, 373, 123, 388, 138
-0.999685, 335, 257, 350, 272
-0.999685, 197, 267, 212, 282
-0.999687, 361, 87, 376, 102
-0.999687, 325, 271, 340, 286
-0.99969, 215, 37, 230, 52
-0.99969, 349, 253, 364, 268
-0.999691, 273, 31, 288, 46
-0.999691, 357, 251, 372, 266
-0.999695, 151, 285, 166, 300
-0.999696, 341, 255, 356, 270
-0.999697, 191, 263, 206, 278
-0.999697, 317, 315, 332, 330
-0.999699, 381, 149, 396, 164
-0.999699, 279, 5, 294, 20
-0.999699, 221, 1, 236, 16
-0.999703, 369, 151, 384, 166
-0.999703, 259, 25, 274, 40
-0.999703, 369, 141, 384, 156
-0.999704, 221, 13, 236, 28
-0.999709, 221, 291, 236, 306
-0.999709, 275, 25, 290, 40
-0.999711, 465, 79, 480, 94
-0.999712, 267, 47, 282, 62
-0.999713, 201, 41, 216, 56
-0.999716, 225, 43, 240, 58
-0.99972, 97, 33, 128, 288
-0.999721, 265, 31, 280, 46
-0.999722, 217, 7, 232, 22
-0.999723, 367, 87, 382, 102
-0.999724, 195, 35, 210, 50
-0.999725, 201, 31, 216, 46
-0.999725, 161, 237, 176, 252
-0.999731, 263, 39, 278, 54
-0.999733, 231, 43, 246, 58
-0.999737, 241, 1, 256, 16
-0.999738, 389, 89, 404, 104
-0.99974, 255, 11, 270, 26
-0.999748, 215, 23, 230, 38
-0.999764, 327, 259, 342, 274
-0.999764, 229, 295, 244, 310
-0.999767, 275, 17, 290, 32
-0.999779, 209, 33, 224, 48
-0.999782, 273, 45, 288, 60
-0.999784, 209, 45, 224, 60
-0.999787, 269, 23, 284, 38
-0.999793, 209, 39, 224, 54
-0.999797, 209, 23, 224, 38
-0.999799, 269, 37, 284, 52
-0.999814, 211, 7, 226, 22
-0.999831, 211, 15, 226, 30
-0.999849, 215, 1, 230, 16
-0.999861, 13, 33, 44, 160
-0.999867, 37, 33, 68, 288
-0.999902, 417, 65, 448, 320
-0.999932, 81, 97, 112, 224
-1.0001, 49, 33, 80, 288
-1.00017, 269, 113, 300, 240
-1.00018, 5, 177, 36, 304
-1.00025, 425, 193, 456, 320
-1.00033, 157, 1, 188, 128
-1.00034, 309, 81, 340, 208
-1.00036, 113, 1, 144, 128
-1.00039, 81, 1, 112, 256
-1.00052, 17, 193, 80, 320
-1.00056, 429, 65, 460, 320
-1.00057, 61, 33, 92, 288
-1.00066, 25, 145, 56, 272
-1.00074, 1, 1, 500, 64
-1.00075, 65, 65, 96, 192
-1.00077, 441, 129, 472, 256
-1.00089, 409, 145, 472, 272
-1.00095, 409, 1, 472, 128
-1.00136, 101, 145, 132, 272
-1.00161, 149, 65, 180, 192
-1.00167, 85, 145, 116, 272
-1.00186, 421, 49, 452, 176
-1.00194, 81, 49, 112, 176
-1.00233, 17, 193, 48, 320
-1.00252, 437, 193, 468, 320
-1.00271, 421, 145, 452, 272
-1.00292, 1, 241, 128, 304
-1.00329, 1, 273, 128, 333
-1.00392, 41, 17, 104, 144
-1.0064, 41, 177, 104, 304
