1958
-0.464074, 1, 129, 500, 375
-0.46615, 1, 1, 500, 375
-0.497934, 129, 1, 384, 375
-0.565652, 257, 1, 500, 375
-0.567838, 1, 33, 500, 288
-0.584591, 193, 129, 448, 375
-0.608286, 1, 1, 256, 375
-0.659564, 97, 65, 352, 320
-0.670309, 1, 65, 256, 320
-0.718364, 257, 33, 500, 288
-0.86267, 1, 193, 500, 320
-0.869685, 337, 1, 464, 375
-0.872074, 113, 1, 240, 375
-0.873204, 225, 129, 352, 375
-0.874664, 305, 129, 432, 375
-0.877039, 49, 1, 176, 375
-0.877473, 353, 129, 480, 375
-0.880107, 1, 97, 128, 352
-0.880989, 289, 1, 416, 375
-0.884013, 1, 81, 500, 208
-0.887068, 113, 129, 240, 375
-0.888852, 177, 1, 304, 375
-0.889064, 225, 1, 352, 375
-0.891744, 177, 1, 304, 256
-0.892599, 225, 33, 352, 288
-0.894976, 1, 241, 500, 368
-0.8999, 193, 193, 448, 320
-0.900983, 1, 1, 128, 375
-0.904121, 65, 129, 192, 375
-0.906318, 161, 129, 288, 375
-0.907258, 113, 33, 240, 288
-0.909342, 97, 209, 352, 336
-0.910164, 337, 33, 464, 288
-0.910897, 273, 33, 400, 288
-0.911178, 97, 65, 352, 192
-0.91419, 225, 241, 480, 368
-0.917899, 1, 209, 256, 336
-0.924002, 33, 1, 160, 256
-0.924328, 1, 225, 128, 352
-0.925291, 1, 81, 256, 208
-0.925386, 305, 193, 432, 320
-0.927346, 297, 225, 360, 352
-0.931249, 369, 209, 432, 336
-0.931417, 1, 33, 500, 160
-0.932485, 321, 193, 384, 320
-0.933704, 209, 177, 336, 304
-0.934145, 129, 209, 256, 336
-0.934586, 1, 129, 500, 256
-0.93486, 17, 225, 80, 352
-0.936228, 65, 209, 192, 336
-0.936709, 257, 177, 320, 304
-0.937761, 257, 145, 500, 272
-0.938321, 305, 241, 432, 368
-0.93845, 161, 161, 288, 288
-0.938564, 129, 129, 384, 256
-0.941135, 73, 225, 136, 352
-0.941685, 409, 225, 472, 352
-0.942154, 113, 225, 176, 352
-0.942796, 33, 81, 160, 208
-0.943047, 225, 241, 352, 368
-0.94381, 353, 209, 480, 336
-0.943814, 257, 177, 384, 304
-0.944126, 97, 49, 224, 176
-0.944268, 297, 97, 360, 224
-0.94575, 33, 145, 288, 272
-0.945933, 145, 65, 272, 192
-0.946502, 113, 49, 176, 176
-0.94746, 193, 65, 448, 192
-0.947834, 273, 113, 336, 240
-0.947834, 137, 209, 200, 336
-0.948469, 345, 193, 408, 320
-0.948687, 337, 145, 464, 272
-0.94917, 33, 17, 288, 144
-0.949759, 161, 73, 224, 136
-0.949794, 161, 49, 224, 176
-0.949885, 369, 201, 432, 264
-0.950529, 409, 177, 472, 304
-0.950603, 433, 1, 496, 128
-0.950664, 281, 177, 344, 304
-0.950669, 273, 113, 400, 240
-0.951086, 193, 17, 448, 144
-0.951172, 41, 209, 104, 336
-0.951547, 97, 209, 160, 272
-0.95205, 265, 193, 328, 256
-0.9526, 201, 193, 264, 320
-0.952637, 9, 241, 72, 304
-0.952665, 377, 273, 440, 336
-0.953267, 137, 49, 200, 176
-0.954, 209, 129, 336, 256
-0.954012, 81, 81, 144, 144
-0.954242, 33, 81, 96, 208
-0.954333, 193, 49, 256, 176
-0.954389, 81, 177, 144, 304
-0.954962, 193, 313, 256, 375
-0.955349, 33, 97, 96, 160
-0.955518, 209, 81, 336, 208
-0.955775, 265, 249, 328, 312
-0.955962, 433, 209, 496, 336
-0.95614, 185, 65, 248, 128
-0.956188, 81, 65, 144, 192
-0.9562, 345, 241, 408, 368
-0.956865, 105, 73, 168, 136
-0.956932, 289, 113, 352, 176
-0.957497, 73, 225, 136, 288
-0.957639, 57, 81, 120, 144
-0.958229, 433, 161, 496, 288
-0.958267, 289, 281, 352, 344
-0.958332, 129, 73, 192, 136
-0.958468, 113, 161, 240, 288
-0.958993, 97, 281, 160, 344
-0.959083, 217, 145, 280, 272
-0.959321, 177, 201, 240, 264
-0.95942, 321, 201, 384, 264
-0.959435, 33, 257, 96, 320
-0.959456, 321, 241, 384, 368
-0.959813, 33, 33, 160, 160
-0.959826, 409, 209, 472, 272
-0.960606, 273, 49, 336, 176
-0.960699, 209, 73, 272, 136
-0.960753, 225, 49, 288, 176
-0.96087, 177, 193, 240, 320
-0.960891, 265, 241, 328, 368
-0.960988, 225, 217, 288, 280
-0.961509, 257, 97, 320, 160
-0.961521, 89, 257, 152, 320
-0.961831, 41, 233, 104, 296
-0.961846, 1, 177, 128, 304
-0.962091, 73, 281, 136, 344
-0.962224, 433, 1, 496, 64
-0.962477, 113, 1, 240, 128
-0.962576, 129, 233, 192, 296
-0.963002, 153, 201, 216, 264
-0.96307, 393, 233, 456, 296
-0.963194, 217, 313, 280, 375
-0.963498, 297, 225, 360, 288
-0.963523, 353, 281, 416, 344
-0.963895, 249, 97, 312, 224
-0.963925, 161, 113, 288, 240
-0.964313, 353, 233, 416, 296
-0.964387, 193, 33, 320, 160
-0.964583, 337, 145, 400, 272
-0.965214, 185, 225, 248, 288
-0.965259, 65, 257, 128, 320
-0.965532, 177, 225, 304, 352
-0.965534, 297, 257, 360, 320
-0.96561, 105, 97, 168, 160
-0.966144, 377, 161, 440, 288
-0.966172, 121, 281, 184, 344
-0.966514, 289, 49, 416, 176
-0.966538, 153, 145, 216, 272
-0.966546, 321, 289, 384, 352
-0.966579, 9, 281, 72, 344
-0.966707, 369, 1, 496, 128
-0.966935, 33, 33, 96, 160
-0.967065, 225, 193, 288, 320
-0.967173, 241, 241, 304, 368
-0.967211, 433, 201, 496, 264
-0.967262, 121, 201, 184, 264
-0.967429, 321, 249, 384, 312
-0.967563, 65, 129, 192, 256
-0.967597, 345, 209, 408, 272
-0.96763, 313, 145, 376, 272
-0.967683, 225, 313, 256, 375
-0.967981, 409, 1, 472, 64
-0.968212, 17, 217, 80, 280
-0.968213, 185, 1, 248, 128
-0.968535, 225, 1, 288, 128
-0.968602, 289, 305, 352, 368
-0.968636, 17, 241, 48, 304
-0.968667, 417, 233, 480, 296
-0.968775, 121, 257, 184, 320
-0.968965, 309, 225, 340, 352
-0.969025, 101, 81, 132, 144
-0.969118, 129, 129, 192, 256
-0.969373, 313, 129, 376, 192
-0.969585, 177, 145, 240, 272
-0.969759, 201, 201, 264, 264
-0.969874, 305, 289, 432, 352
-0.969937, 249, 49, 312, 176
-0.970149, 105, 177, 168, 304
-0.970296, 337, 65, 464, 192
-0.970299, 73, 17, 136, 144
-0.970451, 373, 217, 404, 280
-0.970652, 233, 105, 296, 168
-0.970754, 113, 73, 240, 136
-0.970917, 113, 201, 240, 264
-0.970945, 153, 257, 216, 320
-0.970953, 17, 225, 48, 352
-0.970979, 409, 225, 440, 352
-0.971011, 169, 73, 200, 136
-0.971012, 1, 65, 64, 192
-0.971061, 409, 1, 472, 128
-0.971176, 353, 209, 480, 272
-0.9715, 49, 89, 176, 152
-0.971524, 289, 241, 416, 304
-0.971558, 185, 89, 248, 152
-0.971666, 241, 33, 368, 160
-0.971771, 297, 49, 360, 176
-0.971891, 49, 281, 112, 344
-0.97191, 97, 233, 160, 296
-0.971994, 1, 289, 128, 352
-0.972218, 385, 225, 416, 352
-0.972309, 177, 97, 240, 224
-0.972378, 193, 313, 320, 375
-0.972606, 393, 201, 424, 264
-0.97261, 309, 257, 340, 320
-0.972619, 309, 177, 340, 304
-0.972649, 161, 225, 224, 288
-0.972691, 69, 225, 100, 352
-0.972736, 65, 105, 128, 168
-0.972894, 185, 73, 216, 136
-0.972904, 1, 241, 128, 304
-0.972968, 121, 225, 152, 352
-0.973043, 213, 313, 244, 375
-0.973054, 129, 97, 192, 160
-0.973078, 409, 185, 472, 248
-0.973098, 329, 49, 392, 176
-0.973171, 369, 193, 400, 320
-0.973205, 297, 193, 360, 256
-0.973232, 129, 49, 192, 112
-0.973264, 57, 65, 120, 192
-0.973373, 157, 73, 188, 136
-0.973379, 113, 81, 144, 144
-0.973494, 85, 225, 116, 352
-0.973514, 109, 209, 140, 272
-0.973545, 345, 105, 408, 168
-0.973717, 113, 289, 240, 352
-0.973742, 289, 89, 352, 152
-0.973744, 425, 225, 456, 352
-0.973775, 209, 65, 240, 128
-0.973875, 409, 129, 472, 256
-0.974084, 109, 225, 140, 352
-0.97432, 161, 49, 224, 112
-0.974386, 233, 81, 264, 144
-0.974479, 77, 281, 108, 344
-0.974493, 305, 201, 432, 264
-0.974544, 313, 89, 376, 152
-0.974558, 65, 217, 192, 280
-0.974622, 397, 193, 428, 320
-0.974639, 321, 113, 352, 176
-0.974648, 121, 305, 184, 368
-0.974762, 353, 273, 480, 336
-0.974803, 9, 177, 72, 304
-0.9749, 133, 225, 164, 352
-0.974946, 161, 73, 288, 136
-0.974973, 257, 193, 384, 256
-0.975058, 353, 129, 416, 375
-0.975129, 233, 129, 296, 192
-0.975291, 233, 81, 296, 144
-0.975472, 153, 97, 216, 160
-0.975503, 385, 249, 416, 312
-0.975606, 17, 129, 80, 375
-0.975656, 89, 81, 120, 144
-0.975746, 177, 169, 304, 232
-0.975747, 109, 281, 140, 344
-0.976027, 217, 177, 280, 240
-0.976075, 113, 1, 176, 128
-0.976075, 297, 241, 328, 368
-0.976137, 57, 89, 88, 152
-0.976141, 229, 177, 260, 304
-0.976159, 121, 201, 152, 264
-0.976219, 185, 289, 248, 352
-0.976257, 393, 137, 456, 200
-0.976315, 265, 313, 328, 375
-0.976485, 129, 129, 192, 375
-0.976491, 121, 281, 152, 344
-0.976553, 161, 1, 224, 128
-0.976578, 185, 241, 248, 368
-0.9766, 1, 217, 128, 280
-0.976632, 41, 161, 104, 288
-0.976634, 197, 65, 228, 128
-0.976693, 201, 97, 264, 224
-0.976714, 289, 313, 416, 375
-0.976717, 69, 257, 100, 320
-0.97674, 237, 313, 268, 375
-0.97674, 145, 313, 272, 375
-0.976786, 89, 281, 120, 344
-0.976804, 1, 313, 64, 375
-0.976852, 317, 297, 348, 360
-0.976863, 161, 97, 224, 352
-0.97694, 217, 241, 280, 368
-0.976968, 345, 129, 408, 192
-0.977052, 321, 97, 384, 224
-0.977056, 137, 49, 168, 176
-0.977056, 329, 225, 360, 352
-0.977073, 13, 281, 44, 344
-0.977131, 397, 233, 428, 296
-0.977162, 345, 257, 408, 320
-0.977283, 233, 49, 296, 112
-0.977286, 209, 97, 272, 160
-0.977311, 209, 193, 336, 256
-0.977405, 133, 73, 164, 136
-0.97742, 137, 281, 168, 344
-0.977492, 81, 257, 112, 320
-0.977501, 297, 289, 328, 352
-0.977614, 225, 97, 288, 224
-0.977619, 273, 1, 336, 128
-0.977656, 69, 81, 100, 144
-0.977661, 61, 233, 92, 296
-0.977666, 89, 305, 152, 368
-0.977747, 241, 185, 304, 248
-0.977772, 225, 281, 352, 344
-0.977838, 241, 97, 368, 160
-0.977851, 57, 225, 88, 352
-0.977885, 289, 177, 320, 304
-0.977897, 273, 121, 400, 184
-0.977971, 249, 65, 312, 320
-0.977977, 73, 233, 104, 296
-0.977998, 197, 201, 228, 264
-0.978021, 321, 129, 384, 375
-0.978178, 1, 265, 128, 328
-0.97819, 93, 217, 124, 280
-0.978194, 41, 209, 104, 272
-0.97827, 453, 1, 484, 128
-0.978278, 177, 209, 208, 272
-0.978346, 185, 65, 248, 320
-0.978365, 49, 233, 80, 296
-0.978412, 1, 305, 32, 368
-0.978428, 409, 281, 472, 344
-0.978464, 177, 217, 304, 280
-0.978523, 357, 193, 388, 320
-0.978553, 321, 97, 352, 224
-0.978553, 405, 209, 436, 272
-0.978587, 45, 89, 76, 152
-0.978663, 1, 97, 128, 160
-0.978686, 33, 233, 64, 296
-0.978694, 441, 1, 472, 64
-0.978715, 113, 113, 240, 240
-0.978729, 117, 49, 148, 176
-0.978781, 221, 73, 252, 136
-0.978881, 373, 241, 404, 368
-0.978883, 145, 209, 176, 336
-0.978948, 185, 41, 248, 104
-0.978961, 81, 57, 144, 120
-0.979075, 333, 121, 364, 184
-0.979079, 281, 97, 312, 224
-0.979095, 1, 281, 32, 344
-0.979152, 209, 257, 336, 320
-0.979163, 161, 241, 224, 368
-0.979163, 441, 1, 472, 128
-0.979169, 37, 209, 68, 336
-0.9792, 145, 73, 176, 136
-0.979255, 397, 241, 428, 368
-0.979311, 385, 105, 448, 168
-0.979317, 65, 281, 192, 344
-0.979369, 257, 225, 320, 288
-0.979372, 369, 233, 496, 296
-0.979406, 421, 177, 452, 304
-0.979478, 281, 169, 344, 232
-0.979502, 273, 97, 304, 160
-0.979504, 53, 257, 84, 320
-0.979537, 229, 65, 260, 192
-0.979549, 273, 265, 400, 328
-0.979558, 329, 177, 392, 240
-0.979583, 321, 225, 384, 288
-0.979614, 417, 145, 480, 208
-0.979652, 229, 201, 260, 264
-0.979738, 49, 257, 176, 320
-0.979777, 321, 105, 448, 168
-0.9798, 137, 1, 200, 128
-0.97982, 65, 201, 128, 264
-0.979876, 105, 49, 168, 112
-0.97992, 289, 1, 416, 128
-0.979974, 385, 177, 416, 304
-0.979983, 109, 57, 140, 120
-0.980062, 469, 1, 500, 128
-0.980078, 169, 313, 232, 375
-0.980078, 317, 193, 348, 256
-0.980092, 321, 177, 352, 304
-0.980097, 157, 49, 188, 176
-0.980131, 445, 209, 476, 336
-0.98014, 469, 1, 500, 64
-0.980161, 173, 49, 204, 176
-0.980215, 209, 49, 240, 176
-0.98022, 209, 129, 272, 192
-0.980241, 73, 129, 136, 375
-0.980281, 305, 105, 336, 168
-0.980381, 345, 305, 408, 368
-0.980409, 197, 49, 228, 176
-0.980474, 121, 129, 184, 192
-0.980504, 241, 305, 304, 368
-0.98055, 433, 169, 496, 232
-0.980643, 245, 81, 276, 144
-0.980644, 185, 49, 216, 176
-0.980647, 297, 129, 360, 375
-0.980678, 1, 121, 64, 184
-0.980693, 433, 49, 496, 176
-0.980712, 241, 305, 368, 368
-0.980722, 129, 97, 256, 160
-0.980731, 249, 185, 280, 248
-0.980746, 129, 225, 256, 288
-0.980838, 209, 49, 272, 112
-0.980883, 177, 233, 208, 296
-0.980885, 441, 145, 472, 272
-0.98095, 373, 241, 404, 304
-0.981036, 393, 65, 456, 320
-0.981054, 361, 209, 392, 272
-0.98107, 249, 225, 280, 288
-0.981142, 381, 193, 412, 256
-0.981146, 105, 97, 168, 224
-0.981172, 409, 233, 440, 296
-0.981187, 265, 177, 296, 304
-0.9812, 369, 177, 432, 240
-0.981259, 97, 257, 128, 320
-0.981277, 121, 257, 152, 320
-0.981297, 209, 65, 336, 128
-0.981302, 161, 193, 192, 320
-0.981358, 173, 177, 204, 304
-0.981374, 273, 129, 336, 375
-0.981398, 1, 129, 128, 256
-0.981432, 349, 201, 380, 264
-0.981448, 377, 313, 440, 375
-0.981448, 45, 65, 76, 192
-0.981454, 153, 233, 184, 296
-0.981528, 257, 121, 320, 184
-0.981538, 305, 169, 368, 232
-0.981581, 313, 313, 376, 375
-0.981662, 373, 273, 404, 336
-0.981667, 65, 305, 128, 368
-0.98171, 161, 193, 288, 256
-0.981719, 257, 89, 288, 152
-0.981729, 417, 201, 448, 264
-0.981729, 429, 233, 460, 296
-0.981755, 273, 193, 304, 256
-0.98176, 33, 65, 96, 128
-0.981792, 249, 145, 280, 272
-0.981925, 57, 65, 88, 192
-0.98196, 309, 113, 340, 240
-0.981967, 369, 153, 432, 216
-0.981987, 65, 65, 192, 128
-0.982078, 145, 281, 208, 344
-0.982136, 57, 57, 120, 120
-0.982159, 197, 209, 228, 336
-0.982186, 289, 105, 320, 168
-0.98225, 429, 1, 460, 64
-0.982256, 461, 161, 492, 288
-0.982287, 433, 129, 496, 375
-0.982306, 409, 177, 440, 304
-0.982381, 185, 177, 248, 240
-0.982406, 33, 257, 64, 320
-0.982442, 133, 233, 164, 296
-0.982507, 113, 265, 240, 328
-0.982531, 289, 313, 320, 375
-0.982558, 341, 193, 372, 320
-0.982576, 469, 201, 500, 264
-0.982586, 401, 273, 432, 336
-0.982589, 133, 257, 164, 320
-0.982656, 109, 257, 140, 320
-0.982669, 297, 113, 328, 240
-0.982706, 93, 177, 124, 304
-0.98271, 361, 281, 392, 344
-0.982741, 225, 129, 288, 375
-0.982782, 373, 145, 404, 272
-0.982791, 329, 297, 360, 360
-0.982844, 13, 217, 44, 280
-0.982869, 97, 225, 128, 352
-0.982871, 185, 49, 216, 112
-0.982948, 309, 233, 340, 296
-0.982952, 65, 289, 96, 352
-0.982953, 245, 241, 276, 368
-0.982969, 389, 273, 420, 336
-0.982975, 393, 65, 456, 192
-0.982991, 241, 257, 304, 320
-0.983033, 361, 113, 424, 240
-0.983056, 137, 209, 168, 272
-0.983148, 369, 1, 496, 64
-0.98317, 297, 1, 360, 64
-0.98318, 169, 49, 200, 112
-0.983216, 113, 49, 240, 112
-0.983244, 337, 113, 368, 240
-0.983251, 269, 81, 300, 208
-0.983251, 285, 241, 316, 304
-0.983344, 213, 193, 244, 256
-0.983356, 457, 1, 488, 64
-0.983383, 233, 57, 264, 120
-0.983396, 141, 97, 172, 160
-0.983437, 341, 289, 372, 352
-0.983481, 25, 289, 56, 352
-0.983512, 205, 289, 236, 352
-0.983528, 113, 169, 176, 232
-0.983549, 113, 177, 240, 240
-0.983558, 65, 193, 192, 256
-0.983562, 297, 25, 360, 88
-0.983592, 145, 305, 208, 368
-0.983632, 121, 57, 152, 120
-0.983794, 65, 305, 192, 368
-0.983802, 117, 233, 148, 296
-0.983831, 1, 113, 64, 240
-0.983995, 329, 201, 360, 264
-0.984031, 257, 73, 320, 136
-0.984043, 449, 209, 480, 272
-0.984081, 245, 105, 276, 168
-0.984094, 273, 1, 336, 64
-0.984167, 305, 1, 368, 128
-0.984199, 89, 177, 152, 240
-0.984239, 13, 313, 44, 375
-0.984258, 429, 209, 460, 272
-0.984263, 305, 1, 368, 375
-0.984286, 325, 257, 356, 320
-0.984359, 165, 201, 196, 264
-0.984369, 241, 217, 368, 280
-0.984374, 81, 177, 112, 304
-0.984389, 457, 233, 488, 296
-0.984402, 361, 1, 424, 128
-0.984414, 433, 1, 496, 375
-0.984415, 425, 1, 488, 256
-0.984458, 109, 177, 140, 304
-0.984473, 229, 129, 260, 256
-0.984515, 189, 225, 220, 288
-0.984517, 265, 289, 328, 352
-0.984551, 433, 49, 496, 112
-0.984564, 325, 225, 356, 288
-0.984576, 337, 49, 368, 176
-0.984589, 321, 177, 448, 240
-0.984626, 89, 121, 152, 184
-0.984683, 85, 105, 116, 168
-0.984687, 273, 25, 336, 88
-0.984728, 297, 257, 328, 320
-0.984758, 17, 177, 48, 304
-0.984865, 193, 113, 320, 176
-0.984927, 433, 113, 496, 240
-0.984961, 401, 305, 464, 368
-0.985037, 41, 65, 104, 320
-0.985064, 129, 97, 160, 160
-0.985084, 229, 177, 260, 240
-0.985084, 353, 241, 384, 368
-0.985127, 265, 1, 328, 375
-0.985156, 1, 225, 32, 352
-0.9852, 289, 81, 320, 144
-0.985207, 65, 113, 128, 240
-0.985295, 161, 49, 288, 112
-0.985303, 225, 33, 288, 288
-0.985316, 69, 65, 100, 192
-0.985331, 201, 313, 232, 375
-0.985448, 417, 97, 480, 160
-0.985452, 65, 121, 192, 184
-0.985485, 353, 137, 480, 200
-0.985498, 361, 249, 392, 312
-0.985538, 345, 121, 376, 184
-0.985569, 389, 129, 420, 256
-0.985652, 9, 97, 72, 160
-0.985652, 97, 129, 160, 375
-0.985719, 1, 313, 128, 375
-0.985748, 121, 177, 152, 304
-0.985757, 81, 209, 112, 272
-0.985762, 129, 305, 160, 368
-0.985795, 269, 73, 300, 136
-0.985799, 445, 233, 476, 296
-0.985815, 225, 17, 256, 144
-0.985826, 141, 305, 172, 368
-0.985843, 469, 209, 500, 336
-0.985887, 401, 1, 464, 375
-0.98592, 1, 193, 128, 256
-0.986029, 105, 49, 136, 176
-0.986029, 185, 209, 216, 336
-0.986041, 369, 113, 496, 176
-0.986126, 177, 1, 240, 375
-0.986218, 301, 313, 332, 375
-0.986241, 205, 89, 236, 152
-0.986271, 305, 81, 432, 144
-0.98631, 369, 177, 496, 240
-0.986334, 337, 89, 368, 152
-0.986367, 1, 257, 32, 320
-0.986378, 73, 105, 104, 168
-0.986392, 413, 273, 444, 336
-0.9864, 209, 193, 240, 320
-0.98649, 161, 145, 192, 272
-0.986548, 113, 285, 176, 316
-0.986572, 301, 49, 332, 176
-0.986596, 1, 121, 128, 184
-0.98678, 209, 137, 336, 200
-0.986782, 65, 81, 320, 144
-0.986815, 17, 65, 144, 128
-0.986817, 125, 1, 156, 128
-0.986826, 49, 177, 80, 304
-0.986826, 329, 1, 392, 128
-0.986841, 137, 1, 200, 375
-0.98688, 201, 1, 264, 375
-0.9869, 281, 33, 344, 288
-0.986917, 153, 97, 216, 224
-0.987042, 105, 1, 168, 375
-0.987059, 1, 145, 32, 272
-0.987069, 385, 113, 448, 240
-0.987085, 217, 145, 248, 272
-0.987089, 33, 65, 64, 192
-0.987108, 1, 33, 64, 288
-0.987176, 457, 209, 488, 336
-0.987339, 225, 1, 288, 375
-0.987359, 277, 177, 308, 304
-0.98739, 1, 1, 64, 375
-0.987461, 257, 161, 384, 224
-0.987498, 353, 33, 416, 288
-0.987515, 65, 285, 128, 316
-0.987543, 225, 201, 480, 264
-0.987657, 377, 1, 440, 375
-0.987665, 129, 153, 256, 216
-0.987682, 105, 33, 168, 288
-0.987742, 241, 193, 272, 320
-0.987749, 1, 1, 128, 64
-0.987828, 257, 49, 384, 112
-0.987966, 193, 305, 448, 368
-0.988041, 209, 1, 240, 128
-0.988055, 349, 145, 380, 272
-0.988063, 249, 1, 280, 128
-0.988072, 369, 49, 432, 176
-0.988133, 9, 253, 72, 284
-0.988236, 281, 49, 312, 176
-0.988247, 289, 117, 352, 148
-0.988313, 1, 233, 256, 296
-0.988328, 197, 1, 228, 128
-0.988369, 185, 161, 216, 288
-0.988396, 65, 177, 96, 304
-0.98842, 57, 89, 120, 120
-0.988472, 169, 77, 232, 108
-0.988502, 209, 41, 336, 104
-0.988503, 361, 129, 392, 256
-0.988516, 313, 49, 344, 176
-0.988527, 237, 1, 268, 128
-0.988529, 345, 1, 408, 375
-0.988587, 81, 1, 144, 375
-0.988614, 33, 93, 96, 124
-0.988629, 305, 145, 432, 208
-0.98873, 169, 217, 232, 248
-0.988748, 249, 1, 312, 128
-0.988758, 89, 85, 152, 116
-0.988764, 257, 73, 384, 136
-0.988789, 133, 177, 164, 304
-0.988815, 209, 213, 272, 244
-0.98888, 265, 253, 328, 284
-0.988887, 241, 65, 272, 192
-0.988891, 121, 81, 184, 112
-0.989012, 265, 129, 296, 256
-0.989073, 201, 81, 264, 112
-0.989089, 253, 193, 284, 320
-0.989105, 369, 297, 496, 360
-0.989119, 429, 1, 460, 128
-0.989196, 121, 221, 184, 252
-0.989259, 369, 205, 432, 236
-0.98928, 177, 289, 304, 352
-0.98933, 41, 237, 104, 268
-0.989353, 369, 89, 496, 152
-0.989361, 1, 289, 256, 352
-0.98944, 89, 285, 152, 316
-0.98948, 409, 217, 472, 248
-0.989491, 297, 265, 360, 296
-0.989501, 185, 205, 248, 236
-0.98952, 145, 77, 208, 108
-0.989524, 337, 233, 400, 264
-0.989527, 97, 209, 160, 240
-0.989531, 393, 273, 456, 304
-0.989573, 313, 129, 376, 160
-0.989614, 201, 329, 264, 360
-0.989678, 369, 225, 432, 256
-0.989681, 73, 217, 136, 248
-0.989687, 433, 9, 496, 40
-0.98971, 201, 317, 264, 348
-0.989756, 297, 245, 360, 276
-0.989762, 313, 117, 376, 148
-0.989768, 265, 201, 328, 232
-0.989768, 137, 1, 168, 128
-0.989813, 121, 205, 184, 236
-0.989841, 97, 217, 352, 280
-0.989868, 145, 93, 208, 124
-0.989905, 49, 217, 112, 248
-0.989919, 145, 217, 208, 248
-0.989953, 129, 233, 192, 264
-0.989992, 9, 241, 72, 272
-0.990044, 321, 57, 448, 120
-0.990049, 225, 85, 288, 116
-0.99005, 289, 289, 352, 320
-0.990057, 265, 33, 296, 160
-0.9901, 33, 105, 96, 136
-0.990104, 65, 237, 128, 268
-0.990142, 297, 277, 360, 308
-0.990156, 177, 89, 240, 120
-0.990162, 337, 221, 400, 252
-0.990165, 105, 97, 168, 128
-0.990176, 17, 289, 80, 320
-0.990178, 321, 201, 384, 232
-0.99019, 81, 297, 144, 328
-0.990198, 73, 101, 136, 132
-0.990228, 17, 269, 80, 300
-0.990278, 265, 109, 328, 140
-0.990294, 25, 1, 88, 375
-0.990304, 321, 245, 384, 276
-0.99032, 369, 41, 496, 104
-0.990353, 257, 273, 500, 336
-0.990393, 137, 33, 200, 288
-0.990427, 289, 233, 352, 264
-0.990453, 273, 265, 336, 296
-0.990456, 345, 281, 408, 312
-0.990464, 53, 17, 84, 144
-0.990472, 145, 205, 208, 236
-0.990491, 305, 305, 368, 336
-0.990516, 385, 237, 448, 268
-0.990518, 285, 1, 316, 128
-0.99054, 9, 1, 72, 128
-0.990541, 321, 273, 384, 304
-0.990546, 145, 129, 176, 256
-0.990557, 145, 121, 272, 184
-0.990561, 177, 229, 240, 260
-0.990585, 1, 289, 500, 352
-0.990621, 241, 97, 304, 128
-0.990622, 321, 293, 384, 324
-0.990682, 89, 233, 152, 264
-0.990682, 265, 329, 328, 360
-0.990742, 161, 285, 224, 316
-0.990758, 353, 245, 416, 276
-0.990784, 409, 229, 472, 260
-0.990786, 409, 1, 472, 32
-0.990842, 201, 225, 264, 256
-0.990861, 193, 69, 256, 100
-0.990863, 1, 201, 500, 264
-0.990883, 1, 201, 256, 264
-0.990896, 97, 273, 352, 336
-0.990908, 81, 65, 112, 192
-0.990945, 17, 225, 80, 256
-0.990953, 233, 73, 296, 104
-0.990976, 225, 329, 288, 360
-0.990987, 329, 141, 392, 172
-0.99099, 1, 149, 64, 180
-0.990994, 305, 221, 368, 252
-0.990999, 205, 145, 236, 272
-0.991008, 41, 265, 104, 296
-0.991009, 113, 301, 176, 332
-0.991018, 433, 221, 496, 252
-0.991024, 33, 253, 96, 284
-0.991038, 401, 201, 464, 232
-0.991042, 289, 129, 352, 160
-0.991047, 201, 93, 264, 124
-0.991059, 313, 105, 376, 136
-0.991067, 213, 241, 244, 368
-0.991076, 73, 273, 136, 304
-0.991081, 81, 249, 144, 280
-0.991084, 313, 233, 376, 264
-0.991117, 321, 25, 448, 88
-0.991123, 113, 273, 176, 304
-0.991126, 241, 209, 304, 240
-0.991136, 161, 257, 288, 320
-0.99115, 97, 221, 160, 252
-0.991161, 81, 33, 144, 288
-0.991198, 337, 109, 400, 140
-0.991236, 113, 1, 240, 64
-0.991237, 41, 285, 104, 316
-0.99124, 129, 193, 384, 256
-0.991249, 137, 285, 200, 316
-0.991251, 273, 189, 336, 220
-0.991269, 225, 317, 288, 348
-0.991278, 57, 305, 120, 336
-0.991307, 249, 265, 312, 296
-0.991312, 345, 121, 408, 152
-0.991315, 177, 1, 304, 64
-0.991322, 17, 301, 80, 332
-0.991323, 345, 293, 408, 324
-0.991336, 369, 277, 432, 308
-0.991344, 289, 321, 352, 352
-0.991352, 241, 341, 304, 372
-0.991354, 249, 121, 312, 152
-0.991362, 97, 1, 128, 128
-0.99137, 273, 93, 336, 124
-0.991378, 153, 273, 216, 304
-0.991382, 357, 65, 388, 192
-0.991408, 153, 229, 216, 260
-0.991414, 225, 193, 288, 224
-0.991421, 89, 333, 152, 364
-0.991421, 289, 105, 352, 136
-0.991472, 185, 289, 248, 320
-0.991481, 49, 285, 176, 316
-0.991484, 57, 1, 120, 375
-0.991491, 105, 345, 168, 375
-0.991499, 169, 337, 232, 368
-0.991502, 297, 201, 360, 232
-0.991507, 137, 65, 200, 96
-0.991508, 1, 329, 64, 360
-0.991526, 425, 197, 488, 228
-0.991537, 433, 233, 496, 264
-0.991569, 369, 137, 432, 168
-0.991586, 369, 297, 432, 328
-0.991618, 257, 17, 384, 80
-0.991628, 129, 341, 192, 372
-0.991638, 137, 297, 200, 328
-0.991645, 1, 317, 64, 348
-0.991658, 65, 341, 128, 372
-0.991689, 265, 213, 328, 244
-0.991698, 353, 149, 416, 180
-0.991732, 105, 249, 168, 280
-0.991735, 225, 225, 288, 256
-0.991841, 321, 1, 448, 64
-0.991857, 65, 9, 192, 72
-0.991869, 1, 257, 256, 320
-0.991952, 225, 313, 256, 344
-0.991959, 121, 285, 152, 316
-0.99196, 225, 241, 256, 368
-0.991971, 117, 97, 148, 224
-0.991984, 1, 81, 500, 144
-0.99199, 285, 241, 316, 368
-0.992031, 445, 97, 476, 224
-0.99204, 213, 77, 244, 108
-0.992071, 69, 285, 100, 316
-0.992074, 305, 265, 336, 296
-0.992116, 85, 89, 116, 120
-0.992117, 313, 33, 376, 288
-0.992123, 17, 245, 48, 276
-0.992147, 61, 93, 92, 124
-0.992152, 41, 97, 72, 128
-0.992153, 237, 313, 252, 375
-0.992158, 333, 121, 364, 152
-0.992163, 141, 285, 172, 316
-0.992171, 101, 289, 132, 320
-0.992196, 321, 113, 352, 144
-0.992201, 149, 81, 180, 112
-0.992202, 97, 313, 352, 375
-0.992209, 257, 233, 500, 296
-0.992213, 309, 113, 340, 144
-0.992221, 129, 77, 256, 108
-0.992244, 185, 77, 216, 108
-0.992246, 117, 85, 148, 116
-0.992267, 237, 85, 268, 116
-0.992283, 269, 241, 300, 368
-0.992287, 1, 113, 500, 176
-0.992316, 229, 213, 260, 244
-0.992323, 89, 285, 120, 316
-0.992325, 73, 89, 104, 120
-0.992346, 181, 221, 212, 252
-0.992377, 173, 77, 204, 108
-0.992385, 137, 81, 168, 112
-0.992398, 105, 85, 136, 116
-0.992402, 101, 237, 132, 268
-0.992411, 201, 77, 232, 108
-0.992412, 125, 209, 156, 240
-0.992435, 297, 113, 328, 144
-0.992436, 225, 77, 256, 108
-0.992436, 231, 313, 246, 375
-0.992451, 369, 229, 400, 260
-0.992457, 161, 25, 288, 88
-0.99246, 225, 333, 256, 364
-0.992464, 161, 81, 416, 144
-0.992464, 193, 217, 224, 248
-0.992468, 77, 217, 108, 248
-0.992476, 161, 81, 192, 112
-0.992482, 205, 205, 236, 236
-0.992489, 137, 217, 168, 248
-0.992507, 301, 249, 332, 280
-0.992508, 37, 17, 68, 144
-0.992513, 377, 277, 408, 308
-0.992531, 465, 1, 496, 32
-0.992534, 337, 133, 368, 164
-0.992543, 309, 293, 340, 324
-0.992544, 149, 217, 180, 248
-0.992548, 281, 105, 312, 136
-0.99255, 289, 253, 320, 284
-0.992554, 69, 17, 100, 144
-0.992581, 81, 237, 112, 268
-0.992581, 365, 285, 396, 316
-0.992585, 113, 297, 144, 328
-0.99259, 313, 213, 344, 244
-0.992591, 29, 161, 60, 288
-0.992595, 161, 113, 416, 176
-0.992599, 41, 249, 72, 280
-0.9926, 321, 305, 352, 336
-0.99261, 13, 281, 44, 312
-0.992612, 249, 93, 280, 124
-0.992628, 13, 317, 44, 348
-0.992628, 161, 221, 192, 252
-0.992642, 197, 285, 228, 316
-0.992644, 33, 237, 64, 268
-0.992645, 413, 217, 444, 248
-0.992647, 129, 229, 160, 260
-0.99265, 469, 21, 500, 52
-0.992654, 69, 237, 100, 268
-0.992657, 317, 233, 348, 264
-0.992661, 209, 89, 240, 120
-0.992669, 1, 313, 32, 344
-0.992674, 89, 217, 120, 248
-0.992681, 1, 149, 32, 180
-0.992685, 109, 249, 140, 280
-0.99269, 381, 245, 412, 276
-0.9927, 401, 229, 432, 260
-0.992702, 349, 129, 380, 160
-0.992702, 353, 289, 384, 320
-0.992704, 97, 241, 352, 304
-0.992708, 249, 209, 280, 240
-0.992717, 193, 317, 320, 348
-0.992718, 317, 201, 348, 232
-0.992718, 1, 285, 32, 316
-0.99272, 393, 205, 424, 236
-0.992731, 21, 225, 52, 256
-0.992734, 177, 97, 208, 224
-0.992737, 81, 249, 112, 280
-0.992743, 313, 125, 344, 156
-0.992745, 101, 329, 132, 360
-0.992751, 217, 201, 248, 232
-0.992762, 321, 1, 352, 128
-0.992764, 333, 1, 364, 128
-0.992768, 17, 297, 48, 328
-0.992768, 309, 277, 340, 308
-0.992772, 185, 1, 216, 128
-0.992775, 209, 217, 240, 248
-0.992775, 257, 257, 288, 288
-0.992776, 169, 93, 200, 124
-0.992783, 205, 97, 236, 224
-0.992784, 269, 97, 300, 128
-0.992784, 65, 253, 96, 284
-0.992785, 61, 105, 92, 136
-0.992787, 85, 101, 116, 132
-0.992789, 209, 317, 240, 348
-0.99279, 373, 149, 404, 180
-0.99279, 273, 201, 304, 232
-0.992793, 453, 1, 484, 32
-0.992797, 373, 217, 404, 248
-0.992801, 197, 89, 228, 120
-0.992801, 65, 217, 96, 248
-0.992803, 389, 265, 420, 296
-0.992803, 49, 233, 80, 264
-0.992807, 97, 101, 128, 132
-0.99282, 385, 149, 416, 180
-0.992824, 181, 205, 212, 236
-0.992825, 329, 237, 360, 268
-0.992827, 1, 169, 128, 232
-0.992832, 321, 249, 352, 280
-0.992844, 369, 65, 496, 128
-0.992844, 157, 93, 188, 124
-0.992851, 277, 249, 308, 280
-0.992852, 321, 293, 352, 324
-0.992856, 381, 233, 412, 264
-0.992859, 129, 97, 160, 128
-0.992864, 109, 217, 140, 248
-0.992865, 337, 301, 368, 332
-0.992866, 297, 301, 328, 332
-0.992866, 193, 205, 224, 236
-0.992869, 49, 269, 80, 300
-0.992877, 93, 49, 124, 176
-0.992879, 117, 237, 148, 268
-0.99288, 461, 49, 492, 176
-0.992882, 425, 1, 456, 32
-0.992902, 93, 305, 124, 336
-0.992904, 465, 233, 496, 264
-0.992905, 293, 101, 324, 132
-0.99291, 285, 325, 316, 356
-0.992912, 277, 125, 308, 156
-0.992913, 17, 257, 48, 288
-0.992916, 117, 97, 148, 128
-0.992917, 117, 333, 148, 364
-0.99292, 265, 337, 296, 368
-0.992929, 1, 301, 32, 332
-0.99293, 297, 289, 328, 320
-0.992939, 305, 1, 336, 128
-0.992939, 29, 105, 60, 136
-0.99294, 321, 101, 352, 132
-0.992943, 393, 241, 424, 272
-0.992949, 105, 273, 136, 304
-0.993125, 409, 129, 440, 256
-0.993147, 105, 81, 120, 144
-0.993183, 377, 65, 408, 192
-0.993213, 341, 241, 372, 368
-0.993225, 385, 1, 448, 128
-0.993226, 1, 237, 128, 268
-0.993347, 19, 233, 34, 296
-0.993349, 113, 217, 240, 248
-0.993364, 171, 73, 186, 136
-0.993374, 1, 285, 128, 316
-0.993402, 117, 81, 132, 144
-0.993467, 289, 281, 416, 312
-0.993488, 253, 97, 284, 224
-0.993502, 429, 65, 460, 192
-0.993508, 33, 89, 160, 120
-0.993517, 65, 41, 192, 104
-0.993537, 73, 257, 88, 320
-0.993566, 123, 81, 138, 144
-0.993584, 111, 81, 126, 144
-0.993586, 311, 289, 326, 352
-0.993632, 1, 313, 500, 375
-0.993637, 113, 205, 240, 236
-0.993651, 101, 281, 116, 344
-0.993711, 65, 233, 80, 296
-0.99373, 161, 329, 288, 360
-0.993732, 395, 257, 410, 320
-0.993733, 225, 313, 240, 375
-0.993745, 15, 289, 30, 352
-0.993792, 161, 57, 416, 120
-0.993805, 337, 277, 464, 308
-0.993855, 113, 285, 240, 316
-0.993874, 183, 73, 198, 136
-0.993883, 177, 73, 192, 136
-0.993887, 81, 81, 208, 112
-0.9939, 121, 281, 136, 344
-0.99391, 241, 113, 368, 144
-0.993925, 165, 73, 180, 136
-0.993947, 59, 89, 74, 152
-0.993986, 197, 73, 212, 136
-0.994038, 65, 217, 192, 248
-0.994084, 33, 105, 288, 168
-0.994108, 1, 301, 128, 332
-0.994119, 127, 281, 142, 344
-0.994121, 209, 65, 224, 128
-0.994176, 75, 233, 90, 296
-0.994189, 93, 257, 108, 320
-0.994205, 289, 293, 416, 324
-0.994219, 369, 213, 496, 244
-0.994233, 189, 73, 204, 136
-0.994258, 129, 169, 384, 232
-0.994271, 161, 89, 288, 120
-0.994278, 243, 313, 258, 375
-0.994283, 95, 281, 110, 344
-0.994305, 1, 257, 500, 320
-0.994309, 53, 233, 68, 296
-0.994321, 241, 185, 256, 248
-0.99433, 1, 257, 128, 288
-0.994346, 375, 201, 390, 264
-0.994353, 97, 81, 112, 144
-0.994356, 233, 65, 248, 128
-0.994376, 99, 257, 114, 320
-0.994393, 177, 197, 304, 228
-0.994414, 1, 145, 128, 208
-0.994418, 17, 101, 144, 132
-0.994431, 129, 81, 144, 144
-0.994444, 369, 225, 496, 256
-0.994455, 47, 233, 62, 296
-0.994459, 1, 221, 128, 252
-0.99449, 135, 73, 150, 136
-0.994514, 203, 73, 218, 136
-0.994518, 335, 113, 350, 176
-0.994553, 215, 65, 230, 128
-0.99456, 273, 201, 400, 232
-0.994565, 223, 65, 238, 128
-0.994565, 129, 209, 144, 272
-0.994616, 101, 217, 116, 280
-0.994617, 87, 281, 102, 344
-0.994624, 321, 265, 336, 328
-0.994642, 193, 201, 208, 264
-0.994643, 65, 81, 80, 144
-0.994644, 243, 73, 258, 136
-0.994694, 159, 73, 174, 136
-0.994703, 311, 257, 326, 320
-0.994711, 225, 257, 352, 288
-0.994723, 483, 1, 498, 64
-0.99473, 177, 221, 304, 252
-0.994744, 81, 257, 96, 320
-0.994758, 25, 281, 40, 344
-0.99477, 139, 273, 154, 336
-0.994809, 337, 289, 464, 320
-0.994834, 115, 209, 130, 272
-0.99484, 397, 233, 412, 296
-0.99485, 407, 201, 422, 264
-0.994879, 71, 81, 86, 144
-0.99488, 81, 145, 208, 208
-0.994881, 161, 1, 224, 256
-0.994886, 321, 193, 336, 256
-0.994895, 113, 229, 240, 260
-0.99491, 187, 201, 202, 264
-0.994914, 1, 313, 256, 375
-0.994923, 53, 89, 68, 152
-0.994941, 81, 81, 96, 144
-0.994944, 123, 209, 138, 272
-0.994951, 1, 233, 500, 296
-0.994952, 133, 281, 148, 344
-0.994953, 73, 281, 88, 344
-0.994957, 253, 81, 268, 144
-0.994966, 389, 201, 404, 264
-0.994977, 33, 57, 288, 120
-0.994987, 327, 105, 342, 168
-0.995002, 241, 309, 368, 340
-0.995016, 89, 233, 104, 296
-0.995031, 111, 257, 126, 320
-0.995038, 273, 249, 400, 280
-0.995039, 95, 217, 110, 280
-0.995039, 249, 105, 264, 168
-0.995059, 91, 81, 106, 144
-0.99507, 257, 121, 500, 184
-0.995072, 343, 113, 358, 176
-0.995076, 159, 233, 174, 296
-0.995077, 65, 297, 192, 328
-0.995104, 209, 333, 336, 364
-0.99511, 151, 265, 166, 328
-0.995123, 473, 1, 488, 64
-0.995131, 145, 233, 160, 296
-0.995145, 233, 89, 248, 152
-0.995149, 115, 281, 130, 344
-0.995151, 113, 93, 240, 124
-0.995151, 399, 201, 414, 264
-0.995153, 315, 225, 330, 288
-0.995156, 81, 281, 96, 344
-0.995184, 451, 1, 466, 64
-0.995187, 153, 73, 168, 136
-0.995188, 381, 201, 396, 264
-0.995193, 201, 201, 216, 264
-0.995205, 321, 201, 448, 232
-0.995227, 191, 225, 206, 288
-0.995244, 339, 201, 354, 264
-0.995267, 145, 257, 160, 320
-0.995286, 113, 297, 240, 328
-0.995286, 343, 297, 358, 360
-0.995292, 389, 273, 404, 336
-0.995308, 49, 169, 176, 232
-0.99531, 421, 201, 436, 264
-0.995313, 83, 233, 98, 296
-0.995315, 135, 209, 150, 272
-0.995353, 121, 57, 136, 120
-0.995362, 1, 269, 128, 300
-0.995376, 141, 73, 156, 136
-0.995377, 369, 1, 496, 32
-0.995378, 323, 289, 338, 352
-0.995382, 443, 1, 458, 64
-0.995393, 349, 121, 364, 184
-0.995398, 173, 49, 188, 112
-0.995417, 327, 193, 342, 256
-0.995457, 333, 193, 348, 256
-0.995459, 65, 101, 192, 132
-0.995464, 291, 105, 306, 168
-0.995466, 113, 25, 240, 88
-0.995472, 181, 209, 196, 272
-0.99548, 177, 77, 304, 108
-0.995485, 389, 241, 404, 304
-0.995489, 215, 201, 230, 264
-0.995497, 263, 225, 278, 288
-0.995498, 1, 145, 16, 208
-0.995498, 107, 281, 122, 344
-0.995498, 357, 289, 372, 352
-0.995506, 211, 305, 226, 368
-0.99552, 289, 305, 304, 368
-0.995521, 63, 257, 78, 320
-0.995538, 369, 209, 384, 272
-0.995548, 59, 233, 74, 296
-0.995554, 305, 309, 432, 340
-0.995564, 273, 125, 400, 156
-0.99557, 87, 257, 102, 320
-0.995572, 145, 281, 160, 344
-0.995573, 123, 257, 138, 320
-0.995575, 139, 233, 154, 296
-0.995575, 321, 221, 448, 252
-0.995575, 289, 321, 416, 352
-0.995578, 267, 89, 282, 152
-0.995578, 151, 233, 166, 296
-0.99558, 419, 233, 434, 296
-0.995591, 37, 233, 52, 296
-0.995602, 305, 237, 432, 268
-0.995606, 131, 257, 146, 320
-0.995617, 435, 1, 450, 64
-0.995619, 165, 209, 180, 272
-0.995652, 129, 317, 256, 348
-0.995668, 383, 273, 398, 336
-0.995669, 219, 305, 234, 368
-0.995688, 241, 281, 368, 312
-0.995693, 29, 241, 44, 304
-0.995698, 49, 253, 176, 284
-0.995741, 193, 269, 320, 300
-0.995763, 1, 321, 128, 352
-0.995768, 49, 233, 176, 264
-0.995785, 225, 213, 352, 244
-0.995817, 289, 113, 416, 144
-0.995828, 273, 269, 400, 300
-0.995858, 177, 185, 304, 216
-0.995874, 257, 177, 500, 240
-0.99598, 97, 345, 224, 375
-0.995988, 97, 273, 224, 304
-0.995992, 177, 209, 304, 240
-0.996025, 241, 101, 368, 132
-0.996101, 49, 329, 176, 360
-0.996133, 289, 101, 416, 132
-0.996186, 241, 321, 368, 352
-0.9962, 193, 101, 320, 132
-0.996212, 225, 197, 352, 228
-0.996246, 177, 345, 304, 375
-0.996294, 209, 89, 336, 120
-0.996326, 17, 341, 144, 372
-0.996333, 225, 77, 352, 108
-0.996357, 257, 337, 384, 368
-0.996432, 305, 189, 432, 220
-0.99646, 1, 41, 128, 104
-0.996471, 369, 13, 496, 44
-0.996484, 113, 329, 240, 360
-0.996489, 257, 89, 500, 152
-0.996513, 161, 173, 288, 204
-0.996558, 193, 281, 320, 312
-0.996596, 353, 185, 480, 216
-0.99665, 49, 273, 176, 304
-0.996658, 33, 177, 288, 240
-0.99666, 323, 113, 338, 144
-0.996679, 353, 237, 480, 268
-0.996718, 241, 181, 368, 212
-0.996727, 129, 65, 256, 96
-0.996731, 345, 129, 376, 375
-0.99676, 33, 129, 64, 375
-0.996777, 353, 169, 480, 200
-0.996806, 47, 97, 62, 128
-0.99683, 369, 197, 496, 228
-0.996838, 65, 205, 192, 236
-0.996848, 105, 285, 120, 316
-0.996865, 67, 93, 82, 124
-0.996906, 331, 117, 346, 148
-0.996911, 227, 77, 242, 108
-0.996913, 325, 129, 356, 375
-0.996918, 117, 285, 132, 316
-0.996928, 257, 137, 384, 168
-0.996928, 71, 285, 86, 316
-0.996943, 257, 1, 500, 64
-0.99695, 129, 285, 144, 316
-0.996952, 89, 89, 104, 120
-0.996964, 1, 129, 256, 192
-0.996978, 61, 93, 76, 124
-0.996987, 215, 77, 230, 108
-0.996994, 345, 125, 360, 156
-0.997003, 123, 285, 138, 316
-0.997003, 95, 89, 110, 120
-0.997004, 317, 113, 332, 144
-0.997006, 161, 161, 288, 192
-0.997007, 155, 285, 170, 316
-0.997019, 53, 97, 68, 128
-0.99703, 151, 81, 166, 112
-0.997037, 75, 93, 90, 124
-0.997037, 321, 125, 448, 156
-0.997043, 19, 237, 34, 268
-0.997046, 111, 289, 126, 320
-0.997051, 339, 121, 354, 152
-0.997061, 225, 297, 352, 328
-0.997064, 289, 65, 320, 320
-0.997066, 231, 317, 246, 348
-0.997077, 207, 77, 222, 108
-0.997082, 475, 1, 490, 32
-0.99709, 221, 77, 236, 108
-0.997111, 269, 1, 300, 256
-0.997113, 369, 145, 496, 176
-0.997119, 161, 81, 176, 112
-0.997119, 101, 89, 116, 120
-0.997126, 111, 237, 126, 268
-0.997129, 115, 85, 130, 116
-0.997133, 193, 33, 448, 96
-0.997139, 127, 85, 142, 116
-0.997145, 483, 13, 498, 44
-0.997151, 95, 285, 110, 316
-0.997173, 83, 89, 98, 120
-0.997186, 131, 205, 146, 236
-0.997189, 55, 257, 70, 288
-0.997191, 171, 81, 186, 112
-0.997196, 41, 97, 56, 128
-0.997198, 107, 89, 122, 120
-0.997202, 89, 217, 104, 248
-0.99721, 189, 77, 204, 108
-0.997221, 201, 77, 216, 108
-0.997232, 1, 113, 128, 144
-0.997233, 181, 77, 196, 108
-0.997235, 145, 81, 160, 112
-0.997236, 45, 129, 76, 375
-0.997239, 273, 89, 400, 120
-0.99724, 121, 85, 136, 116
-0.997249, 193, 61, 320, 92
-0.997254, 273, 129, 304, 375
-0.997257, 225, 125, 352, 156
-0.997272, 161, 129, 192, 375
-0.997281, 273, 217, 400, 248
-0.997282, 233, 81, 248, 112
-0.997287, 121, 237, 136, 268
-0.99729, 309, 129, 340, 375
-0.997293, 225, 245, 352, 276
-0.997293, 239, 313, 254, 344
-0.997307, 129, 185, 256, 216
-0.997313, 137, 85, 152, 116
-0.997332, 177, 257, 304, 288
-0.997347, 195, 77, 210, 108
-0.997365, 189, 65, 220, 320
-0.997371, 17, 317, 32, 348
-0.997373, 365, 129, 396, 375
-0.997382, 305, 333, 432, 364
-0.99739, 101, 237, 116, 268
-0.997391, 271, 325, 286, 356
-0.997401, 395, 261, 410, 292
-0.997405, 241, 85, 256, 116
-0.997419, 201, 221, 216, 252
-0.99742, 351, 125, 366, 156
-0.997427, 393, 245, 408, 276
-0.997445, 93, 253, 108, 284
-0.997452, 299, 253, 314, 284
-0.997454, 417, 217, 432, 248
-0.99747, 301, 109, 316, 140
-0.997474, 139, 213, 154, 244
-0.997477, 65, 125, 192, 156
-0.997486, 385, 129, 416, 375
-0.997487, 241, 205, 256, 236
-0.997487, 1, 57, 500, 120
-0.997488, 83, 217, 98, 248
-0.997491, 323, 301, 338, 332
-0.997493, 5, 145, 20, 176
-0.997506, 19, 281, 34, 312
-0.997506, 353, 157, 480, 188
-0.997524, 239, 333, 254, 364
-0.997524, 289, 317, 304, 348
-0.997536, 3, 133, 18, 164
-0.997541, 311, 109, 326, 140
-0.997545, 149, 285, 164, 316
-0.997551, 373, 221, 388, 252
-0.997552, 207, 285, 222, 316
-0.997552, 135, 285, 150, 316
-0.997553, 229, 129, 260, 375
-0.997555, 161, 1, 416, 64
-0.997566, 21, 293, 36, 324
-0.997575, 211, 213, 226, 244
-0.997576, 189, 221, 204, 252
-0.997579, 101, 253, 116, 284
-0.99758, 383, 277, 398, 308
-0.997587, 161, 221, 176, 252
-0.997592, 61, 253, 76, 284
-0.997592, 45, 257, 60, 288
-0.997596, 195, 221, 210, 252
-0.997596, 95, 217, 110, 248
-0.997597, 141, 285, 156, 316
-0.997599, 131, 229, 146, 260
-0.9976, 133, 217, 148, 248
-0.997606, 229, 333, 244, 364
-0.997607, 369, 53, 496, 84
-0.997619, 169, 221, 184, 252
-0.997624, 25, 317, 40, 348
-0.997628, 257, 65, 500, 128
-0.997634, 89, 285, 104, 316
-0.997636, 305, 345, 432, 375
-0.997641, 225, 145, 480, 208
-0.997649, 37, 33, 68, 288
-0.997654, 217, 129, 248, 375
-0.997656, 37, 241, 52, 272
-0.997657, 337, 109, 464, 140
-0.99766, 321, 281, 336, 312
-0.997662, 151, 217, 166, 248
-0.997667, 309, 289, 324, 320
-0.99767, 279, 101, 294, 132
-0.997678, 145, 221, 160, 252
-0.997679, 77, 285, 92, 316
-0.99768, 1, 129, 32, 375
-0.99768, 317, 233, 332, 264
-0.997681, 441, 129, 472, 375
-0.997693, 21, 97, 52, 352
-0.997696, 265, 329, 280, 360
-0.997702, 65, 113, 192, 144
-0.997711, 93, 237, 108, 268
-0.997714, 453, 129, 484, 375
-0.997717, 287, 105, 302, 136
-0.997719, 241, 185, 256, 216
-0.99772, 469, 129, 500, 375
-0.99772, 261, 93, 276, 124
-0.997722, 83, 237, 98, 268
-0.997725, 161, 245, 288, 276
-0.997725, 83, 285, 98, 316
-0.99773, 369, 133, 496, 164
-0.997742, 295, 109, 310, 140
-0.997742, 309, 261, 324, 292
-0.997745, 467, 1, 482, 32
-0.997747, 59, 237, 74, 268
-0.997754, 319, 201, 334, 232
-0.997761, 123, 297, 138, 328
-0.997762, 105, 101, 120, 132
-0.997763, 129, 49, 256, 80
-0.997772, 367, 285, 382, 316
-0.997775, 45, 237, 60, 268
-0.997776, 183, 221, 198, 252
-0.997776, 257, 53, 384, 84
-0.997779, 363, 137, 378, 168
-0.99778, 425, 65, 456, 320
-0.99778, 177, 125, 304, 156
-0.99778, 217, 209, 232, 240
-0.997785, 161, 233, 288, 264
-0.997805, 77, 217, 92, 248
-0.997813, 269, 97, 284, 128
-0.997819, 131, 305, 146, 336
-0.99782, 113, 257, 240, 288
-0.997822, 215, 285, 230, 316
-0.997822, 315, 249, 330, 280
-0.997824, 329, 105, 344, 136
-0.997825, 295, 313, 310, 344
-0.997827, 51, 233, 66, 264
-0.997829, 101, 297, 116, 328
-0.997839, 209, 169, 336, 200
-0.997842, 241, 229, 368, 260
-0.997859, 193, 45, 320, 76
-0.997868, 173, 129, 204, 375
-0.99789, 65, 1, 320, 64
-0.997898, 49, 1, 176, 32
-0.997899, 321, 265, 448, 296
-0.9979, 369, 329, 496, 360
-0.99791, 129, 117, 256, 148
-0.997916, 49, 309, 176, 340
-0.997917, 209, 141, 336, 172
-0.997943, 177, 305, 304, 336
-0.997946, 65, 25, 320, 88
-0.997976, 1, 177, 500, 240
-0.997977, 321, 137, 448, 168
-0.997988, 65, 61, 192, 92
-0.99799, 353, 301, 480, 332
-0.997997, 201, 33, 232, 288
-0.99802, 161, 293, 288, 324
-0.998031, 1, 137, 128, 168
-0.998046, 193, 113, 320, 144
-0.998059, 321, 29, 448, 60
-0.998068, 353, 345, 480, 375
-0.998076, 413, 129, 444, 375
-0.998097, 353, 41, 480, 72
-0.998097, 33, 77, 160, 108
-0.99811, 321, 53, 448, 84
-0.998129, 101, 129, 132, 375
-0.998133, 145, 129, 176, 375
-0.998161, 253, 65, 284, 320
-0.998191, 125, 33, 156, 288
-0.998226, 225, 33, 256, 288
-0.998241, 205, 129, 236, 375
-0.99826, 465, 1, 496, 256
-0.998294, 117, 129, 148, 375
-0.998307, 129, 137, 384, 200
-0.998323, 241, 129, 272, 375
-0.998329, 65, 129, 96, 375
-0.998373, 65, 289, 128, 304
-0.998376, 113, 287, 176, 302
-0.998382, 453, 1, 484, 256
-0.998386, 201, 319, 264, 334
-0.998409, 217, 221, 280, 236
-0.99841, 289, 117, 352, 132
-0.998422, 9, 261, 72, 276
-0.998426, 9, 255, 72, 270
-0.998427, 273, 261, 336, 276
-0.998432, 461, 21, 492, 36
-0.998432, 181, 91, 212, 106
-0.998433, 93, 359, 124, 374
-0.998433, 109, 101, 140, 116
-0.998434, 469, 235, 500, 250
-0.998435, 349, 129, 380, 144
-0.998435, 221, 89, 252, 104
-0.998435, 401, 129, 432, 375
-0.998436, 417, 235, 448, 250
-0.998438, 445, 9, 476, 24
-0.998438, 425, 3, 456, 18
-0.998439, 61, 263, 92, 278
-0.998439, 105, 211, 168, 226
-0.998439, 109, 353, 140, 368
-0.99844, 113, 227, 144, 242
-0.99844, 105, 249, 136, 264
-0.998441, 61, 107, 92, 122
-0.998442, 37, 267, 68, 282
-0.998442, 389, 275, 420, 290
-0.998442, 125, 99, 156, 114
-0.998443, 369, 243, 400, 258
-0.998446, 321, 129, 352, 144
-0.998446, 297, 123, 360, 138
-0.998446, 17, 261, 48, 276
-0.998447, 273, 107, 304, 122
-0.998447, 273, 201, 304, 216
-0.998447, 97, 237, 128, 252
-0.998449, 309, 203, 340, 218
-0.99845, 145, 97, 176, 112
-0.998452, 89, 103, 120, 118
-0.998452, 93, 323, 124, 338
-0.998454, 165, 227, 196, 242
-0.998454, 325, 297, 356, 312
-0.998454, 85, 287, 116, 302
-0.998454, 357, 291, 388, 306
-0.998454, 333, 245, 364, 260
-0.998454, 201, 225, 232, 240
-0.998456, 161, 227, 224, 242
-0.998456, 41, 265, 104, 280
-0.998457, 457, 15, 488, 30
-0.998457, 309, 287, 340, 302
-0.998457, 117, 247, 148, 262
-0.998458, 49, 295, 80, 310
-0.998458, 101, 217, 132, 232
-0.998458, 197, 91, 228, 106
-0.998459, 377, 281, 408, 296
-0.998459, 57, 253, 88, 268
-0.998459, 305, 209, 336, 224
-0.99846, 249, 213, 280, 228
-0.99846, 377, 233, 440, 248
-0.99846, 413, 215, 444, 230
-0.998461, 313, 227, 344, 242
-0.998461, 113, 295, 144, 310
-0.998462, 185, 79, 248, 94
-0.998463, 225, 215, 288, 230
-0.998463, 265, 203, 328, 218
-0.998464, 85, 219, 116, 234
-0.998464, 101, 229, 132, 244
-0.998465, 77, 105, 108, 120
-0.998466, 393, 245, 424, 260
-0.998467, 77, 263, 108, 278
-0.998469, 353, 239, 416, 254
-0.998469, 13, 279, 44, 294
-0.998469, 9, 269, 72, 284
-0.998469, 213, 225, 244, 240
-0.99847, 453, 229, 484, 244
-0.998471, 5, 151, 36, 166
-0.998472, 349, 139, 380, 154
-0.998472, 113, 293, 176, 308
-0.998472, 1, 137, 500, 200
-0.998472, 13, 253, 44, 268
-0.998473, 49, 269, 80, 284
-0.998473, 205, 287, 236, 302
-0.998474, 389, 207, 420, 222
-0.998474, 49, 99, 80, 114
-0.998474, 13, 321, 44, 336
-0.998478, 181, 235, 212, 250
-0.998478, 9, 247, 72, 262
-0.998478, 113, 255, 144, 270
-0.998479, 225, 327, 256, 342
-0.998479, 185, 219, 248, 234
-0.998479, 65, 295, 128, 310
-0.998479, 201, 87, 264, 102
-0.998479, 461, 7, 492, 22
-0.99848, 381, 251, 412, 266
-0.99848, 217, 209, 248, 224
-0.99848, 185, 229, 248, 244
-0.998482, 273, 257, 304, 272
-0.998482, 117, 213, 148, 228
-0.998482, 305, 133, 368, 148
-0.998484, 33, 99, 96, 114
-0.998485, 205, 219, 236, 234
-0.998485, 309, 293, 340, 308
-0.998486, 297, 265, 360, 280
-0.998487, 205, 319, 236, 334
-0.998487, 201, 325, 264, 340
-0.998488, 201, 231, 232, 246
-0.998488, 409, 229, 440, 244
-0.998488, 321, 309, 352, 324
-0.998488, 229, 213, 260, 228
-0.998491, 169, 235, 200, 250
-0.998492, 265, 253, 328, 268
-0.998493, 313, 233, 376, 248
-0.998493, 305, 251, 336, 266
-0.998493, 381, 245, 412, 260
-0.998493, 361, 227, 424, 242
-0.998494, 305, 277, 336, 292
-0.998499, 305, 123, 336, 138
-0.9985, 297, 271, 360, 286
-0.9985, 353, 245, 416, 260
-0.998502, 33, 255, 96, 270
-0.998503, 311, 225, 326, 352
-0.998504, 285, 261, 316, 276
-0.998505, 249, 219, 280, 234
-0.998506, 365, 237, 396, 252
-0.998508, 257, 111, 320, 126
-0.99851, 329, 245, 392, 260
-0.998511, 201, 213, 264, 228
-0.998511, 69, 257, 100, 272
-0.998513, 161, 289, 224, 304
-0.998513, 153, 235, 216, 250
-0.998513, 13, 241, 44, 256
-0.998514, 369, 225, 400, 240
-0.998516, 337, 133, 368, 148
-0.998517, 329, 227, 392, 242
-0.998517, 397, 235, 428, 250
-0.998517, 305, 257, 336, 272
-0.998519, 285, 109, 316, 124
-0.99852, 253, 259, 284, 274
-0.998521, 19, 225, 34, 352
-0.998521, 81, 257, 112, 272
-0.998522, 369, 207, 432, 222
-0.998523, 257, 105, 320, 120
-0.998523, 401, 229, 464, 244
-0.998523, 89, 297, 152, 312
-0.998524, 129, 97, 192, 112
-0.998524, 37, 255, 68, 270
-0.998524, 185, 219, 216, 234
-0.998524, 105, 217, 168, 232
-0.998525, 177, 91, 240, 106
-0.998526, 29, 241, 60, 256
-0.998527, 221, 81, 252, 96
-0.998527, 25, 291, 88, 306
-0.998528, 217, 93, 280, 108
-0.998531, 201, 331, 264, 346
-0.998531, 401, 213, 464, 228
-0.998531, 321, 281, 384, 296
-0.998531, 57, 105, 120, 120
-0.998532, 161, 221, 224, 236
-0.998532, 353, 233, 416, 248
-0.998532, 361, 33, 392, 288
-0.998533, 253, 97, 284, 112
-0.998533, 117, 207, 148, 222
-0.998533, 121, 287, 152, 302
-0.998534, 137, 33, 168, 288
-0.998534, 273, 123, 336, 138
-0.998534, 233, 329, 296, 344
-0.998534, 209, 91, 240, 106
-0.998534, 297, 253, 360, 268
-0.998534, 297, 277, 360, 292
-0.998534, 81, 259, 144, 274
-0.998535, 9, 241, 72, 256
-0.998536, 409, 223, 472, 238
-0.998536, 377, 235, 408, 250
-0.998537, 241, 257, 304, 272
-0.998538, 213, 33, 244, 288
-0.998538, 97, 101, 160, 116
-0.998539, 141, 287, 172, 302
-0.99854, 377, 239, 440, 254
-0.99854, 81, 217, 144, 232
-0.99854, 57, 93, 120, 108
-0.998542, 33, 239, 96, 254
-0.998542, 433, 9, 496, 24
-0.998543, 17, 297, 80, 312
-0.998546, 433, 1, 496, 16
-0.998546, 249, 125, 312, 140
-0.998546, 265, 101, 296, 116
-0.998546, 241, 91, 272, 106
-0.998547, 133, 215, 164, 230
-0.998547, 129, 129, 160, 375
-0.998549, 1, 1, 500, 64
-0.998549, 401, 275, 464, 290
-0.99855, 317, 303, 348, 318
-0.998551, 89, 253, 152, 268
-0.998552, 33, 107, 96, 122
-0.998552, 93, 253, 124, 268
-0.998552, 281, 111, 344, 126
-0.998554, 81, 89, 144, 104
-0.998554, 377, 217, 440, 232
-0.998554, 81, 227, 144, 242
-0.998554, 153, 95, 216, 110
-0.998554, 225, 83, 288, 98
-0.998555, 289, 303, 352, 318
-0.998555, 225, 335, 288, 350
-0.998555, 121, 223, 184, 238
-0.998556, 229, 219, 260, 234
-0.998556, 297, 225, 360, 240
-0.998558, 329, 129, 392, 144
-0.998558, 89, 323, 152, 338
-0.998558, 13, 289, 44, 304
-0.99856, 345, 297, 408, 312
-0.99856, 217, 227, 280, 242
-0.99856, 113, 351, 176, 366
-0.998561, 233, 101, 296, 116
-0.998561, 69, 289, 100, 304
-0.998562, 297, 259, 360, 274
-0.998562, 9, 275, 72, 290
-0.998562, 329, 143, 392, 158
-0.998563, 129, 233, 192, 248
-0.998563, 423, 225, 438, 352
-0.998565, 325, 119, 356, 134
-0.998566, 461, 1, 492, 16
-0.998566, 321, 295, 384, 310
-0.998566, 233, 85, 264, 100
-0.998567, 425, 231, 488, 246
-0.998568, 313, 203, 376, 218
-0.99857, 305, 111, 368, 126
-0.99857, 101, 289, 132, 304
-0.99857, 293, 253, 324, 268
-0.99857, 313, 117, 376, 132
-0.99857, 189, 229, 220, 244
-0.99857, 145, 81, 208, 96
-0.998572, 281, 285, 344, 300
-0.998572, 57, 259, 120, 274
-0.998572, 361, 283, 424, 298
-0.998573, 89, 287, 152, 302
-0.998573, 49, 261, 80, 276
-0.998574, 105, 87, 168, 102
-0.998574, 65, 239, 128, 254
-0.998574, 265, 209, 328, 224
-0.998575, 129, 207, 192, 222
-0.998576, 113, 299, 176, 314
-0.998577, 41, 221, 104, 236
-0.998577, 273, 197, 336, 212
-0.998579, 353, 289, 416, 304
-0.998579, 257, 267, 320, 282
-0.998581, 305, 271, 336, 286
-0.998581, 345, 149, 408, 164
-0.998581, 169, 203, 232, 218
-0.998582, 17, 247, 48, 262
-0.998583, 333, 125, 364, 140
-0.998583, 289, 247, 352, 262
-0.998584, 153, 295, 216, 310
-0.998585, 177, 229, 208, 244
-0.998586, 233, 131, 296, 146
-0.998587, 217, 349, 280, 364
-0.998587, 401, 235, 464, 250
-0.998588, 337, 221, 400, 236
-0.998588, 417, 225, 432, 352
-0.998588, 201, 313, 264, 328
-0.998589, 297, 295, 360, 310
-0.998591, 1, 33, 500, 96
-0.998593, 185, 235, 248, 250
-0.998593, 105, 231, 168, 246
-0.998594, 329, 303, 392, 318
-0.998594, 153, 283, 216, 298
-0.998594, 281, 129, 344, 144
-0.998594, 1, 291, 64, 306
-0.998597, 129, 207, 160, 222
-0.998602, 293, 115, 324, 130
-0.998615, 305, 263, 336, 278
-0.998616, 313, 115, 344, 130
-0.998618, 225, 317, 256, 332
-0.998626, 37, 101, 68, 116
-0.998635, 123, 225, 138, 352
-0.998645, 83, 225, 98, 352
-0.99865, 341, 33, 372, 288
-0.998651, 131, 225, 146, 352
-0.998656, 241, 33, 272, 288
-0.998664, 173, 33, 204, 288
-0.998671, 389, 193, 404, 320
-0.998673, 117, 225, 132, 352
-0.998687, 85, 129, 116, 375
-0.998707, 395, 241, 410, 368
-0.998725, 411, 225, 426, 352
-0.998741, 73, 225, 88, 352
-0.998748, 137, 225, 152, 352
-0.99876, 111, 225, 126, 352
-0.998778, 321, 241, 336, 368
-0.998781, 89, 225, 104, 352
-0.99881, 377, 193, 392, 320
-0.998813, 49, 33, 80, 288
-0.99882, 315, 177, 330, 304
-0.998823, 63, 225, 78, 352
-0.998823, 401, 33, 432, 288
-0.998836, 97, 225, 112, 352
-0.99884, 105, 225, 120, 352
-0.998843, 401, 241, 416, 368
-0.998848, 141, 49, 156, 176
-0.998858, 331, 225, 346, 352
-0.99887, 429, 225, 444, 352
-0.998872, 371, 193, 386, 320
-0.998874, 113, 33, 144, 288
-0.998891, 145, 225, 160, 352
-0.998892, 305, 33, 336, 288
-0.998893, 127, 49, 142, 176
-0.998902, 383, 193, 398, 320
-0.998904, 161, 33, 192, 288
-0.998907, 325, 177, 340, 304
-0.998916, 305, 225, 320, 352
-0.998916, 485, 1, 500, 128
-0.998918, 395, 193, 410, 320
-0.998921, 401, 193, 416, 320
-0.998927, 305, 177, 320, 304
-0.998929, 447, 1, 462, 128
-0.998932, 121, 65, 136, 192
-0.99894, 243, 161, 258, 288
-0.99894, 435, 209, 450, 336
-0.998944, 133, 49, 148, 176
-0.998955, 357, 193, 372, 320
-0.998956, 289, 97, 304, 224
-0.998968, 157, 49, 172, 176
-0.998971, 147, 49, 162, 176
-0.998978, 149, 33, 180, 288
-0.998983, 203, 49, 218, 176
-0.998985, 421, 177, 436, 304
-0.998986, 155, 209, 170, 336
-0.998994, 335, 97, 350, 224
-0.999, 25, 225, 40, 352
-0.999006, 453, 1, 468, 128
-0.999009, 55, 209, 70, 336
-0.999012, 45, 209, 60, 336
-0.999014, 179, 49, 194, 176
-0.999018, 363, 193, 378, 320
-0.999018, 213, 49, 228, 176
-0.999027, 171, 49, 186, 176
-0.999028, 193, 49, 208, 176
-0.999033, 51, 65, 66, 192
-0.999035, 461, 161, 476, 288
-0.999038, 45, 65, 60, 192
-0.999038, 165, 49, 180, 176
-0.999042, 331, 177, 346, 304
-0.999046, 381, 241, 396, 368
-0.999046, 35, 225, 50, 352
-0.999048, 329, 81, 344, 208
-0.999051, 329, 129, 344, 256
-0.999057, 387, 145, 402, 272
-0.999059, 295, 113, 310, 240
-0.99906, 187, 49, 202, 176
-0.999066, 221, 49, 236, 176
-0.99907, 243, 65, 258, 192
-0.99907, 473, 1, 488, 128
-0.999073, 283, 97, 298, 224
-0.999074, 467, 1, 482, 128
-0.999076, 185, 177, 200, 304
-0.999079, 71, 65, 86, 192
-0.999082, 229, 49, 244, 176
-0.999084, 1, 113, 16, 240
-0.999092, 101, 33, 132, 288
-0.999092, 407, 177, 422, 304
-0.999095, 337, 209, 352, 336
-0.999096, 59, 65, 74, 192
-0.9991, 469, 161, 484, 288
-0.9991, 279, 177, 294, 304
-0.999102, 321, 129, 336, 256
-0.999102, 203, 209, 218, 336
-0.999104, 389, 33, 420, 288
-0.99911, 349, 193, 364, 320
-0.999113, 65, 65, 80, 192
-0.999122, 449, 209, 464, 336
-0.999126, 115, 49, 130, 176
-0.999127, 11, 241, 26, 368
-0.999128, 351, 129, 366, 256
-0.999136, 413, 177, 428, 304
-0.999138, 337, 161, 352, 288
-0.999138, 479, 17, 494, 144
-0.999141, 441, 225, 456, 352
-0.999144, 301, 97, 316, 224
-0.999149, 165, 193, 180, 320
-0.999151, 79, 65, 94, 192
-0.999151, 101, 177, 116, 304
-0.999154, 321, 81, 336, 208
-0.999155, 387, 241, 402, 368
-0.999158, 413, 33, 444, 288
-0.999163, 437, 33, 468, 288
-0.999166, 343, 209, 358, 336
-0.999171, 93, 177, 108, 304
-0.999172, 249, 97, 264, 224
-0.999174, 179, 161, 194, 288
-0.999175, 251, 145, 266, 272
-0.999176, 87, 177, 102, 304
-0.999179, 125, 177, 140, 304
-0.99918, 427, 177, 442, 304
-0.999188, 365, 241, 380, 368
-0.999195, 483, 209, 498, 336
-0.999202, 291, 177, 306, 304
-0.999204, 193, 177, 208, 304
-0.999204, 315, 129, 330, 256
-0.999207, 139, 177, 154, 304
-0.999213, 257, 193, 272, 320
-0.999214, 289, 49, 304, 176
-0.999214, 139, 1, 154, 128
-0.999215, 171, 193, 186, 320
-0.999226, 455, 145, 470, 272
-0.999228, 237, 81, 252, 208
-0.999236, 441, 177, 456, 304
-0.999237, 237, 145, 252, 272
-0.999238, 131, 177, 146, 304
-0.999239, 39, 65, 54, 192
-0.999243, 297, 177, 312, 304
-0.999243, 19, 177, 34, 304
-0.999245, 231, 193, 246, 320
-0.999246, 447, 161, 462, 288
-0.999247, 229, 145, 244, 272
-0.999276, 33, 153, 288, 216
-0.999303, 89, 33, 120, 288
-0.999315, 329, 33, 360, 288
-0.999411, 1, 33, 32, 288
-0.99947, 317, 33, 348, 288
-0.999508, 373, 33, 404, 288
-0.999524, 17, 1, 48, 256
-0.999636, 45, 251, 60, 266
-0.999636, 305, 323, 320, 338
-0.999636, 121, 295, 136, 310
-0.999637, 231, 317, 246, 332
-0.999637, 417, 207, 432, 222
-0.999637, 401, 271, 416, 286
-0.999637, 85, 105, 100, 120
-0.999638, 195, 227, 210, 242
-0.999638, 35, 241, 50, 256
-0.999639, 317, 229, 332, 244
-0.99964, 117, 257, 132, 272
-0.99964, 43, 269, 58, 284
-0.999641, 19, 295, 34, 310
-0.999643, 343, 127, 358, 142
-0.999643, 95, 103, 110, 118
-0.999645, 339, 133, 354, 148
-0.999645, 125, 287, 140, 302
-0.999646, 321, 289, 336, 304
-0.999647, 387, 235, 402, 250
-0.999648, 209, 319, 224, 334
-0.999649, 219, 89, 234, 104
-0.999649, 485, 25, 500, 40
-0.999649, 333, 129, 348, 144
-0.999649, 313, 121, 328, 136
-0.99965, 99, 261, 114, 276
-0.999651, 395, 155, 410, 170
-0.999651, 187, 229, 202, 244
-0.999653, 375, 233, 390, 248
-0.999653, 11, 295, 26, 310
-0.999654, 465, 1, 480, 16
-0.999656, 131, 247, 146, 262
-0.999656, 29, 289, 44, 304
-0.999657, 479, 3, 494, 18
-0.999657, 21, 321, 36, 336
-0.999657, 19, 279, 34, 294
-0.999658, 239, 317, 254, 332
-0.999659, 393, 257, 408, 272
-0.999659, 137, 207, 152, 222
-0.99966, 75, 263, 90, 278
-0.99966, 19, 247, 34, 262
-0.999662, 129, 255, 144, 270
-0.999662, 95, 287, 110, 302
-0.999663, 321, 295, 336, 310
-0.999663, 125, 207, 140, 222
-0.999665, 393, 251, 408, 266
-0.999665, 477, 13, 492, 28
-0.999665, 313, 205, 328, 220
-0.999666, 51, 99, 66, 114
-0.999667, 237, 83, 252, 98
-0.999668, 485, 11, 500, 26
-0.999669, 111, 289, 126, 304
-0.99967, 287, 253, 302, 268
-0.99967, 155, 287, 170, 302
-0.999671, 5, 153, 20, 168
-0.999671, 327, 127, 342, 142
-0.999672, 101, 255, 116, 270
-0.999672, 225, 79, 240, 94
-0.999672, 197, 291, 212, 306
-0.999672, 351, 137, 366, 152
-0.999672, 417, 217, 432, 232
-0.999674, 275, 101, 290, 116
-0.999674, 105, 295, 120, 310
-0.999675, 337, 121, 352, 136
-0.999675, 287, 107, 302, 122
-0.999678, 395, 271, 410, 286
-0.999678, 293, 109, 308, 124
-0.999679, 307, 251, 322, 266
-0.99968, 123, 249, 138, 264
-0.99968, 255, 261, 270, 276
-0.99968, 231, 81, 246, 96
-0.999681, 249, 91, 264, 106
-0.999681, 259, 93, 274, 108
-0.999682, 377, 147, 392, 162
-0.999683, 325, 115, 340, 130
-0.999684, 27, 325, 42, 340
-0.999684, 319, 123, 334, 138
-0.999685, 365, 141, 380, 156
-0.999685, 381, 233, 396, 248
-0.999685, 107, 253, 122, 268
-0.999686, 281, 105, 296, 120
-0.999687, 241, 193, 256, 208
-0.999689, 241, 209, 256, 224
-0.99969, 115, 295, 130, 310
-0.99969, 387, 153, 402, 168
-0.999691, 371, 145, 386, 160
-0.999693, 193, 233, 208, 248
-0.999694, 215, 225, 230, 240
-0.999694, 71, 289, 86, 304
-0.999695, 267, 97, 282, 112
-0.999695, 203, 229, 218, 244
-0.999696, 399, 265, 414, 280
-0.9997, 299, 111, 314, 126
-0.999701, 225, 223, 240, 238
-0.999704, 181, 227, 196, 242
-0.999705, 63, 265, 78, 280
-0.999706, 393, 245, 408, 260
-0.999706, 117, 251, 132, 266
-0.999707, 117, 289, 132, 304
-0.999707, 53, 265, 68, 280
-0.999708, 81, 257, 96, 272
-0.999709, 45, 101, 60, 116
-0.999709, 231, 219, 246, 234
-0.99971, 59, 253, 74, 268
-0.999711, 9, 145, 24, 160
-0.999712, 323, 305, 338, 320
-0.999712, 309, 291, 324, 306
-0.999714, 315, 259, 330, 274
-0.999714, 1, 137, 16, 152
-0.999715, 73, 257, 88, 272
-0.999722, 19, 289, 34, 304
-0.999723, 307, 115, 322, 130
-0.999725, 473, 3, 488, 18
-0.999726, 357, 139, 372, 154
-0.999736, 3, 145, 18, 160
-0.999736, 317, 115, 332, 130
-0.999736, 49, 257, 64, 272
-0.999737, 483, 19, 498, 34
-0.999742, 243, 87, 258, 102
-0.999743, 349, 129, 364, 144
-0.999746, 87, 263, 102, 278
-0.999747, 45, 263, 60, 278
-0.999749, 105, 289, 120, 304
-0.999752, 131, 207, 146, 222
-0.999755, 39, 255, 54, 270
-0.999767, 55, 259, 70, 274
-0.999768, 87, 257, 102, 272
-0.999773, 65, 259, 80, 274
-0.9998, 95, 255, 110, 270
-0.999801, 39, 103, 54, 118
-0.999834, 19, 241, 34, 256
-0.999873, 65, 1, 96, 256
-1.00034, 77, 33, 108, 288
