1897
-0.419603, 129, 1, 384, 333
-0.431225, 1, 65, 500, 320
-0.433633, 1, 1, 500, 333
-0.60194, 225, 1, 480, 333
-0.625574, 1, 1, 256, 333
-0.647522, 129, 65, 384, 320
-0.670469, 33, 65, 288, 320
-0.798236, 225, 1, 480, 256
-0.855025, 193, 65, 320, 320
-0.8559, 209, 1, 336, 333
-0.864787, 257, 65, 384, 320
-0.874103, 257, 1, 384, 333
-0.87431, 1, 1, 128, 333
-0.878051, 1, 33, 128, 288
-0.888022, 1, 129, 500, 256
-0.889423, 145, 65, 272, 320
-0.889726, 1, 193, 500, 320
-0.891695, 161, 1, 288, 333
-0.89619, 49, 65, 176, 320
-0.898212, 97, 1, 224, 333
-0.900725, 305, 1, 432, 256
-0.902263, 161, 161, 416, 288
-0.904668, 1, 145, 256, 272
-0.905187, 321, 1, 448, 333
-0.90839, 1, 81, 500, 208
-0.912247, 129, 209, 384, 333
-0.91648, 313, 145, 376, 272
-0.917102, 161, 65, 416, 192
-0.918948, 49, 1, 176, 333
-0.921736, 273, 145, 400, 272
-0.922652, 161, 113, 416, 240
-0.92364, 97, 33, 224, 288
-0.927372, 289, 145, 352, 272
-0.927739, 369, 1, 496, 333
-0.928523, 369, 1, 496, 256
-0.92867, 241, 193, 368, 320
-0.928722, 177, 161, 304, 288
-0.930364, 225, 65, 352, 192
-0.931437, 337, 161, 400, 288
-0.931487, 1, 65, 256, 192
-0.932027, 1, 193, 256, 320
-0.932552, 289, 193, 352, 320
-0.935477, 305, 193, 432, 320
-0.935778, 225, 145, 352, 272
-0.935814, 225, 209, 480, 333
-0.936978, 265, 193, 328, 320
-0.938223, 185, 145, 248, 272
-0.938499, 313, 193, 376, 320
-0.93925, 209, 81, 272, 208
-0.940535, 289, 97, 416, 224
-0.940612, 57, 65, 120, 192
-0.940756, 337, 161, 400, 224
-0.941105, 145, 209, 272, 333
-0.941119, 257, 145, 500, 272
-0.941145, 17, 145, 144, 272
-0.941475, 297, 169, 360, 232
-0.941687, 81, 145, 208, 272
-0.94193, 305, 81, 368, 208
-0.942026, 337, 113, 400, 240
-0.94242, 169, 193, 232, 320
-0.942961, 17, 81, 144, 208
-0.944041, 305, 201, 368, 264
-0.944265, 265, 81, 328, 208
-0.944326, 209, 129, 272, 256
-0.945397, 145, 193, 208, 320
-0.946785, 41, 113, 104, 240
-0.946875, 1, 33, 500, 160
-0.947473, 329, 185, 392, 248
-0.947573, 241, 193, 304, 320
-0.94789, 233, 145, 296, 272
-0.947912, 289, 145, 352, 208
-0.948777, 313, 145, 376, 208
-0.949267, 209, 177, 272, 304
-0.949957, 241, 49, 304, 176
-0.951196, 281, 225, 344, 288
-0.951409, 249, 201, 312, 264
-0.951574, 145, 97, 272, 224
-0.951578, 81, 81, 144, 208
-0.951732, 265, 145, 328, 272
-0.952005, 1, 145, 64, 272
-0.952218, 81, 129, 144, 256
-0.95233, 201, 121, 264, 184
-0.9526, 161, 145, 224, 272
-0.952761, 97, 209, 224, 333
-0.952799, 233, 105, 296, 168
-0.952902, 313, 225, 376, 288
-0.953542, 265, 145, 328, 208
-0.954032, 169, 209, 232, 272
-0.954367, 273, 185, 336, 248
-0.95442, 265, 57, 328, 120
-0.954424, 193, 209, 320, 333
-0.954704, 33, 161, 96, 288
-0.955112, 361, 161, 424, 288
-0.955305, 193, 97, 256, 160
-0.95549, 257, 81, 500, 208
-0.955586, 185, 65, 248, 192
-0.955669, 209, 65, 272, 128
-0.955747, 233, 129, 296, 192
-0.955894, 1, 17, 256, 144
-0.957593, 1, 193, 128, 320
-0.957905, 33, 65, 96, 192
-0.958579, 257, 1, 500, 128
-0.959165, 177, 49, 304, 176
-0.960292, 41, 169, 104, 232
-0.96088, 321, 145, 448, 272
-0.961051, 129, 161, 256, 288
-0.961432, 9, 97, 72, 224
-0.961466, 337, 225, 400, 288
-0.961819, 145, 201, 208, 264
-0.962017, 373, 153, 404, 216
-0.962402, 129, 145, 192, 272
-0.962548, 353, 185, 416, 248
-0.962948, 201, 201, 264, 264
-0.96332, 233, 65, 296, 128
-0.963496, 273, 185, 400, 248
-0.963506, 337, 209, 400, 333
-0.963609, 289, 65, 352, 128
-0.963791, 81, 97, 208, 224
-0.964181, 161, 17, 416, 144
-0.964547, 321, 121, 384, 184
-0.9646, 281, 121, 344, 184
-0.964728, 9, 193, 72, 320
-0.964732, 321, 249, 384, 312
-0.964973, 345, 161, 376, 288
-0.965246, 297, 249, 360, 312
-0.965313, 353, 177, 384, 240
-0.965318, 361, 113, 424, 240
-0.965753, 313, 129, 344, 256
-0.966296, 325, 145, 356, 272
-0.966593, 65, 161, 128, 224
-0.966642, 225, 201, 288, 264
-0.966663, 273, 161, 400, 224
-0.966676, 233, 97, 296, 224
-0.967085, 9, 193, 72, 256
-0.967395, 177, 209, 208, 272
-0.967446, 145, 225, 208, 288
-0.967832, 177, 201, 304, 264
-0.968004, 325, 193, 356, 320
-0.968047, 329, 169, 360, 232
-0.968339, 361, 161, 424, 224
-0.968376, 301, 193, 332, 320
-0.968507, 309, 161, 340, 224
-0.96857, 225, 137, 352, 200
-0.968668, 57, 161, 120, 288
-0.968696, 321, 65, 384, 320
-0.968704, 17, 169, 80, 232
-0.968717, 265, 33, 328, 160
-0.968839, 209, 161, 272, 224
-0.968912, 345, 137, 408, 200
-0.968923, 373, 129, 404, 256
-0.969053, 249, 169, 312, 232
-0.969405, 9, 49, 72, 176
-0.969457, 357, 161, 388, 288
-0.969466, 237, 105, 268, 168
-0.969681, 297, 65, 360, 320
-0.969823, 289, 145, 320, 208
-0.970138, 297, 209, 328, 272
-0.970173, 121, 209, 184, 333
-0.970175, 361, 153, 392, 216
-0.970239, 289, 1, 416, 128
-0.970249, 121, 193, 184, 256
-0.970371, 309, 137, 340, 200
-0.97083, 225, 57, 352, 120
-0.970844, 289, 137, 416, 200
-0.970935, 17, 145, 80, 208
-0.970943, 225, 161, 352, 224
-0.971044, 313, 177, 344, 304
-0.971111, 217, 33, 280, 160
-0.971441, 289, 49, 416, 176
-0.971456, 273, 217, 400, 280
-0.971683, 169, 185, 232, 248
-0.971833, 309, 193, 340, 256
-0.971934, 177, 193, 208, 320
-0.972197, 293, 185, 324, 248
-0.972375, 341, 169, 372, 232
-0.972523, 341, 233, 372, 296
-0.972635, 225, 97, 256, 160
-0.97276, 325, 249, 356, 312
-0.972762, 301, 129, 332, 256
-0.972762, 289, 33, 352, 160
-0.972818, 377, 177, 408, 240
-0.972869, 225, 121, 256, 184
-0.972916, 273, 65, 336, 320
-0.972945, 9, 49, 72, 112
-0.972991, 325, 193, 356, 256
-0.973042, 217, 113, 248, 240
-0.973146, 321, 145, 352, 208
-0.973199, 297, 57, 328, 120
-0.973275, 1, 33, 128, 160
-0.973334, 225, 1, 352, 128
-0.973502, 185, 73, 248, 136
-0.973568, 229, 81, 260, 208
-0.97362, 289, 177, 320, 304
-0.973623, 89, 153, 152, 216
-0.973639, 277, 193, 308, 256
-0.973648, 309, 217, 340, 280
-0.97365, 229, 65, 260, 128
-0.973662, 193, 17, 256, 144
-0.973789, 49, 209, 176, 333
-0.973825, 225, 193, 352, 256
-0.973961, 209, 65, 272, 320
-0.974039, 193, 145, 224, 272
-0.974132, 257, 89, 320, 152
-0.974157, 369, 129, 496, 256
-0.974185, 105, 129, 168, 256
-0.974209, 373, 129, 404, 192
-0.974318, 237, 129, 268, 192
-0.974492, 113, 49, 240, 176
-0.974576, 225, 217, 352, 280
-0.974629, 257, 121, 320, 184
-0.974817, 357, 113, 388, 240
-0.974941, 321, 177, 448, 240
-0.975072, 165, 209, 196, 272
-0.975128, 17, 33, 80, 288
-0.975143, 337, 97, 368, 224
-0.975196, 161, 121, 288, 184
-0.975281, 357, 217, 388, 280
-0.975392, 17, 169, 144, 232
-0.975423, 277, 193, 308, 320
-0.975447, 209, 113, 336, 176
-0.975636, 301, 81, 332, 208
-0.975682, 201, 81, 232, 208
-0.975727, 181, 145, 212, 272
-0.975755, 313, 97, 376, 160
-0.975774, 277, 129, 308, 192
-0.975938, 261, 193, 292, 320
-0.976016, 81, 201, 208, 264
-0.976049, 97, 209, 160, 333
-0.976072, 273, 249, 336, 312
-0.976526, 341, 209, 372, 272
-0.976541, 189, 201, 220, 264
-0.976542, 213, 89, 244, 152
-0.976746, 233, 129, 264, 256
-0.976802, 49, 33, 112, 288
-0.976804, 33, 65, 96, 128
-0.976854, 105, 81, 168, 208
-0.976882, 321, 217, 352, 280
-0.9769, 177, 73, 304, 136
-0.977017, 345, 145, 376, 208
-0.977053, 213, 65, 244, 192
-0.977107, 249, 33, 312, 288
-0.977196, 325, 81, 356, 208
-0.97745, 33, 193, 96, 256
-0.977658, 201, 201, 232, 264
-0.977665, 241, 81, 368, 144
-0.977684, 241, 241, 368, 304
-0.977725, 353, 193, 480, 320
-0.977775, 57, 73, 120, 136
-0.977791, 369, 177, 400, 304
-0.977836, 337, 209, 368, 333
-0.977883, 41, 145, 72, 272
-0.977955, 249, 201, 280, 264
-0.97814, 177, 185, 208, 248
-0.978149, 265, 201, 296, 264
-0.978271, 197, 97, 228, 160
-0.9783, 253, 73, 284, 136
-0.978347, 205, 161, 236, 288
-0.978386, 21, 193, 52, 256
-0.978435, 329, 65, 392, 192
-0.978489, 305, 241, 336, 304
-0.978609, 285, 49, 316, 112
-0.978609, 165, 193, 196, 320
-0.978633, 217, 65, 248, 128
-0.978636, 177, 169, 304, 232
-0.978688, 245, 145, 276, 272
-0.978716, 161, 97, 288, 160
-0.978804, 369, 129, 432, 192
-0.978808, 281, 169, 312, 232
-0.97881, 177, 121, 240, 184
-0.978831, 169, 145, 200, 272
-0.97898, 313, 65, 344, 192
-0.978981, 189, 193, 220, 320
-0.979048, 365, 177, 396, 240
-0.97905, 25, 145, 56, 272
-0.979097, 249, 193, 280, 320
-0.979263, 81, 97, 144, 160
-0.979268, 101, 81, 132, 208
-0.979282, 321, 201, 448, 264
-0.979284, 249, 105, 280, 168
-0.979317, 161, 81, 224, 208
-0.979349, 129, 209, 256, 272
-0.979394, 85, 81, 116, 208
-0.979431, 241, 65, 272, 128
-0.979634, 81, 145, 208, 208
-0.979694, 185, 65, 248, 320
-0.979707, 257, 225, 320, 288
-0.979961, 241, 1, 304, 128
-0.98019, 249, 1, 312, 333
-0.980269, 145, 177, 208, 240
-0.980297, 345, 113, 408, 176
-0.980351, 281, 97, 344, 160
-0.980546, 233, 193, 264, 320
-0.980552, 169, 233, 232, 296
-0.980553, 41, 17, 104, 144
-0.980555, 269, 49, 300, 112
-0.980719, 285, 217, 316, 280
-0.98082, 233, 225, 296, 288
-0.980849, 213, 121, 244, 184
-0.980956, 105, 121, 168, 184
-0.98099, 73, 209, 136, 333
-0.981045, 97, 185, 160, 248
-0.981054, 249, 129, 280, 192
-0.981123, 113, 113, 240, 176
-0.981343, 217, 161, 248, 288
-0.98136, 361, 209, 424, 333
-0.981523, 237, 201, 268, 264
-0.981581, 37, 81, 68, 208
-0.981657, 101, 129, 132, 256
-0.981738, 81, 129, 144, 192
-0.981754, 305, 241, 432, 304
-0.981817, 353, 241, 384, 304
-0.981862, 33, 217, 96, 280
-0.981865, 373, 201, 404, 264
-0.981883, 57, 113, 88, 240
-0.981897, 313, 273, 376, 333
-0.981915, 345, 249, 408, 312
-0.981964, 265, 129, 296, 192
-0.981973, 257, 145, 288, 272
-0.981974, 73, 33, 136, 288
-0.982009, 53, 161, 84, 224
-0.982015, 225, 41, 288, 104
-0.982071, 281, 65, 312, 192
-0.982156, 65, 185, 128, 248
-0.982242, 57, 137, 120, 200
-0.982249, 85, 145, 116, 272
-0.982278, 257, 33, 320, 96
-0.98234, 17, 121, 144, 184
-0.982415, 433, 1, 496, 128
-0.982449, 89, 161, 120, 224
-0.982502, 169, 97, 232, 160
-0.982541, 361, 121, 392, 184
-0.982655, 357, 209, 388, 333
-0.982812, 269, 153, 300, 216
-0.982826, 37, 169, 68, 232
-0.982851, 249, 65, 280, 192
-0.982855, 289, 113, 320, 240
-0.982856, 333, 145, 364, 208
-0.982865, 17, 201, 144, 264
-0.982885, 185, 49, 248, 112
-0.983119, 1, 145, 128, 208
-0.983141, 169, 145, 232, 208
-0.983208, 13, 145, 44, 272
-0.983284, 313, 73, 376, 136
-0.98334, 129, 185, 256, 248
-0.983546, 17, 121, 80, 184
-0.983562, 221, 201, 252, 264
-0.983575, 65, 209, 128, 272
-0.983686, 273, 1, 336, 333
-0.983716, 177, 1, 304, 128
-0.983726, 177, 49, 304, 112
-0.983741, 337, 153, 464, 216
-0.983751, 177, 145, 304, 208
-0.983768, 153, 201, 184, 264
-0.983836, 313, 1, 376, 128
-0.983839, 265, 73, 296, 136
-0.983875, 257, 105, 384, 168
-0.983875, 153, 209, 184, 333
-0.983887, 337, 1, 464, 128
-0.98394, 49, 209, 112, 333
-0.983973, 193, 225, 256, 288
-0.984045, 177, 225, 304, 288
-0.984137, 361, 217, 424, 280
-0.984403, 177, 233, 208, 296
-0.984427, 205, 57, 236, 120
-0.984441, 65, 65, 96, 192
-0.984474, 289, 121, 320, 184
-0.984517, 293, 33, 324, 160
-0.984533, 29, 193, 60, 320
-0.984624, 73, 169, 104, 232
-0.984634, 305, 41, 368, 104
-0.984692, 17, 81, 144, 144
-0.984776, 229, 161, 260, 224
-0.984779, 129, 233, 256, 296
-0.984815, 201, 209, 232, 333
-0.984875, 1, 49, 32, 112
-0.98489, 337, 1, 400, 128
-0.984898, 229, 33, 260, 160
-0.985011, 337, 65, 464, 192
-0.98503, 153, 145, 184, 272
-0.985072, 113, 65, 240, 128
-0.985115, 309, 57, 340, 120
-0.985232, 217, 209, 248, 333
-0.985249, 277, 73, 308, 136
-0.985283, 257, 49, 288, 112
-0.98534, 37, 201, 68, 264
-0.985424, 269, 65, 300, 192
-0.985455, 385, 153, 416, 216
-0.985565, 101, 153, 132, 216
-0.985609, 121, 217, 184, 280
-0.985631, 257, 265, 384, 328
-0.985885, 277, 145, 308, 272
-0.985925, 1, 57, 128, 120
-0.985931, 69, 145, 100, 272
-0.98601, 113, 81, 144, 208
-0.986035, 329, 1, 392, 333
-0.986077, 257, 169, 288, 232
-0.98619, 329, 121, 360, 184
-0.986326, 21, 49, 52, 176
-0.986453, 113, 265, 176, 328
-0.986506, 385, 129, 416, 192
-0.986518, 113, 129, 144, 256
-0.986532, 241, 161, 272, 224
-0.98655, 9, 193, 40, 320
-0.986594, 337, 89, 400, 152
-0.986752, 25, 49, 56, 112
-0.986798, 201, 1, 264, 333
-0.986819, 305, 113, 432, 176
-0.986861, 81, 73, 144, 136
-0.986939, 129, 145, 256, 208
-0.986963, 25, 1, 88, 333
-0.987003, 201, 177, 232, 240
-0.987103, 113, 89, 240, 152
-0.987116, 65, 177, 192, 240
-0.987324, 257, 145, 320, 176
-0.987343, 5, 169, 36, 232
-0.98739, 305, 113, 336, 176
-0.987441, 25, 97, 56, 224
-0.987463, 269, 105, 300, 168
-0.987485, 381, 177, 412, 304
-0.987486, 1, 97, 64, 160
-0.987513, 21, 169, 52, 232
-0.987537, 213, 161, 244, 224
-0.987538, 297, 1, 360, 333
-0.987589, 153, 225, 184, 288
-0.987624, 273, 49, 400, 112
-0.987648, 321, 189, 384, 220
-0.987819, 1, 25, 64, 88
-0.987858, 353, 1, 416, 256
-0.987865, 81, 225, 208, 288
-0.98789, 193, 225, 224, 288
-0.98794, 113, 153, 176, 216
-0.987972, 337, 161, 400, 192
-0.988007, 189, 97, 220, 224
-0.98801, 337, 177, 400, 208
-0.988062, 65, 1, 128, 333
-0.988089, 337, 257, 368, 320
-0.988126, 297, 201, 360, 232
-0.988135, 385, 169, 448, 232
-0.988151, 201, 121, 232, 184
-0.988167, 313, 165, 376, 196
-0.988167, 53, 65, 84, 192
-0.988244, 353, 129, 480, 192
-0.988296, 321, 233, 384, 264
-0.988299, 325, 273, 356, 333
-0.988357, 161, 209, 224, 240
-0.988367, 93, 81, 124, 144
-0.988405, 41, 193, 72, 320
-0.988412, 305, 213, 368, 244
-0.988478, 165, 185, 196, 248
-0.988481, 225, 1, 288, 333
-0.988506, 57, 185, 88, 248
-0.988517, 281, 149, 344, 180
-0.988518, 33, 89, 96, 152
-0.988529, 165, 233, 196, 296
-0.98854, 345, 97, 376, 160
-0.988548, 409, 1, 472, 128
-0.988561, 201, 101, 264, 132
-0.988591, 385, 113, 416, 240
-0.988615, 1, 1, 64, 128
-0.988616, 13, 57, 44, 120
-0.98864, 345, 189, 408, 220
-0.988648, 189, 177, 220, 240
-0.98866, 1, 145, 32, 272
-0.98866, 385, 129, 448, 256
-0.988692, 269, 225, 300, 288
-0.988718, 145, 145, 208, 208
-0.988723, 225, 153, 288, 184
-0.988746, 289, 161, 352, 192
-0.98875, 281, 137, 344, 168
-0.98876, 289, 273, 352, 333
-0.988768, 265, 57, 328, 88
-0.988779, 305, 149, 368, 180
-0.988783, 65, 145, 96, 208
-0.988804, 129, 201, 384, 264
-0.988836, 297, 177, 360, 208
-0.988855, 141, 193, 172, 256
-0.988899, 53, 161, 84, 288
-0.9889, 49, 265, 176, 328
-0.988971, 297, 189, 360, 220
-0.988986, 113, 121, 144, 184
-0.989022, 185, 205, 248, 236
-0.989072, 133, 209, 164, 333
-0.989133, 369, 81, 400, 208
-0.98916, 321, 201, 384, 232
-0.989176, 241, 57, 304, 88
-0.989216, 321, 73, 352, 136
-0.989235, 273, 225, 336, 256
-0.989247, 369, 225, 400, 288
-0.989251, 41, 33, 72, 160
-0.989258, 25, 165, 88, 196
-0.98926, 321, 97, 352, 160
-0.989307, 105, 97, 168, 160
-0.989369, 289, 81, 416, 144
-0.989378, 281, 1, 312, 128
-0.989379, 225, 33, 352, 96
-0.989384, 49, 149, 112, 180
-0.989403, 9, 73, 72, 136
-0.989411, 101, 121, 132, 184
-0.989412, 265, 197, 328, 228
-0.989424, 257, 133, 320, 164
-0.989426, 1, 193, 256, 256
-0.989465, 217, 57, 280, 88
-0.989486, 209, 113, 272, 144
-0.989496, 37, 65, 68, 128
-0.989504, 77, 145, 108, 208
-0.989505, 297, 225, 360, 256
-0.989513, 285, 241, 316, 304
-0.989521, 249, 69, 312, 100
-0.989528, 349, 121, 380, 184
-0.989543, 273, 209, 336, 240
-0.989606, 377, 193, 440, 256
-0.989618, 209, 85, 272, 116
-0.989654, 145, 221, 208, 252
-0.989659, 57, 273, 120, 333
-0.989662, 225, 73, 288, 104
-0.989693, 105, 89, 136, 152
-0.989693, 97, 265, 224, 328
-0.989699, 389, 177, 420, 240
-0.989705, 337, 221, 400, 252
-0.98976, 193, 121, 448, 184
-0.989765, 257, 157, 320, 188
-0.989766, 33, 177, 96, 208
-0.989789, 233, 141, 296, 172
-0.989793, 257, 89, 320, 120
-0.98981, 313, 245, 376, 276
-0.98982, 297, 81, 360, 112
-0.989831, 169, 221, 232, 252
-0.989834, 193, 145, 224, 208
-0.989854, 281, 241, 344, 272
-0.989861, 193, 61, 256, 92
-0.989875, 233, 201, 296, 232
-0.989882, 257, 225, 288, 288
-0.98989, 49, 165, 112, 196
-0.989903, 1, 1, 64, 333
-0.989927, 1, 165, 64, 196
-0.989933, 9, 177, 72, 208
-0.989934, 225, 101, 288, 132
-0.989953, 161, 65, 224, 128
-0.989968, 25, 137, 56, 200
-0.990029, 65, 121, 192, 184
-0.990067, 233, 113, 296, 144
-0.99007, 249, 249, 312, 312
-0.990077, 193, 217, 256, 248
-0.990088, 273, 73, 336, 104
-0.990104, 361, 173, 424, 204
-0.990116, 33, 133, 96, 164
-0.990148, 209, 201, 272, 232
-0.990159, 305, 129, 368, 160
-0.990164, 85, 185, 116, 248
-0.990165, 153, 233, 216, 264
-0.990178, 1, 273, 64, 333
-0.990192, 329, 141, 392, 172
-0.99021, 201, 125, 264, 156
-0.990256, 25, 145, 88, 176
-0.990272, 57, 133, 120, 164
-0.990282, 153, 197, 216, 228
-0.990331, 81, 273, 144, 333
-0.990354, 201, 149, 264, 180
-0.990393, 225, 125, 288, 156
-0.990393, 193, 65, 224, 128
-0.9904, 361, 157, 424, 188
-0.990408, 345, 125, 408, 156
-0.990427, 81, 73, 112, 136
-0.990467, 369, 177, 496, 240
-0.990468, 109, 185, 140, 248
-0.990481, 57, 81, 120, 112
-0.990506, 313, 265, 344, 328
-0.990547, 313, 261, 376, 292
-0.990555, 1, 201, 500, 264
-0.990563, 57, 65, 88, 128
-0.990573, 201, 33, 232, 160
-0.990581, 1, 53, 64, 84
-0.990612, 329, 113, 392, 144
-0.990634, 105, 209, 136, 333
-0.990652, 121, 185, 152, 248
-0.990669, 73, 157, 136, 188
-0.990687, 297, 33, 328, 96
-0.990704, 273, 185, 336, 216
-0.990717, 345, 205, 408, 236
-0.990732, 353, 1, 416, 333
-0.990739, 73, 145, 136, 176
-0.990787, 65, 129, 320, 192
-0.990795, 129, 225, 384, 288
-0.990803, 17, 73, 80, 104
-0.990821, 129, 197, 192, 228
-0.990831, 25, 273, 88, 333
-0.990834, 89, 137, 120, 200
-0.990835, 65, 153, 320, 216
-0.990856, 1, 217, 64, 280
-0.990864, 33, 33, 96, 96
-0.990879, 233, 213, 296, 244
-0.990885, 233, 89, 296, 120
-0.990889, 33, 93, 96, 124
-0.990896, 57, 109, 120, 140
-0.990908, 81, 101, 144, 132
-0.990908, 1, 225, 128, 288
-0.990929, 41, 65, 104, 96
-0.990931, 281, 125, 344, 156
-0.990936, 65, 49, 192, 176
-0.990971, 1, 153, 64, 184
-0.991, 337, 249, 400, 280
-0.991075, 137, 209, 200, 240
-0.991127, 41, 121, 104, 152
-0.991137, 73, 121, 136, 152
-0.991146, 201, 161, 264, 192
-0.991155, 185, 113, 248, 144
-0.991166, 297, 69, 360, 100
-0.991171, 57, 97, 120, 128
-0.991184, 289, 93, 352, 124
-0.991205, 289, 253, 352, 284
-0.991214, 73, 17, 136, 144
-0.991233, 161, 65, 224, 320
-0.991246, 201, 73, 264, 104
-0.991254, 33, 105, 96, 136
-0.991254, 1, 205, 64, 236
-0.991277, 353, 145, 416, 176
-0.991289, 97, 185, 128, 248
-0.991302, 345, 233, 408, 264
-0.99131, 145, 257, 208, 320
-0.991311, 185, 89, 248, 120
-0.991346, 33, 189, 96, 220
-0.991355, 233, 165, 296, 196
-0.991369, 193, 169, 448, 232
-0.991384, 97, 65, 160, 320
-0.991391, 353, 65, 416, 192
-0.991416, 9, 81, 40, 208
-0.99142, 33, 213, 96, 244
-0.991446, 201, 137, 264, 168
-0.991501, 177, 101, 240, 132
-0.991504, 9, 193, 40, 256
-0.991514, 57, 97, 120, 160
-0.991527, 273, 173, 336, 204
-0.991535, 177, 193, 240, 224
-0.991572, 369, 185, 432, 216
-0.991574, 313, 97, 376, 128
-0.991597, 21, 97, 52, 160
-0.991605, 1, 161, 500, 224
-0.991607, 377, 1, 440, 256
-0.991618, 73, 209, 104, 272
-0.991626, 1, 33, 32, 160
-0.991629, 65, 97, 192, 160
-0.991629, 249, 225, 312, 256
-0.991647, 1, 273, 128, 333
-0.991691, 289, 57, 352, 88
-0.991696, 281, 33, 344, 96
-0.991712, 129, 185, 192, 216
-0.991714, 249, 101, 312, 132
-0.99172, 9, 193, 72, 224
-0.99173, 353, 181, 384, 212
-0.991731, 177, 233, 240, 264
-0.991746, 129, 65, 384, 128
-0.991749, 289, 265, 352, 296
-0.991764, 121, 209, 152, 333
-0.991794, 169, 149, 232, 180
-0.991805, 89, 209, 152, 272
-0.991837, 153, 185, 216, 216
-0.991841, 81, 133, 144, 164
-0.991856, 365, 157, 396, 188
-0.991865, 89, 1, 152, 333
-0.991883, 233, 101, 264, 132
-0.991901, 169, 65, 232, 96
-0.991905, 309, 165, 340, 196
-0.991939, 337, 193, 368, 224
-0.99194, 193, 145, 448, 208
-0.991945, 329, 173, 360, 204
-0.991949, 81, 89, 144, 120
-0.991953, 217, 225, 280, 256
-0.991983, 225, 157, 352, 188
-0.991998, 373, 169, 404, 200
-0.992007, 161, 213, 192, 244
-0.992015, 301, 145, 332, 176
-0.992016, 177, 217, 208, 248
-0.992018, 313, 1, 344, 128
-0.99202, 225, 193, 480, 256
-0.992023, 345, 165, 376, 196
-0.992027, 265, 1, 328, 64
-0.992029, 9, 97, 72, 128
-0.992036, 233, 113, 264, 144
-0.99204, 341, 181, 372, 212
-0.992045, 161, 33, 224, 160
-0.992052, 17, 121, 80, 152
-0.992055, 141, 161, 172, 288
-0.99206, 297, 209, 328, 240
-0.992068, 305, 109, 368, 140
-0.992069, 369, 197, 432, 228
-0.992077, 97, 145, 160, 176
-0.99208, 309, 201, 340, 232
-0.992101, 321, 81, 384, 112
-0.992123, 313, 149, 344, 180
-0.992135, 377, 105, 440, 168
-0.992147, 245, 153, 276, 184
-0.992164, 257, 145, 384, 176
-0.992168, 361, 1, 424, 128
-0.992174, 73, 169, 136, 200
-0.992177, 325, 185, 356, 216
-0.99219, 241, 1, 368, 64
-0.992201, 373, 181, 404, 212
-0.992204, 177, 205, 208, 236
-0.992205, 305, 265, 432, 328
-0.992253, 345, 225, 376, 256
-0.992278, 297, 57, 328, 88
-0.99228, 277, 141, 308, 172
-0.992301, 289, 149, 320, 180
-0.992307, 309, 213, 340, 244
-0.992325, 233, 125, 264, 156
-0.992341, 297, 225, 328, 256
-0.992348, 213, 101, 244, 132
-0.992357, 145, 257, 272, 320
-0.992357, 361, 169, 392, 200
-0.992359, 125, 161, 156, 288
-0.992363, 289, 185, 416, 216
-0.992374, 325, 197, 356, 228
-0.992397, 229, 61, 260, 92
-0.992401, 309, 177, 340, 208
-0.992402, 321, 249, 352, 280
-0.992405, 353, 193, 384, 224
-0.992408, 309, 189, 340, 220
-0.992411, 289, 137, 320, 168
-0.99243, 221, 113, 252, 144
-0.992434, 33, 173, 64, 204
-0.992444, 345, 213, 376, 244
-0.992452, 193, 97, 448, 160
-0.992454, 225, 157, 256, 188
-0.992459, 53, 165, 84, 196
-0.99246, 297, 197, 328, 228
-0.99247, 249, 57, 280, 88
-0.992472, 377, 1, 440, 333
-0.992475, 269, 57, 300, 88
-0.992476, 369, 129, 400, 160
-0.992482, 181, 229, 212, 260
-0.992489, 257, 153, 288, 184
-0.992493, 325, 161, 356, 192
-0.992502, 277, 197, 308, 228
-0.992505, 297, 161, 328, 192
-0.992506, 353, 225, 480, 288
-0.992507, 165, 225, 196, 256
-0.992512, 285, 57, 316, 88
-0.992514, 373, 193, 404, 224
-0.992514, 341, 237, 372, 268
-0.992526, 301, 73, 332, 104
-0.992535, 349, 149, 380, 180
-0.99254, 373, 145, 404, 176
-0.992543, 209, 61, 240, 92
-0.992546, 77, 209, 108, 333
-0.99255, 361, 225, 392, 256
-0.992551, 193, 205, 224, 236
-0.992559, 169, 257, 232, 320
-0.992566, 277, 153, 308, 184
-0.992572, 197, 97, 228, 128
-0.992575, 77, 149, 108, 180
-0.992576, 213, 89, 244, 120
-0.992584, 65, 153, 96, 184
-0.992585, 325, 261, 356, 292
-0.99259, 189, 217, 220, 248
-0.992593, 329, 209, 360, 240
-0.992595, 313, 225, 344, 256
-0.992597, 229, 201, 260, 232
-0.992597, 265, 141, 296, 172
-0.992601, 245, 109, 276, 140
-0.992611, 245, 141, 276, 172
-0.99262, 21, 181, 52, 212
-0.992624, 205, 205, 236, 236
-0.992633, 5, 169, 36, 200
-0.992642, 245, 69, 276, 100
-0.992642, 285, 225, 316, 256
-0.992645, 357, 205, 388, 236
-0.992652, 313, 133, 344, 164
-0.992658, 365, 117, 396, 148
-0.99266, 301, 237, 332, 268
-0.992661, 353, 237, 384, 268
-0.992663, 285, 85, 316, 116
-0.992704, 301, 133, 332, 164
-0.992706, 377, 157, 408, 188
-0.992715, 297, 185, 328, 216
-0.992718, 331, 161, 346, 224
-0.992721, 303, 145, 318, 208
-0.992722, 245, 125, 276, 156
-0.992723, 289, 205, 416, 236
-0.992738, 341, 97, 372, 128
-0.992739, 221, 129, 252, 160
-0.992742, 285, 69, 316, 100
-0.992766, 233, 145, 264, 176
-0.992774, 213, 145, 244, 176
-0.992777, 61, 133, 92, 164
-0.992784, 229, 213, 260, 244
-0.99279, 383, 145, 398, 208
-0.992796, 297, 85, 328, 116
-0.992799, 361, 145, 392, 176
-0.992808, 253, 201, 284, 232
-0.992812, 229, 73, 260, 104
-0.992814, 285, 209, 316, 240
-0.992814, 341, 249, 372, 280
-0.992816, 217, 213, 248, 244
-0.992824, 45, 177, 76, 208
-0.992825, 81, 77, 112, 108
-0.992841, 65, 97, 320, 160
-0.992844, 325, 149, 356, 180
-0.992847, 213, 161, 244, 192
-0.992847, 433, 17, 496, 80
-0.992853, 329, 233, 360, 264
-0.992854, 375, 153, 390, 216
-0.992857, 265, 73, 296, 104
-0.992859, 149, 217, 180, 248
-0.992862, 89, 137, 120, 168
-0.992863, 217, 201, 248, 232
-0.992866, 213, 17, 244, 144
-0.992874, 17, 169, 48, 200
-0.992885, 341, 261, 372, 292
-0.992886, 225, 89, 256, 120
-0.992887, 25, 73, 56, 104
-0.992894, 253, 93, 284, 124
-0.992895, 241, 201, 272, 232
-0.992901, 41, 161, 72, 192
-0.992905, 333, 129, 364, 160
-0.992907, 73, 133, 104, 164
-0.992909, 329, 89, 360, 120
-0.992915, 165, 197, 196, 228
-0.992915, 73, 165, 104, 196
-0.992918, 197, 61, 228, 92
-0.992925, 265, 89, 296, 120
-0.992931, 89, 157, 120, 188
-0.992932, 365, 161, 380, 224
-0.992941, 93, 113, 124, 144
-0.992941, 353, 249, 384, 280
-0.992942, 201, 221, 232, 252
-0.992943, 345, 177, 360, 240
-0.992947, 129, 1, 256, 128
-0.99295, 41, 129, 72, 160
-0.992955, 209, 273, 272, 333
-0.992997, 209, 61, 336, 92
-0.993008, 177, 25, 304, 88
-0.993017, 325, 145, 340, 208
-0.993046, 161, 209, 288, 240
-0.993058, 289, 157, 416, 188
-0.993068, 239, 121, 254, 184
-0.993069, 457, 1, 488, 128
-0.993091, 153, 121, 216, 184
-0.993098, 189, 201, 204, 264
-0.993129, 297, 145, 312, 208
-0.993139, 179, 209, 194, 272
-0.99316, 359, 169, 374, 232
-0.993191, 313, 217, 328, 280
-0.993201, 245, 121, 260, 184
-0.99321, 237, 97, 252, 160
-0.993216, 289, 169, 416, 200
-0.993331, 65, 193, 96, 320
-0.993335, 353, 177, 368, 240
-0.99334, 349, 65, 380, 192
-0.993371, 289, 25, 416, 88
-0.993377, 249, 17, 280, 144
-0.993418, 325, 1, 356, 128
-0.993462, 225, 221, 352, 252
-0.993521, 209, 201, 336, 232
-0.993523, 33, 217, 288, 280
-0.993547, 301, 169, 316, 232
-0.993642, 269, 1, 300, 128
-0.993688, 233, 121, 248, 184
-0.99372, 389, 169, 404, 232
-0.993729, 193, 249, 320, 312
-0.99375, 145, 221, 272, 252
-0.99377, 169, 1, 232, 333
-0.993772, 1, 149, 128, 180
-0.993782, 225, 129, 352, 160
-0.993798, 129, 33, 256, 96
-0.993808, 129, 97, 192, 224
-0.993815, 339, 169, 354, 232
-0.993874, 315, 193, 330, 256
-0.993897, 331, 185, 346, 248
-0.993899, 353, 217, 368, 280
-0.993899, 321, 201, 336, 264
-0.993939, 241, 93, 368, 124
-0.993957, 359, 193, 374, 256
-0.993972, 369, 9, 496, 72
-0.993974, 321, 177, 336, 240
-0.993976, 273, 221, 400, 252
-0.994006, 307, 185, 322, 248
-0.994007, 379, 121, 394, 184
-0.99402, 225, 73, 352, 104
-0.994055, 105, 73, 168, 136
-0.994092, 241, 169, 368, 200
-0.994102, 257, 273, 320, 333
-0.994115, 251, 105, 266, 168
-0.994128, 225, 89, 240, 152
-0.994131, 231, 65, 246, 128
-0.994169, 469, 1, 500, 128
-0.994193, 363, 225, 378, 288
-0.994215, 17, 1, 48, 128
-0.994236, 243, 97, 258, 160
-0.994239, 193, 89, 320, 120
-0.994241, 125, 97, 156, 224
-0.994243, 173, 209, 188, 272
-0.994255, 291, 145, 306, 208
-0.994281, 189, 49, 220, 176
-0.994285, 305, 137, 432, 168
-0.994299, 193, 25, 256, 88
-0.994311, 351, 153, 366, 216
-0.99432, 337, 65, 400, 128
-0.994324, 289, 9, 352, 72
-0.994331, 313, 161, 328, 224
-0.994361, 1, 165, 128, 196
-0.994387, 371, 201, 386, 264
-0.994393, 195, 209, 210, 272
-0.994407, 209, 141, 336, 172
-0.994409, 257, 217, 500, 280
-0.994423, 121, 33, 184, 288
-0.994446, 231, 97, 246, 160
-0.994468, 331, 249, 346, 312
-0.99447, 307, 217, 322, 280
-0.994478, 17, 137, 144, 168
-0.994485, 33, 73, 288, 136
-0.99449, 347, 233, 362, 296
-0.994521, 305, 49, 320, 112
-0.99457, 241, 189, 368, 220
-0.994574, 1, 33, 128, 96
-0.994601, 299, 201, 314, 264
-0.994631, 97, 17, 160, 144
-0.994647, 337, 17, 368, 144
-0.99468, 295, 169, 310, 232
-0.994695, 113, 1, 176, 333
-0.994715, 345, 17, 408, 80
-0.994732, 1, 233, 500, 296
-0.994748, 381, 169, 396, 232
-0.994768, 253, 201, 268, 264
-0.994781, 161, 105, 288, 136
-0.994791, 57, 49, 120, 112
-0.994806, 311, 57, 326, 120
-0.994811, 263, 201, 278, 264
-0.994813, 339, 145, 354, 208
-0.994818, 129, 249, 384, 312
-0.994862, 313, 137, 328, 200
-0.994877, 201, 201, 216, 264
-0.994892, 177, 73, 304, 104
-0.994897, 299, 49, 314, 112
-0.99491, 385, 121, 400, 184
-0.994912, 17, 241, 80, 304
-0.994918, 93, 209, 124, 333
-0.994934, 97, 217, 224, 248
-0.994959, 319, 137, 334, 200
-0.99497, 65, 73, 192, 136
-0.994992, 365, 185, 380, 248
-0.995009, 279, 201, 294, 264
-0.995009, 209, 273, 336, 333
-0.995027, 289, 193, 304, 256
-0.995033, 337, 249, 352, 312
-0.995058, 325, 241, 340, 304
-0.995059, 225, 65, 480, 128
-0.99506, 161, 121, 288, 152
-0.995081, 33, 49, 288, 112
-0.995082, 285, 129, 300, 192
-0.995091, 145, 1, 208, 333
-0.995098, 161, 133, 288, 164
-0.995122, 81, 233, 144, 296
-0.995136, 273, 125, 400, 156
-0.995138, 273, 201, 288, 264
-0.995156, 445, 1, 476, 128
-0.99516, 239, 73, 254, 136
-0.995182, 289, 233, 416, 264
-0.995185, 321, 57, 448, 120
-0.995193, 285, 169, 300, 232
-0.995207, 331, 137, 346, 200
-0.995212, 369, 201, 496, 264
-0.99523, 225, 65, 240, 128
-0.995233, 291, 217, 306, 280
-0.995236, 241, 245, 368, 276
-0.995255, 245, 73, 260, 136
-0.995288, 389, 145, 404, 208
-0.995289, 371, 177, 386, 240
-0.995297, 267, 73, 282, 136
-0.995311, 359, 145, 374, 208
-0.995316, 65, 153, 192, 184
-0.995332, 369, 105, 496, 168
-0.99535, 33, 109, 160, 140
-0.995359, 215, 105, 230, 168
-0.995379, 239, 145, 254, 208
-0.995386, 319, 225, 334, 288
-0.995389, 225, 117, 352, 148
-0.995394, 337, 81, 464, 144
-0.995401, 255, 73, 270, 136
-0.995415, 243, 201, 258, 264
-0.995419, 233, 273, 296, 333
-0.99542, 281, 49, 296, 112
-0.995433, 185, 225, 200, 288
-0.995444, 177, 233, 192, 296
-0.995452, 17, 85, 144, 116
-0.995457, 17, 125, 144, 156
-0.995466, 251, 129, 266, 192
-0.995472, 97, 177, 352, 240
-0.995484, 273, 81, 400, 112
-0.995495, 161, 233, 288, 264
-0.9955, 401, 17, 464, 80
-0.995506, 347, 201, 362, 264
-0.995511, 219, 57, 234, 120
-0.995521, 145, 145, 272, 176
-0.995526, 293, 57, 308, 120
-0.995569, 279, 129, 294, 192
-0.995596, 1, 65, 500, 128
-0.995602, 341, 201, 356, 264
-0.995614, 1, 69, 128, 100
-0.995615, 305, 65, 336, 320
-0.995628, 17, 177, 144, 208
-0.995683, 291, 121, 306, 184
-0.995693, 161, 61, 288, 92
-0.995697, 377, 9, 440, 72
-0.995697, 121, 241, 184, 304
-0.995716, 1, 249, 128, 312
-0.995718, 373, 129, 388, 192
-0.995727, 1, 97, 500, 160
-0.995728, 241, 233, 368, 264
-0.995729, 177, 157, 304, 188
-0.995742, 17, 189, 144, 220
-0.995757, 359, 113, 374, 176
-0.995761, 33, 193, 48, 256
-0.99578, 225, 105, 352, 136
-0.995786, 245, 145, 260, 208
-0.995795, 279, 161, 294, 224
-0.995801, 65, 205, 192, 236
-0.995801, 97, 161, 112, 224
-0.995803, 337, 225, 352, 288
-0.995833, 327, 209, 342, 272
-0.995863, 287, 49, 302, 112
-0.995874, 145, 197, 272, 228
-0.995891, 345, 153, 360, 216
-0.995923, 177, 65, 208, 192
-0.995931, 271, 49, 286, 112
-0.995938, 207, 201, 222, 264
-0.995947, 337, 165, 464, 196
-0.995952, 433, 1, 496, 256
-0.995957, 167, 201, 182, 264
-0.995957, 257, 57, 384, 88
-0.995957, 179, 185, 194, 248
-0.995969, 225, 249, 288, 312
-0.995985, 209, 97, 224, 160
-0.995985, 5, 41, 20, 104
-0.995996, 225, 249, 480, 312
-0.996014, 337, 185, 464, 216
-0.996022, 289, 245, 416, 276
-0.996025, 41, 177, 56, 240
-0.996025, 27, 193, 42, 256
-0.996037, 261, 73, 276, 136
-0.996051, 365, 113, 380, 176
-0.996051, 49, 169, 64, 232
-0.99607, 1, 129, 500, 192
-0.996091, 1, 265, 500, 328
-0.996095, 91, 161, 106, 224
-0.996097, 215, 129, 230, 192
-0.996125, 79, 169, 94, 232
-0.996143, 161, 201, 176, 264
-0.996165, 259, 49, 274, 112
-0.996207, 271, 129, 286, 192
-0.996215, 271, 161, 286, 224
-0.99623, 227, 121, 242, 184
-0.996237, 349, 65, 380, 320
-0.996245, 213, 201, 228, 264
-0.996249, 325, 121, 340, 184
-0.99625, 57, 161, 72, 224
-0.99626, 261, 129, 276, 192
-0.996261, 257, 105, 272, 168
-0.996261, 97, 229, 224, 260
-0.996263, 113, 97, 240, 128
-0.996267, 33, 97, 160, 128
-0.996274, 329, 65, 360, 320
-0.996279, 1, 265, 256, 328
-0.996291, 343, 257, 358, 320
-0.996329, 319, 65, 334, 128
-0.996342, 237, 201, 252, 264
-0.99636, 105, 161, 120, 224
-0.996362, 85, 169, 100, 232
-0.996369, 365, 137, 380, 200
-0.996402, 239, 113, 254, 144
-0.996404, 201, 89, 216, 152
-0.99643, 207, 137, 222, 200
-0.996463, 113, 117, 240, 148
-0.996468, 1, 209, 128, 240
-0.996487, 179, 217, 194, 248
-0.9965, 347, 185, 362, 216
-0.996508, 365, 173, 380, 204
-0.996511, 289, 265, 416, 296
-0.996524, 97, 193, 224, 224
-0.996528, 65, 137, 192, 168
-0.996537, 161, 273, 416, 333
-0.996545, 321, 201, 336, 232
-0.996549, 317, 65, 348, 320
-0.996567, 323, 145, 338, 176
-0.996569, 97, 49, 160, 112
-0.99662, 357, 181, 372, 212
-0.996627, 81, 41, 208, 104
-0.996628, 209, 49, 336, 80
-0.996683, 311, 217, 326, 248
-0.996708, 49, 165, 176, 196
-0.996722, 385, 1, 448, 128
-0.996734, 401, 1, 464, 256
-0.996776, 341, 181, 356, 212
-0.996784, 363, 229, 378, 260
-0.996786, 357, 1, 388, 128
-0.996807, 375, 153, 390, 184
-0.996811, 229, 65, 260, 320
-0.996816, 65, 17, 96, 144
-0.996838, 371, 165, 386, 196
-0.99684, 241, 257, 368, 288
-0.996854, 177, 205, 192, 236
-0.996859, 353, 197, 480, 228
-0.996864, 333, 185, 348, 216
-0.996891, 343, 197, 358, 228
-0.996913, 33, 33, 64, 288
-0.996922, 85, 33, 116, 160
-0.996937, 331, 165, 346, 196
-0.99696, 351, 169, 366, 200
-0.99697, 315, 149, 330, 180
-0.99697, 193, 169, 320, 200
-0.996975, 245, 117, 260, 148
-0.99698, 273, 105, 400, 136
-0.997003, 293, 141, 308, 172
-0.997005, 353, 217, 368, 248
-0.997005, 361, 157, 376, 188
-0.997008, 367, 153, 382, 184
-0.997009, 241, 65, 272, 320
-0.997009, 293, 65, 324, 320
-0.997033, 173, 217, 188, 248
-0.997043, 389, 169, 404, 200
-0.997048, 61, 33, 92, 288
-0.997052, 433, 1, 464, 128
-0.997072, 183, 205, 198, 236
-0.997077, 343, 169, 358, 200
-0.997078, 309, 57, 324, 88
-0.99708, 307, 141, 322, 172
-0.997081, 243, 101, 258, 132
-0.997092, 237, 101, 252, 132
-0.997096, 337, 153, 464, 184
-0.997102, 357, 229, 372, 260
-0.997112, 247, 153, 262, 184
-0.997128, 313, 161, 328, 192
-0.997129, 167, 213, 182, 244
-0.997129, 45, 33, 76, 288
-0.997164, 383, 129, 398, 160
-0.997167, 333, 197, 348, 228
-0.997185, 325, 177, 340, 208
-0.997188, 315, 205, 330, 236
-0.997192, 81, 1, 208, 128
-0.997212, 187, 217, 202, 248
-0.997218, 385, 145, 400, 176
-0.997224, 303, 177, 318, 208
-0.997228, 53, 17, 84, 144
-0.997231, 321, 221, 448, 252
-0.997235, 237, 129, 252, 160
-0.99724, 325, 165, 340, 196
-0.997253, 77, 33, 108, 288
-0.997255, 317, 137, 332, 168
-0.99726, 261, 153, 276, 184
-0.997265, 231, 117, 246, 148
-0.997269, 361, 65, 392, 320
-0.997283, 301, 157, 316, 188
-0.997284, 303, 205, 318, 236
-0.997288, 299, 141, 314, 172
-0.997289, 321, 89, 448, 120
-0.99729, 267, 153, 282, 184
-0.997291, 359, 169, 374, 200
-0.997299, 53, 165, 68, 196
-0.997319, 381, 157, 396, 188
-0.997322, 89, 33, 120, 288
-0.997325, 355, 205, 370, 236
-0.997331, 391, 181, 406, 212
-0.997332, 371, 221, 386, 252
-0.997345, 161, 41, 416, 104
-0.99736, 229, 61, 244, 92
-0.997364, 353, 193, 368, 224
-0.997365, 13, 33, 44, 288
-0.997367, 217, 65, 248, 320
-0.997369, 145, 185, 272, 216
-0.997374, 177, 229, 192, 260
-0.997382, 319, 221, 334, 252
-0.997403, 307, 153, 322, 184
-0.99741, 337, 169, 352, 200
-0.99743, 241, 61, 256, 92
-0.997438, 253, 153, 268, 184
-0.997438, 1, 57, 128, 88
-0.997438, 309, 205, 324, 236
-0.997439, 189, 205, 204, 236
-0.997443, 289, 1, 416, 64
-0.997443, 193, 249, 256, 312
-0.997445, 241, 153, 256, 184
-0.997446, 359, 193, 374, 224
-0.997449, 241, 269, 368, 300
-0.997457, 47, 173, 62, 204
-0.99746, 279, 57, 294, 88
-0.997462, 265, 57, 280, 88
-0.997467, 299, 57, 314, 88
-0.997468, 281, 141, 296, 172
-0.997472, 327, 189, 342, 220
-0.997473, 273, 69, 400, 100
-0.99749, 367, 185, 382, 216
-0.997491, 113, 85, 240, 116
-0.997497, 273, 57, 288, 88
-0.9975, 129, 121, 192, 184
-0.997501, 285, 57, 300, 88
-0.997513, 297, 209, 312, 240
-0.997537, 309, 73, 324, 104
-0.997541, 287, 141, 302, 172
-0.997544, 253, 57, 268, 88
-0.997544, 267, 141, 282, 172
-0.997546, 369, 241, 432, 304
-0.99755, 203, 205, 218, 236
-0.997551, 363, 241, 378, 272
-0.997553, 315, 65, 330, 96
-0.997556, 291, 57, 306, 88
-0.997564, 297, 73, 312, 104
-0.997573, 307, 189, 322, 220
-0.997576, 249, 105, 264, 136
-0.997584, 31, 177, 46, 208
-0.997592, 221, 61, 236, 92
-0.997596, 305, 221, 320, 252
-0.9976, 275, 149, 290, 180
-0.997603, 311, 229, 326, 260
-0.997606, 369, 233, 384, 264
-0.997611, 211, 93, 226, 124
-0.997615, 235, 65, 250, 96
-0.997616, 337, 257, 352, 288
-0.997616, 293, 153, 308, 184
-0.997621, 257, 41, 500, 104
-0.997622, 259, 57, 274, 88
-0.997625, 321, 125, 448, 156
-0.997629, 369, 197, 384, 228
-0.99763, 343, 261, 358, 292
-0.997631, 233, 201, 248, 232
-0.997632, 183, 229, 198, 260
-0.997633, 347, 213, 362, 244
-0.997635, 319, 165, 334, 196
-0.997643, 195, 205, 210, 236
-0.997646, 383, 173, 398, 204
-0.997647, 247, 61, 262, 92
-0.99765, 433, 1, 496, 333
-0.997653, 229, 101, 244, 132
-0.997657, 39, 177, 54, 208
-0.997658, 327, 201, 342, 232
-0.99766, 247, 141, 262, 172
-0.997662, 213, 205, 228, 236
-0.997671, 229, 73, 244, 104
-0.99768, 307, 165, 322, 196
-0.997692, 97, 33, 128, 160
-0.997694, 243, 201, 258, 232
-0.997697, 313, 9, 376, 72
-0.997698, 245, 129, 260, 160
-0.997705, 323, 133, 338, 164
-0.997707, 63, 165, 78, 196
-0.997709, 251, 117, 266, 148
-0.997729, 85, 149, 100, 180
-0.997729, 243, 213, 258, 244
-0.997732, 383, 117, 398, 148
-0.997734, 287, 153, 302, 184
-0.997742, 113, 129, 240, 160
-0.997746, 253, 201, 268, 232
-0.997747, 331, 245, 346, 276
-0.997749, 75, 153, 90, 184
-0.99775, 161, 213, 176, 244
-0.997766, 201, 65, 232, 320
-0.997784, 65, 125, 192, 156
-0.997813, 401, 1, 464, 333
-0.997867, 225, 281, 352, 312
-0.99789, 113, 69, 240, 100
-0.997954, 353, 209, 480, 240
-0.997958, 281, 65, 312, 320
-0.997963, 353, 141, 480, 172
-0.997977, 193, 189, 320, 220
-0.997992, 101, 33, 132, 288
-0.998008, 129, 157, 256, 188
-0.998018, 193, 1, 448, 64
-0.998032, 1, 241, 256, 304
-0.998113, 65, 177, 192, 208
-0.998132, 253, 33, 284, 288
-0.99814, 265, 33, 296, 288
-0.998147, 65, 85, 192, 116
-0.998285, 193, 245, 320, 276
-0.998341, 337, 237, 464, 268
-0.998344, 145, 245, 272, 276
-0.998347, 337, 191, 400, 206
-0.998348, 1, 229, 128, 260
-0.998359, 417, 1, 448, 128
-0.998365, 65, 73, 192, 104
-0.998366, 317, 161, 332, 288
-0.998371, 217, 161, 280, 176
-0.998373, 353, 249, 480, 312
-0.998373, 313, 173, 376, 188
-0.998382, 169, 209, 232, 224
-0.998389, 337, 165, 400, 180
-0.998393, 313, 161, 376, 176
-0.998403, 329, 197, 392, 212
-0.998406, 25, 173, 88, 188
-0.998407, 257, 147, 320, 162
-0.998408, 353, 177, 368, 304
-0.998408, 177, 289, 304, 320
-0.998411, 273, 163, 336, 178
-0.998412, 209, 105, 272, 120
-0.998413, 1, 171, 64, 186
-0.998415, 153, 215, 216, 230
-0.998416, 297, 145, 360, 160
-0.998416, 321, 153, 384, 168
-0.998417, 297, 219, 360, 234
-0.998419, 297, 213, 360, 228
-0.998421, 257, 155, 320, 170
-0.998422, 305, 195, 368, 210
-0.998425, 345, 181, 408, 196
-0.998427, 265, 67, 328, 82
-0.99843, 281, 151, 344, 166
-0.998431, 305, 183, 368, 198
-0.998434, 193, 65, 256, 80
-0.998435, 49, 229, 176, 260
-0.998437, 337, 171, 400, 186
-0.998439, 297, 167, 360, 182
-0.99844, 305, 189, 368, 204
-0.998441, 323, 129, 338, 256
-0.998444, 313, 241, 376, 256
-0.998445, 241, 163, 304, 178
-0.998446, 265, 217, 328, 232
-0.998454, 161, 229, 224, 244
-0.998459, 281, 157, 344, 172
-0.998462, 313, 247, 376, 262
-0.998464, 9, 179, 72, 194
-0.998464, 241, 69, 304, 84
-0.998464, 273, 91, 336, 106
-0.998467, 209, 167, 272, 182
-0.998468, 297, 207, 360, 222
-0.99847, 305, 235, 368, 250
-0.99847, 9, 165, 72, 180
-0.998472, 29, 179, 60, 194
-0.998472, 161, 221, 224, 236
-0.998473, 297, 133, 360, 148
-0.998475, 69, 165, 100, 180
-0.998475, 297, 199, 328, 214
-0.998476, 309, 183, 340, 198
-0.998476, 201, 119, 264, 134
-0.998477, 365, 143, 396, 158
-0.998478, 289, 101, 352, 116
-0.998479, 257, 273, 500, 333
-0.99848, 241, 111, 304, 126
-0.99848, 269, 215, 300, 230
-0.99848, 297, 85, 328, 100
-0.998482, 341, 203, 372, 218
-0.998482, 265, 59, 328, 74
-0.998483, 349, 215, 380, 230
-0.998485, 281, 225, 344, 240
-0.998485, 217, 113, 248, 128
-0.998485, 245, 119, 276, 134
-0.998487, 297, 239, 328, 254
-0.998488, 233, 145, 296, 160
-0.998489, 209, 215, 272, 230
-0.99849, 321, 219, 384, 234
-0.998491, 325, 183, 356, 198
-0.998491, 249, 97, 312, 112
-0.998492, 257, 135, 320, 150
-0.998494, 185, 209, 216, 224
-0.998494, 365, 145, 380, 272
-0.998495, 49, 217, 176, 248
-0.998495, 257, 215, 288, 230
-0.998495, 277, 155, 308, 170
-0.998496, 245, 149, 276, 164
-0.998496, 341, 99, 372, 114
-0.998497, 245, 113, 276, 128
-0.998497, 305, 225, 368, 240
-0.998498, 337, 227, 400, 242
-0.998498, 253, 107, 284, 122
-0.998498, 281, 195, 344, 210
-0.998498, 37, 165, 68, 180
-0.998498, 369, 131, 400, 146
-0.998498, 329, 235, 392, 250
-0.998499, 201, 65, 232, 80
-0.998499, 129, 257, 256, 288
-0.9985, 329, 141, 392, 156
-0.998501, 337, 161, 368, 176
-0.998502, 281, 241, 344, 256
-0.998503, 265, 85, 328, 100
-0.998503, 225, 155, 288, 170
-0.998504, 345, 159, 408, 174
-0.998504, 357, 205, 388, 220
-0.998505, 321, 203, 384, 218
-0.998505, 217, 61, 280, 76
-0.998506, 241, 217, 304, 232
-0.998506, 321, 255, 384, 270
-0.998507, 333, 241, 364, 256
-0.998508, 49, 167, 112, 182
-0.998509, 265, 211, 328, 226
-0.998509, 297, 169, 328, 184
-0.998509, 57, 171, 88, 186
-0.998511, 281, 137, 312, 152
-0.998511, 313, 145, 344, 160
-0.998511, 337, 129, 400, 144
-0.998511, 213, 213, 244, 228
-0.998512, 57, 155, 120, 170
-0.998513, 313, 263, 376, 278
-0.998513, 321, 77, 448, 108
-0.998514, 241, 165, 272, 180
-0.998515, 257, 141, 320, 156
-0.998515, 209, 113, 272, 128
-0.998517, 373, 201, 404, 216
-0.998518, 225, 73, 256, 88
-0.998519, 293, 59, 324, 74
-0.998519, 293, 211, 324, 226
-0.998519, 137, 227, 200, 242
-0.99852, 321, 209, 384, 224
-0.99852, 321, 133, 352, 148
-0.998521, 153, 235, 216, 250
-0.998521, 265, 145, 296, 160
-0.998521, 321, 101, 448, 132
-0.998521, 1, 173, 32, 188
-0.998522, 217, 127, 280, 142
-0.998522, 233, 105, 296, 120
-0.998523, 329, 207, 360, 222
-0.998523, 225, 119, 288, 134
-0.998524, 321, 161, 352, 176
-0.998524, 221, 63, 252, 78
-0.998525, 297, 85, 360, 100
-0.998526, 185, 105, 248, 120
-0.998526, 201, 207, 232, 222
-0.998527, 257, 199, 320, 214
-0.998527, 321, 247, 352, 262
-0.998528, 241, 61, 304, 76
-0.998528, 257, 169, 320, 184
-0.99853, 185, 111, 248, 126
-0.99853, 9, 185, 72, 200
-0.998531, 209, 95, 240, 110
-0.998533, 25, 171, 56, 186
-0.998533, 305, 225, 336, 240
-0.998533, 17, 181, 48, 196
-0.998535, 197, 99, 228, 114
-0.998535, 217, 119, 248, 134
-0.998535, 357, 197, 388, 212
-0.998536, 289, 177, 352, 192
-0.998536, 281, 139, 344, 154
-0.998538, 301, 141, 332, 156
-0.99854, 37, 173, 68, 188
-0.998541, 341, 105, 372, 120
-0.998541, 309, 211, 340, 226
-0.998541, 185, 99, 248, 114
-0.998542, 225, 5, 352, 36
-0.998542, 361, 189, 424, 204
-0.998542, 209, 71, 272, 86
-0.998542, 325, 193, 340, 320
-0.998543, 297, 93, 360, 108
-0.998543, 13, 175, 44, 190
-0.998543, 365, 123, 396, 138
-0.998543, 329, 143, 360, 158
-0.998544, 297, 201, 360, 216
-0.998545, 349, 191, 380, 206
-0.998545, 361, 231, 392, 246
-0.998545, 373, 183, 404, 198
-0.998545, 209, 167, 240, 182
-0.998546, 209, 99, 272, 114
-0.998547, 273, 163, 304, 178
-0.998549, 157, 221, 188, 236
-0.998549, 309, 205, 340, 220
-0.99855, 193, 205, 256, 220
-0.99855, 177, 215, 240, 230
-0.998552, 41, 133, 104, 148
-0.998552, 261, 69, 292, 84
-0.998553, 289, 157, 320, 172
-0.998553, 253, 157, 284, 172
-0.998556, 281, 67, 312, 82
-0.998557, 253, 163, 284, 178
-0.998558, 377, 167, 408, 182
-0.998558, 325, 151, 356, 166
-0.998558, 265, 153, 296, 168
-0.998559, 33, 149, 96, 164
-0.998561, 49, 269, 176, 300
-0.998563, 213, 105, 244, 120
-0.998563, 337, 169, 368, 184
-0.998564, 405, 1, 436, 128
-0.998565, 321, 257, 352, 272
-0.998565, 17, 75, 80, 90
-0.998566, 289, 247, 352, 262
-0.998566, 297, 147, 328, 162
-0.998567, 347, 161, 362, 288
-0.998567, 321, 147, 384, 162
-0.998567, 137, 221, 200, 236
-0.998567, 229, 123, 260, 138
-0.998568, 1, 67, 64, 82
-0.998568, 185, 167, 248, 182
-0.998569, 361, 165, 424, 180
-0.998569, 145, 209, 208, 224
-0.99857, 345, 153, 408, 168
-0.99857, 305, 177, 336, 192
-0.99857, 349, 221, 380, 236
-0.998571, 349, 161, 380, 176
-0.998571, 325, 263, 356, 278
-0.998572, 309, 197, 340, 212
-0.998572, 265, 103, 328, 118
-0.998573, 273, 73, 336, 88
-0.998573, 1, 25, 256, 88
-0.998574, 373, 193, 404, 208
-0.998574, 313, 99, 376, 114
-0.998575, 285, 163, 316, 178
-0.998576, 281, 189, 344, 204
-0.998576, 181, 217, 212, 232
-0.998576, 249, 69, 280, 84
-0.998577, 189, 193, 204, 320
-0.998577, 329, 101, 360, 116
-0.998577, 361, 225, 392, 240
-0.99858, 193, 221, 256, 236
-0.99858, 345, 205, 408, 220
-0.998581, 369, 173, 432, 188
-0.998581, 65, 133, 128, 148
-0.998581, 201, 93, 264, 108
-0.998582, 313, 273, 376, 288
-0.998582, 65, 141, 128, 156
-0.998585, 257, 223, 320, 238
-0.998586, 237, 71, 268, 86
-0.998586, 25, 93, 88, 108
-0.998586, 217, 203, 280, 218
-0.998586, 65, 87, 128, 102
-0.998586, 81, 161, 144, 176
-0.998587, 33, 109, 96, 124
-0.998587, 185, 71, 248, 86
-0.998587, 165, 231, 196, 246
-0.998588, 297, 163, 328, 178
-0.998588, 383, 129, 398, 256
-0.998588, 361, 155, 392, 170
-0.998589, 1, 213, 64, 228
-0.998589, 25, 159, 88, 174
-0.998589, 297, 67, 328, 82
-0.998589, 345, 147, 408, 162
-0.99859, 249, 91, 312, 106
-0.998591, 241, 125, 304, 140
-0.998591, 337, 249, 400, 264
-0.998591, 357, 179, 388, 194
-0.998591, 161, 49, 288, 80
-0.998592, 353, 241, 384, 256
-0.998595, 285, 147, 316, 162
-0.998598, 341, 197, 372, 212
-0.998599, 97, 241, 224, 272
-0.998599, 311, 161, 326, 288
-0.9986, 161, 215, 192, 230
-0.998602, 349, 151, 380, 166
-0.998603, 309, 191, 340, 206
-0.998606, 233, 159, 264, 174
-0.998607, 233, 129, 264, 144
-0.998614, 309, 167, 340, 182
-0.998617, 337, 185, 368, 200
-0.998618, 333, 177, 348, 304
-0.998618, 345, 231, 376, 246
-0.99862, 289, 223, 320, 238
-0.998624, 369, 175, 400, 190
-0.998624, 1, 65, 32, 320
-0.998625, 313, 151, 344, 166
-0.998626, 173, 225, 204, 240
-0.99863, 179, 177, 194, 304
-0.998631, 221, 163, 252, 178
-0.998631, 301, 153, 332, 168
-0.998631, 305, 219, 336, 234
-0.998631, 373, 65, 404, 320
-0.998633, 329, 175, 360, 190
-0.998636, 349, 167, 380, 182
-0.998646, 325, 189, 356, 204
-0.998646, 181, 231, 212, 246
-0.99865, 325, 169, 356, 184
-0.998651, 293, 217, 324, 232
-0.998651, 369, 129, 496, 160
-0.998654, 303, 177, 318, 304
-0.998655, 145, 169, 272, 200
-0.998656, 359, 161, 374, 288
-0.998658, 193, 1, 320, 64
-0.998659, 309, 161, 340, 176
-0.998662, 233, 103, 264, 118
-0.998663, 329, 197, 360, 212
-0.998672, 377, 145, 392, 272
-0.998675, 233, 117, 264, 132
-0.998675, 345, 179, 376, 194
-0.998679, 173, 209, 204, 224
-0.998681, 189, 65, 220, 320
-0.998681, 365, 161, 396, 176
-0.998686, 311, 113, 326, 240
-0.998689, 329, 129, 344, 256
-0.998692, 337, 191, 368, 206
-0.998694, 317, 113, 332, 240
-0.998708, 365, 167, 396, 182
-0.998711, 353, 185, 384, 200
-0.998718, 385, 81, 448, 208
-0.998735, 1, 277, 128, 308
-0.998736, 349, 173, 380, 188
-0.998742, 341, 129, 356, 256
-0.998743, 371, 161, 386, 288
-0.998745, 303, 113, 318, 240
-0.99877, 337, 257, 464, 288
-0.99877, 241, 81, 256, 208
-0.998773, 195, 145, 210, 272
-0.998776, 297, 177, 312, 304
-0.998804, 249, 97, 264, 224
-0.998816, 113, 57, 240, 88
-0.998826, 277, 193, 292, 320
-0.998829, 289, 193, 304, 320
-0.998839, 389, 65, 420, 192
-0.998843, 243, 129, 258, 256
-0.998848, 369, 1, 400, 128
-0.998849, 341, 193, 356, 320
-0.998855, 289, 45, 416, 76
-0.998859, 221, 129, 236, 256
-0.998862, 205, 145, 220, 272
-0.998862, 353, 129, 368, 256
-0.998865, 185, 145, 200, 272
-0.998871, 171, 193, 186, 320
-0.998872, 309, 209, 324, 333
-0.998874, 195, 193, 210, 320
-0.998876, 105, 81, 120, 208
-0.998879, 235, 81, 250, 208
-0.998882, 211, 145, 226, 272
-0.998882, 129, 293, 256, 324
-0.998891, 363, 97, 378, 224
-0.998892, 113, 33, 144, 288
-0.998896, 1, 45, 128, 76
-0.998899, 235, 129, 250, 256
-0.998899, 317, 209, 332, 333
-0.998902, 263, 193, 278, 320
-0.998905, 223, 81, 238, 208
-0.998907, 177, 277, 304, 308
-0.998912, 271, 193, 286, 320
-0.998915, 49, 145, 64, 272
-0.998932, 213, 81, 228, 208
-0.998938, 227, 129, 242, 256
-0.998941, 43, 145, 58, 272
-0.998943, 385, 1, 416, 256
-0.998947, 229, 81, 244, 208
-0.998948, 113, 269, 240, 300
-0.998957, 255, 193, 270, 320
-0.998967, 371, 113, 386, 240
-0.998969, 253, 145, 268, 272
-0.998973, 335, 129, 350, 256
-0.998992, 37, 161, 52, 288
-0.999007, 249, 193, 264, 320
-0.999015, 29, 1, 60, 128
-0.999019, 305, 57, 432, 88
-0.999025, 65, 301, 192, 332
-0.999026, 201, 49, 216, 176
-0.999026, 173, 145, 188, 272
-0.999028, 203, 193, 218, 320
-0.999032, 289, 277, 416, 308
-0.999049, 347, 209, 362, 333
-0.999051, 283, 177, 298, 304
-0.999052, 319, 65, 334, 192
-0.99906, 111, 81, 126, 208
-0.999063, 329, 81, 344, 208
-0.99907, 241, 177, 256, 304
-0.999073, 129, 281, 256, 312
-0.999077, 321, 113, 448, 144
-0.999077, 369, 117, 496, 148
-0.999088, 105, 129, 120, 256
-0.999094, 83, 145, 98, 272
-0.999104, 259, 145, 274, 272
-0.99911, 369, 17, 496, 48
-0.999115, 113, 129, 128, 256
-0.999123, 389, 129, 404, 256
-0.999127, 293, 65, 308, 192
-0.999127, 31, 145, 46, 272
-0.999127, 193, 261, 320, 292
-0.999127, 37, 113, 52, 240
-0.99913, 241, 33, 256, 160
-0.99913, 97, 145, 112, 272
-0.99915, 235, 177, 250, 304
-0.999153, 49, 61, 176, 92
-0.999155, 55, 145, 70, 272
-0.999159, 45, 81, 60, 208
-0.99916, 231, 33, 246, 160
-0.999161, 99, 65, 114, 192
-0.999167, 213, 193, 228, 320
-0.999169, 355, 81, 370, 208
-0.99917, 87, 81, 102, 208
-0.999183, 31, 193, 46, 320
-0.999196, 365, 193, 380, 320
-0.999199, 89, 145, 104, 272
-0.999211, 249, 49, 264, 176
-0.999212, 267, 145, 282, 272
-0.999212, 117, 81, 132, 208
-0.999215, 309, 49, 324, 176
-0.999217, 359, 209, 374, 333
-0.999219, 203, 97, 218, 224
-0.999224, 35, 49, 50, 176
-0.999225, 93, 81, 108, 208
-0.999242, 53, 97, 68, 224
-0.999253, 119, 129, 134, 256
-0.99926, 287, 65, 302, 192
-0.999261, 43, 193, 58, 320
-0.999262, 277, 145, 292, 272
-0.999264, 167, 145, 182, 272
-0.999269, 195, 97, 210, 224
-0.999276, 303, 49, 318, 176
-0.999278, 1, 41, 500, 104
-0.999278, 77, 145, 92, 272
-0.999284, 53, 209, 84, 333
-0.999289, 335, 81, 350, 208
-0.999293, 219, 177, 234, 304
-0.999299, 347, 97, 362, 224
-0.9993, 25, 193, 40, 320
-0.999305, 385, 177, 400, 304
-0.999306, 377, 97, 392, 224
-0.999313, 373, 209, 388, 333
-0.999318, 391, 177, 406, 304
-0.99932, 3, 145, 18, 272
-0.99932, 165, 209, 180, 333
-0.999323, 295, 129, 310, 256
-0.999326, 289, 145, 304, 272
-0.999331, 229, 193, 244, 320
-0.999347, 161, 145, 176, 272
-0.999352, 177, 65, 208, 320
-0.999357, 275, 65, 290, 192
-0.999359, 147, 209, 162, 333
-0.999371, 179, 129, 194, 256
-0.999375, 287, 1, 302, 128
-0.999375, 17, 145, 32, 272
-0.999379, 25, 145, 40, 272
-0.999381, 7, 193, 22, 320
-0.999384, 61, 113, 76, 240
-0.999387, 3, 33, 18, 160
-0.999388, 281, 65, 296, 192
-0.999391, 49, 193, 64, 320
-0.999393, 67, 129, 82, 256
-0.999395, 79, 65, 94, 192
-0.999406, 219, 33, 234, 160
-0.999411, 273, 9, 400, 40
-0.999416, 65, 257, 192, 288
-0.999422, 1, 33, 128, 64
-0.999433, 125, 33, 156, 288
-0.999456, 397, 1, 428, 256
-0.999476, 321, 5, 448, 36
-0.999531, 81, 285, 208, 316
-0.999602, 97, 1, 352, 64
-0.999616, 385, 1, 416, 128
-0.999626, 393, 161, 424, 288
-0.999658, 17, 301, 144, 332
-0.999664, 165, 65, 196, 320
-0.999668, 259, 165, 274, 180
-0.999668, 269, 163, 284, 178
-0.999669, 201, 65, 216, 80
-0.99967, 313, 223, 328, 238
-0.999671, 335, 189, 350, 204
-0.999671, 291, 157, 306, 172
-0.999671, 175, 217, 190, 232
-0.999672, 225, 63, 240, 78
-0.999672, 327, 163, 342, 178
-0.999672, 225, 205, 240, 220
-0.999673, 233, 129, 248, 144
-0.999673, 335, 169, 350, 184
-0.999674, 305, 67, 320, 82
-0.999674, 227, 105, 242, 120
-0.999675, 367, 187, 382, 202
-0.999675, 193, 209, 208, 224
-0.999676, 257, 69, 272, 84
-0.999676, 323, 187, 338, 202
-0.999677, 169, 217, 184, 232
-0.999677, 347, 101, 362, 116
-0.999677, 351, 195, 366, 210
-0.999678, 333, 181, 348, 196
-0.999678, 373, 173, 388, 188
-0.999678, 353, 213, 368, 228
-0.999679, 341, 143, 356, 158
-0.999679, 367, 199, 382, 214
-0.99968, 275, 145, 290, 160
-0.99968, 233, 73, 248, 88
-0.99968, 319, 223, 334, 238
-0.99968, 275, 163, 290, 178
-0.999681, 341, 263, 356, 278
-0.999682, 345, 231, 360, 246
-0.999682, 299, 135, 314, 150
-0.999682, 311, 197, 326, 212
-0.999683, 365, 151, 380, 166
-0.999684, 287, 163, 302, 178
-0.999684, 213, 95, 228, 110
-0.999685, 339, 101, 354, 116
-0.999685, 389, 175, 404, 190
-0.999686, 291, 67, 306, 82
-0.999688, 293, 147, 308, 162
-0.999688, 225, 219, 240, 234
-0.999689, 377, 193, 392, 208
-0.999689, 301, 163, 316, 178
-0.99969, 381, 171, 396, 186
-0.99969, 343, 151, 358, 166
-0.999692, 381, 165, 396, 180
-0.999693, 251, 159, 266, 174
-0.999693, 183, 217, 198, 232
-0.999693, 193, 231, 208, 246
-0.999694, 281, 145, 296, 160
-0.999694, 185, 229, 200, 244
-0.999694, 311, 211, 326, 226
-0.999695, 331, 143, 346, 158
-0.999695, 51, 173, 66, 188
-0.999695, 299, 151, 314, 166
-0.999696, 237, 157, 252, 172
-0.999697, 23, 175, 38, 190
-0.999698, 297, 67, 312, 82
-0.999698, 371, 223, 386, 238
-0.999702, 359, 151, 374, 166
-0.999702, 377, 199, 392, 214
-0.999703, 323, 143, 338, 158
-0.999703, 385, 177, 448, 304
-0.999704, 389, 169, 404, 184
-0.999706, 281, 163, 296, 178
-0.999707, 357, 191, 372, 206
-0.999708, 179, 233, 194, 248
-0.999709, 305, 177, 320, 192
-0.999709, 339, 199, 354, 214
-0.99971, 357, 179, 372, 194
-0.999711, 307, 223, 322, 238
-0.999713, 305, 21, 432, 52
-0.999714, 251, 69, 266, 84
-0.999715, 325, 197, 340, 212
-0.999716, 239, 123, 254, 138
-0.999718, 231, 161, 246, 176
-0.999718, 279, 153, 294, 168
-0.999719, 187, 209, 202, 224
-0.999719, 353, 203, 368, 218
-0.99972, 329, 189, 344, 204
-0.999722, 349, 151, 364, 166
-0.999722, 173, 209, 188, 224
-0.999723, 359, 161, 374, 176
-0.999723, 245, 119, 260, 134
-0.999725, 315, 159, 330, 174
-0.999728, 363, 241, 378, 256
-0.999729, 317, 193, 332, 208
-0.999729, 353, 223, 368, 238
-0.999729, 241, 71, 256, 86
-0.999731, 345, 181, 360, 196
-0.999731, 313, 147, 328, 162
-0.999732, 305, 155, 320, 170
-0.999735, 311, 67, 326, 82
-0.999736, 173, 227, 188, 242
-0.999738, 331, 251, 346, 266
-0.99974, 329, 169, 344, 184
-0.99974, 369, 221, 496, 252
-0.99974, 243, 159, 258, 174
-0.999743, 49, 245, 176, 276
-0.999743, 225, 213, 240, 228
-0.999744, 351, 167, 366, 182
-0.999746, 375, 157, 390, 172
-0.999747, 303, 145, 318, 160
-0.999747, 317, 217, 332, 232
-0.99975, 389, 197, 404, 212
-0.999753, 349, 189, 364, 204
-0.999754, 225, 163, 240, 178
-0.999755, 215, 167, 230, 182
-0.999756, 321, 159, 336, 174
-0.999756, 341, 171, 356, 186
-0.999756, 311, 165, 326, 180
-0.999757, 353, 235, 368, 250
-0.999759, 365, 181, 380, 196
-0.99976, 383, 129, 398, 144
-0.999761, 333, 195, 348, 210
-0.999761, 325, 151, 340, 166
-0.999762, 345, 199, 360, 214
-0.99977, 311, 153, 326, 168
-0.999774, 361, 229, 376, 244
-0.999776, 177, 1, 304, 32
-0.999777, 441, 1, 472, 256
-0.999777, 357, 185, 372, 200
-0.999778, 239, 129, 254, 144
-0.999795, 353, 173, 368, 188
-0.999804, 179, 209, 194, 224
-0.999807, 311, 217, 326, 232
-0.999813, 369, 1, 496, 32
-0.999813, 365, 161, 380, 176
-0.999817, 363, 175, 378, 190
-0.99982, 361, 167, 376, 182
-0.999827, 317, 153, 332, 168
-0.999843, 461, 1, 492, 256
-0.999843, 351, 183, 366, 198
-0.999844, 369, 167, 384, 182
-0.999856, 179, 227, 194, 242
-0.999859, 161, 97, 192, 224
-0.999868, 239, 117, 254, 132
-0.999869, 341, 189, 356, 204
-0.999911, 409, 1, 440, 256
-1.00002, 429, 1, 460, 256
-1.00004, 1, 9, 128, 72
-1.00015, 141, 33, 172, 288
-1.00027, 1, 1, 500, 64
-1.00029, 153, 33, 184, 288
-1.0006, 185, 1, 216, 128
-1.00063, 137, 97, 168, 224
-1.00066, 369, 49, 496, 112
-1.00067, 65, 1, 192, 64
-1.00103, 397, 113, 428, 240
-1.0012, 113, 1, 240, 64
-1.00169, 353, 273, 480, 333
-1.00178, 1, 1, 256, 64
-1.00188, 125, 49, 156, 176
-1.00195, 109, 33, 140, 160
-1.00289, 149, 97, 180, 224
-1.00495, 173, 17, 204, 144
-1.00564, 125, 1, 156, 128
-1.00604, 149, 1, 180, 128
-1.00651, 129, 49, 192, 176
-1.00658, 465, 97, 496, 224
-1.00668, 137, 49, 168, 176
-1.00677, 137, 1, 168, 128
-1.00689, 161, 1, 192, 128
-1.00704, 405, 49, 436, 176
-1.00727, 413, 209, 444, 333
-1.0086, 121, 1, 184, 128
-1.00954, 409, 177, 472, 304
-1.01029, 425, 49, 488, 176
-1.01163, 433, 97, 496, 224
-1.01191, 433, 209, 496, 333
-1.01221, 433, 161, 496, 288
-1.01286, 409, 97, 472, 224
