1982
-0.334298, 1, 129, 500, 375
-0.346192, 1, 1, 500, 375
-0.493772, 1, 1, 256, 375
-0.512633, 97, 1, 352, 375
-0.538104, 1, 33, 500, 288
-0.594759, 1, 129, 256, 375
-0.595053, 193, 1, 448, 375
-0.705825, 257, 129, 500, 375
-0.721086, 1, 1, 256, 256
-0.72565, 97, 129, 352, 375
-0.82794, 129, 33, 384, 288
-0.860953, 17, 1, 144, 375
-0.865687, 273, 129, 400, 375
-0.865885, 1, 129, 128, 375
-0.870467, 1, 145, 500, 272
-0.874866, 129, 1, 256, 375
-0.874939, 225, 33, 480, 288
-0.877145, 81, 1, 208, 375
-0.877663, 353, 129, 480, 375
-0.877928, 113, 129, 240, 375
-0.885021, 1, 1, 128, 256
-0.890822, 49, 97, 176, 352
-0.896, 65, 1, 192, 256
-0.900422, 209, 1, 336, 375
-0.901377, 1, 145, 256, 272
-0.901769, 1, 193, 500, 320
-0.902629, 321, 1, 448, 375
-0.907129, 113, 33, 240, 288
-0.907547, 273, 1, 400, 375
-0.908012, 161, 129, 288, 375
-0.912158, 225, 129, 352, 375
-0.920191, 257, 193, 500, 320
-0.921774, 369, 1, 496, 375
-0.922422, 1, 241, 500, 368
-0.925355, 97, 193, 352, 320
-0.927328, 209, 33, 336, 288
-0.933146, 161, 33, 288, 288
-0.934926, 225, 145, 480, 272
-0.937831, 1, 49, 256, 176
-0.941377, 1, 241, 256, 368
-0.942982, 1, 65, 500, 192
-0.943592, 257, 193, 384, 320
-0.944382, 305, 145, 432, 272
-0.944448, 321, 33, 448, 288
-0.944593, 129, 113, 256, 240
-0.947684, 129, 145, 384, 272
-0.947739, 289, 145, 352, 272
-0.948025, 209, 145, 336, 272
-0.948049, 185, 145, 248, 272
-0.948643, 369, 33, 496, 288
-0.949631, 273, 33, 400, 288
-0.952013, 49, 129, 176, 256
-0.952306, 1, 161, 128, 288
-0.954063, 137, 49, 200, 176
-0.954158, 321, 177, 384, 304
-0.954408, 1, 97, 256, 224
-0.954473, 129, 161, 256, 288
-0.954928, 361, 161, 424, 288
-0.955626, 153, 113, 216, 240
-0.955658, 321, 193, 448, 320
-0.95586, 209, 193, 336, 320
-0.957043, 281, 209, 344, 272
-0.957242, 377, 225, 440, 352
-0.957571, 281, 193, 344, 320
-0.958223, 1, 193, 256, 320
-0.958478, 97, 65, 224, 192
-0.958764, 257, 241, 384, 368
-0.959201, 97, 97, 352, 224
-0.959213, 289, 153, 352, 216
-0.959253, 185, 169, 248, 232
-0.95954, 289, 185, 352, 248
-0.959674, 1, 97, 128, 224
-0.959869, 65, 65, 128, 192
-0.960211, 345, 225, 408, 288
-0.960219, 105, 129, 168, 256
-0.961228, 321, 217, 384, 280
-0.961285, 401, 177, 464, 304
-0.961429, 353, 209, 416, 336
-0.961644, 193, 241, 448, 368
-0.962377, 33, 145, 96, 272
-0.962496, 369, 193, 496, 320
-0.962676, 257, 209, 320, 272
-0.962709, 369, 233, 432, 296
-0.963244, 41, 97, 104, 224
-0.963394, 321, 241, 448, 368
-0.963522, 1, 17, 500, 144
-0.963592, 153, 177, 216, 304
-0.963652, 17, 241, 144, 368
-0.963688, 17, 97, 80, 224
-0.96404, 265, 145, 328, 272
-0.96431, 1, 161, 64, 288
-0.965041, 105, 65, 168, 192
-0.965108, 169, 145, 232, 208
-0.965216, 233, 185, 296, 248
-0.966004, 129, 129, 192, 256
-0.966039, 105, 137, 168, 200
-0.966058, 313, 249, 376, 312
-0.966435, 353, 145, 480, 272
-0.966463, 161, 209, 288, 336
-0.966487, 321, 225, 384, 352
-0.966715, 257, 185, 320, 248
-0.966894, 257, 145, 384, 272
-0.967047, 33, 1, 288, 128
-0.967201, 313, 193, 376, 256
-0.967218, 1, 49, 128, 176
-0.96735, 193, 193, 256, 256
-0.967539, 233, 209, 296, 272
-0.96757, 369, 241, 496, 368
-0.967582, 129, 41, 192, 104
-0.967793, 201, 193, 264, 320
-0.967938, 153, 185, 216, 248
-0.96876, 281, 233, 344, 296
-0.96982, 65, 17, 128, 144
-0.970528, 33, 153, 96, 216
-0.9706, 225, 177, 288, 304
-0.970733, 289, 129, 352, 375
-0.97087, 81, 241, 208, 368
-0.971043, 105, 17, 168, 144
-0.971088, 145, 113, 208, 176
-0.971307, 49, 81, 176, 208
-0.971678, 209, 145, 272, 208
-0.971827, 33, 241, 96, 368
-0.971838, 177, 97, 240, 224
-0.972153, 209, 169, 272, 232
-0.97223, 313, 129, 376, 256
-0.972414, 249, 193, 312, 320
-0.972433, 401, 225, 464, 352
-0.972585, 81, 17, 208, 144
-0.972697, 1, 17, 64, 144
-0.972977, 401, 217, 464, 280
-0.97323, 329, 169, 392, 232
-0.973285, 209, 113, 272, 240
-0.973446, 97, 241, 352, 368
-0.973531, 225, 209, 352, 272
-0.973715, 369, 129, 432, 375
-0.973765, 209, 97, 336, 224
-0.973882, 57, 145, 120, 272
-0.973994, 337, 257, 400, 320
-0.974373, 9, 73, 72, 136
-0.974411, 209, 177, 336, 240
-0.974501, 65, 73, 128, 136
-0.97456, 81, 129, 144, 256
-0.974852, 301, 201, 332, 264
-0.97488, 193, 97, 448, 224
-0.975173, 313, 129, 376, 375
-0.975187, 57, 49, 120, 112
-0.975454, 33, 273, 96, 336
-0.975619, 273, 201, 400, 264
-0.975671, 1, 209, 64, 336
-0.975684, 145, 145, 208, 208
-0.975851, 161, 17, 288, 144
-0.975946, 65, 153, 128, 216
-0.975946, 297, 241, 360, 368
-0.976294, 105, 57, 168, 120
-0.976365, 169, 121, 232, 184
-0.976484, 121, 33, 184, 288
-0.976677, 289, 209, 320, 272
-0.976706, 41, 129, 104, 375
-0.97681, 113, 129, 176, 375
-0.976854, 361, 161, 424, 224
-0.976948, 1, 1, 128, 128
-0.977046, 369, 265, 432, 328
-0.977084, 57, 1, 120, 256
-0.977376, 377, 193, 440, 256
-0.977437, 369, 113, 432, 240
-0.977521, 65, 121, 128, 184
-0.977699, 197, 129, 228, 256
-0.97771, 97, 249, 160, 312
-0.977868, 137, 65, 200, 128
-0.977879, 305, 225, 432, 288
-0.977883, 33, 153, 160, 216
-0.977991, 365, 209, 396, 336
-0.978032, 393, 241, 456, 304
-0.978147, 321, 209, 352, 272
-0.978508, 417, 129, 480, 256
-0.978592, 201, 217, 264, 280
-0.978677, 145, 65, 272, 192
-0.978821, 73, 97, 136, 352
-0.978879, 133, 137, 164, 200
-0.978954, 325, 161, 356, 288
-0.979053, 113, 193, 176, 320
-0.979161, 25, 49, 88, 176
-0.979214, 97, 241, 160, 368
-0.979416, 129, 49, 384, 176
-0.979495, 321, 169, 448, 232
-0.979561, 1, 25, 64, 88
-0.979589, 1, 1, 64, 256
-0.979597, 285, 185, 316, 248
-0.979676, 81, 193, 208, 320
-0.979687, 245, 185, 276, 248
-0.979735, 233, 129, 296, 256
-0.979805, 41, 1, 104, 375
-0.980064, 129, 177, 256, 240
-0.980083, 257, 161, 320, 224
-0.980164, 97, 129, 224, 192
-0.980169, 209, 169, 240, 232
-0.980174, 1, 241, 64, 304
-0.98028, 25, 193, 88, 320
-0.980322, 9, 129, 72, 375
-0.980454, 289, 249, 416, 312
-0.980484, 177, 201, 304, 264
-0.980672, 177, 193, 240, 320
-0.980681, 129, 1, 384, 128
-0.980957, 369, 217, 496, 280
-0.980997, 273, 97, 400, 224
-0.981007, 145, 129, 208, 375
-0.981074, 1, 209, 64, 272
-0.981082, 181, 97, 212, 224
-0.981085, 105, 33, 168, 96
-0.981129, 321, 97, 448, 224
-0.981197, 313, 145, 344, 272
-0.981249, 153, 33, 216, 96
-0.981302, 97, 73, 224, 136
-0.981341, 409, 177, 440, 304
-0.98136, 25, 129, 88, 192
-0.98137, 81, 41, 208, 104
-0.981447, 361, 225, 392, 288
-0.981468, 141, 41, 172, 104
-0.981477, 341, 225, 372, 288
-0.98151, 133, 129, 164, 256
-0.981516, 9, 161, 72, 224
-0.981617, 49, 25, 112, 88
-0.981633, 245, 209, 276, 272
-0.981729, 137, 1, 200, 128
-0.981929, 1, 49, 64, 112
-0.981996, 1, 57, 128, 120
-0.982068, 321, 193, 448, 256
-0.982127, 89, 113, 152, 176
-0.982134, 417, 177, 480, 240
-0.98214, 305, 193, 336, 320
-0.98218, 33, 49, 96, 112
-0.98222, 145, 33, 208, 288
-0.982244, 273, 161, 400, 224
-0.982301, 121, 241, 184, 368
-0.982331, 153, 225, 216, 352
-0.982372, 233, 185, 264, 248
-0.982451, 345, 129, 408, 375
-0.982505, 105, 81, 168, 144
-0.982552, 145, 145, 272, 208
-0.982573, 41, 73, 104, 136
-0.982606, 329, 145, 392, 208
-0.982762, 269, 201, 300, 264
-0.982768, 197, 145, 228, 208
-0.982804, 289, 145, 320, 272
-0.982842, 337, 193, 400, 256
-0.982884, 65, 1, 128, 375
-0.982919, 73, 241, 136, 368
-0.982943, 145, 33, 176, 160
-0.983031, 333, 209, 364, 336
-0.98304, 237, 161, 268, 288
-0.983041, 161, 33, 192, 160
-0.983083, 1, 105, 64, 168
-0.983147, 337, 129, 400, 256
-0.983186, 197, 169, 228, 232
-0.983193, 45, 97, 76, 224
-0.983249, 17, 265, 144, 328
-0.983288, 33, 1, 96, 256
-0.983408, 177, 41, 240, 104
-0.983442, 353, 241, 480, 304
-0.983453, 425, 177, 488, 304
-0.98355, 93, 65, 124, 192
-0.983554, 137, 1, 200, 375
-0.983758, 169, 41, 200, 104
-0.98381, 177, 113, 208, 176
-0.983894, 33, 105, 160, 168
-0.983999, 33, 97, 64, 224
-0.984155, 93, 81, 124, 144
-0.984182, 241, 233, 368, 296
-0.984202, 169, 1, 232, 128
-0.984262, 233, 209, 264, 272
-0.984299, 97, 1, 160, 256
-0.98432, 405, 241, 436, 304
-0.984345, 357, 257, 388, 320
-0.984353, 289, 97, 352, 224
-0.984615, 209, 145, 240, 272
-0.984639, 85, 25, 116, 88
-0.984677, 49, 145, 80, 208
-0.984695, 1, 81, 128, 144
-0.984734, 345, 177, 376, 304
-0.984815, 225, 49, 480, 176
-0.984908, 257, 233, 320, 296
-0.985036, 157, 41, 188, 104
-0.985074, 221, 145, 252, 272
-0.985126, 209, 241, 336, 368
-0.985131, 33, 145, 64, 272
-0.985185, 369, 145, 400, 272
-0.985311, 1, 25, 128, 88
-0.985322, 425, 225, 488, 288
-0.985345, 317, 153, 348, 216
-0.985369, 249, 129, 312, 375
-0.985373, 185, 49, 248, 176
-0.985433, 385, 169, 448, 232
-0.985464, 121, 257, 184, 320
-0.985482, 421, 177, 452, 304
-0.985486, 173, 33, 204, 160
-0.985501, 377, 225, 408, 288
-0.985544, 129, 201, 256, 264
-0.985627, 129, 49, 256, 112
-0.985636, 165, 113, 196, 240
-0.985656, 393, 233, 424, 296
-0.985661, 21, 81, 52, 208
-0.985778, 201, 129, 264, 375
-0.985781, 217, 145, 248, 208
-0.985799, 93, 57, 124, 120
-0.985822, 25, 241, 88, 304
-0.985835, 65, 265, 128, 328
-0.985874, 13, 81, 44, 144
-0.985911, 321, 209, 352, 336
-0.985931, 17, 1, 80, 375
-0.986001, 33, 97, 96, 160
-0.986004, 57, 97, 120, 160
-0.986071, 169, 129, 232, 375
-0.986096, 221, 185, 252, 248
-0.986193, 137, 89, 200, 152
-0.986286, 145, 249, 208, 312
-0.986311, 65, 257, 192, 320
-0.986477, 305, 145, 336, 208
-0.986587, 145, 121, 272, 184
-0.98669, 1, 1, 64, 64
-0.986767, 413, 225, 444, 352
-0.986779, 273, 193, 304, 320
-0.986796, 161, 217, 224, 280
-0.986835, 421, 217, 452, 280
-0.986849, 297, 177, 328, 240
-0.986864, 321, 185, 352, 248
-0.986902, 81, 153, 208, 216
-0.986907, 89, 17, 120, 144
-0.987028, 161, 65, 224, 128
-0.987214, 341, 249, 372, 312
-0.987242, 105, 145, 136, 208
-0.987261, 301, 129, 332, 256
-0.98728, 93, 153, 124, 216
-0.987329, 33, 153, 64, 216
-0.987332, 321, 145, 448, 208
-0.987339, 105, 81, 136, 208
-0.987376, 225, 153, 352, 216
-0.987388, 257, 241, 320, 368
-0.987457, 37, 273, 68, 336
-0.987467, 405, 209, 436, 272
-0.98753, 185, 177, 216, 240
-0.987535, 21, 145, 52, 272
-0.98754, 161, 225, 288, 288
-0.987568, 113, 1, 176, 375
-0.987592, 369, 193, 496, 256
-0.987597, 229, 161, 260, 224
-0.98766, 1, 81, 32, 208
-0.987669, 17, 225, 144, 288
-0.987683, 81, 41, 144, 104
-0.987685, 345, 193, 376, 256
-0.987722, 393, 129, 456, 256
-0.987724, 1, 129, 128, 192
-0.987754, 17, 225, 48, 352
-0.987785, 257, 185, 288, 248
-0.987803, 297, 217, 360, 248
-0.987963, 337, 265, 464, 328
-0.988008, 289, 129, 352, 192
-0.988018, 285, 161, 316, 224
-0.988036, 417, 153, 480, 216
-0.988075, 145, 145, 176, 208
-0.988172, 81, 153, 112, 216
-0.988261, 405, 169, 436, 232
-0.988293, 129, 177, 192, 240
-0.988298, 397, 161, 428, 288
-0.988299, 89, 1, 152, 375
-0.988356, 233, 161, 296, 224
-0.988384, 49, 17, 176, 80
-0.988465, 209, 193, 240, 256
-0.988529, 425, 225, 488, 352
-0.988557, 57, 81, 88, 208
-0.988561, 129, 17, 192, 80
-0.988593, 89, 9, 152, 72
-0.988616, 49, 65, 176, 128
-0.988623, 301, 233, 332, 296
-0.988699, 409, 97, 472, 352
-0.98874, 329, 229, 392, 260
-0.988768, 241, 217, 304, 248
-0.988778, 1, 129, 64, 192
-0.988856, 265, 273, 328, 336
-0.988892, 45, 145, 76, 272
-0.988893, 161, 49, 224, 176
-0.988972, 257, 209, 288, 272
-0.989017, 273, 213, 336, 244
-0.989089, 401, 225, 432, 352
-0.989124, 137, 225, 200, 288
-0.989152, 417, 249, 480, 312
-0.989205, 193, 177, 256, 208
-0.989224, 177, 177, 208, 304
-0.989317, 337, 289, 400, 352
-0.98936, 249, 161, 280, 288
-0.989407, 117, 145, 148, 208
-0.989411, 1, 65, 32, 128
-0.989416, 145, 129, 176, 256
-0.989418, 369, 81, 496, 208
-0.989444, 385, 225, 416, 352
-0.989453, 129, 249, 160, 312
-0.989487, 421, 177, 452, 240
-0.9895, 161, 1, 224, 375
-0.989538, 121, 129, 152, 256
-0.989567, 329, 33, 392, 288
-0.989578, 185, 97, 248, 160
-0.989581, 321, 241, 352, 304
-0.989592, 369, 257, 400, 320
-0.989616, 241, 273, 368, 336
-0.989644, 257, 229, 320, 260
-0.989651, 145, 81, 176, 208
-0.989657, 361, 241, 424, 272
-0.989696, 89, 145, 120, 272
-0.98971, 281, 237, 344, 268
-0.989767, 313, 253, 376, 284
-0.989794, 245, 161, 276, 224
-0.989817, 165, 145, 196, 208
-0.989879, 161, 1, 288, 64
-0.989889, 353, 1, 416, 375
-0.98989, 129, 25, 256, 88
-0.989894, 217, 213, 280, 244
-0.989956, 333, 193, 364, 256
-0.989982, 57, 129, 88, 256
-0.990088, 185, 137, 216, 200
-0.990108, 209, 65, 272, 192
-0.99016, 113, 225, 176, 288
-0.990193, 193, 197, 256, 228
-0.990203, 41, 1, 104, 64
-0.990207, 65, 153, 96, 216
-0.990243, 217, 193, 248, 320
-0.990251, 209, 129, 336, 192
-0.990278, 169, 189, 232, 220
-0.990291, 97, 113, 128, 176
-0.990292, 137, 65, 200, 96
-0.990298, 357, 161, 388, 288
-0.990305, 141, 193, 172, 320
-0.990317, 149, 65, 180, 128
-0.990333, 1, 89, 32, 152
-0.99034, 193, 209, 256, 240
-0.990352, 297, 289, 360, 352
-0.990354, 249, 137, 312, 200
-0.990365, 161, 81, 192, 144
-0.99037, 393, 81, 456, 208
-0.990391, 49, 157, 112, 188
-0.990392, 385, 145, 416, 272
-0.990405, 273, 177, 304, 240
-0.990417, 345, 265, 408, 296
-0.990454, 257, 1, 500, 128
-0.990503, 369, 161, 400, 224
-0.990539, 49, 129, 176, 192
-0.990597, 289, 289, 416, 352
-0.9906, 105, 129, 136, 256
-0.990614, 329, 1, 392, 375
-0.99063, 17, 177, 144, 240
-0.990643, 41, 121, 72, 184
-0.990683, 345, 225, 376, 352
-0.990691, 41, 241, 72, 368
-0.990708, 305, 229, 368, 260
-0.990716, 289, 153, 352, 184
-0.990717, 337, 169, 368, 232
-0.990719, 133, 49, 164, 176
-0.990732, 25, 25, 88, 88
-0.990735, 33, 305, 96, 368
-0.990763, 281, 201, 344, 232
-0.990767, 53, 49, 84, 112
-0.990798, 217, 185, 280, 216
-0.990853, 285, 225, 316, 352
-0.990873, 353, 229, 416, 260
-0.990891, 137, 181, 200, 212
-0.990893, 257, 209, 500, 272
-0.99091, 1, 161, 256, 224
-0.990914, 321, 217, 384, 248
-0.990945, 113, 145, 176, 176
-0.990949, 21, 161, 52, 224
-0.991013, 113, 241, 240, 304
-0.991023, 57, 69, 120, 100
-0.991078, 177, 17, 240, 80
-0.991083, 169, 141, 232, 172
-0.991104, 73, 157, 136, 188
-0.991129, 297, 189, 360, 220
-0.991174, 377, 137, 440, 200
-0.991179, 25, 157, 88, 188
-0.991193, 305, 241, 368, 272
-0.991206, 25, 169, 88, 200
-0.991209, 89, 161, 152, 224
-0.991226, 145, 141, 208, 172
-0.991227, 17, 289, 144, 352
-0.991232, 1, 1, 32, 128
-0.991259, 137, 29, 200, 60
-0.991262, 321, 197, 384, 228
-0.991262, 369, 253, 432, 284
-0.991263, 81, 105, 208, 168
-0.991264, 377, 1, 440, 375
-0.991265, 81, 57, 112, 120
-0.9913, 17, 109, 80, 140
-0.991316, 329, 177, 392, 208
-0.991328, 217, 97, 248, 224
-0.991333, 241, 173, 304, 204
-0.991334, 29, 241, 60, 304
-0.991405, 33, 1, 96, 128
-0.991406, 193, 221, 256, 252
-0.991416, 177, 97, 304, 160
-0.991419, 377, 269, 440, 300
-0.99144, 97, 73, 160, 104
-0.991468, 297, 1, 360, 375
-0.99148, 105, 257, 168, 288
-0.991484, 289, 165, 352, 196
-0.991492, 57, 109, 120, 140
-0.991495, 129, 49, 192, 80
-0.991519, 69, 97, 100, 224
-0.991541, 29, 129, 60, 192
-0.991541, 289, 177, 352, 208
-0.991541, 185, 165, 248, 196
-0.991547, 113, 113, 144, 176
-0.991589, 45, 169, 76, 232
-0.991595, 173, 177, 204, 240
-0.991596, 261, 193, 292, 320
-0.991597, 193, 265, 320, 328
-0.991599, 285, 233, 316, 296
-0.991602, 273, 233, 304, 296
-0.991605, 25, 277, 88, 308
-0.991606, 161, 177, 224, 208
-0.991614, 41, 145, 104, 176
-0.991622, 385, 221, 448, 252
-0.991649, 221, 209, 252, 272
-0.991661, 41, 57, 104, 88
-0.991675, 9, 73, 72, 104
-0.991675, 217, 169, 280, 200
-0.991679, 433, 97, 496, 352
-0.991699, 257, 185, 320, 216
-0.991709, 469, 225, 500, 352
-0.991719, 105, 33, 168, 64
-0.991734, 73, 233, 136, 296
-0.991745, 145, 73, 272, 136
-0.991754, 145, 129, 208, 160
-0.99178, 345, 217, 408, 248
-0.99178, 33, 177, 96, 240
-0.991799, 241, 201, 304, 232
-0.991806, 1, 229, 64, 260
-0.991807, 337, 241, 400, 272
-0.991817, 417, 1, 480, 375
-0.991884, 17, 313, 144, 375
-0.991886, 361, 169, 424, 200
-0.991896, 33, 69, 96, 100
-0.991912, 57, 81, 120, 112
-0.991912, 97, 61, 160, 92
-0.991913, 385, 241, 448, 272
-0.991937, 417, 249, 448, 312
-0.991939, 197, 193, 228, 256
-0.991952, 249, 1, 312, 375
-0.992018, 225, 129, 288, 375
-0.992036, 105, 157, 168, 188
-0.992048, 209, 1, 272, 375
-0.992051, 209, 153, 272, 184
-0.992065, 169, 129, 232, 160
-0.99207, 97, 185, 352, 248
-0.992095, 65, 233, 192, 296
-0.992098, 257, 185, 500, 248
-0.9921, 409, 229, 472, 260
-0.992105, 233, 233, 296, 296
-0.992109, 89, 145, 152, 176
-0.992128, 273, 137, 400, 200
-0.992132, 137, 169, 200, 200
-0.992134, 81, 261, 144, 292
-0.992146, 9, 85, 72, 116
-0.992165, 81, 109, 144, 140
-0.992169, 57, 97, 120, 128
-0.992179, 217, 197, 280, 228
-0.992179, 361, 193, 392, 256
-0.992191, 57, 269, 120, 300
-0.992202, 393, 253, 456, 284
-0.992207, 9, 61, 72, 92
-0.992215, 161, 209, 416, 272
-0.992219, 217, 225, 280, 256
-0.992245, 89, 49, 152, 80
-0.99225, 61, 73, 92, 136
-0.992262, 41, 49, 72, 112
-0.992287, 1, 289, 64, 352
-0.992312, 1, 1, 128, 64
-0.992314, 1, 9, 64, 40
-0.992326, 141, 17, 172, 80
-0.992335, 377, 209, 440, 240
-0.992347, 329, 165, 392, 196
-0.992357, 285, 213, 316, 244
-0.992365, 5, 177, 36, 304
-0.992406, 181, 41, 212, 104
-0.99242, 17, 241, 80, 272
-0.992438, 49, 9, 112, 40
-0.992441, 169, 153, 232, 184
-0.992446, 201, 121, 264, 184
-0.992454, 273, 217, 304, 248
-0.992458, 409, 241, 472, 272
-0.992486, 205, 177, 236, 208
-0.992494, 9, 97, 72, 128
-0.992509, 149, 169, 180, 232
-0.992518, 237, 213, 268, 244
-0.992534, 89, 17, 152, 48
-0.992538, 93, 241, 124, 368
-0.992544, 393, 265, 456, 328
-0.992557, 41, 49, 72, 176
-0.992561, 81, 81, 112, 144
-0.992567, 329, 81, 392, 208
-0.992572, 329, 153, 392, 184
-0.992579, 65, 57, 128, 88
-0.992587, 49, 241, 112, 304
-0.992592, 1, 73, 256, 136
-0.992594, 285, 229, 316, 260
-0.992597, 9, 121, 72, 152
-0.992599, 337, 253, 400, 284
-0.992609, 341, 253, 372, 284
-0.992622, 161, 29, 224, 60
-0.992636, 381, 249, 412, 312
-0.992652, 49, 169, 112, 200
-0.992663, 257, 97, 320, 224
-0.992668, 273, 221, 400, 252
-0.992671, 325, 241, 356, 272
-0.992672, 217, 177, 248, 208
-0.992678, 97, 85, 160, 116
-0.992681, 305, 237, 336, 268
-0.992685, 97, 97, 160, 128
-0.992687, 329, 217, 360, 248
-0.992688, 301, 209, 332, 240
-0.992689, 253, 213, 284, 244
-0.992691, 173, 73, 204, 136
-0.992692, 213, 197, 244, 228
-0.992696, 145, 277, 208, 308
-0.992696, 177, 185, 208, 216
-0.992702, 161, 45, 224, 76
-0.992703, 417, 189, 480, 220
-0.992703, 369, 281, 432, 312
-0.992705, 313, 213, 344, 244
-0.992722, 77, 145, 108, 272
-0.992724, 137, 245, 200, 276
-0.992727, 369, 265, 400, 296
-0.992737, 225, 209, 256, 240
-0.992739, 161, 65, 224, 96
-0.99274, 1, 153, 500, 216
-0.992749, 137, 77, 200, 108
-0.992753, 73, 121, 104, 184
-0.992767, 417, 201, 480, 232
-0.992778, 373, 233, 404, 264
-0.992779, 113, 181, 176, 212
-0.992779, 65, 145, 128, 176
-0.992781, 177, 33, 240, 288
-0.992786, 341, 221, 372, 252
-0.992786, 133, 141, 164, 172
-0.992801, 225, 193, 256, 224
-0.992802, 65, 21, 128, 52
-0.992808, 29, 209, 60, 336
-0.992815, 65, 41, 128, 72
-0.99282, 353, 257, 384, 288
-0.992826, 361, 229, 392, 260
-0.992827, 1, 153, 64, 184
-0.99283, 209, 141, 272, 172
-0.992832, 417, 177, 480, 208
-0.992833, 377, 193, 440, 224
-0.992844, 397, 241, 428, 272
-0.992856, 41, 157, 72, 188
-0.992857, 385, 237, 416, 268
-0.992862, 145, 265, 208, 296
-0.992867, 257, 273, 320, 304
-0.992875, 1, 165, 64, 196
-0.992877, 385, 169, 448, 200
-0.992891, 189, 189, 220, 220
-0.992893, 265, 169, 328, 200
-0.992898, 177, 121, 208, 152
-0.9929, 201, 193, 232, 224
-0.992904, 57, 157, 88, 188
-0.992924, 153, 213, 216, 244
-0.992928, 325, 229, 356, 260
-0.992938, 33, 121, 96, 152
-0.99294, 25, 9, 88, 40
-0.992941, 305, 233, 432, 264
-0.992942, 145, 193, 208, 224
-0.992943, 417, 257, 480, 288
-0.992951, 85, 157, 116, 188
-0.992951, 329, 253, 360, 284
-0.992952, 1, 21, 64, 52
-0.992953, 33, 313, 96, 344
-0.992955, 1, 313, 64, 375
-0.992956, 145, 265, 272, 328
-0.99296, 297, 225, 328, 256
-0.992961, 281, 249, 344, 280
-0.992963, 153, 225, 216, 256
-0.992967, 121, 133, 184, 164
-0.99297, 81, 281, 208, 344
-0.99298, 161, 305, 288, 368
-0.992982, 273, 229, 304, 260
-0.992987, 81, 193, 144, 320
-0.992988, 293, 193, 324, 224
-0.992992, 25, 89, 56, 152
-0.993003, 13, 17, 44, 144
-0.993007, 145, 177, 176, 208
-0.99301, 105, 153, 136, 184
-0.993012, 193, 173, 224, 204
-0.993016, 165, 65, 196, 96
-0.993017, 453, 209, 484, 336
-0.993022, 313, 225, 344, 256
-0.993022, 137, 33, 168, 64
-0.993023, 217, 161, 248, 192
-0.993035, 341, 129, 372, 256
-0.993042, 141, 65, 172, 96
-0.993062, 137, 45, 168, 76
-0.993071, 9, 105, 40, 136
-0.993081, 17, 241, 48, 304
-0.993084, 165, 29, 196, 60
-0.99309, 405, 253, 436, 284
-0.993091, 433, 201, 496, 264
-0.993109, 237, 185, 268, 216
-0.99311, 237, 169, 268, 200
-0.99311, 45, 169, 76, 200
-0.993114, 353, 217, 384, 248
-0.993138, 201, 145, 232, 176
-0.993141, 5, 209, 36, 272
-0.993142, 345, 233, 376, 264
-0.993144, 93, 61, 124, 92
-0.993147, 153, 65, 184, 96
-0.993148, 177, 133, 208, 164
-0.99315, 45, 145, 76, 176
-0.993152, 33, 281, 64, 312
-0.993158, 13, 105, 44, 168
-0.99316, 365, 253, 396, 284
-0.993163, 313, 249, 344, 280
-0.993168, 261, 225, 292, 256
-0.993173, 149, 37, 180, 68
-0.993174, 357, 269, 388, 300
-0.993179, 5, 73, 36, 104
-0.993187, 313, 153, 344, 184
-0.993189, 293, 169, 324, 200
-0.99319, 173, 49, 204, 80
-0.993191, 305, 197, 336, 228
-0.993197, 381, 269, 412, 300
-0.993201, 61, 25, 92, 88
-0.993205, 189, 141, 220, 172
-0.993212, 113, 281, 176, 344
-0.993212, 89, 105, 120, 136
-0.993212, 225, 221, 256, 252
-0.993212, 29, 157, 60, 188
-0.99323, 393, 273, 424, 304
-0.993232, 97, 93, 128, 124
-0.993233, 81, 69, 112, 100
-0.993236, 5, 85, 36, 116
-0.993241, 17, 81, 48, 112
-0.993247, 213, 209, 244, 240
-0.993248, 33, 169, 64, 200
-0.993252, 433, 193, 464, 320
-0.993258, 81, 57, 112, 88
-0.993267, 237, 225, 268, 256
-0.993268, 281, 177, 312, 208
-0.993269, 161, 53, 192, 84
-0.993278, 81, 13, 112, 44
-0.993282, 161, 161, 192, 288
-0.993282, 1, 201, 500, 264
-0.993284, 301, 153, 332, 184
-0.993298, 405, 173, 436, 204
-0.9933, 293, 241, 324, 272
-0.993301, 177, 173, 208, 204
-0.993301, 73, 161, 104, 192
-0.993305, 117, 145, 148, 176
-0.993306, 93, 73, 124, 104
-0.993308, 17, 117, 48, 148
-0.993312, 69, 109, 100, 140
-0.993313, 165, 177, 196, 208
-0.993314, 33, 113, 64, 144
-0.993316, 57, 109, 88, 140
-0.993318, 1, 237, 32, 268
-0.993327, 417, 249, 448, 280
-0.993333, 57, 57, 88, 88
-0.993335, 129, 257, 160, 288
-0.993336, 69, 69, 100, 100
-0.993337, 393, 225, 424, 256
-0.993341, 149, 25, 180, 56
-0.993344, 201, 161, 232, 192
-0.99335, 253, 173, 284, 204
-0.993362, 293, 181, 324, 212
-0.993363, 1, 9, 32, 40
-0.993365, 265, 177, 296, 208
-0.993365, 225, 213, 352, 244
-0.993375, 265, 205, 296, 236
-0.993376, 381, 221, 412, 252
-0.993378, 409, 265, 440, 296
-0.993383, 161, 145, 192, 176
-0.993387, 337, 181, 368, 212
-0.993388, 57, 169, 88, 200
-0.993389, 25, 245, 56, 276
-0.993392, 405, 201, 436, 232
-0.9934, 45, 109, 76, 140
-0.9934, 353, 245, 384, 276
-0.993404, 197, 209, 228, 240
-0.99341, 425, 193, 456, 224
-0.993412, 85, 45, 116, 76
-0.993418, 321, 197, 352, 228
-0.99342, 385, 249, 416, 280
-0.993421, 217, 149, 248, 180
-0.993425, 241, 201, 272, 232
-0.993426, 425, 181, 456, 212
-0.993427, 317, 185, 348, 216
-0.993428, 233, 113, 264, 240
-0.993432, 281, 189, 312, 220
-0.99344, 57, 17, 88, 144
-0.993475, 453, 225, 484, 288
-0.993479, 81, 177, 208, 240
-0.993486, 1, 201, 128, 264
-0.993534, 153, 241, 184, 368
-0.993537, 185, 1, 248, 375
-0.993626, 49, 193, 112, 320
-0.993632, 385, 201, 416, 264
-0.993648, 145, 273, 208, 336
-0.993677, 269, 145, 300, 272
-0.993712, 25, 209, 88, 272
-0.993713, 1, 41, 32, 104
-0.993736, 69, 265, 100, 328
-0.993737, 201, 33, 264, 288
-0.99376, 433, 217, 464, 280
-0.993764, 321, 245, 448, 276
-0.993768, 1, 281, 256, 344
-0.993798, 177, 41, 304, 104
-0.993805, 65, 1, 128, 64
-0.993855, 81, 201, 208, 264
-0.993855, 5, 241, 36, 368
-0.993937, 337, 289, 464, 352
-0.993956, 149, 289, 180, 352
-0.994022, 193, 233, 448, 296
-0.994053, 49, 25, 80, 88
-0.994055, 425, 129, 456, 256
-0.994147, 161, 17, 192, 80
-0.994239, 145, 233, 176, 296
-0.994268, 81, 1, 112, 64
-0.994286, 369, 33, 432, 288
-0.994291, 273, 1, 336, 375
-0.994299, 165, 121, 196, 184
-0.994303, 117, 81, 148, 208
-0.994309, 249, 113, 280, 240
-0.994322, 289, 33, 352, 288
-0.994349, 177, 241, 240, 368
-0.994406, 1, 185, 256, 248
-0.994451, 105, 241, 136, 368
-0.994473, 209, 189, 336, 220
-0.994512, 1, 185, 64, 248
-0.994517, 81, 97, 112, 224
-0.994528, 53, 273, 84, 336
-0.994529, 185, 49, 216, 176
-0.994531, 189, 113, 220, 176
-0.994565, 145, 297, 208, 360
-0.994573, 1, 225, 500, 288
-0.994573, 249, 33, 312, 288
-0.994604, 129, 225, 160, 352
-0.994608, 129, 41, 160, 104
-0.994639, 129, 189, 256, 220
-0.994645, 81, 305, 208, 368
-0.99466, 225, 161, 480, 224
-0.994666, 405, 113, 436, 240
-0.994693, 249, 209, 280, 336
-0.994733, 193, 177, 224, 304
-0.994739, 117, 249, 148, 312
-0.994765, 177, 177, 304, 208
-0.994834, 97, 257, 128, 320
-0.994877, 193, 225, 320, 256
-0.994942, 105, 81, 136, 144
-0.994957, 189, 225, 220, 352
-0.994959, 129, 177, 256, 208
-0.995011, 241, 265, 304, 328
-0.995029, 153, 257, 184, 320
-0.995056, 465, 177, 496, 304
-0.995096, 299, 185, 314, 248
-0.995098, 205, 193, 236, 320
-0.995107, 213, 145, 228, 208
-0.995133, 257, 249, 384, 280
-0.995135, 307, 201, 322, 264
-0.995145, 295, 209, 310, 272
-0.995151, 369, 121, 496, 184
-0.995157, 97, 137, 352, 200
-0.995201, 101, 17, 132, 80
-0.995211, 105, 57, 136, 120
-0.995224, 225, 237, 352, 268
-0.995275, 65, 97, 96, 160
-0.995277, 5, 9, 36, 72
-0.995289, 1, 49, 256, 112
-0.995292, 183, 41, 198, 104
-0.995295, 289, 265, 416, 296
-0.995311, 21, 297, 52, 360
-0.995335, 293, 185, 308, 248
-0.995352, 49, 73, 80, 136
-0.995367, 369, 145, 496, 208
-0.995368, 105, 73, 120, 136
-0.995372, 289, 257, 352, 320
-0.99542, 369, 169, 496, 232
-0.995428, 337, 209, 464, 240
-0.995429, 81, 57, 208, 88
-0.995433, 389, 161, 420, 224
-0.995434, 113, 145, 240, 176
-0.995443, 69, 49, 100, 112
-0.995451, 1, 61, 128, 92
-0.995455, 177, 213, 304, 244
-0.99549, 169, 249, 232, 312
-0.995527, 1, 305, 256, 368
-0.99553, 81, 241, 112, 368
-0.995538, 69, 49, 100, 176
-0.995543, 137, 65, 168, 128
-0.995573, 81, 69, 208, 100
-0.995588, 185, 217, 216, 280
-0.995626, 185, 313, 248, 375
-0.995635, 249, 209, 264, 272
-0.995642, 289, 197, 416, 228
-0.995658, 213, 169, 228, 232
-0.995667, 157, 193, 188, 256
-0.995684, 219, 153, 234, 216
-0.995695, 1, 217, 256, 280
-0.995705, 305, 177, 320, 240
-0.995706, 97, 233, 352, 296
-0.995729, 209, 49, 272, 112
-0.995735, 249, 185, 264, 248
-0.995753, 1, 177, 500, 240
-0.995755, 369, 229, 496, 260
-0.99579, 433, 41, 496, 104
-0.995809, 61, 121, 92, 184
-0.995835, 389, 97, 420, 224
-0.995843, 361, 289, 424, 352
-0.995849, 49, 153, 176, 184
-0.995886, 257, 257, 500, 320
-0.995895, 25, 209, 56, 272
-0.995898, 243, 185, 258, 248
-0.995919, 209, 201, 336, 232
-0.995929, 169, 289, 232, 352
-0.995937, 141, 129, 156, 192
-0.995955, 101, 1, 132, 128
-0.995981, 121, 113, 184, 176
-0.996007, 241, 297, 368, 360
-0.996017, 65, 257, 320, 320
-0.996043, 209, 1, 336, 128
-0.996045, 343, 225, 358, 288
-0.996055, 1, 105, 256, 168
-0.996092, 9, 65, 24, 128
-0.996092, 321, 169, 448, 200
-0.996109, 117, 241, 148, 368
-0.996133, 301, 209, 316, 272
-0.996144, 183, 113, 198, 176
-0.996152, 177, 41, 192, 104
-0.996155, 401, 233, 416, 296
-0.996157, 271, 185, 286, 248
-0.996167, 103, 41, 118, 104
-0.996169, 273, 209, 400, 240
-0.996208, 189, 113, 204, 176
-0.996213, 289, 209, 304, 272
-0.996219, 325, 209, 340, 272
-0.996221, 315, 201, 330, 264
-0.996222, 145, 41, 160, 104
-0.996245, 129, 69, 256, 100
-0.996251, 1, 137, 256, 200
-0.996266, 237, 185, 252, 248
-0.996267, 259, 185, 274, 248
-0.996267, 241, 157, 368, 188
-0.996269, 219, 185, 234, 248
-0.99628, 449, 161, 480, 288
-0.996282, 243, 209, 258, 272
-0.996302, 13, 89, 28, 152
-0.996328, 361, 225, 376, 288
-0.996337, 65, 241, 96, 368
-0.996339, 1, 113, 128, 144
-0.996347, 53, 241, 84, 368
-0.996352, 281, 201, 296, 264
-0.996359, 159, 41, 174, 104
-0.996375, 153, 49, 168, 112
-0.996405, 129, 281, 384, 344
-0.996419, 379, 225, 394, 288
-0.996423, 409, 233, 424, 296
-0.996423, 97, 161, 352, 224
-0.996426, 205, 169, 220, 232
-0.996432, 425, 177, 440, 240
-0.996448, 141, 241, 172, 368
-0.99645, 43, 169, 58, 232
-0.99646, 321, 121, 448, 184
-0.996476, 325, 113, 356, 240
-0.996482, 49, 145, 64, 208
-0.996482, 265, 185, 280, 248
-0.996519, 255, 209, 270, 272
-0.996519, 333, 209, 348, 272
-0.996519, 299, 145, 314, 208
-0.996531, 241, 177, 368, 208
-0.996594, 1, 249, 500, 312
-0.996603, 353, 225, 368, 288
-0.996615, 167, 49, 182, 112
-0.996622, 1, 225, 16, 288
-0.996643, 225, 281, 480, 344
-0.996651, 331, 153, 346, 216
-0.996652, 261, 209, 276, 272
-0.996665, 309, 241, 340, 368
-0.996666, 151, 145, 166, 208
-0.996672, 357, 257, 372, 320
-0.996694, 369, 249, 496, 280
-0.996707, 189, 1, 220, 128
-0.996708, 43, 129, 58, 192
-0.996713, 417, 169, 432, 232
-0.996714, 141, 1, 172, 256
-0.99674, 1, 157, 128, 188
-0.996745, 49, 265, 176, 296
-0.996747, 85, 1, 116, 256
-0.996754, 145, 201, 272, 232
-0.996776, 231, 185, 246, 248
-0.996778, 433, 33, 496, 160
-0.996787, 59, 145, 74, 208
-0.996788, 361, 129, 392, 375
-0.996831, 17, 169, 144, 200
-0.996835, 115, 145, 130, 208
-0.996837, 145, 165, 272, 196
-0.996839, 287, 185, 302, 248
-0.996851, 371, 217, 386, 280
-0.996853, 159, 65, 174, 128
-0.996859, 337, 185, 464, 216
-0.996867, 371, 257, 386, 320
-0.996888, 373, 129, 404, 375
-0.996897, 37, 145, 52, 208
-0.996897, 105, 185, 168, 248
-0.996902, 225, 177, 240, 240
-0.996904, 19, 89, 34, 152
-0.996907, 17, 73, 144, 104
-0.996936, 99, 17, 114, 80
-0.996939, 225, 241, 288, 368
-0.99694, 1, 33, 16, 96
-0.996948, 95, 153, 110, 216
-0.996948, 113, 133, 240, 164
-0.996956, 1, 101, 128, 132
-0.996958, 341, 169, 356, 232
-0.996958, 289, 157, 416, 188
-0.996963, 49, 113, 176, 144
-0.996972, 313, 97, 344, 224
-0.996978, 161, 53, 288, 84
-0.996988, 207, 145, 222, 208
-0.996995, 209, 49, 336, 176
-0.996997, 363, 257, 378, 320
-0.996999, 235, 209, 250, 272
-0.997006, 157, 1, 188, 256
-0.99703, 99, 65, 114, 128
-0.997032, 385, 241, 400, 304
-0.997038, 33, 25, 288, 88
-0.997061, 89, 129, 120, 375
-0.99708, 135, 129, 150, 192
-0.997084, 377, 257, 392, 320
-0.997089, 287, 213, 302, 244
-0.997093, 241, 161, 256, 224
-0.997109, 129, 217, 256, 248
-0.99711, 417, 241, 432, 304
-0.997139, 225, 33, 288, 288
-0.997139, 335, 185, 350, 248
-0.997142, 33, 129, 64, 375
-0.997148, 65, 145, 80, 208
-0.99716, 17, 245, 144, 276
-0.997177, 391, 225, 406, 288
-0.997179, 29, 33, 60, 160
-0.997183, 133, 97, 164, 352
-0.997186, 369, 97, 400, 224
-0.997197, 281, 213, 296, 244
-0.997197, 49, 169, 64, 232
-0.997214, 117, 129, 148, 375
-0.997234, 143, 17, 158, 80
-0.997246, 201, 241, 264, 304
-0.997251, 89, 153, 104, 216
-0.997255, 201, 137, 216, 200
-0.997258, 289, 181, 416, 212
-0.997267, 121, 145, 136, 208
-0.997289, 209, 73, 336, 136
-0.997298, 65, 165, 192, 196
-0.997309, 17, 281, 144, 312
-0.997336, 191, 185, 206, 248
-0.997341, 423, 217, 438, 280
-0.997372, 41, 281, 56, 344
-0.997376, 185, 73, 200, 136
-0.997379, 373, 161, 388, 224
-0.997385, 111, 81, 126, 144
-0.997386, 17, 65, 32, 128
-0.997391, 179, 65, 194, 128
-0.997392, 33, 121, 48, 184
-0.9974, 71, 161, 86, 224
-0.997405, 315, 145, 330, 208
-0.997419, 105, 129, 136, 375
-0.997431, 157, 145, 172, 208
-0.997437, 81, 45, 208, 76
-0.99744, 231, 161, 246, 224
-0.997442, 81, 181, 208, 212
-0.997447, 359, 193, 374, 256
-0.997454, 97, 41, 112, 104
-0.997462, 337, 261, 464, 292
-0.99747, 129, 177, 160, 304
-0.997471, 113, 1, 240, 64
-0.997485, 329, 237, 344, 268
-0.997486, 107, 113, 122, 176
-0.997489, 13, 1, 44, 256
-0.997496, 281, 177, 296, 240
-0.997508, 341, 193, 356, 256
-0.997511, 419, 193, 434, 256
-0.997513, 101, 153, 116, 216
-0.997515, 7, 89, 22, 152
-0.997517, 129, 313, 384, 375
-0.997539, 267, 209, 282, 272
-0.997543, 305, 129, 336, 375
-0.997548, 249, 161, 264, 224
-0.997553, 73, 1, 104, 256
-0.997555, 293, 161, 308, 224
-0.997556, 319, 233, 334, 296
-0.997558, 305, 153, 320, 216
-0.997558, 197, 185, 212, 248
-0.997563, 105, 17, 120, 80
-0.997568, 317, 129, 348, 375
-0.997574, 213, 193, 228, 256
-0.997576, 109, 153, 124, 216
-0.997577, 293, 213, 308, 244
-0.997583, 65, 177, 96, 304
-0.997585, 177, 17, 192, 80
-0.997585, 77, 1, 108, 128
-0.997586, 357, 257, 372, 288
-0.99759, 337, 129, 368, 375
-0.997598, 81, 29, 208, 60
-0.997603, 77, 153, 92, 216
-0.997605, 219, 197, 234, 228
-0.997608, 139, 41, 154, 104
-0.997619, 337, 241, 352, 272
-0.997621, 53, 49, 68, 112
-0.997629, 45, 129, 76, 375
-0.99764, 347, 253, 362, 284
-0.997644, 241, 213, 256, 244
-0.997647, 129, 29, 256, 60
-0.997649, 209, 193, 224, 224
-0.997651, 75, 41, 90, 104
-0.997655, 141, 137, 156, 168
-0.997655, 93, 81, 108, 144
-0.997661, 247, 213, 262, 244
-0.997669, 227, 201, 242, 232
-0.997679, 113, 1, 144, 128
-0.997685, 173, 81, 188, 144
-0.997691, 351, 193, 366, 256
-0.997695, 287, 225, 302, 256
-0.997699, 3, 57, 18, 120
-0.997713, 275, 213, 290, 244
-0.997715, 311, 237, 326, 268
-0.997717, 213, 173, 228, 204
-0.997717, 97, 81, 224, 112
-0.997726, 301, 233, 316, 296
-0.997728, 67, 49, 82, 112
-0.997734, 111, 57, 126, 120
-0.997738, 229, 209, 260, 336
-0.99774, 31, 89, 46, 152
-0.997744, 315, 177, 330, 240
-0.997745, 1, 49, 128, 80
-0.99776, 321, 221, 448, 252
-0.997769, 65, 141, 192, 172
-0.997782, 45, 1, 76, 256
-0.997789, 17, 233, 144, 264
-0.997791, 321, 241, 336, 272
-0.9978, 309, 201, 324, 232
-0.997812, 77, 129, 108, 375
-0.997817, 269, 213, 284, 244
-0.997822, 281, 225, 296, 256
-0.997825, 299, 209, 314, 240
-0.997833, 305, 277, 432, 308
-0.997834, 201, 189, 216, 220
-0.99784, 365, 261, 380, 292
-0.997843, 293, 229, 308, 260
-0.997844, 65, 129, 96, 375
-0.997852, 191, 185, 206, 216
-0.997854, 241, 289, 368, 320
-0.997855, 227, 185, 242, 216
-0.997856, 395, 237, 410, 268
-0.997872, 1, 273, 500, 336
-0.997872, 129, 41, 256, 72
-0.997879, 97, 49, 352, 112
-0.997881, 29, 1, 60, 256
-0.997888, 55, 157, 70, 188
-0.997888, 301, 233, 316, 264
-0.997894, 349, 129, 380, 375
-0.997905, 299, 221, 314, 252
-0.997908, 381, 233, 396, 264
-0.99791, 337, 225, 352, 256
-0.997911, 405, 241, 420, 272
-0.997915, 413, 245, 428, 276
-0.997919, 133, 1, 164, 128
-0.997919, 193, 137, 448, 200
-0.997929, 253, 213, 268, 244
-0.997933, 235, 209, 250, 240
-0.997933, 375, 229, 390, 260
-0.997938, 193, 165, 320, 196
-0.997939, 193, 273, 320, 304
-0.997941, 235, 189, 250, 220
-0.997944, 109, 97, 124, 128
-0.997951, 1, 145, 128, 176
-0.997957, 353, 129, 416, 192
-0.997958, 1, 9, 128, 40
-0.997959, 385, 129, 416, 375
-0.99796, 209, 1, 272, 64
-0.997969, 321, 121, 384, 184
-0.997969, 161, 145, 288, 176
-0.997986, 353, 273, 480, 304
-0.997987, 1, 37, 128, 68
-0.997995, 273, 113, 400, 176
-0.998, 129, 201, 192, 264
-0.998004, 347, 221, 362, 252
-0.998009, 49, 17, 176, 48
-0.998015, 47, 157, 62, 188
-0.998025, 97, 257, 224, 288
-0.998031, 145, 129, 176, 375
-0.998033, 183, 61, 198, 92
-0.998038, 197, 81, 228, 208
-0.998053, 183, 181, 198, 212
-0.998055, 219, 181, 234, 212
-0.99806, 329, 213, 344, 244
-0.99806, 341, 253, 356, 284
-0.998067, 387, 233, 402, 264
-0.998078, 209, 141, 336, 172
-0.99808, 303, 193, 318, 224
-0.998084, 387, 269, 402, 300
-0.998098, 183, 49, 198, 80
-0.998116, 97, 1, 128, 256
-0.998121, 129, 97, 256, 160
-0.998121, 235, 173, 250, 204
-0.998124, 317, 209, 332, 240
-0.998132, 1, 65, 32, 320
-0.998137, 337, 289, 464, 320
-0.998143, 305, 145, 432, 176
-0.998148, 149, 177, 164, 208
-0.99815, 113, 193, 144, 320
-0.998152, 61, 1, 92, 256
-0.998152, 207, 177, 222, 208
-0.998155, 177, 33, 208, 288
-0.998156, 91, 157, 106, 188
-0.998162, 63, 153, 78, 184
-0.998177, 285, 129, 316, 375
-0.998185, 191, 125, 206, 156
-0.998187, 223, 169, 238, 200
-0.998195, 97, 81, 352, 144
-0.998209, 161, 257, 416, 320
-0.99821, 65, 1, 320, 64
-0.998211, 373, 261, 388, 292
-0.998212, 363, 225, 378, 256
-0.998217, 117, 153, 132, 184
-0.99822, 343, 241, 358, 272
-0.998226, 243, 225, 258, 256
-0.998226, 17, 81, 32, 112
-0.99823, 105, 61, 120, 92
-0.998233, 419, 249, 434, 280
-0.998234, 369, 81, 496, 144
-0.998241, 7, 73, 22, 104
-0.998248, 331, 249, 346, 280
-0.998248, 129, 1, 160, 256
-0.998251, 337, 197, 464, 228
-0.998258, 1, 233, 16, 264
-0.998258, 157, 129, 188, 375
-0.998259, 309, 225, 324, 256
-0.998266, 205, 129, 236, 375
-0.998267, 41, 193, 72, 320
-0.998269, 353, 221, 368, 252
-0.998272, 305, 181, 320, 212
-0.998275, 369, 229, 384, 260
-0.998278, 149, 37, 164, 68
-0.998289, 107, 85, 122, 116
-0.99829, 9, 85, 24, 116
-0.998302, 145, 121, 272, 152
-0.998314, 55, 169, 70, 200
-0.998326, 173, 191, 204, 206
-0.998327, 33, 283, 64, 298
-0.998327, 13, 105, 28, 136
-0.998328, 173, 71, 204, 86
-0.998328, 177, 133, 208, 148
-0.99833, 21, 249, 52, 264
-0.99833, 97, 93, 128, 108
-0.998332, 301, 153, 332, 168
-0.998333, 65, 73, 96, 88
-0.998334, 49, 149, 80, 164
-0.998334, 209, 1, 336, 64
-0.998334, 141, 61, 172, 76
-0.998336, 293, 185, 324, 200
-0.998339, 341, 265, 372, 280
-0.998339, 1, 65, 500, 128
-0.99834, 17, 313, 144, 344
-0.99834, 93, 79, 124, 94
-0.99834, 317, 223, 348, 238
-0.998341, 221, 217, 252, 232
-0.998343, 149, 35, 180, 50
-0.998343, 313, 233, 344, 248
-0.998344, 309, 249, 340, 264
-0.998345, 9, 111, 40, 126
-0.998345, 217, 149, 248, 164
-0.998345, 93, 73, 124, 88
-0.998346, 85, 59, 116, 74
-0.998347, 49, 155, 80, 170
-0.998348, 259, 213, 274, 244
-0.998348, 357, 235, 388, 250
-0.998348, 333, 247, 364, 262
-0.99835, 161, 185, 192, 200
-0.998351, 129, 137, 160, 152
-0.998352, 137, 53, 168, 68
-0.998353, 17, 79, 48, 94
-0.998354, 161, 69, 192, 84
-0.998354, 205, 151, 236, 166
-0.998354, 377, 239, 408, 254
-0.998354, 401, 129, 432, 375
-0.998355, 197, 185, 228, 200
-0.998356, 419, 173, 434, 204
-0.998356, 177, 139, 208, 154
-0.998356, 129, 257, 160, 272
-0.998356, 313, 211, 344, 226
-0.998357, 301, 205, 332, 220
-0.998357, 353, 269, 384, 284
-0.998358, 205, 175, 236, 190
-0.998358, 85, 15, 116, 30
-0.99836, 13, 85, 44, 100
-0.998361, 323, 213, 338, 244
-0.998361, 33, 165, 64, 180
-0.998362, 329, 259, 360, 274
-0.998363, 377, 267, 408, 282
-0.998364, 385, 247, 416, 262
-0.998364, 237, 189, 268, 204
-0.998365, 333, 157, 348, 188
-0.998365, 161, 179, 192, 194
-0.998365, 81, 65, 112, 80
-0.998366, 285, 227, 316, 242
-0.998366, 117, 153, 148, 168
-0.998367, 303, 149, 318, 180
-0.998369, 141, 69, 172, 84
-0.998371, 145, 41, 176, 56
-0.998371, 9, 245, 40, 260
-0.998373, 229, 223, 260, 238
-0.998373, 57, 161, 88, 176
-0.998373, 183, 121, 198, 152
-0.998374, 201, 145, 232, 160
-0.998374, 145, 229, 272, 260
-0.998375, 249, 217, 280, 232
-0.998375, 353, 263, 384, 278
-0.998376, 301, 217, 332, 232
-0.998378, 293, 193, 324, 208
-0.998379, 405, 253, 436, 268
-0.998385, 335, 213, 350, 244
-0.998386, 77, 73, 108, 88
-0.998387, 73, 163, 104, 178
-0.998388, 169, 35, 200, 50
-0.998389, 341, 213, 356, 244
-0.998389, 93, 157, 124, 172
-0.998392, 145, 29, 176, 44
-0.998394, 199, 177, 214, 208
-0.998396, 133, 149, 164, 164
-0.998397, 143, 33, 158, 64
-0.998398, 141, 75, 172, 90
-0.9984, 289, 221, 320, 236
-0.998401, 17, 297, 144, 328
-0.998401, 275, 225, 290, 256
-0.998401, 29, 117, 60, 132
-0.998403, 137, 47, 168, 62
-0.998403, 5, 79, 36, 94
-0.998404, 45, 115, 76, 130
-0.998406, 161, 29, 192, 44
-0.998408, 325, 237, 356, 252
-0.998408, 331, 225, 346, 256
-0.998409, 99, 69, 114, 100
-0.99841, 143, 53, 158, 84
-0.99841, 153, 75, 184, 90
-0.998411, 181, 33, 196, 64
-0.998413, 221, 197, 252, 212
-0.998413, 191, 173, 206, 204
-0.998415, 153, 65, 168, 96
-0.998415, 45, 169, 76, 184
-0.998416, 185, 185, 216, 200
-0.998416, 105, 155, 136, 170
-0.998416, 215, 161, 230, 192
-0.998419, 345, 225, 376, 240
-0.998419, 145, 65, 160, 96
-0.99842, 357, 229, 388, 244
-0.99842, 217, 173, 248, 188
-0.998421, 61, 113, 92, 128
-0.998422, 265, 217, 296, 232
-0.998423, 153, 9, 216, 72
-0.998423, 241, 229, 304, 244
-0.998424, 97, 153, 112, 184
-0.998426, 289, 235, 320, 250
-0.998428, 137, 35, 168, 50
-0.998428, 235, 221, 250, 252
-0.998428, 221, 179, 252, 194
-0.998428, 77, 111, 108, 126
-0.998432, 29, 171, 60, 186
-0.998434, 313, 239, 344, 254
-0.998437, 165, 77, 196, 92
-0.998437, 381, 269, 396, 300
-0.99844, 325, 217, 356, 232
-0.998442, 209, 181, 240, 196
-0.998444, 13, 119, 44, 134
-0.998445, 297, 189, 312, 220
-0.998446, 209, 203, 240, 218
-0.998446, 301, 243, 332, 258
-0.998447, 373, 273, 404, 288
-0.998447, 333, 227, 364, 242
-0.998447, 105, 73, 120, 104
-0.998447, 145, 181, 176, 196
-0.998449, 281, 215, 344, 230
-0.998451, 321, 251, 352, 266
-0.998452, 89, 111, 120, 126
-0.998453, 257, 225, 288, 240
-0.998453, 177, 123, 208, 138
-0.998454, 369, 233, 400, 248
-0.998455, 277, 233, 308, 248
-0.998458, 45, 163, 76, 178
-0.99846, 185, 181, 248, 196
-0.99846, 103, 97, 118, 128
-0.99846, 289, 213, 320, 228
-0.99846, 225, 209, 256, 224
-0.998464, 161, 133, 288, 164
-0.998465, 133, 143, 164, 158
-0.998468, 277, 215, 308, 230
-0.998468, 313, 149, 328, 180
-0.998469, 57, 167, 88, 182
-0.998469, 177, 65, 192, 96
-0.998472, 213, 149, 228, 180
-0.998474, 201, 191, 232, 206
-0.998475, 41, 165, 56, 196
-0.998476, 1, 21, 128, 52
-0.998478, 389, 239, 420, 254
-0.998478, 301, 237, 332, 252
-0.99848, 237, 215, 268, 230
-0.998481, 337, 253, 368, 268
-0.998483, 345, 231, 376, 246
-0.998483, 321, 245, 352, 260
-0.998483, 129, 273, 256, 304
-0.998487, 273, 227, 304, 242
-0.998489, 81, 101, 208, 132
-0.99849, 153, 189, 216, 204
-0.998491, 437, 145, 468, 272
-0.998492, 349, 257, 380, 272
-0.998495, 301, 211, 332, 226
-0.998495, 313, 217, 344, 232
-0.998496, 19, 113, 34, 144
-0.998496, 185, 191, 216, 206
-0.998497, 329, 233, 392, 248
-0.9985, 281, 223, 344, 238
-0.998502, 1, 181, 128, 212
-0.998504, 193, 189, 256, 204
-0.998505, 401, 243, 432, 258
-0.998505, 191, 137, 206, 168
-0.998505, 149, 25, 164, 56
-0.998508, 329, 227, 392, 242
-0.998513, 319, 229, 334, 260
-0.998514, 47, 169, 62, 200
-0.998514, 297, 237, 360, 252
-0.998515, 201, 197, 232, 212
-0.998524, 257, 235, 320, 250
-0.998525, 241, 217, 304, 232
-0.998527, 225, 223, 288, 238
-0.998528, 81, 69, 96, 100
-0.99853, 213, 191, 244, 206
-0.998531, 33, 341, 160, 372
-0.998531, 173, 185, 204, 200
-0.998532, 49, 113, 112, 128
-0.998532, 225, 185, 256, 200
-0.998533, 159, 41, 174, 72
-0.998534, 233, 129, 264, 375
-0.998535, 329, 263, 392, 278
-0.998535, 305, 225, 368, 240
-0.998535, 299, 169, 314, 200
-0.998539, 25, 169, 88, 184
-0.99854, 281, 243, 344, 258
-0.99854, 137, 183, 200, 198
-0.99854, 137, 75, 200, 90
-0.99854, 305, 219, 368, 234
-0.998544, 365, 265, 396, 280
-0.998546, 427, 201, 442, 232
-0.998547, 305, 255, 368, 270
-0.998553, 111, 153, 126, 184
-0.998554, 1, 221, 128, 252
-0.998558, 169, 195, 232, 210
-0.998559, 17, 117, 80, 132
-0.99856, 69, 157, 84, 188
-0.998561, 289, 249, 352, 264
-0.998562, 155, 181, 170, 212
-0.998563, 241, 173, 256, 204
-0.998566, 169, 145, 232, 160
-0.998567, 297, 195, 360, 210
-0.998569, 281, 209, 344, 224
-0.998574, 353, 235, 416, 250
-0.998575, 131, 141, 146, 172
-0.998575, 369, 243, 432, 258
-0.998577, 353, 245, 368, 276
-0.998578, 41, 161, 104, 176
-0.998581, 129, 139, 192, 154
-0.998582, 73, 111, 136, 126
-0.998583, 297, 81, 328, 208
-0.998583, 57, 73, 120, 88
-0.998584, 345, 271, 408, 286
-0.998585, 145, 31, 208, 46
-0.998586, 209, 183, 272, 198
-0.998588, 281, 229, 344, 244
-0.998588, 381, 221, 396, 252
-0.998589, 35, 281, 50, 312
-0.998589, 305, 231, 368, 246
-0.998591, 137, 67, 200, 82
-0.998591, 201, 207, 264, 222
-0.998592, 365, 249, 380, 280
-0.998592, 209, 197, 272, 212
-0.998593, 147, 141, 162, 172
-0.998594, 97, 75, 160, 90
-0.998594, 321, 239, 384, 254
-0.998595, 249, 229, 264, 260
-0.998597, 217, 215, 280, 230
-0.998599, 233, 189, 296, 204
-0.998599, 337, 157, 464, 188
-0.9986, 97, 155, 160, 170
-0.998601, 183, 133, 198, 164
-0.998601, 55, 145, 70, 176
-0.998602, 105, 259, 168, 274
-0.998602, 249, 223, 312, 238
-0.998603, 121, 149, 184, 164
-0.998603, 41, 155, 104, 170
-0.998604, 17, 329, 144, 360
-0.998608, 65, 159, 128, 174
-0.998609, 297, 189, 360, 204
-0.998611, 257, 191, 320, 206
-0.998615, 401, 247, 464, 262
-0.998616, 129, 61, 192, 76
-0.998619, 9, 79, 72, 94
-0.99862, 369, 269, 432, 284
-0.99862, 177, 175, 240, 190
-0.998622, 377, 237, 440, 252
-0.998623, 49, 13, 112, 28
-0.998624, 33, 75, 96, 90
-0.998624, 257, 211, 320, 226
-0.998625, 185, 201, 248, 216
-0.998626, 145, 81, 208, 96
-0.998628, 469, 129, 500, 256
-0.998631, 145, 37, 208, 52
-0.998631, 201, 225, 264, 240
-0.998632, 289, 155, 352, 170
-0.998633, 329, 219, 392, 234
-0.998635, 57, 81, 120, 96
-0.998637, 353, 229, 416, 244
-0.998637, 193, 219, 256, 234
-0.998637, 329, 251, 392, 266
-0.99864, 321, 185, 384, 200
-0.99864, 145, 145, 208, 160
-0.99864, 353, 261, 416, 276
-0.998641, 329, 257, 392, 272
-0.998643, 41, 57, 104, 72
-0.998643, 433, 17, 496, 80
-0.998644, 313, 213, 376, 228
-0.998645, 217, 173, 280, 188
-0.998648, 49, 169, 112, 184
-0.99865, 97, 81, 160, 96
-0.99865, 17, 163, 80, 178
-0.99865, 9, 85, 72, 100
-0.99865, 105, 31, 168, 46
-0.998651, 129, 53, 192, 68
-0.998652, 169, 123, 232, 138
-0.998652, 361, 169, 424, 184
-0.998653, 377, 249, 440, 264
-0.998654, 193, 213, 256, 228
-0.998658, 1, 85, 128, 116
-0.99866, 377, 263, 440, 278
-0.99866, 41, 63, 104, 78
-0.998662, 1, 239, 64, 254
-0.998663, 137, 177, 200, 192
-0.998663, 289, 161, 352, 176
-0.998663, 129, 47, 192, 62
-0.998664, 305, 261, 368, 276
-0.998664, 73, 105, 136, 120
-0.998666, 97, 69, 160, 84
-0.998667, 1, 109, 64, 124
-0.998668, 1, 269, 128, 300
-0.998669, 17, 153, 80, 168
-0.99867, 321, 179, 384, 194
-0.998671, 9, 247, 72, 262
-0.998672, 289, 183, 352, 198
-0.998672, 97, 265, 160, 280
-0.998673, 161, 183, 224, 198
-0.998673, 177, 151, 240, 166
-0.998674, 161, 301, 288, 332
-0.998675, 401, 253, 464, 268
-0.998675, 105, 37, 168, 52
-0.998676, 1, 13, 64, 28
-0.998677, 337, 167, 400, 182
-0.998677, 233, 179, 296, 194
-0.998677, 25, 13, 88, 28
-0.998678, 313, 245, 376, 260
-0.99868, 329, 173, 392, 188
-0.99868, 289, 167, 352, 182
-0.99868, 105, 47, 168, 62
-0.99868, 9, 73, 72, 88
-0.998681, 1, 233, 64, 248
-0.998683, 145, 121, 208, 136
-0.998683, 25, 175, 88, 190
-0.998684, 169, 355, 232, 370
-0.998684, 209, 167, 272, 182
-0.998684, 145, 151, 208, 166
-0.998684, 65, 19, 128, 34
-0.998685, 225, 209, 288, 224
-0.998685, 41, 277, 104, 292
-0.998685, 169, 139, 232, 154
-0.998686, 1, 19, 64, 34
-0.998687, 305, 201, 368, 216
-0.998688, 289, 173, 352, 188
-0.998695, 257, 301, 384, 332
-0.998703, 129, 113, 384, 176
-0.998734, 113, 241, 240, 272
-0.998743, 21, 129, 52, 375
-0.998752, 425, 97, 456, 352
-0.998755, 101, 193, 132, 320
-0.998764, 289, 289, 416, 320
-0.998766, 189, 129, 220, 375
-0.998779, 1, 297, 500, 360
-0.998788, 433, 81, 496, 208
-0.998789, 161, 17, 288, 48
-0.998792, 369, 313, 496, 375
-0.998797, 305, 301, 432, 332
-0.998799, 81, 289, 208, 320
-0.998817, 393, 97, 456, 160
-0.998826, 1, 89, 500, 152
-0.998826, 97, 113, 224, 144
-0.998827, 161, 285, 288, 316
-0.998875, 17, 193, 144, 224
-0.998878, 161, 345, 288, 375
-0.998894, 105, 65, 120, 192
-0.998904, 183, 33, 198, 160
-0.998913, 161, 333, 288, 364
-0.998926, 177, 129, 208, 375
-0.998932, 261, 129, 292, 375
-0.998941, 413, 129, 444, 375
-0.99898, 421, 177, 436, 304
-0.998983, 161, 313, 288, 344
-0.998991, 437, 97, 468, 352
-0.998993, 217, 65, 248, 320
-0.998993, 81, 305, 208, 336
-0.999005, 469, 129, 500, 375
-0.999009, 257, 277, 384, 308
-0.99901, 109, 33, 140, 288
-0.999012, 245, 129, 276, 375
-0.999023, 333, 193, 348, 320
-0.999046, 97, 341, 224, 372
-0.999048, 415, 177, 430, 304
-0.999051, 213, 129, 228, 256
-0.999055, 257, 313, 500, 375
-0.999061, 327, 145, 342, 272
-0.999063, 81, 317, 208, 348
-0.999064, 141, 113, 156, 240
-0.999067, 433, 113, 496, 176
-0.999076, 333, 145, 348, 272
-0.999083, 101, 17, 116, 144
-0.999085, 193, 261, 320, 292
-0.999095, 299, 145, 314, 272
-0.999106, 111, 81, 126, 208
-0.999109, 189, 1, 220, 256
-0.999128, 43, 97, 58, 224
-0.999129, 145, 81, 272, 112
-0.999132, 161, 109, 288, 140
-0.999136, 7, 49, 22, 176
-0.999138, 273, 129, 304, 375
-0.999156, 147, 129, 162, 256
-0.999166, 189, 97, 204, 224
-0.999167, 35, 81, 50, 208
-0.999182, 327, 193, 342, 320
-0.999187, 143, 49, 158, 176
-0.999187, 149, 49, 164, 176
-0.999191, 315, 145, 330, 272
-0.999193, 17, 205, 144, 236
-0.999203, 183, 81, 198, 208
-0.999205, 369, 209, 384, 336
-0.999209, 81, 229, 208, 260
-0.999211, 1, 129, 500, 192
-0.999222, 51, 97, 66, 224
-0.999228, 1, 17, 16, 144
-0.999231, 221, 145, 236, 272
-0.999238, 13, 81, 28, 208
-0.999245, 293, 161, 308, 288
-0.999245, 339, 209, 354, 336
-0.999248, 35, 145, 50, 272
-0.999252, 307, 193, 322, 320
-0.999252, 371, 145, 386, 272
-0.999253, 207, 129, 222, 256
-0.999256, 245, 161, 260, 288
-0.999258, 45, 161, 60, 288
-0.999261, 237, 145, 252, 272
-0.999271, 413, 225, 428, 352
-0.999274, 159, 33, 174, 160
-0.999287, 397, 1, 428, 256
-0.999291, 251, 145, 266, 272
-0.999292, 175, 33, 190, 160
-0.999293, 427, 161, 442, 288
-0.999294, 189, 33, 204, 160
-0.999298, 379, 209, 394, 336
-0.9993, 305, 129, 320, 256
-0.999311, 157, 129, 172, 256
-0.999313, 135, 113, 150, 240
-0.999316, 353, 113, 384, 240
-0.99932, 409, 177, 424, 304
-0.999322, 339, 145, 354, 272
-0.999322, 61, 97, 76, 224
-0.999323, 281, 193, 296, 320
-0.999326, 369, 173, 496, 204
-0.999337, 231, 161, 246, 288
-0.999348, 9, 129, 40, 256
-0.999352, 277, 97, 308, 224
-0.999361, 151, 193, 166, 320
-0.999368, 209, 345, 336, 375
-0.999368, 197, 113, 212, 240
-0.999374, 317, 33, 348, 288
-0.999374, 329, 241, 344, 368
-0.999375, 165, 33, 180, 160
-0.999376, 419, 225, 434, 352
-0.999377, 321, 145, 336, 272
-0.999382, 225, 97, 480, 160
-0.999386, 369, 33, 496, 160
-0.999388, 225, 73, 480, 136
-0.999391, 241, 25, 368, 88
-0.999396, 345, 177, 360, 304
-0.999396, 381, 33, 412, 288
-0.999397, 365, 161, 380, 288
-0.999398, 321, 209, 336, 336
-0.999401, 363, 209, 378, 336
-0.999406, 177, 113, 192, 240
-0.999408, 369, 145, 496, 176
-0.999413, 81, 277, 208, 308
-0.999413, 287, 193, 302, 320
-0.999423, 17, 133, 144, 164
-0.999423, 425, 241, 456, 368
-0.999426, 161, 241, 288, 272
-0.999427, 177, 65, 304, 96
-0.999432, 403, 177, 418, 304
-0.999437, 385, 209, 400, 336
-0.999437, 51, 161, 66, 288
-0.999438, 337, 33, 368, 288
-0.999439, 427, 209, 442, 336
-0.999442, 27, 81, 42, 208
-0.999443, 275, 193, 290, 320
-0.999446, 377, 145, 392, 272
-0.999449, 225, 105, 352, 168
-0.999451, 81, 1, 208, 32
-0.999452, 289, 133, 416, 164
-0.999455, 105, 145, 120, 272
-0.999467, 485, 209, 500, 336
-0.999467, 93, 145, 108, 272
-0.999467, 121, 129, 136, 256
-0.999469, 187, 161, 202, 288
-0.999471, 147, 1, 162, 128
-0.999475, 407, 241, 422, 368
-0.999477, 269, 193, 284, 320
-0.999477, 29, 225, 44, 352
-0.999478, 39, 241, 54, 368
-0.999481, 113, 129, 128, 256
-0.999483, 241, 261, 368, 292
-0.999484, 127, 129, 142, 256
-0.999487, 65, 129, 192, 160
-0.999495, 227, 113, 242, 240
-0.999497, 107, 17, 122, 144
-0.9995, 357, 177, 372, 304
-0.999501, 97, 201, 224, 232
-0.999505, 383, 145, 398, 272
-0.999505, 137, 65, 152, 192
-0.999508, 99, 145, 114, 272
-0.999509, 479, 161, 494, 288
-0.99951, 237, 193, 252, 320
-0.999511, 19, 81, 34, 208
-0.999515, 67, 145, 82, 272
-0.999518, 449, 65, 480, 320
-0.99952, 393, 97, 408, 224
-0.999529, 263, 193, 278, 320
-0.999531, 7, 1, 22, 128
-0.999532, 67, 81, 82, 208
-0.999533, 117, 81, 132, 208
-0.999533, 299, 225, 314, 352
-0.999537, 87, 145, 102, 272
-0.999538, 193, 89, 320, 120
-0.999539, 1, 209, 16, 336
-0.999547, 283, 145, 298, 272
-0.999549, 113, 241, 128, 368
-0.99955, 257, 33, 500, 96
-0.999551, 345, 225, 360, 352
-0.999555, 17, 33, 32, 160
-0.999557, 469, 209, 484, 336
-0.999558, 331, 225, 346, 240
-0.99956, 183, 59, 198, 74
-0.99956, 293, 225, 308, 352
-0.99956, 161, 1, 416, 64
-0.999561, 155, 29, 170, 44
-0.999561, 305, 193, 320, 208
-0.999561, 175, 29, 190, 44
-0.999561, 59, 115, 74, 130
-0.999561, 27, 119, 42, 134
-0.999561, 211, 175, 226, 190
-0.999562, 167, 29, 182, 44
-0.999562, 191, 135, 206, 150
-0.999563, 237, 179, 252, 194
-0.999563, 215, 203, 230, 218
-0.999563, 145, 75, 160, 90
-0.999563, 57, 145, 72, 272
-0.999563, 313, 193, 328, 320
-0.999563, 23, 79, 38, 94
-0.999563, 193, 177, 208, 304
-0.999564, 97, 97, 112, 224
-0.999564, 65, 115, 80, 130
-0.999564, 15, 119, 30, 134
-0.999564, 231, 173, 246, 188
-0.999564, 81, 73, 96, 88
-0.999564, 95, 111, 110, 126
-0.999566, 81, 113, 96, 128
-0.999567, 169, 75, 184, 90
-0.999567, 67, 167, 82, 182
-0.999568, 433, 209, 448, 336
-0.999568, 75, 113, 90, 128
-0.999569, 109, 101, 124, 116
-0.999569, 45, 171, 60, 186
-0.999569, 177, 75, 192, 90
-0.999569, 389, 271, 404, 286
-0.99957, 333, 255, 348, 270
-0.99957, 261, 217, 276, 232
-0.99957, 17, 85, 32, 100
-0.99957, 17, 79, 32, 94
-0.999571, 193, 193, 208, 208
-0.999572, 103, 111, 118, 126
-0.999572, 295, 239, 310, 254
-0.999572, 319, 219, 334, 234
-0.999572, 153, 1, 168, 128
-0.999573, 303, 159, 318, 174
-0.999573, 61, 167, 76, 182
-0.999574, 163, 129, 178, 256
-0.999574, 37, 167, 52, 182
-0.999575, 275, 231, 290, 246
-0.999575, 231, 209, 246, 224
-0.999576, 245, 113, 260, 240
-0.999577, 223, 207, 238, 222
-0.999577, 65, 241, 192, 272
-0.999578, 91, 97, 106, 224
-0.999578, 289, 237, 304, 252
-0.999578, 213, 177, 228, 304
-0.999578, 201, 33, 232, 288
-0.999579, 281, 233, 296, 248
-0.999579, 245, 187, 260, 202
-0.999579, 257, 161, 272, 288
-0.999579, 157, 209, 172, 336
-0.99958, 179, 187, 194, 202
-0.99958, 95, 159, 110, 174
-0.999581, 1, 247, 16, 262
-0.999581, 389, 145, 404, 272
-0.999582, 223, 173, 238, 188
-0.999583, 147, 181, 162, 196
-0.999583, 141, 31, 156, 46
-0.999583, 185, 189, 200, 204
-0.999583, 105, 71, 120, 86
-0.999583, 181, 31, 196, 46
-0.999584, 305, 185, 320, 200
-0.999584, 263, 145, 278, 272
-0.999584, 305, 243, 320, 258
-0.999585, 103, 241, 118, 368
-0.999585, 327, 253, 342, 268
-0.999586, 73, 81, 88, 208
-0.999586, 163, 75, 178, 90
-0.999586, 95, 241, 110, 368
-0.999587, 41, 49, 56, 176
-0.999587, 241, 225, 256, 240
-0.99959, 171, 81, 186, 208
-0.99959, 339, 259, 354, 274
-0.99959, 45, 241, 60, 368
-0.99959, 61, 161, 76, 176
-0.99959, 35, 193, 50, 320
-0.999591, 1, 65, 16, 192
-0.999591, 327, 239, 342, 254
-0.999592, 81, 145, 96, 272
-0.999593, 367, 271, 382, 286
-0.999594, 269, 217, 284, 232
-0.999594, 145, 193, 160, 320
-0.999595, 129, 25, 384, 88
-0.999596, 313, 247, 328, 262
-0.999597, 345, 261, 360, 276
-0.999598, 319, 249, 334, 264
-0.999599, 353, 265, 368, 280
-0.9996, 361, 269, 376, 284
-0.999601, 53, 169, 68, 184
-0.999602, 149, 35, 164, 50
-0.999604, 243, 213, 258, 228
-0.999608, 183, 121, 198, 136
-0.999609, 301, 211, 316, 226
-0.999611, 47, 163, 62, 178
-0.999611, 237, 211, 252, 226
-0.999613, 239, 185, 254, 200
-0.999614, 313, 217, 328, 232
-0.999616, 223, 193, 238, 208
-0.999616, 315, 211, 330, 226
-0.999617, 307, 207, 322, 222
-0.999617, 285, 215, 300, 230
-0.999618, 295, 213, 310, 228
-0.999619, 347, 223, 362, 238
-0.999621, 183, 75, 198, 90
-0.999621, 189, 121, 204, 136
-0.999624, 335, 235, 350, 250
-0.999625, 357, 227, 372, 242
-0.999626, 217, 191, 232, 206
-0.999627, 109, 107, 124, 122
-0.999629, 409, 33, 440, 288
-0.999632, 337, 227, 352, 242
-0.999633, 217, 173, 232, 188
-0.999634, 273, 223, 288, 238
-0.999635, 337, 219, 352, 234
-0.999636, 173, 241, 204, 368
-0.999638, 321, 213, 336, 228
-0.99964, 363, 229, 378, 244
-0.999646, 275, 217, 290, 232
-0.999647, 369, 231, 384, 246
-0.999647, 225, 201, 240, 216
-0.999648, 217, 197, 232, 212
-0.999648, 383, 269, 398, 284
-0.999648, 347, 229, 362, 244
-0.999652, 81, 329, 208, 360
-0.999652, 331, 217, 346, 232
-0.999652, 209, 193, 224, 208
-0.999653, 403, 243, 418, 258
-0.999654, 233, 33, 264, 288
-0.999658, 223, 179, 238, 194
-0.999663, 231, 183, 246, 198
-0.999664, 375, 233, 390, 248
-0.999665, 393, 239, 408, 254
-0.999667, 383, 235, 398, 250
-0.99967, 409, 245, 424, 260
-0.999671, 141, 137, 156, 152
-0.999672, 297, 233, 312, 248
-0.999676, 145, 261, 272, 292
-0.999677, 291, 231, 306, 246
-0.999679, 365, 263, 380, 278
-0.999679, 203, 191, 218, 206
-0.99968, 415, 247, 430, 262
-0.999681, 209, 45, 336, 76
-0.999682, 347, 255, 362, 270
-0.999683, 313, 239, 328, 254
-0.999683, 185, 183, 200, 198
-0.999684, 305, 237, 320, 252
-0.999689, 331, 247, 346, 262
-0.99969, 285, 227, 300, 242
-0.999691, 339, 251, 354, 266
-0.999692, 193, 121, 320, 152
-0.999692, 195, 187, 210, 202
-0.999692, 325, 245, 340, 260
-0.999693, 319, 243, 334, 258
-0.999693, 279, 225, 294, 240
-0.999699, 357, 259, 372, 274
-0.999708, 273, 81, 400, 144
-0.999709, 371, 265, 386, 280
-0.999718, 377, 267, 392, 282
-0.999728, 49, 85, 176, 116
-0.999749, 1, 257, 128, 288
-0.99977, 1, 1, 500, 64
-0.999803, 369, 125, 496, 156
-0.999842, 365, 33, 396, 288
-0.999855, 393, 1, 456, 256
-0.999859, 45, 1, 76, 128
-0.999868, 89, 193, 120, 320
-0.999872, 353, 1, 384, 256
-0.999884, 305, 33, 336, 288
-0.999885, 469, 33, 500, 288
-0.99989, 277, 33, 308, 288
-0.999925, 1, 41, 500, 104
-1.00004, 225, 49, 352, 112
-1.00006, 209, 1, 272, 128
-1.00008, 249, 33, 280, 288
-1.00009, 397, 33, 428, 160
-1.00016, 353, 33, 416, 160
-1.00016, 273, 49, 400, 176
-1.00018, 337, 49, 464, 112
-1.0002, 53, 193, 84, 320
-1.00027, 293, 33, 324, 288
-1.00034, 337, 1, 464, 64
-1.00036, 77, 193, 108, 320
-1.0004, 233, 81, 296, 208
-1.00045, 261, 33, 292, 288
-1.00048, 441, 241, 472, 368
-1.00053, 321, 313, 448, 375
-1.00053, 297, 241, 328, 368
-1.00054, 273, 49, 400, 112
-1.00055, 321, 81, 448, 144
-1.00057, 265, 241, 296, 368
-1.00063, 337, 25, 464, 88
-1.00068, 425, 1, 456, 256
-1.00081, 257, 9, 500, 72
-1.00099, 257, 1, 384, 64
-1.00107, 437, 1, 468, 256
-1.0011, 433, 1, 496, 256
-1.00116, 209, 49, 240, 176
-1.00178, 201, 241, 264, 368
-1.00178, 289, 25, 416, 88
-1.00182, 241, 1, 304, 128
-1.0022, 377, 1, 440, 128
-1.00318, 409, 33, 472, 160
-1.00319, 257, 1, 384, 128
-1.00346, 305, 49, 368, 176
-1.00437, 321, 1, 448, 128
-1.00452, 265, 49, 328, 176
-1.00523, 321, 49, 448, 176
-1.00921, 329, 17, 392, 144
-1.00944, 305, 1, 368, 128
-1.00948, 273, 1, 336, 128
