1940
-0.310471, 1, 1, 500, 256
-0.339683, 1, 1, 256, 375
-0.362158, 1, 1, 500, 375
-0.392566, 1, 97, 500, 352
-0.406511, 129, 1, 384, 375
-0.494597, 65, 97, 320, 352
-0.504034, 257, 1, 500, 375
-0.524174, 161, 97, 416, 352
-0.528096, 161, 1, 416, 256
-0.558217, 1, 1, 256, 256
-0.585551, 257, 97, 500, 352
-0.631237, 257, 1, 500, 256
-0.813367, 161, 1, 288, 375
-0.825502, 145, 65, 272, 320
-0.83936, 113, 1, 240, 375
-0.850761, 209, 1, 336, 375
-0.85096, 257, 1, 384, 375
-0.853714, 49, 1, 176, 375
-0.854161, 97, 65, 224, 320
-0.857915, 193, 129, 320, 375
-0.858806, 33, 65, 160, 320
-0.867963, 193, 1, 320, 256
-0.869026, 257, 1, 384, 256
-0.871837, 369, 1, 496, 375
-0.871881, 1, 145, 500, 272
-0.874357, 305, 1, 432, 375
-0.87605, 1, 1, 128, 375
-0.876781, 353, 65, 480, 320
-0.881117, 1, 97, 500, 224
-0.883853, 1, 193, 500, 320
-0.886402, 241, 129, 368, 375
-0.886958, 1, 1, 500, 128
-0.888508, 161, 161, 416, 288
-0.89036, 161, 81, 416, 208
-0.891493, 65, 113, 320, 240
-0.896675, 305, 1, 432, 256
-0.89907, 305, 97, 432, 352
-0.899729, 1, 241, 500, 368
-0.902799, 65, 193, 320, 320
-0.906017, 33, 65, 288, 192
-0.907024, 177, 129, 304, 256
-0.911021, 145, 81, 272, 208
-0.911867, 225, 225, 480, 352
-0.913873, 1, 49, 500, 176
-0.915711, 1, 17, 256, 144
-0.917028, 217, 97, 280, 224
-0.917108, 145, 209, 272, 336
-0.919943, 97, 241, 352, 368
-0.922452, 193, 161, 256, 288
-0.923798, 153, 177, 216, 304
-0.924262, 201, 49, 264, 176
-0.924428, 193, 113, 256, 240
-0.92472, 129, 129, 256, 256
-0.924915, 161, 65, 224, 192
-0.924978, 193, 225, 320, 352
-0.925128, 129, 17, 384, 144
-0.926679, 121, 129, 184, 256
-0.92802, 225, 161, 352, 288
-0.928775, 257, 97, 500, 224
-0.928818, 257, 161, 500, 288
-0.929844, 193, 209, 256, 336
-0.930767, 1, 241, 256, 368
-0.931103, 65, 33, 192, 160
-0.93119, 193, 81, 320, 208
-0.93172, 225, 1, 352, 128
-0.931968, 97, 177, 224, 304
-0.932102, 217, 145, 280, 272
-0.93229, 65, 129, 192, 256
-0.932485, 249, 161, 312, 288
-0.932777, 241, 113, 304, 240
-0.932853, 97, 81, 224, 208
-0.933186, 257, 209, 384, 336
-0.933521, 217, 241, 280, 368
-0.93389, 145, 33, 272, 160
-0.93492, 257, 1, 500, 128
-0.935487, 177, 65, 240, 128
-0.937048, 217, 137, 280, 200
-0.937871, 377, 113, 440, 240
-0.937988, 121, 177, 184, 304
-0.938096, 161, 201, 224, 264
-0.938513, 209, 1, 272, 128
-0.938558, 1, 241, 128, 368
-0.938622, 321, 225, 384, 352
-0.940003, 57, 209, 120, 336
-0.940358, 169, 113, 232, 240
-0.941248, 257, 49, 500, 176
-0.941305, 345, 209, 408, 336
-0.941595, 17, 129, 144, 256
-0.941596, 201, 89, 264, 152
-0.941713, 401, 241, 464, 368
-0.941957, 177, 161, 240, 224
-0.941975, 249, 209, 312, 336
-0.942238, 241, 65, 368, 192
-0.942238, 353, 65, 480, 192
-0.942632, 145, 225, 208, 352
-0.943295, 137, 1, 200, 128
-0.943299, 233, 257, 296, 320
-0.943731, 217, 113, 280, 176
-0.943894, 161, 1, 224, 128
-0.943981, 297, 1, 360, 128
-0.944366, 305, 49, 432, 176
-0.944377, 369, 177, 432, 304
-0.944851, 297, 225, 360, 352
-0.944921, 217, 193, 280, 320
-0.944986, 145, 129, 208, 256
-0.94524, 65, 17, 128, 144
-0.945553, 81, 129, 144, 256
-0.946083, 105, 65, 168, 192
-0.946136, 369, 241, 432, 368
-0.946642, 377, 65, 440, 192
-0.946894, 9, 161, 72, 288
-0.946941, 273, 241, 336, 368
-0.947163, 241, 65, 304, 192
-0.947287, 209, 185, 272, 248
-0.947648, 193, 217, 256, 280
-0.94768, 417, 305, 480, 368
-0.947844, 81, 209, 144, 336
-0.947859, 1, 193, 128, 320
-0.947868, 273, 1, 400, 128
-0.948086, 369, 129, 496, 256
-0.94816, 145, 73, 208, 136
-0.948234, 49, 81, 176, 208
-0.948243, 97, 1, 160, 128
-0.948434, 137, 49, 200, 176
-0.948553, 25, 241, 88, 368
-0.948669, 281, 177, 344, 304
-0.948891, 369, 225, 496, 352
-0.949193, 289, 97, 416, 224
-0.949348, 169, 225, 232, 352
-0.949453, 81, 81, 144, 208
-0.949484, 17, 1, 80, 128
-0.949522, 17, 1, 144, 128
-0.94978, 281, 65, 344, 192
-0.949962, 1, 241, 64, 368
-0.950104, 193, 137, 256, 200
-0.950232, 121, 225, 184, 352
-0.950294, 185, 185, 248, 248
-0.950454, 273, 1, 336, 128
-0.950594, 321, 49, 384, 176
-0.950617, 17, 129, 80, 192
-0.950664, 393, 305, 456, 368
-0.950706, 33, 193, 96, 320
-0.950889, 233, 281, 296, 344
-0.95089, 417, 113, 480, 240
-0.950931, 321, 1, 448, 128
-0.951161, 201, 65, 264, 128
-0.951764, 233, 225, 296, 288
-0.951959, 185, 1, 248, 128
-0.952081, 49, 177, 176, 304
-0.95217, 217, 305, 280, 368
-0.952181, 89, 209, 152, 272
-0.952183, 25, 81, 88, 208
-0.952199, 241, 1, 304, 128
-0.952206, 121, 177, 184, 240
-0.952281, 161, 105, 224, 168
-0.952296, 241, 161, 304, 224
-0.952539, 401, 49, 464, 176
-0.952559, 401, 137, 464, 200
-0.952559, 321, 209, 448, 336
-0.952617, 201, 161, 264, 224
-0.952741, 273, 225, 336, 288
-0.952887, 377, 129, 440, 192
-0.953025, 129, 209, 192, 272
-0.953043, 417, 1, 480, 128
-0.953199, 161, 137, 224, 200
-0.95341, 337, 97, 400, 224
-0.95347, 345, 161, 408, 288
-0.953502, 417, 65, 480, 128
-0.953591, 241, 121, 304, 184
-0.953627, 369, 17, 496, 144
-0.954184, 321, 177, 384, 304
-0.954193, 393, 193, 456, 320
-0.954441, 169, 225, 232, 288
-0.954537, 81, 225, 208, 352
-0.954539, 425, 265, 488, 328
-0.954556, 409, 41, 472, 104
-0.954905, 257, 273, 320, 336
-0.955106, 241, 185, 304, 248
-0.955623, 241, 97, 304, 160
-0.955855, 129, 241, 192, 304
-0.955861, 289, 25, 352, 88
-0.955867, 241, 113, 368, 240
-0.956259, 185, 113, 248, 176
-0.956305, 145, 49, 208, 112
-0.956352, 145, 169, 208, 232
-0.956698, 89, 169, 152, 232
-0.956741, 153, 65, 216, 320
-0.956812, 1, 49, 128, 176
-0.957125, 377, 73, 440, 136
-0.95723, 257, 249, 320, 312
-0.957236, 121, 153, 184, 216
-0.957315, 41, 1, 104, 128
-0.957503, 49, 113, 112, 176
-0.957583, 57, 161, 120, 288
-0.957637, 161, 25, 224, 88
-0.95777, 433, 241, 496, 368
-0.958009, 393, 281, 456, 344
-0.958139, 361, 313, 424, 375
-0.958411, 49, 65, 112, 192
-0.958441, 377, 1, 440, 128
-0.958671, 297, 233, 360, 296
-0.958754, 1, 97, 64, 224
-0.958754, 121, 1, 184, 64
-0.958757, 321, 145, 448, 272
-0.958832, 105, 129, 168, 192
-0.958872, 57, 153, 120, 216
-0.958924, 289, 129, 352, 256
-0.958943, 97, 233, 160, 296
-0.959079, 1, 153, 64, 216
-0.959107, 297, 201, 360, 264
-0.959193, 273, 161, 400, 288
-0.959218, 249, 313, 312, 375
-0.959351, 345, 49, 408, 176
-0.959372, 233, 65, 296, 128
-0.95941, 377, 49, 440, 112
-0.959515, 409, 169, 472, 232
-0.959629, 65, 193, 128, 256
-0.959972, 193, 313, 256, 375
-0.960201, 201, 241, 264, 304
-0.960371, 433, 41, 496, 104
-0.960449, 385, 161, 448, 224
-0.96048, 233, 97, 296, 352
-0.960762, 177, 33, 240, 288
-0.960906, 73, 241, 136, 304
-0.960915, 209, 41, 272, 104
-0.960991, 209, 65, 272, 320
-0.961152, 433, 161, 496, 288
-0.96119, 81, 145, 144, 208
-0.961539, 209, 281, 272, 344
-0.961554, 273, 201, 336, 264
-0.961756, 409, 89, 472, 152
-0.96177, 9, 65, 72, 128
-0.961781, 33, 177, 96, 240
-0.961864, 265, 153, 328, 216
-0.961905, 209, 1, 272, 64
-0.962085, 193, 65, 224, 128
-0.96222, 41, 305, 104, 368
-0.962252, 25, 225, 88, 288
-0.962311, 265, 113, 328, 240
-0.962456, 245, 97, 276, 224
-0.962659, 361, 153, 424, 216
-0.962671, 401, 257, 464, 320
-0.96274, 217, 65, 248, 192
-0.9629, 185, 41, 248, 104
-0.962971, 169, 249, 232, 312
-0.963024, 369, 265, 432, 328
-0.963231, 177, 289, 240, 352
-0.963269, 25, 249, 88, 312
-0.963328, 1, 49, 64, 176
-0.963362, 209, 89, 240, 152
-0.963405, 185, 1, 248, 64
-0.963407, 369, 289, 432, 352
-0.963476, 425, 65, 488, 192
-0.963618, 221, 113, 252, 240
-0.963892, 25, 153, 88, 216
-0.963942, 289, 177, 352, 240
-0.964119, 329, 257, 392, 320
-0.964152, 57, 217, 120, 280
-0.964177, 353, 113, 416, 176
-0.964344, 273, 97, 336, 160
-0.964396, 137, 25, 200, 88
-0.964505, 313, 1, 376, 64
-0.96457, 105, 97, 168, 160
-0.964616, 425, 137, 488, 200
-0.964939, 65, 1, 128, 64
-0.964991, 73, 273, 136, 336
-0.965188, 345, 1, 408, 128
-0.96535, 129, 129, 192, 375
-0.965587, 369, 241, 432, 304
-0.965662, 33, 89, 96, 152
-0.965745, 193, 89, 224, 152
-0.965776, 89, 33, 152, 96
-0.96587, 205, 49, 236, 176
-0.965923, 265, 177, 328, 240
-0.965927, 33, 145, 96, 272
-0.965958, 193, 201, 224, 264
-0.966067, 57, 113, 120, 240
-0.966143, 209, 113, 240, 176
-0.966212, 281, 273, 344, 336
-0.96627, 377, 105, 440, 168
-0.966376, 329, 217, 392, 280
-0.966391, 121, 73, 184, 136
-0.966393, 177, 201, 304, 264
-0.966412, 329, 313, 392, 375
-0.966422, 281, 129, 344, 192
-0.966435, 201, 137, 232, 200
-0.966455, 177, 129, 240, 375
-0.966613, 73, 105, 136, 168
-0.96665, 129, 217, 256, 280
-0.966768, 1, 233, 64, 296
-0.966818, 225, 129, 256, 192
-0.966841, 433, 169, 496, 232
-0.966855, 321, 113, 384, 176
-0.96686, 425, 241, 488, 304
-0.966957, 161, 169, 288, 232
-0.96699, 361, 217, 424, 280
-0.967096, 273, 65, 336, 128
-0.967101, 401, 113, 464, 176
-0.967279, 145, 89, 272, 152
-0.967318, 121, 265, 184, 328
-0.967446, 229, 73, 260, 136
-0.967758, 205, 65, 236, 128
-0.967764, 225, 161, 256, 288
-0.967786, 281, 297, 344, 360
-0.967804, 121, 49, 184, 112
-0.967821, 201, 97, 232, 224
-0.96785, 265, 1, 328, 64
-0.967906, 245, 105, 276, 168
-0.967923, 241, 289, 272, 352
-0.967955, 137, 97, 200, 160
-0.967961, 49, 265, 112, 328
-0.96803, 237, 153, 268, 216
-0.968069, 221, 161, 252, 224
-0.968361, 97, 257, 160, 320
-0.968385, 377, 25, 440, 88
-0.968461, 177, 193, 208, 256
-0.968462, 177, 129, 304, 192
-0.968504, 185, 177, 216, 304
-0.968538, 221, 297, 252, 360
-0.968561, 137, 313, 200, 375
-0.968611, 417, 209, 480, 272
-0.968641, 193, 297, 320, 360
-0.968657, 97, 9, 160, 72
-0.968766, 321, 1, 384, 128
-0.968792, 145, 129, 176, 256
-0.968847, 237, 129, 268, 192
-0.968867, 185, 49, 216, 176
-0.968877, 245, 225, 276, 352
-0.968879, 161, 1, 224, 64
-0.968884, 193, 57, 320, 120
-0.969018, 401, 17, 464, 80
-0.969019, 225, 185, 256, 248
-0.969104, 369, 177, 496, 304
-0.969116, 205, 193, 236, 256
-0.969231, 65, 169, 192, 232
-0.969246, 213, 137, 244, 200
-0.96927, 245, 225, 276, 288
-0.969354, 225, 1, 256, 128
-0.969461, 417, 305, 448, 368
-0.969698, 25, 97, 88, 352
-0.969717, 233, 81, 264, 208
-0.969749, 97, 193, 224, 256
-0.969794, 253, 161, 284, 224
-0.969897, 201, 169, 232, 232
-0.969962, 145, 145, 176, 208
-0.969963, 197, 145, 228, 272
-0.969987, 209, 193, 240, 320
-0.970082, 1, 97, 64, 352
-0.970084, 113, 145, 240, 208
-0.970111, 165, 177, 196, 304
-0.970184, 65, 177, 96, 240
-0.970245, 177, 225, 304, 288
-0.97054, 113, 57, 240, 120
-0.970676, 369, 161, 496, 224
-0.970721, 241, 249, 272, 312
-0.970787, 337, 281, 464, 344
-0.970854, 237, 145, 268, 272
-0.971065, 225, 209, 352, 272
-0.971151, 225, 257, 256, 320
-0.971395, 113, 169, 240, 232
-0.97142, 233, 1, 296, 256
-0.971423, 369, 137, 496, 200
-0.971684, 121, 1, 184, 256
-0.971725, 257, 97, 320, 352
-0.971957, 205, 225, 236, 288
-0.971989, 257, 129, 288, 256
-0.972147, 165, 49, 196, 176
-0.97226, 113, 121, 240, 184
-0.972272, 121, 1, 152, 128
-0.972371, 165, 201, 196, 264
-0.972405, 173, 73, 204, 136
-0.972512, 233, 241, 264, 368
-0.972645, 369, 305, 496, 368
-0.97272, 161, 273, 288, 336
-0.972786, 229, 105, 260, 168
-0.972998, 97, 305, 224, 368
-0.973035, 241, 265, 368, 328
-0.973042, 237, 33, 268, 160
-0.973143, 197, 193, 228, 320
-0.973173, 429, 137, 460, 200
-0.973277, 129, 233, 160, 296
-0.9733, 449, 145, 480, 208
-0.973326, 157, 129, 188, 256
-0.97341, 149, 169, 180, 232
-0.97344, 273, 1, 336, 256
-0.973538, 305, 225, 336, 288
-0.973541, 149, 233, 180, 296
-0.973577, 81, 169, 112, 232
-0.973671, 129, 241, 256, 304
-0.973763, 113, 33, 240, 96
-0.973769, 225, 233, 352, 296
-0.973773, 265, 177, 296, 304
-0.97379, 285, 177, 316, 304
-0.973795, 265, 145, 296, 208
-0.973804, 457, 73, 488, 136
-0.973816, 257, 257, 288, 320
-0.97382, 33, 137, 160, 200
-0.973894, 257, 225, 288, 352
-0.973908, 17, 201, 144, 264
-0.973912, 145, 65, 176, 192
-0.973924, 129, 209, 160, 272
-0.974064, 209, 145, 240, 272
-0.97417, 369, 73, 496, 136
-0.974246, 313, 113, 376, 240
-0.974247, 285, 209, 316, 272
-0.97435, 405, 273, 436, 336
-0.974389, 193, 81, 320, 144
-0.974459, 97, 97, 224, 160
-0.974504, 253, 129, 284, 192
-0.974585, 265, 233, 296, 296
-0.974591, 177, 249, 304, 312
-0.974592, 97, 65, 160, 320
-0.974636, 17, 169, 144, 232
-0.974651, 389, 313, 420, 375
-0.974737, 321, 313, 448, 375
-0.974829, 209, 161, 336, 224
-0.974832, 145, 305, 272, 368
-0.97486, 441, 281, 472, 344
-0.974917, 101, 1, 132, 64
-0.974935, 193, 105, 320, 168
-0.975001, 97, 193, 128, 256
-0.975053, 389, 225, 420, 352
-0.97519, 109, 209, 140, 272
-0.975192, 285, 241, 316, 304
-0.975261, 65, 233, 192, 296
-0.975301, 213, 33, 244, 96
-0.97531, 41, 193, 72, 320
-0.975337, 357, 249, 388, 312
-0.975353, 241, 185, 272, 248
-0.975438, 29, 145, 60, 272
-0.975483, 189, 153, 220, 216
-0.975487, 193, 1, 256, 375
-0.975547, 149, 209, 180, 336
-0.975667, 273, 305, 400, 368
-0.975784, 405, 121, 436, 184
-0.975977, 393, 153, 424, 216
-0.975992, 165, 161, 196, 224
-0.97607, 317, 1, 348, 128
-0.976077, 17, 145, 48, 272
-0.976078, 257, 177, 384, 240
-0.976154, 449, 177, 480, 240
-0.976231, 329, 1, 360, 128
-0.976252, 385, 145, 416, 272
-0.976259, 221, 1, 252, 64
-0.976298, 321, 73, 448, 136
-0.976349, 65, 209, 96, 336
-0.976405, 153, 1, 216, 375
-0.976408, 173, 1, 204, 128
-0.97648, 109, 233, 140, 296
-0.976487, 377, 313, 408, 375
-0.976492, 129, 129, 160, 256
-0.97651, 417, 33, 480, 288
-0.976585, 241, 89, 368, 152
-0.976613, 169, 233, 200, 296
-0.976662, 241, 81, 272, 144
-0.976677, 45, 145, 76, 272
-0.976793, 129, 129, 160, 192
-0.9768, 357, 289, 388, 352
-0.976811, 169, 97, 200, 224
-0.976826, 193, 17, 320, 80
-0.976837, 129, 169, 160, 232
-0.976864, 321, 257, 448, 320
-0.976872, 445, 65, 476, 128
-0.976935, 65, 1, 128, 256
-0.976944, 9, 1, 72, 256
-0.976947, 261, 281, 292, 344
-0.976962, 85, 1, 116, 64
-0.976964, 109, 1, 140, 128
-0.976993, 297, 97, 360, 352
-0.977001, 461, 289, 492, 352
-0.977092, 189, 225, 220, 288
-0.977111, 273, 217, 400, 280
-0.97715, 217, 1, 280, 375
-0.977212, 77, 217, 108, 280
-0.977262, 469, 161, 500, 224
-0.977266, 305, 1, 368, 256
-0.977282, 417, 257, 448, 320
-0.977334, 457, 33, 488, 96
-0.977354, 1, 1, 128, 64
-0.977401, 297, 25, 328, 88
-0.97744, 373, 177, 404, 304
-0.977459, 297, 225, 328, 352
-0.977464, 353, 97, 480, 160
-0.977475, 309, 25, 340, 88
-0.977496, 329, 209, 360, 336
-0.977498, 313, 65, 344, 192
-0.977531, 277, 169, 308, 232
-0.977547, 41, 185, 72, 248
-0.977614, 85, 193, 116, 256
-0.977674, 109, 177, 140, 240
-0.977729, 65, 161, 96, 288
-0.977731, 357, 209, 388, 336
-0.977742, 193, 41, 224, 104
-0.977753, 385, 97, 448, 352
-0.977825, 405, 313, 436, 375
-0.97783, 345, 33, 408, 288
-0.977834, 225, 209, 256, 272
-0.977873, 433, 313, 464, 375
-0.977904, 145, 1, 272, 64
-0.977937, 109, 273, 140, 336
-0.977951, 41, 241, 72, 368
-0.977988, 237, 313, 268, 375
-0.978008, 133, 81, 164, 208
-0.97804, 305, 201, 336, 264
-0.978071, 341, 225, 372, 352
-0.978095, 1, 225, 128, 288
-0.978133, 357, 225, 388, 288
-0.978134, 97, 161, 128, 224
-0.978165, 269, 113, 300, 240
-0.978203, 449, 305, 480, 368
-0.978249, 429, 289, 460, 352
-0.978258, 1, 105, 128, 168
-0.978276, 333, 65, 364, 192
-0.978299, 225, 49, 256, 112
-0.978327, 437, 41, 468, 104
-0.978332, 205, 1, 236, 128
-0.978356, 317, 1, 348, 64
-0.978373, 221, 241, 252, 368
-0.97842, 181, 97, 212, 160
-0.978439, 89, 225, 120, 288
-0.978447, 417, 129, 448, 192
-0.978447, 261, 313, 292, 375
-0.978451, 117, 137, 148, 200
-0.978482, 73, 97, 136, 352
-0.978495, 265, 177, 296, 240
-0.97852, 109, 81, 140, 208
-0.978598, 321, 129, 448, 192
-0.97862, 97, 1, 128, 128
-0.97864, 265, 89, 296, 152
-0.978657, 161, 281, 192, 344
-0.978658, 109, 209, 140, 336
-0.978677, 97, 137, 128, 200
-0.978695, 417, 129, 480, 375
-0.978726, 189, 97, 220, 224
-0.978733, 393, 1, 456, 256
-0.978746, 209, 273, 240, 336
-0.978762, 225, 137, 352, 200
-0.978778, 1, 33, 128, 96
-0.978782, 349, 113, 380, 240
-0.978793, 429, 73, 460, 136
-0.978822, 81, 1, 208, 64
-0.978831, 241, 113, 368, 176
-0.978831, 285, 225, 316, 352
-0.978863, 409, 65, 440, 192
-0.978868, 429, 169, 460, 232
-0.978888, 353, 225, 480, 288
-0.9789, 289, 281, 416, 344
-0.978901, 65, 209, 96, 272
-0.978908, 297, 145, 328, 272
-0.97891, 89, 209, 120, 336
-0.978917, 149, 209, 180, 272
-0.979001, 21, 169, 52, 232
-0.979033, 217, 233, 248, 296
-0.979062, 165, 49, 196, 112
-0.979069, 305, 1, 336, 64
-0.979072, 1, 57, 128, 120
-0.979136, 197, 113, 228, 176
-0.979145, 165, 305, 196, 368
-0.979203, 353, 41, 480, 104
-0.979265, 465, 161, 496, 288
-0.979276, 337, 201, 464, 264
-0.979366, 273, 49, 400, 112
-0.979411, 9, 153, 40, 216
-0.979483, 345, 249, 376, 312
-0.979579, 461, 49, 492, 176
-0.979607, 305, 1, 432, 64
-0.979631, 453, 145, 484, 272
-0.979662, 273, 241, 400, 304
-0.979672, 393, 241, 424, 304
-0.979675, 265, 121, 296, 184
-0.979678, 425, 81, 456, 208
-0.979684, 469, 185, 500, 248
-0.979696, 293, 185, 324, 248
-0.979703, 385, 289, 416, 352
-0.979722, 377, 225, 408, 352
-0.979759, 393, 97, 424, 224
-0.979825, 233, 9, 264, 72
-0.979829, 337, 225, 368, 288
-0.97985, 145, 65, 176, 128
-0.979854, 377, 233, 408, 296
-0.979855, 405, 113, 436, 240
-0.979864, 33, 81, 160, 144
-0.979866, 469, 313, 500, 375
-0.9799, 373, 129, 404, 256
-0.979932, 137, 209, 168, 336
-0.979933, 93, 257, 124, 320
-0.979934, 429, 129, 460, 256
-0.980066, 253, 177, 284, 304
-0.980186, 53, 193, 84, 320
-0.980276, 309, 209, 340, 336
-0.980317, 185, 225, 216, 352
-0.980335, 429, 241, 460, 368
-0.980337, 305, 1, 336, 128
-0.980347, 97, 1, 160, 375
-0.980364, 81, 1, 112, 128
-0.980395, 33, 297, 160, 360
-0.980396, 369, 257, 496, 320
-0.980455, 353, 17, 384, 144
-0.980575, 241, 1, 304, 375
-0.980663, 449, 97, 480, 224
-0.980705, 241, 17, 368, 80
-0.980753, 321, 153, 448, 216
-0.980823, 145, 17, 176, 144
-0.980894, 97, 265, 224, 328
-0.980923, 305, 105, 432, 168
-0.981027, 65, 49, 192, 112
-0.981062, 301, 65, 332, 192
-0.981077, 469, 97, 500, 224
-0.981079, 29, 241, 60, 368
-0.98113, 193, 1, 224, 128
-0.981197, 321, 177, 448, 240
-0.98128, 413, 225, 444, 352
-0.981304, 1, 241, 32, 368
-0.981358, 293, 17, 324, 144
-0.981401, 269, 241, 300, 368
-0.981414, 393, 1, 456, 375
-0.981464, 329, 129, 392, 375
-0.98159, 441, 1, 472, 128
-0.981607, 17, 49, 48, 176
-0.981614, 289, 25, 416, 88
-0.981652, 373, 1, 404, 128
-0.981782, 1, 257, 128, 320
-0.981913, 117, 129, 148, 256
-0.981962, 49, 105, 176, 168
-0.981964, 209, 241, 240, 368
-0.982025, 249, 33, 280, 160
-0.982047, 9, 1, 72, 375
-0.982055, 25, 193, 56, 320
-0.98206, 281, 129, 312, 256
-0.98221, 93, 97, 124, 224
-0.982212, 441, 145, 472, 272
-0.982331, 169, 225, 200, 352
-0.982417, 405, 17, 436, 144
-0.982422, 53, 241, 84, 368
-0.982462, 49, 273, 176, 336
-0.982491, 373, 81, 404, 208
-0.982516, 425, 33, 456, 160
-0.982609, 65, 97, 96, 224
-0.982626, 265, 65, 296, 192
-0.982669, 29, 97, 60, 224
-0.982671, 369, 17, 496, 80
-0.982691, 385, 33, 416, 160
-0.982746, 401, 225, 432, 352
-0.982853, 369, 1, 432, 256
-0.982868, 33, 1, 64, 128
-0.982955, 445, 193, 476, 320
-0.982958, 465, 225, 496, 352
-0.982964, 157, 1, 188, 128
-0.983056, 45, 65, 76, 192
-0.983116, 1, 193, 32, 320
-0.983152, 273, 1, 336, 375
-0.983275, 33, 1, 96, 256
-0.983295, 77, 209, 108, 336
-0.983298, 405, 177, 436, 304
-0.98337, 77, 161, 108, 288
-0.983421, 133, 1, 164, 128
-0.983468, 261, 1, 292, 128
-0.983507, 69, 1, 100, 128
-0.983576, 273, 137, 400, 200
-0.983614, 125, 177, 156, 304
-0.983765, 349, 65, 380, 192
-0.983823, 89, 49, 120, 176
-0.983831, 49, 25, 176, 88
-0.98415, 125, 241, 156, 368
-0.984215, 49, 129, 112, 375
-0.984306, 441, 241, 472, 368
-0.984438, 353, 161, 384, 288
-0.984667, 361, 129, 424, 375
-0.98505, 433, 1, 496, 375
-0.985801, 73, 1, 136, 375
-0.986093, 121, 1, 184, 375
-0.986668, 297, 1, 360, 375
-0.986723, 49, 1, 112, 375
-0.986958, 97, 209, 352, 272
-0.987051, 361, 1, 424, 375
-0.987373, 177, 97, 240, 128
-0.987441, 321, 1, 384, 375
-0.987504, 177, 197, 240, 228
-0.987518, 201, 137, 264, 168
-0.987592, 209, 149, 272, 180
-0.98766, 177, 153, 240, 184
-0.987662, 65, 169, 320, 232
-0.987762, 217, 253, 280, 284
-0.987845, 161, 213, 224, 244
-0.987876, 177, 65, 240, 96
-0.987954, 177, 77, 240, 108
-0.988009, 233, 153, 296, 184
-0.988227, 433, 81, 496, 112
-0.988249, 209, 161, 272, 192
-0.988269, 209, 217, 272, 248
-0.988302, 225, 137, 288, 168
-0.988413, 201, 81, 264, 112
-0.988436, 201, 97, 264, 128
-0.988542, 209, 241, 272, 272
-0.988547, 217, 313, 280, 344
-0.988595, 233, 265, 296, 296
-0.988596, 161, 185, 416, 248
-0.988667, 65, 121, 320, 184
-0.988701, 241, 165, 304, 196
-0.988707, 137, 305, 200, 336
-0.98871, 113, 161, 176, 192
-0.988753, 153, 201, 216, 232
-0.988754, 153, 149, 216, 180
-0.988756, 201, 173, 264, 204
-0.988758, 193, 257, 256, 288
-0.988794, 217, 109, 280, 140
-0.988844, 121, 149, 184, 180
-0.98885, 193, 185, 256, 216
-0.98885, 425, 97, 488, 128
-0.988871, 145, 85, 208, 116
-0.988898, 417, 289, 480, 320
-0.988901, 217, 125, 280, 156
-0.988908, 177, 165, 240, 196
-0.98891, 145, 161, 208, 192
-0.988985, 129, 193, 192, 224
-0.988987, 217, 185, 280, 216
-0.989009, 177, 241, 240, 272
-0.989016, 233, 229, 296, 260
-0.989023, 401, 93, 464, 124
-0.989035, 377, 57, 440, 88
-0.989035, 1, 177, 64, 208
-0.989048, 385, 309, 448, 340
-0.989056, 161, 225, 224, 256
-0.989072, 377, 81, 440, 112
-0.989075, 209, 197, 272, 228
-0.989077, 369, 261, 432, 292
-0.98911, 33, 185, 96, 216
-0.98914, 137, 229, 200, 260
-0.989163, 137, 73, 200, 104
-0.989198, 185, 221, 248, 252
-0.989219, 57, 93, 120, 124
-0.989262, 401, 269, 464, 300
-0.989266, 217, 301, 280, 332
-0.989272, 385, 161, 448, 192
-0.989276, 33, 81, 288, 144
-0.989286, 1, 73, 64, 104
-0.989293, 209, 325, 272, 356
-0.989295, 193, 305, 256, 336
-0.989311, 417, 305, 480, 336
-0.989313, 121, 173, 184, 204
-0.989335, 1, 193, 64, 224
-0.98937, 177, 141, 240, 172
-0.98937, 265, 165, 328, 196
-0.989371, 161, 185, 224, 216
-0.989413, 401, 73, 464, 104
-0.989418, 81, 229, 144, 260
-0.989453, 361, 317, 424, 348
-0.989459, 257, 149, 320, 180
-0.989461, 265, 249, 328, 280
-0.989464, 425, 157, 488, 188
-0.989469, 105, 129, 168, 160
-0.989477, 241, 117, 304, 148
-0.989487, 65, 145, 320, 208
-0.989501, 201, 57, 264, 88
-0.98952, 249, 341, 312, 372
-0.989535, 241, 313, 304, 344
-0.989538, 369, 273, 432, 304
-0.989542, 17, 153, 80, 184
-0.989552, 329, 309, 392, 340
-0.989556, 33, 233, 288, 296
-0.98956, 89, 161, 152, 192
-0.989569, 385, 241, 448, 272
-0.989611, 281, 221, 344, 252
-0.989629, 121, 9, 184, 40
-0.989629, 65, 121, 128, 152
-0.989637, 161, 161, 416, 224
-0.989645, 81, 197, 144, 228
-0.989658, 241, 185, 304, 216
-0.989665, 345, 249, 408, 280
-0.989691, 233, 201, 296, 232
-0.989715, 393, 173, 456, 204
-0.989725, 1, 145, 500, 208
-0.989738, 361, 121, 424, 152
-0.989741, 321, 221, 384, 252
-0.989743, 329, 265, 392, 296
-0.989754, 145, 97, 208, 128
-0.98976, 193, 105, 448, 168
-0.989774, 337, 109, 400, 140
-0.989775, 49, 173, 112, 204
-0.98978, 233, 217, 296, 248
-0.989781, 105, 101, 168, 132
-0.989799, 305, 269, 368, 300
-0.989808, 1, 193, 256, 256
-0.989812, 161, 17, 224, 48
-0.98982, 241, 85, 304, 116
-0.989823, 401, 61, 464, 92
-0.989828, 241, 249, 304, 280
-0.989833, 377, 289, 440, 320
-0.989852, 153, 241, 216, 272
-0.989853, 417, 177, 480, 208
-0.989856, 401, 129, 464, 160
-0.989859, 137, 317, 200, 348
-0.989862, 241, 97, 304, 128
-0.989864, 369, 345, 432, 375
-0.989876, 129, 241, 192, 272
-0.989877, 233, 325, 296, 356
-0.989885, 417, 141, 480, 172
-0.989894, 385, 329, 448, 360
-0.989915, 145, 57, 208, 88
-0.989917, 9, 141, 72, 172
-0.989923, 257, 221, 320, 252
-0.989924, 193, 113, 256, 144
-0.989934, 281, 181, 344, 212
-0.98994, 129, 205, 192, 236
-0.989942, 377, 69, 440, 100
-0.989953, 177, 321, 240, 352
-0.98996, 209, 229, 272, 260
-0.989968, 433, 109, 496, 140
-0.989979, 281, 345, 344, 375
-0.989984, 305, 37, 368, 68
-0.989986, 49, 237, 112, 268
-0.99, 193, 73, 448, 136
-0.990017, 89, 9, 152, 40
-0.990027, 97, 177, 160, 208
-0.990028, 9, 85, 72, 116
-0.99004, 281, 77, 344, 108
-0.990052, 281, 25, 344, 56
-0.990125, 193, 257, 448, 320
-0.990189, 193, 297, 448, 360
-0.990514, 97, 257, 352, 320
-0.990732, 161, 129, 416, 192
-0.991002, 1, 57, 256, 120
-0.991121, 65, 305, 320, 368
-0.99116, 161, 233, 416, 296
-0.991221, 1, 313, 500, 375
-0.991423, 129, 49, 384, 112
-0.991567, 257, 177, 500, 240
-0.991617, 257, 137, 500, 200
-0.991779, 1, 169, 500, 232
-0.991816, 229, 301, 260, 332
-0.991925, 213, 137, 244, 168
-0.991946, 193, 65, 224, 96
-0.99196, 185, 93, 216, 124
-0.991986, 209, 93, 240, 124
-0.992001, 229, 129, 260, 160
-0.992013, 245, 313, 276, 344
-0.992026, 205, 201, 236, 232
-0.99203, 177, 201, 208, 232
-0.992043, 237, 153, 268, 184
-0.992054, 205, 77, 236, 108
-0.992068, 197, 153, 228, 184
-0.992097, 1, 33, 500, 96
-0.992109, 221, 185, 252, 216
-0.992117, 249, 157, 280, 188
-0.992128, 33, 281, 288, 344
-0.992138, 217, 161, 248, 192
-0.992154, 201, 141, 232, 172
-0.992159, 217, 149, 248, 180
-0.992165, 209, 121, 240, 152
-0.992178, 193, 189, 224, 220
-0.992178, 203, 65, 218, 128
-0.992185, 145, 161, 176, 192
-0.992206, 245, 117, 276, 148
-0.992209, 217, 261, 248, 292
-0.992221, 177, 77, 208, 108
-0.992221, 211, 73, 226, 136
-0.992233, 241, 249, 272, 280
-0.992262, 209, 185, 240, 216
-0.992262, 197, 89, 228, 120
-0.992265, 205, 173, 236, 204
-0.992275, 225, 197, 256, 228
-0.992281, 241, 181, 272, 212
-0.992294, 197, 225, 228, 256
-0.992295, 105, 237, 136, 268
-0.992307, 85, 229, 116, 260
-0.992307, 229, 169, 260, 200
-0.992312, 461, 97, 492, 128
-0.992319, 209, 65, 240, 96
-0.99232, 389, 313, 420, 344
-0.992322, 237, 289, 268, 320
-0.992325, 221, 317, 252, 348
-0.992338, 1, 89, 500, 152
-0.992339, 89, 193, 120, 224
-0.992343, 397, 237, 428, 268
-0.992363, 217, 305, 248, 336
-0.992368, 189, 77, 220, 108
-0.992368, 221, 113, 252, 144
-0.992372, 145, 73, 176, 104
-0.992377, 397, 249, 428, 280
-0.99238, 225, 77, 256, 108
-0.992382, 237, 261, 268, 292
-0.992388, 233, 321, 264, 352
-0.992388, 133, 149, 164, 180
-0.992388, 145, 173, 176, 204
-0.992388, 197, 245, 228, 276
-0.99239, 237, 193, 268, 224
-0.992394, 197, 101, 228, 132
-0.992401, 37, 325, 68, 356
-0.992403, 285, 217, 316, 248
-0.99241, 409, 81, 440, 112
-0.992413, 109, 129, 140, 160
-0.992421, 1, 121, 500, 184
-0.992422, 413, 93, 444, 124
-0.992424, 165, 317, 196, 348
-0.992429, 457, 161, 488, 192
-0.992435, 217, 173, 248, 204
-0.992437, 425, 173, 456, 204
-0.992449, 257, 233, 500, 296
-0.992452, 225, 25, 480, 88
-0.992456, 41, 81, 72, 112
-0.992458, 245, 237, 276, 268
-0.992459, 469, 297, 500, 328
-0.992463, 165, 241, 196, 272
-0.992472, 417, 309, 448, 340
-0.992475, 185, 149, 216, 180
-0.992476, 129, 245, 160, 276
-0.992476, 221, 273, 252, 304
-0.992481, 269, 241, 300, 272
-0.992485, 133, 169, 164, 200
-0.992488, 117, 165, 148, 196
-0.992489, 17, 157, 48, 188
-0.992491, 145, 301, 176, 332
-0.992491, 195, 81, 210, 144
-0.992491, 417, 265, 448, 296
-0.992496, 129, 17, 384, 80
-0.992497, 445, 177, 476, 208
-0.992498, 93, 97, 124, 128
-0.992498, 465, 309, 496, 340
-0.992499, 405, 261, 436, 292
-0.992501, 425, 77, 456, 108
-0.992502, 293, 205, 324, 236
-0.992502, 101, 213, 132, 244
-0.992504, 157, 305, 188, 336
-0.992505, 41, 341, 72, 372
-0.992506, 237, 97, 268, 128
-0.992507, 193, 165, 224, 196
-0.992507, 165, 69, 196, 100
-0.992507, 181, 65, 212, 96
-0.99251, 217, 245, 248, 276
-0.992511, 469, 173, 500, 204
-0.992514, 253, 185, 284, 216
-0.992518, 269, 149, 300, 180
-0.992518, 241, 137, 272, 168
-0.992519, 405, 69, 436, 100
-0.992525, 457, 289, 488, 320
-0.992526, 469, 85, 500, 116
-0.992526, 165, 225, 196, 256
-0.99253, 441, 301, 472, 332
-0.99253, 49, 181, 80, 212
-0.992533, 409, 333, 440, 364
-0.992536, 405, 297, 436, 328
-0.992539, 409, 245, 440, 276
-0.99254, 209, 109, 240, 140
-0.992541, 219, 81, 234, 144
-0.992543, 253, 141, 284, 172
-0.992545, 337, 253, 368, 284
-0.992546, 93, 5, 124, 36
-0.992558, 357, 265, 388, 296
-0.99256, 25, 69, 56, 100
-0.992563, 5, 169, 36, 200
-0.992565, 217, 285, 248, 316
-0.992568, 453, 329, 484, 360
-0.992574, 117, 253, 148, 284
-0.992577, 245, 209, 276, 240
-0.992577, 145, 321, 176, 352
-0.992578, 405, 273, 436, 304
-0.992579, 169, 97, 200, 128
-0.992579, 229, 141, 260, 172
-0.992583, 269, 253, 300, 284
-0.992585, 117, 233, 148, 264
-0.992587, 213, 329, 244, 360
-0.992589, 105, 257, 136, 288
-0.992591, 285, 241, 316, 272
-0.992592, 209, 53, 240, 84
-0.992594, 169, 157, 200, 188
-0.992597, 17, 177, 48, 208
-0.992602, 369, 213, 400, 244
-0.992603, 425, 89, 456, 120
-0.992603, 97, 125, 128, 156
-0.992611, 113, 149, 144, 180
-0.992638, 1, 9, 500, 72
-0.992657, 1, 209, 500, 272
-0.992678, 177, 201, 304, 232
-0.99269, 189, 57, 204, 120
-0.992746, 145, 85, 272, 116
-0.992766, 145, 109, 272, 140
-0.992768, 113, 201, 240, 232
-0.992772, 209, 301, 336, 332
-0.99278, 231, 297, 246, 360
-0.99279, 177, 145, 304, 176
-0.992813, 161, 309, 288, 340
-0.992824, 221, 153, 236, 216
-0.992891, 161, 185, 288, 216
-0.99296, 257, 201, 500, 264
-0.992968, 239, 129, 254, 192
-0.993006, 1, 281, 500, 344
-0.99301, 113, 97, 240, 128
-0.993042, 237, 257, 252, 320
-0.993052, 237, 297, 252, 360
-0.993105, 213, 105, 228, 168
-0.993116, 193, 57, 320, 88
-0.99314, 215, 193, 230, 256
-0.99314, 337, 165, 464, 196
-0.993141, 161, 169, 288, 200
-0.993143, 129, 245, 256, 276
-0.993151, 113, 57, 240, 88
-0.993232, 215, 49, 230, 112
-0.993268, 189, 81, 204, 144
-0.993268, 1, 65, 500, 128
-0.993272, 129, 153, 256, 184
-0.993279, 429, 313, 444, 375
-0.993288, 113, 221, 240, 252
-0.993317, 81, 165, 208, 196
-0.993322, 227, 137, 242, 200
-0.993325, 113, 73, 240, 104
-0.993329, 1, 25, 256, 88
-0.993348, 177, 229, 304, 260
-0.993356, 203, 97, 218, 160
-0.993404, 207, 193, 222, 256
-0.993413, 251, 105, 266, 168
-0.99345, 241, 249, 368, 280
-0.993469, 1, 233, 500, 296
-0.993473, 263, 153, 278, 216
-0.993491, 215, 145, 230, 208
-0.993526, 183, 73, 198, 136
-0.993537, 259, 113, 274, 176
-0.993542, 193, 157, 320, 188
-0.993549, 195, 193, 210, 256
-0.993553, 159, 145, 174, 208
-0.993564, 193, 85, 320, 116
-0.993578, 225, 73, 240, 136
-0.993624, 369, 333, 496, 364
-0.993628, 177, 121, 304, 152
-0.99363, 193, 261, 320, 292
-0.993632, 113, 125, 240, 156
-0.9937, 257, 49, 500, 112
-0.99371, 255, 145, 270, 208
-0.993717, 213, 169, 228, 232
-0.993733, 133, 209, 148, 272
-0.993755, 177, 65, 192, 128
-0.993762, 17, 129, 144, 160
-0.993768, 231, 265, 246, 328
-0.993781, 113, 185, 240, 216
-0.993786, 209, 217, 224, 280
-0.993792, 233, 113, 248, 176
-0.993796, 247, 153, 262, 216
-0.993805, 49, 113, 176, 144
-0.993828, 225, 305, 240, 368
-0.993834, 247, 129, 262, 192
-0.993835, 185, 193, 200, 256
-0.993839, 353, 69, 480, 100
-0.99384, 81, 85, 208, 116
-0.993849, 177, 133, 304, 164
-0.993851, 33, 1, 288, 64
-0.993854, 239, 73, 254, 136
-0.993868, 145, 257, 272, 288
-0.993872, 17, 185, 144, 216
-0.993894, 193, 249, 320, 280
-0.993909, 289, 229, 416, 260
-0.993909, 177, 97, 304, 128
-0.993941, 201, 201, 216, 264
-0.993947, 225, 281, 352, 312
-0.993948, 229, 49, 244, 112
-0.993959, 169, 169, 184, 232
-0.993961, 197, 57, 212, 120
-0.993966, 207, 121, 222, 184
-0.993984, 439, 289, 454, 352
-0.993992, 377, 313, 392, 375
-0.993995, 123, 209, 138, 272
-0.993997, 337, 317, 464, 348
-0.994002, 233, 153, 248, 216
-0.994041, 453, 177, 468, 240
-0.994048, 59, 177, 74, 240
-0.994048, 133, 233, 148, 296
-0.99405, 243, 249, 258, 312
-0.994052, 33, 141, 160, 172
-0.994062, 221, 129, 236, 192
-0.994075, 193, 69, 320, 100
-0.994103, 209, 49, 224, 112
-0.994107, 281, 249, 296, 312
-0.994107, 161, 297, 288, 328
-0.994128, 337, 177, 464, 208
-0.994131, 421, 305, 436, 368
-0.994134, 429, 265, 444, 328
-0.994137, 465, 305, 480, 368
-0.994167, 215, 217, 230, 280
-0.99417, 171, 57, 186, 120
-0.994195, 101, 193, 116, 256
-0.994198, 193, 213, 320, 244
-0.994207, 311, 209, 326, 272
-0.994211, 165, 49, 180, 112
-0.994212, 113, 233, 240, 264
-0.994215, 245, 177, 260, 240
-0.994244, 447, 153, 462, 216
-0.994256, 259, 241, 274, 304
-0.994259, 451, 41, 466, 104
-0.99426, 207, 145, 222, 208
-0.994271, 97, 321, 224, 352
-0.994294, 197, 161, 212, 224
-0.994295, 81, 253, 208, 284
-0.994301, 297, 209, 312, 272
-0.994305, 289, 161, 416, 192
-0.994306, 291, 209, 306, 272
-0.994327, 97, 305, 224, 336
-0.99433, 241, 157, 368, 188
-0.994352, 97, 113, 224, 144
-0.994353, 429, 137, 444, 200
-0.994356, 321, 273, 448, 304
-0.994371, 221, 177, 236, 240
-0.994381, 113, 45, 240, 76
-0.994408, 415, 73, 430, 136
-0.99441, 465, 273, 480, 336
-0.994414, 353, 85, 480, 116
-0.994424, 1, 93, 128, 124
-0.994424, 225, 233, 352, 264
-0.994434, 257, 217, 384, 248
-0.99445, 147, 153, 162, 216
-0.994474, 209, 169, 336, 200
-0.99448, 337, 241, 464, 272
-0.994489, 289, 241, 304, 304
-0.994514, 389, 169, 404, 232
-0.994521, 159, 49, 174, 112
-0.99453, 257, 173, 384, 204
-0.994531, 273, 57, 400, 88
-0.994535, 39, 193, 54, 256
-0.994541, 81, 149, 208, 180
-0.994544, 209, 189, 336, 220
-0.994545, 179, 193, 194, 256
-0.994556, 471, 289, 486, 352
-0.994557, 273, 273, 400, 304
-0.994558, 249, 225, 264, 288
-0.994558, 225, 145, 352, 176
-0.994564, 435, 313, 450, 375
-0.994573, 321, 57, 448, 88
-0.994581, 1, 109, 128, 140
-0.994594, 89, 193, 104, 256
-0.994597, 65, 129, 192, 160
-0.994601, 279, 169, 294, 232
-0.994617, 239, 153, 254, 216
-0.99462, 167, 17, 182, 80
-0.994629, 49, 217, 64, 280
-0.994631, 431, 289, 446, 352
-0.994651, 17, 157, 144, 188
-0.994656, 231, 89, 246, 152
-0.994657, 77, 177, 92, 240
-0.994657, 65, 205, 192, 236
-0.994658, 369, 345, 496, 375
-0.994693, 193, 321, 320, 352
-0.994694, 49, 97, 176, 128
-0.994697, 321, 345, 448, 375
-0.994697, 223, 49, 238, 112
-0.9947, 205, 169, 220, 232
-0.994711, 273, 77, 400, 108
-0.994711, 67, 209, 82, 272
-0.994715, 257, 345, 384, 375
-0.994717, 255, 169, 270, 232
-0.994718, 105, 129, 120, 192
-0.994722, 161, 73, 176, 136
-0.994723, 443, 257, 458, 320
-0.994734, 321, 33, 336, 96
-0.994742, 19, 161, 34, 224
-0.994747, 119, 129, 134, 192
-0.994751, 221, 201, 236, 264
-0.994752, 143, 241, 158, 304
-0.994756, 281, 225, 296, 288
-0.994764, 273, 145, 288, 208
-0.994777, 393, 313, 408, 375
-0.994778, 459, 65, 474, 128
-0.99478, 225, 101, 352, 132
-0.99478, 257, 185, 384, 216
-0.994786, 419, 121, 434, 184
-0.99479, 227, 161, 242, 224
-0.99479, 127, 233, 142, 296
-0.994798, 197, 97, 228, 352
-0.994802, 453, 137, 468, 200
-0.994819, 1, 257, 256, 320
-0.994826, 129, 129, 144, 192
-0.994834, 255, 201, 270, 264
-0.994836, 137, 153, 152, 216
-0.994841, 243, 273, 258, 336
-0.994848, 113, 137, 240, 168
-0.99485, 33, 237, 160, 268
-0.994861, 369, 305, 496, 336
-0.994868, 1, 197, 128, 228
-0.994871, 17, 1, 144, 32
-0.994875, 1, 161, 16, 224
-0.994883, 403, 153, 418, 216
-0.99489, 317, 185, 332, 248
-0.994891, 95, 169, 110, 232
-0.994894, 33, 169, 48, 232
-0.994895, 143, 129, 158, 192
-0.994901, 161, 341, 288, 372
-0.994902, 173, 193, 188, 256
-0.994902, 223, 105, 238, 168
-0.99492, 405, 313, 420, 375
-0.994929, 453, 257, 468, 320
-0.994929, 217, 97, 248, 352
-0.994929, 173, 1, 188, 64
-0.994931, 225, 1, 240, 64
-0.994934, 245, 105, 260, 168
-0.994941, 479, 313, 494, 375
-0.99495, 191, 161, 206, 224
-0.994991, 65, 41, 192, 72
-0.994992, 225, 201, 352, 232
-0.995004, 321, 329, 448, 360
-0.995054, 49, 301, 176, 332
-0.995061, 273, 261, 400, 292
-0.995073, 353, 97, 480, 128
-0.995105, 65, 193, 192, 224
-0.995118, 65, 225, 192, 256
-0.995124, 33, 249, 160, 280
-0.995129, 193, 45, 320, 76
-0.99516, 337, 189, 464, 220
-0.995181, 369, 109, 496, 140
-0.995184, 225, 133, 352, 164
-0.995188, 33, 53, 160, 84
-0.995195, 113, 33, 240, 64
-0.995206, 273, 325, 400, 356
-0.995215, 289, 1, 416, 32
-0.995233, 209, 345, 336, 375
-0.995244, 225, 117, 352, 148
-0.995269, 17, 341, 144, 372
-0.995272, 305, 89, 432, 120
-0.995281, 305, 149, 432, 180
-0.995281, 209, 1, 336, 32
-0.995295, 369, 149, 496, 180
-0.995313, 17, 169, 144, 200
-0.995321, 165, 65, 196, 320
-0.995329, 33, 65, 160, 96
-0.995337, 321, 25, 448, 56
-0.995355, 337, 121, 464, 152
-0.995356, 257, 305, 384, 336
-0.995361, 245, 65, 276, 320
-0.995379, 81, 1, 208, 32
-0.995423, 369, 273, 496, 304
-0.995427, 289, 205, 416, 236
-0.995443, 273, 25, 400, 56
-0.995443, 185, 65, 216, 320
-0.995454, 273, 41, 400, 72
-0.995466, 145, 285, 272, 316
-0.995486, 337, 213, 464, 244
-0.995486, 65, 341, 192, 372
-0.995508, 225, 17, 352, 48
-0.995509, 81, 21, 208, 52
-0.99553, 337, 285, 464, 316
-0.995534, 225, 1, 480, 64
-0.995538, 17, 329, 144, 360
-0.995539, 1, 81, 128, 112
-0.995545, 369, 225, 496, 256
-0.995547, 337, 137, 464, 168
-0.995583, 81, 269, 208, 300
-0.995595, 353, 45, 480, 76
-0.995789, 201, 1, 232, 256
-0.995812, 145, 129, 176, 375
-0.995859, 265, 97, 296, 352
-0.99593, 229, 129, 260, 375
-0.996001, 137, 33, 168, 288
-0.9962, 129, 129, 160, 375
-0.996206, 121, 1, 152, 256
-0.996349, 189, 89, 204, 120
-0.996366, 219, 73, 234, 104
-0.996404, 195, 93, 210, 124
-0.996413, 213, 85, 228, 116
-0.996425, 153, 33, 184, 288
-0.996538, 213, 69, 228, 100
-0.99654, 223, 85, 238, 116
-0.996545, 233, 305, 248, 336
-0.996549, 205, 97, 220, 128
-0.996559, 229, 1, 260, 256
-0.996571, 89, 1, 120, 256
-0.996639, 231, 321, 246, 352
-0.99671, 49, 97, 80, 352
-0.996722, 213, 1, 244, 256
-0.996737, 265, 1, 296, 256
-0.996748, 277, 1, 308, 256
-0.996773, 229, 149, 244, 180
-0.99678, 207, 85, 222, 116
-0.996789, 345, 65, 376, 320
-0.996796, 77, 97, 108, 352
-0.996797, 239, 297, 254, 328
-0.996847, 221, 157, 236, 188
-0.996855, 225, 137, 240, 168
-0.996879, 187, 77, 202, 108
-0.996934, 277, 129, 308, 375
-0.99696, 237, 317, 252, 348
-0.996976, 203, 69, 218, 100
-0.996982, 105, 97, 136, 352
-0.996984, 357, 1, 388, 256
-0.996985, 251, 153, 266, 184
-0.996996, 449, 1, 480, 256
-0.997035, 215, 97, 230, 128
-0.997046, 9, 65, 40, 320
-0.997049, 199, 105, 214, 136
-0.997064, 373, 33, 404, 288
-0.997069, 247, 193, 262, 224
-0.997086, 213, 189, 228, 220
-0.9971, 239, 261, 254, 292
-0.997104, 159, 153, 174, 184
-0.997113, 417, 77, 432, 108
-0.997118, 233, 265, 248, 296
-0.997131, 211, 153, 226, 184
-0.997132, 231, 169, 246, 200
-0.997143, 231, 105, 246, 136
-0.997144, 217, 169, 232, 200
-0.997147, 203, 193, 218, 224
-0.997149, 237, 153, 252, 184
-0.997151, 265, 153, 280, 184
-0.997153, 61, 97, 92, 352
-0.997157, 233, 333, 248, 364
-0.997165, 143, 241, 158, 272
-0.997166, 243, 177, 258, 208
-0.997172, 219, 145, 234, 176
-0.997175, 223, 181, 238, 212
-0.997181, 257, 145, 272, 176
-0.997183, 393, 313, 408, 344
-0.9972, 241, 285, 256, 316
-0.997206, 205, 141, 220, 172
-0.997216, 105, 229, 120, 260
-0.997227, 183, 201, 198, 232
-0.997233, 221, 97, 236, 128
-0.997235, 201, 153, 216, 184
-0.997239, 183, 89, 198, 120
-0.997244, 205, 245, 220, 276
-0.997254, 249, 345, 264, 375
-0.997255, 243, 313, 258, 344
-0.997255, 471, 101, 486, 132
-0.997256, 1, 257, 500, 320
-0.997262, 159, 165, 174, 196
-0.997263, 247, 241, 262, 272
-0.997263, 185, 157, 200, 188
-0.997264, 181, 77, 196, 108
-0.997274, 201, 85, 216, 116
-0.997279, 481, 85, 496, 116
-0.997279, 233, 293, 248, 324
-0.997291, 259, 249, 274, 280
-0.997292, 225, 325, 240, 356
-0.997294, 189, 101, 204, 132
-0.997294, 449, 129, 480, 375
-0.997306, 273, 169, 288, 200
-0.997308, 241, 137, 256, 168
-0.997316, 249, 313, 264, 344
-0.99732, 211, 241, 226, 272
-0.997324, 187, 65, 202, 96
-0.997327, 225, 73, 240, 104
-0.997337, 279, 233, 294, 264
-0.997342, 411, 333, 426, 364
-0.997343, 417, 261, 432, 292
-0.997345, 193, 69, 208, 100
-0.99735, 183, 101, 198, 132
-0.997351, 455, 177, 470, 208
-0.997352, 61, 89, 76, 120
-0.997353, 233, 125, 248, 156
-0.997355, 443, 269, 458, 300
-0.997358, 257, 161, 272, 192
-0.997359, 211, 229, 226, 260
-0.997361, 227, 305, 242, 336
-0.997362, 217, 205, 232, 236
-0.997367, 227, 261, 242, 292
-0.99737, 49, 185, 64, 216
-0.997374, 119, 161, 134, 192
-0.997376, 429, 65, 460, 320
-0.997379, 251, 141, 266, 172
-0.99738, 465, 65, 496, 320
-0.997387, 45, 169, 60, 200
-0.997392, 251, 217, 266, 248
-0.997394, 481, 105, 496, 136
-0.99741, 153, 153, 168, 184
-0.997412, 475, 85, 490, 116
-0.997415, 279, 173, 294, 204
-0.997423, 177, 201, 192, 232
-0.997424, 421, 333, 436, 364
-0.997436, 221, 341, 236, 372
-0.997438, 223, 121, 238, 152
-0.997449, 257, 233, 272, 264
-0.99745, 309, 225, 324, 256
-0.997459, 217, 329, 232, 360
-0.997459, 29, 1, 60, 256
-0.997459, 35, 181, 50, 212
-0.997462, 401, 321, 416, 352
-0.997462, 53, 173, 68, 204
-0.997463, 405, 1, 436, 256
-0.99747, 161, 85, 176, 116
-0.99747, 425, 161, 440, 192
-0.997478, 373, 313, 388, 344
-0.997479, 421, 273, 436, 304
-0.997483, 121, 145, 136, 176
-0.997484, 131, 133, 146, 164
-0.99749, 97, 233, 112, 264
-0.997496, 135, 237, 150, 268
-0.997496, 129, 165, 144, 196
-0.997497, 195, 149, 210, 180
-0.997497, 217, 221, 232, 252
-0.997497, 211, 141, 226, 172
-0.997497, 425, 309, 440, 340
-0.997498, 429, 329, 444, 360
-0.997505, 69, 141, 84, 172
-0.997506, 437, 177, 452, 208
-0.997508, 483, 297, 498, 328
-0.997509, 135, 25, 150, 56
-0.997509, 269, 249, 284, 280
-0.997514, 41, 181, 56, 212
-0.997514, 105, 125, 120, 156
-0.997515, 151, 93, 166, 124
-0.997523, 207, 205, 222, 236
-0.997524, 263, 121, 278, 152
-0.997526, 117, 97, 148, 352
-0.997527, 379, 321, 394, 352
-0.997532, 477, 301, 492, 332
-0.997533, 255, 313, 270, 344
-0.997537, 431, 93, 446, 124
-0.997538, 247, 229, 262, 260
-0.997539, 89, 97, 120, 352
-0.997547, 209, 57, 224, 88
-0.997564, 397, 97, 428, 352
-0.997581, 41, 1, 72, 256
-0.997586, 365, 129, 396, 375
-0.997661, 417, 1, 448, 256
-0.99767, 417, 129, 448, 375
-0.997718, 33, 97, 64, 352
-0.997785, 57, 1, 88, 256
-0.9978, 333, 1, 364, 256
-0.997884, 293, 1, 324, 256
-0.997937, 297, 97, 328, 352
-0.997944, 73, 1, 104, 256
-0.997962, 21, 97, 52, 352
-0.997978, 109, 1, 140, 256
-0.998009, 385, 65, 416, 320
-0.998115, 317, 65, 348, 320
-0.998245, 329, 97, 360, 352
-0.998334, 219, 65, 234, 192
-0.99836, 217, 151, 280, 166
-0.998367, 185, 77, 248, 92
-0.998368, 185, 153, 248, 168
-0.998374, 169, 91, 232, 106
-0.998377, 237, 241, 252, 368
-0.998377, 177, 69, 240, 84
-0.998382, 207, 49, 222, 176
-0.998383, 233, 255, 296, 270
-0.998384, 121, 159, 184, 174
-0.998384, 177, 197, 240, 212
-0.998384, 177, 203, 240, 218
-0.998389, 217, 163, 280, 178
-0.998396, 161, 165, 224, 180
-0.998402, 233, 263, 296, 278
-0.998403, 209, 229, 272, 244
-0.998409, 225, 157, 288, 172
-0.998409, 145, 159, 208, 174
-0.998412, 185, 161, 248, 176
-0.998412, 185, 99, 248, 114
-0.998418, 233, 297, 296, 312
-0.998418, 121, 165, 184, 180
-0.99842, 201, 93, 264, 108
-0.998421, 209, 223, 272, 238
-0.998421, 161, 221, 224, 236
-0.998422, 257, 249, 320, 264
-0.998424, 241, 151, 304, 166
-0.998424, 217, 323, 280, 338
-0.998425, 217, 195, 280, 210
-0.998427, 233, 249, 296, 264
-0.998428, 225, 315, 288, 330
-0.998429, 161, 75, 224, 90
-0.99843, 145, 97, 208, 112
-0.998432, 213, 49, 228, 176
-0.998433, 201, 139, 264, 154
-0.998433, 257, 97, 272, 224
-0.998434, 217, 145, 280, 160
-0.998437, 201, 259, 264, 274
-0.998437, 209, 237, 272, 252
-0.998438, 233, 201, 296, 216
-0.998439, 217, 187, 280, 202
-0.998439, 193, 169, 256, 184
-0.99844, 145, 83, 208, 98
-0.998441, 217, 177, 280, 192
-0.998442, 153, 151, 216, 166
-0.998442, 385, 165, 448, 180
-0.998443, 177, 105, 240, 120
-0.998443, 289, 253, 352, 268
-0.998446, 161, 227, 224, 242
-0.998446, 185, 147, 248, 162
-0.998446, 97, 243, 160, 258
-0.998446, 137, 73, 200, 88
-0.998448, 193, 217, 256, 232
-0.998448, 233, 273, 296, 288
-0.998449, 193, 191, 256, 206
-0.998449, 161, 191, 224, 206
-0.99845, 41, 345, 104, 360
-0.99845, 265, 265, 328, 280
-0.998452, 217, 115, 280, 130
-0.998453, 161, 215, 224, 230
-0.998454, 425, 95, 488, 110
-0.998454, 217, 131, 280, 146
-0.998454, 265, 223, 328, 238
-0.998457, 409, 301, 472, 316
-0.998459, 217, 171, 280, 186
-0.99846, 377, 93, 440, 108
-0.998461, 409, 133, 472, 148
-0.998461, 105, 171, 168, 186
-0.998462, 433, 163, 496, 178
-0.998462, 417, 287, 480, 302
-0.998463, 417, 307, 480, 322
-0.998463, 201, 83, 264, 98
-0.998463, 169, 237, 232, 252
-0.998464, 105, 135, 168, 150
-0.998465, 233, 221, 296, 236
-0.998466, 385, 283, 448, 298
-0.998466, 121, 243, 184, 258
-0.998466, 73, 241, 136, 256
-0.998467, 25, 135, 88, 150
-0.998467, 433, 101, 496, 116
-0.998468, 177, 317, 240, 332
-0.998468, 369, 277, 432, 292
-0.998468, 193, 49, 208, 176
-0.998468, 193, 253, 256, 268
-0.998469, 329, 261, 392, 276
-0.99847, 137, 67, 200, 82
-0.99847, 233, 227, 296, 242
-0.99847, 401, 81, 464, 96
-0.998471, 49, 133, 112, 148
-0.998472, 137, 203, 200, 218
-0.998472, 201, 125, 264, 140
-0.998472, 257, 213, 320, 228
-0.998473, 209, 243, 272, 258
-0.998473, 225, 65, 240, 192
-0.998473, 177, 111, 240, 126
-0.998474, 377, 87, 440, 102
-0.998475, 233, 239, 296, 254
-0.998475, 281, 191, 344, 206
-0.998476, 257, 259, 320, 274
-0.998477, 329, 357, 392, 372
-0.998479, 377, 351, 440, 366
-0.99848, 161, 63, 224, 78
-0.998481, 225, 139, 288, 154
-0.998482, 153, 209, 216, 224
-0.998483, 249, 157, 312, 172
-0.998483, 433, 299, 496, 314
-0.998483, 433, 351, 496, 366
-0.998483, 137, 323, 200, 338
-0.998484, 417, 89, 480, 104
-0.998484, 89, 235, 152, 250
-0.998484, 153, 243, 216, 258
-0.998485, 369, 271, 432, 286
-0.998487, 145, 111, 208, 126
-0.998488, 241, 95, 304, 110
-0.998489, 97, 257, 160, 272
-0.998489, 177, 83, 240, 98
-0.998489, 233, 215, 296, 230
-0.998489, 377, 159, 440, 174
-0.998489, 157, 129, 172, 256
-0.99849, 89, 163, 152, 178
-0.998491, 401, 171, 464, 186
-0.998493, 305, 219, 368, 234
-0.998493, 209, 201, 272, 216
-0.998493, 425, 83, 488, 98
-0.998493, 161, 171, 224, 186
-0.998493, 121, 237, 184, 252
-0.998494, 409, 103, 472, 118
-0.998494, 25, 153, 88, 168
-0.998494, 241, 195, 304, 210
-0.998495, 231, 97, 246, 224
-0.998495, 193, 211, 256, 226
-0.998495, 361, 131, 424, 146
-0.998495, 41, 187, 104, 202
-0.998496, 409, 177, 472, 192
-0.998496, 385, 251, 448, 266
-0.998496, 393, 75, 456, 90
-0.998496, 409, 161, 472, 176
-0.998497, 241, 123, 304, 138
-0.998498, 65, 351, 128, 366
-0.998506, 215, 145, 230, 272
-0.99852, 247, 113, 262, 240
-0.998522, 165, 203, 196, 218
-0.998522, 225, 359, 256, 374
-0.998522, 113, 233, 144, 248
-0.998524, 189, 225, 220, 240
-0.998524, 237, 251, 268, 266
-0.998524, 405, 75, 436, 90
-0.998525, 49, 91, 80, 106
-0.998526, 41, 357, 72, 372
-0.998526, 393, 131, 424, 146
-0.998526, 241, 181, 272, 196
-0.998527, 437, 303, 468, 318
-0.998528, 245, 119, 276, 134
-0.998528, 177, 209, 208, 224
-0.998528, 309, 217, 340, 232
-0.998529, 41, 349, 72, 364
-0.998529, 169, 95, 200, 110
-0.99853, 117, 255, 148, 270
-0.99853, 353, 53, 384, 68
-0.998531, 213, 329, 244, 344
-0.998532, 225, 257, 256, 272
-0.998532, 237, 359, 268, 374
-0.998532, 49, 5, 80, 20
-0.998532, 225, 309, 256, 324
-0.998532, 197, 259, 228, 274
-0.998534, 205, 67, 236, 82
-0.998534, 465, 111, 496, 126
-0.998536, 25, 175, 56, 190
-0.998536, 233, 161, 264, 176
-0.998536, 97, 233, 128, 248
-0.998536, 273, 331, 304, 346
-0.998538, 209, 89, 240, 104
-0.998539, 173, 73, 204, 88
-0.99854, 89, 225, 120, 240
-0.99854, 193, 231, 224, 246
-0.99854, 93, 243, 124, 258
-0.99854, 381, 321, 412, 336
-0.998541, 221, 187, 252, 202
-0.998541, 141, 319, 172, 334
-0.998541, 41, 189, 72, 204
-0.998542, 117, 169, 148, 184
-0.998542, 245, 229, 276, 244
-0.998542, 345, 261, 376, 276
-0.998542, 249, 157, 280, 172
-0.998542, 173, 85, 204, 100
-0.998542, 453, 181, 484, 196
-0.998542, 81, 203, 112, 218
-0.998542, 237, 113, 252, 240
-0.998543, 465, 189, 496, 204
-0.998543, 225, 263, 256, 278
-0.998545, 237, 241, 268, 256
-0.998545, 197, 111, 228, 126
-0.998545, 189, 253, 220, 268
-0.998545, 221, 163, 252, 178
-0.998546, 185, 105, 216, 120
-0.998547, 249, 241, 280, 256
-0.998547, 225, 301, 256, 316
-0.998547, 237, 257, 268, 272
-0.998548, 229, 129, 260, 144
-0.998548, 117, 239, 148, 254
-0.998548, 229, 119, 260, 134
-0.998548, 421, 299, 452, 314
-0.998549, 5, 169, 36, 184
-0.998549, 209, 261, 240, 276
-0.998549, 189, 161, 220, 176
-0.99855, 197, 201, 228, 216
-0.998553, 417, 279, 448, 294
-0.998554, 145, 177, 176, 192
-0.998554, 137, 157, 168, 172
-0.998557, 229, 175, 260, 190
-0.998558, 209, 125, 240, 140
-0.998559, 25, 351, 56, 366
-0.998559, 221, 195, 252, 210
-0.998559, 165, 317, 196, 332
-0.99856, 129, 241, 160, 256
-0.99856, 41, 203, 72, 218
-0.998561, 153, 155, 184, 170
-0.998562, 201, 65, 216, 192
-0.998562, 197, 101, 228, 116
-0.998564, 289, 219, 320, 234
-0.998564, 85, 235, 116, 250
-0.998565, 253, 207, 284, 222
-0.998567, 421, 73, 452, 88
-0.998571, 201, 145, 216, 272
-0.998571, 129, 149, 160, 164
-0.998573, 209, 139, 240, 154
-0.998574, 195, 161, 210, 288
-0.998575, 241, 187, 272, 202
-0.998576, 225, 325, 256, 340
-0.998577, 209, 95, 240, 110
-0.998578, 237, 113, 268, 128
-0.998578, 225, 169, 256, 184
-0.998579, 265, 245, 296, 260
-0.99858, 201, 155, 232, 170
-0.998582, 457, 103, 488, 118
-0.998582, 247, 177, 262, 304
-0.998583, 149, 165, 180, 180
-0.998583, 225, 181, 256, 196
-0.998585, 397, 283, 428, 298
-0.998586, 105, 243, 136, 258
-0.998587, 93, 97, 124, 112
-0.998589, 229, 315, 260, 330
-0.99859, 127, 1, 142, 128
-0.99859, 249, 149, 280, 164
-0.998591, 209, 119, 240, 134
-0.998592, 245, 323, 276, 338
-0.998592, 181, 91, 212, 106
-0.998593, 209, 175, 240, 190
-0.998596, 197, 167, 228, 182
-0.9986, 405, 81, 436, 96
-0.998602, 229, 135, 260, 150
-0.998605, 193, 89, 224, 104
-0.998607, 217, 113, 248, 128
-0.998609, 241, 317, 272, 332
-0.998611, 269, 257, 300, 272
-0.998612, 205, 73, 236, 88
-0.998613, 245, 201, 276, 216
-0.998614, 201, 145, 232, 160
-0.998615, 177, 203, 208, 218
-0.998616, 465, 95, 496, 110
-0.998616, 209, 161, 240, 176
-0.998619, 209, 83, 240, 98
-0.998619, 249, 251, 280, 266
-0.998621, 141, 325, 172, 340
-0.998625, 193, 73, 224, 88
-0.998625, 225, 201, 256, 216
-0.998626, 189, 79, 220, 94
-0.998632, 193, 195, 224, 210
-0.998637, 205, 193, 220, 320
-0.998646, 245, 163, 276, 178
-0.998648, 469, 105, 500, 120
-0.998654, 217, 151, 248, 166
-0.998661, 237, 297, 268, 312
-0.998661, 237, 155, 268, 170
-0.998662, 211, 193, 226, 320
-0.998665, 241, 193, 272, 208
-0.998667, 165, 161, 180, 288
-0.998668, 197, 95, 228, 110
-0.998674, 179, 177, 194, 304
-0.998675, 53, 209, 68, 336
-0.998684, 221, 129, 236, 256
-0.998688, 211, 97, 226, 224
-0.998688, 185, 99, 216, 114
-0.998689, 209, 145, 224, 272
-0.998689, 237, 161, 252, 288
-0.998694, 185, 161, 200, 288
-0.998694, 305, 1, 336, 256
-0.998709, 193, 67, 224, 82
-0.998716, 265, 113, 280, 240
-0.998735, 187, 49, 202, 176
-0.998736, 243, 225, 258, 352
-0.998742, 149, 97, 164, 224
-0.998747, 217, 193, 232, 320
-0.99875, 259, 225, 274, 352
-0.998751, 399, 97, 414, 224
-0.998753, 215, 1, 230, 128
-0.998759, 297, 193, 312, 320
-0.998769, 257, 177, 272, 304
-0.998779, 291, 161, 306, 288
-0.998785, 243, 33, 258, 160
-0.998789, 231, 241, 246, 368
-0.99879, 209, 1, 224, 128
-0.998795, 161, 81, 176, 208
-0.998798, 171, 161, 186, 288
-0.998799, 137, 1, 152, 128
-0.998806, 165, 209, 180, 336
-0.99881, 237, 1, 252, 128
-0.998824, 169, 1, 184, 128
-0.998827, 343, 209, 358, 336
-0.998842, 201, 1, 216, 128
-0.998842, 279, 241, 294, 368
-0.99885, 23, 145, 38, 272
-0.998851, 303, 161, 318, 288
-0.998852, 153, 209, 168, 336
-0.998854, 251, 49, 266, 176
-0.998855, 367, 209, 382, 336
-0.998856, 13, 241, 28, 368
-0.998859, 349, 65, 364, 192
-0.998861, 47, 193, 62, 320
-0.998867, 63, 241, 78, 368
-0.998869, 231, 1, 246, 128
-0.998869, 221, 17, 236, 144
-0.99887, 311, 193, 326, 320
-0.998873, 121, 209, 136, 336
-0.998882, 237, 65, 252, 192
-0.998885, 151, 49, 166, 176
-0.998893, 279, 145, 294, 272
-0.998893, 253, 241, 268, 368
-0.998896, 285, 177, 300, 304
-0.998897, 271, 177, 286, 304
-0.998899, 171, 209, 186, 336
-0.998899, 323, 65, 338, 192
-0.998904, 187, 1, 202, 128
-0.998908, 333, 209, 348, 336
-0.99891, 29, 113, 44, 240
-0.99891, 175, 1, 190, 128
-0.998911, 315, 1, 330, 128
-0.998913, 89, 1, 104, 128
-0.998913, 167, 97, 182, 224
-0.998916, 57, 161, 72, 288
-0.998924, 227, 145, 242, 272
-0.99893, 105, 1, 120, 128
-0.998934, 107, 225, 122, 352
-0.998936, 389, 129, 404, 256
-0.998948, 223, 193, 238, 320
-0.998957, 195, 97, 210, 224
-0.998958, 81, 209, 96, 336
-0.998964, 389, 177, 404, 304
-0.998965, 121, 1, 136, 128
-0.998966, 113, 209, 128, 336
-0.998968, 143, 113, 158, 240
-0.998971, 181, 17, 196, 144
-0.998972, 431, 1, 446, 128
-0.998973, 139, 49, 154, 176
-0.998974, 265, 161, 280, 288
-0.998975, 323, 1, 338, 128
-0.998977, 257, 49, 272, 176
-0.998979, 171, 49, 186, 176
-0.998979, 83, 1, 98, 128
-0.998986, 311, 49, 326, 176
-0.998987, 193, 1, 208, 128
-0.998987, 389, 65, 404, 192
-0.998989, 197, 209, 212, 336
-0.99899, 231, 49, 246, 176
-0.99899, 161, 33, 176, 160
-0.998992, 323, 177, 338, 304
-0.998997, 13, 161, 28, 288
-0.999004, 61, 65, 76, 192
-0.999004, 467, 145, 482, 272
-0.999007, 443, 1, 458, 128
-0.999008, 435, 81, 450, 208
-0.999009, 407, 113, 422, 240
-0.99901, 91, 209, 106, 336
-0.999011, 317, 65, 332, 192
-0.999015, 399, 241, 414, 368
-0.999017, 297, 145, 312, 272
-0.999018, 113, 1, 128, 128
-0.99902, 187, 225, 202, 352
-0.99902, 353, 225, 368, 352
-0.999024, 159, 225, 174, 352
-0.999024, 129, 241, 144, 368
-0.999025, 309, 1, 324, 128
-0.999027, 111, 81, 126, 208
-0.999028, 43, 241, 58, 368
-0.999028, 25, 49, 40, 176
-0.999028, 35, 145, 50, 272
-0.999028, 443, 145, 458, 272
-0.99903, 443, 241, 458, 368
-0.99903, 389, 1, 404, 128
-0.999034, 101, 209, 116, 336
-0.999035, 287, 225, 302, 352
-0.999688, 93, 197, 108, 212
-0.999688, 255, 315, 270, 330
-0.999688, 349, 269, 364, 284
-0.999688, 257, 185, 272, 200
-0.999689, 247, 293, 262, 308
-0.999689, 243, 175, 258, 190
-0.999689, 461, 109, 476, 124
-0.999689, 185, 201, 200, 216
-0.999689, 105, 255, 120, 270
-0.99969, 15, 167, 30, 182
-0.999691, 225, 83, 240, 98
-0.999691, 147, 157, 162, 172
-0.999691, 3, 173, 18, 188
-0.999692, 147, 63, 162, 78
-0.999692, 401, 323, 416, 338
-0.999692, 23, 139, 38, 154
-0.999692, 141, 265, 156, 280
-0.999693, 157, 319, 172, 334
-0.999693, 195, 195, 210, 210
-0.999694, 217, 147, 232, 162
-0.999694, 175, 313, 190, 328
-0.999694, 177, 75, 192, 90
-0.999694, 223, 163, 238, 178
-0.999694, 339, 263, 354, 278
-0.999695, 85, 201, 100, 216
-0.999695, 1, 165, 16, 180
-0.999696, 143, 245, 158, 260
-0.999697, 477, 95, 492, 110
-0.999698, 481, 101, 496, 116
-0.999699, 45, 185, 60, 200
-0.999699, 401, 85, 416, 100
-0.9997, 363, 255, 378, 270
-0.999701, 221, 113, 236, 128
-0.999702, 387, 351, 402, 366
-0.999703, 215, 119, 230, 134
-0.999703, 457, 177, 472, 192
-0.999703, 155, 163, 170, 178
-0.999704, 237, 303, 252, 318
-0.999704, 371, 357, 386, 372
-0.999704, 481, 107, 496, 122
-0.999704, 443, 345, 458, 360
-0.999704, 243, 255, 258, 270
-0.999704, 37, 349, 52, 364
-0.999706, 237, 325, 252, 340
-0.999706, 9, 165, 24, 180
-0.999707, 203, 145, 218, 160
-0.999707, 205, 87, 220, 102
-0.999707, 133, 237, 148, 252
-0.999708, 415, 285, 430, 300
-0.999708, 119, 163, 134, 178
-0.999709, 233, 129, 248, 144
-0.999709, 205, 105, 220, 120
-0.99971, 195, 161, 210, 176
-0.99971, 231, 111, 246, 126
-0.999711, 221, 175, 236, 190
-0.999711, 429, 167, 444, 182
-0.999711, 191, 65, 206, 80
-0.999711, 207, 63, 222, 78
-0.999712, 267, 185, 282, 200
-0.999713, 153, 157, 168, 172
-0.999713, 269, 247, 284, 262
-0.999713, 259, 243, 274, 258
-0.999714, 471, 91, 486, 106
-0.999715, 199, 109, 214, 124
-0.999715, 265, 169, 280, 184
-0.999716, 23, 173, 38, 188
-0.999718, 309, 235, 324, 250
-0.999718, 211, 259, 226, 274
-0.999719, 243, 317, 258, 332
-0.99972, 259, 151, 274, 166
-0.999721, 225, 91, 240, 106
-0.999721, 231, 309, 246, 324
-0.999721, 243, 249, 258, 264
-0.999721, 239, 263, 254, 278
-0.999722, 55, 317, 70, 332
-0.999722, 221, 153, 236, 168
-0.999723, 205, 165, 220, 180
-0.999724, 239, 155, 254, 170
-0.999724, 223, 331, 238, 346
-0.999726, 311, 219, 326, 234
-0.999726, 257, 191, 272, 206
-0.999727, 353, 261, 368, 276
-0.999731, 257, 161, 272, 176
-0.999731, 259, 251, 274, 266
-0.999732, 201, 195, 216, 210
-0.999732, 239, 161, 254, 176
-0.999732, 191, 253, 206, 268
-0.999734, 249, 315, 264, 330
-0.999735, 233, 265, 248, 280
-0.999735, 107, 237, 122, 252
-0.999735, 215, 171, 230, 186
-0.999739, 179, 203, 194, 218
-0.999739, 439, 169, 454, 184
-0.999739, 411, 279, 426, 294
-0.999739, 229, 153, 244, 168
-0.99974, 211, 155, 226, 170
-0.999741, 215, 97, 230, 112
-0.999741, 229, 327, 244, 342
-0.999742, 183, 95, 198, 110
-0.999744, 189, 73, 204, 88
-0.999745, 219, 79, 234, 94
-0.999745, 239, 357, 254, 372
-0.999749, 199, 67, 214, 82
-0.999752, 207, 69, 222, 84
-0.999754, 347, 259, 362, 274
-0.999754, 241, 297, 256, 312
-0.999761, 245, 197, 260, 212
-0.999763, 213, 77, 228, 92
-0.999764, 187, 89, 202, 104
-0.999765, 209, 195, 224, 210
-0.999766, 173, 209, 188, 224
-0.999768, 197, 103, 212, 118
-0.999768, 249, 247, 264, 262
-0.999775, 471, 103, 486, 118
-0.999775, 249, 155, 264, 170
-0.999776, 191, 81, 206, 96
-0.99978, 183, 71, 198, 86
-0.999785, 231, 301, 246, 316
-0.999787, 237, 319, 252, 334
-0.99979, 203, 93, 218, 108
-0.999794, 189, 101, 204, 116
-0.999799, 219, 85, 234, 100
-0.999803, 213, 85, 228, 100
-0.999808, 219, 73, 234, 88
-0.999811, 193, 89, 208, 104
-0.999823, 213, 71, 228, 86
-0.999825, 189, 95, 204, 110
-0.999831, 213, 91, 228, 106
-0.999838, 205, 99, 220, 114
-0.999852, 197, 97, 212, 112
