1917
-0.418442, 1, 161, 333, 416
-0.428097, 1, 65, 333, 320
-0.436986, 1, 1, 333, 500
-0.522125, 65, 1, 320, 500
-0.537915, 1, 257, 333, 500
-0.597608, 65, 161, 320, 416
-0.642477, 65, 65, 320, 320
-0.787219, 33, 257, 288, 500
-0.848598, 161, 65, 288, 320
-0.852925, 161, 1, 288, 500
-0.855087, 113, 193, 240, 448
-0.861984, 209, 1, 333, 500
-0.865819, 65, 161, 192, 416
-0.86679, 209, 161, 333, 416
-0.87214, 209, 33, 333, 288
-0.876904, 113, 97, 240, 352
-0.880998, 161, 161, 288, 416
-0.888215, 17, 193, 144, 448
-0.890273, 113, 1, 240, 500
-0.894099, 113, 1, 240, 256
-0.898571, 1, 193, 333, 320
-0.907094, 65, 65, 192, 320
-0.907253, 65, 257, 192, 500
-0.920402, 33, 209, 288, 336
-0.921832, 193, 257, 320, 500
-0.922482, 1, 273, 333, 400
-0.922604, 209, 65, 333, 192
-0.922711, 65, 1, 192, 500
-0.925258, 1, 17, 333, 144
-0.927315, 1, 145, 333, 272
-0.928, 33, 113, 288, 240
-0.928461, 145, 241, 208, 368
-0.929956, 201, 49, 264, 176
-0.932482, 161, 193, 288, 320
-0.932602, 1, 97, 333, 224
-0.932963, 1, 321, 333, 448
-0.933826, 145, 65, 272, 192
-0.935229, 65, 161, 320, 288
-0.935433, 161, 1, 224, 128
-0.936164, 177, 49, 240, 176
-0.936737, 97, 225, 224, 352
-0.93754, 129, 177, 192, 304
-0.938958, 241, 209, 304, 336
-0.939176, 65, 305, 320, 432
-0.939272, 65, 257, 320, 384
-0.939402, 145, 113, 272, 240
-0.940286, 65, 177, 192, 304
-0.941015, 65, 65, 320, 192
-0.941262, 145, 17, 272, 144
-0.941736, 209, 113, 272, 240
-0.94277, 209, 273, 333, 400
-0.944487, 225, 65, 288, 192
-0.944953, 41, 225, 104, 352
-0.945548, 249, 65, 312, 192
-0.946029, 105, 209, 168, 336
-0.946752, 1, 17, 256, 144
-0.947703, 145, 241, 208, 304
-0.947727, 145, 241, 272, 368
-0.948011, 209, 225, 333, 352
-0.948296, 65, 217, 128, 280
-0.949511, 193, 73, 256, 136
-0.950114, 241, 249, 304, 312
-0.95036, 113, 209, 176, 272
-0.950424, 241, 161, 304, 288
-0.950453, 17, 1, 144, 500
-0.951056, 73, 193, 136, 320
-0.951256, 225, 257, 288, 384
-0.951921, 201, 241, 264, 368
-0.952357, 17, 97, 144, 352
-0.952571, 177, 49, 240, 112
-0.952683, 153, 17, 216, 80
-0.952883, 33, 225, 160, 352
-0.953022, 153, 49, 216, 176
-0.953378, 225, 65, 288, 128
-0.954065, 209, 161, 333, 288
-0.95414, 97, 1, 224, 128
-0.954163, 161, 97, 224, 224
-0.954182, 89, 273, 152, 400
-0.954641, 113, 257, 176, 384
-0.954836, 161, 105, 224, 168
-0.955861, 217, 193, 280, 320
-0.956257, 49, 241, 112, 304
-0.956295, 249, 257, 312, 384
-0.9566, 241, 225, 304, 288
-0.956805, 33, 273, 160, 400
-0.957398, 265, 161, 328, 288
-0.957455, 145, 289, 272, 416
-0.958429, 201, 105, 264, 168
-0.95856, 137, 185, 200, 248
-0.958921, 193, 265, 256, 328
-0.959025, 89, 145, 152, 272
-0.959276, 49, 161, 112, 288
-0.959339, 153, 81, 216, 144
-0.959552, 169, 225, 232, 352
-0.95975, 249, 73, 312, 136
-0.960025, 273, 217, 333, 280
-0.96052, 273, 81, 333, 208
-0.960721, 217, 257, 280, 320
-0.960858, 137, 1, 200, 128
-0.961294, 121, 329, 184, 392
-0.961387, 65, 129, 192, 256
-0.961656, 113, 321, 176, 448
-0.961766, 161, 265, 224, 328
-0.961783, 97, 353, 160, 416
-0.961791, 121, 257, 184, 320
-0.962257, 225, 65, 288, 320
-0.962421, 233, 201, 296, 264
-0.96288, 89, 217, 152, 280
-0.962923, 145, 297, 208, 360
-0.963214, 17, 273, 80, 400
-0.963335, 121, 233, 184, 296
-0.963466, 249, 169, 312, 232
-0.963544, 217, 129, 280, 192
-0.963647, 273, 97, 333, 160
-0.9643, 145, 217, 208, 280
-0.964469, 185, 1, 248, 128
-0.96454, 217, 281, 280, 344
-0.96472, 33, 321, 160, 448
-0.964793, 193, 17, 320, 144
-0.965051, 113, 161, 240, 288
-0.965073, 137, 305, 200, 432
-0.965253, 233, 113, 296, 240
-0.965312, 249, 113, 312, 176
-0.965505, 193, 193, 256, 320
-0.965573, 249, 33, 312, 288
-0.9657, 97, 273, 224, 400
-0.96571, 141, 185, 172, 248
-0.965855, 253, 225, 284, 288
-0.966169, 49, 225, 176, 288
-0.966632, 177, 17, 240, 80
-0.966718, 89, 337, 152, 464
-0.966768, 193, 113, 320, 240
-0.967053, 241, 273, 304, 336
-0.967383, 185, 113, 248, 240
-0.967643, 97, 81, 224, 208
-0.968074, 1, 369, 333, 496
-0.968193, 97, 249, 224, 312
-0.968306, 33, 353, 288, 480
-0.968346, 201, 289, 264, 416
-0.968558, 193, 73, 320, 136
-0.968599, 265, 257, 296, 320
-0.968771, 205, 49, 236, 176
-0.968901, 201, 65, 264, 320
-0.968981, 205, 65, 236, 128
-0.969364, 129, 193, 192, 448
-0.969673, 25, 257, 88, 320
-0.969875, 153, 49, 216, 112
-0.969957, 1, 1, 128, 256
-0.97056, 153, 1, 216, 256
-0.970629, 265, 225, 296, 288
-0.970643, 165, 1, 196, 128
-0.970793, 113, 185, 176, 248
-0.971003, 113, 281, 176, 344
-0.971153, 97, 225, 224, 288
-0.971194, 241, 193, 272, 256
-0.971218, 245, 193, 276, 320
-0.971267, 17, 337, 80, 464
-0.971291, 249, 193, 312, 448
-0.971492, 97, 257, 160, 320
-0.971578, 169, 241, 232, 304
-0.971631, 225, 17, 288, 144
-0.971661, 209, 41, 272, 104
-0.971744, 185, 17, 216, 80
-0.971835, 181, 17, 212, 144
-0.971912, 165, 225, 196, 352
-0.97193, 157, 217, 188, 280
-0.97219, 141, 177, 172, 304
-0.972197, 225, 161, 288, 416
-0.972476, 101, 257, 132, 320
-0.972635, 257, 193, 320, 256
-0.972658, 217, 153, 280, 216
-0.972664, 273, 289, 333, 416
-0.972745, 73, 153, 136, 216
-0.973022, 17, 161, 144, 288
-0.97307, 161, 225, 288, 288
-0.973084, 193, 49, 224, 112
-0.973177, 217, 225, 280, 288
-0.973338, 177, 273, 240, 400
-0.973345, 153, 177, 216, 304
-0.973368, 221, 65, 252, 192
-0.973442, 105, 161, 168, 416
-0.973455, 209, 185, 272, 248
-0.973511, 137, 97, 200, 224
-0.973532, 153, 185, 184, 248
-0.973616, 185, 289, 248, 352
-0.973711, 213, 97, 244, 160
-0.973756, 209, 297, 333, 360
-0.97384, 25, 345, 88, 408
-0.97399, 129, 41, 256, 104
-0.97403, 17, 249, 144, 312
-0.974146, 145, 225, 176, 288
-0.974152, 177, 97, 240, 352
-0.974425, 177, 1, 240, 256
-0.974582, 165, 241, 196, 304
-0.974673, 69, 161, 100, 288
-0.974695, 225, 89, 288, 152
-0.974755, 81, 201, 208, 264
-0.97479, 177, 249, 304, 312
-0.974944, 153, 193, 216, 448
-0.975005, 129, 97, 192, 352
-0.975043, 265, 209, 328, 336
-0.975087, 273, 281, 333, 344
-0.975143, 113, 265, 144, 328
-0.975157, 225, 337, 288, 400
-0.975263, 129, 73, 256, 136
-0.975393, 173, 33, 204, 96
-0.975477, 125, 209, 156, 336
-0.975484, 277, 257, 308, 320
-0.975533, 97, 153, 160, 216
-0.975621, 129, 273, 256, 336
-0.975704, 129, 201, 160, 264
-0.975714, 169, 9, 200, 72
-0.975801, 241, 217, 272, 280
-0.975821, 1, 337, 64, 400
-0.975821, 49, 361, 112, 424
-0.975826, 65, 161, 192, 224
-0.975888, 153, 17, 184, 80
-0.975974, 113, 129, 176, 256
-0.976043, 201, 313, 264, 376
-0.976085, 193, 73, 224, 136
-0.97624, 233, 81, 264, 144
-0.976247, 73, 241, 136, 304
-0.976252, 253, 249, 284, 312
-0.976279, 81, 193, 112, 320
-0.976285, 81, 161, 144, 416
-0.976428, 137, 329, 168, 392
-0.976464, 233, 65, 264, 192
-0.976552, 81, 321, 208, 448
-0.976611, 65, 241, 128, 368
-0.976638, 153, 161, 184, 288
-0.976652, 193, 33, 224, 160
-0.976691, 161, 185, 224, 248
-0.976696, 73, 361, 136, 424
-0.976719, 65, 193, 128, 256
-0.976821, 57, 305, 120, 432
-0.976862, 105, 305, 168, 368
-0.976965, 181, 241, 212, 368
-0.97712, 145, 185, 272, 248
-0.977164, 117, 217, 148, 280
-0.977374, 221, 289, 252, 352
-0.977441, 153, 241, 184, 368
-0.977441, 25, 289, 56, 416
-0.977505, 153, 81, 184, 144
-0.977558, 245, 145, 276, 272
-0.977736, 221, 65, 252, 128
-0.977775, 49, 337, 112, 400
-0.977799, 113, 17, 240, 80
-0.977877, 129, 113, 256, 176
-0.977908, 241, 249, 272, 312
-0.977983, 233, 113, 264, 240
-0.978111, 93, 217, 124, 280
-0.97814, 229, 209, 260, 336
-0.97817, 145, 305, 176, 368
-0.978254, 245, 49, 276, 176
-0.978313, 249, 345, 312, 408
-0.978379, 177, 81, 208, 144
-0.978476, 193, 273, 320, 336
-0.978477, 137, 105, 200, 168
-0.978587, 129, 257, 160, 320
-0.978621, 57, 161, 120, 416
-0.978653, 129, 17, 192, 80
-0.978738, 73, 161, 104, 224
-0.978794, 193, 233, 256, 296
-0.978857, 89, 281, 152, 344
-0.979001, 89, 193, 152, 256
-0.979017, 277, 217, 308, 280
-0.979035, 161, 145, 288, 208
-0.979078, 265, 73, 296, 136
-0.979095, 265, 209, 296, 336
-0.979218, 241, 241, 272, 368
-0.979231, 121, 329, 152, 392
-0.979283, 61, 225, 92, 288
-0.979329, 233, 305, 296, 368
-0.97942, 233, 121, 264, 184
-0.979453, 257, 161, 288, 288
-0.979455, 225, 321, 288, 448
-0.979516, 273, 337, 333, 400
-0.979564, 37, 257, 68, 384
-0.979568, 193, 153, 256, 216
-0.979642, 181, 273, 212, 336
-0.979661, 145, 297, 272, 360
-0.97972, 209, 113, 333, 176
-0.979772, 153, 1, 184, 128
-0.979787, 193, 337, 320, 464
-0.979843, 165, 89, 196, 152
-0.979868, 141, 225, 172, 352
-0.979921, 33, 329, 160, 392
-0.979961, 209, 225, 333, 288
-0.979964, 221, 265, 252, 328
-0.980059, 237, 57, 268, 120
-0.980158, 153, 97, 216, 352
-0.980221, 201, 161, 264, 416
-0.980332, 49, 353, 176, 416
-0.980472, 41, 265, 72, 328
-0.980492, 197, 25, 228, 88
-0.980507, 81, 273, 208, 336
-0.980551, 253, 201, 284, 264
-0.980621, 141, 305, 172, 432
-0.98065, 49, 241, 80, 304
-0.980664, 81, 217, 112, 280
-0.980672, 253, 65, 284, 128
-0.980699, 97, 337, 224, 400
-0.980805, 201, 337, 264, 400
-0.980818, 197, 273, 228, 336
-0.980835, 129, 257, 160, 384
-0.980863, 189, 105, 220, 168
-0.980917, 113, 241, 144, 304
-0.980942, 165, 265, 196, 328
-0.981019, 273, 129, 333, 384
-0.981055, 249, 17, 312, 144
-0.981105, 149, 161, 180, 224
-0.981123, 41, 353, 72, 416
-0.981139, 177, 241, 208, 304
-0.981154, 177, 49, 304, 112
-0.981196, 249, 49, 312, 112
-0.981211, 97, 329, 160, 392
-0.981212, 97, 193, 128, 320
-0.981345, 241, 137, 304, 200
-0.981394, 201, 17, 264, 80
-0.981526, 221, 113, 252, 240
-0.98155, 181, 65, 212, 192
-0.981599, 113, 273, 144, 400
-0.981606, 17, 281, 80, 344
-0.98175, 25, 233, 88, 296
-0.981864, 169, 217, 232, 280
-0.981873, 289, 81, 320, 208
-0.981877, 129, 81, 192, 144
-0.981929, 113, 353, 144, 416
-0.982125, 109, 209, 140, 336
-0.982409, 161, 49, 192, 112
-0.982446, 201, 1, 264, 500
-0.982452, 145, 1, 208, 500
-0.98248, 229, 273, 260, 400
-0.98248, 241, 1, 304, 500
-0.982489, 25, 321, 88, 384
-0.982507, 145, 65, 176, 192
-0.982542, 29, 281, 60, 344
-0.982627, 145, 321, 272, 384
-0.982697, 153, 249, 184, 312
-0.982751, 225, 257, 288, 500
-0.982804, 145, 161, 208, 224
-0.982831, 181, 57, 212, 120
-0.982881, 273, 73, 333, 136
-0.982914, 41, 353, 104, 480
-0.983062, 273, 153, 333, 216
-0.983084, 209, 41, 240, 104
-0.983096, 113, 33, 176, 160
-0.98311, 33, 273, 160, 336
-0.983112, 29, 337, 60, 400
-0.98321, 97, 257, 128, 384
-0.983229, 269, 161, 300, 288
-0.983283, 201, 97, 232, 224
-0.983308, 113, 81, 176, 208
-0.983354, 77, 193, 108, 256
-0.983397, 65, 353, 128, 480
-0.983498, 49, 161, 112, 224
-0.983516, 161, 289, 192, 352
-0.983538, 253, 105, 284, 168
-0.983625, 145, 281, 176, 344
-0.983634, 17, 369, 144, 496
-0.983741, 61, 225, 92, 352
-0.983814, 257, 177, 288, 240
-0.983847, 65, 273, 128, 336
-0.983865, 145, 321, 208, 384
-0.983897, 89, 265, 120, 328
-0.98393, 209, 289, 240, 352
-0.984053, 249, 153, 280, 216
-0.984055, 193, 257, 224, 384
-0.984104, 277, 81, 308, 208
-0.984266, 169, 65, 200, 192
-0.984328, 301, 217, 332, 280
-0.984384, 257, 305, 320, 368
-0.984457, 101, 353, 132, 416
-0.984475, 253, 241, 284, 368
-0.984502, 221, 313, 252, 376
-0.984504, 129, 321, 160, 448
-0.984563, 277, 273, 308, 400
-0.984609, 105, 209, 136, 272
-0.98462, 117, 161, 148, 288
-0.984633, 273, 33, 333, 160
-0.984635, 237, 145, 268, 208
-0.984713, 233, 273, 264, 336
-0.984794, 225, 193, 256, 256
-0.984799, 277, 81, 308, 144
-0.984875, 157, 65, 188, 192
-0.984898, 265, 257, 328, 320
-0.984909, 121, 161, 184, 224
-0.984936, 121, 353, 184, 416
-0.984975, 1, 225, 128, 288
-0.985016, 249, 305, 312, 432
-0.985049, 113, 337, 144, 464
-0.985119, 65, 297, 192, 360
-0.985177, 209, 193, 333, 256
-0.985209, 193, 129, 256, 192
-0.985222, 1, 313, 64, 376
-0.985225, 85, 145, 116, 208
-0.985311, 161, 17, 288, 80
-0.985395, 205, 137, 236, 200
-0.985467, 153, 113, 184, 240
-0.985495, 293, 97, 324, 160
-0.985638, 193, 209, 256, 272
-0.985696, 177, 1, 240, 500
-0.985698, 301, 329, 332, 392
-0.985715, 165, 193, 196, 256
-0.985733, 49, 81, 176, 208
-0.985858, 133, 305, 164, 368
-0.985908, 129, 41, 192, 104
-0.985969, 205, 257, 236, 384
-0.986114, 25, 369, 88, 432
-0.986193, 169, 217, 200, 280
-0.986199, 17, 225, 80, 352
-0.986219, 209, 337, 333, 400
-0.986268, 209, 153, 333, 216
-0.986319, 137, 113, 168, 240
-0.986326, 41, 193, 104, 256
-0.986338, 73, 329, 136, 392
-0.986468, 129, 177, 160, 240
-0.98649, 25, 161, 88, 288
-0.986535, 229, 217, 260, 280
-0.986562, 89, 257, 152, 500
-0.986656, 237, 337, 268, 400
-0.98672, 217, 273, 248, 400
-0.986738, 257, 65, 288, 192
-0.986907, 1, 257, 64, 320
-0.987024, 177, 193, 208, 320
-0.987037, 1, 361, 128, 424
-0.987063, 49, 241, 80, 368
-0.98715, 189, 193, 220, 320
-0.987183, 25, 305, 56, 368
-0.987208, 25, 257, 88, 500
-0.987221, 285, 145, 316, 272
-0.987305, 57, 177, 88, 304
-0.987359, 129, 1, 192, 256
-0.987376, 33, 201, 160, 264
-0.987386, 37, 337, 68, 464
-0.98745, 89, 65, 152, 320
-0.987596, 265, 1, 328, 500
-0.987662, 33, 241, 64, 304
-0.987663, 113, 161, 240, 224
-0.987681, 193, 257, 256, 500
-0.987697, 133, 233, 164, 296
-0.987763, 81, 81, 208, 144
-0.987915, 245, 281, 276, 344
-0.987917, 289, 209, 320, 272
-0.987927, 113, 137, 240, 200
-0.988019, 257, 281, 288, 344
-0.988031, 65, 225, 320, 288
-0.988117, 265, 201, 296, 264
-0.988121, 277, 209, 308, 336
-0.988135, 61, 169, 92, 232
-0.988138, 65, 137, 192, 200
-0.988218, 53, 361, 84, 424
-0.988271, 233, 313, 264, 376
-0.988296, 189, 249, 220, 312
-0.988311, 225, 337, 256, 400
-0.988339, 177, 313, 240, 376
-0.988346, 153, 289, 184, 416
-0.98837, 225, 241, 256, 304
-0.988379, 169, 153, 232, 216
-0.988381, 121, 1, 184, 500
-0.988418, 209, 265, 240, 328
-0.988576, 241, 73, 304, 104
-0.988633, 89, 193, 120, 256
-0.988682, 101, 281, 132, 344
-0.988684, 81, 41, 208, 104
-0.988695, 221, 17, 252, 144
-0.988857, 65, 17, 192, 80
-0.988879, 141, 81, 172, 144
-0.988889, 241, 289, 272, 416
-0.988902, 145, 89, 208, 120
-0.98891, 141, 25, 172, 88
-0.988919, 65, 201, 320, 264
-0.988928, 217, 65, 280, 96
-0.988961, 273, 337, 333, 464
-0.988985, 185, 101, 248, 132
-0.988992, 161, 161, 192, 224
-0.98902, 289, 337, 320, 400
-0.989095, 185, 73, 248, 104
-0.989095, 201, 105, 232, 168
-0.989111, 161, 41, 224, 72
-0.989118, 129, 161, 160, 288
-0.989146, 17, 177, 144, 240
-0.989147, 273, 225, 333, 480
-0.989165, 81, 145, 112, 272
-0.989258, 201, 117, 264, 148
-0.989298, 241, 257, 304, 288
-0.98931, 205, 1, 236, 128
-0.989312, 17, 329, 48, 392
-0.989345, 153, 253, 216, 284
-0.989352, 137, 193, 200, 224
-0.989381, 241, 293, 304, 324
-0.989387, 221, 41, 252, 104
-0.989501, 289, 225, 320, 352
-0.989515, 65, 237, 128, 268
-0.989554, 185, 177, 248, 240
-0.989554, 273, 233, 333, 264
-0.989596, 233, 245, 296, 276
-0.9896, 145, 265, 208, 296
-0.989726, 137, 225, 200, 256
-0.989747, 217, 85, 280, 116
-0.989748, 145, 237, 208, 268
-0.989761, 161, 109, 224, 140
-0.989775, 201, 277, 264, 308
-0.989799, 1, 361, 64, 424
-0.9898, 233, 109, 296, 140
-0.989823, 113, 353, 176, 384
-0.989845, 125, 353, 156, 416
-0.989866, 49, 33, 176, 160
-0.989868, 233, 169, 264, 232
-0.989877, 89, 221, 152, 252
-0.989904, 1, 297, 128, 360
-0.989933, 241, 121, 304, 152
-0.989943, 85, 273, 116, 400
-0.989962, 177, 53, 240, 84
-0.989964, 17, 209, 80, 272
-0.989988, 65, 225, 128, 256
-0.989999, 121, 237, 184, 268
-0.990006, 221, 121, 252, 184
-0.990037, 161, 17, 224, 48
-0.99005, 209, 137, 272, 168
-0.990057, 265, 257, 296, 384
-0.990094, 201, 297, 264, 328
-0.990115, 89, 365, 152, 396
-0.990169, 233, 161, 264, 288
-0.990171, 273, 105, 333, 136
-0.990183, 145, 29, 208, 60
-0.990184, 233, 221, 296, 252
-0.990189, 161, 277, 224, 308
-0.990197, 121, 209, 184, 240
-0.990222, 113, 225, 176, 256
-0.990243, 265, 221, 328, 252
-0.99025, 169, 89, 232, 120
-0.990321, 61, 249, 92, 312
-0.990337, 25, 337, 56, 464
-0.99035, 249, 345, 280, 408
-0.990367, 273, 33, 333, 288
-0.990385, 145, 305, 208, 336
-0.990386, 293, 145, 324, 208
-0.990412, 81, 241, 112, 304
-0.990426, 185, 257, 248, 288
-0.990431, 289, 273, 320, 400
-0.990436, 225, 281, 288, 312
-0.990439, 285, 281, 316, 344
-0.990488, 41, 369, 104, 400
-0.990496, 81, 305, 144, 368
-0.990499, 257, 85, 320, 116
-0.990535, 169, 29, 232, 60
-0.990539, 161, 289, 224, 320
-0.990572, 121, 265, 184, 296
-0.990591, 161, 345, 288, 408
-0.99061, 65, 365, 128, 396
-0.990645, 241, 233, 304, 264
-0.990649, 209, 149, 272, 180
-0.990653, 249, 349, 312, 380
-0.990655, 73, 157, 136, 188
-0.990696, 141, 1, 172, 128
-0.99071, 233, 209, 296, 240
-0.990723, 225, 269, 288, 300
-0.990737, 249, 41, 280, 104
-0.990737, 49, 337, 80, 464
-0.990772, 149, 57, 180, 120
-0.990781, 105, 281, 168, 312
-0.990806, 193, 85, 256, 116
-0.990846, 113, 129, 176, 192
-0.990851, 141, 257, 172, 320
-0.990857, 41, 113, 104, 240
-0.990878, 65, 193, 96, 256
-0.990881, 273, 349, 333, 380
-0.990911, 289, 233, 320, 296
-0.990915, 41, 245, 104, 276
-0.990934, 209, 197, 272, 228
-0.990966, 1, 225, 333, 288
-0.990984, 269, 281, 300, 344
-0.991007, 129, 253, 192, 284
-0.991065, 137, 321, 200, 352
-0.991066, 1, 249, 256, 312
-0.991072, 153, 53, 216, 84
-0.99108, 161, 189, 224, 220
-0.99109, 129, 337, 192, 368
-0.991096, 137, 41, 200, 72
-0.991119, 217, 169, 248, 232
-0.991119, 105, 249, 168, 280
-0.991141, 137, 109, 200, 140
-0.991158, 201, 53, 264, 84
-0.99118, 21, 241, 52, 368
-0.991183, 121, 181, 184, 212
-0.991195, 273, 117, 333, 148
-0.991201, 225, 145, 256, 208
-0.991212, 177, 105, 208, 168
-0.991234, 185, 309, 248, 340
-0.991238, 17, 369, 80, 400
-0.991252, 17, 153, 144, 216
-0.991254, 225, 345, 288, 376
-0.991259, 217, 193, 248, 320
-0.991289, 97, 145, 128, 272
-0.991301, 249, 277, 312, 308
-0.991305, 209, 105, 272, 136
-0.991308, 165, 161, 196, 288
-0.991309, 65, 169, 128, 200
-0.991321, 209, 249, 272, 280
-0.991347, 121, 293, 184, 324
-0.991361, 41, 233, 104, 264
-0.991381, 33, 257, 96, 288
-0.991399, 185, 41, 248, 72
-0.991407, 257, 113, 288, 240
-0.991449, 105, 105, 168, 168
-0.991454, 89, 185, 152, 216
-0.991467, 161, 225, 224, 256
-0.991482, 297, 145, 328, 272
-0.991496, 105, 169, 168, 200
-0.991525, 233, 193, 296, 224
-0.991563, 257, 177, 320, 208
-0.991572, 137, 17, 200, 48
-0.991618, 81, 277, 144, 308
-0.991631, 25, 269, 88, 300
-0.991646, 233, 1, 264, 128
-0.991655, 225, 305, 288, 336
-0.991663, 49, 189, 112, 220
-0.991663, 153, 77, 216, 108
-0.991684, 97, 265, 160, 296
-0.991703, 145, 213, 208, 244
-0.991716, 89, 353, 152, 384
-0.991723, 265, 73, 328, 104
-0.991728, 233, 165, 296, 196
-0.991748, 81, 289, 144, 320
-0.991748, 81, 97, 144, 224
-0.991794, 89, 237, 152, 268
-0.991816, 257, 245, 320, 276
-0.991825, 209, 209, 272, 240
-0.991835, 9, 357, 72, 388
-0.991838, 13, 305, 44, 432
-0.991845, 57, 257, 120, 288
-0.991846, 1, 257, 64, 500
-0.991849, 265, 289, 328, 320
-0.991849, 25, 285, 88, 316
-0.991852, 61, 337, 92, 464
-0.991876, 257, 145, 320, 176
-0.991886, 33, 357, 96, 388
-0.991897, 169, 241, 232, 272
-0.991899, 145, 177, 208, 208
-0.991909, 113, 365, 176, 396
-0.991938, 65, 377, 128, 408
-0.991943, 161, 65, 224, 96
-0.991963, 41, 177, 104, 208
-0.991969, 121, 97, 184, 128
-0.991982, 257, 197, 320, 228
-0.991984, 65, 137, 320, 200
-0.99201, 9, 257, 72, 288
-0.992022, 173, 33, 204, 64
-0.992029, 97, 333, 160, 364
-0.992033, 245, 225, 276, 256
-0.992044, 233, 133, 296, 164
-0.992058, 193, 29, 256, 60
-0.99206, 209, 185, 272, 216
-0.99207, 41, 281, 104, 344
-0.992074, 105, 157, 168, 188
-0.992075, 169, 121, 232, 152
-0.992091, 233, 97, 296, 128
-0.992097, 165, 113, 196, 240
-0.992117, 257, 165, 320, 196
-0.992127, 17, 245, 80, 276
-0.992128, 193, 45, 224, 76
-0.99213, 205, 97, 236, 128
-0.992134, 225, 333, 288, 364
-0.992163, 49, 269, 112, 300
-0.992164, 97, 209, 160, 240
-0.992174, 145, 189, 176, 220
-0.992181, 97, 301, 160, 332
-0.992182, 245, 65, 276, 96
-0.992194, 233, 181, 296, 212
-0.992207, 205, 65, 236, 96
-0.992224, 261, 73, 292, 104
-0.992229, 97, 361, 224, 424
-0.992261, 237, 193, 268, 224
-0.992269, 173, 45, 204, 76
-0.99228, 101, 273, 132, 304
-0.992293, 257, 245, 288, 276
-0.99233, 241, 213, 272, 244
-0.99233, 269, 273, 300, 304
-0.992333, 97, 305, 128, 432
-0.992333, 213, 109, 244, 140
-0.992353, 157, 229, 188, 260
-0.99236, 185, 33, 216, 64
-0.992391, 201, 77, 232, 108
-0.992406, 109, 257, 140, 288
-0.992432, 221, 297, 252, 328
-0.992435, 185, 101, 216, 132
-0.992456, 253, 257, 284, 288
-0.99249, 217, 69, 248, 100
-0.992496, 233, 121, 264, 152
-0.992496, 257, 225, 288, 256
-0.992509, 157, 41, 188, 72
-0.992526, 269, 257, 300, 288
-0.992533, 229, 73, 260, 104
-0.992542, 149, 245, 180, 276
-0.992547, 81, 225, 112, 256
-0.992549, 165, 241, 196, 272
-0.99255, 193, 61, 224, 92
-0.992563, 73, 165, 104, 196
-0.992564, 149, 177, 180, 208
-0.992582, 69, 225, 100, 256
-0.992592, 277, 85, 308, 116
-0.992596, 217, 285, 248, 316
-0.992597, 225, 85, 256, 116
-0.992611, 57, 237, 88, 268
-0.992622, 137, 213, 168, 244
-0.992624, 253, 113, 284, 144
-0.992624, 113, 245, 144, 276
-0.992624, 161, 257, 192, 288
-0.992628, 213, 81, 244, 112
-0.992639, 97, 285, 128, 316
-0.992663, 105, 357, 136, 388
-0.992667, 73, 337, 104, 464
-0.992669, 241, 289, 272, 320
-0.99268, 233, 137, 264, 168
-0.992685, 37, 209, 68, 336
-0.992687, 253, 209, 284, 240
-0.9927, 125, 349, 156, 380
-0.992708, 149, 201, 180, 232
-0.992712, 145, 229, 176, 260
-0.992714, 129, 257, 160, 288
-0.992721, 149, 29, 180, 60
-0.992722, 93, 365, 124, 396
-0.992724, 185, 285, 216, 316
-0.992728, 65, 225, 192, 256
-0.992738, 197, 277, 228, 308
-0.992738, 113, 269, 144, 300
-0.992744, 65, 65, 320, 128
-0.99275, 209, 361, 333, 424
-0.992751, 177, 21, 208, 52
-0.992754, 277, 285, 308, 316
-0.992756, 113, 345, 144, 376
-0.992756, 205, 53, 236, 84
-0.992767, 161, 189, 192, 220
-0.992785, 181, 89, 212, 120
-0.992787, 161, 29, 192, 60
-0.992791, 205, 293, 236, 324
-0.992792, 201, 109, 232, 140
-0.992799, 229, 61, 260, 92
-0.992808, 301, 337, 332, 368
-0.992809, 41, 253, 72, 284
-0.992812, 241, 237, 272, 268
-0.992816, 153, 17, 184, 48
-0.992818, 53, 369, 84, 400
-0.99282, 189, 21, 220, 52
-0.992821, 221, 273, 252, 304
-0.992823, 161, 217, 192, 248
-0.992834, 97, 221, 128, 252
-0.992836, 85, 157, 116, 188
-0.992838, 117, 361, 148, 392
-0.992838, 153, 89, 184, 120
-0.992841, 205, 145, 236, 176
-0.992843, 265, 93, 296, 124
-0.992846, 165, 297, 196, 328
-0.992849, 245, 125, 276, 156
-0.992853, 185, 73, 216, 104
-0.992855, 241, 253, 272, 284
-0.992858, 165, 109, 196, 140
-0.992859, 277, 233, 308, 264
-0.992864, 177, 265, 208, 296
-0.992866, 133, 189, 164, 220
-0.992867, 37, 361, 68, 392
-0.992873, 53, 257, 84, 288
-0.992877, 29, 265, 60, 296
-0.992883, 117, 217, 148, 248
-0.992884, 93, 237, 124, 268
-0.992888, 225, 205, 256, 236
-0.992891, 269, 221, 300, 252
-0.992893, 193, 89, 224, 120
-0.992898, 289, 345, 320, 376
-0.992901, 141, 321, 172, 352
-0.992903, 41, 265, 72, 296
-0.992907, 149, 297, 180, 328
-0.992909, 125, 333, 156, 364
-0.992913, 165, 17, 196, 48
-0.992915, 177, 253, 208, 284
-0.992927, 65, 181, 96, 212
-0.992929, 149, 217, 180, 248
-0.992942, 145, 257, 176, 288
-0.992943, 229, 285, 260, 316
-0.992951, 217, 313, 248, 344
-0.992952, 49, 241, 176, 272
-0.992959, 181, 57, 212, 88
-0.992962, 257, 285, 288, 316
-0.992968, 73, 369, 104, 400
-0.99297, 105, 369, 136, 400
-0.99297, 81, 129, 144, 192
-0.992978, 229, 253, 260, 284
-0.992982, 189, 113, 220, 144
-0.992984, 189, 265, 220, 296
-0.992984, 289, 97, 320, 128
-0.99299, 205, 305, 236, 336
-0.992993, 169, 89, 200, 120
-0.992995, 145, 309, 176, 340
-0.992996, 209, 133, 240, 164
-0.993, 241, 81, 272, 112
-0.993003, 177, 69, 304, 100
-0.993006, 217, 57, 248, 88
-0.993009, 181, 297, 212, 328
-0.993011, 149, 101, 180, 132
-0.993011, 165, 269, 196, 300
-0.993012, 29, 281, 60, 312
-0.993017, 225, 109, 256, 140
-0.993019, 209, 273, 240, 304
-0.993049, 97, 353, 128, 480
-0.993065, 271, 241, 286, 304
-0.993113, 225, 321, 256, 448
-0.993117, 201, 209, 232, 336
-0.99312, 193, 81, 320, 112
-0.993149, 301, 241, 332, 368
-0.993177, 297, 321, 328, 448
-0.993184, 249, 209, 264, 272
-0.993196, 209, 25, 333, 88
-0.993287, 33, 161, 96, 416
-0.993289, 1, 113, 128, 240
-0.993343, 213, 57, 228, 120
-0.993367, 277, 257, 292, 320
-0.993394, 129, 337, 256, 464
-0.99341, 259, 217, 274, 280
-0.993421, 1, 233, 64, 296
-0.993427, 1, 41, 256, 104
-0.993593, 145, 185, 160, 248
-0.993604, 249, 185, 264, 248
-0.993639, 181, 289, 212, 416
-0.993687, 105, 33, 168, 96
-0.993743, 1, 177, 64, 304
-0.993763, 269, 17, 300, 144
-0.993767, 253, 289, 284, 416
-0.993788, 189, 113, 220, 240
-0.993843, 265, 225, 280, 288
-0.993949, 223, 65, 238, 128
-0.993971, 177, 101, 304, 132
-0.993975, 161, 289, 288, 320
-0.993981, 153, 177, 168, 240
-0.993989, 81, 113, 208, 176
-0.993992, 97, 253, 224, 284
-0.994009, 1, 201, 333, 264
-0.994081, 209, 145, 240, 272
-0.994089, 65, 257, 128, 500
-0.994103, 77, 161, 92, 224
-0.994115, 85, 337, 116, 464
-0.994129, 33, 161, 288, 224
-0.994137, 65, 273, 320, 336
-0.99417, 201, 97, 216, 160
-0.994198, 105, 1, 168, 64
-0.994229, 129, 85, 256, 116
-0.994236, 197, 9, 212, 72
-0.99426, 205, 73, 220, 136
-0.994266, 105, 73, 168, 136
-0.994273, 207, 49, 222, 112
-0.994329, 33, 105, 288, 168
-0.994346, 65, 305, 320, 368
-0.994356, 193, 269, 320, 300
-0.994369, 233, 289, 248, 352
-0.994381, 271, 217, 286, 280
-0.994393, 1, 329, 256, 392
-0.994398, 111, 249, 126, 312
-0.994407, 17, 257, 144, 288
-0.994427, 33, 361, 160, 392
-0.994441, 241, 217, 256, 280
-0.994483, 159, 201, 174, 264
-0.994498, 177, 225, 304, 256
-0.9945, 301, 97, 332, 224
-0.994529, 187, 9, 202, 72
-0.994531, 129, 97, 256, 128
-0.994542, 145, 237, 272, 268
-0.994564, 165, 217, 180, 280
-0.994575, 189, 257, 204, 320
-0.994607, 145, 189, 272, 220
-0.994637, 181, 9, 196, 72
-0.994671, 225, 273, 240, 336
-0.994696, 117, 249, 132, 312
-0.994729, 267, 265, 282, 328
-0.994767, 73, 241, 104, 368
-0.994777, 131, 337, 146, 400
-0.994784, 233, 65, 248, 128
-0.994798, 287, 265, 302, 328
-0.994813, 165, 185, 180, 248
-0.994826, 65, 225, 80, 288
-0.994837, 245, 1, 276, 128
-0.994852, 139, 313, 154, 376
-0.994858, 233, 257, 248, 320
-0.994896, 161, 257, 288, 288
-0.994911, 129, 69, 256, 100
-0.994921, 145, 305, 272, 336
-0.99494, 139, 193, 154, 256
-0.994942, 157, 73, 172, 136
-0.994955, 169, 129, 232, 192
-0.994961, 105, 265, 120, 328
-0.994966, 59, 233, 74, 296
-0.99497, 243, 185, 258, 248
-0.994989, 293, 33, 324, 160
-0.994994, 247, 121, 262, 184
-0.995, 261, 249, 276, 312
-0.995018, 65, 369, 192, 496
-0.995019, 179, 233, 194, 296
-0.995053, 253, 57, 268, 120
-0.995053, 51, 241, 66, 304
-0.995054, 159, 177, 174, 240
-0.995054, 239, 241, 254, 304
-0.995058, 277, 233, 292, 296
-0.995074, 255, 193, 270, 256
-0.995091, 33, 137, 96, 200
-0.995102, 145, 137, 208, 200
-0.995131, 83, 153, 98, 216
-0.995132, 97, 237, 224, 268
-0.995136, 75, 217, 90, 280
-0.995169, 147, 297, 162, 360
-0.995187, 195, 89, 210, 152
-0.995191, 155, 225, 170, 288
-0.995194, 193, 57, 208, 120
-0.995199, 115, 217, 130, 280
-0.995214, 187, 33, 202, 96
-0.995214, 201, 49, 216, 112
-0.995218, 241, 121, 256, 184
-0.995224, 165, 273, 196, 400
-0.995238, 209, 281, 333, 312
-0.995245, 273, 121, 333, 184
-0.995248, 167, 9, 182, 72
-0.995256, 215, 81, 230, 144
-0.995257, 207, 25, 222, 88
-0.995259, 251, 81, 266, 144
-0.995282, 209, 129, 333, 160
-0.995292, 267, 73, 282, 136
-0.995298, 187, 73, 202, 136
-0.995307, 129, 25, 256, 56
-0.995318, 207, 105, 222, 168
-0.995332, 85, 193, 100, 256
-0.995335, 169, 241, 184, 304
-0.99534, 81, 169, 208, 200
-0.995351, 109, 225, 124, 288
-0.995356, 161, 213, 288, 244
-0.995373, 99, 273, 114, 336
-0.995378, 49, 377, 176, 440
-0.995385, 171, 217, 186, 280
-0.995392, 231, 105, 246, 168
-0.995392, 269, 65, 300, 320
-0.995397, 183, 273, 198, 336
-0.995398, 233, 313, 248, 376
-0.995402, 157, 249, 172, 312
-0.995409, 247, 57, 262, 120
-0.995419, 97, 285, 224, 316
-0.995442, 129, 53, 256, 84
-0.995457, 33, 373, 160, 404
-0.995459, 121, 217, 136, 280
-0.995491, 81, 365, 208, 396
-0.995502, 161, 17, 176, 80
-0.995506, 167, 81, 182, 144
-0.995533, 273, 49, 333, 112
-0.995537, 111, 273, 126, 336
-0.995541, 91, 193, 106, 256
-0.995545, 237, 65, 268, 320
-0.99555, 191, 281, 206, 344
-0.995551, 155, 17, 170, 80
-0.995567, 121, 345, 136, 408
-0.995596, 35, 265, 50, 328
-0.995613, 173, 9, 188, 72
-0.995616, 1, 17, 256, 80
-0.995616, 133, 193, 164, 448
-0.995617, 1, 65, 333, 128
-0.995626, 257, 1, 288, 128
-0.995636, 101, 209, 116, 272
-0.995637, 129, 113, 256, 144
-0.995639, 209, 301, 333, 332
-0.995656, 239, 81, 254, 144
-0.995668, 175, 33, 190, 96
-0.995685, 249, 97, 280, 352
-0.995689, 87, 217, 102, 280
-0.995699, 215, 273, 230, 336
-0.995723, 129, 217, 144, 280
-0.995728, 81, 273, 208, 304
-0.995739, 145, 209, 160, 272
-0.995749, 1, 265, 333, 328
-0.995756, 173, 81, 188, 144
-0.995756, 261, 65, 276, 128
-0.995768, 181, 81, 196, 144
-0.995771, 81, 217, 96, 280
-0.995782, 45, 249, 60, 312
-0.995782, 209, 237, 333, 268
-0.995786, 33, 353, 288, 416
-0.99579, 221, 297, 236, 360
-0.995803, 217, 33, 248, 288
-0.995819, 161, 149, 288, 180
-0.995827, 123, 249, 138, 312
-0.995853, 193, 113, 320, 144
-0.995881, 181, 33, 196, 96
-0.995888, 241, 49, 256, 112
-0.995925, 301, 193, 332, 320
-0.995933, 205, 1, 236, 256
-0.995975, 255, 241, 270, 304
-0.995983, 81, 189, 208, 220
-0.995988, 65, 157, 192, 188
-0.995993, 141, 97, 172, 352
-0.996004, 255, 153, 270, 216
-0.996015, 209, 1, 333, 64
-0.99603, 265, 321, 296, 448
-0.996031, 197, 273, 212, 336
-0.996034, 139, 217, 154, 280
-0.996044, 225, 97, 240, 160
-0.99607, 33, 349, 160, 380
-0.996092, 161, 193, 192, 448
-0.996105, 1, 345, 333, 408
-0.99611, 281, 209, 296, 272
-0.99612, 161, 41, 176, 104
-0.996123, 37, 345, 52, 408
-0.996134, 273, 73, 288, 136
-0.996134, 153, 153, 168, 216
-0.996145, 145, 201, 272, 232
-0.996169, 225, 129, 256, 384
-0.996175, 33, 289, 48, 352
-0.996175, 43, 345, 58, 408
-0.99618, 317, 209, 332, 272
-0.996184, 33, 285, 160, 316
-0.996192, 147, 161, 162, 224
-0.996211, 31, 329, 46, 392
-0.99624, 163, 289, 178, 352
-0.996249, 167, 57, 182, 120
-0.996275, 317, 313, 332, 376
-0.996276, 227, 305, 242, 368
-0.996301, 1, 297, 128, 328
-0.996303, 153, 201, 168, 264
-0.996344, 239, 273, 254, 336
-0.996345, 195, 33, 210, 96
-0.99635, 81, 297, 208, 328
-0.996355, 89, 1, 152, 500
-0.996361, 121, 273, 136, 336
-0.996378, 17, 269, 144, 300
-0.996392, 237, 225, 268, 480
-0.996393, 129, 273, 256, 304
-0.996397, 309, 209, 324, 272
-0.996398, 65, 213, 192, 244
-0.996399, 151, 81, 166, 144
-0.996401, 103, 233, 118, 296
-0.996403, 1, 321, 333, 384
-0.996406, 239, 297, 254, 360
-0.996406, 139, 337, 154, 400
-0.996418, 169, 1, 200, 256
-0.996426, 1, 129, 128, 192
-0.99643, 177, 257, 192, 320
-0.99643, 209, 213, 333, 244
-0.996442, 113, 37, 240, 68
-0.99655, 267, 241, 282, 272
-0.996582, 125, 113, 156, 240
-0.996611, 61, 113, 92, 240
-0.996612, 57, 129, 120, 192
-0.996628, 217, 361, 280, 424
-0.996636, 177, 57, 304, 88
-0.996663, 181, 1, 212, 256
-0.99667, 129, 225, 256, 256
-0.996688, 73, 289, 104, 416
-0.996692, 177, 433, 304, 496
-0.996692, 209, 341, 333, 372
-0.996706, 209, 313, 333, 344
-0.996717, 1, 41, 333, 104
-0.996721, 249, 193, 280, 448
-0.996756, 177, 41, 304, 72
-0.996773, 145, 177, 272, 208
-0.996779, 81, 161, 112, 416
-0.9968, 209, 257, 333, 288
-0.9968, 17, 229, 144, 260
-0.996824, 245, 97, 276, 224
-0.996836, 193, 1, 224, 256
-0.996848, 209, 61, 224, 92
-0.996852, 1, 245, 128, 276
-0.996855, 209, 141, 333, 172
-0.996864, 97, 353, 224, 384
-0.996864, 259, 225, 274, 256
-0.996926, 121, 193, 152, 448
-0.996934, 273, 249, 288, 280
-0.996938, 197, 97, 212, 128
-0.996951, 277, 261, 292, 292
-0.996954, 289, 65, 320, 320
-0.996978, 209, 353, 333, 384
-0.996999, 273, 361, 333, 424
-0.996999, 49, 1, 112, 500
-0.997014, 1, 145, 333, 208
-0.997041, 219, 65, 234, 96
-0.997052, 181, 37, 196, 68
-0.997059, 77, 97, 108, 224
-0.997062, 285, 321, 316, 448
-0.997064, 195, 45, 210, 76
-0.99708, 149, 185, 164, 216
-0.997099, 81, 201, 208, 232
-0.997111, 157, 97, 188, 352
-0.997112, 247, 121, 262, 152
-0.997139, 145, 193, 176, 448
-0.997139, 249, 213, 264, 244
-0.99715, 265, 229, 280, 260
-0.997153, 157, 185, 172, 216
-0.997158, 129, 33, 160, 160
-0.997178, 247, 193, 262, 224
-0.997182, 33, 337, 160, 368
-0.997185, 205, 85, 220, 116
-0.997211, 249, 1, 280, 256
-0.997231, 219, 97, 234, 128
-0.997238, 207, 109, 222, 140
-0.997258, 113, 213, 240, 244
-0.997259, 257, 209, 272, 240
-0.997266, 211, 77, 226, 108
-0.997276, 189, 33, 204, 64
-0.997295, 239, 69, 254, 100
-0.997297, 129, 317, 256, 348
-0.997299, 159, 229, 174, 260
-0.997302, 269, 225, 300, 480
-0.997321, 161, 41, 176, 72
-0.997331, 119, 265, 134, 296
-0.997342, 177, 89, 192, 120
-0.99735, 201, 45, 216, 76
-0.997362, 251, 65, 266, 96
-0.997371, 129, 13, 256, 44
-0.997383, 169, 221, 184, 252
-0.997385, 145, 1, 176, 256
-0.997389, 169, 37, 184, 68
-0.997395, 265, 109, 280, 140
-0.997398, 175, 33, 190, 64
-0.9974, 269, 73, 284, 104
-0.997416, 129, 133, 256, 164
-0.997418, 241, 121, 256, 152
-0.997423, 261, 241, 276, 272
-0.997426, 143, 193, 158, 224
-0.997427, 33, 309, 160, 340
-0.997431, 49, 253, 64, 284
-0.997442, 219, 77, 234, 108
-0.997458, 239, 261, 254, 292
-0.997463, 229, 113, 244, 144
-0.997477, 213, 89, 228, 120
-0.997478, 209, 165, 333, 196
-0.997479, 227, 85, 242, 116
-0.997484, 209, 201, 333, 232
-0.997491, 287, 281, 302, 312
-0.997515, 59, 241, 74, 272
-0.997515, 43, 265, 58, 296
-0.997518, 167, 245, 182, 276
-0.997526, 125, 253, 140, 284
-0.997544, 237, 293, 252, 324
-0.997551, 49, 289, 80, 416
-0.997552, 273, 237, 288, 268
-0.997553, 119, 353, 134, 384
-0.997557, 1, 385, 128, 448
-0.997559, 213, 129, 244, 384
-0.997561, 17, 165, 144, 196
-0.997562, 245, 69, 260, 100
-0.997563, 197, 57, 212, 88
-0.997565, 205, 97, 220, 128
-0.997566, 157, 1, 188, 256
-0.997573, 245, 337, 276, 464
-0.997574, 129, 165, 256, 196
-0.997575, 93, 193, 124, 448
-0.997579, 201, 97, 232, 352
-0.997579, 1, 1, 128, 128
-0.997581, 79, 229, 94, 260
-0.997581, 187, 89, 202, 120
-0.997599, 233, 73, 248, 104
-0.997604, 85, 225, 100, 256
-0.997605, 241, 197, 256, 228
-0.997609, 149, 197, 164, 228
-0.997613, 69, 233, 84, 264
-0.997622, 81, 81, 208, 112
-0.997635, 223, 301, 238, 332
-0.997643, 231, 301, 246, 332
-0.99766, 113, 357, 128, 388
-0.997665, 33, 189, 160, 220
-0.997668, 1, 1, 64, 500
-0.99767, 127, 345, 142, 376
-0.997675, 209, 153, 333, 184
-0.997676, 191, 285, 206, 316
-0.997677, 285, 77, 300, 108
-0.997681, 79, 165, 94, 196
-0.997682, 41, 65, 104, 320
-0.997695, 203, 25, 218, 56
-0.9977, 195, 33, 210, 64
-0.997701, 279, 89, 294, 120
-0.997712, 113, 277, 128, 308
-0.99772, 1, 289, 333, 352
-0.99772, 69, 161, 100, 416
-0.997722, 243, 133, 258, 164
-0.997725, 109, 161, 140, 416
-0.997726, 137, 329, 152, 360
-0.997731, 205, 73, 220, 104
-0.997733, 107, 361, 122, 392
-0.997736, 191, 265, 206, 296
-0.997737, 243, 209, 258, 240
-0.997738, 89, 181, 104, 212
-0.997739, 225, 69, 240, 100
-0.997741, 259, 109, 274, 140
-0.99775, 283, 269, 298, 300
-0.99775, 113, 341, 240, 372
-0.997752, 203, 61, 218, 92
-0.997756, 153, 225, 168, 256
-0.997756, 227, 281, 242, 312
-0.997756, 179, 241, 194, 272
-0.997767, 139, 213, 154, 244
-0.997771, 163, 185, 178, 216
-0.997771, 113, 329, 240, 360
-0.997775, 25, 161, 88, 224
-0.997775, 279, 109, 294, 140
-0.997786, 189, 49, 204, 80
-0.997792, 185, 253, 200, 284
-0.997807, 245, 249, 260, 280
-0.997813, 155, 173, 170, 204
-0.997817, 225, 225, 256, 480
-0.997817, 243, 289, 258, 320
-0.997828, 189, 97, 220, 352
-0.99783, 209, 177, 333, 208
-0.99783, 225, 101, 240, 132
-0.997834, 161, 349, 288, 380
-0.997838, 143, 321, 158, 352
-0.997838, 157, 81, 172, 112
-0.997839, 249, 225, 264, 256
-0.997842, 263, 69, 278, 100
-0.997842, 261, 253, 276, 284
-0.997845, 277, 73, 292, 104
-0.997854, 169, 97, 200, 352
-0.997856, 107, 269, 122, 300
-0.997865, 257, 69, 272, 100
-0.997874, 271, 225, 286, 256
-0.997876, 113, 469, 240, 500
-0.997877, 271, 105, 286, 136
-0.997879, 113, 249, 128, 280
-0.997891, 149, 333, 164, 364
-0.997902, 187, 101, 202, 132
-0.99791, 165, 233, 180, 264
-0.99791, 91, 225, 106, 256
-0.997911, 77, 181, 92, 212
-0.997915, 233, 269, 248, 300
-0.997923, 271, 261, 286, 292
-0.997924, 147, 233, 162, 264
-0.997933, 41, 365, 56, 396
-0.997935, 33, 325, 160, 356
-0.997938, 187, 77, 202, 108
-0.997939, 33, 257, 64, 500
-0.997941, 81, 93, 208, 124
-0.997941, 149, 313, 164, 344
-0.997945, 177, 21, 192, 52
-0.997949, 291, 85, 306, 116
-0.99795, 87, 193, 102, 224
-0.997951, 201, 109, 216, 140
-0.997952, 163, 217, 178, 248
-0.997953, 193, 365, 320, 396
-0.997956, 53, 365, 68, 396
-0.997968, 161, 465, 288, 496
-0.997983, 37, 273, 52, 304
-0.997986, 87, 157, 102, 188
-0.997986, 233, 313, 248, 344
-0.997987, 165, 25, 180, 56
-0.997994, 127, 361, 142, 392
-0.997998, 71, 165, 86, 196
-0.998004, 227, 313, 242, 344
-0.998008, 241, 81, 256, 112
-0.998037, 65, 41, 192, 72
-0.998056, 197, 305, 228, 432
-0.998079, 209, 461, 333, 492
-0.998083, 209, 325, 333, 356
-0.998087, 113, 145, 240, 176
-0.998109, 81, 377, 208, 408
-0.998112, 33, 177, 160, 208
-0.998118, 129, 433, 256, 496
-0.998183, 125, 97, 156, 352
-0.998199, 57, 385, 120, 448
-0.998206, 1, 89, 333, 152
-0.998248, 81, 105, 208, 136
-0.998256, 289, 161, 320, 416
-0.998267, 9, 257, 40, 384
-0.998291, 281, 17, 312, 144
-0.998321, 1, 177, 333, 240
-0.998359, 65, 145, 192, 176
-0.998361, 177, 225, 208, 480
-0.998403, 193, 29, 320, 60
-0.998404, 145, 43, 208, 58
-0.998417, 161, 109, 224, 124
-0.998424, 241, 301, 272, 316
-0.998425, 245, 243, 276, 258
-0.998426, 45, 379, 76, 394
-0.998427, 145, 227, 176, 242
-0.998427, 161, 233, 192, 248
-0.998427, 205, 149, 236, 164
-0.998427, 45, 367, 76, 382
-0.998428, 241, 65, 272, 80
-0.998428, 241, 77, 272, 92
-0.99843, 161, 29, 192, 44
-0.99843, 113, 251, 144, 266
-0.998432, 149, 303, 180, 318
-0.998433, 189, 69, 220, 84
-0.998433, 277, 283, 308, 298
-0.998434, 129, 341, 160, 356
-0.998434, 237, 261, 268, 276
-0.998435, 141, 189, 172, 204
-0.998435, 177, 263, 208, 278
-0.998435, 137, 333, 168, 348
-0.998436, 237, 205, 268, 220
-0.998436, 157, 83, 188, 98
-0.998437, 161, 35, 192, 50
-0.998437, 97, 237, 128, 252
-0.998438, 181, 271, 212, 286
-0.998439, 277, 295, 308, 310
-0.998439, 209, 123, 272, 138
-0.99844, 145, 257, 176, 272
-0.99844, 121, 353, 152, 368
-0.998441, 129, 261, 160, 276
-0.998442, 241, 79, 304, 94
-0.998443, 93, 285, 124, 300
-0.998443, 137, 233, 168, 248
-0.998444, 269, 107, 300, 122
-0.998448, 105, 375, 136, 390
-0.998449, 145, 317, 176, 332
-0.998449, 201, 87, 232, 102
-0.998449, 85, 223, 116, 238
-0.998449, 141, 325, 172, 340
-0.99845, 105, 283, 136, 298
-0.998451, 125, 347, 156, 362
-0.998451, 229, 303, 260, 318
-0.998452, 241, 295, 304, 310
-0.998453, 157, 249, 188, 264
-0.998453, 225, 73, 288, 88
-0.998453, 113, 257, 144, 272
-0.998454, 209, 79, 272, 94
-0.998455, 157, 47, 188, 62
-0.998456, 93, 291, 124, 306
-0.998456, 169, 15, 200, 30
-0.998457, 45, 253, 76, 268
-0.998457, 277, 91, 308, 106
-0.998463, 153, 91, 184, 106
-0.998463, 181, 101, 212, 116
-0.998464, 193, 113, 224, 128
-0.998464, 153, 243, 184, 258
-0.998465, 109, 263, 140, 278
-0.998465, 269, 237, 300, 252
-0.998466, 229, 71, 260, 86
-0.998466, 189, 53, 220, 68
-0.998466, 169, 247, 200, 262
-0.998467, 149, 29, 180, 44
-0.998468, 165, 239, 196, 254
-0.998469, 105, 269, 136, 284
-0.99847, 101, 277, 132, 292
-0.99847, 101, 363, 132, 378
-0.998471, 237, 191, 268, 206
-0.998472, 213, 115, 244, 130
-0.998472, 241, 253, 272, 268
-0.998474, 261, 229, 292, 244
-0.998475, 197, 59, 228, 74
-0.998475, 77, 195, 108, 210
-0.998476, 173, 255, 204, 270
-0.998478, 145, 183, 176, 198
-0.998479, 189, 33, 220, 48
-0.998479, 189, 75, 220, 90
-0.99848, 185, 59, 216, 74
-0.99848, 229, 297, 260, 312
-0.998481, 225, 65, 256, 80
-0.998482, 161, 299, 192, 314
-0.998482, 185, 95, 216, 110
-0.998482, 205, 73, 236, 88
-0.998482, 153, 257, 216, 272
-0.998483, 253, 121, 284, 136
-0.998485, 253, 293, 284, 308
-0.998487, 165, 111, 196, 126
-0.998487, 217, 79, 248, 94
-0.998487, 229, 271, 260, 286
-0.998487, 181, 83, 212, 98
-0.998488, 17, 385, 144, 416
-0.998488, 221, 289, 252, 304
-0.99849, 217, 85, 248, 100
-0.998491, 201, 117, 264, 132
-0.998493, 185, 79, 248, 94
-0.998493, 261, 83, 292, 98
-0.998493, 265, 261, 296, 276
-0.998493, 269, 269, 300, 284
-0.998494, 201, 69, 264, 84
-0.998494, 173, 91, 204, 106
-0.998495, 73, 167, 104, 182
-0.998495, 189, 25, 220, 40
-0.998496, 169, 35, 232, 50
-0.998501, 137, 229, 200, 244
-0.998503, 153, 49, 216, 64
-0.998503, 209, 303, 272, 318
-0.998504, 73, 231, 104, 246
-0.998506, 249, 85, 312, 100
-0.998507, 237, 221, 268, 236
-0.99851, 81, 21, 208, 52
-0.998512, 277, 85, 308, 100
-0.998512, 217, 87, 280, 102
-0.998512, 241, 251, 304, 266
-0.998513, 81, 161, 144, 176
-0.998514, 145, 237, 208, 252
-0.998515, 241, 125, 304, 140
-0.998515, 241, 289, 304, 304
-0.998517, 273, 237, 333, 252
-0.998518, 145, 89, 208, 104
-0.998518, 145, 99, 208, 114
-0.998518, 269, 277, 300, 292
-0.998518, 209, 63, 272, 78
-0.998519, 233, 109, 296, 124
-0.998519, 217, 305, 248, 320
-0.99852, 129, 189, 192, 204
-0.99852, 53, 245, 84, 260
-0.998521, 21, 257, 52, 500
-0.998521, 253, 259, 284, 274
-0.998522, 257, 245, 288, 260
-0.998523, 169, 103, 232, 118
-0.998523, 169, 49, 200, 64
-0.998523, 113, 233, 176, 248
-0.998523, 145, 251, 208, 266
-0.998524, 145, 267, 208, 282
-0.998525, 149, 233, 180, 248
-0.998525, 57, 373, 120, 388
-0.998525, 73, 239, 136, 254
-0.998526, 193, 99, 256, 114
-0.998527, 65, 167, 128, 182
-0.998527, 185, 275, 248, 290
-0.998527, 161, 261, 192, 276
-0.998528, 249, 353, 312, 368
-0.99853, 161, 305, 224, 320
-0.998531, 189, 107, 220, 122
-0.998534, 161, 17, 224, 32
-0.998534, 81, 309, 208, 340
-0.998535, 151, 161, 166, 288
-0.998535, 245, 227, 276, 242
-0.998535, 233, 261, 296, 276
-0.998535, 185, 85, 248, 100
-0.998536, 85, 161, 116, 176
-0.998537, 201, 131, 264, 146
-0.998537, 241, 295, 272, 310
-0.998537, 193, 105, 256, 120
-0.998541, 61, 239, 92, 254
-0.998544, 169, 93, 232, 108
-0.998544, 241, 245, 304, 260
-0.998545, 189, 39, 220, 54
-0.998545, 145, 275, 208, 290
-0.998546, 113, 241, 176, 256
-0.998546, 145, 245, 208, 260
-0.998549, 161, 115, 224, 130
-0.99855, 217, 297, 280, 312
-0.99855, 261, 251, 292, 266
-0.998551, 49, 243, 112, 258
-0.998552, 189, 47, 220, 62
-0.998555, 137, 31, 200, 46
-0.998555, 157, 41, 188, 56
-0.998555, 241, 211, 272, 226
-0.998556, 193, 111, 256, 126
-0.998556, 201, 287, 264, 302
-0.998557, 249, 215, 312, 230
-0.998558, 129, 223, 192, 238
-0.998558, 157, 225, 188, 240
-0.998559, 193, 269, 256, 284
-0.998559, 257, 107, 288, 122
-0.998559, 169, 25, 232, 40
-0.998559, 129, 197, 192, 212
-0.99856, 177, 29, 208, 44
-0.998561, 209, 149, 272, 164
-0.998561, 249, 71, 280, 86
-0.998562, 161, 283, 224, 298
-0.998563, 209, 275, 272, 290
-0.998565, 81, 223, 144, 238
-0.998565, 197, 17, 212, 144
-0.998567, 233, 123, 264, 138
-0.998569, 233, 115, 296, 130
-0.998572, 161, 299, 224, 314
-0.998573, 161, 369, 288, 432
-0.998574, 217, 71, 248, 86
-0.998575, 169, 43, 232, 58
-0.998575, 233, 233, 296, 248
-0.998575, 81, 367, 144, 382
-0.998577, 201, 311, 264, 326
-0.998577, 265, 77, 296, 92
-0.998579, 205, 65, 236, 80
-0.998579, 225, 267, 288, 282
-0.99858, 249, 225, 312, 240
-0.998581, 185, 281, 248, 296
-0.998581, 257, 301, 320, 316
-0.998582, 141, 195, 172, 210
-0.998582, 57, 233, 120, 248
-0.998582, 257, 91, 320, 106
-0.998582, 193, 263, 256, 278
-0.998583, 161, 191, 224, 206
-0.998584, 209, 137, 272, 152
-0.998585, 137, 109, 200, 124
-0.998585, 177, 61, 240, 76
-0.998586, 105, 299, 168, 314
-0.998586, 105, 359, 168, 374
-0.998587, 121, 279, 184, 294
-0.998587, 273, 111, 333, 126
-0.998588, 201, 95, 232, 110
-0.998588, 121, 217, 184, 232
-0.998588, 161, 293, 224, 308
-0.99859, 185, 295, 248, 310
-0.99859, 73, 245, 136, 260
-0.998591, 177, 73, 240, 88
-0.998591, 137, 37, 200, 52
-0.998592, 237, 197, 268, 212
-0.998593, 209, 143, 272, 158
-0.998593, 161, 55, 224, 70
-0.998593, 121, 261, 184, 276
-0.998594, 25, 379, 88, 394
-0.998594, 49, 191, 112, 206
-0.998595, 41, 249, 104, 264
-0.998596, 225, 281, 288, 296
-0.998597, 273, 117, 333, 132
-0.998597, 233, 67, 296, 82
-0.998597, 113, 353, 176, 368
-0.998598, 225, 217, 288, 232
-0.998599, 265, 103, 328, 118
-0.998599, 225, 209, 288, 224
-0.998601, 213, 109, 244, 124
-0.998601, 205, 65, 220, 192
-0.998603, 265, 77, 328, 92
-0.998604, 105, 223, 168, 238
-0.998606, 121, 285, 184, 300
-0.998606, 273, 221, 333, 236
-0.998606, 257, 257, 320, 272
-0.998608, 89, 195, 152, 210
-0.998608, 253, 237, 284, 252
-0.998609, 169, 245, 232, 260
-0.998609, 121, 293, 184, 308
-0.998611, 177, 49, 240, 64
-0.998612, 169, 269, 232, 284
-0.998612, 249, 239, 312, 254
-0.998613, 137, 323, 200, 338
-0.998615, 209, 197, 272, 212
-0.998615, 89, 281, 152, 296
-0.998616, 97, 377, 160, 392
-0.998616, 193, 93, 256, 108
-0.998616, 233, 305, 296, 320
-0.998616, 233, 199, 296, 214
-0.998617, 137, 317, 200, 332
-0.998618, 173, 35, 204, 50
-0.998618, 49, 383, 112, 398
-0.998618, 33, 365, 96, 380
-0.998618, 137, 303, 200, 318
-0.998619, 81, 433, 208, 496
-0.998622, 233, 347, 296, 362
-0.998623, 65, 253, 128, 268
-0.998624, 177, 67, 240, 82
-0.998626, 145, 23, 208, 38
-0.998629, 153, 189, 184, 204
-0.998629, 161, 329, 288, 360
-0.998635, 205, 103, 236, 118
-0.998637, 205, 79, 236, 94
-0.998648, 173, 43, 204, 58
-0.998666, 229, 79, 260, 94
-0.998692, 157, 241, 172, 368
-0.998693, 215, 49, 230, 176
-0.998703, 241, 209, 256, 336
-0.998713, 17, 217, 144, 248
-0.998722, 241, 65, 256, 192
-0.998739, 33, 201, 160, 232
-0.998757, 17, 9, 144, 72
-0.998775, 145, 177, 160, 304
-0.998777, 229, 65, 244, 192
-0.998782, 301, 97, 332, 352
-0.998791, 179, 1, 194, 128
-0.998796, 139, 209, 154, 336
-0.998828, 249, 177, 264, 304
-0.998837, 1, 377, 256, 440
-0.998843, 157, 161, 172, 288
-0.998849, 159, 1, 174, 128
-0.998849, 191, 1, 206, 128
-0.998855, 193, 17, 320, 48
-0.998865, 221, 49, 236, 176
-0.998885, 199, 65, 214, 192
-0.998897, 237, 257, 252, 384
-0.998901, 173, 209, 188, 336
-0.998903, 109, 257, 140, 500
-0.998923, 81, 69, 208, 100
-0.998926, 235, 49, 250, 176
-0.998926, 203, 17, 218, 144
-0.998929, 85, 161, 100, 288
-0.998929, 165, 209, 180, 336
-0.99893, 179, 225, 194, 352
-0.99893, 185, 241, 200, 368
-0.998931, 247, 65, 262, 192
-0.998935, 213, 257, 244, 500
-0.998936, 157, 65, 172, 192
-0.998938, 267, 209, 282, 336
-0.998943, 245, 129, 260, 256
-0.998954, 255, 193, 270, 320
-0.998962, 33, 273, 48, 400
-0.998964, 173, 1, 188, 128
-0.998965, 25, 1, 88, 500
-0.998966, 267, 161, 282, 288
-0.998973, 177, 5, 304, 36
-0.998978, 75, 177, 90, 304
-0.998979, 185, 1, 200, 128
-0.99898, 301, 193, 332, 448
-0.998986, 145, 361, 272, 392
-0.998987, 147, 273, 162, 400
-0.998989, 187, 49, 202, 176
-0.998995, 189, 193, 220, 448
-0.999005, 1, 149, 128, 180
-0.999013, 165, 1, 180, 128
-0.99904, 231, 241, 246, 368
-0.999047, 243, 273, 258, 400
-0.999047, 285, 257, 316, 500
-0.999048, 191, 241, 206, 368
-0.999054, 139, 161, 154, 288
-0.999068, 255, 145, 270, 272
-0.999071, 239, 113, 254, 240
-0.999075, 273, 225, 288, 352
-0.999078, 285, 257, 300, 384
-0.999084, 91, 193, 106, 320
-0.999086, 153, 113, 168, 240
-0.999093, 209, 189, 333, 220
-0.999099, 151, 225, 166, 352
-0.999105, 261, 209, 276, 336
-0.999107, 45, 225, 76, 480
-0.999112, 43, 257, 58, 384
-0.999118, 279, 241, 294, 368
-0.999119, 253, 65, 268, 192
-0.999124, 247, 225, 262, 352
-0.999124, 201, 337, 264, 464
-0.999129, 209, 17, 224, 144
-0.999131, 93, 97, 124, 352
-0.999134, 273, 161, 288, 288
-0.999143, 69, 161, 84, 288
-0.999145, 233, 113, 248, 240
-0.999148, 201, 225, 232, 480
-0.999148, 129, 209, 144, 336
-0.99915, 193, 65, 208, 192
-0.999153, 123, 209, 138, 336
-0.999158, 161, 113, 176, 240
-0.999161, 223, 97, 238, 224
-0.999161, 235, 193, 250, 320
-0.999165, 111, 209, 126, 336
-0.999182, 57, 161, 88, 416
-0.999187, 65, 5, 192, 36
-0.999204, 207, 113, 222, 240
-0.999206, 291, 81, 306, 208
-0.999221, 163, 161, 178, 288
-0.999221, 17, 469, 144, 500
-0.999221, 101, 241, 116, 368
-0.999221, 261, 161, 276, 288
-0.999227, 159, 289, 174, 416
-0.99923, 145, 225, 160, 352
-0.999231, 279, 161, 294, 288
-0.999236, 97, 193, 112, 320
-0.999244, 217, 97, 232, 224
-0.999263, 291, 273, 306, 400
-0.999268, 81, 53, 208, 84
-0.999269, 199, 257, 214, 384
-0.99927, 27, 289, 42, 416
-0.999271, 129, 161, 144, 288
-0.999274, 153, 1, 168, 128
-0.999278, 123, 273, 138, 400
-0.999279, 53, 241, 68, 368
-0.99928, 137, 305, 152, 432
-0.999289, 151, 49, 166, 176
-0.999291, 179, 65, 194, 192
-0.999295, 285, 209, 300, 336
-0.999295, 1, 121, 333, 184
-0.999302, 143, 321, 158, 448
-0.999308, 147, 113, 162, 240
-0.999308, 33, 73, 160, 136
-0.99931, 303, 81, 318, 208
-0.999316, 127, 337, 142, 464
-0.999317, 285, 81, 300, 208
-0.999318, 153, 305, 168, 432
-0.99932, 177, 321, 240, 448
-0.999321, 209, 433, 272, 496
-0.999323, 73, 65, 104, 320
-0.999326, 261, 49, 276, 176
-0.999327, 135, 257, 150, 384
-0.999331, 65, 209, 80, 336
-0.999332, 79, 129, 94, 256
-0.999332, 209, 257, 224, 384
-0.999346, 117, 209, 132, 336
-0.999354, 185, 193, 200, 320
-0.999355, 117, 289, 132, 416
-0.999356, 73, 225, 88, 352
-0.999357, 65, 469, 192, 500
-0.999369, 297, 81, 312, 208
-0.999373, 39, 321, 54, 448
-0.999381, 289, 161, 304, 288
-0.999382, 165, 49, 180, 176
-0.999383, 107, 289, 122, 416
-0.999392, 297, 145, 312, 272
-0.999392, 33, 321, 48, 448
-0.999397, 165, 257, 180, 384
-0.999403, 133, 1, 164, 256
-0.999412, 1, 433, 256, 496
-0.999416, 249, 273, 264, 400
-0.999422, 167, 97, 182, 224
-0.999423, 201, 113, 216, 240
-0.999429, 291, 209, 306, 336
-0.999429, 85, 209, 100, 336
-0.99944, 91, 273, 106, 400
-0.999446, 309, 113, 324, 240
-0.999453, 237, 305, 252, 432
-0.999454, 303, 145, 318, 272
-0.999454, 249, 17, 264, 144
-0.999457, 177, 161, 192, 288
-0.999461, 59, 209, 74, 336
-0.999461, 221, 257, 236, 384
-0.999462, 191, 193, 206, 320
-0.99947, 265, 257, 280, 384
-0.999474, 197, 209, 212, 336
-0.999479, 129, 257, 144, 384
-0.999482, 219, 1, 234, 128
-0.999482, 113, 457, 240, 488
-0.999485, 279, 81, 294, 208
-0.99949, 79, 225, 94, 352
-0.999494, 173, 65, 188, 192
-0.999542, 161, 453, 288, 484
-0.99955, 65, 117, 192, 148
-0.999553, 25, 193, 56, 320
-0.999596, 257, 433, 320, 496
-0.999623, 169, 229, 184, 244
-0.999624, 205, 83, 220, 98
-0.999624, 135, 357, 150, 372
-0.999624, 109, 375, 124, 390
-0.999624, 199, 123, 214, 138
-0.999625, 279, 75, 294, 90
-0.999627, 227, 65, 242, 80
-0.999627, 201, 65, 216, 80
-0.999627, 85, 167, 100, 182
-0.999628, 205, 123, 220, 138
-0.999628, 243, 219, 258, 234
-0.999629, 229, 305, 244, 320
-0.999629, 115, 373, 130, 388
-0.99963, 285, 279, 300, 294
-0.999631, 253, 191, 268, 206
-0.999631, 225, 77, 240, 92
-0.999631, 169, 91, 184, 106
-0.999633, 265, 79, 280, 94
-0.999633, 231, 119, 246, 134
-0.999634, 257, 255, 272, 270
-0.999635, 161, 227, 176, 242
-0.999635, 199, 31, 214, 46
-0.999635, 159, 83, 174, 98
-0.999636, 37, 365, 52, 380
-0.999636, 227, 283, 242, 298
-0.999636, 197, 59, 212, 74
-0.999636, 231, 295, 246, 310
-0.999637, 33, 359, 48, 374
-0.999638, 217, 69, 232, 84
-0.999639, 63, 243, 78, 258
-0.999639, 255, 227, 270, 242
-0.99964, 241, 261, 256, 276
-0.99964, 241, 131, 256, 146
-0.999641, 69, 231, 84, 246
-0.999641, 57, 251, 72, 266
-0.999642, 277, 275, 292, 290
-0.999642, 269, 109, 284, 124
-0.999642, 175, 109, 190, 124
-0.999643, 209, 93, 224, 108
-0.999643, 243, 255, 258, 270
-0.999643, 125, 365, 140, 380
-0.999643, 251, 247, 266, 262
-0.999644, 271, 265, 286, 280
-0.999644, 205, 105, 220, 120
-0.999644, 219, 105, 234, 120
-0.999644, 45, 269, 60, 284
-0.999645, 277, 109, 292, 124
-0.999645, 147, 233, 162, 248
-0.999645, 67, 237, 82, 252
-0.999646, 213, 99, 228, 114
-0.999646, 179, 25, 194, 40
-0.999646, 187, 95, 202, 110
-0.999648, 243, 79, 258, 94
-0.999648, 209, 117, 224, 132
-0.999649, 161, 353, 224, 416
-0.999649, 139, 211, 154, 226
-0.999651, 185, 49, 200, 64
-0.999651, 291, 89, 306, 104
-0.999651, 87, 225, 102, 240
-0.999651, 181, 31, 196, 46
-0.999652, 241, 295, 256, 310
-0.999653, 241, 125, 256, 140
-0.999655, 267, 231, 282, 246
-0.999655, 231, 71, 246, 86
-0.999655, 277, 265, 292, 280
-0.999655, 1, 33, 128, 96
-0.999656, 217, 75, 232, 90
-0.999657, 53, 379, 68, 394
-0.999658, 171, 35, 186, 50
-0.999658, 197, 93, 212, 108
-0.999659, 229, 113, 244, 128
-0.999659, 199, 109, 214, 124
-0.999661, 167, 253, 182, 268
-0.999661, 223, 305, 238, 320
-0.999662, 167, 221, 182, 236
-0.999662, 239, 197, 254, 212
-0.999666, 207, 111, 222, 126
-0.999667, 165, 189, 180, 204
-0.999667, 165, 247, 180, 262
-0.999669, 49, 263, 64, 278
-0.999671, 267, 255, 282, 270
-0.999671, 145, 373, 272, 404
-0.999672, 237, 81, 252, 96
-0.999673, 75, 231, 90, 246
-0.999674, 173, 29, 188, 44
-0.999675, 161, 237, 176, 252
-0.999676, 81, 227, 96, 242
-0.999677, 285, 83, 300, 98
-0.99968, 53, 257, 68, 272
-0.99968, 87, 161, 102, 176
-0.99968, 273, 253, 288, 268
-0.99968, 141, 197, 156, 212
-0.999681, 269, 237, 284, 252
-0.999684, 73, 257, 104, 500
-0.999685, 225, 107, 240, 122
-0.999685, 247, 195, 262, 210
-0.999685, 193, 47, 208, 62
-0.999686, 215, 93, 230, 108
-0.999689, 155, 185, 170, 200
-0.999689, 181, 43, 196, 58
-0.99969, 279, 81, 294, 96
-0.999692, 243, 213, 258, 228
-0.999692, 231, 79, 246, 94
-0.999693, 275, 259, 290, 274
-0.999693, 155, 193, 170, 208
-0.999693, 177, 37, 192, 52
-0.999695, 187, 29, 202, 44
-0.999696, 261, 105, 276, 120
-0.999697, 33, 161, 64, 416
-0.999699, 77, 165, 92, 180
-0.999703, 203, 117, 218, 132
-0.999704, 253, 211, 268, 226
-0.999706, 219, 99, 234, 114
-0.999708, 155, 231, 170, 246
-0.999709, 193, 37, 208, 52
-0.999709, 249, 225, 264, 240
-0.999712, 203, 91, 218, 106
-0.999712, 271, 75, 286, 90
-0.999713, 259, 237, 274, 252
-0.999717, 209, 449, 333, 480
-0.999718, 87, 195, 102, 210
-0.999722, 197, 101, 212, 116
-0.999726, 209, 77, 224, 92
-0.999727, 269, 243, 284, 258
-0.999728, 169, 41, 184, 56
-0.99973, 211, 87, 226, 102
-0.99973, 239, 71, 254, 86
-0.999736, 209, 63, 224, 78
-0.999744, 203, 97, 218, 112
-0.999756, 247, 125, 262, 140
-0.999756, 179, 89, 194, 104
-0.999758, 219, 81, 234, 96
-0.999766, 261, 229, 276, 244
-0.999766, 149, 187, 164, 202
-0.999771, 265, 249, 280, 264
-0.999787, 187, 43, 202, 58
-0.99979, 113, 65, 144, 320
-0.999813, 97, 377, 160, 440
-0.999834, 9, 257, 40, 500
-0.999848, 177, 113, 208, 240
-0.999883, 33, 433, 160, 496
-0.999885, 1, 369, 333, 432
-0.99989, 301, 1, 332, 256
-0.999903, 65, 133, 192, 164
-0.999949, 65, 65, 128, 320
-0.999969, 249, 353, 312, 480
-1.00005, 213, 321, 244, 448
-1.00005, 57, 257, 88, 500
-1.00017, 33, 29, 160, 60
-1.00019, 33, 397, 160, 428
-1.00021, 17, 457, 144, 488
-1.00024, 185, 433, 248, 496
-1.00025, 33, 17, 160, 48
-1.00027, 1, 441, 128, 472
-1.00028, 33, 97, 160, 128
-1.00029, 1, 17, 333, 80
-1.0003, 113, 1, 240, 32
-1.00033, 65, 457, 192, 488
-1.00035, 13, 161, 44, 416
-1.00037, 61, 65, 92, 320
-1.00043, 109, 113, 140, 240
-1.00045, 49, 313, 112, 376
-1.00049, 145, 441, 272, 472
-1.00051, 1, 1, 128, 32
-1.00052, 193, 377, 320, 408
-1.00053, 81, 389, 208, 420
-1.00055, 1, 45, 128, 76
-1.0006, 65, 433, 192, 464
-1.00061, 209, 421, 333, 452
-1.00063, 17, 137, 144, 168
-1.00063, 1, 429, 128, 460
-1.00064, 33, 409, 160, 440
-1.00073, 209, 409, 333, 472
-1.00074, 49, 65, 80, 320
-1.00078, 113, 369, 176, 496
-1.00082, 85, 1, 116, 256
-1.00082, 9, 1, 40, 256
-1.00089, 249, 25, 312, 88
-1.00091, 17, 409, 144, 472
-1.00095, 97, 1, 128, 256
-1.00105, 1, 409, 256, 472
-1.00108, 37, 1, 68, 256
-1.00109, 21, 1, 52, 256
-1.00116, 209, 385, 333, 448
-1.00118, 1, 161, 32, 416
-1.0012, 97, 385, 224, 448
-1.00123, 1, 433, 333, 496
-1.00125, 153, 433, 216, 496
-1.00129, 33, 97, 160, 160
-1.00151, 145, 393, 272, 456
-1.00182, 61, 289, 92, 416
-1.00211, 1, 161, 64, 416
-1.00215, 1, 1, 64, 128
-1.00216, 81, 409, 208, 472
-1.00239, 45, 161, 76, 288
-1.00304, 1, 409, 333, 472
-1.00316, 9, 209, 40, 336
-1.0035, 13, 353, 44, 480
-1.00367, 89, 97, 120, 224
-1.0039, 49, 113, 80, 240
-1.00422, 9, 1, 40, 128
-1.00454, 17, 1, 80, 256
-1.00481, 25, 1, 88, 128
-1.00503, 153, 353, 216, 480
-1.00581, 57, 1, 120, 128
-1.00632, 1, 49, 128, 176
-1.0084, 225, 369, 288, 496
-1.00851, 81, 1, 144, 128
-1.00901, 177, 369, 240, 496
-1.00961, 17, 113, 80, 240
-1.00961, 1, 49, 64, 176
-1.00962, 49, 65, 112, 192
-1.0133, 89, 49, 152, 176
-1.01441, 25, 49, 88, 176
