1956
-0.494337, 1, 1, 500, 375
-0.510177, 1, 1, 500, 256
-0.515558, 1, 97, 500, 352
-0.568011, 257, 1, 500, 375
-0.641761, 97, 1, 352, 375
-0.673103, 1, 1, 256, 375
-0.721534, 257, 129, 500, 375
-0.731077, 1, 1, 256, 256
-0.788917, 65, 129, 320, 375
-0.793976, 97, 1, 352, 256
-0.81055, 193, 33, 448, 288
-0.845475, 161, 129, 416, 375
-0.876266, 81, 1, 208, 375
-0.880189, 1, 225, 500, 352
-0.880535, 145, 97, 272, 352
-0.898029, 1, 1, 128, 375
-0.898768, 369, 1, 496, 375
-0.901174, 145, 1, 272, 375
-0.90574, 1, 1, 128, 256
-0.90709, 113, 1, 240, 256
-0.908709, 353, 129, 480, 375
-0.912661, 337, 1, 464, 256
-0.914452, 65, 129, 192, 375
-0.915575, 193, 1, 320, 375
-0.918373, 193, 129, 320, 375
-0.922149, 273, 129, 400, 375
-0.922571, 1, 145, 500, 272
-0.922953, 321, 1, 448, 375
-0.926538, 129, 209, 384, 336
-0.927288, 49, 1, 176, 256
-0.9275, 193, 33, 320, 288
-0.928479, 1, 97, 128, 352
-0.930713, 1, 49, 500, 176
-0.932453, 1, 1, 500, 128
-0.933262, 257, 161, 500, 288
-0.934821, 257, 1, 384, 375
-0.942244, 257, 241, 500, 368
-0.942938, 1, 97, 500, 224
-0.946066, 65, 145, 320, 272
-0.947083, 1, 225, 256, 352
-0.949045, 353, 209, 480, 336
-0.950154, 65, 65, 320, 192
-0.950491, 193, 113, 448, 240
-0.950512, 305, 209, 432, 336
-0.951164, 145, 193, 272, 320
-0.952402, 257, 225, 384, 352
-0.952564, 273, 33, 400, 288
-0.95278, 177, 97, 240, 224
-0.952871, 145, 193, 208, 320
-0.953706, 289, 225, 352, 352
-0.954903, 345, 313, 408, 375
-0.954986, 177, 145, 240, 272
-0.955313, 201, 145, 264, 272
-0.955493, 289, 249, 352, 312
-0.956018, 337, 225, 400, 352
-0.956256, 1, 1, 256, 128
-0.956425, 145, 145, 272, 272
-0.959412, 113, 241, 176, 368
-0.959883, 193, 193, 320, 320
-0.959925, 81, 177, 208, 304
-0.960928, 257, 241, 320, 304
-0.961131, 81, 1, 208, 128
-0.961248, 65, 241, 192, 368
-0.961642, 129, 97, 256, 224
-0.962787, 257, 33, 500, 160
-0.963017, 353, 161, 480, 288
-0.96317, 201, 193, 264, 320
-0.9639, 393, 145, 456, 272
-0.964656, 161, 161, 416, 288
-0.964658, 313, 225, 376, 352
-0.96478, 329, 249, 392, 312
-0.965408, 313, 289, 376, 352
-0.965677, 137, 113, 200, 240
-0.965949, 161, 65, 416, 192
-0.966965, 33, 193, 160, 320
-0.967026, 265, 209, 328, 336
-0.967063, 137, 241, 200, 368
-0.967171, 81, 49, 208, 176
-0.967354, 81, 97, 208, 224
-0.96762, 97, 17, 352, 144
-0.967958, 353, 273, 416, 336
-0.968453, 177, 49, 240, 176
-0.968532, 209, 129, 336, 256
-0.968946, 25, 225, 88, 352
-0.969233, 241, 209, 304, 336
-0.969418, 145, 241, 208, 304
-0.969433, 177, 209, 240, 336
-0.969522, 369, 33, 496, 160
-0.969659, 17, 1, 80, 128
-0.969745, 113, 241, 240, 368
-0.969746, 401, 201, 464, 264
-0.969825, 393, 297, 456, 360
-0.969906, 177, 65, 304, 192
-0.969986, 425, 177, 488, 304
-0.970264, 281, 225, 344, 288
-0.970349, 401, 169, 464, 232
-0.970665, 433, 129, 496, 256
-0.970902, 233, 257, 296, 320
-0.970931, 209, 65, 272, 192
-0.971038, 313, 225, 376, 288
-0.971138, 193, 1, 256, 128
-0.971339, 361, 241, 424, 368
-0.971471, 41, 305, 104, 368
-0.971866, 177, 89, 240, 152
-0.971883, 393, 193, 456, 320
-0.9721, 129, 49, 256, 176
-0.972151, 129, 1, 256, 128
-0.972234, 177, 161, 240, 224
-0.972811, 137, 1, 200, 128
-0.972859, 369, 297, 432, 360
-0.972886, 49, 17, 112, 144
-0.972925, 289, 161, 416, 288
-0.97301, 289, 273, 352, 336
-0.973068, 49, 209, 112, 336
-0.973162, 257, 265, 320, 328
-0.973258, 353, 81, 480, 208
-0.973576, 177, 129, 240, 192
-0.973944, 169, 185, 232, 248
-0.974034, 381, 297, 412, 360
-0.97404, 321, 313, 384, 375
-0.974326, 273, 233, 304, 296
-0.9744, 105, 161, 168, 288
-0.974541, 433, 185, 496, 248
-0.974748, 9, 201, 72, 264
-0.974852, 1, 193, 64, 320
-0.974914, 1, 17, 128, 144
-0.975004, 241, 161, 304, 288
-0.975273, 145, 217, 208, 280
-0.975505, 353, 161, 416, 288
-0.975587, 401, 241, 464, 368
-0.975865, 209, 241, 336, 368
-0.975884, 241, 217, 304, 280
-0.975907, 33, 145, 160, 272
-0.975919, 9, 257, 72, 320
-0.976179, 1, 241, 128, 368
-0.976179, 81, 1, 144, 128
-0.976184, 241, 265, 368, 328
-0.976201, 121, 289, 184, 352
-0.97631, 97, 65, 160, 192
-0.97631, 25, 177, 88, 304
-0.976318, 97, 313, 160, 375
-0.976501, 177, 241, 240, 304
-0.976641, 241, 177, 368, 304
-0.976708, 145, 265, 208, 328
-0.977011, 401, 225, 464, 288
-0.977082, 129, 313, 192, 375
-0.977092, 137, 145, 200, 208
-0.977157, 217, 145, 248, 272
-0.977159, 273, 81, 400, 208
-0.977203, 73, 17, 136, 80
-0.977268, 193, 65, 256, 128
-0.977347, 121, 265, 184, 328
-0.977438, 297, 313, 360, 375
-0.977462, 433, 145, 496, 208
-0.977794, 1, 241, 64, 368
-0.977851, 273, 241, 400, 304
-0.978047, 65, 289, 192, 352
-0.978239, 121, 241, 184, 304
-0.978492, 201, 193, 264, 256
-0.978561, 417, 1, 480, 128
-0.978582, 305, 297, 432, 360
-0.978691, 193, 1, 320, 128
-0.978699, 185, 25, 248, 88
-0.978742, 217, 233, 280, 296
-0.978792, 289, 33, 416, 160
-0.978817, 33, 241, 96, 304
-0.978853, 177, 1, 240, 256
-0.978862, 393, 273, 456, 336
-0.978922, 33, 313, 160, 375
-0.978947, 169, 177, 200, 304
-0.97921, 137, 177, 200, 240
-0.979231, 321, 177, 384, 304
-0.979246, 209, 97, 272, 160
-0.979282, 1, 65, 128, 192
-0.979312, 13, 193, 44, 256
-0.979462, 353, 217, 480, 280
-0.979487, 177, 233, 304, 296
-0.979562, 105, 1, 168, 128
-0.979624, 201, 161, 264, 224
-0.979717, 145, 193, 272, 256
-0.979843, 33, 201, 96, 264
-0.979896, 17, 281, 80, 344
-0.979902, 209, 129, 272, 192
-0.979956, 429, 169, 460, 232
-0.97996, 1, 9, 64, 72
-0.980139, 65, 289, 128, 352
-0.980226, 177, 97, 240, 352
-0.980311, 417, 81, 480, 208
-0.980341, 105, 113, 168, 240
-0.980481, 225, 81, 352, 208
-0.980679, 333, 281, 364, 344
-0.980684, 353, 233, 416, 296
-0.980768, 233, 65, 296, 192
-0.98082, 137, 121, 200, 184
-0.980882, 233, 193, 296, 256
-0.980945, 345, 225, 376, 352
-0.980948, 81, 313, 208, 375
-0.980963, 345, 297, 376, 360
-0.981085, 169, 209, 232, 272
-0.981092, 49, 33, 112, 96
-0.981094, 65, 65, 128, 192
-0.981216, 145, 49, 208, 176
-0.98122, 385, 1, 448, 128
-0.981349, 25, 177, 88, 240
-0.981452, 161, 241, 288, 368
-0.981455, 201, 97, 264, 352
-0.981466, 97, 105, 160, 168
-0.981674, 353, 297, 480, 360
-0.981713, 433, 225, 496, 352
-0.981779, 193, 257, 320, 320
-0.981781, 377, 169, 440, 232
-0.981794, 173, 169, 204, 232
-0.981852, 401, 249, 464, 312
-0.981955, 385, 81, 448, 208
-0.981977, 105, 169, 168, 232
-0.982027, 321, 249, 448, 312
-0.982124, 321, 257, 352, 320
-0.98215, 57, 1, 120, 256
-0.982224, 153, 289, 216, 352
-0.982233, 89, 241, 152, 368
-0.982619, 417, 129, 480, 375
-0.982697, 65, 73, 128, 136
-0.982787, 153, 97, 216, 160
-0.982845, 25, 25, 88, 88
-0.982866, 129, 289, 256, 352
-0.982898, 9, 225, 72, 288
-0.983005, 217, 1, 280, 128
-0.98304, 81, 145, 144, 272
-0.983043, 145, 257, 272, 320
-0.983175, 73, 193, 136, 320
-0.983181, 129, 1, 192, 256
-0.983248, 337, 273, 464, 336
-0.983304, 333, 217, 364, 280
-0.983331, 241, 1, 368, 128
-0.983358, 49, 9, 112, 72
-0.983416, 241, 217, 368, 280
-0.983445, 217, 57, 280, 120
-0.9836, 289, 177, 352, 304
-0.983602, 377, 249, 440, 312
-0.983668, 205, 145, 236, 272
-0.983732, 285, 257, 316, 320
-0.983748, 177, 265, 240, 328
-0.983836, 233, 113, 296, 240
-0.983841, 425, 1, 488, 64
-0.983841, 121, 9, 184, 72
-0.983887, 57, 297, 88, 360
-0.983889, 273, 1, 336, 128
-0.983973, 189, 209, 220, 336
-0.984135, 341, 241, 372, 304
-0.984207, 97, 169, 224, 232
-0.98432, 337, 193, 464, 256
-0.98435, 105, 1, 168, 256
-0.984387, 377, 225, 440, 288
-0.984391, 241, 289, 368, 352
-0.984468, 313, 1, 376, 128
-0.984555, 65, 265, 192, 328
-0.98457, 217, 9, 280, 72
-0.984607, 1, 73, 128, 136
-0.984629, 401, 1, 464, 64
-0.984681, 393, 145, 456, 208
-0.984681, 145, 169, 272, 232
-0.984716, 189, 233, 220, 296
-0.984768, 241, 129, 304, 375
-0.984849, 25, 1, 56, 128
-0.984857, 361, 241, 392, 368
-0.984873, 97, 265, 160, 328
-0.984972, 161, 1, 224, 128
-0.985028, 393, 129, 456, 375
-0.985033, 305, 217, 432, 280
-0.985076, 325, 209, 356, 336
-0.985081, 345, 1, 408, 128
-0.985082, 17, 177, 48, 304
-0.985097, 193, 209, 320, 272
-0.985108, 97, 145, 160, 208
-0.985168, 273, 257, 304, 320
-0.985198, 113, 225, 240, 288
-0.985208, 137, 129, 200, 375
-0.985209, 253, 233, 284, 296
-0.985266, 81, 105, 208, 168
-0.985297, 417, 41, 480, 104
-0.985411, 81, 129, 208, 192
-0.985433, 25, 49, 88, 112
-0.985446, 353, 169, 480, 232
-0.985494, 73, 313, 136, 375
-0.985519, 137, 241, 168, 368
-0.985531, 157, 193, 188, 320
-0.985543, 189, 145, 220, 272
-0.985556, 97, 201, 224, 264
-0.985567, 129, 113, 256, 176
-0.985577, 81, 49, 208, 112
-0.985577, 1, 249, 128, 312
-0.985594, 417, 121, 480, 184
-0.985615, 425, 209, 488, 272
-0.985629, 229, 193, 260, 320
-0.98564, 153, 33, 216, 96
-0.985655, 193, 217, 256, 280
-0.985717, 137, 1, 200, 375
-0.985748, 209, 1, 272, 256
-0.985754, 161, 9, 224, 72
-0.985819, 429, 145, 460, 272
-0.985981, 381, 241, 412, 368
-0.986019, 153, 1, 216, 256
-0.986031, 281, 209, 312, 336
-0.986035, 353, 81, 416, 208
-0.986039, 289, 233, 320, 296
-0.986044, 229, 145, 260, 272
-0.986086, 173, 129, 204, 256
-0.986106, 53, 193, 84, 256
-0.986154, 53, 225, 84, 288
-0.986176, 433, 33, 496, 288
-0.986187, 441, 193, 472, 320
-0.986193, 365, 273, 396, 336
-0.986249, 301, 249, 332, 312
-0.986301, 337, 201, 400, 264
-0.986378, 353, 89, 480, 152
-0.986415, 213, 153, 244, 216
-0.986419, 9, 305, 72, 368
-0.986476, 57, 25, 88, 88
-0.986606, 89, 1, 120, 128
-0.986608, 321, 313, 352, 375
-0.986636, 417, 297, 480, 360
-0.986639, 9, 73, 72, 136
-0.986694, 225, 33, 288, 96
-0.98674, 73, 41, 136, 104
-0.986808, 369, 241, 496, 304
-0.986841, 289, 273, 416, 336
-0.986943, 357, 305, 388, 368
-0.986966, 65, 265, 128, 328
-0.986977, 281, 201, 344, 264
-0.986986, 53, 177, 84, 304
-0.986987, 377, 201, 440, 264
-0.987018, 17, 1, 80, 256
-0.987086, 105, 33, 168, 96
-0.987093, 265, 289, 328, 352
-0.987117, 185, 49, 216, 176
-0.987166, 177, 137, 304, 200
-0.987207, 433, 97, 496, 160
-0.9873, 37, 209, 68, 336
-0.987322, 425, 1, 488, 375
-0.987333, 77, 9, 108, 72
-0.987366, 81, 9, 208, 72
-0.987368, 337, 41, 400, 104
-0.987471, 81, 73, 208, 136
-0.98748, 49, 225, 80, 352
-0.987486, 1, 1, 32, 64
-0.987532, 17, 249, 48, 312
-0.987544, 25, 1, 88, 64
-0.987544, 449, 113, 480, 240
-0.987618, 41, 265, 104, 328
-0.98762, 369, 65, 496, 128
-0.987623, 157, 241, 188, 368
-0.987642, 213, 129, 244, 192
-0.987665, 57, 201, 120, 264
-0.987696, 173, 281, 204, 344
-0.987704, 441, 201, 472, 264
-0.987728, 229, 193, 260, 256
-0.987733, 353, 33, 480, 96
-0.987764, 153, 289, 184, 352
-0.987798, 129, 313, 256, 375
-0.987824, 145, 177, 176, 304
-0.987856, 229, 65, 260, 192
-0.988033, 189, 97, 220, 224
-0.988103, 49, 177, 176, 240
-0.988118, 429, 209, 460, 272
-0.988125, 201, 201, 232, 264
-0.98816, 129, 89, 256, 152
-0.988175, 433, 233, 496, 296
-0.988204, 437, 305, 468, 368
-0.988214, 33, 225, 64, 288
-0.98824, 21, 1, 52, 64
-0.98824, 205, 89, 236, 152
-0.988258, 97, 1, 160, 64
-0.98826, 209, 1, 240, 128
-0.988278, 185, 89, 216, 152
-0.988286, 165, 249, 196, 312
-0.988288, 129, 249, 160, 312
-0.988311, 409, 97, 472, 160
-0.988342, 129, 145, 256, 208
-0.988379, 121, 201, 184, 264
-0.988393, 1, 49, 128, 112
-0.98841, 433, 265, 496, 328
-0.988419, 333, 313, 364, 375
-0.988425, 97, 81, 160, 144
-0.988443, 313, 49, 376, 176
-0.988463, 17, 289, 144, 352
-0.988542, 429, 145, 460, 208
-0.988555, 369, 313, 400, 375
-0.988563, 1, 193, 32, 320
-0.988596, 273, 1, 336, 64
-0.988598, 265, 209, 296, 272
-0.988611, 225, 57, 256, 120
-0.988657, 417, 193, 448, 256
-0.988662, 9, 1, 72, 375
-0.988692, 249, 1, 312, 64
-0.988744, 217, 97, 248, 224
-0.988757, 153, 313, 216, 375
-0.98879, 257, 225, 288, 352
-0.9888, 393, 209, 424, 336
-0.988825, 1, 49, 64, 176
-0.988843, 97, 57, 160, 120
-0.988889, 353, 177, 416, 240
-0.988898, 177, 281, 304, 344
-0.988909, 353, 145, 480, 208
-0.988923, 77, 1, 108, 128
-0.988962, 193, 1, 256, 375
-0.988963, 353, 257, 384, 320
-0.988982, 321, 225, 352, 288
-0.989011, 1, 185, 128, 248
-0.989031, 25, 97, 88, 352
-0.989078, 65, 137, 128, 200
-0.989116, 313, 225, 344, 352
-0.989162, 33, 25, 160, 88
-0.989283, 65, 1, 128, 375
-0.989341, 357, 233, 388, 296
-0.989378, 389, 1, 420, 128
-0.989385, 129, 17, 256, 80
-0.989418, 429, 97, 460, 224
-0.989424, 17, 209, 144, 272
-0.989428, 249, 121, 312, 184
-0.989435, 201, 97, 232, 224
-0.989446, 137, 305, 168, 368
-0.989479, 81, 1, 144, 256
-0.989494, 313, 289, 344, 352
-0.989514, 433, 73, 496, 136
-0.989515, 289, 253, 352, 284
-0.989519, 353, 317, 416, 348
-0.989532, 233, 81, 296, 144
-0.989568, 1, 249, 32, 312
-0.989585, 89, 49, 120, 112
-0.989606, 257, 257, 288, 320
-0.989645, 165, 209, 196, 272
-0.989698, 369, 1, 496, 64
-0.989728, 293, 225, 324, 352
-0.989749, 49, 49, 80, 112
-0.989768, 265, 161, 328, 288
-0.989803, 193, 185, 320, 248
-0.989854, 97, 97, 160, 352
-0.989876, 65, 225, 96, 352
-0.989927, 429, 281, 460, 344
-0.989929, 209, 113, 336, 176
-0.989938, 41, 73, 104, 136
-0.989949, 65, 169, 128, 232
-0.989954, 117, 241, 148, 368
-0.989959, 217, 1, 280, 375
-0.989978, 193, 81, 320, 144
-0.989981, 337, 65, 400, 128
-0.989993, 377, 257, 408, 320
-0.990007, 241, 313, 368, 375
-0.990028, 125, 313, 156, 375
-0.990052, 121, 49, 184, 176
-0.99008, 161, 177, 192, 240
-0.990096, 173, 241, 204, 368
-0.990114, 217, 201, 248, 264
-0.990115, 361, 301, 424, 332
-0.990145, 249, 177, 280, 304
-0.990147, 37, 297, 68, 360
-0.990156, 401, 1, 464, 375
-0.990175, 89, 49, 120, 176
-0.990188, 377, 17, 440, 80
-0.99023, 329, 313, 392, 344
-0.990252, 321, 245, 384, 276
-0.990315, 241, 217, 272, 280
-0.990325, 149, 249, 180, 312
-0.990341, 33, 161, 64, 288
-0.990361, 401, 221, 464, 252
-0.990372, 401, 189, 464, 220
-0.990405, 201, 49, 232, 176
-0.990416, 197, 169, 228, 232
-0.990442, 129, 193, 160, 320
-0.990449, 449, 161, 480, 224
-0.990451, 297, 317, 360, 348
-0.990461, 369, 1, 400, 128
-0.990463, 37, 257, 68, 320
-0.990495, 209, 25, 240, 88
-0.990529, 241, 193, 368, 256
-0.990535, 49, 161, 112, 288
-0.990571, 57, 241, 120, 304
-0.990576, 377, 313, 440, 344
-0.9906, 401, 173, 464, 204
-0.99062, 25, 197, 88, 228
-0.990636, 233, 277, 296, 308
-0.990654, 53, 273, 84, 336
-0.990678, 265, 269, 328, 300
-0.990679, 289, 269, 352, 300
-0.990685, 393, 325, 456, 356
-0.990703, 257, 237, 320, 268
-0.990704, 89, 73, 120, 136
-0.99072, 409, 1, 440, 128
-0.99072, 217, 233, 280, 264
-0.990722, 345, 209, 408, 240
-0.990731, 17, 217, 48, 280
-0.990741, 65, 113, 128, 176
-0.990749, 193, 233, 256, 264
-0.9908, 33, 305, 96, 336
-0.9908, 305, 293, 368, 324
-0.990801, 265, 253, 328, 284
-0.990805, 145, 269, 208, 300
-0.990818, 337, 297, 400, 328
-0.990834, 229, 113, 260, 176
-0.990837, 65, 225, 192, 288
-0.990843, 73, 129, 136, 375
-0.990843, 205, 193, 236, 320
-0.990863, 129, 1, 160, 128
-0.990894, 289, 81, 416, 144
-0.990901, 241, 1, 304, 128
-0.990906, 345, 233, 408, 264
-0.990924, 233, 281, 296, 344
-0.990928, 189, 145, 220, 208
-0.990954, 225, 81, 256, 144
-0.990957, 401, 289, 432, 352
-0.990963, 273, 313, 336, 375
-0.990978, 89, 9, 120, 72
-0.990978, 21, 25, 52, 88
-0.990988, 161, 229, 224, 260
-0.990997, 401, 233, 464, 264
-0.991011, 233, 1, 296, 256
-0.991034, 217, 193, 248, 320
-0.991054, 169, 181, 232, 212
-0.991062, 1, 1, 128, 64
-0.991064, 289, 97, 352, 352
-0.991087, 353, 329, 416, 360
-0.99109, 185, 265, 216, 328
-0.991105, 401, 209, 464, 240
-0.991106, 385, 65, 448, 128
-0.991114, 177, 141, 240, 172
-0.991135, 177, 165, 240, 196
-0.991152, 289, 241, 352, 272
-0.991152, 129, 17, 160, 80
-0.991183, 161, 1, 224, 375
-0.991192, 145, 281, 208, 312
-0.991211, 385, 245, 448, 276
-0.991212, 309, 313, 340, 375
-0.991223, 185, 249, 248, 280
-0.991241, 5, 1, 36, 128
-0.991261, 89, 341, 152, 372
-0.991301, 177, 109, 240, 140
-0.991308, 321, 233, 384, 264
-0.991319, 233, 265, 296, 296
-0.991323, 329, 257, 392, 288
-0.991327, 385, 301, 448, 332
-0.991361, 49, 33, 80, 160
-0.991363, 177, 153, 240, 184
-0.991369, 313, 277, 376, 308
-0.99137, 129, 41, 256, 104
-0.991379, 161, 217, 224, 248
-0.991388, 361, 81, 424, 144
-0.991413, 137, 173, 200, 204
-0.991415, 145, 253, 208, 284
-0.991415, 185, 221, 248, 252
-0.991421, 233, 249, 296, 280
-0.991439, 1, 177, 64, 240
-0.991461, 177, 129, 240, 160
-0.991464, 321, 217, 384, 248
-0.991475, 433, 241, 464, 304
-0.991479, 113, 321, 176, 352
-0.991487, 9, 257, 72, 288
-0.991495, 433, 241, 464, 368
-0.991497, 241, 221, 304, 252
-0.991504, 441, 265, 472, 328
-0.99152, 197, 1, 228, 128
-0.991522, 89, 329, 152, 360
-0.991524, 49, 29, 112, 60
-0.99153, 57, 301, 120, 332
-0.991531, 1, 273, 32, 336
-0.991535, 177, 269, 240, 300
-0.99154, 265, 281, 328, 312
-0.991542, 165, 305, 196, 368
-0.991547, 393, 337, 456, 368
-0.99155, 305, 305, 368, 336
-0.991562, 337, 273, 400, 304
-0.991573, 17, 293, 80, 324
-0.991583, 153, 41, 216, 72
-0.991592, 145, 241, 208, 272
-0.991597, 73, 289, 104, 352
-0.991598, 49, 345, 112, 375
-0.991635, 145, 189, 208, 220
-0.991641, 421, 1, 452, 128
-0.991647, 361, 245, 424, 276
-0.991658, 337, 285, 400, 316
-0.991663, 437, 33, 468, 160
-0.991664, 289, 1, 352, 375
-0.991666, 193, 161, 320, 224
-0.99167, 169, 201, 232, 232
-0.99168, 89, 5, 152, 36
-0.991697, 137, 161, 200, 192
-0.991697, 49, 329, 112, 360
-0.991698, 441, 121, 472, 184
-0.991713, 73, 33, 136, 64
-0.991737, 9, 17, 72, 48
-0.991751, 401, 313, 464, 344
-0.991794, 369, 209, 432, 240
-0.991794, 33, 209, 96, 240
-0.991797, 105, 169, 168, 200
-0.991807, 177, 97, 240, 128
-0.991821, 433, 189, 496, 220
-0.991825, 433, 161, 496, 192
-0.991828, 469, 17, 500, 144
-0.991852, 369, 113, 496, 176
-0.991853, 169, 285, 232, 316
-0.991853, 113, 1, 176, 375
-0.991854, 417, 169, 448, 232
-0.991862, 289, 229, 352, 260
-0.991867, 65, 17, 128, 48
-0.991868, 41, 193, 72, 256
-0.991882, 305, 41, 432, 104
-0.991888, 129, 293, 192, 324
-0.991893, 137, 117, 200, 148
-0.991894, 125, 153, 156, 216
-0.9919, 217, 217, 280, 248
-0.991906, 397, 225, 428, 288
-0.991909, 185, 45, 248, 76
-0.991911, 193, 193, 256, 224
-0.991921, 121, 269, 184, 300
-0.991924, 425, 173, 488, 204
-0.991927, 401, 285, 464, 316
-0.991934, 385, 261, 448, 292
-0.991946, 273, 281, 304, 344
-0.991947, 401, 161, 464, 192
-0.991951, 193, 17, 320, 80
-0.99196, 25, 245, 88, 276
-0.991985, 121, 13, 184, 44
-0.991995, 377, 173, 440, 204
-0.992015, 25, 29, 88, 60
-0.992035, 209, 245, 272, 276
-0.992051, 129, 305, 192, 336
-0.992052, 137, 1, 200, 32
-0.992074, 209, 129, 272, 160
-0.992075, 433, 201, 496, 232
-0.992076, 145, 177, 176, 240
-0.992078, 361, 289, 424, 320
-0.992085, 1, 197, 64, 228
-0.992088, 433, 137, 496, 168
-0.992098, 161, 9, 224, 40
-0.992101, 185, 57, 248, 88
-0.992113, 377, 193, 440, 224
-0.992117, 65, 201, 96, 264
-0.992129, 57, 289, 120, 320
-0.992133, 361, 265, 424, 296
-0.99214, 201, 117, 264, 148
-0.992141, 409, 297, 472, 328
-0.992146, 97, 117, 160, 148
-0.992164, 33, 317, 96, 348
-0.992175, 433, 125, 496, 156
-0.992177, 201, 149, 264, 180
-0.992187, 97, 105, 160, 136
-0.992193, 121, 249, 184, 280
-0.992199, 297, 329, 360, 360
-0.992208, 49, 41, 112, 72
-0.992209, 353, 221, 416, 252
-0.992212, 177, 193, 208, 256
-0.992229, 69, 33, 100, 96
-0.992231, 393, 313, 424, 375
-0.992234, 153, 305, 216, 336
-0.992237, 41, 53, 104, 84
-0.992239, 137, 333, 200, 364
-0.992268, 217, 61, 280, 92
-0.99227, 33, 97, 160, 160
-0.992278, 129, 345, 192, 375
-0.992285, 33, 169, 64, 232
-0.992287, 401, 1, 464, 32
-0.992299, 409, 1, 472, 256
-0.992304, 65, 73, 128, 104
-0.992325, 77, 313, 108, 375
-0.992356, 437, 89, 468, 152
-0.99238, 185, 169, 216, 232
-0.992423, 385, 161, 416, 288
-0.992465, 321, 9, 448, 72
-0.992465, 145, 113, 176, 240
-0.992489, 345, 1, 408, 375
-0.992573, 321, 245, 352, 276
-0.992578, 25, 225, 56, 352
-0.992602, 385, 233, 416, 296
-0.992617, 385, 309, 416, 340
-0.992621, 257, 49, 320, 176
-0.992639, 57, 305, 88, 336
-0.992643, 109, 33, 140, 160
-0.99269, 265, 97, 328, 352
-0.992696, 329, 129, 392, 375
-0.992702, 13, 197, 44, 228
-0.992704, 129, 145, 160, 272
-0.992726, 369, 305, 400, 336
-0.99274, 133, 281, 164, 344
-0.992765, 381, 321, 412, 352
-0.992766, 309, 225, 340, 288
-0.9928, 369, 1, 432, 256
-0.992811, 189, 237, 220, 268
-0.99282, 413, 9, 444, 72
-0.992827, 333, 253, 364, 284
-0.992842, 109, 305, 140, 368
-0.992843, 321, 317, 352, 348
-0.992848, 429, 193, 460, 320
-0.992858, 165, 81, 196, 208
-0.992858, 345, 273, 376, 304
-0.992858, 281, 265, 312, 296
-0.992861, 217, 105, 248, 168
-0.992882, 225, 233, 256, 264
-0.992894, 269, 229, 300, 260
-0.9929, 273, 277, 304, 308
-0.992906, 301, 249, 332, 280
-0.992907, 349, 309, 380, 340
-0.992911, 449, 25, 480, 88
-0.992915, 257, 217, 500, 280
-0.992916, 269, 225, 300, 352
-0.992917, 361, 317, 392, 348
-0.992919, 53, 205, 84, 236
-0.992936, 177, 177, 208, 208
-0.992944, 433, 165, 464, 196
-0.992952, 25, 49, 88, 176
-0.992955, 17, 253, 48, 284
-0.99296, 389, 297, 420, 328
-0.992962, 213, 233, 244, 264
-0.992965, 337, 229, 368, 260
-0.992973, 337, 321, 368, 352
-0.992978, 177, 57, 304, 120
-0.992992, 217, 225, 248, 288
-0.993002, 425, 193, 456, 224
-0.993006, 325, 281, 356, 312
-0.993008, 433, 249, 464, 280
-0.993031, 237, 229, 268, 260
-0.993036, 333, 241, 364, 272
-0.993041, 309, 313, 340, 344
-0.993043, 273, 253, 304, 284
-0.993045, 89, 305, 120, 368
-0.993046, 53, 193, 84, 224
-0.99305, 361, 129, 424, 375
-0.993064, 421, 241, 452, 304
-0.993066, 217, 129, 248, 160
-0.993066, 29, 57, 60, 120
-0.993067, 433, 205, 464, 236
-0.993069, 193, 225, 224, 256
-0.993072, 425, 177, 456, 208
-0.993072, 117, 325, 148, 356
-0.993079, 53, 249, 84, 280
-0.993081, 141, 1, 172, 128
-0.993085, 21, 13, 52, 44
-0.993088, 385, 209, 416, 240
-0.993095, 413, 189, 444, 220
-0.993096, 65, 209, 96, 240
-0.993096, 349, 237, 380, 268
-0.993098, 213, 245, 244, 276
-0.9931, 185, 273, 216, 304
-0.993101, 225, 249, 256, 280
-0.993106, 173, 189, 204, 220
-0.993109, 369, 205, 400, 236
-0.993114, 389, 249, 420, 280
-0.993116, 217, 221, 248, 252
-0.993119, 1, 273, 500, 336
-0.993119, 365, 293, 396, 324
-0.993119, 37, 1, 68, 128
-0.993123, 137, 325, 168, 356
-0.993123, 57, 25, 88, 56
-0.993124, 229, 217, 260, 248
-0.993124, 189, 249, 220, 280
-0.993129, 173, 281, 204, 312
-0.99313, 257, 249, 500, 312
-0.993131, 213, 157, 244, 188
-0.993132, 37, 257, 68, 288
-0.993134, 77, 17, 108, 48
-0.993136, 437, 277, 468, 308
-0.99314, 389, 229, 420, 260
-0.993141, 65, 17, 96, 144
-0.993141, 433, 321, 464, 352
-0.993143, 1, 305, 500, 368
-0.993147, 149, 313, 180, 375
-0.993153, 337, 209, 368, 240
-0.993157, 433, 221, 464, 252
-0.99316, 229, 217, 260, 280
-0.993161, 129, 257, 160, 288
-0.993161, 45, 301, 76, 332
-0.993166, 89, 73, 120, 104
-0.993175, 349, 213, 380, 244
-0.993176, 321, 269, 352, 300
-0.99318, 229, 61, 260, 92
-0.993182, 37, 201, 68, 232
-0.993184, 205, 97, 236, 128
-0.993184, 57, 293, 88, 324
-0.993185, 229, 197, 260, 228
-0.993185, 377, 233, 408, 264
-0.993189, 73, 293, 104, 324
-0.99319, 349, 201, 380, 232
-0.99319, 445, 201, 476, 232
-0.993197, 201, 237, 232, 268
-0.993199, 89, 13, 120, 44
-0.9932, 1, 5, 32, 36
-0.993201, 197, 185, 228, 216
-0.993203, 401, 329, 432, 360
-0.993206, 341, 293, 372, 324
-0.993207, 129, 337, 160, 368
-0.993209, 261, 265, 292, 296
-0.993216, 269, 217, 300, 248
-0.993216, 109, 337, 140, 368
-0.993221, 185, 93, 216, 124
-0.993221, 261, 277, 292, 308
-0.993223, 189, 165, 220, 196
-0.993223, 249, 217, 280, 248
-0.993224, 449, 189, 480, 220
-0.993225, 445, 225, 476, 256
-0.993227, 313, 257, 344, 288
-0.993229, 153, 17, 184, 48
-0.993233, 397, 169, 428, 200
-0.993234, 437, 265, 468, 296
-0.993237, 137, 305, 168, 336
-0.993237, 297, 317, 328, 348
-0.993238, 149, 309, 180, 340
-0.993244, 249, 229, 280, 260
-0.993256, 169, 233, 200, 264
-0.993259, 157, 293, 188, 324
-0.993262, 449, 65, 480, 192
-0.993267, 281, 237, 312, 268
-0.993268, 21, 209, 52, 240
-0.99327, 133, 13, 164, 44
-0.99327, 225, 281, 256, 312
-0.99327, 377, 85, 408, 116
-0.99328, 333, 265, 364, 296
-0.993281, 421, 265, 452, 296
-0.993284, 205, 117, 236, 148
-0.993285, 165, 177, 196, 208
-0.993287, 169, 269, 200, 300
-0.993287, 217, 49, 248, 176
-0.993288, 157, 197, 188, 228
-0.993292, 217, 193, 248, 224
-0.993294, 25, 197, 56, 228
-0.993297, 89, 57, 120, 88
-0.993298, 225, 261, 256, 292
-0.993302, 337, 305, 368, 336
-0.993304, 437, 301, 468, 332
-0.993304, 357, 225, 388, 256
-0.993305, 421, 325, 452, 356
-0.993307, 285, 277, 316, 308
-0.993309, 49, 53, 80, 84
-0.993309, 437, 109, 468, 140
-0.99331, 1, 281, 32, 312
-0.99331, 445, 173, 476, 204
-0.993312, 393, 197, 424, 228
-0.993322, 49, 153, 176, 216
-0.993325, 113, 97, 144, 160
-0.993326, 273, 9, 400, 72
-0.993331, 13, 241, 44, 368
-0.993344, 265, 97, 328, 224
-0.993348, 377, 81, 408, 208
-0.993351, 57, 113, 120, 240
-0.993356, 341, 177, 372, 304
-0.993361, 109, 41, 140, 104
-0.993378, 417, 161, 448, 288
-0.993387, 213, 65, 244, 128
-0.993387, 349, 209, 380, 272
-0.99343, 225, 137, 352, 200
-0.993445, 129, 233, 384, 296
-0.993447, 165, 1, 196, 128
-0.993468, 161, 265, 416, 328
-0.993487, 33, 1, 96, 375
-0.993505, 29, 201, 60, 264
-0.993514, 405, 201, 436, 264
-0.993552, 289, 193, 416, 256
-0.993563, 241, 97, 272, 224
-0.993574, 433, 1, 464, 64
-0.993636, 201, 1, 232, 64
-0.993638, 153, 201, 184, 264
-0.993655, 225, 57, 352, 120
-0.993667, 321, 1, 384, 375
-0.993709, 1, 161, 128, 224
-0.993719, 381, 81, 412, 144
-0.993739, 305, 169, 432, 232
-0.993794, 117, 257, 148, 320
-0.993808, 161, 289, 416, 352
-0.993818, 269, 177, 300, 304
-0.993825, 17, 281, 48, 344
-0.993856, 369, 57, 400, 120
-0.993866, 53, 249, 84, 312
-0.993873, 257, 305, 500, 368
-0.993891, 461, 65, 492, 192
-0.993901, 65, 225, 96, 288
-0.993962, 205, 225, 236, 288
-0.994025, 249, 1, 312, 375
-0.994044, 109, 81, 140, 208
-0.99406, 225, 245, 352, 276
-0.994203, 377, 1, 440, 375
-0.994244, 121, 97, 152, 224
-0.994254, 65, 177, 96, 304
-0.99432, 257, 281, 500, 344
-0.994382, 397, 161, 428, 288
-0.994382, 293, 177, 324, 304
-0.994382, 257, 193, 500, 256
-0.994383, 33, 129, 160, 192
-0.994431, 65, 97, 320, 160
-0.994431, 1, 249, 500, 312
-0.994502, 273, 105, 400, 168
-0.994562, 13, 49, 44, 176
-0.994567, 193, 305, 320, 368
-0.994582, 1, 289, 256, 352
-0.994586, 273, 261, 400, 292
-0.994718, 25, 129, 88, 256
-0.994745, 65, 121, 320, 184
-0.994757, 305, 245, 432, 276
-0.994782, 245, 225, 276, 352
-0.994794, 449, 1, 480, 128
-0.994893, 77, 209, 108, 336
-0.994985, 257, 169, 384, 232
-0.995028, 281, 49, 344, 176
-0.995051, 225, 265, 352, 296
-0.995054, 395, 297, 410, 360
-0.995085, 1, 225, 500, 288
-0.995117, 353, 205, 480, 236
-0.995127, 193, 229, 320, 260
-0.995158, 257, 33, 384, 96
-0.995189, 217, 241, 280, 368
-0.995192, 445, 241, 476, 368
-0.995197, 353, 229, 480, 260
-0.995252, 277, 249, 292, 312
-0.995268, 241, 81, 368, 144
-0.995289, 129, 65, 256, 128
-0.995317, 33, 217, 288, 280
-0.995321, 1, 265, 256, 328
-0.995322, 285, 241, 300, 304
-0.995325, 289, 317, 416, 348
-0.995367, 373, 161, 404, 288
-0.995474, 453, 161, 484, 288
-0.995482, 351, 297, 366, 360
-0.995483, 145, 233, 272, 264
-0.995513, 161, 201, 416, 264
-0.995547, 345, 289, 360, 352
-0.99558, 193, 113, 448, 176
-0.995587, 443, 169, 458, 232
-0.995623, 177, 257, 304, 288
-0.995631, 1, 65, 256, 128
-0.995656, 257, 169, 500, 232
-0.995662, 353, 217, 480, 248
-0.995666, 145, 197, 272, 228
-0.995706, 305, 233, 432, 264
-0.995708, 389, 297, 404, 360
-0.995718, 305, 305, 432, 336
-0.995732, 417, 49, 448, 176
-0.995735, 313, 177, 344, 304
-0.99575, 233, 1, 264, 128
-0.995768, 145, 209, 272, 240
-0.995774, 305, 285, 432, 316
-0.995777, 291, 233, 306, 296
-0.995785, 1, 97, 64, 352
-0.995786, 225, 277, 352, 308
-0.995802, 177, 245, 304, 276
-0.995807, 337, 269, 464, 300
-0.995818, 353, 177, 480, 208
-0.995831, 65, 197, 192, 228
-0.995841, 357, 305, 372, 368
-0.995858, 331, 249, 346, 312
-0.995882, 357, 33, 388, 160
-0.995894, 443, 201, 458, 264
-0.995903, 345, 1, 408, 256
-0.995949, 29, 49, 60, 176
-0.995956, 129, 285, 256, 316
-0.995959, 329, 129, 392, 256
-0.995961, 1, 25, 256, 88
-0.995981, 369, 325, 496, 356
-0.995993, 353, 249, 480, 280
-0.996021, 1, 313, 256, 375
-0.996031, 167, 185, 182, 248
-0.99604, 81, 337, 208, 368
-0.99611, 181, 169, 196, 232
-0.996136, 273, 273, 400, 304
-0.996158, 177, 273, 304, 304
-0.996171, 257, 233, 384, 264
-0.996178, 223, 121, 238, 184
-0.99619, 353, 193, 480, 224
-0.996199, 289, 97, 352, 224
-0.996214, 397, 273, 412, 336
-0.996231, 249, 1, 280, 128
-0.996237, 267, 233, 282, 296
-0.99624, 1, 1, 256, 64
-0.996242, 273, 145, 400, 208
-0.996261, 257, 289, 384, 320
-0.99627, 33, 337, 160, 368
-0.996283, 273, 221, 400, 252
-0.996349, 445, 265, 460, 328
-0.996354, 97, 313, 352, 375
-0.996357, 97, 73, 352, 136
-0.996369, 65, 309, 192, 340
-0.996383, 289, 333, 416, 364
-0.996388, 339, 313, 354, 375
-0.99641, 1, 201, 128, 232
-0.99641, 65, 153, 320, 216
-0.996458, 353, 85, 480, 116
-0.996486, 129, 245, 256, 276
-0.996488, 337, 273, 352, 336
-0.99651, 29, 193, 44, 256
-0.996512, 293, 257, 308, 320
-0.996538, 383, 313, 398, 375
-0.996545, 25, 1, 40, 64
-0.996548, 81, 21, 208, 52
-0.996563, 289, 1, 352, 256
-0.996564, 173, 185, 188, 248
-0.996567, 331, 313, 346, 375
-0.996576, 193, 81, 448, 144
-0.996578, 23, 185, 38, 248
-0.99661, 337, 217, 352, 280
-0.996611, 327, 225, 342, 288
-0.996617, 257, 49, 500, 112
-0.996618, 1, 241, 256, 304
-0.996622, 187, 169, 202, 232
-0.996622, 81, 325, 208, 356
-0.996639, 81, 297, 208, 328
-0.996645, 195, 225, 210, 288
-0.996651, 301, 241, 316, 304
-0.996655, 97, 49, 352, 112
-0.996664, 337, 249, 352, 312
-0.996673, 413, 113, 444, 240
-0.99668, 353, 301, 480, 332
-0.996698, 221, 89, 236, 152
-0.996706, 243, 193, 258, 256
-0.996709, 253, 49, 284, 176
-0.99671, 97, 9, 352, 72
-0.996723, 81, 97, 208, 128
-0.99673, 157, 281, 172, 344
-0.996755, 315, 249, 330, 312
-0.996764, 65, 209, 192, 240
-0.996769, 17, 129, 48, 256
-0.996776, 367, 313, 382, 375
-0.996777, 369, 345, 496, 375
-0.99678, 283, 217, 298, 280
-0.996794, 437, 209, 452, 272
-0.996794, 343, 249, 358, 312
-0.996799, 221, 1, 252, 128
-0.996809, 237, 193, 252, 256
-0.996816, 241, 317, 368, 348
-0.99682, 81, 285, 208, 316
-0.996822, 189, 257, 204, 320
-0.996827, 465, 177, 496, 304
-0.996827, 33, 193, 288, 256
-0.996834, 1, 89, 128, 120
-0.996846, 89, 9, 104, 72
-0.996861, 161, 137, 416, 200
-0.996865, 325, 313, 340, 375
-0.996869, 145, 185, 272, 216
-0.996876, 161, 129, 288, 160
-0.996884, 353, 281, 480, 312
-0.996897, 433, 177, 448, 240
-0.996899, 405, 241, 436, 368
-0.996925, 1, 241, 32, 368
-0.996936, 345, 33, 376, 160
-0.996948, 1, 249, 128, 280
-0.996956, 287, 265, 302, 328
-0.996972, 65, 201, 80, 264
-0.996972, 381, 289, 396, 352
-0.996978, 321, 241, 336, 304
-0.996979, 447, 241, 462, 304
-0.996981, 69, 297, 84, 360
-0.996981, 317, 1, 348, 128
-0.996993, 81, 117, 208, 148
-0.997015, 1, 177, 500, 240
-0.997019, 161, 297, 288, 328
-0.997029, 373, 249, 388, 312
-0.99703, 129, 261, 256, 292
-0.997031, 217, 121, 232, 184
-0.997038, 81, 133, 208, 164
-0.997055, 179, 249, 194, 312
-0.997067, 193, 17, 448, 80
-0.997077, 155, 305, 170, 368
-0.99708, 329, 161, 360, 288
-0.997084, 267, 257, 282, 320
-0.997092, 217, 153, 232, 216
-0.997095, 261, 233, 276, 296
-0.997096, 269, 65, 300, 192
-0.997096, 65, 185, 192, 216
-0.997097, 347, 217, 362, 280
-0.997099, 33, 325, 160, 356
-0.997102, 15, 193, 30, 256
-0.997108, 129, 117, 256, 148
-0.997109, 225, 193, 240, 256
-0.997122, 193, 217, 320, 248
-0.997126, 469, 129, 500, 256
-0.997128, 153, 1, 184, 128
-0.99714, 189, 233, 204, 296
-0.997143, 305, 209, 432, 240
-0.997154, 271, 209, 286, 272
-0.99716, 401, 305, 416, 368
-0.997168, 167, 289, 182, 352
-0.997176, 1, 213, 128, 244
-0.997177, 217, 9, 232, 72
-0.99718, 421, 161, 436, 224
-0.997191, 1, 1, 16, 64
-0.997191, 369, 313, 496, 344
-0.997196, 33, 297, 160, 328
-0.997198, 129, 145, 256, 176
-0.99722, 109, 161, 140, 288
-0.997234, 59, 25, 74, 88
-0.997238, 151, 265, 166, 328
-0.997268, 89, 1, 152, 375
-0.997273, 369, 1, 496, 32
-0.997273, 207, 89, 222, 152
-0.997275, 233, 57, 248, 120
-0.997277, 397, 113, 428, 240
-0.99729, 171, 209, 186, 272
-0.997301, 449, 201, 464, 264
-0.997303, 353, 165, 480, 196
-0.997304, 145, 221, 272, 252
-0.997305, 231, 201, 246, 264
-0.997306, 25, 249, 40, 312
-0.99731, 439, 289, 454, 352
-0.997311, 129, 17, 256, 48
-0.997321, 77, 49, 108, 176
-0.997323, 169, 129, 200, 375
-0.997328, 383, 257, 398, 320
-0.997331, 57, 185, 72, 248
-0.997334, 81, 161, 208, 192
-0.997348, 129, 157, 256, 188
-0.997353, 97, 273, 224, 304
-0.997353, 81, 33, 208, 64
-0.997353, 445, 305, 460, 368
-0.997358, 257, 209, 384, 240
-0.997361, 1, 97, 500, 160
-0.997374, 51, 201, 66, 264
-0.997376, 29, 313, 44, 375
-0.997392, 249, 209, 264, 272
-0.997394, 273, 273, 288, 336
-0.997396, 31, 217, 46, 280
-0.997399, 183, 145, 198, 208
-0.997399, 177, 285, 304, 316
-0.997402, 429, 129, 460, 375
-0.997406, 57, 273, 72, 336
-0.997408, 217, 201, 232, 264
-0.997413, 81, 85, 208, 116
-0.997413, 133, 313, 148, 375
-0.99743, 71, 25, 86, 88
-0.997433, 49, 97, 112, 352
-0.997436, 277, 225, 292, 288
-0.997438, 81, 9, 96, 72
-0.99744, 375, 289, 390, 352
-0.997446, 23, 57, 38, 120
-0.997447, 315, 289, 330, 352
-0.997453, 215, 81, 230, 144
-0.997455, 129, 101, 256, 132
-0.997456, 19, 249, 34, 312
-0.997457, 321, 121, 448, 184
-0.997467, 181, 281, 196, 344
-0.99747, 227, 153, 242, 216
-0.997472, 129, 309, 256, 340
-0.997472, 389, 65, 420, 192
-0.997474, 325, 289, 340, 352
-0.997477, 149, 241, 164, 304
-0.997479, 345, 313, 360, 375
-0.997482, 355, 225, 370, 288
-0.997485, 257, 301, 384, 332
-0.997489, 141, 65, 172, 192
-0.997489, 183, 225, 198, 288
-0.997496, 127, 297, 142, 360
-0.997501, 189, 97, 220, 352
-0.997505, 147, 297, 162, 360
-0.99751, 437, 145, 452, 208
-0.997522, 129, 333, 256, 364
-0.997527, 113, 173, 240, 204
-0.997527, 369, 73, 496, 104
-0.997536, 353, 249, 368, 312
-0.997537, 353, 97, 480, 128
-0.997538, 189, 145, 204, 208
-0.997538, 177, 141, 304, 172
-0.997544, 23, 313, 38, 375
-0.997571, 189, 193, 204, 256
-0.997586, 213, 97, 244, 352
-0.997596, 289, 89, 416, 120
-0.997603, 249, 89, 264, 152
-0.997606, 281, 273, 296, 336
-0.997615, 319, 313, 334, 375
-0.997617, 89, 1, 120, 256
-0.99762, 167, 265, 182, 328
-0.997622, 439, 241, 454, 304
-0.997629, 57, 217, 72, 280
-0.997633, 103, 73, 118, 136
-0.997634, 451, 305, 466, 368
-0.997637, 81, 5, 208, 36
-0.997639, 173, 281, 188, 344
-0.997658, 57, 305, 72, 368
-0.997658, 391, 297, 406, 328
-0.997668, 81, 145, 208, 176
-0.99767, 63, 289, 78, 352
-0.997672, 67, 233, 82, 296
-0.997673, 135, 17, 150, 80
-0.99768, 117, 313, 132, 375
-0.997684, 187, 89, 202, 152
-0.997687, 367, 225, 382, 288
-0.997691, 33, 41, 160, 72
-0.997695, 1, 201, 500, 264
-0.997697, 397, 301, 412, 332
-0.997702, 95, 289, 110, 352
-0.997703, 391, 265, 406, 328
-0.997708, 87, 297, 102, 360
-0.997711, 157, 129, 188, 256
-0.997723, 277, 269, 292, 300
-0.997726, 81, 49, 208, 80
-0.99773, 209, 1, 240, 256
-0.99773, 105, 241, 136, 368
-0.997782, 209, 117, 336, 148
-0.997809, 161, 161, 416, 224
-0.997823, 49, 245, 176, 276
-0.997827, 161, 169, 288, 200
-0.997829, 305, 189, 432, 220
-0.997833, 17, 77, 144, 108
-0.997843, 369, 33, 496, 64
-0.997846, 1, 101, 128, 132
-0.997856, 33, 29, 160, 60
-0.997862, 327, 245, 342, 276
-0.997877, 179, 177, 194, 208
-0.997888, 241, 233, 256, 264
-0.997893, 367, 317, 382, 348
-0.997895, 397, 289, 412, 320
-0.9979, 69, 305, 84, 336
-0.997912, 209, 297, 336, 328
-0.997921, 289, 1, 320, 128
-0.997956, 1, 281, 128, 312
-0.997963, 269, 233, 284, 264
-0.997969, 17, 313, 144, 344
-0.997989, 335, 245, 350, 276
-0.998001, 221, 233, 236, 264
-0.998003, 345, 321, 360, 352
-0.998007, 63, 301, 78, 332
-0.998008, 211, 233, 226, 264
-0.998014, 229, 65, 260, 320
-0.998019, 93, 97, 124, 224
-0.998034, 81, 61, 208, 92
-0.998042, 241, 329, 368, 360
-0.998043, 129, 5, 256, 36
-0.998048, 357, 193, 388, 320
-0.998051, 235, 229, 250, 260
-0.99807, 449, 65, 480, 320
-0.998075, 25, 13, 40, 44
-0.99808, 335, 317, 350, 348
-0.998087, 29, 197, 44, 228
-0.998095, 17, 197, 32, 228
-0.998096, 249, 97, 280, 352
-0.998099, 315, 249, 330, 280
-0.9981, 353, 61, 480, 92
-0.998101, 65, 261, 192, 292
-0.998117, 193, 309, 320, 340
-0.998134, 269, 129, 300, 375
-0.998136, 353, 109, 480, 140
-0.998137, 359, 305, 374, 336
-0.998142, 55, 197, 70, 228
-0.998146, 273, 73, 400, 104
-0.998146, 281, 229, 296, 260
-0.998147, 445, 205, 460, 236
-0.998168, 65, 193, 80, 224
-0.998171, 251, 229, 266, 260
-0.998175, 197, 229, 212, 260
-0.998176, 23, 193, 38, 224
-0.998178, 173, 189, 188, 220
-0.998183, 1, 121, 500, 184
-0.998185, 291, 233, 306, 264
-0.998187, 145, 321, 272, 352
-0.998189, 229, 229, 244, 260
-0.998197, 353, 97, 384, 224
-0.998202, 445, 221, 460, 252
-0.998204, 445, 169, 460, 200
-0.99821, 235, 197, 250, 228
-0.998213, 389, 85, 404, 116
-0.998217, 241, 245, 256, 276
-0.998218, 193, 201, 320, 232
-0.998234, 469, 1, 500, 256
-0.998234, 209, 129, 336, 160
-0.998235, 209, 97, 336, 128
-0.998235, 203, 237, 218, 268
-0.998237, 285, 277, 300, 308
-0.998237, 385, 301, 400, 332
-0.99824, 89, 13, 104, 44
-0.998243, 321, 245, 336, 276
-0.998244, 177, 157, 304, 188
-0.998246, 351, 229, 366, 260
-0.998258, 215, 245, 230, 276
-0.99826, 17, 1, 48, 256
-0.998267, 129, 41, 256, 72
-0.998274, 377, 317, 392, 348
-0.998284, 353, 153, 480, 184
-0.998287, 195, 41, 210, 72
-0.998294, 1, 189, 128, 220
-0.998296, 97, 221, 224, 252
-0.9983, 155, 317, 170, 348
-0.998302, 217, 153, 232, 184
-0.998313, 1, 73, 500, 136
-0.998315, 185, 173, 200, 204
-0.998319, 293, 253, 308, 284
-0.998324, 231, 241, 246, 272
-0.998324, 361, 201, 376, 232
-0.99833, 1, 17, 128, 48
-0.998331, 247, 241, 262, 272
-0.998334, 331, 261, 346, 292
-0.998335, 345, 293, 360, 324
-0.998336, 313, 317, 328, 348
-0.998337, 221, 117, 236, 148
-0.99834, 287, 265, 302, 296
-0.99834, 395, 313, 410, 344
-0.998342, 401, 245, 416, 276
-0.998344, 287, 221, 302, 252
-0.998344, 221, 245, 236, 276
-0.998344, 189, 1, 220, 256
-0.998346, 1, 53, 128, 84
-0.998354, 329, 317, 344, 348
-0.998357, 65, 173, 192, 204
-0.998357, 153, 19, 184, 34
-0.998357, 217, 229, 248, 244
-0.998358, 397, 225, 428, 240
-0.998358, 33, 5, 160, 36
-0.998359, 369, 301, 400, 316
-0.998359, 409, 169, 440, 184
-0.998359, 409, 197, 440, 212
-0.998361, 401, 189, 432, 204
-0.998361, 53, 197, 84, 212
-0.998362, 305, 315, 336, 330
-0.998362, 341, 305, 372, 320
-0.998363, 19, 253, 34, 284
-0.998363, 425, 201, 456, 216
-0.998363, 249, 233, 280, 248
-0.998364, 213, 159, 244, 174
-0.998365, 37, 207, 68, 222
-0.998366, 133, 19, 164, 34
-0.998366, 369, 257, 400, 272
-0.998366, 337, 251, 368, 266
-0.998366, 13, 207, 44, 222
-0.998367, 217, 197, 248, 212
-0.998367, 429, 161, 460, 176
-0.998368, 209, 153, 240, 168
-0.998368, 125, 265, 156, 280
-0.998369, 353, 263, 384, 278
-0.998369, 349, 251, 380, 266
-0.998369, 341, 207, 372, 222
-0.99837, 369, 263, 400, 278
-0.99837, 189, 273, 204, 304
-0.99837, 185, 95, 216, 110
-0.99837, 281, 237, 312, 252
-0.99837, 389, 201, 420, 216
-0.998371, 309, 293, 340, 308
-0.998371, 289, 1, 416, 32
-0.998372, 297, 237, 312, 268
-0.998372, 449, 171, 480, 186
-0.998372, 293, 247, 324, 262
-0.998373, 85, 15, 116, 30
-0.998373, 437, 285, 468, 300
-0.998373, 353, 295, 384, 310
-0.998373, 237, 235, 268, 250
-0.998374, 49, 233, 176, 264
-0.998374, 293, 291, 324, 306
-0.998374, 437, 277, 468, 292
-0.998374, 165, 283, 196, 298
-0.998374, 335, 277, 350, 308
-0.998374, 229, 223, 260, 238
-0.998376, 361, 213, 376, 244
-0.998376, 57, 29, 88, 44
-0.998376, 213, 133, 244, 148
-0.998377, 341, 279, 372, 294
-0.998377, 279, 217, 294, 248
-0.998379, 57, 311, 88, 326
-0.998379, 425, 213, 456, 228
-0.99838, 393, 219, 424, 234
-0.99838, 217, 17, 232, 48
-0.998381, 373, 89, 404, 104
-0.998382, 437, 111, 468, 126
-0.998382, 21, 15, 52, 30
-0.998382, 321, 277, 352, 292
-0.998382, 395, 345, 410, 375
-0.998383, 53, 249, 84, 264
-0.998384, 341, 257, 356, 288
-0.998384, 345, 311, 376, 326
-0.998384, 409, 217, 440, 232
-0.998385, 429, 267, 460, 282
-0.998387, 205, 235, 236, 250
-0.998387, 357, 323, 388, 338
-0.998388, 229, 229, 260, 244
-0.998389, 165, 179, 196, 194
-0.998389, 441, 265, 472, 280
-0.99839, 225, 241, 256, 256
-0.998391, 273, 281, 304, 296
-0.998391, 433, 257, 464, 272
-0.998391, 49, 203, 80, 218
-0.998391, 73, 301, 104, 316
-0.998392, 225, 235, 256, 250
-0.998393, 401, 211, 432, 226
-0.998394, 69, 217, 100, 232
-0.998395, 17, 257, 48, 272
-0.998396, 381, 217, 412, 232
-0.998397, 161, 89, 288, 120
-0.998397, 193, 229, 224, 244
-0.998397, 173, 13, 188, 44
-0.998397, 273, 225, 304, 240
-0.998398, 223, 129, 238, 160
-0.998398, 381, 329, 412, 344
-0.998399, 329, 289, 360, 304
-0.998399, 227, 197, 242, 228
-0.9984, 383, 313, 398, 344
-0.9984, 369, 17, 496, 48
-0.998401, 429, 223, 460, 238
-0.998401, 349, 257, 380, 272
-0.998401, 369, 217, 400, 232
-0.998402, 303, 245, 318, 276
-0.998403, 449, 185, 480, 200
-0.998403, 345, 219, 376, 234
-0.998404, 193, 249, 224, 264
-0.998404, 347, 273, 362, 304
-0.998405, 177, 177, 208, 192
-0.998406, 213, 249, 244, 264
-0.998406, 341, 271, 372, 286
-0.998408, 13, 195, 44, 210
-0.998408, 317, 245, 348, 260
-0.998409, 177, 183, 208, 198
-0.998409, 203, 221, 218, 252
-0.99841, 193, 235, 224, 250
-0.998411, 265, 255, 296, 270
-0.998411, 165, 193, 196, 208
-0.998412, 193, 241, 224, 256
-0.998413, 333, 243, 364, 258
-0.998413, 221, 197, 236, 228
-0.998415, 329, 227, 360, 242
-0.998416, 341, 285, 372, 300
-0.998418, 413, 189, 444, 204
-0.998418, 61, 211, 92, 226
-0.998419, 161, 309, 176, 340
-0.998419, 403, 301, 418, 332
-0.99842, 277, 281, 292, 312
-0.998421, 341, 213, 372, 228
-0.998424, 177, 189, 208, 204
-0.998425, 449, 269, 464, 300
-0.998428, 321, 263, 352, 278
-0.998431, 13, 201, 44, 216
-0.998431, 261, 233, 292, 248
-0.998432, 395, 209, 410, 240
-0.998432, 429, 183, 460, 198
-0.998432, 285, 275, 316, 290
-0.998433, 351, 209, 366, 240
-0.998433, 249, 227, 280, 242
-0.998435, 217, 141, 232, 172
-0.998436, 341, 281, 356, 312
-0.998436, 25, 321, 40, 352
-0.998438, 297, 251, 360, 266
-0.99844, 353, 317, 384, 332
-0.998442, 263, 233, 278, 264
-0.998442, 271, 277, 286, 308
-0.998443, 289, 259, 320, 274
-0.998445, 389, 211, 420, 226
-0.998445, 369, 319, 400, 334
-0.998446, 57, 249, 72, 280
-0.998447, 307, 317, 322, 348
-0.998447, 341, 263, 372, 278
-0.998447, 69, 209, 84, 240
-0.99845, 385, 323, 416, 338
-0.99845, 429, 173, 460, 188
-0.998453, 357, 215, 388, 230
-0.998453, 385, 315, 416, 330
-0.998458, 353, 305, 368, 336
-0.998459, 429, 167, 460, 182
-0.998459, 325, 251, 356, 266
-0.998461, 369, 313, 400, 328
-0.998462, 143, 333, 158, 364
-0.998463, 333, 257, 364, 272
-0.998464, 289, 261, 352, 276
-0.998465, 429, 193, 460, 208
-0.998465, 353, 207, 384, 222
-0.998465, 385, 301, 416, 316
-0.998465, 273, 261, 304, 276
-0.998466, 301, 261, 332, 276
-0.998467, 275, 229, 290, 260
-0.998469, 321, 253, 384, 268
-0.99847, 285, 265, 316, 280
-0.998473, 449, 281, 464, 312
-0.998476, 273, 275, 304, 290
-0.998478, 149, 325, 164, 356
-0.998478, 443, 325, 458, 356
-0.998479, 441, 285, 456, 316
-0.99848, 209, 253, 224, 284
-0.998486, 245, 217, 260, 248
-0.998487, 235, 61, 250, 92
-0.998488, 241, 197, 368, 228
-0.99849, 361, 313, 424, 328
-0.99849, 81, 73, 208, 104
-0.998494, 277, 255, 308, 270
-0.998494, 69, 245, 84, 276
-0.998495, 441, 253, 456, 284
-0.998496, 321, 257, 352, 272
-0.998498, 321, 313, 336, 344
-0.998498, 337, 315, 400, 330
-0.998501, 193, 189, 320, 220
-0.998504, 385, 307, 416, 322
-0.998505, 79, 213, 94, 244
-0.998508, 305, 253, 336, 268
-0.99851, 449, 305, 464, 336
-0.998512, 243, 201, 258, 232
-0.998512, 265, 253, 328, 268
-0.998514, 209, 81, 336, 112
-0.998515, 401, 207, 464, 222
-0.998517, 1, 65, 128, 96
-0.998519, 213, 85, 228, 116
-0.99852, 261, 221, 276, 252
-0.998522, 297, 319, 360, 334
-0.998525, 353, 321, 416, 336
-0.998527, 403, 289, 418, 320
-0.998527, 257, 259, 320, 274
-0.998527, 389, 209, 404, 240
-0.998527, 401, 197, 464, 212
-0.998527, 217, 129, 232, 160
-0.998528, 273, 269, 304, 284
-0.998528, 325, 261, 340, 292
-0.998528, 399, 169, 414, 200
-0.998529, 373, 207, 404, 222
-0.998531, 329, 267, 392, 282
-0.998531, 129, 345, 256, 375
-0.998531, 265, 275, 328, 290
-0.998531, 345, 297, 408, 312
-0.998532, 29, 1, 60, 256
-0.998533, 223, 141, 238, 172
-0.998533, 289, 273, 352, 288
-0.998538, 361, 317, 376, 348
-0.998539, 63, 205, 78, 236
-0.998539, 401, 167, 464, 182
-0.998542, 173, 177, 188, 208
-0.998542, 435, 253, 450, 284
-0.998543, 23, 209, 38, 240
-0.998543, 187, 161, 202, 192
-0.998544, 383, 81, 398, 112
-0.998545, 133, 345, 148, 375
-0.998547, 393, 329, 456, 344
-0.99855, 257, 269, 320, 284
-0.99855, 401, 221, 464, 236
-0.998551, 449, 189, 464, 220
-0.998551, 241, 231, 304, 246
-0.998551, 345, 303, 408, 318
-0.998553, 361, 205, 424, 220
-0.998554, 361, 215, 424, 230
-0.998554, 221, 217, 236, 248
-0.998555, 207, 93, 222, 124
-0.998555, 93, 341, 108, 372
-0.998556, 401, 189, 464, 204
-0.998559, 137, 179, 200, 194
-0.998559, 401, 213, 464, 228
-0.998559, 121, 1, 152, 256
-0.998559, 329, 221, 392, 236
-0.99856, 333, 1, 364, 128
-0.998562, 297, 245, 360, 260
-0.998562, 401, 241, 464, 256
-0.998565, 321, 261, 384, 276
-0.998565, 305, 293, 368, 308
-0.998567, 57, 305, 88, 320
-0.998567, 161, 191, 224, 206
-0.998569, 313, 309, 376, 324
-0.99857, 177, 173, 240, 188
-0.998571, 49, 307, 112, 322
-0.998571, 233, 275, 296, 290
-0.998571, 337, 211, 400, 226
-0.998573, 417, 177, 480, 192
-0.998574, 177, 249, 240, 264
-0.998577, 401, 227, 464, 242
-0.998578, 353, 333, 416, 348
-0.998579, 201, 97, 232, 352
-0.998579, 145, 275, 208, 290
-0.99858, 193, 235, 256, 250
-0.99858, 297, 287, 360, 302
-0.998581, 273, 231, 304, 246
-0.998581, 9, 261, 72, 276
-0.998582, 177, 117, 240, 132
-0.998582, 33, 211, 96, 226
-0.998583, 161, 185, 224, 200
-0.998586, 25, 197, 88, 212
-0.998587, 281, 267, 344, 282
-0.998591, 377, 319, 440, 334
-0.998592, 401, 309, 464, 324
-0.998593, 329, 323, 392, 338
-0.998595, 329, 243, 392, 258
-0.998596, 201, 229, 264, 244
-0.998596, 145, 245, 208, 260
-0.998601, 161, 179, 224, 194
-0.998601, 393, 343, 456, 358
-0.998604, 401, 183, 464, 198
-0.998604, 257, 281, 320, 296
-0.998605, 233, 269, 296, 284
-0.998605, 137, 263, 200, 278
-0.998605, 329, 289, 392, 304
-0.998606, 241, 223, 304, 238
-0.998607, 161, 239, 224, 254
-0.998609, 329, 275, 392, 290
-0.998609, 161, 229, 224, 244
-0.99861, 33, 29, 96, 44
-0.99861, 345, 257, 408, 272
-0.99861, 177, 133, 240, 148
-0.99861, 177, 111, 240, 126
-0.998611, 177, 159, 240, 174
-0.998614, 89, 339, 152, 354
-0.998615, 145, 283, 208, 298
-0.998616, 145, 269, 208, 284
-0.998616, 401, 235, 464, 250
-0.998617, 369, 221, 432, 236
-0.998618, 33, 205, 96, 220
-0.998618, 25, 305, 88, 320
-0.998618, 385, 337, 448, 352
-0.998618, 225, 249, 288, 264
-0.998619, 177, 167, 240, 182
-0.998619, 9, 255, 72, 270
-0.99862, 433, 171, 496, 186
-0.99862, 9, 203, 72, 218
-0.998622, 401, 303, 464, 318
-0.998623, 377, 199, 440, 214
-0.998624, 137, 251, 200, 266
-0.998625, 81, 347, 144, 362
-0.998626, 137, 169, 200, 184
-0.998626, 233, 255, 296, 270
-0.998626, 257, 247, 320, 262
-0.998626, 361, 237, 424, 252
-0.998626, 153, 219, 216, 234
-0.998627, 109, 1, 140, 256
-0.998627, 433, 191, 496, 206
-0.998628, 121, 19, 184, 34
-0.998629, 177, 127, 240, 142
-0.998629, 353, 251, 416, 266
-0.998631, 289, 313, 352, 328
-0.998631, 305, 299, 368, 314
-0.998633, 321, 205, 384, 220
-0.998634, 393, 247, 456, 262
-0.998635, 113, 267, 176, 282
-0.998635, 321, 227, 384, 242
-0.998635, 49, 353, 112, 368
-0.998635, 185, 241, 248, 256
-0.998635, 81, 361, 144, 375
-0.998636, 137, 185, 200, 200
-0.998636, 201, 249, 264, 264
-0.998639, 193, 223, 256, 238
-0.998639, 393, 173, 456, 188
-0.99864, 385, 263, 448, 278
-0.998642, 33, 251, 96, 266
-0.998642, 425, 185, 488, 200
-0.998642, 233, 263, 296, 278
-0.998642, 257, 239, 320, 254
-0.998645, 337, 281, 400, 296
-0.998646, 401, 315, 464, 330
-0.998646, 401, 323, 464, 338
-0.998647, 361, 327, 424, 342
-0.998647, 393, 161, 456, 176
-0.998648, 121, 277, 184, 292
-0.998648, 129, 315, 192, 330
-0.998648, 49, 313, 112, 328
-0.998648, 433, 165, 496, 180
-0.998649, 209, 241, 272, 256
-0.998649, 241, 49, 272, 176
-0.998649, 129, 307, 192, 322
-0.99865, 297, 281, 360, 296
-0.998651, 233, 281, 296, 296
-0.998651, 305, 267, 368, 282
-0.998654, 1, 145, 500, 208
-0.998664, 253, 129, 284, 256
-0.998673, 57, 1, 88, 256
-0.99879, 225, 145, 240, 272
-0.998802, 1, 9, 500, 72
-0.998814, 13, 97, 44, 352
-0.99889, 161, 1, 192, 256
-0.998925, 405, 49, 436, 176
-0.998997, 125, 97, 156, 352
-0.999021, 257, 145, 500, 208
-0.999035, 417, 129, 448, 375
-0.999053, 37, 129, 68, 375
-0.999065, 219, 129, 234, 256
-0.999068, 185, 161, 200, 288
-0.999084, 133, 1, 164, 256
-0.999113, 231, 145, 246, 272
-0.999125, 23, 1, 38, 128
-0.999137, 347, 241, 362, 368
-0.999153, 397, 1, 428, 256
-0.999169, 447, 193, 462, 320
-0.999174, 377, 1, 408, 256
-0.999185, 53, 129, 84, 375
-0.999201, 29, 193, 44, 320
-0.999203, 173, 177, 188, 304
-0.999208, 461, 97, 492, 352
-0.99921, 225, 97, 240, 224
-0.999214, 269, 1, 300, 128
-0.999214, 77, 1, 108, 256
-0.999214, 193, 209, 208, 336
-0.999216, 237, 177, 252, 304
-0.999219, 167, 177, 182, 304
-0.999221, 149, 129, 180, 375
-0.999223, 213, 145, 228, 272
-0.999227, 437, 33, 468, 288
-0.999234, 45, 1, 76, 256
-0.999247, 89, 1, 104, 128
-0.999249, 65, 209, 80, 336
-0.999259, 413, 33, 444, 288
-0.999266, 355, 209, 370, 336
-0.999267, 179, 177, 194, 304
-0.999273, 173, 33, 204, 288
-0.999275, 285, 209, 300, 336
-0.999284, 187, 241, 202, 368
-0.999287, 337, 209, 352, 336
-0.999292, 243, 177, 258, 304
-0.999295, 395, 209, 410, 336
-0.999298, 165, 225, 180, 352
-0.999304, 217, 1, 232, 128
-0.999307, 443, 129, 458, 256
-0.999311, 281, 129, 312, 375
-0.999318, 181, 113, 196, 240
-0.999321, 15, 193, 30, 320
-0.999324, 49, 209, 64, 336
-0.999329, 25, 129, 56, 375
-0.999339, 273, 209, 288, 336
-0.99935, 389, 241, 404, 368
-0.99935, 223, 1, 238, 128
-0.999358, 297, 225, 312, 352
-0.999359, 1, 49, 500, 112
-0.999381, 59, 225, 74, 352
-0.999382, 249, 193, 264, 320
-0.999382, 191, 145, 206, 272
-0.999389, 437, 129, 452, 256
-0.999391, 291, 209, 306, 336
-0.999397, 219, 65, 234, 192
-0.999397, 409, 1, 424, 128
-0.999398, 231, 97, 246, 224
-0.999402, 125, 241, 140, 368
-0.999406, 289, 49, 320, 176
-0.999408, 191, 81, 206, 208
-0.999411, 197, 161, 212, 288
-0.999412, 159, 193, 174, 320
-0.999416, 267, 209, 282, 336
-0.999417, 353, 129, 384, 375
-0.999422, 151, 241, 166, 368
-0.999424, 219, 177, 234, 304
-0.999425, 321, 241, 336, 368
-0.999427, 177, 1, 208, 128
-0.999428, 231, 193, 246, 320
-0.999429, 225, 49, 240, 176
-0.999429, 35, 193, 50, 320
-0.999431, 425, 1, 440, 128
-0.999438, 145, 33, 176, 288
-0.999442, 453, 113, 468, 240
-0.999442, 141, 241, 156, 368
-0.999446, 197, 33, 212, 160
-0.999447, 17, 33, 32, 160
-0.99945, 55, 177, 70, 304
-0.999452, 371, 241, 386, 368
-0.999453, 179, 225, 194, 352
-0.999454, 141, 1, 156, 128
-0.999455, 315, 241, 330, 368
-0.999455, 149, 193, 164, 320
-0.999458, 279, 225, 294, 352
-0.99946, 243, 129, 258, 256
-0.999466, 23, 49, 38, 176
-0.999467, 447, 241, 462, 368
-0.999477, 5, 1, 36, 256
-0.999478, 209, 65, 224, 192
-0.999479, 205, 177, 220, 304
-0.999482, 331, 225, 346, 352
-0.999489, 343, 193, 358, 320
-0.999492, 21, 161, 36, 288
-0.999493, 441, 209, 456, 336
-0.999496, 245, 1, 260, 128
-0.9995, 303, 225, 318, 352
-0.999505, 237, 129, 252, 256
-0.999508, 199, 81, 214, 208
-0.999509, 233, 49, 248, 176
-0.99951, 109, 97, 140, 352
-0.999512, 77, 225, 92, 352
-0.999513, 383, 17, 398, 144
-0.999518, 397, 1, 412, 128
-0.999522, 399, 145, 414, 272
-0.999523, 361, 225, 376, 352
-0.999523, 245, 1, 276, 256
-0.999532, 105, 81, 120, 208
-0.999533, 29, 1, 44, 128
-0.999533, 83, 1, 98, 128
-0.999538, 459, 97, 474, 224
-0.999539, 381, 129, 412, 375
-0.999542, 331, 177, 346, 304
-0.999543, 463, 49, 478, 176
-0.999548, 59, 17, 74, 144
-0.999549, 51, 33, 66, 160
-0.99955, 21, 241, 36, 368
-0.99955, 373, 1, 388, 128
-0.999551, 447, 81, 462, 208
-0.999552, 39, 1, 54, 128
-0.999557, 225, 193, 240, 320
-0.999557, 199, 209, 214, 336
-0.99956, 207, 249, 222, 264
-0.999561, 417, 189, 432, 204
-0.999561, 323, 293, 338, 308
-0.999561, 443, 179, 458, 194
-0.999562, 449, 287, 464, 302
-0.999562, 29, 201, 44, 216
-0.999562, 237, 197, 252, 212
-0.999563, 283, 223, 298, 238
-0.999563, 95, 355, 110, 370
-0.999563, 419, 215, 434, 230
-0.999563, 173, 183, 188, 198
-0.999563, 399, 167, 414, 182
-0.999563, 221, 127, 236, 142
-0.999564, 423, 199, 438, 214
-0.999564, 171, 241, 186, 368
-0.999564, 343, 213, 358, 228
-0.999565, 247, 229, 262, 244
-0.999565, 251, 235, 266, 250
-0.999566, 413, 209, 428, 224
-0.999566, 235, 235, 250, 250
-0.999566, 259, 209, 274, 336
-0.999567, 239, 49, 254, 176
-0.999567, 381, 299, 396, 314
-0.999567, 213, 235, 228, 250
-0.999568, 173, 17, 188, 32
-0.999568, 447, 233, 462, 248
-0.999568, 337, 243, 352, 258
-0.999568, 181, 175, 196, 190
-0.999568, 449, 169, 464, 184
-0.999569, 397, 295, 412, 310
-0.999569, 445, 241, 460, 256
-0.999571, 351, 265, 366, 280
-0.999571, 357, 207, 372, 222
-0.999571, 329, 271, 344, 286
-0.999571, 431, 113, 446, 240
-0.999572, 445, 227, 460, 242
-0.999573, 251, 241, 266, 256
-0.999573, 135, 209, 150, 336
-0.999573, 273, 283, 288, 298
-0.999573, 303, 269, 318, 284
-0.999574, 227, 133, 242, 148
-0.999574, 17, 205, 32, 220
-0.999574, 401, 209, 416, 336
-0.999574, 225, 197, 240, 212
-0.999575, 269, 33, 300, 288
-0.999576, 349, 299, 364, 314
-0.999576, 375, 221, 390, 236
-0.999576, 363, 219, 378, 234
-0.999577, 391, 217, 406, 232
-0.999577, 55, 195, 70, 210
-0.999578, 211, 257, 226, 272
-0.999578, 315, 249, 330, 264
-0.999579, 61, 161, 76, 288
-0.999579, 239, 241, 254, 256
-0.99958, 275, 265, 290, 280
-0.99958, 241, 235, 256, 250
-0.99958, 445, 189, 460, 204
-0.999581, 347, 293, 362, 308
-0.999582, 425, 187, 440, 202
-0.999583, 401, 211, 416, 226
-0.999583, 269, 235, 284, 250
-0.999584, 321, 263, 336, 278
-0.999584, 387, 207, 402, 222
-0.999584, 167, 1, 182, 128
-0.999585, 169, 217, 184, 232
-0.999585, 337, 217, 352, 232
-0.999585, 471, 1, 486, 128
-0.999585, 443, 267, 458, 282
-0.999585, 303, 259, 318, 274
-0.999586, 273, 253, 288, 268
-0.99959, 405, 299, 420, 314
-0.99959, 195, 235, 210, 250
-0.999591, 69, 211, 84, 226
-0.999591, 387, 297, 402, 312
-0.999592, 289, 275, 304, 290
-0.999592, 379, 241, 394, 368
-0.999592, 353, 287, 368, 302
-0.999592, 281, 265, 296, 280
-0.999593, 221, 119, 236, 134
-0.999593, 179, 187, 194, 202
-0.999594, 357, 309, 372, 324
-0.999594, 283, 255, 298, 270
-0.999594, 355, 213, 370, 228
-0.999595, 337, 251, 352, 266
-0.999595, 253, 145, 268, 272
-0.999595, 367, 319, 382, 334
-0.999596, 325, 193, 340, 320
-0.999596, 133, 81, 148, 208
-0.999596, 179, 193, 194, 208
-0.999596, 165, 129, 180, 256
-0.999597, 345, 261, 360, 276
-0.999598, 421, 145, 436, 272
-0.999599, 215, 249, 230, 264
-0.999599, 453, 161, 468, 288
-0.999599, 453, 241, 468, 368
-0.9996, 267, 253, 282, 268
-0.999601, 373, 323, 388, 338
-0.999602, 335, 225, 350, 240
-0.999602, 393, 145, 408, 272
-0.999603, 365, 129, 396, 375
-0.999606, 453, 265, 468, 280
-0.999606, 55, 201, 70, 216
-0.999607, 353, 293, 368, 308
-0.999609, 343, 287, 358, 302
-0.999609, 197, 229, 212, 244
-0.999609, 273, 259, 288, 274
-0.999609, 383, 313, 398, 328
-0.999609, 207, 235, 222, 250
-0.999609, 327, 247, 342, 262
-0.99961, 289, 227, 304, 242
-0.99961, 377, 205, 392, 220
-0.99961, 379, 319, 394, 334
-0.99961, 383, 87, 398, 102
-0.999611, 287, 261, 302, 276
-0.999613, 341, 271, 356, 286
-0.999614, 69, 307, 84, 322
-0.999614, 61, 305, 76, 320
-0.999614, 391, 1, 406, 128
-0.999616, 321, 249, 336, 264
-0.999616, 159, 241, 174, 368
-0.999618, 27, 241, 42, 368
-0.999619, 187, 173, 202, 188
-0.999619, 159, 113, 174, 240
-0.99962, 397, 349, 412, 364
-0.999622, 441, 81, 456, 208
-0.999622, 139, 145, 154, 272
-0.999623, 443, 173, 458, 188
-0.999623, 43, 225, 58, 352
-0.999624, 297, 265, 312, 280
-0.999624, 403, 305, 418, 320
-0.999625, 367, 207, 382, 222
-0.999625, 179, 181, 194, 196
-0.999626, 335, 277, 350, 292
-0.999627, 71, 241, 86, 368
-0.999627, 147, 1, 162, 128
-0.999627, 291, 255, 306, 270
-0.999628, 361, 315, 376, 330
-0.999628, 391, 309, 406, 324
-0.999628, 89, 15, 104, 30
-0.999629, 333, 265, 348, 280
-0.999632, 397, 307, 412, 322
-0.999633, 443, 167, 458, 182
-0.999634, 415, 1, 430, 128
-0.999634, 73, 17, 88, 144
-0.999635, 85, 209, 100, 336
-0.999636, 9, 193, 24, 320
-0.999636, 249, 65, 264, 192
-0.999638, 403, 1, 418, 128
-0.999639, 371, 215, 386, 230
-0.999643, 315, 255, 330, 270
-0.999645, 21, 195, 36, 210
-0.999646, 275, 231, 290, 246
-0.999646, 293, 235, 308, 250
-0.999647, 337, 257, 352, 272
-0.999649, 287, 269, 302, 284
-0.999662, 327, 253, 342, 268
-0.999664, 365, 213, 380, 228
-0.999669, 173, 191, 188, 206
-0.999671, 287, 233, 302, 248
-0.999684, 277, 273, 292, 288
-0.999689, 397, 301, 412, 316
-0.99969, 425, 33, 456, 288
-0.999695, 297, 259, 312, 274
-0.999698, 391, 303, 406, 318
-0.999707, 281, 229, 296, 244
-0.999711, 327, 259, 342, 274
-0.99973, 365, 1, 396, 256
-0.999743, 137, 129, 168, 375
-0.999752, 397, 97, 428, 352
-0.999772, 293, 129, 324, 375
-0.999864, 353, 1, 384, 256
-0.999965, 97, 97, 128, 352
-1.00005, 341, 129, 372, 375
-1.0001, 333, 1, 364, 256
-1.00011, 69, 129, 100, 375
-1.00013, 1, 97, 32, 352
-1.00016, 265, 1, 328, 256
-1.00027, 313, 1, 344, 256
-1.0003, 285, 33, 316, 288
-1.00032, 257, 1, 288, 256
-1.00038, 325, 97, 356, 352
-1.0005, 305, 129, 336, 375
-1.00068, 321, 1, 384, 256
-1.0009, 301, 1, 332, 256
-1.0009, 81, 97, 112, 352
-1.00177, 1, 97, 64, 224
-1.00224, 1, 145, 64, 272
