1871
-0.170226, 1, 1, 500, 326
-0.346974, 1, 65, 500, 320
-0.369766, 33, 1, 288, 326
-0.409087, 97, 1, 352, 256
-0.439303, 129, 1, 384, 326
-0.53431, 1, 1, 256, 256
-0.541964, 193, 65, 448, 320
-0.623617, 257, 1, 500, 326
-0.81626, 33, 1, 160, 256
-0.835272, 113, 1, 240, 256
-0.838032, 33, 1, 160, 326
-0.845034, 209, 1, 336, 256
-0.846, 289, 65, 416, 320
-0.847358, 113, 1, 240, 326
-0.869198, 1, 65, 500, 192
-0.871425, 209, 1, 336, 326
-0.871524, 1, 1, 500, 128
-0.872456, 289, 1, 416, 326
-0.876075, 161, 1, 288, 326
-0.880008, 1, 193, 500, 320
-0.889917, 161, 33, 288, 288
-0.890989, 369, 1, 496, 256
-0.894089, 97, 81, 352, 208
-0.894888, 1, 113, 500, 240
-0.905836, 33, 129, 288, 256
-0.907482, 33, 1, 288, 128
-0.908272, 193, 81, 448, 208
-0.915431, 161, 193, 416, 320
-0.917948, 129, 129, 384, 256
-0.918656, 1, 49, 256, 176
-0.921765, 369, 1, 496, 326
-0.923181, 289, 81, 416, 208
-0.92374, 129, 1, 384, 128
-0.926245, 113, 81, 240, 208
-0.927792, 1, 177, 256, 304
-0.931101, 257, 145, 500, 272
-0.932534, 113, 145, 240, 272
-0.932946, 33, 33, 160, 160
-0.935475, 129, 1, 256, 128
-0.936077, 169, 113, 232, 240
-0.937199, 193, 161, 320, 288
-0.940374, 33, 17, 96, 144
-0.940661, 121, 81, 184, 208
-0.941096, 113, 193, 240, 320
-0.941879, 193, 97, 320, 224
-0.942224, 137, 1, 200, 128
-0.942355, 257, 1, 500, 128
-0.943613, 209, 1, 336, 128
-0.945653, 241, 161, 368, 288
-0.946558, 169, 161, 232, 288
-0.947762, 81, 1, 208, 128
-0.947785, 177, 1, 240, 128
-0.948126, 33, 129, 160, 256
-0.949015, 185, 65, 248, 192
-0.949045, 345, 81, 408, 208
-0.949709, 209, 49, 336, 176
-0.950371, 65, 81, 192, 208
-0.950589, 209, 1, 272, 128
-0.951077, 81, 1, 144, 128
-0.951349, 257, 193, 500, 320
-0.951858, 169, 129, 232, 192
-0.952605, 57, 1, 120, 128
-0.953045, 1, 193, 128, 320
-0.953113, 137, 177, 200, 304
-0.953916, 97, 145, 160, 272
-0.954133, 105, 161, 168, 224
-0.954329, 145, 129, 208, 256
-0.954613, 433, 1, 496, 128
-0.954676, 297, 81, 360, 208
-0.955295, 65, 177, 192, 304
-0.955656, 209, 97, 272, 224
-0.956027, 265, 129, 328, 256
-0.956253, 265, 33, 328, 160
-0.957058, 81, 193, 144, 320
-0.957308, 177, 17, 240, 80
-0.957967, 257, 177, 320, 240
-0.95825, 321, 161, 448, 288
-0.958565, 353, 1, 480, 128
-0.958593, 257, 33, 384, 160
-0.958696, 137, 1, 200, 64
-0.958981, 209, 1, 272, 64
-0.959076, 153, 153, 216, 216
-0.959482, 193, 193, 256, 320
-0.959818, 289, 177, 352, 304
-0.95992, 81, 65, 144, 192
-0.960378, 33, 49, 96, 112
-0.960671, 65, 41, 128, 104
-0.960678, 1, 1, 64, 128
-0.960946, 241, 113, 368, 240
-0.961514, 153, 65, 216, 192
-0.962006, 369, 113, 496, 240
-0.962184, 145, 49, 208, 112
-0.96219, 305, 89, 368, 152
-0.962561, 81, 73, 144, 136
-0.962617, 289, 129, 352, 256
-0.962987, 233, 1, 296, 64
-0.963074, 25, 113, 88, 240
-0.963431, 1, 49, 64, 176
-0.963934, 161, 49, 288, 176
-0.964109, 81, 9, 144, 72
-0.964184, 169, 185, 232, 248
-0.96454, 425, 233, 488, 296
-0.964598, 153, 265, 216, 326
-0.964828, 17, 81, 144, 208
-0.964891, 177, 57, 240, 120
-0.965503, 49, 129, 112, 256
-0.96578, 209, 145, 272, 272
-0.965829, 345, 177, 408, 304
-0.965855, 57, 49, 120, 176
-0.965978, 49, 1, 112, 256
-0.966186, 241, 1, 304, 128
-0.966382, 137, 185, 200, 248
-0.96645, 121, 25, 184, 88
-0.966699, 265, 177, 328, 304
-0.966704, 81, 129, 144, 192
-0.966838, 305, 33, 432, 160
-0.966922, 41, 25, 104, 88
-0.966963, 121, 129, 184, 256
-0.967078, 121, 1, 184, 256
-0.967118, 145, 25, 208, 88
-0.967348, 113, 33, 176, 160
-0.967482, 41, 73, 104, 136
-0.968027, 73, 113, 136, 240
-0.968178, 201, 161, 264, 224
-0.96823, 257, 81, 320, 208
-0.968367, 289, 33, 352, 160
-0.968374, 1, 97, 64, 160
-0.968617, 81, 193, 144, 256
-0.96875, 385, 257, 448, 320
-0.968843, 161, 225, 224, 288
-0.968866, 433, 193, 496, 320
-0.968985, 113, 185, 240, 248
-0.968985, 9, 177, 72, 304
-0.9693, 217, 49, 280, 112
-0.969381, 57, 153, 120, 216
-0.969413, 281, 193, 344, 256
-0.969503, 313, 33, 376, 160
-0.969599, 321, 81, 384, 208
-0.969906, 169, 89, 232, 152
-0.970123, 305, 1, 368, 64
-0.970163, 81, 161, 144, 224
-0.970185, 201, 89, 264, 152
-0.970347, 81, 1, 208, 64
-0.97043, 153, 1, 216, 256
-0.970698, 265, 73, 328, 136
-0.970756, 33, 65, 96, 192
-0.970801, 305, 89, 432, 152
-0.970881, 217, 25, 280, 88
-0.971081, 41, 97, 104, 160
-0.971147, 297, 65, 360, 320
-0.971248, 121, 97, 184, 160
-0.971295, 1, 73, 64, 136
-0.971309, 113, 193, 176, 320
-0.971316, 225, 185, 288, 248
-0.971379, 321, 193, 384, 320
-0.971487, 161, 1, 288, 64
-0.971538, 417, 265, 480, 326
-0.971635, 281, 153, 344, 216
-0.971885, 97, 49, 160, 112
-0.972106, 193, 169, 320, 232
-0.972264, 121, 121, 184, 184
-0.972331, 321, 65, 384, 320
-0.972559, 313, 145, 376, 272
-0.972559, 433, 1, 496, 64
-0.972559, 129, 161, 192, 224
-0.97263, 337, 81, 400, 144
-0.972646, 33, 97, 160, 160
-0.972654, 113, 97, 240, 160
-0.972727, 113, 137, 240, 200
-0.972732, 209, 49, 272, 176
-0.97293, 193, 265, 256, 326
-0.973078, 257, 153, 320, 216
-0.973083, 73, 1, 136, 256
-0.973101, 369, 161, 496, 288
-0.973332, 281, 169, 312, 232
-0.973418, 209, 193, 336, 256
-0.973432, 113, 161, 240, 224
-0.973583, 113, 185, 176, 248
-0.973619, 185, 241, 248, 304
-0.973669, 297, 57, 360, 120
-0.973756, 57, 193, 120, 320
-0.973805, 201, 193, 232, 320
-0.973816, 193, 65, 224, 192
-0.973852, 145, 25, 272, 88
-0.973895, 353, 265, 416, 326
-0.974011, 17, 49, 144, 112
-0.97403, 121, 257, 184, 320
-0.974113, 1, 97, 64, 224
-0.974173, 289, 129, 352, 192
-0.974288, 369, 113, 432, 240
-0.974383, 81, 97, 144, 160
-0.974396, 313, 217, 376, 280
-0.97442, 273, 153, 400, 216
-0.974478, 177, 65, 240, 320
-0.974663, 209, 1, 336, 64
-0.974751, 165, 25, 196, 88
-0.974945, 217, 1, 248, 64
-0.974967, 209, 1, 272, 256
-0.975015, 293, 113, 324, 240
-0.975112, 105, 1, 168, 64
-0.975204, 49, 153, 176, 216
-0.975395, 369, 49, 496, 176
-0.975429, 65, 25, 192, 88
-0.975527, 85, 33, 116, 96
-0.975651, 193, 105, 320, 168
-0.975672, 153, 1, 184, 128
-0.975759, 129, 57, 256, 120
-0.975861, 9, 249, 72, 312
-0.975904, 321, 177, 384, 240
-0.975919, 453, 1, 484, 64
-0.975986, 17, 73, 144, 136
-0.976003, 125, 81, 156, 208
-0.976164, 353, 105, 416, 168
-0.976189, 433, 25, 496, 88
-0.976261, 97, 1, 128, 128
-0.976307, 193, 105, 224, 168
-0.976437, 113, 249, 240, 312
-0.976483, 337, 201, 400, 264
-0.976487, 33, 121, 160, 184
-0.976539, 469, 1, 500, 64
-0.976543, 261, 177, 292, 240
-0.976579, 113, 73, 176, 136
-0.976721, 33, 121, 96, 184
-0.976822, 201, 209, 264, 272
-0.97683, 97, 1, 160, 256
-0.976951, 45, 33, 76, 160
-0.976966, 189, 177, 220, 304
-0.976984, 241, 161, 304, 288
-0.977034, 149, 1, 180, 64
-0.977132, 257, 105, 320, 168
-0.977367, 169, 1, 200, 64
-0.977455, 149, 161, 180, 224
-0.97748, 137, 209, 200, 272
-0.977491, 197, 113, 228, 240
-0.977608, 193, 129, 320, 192
-0.977636, 273, 65, 336, 320
-0.977756, 337, 33, 400, 160
-0.97779, 369, 241, 496, 304
-0.977814, 165, 1, 196, 128
-0.977886, 113, 217, 240, 280
-0.977945, 345, 65, 408, 320
-0.977975, 145, 89, 208, 152
-0.978045, 209, 49, 336, 112
-0.978081, 249, 1, 312, 256
-0.978164, 101, 73, 132, 136
-0.978246, 177, 129, 208, 256
-0.978255, 457, 1, 488, 128
-0.978267, 97, 9, 128, 72
-0.978334, 65, 33, 96, 96
-0.978435, 237, 1, 268, 64
-0.97846, 197, 193, 228, 256
-0.978575, 65, 49, 192, 112
-0.978631, 193, 113, 256, 176
-0.978817, 249, 1, 280, 64
-0.978939, 369, 161, 432, 288
-0.978971, 273, 1, 336, 64
-0.978984, 209, 81, 336, 144
-0.97908, 309, 97, 340, 160
-0.979095, 33, 145, 96, 208
-0.979204, 125, 97, 156, 160
-0.979276, 257, 177, 384, 240
-0.97937, 257, 1, 384, 64
-0.979469, 381, 97, 412, 224
-0.979502, 105, 137, 136, 200
-0.979544, 449, 25, 480, 88
-0.979547, 181, 257, 212, 320
-0.979573, 109, 113, 140, 240
-0.97962, 65, 185, 192, 248
-0.97973, 209, 25, 336, 88
-0.979778, 121, 233, 184, 296
-0.979786, 305, 97, 336, 224
-0.979867, 125, 169, 156, 232
-0.979923, 361, 1, 424, 128
-0.979928, 161, 241, 288, 304
-0.979933, 393, 129, 456, 256
-0.97999, 33, 81, 64, 208
-0.979994, 157, 177, 188, 304
-0.980056, 329, 57, 392, 120
-0.980084, 9, 41, 72, 104
-0.980112, 305, 113, 432, 176
-0.980147, 85, 161, 116, 224
-0.980209, 281, 105, 344, 168
-0.980409, 249, 25, 312, 88
-0.980474, 25, 1, 88, 256
-0.980526, 89, 57, 120, 120
-0.980635, 329, 1, 392, 64
-0.980678, 73, 249, 136, 312
-0.980768, 293, 177, 324, 304
-0.980799, 441, 1, 472, 64
-0.980887, 93, 185, 124, 248
-0.980888, 241, 265, 304, 326
-0.980889, 33, 177, 96, 304
-0.980891, 361, 169, 424, 232
-0.980951, 65, 241, 192, 304
-0.980987, 393, 129, 456, 192
-0.981019, 89, 1, 152, 326
-0.98117, 81, 217, 144, 280
-0.981191, 213, 65, 244, 192
-0.98122, 137, 161, 168, 224
-0.981231, 49, 265, 112, 326
-0.981253, 209, 209, 240, 272
-0.981445, 181, 81, 212, 208
-0.981524, 105, 265, 136, 326
-0.981544, 273, 25, 336, 88
-0.981593, 109, 49, 140, 112
-0.9816, 17, 17, 144, 80
-0.9816, 369, 265, 496, 326
-0.981639, 217, 1, 248, 128
-0.981656, 369, 1, 496, 64
-0.981672, 41, 41, 72, 104
-0.981694, 105, 161, 136, 224
-0.981802, 281, 145, 312, 272
-0.981882, 121, 49, 184, 112
-0.981926, 205, 1, 236, 128
-0.981986, 469, 1, 500, 128
-0.982103, 25, 89, 56, 152
-0.98215, 293, 161, 324, 224
-0.98217, 73, 1, 104, 128
-0.982268, 49, 1, 112, 64
-0.982274, 57, 1, 88, 128
-0.982276, 257, 57, 384, 120
-0.982315, 125, 33, 156, 160
-0.982337, 145, 185, 176, 248
-0.982354, 225, 25, 256, 88
-0.982367, 269, 1, 300, 128
-0.982368, 33, 17, 64, 144
-0.982391, 177, 193, 208, 320
-0.982453, 41, 105, 72, 168
-0.98257, 1, 1, 64, 64
-0.982604, 1, 185, 128, 248
-0.982629, 297, 121, 328, 184
-0.982644, 177, 265, 304, 326
-0.982652, 385, 105, 416, 168
-0.982667, 157, 185, 188, 248
-0.982676, 33, 1, 96, 326
-0.982712, 241, 49, 304, 112
-0.98274, 141, 1, 172, 128
-0.98277, 161, 161, 192, 224
-0.982772, 93, 161, 124, 288
-0.982853, 125, 145, 156, 272
-0.98288, 185, 73, 216, 136
-0.982883, 129, 1, 192, 326
-0.982884, 461, 25, 492, 88
-0.982927, 437, 1, 468, 128
-0.982929, 385, 153, 448, 216
-0.982985, 165, 265, 196, 326
-0.983005, 397, 265, 428, 326
-0.983039, 201, 185, 264, 248
-0.983076, 109, 1, 140, 64
-0.983091, 233, 65, 296, 192
-0.983112, 317, 81, 348, 208
-0.983208, 137, 81, 168, 208
-0.983223, 321, 265, 448, 326
-0.983267, 1, 265, 128, 326
-0.983319, 9, 121, 72, 184
-0.983345, 141, 161, 172, 288
-0.983395, 409, 1, 472, 64
-0.983397, 161, 217, 288, 280
-0.983397, 305, 1, 368, 326
-0.983417, 169, 1, 232, 326
-0.983484, 313, 193, 344, 320
-0.983491, 273, 49, 336, 112
-0.983537, 65, 217, 192, 280
-0.983552, 21, 1, 52, 128
-0.983557, 169, 241, 200, 304
-0.983638, 53, 33, 84, 96
-0.983662, 97, 249, 160, 312
-0.983667, 161, 193, 288, 256
-0.983734, 181, 121, 212, 184
-0.983735, 193, 241, 224, 304
-0.983736, 317, 209, 348, 272
-0.983753, 329, 217, 360, 280
-0.983794, 85, 1, 116, 128
-0.983819, 297, 25, 360, 88
-0.983837, 205, 89, 236, 152
-0.98392, 321, 89, 352, 152
-0.983928, 201, 169, 232, 232
-0.983951, 321, 193, 448, 256
-0.984216, 273, 209, 400, 272
-0.984292, 105, 97, 136, 160
-0.984338, 177, 161, 240, 224
-0.984344, 9, 217, 72, 280
-0.984413, 293, 33, 324, 160
-0.984414, 57, 1, 120, 326
-0.984541, 109, 1, 140, 128
-0.984598, 57, 121, 120, 184
-0.984676, 57, 193, 120, 256
-0.984713, 377, 265, 408, 326
-0.984726, 73, 9, 104, 72
-0.984765, 329, 1, 360, 64
-0.984904, 9, 185, 72, 248
-0.984911, 1, 161, 128, 224
-0.984948, 5, 1, 36, 128
-0.984972, 413, 257, 444, 320
-0.984988, 73, 73, 104, 136
-0.985012, 369, 145, 496, 208
-0.985015, 161, 81, 288, 144
-0.985122, 193, 137, 224, 200
-0.985215, 369, 169, 496, 232
-0.985285, 261, 1, 292, 64
-0.985312, 105, 209, 168, 272
-0.985317, 273, 33, 400, 96
-0.98554, 357, 193, 388, 320
-0.985559, 333, 81, 364, 208
-0.985559, 437, 25, 468, 88
-0.985572, 349, 209, 380, 272
-0.985622, 277, 97, 308, 224
-0.985648, 233, 113, 296, 240
-0.985676, 21, 65, 52, 192
-0.985699, 393, 81, 456, 208
-0.98577, 45, 97, 76, 224
-0.985776, 209, 233, 272, 296
-0.985841, 9, 177, 40, 304
-0.985849, 249, 177, 280, 240
-0.985872, 329, 249, 392, 312
-0.985892, 105, 65, 136, 192
-0.985909, 305, 193, 336, 256
-0.985929, 85, 9, 116, 72
-0.98604, 37, 129, 68, 192
-0.986094, 145, 129, 208, 192
-0.986096, 217, 89, 248, 152
-0.98613, 189, 217, 220, 280
-0.986133, 321, 217, 448, 280
-0.986135, 425, 257, 456, 320
-0.986151, 1, 225, 128, 288
-0.986151, 205, 257, 236, 320
-0.98617, 317, 1, 348, 64
-0.986264, 61, 57, 92, 120
-0.986279, 165, 129, 196, 256
-0.986355, 81, 73, 208, 136
-0.986369, 225, 49, 256, 112
-0.98638, 381, 169, 412, 232
-0.986399, 293, 193, 324, 256
-0.986412, 281, 1, 312, 128
-0.98645, 393, 113, 424, 240
-0.98649, 369, 81, 400, 208
-0.986495, 337, 129, 400, 256
-0.986529, 89, 81, 120, 144
-0.986637, 353, 81, 384, 144
-0.986656, 9, 1, 72, 326
-0.986682, 73, 193, 104, 256
-0.986764, 125, 121, 156, 184
-0.986812, 209, 1, 272, 326
-0.986813, 465, 257, 496, 320
-0.98683, 233, 161, 296, 224
-0.986854, 409, 1, 472, 128
-0.986932, 41, 217, 104, 280
-0.98706, 409, 193, 472, 320
-0.987068, 321, 25, 384, 88
-0.987071, 261, 161, 292, 288
-0.987084, 105, 185, 136, 248
-0.987155, 213, 145, 244, 272
-0.987168, 289, 217, 352, 280
-0.987173, 21, 57, 52, 120
-0.987189, 157, 81, 188, 208
-0.987204, 181, 97, 212, 160
-0.987268, 81, 113, 112, 240
-0.987269, 25, 1, 88, 64
-0.987319, 1, 33, 64, 288
-0.987378, 345, 81, 376, 208
-0.987424, 333, 57, 364, 120
-0.987432, 305, 9, 432, 72
-0.987436, 337, 145, 400, 208
-0.987482, 205, 9, 236, 72
-0.987588, 329, 1, 392, 326
-0.987591, 313, 33, 344, 160
-0.987592, 209, 57, 240, 120
-0.987596, 237, 25, 268, 88
-0.98764, 41, 241, 104, 304
-0.987717, 345, 193, 376, 320
-0.987752, 257, 89, 384, 152
-0.987788, 289, 97, 320, 160
-0.98783, 81, 193, 112, 320
-0.987834, 361, 241, 424, 304
-0.987855, 433, 233, 464, 296
-0.987856, 369, 1, 400, 128
-0.98788, 333, 89, 364, 152
-0.987893, 257, 25, 288, 88
-0.987981, 425, 49, 488, 112
-0.98801, 129, 257, 160, 320
-0.988125, 461, 193, 492, 320
-0.988157, 97, 33, 128, 96
-0.988166, 205, 113, 236, 176
-0.988204, 397, 145, 428, 208
-0.988207, 53, 9, 84, 72
-0.98827, 117, 193, 148, 320
-0.988275, 325, 193, 356, 320
-0.988364, 281, 145, 312, 208
-0.988372, 213, 153, 244, 216
-0.988379, 153, 129, 184, 256
-0.988427, 173, 153, 204, 216
-0.98844, 69, 145, 100, 272
-0.98852, 201, 137, 264, 200
-0.988549, 225, 73, 288, 136
-0.988565, 273, 265, 400, 326
-0.988639, 217, 257, 280, 320
-0.98864, 169, 49, 200, 112
-0.98864, 49, 73, 80, 136
-0.988655, 213, 193, 244, 320
-0.98873, 369, 185, 400, 248
-0.988765, 97, 169, 352, 232
-0.988779, 453, 265, 484, 326
-0.988815, 241, 1, 272, 128
-0.988826, 249, 129, 312, 192
-0.98885, 229, 17, 260, 144
-0.988865, 177, 33, 208, 160
-0.988875, 161, 193, 416, 256
-0.98899, 353, 57, 480, 120
-0.988993, 89, 49, 120, 176
-0.989032, 233, 1, 296, 32
-0.989059, 113, 169, 176, 200
-0.989075, 433, 1, 496, 256
-0.989081, 409, 25, 472, 88
-0.989107, 249, 177, 312, 208
-0.989108, 385, 289, 448, 320
-0.989109, 361, 193, 424, 256
-0.989134, 33, 25, 288, 88
-0.989163, 169, 81, 200, 208
-0.98918, 169, 141, 232, 172
-0.989217, 345, 25, 408, 88
-0.989229, 125, 65, 156, 128
-0.989257, 425, 209, 488, 272
-0.989303, 381, 145, 412, 272
-0.989305, 457, 233, 488, 296
-0.989307, 153, 25, 184, 88
-0.989326, 97, 121, 352, 184
-0.989371, 177, 217, 208, 280
-0.989372, 133, 193, 164, 256
-0.989377, 193, 265, 224, 326
-0.989422, 141, 33, 172, 96
-0.98947, 193, 1, 224, 128
-0.989515, 345, 33, 376, 160
-0.989519, 281, 193, 312, 256
-0.989521, 309, 57, 340, 120
-0.989522, 209, 13, 272, 44
-0.989523, 357, 81, 388, 208
-0.989526, 425, 277, 488, 308
-0.989541, 177, 261, 240, 292
-0.989544, 177, 1, 240, 32
-0.989554, 149, 57, 180, 120
-0.989554, 293, 73, 324, 136
-0.98959, 153, 265, 216, 296
-0.989617, 269, 153, 300, 216
-0.989652, 193, 1, 448, 64
-0.989672, 121, 233, 152, 296
-0.989676, 113, 73, 144, 136
-0.989689, 161, 249, 224, 280
-0.989691, 185, 193, 216, 256
-0.989707, 169, 201, 232, 232
-0.989729, 401, 233, 464, 296
-0.989757, 97, 97, 352, 160
-0.98976, 257, 1, 288, 128
-0.989786, 177, 129, 240, 160
-0.989822, 277, 25, 308, 88
-0.989887, 41, 37, 104, 68
-0.989894, 265, 193, 328, 224
-0.989901, 121, 33, 184, 64
-0.989903, 353, 1, 416, 326
-0.989973, 177, 21, 240, 52
-0.989978, 165, 217, 196, 280
-0.989994, 121, 193, 184, 224
-0.990009, 33, 1, 288, 64
-0.990023, 129, 25, 160, 88
-0.990057, 145, 53, 208, 84
-0.990083, 341, 1, 372, 64
-0.990087, 385, 277, 448, 308
-0.990093, 185, 53, 248, 84
-0.990098, 105, 1, 168, 32
-0.990102, 257, 1, 320, 32
-0.990109, 201, 1, 264, 32
-0.990115, 217, 65, 280, 96
-0.990125, 57, 57, 120, 88
-0.990151, 281, 1, 344, 326
-0.990159, 149, 241, 180, 304
-0.990162, 1, 265, 256, 326
-0.990175, 433, 1, 496, 326
-0.990228, 185, 81, 248, 112
-0.990236, 249, 265, 280, 326
-0.990247, 1, 105, 256, 168
-0.990274, 361, 129, 424, 192
-0.990282, 97, 145, 352, 208
-0.990306, 57, 49, 88, 176
-0.990315, 113, 253, 176, 284
-0.990344, 73, 189, 136, 220
-0.990354, 321, 89, 384, 120
-0.990367, 65, 265, 192, 326
-0.990376, 1, 169, 256, 232
-0.990382, 305, 65, 432, 128
-0.990398, 441, 193, 472, 320
-0.990402, 193, 153, 448, 216
-0.990425, 97, 185, 160, 216
-0.990435, 209, 233, 240, 296
-0.990446, 409, 297, 472, 326
-0.990451, 425, 237, 488, 268
-0.990474, 41, 85, 104, 116
-0.990475, 137, 81, 168, 144
-0.990491, 193, 113, 256, 144
-0.990504, 201, 177, 264, 208
-0.99051, 97, 157, 160, 188
-0.990528, 393, 89, 456, 152
-0.990547, 333, 33, 364, 160
-0.99055, 257, 113, 384, 176
-0.990563, 153, 185, 216, 216
-0.990571, 185, 69, 248, 100
-0.990575, 137, 17, 200, 48
-0.990621, 1, 97, 64, 128
-0.990626, 353, 25, 480, 88
-0.990637, 145, 41, 208, 72
-0.990652, 353, 1, 416, 64
-0.990662, 177, 33, 240, 64
-0.990666, 257, 1, 320, 326
-0.990679, 217, 53, 280, 84
-0.990685, 97, 197, 160, 228
-0.990715, 89, 37, 152, 68
-0.990718, 217, 193, 280, 224
-0.990726, 369, 177, 400, 304
-0.990727, 369, 121, 496, 184
-0.990753, 161, 153, 224, 184
-0.99076, 33, 65, 96, 96
-0.990768, 433, 9, 496, 40
-0.990817, 161, 229, 224, 260
-0.99082, 129, 1, 192, 32
-0.990835, 1, 77, 64, 108
-0.990884, 81, 141, 144, 172
-0.990889, 193, 245, 256, 276
-0.990925, 121, 101, 184, 132
-0.990926, 433, 33, 496, 64
-0.990933, 137, 249, 200, 280
-0.990942, 185, 273, 248, 304
-0.990944, 193, 97, 448, 160
-0.990947, 1, 17, 500, 80
-0.990961, 305, 205, 368, 236
-0.99098, 209, 77, 272, 108
-0.99098, 209, 101, 272, 132
-0.990998, 161, 277, 224, 308
-0.991009, 153, 1, 216, 32
-0.991028, 357, 33, 388, 160
-0.991033, 121, 265, 184, 296
-0.991036, 121, 49, 184, 80
-0.991038, 265, 113, 296, 240
-0.991044, 97, 113, 128, 240
-0.991065, 57, 17, 120, 48
-0.991075, 81, 89, 144, 120
-0.991078, 169, 117, 232, 148
-0.991104, 425, 21, 488, 52
-0.991104, 297, 93, 360, 124
-0.991105, 25, 133, 88, 164
-0.991106, 41, 97, 104, 128
-0.99111, 65, 37, 128, 68
-0.991115, 121, 149, 184, 180
-0.991152, 369, 65, 432, 320
-0.991162, 425, 257, 488, 288
-0.991172, 281, 205, 344, 236
-0.991174, 81, 121, 144, 152
-0.991203, 289, 133, 352, 164
-0.991205, 145, 81, 208, 112
-0.99122, 361, 293, 424, 324
-0.991226, 145, 65, 208, 96
-0.991231, 81, 101, 144, 132
-0.991237, 89, 289, 152, 320
-0.991239, 241, 69, 304, 100
-0.991255, 193, 129, 448, 192
-0.991257, 169, 93, 232, 124
-0.991267, 161, 173, 224, 204
-0.991291, 257, 233, 384, 296
-0.991298, 145, 29, 208, 60
-0.991305, 33, 145, 96, 176
-0.991312, 177, 217, 240, 248
-0.991337, 41, 109, 104, 140
-0.991412, 249, 201, 312, 264
-0.991418, 305, 145, 336, 272
-0.991426, 73, 157, 136, 188
-0.991427, 89, 209, 152, 240
-0.991432, 137, 161, 200, 192
-0.991453, 297, 121, 360, 152
-0.991458, 345, 93, 408, 124
-0.991474, 265, 109, 328, 140
-0.991475, 89, 49, 152, 80
-0.991482, 17, 281, 80, 312
-0.991485, 105, 69, 168, 100
-0.991512, 313, 221, 376, 252
-0.991514, 249, 241, 312, 304
-0.991515, 281, 5, 344, 36
-0.991522, 1, 57, 256, 120
-0.991525, 73, 269, 136, 300
-0.991526, 329, 205, 392, 236
-0.991528, 9, 269, 72, 300
-0.99154, 57, 169, 120, 200
-0.991563, 89, 17, 152, 48
-0.991574, 201, 225, 264, 256
-0.991587, 425, 145, 488, 272
-0.991608, 121, 181, 184, 212
-0.991621, 129, 209, 192, 240
-0.991629, 33, 53, 96, 84
-0.991635, 209, 209, 272, 240
-0.991651, 289, 153, 352, 184
-0.991678, 105, 81, 168, 112
-0.991682, 321, 169, 448, 232
-0.99169, 89, 169, 152, 200
-0.991702, 1, 137, 256, 200
-0.991703, 233, 13, 296, 44
-0.991721, 33, 193, 288, 256
-0.991728, 209, 89, 272, 120
-0.991734, 241, 193, 304, 224
-0.99174, 257, 13, 320, 44
-0.99176, 297, 109, 360, 140
-0.991764, 333, 145, 364, 272
-0.991774, 273, 97, 336, 128
-0.991776, 273, 165, 336, 196
-0.99178, 225, 181, 288, 212
-0.991798, 169, 105, 232, 136
-0.991809, 65, 77, 128, 108
-0.991815, 313, 193, 376, 224
-0.991835, 9, 65, 72, 96
-0.991835, 193, 289, 256, 320
-0.991838, 33, 129, 64, 256
-0.991867, 161, 293, 224, 324
-0.991882, 209, 29, 272, 60
-0.991984, 77, 65, 108, 192
-0.992066, 321, 137, 448, 200
-0.992077, 185, 265, 216, 296
-0.992123, 1, 177, 500, 240
-0.992151, 197, 113, 228, 144
-0.992169, 449, 25, 480, 56
-0.992203, 165, 1, 196, 32
-0.992249, 1, 105, 500, 168
-0.992313, 105, 177, 136, 304
-0.992322, 261, 181, 292, 212
-0.992334, 229, 1, 260, 32
-0.992345, 217, 17, 248, 48
-0.99237, 169, 33, 200, 64
-0.992431, 265, 1, 296, 32
-0.992451, 169, 45, 200, 76
-0.992526, 437, 285, 468, 316
-0.992526, 97, 49, 352, 112
-0.992558, 453, 37, 484, 68
-0.992562, 37, 129, 68, 160
-0.992563, 201, 201, 232, 232
-0.992565, 193, 33, 448, 96
-0.992568, 97, 1, 224, 32
-0.992572, 185, 253, 216, 284
-0.992579, 101, 189, 132, 220
-0.992606, 453, 277, 484, 308
-0.992614, 1, 81, 256, 144
-0.992637, 309, 205, 340, 236
-0.99264, 469, 5, 500, 36
-0.99264, 57, 97, 88, 224
-0.992658, 33, 241, 288, 304
-0.992658, 109, 277, 140, 308
-0.992664, 441, 37, 472, 68
-0.992666, 197, 261, 228, 292
-0.992704, 77, 37, 108, 68
-0.992708, 165, 249, 196, 280
-0.992711, 57, 37, 88, 68
-0.992712, 153, 181, 184, 212
-0.992718, 461, 21, 492, 52
-0.992724, 249, 177, 280, 304
-0.992725, 85, 197, 116, 228
-0.992728, 213, 1, 244, 32
-0.99273, 105, 157, 136, 188
-0.992735, 165, 269, 196, 300
-0.992737, 325, 93, 356, 124
-0.992739, 149, 13, 180, 44
-0.99274, 129, 73, 384, 136
-0.992741, 277, 1, 308, 32
-0.992752, 273, 177, 304, 208
-0.992752, 445, 13, 476, 44
-0.992753, 213, 89, 244, 120
-0.992754, 281, 193, 312, 320
-0.992775, 105, 109, 136, 140
-0.992778, 285, 193, 316, 224
-0.992778, 225, 53, 256, 84
-0.992802, 153, 165, 184, 196
-0.992804, 425, 297, 456, 326
-0.99281, 229, 13, 260, 44
-0.992812, 125, 101, 156, 132
-0.992817, 105, 1, 136, 32
-0.992822, 397, 285, 428, 316
-0.992824, 41, 45, 72, 76
-0.992826, 161, 21, 192, 52
-0.992841, 153, 261, 184, 292
-0.992841, 457, 1, 488, 32
-0.992846, 321, 241, 448, 304
-0.992847, 225, 81, 256, 112
-0.992856, 141, 189, 172, 220
-0.992858, 369, 81, 496, 144
-0.992861, 441, 49, 472, 80
-0.992865, 89, 57, 120, 88
-0.992866, 301, 129, 332, 160
-0.992867, 325, 221, 356, 252
-0.992875, 185, 129, 216, 160
-0.992884, 161, 241, 416, 304
-0.992889, 249, 185, 280, 216
-0.992894, 249, 1, 280, 32
-0.992912, 417, 277, 448, 308
-0.992916, 185, 277, 216, 308
-0.992924, 105, 145, 136, 176
-0.99293, 25, 97, 56, 128
-0.992931, 377, 289, 408, 320
-0.992933, 261, 49, 292, 176
-0.992937, 465, 265, 496, 296
-0.99294, 105, 97, 136, 128
-0.992941, 141, 169, 172, 200
-0.992947, 437, 25, 468, 56
-0.992949, 209, 229, 240, 260
-0.992951, 225, 65, 256, 96
-0.992953, 193, 217, 448, 280
-0.992959, 197, 101, 228, 132
-0.992966, 205, 249, 236, 280
-0.992969, 173, 13, 204, 44
-0.992983, 217, 101, 248, 132
-0.992984, 353, 85, 384, 116
-0.992988, 33, 61, 64, 92
-0.992989, 313, 97, 344, 128
-0.99299, 197, 145, 228, 176
-0.992994, 77, 81, 108, 112
-0.992996, 281, 145, 312, 176
-0.993007, 21, 77, 52, 108
-0.993008, 121, 197, 152, 228
-0.993015, 361, 129, 392, 256
-0.993015, 317, 145, 348, 272
-0.993015, 269, 193, 300, 224
-0.993019, 41, 117, 72, 148
-0.99302, 149, 41, 180, 72
-0.993023, 249, 69, 280, 100
-0.993037, 189, 73, 220, 104
-0.993039, 109, 53, 140, 84
-0.993042, 345, 217, 376, 248
-0.993045, 293, 109, 324, 140
-0.993048, 209, 5, 336, 36
-0.993048, 465, 37, 496, 68
-0.993055, 85, 93, 116, 124
-0.99306, 205, 17, 236, 48
-0.993061, 125, 153, 156, 184
-0.993064, 45, 281, 76, 312
-0.993068, 77, 53, 108, 84
-0.993071, 1, 129, 500, 192
-0.993074, 85, 169, 116, 200
-0.993086, 253, 197, 284, 228
-0.993086, 97, 73, 128, 104
-0.993088, 337, 93, 368, 124
-0.993089, 205, 185, 236, 216
-0.993089, 333, 205, 364, 236
-0.993092, 297, 193, 328, 224
-0.993092, 117, 165, 148, 196
-0.993096, 285, 173, 316, 204
-0.993097, 385, 177, 416, 208
-0.993098, 357, 209, 388, 240
-0.9931, 105, 121, 136, 152
-0.993102, 85, 17, 116, 48
-0.993104, 113, 289, 144, 320
-0.993107, 105, 177, 136, 208
-0.993108, 217, 209, 248, 240
-0.99311, 145, 249, 176, 280
-0.993117, 125, 49, 156, 80
-0.993118, 213, 125, 244, 156
-0.993121, 121, 253, 152, 284
-0.993123, 129, 89, 160, 120
-0.993137, 197, 229, 228, 260
-0.993141, 305, 117, 336, 148
-0.993141, 101, 13, 132, 44
-0.993142, 377, 101, 408, 132
-0.993143, 209, 73, 240, 104
-0.993144, 101, 289, 132, 320
-0.993144, 321, 209, 352, 240
-0.993146, 137, 61, 168, 92
-0.993148, 293, 161, 324, 192
-0.993149, 45, 105, 76, 136
-0.993149, 61, 57, 92, 88
-0.99315, 201, 1, 232, 32
-0.993154, 261, 53, 292, 84
-0.993171, 33, 217, 288, 280
-0.99321, 1, 57, 500, 120
-0.993277, 209, 197, 336, 228
-0.993288, 193, 265, 448, 326
-0.99329, 113, 193, 240, 224
-0.993427, 241, 97, 272, 224
-0.993467, 1, 257, 500, 320
-0.993469, 145, 1, 272, 32
-0.993487, 225, 65, 256, 192
-0.993595, 1, 225, 500, 288
-0.993698, 349, 145, 380, 272
-0.993804, 145, 17, 272, 48
-0.993838, 451, 25, 466, 88
-0.993963, 209, 225, 336, 288
-0.993966, 289, 93, 416, 124
-0.994001, 129, 53, 256, 84
-0.994017, 113, 157, 240, 188
-0.994157, 161, 9, 176, 72
-0.994157, 273, 177, 288, 240
-0.99417, 113, 273, 240, 304
-0.994179, 295, 153, 310, 216
-0.994183, 17, 57, 144, 88
-0.994195, 83, 33, 98, 96
-0.994214, 177, 181, 304, 212
-0.994235, 257, 177, 500, 240
-0.994292, 281, 49, 312, 176
-0.994294, 81, 13, 208, 44
-0.994354, 43, 97, 58, 160
-0.994357, 287, 169, 302, 232
-0.994358, 267, 177, 282, 240
-0.994358, 381, 49, 412, 176
-0.994389, 113, 141, 240, 172
-0.994436, 17, 93, 144, 124
-0.994446, 113, 261, 240, 292
-0.99445, 33, 153, 160, 184
-0.994462, 239, 1, 254, 64
-0.994481, 89, 33, 104, 96
-0.9945, 33, 125, 160, 156
-0.99453, 107, 65, 122, 128
-0.994531, 173, 1, 188, 64
-0.994541, 177, 261, 304, 292
-0.994557, 463, 9, 478, 72
-0.994579, 105, 169, 120, 232
-0.994604, 207, 97, 222, 160
-0.994613, 129, 181, 256, 212
-0.994624, 113, 129, 240, 160
-0.99465, 453, 1, 468, 64
-0.994676, 33, 105, 160, 136
-0.994722, 209, 109, 336, 140
-0.99473, 21, 161, 52, 288
-0.994737, 225, 265, 352, 326
-0.994738, 231, 1, 246, 64
-0.994739, 1, 81, 500, 144
-0.99476, 207, 177, 222, 240
-0.994779, 193, 149, 320, 180
-0.994786, 97, 265, 352, 326
-0.994791, 155, 161, 170, 224
-0.994886, 279, 169, 294, 232
-0.994898, 1, 153, 500, 216
-0.994905, 165, 161, 180, 224
-0.994908, 97, 101, 224, 132
-0.994942, 65, 33, 192, 64
-0.994949, 385, 33, 448, 160
-0.994956, 73, 33, 88, 96
-0.99499, 177, 53, 304, 84
-0.994999, 369, 277, 496, 308
-0.995042, 33, 137, 160, 168
-0.995044, 223, 9, 238, 72
-0.995062, 209, 85, 336, 116
-0.995063, 81, 169, 208, 200
-0.995085, 209, 137, 224, 200
-0.995092, 305, 105, 432, 136
-0.995107, 101, 9, 116, 72
-0.995133, 17, 81, 144, 112
-0.995147, 145, 85, 272, 116
-0.99515, 113, 249, 240, 280
-0.995168, 191, 257, 206, 320
-0.995168, 129, 73, 256, 104
-0.995171, 97, 117, 224, 148
-0.995206, 303, 129, 318, 192
-0.995206, 65, 257, 192, 288
-0.995219, 97, 161, 112, 224
-0.995224, 177, 65, 304, 96
-0.995237, 199, 265, 214, 326
-0.995244, 129, 33, 256, 64
-0.995248, 217, 209, 232, 272
-0.995259, 211, 201, 226, 264
-0.995281, 211, 225, 226, 288
-0.995327, 261, 177, 276, 240
-0.995357, 217, 193, 280, 320
-0.995389, 95, 49, 110, 112
-0.995394, 433, 49, 496, 176
-0.995414, 129, 97, 144, 160
-0.995428, 177, 297, 304, 326
-0.995435, 193, 137, 320, 168
-0.995448, 469, 1, 484, 64
-0.995448, 369, 9, 496, 40
-0.995451, 177, 245, 304, 276
-0.995454, 209, 17, 336, 48
-0.995496, 149, 161, 164, 224
-0.995506, 259, 1, 274, 64
-0.995534, 81, 45, 208, 76
-0.995535, 245, 1, 260, 64
-0.995537, 425, 1, 456, 128
-0.995537, 1, 277, 128, 308
-0.995538, 129, 229, 256, 260
-0.995549, 129, 209, 256, 240
-0.995559, 201, 105, 216, 168
-0.99557, 1, 201, 500, 264
-0.995631, 289, 185, 416, 216
-0.995631, 315, 97, 330, 160
-0.99566, 125, 161, 140, 224
-0.995672, 393, 1, 456, 326
-0.995675, 185, 129, 200, 192
-0.995678, 95, 17, 110, 80
-0.995693, 251, 1, 266, 64
-0.995701, 225, 73, 352, 104
-0.995721, 217, 89, 232, 152
-0.995724, 401, 1, 464, 256
-0.995725, 17, 37, 144, 68
-0.995742, 49, 189, 176, 220
-0.995747, 213, 161, 228, 224
-0.995755, 109, 1, 124, 64
-0.995756, 193, 161, 320, 192
-0.995761, 43, 121, 58, 184
-0.995778, 209, 97, 336, 128
-0.995786, 305, 117, 432, 148
-0.995787, 113, 285, 240, 316
-0.995789, 189, 97, 204, 160
-0.995793, 169, 25, 184, 88
-0.995797, 189, 65, 220, 320
-0.995818, 61, 193, 92, 320
-0.995825, 129, 1, 160, 256
-0.995832, 293, 185, 308, 248
-0.995839, 129, 193, 160, 320
-0.995858, 445, 17, 460, 80
-0.995878, 49, 97, 64, 160
-0.995881, 215, 113, 230, 176
-0.995889, 399, 265, 414, 326
-0.995892, 205, 201, 220, 264
-0.995893, 33, 57, 48, 120
-0.995893, 209, 121, 336, 152
-0.995904, 177, 29, 304, 60
-0.995908, 257, 9, 384, 40
-0.995909, 77, 9, 92, 72
-0.995947, 273, 165, 400, 196
-0.995949, 369, 289, 496, 320
-0.995951, 333, 217, 348, 280
-0.99596, 37, 81, 52, 144
-0.995979, 113, 49, 128, 112
-0.995981, 175, 153, 190, 216
-0.995995, 179, 241, 194, 304
-0.995998, 461, 49, 492, 176
-0.996008, 253, 97, 284, 224
-0.996022, 473, 249, 488, 312
-0.996023, 135, 169, 150, 232
-0.996023, 241, 177, 368, 208
-0.996037, 309, 65, 340, 320
-0.996064, 429, 257, 444, 320
-0.996066, 345, 217, 360, 280
-0.996081, 97, 85, 224, 116
-0.996081, 319, 201, 334, 264
-0.996083, 105, 41, 120, 104
-0.996099, 327, 209, 342, 272
-0.996106, 289, 153, 416, 184
-0.996108, 195, 97, 210, 160
-0.996112, 289, 137, 416, 168
-0.996116, 305, 209, 432, 240
-0.996121, 225, 57, 480, 120
-0.996133, 17, 69, 144, 100
-0.996142, 209, 1, 224, 64
-0.996153, 241, 209, 368, 240
-0.996162, 457, 25, 472, 88
-0.996163, 221, 57, 236, 120
-0.996165, 119, 97, 134, 160
-0.996166, 307, 193, 322, 256
-0.996169, 143, 161, 158, 224
-0.996176, 95, 201, 110, 264
-0.996185, 149, 1, 180, 256
-0.996198, 89, 9, 104, 72
-0.996199, 65, 33, 80, 96
-0.996202, 335, 1, 350, 64
-0.996207, 397, 105, 412, 168
-0.99622, 241, 53, 368, 84
-0.99623, 329, 89, 344, 152
-0.996231, 401, 145, 416, 208
-0.996233, 369, 193, 496, 256
-0.996241, 381, 1, 412, 128
-0.996246, 227, 49, 242, 112
-0.996246, 161, 125, 288, 156
-0.996258, 83, 9, 98, 72
-0.996263, 369, 217, 496, 280
-0.996273, 161, 193, 288, 224
-0.996276, 403, 121, 418, 184
-0.996289, 1, 297, 128, 326
-0.996291, 217, 25, 232, 88
-0.996306, 207, 249, 222, 312
-0.996314, 289, 197, 416, 228
-0.996325, 229, 25, 244, 88
-0.996328, 309, 121, 324, 184
-0.99633, 169, 265, 184, 326
-0.996349, 127, 129, 142, 192
-0.996353, 185, 249, 200, 312
-0.996362, 289, 145, 304, 208
-0.996393, 341, 1, 356, 64
-0.996422, 65, 57, 192, 88
-0.996427, 265, 1, 280, 64
-0.996427, 173, 241, 188, 304
-0.996434, 177, 265, 192, 326
-0.996442, 249, 49, 280, 176
-0.996443, 83, 73, 98, 136
-0.996444, 297, 65, 328, 320
-0.996458, 49, 1, 80, 256
-0.99647, 103, 193, 118, 256
-0.99648, 65, 201, 192, 232
-0.996482, 207, 73, 222, 136
-0.99649, 61, 1, 92, 256
-0.996503, 321, 285, 448, 316
-0.996512, 145, 169, 272, 200
-0.996512, 49, 193, 80, 320
-0.996514, 329, 1, 344, 64
-0.996534, 369, 21, 496, 52
-0.996544, 277, 9, 292, 72
-0.996558, 179, 25, 194, 88
-0.996559, 43, 49, 58, 112
-0.996559, 197, 241, 212, 304
-0.996563, 113, 73, 128, 136
-0.996569, 157, 185, 172, 248
-0.99657, 167, 1, 182, 64
-0.996571, 351, 217, 366, 280
-0.996591, 1, 13, 128, 44
-0.996594, 51, 121, 66, 184
-0.996594, 65, 245, 192, 276
-0.996599, 155, 1, 170, 64
-0.9966, 339, 217, 354, 280
-0.996601, 301, 105, 316, 168
-0.996602, 191, 73, 206, 136
-0.996603, 237, 25, 252, 88
-0.996612, 355, 81, 370, 144
-0.996615, 95, 81, 110, 144
-0.996616, 255, 177, 270, 240
-0.996616, 201, 73, 216, 136
-0.996619, 301, 153, 316, 216
-0.996633, 65, 269, 192, 300
-0.996635, 339, 89, 354, 152
-0.996638, 177, 285, 304, 316
-0.996656, 101, 73, 116, 136
-0.996661, 485, 1, 500, 64
-0.996688, 387, 265, 402, 326
-0.996697, 309, 97, 324, 160
-0.996697, 59, 33, 74, 96
-0.996698, 201, 65, 232, 320
-0.996699, 345, 65, 376, 320
-0.996707, 273, 153, 288, 216
-0.99675, 49, 1, 176, 32
-0.996776, 193, 217, 320, 248
-0.996784, 81, 73, 208, 104
-0.996785, 321, 65, 352, 320
-0.996787, 85, 1, 116, 256
-0.996844, 213, 33, 244, 288
-0.996852, 405, 65, 436, 192
-0.996866, 1, 189, 128, 220
-0.996897, 177, 229, 304, 260
-0.996919, 161, 97, 288, 128
-0.996921, 81, 297, 208, 326
-0.996922, 33, 177, 160, 208
-0.996963, 233, 1, 296, 326
-0.996973, 165, 1, 196, 256
-0.996986, 369, 173, 496, 204
-0.996997, 1, 253, 128, 284
-0.996998, 333, 65, 364, 320
-0.99702, 1, 201, 128, 232
-0.997039, 17, 265, 144, 296
-0.997072, 461, 145, 492, 272
-0.997083, 177, 273, 304, 304
-0.99709, 447, 33, 462, 64
-0.997132, 65, 213, 192, 244
-0.997135, 209, 109, 224, 140
-0.997162, 353, 197, 480, 228
-0.997163, 257, 253, 384, 284
-0.997174, 209, 41, 336, 72
-0.99718, 457, 29, 472, 60
-0.99719, 369, 65, 400, 320
-0.997193, 9, 49, 40, 176
-0.997203, 369, 149, 496, 180
-0.997208, 289, 21, 416, 52
-0.997213, 305, 297, 432, 326
-0.997218, 195, 269, 210, 300
-0.997223, 279, 1, 294, 32
-0.997232, 81, 229, 208, 260
-0.997243, 273, 77, 400, 108
-0.997243, 357, 65, 388, 320
-0.997247, 73, 1, 104, 256
-0.997248, 305, 125, 320, 156
-0.997269, 405, 113, 436, 240
-0.997271, 219, 17, 234, 48
-0.997297, 173, 1, 188, 32
-0.997304, 37, 1, 68, 256
-0.997314, 177, 33, 208, 288
-0.997321, 369, 237, 496, 268
-0.997334, 179, 37, 194, 68
-0.997343, 259, 185, 274, 216
-0.997346, 171, 33, 186, 64
-0.997366, 369, 105, 496, 136
-0.997402, 265, 181, 280, 212
-0.997404, 197, 257, 212, 288
-0.997405, 277, 1, 308, 256
-0.997407, 189, 257, 204, 288
-0.997423, 117, 65, 148, 320
-0.997424, 381, 65, 412, 320
-0.99743, 429, 293, 444, 324
-0.997447, 353, 33, 480, 64
-0.997448, 275, 177, 290, 208
-0.997456, 257, 221, 384, 252
-0.997462, 1, 229, 128, 260
-0.99747, 239, 1, 254, 32
-0.997487, 463, 21, 478, 52
-0.99749, 297, 137, 312, 168
-0.997497, 353, 265, 480, 296
-0.997499, 43, 121, 58, 152
-0.997527, 227, 17, 242, 48
-0.997533, 353, 185, 480, 216
-0.997561, 161, 109, 288, 140
-0.997583, 1, 217, 128, 248
-0.997598, 441, 285, 456, 316
-0.997615, 213, 201, 228, 232
-0.997615, 89, 37, 104, 68
-0.997616, 453, 17, 468, 48
-0.997617, 225, 1, 256, 256
-0.997634, 1, 1, 128, 32
-0.997635, 129, 97, 144, 128
-0.997662, 165, 181, 180, 212
-0.997684, 5, 97, 36, 224
-0.99769, 337, 45, 464, 76
-0.997692, 447, 45, 462, 76
-0.997703, 101, 1, 132, 256
-0.997705, 369, 161, 496, 192
-0.997739, 397, 289, 412, 320
-0.99774, 273, 1, 288, 32
-0.997745, 183, 261, 198, 292
-0.997748, 285, 173, 300, 204
-0.997748, 33, 165, 160, 196
-0.997754, 1, 241, 128, 272
-0.997757, 233, 9, 248, 40
-0.997758, 435, 293, 450, 324
-0.997759, 163, 13, 178, 44
-0.997764, 105, 173, 120, 204
-0.99777, 73, 37, 88, 68
-0.99777, 329, 217, 344, 248
-0.997775, 297, 149, 312, 180
-0.997776, 457, 277, 472, 308
-0.997787, 167, 1, 182, 32
-0.997788, 83, 37, 98, 68
-0.9978, 121, 277, 136, 308
-0.997803, 37, 177, 68, 304
-0.997806, 447, 21, 462, 52
-0.997811, 201, 269, 216, 300
-0.997813, 207, 257, 222, 288
-0.997838, 105, 9, 120, 40
-0.997842, 159, 1, 174, 32
-0.997854, 229, 53, 244, 84
-0.997857, 113, 1, 128, 32
-0.997857, 369, 249, 496, 280
-0.997857, 307, 113, 322, 144
-0.997866, 451, 281, 466, 312
-0.997867, 105, 189, 120, 220
-0.99787, 253, 185, 268, 216
-0.997874, 189, 269, 204, 300
-0.997876, 159, 185, 174, 216
-0.99788, 185, 133, 200, 164
-0.997887, 469, 13, 484, 44
-0.997898, 215, 221, 230, 252
-0.997898, 441, 33, 456, 64
-0.997904, 101, 57, 116, 88
-0.997909, 325, 93, 340, 124
-0.997914, 317, 205, 332, 236
-0.997919, 175, 21, 190, 52
-0.997922, 471, 1, 486, 32
-0.997926, 453, 45, 468, 76
-0.997928, 39, 133, 54, 164
-0.997929, 267, 1, 282, 32
-0.997936, 265, 1, 296, 256
-0.997947, 121, 109, 136, 140
-0.997955, 55, 37, 70, 68
-0.997961, 369, 89, 496, 120
-0.997961, 289, 37, 416, 68
-0.997967, 447, 5, 462, 36
-0.997968, 163, 165, 178, 196
-0.997972, 199, 117, 214, 148
-0.99798, 95, 89, 110, 120
-0.997982, 217, 89, 232, 120
-0.997988, 225, 29, 352, 60
-0.997988, 87, 193, 102, 224
-0.997989, 169, 45, 184, 76
-0.997994, 209, 149, 224, 180
-0.99801, 423, 297, 438, 326
-0.998013, 39, 97, 54, 128
-0.998015, 467, 33, 482, 64
-0.998018, 245, 1, 260, 32
-0.99803, 457, 5, 472, 36
-0.99803, 305, 137, 320, 168
-0.998033, 225, 81, 240, 112
-0.998033, 109, 57, 124, 88
-0.998034, 471, 269, 486, 300
-0.998036, 203, 245, 218, 276
-0.998039, 199, 285, 214, 316
-0.998039, 219, 209, 234, 240
-0.998042, 105, 73, 120, 104
-0.998048, 33, 77, 48, 108
-0.998055, 17, 25, 144, 56
-0.998058, 477, 261, 492, 292
-0.998064, 323, 209, 338, 240
-0.998066, 113, 269, 128, 300
-0.998072, 183, 49, 198, 80
-0.998077, 127, 293, 142, 324
-0.998079, 225, 281, 352, 312
-0.998082, 305, 9, 432, 40
-0.998084, 281, 193, 296, 224
-0.998086, 389, 177, 404, 208
-0.998095, 285, 1, 300, 32
-0.998098, 203, 101, 218, 132
-0.998098, 209, 229, 224, 260
-0.998102, 47, 133, 62, 164
-0.998104, 207, 185, 222, 216
-0.998111, 305, 197, 320, 228
-0.998115, 213, 133, 228, 164
-0.998117, 153, 189, 168, 220
-0.998118, 155, 169, 170, 200
-0.998122, 99, 189, 114, 220
-0.998123, 297, 193, 312, 224
-0.998125, 429, 193, 460, 320
-0.998128, 291, 173, 306, 204
-0.998136, 331, 93, 346, 124
-0.998138, 305, 273, 432, 304
-0.99814, 47, 109, 62, 140
-0.998142, 25, 65, 56, 320
-0.998143, 311, 201, 326, 232
-0.998147, 335, 221, 350, 252
-0.998147, 297, 161, 312, 192
-0.998157, 127, 193, 142, 224
-0.998157, 259, 1, 274, 32
-0.99816, 57, 145, 88, 272
-0.998166, 225, 1, 240, 32
-0.99817, 191, 73, 206, 104
-0.99817, 315, 97, 330, 128
-0.998186, 95, 41, 110, 72
-0.998193, 169, 161, 184, 192
-0.998203, 201, 229, 216, 260
-0.998206, 209, 5, 224, 36
-0.998211, 287, 193, 302, 224
-0.998215, 225, 241, 352, 272
-0.998219, 403, 149, 418, 180
-0.998219, 377, 197, 392, 228
-0.99822, 157, 249, 172, 280
-0.998225, 201, 197, 216, 228
-0.998262, 369, 137, 496, 168
-0.998275, 273, 65, 400, 96
-0.998316, 21, 113, 52, 240
-0.998378, 225, 193, 256, 320
-0.998386, 209, 1, 240, 16
-0.998386, 225, 63, 256, 78
-0.998387, 465, 39, 496, 54
-0.998387, 137, 1, 168, 16
-0.998387, 393, 287, 424, 302
-0.998388, 117, 301, 148, 316
-0.998388, 201, 109, 232, 124
-0.998389, 85, 191, 116, 206
-0.99839, 137, 249, 168, 264
-0.99839, 277, 175, 308, 190
-0.998391, 113, 293, 144, 308
-0.998392, 101, 269, 132, 284
-0.998392, 157, 163, 188, 178
-0.998392, 105, 7, 136, 22
-0.998393, 85, 93, 116, 108
-0.998393, 85, 203, 116, 218
-0.998393, 189, 305, 220, 320
-0.998393, 105, 95, 136, 110
-0.998393, 457, 15, 488, 30
-0.998394, 105, 105, 136, 120
-0.998394, 149, 93, 180, 108
-0.998395, 441, 25, 472, 40
-0.998395, 325, 221, 356, 236
-0.998395, 465, 27, 496, 42
-0.998395, 93, 77, 124, 92
-0.998396, 309, 97, 340, 112
-0.998397, 217, 105, 248, 120
-0.998397, 45, 281, 76, 296
-0.998399, 129, 95, 160, 110
-0.998401, 221, 79, 252, 94
-0.998401, 313, 211, 344, 226
-0.998402, 333, 215, 364, 230
-0.998402, 193, 197, 224, 212
-0.998402, 41, 129, 72, 144
-0.998404, 169, 31, 200, 46
-0.998405, 257, 199, 288, 214
-0.998406, 153, 27, 184, 42
-0.998407, 469, 7, 500, 22
-0.998408, 209, 239, 240, 254
-0.998408, 165, 9, 196, 24
-0.998409, 237, 191, 268, 206
-0.998409, 105, 149, 136, 164
-0.998411, 285, 7, 316, 22
-0.998411, 105, 157, 136, 172
-0.998413, 453, 45, 484, 60
-0.998414, 281, 147, 312, 162
-0.998414, 273, 193, 304, 208
-0.998417, 405, 305, 436, 320
-0.998418, 461, 21, 492, 36
-0.998419, 189, 79, 220, 94
-0.998423, 221, 93, 252, 108
-0.998423, 101, 311, 132, 326
-0.998424, 353, 89, 384, 104
-0.998427, 305, 205, 336, 220
-0.998428, 197, 265, 228, 280
-0.998429, 77, 33, 108, 48
-0.99843, 437, 39, 468, 54
-0.998431, 441, 53, 472, 68
-0.998432, 213, 11, 244, 26
-0.998434, 13, 71, 44, 86
-0.998434, 101, 197, 132, 212
-0.998434, 85, 55, 116, 70
-0.998435, 337, 223, 368, 238
-0.998436, 185, 255, 216, 270
-0.998438, 141, 189, 172, 204
-0.998438, 121, 245, 152, 260
-0.998439, 305, 123, 336, 138
-0.998442, 109, 283, 140, 298
-0.998442, 109, 121, 140, 136
-0.998445, 253, 9, 284, 24
-0.998447, 125, 195, 156, 210
-0.998448, 169, 17, 200, 32
-0.998448, 201, 259, 232, 274
-0.998448, 153, 189, 184, 204
-0.998449, 457, 5, 488, 20
-0.998449, 153, 267, 184, 282
-0.998452, 97, 83, 128, 98
-0.998453, 445, 279, 476, 294
-0.998454, 265, 179, 296, 194
-0.998456, 169, 53, 200, 68
-0.998456, 297, 139, 328, 154
-0.998458, 185, 261, 216, 276
-0.99846, 25, 97, 56, 112
-0.99846, 81, 197, 112, 212
-0.998463, 249, 7, 312, 22
-0.998463, 169, 25, 200, 40
-0.998464, 169, 37, 200, 52
-0.998465, 189, 249, 220, 264
-0.998467, 437, 287, 468, 302
-0.998469, 57, 37, 88, 52
-0.99847, 109, 115, 140, 130
-0.998472, 265, 195, 328, 210
-0.998474, 153, 269, 216, 284
-0.998475, 253, 187, 284, 202
-0.998475, 105, 1, 168, 16
-0.998475, 225, 57, 256, 72
-0.998476, 161, 21, 224, 36
-0.998476, 201, 203, 232, 218
-0.998477, 125, 101, 156, 116
-0.998478, 445, 19, 476, 34
-0.998478, 109, 277, 140, 292
-0.998479, 185, 273, 216, 288
-0.99848, 113, 1, 144, 16
-0.99848, 421, 301, 452, 316
-0.998485, 101, 191, 132, 206
-0.998485, 461, 33, 492, 48
-0.998486, 193, 127, 224, 142
-0.998487, 161, 263, 224, 278
-0.998489, 457, 275, 488, 290
-0.998492, 165, 269, 196, 284
-0.998493, 233, 13, 264, 28
-0.998495, 105, 303, 136, 318
-0.998495, 105, 163, 136, 178
-0.998497, 469, 269, 500, 284
-0.998498, 385, 287, 448, 302
-0.9985, 241, 187, 304, 202
-0.998503, 325, 95, 356, 110
-0.998504, 453, 27, 484, 42
-0.998505, 237, 1, 268, 16
-0.998507, 173, 263, 204, 278
-0.998508, 161, 257, 224, 272
-0.998508, 221, 3, 252, 18
-0.998509, 321, 93, 384, 108
-0.99851, 233, 1, 296, 16
-0.998512, 169, 131, 232, 146
-0.998515, 177, 51, 240, 66
-0.998515, 169, 153, 232, 168
-0.998516, 177, 203, 240, 218
-0.998516, 161, 15, 224, 30
-0.998517, 429, 293, 460, 308
-0.998519, 153, 183, 184, 198
-0.998519, 201, 3, 264, 18
-0.99852, 185, 79, 248, 94
-0.998521, 169, 147, 232, 162
-0.998525, 177, 1, 240, 16
-0.998525, 449, 1, 480, 256
-0.998525, 49, 39, 112, 54
-0.998525, 153, 251, 216, 266
-0.998527, 449, 39, 480, 54
-0.998529, 145, 47, 208, 62
-0.998529, 225, 7, 288, 22
-0.99853, 121, 193, 184, 208
-0.998532, 145, 189, 208, 204
-0.998532, 285, 193, 316, 208
-0.998532, 441, 47, 472, 62
-0.998534, 433, 281, 496, 296
-0.998535, 193, 117, 256, 132
-0.998535, 169, 137, 232, 152
-0.998536, 261, 3, 292, 18
-0.998537, 97, 195, 160, 210
-0.998539, 257, 241, 500, 304
-0.998541, 37, 135, 68, 150
-0.998541, 145, 53, 208, 68
-0.998545, 153, 183, 216, 198
-0.998547, 201, 115, 232, 130
-0.998547, 445, 33, 476, 48
-0.998547, 185, 57, 248, 72
-0.998547, 97, 187, 160, 202
-0.998548, 169, 123, 232, 138
-0.998549, 57, 57, 120, 72
-0.99855, 113, 157, 176, 172
-0.998552, 97, 167, 160, 182
-0.998553, 169, 27, 232, 42
-0.998553, 177, 211, 240, 226
-0.998555, 321, 213, 384, 228
-0.998555, 137, 5, 200, 20
-0.998557, 57, 33, 120, 48
-0.998558, 437, 1, 468, 256
-0.998561, 73, 193, 136, 208
-0.998561, 425, 287, 488, 302
-0.998561, 385, 293, 448, 308
-0.998563, 209, 195, 272, 210
-0.998565, 201, 21, 264, 36
-0.998566, 169, 229, 232, 244
-0.998567, 417, 293, 480, 308
-0.998568, 81, 149, 144, 164
-0.998568, 81, 159, 144, 174
-0.998571, 121, 49, 184, 64
-0.998571, 41, 101, 104, 116
-0.998571, 433, 35, 496, 50
-0.998572, 177, 9, 240, 24
-0.998574, 217, 57, 280, 72
-0.998574, 213, 21, 244, 36
-0.998577, 121, 35, 184, 50
-0.998577, 225, 13, 288, 28
-0.998578, 217, 65, 280, 80
-0.998578, 185, 259, 248, 274
-0.998579, 121, 101, 184, 116
-0.998579, 273, 5, 304, 20
-0.99858, 177, 269, 240, 284
-0.99858, 137, 15, 200, 30
-0.998582, 169, 219, 232, 234
-0.998582, 113, 307, 176, 322
-0.998583, 1, 99, 64, 114
-0.998584, 121, 167, 184, 182
-0.998585, 209, 95, 272, 110
-0.998585, 385, 281, 448, 296
-0.998585, 169, 159, 232, 174
-0.998587, 193, 279, 256, 294
-0.998587, 257, 1, 320, 16
-0.998588, 41, 93, 104, 108
-0.998588, 289, 141, 352, 156
-0.998589, 81, 95, 144, 110
-0.998589, 17, 73, 80, 88
-0.998589, 409, 301, 472, 316
-0.99859, 409, 277, 472, 292
-0.998591, 121, 93, 184, 108
-0.998591, 97, 201, 160, 216
-0.998592, 113, 247, 176, 262
-0.998593, 425, 239, 488, 254
-0.998593, 233, 7, 264, 22
-0.998594, 273, 7, 336, 22
-0.998595, 297, 123, 360, 138
-0.998595, 289, 215, 352, 230
-0.998595, 433, 275, 496, 290
-0.998595, 105, 7, 168, 22
-0.998596, 25, 67, 88, 82
-0.998596, 169, 117, 232, 132
-0.998596, 209, 107, 272, 122
-0.998597, 89, 301, 152, 316
-0.998597, 217, 81, 280, 96
-0.998598, 385, 305, 448, 320
-0.998598, 185, 73, 248, 88
-0.998598, 249, 3, 280, 18
-0.9986, 321, 207, 384, 222
-0.998601, 89, 291, 152, 306
-0.998601, 425, 1, 488, 16
-0.998602, 197, 121, 228, 136
-0.998603, 89, 283, 152, 298
-0.998604, 9, 275, 72, 290
-0.998604, 81, 35, 144, 50
-0.998605, 73, 267, 136, 282
-0.998605, 177, 45, 240, 60
-0.998606, 81, 125, 144, 140
-0.998606, 249, 179, 312, 194
-0.998606, 185, 63, 248, 78
-0.998606, 89, 51, 152, 66
-0.998606, 281, 207, 344, 222
-0.998608, 217, 71, 280, 86
-0.99861, 33, 127, 96, 142
-0.99861, 137, 263, 200, 278
-0.998611, 385, 299, 448, 314
-0.998612, 201, 239, 264, 254
-0.998612, 17, 281, 80, 296
-0.998612, 81, 101, 144, 116
-0.998612, 33, 51, 96, 66
-0.998613, 81, 119, 144, 134
-0.998614, 433, 43, 496, 58
-0.998615, 121, 43, 184, 58
-0.998615, 161, 305, 224, 320
-0.998616, 121, 187, 184, 202
-0.998616, 289, 149, 352, 164
-0.998616, 193, 123, 256, 138
-0.998617, 193, 285, 256, 300
-0.998617, 201, 189, 264, 204
-0.998618, 425, 25, 488, 40
-0.998618, 161, 3, 192, 18
-0.998619, 137, 27, 200, 42
-0.998619, 105, 269, 168, 284
-0.99862, 217, 51, 280, 66
-0.998621, 1, 79, 64, 94
-0.998622, 165, 45, 196, 60
-0.998644, 185, 267, 216, 282
-0.998658, 301, 129, 316, 256
-0.998686, 103, 1, 118, 128
-0.998752, 465, 1, 496, 256
-0.998752, 163, 1, 178, 128
-0.998799, 307, 113, 322, 240
-0.998809, 129, 81, 144, 208
-0.998811, 13, 65, 44, 320
-0.998853, 213, 1, 228, 128
-0.998858, 205, 177, 220, 304
-0.998883, 213, 193, 228, 320
-0.998898, 43, 33, 58, 160
-0.998904, 253, 1, 284, 256
-0.998932, 191, 65, 206, 192
-0.998934, 473, 1, 488, 128
-0.998938, 219, 1, 234, 128
-0.998953, 49, 33, 64, 160
-0.99896, 393, 97, 408, 224
-0.998964, 43, 81, 58, 208
-0.998965, 295, 129, 310, 256
-0.998967, 211, 145, 226, 272
-0.998972, 199, 65, 214, 192
-0.998983, 97, 1, 112, 128
-0.998984, 185, 81, 200, 208
-0.99899, 393, 65, 424, 320
-0.999028, 467, 1, 482, 128
-0.999031, 157, 1, 172, 128
-0.999038, 197, 193, 212, 320
-0.999046, 221, 65, 236, 192
-0.999048, 237, 1, 268, 256
-0.999058, 309, 177, 324, 304
-0.999065, 399, 97, 414, 224
-0.999069, 207, 65, 222, 192
-0.999076, 315, 97, 330, 224
-0.999083, 225, 1, 240, 128
-0.99909, 457, 1, 472, 128
-0.999094, 73, 17, 88, 144
-0.999106, 169, 1, 184, 128
-0.99911, 185, 193, 200, 320
-0.999112, 325, 193, 340, 320
-0.999115, 127, 145, 142, 272
-0.999119, 451, 1, 466, 128
-0.99912, 37, 17, 52, 144
-0.999124, 289, 145, 304, 272
-0.999129, 55, 33, 70, 160
-0.999133, 215, 81, 230, 208
-0.999135, 191, 177, 206, 304
-0.999138, 277, 1, 292, 128
-0.999146, 109, 1, 124, 128
-0.999149, 185, 129, 200, 256
-0.999159, 5, 1, 20, 128
-0.999159, 65, 1, 80, 128
-0.999159, 37, 81, 52, 208
-0.999171, 143, 81, 158, 208
-0.999174, 205, 113, 220, 240
-0.999174, 179, 129, 194, 256
-0.999181, 179, 1, 194, 128
-0.99919, 99, 145, 114, 272
-0.99919, 155, 161, 170, 288
-0.999194, 85, 17, 100, 144
-0.999194, 329, 81, 344, 208
-0.999205, 335, 81, 350, 208
-0.999206, 283, 1, 298, 128
-0.999209, 121, 193, 136, 320
-0.999211, 31, 1, 46, 128
-0.999214, 305, 49, 320, 176
-0.999214, 135, 81, 150, 208
-0.999215, 301, 177, 316, 304
-0.999217, 151, 81, 166, 208
-0.99922, 359, 193, 374, 320
-0.999223, 347, 81, 362, 208
-0.999226, 445, 1, 460, 128
-0.999226, 131, 33, 146, 160
-0.999226, 121, 113, 136, 240
-0.99923, 173, 177, 188, 304
-0.999237, 387, 81, 402, 208
-0.999249, 319, 193, 334, 320
-0.999254, 295, 177, 310, 304
-0.999256, 105, 161, 120, 288
-0.999257, 119, 49, 134, 176
-0.999262, 161, 177, 176, 304
-0.999265, 231, 1, 246, 128
-0.999269, 79, 1, 94, 128
-0.999273, 341, 81, 356, 208
-0.999281, 197, 113, 212, 240
-0.999285, 91, 33, 106, 160
-0.999287, 11, 1, 26, 128
-0.999292, 49, 113, 64, 240
-0.999294, 167, 177, 182, 304
-0.999296, 445, 145, 476, 272
-0.999298, 271, 1, 286, 128
-0.999303, 471, 193, 486, 320
-0.999308, 353, 81, 368, 208
-0.999308, 17, 177, 32, 304
-0.999314, 93, 145, 108, 272
-0.999315, 275, 145, 290, 272
-0.999315, 289, 97, 304, 224
-0.999315, 281, 145, 296, 272
-0.999316, 323, 81, 338, 208
-0.999325, 179, 193, 194, 320
-0.999328, 313, 49, 328, 176
-0.999328, 157, 65, 172, 192
-0.999331, 369, 193, 384, 320
-0.999333, 353, 193, 368, 320
-0.99934, 179, 81, 194, 208
-0.999341, 139, 1, 154, 128
-0.999344, 149, 161, 164, 288
-0.999348, 145, 1, 160, 128
-0.999348, 217, 145, 232, 272
-0.99935, 381, 1, 396, 128
-0.999351, 185, 33, 200, 160
-0.999351, 289, 1, 304, 128
-0.999352, 267, 145, 282, 272
-0.999353, 405, 113, 420, 240
-0.999359, 191, 113, 206, 240
-0.99936, 339, 193, 354, 320
-0.999364, 139, 161, 154, 288
-0.99937, 361, 65, 376, 192
-0.999372, 133, 145, 148, 272
-0.999374, 125, 33, 140, 160
-0.999377, 299, 1, 314, 128
-0.999387, 381, 81, 396, 208
-0.999394, 151, 1, 166, 128
-0.999394, 165, 129, 180, 256
-0.999395, 19, 1, 34, 128
-0.999396, 105, 113, 120, 240
-0.999399, 31, 65, 46, 192
-0.999403, 55, 97, 70, 224
-0.999405, 327, 33, 342, 160
-0.999405, 321, 33, 336, 160
-0.999406, 297, 65, 312, 192
-0.999408, 333, 193, 348, 320
-0.999412, 25, 1, 40, 128
-0.999418, 379, 177, 394, 304
-0.999428, 355, 33, 370, 160
-0.999429, 95, 193, 110, 320
-0.999429, 191, 17, 206, 144
-0.99959, 105, 61, 120, 76
-0.99959, 175, 3, 190, 18
-0.99959, 95, 191, 110, 206
-0.999591, 95, 197, 110, 212
-0.999591, 123, 1, 138, 16
-0.999592, 437, 297, 452, 312
-0.999592, 473, 33, 488, 48
-0.999593, 273, 7, 288, 22
-0.999593, 457, 47, 472, 62
-0.999596, 187, 133, 202, 148
-0.999597, 423, 299, 438, 314
-0.999597, 211, 151, 226, 166
-0.999597, 277, 195, 292, 210
-0.999597, 97, 55, 112, 70
-0.999598, 311, 127, 326, 142
-0.999599, 303, 149, 318, 164
-0.999599, 265, 181, 280, 196
-0.9996, 181, 265, 196, 280
-0.999601, 299, 127, 314, 142
-0.999602, 89, 39, 104, 54
-0.999602, 301, 195, 316, 210
-0.999602, 471, 1, 486, 16
-0.999602, 359, 215, 374, 230
-0.999603, 73, 37, 88, 52
-0.999603, 459, 41, 474, 56
-0.999603, 153, 5, 168, 20
-0.999604, 121, 109, 136, 124
-0.999604, 285, 193, 300, 208
-0.999604, 205, 199, 220, 214
-0.999605, 65, 35, 80, 50
-0.999606, 127, 303, 142, 318
-0.999607, 199, 119, 214, 134
-0.999607, 87, 193, 102, 208
-0.999607, 457, 17, 472, 32
-0.999608, 121, 309, 136, 324
-0.999608, 471, 271, 486, 286
-0.999609, 329, 217, 344, 232
-0.999609, 105, 11, 120, 26
-0.99961, 465, 21, 480, 36
-0.99961, 445, 51, 460, 66
-0.99961, 199, 277, 214, 292
-0.99961, 173, 21, 188, 36
-0.999612, 55, 41, 70, 56
-0.999612, 127, 197, 142, 212
-0.999613, 121, 115, 136, 130
-0.999614, 293, 193, 308, 208
-0.999615, 181, 271, 196, 286
-0.99962, 323, 97, 338, 112
-0.99962, 225, 21, 240, 36
-0.999621, 197, 259, 212, 274
-0.999621, 105, 175, 120, 190
-0.999622, 461, 35, 476, 50
-0.999622, 123, 295, 138, 310
-0.999622, 447, 281, 462, 296
-0.999623, 449, 9, 464, 24
-0.999623, 161, 13, 176, 28
-0.999626, 121, 277, 136, 292
-0.999626, 309, 199, 324, 214
-0.999626, 457, 29, 472, 44
-0.999627, 255, 3, 270, 18
-0.999628, 331, 95, 346, 110
-0.999629, 201, 289, 216, 304
-0.99963, 111, 5, 126, 20
-0.999631, 203, 265, 218, 280
-0.999632, 459, 275, 474, 290
-0.999633, 43, 127, 58, 142
-0.999633, 305, 129, 320, 144
-0.999634, 127, 101, 142, 116
-0.999635, 285, 5, 300, 20
-0.999638, 227, 55, 242, 70
-0.99964, 455, 35, 470, 50
-0.99964, 321, 207, 336, 222
-0.99964, 175, 37, 190, 52
-0.999641, 41, 135, 56, 150
-0.999641, 215, 205, 230, 220
-0.999642, 467, 35, 482, 50
-0.999644, 465, 27, 480, 42
-0.999644, 195, 283, 210, 298
-0.999644, 97, 91, 112, 106
-0.999645, 315, 203, 330, 218
-0.999646, 237, 13, 252, 28
-0.999646, 123, 285, 138, 300
-0.999646, 117, 1, 132, 16
-0.999646, 445, 37, 460, 52
-0.999647, 189, 265, 204, 280
-0.999648, 207, 259, 222, 274
-0.999648, 305, 135, 320, 150
-0.999649, 151, 189, 166, 204
-0.999649, 205, 115, 220, 130
-0.99965, 193, 273, 208, 288
-0.999651, 83, 33, 98, 48
-0.999653, 271, 179, 286, 194
-0.999654, 451, 51, 466, 66
-0.999655, 429, 297, 444, 312
-0.999656, 113, 303, 128, 318
-0.999658, 267, 1, 282, 16
-0.999658, 441, 285, 456, 300
-0.999662, 451, 29, 466, 44
-0.999662, 465, 273, 480, 288
-0.999663, 47, 133, 62, 148
-0.999664, 181, 47, 196, 62
-0.999665, 199, 271, 214, 286
-0.999669, 255, 187, 270, 202
-0.999669, 453, 277, 468, 292
-0.99967, 435, 291, 450, 306
-0.999672, 159, 185, 174, 200
-0.999677, 169, 45, 184, 60
-0.999678, 455, 23, 470, 38
-0.999679, 163, 1, 178, 16
-0.99968, 175, 27, 190, 42
-0.999688, 113, 309, 128, 324
-0.999689, 261, 3, 276, 18
-0.999689, 89, 33, 104, 48
-0.999691, 451, 45, 466, 60
-0.999691, 187, 271, 202, 286
-0.999694, 445, 45, 460, 60
-0.999696, 413, 193, 444, 320
-0.999705, 297, 147, 312, 162
-0.999707, 233, 3, 248, 18
-0.999707, 307, 121, 322, 136
-0.999708, 113, 269, 128, 284
-0.99971, 119, 301, 134, 316
-0.999714, 297, 141, 312, 156
-0.999724, 165, 181, 180, 196
-0.999729, 249, 7, 264, 22
-0.99974, 277, 1, 292, 16
-0.999754, 197, 265, 212, 280
-0.999755, 219, 21, 234, 36
-0.999755, 243, 1, 258, 16
-0.999768, 211, 111, 226, 126
-0.9998, 239, 7, 254, 22
-1.00001, 1, 65, 32, 320
-1.00014, 441, 49, 472, 176
-1.00032, 405, 1, 436, 256
-1.00044, 393, 33, 424, 160
-1.00058, 425, 1, 456, 256
-1.00125, 393, 161, 424, 288
-1.00131, 237, 161, 268, 288
-1.00208, 225, 113, 256, 240
-1.00329, 425, 129, 456, 256
-1.00368, 457, 97, 488, 224
-1.00412, 417, 97, 480, 224
