1971
-0.432224, 1, 129, 500, 375
-0.535463, 1, 1, 500, 375
-0.544469, 1, 1, 500, 256
-0.566578, 97, 1, 352, 375
-0.59849, 161, 129, 416, 375
-0.619543, 1, 1, 256, 375
-0.651306, 193, 1, 448, 375
-0.692406, 1, 97, 256, 352
-0.746691, 257, 129, 500, 375
-0.78461, 97, 33, 352, 288
-0.813145, 1, 1, 256, 256
-0.848582, 257, 33, 500, 288
-0.877168, 1, 241, 500, 368
-0.883128, 97, 97, 224, 352
-0.888775, 241, 129, 368, 375
-0.890659, 193, 1, 320, 375
-0.893662, 193, 129, 320, 375
-0.89427, 33, 1, 160, 375
-0.896109, 1, 161, 500, 288
-0.898792, 17, 97, 144, 352
-0.901055, 97, 1, 224, 375
-0.901161, 305, 129, 432, 375
-0.902451, 145, 1, 272, 375
-0.906578, 33, 1, 160, 256
-0.908773, 337, 1, 464, 375
-0.909524, 257, 1, 384, 375
-0.916838, 225, 241, 480, 368
-0.918784, 353, 65, 480, 320
-0.919631, 145, 129, 272, 375
-0.92433, 1, 81, 500, 208
-0.926446, 177, 33, 304, 288
-0.927166, 33, 241, 288, 368
-0.930231, 97, 193, 352, 320
-0.930963, 161, 145, 416, 272
-0.932404, 1, 177, 256, 304
-0.934871, 1, 1, 256, 128
-0.935177, 1, 129, 256, 256
-0.936018, 305, 33, 432, 288
-0.937016, 273, 241, 400, 368
-0.93784, 225, 33, 352, 288
-0.938751, 177, 209, 240, 336
-0.940817, 1, 1, 500, 128
-0.942216, 129, 1, 256, 256
-0.942669, 97, 193, 160, 320
-0.944359, 81, 193, 208, 320
-0.944579, 1, 65, 256, 192
-0.946015, 97, 145, 224, 272
-0.946311, 257, 81, 500, 208
-0.94689, 129, 145, 192, 272
-0.947804, 193, 193, 448, 320
-0.94944, 97, 65, 352, 192
-0.950489, 105, 145, 168, 272
-0.950962, 17, 161, 144, 288
-0.951565, 193, 241, 320, 368
-0.951794, 97, 225, 160, 288
-0.952447, 49, 241, 176, 368
-0.952538, 161, 193, 288, 320
-0.954211, 33, 1, 160, 128
-0.95431, 129, 241, 384, 368
-0.956099, 153, 161, 216, 288
-0.95638, 81, 1, 208, 256
-0.95742, 65, 257, 128, 320
-0.959075, 257, 129, 500, 256
-0.959231, 97, 241, 224, 368
-0.959302, 177, 201, 240, 264
-0.959661, 121, 209, 184, 336
-0.960418, 97, 1, 224, 128
-0.960622, 65, 209, 128, 336
-0.960727, 49, 81, 176, 208
-0.960793, 145, 209, 208, 336
-0.961609, 177, 257, 240, 320
-0.961645, 273, 305, 336, 368
-0.962939, 241, 129, 368, 256
-0.963095, 121, 97, 184, 224
-0.963193, 265, 241, 328, 368
-0.96327, 281, 129, 344, 256
-0.963364, 97, 201, 160, 264
-0.963677, 121, 145, 184, 208
-0.963872, 33, 289, 96, 352
-0.964082, 193, 161, 256, 288
-0.964132, 121, 225, 184, 288
-0.964143, 353, 241, 416, 368
-0.964215, 137, 1, 200, 128
-0.964685, 145, 241, 272, 368
-0.964894, 369, 225, 496, 352
-0.965876, 385, 241, 448, 368
-0.965941, 313, 241, 376, 368
-0.96609, 193, 129, 320, 256
-0.966094, 337, 97, 464, 224
-0.966611, 225, 177, 352, 304
-0.966728, 321, 241, 448, 368
-0.966844, 49, 1, 112, 128
-0.96708, 177, 233, 240, 296
-0.9671, 313, 113, 376, 240
-0.96746, 241, 241, 304, 368
-0.967565, 289, 97, 416, 224
-0.967971, 145, 145, 208, 208
-0.967984, 161, 281, 224, 344
-0.968139, 201, 193, 264, 256
-0.968354, 377, 257, 440, 320
-0.968493, 97, 65, 160, 192
-0.968586, 145, 217, 208, 280
-0.968659, 89, 249, 152, 312
-0.968745, 97, 97, 224, 224
-0.968849, 353, 273, 416, 336
-0.968987, 273, 193, 400, 320
-0.969121, 241, 281, 304, 344
-0.96925, 145, 97, 272, 224
-0.969407, 337, 81, 400, 208
-0.96952, 137, 249, 200, 312
-0.969753, 153, 113, 216, 240
-0.969785, 41, 241, 104, 368
-0.970042, 281, 193, 344, 320
-0.970187, 97, 1, 160, 128
-0.970217, 1, 225, 64, 352
-0.970363, 97, 225, 224, 288
-0.970756, 289, 257, 352, 320
-0.970942, 273, 281, 336, 344
-0.971161, 289, 265, 416, 328
-0.971341, 249, 153, 312, 216
-0.971404, 201, 225, 264, 352
-0.971502, 161, 1, 224, 128
-0.972011, 73, 1, 136, 128
-0.97213, 1, 209, 128, 336
-0.972417, 65, 233, 128, 296
-0.972526, 161, 1, 416, 128
-0.972707, 97, 49, 224, 176
-0.972819, 377, 281, 440, 344
-0.973162, 353, 297, 416, 360
-0.97318, 185, 169, 248, 232
-0.973218, 65, 249, 192, 312
-0.973429, 109, 161, 140, 288
-0.973581, 249, 257, 312, 320
-0.973665, 385, 81, 448, 208
-0.973755, 289, 145, 352, 208
-0.973831, 145, 145, 272, 272
-0.97429, 161, 65, 224, 192
-0.974408, 97, 81, 160, 144
-0.974477, 289, 241, 352, 368
-0.974495, 249, 129, 312, 256
-0.975039, 73, 161, 136, 288
-0.975325, 177, 265, 304, 328
-0.975363, 41, 265, 104, 328
-0.975596, 345, 193, 408, 320
-0.975773, 121, 201, 184, 264
-0.975813, 305, 161, 368, 288
-0.975853, 217, 177, 280, 304
-0.975866, 145, 193, 208, 256
-0.9759, 25, 193, 88, 320
-0.975926, 121, 121, 184, 184
-0.976075, 185, 193, 216, 320
-0.976117, 113, 193, 240, 256
-0.976254, 25, 313, 88, 375
-0.976348, 189, 177, 220, 240
-0.976951, 417, 97, 480, 224
-0.977115, 409, 225, 472, 352
-0.977286, 233, 313, 296, 375
-0.977507, 81, 113, 144, 240
-0.977549, 377, 305, 440, 368
-0.977635, 173, 209, 204, 336
-0.977691, 361, 81, 424, 208
-0.978241, 173, 225, 204, 288
-0.97842, 289, 257, 320, 320
-0.97844, 177, 185, 304, 248
-0.978471, 297, 177, 360, 240
-0.97848, 321, 161, 448, 288
-0.978482, 185, 281, 248, 344
-0.978578, 409, 281, 472, 344
-0.978608, 133, 225, 164, 288
-0.978785, 73, 249, 104, 312
-0.978805, 185, 129, 248, 375
-0.978848, 85, 241, 116, 304
-0.97885, 165, 249, 196, 312
-0.978872, 433, 313, 496, 375
-0.979051, 113, 169, 240, 232
-0.979119, 89, 177, 152, 240
-0.979154, 9, 81, 72, 208
-0.979214, 41, 49, 104, 176
-0.979216, 113, 185, 144, 248
-0.979221, 97, 121, 160, 184
-0.979276, 225, 273, 352, 336
-0.979427, 201, 113, 264, 240
-0.979631, 45, 281, 76, 344
-0.979671, 281, 129, 344, 375
-0.979885, 369, 257, 496, 320
-0.979902, 329, 113, 392, 176
-0.979928, 89, 241, 152, 368
-0.979997, 121, 193, 152, 320
-0.980109, 177, 273, 208, 336
-0.980453, 297, 289, 328, 352
-0.980518, 257, 193, 320, 320
-0.980527, 97, 129, 160, 375
-0.980549, 65, 273, 96, 336
-0.980634, 145, 49, 272, 176
-0.980635, 209, 169, 272, 232
-0.980643, 321, 49, 448, 176
-0.980671, 1, 209, 128, 272
-0.980731, 97, 225, 128, 288
-0.980774, 433, 129, 496, 192
-0.980812, 153, 145, 184, 208
-0.980817, 241, 153, 368, 216
-0.980818, 149, 225, 180, 288
-0.98082, 273, 177, 336, 240
-0.980824, 197, 209, 228, 272
-0.980853, 273, 313, 400, 375
-0.980928, 305, 289, 432, 352
-0.980964, 285, 241, 316, 368
-0.980968, 65, 209, 128, 272
-0.980969, 49, 217, 176, 280
-0.980988, 145, 217, 272, 280
-0.980999, 337, 249, 400, 312
-0.981022, 225, 297, 352, 360
-0.981091, 137, 97, 200, 352
-0.981095, 117, 209, 148, 272
-0.981133, 1, 49, 128, 176
-0.981196, 17, 297, 144, 360
-0.98124, 161, 225, 192, 352
-0.981297, 145, 1, 208, 64
-0.981363, 197, 177, 228, 304
-0.98137, 1, 313, 64, 375
-0.981394, 161, 129, 224, 375
-0.981456, 401, 313, 464, 375
-0.981519, 9, 97, 72, 160
-0.981553, 273, 233, 336, 296
-0.981557, 321, 97, 384, 352
-0.981562, 177, 313, 240, 375
-0.981592, 113, 169, 176, 232
-0.981605, 177, 313, 304, 375
-0.981686, 377, 273, 408, 336
-0.981745, 121, 49, 184, 176
-0.981852, 49, 1, 112, 256
-0.98187, 137, 137, 168, 200
-0.981902, 161, 121, 224, 184
-0.981929, 369, 297, 496, 360
-0.981957, 193, 161, 320, 224
-0.981989, 93, 193, 124, 320
-0.98199, 369, 193, 432, 320
-0.981993, 181, 249, 212, 312
-0.982001, 161, 1, 288, 128
-0.982303, 33, 113, 160, 176
-0.982349, 153, 161, 184, 288
-0.982467, 185, 217, 216, 280
-0.982499, 121, 89, 184, 152
-0.982502, 297, 233, 360, 296
-0.982571, 193, 241, 320, 304
-0.982613, 337, 97, 464, 160
-0.982709, 201, 257, 264, 320
-0.982802, 297, 241, 328, 368
-0.982873, 33, 89, 160, 152
-0.982898, 1, 73, 64, 136
-0.982918, 313, 313, 376, 375
-0.98309, 401, 241, 432, 368
-0.983179, 257, 1, 500, 128
-0.983213, 233, 185, 296, 248
-0.983361, 33, 289, 64, 352
-0.983412, 277, 265, 308, 328
-0.983471, 385, 241, 416, 368
-0.983494, 209, 305, 272, 368
-0.983509, 9, 273, 72, 336
-0.983633, 17, 177, 144, 240
-0.983689, 193, 249, 224, 312
-0.983698, 345, 89, 408, 152
-0.983743, 209, 1, 272, 64
-0.983756, 185, 1, 216, 128
-0.983759, 185, 1, 248, 128
-0.983816, 217, 233, 280, 296
-0.98382, 209, 193, 240, 256
-0.9839, 161, 225, 192, 288
-0.983965, 9, 121, 72, 184
-0.983966, 33, 273, 160, 336
-0.984001, 321, 169, 384, 232
-0.984056, 361, 129, 424, 375
-0.984069, 401, 105, 464, 168
-0.984073, 133, 113, 164, 240
-0.984084, 185, 241, 216, 368
-0.984221, 49, 241, 80, 368
-0.984222, 257, 129, 320, 375
-0.984255, 161, 169, 224, 232
-0.984338, 113, 249, 240, 312
-0.984425, 49, 9, 112, 72
-0.984483, 97, 145, 224, 208
-0.984483, 281, 289, 312, 352
-0.984483, 397, 305, 428, 368
-0.984498, 361, 233, 424, 296
-0.984594, 273, 241, 400, 304
-0.984616, 433, 281, 496, 344
-0.98463, 301, 265, 332, 328
-0.984657, 225, 81, 352, 208
-0.984873, 297, 281, 360, 344
-0.984924, 225, 185, 352, 248
-0.985019, 377, 129, 440, 192
-0.985072, 313, 129, 344, 256
-0.985108, 217, 281, 280, 344
-0.985142, 309, 313, 340, 375
-0.985232, 113, 249, 176, 312
-0.985247, 369, 129, 432, 256
-0.985344, 129, 273, 256, 336
-0.985441, 177, 193, 208, 256
-0.985477, 113, 113, 144, 240
-0.985522, 385, 297, 416, 360
-0.985581, 81, 81, 208, 144
-0.985586, 177, 289, 304, 352
-0.985602, 397, 257, 428, 320
-0.985609, 305, 121, 432, 184
-0.985658, 313, 257, 376, 320
-0.985669, 97, 249, 128, 312
-0.985761, 17, 249, 144, 312
-0.985839, 185, 1, 248, 64
-0.985851, 225, 129, 288, 256
-0.985989, 209, 129, 272, 375
-0.986078, 193, 209, 320, 272
-0.986194, 49, 161, 112, 288
-0.986258, 169, 1, 200, 128
-0.986297, 45, 305, 76, 368
-0.986313, 257, 1, 384, 128
-0.986337, 197, 241, 228, 368
-0.986518, 305, 121, 368, 184
-0.986552, 1, 97, 128, 224
-0.986552, 153, 1, 216, 375
-0.986676, 161, 1, 288, 64
-0.986681, 41, 241, 104, 304
-0.986693, 73, 241, 104, 368
-0.9867, 41, 89, 104, 152
-0.986784, 161, 137, 288, 200
-0.986784, 73, 97, 136, 352
-0.986881, 193, 281, 224, 344
-0.986919, 165, 145, 196, 272
-0.986957, 113, 1, 144, 128
-0.986957, 369, 89, 432, 152
-0.987127, 345, 33, 408, 160
-0.987146, 409, 145, 472, 208
-0.9872, 273, 185, 400, 248
-0.987204, 265, 201, 328, 264
-0.987414, 149, 209, 180, 336
-0.987431, 121, 65, 152, 192
-0.987444, 201, 145, 264, 208
-0.987456, 133, 65, 164, 192
-0.987489, 337, 129, 400, 256
-0.987667, 81, 121, 208, 184
-0.987676, 425, 105, 488, 168
-0.987685, 33, 313, 64, 375
-0.987716, 289, 1, 352, 64
-0.987764, 265, 153, 296, 216
-0.987814, 253, 161, 284, 224
-0.987815, 9, 33, 72, 160
-0.987855, 205, 257, 236, 320
-0.987857, 169, 65, 232, 128
-0.987941, 321, 313, 448, 375
-0.98795, 41, 57, 104, 120
-0.988014, 65, 185, 192, 248
-0.988025, 125, 1, 156, 128
-0.988133, 157, 121, 188, 184
-0.988137, 1, 177, 64, 304
-0.988198, 25, 145, 88, 272
-0.988199, 125, 161, 156, 224
-0.988219, 33, 145, 160, 208
-0.988229, 369, 49, 496, 176
-0.988303, 73, 89, 136, 152
-0.988324, 141, 161, 172, 288
-0.988327, 1, 217, 64, 280
-0.988334, 465, 313, 496, 375
-0.988415, 281, 153, 312, 216
-0.988425, 101, 1, 132, 128
-0.988437, 333, 113, 364, 240
-0.98845, 409, 241, 472, 304
-0.988453, 301, 241, 332, 304
-0.988485, 401, 281, 432, 344
-0.988525, 57, 289, 120, 352
-0.988533, 145, 97, 208, 160
-0.988536, 249, 233, 312, 296
-0.988546, 285, 129, 316, 256
-0.988567, 17, 57, 144, 120
-0.98864, 269, 289, 300, 352
-0.988697, 17, 249, 80, 312
-0.988729, 269, 241, 300, 368
-0.988731, 289, 313, 320, 375
-0.988732, 257, 241, 288, 368
-0.988785, 121, 1, 184, 64
-0.988792, 137, 1, 168, 128
-0.988802, 281, 81, 344, 208
-0.988843, 369, 121, 496, 184
-0.988845, 289, 177, 320, 240
-0.988862, 325, 241, 356, 368
-0.988868, 337, 145, 400, 208
-0.988877, 305, 193, 336, 320
-0.988904, 321, 289, 384, 352
-0.988922, 205, 169, 236, 232
-0.988955, 249, 313, 280, 375
-0.989019, 105, 33, 168, 288
-0.989027, 297, 129, 328, 256
-0.989064, 289, 145, 416, 208
-0.989088, 97, 1, 160, 375
-0.989102, 409, 305, 440, 368
-0.989116, 305, 145, 336, 208
-0.989129, 49, 9, 176, 72
-0.98927, 85, 217, 116, 280
-0.989286, 33, 97, 64, 224
-0.98931, 469, 289, 500, 352
-0.989313, 113, 1, 240, 64
-0.989352, 105, 229, 168, 260
-0.98937, 109, 81, 140, 144
-0.989405, 209, 177, 240, 304
-0.989407, 257, 145, 288, 272
-0.989442, 145, 65, 208, 128
-0.989444, 49, 1, 80, 128
-0.989485, 161, 33, 224, 288
-0.989514, 25, 129, 88, 375
-0.989521, 153, 97, 184, 224
-0.989527, 357, 257, 388, 320
-0.989573, 273, 309, 336, 340
-0.98958, 357, 241, 388, 368
-0.989582, 321, 225, 384, 288
-0.989622, 209, 1, 272, 375
-0.989633, 121, 233, 152, 296
-0.989649, 185, 197, 248, 228
-0.989678, 101, 177, 132, 240
-0.989692, 353, 145, 480, 208
-0.989693, 41, 1, 104, 375
-0.989696, 25, 217, 88, 280
-0.989727, 41, 33, 104, 96
-0.989736, 317, 137, 348, 200
-0.989765, 157, 1, 188, 128
-0.989779, 297, 209, 360, 272
-0.989788, 325, 161, 356, 288
-0.989842, 313, 65, 376, 192
-0.989926, 225, 305, 480, 368
-0.989944, 233, 1, 296, 64
-0.990025, 301, 185, 332, 248
-0.990085, 137, 233, 200, 264
-0.990085, 313, 145, 376, 208
-0.990095, 369, 153, 432, 216
-0.990098, 193, 273, 448, 336
-0.990116, 177, 261, 240, 292
-0.990121, 61, 225, 92, 352
-0.99014, 449, 313, 480, 375
-0.99016, 257, 1, 320, 375
-0.990164, 89, 1, 120, 128
-0.99017, 221, 225, 252, 352
-0.990174, 121, 149, 184, 180
-0.990295, 329, 1, 392, 375
-0.990336, 73, 257, 136, 288
-0.990344, 65, 269, 128, 300
-0.990375, 129, 97, 256, 160
-0.990375, 113, 313, 240, 375
-0.990387, 353, 233, 480, 296
-0.990397, 33, 177, 64, 304
-0.990409, 137, 209, 168, 336
-0.99041, 137, 273, 200, 336
-0.99041, 457, 289, 488, 352
-0.990412, 153, 277, 216, 308
-0.990422, 305, 1, 432, 128
-0.990425, 145, 149, 208, 180
-0.990491, 105, 65, 136, 192
-0.990491, 97, 213, 160, 244
-0.990502, 281, 321, 344, 352
-0.990544, 417, 145, 480, 272
-0.990572, 161, 245, 224, 276
-0.990583, 25, 301, 88, 332
-0.990609, 137, 245, 200, 276
-0.99062, 273, 113, 336, 176
-0.990628, 161, 193, 224, 224
-0.990632, 273, 297, 336, 328
-0.990679, 113, 161, 144, 224
-0.990708, 313, 241, 344, 368
-0.990722, 225, 257, 288, 320
-0.990735, 121, 165, 184, 196
-0.990745, 261, 313, 292, 375
-0.990757, 273, 273, 336, 304
-0.990775, 101, 113, 132, 240
-0.990803, 65, 185, 128, 248
-0.990835, 65, 245, 128, 276
-0.990848, 249, 289, 312, 320
-0.990859, 377, 301, 440, 332
-0.99086, 285, 193, 316, 320
-0.990887, 61, 1, 92, 128
-0.99089, 177, 1, 240, 375
-0.990901, 241, 129, 368, 192
-0.990925, 137, 201, 168, 264
-0.99094, 257, 157, 320, 188
-0.990952, 245, 145, 276, 272
-0.990965, 317, 161, 348, 224
-0.990974, 397, 81, 428, 208
-0.990979, 49, 285, 112, 316
-0.990987, 269, 145, 300, 272
-0.990997, 289, 257, 352, 288
-0.990999, 89, 241, 152, 272
-0.991005, 177, 277, 240, 308
-0.991046, 137, 169, 200, 232
-0.99106, 433, 241, 496, 368
-0.991062, 369, 289, 432, 320
-0.991084, 41, 113, 104, 176
-0.991099, 177, 289, 240, 320
-0.991102, 217, 169, 248, 232
-0.991114, 233, 321, 296, 352
-0.991122, 121, 1, 184, 375
-0.991126, 373, 241, 404, 368
-0.991129, 33, 249, 288, 312
-0.991131, 277, 313, 308, 375
-0.99115, 145, 265, 208, 296
-0.991192, 109, 225, 140, 352
-0.991229, 193, 209, 256, 240
-0.991235, 77, 1, 108, 128
-0.991241, 233, 305, 264, 368
-0.991243, 369, 265, 432, 296
-0.991254, 101, 201, 132, 264
-0.991257, 393, 97, 456, 352
-0.991269, 185, 177, 248, 208
-0.991281, 249, 309, 312, 340
-0.991309, 209, 193, 272, 224
-0.99132, 225, 193, 256, 256
-0.991328, 345, 285, 408, 316
-0.991341, 193, 57, 256, 120
-0.991348, 1, 345, 64, 375
-0.99138, 293, 153, 324, 216
-0.991382, 161, 233, 224, 264
-0.991384, 105, 253, 168, 284
-0.991388, 321, 261, 384, 292
-0.991395, 33, 265, 96, 296
-0.99142, 89, 189, 152, 220
-0.991422, 129, 73, 256, 136
-0.991436, 209, 241, 240, 368
-0.991436, 249, 277, 312, 308
-0.991438, 25, 313, 88, 344
-0.991455, 17, 285, 80, 316
-0.991455, 265, 261, 328, 292
-0.991473, 221, 161, 252, 288
-0.991477, 345, 169, 408, 232
-0.991481, 21, 305, 52, 368
-0.991499, 41, 161, 104, 224
-0.991511, 89, 201, 152, 232
-0.991545, 1, 257, 500, 320
-0.991552, 317, 185, 348, 248
-0.99157, 1, 305, 64, 336
-0.991576, 73, 65, 136, 192
-0.991591, 241, 333, 304, 364
-0.991606, 297, 185, 360, 216
-0.991621, 153, 221, 216, 252
-0.991622, 261, 265, 292, 328
-0.991624, 265, 185, 328, 216
-0.991668, 385, 233, 448, 296
-0.99167, 353, 301, 416, 332
-0.991686, 321, 169, 448, 232
-0.991707, 413, 81, 444, 208
-0.991718, 345, 273, 408, 304
-0.991728, 249, 169, 312, 200
-0.991731, 121, 185, 184, 216
-0.991736, 241, 169, 272, 232
-0.991752, 25, 193, 88, 256
-0.991764, 169, 81, 200, 208
-0.991769, 273, 49, 400, 176
-0.991773, 145, 161, 208, 192
-0.991788, 369, 277, 432, 308
-0.991792, 121, 65, 184, 128
-0.991794, 105, 89, 168, 120
-0.991847, 57, 249, 88, 312
-0.991852, 289, 205, 352, 236
-0.991853, 109, 249, 140, 312
-0.991861, 313, 313, 376, 344
-0.991864, 281, 149, 344, 180
-0.991869, 157, 1, 188, 64
-0.991882, 365, 81, 396, 208
-0.991893, 257, 81, 320, 208
-0.991895, 401, 305, 464, 336
-0.991896, 201, 309, 264, 340
-0.991898, 369, 1, 432, 375
-0.991913, 289, 169, 352, 200
-0.991913, 433, 153, 496, 216
-0.991914, 289, 1, 352, 375
-0.991925, 329, 121, 360, 184
-0.991927, 433, 145, 496, 176
-0.991947, 193, 129, 224, 256
-0.991955, 201, 33, 264, 288
-0.991991, 197, 1, 228, 128
-0.992002, 1, 85, 64, 116
-0.992048, 153, 201, 184, 264
-0.992054, 161, 205, 224, 236
-0.992061, 121, 205, 184, 236
-0.992064, 177, 221, 240, 252
-0.992074, 249, 289, 280, 352
-0.992075, 321, 345, 384, 375
-0.992083, 377, 313, 440, 344
-0.99209, 169, 153, 200, 216
-0.992091, 361, 345, 424, 375
-0.9921, 393, 289, 456, 320
-0.992117, 1, 97, 64, 128
-0.992119, 433, 317, 496, 348
-0.992149, 49, 97, 112, 352
-0.992149, 241, 265, 304, 296
-0.992165, 233, 189, 296, 220
-0.992184, 273, 333, 336, 364
-0.992189, 385, 345, 448, 375
-0.992192, 65, 221, 128, 252
-0.992201, 161, 177, 224, 208
-0.992202, 217, 297, 280, 328
-0.992208, 321, 313, 352, 375
-0.992217, 201, 277, 264, 308
-0.992219, 289, 285, 352, 316
-0.992221, 345, 105, 376, 168
-0.992228, 353, 177, 384, 304
-0.992231, 1, 193, 256, 256
-0.992241, 265, 1, 328, 32
-0.992245, 121, 137, 184, 168
-0.992245, 153, 145, 184, 176
-0.992266, 185, 249, 248, 280
-0.992266, 177, 129, 208, 256
-0.992273, 401, 321, 464, 352
-0.992278, 433, 97, 496, 352
-0.992291, 369, 253, 432, 284
-0.992302, 249, 345, 312, 375
-0.992311, 201, 165, 264, 196
-0.992317, 97, 169, 160, 200
-0.992341, 377, 81, 408, 208
-0.992343, 225, 177, 288, 208
-0.992349, 113, 241, 176, 272
-0.992359, 345, 33, 408, 288
-0.99236, 361, 333, 424, 364
-0.992362, 97, 101, 160, 132
-0.992374, 433, 133, 496, 164
-0.99238, 313, 301, 376, 332
-0.992392, 321, 177, 384, 208
-0.992408, 17, 325, 80, 356
-0.992409, 177, 317, 240, 348
-0.992412, 129, 217, 192, 248
-0.99242, 345, 261, 408, 292
-0.99242, 345, 97, 376, 224
-0.992424, 337, 117, 400, 148
-0.992432, 1, 225, 256, 288
-0.992439, 265, 197, 328, 228
-0.992452, 165, 193, 196, 256
-0.99246, 233, 1, 296, 32
-0.992463, 321, 133, 384, 164
-0.99247, 33, 301, 64, 332
-0.992472, 81, 249, 112, 280
-0.99248, 65, 233, 128, 264
-0.992485, 185, 65, 248, 192
-0.992487, 153, 289, 216, 320
-0.992489, 193, 233, 256, 264
-0.992499, 193, 193, 224, 224
-0.992503, 369, 93, 432, 124
-0.992516, 49, 17, 112, 48
-0.992527, 241, 241, 272, 368
-0.992534, 73, 113, 136, 176
-0.992539, 305, 325, 368, 356
-0.992546, 393, 253, 456, 284
-0.992556, 25, 345, 88, 375
-0.992567, 41, 101, 104, 132
-0.992574, 377, 193, 408, 320
-0.992574, 413, 225, 444, 352
-0.992575, 97, 225, 352, 288
-0.992577, 137, 153, 168, 184
-0.992577, 289, 1, 352, 32
-0.992577, 1, 49, 64, 112
-0.992581, 9, 117, 72, 148
-0.992583, 233, 97, 296, 352
-0.99259, 329, 177, 360, 240
-0.992599, 129, 97, 192, 128
-0.992603, 141, 113, 172, 176
-0.992616, 289, 269, 320, 300
-0.992626, 177, 265, 208, 296
-0.992628, 225, 165, 288, 196
-0.992629, 125, 81, 156, 144
-0.992632, 241, 201, 304, 232
-0.992635, 257, 321, 320, 352
-0.992638, 1, 225, 64, 256
-0.992647, 49, 281, 80, 312
-0.992651, 377, 141, 440, 172
-0.992652, 57, 297, 88, 360
-0.992654, 153, 249, 184, 312
-0.992655, 289, 245, 352, 276
-0.992658, 393, 333, 456, 364
-0.992662, 9, 145, 72, 208
-0.992667, 49, 309, 112, 340
-0.99267, 49, 297, 112, 328
-0.992671, 185, 277, 216, 308
-0.992697, 225, 1, 352, 64
-0.992698, 165, 233, 196, 264
-0.9927, 137, 229, 168, 260
-0.992705, 17, 1, 80, 375
-0.992708, 297, 297, 328, 328
-0.992713, 89, 145, 152, 208
-0.992717, 149, 233, 180, 264
-0.992756, 93, 241, 124, 272
-0.992763, 301, 257, 332, 288
-0.992771, 233, 177, 264, 304
-0.992779, 337, 161, 368, 288
-0.99278, 373, 249, 404, 312
-0.992786, 85, 241, 116, 368
-0.99282, 385, 297, 416, 328
-0.992834, 313, 309, 344, 340
-0.992856, 161, 153, 416, 216
-0.992865, 281, 293, 312, 324
-0.992871, 109, 185, 140, 216
-0.992896, 281, 309, 312, 340
-0.992899, 25, 345, 56, 375
-0.992911, 185, 245, 216, 276
-0.992911, 381, 285, 412, 316
-0.992922, 69, 261, 100, 292
-0.992926, 109, 205, 140, 236
-0.992928, 185, 205, 216, 236
-0.992929, 125, 165, 156, 196
-0.992932, 213, 197, 244, 228
-0.99294, 165, 253, 196, 284
-0.992945, 73, 273, 104, 304
-0.992963, 149, 245, 180, 276
-0.992973, 241, 217, 368, 280
-0.992982, 193, 177, 224, 208
-0.992983, 429, 97, 460, 224
-0.992993, 297, 309, 328, 340
-0.993, 153, 157, 184, 188
-0.993008, 197, 209, 228, 240
-0.993019, 61, 281, 92, 312
-0.993025, 45, 293, 76, 324
-0.993025, 253, 321, 284, 352
-0.993044, 269, 317, 300, 348
-0.993047, 125, 241, 156, 368
-0.993058, 185, 217, 216, 248
-0.993059, 289, 257, 320, 288
-0.99306, 241, 89, 368, 152
-0.993062, 401, 285, 432, 316
-0.993062, 393, 309, 424, 340
-0.993081, 193, 257, 224, 288
-0.993096, 433, 257, 496, 320
-0.993097, 105, 237, 136, 268
-0.993099, 33, 33, 160, 96
-0.993104, 57, 269, 88, 300
-0.993105, 269, 273, 300, 304
-0.993112, 1, 281, 256, 344
-0.993114, 93, 261, 124, 292
-0.993122, 281, 233, 312, 296
-0.993123, 105, 253, 136, 284
-0.993123, 237, 1, 268, 64
-0.993137, 169, 1, 200, 64
-0.993139, 129, 297, 384, 360
-0.993142, 353, 261, 384, 292
-0.993145, 113, 217, 144, 248
-0.99315, 5, 345, 36, 375
-0.993153, 465, 297, 496, 328
-0.993155, 109, 173, 140, 204
-0.993155, 225, 209, 288, 272
-0.993156, 129, 193, 160, 224
-0.993161, 297, 189, 328, 220
-0.993167, 29, 321, 60, 352
-0.993172, 173, 277, 204, 308
-0.993173, 373, 273, 404, 304
-0.993176, 177, 233, 208, 264
-0.993179, 269, 337, 300, 368
-0.993179, 281, 281, 312, 312
-0.993184, 257, 309, 288, 340
-0.993187, 445, 313, 476, 344
-0.993188, 45, 305, 76, 336
-0.993191, 169, 141, 200, 172
-0.993191, 29, 73, 60, 136
-0.993195, 369, 177, 496, 304
-0.993209, 393, 273, 424, 304
-0.993209, 129, 181, 160, 212
-0.993209, 125, 229, 156, 260
-0.993216, 405, 309, 436, 340
-0.993224, 49, 17, 80, 80
-0.993229, 269, 157, 300, 188
-0.993235, 309, 1, 340, 64
-0.993238, 21, 309, 52, 340
-0.993239, 305, 205, 336, 236
-0.99324, 321, 189, 352, 220
-0.993241, 309, 245, 340, 276
-0.993242, 305, 145, 336, 176
-0.993251, 205, 245, 236, 276
-0.993257, 249, 181, 280, 212
-0.993259, 185, 297, 216, 328
-0.993264, 181, 193, 212, 224
-0.993265, 197, 289, 228, 320
-0.993269, 45, 257, 76, 320
-0.993271, 465, 313, 496, 344
-0.993272, 401, 297, 432, 328
-0.993277, 269, 305, 300, 336
-0.993278, 377, 345, 408, 375
-0.993285, 137, 245, 168, 276
-0.993286, 81, 9, 144, 72
-0.993287, 117, 249, 148, 280
-0.993289, 233, 189, 264, 220
-0.993293, 269, 285, 300, 316
-0.993296, 453, 129, 484, 192
-0.993297, 309, 193, 340, 224
-0.993297, 269, 185, 300, 216
-0.993298, 233, 313, 264, 344
-0.993299, 445, 325, 476, 356
-0.993302, 165, 265, 196, 296
-0.993306, 57, 293, 88, 324
-0.993309, 309, 321, 340, 352
-0.993315, 401, 257, 432, 288
-0.993324, 141, 165, 172, 196
-0.993328, 257, 161, 288, 192
-0.993329, 113, 85, 144, 116
-0.993331, 317, 137, 348, 168
-0.993332, 293, 205, 324, 236
-0.99334, 121, 129, 152, 192
-0.993344, 285, 153, 316, 184
-0.993346, 277, 253, 308, 284
-0.993346, 205, 177, 236, 208
-0.993346, 165, 153, 196, 184
-0.993349, 153, 133, 184, 164
-0.993355, 85, 225, 116, 256
-0.993355, 281, 337, 312, 368
-0.993361, 29, 225, 60, 352
-0.993367, 297, 1, 328, 32
-0.993373, 41, 317, 72, 348
-0.99338, 81, 261, 112, 292
-0.993385, 133, 213, 164, 244
-0.993387, 281, 321, 312, 352
-0.993387, 97, 201, 352, 264
-0.993388, 445, 141, 476, 172
-0.993394, 169, 197, 200, 228
-0.993394, 177, 181, 208, 212
-0.993398, 297, 321, 328, 352
-0.993398, 141, 129, 172, 160
-0.993399, 1, 233, 500, 296
-0.9934, 173, 289, 204, 320
-0.993401, 425, 325, 456, 356
-0.993401, 413, 249, 444, 280
-0.993401, 73, 1, 136, 375
-0.993403, 137, 141, 168, 172
-0.993411, 205, 277, 236, 308
-0.993411, 313, 257, 344, 288
-0.993416, 361, 65, 424, 128
-0.993416, 377, 257, 408, 288
-0.993417, 373, 305, 404, 336
-0.99342, 305, 285, 336, 316
-0.993423, 333, 121, 364, 152
-0.993428, 349, 109, 380, 140
-0.99344, 29, 97, 60, 160
-0.993456, 49, 113, 112, 240
-0.9935, 181, 297, 212, 360
-0.993518, 213, 233, 244, 296
-0.993529, 305, 217, 432, 280
-0.993609, 33, 121, 64, 184
-0.993619, 29, 49, 60, 176
-0.993647, 213, 1, 244, 64
-0.993658, 233, 1, 296, 375
-0.993675, 161, 177, 416, 240
-0.993675, 193, 249, 448, 312
-0.993694, 205, 129, 236, 256
-0.993699, 1, 153, 256, 216
-0.993713, 437, 313, 468, 375
-0.993725, 313, 257, 344, 320
-0.993744, 165, 281, 196, 344
-0.99377, 369, 33, 432, 288
-0.993824, 13, 225, 44, 352
-0.993832, 197, 1, 228, 64
-0.993964, 81, 273, 208, 336
-0.993986, 273, 65, 400, 128
-0.993989, 177, 225, 192, 288
-0.994074, 337, 225, 368, 352
-0.994083, 393, 129, 456, 256
-0.994134, 237, 193, 268, 256
-0.994243, 1, 281, 500, 344
-0.994246, 97, 89, 128, 152
-0.994246, 77, 273, 108, 336
-0.99425, 161, 49, 288, 112
-0.994278, 125, 185, 156, 248
-0.994312, 225, 1, 256, 64
-0.994337, 465, 137, 496, 200
-0.994343, 141, 161, 172, 224
-0.994347, 257, 137, 500, 200
-0.99436, 97, 229, 224, 260
-0.994402, 81, 57, 208, 120
-0.994403, 181, 1, 212, 64
-0.99444, 183, 257, 198, 320
-0.994485, 193, 225, 448, 288
-0.994498, 321, 281, 352, 344
-0.994505, 341, 177, 372, 240
-0.994548, 313, 233, 344, 296
-0.994552, 193, 273, 208, 336
-0.994559, 113, 209, 240, 240
-0.994627, 393, 89, 424, 152
-0.994647, 257, 113, 500, 176
-0.994651, 65, 245, 192, 276
-0.994656, 217, 297, 248, 360
-0.994698, 425, 1, 488, 375
-0.99471, 289, 97, 416, 160
-0.99472, 185, 49, 216, 176
-0.994739, 1, 113, 256, 176
-0.994741, 1, 65, 64, 320
-0.994744, 169, 129, 200, 192
-0.994745, 365, 193, 396, 320
-0.994748, 133, 249, 164, 312
-0.994777, 191, 193, 206, 256
-0.994799, 357, 97, 388, 160
-0.994808, 273, 269, 400, 300
-0.99481, 281, 33, 344, 288
-0.994822, 73, 193, 104, 320
-0.994832, 465, 241, 496, 368
-0.994868, 155, 145, 170, 208
-0.994889, 1, 305, 500, 368
-0.994918, 113, 197, 240, 228
-0.994943, 97, 273, 352, 336
-0.994946, 177, 317, 304, 348
-0.994954, 199, 177, 214, 240
-0.994955, 177, 269, 304, 300
-0.994985, 401, 1, 464, 375
-0.994997, 293, 265, 308, 328
-0.995002, 161, 137, 176, 200
-0.995079, 369, 33, 432, 160
-0.995084, 149, 49, 180, 176
-0.995094, 97, 241, 112, 304
-0.99511, 421, 297, 452, 360
-0.995117, 59, 273, 74, 336
-0.995127, 303, 257, 318, 320
-0.995162, 273, 97, 304, 224
-0.995181, 73, 1, 136, 256
-0.995192, 135, 225, 150, 288
-0.995203, 241, 305, 368, 336
-0.995211, 137, 1, 200, 256
-0.995219, 1, 9, 128, 72
-0.995225, 289, 289, 416, 320
-0.99523, 221, 273, 252, 336
-0.995232, 397, 129, 428, 192
-0.995245, 401, 193, 432, 320
-0.995247, 143, 225, 158, 288
-0.995257, 65, 1, 320, 64
-0.995307, 79, 249, 94, 312
-0.995342, 369, 73, 496, 136
-0.995348, 51, 281, 66, 344
-0.99535, 209, 65, 336, 128
-0.995353, 321, 73, 448, 136
-0.995353, 65, 313, 192, 375
-0.995371, 177, 193, 304, 224
-0.995413, 177, 113, 240, 240
-0.995414, 269, 193, 300, 320
-0.995426, 369, 285, 496, 316
-0.995437, 189, 217, 204, 280
-0.995439, 171, 233, 186, 296
-0.995451, 225, 1, 288, 256
-0.995454, 65, 257, 192, 288
-0.995466, 65, 265, 80, 328
-0.995471, 305, 305, 432, 336
-0.9955, 125, 185, 140, 248
-0.995519, 1, 145, 500, 208
-0.995533, 291, 289, 306, 352
-0.995536, 289, 257, 416, 288
-0.995538, 425, 241, 456, 368
-0.995542, 321, 1, 384, 256
-0.99555, 129, 209, 144, 272
-0.995598, 197, 49, 228, 176
-0.995609, 319, 305, 334, 368
-0.99561, 193, 289, 320, 320
-0.995612, 39, 297, 54, 360
-0.995633, 397, 297, 412, 360
-0.995649, 91, 241, 106, 304
-0.99566, 449, 97, 480, 224
-0.995693, 1, 129, 64, 256
-0.995718, 199, 209, 214, 272
-0.995723, 391, 273, 406, 336
-0.995732, 453, 241, 484, 368
-0.995734, 273, 1, 400, 64
-0.995735, 85, 249, 100, 312
-0.995749, 1, 73, 256, 136
-0.99575, 1, 313, 256, 375
-0.995752, 211, 193, 226, 256
-0.995753, 1, 177, 500, 240
-0.995804, 369, 297, 496, 328
-0.995818, 345, 49, 376, 176
-0.995839, 73, 265, 88, 328
-0.995853, 45, 129, 76, 256
-0.995946, 177, 113, 304, 176
-0.99595, 129, 105, 384, 168
-0.995952, 17, 213, 144, 244
-0.995971, 403, 305, 418, 368
-0.995983, 105, 225, 120, 288
-0.995984, 149, 225, 164, 288
-0.996028, 461, 113, 492, 240
-0.996036, 205, 169, 220, 232
-0.996046, 155, 121, 170, 184
-0.996049, 97, 161, 224, 192
-0.996059, 45, 289, 60, 352
-0.996061, 113, 249, 240, 280
-0.996074, 49, 225, 176, 256
-0.996079, 285, 273, 300, 336
-0.996083, 177, 249, 192, 312
-0.996152, 97, 241, 128, 368
-0.996183, 369, 269, 496, 300
-0.996234, 161, 129, 416, 192
-0.996244, 369, 169, 496, 232
-0.996265, 205, 209, 220, 272
-0.99627, 257, 317, 384, 348
-0.99628, 81, 185, 208, 216
-0.996285, 393, 33, 456, 160
-0.996297, 183, 233, 198, 296
-0.996299, 297, 289, 312, 352
-0.996314, 1, 201, 500, 264
-0.996321, 17, 241, 144, 272
-0.996328, 133, 169, 148, 232
-0.996363, 161, 209, 288, 240
-0.996369, 161, 225, 176, 288
-0.99637, 185, 289, 200, 352
-0.996424, 193, 169, 208, 232
-0.996425, 397, 265, 412, 328
-0.996437, 107, 201, 122, 264
-0.996444, 129, 149, 256, 180
-0.996452, 353, 309, 480, 340
-0.996454, 241, 169, 368, 200
-0.99647, 193, 249, 208, 312
-0.996499, 199, 281, 214, 344
-0.996527, 149, 137, 164, 200
-0.996527, 365, 145, 396, 272
-0.996554, 167, 145, 182, 208
-0.996561, 157, 145, 172, 176
-0.996564, 17, 113, 144, 144
-0.996565, 33, 305, 48, 368
-0.996573, 143, 129, 158, 192
-0.996588, 115, 177, 130, 240
-0.996592, 257, 89, 500, 152
-0.996612, 1, 121, 500, 184
-0.996619, 303, 289, 318, 352
-0.99664, 385, 281, 400, 344
-0.996647, 429, 145, 460, 272
-0.996662, 309, 241, 324, 304
-0.996667, 281, 153, 296, 216
-0.996667, 179, 281, 194, 344
-0.996667, 17, 297, 144, 328
-0.996685, 185, 193, 200, 256
-0.996685, 257, 33, 320, 288
-0.996709, 273, 345, 400, 375
-0.996714, 285, 305, 300, 368
-0.996723, 193, 305, 320, 336
-0.996724, 267, 153, 282, 216
-0.996726, 1, 253, 128, 284
-0.99673, 209, 257, 336, 288
-0.996744, 49, 49, 80, 176
-0.996745, 353, 193, 480, 256
-0.996758, 307, 185, 322, 248
-0.996779, 177, 177, 304, 208
-0.996791, 225, 273, 352, 304
-0.996812, 305, 317, 432, 348
-0.996815, 293, 313, 308, 375
-0.996831, 193, 201, 448, 264
-0.996833, 353, 257, 480, 288
-0.996844, 17, 101, 144, 132
-0.996855, 313, 145, 328, 208
-0.996879, 17, 85, 144, 116
-0.996904, 337, 105, 464, 136
-0.996909, 129, 281, 256, 312
-0.996917, 257, 97, 288, 224
-0.996919, 477, 289, 492, 352
-0.996929, 1, 229, 128, 260
-0.996946, 289, 153, 304, 216
-0.996954, 209, 1, 336, 32
-0.996963, 241, 157, 368, 188
-0.996963, 369, 325, 496, 356
-0.996964, 417, 49, 480, 176
-0.996969, 129, 261, 256, 292
-0.996979, 33, 201, 160, 232
-0.99699, 17, 313, 144, 344
-0.997008, 97, 217, 112, 280
-0.997015, 161, 221, 288, 252
-0.997021, 81, 269, 208, 300
-0.997022, 45, 313, 60, 375
-0.997025, 193, 345, 320, 375
-0.997026, 123, 161, 138, 224
-0.997029, 163, 145, 178, 176
-0.99703, 225, 181, 352, 212
-0.997034, 33, 177, 160, 208
-0.997038, 177, 89, 304, 152
-0.997039, 273, 333, 400, 364
-0.997053, 257, 161, 272, 224
-0.997062, 171, 257, 186, 320
-0.99707, 209, 33, 336, 160
-0.997079, 307, 145, 322, 208
-0.997084, 189, 129, 220, 375
-0.997092, 467, 313, 482, 375
-0.9971, 279, 273, 294, 336
-0.997105, 417, 305, 432, 368
-0.997113, 155, 225, 170, 288
-0.997124, 161, 161, 176, 224
-0.997132, 209, 33, 336, 96
-0.997136, 297, 145, 312, 208
-0.997141, 381, 129, 412, 256
-0.997149, 309, 281, 324, 344
-0.997156, 309, 81, 340, 208
-0.997158, 199, 233, 214, 296
-0.997165, 81, 93, 208, 124
-0.997174, 297, 241, 312, 304
-0.997175, 313, 305, 328, 368
-0.997182, 177, 245, 304, 276
-0.997189, 273, 153, 288, 216
-0.99719, 57, 297, 72, 360
-0.997192, 129, 177, 256, 208
-0.9972, 225, 329, 352, 360
-0.997205, 117, 241, 132, 304
-0.997222, 193, 165, 320, 196
-0.997233, 333, 161, 348, 224
-0.997235, 137, 201, 152, 264
-0.997242, 251, 313, 266, 375
-0.997254, 321, 121, 448, 152
-0.997258, 107, 177, 122, 240
-0.99726, 325, 313, 340, 375
-0.997264, 97, 329, 224, 360
-0.997268, 409, 305, 424, 368
-0.99727, 131, 145, 146, 208
-0.997282, 91, 265, 106, 328
-0.997285, 369, 337, 496, 368
-0.997293, 321, 277, 448, 308
-0.997301, 49, 157, 176, 188
-0.997302, 289, 185, 416, 216
-0.997308, 373, 265, 388, 328
-0.997316, 49, 141, 176, 172
-0.997327, 63, 297, 78, 360
-0.99733, 131, 121, 146, 184
-0.997332, 65, 213, 192, 244
-0.997343, 485, 289, 500, 352
-0.997346, 89, 113, 120, 240
-0.997353, 369, 125, 496, 156
-0.997356, 305, 137, 432, 168
-0.997374, 97, 73, 352, 136
-0.997376, 171, 209, 186, 272
-0.997378, 337, 93, 464, 124
-0.997378, 471, 289, 486, 352
-0.997381, 199, 257, 214, 320
-0.997384, 313, 129, 344, 375
-0.997386, 479, 313, 494, 375
-0.997389, 211, 169, 226, 232
-0.997391, 225, 193, 352, 224
-0.997397, 123, 209, 138, 272
-0.997407, 191, 277, 206, 308
-0.997407, 209, 249, 224, 312
-0.99741, 313, 177, 328, 240
-0.99741, 183, 261, 198, 292
-0.997413, 17, 73, 144, 104
-0.997413, 1, 337, 128, 368
-0.997429, 301, 177, 316, 240
-0.997441, 145, 233, 272, 264
-0.997442, 219, 233, 234, 296
-0.997442, 81, 105, 208, 136
-0.997446, 319, 309, 334, 340
-0.997463, 129, 241, 144, 304
-0.997472, 365, 33, 396, 160
-0.997472, 1, 225, 32, 352
-0.997477, 33, 125, 160, 156
-0.997481, 115, 217, 130, 280
-0.997482, 69, 289, 84, 352
-0.997485, 155, 1, 170, 64
-0.997499, 245, 193, 276, 320
-0.997505, 123, 241, 138, 304
-0.997505, 161, 1, 416, 64
-0.997507, 17, 265, 144, 296
-0.997518, 305, 257, 320, 288
-0.997525, 455, 305, 470, 368
-0.997526, 117, 81, 132, 144
-0.997529, 245, 177, 260, 240
-0.997541, 1, 1, 500, 64
-0.997542, 209, 205, 336, 236
-0.997548, 275, 313, 290, 375
-0.997554, 251, 169, 266, 232
-0.997561, 191, 297, 206, 360
-0.997567, 33, 277, 160, 308
-0.997574, 177, 229, 192, 260
-0.997576, 307, 217, 322, 280
-0.997584, 25, 1, 88, 256
-0.997586, 325, 137, 340, 200
-0.997588, 291, 293, 306, 324
-0.997594, 171, 237, 186, 268
-0.997597, 257, 289, 272, 352
-0.9976, 465, 289, 480, 352
-0.997603, 125, 97, 156, 352
-0.997607, 273, 265, 288, 328
-0.997609, 49, 13, 176, 44
-0.997633, 379, 273, 394, 336
-0.997635, 391, 313, 406, 375
-0.997636, 365, 257, 380, 320
-0.99764, 1, 49, 256, 112
-0.997641, 101, 129, 132, 375
-0.997644, 137, 121, 152, 184
-0.997646, 161, 113, 176, 176
-0.997649, 51, 313, 66, 375
-0.997655, 145, 297, 272, 328
-0.997667, 229, 113, 260, 240
-0.997668, 241, 289, 368, 320
-0.997683, 179, 249, 194, 280
-0.997686, 285, 129, 316, 375
-0.997692, 57, 285, 72, 316
-0.997723, 63, 277, 78, 308
-0.997728, 177, 129, 208, 375
-0.997729, 299, 257, 314, 288
-0.997745, 39, 305, 54, 336
-0.997768, 177, 329, 304, 360
-0.997775, 413, 145, 444, 272
-0.997781, 95, 249, 110, 280
-0.997795, 257, 161, 500, 224
-0.997821, 113, 77, 240, 108
-0.997826, 151, 233, 166, 264
-0.997827, 33, 189, 160, 220
-0.997831, 353, 157, 480, 188
-0.997833, 321, 345, 448, 375
-0.997843, 49, 1, 80, 256
-0.997848, 71, 269, 86, 300
-0.997854, 189, 201, 204, 232
-0.997857, 329, 97, 360, 352
-0.997861, 33, 309, 48, 340
-0.997884, 197, 281, 212, 312
-0.997889, 49, 293, 64, 324
-0.997896, 207, 193, 222, 224
-0.9979, 197, 209, 212, 240
-0.9979, 289, 197, 416, 228
-0.997903, 299, 269, 314, 300
-0.997913, 305, 173, 432, 204
-0.997939, 301, 129, 332, 375
-0.997959, 395, 293, 410, 324
-0.997965, 289, 245, 416, 276
-0.997966, 257, 145, 384, 176
-0.997966, 125, 169, 140, 200
-0.99797, 83, 253, 98, 284
-0.997976, 177, 145, 304, 176
-0.99801, 89, 249, 104, 280
-0.998012, 301, 297, 316, 328
-0.998012, 147, 153, 162, 184
-0.998021, 121, 185, 136, 216
-0.998026, 163, 157, 178, 188
-0.998048, 161, 1, 288, 32
-0.998048, 163, 233, 178, 264
-0.998051, 77, 261, 92, 292
-0.998055, 145, 161, 272, 192
-0.998065, 157, 233, 172, 264
-0.998075, 337, 245, 464, 276
-0.998079, 305, 1, 368, 128
-0.998081, 13, 145, 44, 272
-0.998082, 257, 129, 288, 375
-0.998096, 217, 65, 280, 192
-0.998099, 369, 137, 496, 168
-0.998102, 401, 305, 416, 336
-0.998104, 137, 229, 152, 260
-0.998113, 113, 129, 144, 375
-0.998129, 181, 285, 196, 316
-0.998147, 129, 317, 256, 348
-0.998152, 101, 245, 116, 276
-0.99816, 125, 205, 140, 236
-0.998168, 201, 193, 216, 224
-0.998173, 169, 149, 184, 180
-0.998175, 187, 221, 202, 252
-0.99818, 145, 341, 272, 372
-0.998193, 307, 189, 322, 220
-0.9982, 207, 209, 222, 240
-0.998201, 291, 269, 306, 300
-0.998202, 389, 285, 404, 316
-0.998204, 313, 309, 328, 340
-0.998205, 17, 325, 144, 356
-0.998206, 65, 341, 192, 372
-0.998208, 129, 185, 144, 216
-0.99821, 1, 25, 256, 88
-0.99821, 325, 313, 340, 344
-0.998216, 133, 161, 148, 192
-0.998233, 131, 173, 146, 204
-0.998234, 143, 229, 158, 260
-0.998235, 57, 305, 72, 336
-0.998237, 195, 189, 210, 220
-0.998241, 193, 65, 448, 128
-0.998246, 185, 273, 200, 304
-0.998248, 273, 317, 288, 348
-0.998252, 157, 161, 172, 192
-0.998254, 325, 65, 356, 192
-0.998261, 285, 277, 300, 308
-0.998282, 187, 241, 202, 272
-0.998292, 201, 177, 216, 208
-0.998312, 81, 117, 208, 148
-0.998317, 63, 297, 78, 328
-0.998322, 193, 233, 320, 264
-0.998323, 273, 291, 304, 306
-0.998324, 205, 255, 236, 270
-0.998324, 133, 217, 164, 232
-0.998325, 97, 5, 224, 36
-0.998325, 165, 283, 196, 298
-0.998326, 209, 209, 240, 224
-0.998327, 409, 311, 440, 326
-0.998327, 225, 197, 256, 212
-0.998327, 197, 173, 228, 188
-0.998328, 201, 129, 232, 375
-0.998328, 181, 227, 212, 242
-0.998329, 185, 247, 216, 262
-0.998329, 205, 293, 236, 308
-0.99833, 197, 249, 228, 264
-0.998331, 253, 313, 284, 328
-0.998331, 385, 309, 416, 324
-0.998332, 193, 177, 208, 208
-0.998332, 145, 241, 176, 256
-0.998333, 185, 217, 216, 232
-0.998333, 273, 129, 304, 375
-0.998335, 281, 263, 312, 278
-0.998335, 401, 263, 432, 278
-0.998336, 97, 243, 128, 258
-0.998336, 25, 355, 56, 370
-0.998337, 285, 155, 316, 170
-0.998338, 97, 261, 128, 276
-0.998338, 189, 293, 220, 308
-0.998338, 109, 201, 140, 216
-0.998338, 189, 261, 220, 276
-0.998338, 49, 285, 80, 300
-0.998339, 377, 351, 408, 366
-0.99834, 297, 205, 328, 220
-0.99834, 129, 89, 256, 120
-0.99834, 349, 261, 380, 276
-0.99834, 293, 291, 324, 306
-0.998341, 289, 285, 320, 300
-0.998342, 213, 197, 244, 212
-0.998342, 169, 289, 200, 304
-0.998343, 293, 199, 324, 214
-0.998343, 405, 301, 436, 316
-0.998344, 397, 317, 428, 332
-0.998346, 437, 241, 468, 368
-0.998346, 125, 229, 156, 244
-0.998349, 257, 325, 288, 340
-0.998349, 21, 321, 52, 336
-0.998349, 269, 333, 300, 348
-0.998349, 297, 321, 328, 336
-0.998349, 301, 299, 332, 314
-0.99835, 401, 293, 432, 308
-0.99835, 193, 189, 224, 204
-0.998351, 465, 323, 496, 338
-0.998352, 353, 361, 384, 375
-0.998353, 25, 361, 56, 375
-0.998356, 185, 241, 216, 256
-0.998359, 445, 325, 476, 340
-0.998359, 293, 311, 324, 326
-0.998359, 295, 305, 310, 336
-0.99836, 173, 249, 204, 264
-0.998363, 373, 359, 404, 374
-0.998363, 373, 283, 404, 298
-0.998363, 57, 277, 88, 292
-0.998364, 317, 323, 348, 338
-0.998365, 113, 215, 144, 230
-0.998365, 105, 195, 136, 210
-0.998365, 109, 255, 140, 270
-0.998366, 161, 253, 192, 268
-0.998367, 177, 233, 208, 248
-0.998368, 165, 159, 196, 174
-0.998368, 69, 267, 100, 282
-0.998372, 117, 223, 148, 238
-0.998373, 265, 159, 296, 174
-0.998375, 305, 253, 336, 268
-0.998375, 285, 303, 316, 318
-0.998379, 125, 167, 156, 182
-0.998379, 173, 255, 204, 270
-0.99838, 141, 165, 172, 180
-0.99838, 377, 33, 408, 160
-0.998382, 273, 285, 304, 300
-0.998383, 113, 187, 144, 202
-0.998384, 213, 201, 228, 232
-0.998385, 265, 319, 296, 334
-0.998385, 269, 327, 300, 342
-0.998386, 269, 275, 300, 290
-0.998386, 189, 189, 204, 220
-0.998387, 311, 249, 326, 280
-0.998388, 377, 289, 408, 304
-0.998388, 189, 179, 220, 194
-0.99839, 305, 311, 336, 326
-0.99839, 209, 221, 336, 252
-0.99839, 197, 211, 228, 226
-0.99839, 109, 207, 140, 222
-0.998391, 185, 255, 216, 270
-0.998391, 69, 289, 84, 320
-0.998393, 385, 303, 416, 318
-0.998393, 9, 357, 40, 372
-0.998394, 29, 315, 60, 330
-0.998395, 469, 299, 500, 314
-0.998397, 137, 231, 168, 246
-0.998402, 293, 273, 324, 288
-0.998403, 165, 233, 196, 248
-0.998407, 93, 249, 124, 264
-0.998408, 81, 33, 208, 96
-0.998411, 149, 235, 180, 250
-0.998411, 281, 311, 312, 326
-0.998413, 81, 129, 208, 160
-0.998414, 69, 275, 100, 290
-0.998414, 381, 297, 412, 312
-0.998416, 393, 1, 456, 256
-0.998416, 173, 261, 204, 276
-0.998419, 301, 259, 332, 274
-0.99842, 453, 319, 484, 334
-0.99842, 397, 309, 428, 324
-0.99842, 177, 269, 208, 284
-0.998422, 277, 269, 308, 284
-0.998425, 197, 195, 228, 210
-0.998425, 77, 261, 108, 276
-0.998425, 21, 345, 36, 375
-0.998428, 193, 201, 224, 216
-0.998429, 33, 321, 64, 336
-0.998432, 149, 247, 180, 262
-0.998437, 169, 153, 200, 168
-0.998437, 141, 153, 172, 168
-0.998438, 279, 305, 294, 336
-0.998438, 61, 283, 92, 298
-0.998439, 153, 161, 184, 176
-0.998442, 309, 205, 340, 220
-0.998443, 297, 285, 312, 316
-0.998443, 281, 297, 312, 312
-0.998445, 41, 297, 72, 312
-0.998446, 45, 305, 60, 336
-0.998448, 287, 309, 302, 340
-0.998449, 33, 309, 64, 324
-0.998449, 317, 325, 332, 356
-0.998453, 185, 209, 216, 224
-0.998455, 37, 303, 68, 318
-0.998457, 5, 349, 36, 364
-0.998457, 165, 239, 196, 254
-0.998458, 313, 317, 344, 332
-0.998461, 173, 265, 188, 296
-0.998461, 213, 203, 244, 218
-0.998462, 129, 125, 256, 156
-0.998463, 25, 349, 56, 364
-0.998463, 301, 305, 332, 320
-0.998463, 321, 329, 448, 360
-0.998464, 51, 313, 66, 344
-0.998467, 281, 275, 312, 290
-0.998467, 145, 151, 208, 166
-0.998468, 53, 291, 84, 306
-0.998472, 309, 205, 324, 236
-0.998473, 465, 317, 496, 332
-0.998475, 257, 1, 384, 32
-0.998479, 75, 281, 90, 312
-0.998482, 297, 267, 328, 282
-0.99849, 81, 173, 208, 204
-0.998493, 181, 281, 212, 296
-0.998496, 105, 229, 168, 244
-0.998503, 383, 281, 398, 312
-0.99851, 85, 255, 116, 270
-0.998515, 275, 157, 290, 188
-0.998515, 121, 151, 184, 166
-0.998517, 279, 321, 294, 352
-0.998518, 273, 209, 400, 240
-0.998525, 1, 349, 64, 364
-0.998525, 315, 193, 330, 224
-0.998525, 185, 201, 248, 216
-0.998526, 185, 287, 216, 302
-0.998528, 177, 275, 208, 290
-0.998528, 267, 157, 282, 188
-0.998539, 121, 163, 184, 178
-0.998539, 207, 177, 222, 208
-0.99854, 177, 195, 240, 210
-0.998541, 337, 49, 464, 112
-0.998543, 265, 309, 328, 324
-0.998545, 167, 249, 182, 280
-0.998545, 153, 285, 216, 300
-0.998545, 307, 293, 322, 324
-0.998548, 153, 155, 184, 170
-0.99855, 203, 289, 218, 320
-0.99855, 97, 223, 160, 238
-0.99855, 177, 207, 240, 222
-0.998552, 35, 325, 50, 356
-0.998553, 161, 247, 224, 262
-0.998553, 121, 249, 136, 280
-0.998553, 43, 321, 58, 352
-0.998554, 31, 345, 46, 375
-0.998555, 285, 293, 300, 324
-0.998557, 273, 337, 288, 368
-0.998558, 273, 323, 336, 338
-0.998559, 257, 275, 320, 290
-0.998559, 121, 157, 184, 172
-0.998566, 177, 279, 240, 294
-0.998568, 145, 157, 208, 172
-0.998568, 483, 297, 498, 328
-0.998568, 137, 159, 168, 174
-0.998569, 169, 263, 232, 278
-0.99857, 177, 291, 240, 306
-0.998571, 281, 317, 344, 332
-0.998573, 377, 301, 440, 316
-0.998573, 177, 285, 240, 300
-0.998575, 107, 237, 122, 268
-0.998576, 73, 255, 136, 270
-0.998577, 395, 269, 410, 300
-0.998577, 225, 245, 352, 276
-0.998578, 279, 273, 294, 304
-0.998581, 33, 303, 96, 318
-0.998582, 153, 279, 216, 294
-0.998583, 345, 97, 376, 352
-0.998586, 137, 247, 200, 262
-0.998587, 285, 265, 300, 296
-0.998587, 105, 235, 168, 250
-0.998589, 459, 313, 474, 344
-0.99859, 153, 133, 168, 164
-0.998591, 137, 253, 200, 268
-0.998594, 185, 269, 248, 284
-0.998595, 145, 237, 208, 252
-0.998595, 361, 359, 424, 374
-0.998595, 161, 257, 224, 272
-0.998596, 65, 261, 128, 276
-0.998596, 199, 225, 214, 256
-0.998598, 97, 217, 160, 232
-0.998599, 1, 355, 64, 370
-0.998599, 25, 319, 88, 334
-0.998605, 255, 321, 270, 352
-0.998605, 25, 309, 88, 324
-0.998606, 83, 273, 98, 304
-0.998607, 377, 307, 440, 322
-0.998608, 161, 201, 224, 216
-0.998609, 273, 329, 336, 344
-0.99861, 89, 189, 152, 204
-0.99861, 65, 267, 128, 282
-0.998611, 179, 273, 194, 304
-0.998613, 261, 317, 276, 348
-0.998613, 89, 207, 152, 222
-0.998613, 209, 245, 224, 276
-0.998613, 129, 217, 144, 248
-0.998614, 241, 317, 304, 332
-0.998614, 81, 249, 144, 264
-0.998615, 377, 277, 440, 292
-0.998615, 469, 313, 484, 344
-0.998615, 17, 297, 80, 312
-0.998616, 281, 271, 344, 286
-0.998616, 305, 317, 368, 332
-0.998617, 1, 89, 500, 152
-0.998617, 129, 137, 256, 168
-0.998617, 185, 189, 248, 204
-0.998617, 369, 293, 432, 308
-0.998619, 305, 269, 320, 300
-0.998619, 97, 241, 160, 256
-0.998619, 289, 301, 352, 316
-0.998621, 233, 329, 296, 344
-0.998621, 197, 297, 212, 328
-0.998622, 25, 285, 88, 300
-0.998623, 33, 273, 96, 288
-0.998624, 57, 275, 120, 290
-0.998624, 153, 291, 216, 306
-0.998625, 345, 289, 408, 304
-0.998625, 407, 305, 422, 336
-0.998625, 105, 255, 168, 270
-0.998625, 285, 157, 300, 188
-0.998626, 177, 297, 240, 312
-0.998626, 41, 295, 104, 310
-0.998627, 385, 287, 448, 302
-0.998628, 257, 193, 288, 320
-0.998629, 367, 265, 382, 296
-0.99863, 257, 269, 320, 284
-0.998631, 233, 277, 296, 292
-0.998632, 369, 267, 432, 282
-0.998632, 329, 361, 392, 375
-0.998632, 57, 281, 120, 296
-0.998633, 265, 303, 328, 318
-0.998634, 193, 253, 208, 284
-0.998634, 283, 333, 298, 364
-0.998634, 433, 317, 496, 332
-0.998635, 97, 201, 160, 216
-0.998635, 353, 301, 416, 316
-0.998636, 345, 283, 408, 298
-0.998637, 377, 313, 440, 328
-0.998637, 145, 269, 208, 284
-0.998639, 297, 205, 360, 220
-0.998639, 401, 309, 464, 324
-0.998639, 209, 197, 272, 212
-0.99864, 259, 165, 274, 196
-0.998641, 241, 337, 304, 352
-0.998641, 257, 159, 320, 174
-0.998642, 177, 241, 240, 256
-0.998644, 1, 361, 64, 375
-0.998645, 289, 179, 352, 194
-0.998645, 41, 265, 104, 280
-0.998648, 281, 265, 344, 280
-0.998648, 201, 291, 264, 306
-0.998648, 1, 317, 64, 332
-0.998649, 249, 297, 312, 312
-0.998651, 321, 323, 384, 338
-0.998651, 323, 141, 338, 172
-0.998652, 49, 289, 112, 304
-0.998653, 1, 97, 64, 112
-0.998653, 345, 275, 408, 290
-0.998654, 321, 261, 384, 276
-0.998654, 139, 161, 154, 192
-0.998654, 89, 195, 152, 210
-0.998654, 249, 291, 312, 306
-0.998654, 433, 323, 496, 338
-0.998655, 289, 189, 352, 204
-0.998656, 401, 303, 464, 318
-0.998656, 353, 353, 416, 368
-0.998657, 105, 91, 168, 106
-0.998657, 281, 153, 344, 168
-0.998658, 33, 279, 96, 294
-0.998658, 185, 213, 248, 228
-0.99866, 17, 291, 80, 306
-0.998661, 1, 177, 32, 304
-0.998661, 353, 307, 416, 322
-0.998661, 281, 281, 344, 296
-0.998662, 161, 65, 288, 96
-0.998662, 241, 283, 304, 298
-0.998662, 289, 307, 352, 322
-0.998663, 153, 227, 216, 242
-0.998664, 201, 207, 264, 222
-0.998664, 265, 197, 328, 212
-0.998664, 209, 315, 272, 330
-0.998665, 1, 311, 64, 326
-0.998665, 65, 221, 128, 236
-0.998666, 323, 189, 338, 220
-0.998667, 361, 259, 424, 274
-0.998667, 393, 293, 456, 308
-0.998668, 345, 265, 408, 280
-0.998668, 129, 231, 192, 246
-0.998668, 121, 145, 184, 160
-0.998669, 265, 189, 328, 204
-0.998669, 241, 323, 304, 338
-0.998669, 401, 317, 464, 332
-0.99867, 177, 233, 240, 248
-0.99867, 201, 173, 264, 188
-0.998671, 265, 357, 328, 372
-0.998671, 241, 311, 304, 326
-0.998671, 145, 193, 208, 208
-0.998672, 433, 149, 496, 164
-0.998674, 247, 309, 262, 340
-0.998675, 273, 295, 336, 310
-0.998675, 307, 177, 322, 208
-0.998675, 107, 193, 122, 224
-0.998676, 433, 357, 496, 372
-0.998676, 89, 269, 104, 300
-0.998676, 115, 177, 130, 208
-0.998677, 365, 97, 396, 352
-0.998677, 311, 321, 326, 352
-0.998679, 301, 189, 316, 220
-0.99868, 315, 173, 330, 204
-0.998686, 189, 293, 204, 324
-0.998689, 163, 133, 178, 164
-0.99869, 289, 25, 416, 88
-0.998691, 331, 133, 346, 164
-0.998693, 89, 97, 120, 352
-0.998728, 129, 101, 256, 132
-0.998729, 153, 149, 184, 164
-0.998735, 353, 169, 480, 200
-0.998743, 125, 161, 140, 288
-0.998745, 33, 29, 160, 60
-0.99878, 33, 129, 64, 375
-0.998812, 181, 33, 212, 288
-0.998819, 181, 209, 196, 336
-0.99882, 257, 93, 384, 124
-0.998833, 213, 129, 244, 375
-0.998846, 189, 193, 204, 320
-0.998849, 113, 33, 144, 288
-0.998851, 209, 133, 336, 164
-0.998857, 187, 241, 202, 368
-0.99886, 273, 125, 400, 156
-0.998862, 273, 225, 400, 256
-0.998878, 101, 33, 132, 288
-0.998903, 129, 113, 256, 144
-0.998907, 97, 49, 352, 112
-0.998932, 199, 161, 214, 288
-0.998933, 229, 129, 260, 375
-0.99895, 65, 81, 192, 112
-0.998953, 289, 161, 416, 192
-0.998968, 377, 97, 408, 352
-0.998975, 97, 305, 224, 336
-0.998977, 161, 25, 288, 88
-0.998981, 397, 129, 428, 375
-0.998987, 157, 97, 188, 352
-0.999, 119, 177, 134, 304
-0.999009, 289, 105, 416, 136
-0.999029, 17, 61, 144, 92
-0.999052, 109, 177, 124, 304
-0.999059, 81, 281, 208, 312
-0.999066, 297, 81, 328, 208
-0.999068, 305, 149, 432, 180
-0.99907, 175, 225, 190, 352
-0.999083, 121, 113, 136, 240
-0.999108, 409, 129, 440, 375
-0.999113, 131, 161, 146, 288
-0.999115, 397, 241, 412, 368
-0.999135, 145, 97, 176, 352
-0.999144, 185, 1, 200, 128
-0.999152, 131, 209, 146, 336
-0.999163, 403, 241, 418, 368
-0.999177, 205, 161, 220, 288
-0.999179, 191, 1, 206, 128
-0.999192, 241, 129, 272, 375
-0.9992, 179, 1, 194, 128
-0.999205, 299, 241, 314, 368
-0.999209, 197, 1, 212, 128
-0.999225, 167, 145, 182, 272
-0.999239, 159, 145, 174, 272
-0.999244, 309, 241, 324, 368
-0.99926, 193, 1, 224, 256
-0.99926, 199, 209, 214, 336
-0.999262, 153, 145, 168, 272
-0.999267, 323, 129, 338, 256
-0.999269, 315, 129, 330, 256
-0.999271, 131, 113, 146, 240
-0.999277, 97, 209, 112, 336
-0.999285, 137, 193, 152, 320
-0.999286, 115, 113, 130, 240
-0.99929, 261, 33, 292, 288
-0.999291, 127, 1, 142, 128
-0.999293, 173, 1, 188, 128
-0.999298, 137, 1, 152, 128
-0.999298, 293, 225, 308, 352
-0.999304, 143, 193, 158, 320
-0.999315, 117, 1, 132, 128
-0.99932, 103, 177, 118, 304
-0.999325, 129, 65, 144, 192
-0.999333, 211, 177, 226, 304
-0.999336, 121, 65, 136, 192
-0.999337, 409, 241, 424, 368
-0.999344, 205, 33, 236, 288
-0.999346, 87, 225, 102, 352
-0.99935, 111, 1, 126, 128
-0.999356, 167, 209, 182, 336
-0.999361, 125, 225, 140, 352
-0.999365, 55, 241, 70, 368
-0.999365, 145, 1, 160, 128
-0.999377, 101, 1, 116, 128
-0.99938, 65, 1, 96, 256
-0.999381, 279, 241, 294, 368
-0.999382, 391, 241, 406, 368
-0.999386, 51, 17, 66, 144
-0.999387, 67, 241, 82, 368
-0.999388, 299, 129, 314, 256
-0.999388, 309, 129, 324, 256
-0.999389, 193, 241, 208, 368
-0.999396, 461, 97, 492, 352
-0.999398, 145, 81, 160, 208
-0.999401, 205, 209, 220, 336
-0.999403, 315, 209, 330, 336
-0.999409, 285, 241, 300, 368
-0.999409, 305, 177, 320, 304
-0.99941, 135, 65, 150, 192
-0.999414, 331, 161, 346, 288
-0.999417, 393, 33, 424, 160
-0.999418, 415, 241, 430, 368
-0.999421, 369, 241, 384, 368
-0.999422, 153, 1, 168, 128
-0.999423, 333, 113, 348, 240
-0.999423, 441, 145, 472, 272
-0.999427, 149, 193, 164, 320
-0.999431, 47, 97, 62, 224
-0.999432, 393, 177, 456, 304
-0.999433, 217, 193, 232, 320
-0.999435, 425, 1, 488, 256
-0.999437, 271, 241, 286, 368
-0.999441, 323, 241, 338, 368
-0.999445, 167, 1, 182, 128
-0.999448, 281, 145, 296, 272
-0.999452, 95, 1, 110, 128
-0.999455, 255, 145, 270, 272
-0.999456, 163, 81, 178, 208
-0.99946, 147, 145, 162, 272
-0.999461, 269, 145, 284, 272
-0.999467, 289, 129, 304, 256
-0.999469, 389, 33, 420, 288
-0.999471, 87, 1, 102, 128
-0.999472, 173, 145, 188, 272
-0.999482, 249, 145, 264, 272
-0.999483, 339, 113, 354, 240
-0.999484, 81, 1, 96, 128
-0.999486, 261, 241, 276, 368
-0.999488, 119, 225, 134, 352
-0.99949, 263, 145, 278, 272
-0.99949, 403, 81, 418, 208
-0.999491, 211, 241, 226, 368
-0.999496, 285, 81, 316, 208
-0.9995, 425, 97, 456, 352
-0.999502, 79, 225, 94, 352
-0.999502, 109, 113, 124, 240
-0.999503, 193, 129, 208, 256
-0.99951, 61, 241, 76, 368
-0.999518, 161, 1, 176, 128
-0.999519, 61, 1, 76, 128
-0.999519, 341, 241, 356, 368
-0.999519, 181, 129, 196, 256
-0.999521, 203, 1, 218, 128
-0.999522, 369, 81, 384, 208
-0.999522, 137, 113, 152, 240
-0.999523, 253, 225, 268, 352
-0.999526, 155, 81, 170, 208
-0.999528, 185, 49, 200, 176
-0.999532, 103, 225, 118, 352
-0.999532, 299, 285, 314, 300
-0.999532, 247, 313, 262, 328
-0.999533, 191, 277, 206, 292
-0.999533, 273, 315, 288, 330
-0.999533, 275, 145, 290, 272
-0.999533, 287, 157, 302, 172
-0.999534, 79, 279, 94, 294
-0.999534, 217, 197, 232, 212
-0.999534, 377, 361, 392, 375
-0.999534, 111, 259, 126, 274
-0.999534, 67, 297, 82, 312
-0.999535, 383, 241, 398, 368
-0.999535, 91, 245, 106, 260
-0.999535, 193, 183, 208, 198
-0.999536, 311, 321, 326, 336
-0.999536, 281, 307, 296, 322
-0.999536, 389, 289, 404, 304
-0.999536, 209, 175, 224, 190
-0.999536, 207, 203, 222, 218
-0.999536, 197, 297, 212, 312
-0.999536, 191, 217, 206, 232
-0.999537, 395, 301, 410, 316
-0.999537, 297, 303, 312, 318
-0.999538, 243, 177, 258, 304
-0.999539, 285, 285, 300, 300
-0.999539, 463, 323, 478, 338
-0.999539, 203, 291, 218, 306
-0.99954, 45, 97, 76, 352
-0.999541, 197, 285, 212, 300
-0.999541, 77, 267, 92, 282
-0.999541, 291, 303, 306, 318
-0.999542, 279, 335, 294, 350
-0.999542, 407, 309, 422, 324
-0.999542, 133, 157, 148, 172
-0.999543, 305, 207, 320, 222
-0.999543, 313, 33, 344, 288
-0.999543, 457, 321, 472, 336
-0.999544, 485, 317, 500, 332
-0.999545, 1, 357, 16, 372
-0.999545, 55, 293, 70, 308
-0.999545, 11, 357, 26, 372
-0.999545, 97, 243, 112, 258
-0.999546, 375, 241, 390, 368
-0.999546, 107, 191, 122, 206
-0.999547, 43, 49, 58, 176
-0.999547, 131, 183, 146, 198
-0.999548, 395, 307, 410, 322
-0.999548, 61, 281, 76, 296
-0.999549, 305, 271, 320, 286
-0.999549, 29, 347, 44, 362
-0.99955, 87, 273, 102, 288
-0.99955, 125, 207, 140, 222
-0.999551, 207, 211, 222, 226
-0.999551, 93, 269, 108, 284
-0.999551, 137, 229, 152, 244
-0.999552, 73, 1, 88, 128
-0.999552, 169, 33, 200, 288
-0.999552, 173, 247, 188, 262
-0.999553, 337, 161, 352, 288
-0.999554, 307, 189, 322, 204
-0.999554, 73, 241, 88, 368
-0.999554, 39, 317, 54, 332
-0.999554, 41, 303, 56, 318
-0.999554, 303, 253, 318, 268
-0.999554, 325, 193, 340, 320
-0.999555, 317, 203, 332, 218
-0.999555, 125, 181, 140, 196
-0.999555, 287, 177, 302, 304
-0.999555, 193, 191, 208, 206
-0.999555, 199, 179, 214, 194
-0.999556, 61, 303, 76, 318
-0.999556, 217, 241, 232, 368
-0.999556, 115, 65, 130, 192
-0.999556, 299, 177, 314, 304
-0.999557, 101, 263, 116, 278
-0.999557, 181, 291, 196, 306
-0.999558, 209, 195, 224, 210
-0.999558, 323, 323, 338, 338
-0.999559, 53, 313, 68, 328
-0.99956, 189, 203, 204, 218
-0.99956, 43, 241, 58, 368
-0.99956, 259, 323, 274, 338
-0.999561, 385, 283, 400, 298
-0.999562, 155, 193, 170, 320
-0.999564, 297, 261, 312, 276
-0.999564, 371, 361, 386, 375
-0.999564, 393, 295, 408, 310
-0.999567, 365, 361, 380, 375
-0.999568, 437, 97, 452, 224
-0.999569, 309, 253, 324, 268
-0.99957, 359, 193, 374, 320
-0.99957, 49, 241, 64, 368
-0.999572, 113, 225, 128, 352
-0.999572, 35, 307, 50, 322
-0.999572, 289, 277, 304, 292
-0.999573, 483, 299, 498, 314
-0.999575, 367, 177, 382, 304
-0.999576, 347, 97, 362, 224
-0.999576, 283, 275, 298, 290
-0.999577, 191, 283, 206, 298
-0.999578, 307, 265, 322, 280
-0.999578, 303, 303, 318, 318
-0.999578, 143, 231, 158, 246
-0.999579, 401, 307, 416, 322
-0.99958, 397, 81, 412, 208
-0.999581, 379, 81, 394, 208
-0.999582, 391, 81, 406, 208
-0.999582, 161, 209, 176, 336
-0.999587, 159, 245, 174, 260
-0.999587, 295, 309, 310, 324
-0.999588, 299, 273, 314, 288
-0.999589, 129, 169, 144, 184
-0.999591, 245, 241, 260, 368
-0.999592, 475, 319, 490, 334
-0.999592, 61, 287, 76, 302
-0.999593, 319, 317, 334, 332
-0.999593, 199, 211, 214, 226
-0.999594, 93, 251, 108, 266
-0.999595, 457, 315, 472, 330
-0.999595, 87, 253, 102, 268
-0.999595, 185, 275, 200, 290
-0.999595, 289, 293, 304, 308
-0.999601, 45, 321, 60, 336
-0.999604, 299, 291, 314, 306
-0.999604, 161, 155, 176, 170
-0.999606, 179, 285, 194, 300
-0.999606, 73, 273, 88, 288
-0.999608, 5, 351, 20, 366
-0.999609, 413, 33, 444, 288
-0.99961, 177, 253, 192, 268
-0.99961, 81, 1, 112, 256
-0.99961, 157, 163, 172, 178
-0.999612, 163, 235, 178, 250
-0.999613, 123, 187, 138, 202
-0.999614, 311, 205, 326, 220
-0.999615, 153, 235, 168, 250
-0.999615, 33, 319, 48, 334
-0.999615, 217, 205, 232, 220
-0.999616, 191, 211, 206, 226
-0.999617, 1, 57, 500, 120
-0.999617, 389, 193, 420, 320
-0.999618, 19, 351, 34, 366
-0.999619, 145, 157, 160, 172
-0.99962, 437, 97, 468, 352
-0.999621, 303, 259, 318, 274
-0.999621, 169, 239, 184, 254
-0.999626, 93, 65, 124, 192
-0.999628, 225, 41, 480, 104
-0.999628, 197, 291, 212, 306
-0.99963, 293, 269, 308, 284
-0.999631, 181, 265, 196, 280
-0.999634, 317, 311, 332, 326
-0.999634, 67, 279, 82, 294
-0.999635, 169, 155, 184, 170
-0.999636, 179, 259, 194, 274
-0.999637, 151, 159, 166, 174
-0.99964, 463, 317, 478, 332
-0.999645, 133, 163, 148, 178
-0.999649, 163, 161, 178, 176
-0.999652, 299, 267, 314, 282
-0.999652, 469, 319, 484, 334
-0.999654, 157, 147, 172, 162
-0.99966, 125, 1, 156, 256
-0.999661, 289, 33, 320, 288
-0.999673, 155, 153, 170, 168
-0.999675, 177, 235, 192, 250
-0.999677, 295, 297, 310, 312
-0.999703, 357, 1, 388, 256
-0.999714, 273, 1, 304, 256
-0.999718, 401, 33, 432, 288
-0.999731, 245, 1, 276, 256
-0.999749, 163, 149, 178, 164
-0.999802, 33, 33, 64, 288
-0.999868, 369, 1, 496, 64
-0.999884, 377, 1, 408, 256
-0.999892, 225, 33, 256, 288
-0.999908, 257, 1, 500, 64
-0.999937, 137, 1, 168, 256
-0.999964, 209, 49, 240, 176
-0.99998, 449, 97, 480, 352
-0.999991, 301, 33, 332, 288
-1.00002, 65, 129, 96, 375
-1.00005, 217, 113, 248, 240
-1.00005, 245, 97, 276, 224
-1.00006, 149, 1, 180, 256
-1.00006, 317, 1, 348, 128
-1.00008, 345, 1, 376, 256
-1.00014, 337, 25, 464, 88
-1.00016, 425, 1, 456, 256
-1.00025, 9, 129, 40, 375
-1.00029, 77, 97, 108, 352
-1.00029, 445, 1, 476, 256
-1.0003, 433, 193, 496, 320
-1.00031, 1, 33, 500, 96
-1.00031, 405, 33, 436, 160
-1.00034, 21, 65, 52, 320
-1.00045, 329, 1, 360, 256
-1.00047, 457, 1, 488, 256
-1.00053, 469, 1, 500, 256
-1.00064, 209, 17, 272, 144
-1.00068, 97, 25, 352, 88
-1.00093, 9, 33, 40, 288
-1.00119, 321, 1, 448, 64
-1.00161, 369, 1, 496, 128
-1.00285, 233, 17, 296, 144
-1.00295, 281, 1, 344, 128
-1.00631, 417, 1, 480, 128
-1.00649, 257, 17, 320, 144
