1963
-0.317593, 1, 1, 500, 375
-0.355066, 1, 129, 500, 375
-0.404311, 1, 33, 500, 288
-0.470314, 193, 1, 448, 375
-0.579182, 1, 1, 256, 375
-0.622958, 225, 129, 480, 375
-0.628233, 97, 1, 352, 375
-0.642318, 1, 129, 256, 375
-0.682094, 225, 1, 480, 256
-0.704945, 97, 129, 352, 375
-0.805363, 1, 33, 256, 288
-0.839213, 1, 241, 500, 368
-0.847076, 33, 129, 160, 375
-0.861629, 369, 97, 496, 352
-0.868413, 225, 129, 352, 375
-0.870941, 1, 193, 500, 320
-0.87134, 321, 1, 448, 375
-0.876097, 65, 225, 320, 352
-0.877718, 17, 1, 144, 375
-0.877769, 369, 1, 496, 375
-0.878205, 257, 1, 384, 375
-0.878607, 145, 129, 272, 375
-0.879439, 129, 33, 384, 288
-0.8796, 305, 129, 432, 375
-0.881249, 321, 1, 448, 256
-0.885471, 225, 209, 480, 336
-0.88789, 1, 145, 500, 272
-0.888065, 1, 1, 128, 256
-0.889549, 1, 49, 500, 176
-0.895136, 209, 1, 336, 375
-0.899114, 1, 97, 500, 224
-0.902666, 97, 129, 224, 375
-0.903367, 369, 1, 496, 256
-0.903902, 145, 1, 272, 375
-0.907941, 81, 1, 208, 375
-0.914092, 33, 177, 288, 304
-0.914842, 241, 241, 368, 368
-0.915076, 225, 161, 480, 288
-0.915806, 113, 225, 240, 352
-0.917782, 257, 225, 320, 352
-0.919522, 281, 209, 344, 336
-0.920856, 305, 193, 432, 320
-0.922008, 225, 33, 352, 288
-0.922041, 193, 209, 320, 336
-0.92233, 49, 33, 176, 288
-0.923875, 1, 129, 256, 256
-0.924066, 233, 209, 296, 336
-0.92419, 129, 177, 384, 304
-0.928338, 273, 33, 400, 288
-0.930197, 257, 49, 500, 176
-0.930483, 433, 65, 496, 192
-0.930602, 193, 225, 256, 352
-0.931689, 33, 161, 160, 288
-0.934076, 409, 81, 472, 208
-0.934178, 121, 225, 184, 352
-0.93434, 241, 193, 368, 320
-0.934449, 1, 193, 64, 320
-0.93471, 25, 65, 88, 192
-0.934809, 33, 241, 160, 368
-0.935142, 369, 129, 496, 256
-0.935527, 73, 241, 136, 368
-0.936113, 289, 241, 416, 368
-0.937073, 369, 177, 496, 304
-0.937197, 321, 209, 384, 336
-0.938242, 41, 129, 104, 256
-0.938965, 97, 33, 224, 288
-0.939142, 385, 145, 448, 272
-0.941046, 1, 97, 64, 224
-0.941532, 1, 1, 500, 128
-0.941557, 9, 241, 72, 368
-0.941685, 289, 265, 352, 328
-0.943001, 97, 161, 160, 288
-0.943074, 265, 273, 328, 336
-0.943162, 1, 113, 128, 240
-0.943264, 353, 177, 416, 304
-0.943556, 409, 129, 472, 256
-0.944157, 177, 33, 304, 288
-0.944373, 9, 145, 72, 272
-0.944412, 249, 249, 312, 312
-0.944522, 49, 81, 112, 208
-0.94468, 145, 177, 272, 304
-0.944852, 257, 1, 500, 128
-0.944944, 1, 153, 64, 216
-0.945879, 193, 161, 320, 288
-0.946302, 97, 225, 160, 352
-0.946808, 369, 225, 496, 352
-0.946955, 433, 177, 496, 304
-0.948212, 193, 177, 256, 304
-0.948231, 169, 225, 232, 352
-0.948737, 289, 225, 352, 288
-0.949675, 41, 145, 104, 208
-0.949776, 289, 297, 352, 360
-0.94985, 169, 161, 232, 288
-0.949911, 97, 177, 224, 304
-0.950791, 257, 297, 320, 360
-0.950864, 233, 273, 296, 336
-0.951973, 369, 65, 496, 192
-0.952468, 265, 225, 328, 288
-0.95268, 129, 129, 384, 256
-0.953242, 225, 225, 288, 288
-0.953783, 217, 161, 280, 288
-0.953792, 433, 81, 496, 144
-0.953858, 137, 161, 200, 288
-0.954473, 25, 313, 88, 375
-0.954595, 393, 241, 456, 368
-0.955434, 433, 105, 496, 168
-0.955733, 321, 1, 448, 128
-0.955997, 409, 81, 472, 144
-0.956199, 89, 161, 152, 224
-0.956222, 185, 241, 248, 304
-0.956417, 273, 161, 336, 288
-0.956423, 1, 65, 128, 192
-0.956511, 433, 193, 496, 256
-0.957119, 297, 161, 360, 288
-0.957276, 1, 177, 64, 240
-0.957421, 257, 97, 500, 224
-0.957525, 121, 241, 184, 304
-0.957642, 209, 273, 272, 336
-0.957987, 209, 201, 272, 264
-0.958089, 409, 17, 472, 144
-0.958777, 33, 81, 96, 144
-0.958978, 1, 49, 64, 176
-0.959515, 81, 129, 208, 256
-0.959531, 129, 129, 256, 256
-0.96056, 1, 201, 64, 264
-0.96062, 97, 241, 160, 304
-0.96069, 321, 145, 448, 272
-0.960739, 433, 129, 496, 256
-0.96107, 313, 225, 376, 288
-0.961337, 81, 265, 144, 328
-0.96134, 409, 129, 472, 192
-0.961514, 73, 161, 136, 288
-0.961556, 385, 177, 448, 240
-0.9616, 145, 209, 208, 336
-0.961642, 1, 265, 64, 328
-0.962036, 1, 49, 256, 176
-0.962769, 25, 193, 88, 320
-0.962979, 261, 225, 292, 352
-0.963065, 353, 201, 416, 264
-0.963585, 241, 145, 368, 272
-0.963605, 9, 73, 72, 136
-0.963618, 377, 1, 440, 128
-0.963741, 9, 289, 72, 352
-0.963751, 169, 217, 232, 280
-0.96392, 225, 257, 352, 320
-0.964041, 393, 97, 456, 352
-0.96423, 9, 225, 72, 288
-0.964546, 1, 65, 64, 320
-0.96457, 73, 81, 136, 208
-0.964785, 17, 129, 80, 192
-0.964803, 281, 241, 312, 368
-0.964815, 233, 297, 296, 360
-0.96488, 377, 49, 440, 176
-0.964896, 65, 161, 128, 224
-0.964901, 393, 193, 456, 320
-0.965052, 1, 145, 32, 272
-0.965501, 41, 169, 104, 232
-0.965676, 241, 225, 272, 352
-0.965897, 25, 17, 88, 144
-0.965907, 137, 217, 200, 280
-0.965958, 273, 201, 336, 264
-0.966314, 393, 257, 456, 320
-0.966656, 241, 281, 368, 344
-0.966929, 313, 265, 376, 328
-0.96699, 9, 105, 72, 168
-0.967, 81, 313, 144, 375
-0.967053, 13, 225, 44, 352
-0.967157, 305, 97, 432, 224
-0.967289, 9, 153, 40, 216
-0.967314, 317, 225, 348, 352
-0.967448, 129, 49, 384, 176
-0.967459, 217, 225, 248, 352
-0.967615, 113, 153, 176, 216
-0.967837, 225, 249, 288, 312
-0.968145, 289, 129, 352, 375
-0.968443, 81, 137, 144, 200
-0.968509, 193, 281, 320, 344
-0.968626, 409, 57, 472, 120
-0.968626, 33, 273, 96, 336
-0.968645, 97, 241, 224, 304
-0.96889, 257, 233, 288, 296
-0.968898, 289, 241, 320, 304
-0.968909, 41, 97, 104, 352
-0.969011, 321, 265, 352, 328
-0.969104, 285, 289, 316, 352
-0.969226, 121, 313, 184, 375
-0.969306, 269, 225, 300, 288
-0.969328, 353, 225, 416, 352
-0.969433, 101, 241, 132, 368
-0.96957, 277, 265, 308, 328
-0.969597, 385, 97, 448, 224
-0.969773, 237, 273, 268, 336
-0.969825, 73, 241, 136, 304
-0.969879, 241, 225, 368, 288
-0.9699, 409, 105, 472, 168
-0.969909, 33, 241, 96, 368
-0.970006, 105, 241, 136, 304
-0.970178, 401, 153, 464, 216
-0.970219, 305, 217, 432, 280
-0.970225, 369, 17, 496, 144
-0.970423, 1, 145, 128, 208
-0.970627, 1, 185, 32, 248
-0.970756, 385, 105, 448, 168
-0.970851, 41, 121, 104, 184
-0.970852, 261, 257, 292, 320
-0.9709, 313, 225, 344, 288
-0.970924, 105, 185, 168, 248
-0.970984, 205, 209, 236, 336
-0.971007, 57, 265, 120, 328
-0.971038, 297, 193, 360, 256
-0.971069, 53, 137, 84, 200
-0.97111, 305, 273, 432, 336
-0.971557, 269, 297, 300, 360
-0.971599, 1, 193, 32, 320
-0.971734, 177, 241, 304, 304
-0.971894, 249, 97, 312, 352
-0.972069, 49, 33, 112, 160
-0.972102, 125, 225, 156, 352
-0.972145, 185, 185, 248, 248
-0.972256, 161, 241, 224, 304
-0.972308, 201, 129, 264, 375
-0.972394, 241, 305, 368, 368
-0.972493, 369, 177, 496, 240
-0.972544, 113, 217, 176, 280
-0.972608, 17, 225, 48, 288
-0.972716, 193, 217, 320, 280
-0.972798, 281, 217, 312, 280
-0.97285, 297, 265, 328, 328
-0.972893, 329, 209, 360, 336
-0.972907, 21, 177, 52, 304
-0.972919, 313, 289, 376, 352
-0.972924, 385, 233, 448, 296
-0.972955, 353, 273, 416, 336
-0.973037, 33, 265, 160, 328
-0.973091, 353, 225, 416, 288
-0.973091, 249, 161, 312, 288
-0.973222, 193, 297, 256, 360
-0.973322, 301, 209, 332, 336
-0.973379, 377, 17, 440, 80
-0.973398, 305, 193, 432, 256
-0.973414, 249, 201, 312, 264
-0.973517, 1, 17, 128, 144
-0.973592, 57, 65, 88, 192
-0.973618, 17, 169, 144, 232
-0.973624, 17, 305, 144, 368
-0.973681, 121, 289, 184, 352
-0.973864, 225, 81, 352, 208
-0.974052, 385, 201, 448, 264
-0.974165, 437, 193, 468, 256
-0.974173, 465, 65, 496, 192
-0.974381, 161, 113, 224, 240
-0.974433, 361, 177, 424, 240
-0.974511, 377, 1, 440, 256
-0.974521, 145, 129, 208, 375
-0.974558, 105, 113, 168, 240
-0.97457, 309, 257, 340, 320
-0.974618, 305, 241, 432, 304
-0.974641, 1, 1, 256, 128
-0.974656, 125, 241, 156, 304
-0.97472, 145, 161, 176, 288
-0.974756, 129, 217, 256, 280
-0.974768, 53, 129, 84, 256
-0.974794, 461, 81, 492, 144
-0.9748, 433, 97, 496, 352
-0.974884, 9, 49, 72, 112
-0.974945, 205, 225, 236, 288
-0.975015, 305, 297, 432, 360
-0.975076, 57, 313, 120, 375
-0.975295, 45, 65, 76, 192
-0.975468, 49, 49, 176, 176
-0.975726, 25, 185, 56, 248
-0.975776, 397, 161, 428, 288
-0.975806, 313, 33, 376, 160
-0.975856, 345, 129, 408, 375
-0.975919, 201, 153, 264, 216
-0.976003, 109, 177, 140, 304
-0.976086, 105, 161, 136, 224
-0.97613, 5, 233, 36, 296
-0.976137, 29, 65, 60, 192
-0.97614, 13, 281, 44, 344
-0.976223, 1, 225, 128, 288
-0.976343, 145, 289, 272, 352
-0.976388, 321, 49, 448, 176
-0.976429, 329, 225, 360, 288
-0.976452, 49, 177, 112, 304
-0.976483, 409, 193, 472, 256
-0.97652, 257, 289, 288, 352
-0.976544, 113, 265, 176, 328
-0.976637, 177, 161, 240, 224
-0.976655, 81, 289, 144, 352
-0.976868, 241, 225, 272, 288
-0.976874, 189, 217, 220, 280
-0.97697, 421, 113, 452, 240
-0.977136, 141, 217, 172, 280
-0.977144, 145, 169, 208, 232
-0.977162, 193, 313, 320, 375
-0.977236, 129, 113, 192, 240
-0.977329, 145, 145, 208, 208
-0.977343, 193, 225, 224, 352
-0.97741, 229, 193, 260, 320
-0.977415, 421, 113, 452, 176
-0.97742, 453, 185, 484, 248
-0.977479, 33, 209, 64, 336
-0.977503, 369, 201, 496, 264
-0.977639, 1, 313, 64, 375
-0.977675, 285, 193, 316, 320
-0.977734, 301, 225, 332, 288
-0.97774, 57, 289, 120, 352
-0.977843, 409, 217, 472, 280
-0.977853, 301, 313, 332, 375
-0.977938, 465, 193, 496, 256
-0.977977, 437, 89, 468, 152
-0.977982, 369, 89, 496, 152
-0.977992, 441, 81, 472, 208
-0.977992, 257, 33, 384, 160
-0.978062, 385, 73, 448, 136
-0.978076, 337, 129, 400, 256
-0.978096, 393, 281, 456, 344
-0.978121, 361, 313, 424, 375
-0.978182, 197, 161, 228, 288
-0.978334, 273, 193, 304, 320
-0.978337, 57, 97, 120, 160
-0.978373, 161, 193, 224, 256
-0.978468, 25, 1, 88, 256
-0.978534, 25, 129, 56, 256
-0.978538, 81, 313, 208, 375
-0.978538, 13, 129, 44, 256
-0.978545, 113, 241, 144, 368
-0.978549, 17, 73, 48, 136
-0.97858, 157, 225, 188, 288
-0.978582, 89, 129, 152, 375
-0.978626, 209, 161, 240, 288
-0.978723, 337, 249, 400, 312
-0.978839, 97, 273, 224, 336
-0.978862, 69, 81, 100, 208
-0.978893, 329, 201, 392, 264
-0.978934, 465, 105, 496, 168
-0.978934, 433, 225, 496, 352
-0.978988, 273, 81, 336, 208
-0.979041, 457, 177, 488, 304
-0.97911, 25, 249, 88, 312
-0.979184, 229, 241, 260, 368
-0.979236, 121, 177, 152, 304
-0.979357, 425, 65, 456, 192
-0.979432, 101, 265, 132, 328
-0.979462, 385, 177, 416, 304
-0.979468, 157, 161, 188, 288
-0.979476, 321, 25, 448, 88
-0.979655, 241, 193, 368, 256
-0.979786, 321, 289, 352, 352
-0.979831, 401, 313, 464, 375
-0.979871, 369, 249, 496, 312
-0.979942, 221, 249, 252, 312
-0.979983, 25, 257, 56, 320
-0.980018, 49, 305, 80, 368
-0.980033, 137, 225, 168, 352
-0.980146, 177, 225, 208, 352
-0.98015, 289, 313, 320, 375
-0.980244, 121, 129, 184, 375
-0.980272, 13, 185, 44, 248
-0.9803, 401, 225, 432, 352
-0.980363, 169, 297, 232, 360
-0.980631, 433, 217, 496, 280
-0.980664, 421, 65, 452, 128
-0.980776, 165, 209, 196, 336
-0.980781, 81, 145, 208, 208
-0.980861, 369, 225, 496, 288
-0.98088, 217, 209, 248, 272
-0.980891, 369, 153, 496, 216
-0.980942, 73, 241, 104, 368
-0.980942, 425, 89, 456, 152
-0.980996, 93, 161, 124, 224
-0.980999, 369, 129, 432, 192
-0.981024, 469, 177, 500, 304
-0.98105, 313, 129, 376, 375
-0.981052, 377, 41, 440, 104
-0.981061, 173, 217, 204, 280
-0.981075, 225, 129, 288, 375
-0.981098, 113, 169, 240, 232
-0.981102, 117, 169, 148, 232
-0.981106, 133, 177, 164, 304
-0.98111, 45, 281, 76, 344
-0.981122, 129, 193, 192, 256
-0.981158, 161, 193, 288, 256
-0.981273, 169, 129, 232, 375
-0.981276, 401, 257, 432, 320
-0.981286, 393, 177, 424, 240
-0.981366, 29, 313, 60, 375
-0.981383, 145, 265, 272, 328
-0.981415, 177, 161, 208, 288
-0.981445, 273, 161, 336, 224
-0.981447, 409, 145, 440, 272
-0.981456, 49, 49, 112, 112
-0.981466, 1, 241, 32, 368
-0.98147, 417, 249, 480, 312
-0.981501, 29, 145, 60, 208
-0.981578, 345, 217, 376, 280
-0.981765, 297, 161, 328, 288
-0.981767, 421, 137, 452, 200
-0.981775, 29, 225, 60, 288
-0.981832, 49, 81, 80, 144
-0.981875, 381, 233, 412, 296
-0.981888, 193, 129, 256, 256
-0.981941, 73, 153, 104, 216
-0.981952, 433, 193, 464, 320
-0.982048, 1, 209, 32, 272
-0.982055, 253, 177, 284, 304
-0.982163, 205, 185, 236, 248
-0.982203, 409, 1, 472, 256
-0.982275, 449, 81, 480, 144
-0.982328, 57, 73, 120, 136
-0.982335, 229, 201, 260, 264
-0.982341, 329, 313, 392, 375
-0.982382, 249, 65, 312, 192
-0.982387, 449, 129, 480, 256
-0.982403, 213, 281, 244, 344
-0.982418, 181, 241, 212, 304
-0.982466, 13, 33, 44, 160
-0.982485, 1, 1, 64, 128
-0.982528, 93, 241, 124, 304
-0.982552, 305, 169, 432, 232
-0.982577, 421, 17, 452, 144
-0.982749, 41, 129, 72, 256
-0.982776, 141, 177, 172, 240
-0.982782, 373, 185, 404, 248
-0.982875, 337, 113, 464, 176
-0.982889, 1, 97, 32, 224
-0.982917, 13, 257, 44, 320
-0.982928, 409, 33, 472, 96
-0.982947, 469, 129, 500, 256
-0.983043, 305, 137, 432, 200
-0.98319, 81, 217, 208, 280
-0.983199, 333, 257, 364, 320
-0.983202, 437, 129, 468, 256
-0.983231, 273, 1, 336, 128
-0.983262, 25, 193, 88, 256
-0.983272, 225, 281, 256, 344
-0.983275, 217, 185, 248, 248
-0.983277, 369, 129, 432, 375
-0.983291, 145, 313, 272, 375
-0.983292, 89, 241, 120, 368
-0.983379, 125, 145, 156, 208
-0.983385, 369, 273, 496, 336
-0.98343, 433, 129, 496, 192
-0.983471, 445, 177, 476, 304
-0.983472, 289, 33, 352, 288
-0.983476, 273, 137, 336, 200
-0.983487, 29, 81, 60, 144
-0.983541, 1, 33, 32, 160
-0.983705, 81, 185, 144, 248
-0.983737, 297, 201, 328, 264
-0.983747, 1, 265, 32, 328
-0.983773, 289, 113, 352, 176
-0.983816, 297, 137, 360, 200
-0.983852, 5, 73, 36, 136
-0.983884, 49, 241, 176, 304
-0.983923, 453, 65, 484, 192
-0.983953, 129, 201, 160, 264
-0.984025, 105, 137, 136, 200
-0.984049, 97, 1, 352, 128
-0.984072, 81, 97, 112, 224
-0.984122, 53, 241, 84, 368
-0.984157, 145, 241, 176, 304
-0.984187, 409, 1, 472, 64
-0.984237, 273, 73, 336, 136
-0.984278, 105, 305, 136, 368
-0.984289, 341, 209, 372, 336
-0.984335, 249, 113, 312, 240
-0.984385, 33, 193, 160, 256
-0.984428, 393, 233, 424, 296
-0.984447, 93, 177, 124, 304
-0.984457, 65, 97, 128, 352
-0.984458, 153, 201, 184, 264
-0.984467, 129, 145, 256, 208
-0.984471, 165, 137, 196, 200
-0.984498, 49, 1, 112, 256
-0.984531, 5, 49, 36, 112
-0.984586, 305, 41, 368, 104
-0.984589, 193, 161, 320, 224
-0.98464, 1, 81, 128, 144
-0.984683, 245, 297, 276, 360
-0.984696, 69, 129, 100, 256
-0.984747, 61, 313, 92, 375
-0.98479, 85, 137, 116, 200
-0.984798, 33, 281, 64, 344
-0.984815, 381, 225, 412, 352
-0.984851, 13, 81, 44, 208
-0.984981, 297, 81, 360, 208
-0.985022, 373, 177, 404, 304
-0.985053, 433, 17, 496, 144
-0.985081, 317, 177, 348, 304
-0.985126, 33, 217, 96, 280
-0.985128, 245, 249, 276, 312
-0.985163, 121, 305, 152, 368
-0.985166, 369, 65, 496, 128
-0.985207, 329, 17, 392, 80
-0.985299, 1, 1, 64, 375
-0.985334, 1, 113, 128, 176
-0.985344, 65, 169, 192, 232
-0.985409, 405, 1, 436, 128
-0.985425, 257, 209, 288, 272
-0.98545, 209, 177, 272, 240
-0.985459, 1, 41, 128, 104
-0.985485, 385, 1, 448, 375
-0.985501, 161, 113, 192, 240
-0.985516, 405, 81, 436, 208
-0.985571, 177, 81, 304, 208
-0.98563, 89, 217, 152, 280
-0.985644, 213, 161, 244, 224
-0.985658, 309, 281, 340, 344
-0.985659, 369, 297, 496, 360
-0.985728, 57, 273, 88, 336
-0.985795, 117, 129, 148, 256
-0.985859, 169, 137, 232, 200
-0.985937, 433, 1, 496, 256
-0.986081, 405, 153, 436, 216
-0.986108, 13, 313, 44, 375
-0.986116, 361, 249, 424, 312
-0.986204, 241, 177, 272, 304
-0.986271, 453, 209, 484, 272
-0.986397, 1, 129, 32, 192
-0.986419, 313, 1, 376, 375
-0.986451, 65, 241, 320, 304
-0.986451, 1, 297, 500, 360
-0.986577, 1, 305, 32, 368
-0.986588, 433, 161, 496, 224
-0.986637, 345, 1, 408, 375
-0.986651, 193, 249, 224, 312
-0.986681, 233, 177, 296, 240
-0.986702, 321, 1, 448, 64
-0.986713, 185, 161, 216, 224
-0.986719, 313, 105, 376, 168
-0.98677, 457, 17, 488, 144
-0.986771, 41, 185, 72, 248
-0.986853, 73, 129, 104, 192
-0.986854, 377, 153, 440, 216
-0.986924, 25, 1, 88, 375
-0.986952, 405, 17, 436, 80
-0.986952, 217, 81, 280, 208
-0.987026, 49, 121, 176, 184
-0.987046, 49, 1, 112, 375
-0.987065, 405, 105, 436, 168
-0.98707, 381, 273, 412, 336
-0.98708, 193, 273, 448, 336
-0.987098, 105, 129, 168, 192
-0.987165, 113, 265, 144, 328
-0.987262, 313, 169, 376, 232
-0.987266, 469, 17, 500, 144
-0.987328, 153, 225, 184, 352
-0.987413, 225, 145, 256, 272
-0.987486, 289, 1, 352, 375
-0.987493, 97, 297, 352, 360
-0.98754, 93, 113, 124, 240
-0.987547, 145, 313, 208, 375
-0.987582, 1, 241, 500, 304
-0.987593, 345, 153, 408, 216
-0.987595, 193, 193, 224, 256
-0.987635, 137, 153, 168, 216
-0.987697, 281, 269, 344, 300
-0.987723, 1, 25, 64, 88
-0.987749, 225, 225, 480, 288
-0.98776, 225, 297, 480, 360
-0.987811, 45, 177, 76, 304
-0.987895, 49, 241, 112, 304
-0.987902, 249, 273, 312, 304
-0.988037, 125, 273, 156, 336
-0.988057, 313, 33, 376, 288
-0.988093, 273, 281, 336, 312
-0.98818, 185, 265, 248, 328
-0.988188, 73, 33, 136, 160
-0.988209, 433, 129, 464, 192
-0.988281, 265, 249, 328, 280
-0.988362, 197, 161, 228, 224
-0.988366, 225, 237, 288, 268
-0.988392, 41, 141, 104, 172
-0.988401, 25, 17, 56, 144
-0.988421, 249, 225, 312, 256
-0.988428, 273, 221, 336, 252
-0.98846, 233, 253, 296, 284
-0.988484, 409, 89, 472, 120
-0.988521, 97, 273, 352, 336
-0.988587, 169, 241, 200, 304
-0.988624, 289, 233, 352, 264
-0.988655, 289, 249, 352, 280
-0.988665, 449, 161, 480, 224
-0.988693, 297, 285, 360, 316
-0.9887, 1, 273, 500, 336
-0.988719, 9, 165, 72, 196
-0.988736, 37, 17, 68, 144
-0.988783, 225, 73, 352, 136
-0.98887, 309, 201, 340, 264
-0.98891, 385, 297, 416, 360
-0.988911, 217, 281, 280, 312
-0.988919, 433, 85, 496, 116
-0.988927, 409, 1, 472, 375
-0.988932, 393, 201, 424, 264
-0.988952, 9, 229, 72, 260
-0.988955, 169, 233, 232, 264
-0.988986, 25, 329, 88, 360
-0.988987, 185, 245, 248, 276
-0.989039, 257, 261, 320, 292
-0.989107, 337, 1, 400, 128
-0.98914, 357, 201, 388, 264
-0.989171, 41, 157, 104, 188
-0.989183, 1, 185, 64, 216
-0.989196, 433, 197, 496, 228
-0.989203, 209, 249, 240, 312
-0.989235, 209, 17, 336, 144
-0.989242, 25, 341, 88, 372
-0.989252, 1, 269, 64, 300
-0.989291, 33, 113, 64, 176
-0.989301, 421, 41, 452, 104
-0.989316, 361, 177, 392, 304
-0.989323, 1, 105, 32, 168
-0.989335, 257, 301, 320, 332
-0.989372, 405, 81, 436, 144
-0.989372, 433, 217, 464, 280
-0.989386, 281, 345, 344, 375
-0.989387, 145, 229, 208, 260
-0.989407, 89, 249, 152, 280
-0.989412, 33, 85, 96, 116
-0.989423, 409, 149, 472, 180
-0.989441, 9, 77, 72, 108
-0.98945, 105, 113, 136, 240
-0.989451, 81, 269, 144, 300
-0.98948, 129, 1, 192, 375
-0.989504, 73, 1, 136, 256
-0.989515, 1, 293, 64, 324
-0.989561, 225, 105, 352, 168
-0.989607, 201, 233, 264, 264
-0.989645, 121, 241, 184, 272
-0.989648, 297, 309, 360, 340
-0.989658, 49, 341, 112, 372
-0.989708, 265, 237, 328, 268
-0.989711, 321, 225, 384, 256
-0.989713, 9, 149, 72, 180
-0.989722, 193, 249, 448, 312
-0.989733, 89, 177, 152, 208
-0.98978, 289, 297, 352, 328
-0.989812, 425, 101, 488, 132
-0.989837, 97, 333, 160, 364
-0.989862, 25, 277, 88, 308
-0.989882, 249, 285, 312, 316
-0.989956, 409, 137, 472, 168
-0.98997, 313, 261, 376, 292
-0.989988, 1, 129, 64, 160
-0.99002, 41, 173, 104, 204
-0.990025, 249, 321, 312, 352
-0.990036, 49, 281, 112, 312
-0.990082, 69, 33, 100, 160
-0.990086, 369, 1, 496, 64
-0.990105, 425, 209, 488, 240
-0.990106, 249, 1, 312, 375
-0.990111, 225, 137, 352, 200
-0.99013, 81, 193, 208, 256
-0.99014, 185, 189, 248, 220
-0.99017, 81, 145, 112, 272
-0.990174, 225, 293, 288, 324
-0.990219, 297, 81, 328, 208
-0.990292, 281, 333, 344, 364
-0.990321, 1, 289, 256, 352
-0.990325, 345, 213, 408, 244
-0.990327, 409, 125, 472, 156
-0.99036, 361, 113, 424, 240
-0.990388, 225, 265, 288, 296
-0.990402, 161, 245, 224, 276
-0.990468, 225, 225, 288, 256
-0.990488, 241, 169, 368, 232
-0.990494, 73, 161, 136, 192
-0.990533, 313, 249, 376, 280
-0.990552, 105, 189, 168, 220
-0.990561, 81, 141, 144, 172
-0.990577, 113, 253, 176, 284
-0.990579, 317, 49, 348, 176
-0.990584, 73, 281, 136, 312
-0.990586, 433, 113, 496, 144
-0.990616, 121, 333, 184, 364
-0.990651, 409, 77, 472, 108
-0.990658, 289, 321, 352, 352
-0.990662, 41, 129, 104, 160
-0.990666, 25, 313, 88, 344
-0.990673, 81, 321, 144, 352
-0.990682, 257, 333, 320, 364
-0.990703, 409, 113, 472, 144
-0.99071, 385, 265, 448, 296
-0.990718, 169, 221, 232, 252
-0.990771, 385, 181, 448, 212
-0.990786, 385, 209, 448, 240
-0.99081, 193, 289, 256, 320
-0.990812, 377, 117, 440, 148
-0.990846, 209, 249, 272, 280
-0.990857, 433, 1, 496, 375
-0.990885, 1, 217, 64, 248
-0.990893, 193, 261, 256, 292
-0.990897, 57, 329, 120, 360
-0.990899, 121, 317, 184, 348
-0.990903, 201, 217, 264, 248
-0.990904, 433, 133, 496, 164
-0.990907, 313, 297, 376, 328
-0.990933, 333, 161, 364, 288
-0.990936, 1, 313, 256, 375
-0.990949, 73, 345, 136, 375
-0.991015, 169, 205, 232, 236
-0.991027, 161, 153, 224, 184
-0.991029, 209, 205, 272, 236
-0.99103, 169, 1, 232, 375
-0.991034, 185, 305, 248, 336
-0.991038, 385, 197, 448, 228
-0.99105, 393, 101, 456, 132
-0.991065, 353, 225, 416, 256
-0.991098, 9, 89, 72, 120
-0.991099, 297, 209, 360, 240
-0.99111, 321, 49, 448, 112
-0.991129, 25, 289, 88, 320
-0.99114, 1, 205, 64, 236
-0.991145, 1, 117, 64, 148
-0.991165, 1, 53, 64, 84
-0.991197, 113, 153, 176, 184
-0.991204, 413, 241, 444, 368
-0.991207, 209, 1, 272, 375
-0.991233, 225, 257, 352, 288
-0.991244, 97, 217, 352, 280
-0.991247, 385, 277, 448, 308
-0.99125, 225, 49, 352, 112
-0.991266, 113, 177, 176, 208
-0.991271, 321, 237, 384, 268
-0.991277, 421, 193, 452, 320
-0.991284, 257, 345, 320, 375
-0.991288, 385, 221, 448, 252
-0.991289, 25, 301, 88, 332
-0.991297, 33, 97, 96, 128
-0.991303, 49, 65, 176, 128
-0.991304, 393, 289, 456, 320
-0.991314, 129, 345, 192, 375
-0.991319, 113, 265, 176, 296
-0.991344, 225, 269, 352, 300
-0.991355, 385, 129, 448, 160
-0.991376, 9, 101, 72, 132
-0.991382, 49, 17, 80, 144
-0.991386, 97, 165, 160, 196
-0.991392, 353, 201, 416, 232
-0.991393, 313, 345, 376, 375
-0.991394, 49, 1, 176, 128
-0.991416, 377, 81, 440, 112
-0.991421, 305, 273, 368, 304
-0.991427, 361, 241, 424, 272
-0.991427, 81, 301, 144, 332
-0.991444, 337, 253, 400, 284
-0.991452, 209, 193, 272, 224
-0.991464, 113, 305, 176, 336
-0.991465, 57, 85, 120, 116
-0.991596, 209, 245, 336, 276
-0.991685, 321, 89, 448, 152
-0.991732, 161, 237, 288, 268
-0.991852, 1, 185, 256, 248
-0.991863, 1, 217, 500, 280
-0.991921, 1, 217, 256, 280
-0.99199, 149, 113, 180, 240
-0.992029, 273, 257, 304, 288
-0.992044, 301, 281, 332, 312
-0.992075, 285, 269, 316, 300
-0.992079, 257, 229, 288, 260
-0.992109, 289, 249, 320, 280
-0.992109, 325, 281, 356, 312
-0.99211, 97, 245, 224, 276
-0.992119, 209, 241, 240, 272
-0.992143, 325, 257, 356, 288
-0.992145, 53, 141, 84, 172
-0.992148, 129, 129, 160, 256
-0.992155, 197, 237, 228, 268
-0.99216, 301, 257, 332, 288
-0.992165, 269, 233, 300, 264
-0.992165, 97, 1, 160, 375
-0.992169, 209, 285, 336, 316
-0.99219, 273, 105, 400, 168
-0.992217, 21, 229, 52, 260
-0.992229, 261, 265, 292, 296
-0.992241, 441, 197, 472, 228
-0.992249, 321, 245, 352, 276
-0.992266, 173, 113, 204, 240
-0.992267, 281, 237, 312, 268
-0.992272, 281, 281, 312, 312
-0.99229, 29, 329, 60, 360
-0.992294, 317, 269, 348, 300
-0.992303, 309, 229, 340, 260
-0.992317, 161, 241, 192, 272
-0.992338, 245, 229, 276, 260
-0.992338, 277, 221, 308, 252
-0.992339, 469, 225, 500, 352
-0.992344, 305, 269, 432, 300
-0.992355, 73, 1, 136, 375
-0.992362, 173, 229, 204, 260
-0.992372, 241, 277, 272, 308
-0.992373, 9, 173, 40, 204
-0.992379, 305, 245, 336, 276
-0.99238, 225, 193, 480, 256
-0.992387, 445, 85, 476, 116
-0.992393, 313, 257, 344, 288
-0.992408, 1, 265, 256, 328
-0.992411, 5, 161, 36, 192
-0.992415, 109, 249, 140, 280
-0.992421, 25, 217, 56, 248
-0.992429, 233, 233, 264, 264
-0.992433, 1, 153, 500, 216
-0.992436, 269, 245, 300, 276
-0.992445, 33, 341, 64, 372
-0.992451, 53, 281, 84, 312
-0.992453, 133, 241, 164, 272
-0.992464, 281, 301, 312, 332
-0.99247, 9, 73, 40, 104
-0.992476, 89, 169, 120, 200
-0.992477, 305, 269, 336, 300
-0.992484, 325, 229, 356, 260
-0.992486, 465, 85, 496, 116
-0.992487, 1, 237, 32, 268
-0.992492, 249, 1, 312, 256
-0.992501, 33, 273, 64, 304
-0.992509, 293, 293, 324, 324
-0.99251, 153, 229, 184, 260
-0.992515, 217, 189, 248, 220
-0.992537, 457, 193, 488, 224
-0.992541, 33, 173, 64, 204
-0.992544, 73, 157, 104, 188
-0.992576, 297, 233, 328, 264
-0.992589, 425, 133, 456, 164
-0.992594, 125, 181, 156, 212
-0.992597, 65, 281, 96, 312
-0.992605, 121, 249, 152, 280
-0.992609, 97, 81, 224, 208
-0.992615, 21, 273, 52, 304
-0.992618, 193, 225, 224, 256
-0.99262, 141, 229, 172, 260
-0.992629, 257, 241, 288, 272
-0.992633, 93, 249, 124, 280
-0.992638, 273, 33, 400, 96
-0.992641, 105, 169, 136, 200
-0.992641, 77, 341, 108, 372
-0.992646, 273, 269, 304, 300
-0.992646, 105, 265, 136, 296
-0.992649, 289, 345, 320, 375
-0.992656, 297, 221, 328, 252
-0.992656, 17, 261, 48, 292
-0.992668, 181, 241, 212, 272
-0.992677, 425, 89, 456, 120
-0.99268, 421, 149, 452, 180
-0.99268, 49, 97, 176, 160
-0.992682, 49, 337, 80, 368
-0.992684, 5, 149, 36, 180
-0.992687, 377, 129, 408, 256
-0.99269, 33, 281, 160, 312
-0.992707, 321, 345, 352, 375
-0.992713, 125, 333, 156, 364
-0.992715, 425, 113, 456, 144
-0.992717, 421, 77, 452, 108
-0.992718, 113, 329, 144, 360
-0.992722, 329, 269, 360, 300
-0.992724, 341, 221, 372, 252
-0.992725, 209, 225, 240, 256
-0.992733, 257, 73, 500, 136
-0.992735, 269, 317, 300, 348
-0.992745, 469, 197, 500, 228
-0.992745, 65, 337, 96, 368
-0.992747, 5, 57, 36, 88
-0.992752, 269, 281, 300, 312
-0.992758, 9, 297, 40, 328
-0.992759, 9, 277, 40, 308
-0.992762, 37, 289, 68, 320
-0.992766, 217, 289, 248, 320
-0.992766, 241, 225, 368, 256
-0.992772, 321, 293, 352, 324
-0.992783, 253, 253, 284, 284
-0.992788, 5, 249, 36, 280
-0.99279, 425, 101, 456, 132
-0.992796, 289, 321, 320, 352
-0.992796, 49, 85, 80, 116
-0.9928, 25, 81, 56, 112
-0.9928, 261, 301, 292, 332
-0.99281, 369, 25, 496, 88
-0.992813, 33, 145, 288, 208
-0.992818, 221, 249, 252, 280
-0.992819, 461, 101, 492, 132
-0.992824, 141, 185, 172, 216
-0.992826, 13, 329, 44, 360
-0.99284, 21, 317, 52, 348
-0.992842, 69, 145, 100, 176
-0.99285, 283, 257, 298, 320
-0.992853, 241, 245, 272, 276
-0.992853, 213, 305, 244, 336
-0.992856, 253, 217, 284, 248
-0.992858, 145, 241, 176, 272
-0.992867, 373, 185, 404, 216
-0.992868, 77, 281, 108, 312
-0.992874, 453, 205, 484, 236
-0.992882, 5, 265, 36, 296
-0.992883, 241, 129, 272, 256
-0.992888, 13, 185, 44, 216
-0.992896, 77, 169, 108, 200
-0.992901, 205, 201, 236, 232
-0.992909, 89, 145, 120, 176
-0.992914, 33, 133, 64, 164
-0.992916, 17, 161, 48, 192
-0.992917, 281, 333, 312, 364
-0.992917, 169, 149, 200, 180
-0.992918, 1, 197, 32, 228
-0.992922, 229, 285, 260, 316
-0.992934, 205, 293, 236, 324
-0.992935, 241, 265, 272, 296
-0.992936, 221, 261, 252, 292
-0.992936, 445, 97, 476, 128
-0.992945, 57, 325, 88, 356
-0.992947, 301, 309, 332, 340
-0.992953, 269, 329, 300, 360
-0.993019, 283, 281, 298, 344
-0.993161, 19, 153, 34, 216
-0.993164, 9, 153, 24, 216
-0.993182, 273, 253, 400, 284
-0.993208, 257, 281, 384, 312
-0.993216, 209, 297, 336, 328
-0.99323, 457, 225, 488, 352
-0.993237, 353, 1, 416, 256
-0.99326, 273, 81, 400, 144
-0.993287, 275, 225, 290, 288
-0.993289, 105, 33, 168, 288
-0.993302, 299, 241, 314, 304
-0.993321, 1, 185, 500, 248
-0.993345, 441, 33, 472, 160
-0.993351, 291, 265, 306, 328
-0.993486, 317, 129, 348, 256
-0.993496, 277, 145, 308, 272
-0.993506, 305, 293, 432, 324
-0.993533, 225, 25, 352, 88
-0.993547, 193, 81, 256, 208
-0.993555, 329, 225, 344, 288
-0.993604, 293, 289, 308, 352
-0.993634, 277, 273, 292, 336
-0.99364, 287, 233, 302, 296
-0.993641, 335, 249, 350, 312
-0.993643, 1, 161, 128, 192
-0.99367, 1, 177, 128, 208
-0.993774, 129, 193, 384, 256
-0.993777, 485, 89, 500, 152
-0.993784, 3, 161, 18, 224
-0.993787, 305, 265, 320, 328
-0.993825, 305, 221, 432, 252
-0.993833, 1, 17, 128, 80
-0.993879, 299, 281, 314, 344
-0.993886, 305, 281, 432, 312
-0.993893, 1, 129, 500, 192
-0.993899, 475, 81, 490, 144
-0.994005, 257, 49, 500, 112
-0.994023, 17, 257, 144, 288
-0.994037, 29, 225, 44, 288
-0.994074, 177, 225, 304, 256
-0.994077, 17, 185, 32, 248
-0.994079, 297, 17, 328, 144
-0.99408, 447, 185, 462, 248
-0.994103, 119, 241, 134, 304
-0.994145, 349, 145, 380, 272
-0.994198, 325, 257, 340, 320
-0.994203, 235, 257, 250, 320
-0.994221, 225, 169, 480, 232
-0.994252, 211, 217, 226, 280
-0.994282, 319, 225, 334, 288
-0.994323, 17, 225, 32, 288
-0.99434, 257, 129, 500, 192
-0.994346, 277, 249, 292, 312
-0.994418, 129, 225, 256, 256
-0.994422, 29, 185, 44, 248
-0.994437, 35, 225, 50, 288
-0.99444, 261, 233, 276, 296
-0.994442, 257, 25, 500, 88
-0.994461, 1, 313, 128, 344
-0.9945, 161, 253, 288, 284
-0.994506, 393, 113, 424, 240
-0.99452, 237, 281, 252, 344
-0.994539, 283, 305, 298, 368
-0.994545, 241, 317, 368, 348
-0.994547, 201, 217, 216, 280
-0.994553, 1, 73, 500, 136
-0.994572, 305, 329, 432, 360
-0.994617, 33, 269, 160, 300
-0.994627, 23, 249, 38, 312
-0.99463, 369, 209, 496, 240
-0.994639, 23, 225, 38, 288
-0.994643, 145, 121, 272, 184
-0.99465, 253, 225, 268, 288
-0.994664, 467, 185, 482, 248
-0.994676, 319, 265, 334, 328
-0.994684, 289, 309, 416, 340
-0.994704, 369, 101, 496, 132
-0.994705, 49, 341, 176, 372
-0.994708, 305, 233, 432, 264
-0.994711, 193, 325, 320, 356
-0.994719, 353, 189, 480, 220
-0.994725, 1, 149, 128, 180
-0.994727, 257, 341, 384, 372
-0.99473, 281, 225, 296, 288
-0.994744, 469, 81, 484, 144
-0.994752, 131, 241, 146, 304
-0.994777, 221, 209, 236, 272
-0.994793, 305, 209, 432, 240
-0.994802, 269, 225, 284, 288
-0.994806, 277, 297, 292, 360
-0.994816, 295, 217, 310, 280
-0.994827, 293, 241, 308, 304
-0.994827, 271, 257, 286, 320
-0.994832, 1, 333, 128, 364
-0.994833, 33, 293, 160, 324
-0.994834, 335, 225, 350, 288
-0.994864, 305, 193, 432, 224
-0.994869, 1, 105, 500, 168
-0.994878, 311, 257, 326, 320
-0.994891, 263, 297, 278, 360
-0.994893, 257, 241, 384, 272
-0.994917, 209, 33, 272, 288
-0.994925, 17, 73, 32, 136
-0.994968, 3, 185, 18, 248
-0.994971, 55, 137, 70, 200
-0.994973, 1, 137, 16, 200
-0.994983, 27, 73, 42, 136
-0.994987, 445, 225, 476, 352
-0.994991, 453, 193, 468, 256
-0.995039, 145, 305, 272, 336
-0.995047, 269, 297, 284, 360
-0.995052, 253, 273, 268, 336
-0.995055, 97, 145, 112, 208
-0.995064, 341, 265, 356, 328
-0.995069, 167, 217, 182, 280
-0.995073, 107, 241, 122, 304
-0.995086, 81, 329, 208, 360
-0.995099, 403, 257, 418, 320
-0.995102, 257, 329, 384, 360
-0.995115, 1, 345, 128, 375
-0.995116, 429, 113, 444, 176
-0.995128, 305, 181, 432, 212
-0.995145, 49, 313, 176, 344
-0.995155, 29, 289, 44, 352
-0.995173, 225, 241, 240, 304
-0.995181, 139, 209, 154, 272
-0.995181, 153, 217, 168, 280
-0.995191, 31, 257, 46, 320
-0.995197, 177, 265, 304, 296
-0.995203, 311, 225, 326, 288
-0.995213, 273, 57, 400, 120
-0.995226, 97, 169, 112, 232
-0.995233, 321, 29, 448, 60
-0.995244, 23, 297, 38, 360
-0.995252, 149, 169, 164, 232
-0.995256, 55, 81, 70, 144
-0.995259, 55, 281, 70, 344
-0.995264, 397, 177, 412, 240
-0.995283, 113, 257, 240, 288
-0.995296, 25, 161, 40, 224
-0.995297, 227, 281, 242, 344
-0.995308, 399, 233, 414, 296
-0.995327, 15, 289, 30, 352
-0.995329, 441, 193, 456, 256
-0.995336, 35, 185, 50, 248
-0.995339, 305, 341, 432, 372
-0.99535, 369, 85, 496, 116
-0.995364, 331, 281, 346, 344
-0.995382, 105, 161, 120, 224
-0.995389, 113, 241, 128, 304
-0.99539, 305, 313, 320, 375
-0.995394, 97, 281, 224, 312
-0.995397, 61, 273, 76, 336
-0.995405, 305, 233, 320, 296
-0.995415, 31, 313, 46, 375
-0.995421, 293, 313, 308, 375
-0.995425, 443, 89, 458, 152
-0.995446, 249, 17, 312, 144
-0.99546, 477, 105, 492, 168
-0.995463, 41, 209, 56, 272
-0.99548, 23, 201, 38, 264
-0.995488, 35, 81, 50, 144
-0.995512, 369, 257, 496, 288
-0.995517, 125, 241, 140, 304
-0.995528, 173, 217, 188, 280
-0.995528, 137, 241, 152, 304
-0.99553, 321, 249, 448, 280
-0.995531, 369, 221, 496, 252
-0.995531, 9, 225, 24, 288
-0.995534, 111, 161, 126, 224
-0.995549, 71, 313, 86, 375
-0.995559, 341, 225, 356, 288
-0.995562, 177, 213, 304, 244
-0.995579, 97, 313, 224, 344
-0.995588, 117, 265, 132, 328
-0.995604, 1, 49, 500, 112
-0.995641, 1, 229, 128, 260
-0.995641, 43, 81, 58, 144
-0.995655, 257, 293, 384, 324
-0.995657, 119, 305, 134, 368
-0.995661, 263, 257, 278, 320
-0.995672, 81, 49, 112, 176
-0.995685, 147, 209, 162, 272
-0.995693, 81, 169, 208, 200
-0.995694, 161, 293, 288, 324
-0.995704, 13, 121, 28, 184
-0.995709, 245, 241, 260, 304
-0.995711, 427, 89, 442, 152
-0.995711, 37, 249, 52, 312
-0.995715, 161, 233, 176, 296
-0.995716, 65, 137, 80, 200
-0.995719, 463, 81, 478, 144
-0.995731, 1, 233, 16, 296
-0.99574, 49, 145, 176, 176
-0.995758, 33, 121, 288, 184
-0.995776, 437, 105, 452, 168
-0.995783, 403, 169, 418, 232
-0.995788, 191, 233, 206, 296
-0.995803, 9, 281, 24, 344
-0.995804, 11, 193, 26, 256
-0.995813, 49, 81, 64, 144
-0.995815, 45, 153, 60, 216
-0.995821, 87, 153, 102, 216
-0.995825, 129, 201, 256, 232
-0.995831, 43, 273, 58, 336
-0.995836, 97, 301, 224, 332
-0.995845, 287, 209, 302, 272
-0.995854, 353, 137, 480, 168
-0.995857, 63, 305, 78, 368
-0.995889, 183, 225, 198, 288
-0.995893, 37, 305, 52, 368
-0.995894, 473, 185, 488, 248
-0.995895, 305, 169, 432, 200
-0.995898, 145, 277, 272, 308
-0.995915, 257, 297, 272, 360
-0.996031, 25, 65, 56, 320
-0.996046, 177, 73, 304, 136
-0.996101, 33, 189, 160, 220
-0.996133, 193, 341, 320, 372
-0.996148, 1, 61, 128, 92
-0.996186, 369, 117, 496, 148
-0.996191, 257, 105, 500, 168
-0.9962, 1, 129, 32, 375
-0.996211, 13, 33, 44, 288
-0.996212, 369, 273, 496, 304
-0.996214, 65, 41, 192, 104
-0.996236, 145, 157, 272, 188
-0.996264, 129, 189, 256, 220
-0.996279, 321, 41, 448, 72
-0.996283, 193, 193, 320, 224
-0.996294, 401, 129, 432, 375
-0.996316, 257, 209, 384, 240
-0.996326, 327, 229, 342, 260
-0.996365, 281, 257, 296, 288
-0.99637, 369, 177, 496, 208
-0.996416, 291, 269, 306, 300
-0.996421, 217, 33, 280, 160
-0.996436, 1, 241, 128, 272
-0.99646, 333, 17, 364, 144
-0.996471, 213, 113, 244, 240
-0.996495, 225, 181, 352, 212
-0.996509, 45, 65, 76, 320
-0.996511, 193, 313, 320, 344
-0.996511, 145, 317, 272, 348
-0.996557, 1, 89, 128, 120
-0.996595, 165, 129, 196, 375
-0.996641, 1, 133, 128, 164
-0.996643, 369, 285, 496, 316
-0.996712, 421, 97, 452, 352
-0.996722, 317, 1, 348, 128
-0.996731, 323, 269, 338, 300
-0.996734, 81, 193, 112, 320
-0.996741, 241, 129, 272, 375
-0.996747, 33, 57, 288, 120
-0.996748, 305, 157, 432, 188
-0.996756, 433, 241, 464, 368
-0.996757, 17, 157, 32, 188
-0.996766, 97, 153, 224, 184
-0.996791, 385, 1, 416, 128
-0.996792, 447, 189, 462, 220
-0.996793, 297, 129, 328, 375
-0.996793, 97, 121, 224, 184
-0.996807, 295, 281, 310, 312
-0.996824, 269, 253, 284, 284
-0.996827, 321, 17, 448, 48
-0.996828, 129, 153, 384, 216
-0.996855, 271, 233, 286, 264
-0.99686, 275, 249, 290, 280
-0.996913, 145, 33, 272, 160
-0.99692, 81, 181, 208, 212
-0.996923, 319, 257, 334, 288
-0.996923, 17, 73, 32, 104
-0.996933, 185, 113, 216, 240
-0.996937, 169, 33, 232, 288
-0.996944, 273, 1, 400, 64
-0.996952, 11, 157, 26, 188
-0.996953, 361, 17, 392, 144
-0.996953, 251, 229, 266, 260
-0.996957, 1, 41, 128, 72
-0.996964, 29, 269, 44, 300
-0.996973, 283, 269, 298, 300
-0.996977, 317, 129, 348, 375
-0.996989, 287, 257, 302, 288
-0.997013, 177, 129, 208, 375
-0.997027, 305, 145, 432, 176
-0.997029, 97, 341, 224, 372
-0.997032, 1, 33, 32, 288
-0.997037, 331, 257, 346, 288
-0.997043, 285, 281, 300, 312
-0.997043, 353, 73, 480, 104
-0.997053, 203, 233, 218, 264
-0.997059, 31, 329, 46, 360
-0.99706, 345, 1, 376, 128
-0.997062, 353, 149, 480, 180
-0.997066, 275, 265, 290, 296
-0.997068, 81, 269, 208, 300
-0.997074, 17, 169, 32, 200
-0.997078, 319, 233, 334, 264
-0.997092, 263, 229, 278, 260
-0.997103, 329, 269, 344, 300
-0.997109, 335, 269, 350, 300
-0.997114, 369, 241, 496, 272
-0.997122, 129, 177, 256, 208
-0.997125, 129, 213, 256, 244
-0.997126, 369, 297, 496, 328
-0.997133, 301, 269, 316, 300
-0.997134, 121, 249, 136, 280
-0.997141, 257, 229, 272, 260
-0.997147, 329, 241, 344, 272
-0.997152, 1, 81, 256, 144
-0.997154, 369, 313, 496, 344
-0.997168, 299, 257, 314, 288
-0.997172, 81, 233, 208, 264
-0.997192, 289, 237, 304, 268
-0.997196, 193, 129, 224, 375
-0.997196, 57, 133, 72, 164
-0.997198, 165, 237, 180, 268
-0.997207, 333, 229, 348, 260
-0.997213, 105, 129, 136, 375
-0.997213, 339, 253, 354, 284
-0.99722, 401, 1, 432, 256
-0.997226, 211, 237, 226, 268
-0.997229, 311, 265, 326, 296
-0.997253, 57, 281, 72, 312
-0.997254, 17, 213, 144, 244
-0.997256, 311, 229, 326, 260
-0.997257, 281, 245, 296, 276
-0.997272, 9, 237, 24, 268
-0.997276, 17, 201, 144, 232
-0.997283, 369, 25, 496, 56
-0.997291, 225, 169, 352, 200
-0.997305, 317, 277, 332, 308
-0.997319, 309, 241, 324, 272
-0.99732, 307, 253, 322, 284
-0.99733, 263, 249, 278, 280
-0.997337, 293, 221, 308, 252
-0.997359, 327, 281, 342, 312
-0.997362, 15, 237, 30, 268
-0.997382, 299, 233, 314, 264
-0.997397, 1, 101, 128, 132
-0.997406, 49, 245, 176, 276
-0.997414, 161, 57, 416, 120
-0.997416, 1, 165, 16, 196
-0.99742, 213, 129, 244, 375
-0.99742, 57, 65, 88, 320
-0.99742, 1, 121, 128, 152
-0.997422, 457, 197, 472, 228
-0.997427, 1, 17, 500, 80
-0.997436, 321, 245, 336, 276
-0.997438, 241, 193, 368, 224
-0.997448, 105, 249, 120, 280
-0.99745, 295, 245, 310, 276
-0.997466, 445, 85, 460, 116
-0.997468, 253, 129, 284, 375
-0.997469, 279, 225, 294, 256
-0.997481, 465, 97, 496, 352
-0.997488, 1, 77, 128, 108
-0.997495, 45, 173, 60, 204
-0.997499, 43, 217, 58, 248
-0.9975, 23, 165, 38, 196
-0.997501, 161, 121, 416, 184
-0.997505, 245, 229, 260, 260
-0.997506, 277, 65, 308, 192
-0.997507, 153, 233, 168, 264
-0.997517, 313, 253, 328, 284
-0.997518, 3, 237, 18, 268
-0.997519, 1, 65, 16, 96
-0.997519, 301, 281, 316, 312
-0.99752, 65, 281, 80, 312
-0.997524, 59, 85, 74, 116
-0.997526, 7, 185, 22, 216
-0.997536, 23, 257, 38, 288
-0.997556, 23, 229, 38, 260
-0.997567, 453, 97, 484, 352
-0.997568, 39, 277, 54, 308
-0.997574, 75, 281, 90, 312
-0.997574, 11, 169, 26, 200
-0.997575, 175, 229, 190, 260
-0.997583, 221, 241, 236, 272
-0.997598, 253, 277, 268, 308
-0.997606, 25, 177, 40, 208
-0.997613, 193, 245, 208, 276
-0.997619, 93, 169, 108, 200
-0.997622, 129, 249, 144, 280
-0.997623, 281, 305, 296, 336
-0.997626, 79, 145, 94, 176
-0.997633, 25, 213, 40, 244
-0.997641, 325, 257, 340, 288
-0.997642, 17, 145, 32, 176
-0.997644, 451, 205, 466, 236
-0.997644, 333, 285, 348, 316
-0.997646, 441, 197, 456, 228
-0.997647, 225, 77, 352, 108
-0.997651, 85, 157, 100, 188
-0.997653, 229, 129, 260, 375
-0.997656, 149, 129, 180, 375
-0.997665, 459, 85, 474, 116
-0.997666, 369, 325, 496, 356
-0.997668, 49, 277, 64, 308
-0.997676, 121, 321, 136, 352
-0.997679, 285, 225, 300, 256
-0.997682, 209, 225, 224, 256
-0.997684, 25, 77, 40, 108
-0.997685, 1, 45, 16, 76
-0.997688, 7, 69, 22, 100
-0.997698, 293, 333, 308, 364
-0.9977, 343, 265, 358, 296
-0.997701, 233, 189, 248, 220
-0.997705, 293, 257, 308, 288
-0.997712, 1, 141, 16, 172
-0.997712, 147, 241, 162, 272
-0.997717, 281, 129, 312, 375
-0.997719, 289, 301, 304, 332
-0.99772, 141, 185, 156, 216
-0.997722, 47, 289, 62, 320
-0.997727, 73, 65, 104, 320
-0.997729, 225, 189, 240, 220
-0.997731, 1, 181, 16, 212
-0.997732, 355, 221, 370, 252
-0.997737, 17, 61, 32, 92
-0.997739, 29, 257, 44, 288
-0.99774, 221, 293, 236, 324
-0.997744, 295, 293, 310, 324
-0.997746, 129, 33, 192, 288
-0.997746, 33, 81, 48, 112
-0.997751, 125, 129, 156, 375
-0.997759, 9, 57, 24, 88
-0.997769, 301, 245, 316, 276
-0.99777, 137, 129, 168, 375
-0.997771, 119, 265, 134, 296
-0.997772, 469, 85, 484, 116
-0.997775, 135, 245, 150, 276
-0.997777, 345, 129, 376, 375
-0.99778, 253, 81, 284, 208
-0.997781, 147, 177, 162, 208
-0.997792, 127, 329, 142, 360
-0.997809, 17, 185, 32, 216
-0.997812, 399, 181, 414, 212
-0.997814, 339, 229, 354, 260
-0.997815, 337, 53, 464, 84
-0.997821, 465, 1, 496, 256
-0.997825, 293, 317, 308, 348
-0.997828, 293, 345, 308, 375
-0.997832, 475, 105, 490, 136
-0.997834, 453, 85, 468, 116
-0.99785, 225, 149, 352, 180
-0.997855, 413, 1, 444, 256
-0.997867, 65, 221, 192, 252
-0.997874, 369, 341, 496, 372
-0.997877, 65, 257, 192, 288
-0.997903, 257, 1, 500, 64
-0.997917, 177, 97, 304, 160
-0.997943, 433, 97, 464, 352
-0.997943, 89, 129, 120, 375
-0.997968, 225, 105, 352, 136
-0.997994, 329, 129, 360, 375
-0.998015, 65, 133, 192, 164
-0.998025, 49, 77, 176, 108
-0.998049, 13, 129, 44, 375
-0.998063, 321, 125, 448, 156
-0.998138, 145, 145, 272, 176
-0.998143, 129, 25, 384, 88
-0.998175, 273, 125, 400, 156
-0.998185, 177, 181, 304, 212
-0.998209, 145, 345, 272, 375
-0.998226, 317, 33, 348, 288
-0.998252, 197, 97, 228, 224
-0.998264, 81, 193, 208, 224
-0.998266, 49, 157, 176, 188
-0.998269, 129, 329, 256, 360
-0.998269, 269, 129, 300, 375
-0.998276, 331, 209, 346, 336
-0.998303, 369, 165, 496, 196
-0.99831, 273, 225, 288, 352
-0.998317, 377, 129, 408, 375
-0.99832, 321, 5, 448, 36
-0.998331, 281, 279, 344, 294
-0.998341, 281, 241, 296, 368
-0.998349, 265, 261, 328, 276
-0.998361, 161, 49, 288, 112
-0.998364, 433, 87, 496, 102
-0.998369, 225, 137, 352, 168
-0.998369, 249, 271, 312, 286
-0.99837, 185, 249, 248, 264
-0.998377, 385, 1, 416, 256
-0.99838, 325, 209, 340, 336
-0.998381, 273, 269, 336, 284
-0.998382, 233, 265, 296, 280
-0.998383, 249, 229, 312, 244
-0.998389, 353, 225, 384, 352
-0.99839, 297, 289, 360, 304
-0.998405, 225, 255, 288, 270
-0.998405, 287, 241, 302, 368
-0.998409, 417, 97, 480, 112
-0.99841, 257, 277, 320, 292
-0.998416, 249, 291, 312, 306
-0.998421, 249, 237, 312, 252
-0.998426, 433, 199, 496, 214
-0.998429, 409, 89, 472, 104
-0.99843, 289, 235, 352, 250
-0.99843, 225, 241, 288, 256
-0.998431, 225, 249, 288, 264
-0.998432, 265, 255, 328, 270
-0.998433, 169, 243, 232, 258
-0.998434, 273, 297, 336, 312
-0.998436, 1, 161, 64, 176
-0.998436, 9, 229, 72, 244
-0.998437, 41, 147, 104, 162
-0.998438, 289, 263, 352, 278
-0.99844, 233, 277, 296, 292
-0.998443, 257, 283, 320, 298
-0.998445, 265, 245, 328, 260
-0.998447, 121, 247, 184, 262
-0.998447, 209, 233, 272, 248
-0.998451, 49, 283, 112, 298
-0.998452, 305, 229, 368, 244
-0.998455, 297, 311, 360, 326
-0.998456, 25, 339, 88, 354
-0.998457, 273, 225, 336, 240
-0.998457, 257, 259, 288, 274
-0.998458, 425, 145, 456, 160
-0.998458, 1, 149, 64, 164
-0.99846, 53, 149, 84, 164
-0.998461, 25, 217, 56, 232
-0.998462, 305, 225, 336, 240
-0.998462, 105, 171, 136, 186
-0.998462, 1, 51, 32, 66
-0.998462, 437, 207, 468, 222
-0.998463, 321, 237, 352, 252
-0.998464, 173, 239, 204, 254
-0.998465, 9, 181, 72, 196
-0.998466, 233, 283, 296, 298
-0.998467, 81, 285, 144, 300
-0.998467, 317, 209, 332, 336
-0.998468, 33, 185, 64, 200
-0.998468, 13, 167, 44, 182
-0.998468, 409, 151, 472, 166
-0.998468, 273, 353, 336, 368
-0.998469, 89, 251, 152, 266
-0.99847, 1, 275, 64, 290
-0.99847, 217, 255, 248, 270
-0.99847, 189, 231, 220, 246
-0.998472, 193, 243, 224, 258
-0.998472, 25, 285, 56, 300
-0.998472, 15, 145, 30, 272
-0.998472, 9, 149, 40, 164
-0.998473, 421, 107, 452, 122
-0.998475, 297, 33, 328, 288
-0.998476, 421, 113, 452, 128
-0.998476, 23, 145, 38, 272
-0.998478, 289, 255, 352, 270
-0.998478, 297, 295, 360, 310
-0.998479, 297, 297, 328, 312
-0.998479, 33, 333, 64, 348
-0.998481, 41, 141, 104, 156
-0.998482, 241, 273, 272, 288
-0.998483, 225, 225, 240, 352
-0.998483, 53, 339, 84, 354
-0.998483, 265, 301, 296, 316
-0.998484, 321, 277, 352, 292
-0.998486, 425, 1, 456, 256
-0.998486, 33, 87, 96, 102
-0.998486, 129, 337, 160, 352
-0.998486, 105, 269, 136, 284
-0.998487, 81, 257, 144, 272
-0.998488, 345, 223, 408, 238
-0.998489, 9, 167, 72, 182
-0.998489, 353, 223, 384, 238
-0.998491, 265, 271, 296, 286
-0.998491, 89, 173, 120, 188
-0.998491, 297, 269, 360, 284
-0.998491, 41, 293, 72, 308
-0.998492, 41, 163, 104, 178
-0.998492, 305, 265, 336, 280
-0.998494, 161, 249, 224, 264
-0.998495, 209, 291, 272, 306
-0.998496, 41, 155, 104, 170
-0.998496, 281, 347, 344, 362
-0.998497, 177, 245, 208, 260
-0.998497, 409, 143, 472, 158
-0.998499, 109, 261, 140, 276
-0.998499, 9, 139, 72, 154
-0.9985, 25, 345, 88, 360
-0.9985, 293, 227, 324, 242
-0.998501, 1, 155, 64, 170
-0.998502, 421, 83, 452, 98
-0.998502, 425, 151, 456, 166
-0.998502, 257, 247, 288, 262
-0.998503, 33, 231, 64, 246
-0.998504, 1, 237, 32, 252
-0.998504, 25, 211, 56, 226
-0.998505, 289, 241, 352, 256
-0.998507, 425, 133, 456, 148
-0.998509, 297, 243, 328, 258
-0.99851, 145, 241, 208, 256
-0.998511, 293, 235, 324, 250
-0.998511, 105, 249, 136, 264
-0.998511, 1, 187, 64, 202
-0.998512, 409, 137, 472, 152
-0.998512, 237, 231, 268, 246
-0.998512, 273, 359, 336, 374
-0.998513, 273, 291, 336, 306
-0.998514, 5, 155, 36, 170
-0.998515, 469, 203, 500, 218
-0.998515, 9, 269, 40, 284
-0.998515, 73, 341, 104, 356
-0.998516, 49, 343, 112, 358
-0.998516, 257, 253, 288, 268
-0.998517, 41, 139, 72, 154
-0.998517, 441, 95, 472, 110
-0.998517, 25, 359, 88, 374
-0.998518, 125, 183, 156, 198
-0.998518, 41, 175, 104, 190
-0.998519, 305, 291, 336, 306
-0.99852, 205, 207, 236, 222
-0.998521, 433, 205, 496, 220
-0.998522, 281, 293, 312, 308
-0.998522, 269, 277, 300, 292
-0.998522, 433, 193, 496, 208
-0.998522, 81, 279, 144, 294
-0.998523, 289, 355, 320, 370
-0.998524, 289, 249, 352, 264
-0.998524, 409, 107, 472, 122
-0.998525, 97, 343, 160, 358
-0.998525, 81, 171, 144, 186
-0.998527, 453, 203, 484, 218
-0.998527, 33, 341, 64, 356
-0.998527, 17, 281, 80, 296
-0.998527, 329, 229, 360, 244
-0.998527, 201, 241, 264, 256
-0.998527, 441, 195, 472, 210
-0.998527, 267, 241, 282, 368
-0.998528, 297, 279, 328, 294
-0.998528, 17, 275, 48, 290
-0.998529, 289, 341, 352, 356
-0.998529, 105, 193, 168, 208
-0.998529, 273, 283, 304, 298
-0.998529, 425, 139, 456, 154
-0.99853, 309, 237, 340, 252
-0.99853, 409, 131, 472, 146
-0.998531, 321, 245, 352, 260
-0.998531, 169, 237, 232, 252
-0.998531, 9, 83, 72, 98
-0.998532, 433, 109, 496, 124
-0.998532, 225, 271, 288, 286
-0.998534, 37, 277, 68, 292
-0.998534, 285, 241, 316, 256
-0.998535, 293, 253, 324, 268
-0.998536, 89, 187, 152, 202
-0.998537, 273, 241, 304, 256
-0.998537, 249, 223, 312, 238
-0.998537, 49, 181, 112, 196
-0.998537, 305, 305, 368, 320
-0.998538, 257, 265, 288, 280
-0.998539, 461, 87, 492, 102
-0.99854, 77, 283, 108, 298
-0.99854, 197, 237, 228, 252
-0.99854, 5, 275, 36, 290
-0.998541, 313, 261, 376, 276
-0.998542, 121, 253, 184, 268
-0.998542, 1, 175, 64, 190
-0.998543, 325, 285, 356, 300
-0.998543, 289, 285, 320, 300
-0.998544, 309, 245, 340, 260
-0.998544, 233, 301, 296, 316
-0.998544, 21, 331, 52, 346
-0.998546, 9, 131, 72, 146
-0.998546, 49, 169, 112, 184
-0.998546, 185, 255, 248, 270
-0.998547, 1, 269, 64, 284
-0.998547, 19, 225, 34, 352
-0.998549, 209, 205, 272, 220
-0.99855, 249, 321, 312, 336
-0.998551, 1, 235, 64, 250
-0.998551, 289, 335, 352, 350
-0.998552, 301, 241, 316, 368
-0.998552, 409, 113, 472, 128
-0.998552, 9, 75, 40, 90
-0.998553, 421, 97, 452, 112
-0.998554, 409, 121, 472, 136
-0.998555, 421, 89, 452, 104
-0.998555, 409, 81, 472, 96
-0.998555, 65, 283, 96, 298
-0.998555, 25, 331, 88, 346
-0.998556, 261, 227, 292, 242
-0.998556, 281, 233, 312, 248
-0.998557, 53, 143, 84, 158
-0.998557, 53, 283, 84, 298
-0.998558, 161, 231, 224, 246
-0.998558, 305, 259, 336, 274
-0.998559, 1, 205, 64, 220
-0.998559, 257, 337, 320, 352
-0.99856, 1, 299, 64, 314
-0.99856, 81, 267, 144, 282
-0.99856, 27, 193, 42, 320
-0.99856, 265, 303, 328, 318
-0.998561, 189, 249, 220, 264
-0.998562, 465, 197, 496, 212
-0.998564, 265, 315, 328, 330
-0.998564, 353, 217, 416, 232
-0.998564, 121, 337, 184, 352
-0.998564, 29, 223, 60, 238
-0.998565, 249, 327, 312, 342
-0.998566, 249, 237, 280, 252
-0.998566, 161, 247, 192, 262
-0.998568, 1, 77, 64, 92
-0.998569, 33, 291, 96, 306
-0.998571, 57, 65, 72, 192
-0.998571, 305, 285, 336, 300
-0.998571, 49, 17, 176, 80
-0.998572, 193, 193, 256, 208
-0.998573, 25, 351, 88, 366
-0.998573, 33, 179, 64, 194
-0.998574, 121, 321, 184, 336
-0.998574, 305, 231, 336, 246
-0.998575, 209, 227, 272, 242
-0.998576, 1, 113, 64, 128
-0.998577, 297, 317, 360, 332
-0.998578, 97, 337, 160, 352
-0.998578, 277, 225, 308, 240
-0.998579, 269, 247, 300, 262
-0.998579, 321, 241, 384, 256
-0.998581, 417, 213, 480, 228
-0.998582, 193, 261, 256, 276
-0.998582, 441, 201, 472, 216
-0.998582, 385, 217, 448, 232
-0.998583, 433, 135, 496, 150
-0.998585, 21, 229, 52, 244
-0.998586, 213, 249, 244, 264
-0.998589, 325, 261, 356, 276
-0.99859, 209, 243, 240, 258
-0.998596, 269, 255, 300, 270
-0.998599, 281, 253, 312, 268
-0.9986, 317, 231, 348, 246
-0.998606, 233, 241, 248, 368
-0.998607, 317, 269, 348, 284
-0.998609, 9, 179, 40, 194
-0.998611, 441, 89, 472, 104
-0.998611, 25, 241, 40, 368
-0.998615, 281, 247, 312, 262
-0.998618, 293, 209, 308, 336
-0.998618, 213, 225, 228, 352
-0.998619, 297, 271, 328, 286
-0.998621, 289, 261, 320, 276
-0.998622, 269, 235, 300, 250
-0.998623, 325, 291, 356, 306
-0.998625, 321, 251, 352, 266
-0.998632, 305, 253, 336, 268
-0.998635, 137, 245, 168, 260
-0.998636, 253, 225, 268, 352
-0.998641, 309, 279, 340, 294
-0.998644, 285, 279, 316, 294
-0.998645, 115, 241, 130, 368
-0.998645, 153, 241, 184, 256
-0.998648, 219, 225, 234, 352
-0.998655, 453, 197, 484, 212
-0.998665, 207, 225, 222, 352
-0.99867, 5, 145, 20, 272
-0.998672, 241, 281, 272, 296
-0.998679, 243, 225, 258, 352
-0.998685, 5, 161, 36, 176
-0.998698, 361, 129, 392, 256
-0.9987, 249, 231, 280, 246
-0.998702, 261, 225, 276, 352
-0.998702, 261, 241, 292, 256
-0.998715, 63, 65, 78, 192
-0.998716, 277, 269, 308, 284
-0.998718, 269, 261, 300, 276
-0.99873, 161, 81, 416, 144
-0.998737, 389, 129, 420, 375
-0.998738, 141, 177, 156, 304
-0.998742, 125, 241, 140, 368
-0.998776, 131, 225, 146, 352
-0.998781, 157, 161, 172, 288
-0.998797, 337, 209, 352, 336
-0.998817, 399, 161, 414, 288
-0.998819, 311, 209, 326, 336
-0.998824, 111, 177, 126, 304
-0.998826, 13, 225, 28, 352
-0.998826, 33, 65, 48, 192
-0.998833, 125, 81, 156, 208
-0.998837, 1, 225, 16, 352
-0.99885, 149, 145, 164, 272
-0.998851, 51, 65, 66, 192
-0.998853, 475, 65, 490, 192
-0.998858, 45, 65, 60, 192
-0.998862, 481, 81, 496, 208
-0.998865, 37, 209, 52, 336
-0.998875, 85, 33, 116, 288
-0.998901, 121, 177, 136, 304
-0.99891, 393, 209, 408, 336
-0.998917, 69, 65, 84, 192
-0.998921, 213, 161, 228, 288
-0.998937, 57, 113, 72, 240
-0.998941, 31, 241, 46, 368
-0.998942, 257, 33, 288, 288
-0.998945, 5, 97, 20, 224
-0.998952, 27, 65, 42, 192
-0.998954, 191, 225, 206, 352
-0.998962, 473, 177, 488, 304
-0.998971, 235, 177, 250, 304
-0.998973, 13, 97, 28, 224
-0.998974, 405, 161, 420, 288
-0.998979, 481, 33, 496, 160
-0.998979, 443, 81, 458, 208
-0.998985, 135, 177, 150, 304
-0.998991, 219, 161, 234, 288
-0.999014, 197, 225, 212, 352
-0.999014, 467, 161, 482, 288
-0.999022, 35, 161, 50, 288
-0.999024, 283, 193, 298, 320
-0.999026, 457, 161, 472, 288
-0.999034, 299, 193, 314, 320
-0.999035, 97, 33, 128, 288
-0.99904, 207, 161, 222, 288
-0.999042, 479, 177, 494, 304
-0.999051, 405, 225, 420, 352
-0.999058, 437, 1, 468, 256
-0.999058, 169, 225, 184, 352
-0.999061, 169, 65, 232, 192
-0.999065, 49, 129, 64, 256
-0.999072, 167, 177, 182, 304
-0.999075, 143, 225, 158, 352
-0.999079, 105, 177, 120, 304
-0.999079, 343, 209, 358, 336
-0.999085, 201, 177, 216, 304
-0.999086, 175, 161, 190, 288
-0.999086, 63, 113, 78, 240
-0.999089, 137, 225, 152, 352
-0.99909, 77, 241, 92, 368
-0.999094, 451, 193, 466, 320
-0.999094, 7, 225, 22, 352
-0.999095, 183, 225, 198, 352
-0.999097, 103, 241, 118, 368
-0.999103, 39, 65, 54, 192
-0.999107, 443, 129, 458, 256
-0.999109, 413, 145, 428, 272
-0.999117, 267, 193, 282, 320
-0.999121, 481, 129, 496, 256
-0.999123, 229, 161, 244, 288
-0.999124, 47, 177, 62, 304
-0.999129, 113, 57, 240, 120
-0.999136, 151, 225, 166, 352
-0.999136, 97, 65, 128, 192
-0.999138, 185, 161, 200, 288
-0.999141, 91, 97, 106, 224
-0.999141, 175, 225, 190, 352
-0.999148, 427, 113, 442, 240
-0.999154, 427, 65, 442, 192
-0.999155, 437, 81, 452, 208
-0.999158, 451, 49, 466, 176
-0.999158, 445, 177, 460, 304
-0.999159, 469, 65, 484, 192
-0.999161, 225, 1, 352, 64
-0.999162, 457, 81, 472, 208
-0.999163, 417, 65, 432, 192
-0.999164, 321, 161, 336, 288
-0.999169, 65, 241, 80, 368
-0.999176, 417, 1, 432, 128
-0.999179, 81, 81, 96, 208
-0.999181, 449, 129, 464, 256
-0.999191, 99, 129, 114, 256
-0.999191, 89, 241, 104, 368
-0.999197, 17, 33, 32, 160
-0.999198, 253, 129, 284, 256
-0.999201, 29, 145, 44, 272
-0.999204, 5, 49, 20, 176
-0.999204, 419, 145, 434, 272
-0.999207, 463, 49, 478, 176
-0.999208, 387, 177, 402, 304
-0.999211, 329, 33, 360, 288
-0.999216, 273, 33, 304, 288
-0.999216, 75, 65, 90, 192
-0.999216, 43, 129, 58, 256
-0.999225, 473, 17, 488, 144
-0.999225, 257, 177, 272, 304
-0.999235, 83, 241, 98, 368
-0.999237, 93, 161, 108, 288
-0.999243, 109, 225, 124, 352
-0.999253, 71, 129, 86, 256
-0.999261, 485, 177, 500, 304
-0.99927, 467, 209, 482, 336
-0.999272, 97, 241, 112, 368
-0.999272, 473, 129, 488, 256
-0.999275, 173, 113, 188, 240
-0.999279, 393, 161, 408, 288
-0.999302, 365, 129, 396, 375
-0.999388, 97, 49, 160, 176
-0.999424, 161, 1, 416, 64
-0.999481, 241, 65, 272, 192
-0.999531, 33, 33, 288, 96
-0.999664, 311, 245, 326, 260
-0.999664, 13, 111, 28, 126
-0.999666, 171, 247, 186, 262
-0.999667, 149, 185, 164, 200
-0.999667, 29, 273, 44, 288
-0.999667, 25, 267, 40, 282
-0.999668, 313, 257, 328, 272
-0.999668, 205, 257, 220, 272
-0.999668, 327, 269, 342, 284
-0.999669, 329, 345, 344, 360
-0.999669, 31, 335, 46, 350
-0.99967, 331, 239, 346, 254
-0.999671, 279, 233, 294, 248
-0.999671, 321, 241, 336, 256
-0.999673, 199, 251, 214, 266
-0.999673, 477, 197, 492, 212
-0.999674, 55, 283, 70, 298
-0.999674, 335, 285, 350, 300
-0.999674, 33, 83, 48, 98
-0.999674, 7, 69, 22, 84
-0.999675, 309, 271, 324, 286
-0.999675, 193, 249, 208, 264
-0.999676, 79, 341, 94, 356
-0.999677, 449, 205, 464, 220
-0.999678, 21, 175, 36, 190
-0.999678, 39, 223, 54, 238
-0.999679, 259, 229, 274, 244
-0.999679, 59, 87, 74, 102
-0.99968, 267, 257, 282, 272
-0.999681, 303, 229, 318, 244
-0.999681, 251, 237, 266, 252
-0.999681, 139, 191, 154, 206
-0.999682, 17, 141, 32, 156
-0.999682, 281, 281, 296, 296
-0.999683, 21, 233, 36, 248
-0.999683, 305, 277, 320, 292
-0.999684, 427, 125, 442, 140
-0.999685, 469, 203, 484, 218
-0.999687, 305, 289, 320, 304
-0.999688, 343, 265, 358, 280
-0.999688, 441, 203, 456, 218
-0.999688, 1, 237, 16, 252
-0.999691, 285, 257, 300, 272
-0.999691, 7, 151, 22, 166
-0.999691, 3, 185, 18, 200
-0.999691, 305, 261, 320, 276
-0.999692, 283, 245, 298, 260
-0.999692, 319, 261, 334, 276
-0.999692, 321, 273, 336, 288
-0.999693, 219, 243, 234, 258
-0.999693, 69, 283, 84, 298
-0.999693, 291, 291, 306, 306
-0.999695, 321, 253, 336, 268
-0.999697, 157, 241, 172, 256
-0.999698, 85, 283, 100, 298
-0.999698, 355, 221, 370, 236
-0.999698, 289, 263, 304, 278
-0.999699, 311, 233, 326, 248
-0.999699, 291, 269, 306, 284
-0.9997, 293, 223, 308, 238
-0.9997, 449, 1, 480, 256
-0.999701, 253, 281, 268, 296
-0.999703, 79, 283, 94, 298
-0.999704, 277, 227, 292, 242
-0.999707, 445, 89, 460, 104
-0.999708, 203, 243, 218, 258
-0.999709, 325, 247, 340, 262
-0.999711, 299, 263, 314, 278
-0.999711, 333, 261, 348, 276
-0.999713, 267, 263, 282, 278
-0.999715, 315, 251, 330, 266
-0.999715, 373, 1, 404, 256
-0.999716, 323, 229, 338, 244
-0.999716, 331, 251, 346, 266
-0.999716, 299, 269, 314, 284
-0.999718, 297, 235, 312, 250
-0.999719, 91, 283, 106, 298
-0.99972, 273, 237, 288, 252
-0.999721, 147, 243, 162, 258
-0.999722, 245, 231, 260, 246
-0.999722, 27, 227, 42, 242
-0.999723, 303, 243, 318, 258
-0.999723, 7, 241, 22, 256
-0.999725, 207, 233, 222, 248
-0.999725, 95, 169, 110, 184
-0.999726, 213, 239, 228, 254
-0.999728, 269, 243, 284, 258
-0.999729, 305, 283, 320, 298
-0.999729, 17, 75, 32, 90
-0.99973, 317, 233, 332, 248
-0.999731, 319, 267, 334, 282
-0.999731, 329, 283, 344, 298
-0.999732, 45, 227, 60, 242
-0.999733, 327, 257, 342, 272
-0.999733, 289, 283, 304, 298
-0.999733, 323, 235, 338, 250
-0.999734, 307, 253, 322, 268
-0.999736, 277, 245, 292, 260
-0.999737, 335, 267, 350, 282
-0.999738, 1, 155, 16, 170
-0.999739, 297, 247, 312, 262
-0.999739, 313, 281, 328, 296
-0.99974, 275, 273, 290, 288
-0.999741, 283, 265, 298, 280
-0.999744, 295, 275, 310, 290
-0.999744, 263, 241, 278, 256
-0.999746, 287, 277, 302, 292
-0.999748, 459, 201, 474, 216
-0.999752, 27, 329, 42, 344
-0.999754, 279, 259, 294, 274
-0.999758, 299, 287, 314, 302
-0.999758, 165, 239, 180, 254
-0.999761, 283, 251, 298, 266
-0.999761, 339, 259, 354, 274
-0.999762, 331, 245, 346, 260
-0.999763, 289, 241, 304, 256
-0.999763, 323, 279, 338, 294
-0.999765, 9, 161, 24, 176
-0.999768, 261, 235, 276, 250
-0.999773, 267, 233, 282, 248
-0.999775, 295, 281, 310, 296
-0.999776, 447, 193, 462, 208
-0.999781, 17, 161, 32, 176
-0.999786, 273, 259, 288, 274
-0.999791, 469, 197, 484, 212
-0.999792, 17, 169, 32, 184
-0.999802, 275, 253, 290, 268
-0.999804, 57, 137, 72, 152
-0.999805, 277, 265, 292, 280
-0.999815, 251, 231, 266, 246
-0.999827, 329, 229, 344, 244
-0.999827, 117, 33, 148, 288
-0.999836, 285, 271, 300, 286
-0.999853, 357, 33, 388, 288
-0.999897, 157, 33, 188, 288
-0.999945, 181, 33, 212, 288
-1.00011, 237, 33, 268, 288
-1.00019, 141, 33, 172, 288
-1.00021, 225, 33, 256, 288
-1.00027, 169, 33, 200, 288
-1.00032, 129, 33, 160, 288
-1.00035, 285, 33, 316, 288
-1.00036, 193, 33, 224, 288
-1.00043, 33, 9, 288, 72
-1.00048, 341, 33, 372, 288
-1.00051, 213, 33, 244, 288
-1.00056, 129, 97, 256, 160
-1.00094, 129, 17, 256, 80
-1.00164, 177, 9, 304, 72
-1.00238, 145, 49, 208, 176
-1.0026, 121, 65, 184, 192
-1.00292, 97, 1, 160, 128
-1.00306, 97, 1, 224, 128
-1.00349, 329, 81, 392, 208
-1.00397, 353, 65, 416, 192
-1.00515, 193, 33, 256, 160
-1.00815, 145, 1, 208, 128
-1.00841, 169, 1, 232, 128
-1.01231, 121, 1, 184, 128
