1957
-0.570197, 1, 1, 500, 256
-0.595332, 1, 97, 500, 352
-0.730487, 1, 1, 500, 375
-0.74451, 33, 1, 288, 375
-0.752236, 257, 1, 500, 375
-0.798668, 193, 129, 448, 375
-0.81333, 161, 1, 416, 375
-0.821406, 97, 129, 352, 375
-0.846323, 1, 97, 256, 352
-0.872344, 257, 1, 500, 256
-0.902811, 209, 129, 336, 375
-0.913569, 369, 97, 496, 352
-0.915227, 161, 33, 416, 288
-0.918373, 305, 129, 432, 375
-0.919855, 161, 129, 288, 375
-0.926843, 257, 129, 384, 375
-0.927086, 1, 65, 500, 192
-0.928885, 321, 1, 448, 375
-0.929361, 369, 1, 496, 375
-0.929997, 113, 97, 240, 352
-0.933543, 369, 1, 496, 256
-0.935691, 321, 1, 448, 256
-0.936264, 97, 1, 224, 375
-0.936327, 65, 65, 192, 320
-0.937397, 49, 1, 176, 375
-0.938233, 1, 129, 500, 256
-0.941394, 273, 1, 400, 375
-0.941521, 145, 1, 272, 375
-0.941933, 193, 1, 320, 375
-0.946486, 1, 1, 128, 375
-0.94799, 273, 33, 400, 288
-0.948047, 17, 65, 144, 320
-0.951602, 161, 33, 288, 288
-0.95432, 209, 33, 336, 288
-0.956893, 257, 113, 500, 240
-0.96016, 353, 113, 480, 240
-0.963579, 113, 1, 240, 256
-0.964217, 1, 17, 500, 144
-0.965878, 425, 81, 488, 208
-0.967216, 225, 129, 352, 256
-0.967289, 129, 113, 384, 240
-0.967731, 321, 145, 384, 208
-0.968003, 225, 65, 480, 192
-0.968141, 1, 81, 256, 208
-0.968679, 33, 1, 288, 256
-0.969095, 385, 113, 448, 240
-0.970674, 361, 137, 424, 200
-0.971457, 305, 129, 432, 256
-0.971761, 1, 241, 500, 368
-0.97308, 145, 113, 272, 240
-0.974875, 361, 129, 424, 256
-0.975956, 289, 81, 416, 208
-0.976305, 1, 193, 500, 320
-0.976912, 265, 129, 328, 256
-0.976942, 193, 161, 448, 288
-0.977024, 273, 281, 336, 344
-0.97746, 289, 129, 352, 256
-0.977642, 273, 137, 336, 200
-0.977725, 65, 65, 192, 192
-0.978159, 161, 241, 416, 368
-0.978183, 233, 129, 296, 256
-0.978403, 385, 129, 448, 192
-0.978434, 201, 121, 264, 184
-0.978635, 433, 81, 496, 144
-0.978916, 409, 105, 472, 168
-0.979758, 337, 129, 464, 192
-0.979919, 329, 113, 392, 240
-0.980621, 137, 97, 200, 224
-0.981121, 177, 241, 304, 368
-0.981129, 201, 113, 264, 240
-0.981248, 209, 193, 336, 320
-0.981283, 241, 241, 368, 368
-0.98133, 369, 33, 496, 160
-0.981808, 393, 49, 456, 176
-0.981902, 297, 137, 360, 200
-0.982212, 345, 161, 408, 224
-0.982963, 365, 137, 396, 200
-0.982975, 353, 137, 384, 200
-0.983223, 129, 105, 192, 168
-0.983529, 273, 145, 400, 208
-0.984054, 233, 137, 296, 200
-0.984063, 289, 177, 416, 304
-0.984429, 177, 121, 240, 184
-0.984497, 305, 305, 368, 368
-0.984815, 241, 265, 304, 328
-0.985513, 177, 113, 240, 240
-0.985765, 1, 225, 256, 352
-0.985779, 193, 241, 256, 368
-0.985811, 433, 105, 496, 168
-0.985946, 281, 305, 344, 368
-0.985965, 369, 161, 432, 224
-0.985969, 225, 137, 352, 200
-0.986126, 433, 33, 496, 160
-0.986181, 209, 81, 336, 208
-0.9865, 137, 129, 200, 192
-0.986615, 233, 129, 296, 375
-0.986641, 113, 65, 240, 192
-0.986671, 81, 113, 208, 240
-0.986742, 353, 161, 480, 288
-0.986874, 249, 289, 312, 352
-0.98689, 257, 17, 500, 144
-0.986902, 377, 137, 408, 200
-0.987061, 17, 65, 144, 192
-0.98708, 337, 161, 400, 288
-0.987093, 201, 97, 264, 352
-0.987095, 369, 97, 432, 352
-0.987202, 233, 225, 296, 352
-0.987244, 273, 129, 336, 375
-0.987511, 193, 257, 256, 320
-0.987583, 437, 97, 468, 224
-0.987794, 321, 121, 384, 184
-0.987813, 33, 129, 288, 256
-0.987833, 321, 145, 352, 208
-0.987931, 217, 265, 280, 328
-0.987947, 341, 153, 372, 216
-0.98799, 437, 105, 468, 168
-0.988057, 289, 257, 352, 320
-0.988096, 161, 121, 288, 184
-0.988107, 289, 241, 416, 368
-0.988331, 161, 145, 224, 208
-0.988466, 177, 273, 304, 336
-0.988524, 417, 121, 448, 184
-0.988671, 425, 65, 488, 320
-0.988803, 409, 65, 472, 128
-0.988907, 233, 105, 296, 168
-0.988908, 421, 113, 452, 240
-0.988965, 233, 81, 296, 208
-0.989053, 301, 137, 332, 200
-0.989147, 281, 225, 344, 352
-0.98922, 377, 185, 440, 248
-0.98935, 453, 81, 484, 208
-0.98937, 397, 129, 428, 192
-0.989517, 161, 65, 288, 192
-0.989587, 237, 113, 268, 176
-0.989671, 385, 97, 448, 160
-0.989674, 313, 161, 376, 288
-0.98978, 397, 113, 428, 240
-0.989812, 453, 81, 484, 144
-0.989829, 129, 65, 384, 192
-0.989866, 257, 209, 320, 336
-0.989947, 337, 161, 464, 224
-0.990062, 65, 89, 192, 152
-0.990093, 237, 97, 268, 224
-0.990192, 113, 81, 176, 208
-0.990198, 289, 169, 416, 232
-0.990279, 305, 81, 368, 208
-0.990306, 241, 305, 368, 368
-0.99032, 385, 113, 416, 240
-0.990362, 257, 225, 500, 352
-0.990371, 465, 81, 496, 144
-0.990379, 241, 273, 368, 336
-0.990526, 369, 105, 496, 168
-0.990653, 273, 121, 400, 184
-0.990687, 161, 129, 224, 375
-0.990726, 177, 297, 304, 360
-0.990759, 161, 249, 288, 312
-0.990842, 393, 97, 456, 352
-0.990944, 409, 113, 440, 240
-0.990967, 353, 141, 416, 172
-0.991035, 385, 129, 448, 160
-0.991041, 329, 233, 392, 296
-0.991054, 433, 1, 496, 375
-0.991094, 409, 177, 440, 240
-0.991102, 285, 129, 316, 256
-0.991113, 97, 97, 160, 160
-0.991202, 113, 105, 240, 168
-0.991204, 353, 113, 416, 176
-0.99131, 297, 281, 360, 344
-0.99142, 353, 73, 480, 136
-0.991449, 377, 1, 440, 256
-0.99151, 353, 81, 416, 208
-0.991532, 465, 65, 496, 192
-0.991553, 281, 145, 344, 176
-0.991554, 73, 65, 136, 192
-0.991571, 289, 241, 416, 304
-0.991615, 209, 65, 272, 192
-0.991667, 373, 129, 404, 256
-0.991712, 345, 129, 408, 375
-0.991712, 209, 249, 336, 312
-0.991729, 249, 129, 280, 256
-0.991755, 409, 161, 472, 224
-0.991813, 313, 149, 376, 180
-0.991858, 317, 281, 348, 344
-0.991909, 425, 109, 488, 140
-0.992026, 129, 129, 192, 160
-0.992107, 301, 129, 332, 256
-0.992138, 305, 241, 368, 368
-0.99218, 9, 257, 72, 320
-0.992193, 385, 189, 448, 220
-0.992212, 161, 193, 288, 320
-0.992218, 265, 285, 328, 316
-0.99222, 265, 129, 296, 256
-0.992258, 177, 193, 304, 256
-0.992259, 129, 117, 192, 148
-0.992298, 281, 301, 344, 332
-0.992321, 233, 145, 296, 176
-0.992341, 361, 161, 392, 224
-0.99236, 49, 269, 112, 300
-0.992379, 321, 305, 352, 368
-0.992409, 73, 269, 136, 300
-0.992419, 313, 133, 376, 164
-0.992437, 157, 105, 188, 168
-0.992461, 257, 145, 320, 176
-0.992464, 9, 269, 72, 300
-0.992465, 169, 121, 232, 152
-0.992534, 265, 81, 328, 208
-0.992537, 433, 49, 496, 112
-0.992575, 225, 169, 352, 232
-0.992591, 409, 121, 472, 152
-0.992629, 289, 285, 352, 316
-0.992669, 209, 129, 272, 160
-0.992677, 409, 129, 472, 192
-0.992682, 129, 105, 192, 136
-0.992686, 185, 265, 248, 296
-0.992687, 297, 169, 360, 232
-0.992691, 113, 269, 176, 300
-0.992698, 153, 105, 216, 168
-0.992707, 225, 113, 256, 240
-0.992725, 297, 129, 360, 375
-0.992726, 361, 129, 424, 160
-0.992763, 297, 237, 360, 268
-0.992773, 137, 141, 200, 172
-0.992818, 297, 281, 328, 344
-0.992826, 177, 65, 240, 192
-0.992835, 241, 225, 368, 288
-0.992844, 289, 313, 352, 344
-0.992848, 241, 265, 304, 296
-0.992852, 177, 137, 240, 168
-0.992859, 333, 161, 364, 288
-0.992872, 433, 85, 496, 116
-0.992878, 241, 289, 304, 320
-0.992916, 185, 277, 248, 308
-0.992928, 241, 277, 304, 308
-0.992929, 401, 1, 464, 256
-0.992963, 337, 241, 400, 272
-0.992969, 121, 93, 184, 124
-0.992984, 233, 193, 296, 224
-0.992994, 257, 137, 288, 200
-0.992998, 169, 249, 232, 312
-0.993026, 409, 77, 472, 108
-0.993036, 1, 113, 128, 240
-0.993037, 113, 65, 176, 320
-0.993041, 201, 141, 264, 172
-0.993047, 305, 325, 368, 356
-0.993061, 377, 177, 440, 208
-0.993092, 249, 61, 312, 92
-0.993107, 169, 149, 232, 180
-0.99312, 193, 289, 256, 320
-0.993121, 433, 97, 496, 128
-0.993128, 369, 201, 432, 232
-0.993133, 137, 269, 200, 300
-0.993145, 1, 257, 128, 320
-0.993154, 97, 265, 224, 328
-0.993155, 361, 141, 392, 172
-0.99316, 441, 109, 472, 140
-0.993166, 217, 273, 280, 304
-0.993168, 369, 49, 496, 112
-0.993169, 217, 289, 280, 320
-0.99317, 405, 185, 436, 216
-0.993175, 453, 89, 484, 120
-0.993191, 141, 97, 172, 160
-0.993202, 433, 65, 496, 96
-0.993202, 121, 73, 184, 136
-0.993235, 385, 109, 448, 140
-0.993237, 397, 129, 428, 160
-0.993253, 161, 121, 192, 152
-0.993258, 273, 133, 336, 164
-0.993268, 261, 145, 292, 176
-0.99327, 341, 149, 372, 180
-0.993273, 249, 133, 312, 164
-0.993284, 465, 81, 496, 112
-0.993289, 161, 269, 224, 300
-0.993292, 177, 125, 208, 156
-0.993297, 241, 301, 304, 332
-0.9933, 105, 129, 168, 160
-0.993303, 349, 113, 380, 240
-0.993309, 409, 169, 472, 200
-0.993314, 97, 193, 352, 320
-0.993315, 249, 105, 280, 168
-0.993316, 409, 129, 440, 160
-0.99332, 297, 141, 328, 172
-0.993331, 125, 137, 156, 168
-0.993334, 317, 297, 348, 328
-0.993336, 409, 93, 472, 124
-0.993348, 373, 141, 404, 172
-0.993359, 409, 185, 472, 216
-0.993366, 321, 149, 352, 180
-0.993378, 429, 117, 460, 148
-0.993381, 237, 133, 268, 164
-0.993391, 297, 297, 328, 328
-0.993392, 309, 145, 340, 176
-0.993398, 81, 269, 112, 300
-0.993404, 149, 105, 180, 136
-0.99341, 441, 97, 472, 128
-0.993413, 305, 309, 336, 340
-0.993415, 93, 269, 124, 300
-0.993417, 237, 109, 268, 140
-0.99343, 33, 269, 64, 300
-0.99344, 317, 309, 348, 340
-0.993443, 233, 45, 296, 76
-0.993444, 17, 269, 48, 300
-0.993445, 117, 269, 148, 300
-0.993447, 273, 273, 336, 304
-0.993452, 321, 305, 384, 336
-0.993454, 317, 281, 348, 312
-0.993454, 133, 125, 164, 156
-0.993458, 265, 197, 328, 228
-0.993469, 265, 313, 328, 344
-0.993469, 281, 197, 312, 228
-0.993475, 369, 185, 496, 248
-0.993477, 201, 253, 264, 284
-0.993481, 113, 77, 176, 108
-0.993481, 385, 133, 416, 164
-0.993482, 141, 89, 172, 120
-0.993483, 273, 261, 336, 292
-0.993484, 61, 269, 92, 300
-0.993499, 177, 253, 240, 284
-0.993499, 297, 273, 360, 304
-0.9935, 65, 221, 128, 252
-0.993503, 105, 269, 136, 300
-0.993509, 185, 137, 216, 168
-0.993512, 1, 269, 32, 300
-0.99352, 273, 301, 304, 332
-0.993525, 249, 141, 280, 172
-0.993527, 325, 237, 356, 268
-0.993527, 161, 133, 192, 164
-0.993528, 241, 281, 272, 312
-0.993528, 253, 61, 284, 92
-0.993531, 417, 181, 448, 212
-0.993532, 129, 269, 160, 300
-0.993533, 421, 129, 452, 160
-0.993534, 353, 169, 416, 200
-0.993535, 45, 269, 76, 300
-0.993538, 153, 109, 216, 140
-0.993539, 225, 125, 256, 156
-0.993544, 121, 125, 152, 156
-0.993545, 229, 281, 260, 312
-0.993545, 209, 97, 272, 160
-0.993547, 173, 137, 204, 168
-0.993547, 305, 277, 336, 308
-0.993553, 149, 125, 180, 156
-0.993554, 273, 289, 304, 320
-0.993555, 417, 65, 448, 192
-0.993558, 321, 321, 352, 352
-0.993558, 389, 193, 420, 224
-0.993562, 289, 281, 320, 312
-0.993562, 273, 149, 304, 180
-0.993564, 289, 309, 320, 340
-0.993564, 213, 125, 244, 156
-0.993569, 333, 137, 364, 168
-0.993571, 249, 125, 280, 156
-0.993573, 285, 293, 316, 324
-0.993574, 349, 237, 380, 268
-0.99358, 209, 197, 272, 228
-0.99358, 285, 145, 316, 176
-0.993588, 413, 113, 444, 144
-0.99359, 261, 185, 292, 216
-0.993593, 237, 121, 268, 152
-0.993595, 225, 113, 256, 144
-0.9936, 229, 201, 260, 232
-0.993604, 177, 269, 208, 300
-0.99361, 153, 281, 216, 312
-0.993611, 329, 305, 360, 336
-0.993621, 97, 281, 160, 312
-0.993621, 129, 93, 160, 124
-0.993622, 253, 289, 284, 320
-0.993627, 377, 141, 440, 172
-0.993628, 197, 133, 228, 164
-0.993628, 373, 129, 404, 160
-0.993629, 73, 257, 136, 288
-0.993629, 413, 169, 444, 200
-0.993635, 209, 193, 272, 320
-0.993642, 269, 197, 300, 228
-0.993643, 177, 149, 208, 180
-0.993643, 329, 229, 392, 260
-0.993645, 337, 237, 368, 268
-0.993652, 237, 97, 268, 128
-0.993654, 453, 101, 484, 132
-0.993656, 337, 153, 400, 184
-0.993656, 145, 257, 208, 288
-0.993661, 233, 269, 264, 300
-0.993664, 281, 325, 344, 356
-0.993666, 153, 89, 184, 120
-0.993666, 145, 269, 176, 300
-0.993669, 289, 281, 416, 344
-0.993685, 393, 201, 456, 232
-0.993687, 433, 85, 464, 116
-0.993689, 197, 121, 228, 152
-0.993693, 165, 269, 196, 300
-0.993697, 245, 189, 276, 220
-0.993698, 273, 133, 304, 164
-0.9937, 361, 129, 392, 160
-0.993703, 153, 89, 216, 120
-0.993706, 417, 197, 448, 228
-0.993706, 225, 113, 352, 176
-0.993706, 161, 109, 192, 140
-0.993707, 233, 181, 296, 212
-0.99371, 345, 181, 408, 212
-0.993711, 389, 181, 420, 212
-0.993713, 217, 113, 280, 144
-0.993714, 245, 49, 276, 80
-0.993719, 385, 169, 416, 200
-0.993732, 333, 325, 364, 356
-0.993733, 397, 165, 428, 196
-0.993733, 265, 57, 296, 88
-0.993733, 129, 81, 160, 112
-0.993737, 185, 201, 248, 232
-0.993737, 113, 141, 176, 172
-0.993739, 285, 269, 316, 300
-0.99374, 225, 289, 288, 352
-0.993746, 429, 189, 460, 220
-0.993746, 17, 257, 80, 288
-0.993748, 173, 113, 204, 144
-0.993749, 245, 85, 276, 116
-0.993749, 193, 149, 224, 180
-0.993749, 137, 97, 200, 352
-0.99375, 97, 93, 160, 124
-0.993751, 113, 129, 240, 192
-0.993751, 309, 133, 340, 164
-0.993752, 249, 113, 280, 144
-0.993755, 133, 113, 164, 144
-0.993756, 421, 101, 452, 132
-0.993764, 373, 161, 404, 192
-0.993765, 265, 269, 296, 300
-0.993765, 213, 273, 244, 304
-0.993765, 321, 169, 384, 232
-0.993768, 249, 101, 280, 132
-0.993772, 213, 141, 244, 172
-0.993772, 377, 193, 408, 224
-0.993775, 41, 257, 104, 288
-0.993779, 233, 189, 264, 220
-0.993782, 13, 257, 44, 288
-0.993786, 309, 321, 340, 352
-0.993787, 205, 257, 236, 288
-0.993787, 233, 93, 296, 124
-0.993788, 353, 153, 384, 184
-0.99379, 101, 257, 132, 288
-0.993791, 285, 133, 316, 164
-0.993796, 449, 73, 480, 104
-0.993797, 113, 281, 144, 312
-0.993797, 141, 77, 172, 108
-0.993803, 177, 281, 208, 312
-0.993804, 417, 145, 448, 176
-0.993807, 233, 81, 264, 112
-0.993808, 345, 201, 408, 232
-0.993821, 73, 281, 136, 312
-0.993823, 145, 345, 208, 375
-0.993836, 97, 113, 160, 144
-0.993836, 217, 301, 280, 332
-0.993846, 433, 181, 496, 212
-0.99385, 97, 257, 160, 288
-0.993853, 377, 165, 440, 196
-0.993864, 265, 245, 328, 276
-0.993872, 265, 217, 328, 248
-0.993883, 209, 145, 272, 208
-0.993888, 209, 57, 272, 88
-0.993888, 209, 81, 272, 112
-0.993891, 233, 73, 296, 104
-0.993892, 25, 97, 88, 224
-0.993893, 161, 205, 224, 236
-0.993914, 233, 205, 296, 236
-0.99392, 9, 281, 72, 312
-0.99392, 97, 209, 224, 336
-0.993923, 193, 117, 256, 148
-0.993935, 41, 113, 104, 144
-0.993935, 209, 153, 272, 184
-0.993938, 409, 1, 472, 375
-0.993939, 385, 153, 448, 184
-0.993944, 217, 225, 280, 288
-0.993955, 241, 253, 304, 284
-0.993957, 185, 189, 248, 220
-0.993957, 297, 225, 360, 256
-0.993966, 409, 133, 472, 164
-0.99397, 197, 113, 228, 240
-0.993971, 313, 249, 376, 280
-0.993974, 41, 281, 104, 312
-0.993987, 209, 93, 272, 124
-0.993994, 329, 293, 392, 324
-0.993996, 265, 257, 328, 320
-0.994003, 417, 197, 480, 228
-0.994005, 321, 165, 384, 196
-0.994008, 177, 337, 240, 368
-0.994018, 81, 81, 144, 112
-0.994026, 57, 101, 120, 132
-0.994042, 9, 117, 72, 148
-0.994049, 209, 45, 272, 76
-0.994057, 33, 205, 96, 236
-0.994059, 177, 241, 240, 272
-0.994059, 337, 329, 400, 360
-0.994067, 225, 229, 288, 260
-0.994111, 145, 273, 208, 336
-0.994161, 81, 257, 144, 320
-0.994179, 209, 1, 272, 375
-0.994179, 401, 185, 464, 248
-0.994186, 385, 1, 448, 375
-0.994211, 161, 97, 192, 224
-0.994254, 409, 153, 440, 216
-0.994291, 81, 241, 208, 304
-0.994369, 17, 89, 144, 152
-0.994397, 277, 281, 308, 344
-0.994397, 449, 17, 480, 144
-0.994423, 273, 233, 336, 296
-0.994507, 57, 257, 120, 320
-0.994545, 469, 17, 500, 144
-0.994563, 161, 97, 288, 160
-0.994592, 233, 177, 296, 304
-0.994602, 173, 121, 204, 184
-0.994631, 373, 161, 404, 224
-0.994713, 337, 129, 368, 192
-0.994763, 225, 105, 256, 168
-0.994776, 297, 225, 360, 288
-0.994807, 233, 1, 296, 375
-0.99486, 305, 97, 432, 160
-0.994862, 329, 297, 392, 360
-0.994896, 49, 65, 176, 128
-0.994925, 321, 113, 352, 240
-0.995017, 177, 145, 304, 208
-0.995084, 1, 113, 128, 176
-0.995097, 257, 209, 320, 272
-0.995125, 289, 313, 416, 375
-0.995191, 269, 145, 300, 208
-0.995228, 361, 113, 392, 240
-0.995229, 1, 113, 64, 240
-0.995258, 365, 137, 380, 200
-0.995281, 369, 9, 496, 72
-0.995313, 193, 137, 224, 200
-0.995339, 233, 57, 296, 120
-0.995376, 233, 193, 296, 256
-0.995399, 129, 1, 192, 375
-0.9954, 353, 1, 416, 375
-0.995415, 273, 113, 336, 176
-0.995425, 233, 33, 296, 288
-0.995437, 213, 121, 244, 184
-0.99545, 409, 129, 472, 256
-0.995485, 429, 49, 460, 176
-0.995502, 397, 177, 428, 240
-0.995515, 73, 1, 136, 375
-0.995537, 321, 129, 384, 375
-0.995549, 213, 113, 244, 240
-0.995568, 33, 257, 96, 320
-0.995586, 209, 41, 272, 104
-0.995616, 249, 81, 280, 208
-0.995616, 113, 33, 176, 160
-0.995653, 281, 145, 312, 208
-0.995658, 437, 81, 468, 144
-0.995671, 353, 1, 416, 256
-0.995703, 237, 49, 268, 176
-0.995715, 241, 241, 304, 304
-0.995722, 137, 65, 168, 192
-0.995763, 125, 121, 156, 184
-0.995765, 65, 233, 128, 296
-0.99577, 321, 217, 448, 280
-0.995777, 301, 305, 332, 368
-0.995806, 225, 257, 256, 320
-0.995807, 257, 201, 384, 264
-0.995835, 337, 297, 464, 360
-0.995844, 193, 225, 320, 288
-0.995853, 149, 81, 180, 208
-0.995872, 49, 81, 112, 208
-0.99588, 265, 265, 296, 328
-0.995914, 121, 257, 184, 320
-0.995936, 237, 89, 268, 152
-0.995941, 321, 193, 448, 256
-0.995949, 225, 145, 480, 208
-0.995961, 333, 241, 364, 304
-0.995966, 371, 137, 386, 200
-0.995981, 173, 97, 204, 224
-0.996005, 129, 201, 256, 264
-0.99602, 161, 1, 224, 375
-0.996026, 359, 137, 374, 200
-0.996035, 145, 169, 272, 232
-0.996038, 229, 193, 260, 256
-0.99605, 97, 1, 160, 375
-0.996115, 241, 265, 272, 328
-0.996142, 329, 1, 392, 375
-0.996148, 297, 113, 360, 176
-0.996158, 73, 65, 136, 128
-0.996232, 309, 257, 340, 320
-0.996294, 1, 89, 500, 152
-0.996299, 49, 265, 176, 328
-0.996302, 305, 1, 368, 375
-0.996322, 209, 73, 272, 136
-0.996341, 1, 161, 128, 288
-0.996352, 1, 193, 128, 256
-0.996363, 65, 113, 192, 176
-0.996373, 125, 97, 156, 160
-0.996375, 105, 121, 168, 184
-0.99643, 247, 105, 262, 168
-0.996439, 1, 233, 128, 296
-0.99644, 161, 129, 192, 192
-0.996491, 209, 1, 272, 256
-0.996507, 233, 81, 296, 144
-0.996519, 337, 133, 464, 164
-0.996524, 345, 161, 376, 288
-0.996585, 65, 65, 128, 320
-0.996586, 383, 137, 398, 200
-0.99661, 161, 121, 416, 184
-0.996633, 229, 193, 260, 320
-0.996656, 205, 249, 236, 312
-0.996677, 377, 137, 392, 200
-0.996701, 225, 169, 480, 232
-0.996728, 161, 133, 288, 164
-0.996743, 81, 217, 208, 280
-0.996758, 145, 249, 208, 312
-0.996761, 329, 145, 344, 208
-0.996798, 257, 113, 500, 176
-0.996819, 129, 225, 256, 288
-0.996823, 245, 137, 276, 200
-0.996825, 257, 289, 288, 352
-0.996833, 49, 1, 112, 375
-0.996836, 25, 97, 88, 352
-0.996848, 353, 153, 368, 216
-0.99689, 225, 145, 352, 176
-0.996893, 337, 145, 464, 176
-0.996951, 265, 209, 296, 336
-0.996964, 433, 161, 464, 224
-0.996965, 185, 145, 248, 208
-0.996968, 193, 281, 256, 344
-0.996972, 185, 1, 248, 375
-0.996977, 129, 297, 384, 360
-0.997022, 369, 113, 400, 176
-0.997047, 1, 33, 256, 160
-0.997049, 89, 65, 152, 320
-0.997055, 113, 97, 144, 160
-0.997104, 329, 241, 392, 368
-0.997131, 113, 81, 144, 208
-0.997152, 1, 105, 256, 168
-0.997154, 323, 145, 338, 208
-0.997154, 113, 81, 240, 144
-0.997165, 385, 161, 416, 224
-0.997178, 317, 161, 348, 288
-0.997182, 257, 313, 320, 375
-0.997183, 273, 1, 336, 375
-0.997186, 145, 121, 272, 152
-0.9972, 153, 49, 216, 176
-0.997221, 353, 185, 416, 248
-0.997229, 129, 273, 384, 336
-0.997237, 285, 209, 316, 336
-0.997263, 177, 145, 208, 208
-0.997274, 1, 113, 64, 176
-0.997281, 439, 105, 454, 168
-0.997308, 429, 121, 444, 184
-0.99731, 1, 269, 128, 300
-0.99732, 273, 149, 400, 180
-0.997336, 209, 201, 272, 264
-0.997346, 129, 145, 384, 208
-0.997383, 65, 137, 192, 200
-0.997449, 253, 121, 268, 184
-0.997454, 421, 161, 436, 224
-0.997455, 257, 133, 384, 164
-0.997466, 335, 145, 350, 208
-0.997478, 33, 105, 96, 168
-0.997491, 137, 121, 168, 184
-0.997503, 409, 1, 472, 128
-0.99751, 1, 1, 64, 375
-0.997512, 281, 177, 344, 304
-0.997522, 457, 89, 472, 152
-0.997523, 1, 265, 256, 328
-0.997534, 413, 97, 444, 160
-0.997563, 317, 137, 332, 200
-0.997566, 419, 121, 434, 184
-0.997568, 209, 17, 272, 80
-0.997577, 197, 113, 228, 176
-0.9976, 375, 161, 390, 224
-0.997622, 321, 33, 448, 160
-0.997639, 347, 145, 362, 208
-0.997644, 413, 121, 428, 184
-0.997657, 89, 233, 152, 296
-0.997665, 1, 281, 128, 344
-0.997683, 333, 297, 348, 360
-0.997692, 445, 105, 460, 168
-0.997713, 485, 73, 500, 136
-0.997721, 389, 137, 404, 200
-0.997754, 425, 185, 456, 248
-0.997755, 129, 313, 256, 375
-0.997785, 341, 145, 356, 208
-0.9978, 57, 89, 120, 152
-0.997813, 291, 281, 306, 344
-0.997814, 413, 177, 428, 240
-0.997816, 463, 81, 478, 144
-0.997827, 337, 113, 368, 240
-0.997835, 177, 297, 304, 328
-0.997863, 257, 73, 500, 136
-0.997888, 397, 153, 428, 216
-0.997896, 49, 269, 176, 300
-0.997898, 251, 49, 266, 112
-0.997902, 313, 33, 376, 288
-0.997965, 185, 113, 216, 176
-0.997965, 311, 137, 326, 200
-0.997983, 81, 121, 208, 152
-0.997988, 247, 81, 262, 144
-0.997989, 237, 185, 252, 248
-0.99799, 241, 293, 368, 324
-0.99799, 277, 121, 308, 184
-0.998011, 265, 137, 280, 200
-0.998013, 305, 281, 320, 344
-0.998023, 421, 153, 452, 216
-0.998025, 141, 73, 172, 136
-0.998034, 373, 81, 404, 208
-0.998037, 185, 129, 216, 256
-0.998053, 451, 97, 466, 160
-0.998053, 161, 249, 416, 312
-0.998059, 237, 121, 252, 184
-0.998069, 369, 121, 496, 152
-0.998073, 97, 269, 224, 300
-0.998077, 469, 49, 500, 112
-0.998078, 469, 81, 484, 144
-0.998083, 137, 121, 152, 184
-0.998084, 317, 169, 348, 232
-0.998098, 479, 73, 494, 136
-0.998106, 395, 129, 410, 192
-0.99812, 259, 137, 274, 200
-0.998133, 65, 101, 192, 132
-0.998143, 329, 273, 344, 336
-0.998145, 185, 193, 248, 320
-0.998169, 25, 1, 88, 375
-0.998174, 401, 129, 416, 192
-0.998187, 225, 277, 352, 308
-0.998196, 233, 25, 296, 88
-0.998216, 177, 265, 304, 296
-0.998222, 177, 97, 240, 160
-0.99823, 101, 279, 132, 294
-0.99823, 373, 135, 404, 150
-0.998231, 417, 123, 448, 138
-0.998232, 141, 87, 172, 102
-0.998232, 245, 99, 276, 114
-0.998232, 245, 93, 276, 108
-0.998233, 221, 275, 252, 290
-0.998233, 129, 95, 160, 110
-0.998233, 289, 197, 320, 212
-0.998234, 241, 123, 272, 138
-0.998235, 385, 187, 416, 202
-0.998236, 361, 243, 392, 258
-0.998237, 317, 323, 348, 338
-0.998237, 173, 125, 204, 140
-0.998237, 213, 125, 244, 140
-0.998237, 161, 101, 192, 116
-0.998238, 1, 129, 500, 192
-0.998238, 317, 311, 348, 326
-0.998239, 377, 167, 408, 182
-0.99824, 177, 271, 208, 286
-0.998242, 141, 273, 172, 288
-0.998243, 173, 147, 204, 162
-0.998245, 277, 149, 308, 164
-0.998245, 53, 271, 84, 286
-0.998245, 141, 101, 172, 116
-0.998246, 441, 87, 472, 102
-0.998247, 149, 93, 180, 108
-0.998247, 429, 185, 444, 248
-0.99825, 245, 57, 276, 72
-0.998251, 41, 271, 72, 286
-0.998251, 329, 329, 360, 344
-0.998252, 233, 281, 264, 296
-0.998252, 285, 287, 316, 302
-0.998252, 409, 135, 440, 150
-0.998252, 193, 147, 224, 162
-0.998253, 317, 289, 348, 304
-0.998253, 225, 289, 256, 304
-0.998253, 449, 105, 480, 120
-0.998254, 303, 137, 318, 200
-0.998255, 237, 109, 268, 124
-0.998255, 349, 173, 380, 188
-0.998256, 237, 129, 268, 144
-0.998256, 247, 129, 262, 192
-0.998257, 421, 187, 452, 202
-0.998257, 409, 181, 440, 196
-0.998257, 437, 101, 468, 116
-0.998257, 161, 119, 192, 134
-0.998258, 285, 279, 316, 294
-0.998258, 265, 191, 296, 206
-0.998258, 65, 241, 320, 304
-0.998258, 145, 131, 176, 146
-0.99826, 433, 187, 464, 202
-0.99826, 161, 273, 192, 288
-0.99826, 277, 141, 308, 156
-0.998261, 329, 153, 360, 168
-0.998261, 73, 271, 104, 286
-0.998261, 225, 127, 256, 142
-0.998262, 237, 137, 268, 152
-0.998262, 373, 193, 404, 208
-0.998262, 253, 293, 284, 308
-0.998263, 321, 169, 352, 184
-0.998264, 345, 247, 376, 262
-0.998264, 149, 107, 180, 122
-0.998265, 127, 97, 142, 160
-0.998266, 297, 315, 328, 330
-0.998267, 285, 311, 316, 326
-0.998269, 337, 241, 464, 304
-0.998269, 85, 273, 116, 288
-0.998269, 113, 279, 144, 294
-0.99827, 241, 201, 272, 216
-0.998273, 29, 271, 60, 286
-0.998276, 385, 137, 416, 152
-0.998277, 289, 147, 320, 162
-0.998277, 229, 121, 260, 136
-0.998278, 421, 201, 452, 216
-0.998278, 181, 133, 212, 148
-0.998278, 161, 105, 176, 168
-0.99828, 433, 125, 464, 140
-0.99828, 153, 145, 216, 272
-0.99828, 273, 291, 304, 306
-0.998281, 453, 95, 484, 110
-0.998281, 265, 197, 296, 212
-0.998283, 237, 115, 268, 130
-0.998288, 221, 281, 252, 296
-0.998289, 317, 149, 348, 164
-0.998289, 161, 133, 192, 148
-0.99829, 437, 119, 468, 134
-0.99829, 1, 271, 32, 286
-0.99829, 321, 305, 352, 320
-0.998291, 121, 135, 152, 150
-0.998292, 385, 199, 416, 214
-0.998292, 249, 145, 280, 160
-0.998293, 297, 281, 312, 344
-0.998293, 13, 271, 44, 286
-0.998294, 297, 299, 328, 314
-0.998295, 269, 301, 300, 316
-0.998298, 369, 161, 384, 224
-0.998299, 397, 187, 428, 202
-0.9983, 233, 169, 296, 232
-0.9983, 305, 309, 336, 324
-0.998301, 181, 139, 212, 154
-0.998302, 113, 271, 144, 286
-0.998302, 333, 145, 364, 160
-0.998302, 265, 61, 296, 76
-0.998302, 229, 195, 260, 210
-0.998304, 337, 201, 464, 232
-0.998305, 285, 293, 316, 308
-0.998307, 297, 289, 328, 304
-0.998307, 149, 123, 180, 138
-0.998308, 353, 149, 384, 164
-0.998309, 321, 233, 352, 296
-0.998309, 229, 201, 260, 216
-0.998309, 313, 299, 344, 314
-0.998311, 241, 193, 272, 208
-0.998313, 241, 287, 272, 302
-0.998313, 337, 249, 352, 312
-0.998314, 245, 97, 276, 352
-0.998314, 133, 133, 164, 148
-0.998316, 413, 129, 444, 144
-0.998316, 341, 151, 372, 166
-0.998318, 161, 125, 192, 140
-0.998318, 469, 83, 500, 98
-0.99832, 349, 241, 380, 256
-0.99832, 279, 145, 294, 208
-0.998321, 277, 199, 308, 214
-0.998322, 397, 199, 428, 214
-0.998327, 253, 63, 284, 78
-0.998328, 97, 161, 224, 288
-0.998331, 97, 273, 128, 288
-0.998332, 333, 241, 364, 256
-0.998333, 373, 141, 404, 156
-0.998333, 441, 111, 472, 126
-0.998342, 461, 89, 492, 104
-0.998342, 333, 297, 364, 360
-0.998346, 443, 109, 458, 140
-0.998347, 365, 169, 396, 184
-0.998348, 397, 133, 428, 148
-0.998349, 333, 167, 364, 182
-0.99835, 121, 233, 184, 296
-0.998352, 369, 189, 496, 220
-0.998352, 1, 97, 64, 352
-0.998353, 261, 145, 292, 160
-0.998354, 409, 199, 440, 214
-0.998355, 385, 193, 416, 208
-0.998356, 125, 141, 156, 156
-0.998363, 133, 127, 164, 142
-0.998364, 241, 97, 256, 160
-0.998365, 301, 145, 332, 160
-0.998365, 283, 273, 298, 336
-0.998366, 407, 177, 422, 240
-0.998369, 313, 297, 328, 360
-0.998372, 243, 193, 258, 256
-0.998375, 81, 177, 208, 240
-0.998375, 409, 187, 440, 202
-0.998376, 361, 141, 392, 156
-0.998381, 425, 193, 456, 208
-0.998384, 285, 145, 300, 208
-0.998385, 349, 167, 380, 182
-0.998388, 369, 73, 496, 104
-0.998388, 253, 145, 268, 208
-0.998402, 271, 137, 286, 200
-0.998403, 293, 145, 308, 208
-0.998423, 113, 133, 240, 164
-0.998426, 97, 289, 224, 352
-0.998429, 147, 97, 162, 160
-0.998431, 363, 161, 378, 224
-0.998432, 225, 97, 256, 352
-0.998434, 397, 193, 428, 208
-0.998442, 353, 101, 480, 132
-0.998444, 433, 121, 448, 152
-0.998445, 65, 17, 192, 144
-0.998446, 139, 97, 154, 160
-0.998448, 225, 129, 256, 192
-0.998451, 353, 129, 368, 192
-0.998453, 361, 161, 392, 288
-0.998457, 173, 117, 188, 148
-0.998465, 447, 73, 462, 136
-0.998471, 411, 153, 426, 216
-0.998475, 413, 193, 444, 208
-0.998481, 1, 65, 500, 128
-0.998482, 459, 89, 474, 120
-0.998484, 201, 121, 216, 184
-0.998487, 249, 133, 264, 164
-0.998497, 355, 149, 370, 180
-0.9985, 215, 121, 230, 184
-0.998506, 173, 113, 188, 176
-0.998506, 229, 265, 244, 328
-0.998508, 333, 305, 348, 336
-0.998511, 135, 125, 150, 156
-0.998513, 289, 245, 416, 276
-0.998515, 271, 289, 286, 352
-0.998516, 407, 121, 422, 184
-0.998521, 195, 137, 210, 200
-0.998523, 409, 185, 424, 216
-0.998526, 225, 273, 480, 336
-0.998528, 247, 117, 262, 148
-0.998543, 305, 129, 336, 375
-0.998548, 343, 225, 358, 288
-0.998552, 33, 129, 288, 192
-0.998553, 1, 65, 128, 128
-0.998563, 337, 225, 352, 288
-0.99857, 377, 193, 440, 208
-0.998578, 453, 97, 468, 128
-0.99859, 281, 147, 344, 162
-0.998592, 427, 129, 442, 160
-0.998601, 257, 193, 500, 256
-0.998603, 167, 105, 182, 168
-0.998603, 345, 225, 376, 288
-0.998608, 321, 169, 384, 184
-0.99861, 177, 285, 304, 316
-0.998614, 353, 143, 416, 158
-0.998615, 279, 193, 294, 256
-0.99862, 289, 305, 320, 368
-0.998621, 289, 313, 416, 344
-0.998624, 129, 129, 144, 192
-0.99863, 385, 133, 448, 148
-0.99863, 361, 141, 376, 172
-0.998632, 285, 129, 316, 375
-0.998637, 1, 177, 256, 304
-0.998637, 401, 193, 464, 208
-0.99864, 153, 81, 216, 144
-0.998646, 245, 1, 260, 64
-0.998646, 229, 121, 244, 184
-0.998648, 129, 127, 192, 142
-0.998649, 241, 147, 304, 162
-0.99865, 73, 273, 136, 288
-0.998653, 263, 141, 278, 172
-0.998653, 137, 139, 200, 154
-0.998657, 321, 143, 384, 158
-0.998659, 257, 97, 272, 160
-0.998661, 187, 121, 202, 184
-0.998662, 305, 241, 368, 256
-0.998665, 377, 199, 440, 214
-0.998667, 221, 121, 236, 184
-0.998668, 345, 169, 408, 184
-0.998668, 233, 197, 296, 212
-0.998671, 399, 129, 414, 160
-0.998673, 153, 81, 184, 144
-0.998675, 381, 161, 396, 224
-0.998676, 377, 187, 440, 202
-0.998676, 313, 153, 376, 168
-0.998676, 257, 287, 320, 302
-0.998677, 105, 271, 168, 286
-0.998678, 289, 303, 352, 318
-0.998678, 251, 257, 266, 320
-0.998679, 169, 141, 232, 156
-0.998679, 329, 243, 392, 258
-0.998679, 249, 63, 312, 78
-0.998682, 1, 271, 64, 286
-0.998682, 1, 81, 256, 144
-0.998686, 257, 281, 272, 344
-0.998687, 393, 127, 456, 142
-0.998687, 257, 301, 320, 316
-0.998687, 137, 145, 200, 160
-0.998688, 425, 111, 488, 126
-0.998689, 137, 133, 200, 148
-0.998689, 137, 121, 200, 136
-0.998695, 339, 237, 354, 268
-0.998699, 345, 149, 408, 164
-0.998699, 311, 273, 326, 336
-0.9987, 425, 123, 488, 138
-0.9987, 209, 201, 336, 232
-0.9987, 41, 271, 104, 286
-0.9987, 217, 143, 280, 158
-0.998702, 401, 201, 464, 216
-0.998702, 169, 121, 232, 136
-0.998703, 257, 295, 320, 310
-0.998703, 253, 145, 268, 176
-0.998704, 389, 177, 404, 240
-0.998705, 89, 279, 152, 294
-0.998705, 185, 147, 248, 162
-0.998705, 233, 289, 296, 304
-0.998706, 321, 163, 384, 178
-0.998706, 263, 265, 278, 328
-0.998707, 377, 139, 440, 154
-0.998708, 289, 287, 352, 302
-0.998709, 425, 117, 488, 132
-0.998711, 433, 65, 464, 320
-0.998713, 209, 201, 272, 216
-0.998714, 145, 273, 208, 288
-0.998714, 353, 137, 416, 152
-0.998715, 287, 197, 302, 228
-0.998715, 319, 297, 334, 360
-0.998716, 201, 131, 264, 146
-0.998717, 421, 97, 452, 352
-0.998717, 193, 291, 256, 306
-0.998717, 289, 317, 352, 332
-0.998719, 367, 113, 382, 176
-0.99872, 97, 127, 160, 142
-0.998721, 401, 187, 464, 202
-0.998721, 273, 311, 336, 326
-0.998722, 249, 281, 312, 296
-0.998723, 353, 193, 416, 208
-0.998726, 349, 153, 364, 184
-0.998727, 169, 135, 232, 150
-0.998727, 297, 309, 360, 324
-0.998728, 121, 95, 184, 110
-0.998728, 409, 99, 472, 114
-0.998728, 289, 297, 352, 312
-0.998729, 265, 141, 328, 156
-0.99873, 193, 281, 256, 296
-0.998731, 273, 199, 336, 214
-0.998731, 193, 275, 256, 290
-0.998731, 185, 267, 248, 282
-0.998731, 419, 129, 434, 160
-0.998734, 305, 323, 368, 338
-0.998734, 465, 85, 480, 116
-0.998734, 233, 57, 296, 72
-0.998736, 321, 305, 384, 320
-0.998736, 161, 129, 224, 144
-0.998736, 205, 97, 236, 352
-0.998736, 113, 279, 176, 294
-0.998737, 233, 191, 296, 206
-0.998737, 485, 77, 500, 108
-0.998737, 95, 269, 110, 300
-0.998737, 273, 277, 336, 292
-0.998739, 433, 105, 496, 120
-0.998739, 121, 105, 184, 120
-0.99874, 305, 247, 368, 262
-0.99874, 369, 165, 432, 180
-0.998741, 327, 149, 342, 180
-0.998741, 433, 75, 496, 90
-0.998741, 201, 137, 264, 152
-0.998742, 313, 137, 376, 152
-0.998742, 401, 181, 464, 196
-0.998742, 251, 25, 266, 88
-0.998742, 431, 161, 446, 224
-0.998745, 193, 125, 256, 140
-0.998746, 297, 281, 360, 296
-0.998747, 417, 81, 480, 96
-0.998748, 97, 141, 160, 156
-0.998749, 73, 221, 136, 236
-0.99875, 187, 153, 202, 216
-0.99875, 97, 135, 160, 150
-0.99875, 409, 87, 472, 102
-0.998751, 297, 169, 360, 184
-0.998751, 225, 295, 288, 310
-0.998752, 385, 119, 448, 134
-0.998752, 179, 121, 194, 184
-0.998752, 349, 225, 364, 288
-0.998754, 289, 153, 352, 168
-0.998754, 345, 163, 408, 178
-0.998754, 305, 329, 368, 344
-0.998754, 353, 199, 416, 214
-0.998755, 241, 321, 368, 352
-0.998755, 401, 177, 416, 240
-0.998756, 113, 85, 176, 100
-0.998756, 425, 189, 488, 204
-0.998757, 423, 185, 438, 248
-0.998757, 433, 89, 496, 104
-0.998757, 217, 265, 280, 280
-0.998758, 417, 129, 480, 144
-0.998758, 241, 203, 304, 218
-0.998759, 1, 279, 64, 294
-0.99876, 49, 81, 176, 112
-0.99876, 375, 137, 390, 168
-0.99876, 425, 97, 440, 160
-0.99876, 241, 269, 304, 284
-0.998761, 353, 177, 416, 192
-0.998761, 425, 195, 488, 210
-0.998761, 153, 283, 216, 298
-0.998762, 161, 151, 224, 166
-0.998762, 233, 275, 296, 290
-0.998762, 209, 149, 272, 164
-0.998762, 241, 141, 304, 156
-0.998762, 193, 261, 256, 276
-0.998764, 129, 115, 192, 130
-0.998764, 177, 145, 304, 176
-0.998764, 393, 113, 456, 128
-0.998765, 409, 105, 472, 120
-0.998767, 161, 115, 224, 130
-0.998768, 257, 129, 288, 375
-0.998768, 369, 171, 432, 186
-0.998768, 273, 325, 336, 340
-0.998769, 233, 301, 296, 316
-0.998769, 169, 273, 232, 288
-0.99877, 57, 279, 120, 294
-0.99877, 233, 69, 296, 84
-0.998771, 265, 57, 328, 72
-0.998771, 193, 195, 256, 210
-0.998774, 329, 237, 392, 252
-0.998774, 225, 283, 288, 298
-0.998774, 243, 129, 258, 160
-0.998774, 225, 63, 288, 78
-0.998775, 153, 101, 216, 116
-0.998776, 49, 225, 112, 240
-0.998776, 65, 267, 128, 282
-0.998777, 409, 93, 472, 108
-0.998777, 265, 205, 328, 220
-0.998779, 381, 113, 396, 176
-0.998779, 191, 257, 206, 320
-0.99878, 97, 57, 224, 120
-0.998782, 129, 129, 144, 160
-0.998784, 321, 25, 448, 88
-0.998784, 209, 209, 240, 336
-0.998787, 281, 197, 296, 228
-0.998788, 401, 105, 432, 168
-0.998788, 441, 81, 456, 144
-0.998788, 329, 289, 344, 320
-0.99879, 477, 81, 492, 112
-0.998791, 327, 305, 342, 368
-0.998795, 433, 169, 496, 232
-0.998801, 307, 305, 322, 368
-0.998804, 483, 49, 498, 112
-0.998804, 177, 273, 208, 336
-0.998808, 323, 265, 338, 328
-0.998809, 227, 273, 242, 304
-0.998811, 335, 153, 350, 184
-0.998813, 339, 297, 354, 360
-0.99882, 383, 141, 398, 172
-0.99882, 225, 305, 352, 336
-0.998822, 413, 129, 428, 160
-0.998822, 257, 129, 272, 160
-0.998823, 253, 73, 268, 136
-0.998826, 385, 97, 416, 352
-0.998826, 17, 269, 32, 300
-0.998832, 307, 293, 322, 324
-0.998833, 161, 193, 288, 224
-0.998833, 369, 89, 496, 120
-0.998834, 407, 129, 422, 160
-0.998836, 397, 97, 428, 352
-0.998836, 161, 81, 176, 144
-0.998836, 289, 301, 416, 332
-0.998839, 133, 97, 148, 160
-0.99884, 129, 257, 256, 288
-0.998842, 323, 121, 338, 184
-0.998843, 471, 81, 486, 112
-0.998848, 249, 185, 264, 248
-0.998848, 289, 289, 416, 320
-0.99885, 311, 141, 326, 172
-0.998851, 185, 81, 216, 208
-0.998852, 309, 277, 324, 308
-0.998854, 17, 257, 48, 320
-0.998856, 367, 141, 382, 172
-0.998861, 241, 257, 256, 320
-0.998869, 235, 277, 250, 308
-0.99887, 161, 93, 176, 124
-0.99887, 393, 133, 408, 164
-0.998872, 1, 169, 128, 232
-0.998878, 415, 185, 430, 216
-0.998886, 39, 269, 54, 300
-0.998886, 11, 257, 26, 320
-0.998887, 71, 269, 86, 300
-0.998888, 271, 145, 286, 176
-0.998889, 277, 297, 292, 360
-0.998891, 427, 185, 442, 216
-0.998893, 421, 185, 436, 216
-0.998897, 209, 241, 336, 272
-0.998897, 177, 129, 192, 160
-0.998899, 241, 73, 256, 136
-0.998904, 167, 113, 182, 144
-0.998904, 247, 93, 262, 124
-0.998906, 401, 193, 416, 224
-0.998908, 85, 269, 100, 300
-0.998909, 209, 133, 336, 164
-0.998911, 23, 269, 38, 300
-0.998911, 63, 269, 78, 300
-0.998916, 369, 161, 496, 192
-0.99892, 409, 97, 440, 352
-0.99892, 319, 145, 334, 176
-0.998921, 119, 269, 134, 300
-0.998923, 321, 189, 448, 220
-0.998923, 97, 281, 224, 312
-0.998924, 155, 81, 170, 144
-0.998924, 245, 49, 260, 112
-0.998924, 433, 89, 448, 152
-0.998926, 453, 65, 484, 320
-0.998927, 329, 121, 344, 184
-0.998927, 33, 269, 48, 300
-0.998928, 301, 145, 316, 176
-0.99893, 207, 113, 222, 176
-0.998935, 275, 297, 290, 328
-0.998939, 313, 121, 344, 184
-0.99894, 337, 241, 464, 368
-0.998941, 473, 57, 488, 120
-0.998943, 77, 269, 92, 300
-0.998944, 17, 257, 32, 320
-0.998948, 251, 281, 266, 312
-0.998949, 113, 145, 240, 176
-0.998952, 257, 257, 384, 288
-0.998956, 49, 269, 64, 300
-0.998959, 233, 1, 296, 64
-0.998961, 437, 109, 452, 140
-0.998965, 289, 277, 304, 308
-0.998966, 301, 297, 316, 328
-0.998967, 327, 277, 342, 308
-0.998972, 295, 145, 310, 176
-0.998972, 161, 217, 416, 280
-0.998973, 449, 109, 464, 140
-0.998976, 249, 81, 264, 112
-0.998979, 337, 177, 464, 208
-0.99898, 247, 105, 262, 136
-0.998982, 161, 109, 176, 140
-0.998982, 195, 113, 210, 176
-0.998983, 285, 193, 300, 256
-0.998983, 257, 229, 384, 260
-0.998983, 373, 129, 404, 375
-0.998985, 57, 269, 72, 300
-0.998985, 313, 249, 328, 312
-0.998986, 341, 153, 356, 184
-0.998988, 187, 133, 202, 164
-0.998991, 455, 65, 470, 128
-0.998992, 313, 297, 328, 328
-0.998992, 199, 265, 214, 328
-0.998997, 313, 309, 328, 340
-0.998997, 277, 265, 292, 328
-0.998998, 145, 105, 272, 136
-0.998999, 177, 177, 240, 240
-0.999, 11, 269, 26, 300
-0.999, 101, 273, 116, 304
-0.999014, 33, 233, 96, 296
-0.999017, 251, 61, 266, 92
-0.999022, 279, 149, 294, 180
-0.999023, 321, 113, 448, 144
-0.999023, 469, 1, 500, 256
-0.999025, 171, 101, 186, 132
-0.999027, 125, 269, 140, 300
-0.999029, 273, 129, 304, 375
-0.999038, 1, 113, 128, 144
-0.99904, 177, 253, 304, 284
-0.999045, 237, 125, 252, 156
-0.999046, 153, 209, 216, 272
-0.99905, 141, 125, 156, 156
-0.999051, 135, 269, 150, 300
-0.999051, 323, 309, 338, 340
-0.999056, 285, 149, 300, 180
-0.999058, 447, 97, 462, 128
-0.999059, 151, 85, 166, 116
-0.999062, 285, 289, 300, 320
-0.999063, 347, 241, 362, 272
-0.999066, 201, 137, 216, 168
-0.999071, 81, 313, 208, 375
-0.999072, 125, 141, 140, 172
-0.999074, 109, 269, 124, 300
-0.999082, 329, 317, 344, 348
-0.999082, 297, 201, 360, 264
-0.999084, 297, 281, 312, 312
-0.999088, 259, 289, 274, 320
-0.999093, 155, 105, 170, 136
-0.999094, 253, 109, 268, 140
-0.999098, 3, 265, 18, 296
-0.9991, 161, 1, 224, 256
-0.999103, 317, 241, 348, 368
-0.999115, 303, 309, 318, 340
-0.99912, 337, 241, 464, 272
-0.99912, 171, 129, 186, 160
-0.999122, 255, 49, 270, 80
-0.999123, 275, 193, 290, 224
-0.999123, 395, 193, 410, 224
-0.999136, 177, 309, 304, 340
-0.999138, 139, 137, 154, 168
-0.999141, 161, 97, 416, 160
-0.999149, 195, 141, 210, 172
-0.999149, 387, 193, 402, 224
-0.999151, 161, 121, 176, 152
-0.999153, 323, 321, 338, 352
-0.999154, 387, 129, 402, 160
-0.999159, 403, 181, 418, 212
-0.99916, 81, 257, 208, 288
-0.999162, 315, 277, 330, 308
-0.999163, 427, 113, 442, 144
-0.999167, 261, 81, 292, 208
-0.999168, 269, 293, 284, 324
-0.999169, 133, 141, 148, 172
-0.999169, 237, 193, 252, 224
-0.999176, 283, 301, 298, 332
-0.99918, 185, 269, 200, 300
-0.999187, 65, 137, 192, 168
-0.999189, 241, 277, 256, 308
-0.999192, 329, 169, 360, 232
-0.999194, 161, 97, 192, 352
-0.999194, 335, 317, 350, 348
-0.999195, 339, 301, 354, 332
-0.999198, 257, 297, 500, 360
-0.999198, 179, 117, 194, 148
-0.9992, 191, 269, 206, 300
-0.999202, 171, 269, 186, 300
-0.999206, 219, 121, 234, 152
-0.999219, 353, 17, 480, 48
-0.999224, 17, 257, 144, 288
-0.999225, 337, 129, 368, 375
-0.999238, 1, 281, 64, 344
-0.999261, 225, 65, 256, 192
-0.999261, 257, 241, 500, 304
-0.999262, 417, 1, 448, 256
-0.999268, 145, 65, 176, 320
-0.99929, 1, 281, 128, 312
-0.999291, 405, 65, 436, 192
-0.999296, 337, 273, 400, 336
-0.9993, 245, 1, 276, 256
-0.999301, 431, 113, 446, 240
-0.999301, 337, 229, 464, 260
-0.999312, 317, 129, 348, 375
-0.999327, 1, 205, 128, 236
-0.999331, 441, 97, 456, 224
-0.99935, 289, 337, 416, 368
-0.999369, 113, 209, 240, 240
-0.999373, 49, 281, 176, 312
-0.999375, 249, 81, 264, 208
-0.999376, 297, 81, 328, 208
-0.999391, 125, 81, 156, 208
-0.9994, 209, 229, 336, 260
-0.999413, 113, 89, 240, 120
-0.999415, 385, 129, 400, 256
-0.999419, 287, 129, 302, 256
-0.999419, 275, 129, 290, 256
-0.999428, 1, 93, 128, 124
-0.999438, 49, 97, 80, 224
-0.999451, 393, 65, 424, 192
-0.999451, 257, 33, 320, 288
-0.999457, 17, 81, 80, 144
-0.999457, 289, 1, 416, 64
-0.999461, 193, 129, 224, 375
-0.999464, 425, 113, 440, 240
-0.999475, 291, 149, 306, 164
-0.999475, 141, 133, 156, 148
-0.999475, 117, 279, 132, 294
-0.999477, 247, 113, 262, 128
-0.999477, 163, 273, 178, 288
-0.999477, 447, 97, 462, 224
-0.999478, 245, 201, 260, 216
-0.999478, 291, 293, 306, 308
-0.999478, 309, 291, 324, 306
-0.999478, 235, 127, 250, 142
-0.999478, 275, 203, 290, 218
-0.999479, 401, 113, 416, 240
-0.999479, 181, 129, 212, 375
-0.999479, 279, 209, 294, 224
-0.99948, 309, 305, 324, 320
-0.99948, 369, 29, 496, 60
-0.99948, 247, 99, 262, 114
-0.999481, 23, 271, 38, 286
-0.999481, 149, 127, 164, 142
-0.999481, 247, 93, 262, 108
-0.999482, 297, 147, 312, 162
-0.999482, 253, 265, 284, 328
-0.999482, 229, 283, 244, 298
-0.999483, 95, 273, 110, 288
-0.999483, 165, 113, 180, 128
-0.999483, 257, 137, 272, 152
-0.999484, 279, 151, 294, 166
-0.999484, 277, 59, 292, 74
-0.999484, 393, 135, 408, 150
-0.999484, 187, 145, 202, 160
-0.999485, 159, 95, 174, 110
-0.999485, 453, 109, 468, 124
-0.999485, 387, 199, 402, 214
-0.999485, 177, 131, 192, 146
-0.999485, 273, 277, 400, 308
-0.999485, 319, 147, 334, 162
-0.999486, 311, 299, 326, 314
-0.999486, 209, 189, 336, 220
-0.999486, 409, 133, 424, 148
-0.999486, 33, 271, 48, 286
-0.999487, 243, 119, 258, 134
-0.999487, 243, 137, 258, 152
-0.999489, 289, 287, 304, 302
-0.999489, 251, 69, 266, 84
-0.99949, 455, 103, 470, 118
-0.99949, 403, 199, 418, 214
-0.999491, 363, 173, 378, 188
-0.999491, 337, 167, 352, 182
-0.999491, 251, 61, 266, 76
-0.999491, 413, 181, 428, 196
-0.999492, 421, 129, 436, 144
-0.999492, 383, 141, 398, 156
-0.999492, 343, 167, 358, 182
-0.999493, 161, 217, 288, 248
-0.999493, 39, 271, 54, 286
-0.999493, 165, 99, 180, 114
-0.999494, 9, 271, 24, 286
-0.999494, 413, 113, 428, 240
-0.999495, 349, 153, 364, 168
-0.999496, 325, 149, 340, 164
-0.999496, 441, 117, 456, 132
-0.999497, 243, 143, 258, 158
-0.999497, 15, 271, 30, 286
-0.999498, 457, 81, 472, 208
-0.999498, 237, 113, 252, 240
-0.999498, 101, 273, 116, 288
-0.999499, 237, 287, 252, 302
-0.9995, 297, 287, 312, 302
-0.9995, 1, 271, 16, 286
-0.9995, 303, 145, 318, 160
-0.999501, 419, 113, 434, 240
-0.999501, 461, 1, 492, 64
-0.999501, 311, 145, 326, 160
-0.999501, 411, 201, 426, 216
-0.999501, 421, 201, 436, 216
-0.999501, 337, 305, 352, 320
-0.999501, 163, 125, 178, 140
-0.999502, 247, 87, 262, 102
-0.999502, 237, 281, 252, 296
-0.999502, 427, 187, 442, 202
-0.999502, 265, 61, 280, 76
-0.999502, 69, 65, 100, 192
-0.999503, 435, 187, 450, 202
-0.999504, 399, 131, 414, 146
-0.999505, 269, 145, 284, 160
-0.999506, 327, 297, 342, 312
-0.999507, 289, 281, 304, 296
-0.999508, 369, 141, 384, 156
-0.999508, 485, 79, 500, 94
-0.999508, 281, 203, 296, 218
-0.999509, 271, 59, 286, 74
-0.999509, 349, 241, 364, 256
-0.99951, 107, 273, 122, 288
-0.99951, 229, 277, 244, 292
-0.99951, 471, 85, 486, 100
-0.99951, 247, 127, 262, 142
-0.999511, 427, 129, 442, 144
-0.999512, 235, 201, 250, 216
-0.999513, 327, 169, 342, 184
-0.999514, 449, 103, 464, 118
-0.999514, 405, 187, 420, 202
-0.999515, 193, 233, 256, 296
-0.999515, 395, 113, 410, 240
-0.999516, 433, 193, 448, 208
-0.999516, 331, 153, 346, 168
-0.999516, 253, 149, 268, 164
-0.999516, 117, 271, 132, 286
-0.999517, 385, 1, 416, 256
-0.999517, 427, 199, 442, 214
-0.999518, 137, 127, 152, 142
-0.999519, 355, 241, 370, 256
-0.99952, 341, 241, 356, 256
-0.999521, 249, 137, 264, 152
-0.999524, 437, 123, 452, 138
-0.999526, 477, 83, 492, 98
-0.999526, 257, 143, 272, 158
-0.999527, 135, 135, 150, 150
-0.999527, 467, 65, 482, 192
-0.999528, 273, 169, 336, 232
-0.999528, 263, 145, 278, 160
-0.99953, 457, 95, 472, 110
-0.999531, 279, 197, 294, 212
-0.999533, 243, 195, 258, 210
-0.999534, 421, 187, 436, 202
-0.999534, 397, 191, 412, 206
-0.999536, 377, 141, 392, 156
-0.999541, 305, 165, 432, 196
-0.999541, 349, 167, 364, 182
-0.999542, 355, 149, 370, 164
-0.999542, 465, 89, 480, 104
-0.999544, 137, 141, 152, 156
-0.999545, 345, 161, 360, 288
-0.999545, 171, 119, 186, 134
-0.999547, 129, 139, 144, 154
-0.999548, 411, 187, 426, 202
-0.999548, 307, 129, 322, 256
-0.99955, 299, 129, 314, 256
-0.999555, 363, 145, 378, 160
-0.999556, 393, 197, 408, 212
-0.999557, 225, 121, 352, 152
-0.999558, 331, 303, 346, 318
-0.999558, 361, 129, 392, 375
-0.99956, 355, 167, 370, 182
-0.999561, 371, 169, 386, 184
-0.999562, 337, 317, 464, 348
-0.999562, 407, 113, 422, 240
-0.999565, 257, 197, 384, 228
-0.999566, 237, 195, 252, 210
-0.999568, 249, 129, 264, 256
-0.999568, 369, 333, 496, 364
-0.999569, 445, 111, 460, 126
-0.99957, 473, 65, 488, 192
-0.99957, 249, 143, 264, 158
-0.999571, 379, 129, 394, 256
-0.999573, 161, 341, 288, 372
-0.999574, 281, 129, 296, 256
-0.999576, 175, 97, 190, 224
-0.999577, 229, 281, 260, 344
-0.999578, 387, 193, 402, 208
-0.999578, 269, 129, 284, 256
-0.999579, 233, 1, 264, 256
-0.999579, 363, 167, 378, 182
-0.999582, 81, 233, 208, 264
-0.999586, 355, 129, 370, 256
-0.999588, 409, 195, 424, 210
-0.999591, 339, 145, 354, 272
-0.999592, 287, 199, 302, 214
-0.999593, 243, 113, 258, 240
-0.999596, 293, 129, 308, 256
-0.999598, 279, 193, 294, 320
-0.999601, 403, 193, 418, 208
-0.999602, 481, 65, 496, 192
-0.999603, 257, 129, 272, 256
-0.999611, 81, 257, 112, 320
-0.999612, 415, 195, 430, 210
-0.99962, 421, 195, 436, 210
-0.99963, 229, 113, 244, 240
-0.999631, 161, 97, 176, 224
-0.999634, 313, 129, 328, 256
-0.999639, 177, 209, 240, 272
-0.999641, 431, 65, 446, 192
-0.999643, 333, 241, 364, 368
-0.999645, 427, 193, 442, 208
-0.999646, 373, 1, 404, 256
-0.999646, 215, 113, 230, 240
-0.999647, 373, 113, 388, 240
-0.99965, 485, 17, 500, 144
-0.999651, 367, 129, 382, 256
-0.999652, 353, 1, 480, 32
-0.999654, 389, 105, 420, 168
-0.999654, 191, 129, 206, 256
-0.999656, 467, 1, 482, 128
-0.999664, 263, 129, 278, 256
-0.999667, 161, 205, 288, 236
-0.999667, 257, 217, 384, 248
-0.99967, 33, 217, 288, 280
-0.99967, 475, 17, 490, 144
-0.999672, 441, 49, 456, 176
-0.999675, 247, 33, 262, 160
-0.999677, 241, 65, 256, 192
-0.999678, 241, 193, 256, 320
-0.999678, 221, 113, 236, 240
-0.999679, 457, 17, 472, 144
-0.999683, 201, 97, 216, 224
-0.999683, 361, 129, 376, 256
-0.99969, 329, 113, 344, 240
-0.999692, 413, 201, 444, 264
-0.999699, 17, 217, 144, 248
-0.999711, 185, 129, 200, 256
-0.999713, 127, 81, 142, 208
-0.999716, 255, 65, 270, 192
-0.999717, 397, 1, 428, 256
-0.999718, 167, 81, 182, 208
-0.999724, 137, 81, 152, 208
-0.999725, 305, 261, 432, 292
-0.99973, 321, 129, 336, 256
-0.999731, 207, 113, 222, 240
-0.999735, 113, 345, 240, 375
-0.999736, 151, 65, 166, 192
-0.999738, 433, 1, 496, 64
-0.99974, 309, 225, 324, 352
-0.99974, 1, 313, 500, 375
-0.999745, 277, 305, 308, 368
-0.999747, 65, 69, 192, 100
-0.999749, 349, 113, 364, 240
-0.999749, 187, 81, 202, 208
-0.999755, 447, 49, 462, 176
-0.999758, 421, 65, 436, 192
-0.99976, 117, 65, 148, 320
-0.999772, 285, 177, 300, 304
-0.999773, 333, 161, 348, 288
-0.999775, 385, 81, 400, 208
-0.999781, 313, 257, 376, 320
-0.999787, 339, 241, 354, 368
-0.999794, 277, 241, 292, 368
-0.999794, 273, 185, 400, 216
-0.999798, 65, 197, 192, 228
-0.999802, 373, 161, 388, 288
-0.999803, 121, 81, 136, 208
-0.999805, 33, 125, 160, 156
-0.999806, 245, 241, 276, 368
-0.999808, 235, 193, 250, 320
-0.999812, 5, 257, 36, 320
-0.999812, 229, 193, 244, 320
-0.999813, 379, 81, 394, 208
-0.999814, 341, 97, 356, 224
-0.999823, 247, 177, 262, 304
-0.999824, 61, 97, 76, 224
-0.999828, 405, 65, 420, 192
-0.999829, 5, 97, 20, 224
-0.99983, 411, 65, 426, 192
-0.99983, 311, 81, 326, 208
-0.99983, 1, 241, 500, 304
-0.99983, 97, 309, 224, 340
-0.999834, 195, 81, 210, 208
-0.999834, 353, 33, 416, 96
-0.999838, 281, 81, 312, 208
-0.999838, 229, 241, 244, 368
-0.999841, 161, 49, 176, 176
-0.999844, 261, 81, 276, 208
-0.999844, 393, 65, 408, 192
-0.999845, 49, 257, 80, 320
-0.999845, 145, 65, 160, 192
-0.999845, 243, 241, 258, 368
-0.999846, 305, 81, 320, 208
-0.999847, 49, 97, 64, 224
-0.999852, 43, 97, 58, 224
-0.999854, 299, 81, 314, 208
-0.999856, 283, 81, 298, 208
-0.999856, 55, 97, 70, 224
-0.999857, 245, 65, 276, 128
-0.999858, 323, 241, 338, 368
-0.999861, 227, 65, 242, 192
-0.999862, 367, 177, 382, 304
-0.999862, 259, 241, 274, 368
-0.999863, 327, 161, 342, 288
-0.999865, 133, 65, 164, 320
-0.999865, 97, 325, 224, 356
-0.999866, 269, 81, 284, 208
-0.999868, 13, 97, 28, 224
-0.999874, 223, 193, 238, 320
-0.999875, 181, 65, 196, 192
-0.999876, 71, 65, 86, 192
-0.999876, 293, 81, 308, 208
-0.999876, 321, 81, 336, 208
-0.999876, 301, 209, 316, 336
-0.999877, 37, 97, 52, 224
-0.99988, 19, 97, 34, 224
-0.999881, 351, 177, 366, 304
-0.999883, 275, 81, 290, 208
-0.999883, 357, 177, 372, 304
-0.999883, 367, 81, 382, 208
-0.999884, 253, 241, 268, 368
-0.999884, 31, 97, 46, 224
-0.999885, 423, 161, 438, 288
-0.999886, 25, 97, 40, 224
-0.999887, 209, 213, 336, 244
-0.999887, 111, 65, 126, 192
-0.999888, 399, 65, 414, 192
-0.99989, 37, 257, 68, 320
-0.999893, 217, 65, 232, 192
-0.999895, 53, 97, 84, 352
-0.999896, 209, 65, 224, 192
-0.999898, 97, 65, 112, 192
-0.9999, 287, 241, 302, 368
-0.999906, 335, 97, 350, 224
-0.999909, 129, 181, 256, 212
-0.99991, 105, 65, 120, 192
-0.999911, 215, 209, 230, 336
-0.999913, 361, 81, 376, 208
-0.999915, 87, 65, 102, 192
-0.999917, 97, 193, 352, 256
-0.99992, 169, 273, 232, 336
-0.999923, 1, 305, 256, 368
-0.999932, 33, 97, 64, 224
-0.999934, 305, 241, 336, 368
-0.999936, 213, 273, 244, 336
-0.999938, 17, 97, 48, 352
-0.999939, 97, 293, 224, 324
-0.999939, 1, 97, 32, 352
-0.999941, 349, 129, 380, 375
-0.999958, 257, 49, 384, 80
-0.999958, 101, 33, 132, 288
-0.999961, 65, 65, 96, 320
-0.999967, 101, 257, 132, 320
-0.999972, 17, 145, 144, 208
-0.999973, 289, 325, 416, 356
-0.999975, 129, 245, 256, 276
-0.999984, 37, 97, 68, 352
-1.00001, 229, 241, 260, 368
-1.00002, 353, 313, 416, 375
-1.00002, 17, 229, 144, 260
-1.00003, 257, 161, 384, 192
-1.00004, 321, 49, 448, 112
-1.00004, 65, 337, 192, 368
-1.00005, 369, 345, 496, 375
-1.00005, 357, 113, 388, 176
-1.00005, 161, 329, 288, 360
-1.00006, 193, 61, 320, 92
-1.00006, 1, 97, 32, 224
-1.00007, 325, 121, 356, 184
-1.00007, 289, 249, 320, 312
-1.00008, 321, 41, 448, 72
-1.00008, 269, 33, 300, 288
-1.00009, 213, 65, 244, 192
-1.0001, 145, 57, 272, 120
-1.0001, 161, 233, 288, 264
-1.00011, 113, 77, 240, 108
-1.00013, 337, 209, 400, 272
-1.00013, 225, 177, 352, 208
-1.00014, 145, 169, 272, 200
-1.00014, 317, 33, 348, 288
-1.00014, 1, 233, 64, 296
-1.00016, 257, 33, 288, 288
-1.00016, 245, 177, 276, 240
-1.00016, 245, 289, 276, 352
-1.00016, 81, 221, 208, 252
-1.00017, 361, 33, 392, 288
-1.00017, 305, 29, 432, 60
-1.00018, 337, 305, 464, 336
-1.00018, 429, 129, 460, 192
-1.00019, 85, 65, 116, 320
-1.0002, 97, 65, 160, 128
-1.0002, 177, 305, 240, 368
-1.0002, 17, 345, 144, 375
-1.00021, 409, 161, 440, 288
-1.00023, 369, 61, 496, 92
-1.00023, 65, 165, 192, 196
-1.00024, 17, 69, 144, 100
-1.00024, 33, 153, 288, 216
-1.00026, 49, 209, 176, 336
-1.00027, 197, 225, 228, 352
-1.00027, 289, 17, 416, 48
-1.00027, 321, 273, 448, 304
-1.00028, 241, 333, 368, 364
-1.00028, 289, 33, 320, 288
-1.00029, 193, 109, 320, 140
-1.0003, 145, 157, 272, 188
-1.0003, 193, 33, 224, 288
-1.0003, 349, 33, 380, 288
-1.00033, 1, 153, 500, 216
-1.00034, 165, 1, 196, 256
-1.00034, 257, 9, 500, 72
-1.00035, 457, 57, 488, 120
-1.00035, 305, 217, 432, 248
-1.00035, 273, 121, 400, 152
-1.00035, 273, 5, 400, 36
-1.00035, 129, 169, 384, 232
-1.00036, 241, 61, 368, 92
-1.00036, 321, 53, 448, 84
-1.00036, 177, 249, 208, 312
-1.00037, 257, 49, 500, 112
-1.00038, 113, 197, 240, 228
-1.00038, 369, 293, 496, 324
-1.00039, 65, 185, 192, 216
-1.00039, 213, 1, 244, 256
-1.0004, 97, 65, 352, 128
-1.0004, 173, 145, 204, 272
-1.0004, 177, 49, 304, 80
-1.00041, 409, 17, 472, 80
-1.00041, 65, 209, 192, 240
-1.00042, 177, 33, 208, 288
-1.00044, 425, 81, 456, 144
-1.00045, 1, 105, 32, 168
-1.00045, 129, 65, 160, 128
-1.00046, 1, 193, 128, 224
-1.00046, 33, 153, 160, 184
-1.00046, 469, 97, 500, 352
-1.00047, 1, 81, 128, 112
-1.00048, 209, 165, 336, 196
-1.00048, 65, 57, 192, 88
-1.00049, 117, 257, 148, 320
-1.0005, 17, 97, 48, 224
-1.00051, 41, 281, 104, 344
-1.00053, 257, 217, 500, 280
-1.00053, 1, 193, 256, 256
-1.00053, 161, 49, 192, 176
-1.00054, 225, 233, 256, 296
-1.00056, 301, 33, 332, 288
-1.00057, 61, 257, 92, 320
-1.00058, 9, 1, 40, 256
-1.00058, 241, 193, 272, 320
-1.00059, 17, 313, 144, 375
-1.00059, 261, 113, 292, 176
-1.0006, 45, 1, 76, 256
-1.00063, 161, 257, 192, 320
-1.00063, 369, 273, 496, 336
-1.00064, 193, 257, 224, 320
-1.00065, 101, 65, 132, 192
-1.00066, 273, 25, 400, 88
-1.00066, 233, 65, 264, 128
-1.00067, 1, 265, 500, 328
-1.00068, 29, 1, 60, 256
-1.00069, 449, 105, 480, 168
-1.0007, 1, 289, 500, 352
-1.00072, 1, 201, 500, 264
-1.00072, 385, 185, 416, 248
-1.00072, 361, 33, 424, 160
-1.00074, 105, 129, 136, 375
-1.00074, 369, 209, 496, 272
-1.00074, 333, 33, 364, 288
-1.00074, 137, 1, 200, 256
-1.00087, 245, 41, 276, 104
-1.00092, 233, 1, 264, 128
-1.00095, 49, 41, 176, 104
-1.00098, 209, 177, 272, 240
-1.00101, 225, 89, 352, 152
-1.00102, 421, 161, 452, 288
-1.00103, 1, 1, 64, 256
-1.00104, 1, 49, 64, 176
-1.00104, 333, 217, 364, 280
-1.00105, 81, 65, 112, 192
-1.00108, 337, 9, 400, 72
-1.0011, 261, 225, 292, 288
-1.00112, 97, 201, 160, 264
-1.00112, 153, 313, 216, 375
-1.00114, 265, 193, 296, 256
-1.00114, 73, 201, 136, 264
-1.00115, 81, 281, 144, 344
-1.00118, 281, 201, 312, 264
-1.00119, 289, 121, 320, 184
-1.0012, 161, 1, 416, 64
-1.0012, 349, 177, 380, 240
-1.00122, 309, 81, 340, 208
-1.00124, 57, 113, 120, 176
-1.00134, 289, 33, 352, 288
-1.00137, 97, 33, 224, 96
-1.0014, 385, 41, 448, 104
-1.00141, 301, 113, 332, 176
-1.00142, 25, 201, 88, 264
-1.00143, 385, 73, 448, 136
-1.00144, 137, 185, 200, 248
-1.00145, 49, 289, 176, 352
-1.00146, 1, 177, 500, 240
-1.00147, 385, 305, 448, 368
-1.00149, 173, 97, 204, 160
-1.00149, 89, 233, 120, 296
-1.0015, 161, 25, 416, 88
-1.0015, 129, 257, 160, 320
-1.00159, 65, 41, 320, 104
-1.0016, 245, 225, 276, 288
-1.0016, 233, 33, 296, 160
-1.00161, 105, 281, 168, 344
-1.00162, 201, 65, 232, 192
-1.00162, 121, 129, 152, 256
-1.00163, 333, 273, 364, 336
-1.00163, 217, 177, 248, 240
-1.00165, 149, 33, 180, 160
-1.00173, 233, 33, 264, 96
-1.00179, 49, 161, 176, 288
-1.00188, 257, 49, 384, 112
-1.00191, 321, 257, 352, 320
-1.00191, 153, 209, 216, 336
-1.00193, 61, 113, 92, 240
-1.00193, 105, 145, 168, 208
-1.00194, 121, 33, 152, 160
-1.00197, 17, 113, 48, 176
-1.00198, 57, 145, 120, 272
-1.00198, 25, 145, 88, 272
-1.00199, 9, 177, 72, 240
-1.002, 1, 17, 128, 144
-1.00203, 321, 209, 352, 272
-1.00204, 65, 17, 320, 80
-1.00207, 113, 129, 144, 192
-1.00208, 1, 209, 128, 336
-1.0021, 1, 41, 128, 104
-1.00213, 145, 33, 272, 96
-1.00216, 305, 169, 336, 232
-1.00218, 213, 161, 244, 288
-1.00218, 97, 209, 160, 336
-1.00222, 49, 105, 80, 168
-1.00225, 1, 201, 64, 264
-1.00227, 425, 193, 488, 256
-1.00229, 129, 313, 192, 375
-1.00231, 25, 1, 88, 256
-1.00233, 241, 201, 272, 264
-1.00233, 229, 153, 260, 216
-1.00236, 345, 241, 376, 368
-1.00236, 1, 9, 500, 72
-1.00236, 193, 57, 320, 120
-1.00241, 253, 33, 284, 160
-1.00245, 433, 145, 464, 272
-1.00252, 17, 17, 144, 80
-1.00255, 185, 1, 248, 256
-1.00259, 1, 41, 500, 104
-1.0026, 225, 17, 352, 80
-1.00263, 209, 1, 272, 128
-1.00264, 361, 209, 424, 272
-1.00265, 201, 161, 232, 288
-1.00268, 177, 9, 304, 72
-1.00271, 49, 201, 112, 264
-1.00272, 25, 49, 88, 176
-1.00273, 121, 209, 184, 272
-1.00275, 121, 49, 184, 112
-1.00277, 145, 1, 272, 128
-1.0028, 65, 9, 192, 72
-1.00284, 433, 25, 496, 88
-1.00288, 129, 9, 256, 72
-1.00288, 273, 73, 400, 136
-1.00301, 105, 209, 136, 336
-1.00302, 129, 17, 384, 144
-1.0032, 305, 193, 336, 320
-1.00325, 385, 177, 448, 304
-1.00329, 137, 17, 168, 144
-1.0033, 5, 49, 36, 176
-1.00334, 65, 193, 128, 320
-1.00338, 1, 209, 64, 336
-1.00363, 81, 17, 144, 144
-1.0037, 97, 145, 160, 272
-1.00371, 181, 209, 212, 336
-1.0038, 361, 177, 424, 304
-1.00383, 381, 33, 412, 160
-1.00387, 137, 113, 168, 240
-1.00389, 445, 145, 476, 272
-1.00392, 397, 161, 428, 288
-1.00398, 41, 145, 72, 272
-1.00409, 109, 129, 140, 256
-1.00411, 437, 1, 468, 128
-1.00414, 45, 49, 76, 176
-1.00415, 273, 1, 400, 128
-1.00415, 173, 49, 204, 176
-1.0042, 237, 145, 268, 272
-1.0043, 25, 145, 56, 272
-1.00436, 433, 161, 496, 288
-1.00438, 73, 113, 104, 240
-1.0044, 5, 193, 36, 320
-1.00441, 13, 145, 44, 272
-1.00446, 109, 17, 140, 144
-1.00446, 93, 209, 124, 336
-1.00469, 361, 49, 392, 176
-1.0047, 89, 17, 120, 144
-1.0047, 121, 209, 152, 336
-1.00472, 157, 145, 188, 272
-1.00478, 25, 49, 56, 176
-1.00481, 457, 161, 488, 288
-1.00483, 361, 1, 392, 128
-1.00488, 373, 177, 404, 304
-1.00495, 57, 49, 88, 176
-1.00498, 329, 65, 392, 192
-1.005, 53, 161, 84, 288
-1.00513, 385, 161, 416, 288
-1.00518, 141, 161, 172, 288
-1.00521, 417, 17, 448, 144
-1.00525, 369, 241, 400, 368
-1.00533, 121, 161, 184, 288
-1.00534, 321, 65, 352, 192
-1.00537, 69, 17, 100, 144
-1.00539, 65, 161, 96, 288
-1.00539, 253, 193, 284, 320
-1.00552, 1, 161, 64, 288
-1.00553, 469, 113, 500, 240
-1.00554, 169, 225, 200, 352
-1.00554, 1, 145, 32, 272
-1.00558, 89, 145, 120, 272
-1.0056, 333, 49, 364, 176
-1.00565, 41, 193, 104, 320
-1.00565, 329, 1, 392, 128
-1.00568, 381, 241, 412, 368
-1.00575, 357, 241, 388, 368
-1.0058, 25, 209, 56, 336
-1.00588, 133, 209, 164, 336
-1.00607, 469, 161, 500, 288
-1.00626, 49, 33, 112, 160
-1.00634, 61, 209, 92, 336
-1.0064, 193, 1, 320, 128
-1.00679, 121, 209, 184, 336
-1.00786, 409, 177, 472, 304
-1.0083, 377, 241, 440, 368
-1.0086, 353, 225, 416, 352
-1.00898, 385, 1, 448, 128
-1.00941, 73, 241, 136, 368
-1.00996, 145, 1, 208, 128
-1.01023, 25, 241, 88, 368
-1.01074, 401, 241, 464, 368
-1.01204, 49, 241, 112, 368
-1.01266, 425, 225, 488, 352
-1.01278, 25, 1, 88, 128
-1.01293, 305, 33, 368, 160
-1.01424, 1, 1, 64, 128
-1.01435, 257, 1, 320, 128
-1.01494, 281, 1, 344, 128
-1.01534, 177, 17, 240, 144
