1966
-0.365947, 1, 129, 500, 368
-0.550041, 1, 1, 256, 368
-0.551234, 1, 65, 256, 320
-0.564759, 97, 1, 352, 368
-0.592748, 1, 1, 500, 368
-0.603923, 1, 33, 500, 288
-0.620604, 161, 129, 416, 368
-0.680584, 193, 1, 448, 368
-0.710389, 257, 129, 500, 368
-0.756138, 97, 33, 352, 288
-0.815603, 33, 65, 160, 320
-0.864288, 225, 129, 352, 368
-0.869482, 17, 1, 144, 368
-0.87303, 1, 161, 500, 288
-0.879402, 81, 1, 208, 368
-0.888766, 273, 129, 400, 368
-0.895749, 81, 65, 208, 320
-0.898993, 1, 113, 256, 240
-0.901673, 177, 97, 304, 352
-0.902983, 1, 113, 500, 240
-0.903066, 257, 1, 384, 368
-0.903932, 337, 129, 464, 368
-0.90495, 257, 241, 500, 368
-0.906277, 225, 33, 480, 288
-0.909753, 161, 145, 416, 272
-0.911551, 337, 193, 464, 320
-0.916177, 209, 1, 336, 368
-0.916283, 129, 33, 256, 288
-0.916631, 129, 1, 256, 368
-0.919486, 257, 193, 500, 320
-0.91961, 1, 209, 500, 336
-0.919918, 33, 65, 160, 192
-0.924412, 129, 129, 256, 368
-0.926544, 97, 97, 352, 224
-0.928894, 1, 161, 256, 288
-0.929518, 321, 1, 448, 368
-0.932413, 337, 177, 400, 304
-0.933413, 313, 209, 376, 336
-0.933563, 257, 161, 384, 288
-0.934324, 257, 33, 384, 288
-0.935307, 297, 161, 360, 288
-0.936467, 25, 145, 88, 272
-0.936723, 289, 225, 416, 352
-0.938237, 105, 97, 168, 224
-0.938706, 57, 65, 120, 192
-0.942304, 17, 129, 144, 256
-0.943672, 305, 33, 432, 288
-0.943875, 337, 241, 464, 368
-0.94504, 377, 209, 440, 336
-0.946655, 209, 129, 336, 256
-0.94817, 369, 1, 496, 368
-0.948783, 1, 177, 128, 304
-0.949206, 105, 145, 168, 272
-0.95009, 1, 65, 256, 192
-0.950277, 337, 225, 400, 352
-0.950319, 33, 65, 96, 192
-0.950773, 233, 129, 296, 256
-0.950841, 81, 81, 144, 208
-0.951799, 97, 113, 224, 240
-0.953608, 353, 193, 416, 256
-0.954077, 161, 209, 416, 336
-0.954746, 97, 161, 224, 288
-0.954816, 361, 161, 424, 288
-0.954874, 417, 241, 480, 368
-0.954999, 193, 1, 320, 256
-0.955118, 145, 161, 272, 288
-0.955197, 49, 73, 112, 136
-0.955343, 321, 217, 384, 280
-0.955874, 105, 137, 168, 200
-0.956771, 9, 209, 72, 336
-0.958096, 169, 161, 232, 288
-0.958267, 241, 209, 368, 336
-0.959167, 97, 97, 160, 160
-0.959387, 241, 145, 304, 208
-0.959766, 273, 161, 336, 288
-0.960058, 433, 265, 496, 328
-0.960998, 129, 113, 192, 240
-0.961135, 321, 185, 384, 248
-0.962027, 345, 209, 376, 336
-0.962747, 185, 161, 248, 224
-0.963229, 377, 209, 440, 272
-0.963322, 297, 153, 360, 216
-0.963483, 9, 201, 72, 264
-0.964695, 201, 161, 264, 288
-0.964757, 9, 225, 72, 288
-0.964932, 121, 129, 152, 256
-0.964933, 281, 289, 344, 352
-0.964992, 289, 209, 352, 336
-0.965049, 1, 49, 500, 176
-0.965119, 257, 145, 500, 272
-0.965133, 321, 145, 448, 272
-0.965302, 1, 145, 64, 272
-0.965507, 41, 97, 104, 160
-0.965537, 33, 81, 160, 144
-0.965649, 49, 177, 176, 304
-0.965699, 345, 161, 376, 288
-0.965985, 209, 161, 272, 224
-0.966116, 313, 249, 376, 312
-0.966382, 33, 137, 96, 200
-0.966833, 345, 217, 376, 280
-0.966979, 117, 137, 148, 200
-0.966979, 273, 153, 336, 216
-0.967332, 105, 169, 168, 232
-0.967362, 129, 161, 192, 288
-0.967681, 257, 129, 288, 192
-0.967836, 65, 65, 128, 320
-0.96785, 345, 217, 408, 280
-0.968204, 121, 81, 152, 208
-0.968225, 25, 177, 88, 240
-0.968544, 329, 209, 360, 336
-0.968742, 297, 225, 360, 288
-0.968814, 329, 225, 360, 288
-0.968827, 17, 145, 144, 208
-0.968916, 1, 225, 128, 352
-0.968992, 337, 129, 400, 256
-0.969091, 325, 161, 356, 288
-0.969284, 49, 65, 80, 192
-0.969363, 125, 97, 156, 160
-0.969493, 357, 177, 388, 304
-0.970945, 73, 73, 136, 136
-0.971064, 49, 73, 80, 136
-0.971334, 73, 129, 136, 256
-0.971438, 321, 217, 448, 280
-0.971458, 9, 97, 72, 224
-0.971777, 409, 249, 472, 312
-0.971924, 25, 97, 88, 352
-0.971938, 109, 97, 140, 224
-0.972346, 369, 193, 400, 320
-0.972413, 289, 129, 352, 368
-0.97245, 65, 241, 320, 368
-0.972481, 193, 137, 320, 200
-0.972793, 133, 97, 164, 224
-0.972911, 257, 113, 288, 240
-0.97293, 161, 161, 224, 224
-0.97324, 113, 65, 240, 192
-0.973264, 265, 81, 328, 208
-0.974034, 437, 241, 468, 368
-0.974194, 73, 97, 136, 160
-0.974333, 33, 105, 160, 168
-0.974535, 49, 145, 112, 272
-0.974734, 357, 185, 388, 248
-0.974877, 265, 129, 328, 192
-0.974912, 97, 73, 160, 136
-0.974949, 41, 113, 72, 240
-0.975048, 257, 113, 384, 240
-0.975129, 9, 153, 72, 216
-0.975224, 377, 193, 408, 256
-0.975292, 21, 193, 52, 256
-0.97545, 81, 145, 144, 208
-0.975764, 17, 169, 144, 232
-0.975776, 13, 193, 44, 320
-0.975826, 337, 241, 464, 304
-0.975971, 97, 49, 352, 176
-0.976071, 369, 33, 496, 288
-0.976106, 37, 121, 68, 184
-0.976275, 17, 113, 80, 176
-0.976339, 449, 265, 480, 328
-0.976431, 401, 193, 464, 320
-0.97649, 65, 161, 192, 224
-0.976496, 69, 73, 100, 136
-0.976521, 273, 289, 400, 352
-0.976616, 105, 97, 168, 352
-0.976739, 309, 145, 340, 272
-0.976842, 129, 177, 192, 240
-0.977219, 33, 169, 64, 232
-0.977333, 301, 145, 332, 208
-0.97738, 425, 241, 456, 368
-0.977402, 33, 161, 64, 288
-0.977477, 357, 241, 388, 368
-0.97755, 317, 225, 348, 352
-0.977583, 321, 289, 384, 352
-0.977659, 81, 137, 208, 200
-0.977891, 361, 169, 424, 232
-0.977926, 321, 193, 448, 256
-0.977964, 289, 113, 352, 240
-0.97802, 161, 97, 288, 224
-0.97803, 225, 161, 352, 224
-0.978061, 257, 97, 500, 224
-0.978096, 437, 257, 468, 320
-0.978263, 233, 97, 296, 352
-0.9783, 361, 297, 424, 360
-0.978558, 469, 265, 500, 328
-0.978656, 25, 73, 88, 136
-0.978872, 1, 297, 64, 360
-0.978889, 401, 201, 432, 264
-0.979065, 97, 97, 128, 224
-0.97909, 405, 193, 436, 320
-0.979108, 313, 129, 376, 368
-0.979185, 81, 169, 144, 232
-0.979213, 145, 161, 272, 224
-0.979429, 273, 225, 400, 288
-0.979515, 201, 113, 264, 240
-0.979527, 193, 161, 224, 224
-0.979644, 89, 33, 152, 160
-0.979661, 69, 49, 100, 176
-0.979717, 333, 177, 364, 240
-0.979781, 337, 161, 400, 224
-0.979924, 1, 209, 128, 272
-0.979936, 217, 161, 248, 224
-0.980127, 293, 145, 324, 272
-0.980323, 417, 289, 480, 352
-0.980355, 201, 129, 264, 192
-0.98039, 265, 129, 328, 368
-0.980417, 321, 297, 448, 360
-0.980425, 129, 137, 160, 200
-0.980567, 317, 249, 348, 312
-0.980734, 329, 249, 360, 312
-0.980742, 337, 241, 400, 304
-0.980868, 257, 305, 320, 368
-0.980945, 257, 257, 384, 320
-0.980966, 129, 153, 192, 216
-0.980985, 105, 97, 136, 160
-0.981003, 289, 161, 320, 224
-0.981021, 297, 177, 360, 240
-0.981042, 321, 153, 352, 216
-0.981046, 33, 17, 96, 144
-0.981074, 273, 177, 400, 240
-0.981104, 81, 177, 144, 304
-0.981238, 41, 209, 104, 272
-0.981265, 241, 129, 368, 192
-0.98128, 341, 249, 372, 312
-0.981523, 301, 289, 332, 352
-0.981547, 41, 193, 104, 320
-0.981551, 45, 97, 76, 160
-0.981633, 85, 81, 116, 144
-0.981864, 1, 225, 32, 352
-0.981869, 41, 241, 104, 368
-0.982184, 121, 113, 184, 176
-0.982191, 57, 17, 120, 144
-0.982364, 225, 81, 288, 208
-0.982574, 133, 161, 164, 288
-0.982595, 41, 265, 104, 328
-0.982762, 177, 113, 240, 240
-0.982789, 1, 129, 64, 368
-0.982797, 317, 225, 348, 288
-0.982869, 33, 145, 64, 208
-0.982897, 177, 161, 208, 224
-0.98295, 361, 129, 424, 368
-0.983105, 17, 217, 48, 280
-0.983105, 37, 217, 68, 280
-0.98311, 21, 145, 52, 208
-0.983217, 425, 249, 456, 312
-0.983274, 41, 49, 104, 112
-0.983389, 29, 241, 60, 368
-0.983402, 265, 257, 328, 320
-0.983562, 289, 265, 352, 328
-0.983584, 345, 185, 376, 248
-0.983585, 173, 161, 204, 288
-0.98363, 25, 289, 88, 352
-0.983648, 49, 161, 80, 224
-0.983696, 5, 217, 36, 280
-0.983704, 373, 153, 404, 216
-0.983709, 337, 129, 400, 368
-0.983719, 381, 209, 412, 336
-0.983992, 265, 209, 328, 336
-0.984059, 225, 305, 352, 368
-0.984066, 225, 161, 256, 288
-0.984131, 65, 121, 128, 184
-0.984155, 385, 177, 448, 240
-0.984194, 53, 137, 84, 200
-0.98421, 145, 161, 176, 288
-0.984232, 349, 289, 380, 352
-0.984247, 377, 145, 408, 272
-0.984305, 385, 233, 448, 296
-0.984402, 185, 161, 216, 288
-0.98444, 389, 177, 420, 240
-0.984509, 117, 169, 148, 232
-0.984548, 117, 73, 148, 136
-0.98458, 313, 113, 376, 240
-0.984641, 209, 161, 240, 288
-0.984797, 269, 129, 300, 192
-0.984882, 205, 161, 236, 224
-0.984966, 385, 297, 448, 360
-0.985004, 273, 161, 304, 288
-0.98512, 145, 169, 176, 232
-0.985214, 81, 113, 208, 176
-0.985219, 137, 89, 200, 152
-0.985224, 425, 193, 488, 320
-0.985231, 369, 305, 400, 368
-0.98525, 1, 257, 128, 320
-0.985422, 85, 65, 116, 192
-0.985479, 297, 201, 360, 264
-0.985565, 49, 161, 112, 224
-0.985634, 245, 129, 276, 256
-0.985636, 57, 97, 88, 160
-0.985658, 165, 161, 196, 224
-0.985674, 193, 129, 256, 368
-0.985721, 49, 241, 112, 304
-0.985723, 357, 217, 388, 280
-0.985796, 241, 169, 304, 232
-0.98582, 289, 289, 320, 352
-0.985825, 417, 193, 448, 320
-0.985961, 377, 273, 440, 336
-0.98601, 49, 161, 80, 288
-0.986038, 277, 161, 308, 224
-0.986084, 305, 265, 432, 328
-0.986088, 321, 153, 448, 216
-0.986104, 65, 1, 128, 368
-0.986105, 129, 129, 192, 368
-0.986144, 105, 73, 136, 136
-0.986163, 29, 113, 60, 240
-0.986344, 121, 177, 152, 304
-0.98639, 313, 289, 344, 352
-0.986405, 433, 241, 496, 304
-0.986429, 109, 145, 140, 272
-0.98644, 197, 161, 228, 288
-0.986456, 65, 49, 96, 112
-0.986613, 193, 225, 320, 352
-0.986614, 281, 137, 312, 200
-0.986772, 305, 225, 336, 352
-0.986775, 337, 265, 400, 328
-0.986802, 393, 193, 424, 320
-0.986823, 417, 225, 448, 288
-0.986868, 9, 49, 72, 176
-0.986922, 161, 161, 192, 288
-0.987032, 41, 1, 104, 256
-0.987048, 277, 97, 308, 224
-0.987141, 225, 121, 288, 184
-0.987179, 113, 1, 176, 368
-0.987255, 233, 169, 264, 232
-0.987302, 133, 169, 164, 232
-0.987371, 389, 145, 420, 272
-0.987484, 49, 233, 80, 296
-0.987526, 273, 209, 336, 272
-0.987684, 109, 49, 140, 176
-0.9877, 273, 153, 400, 216
-0.987773, 241, 157, 304, 188
-0.987773, 369, 265, 496, 328
-0.987803, 41, 1, 104, 368
-0.987807, 329, 289, 360, 352
-0.987835, 81, 17, 208, 144
-0.987925, 65, 193, 128, 256
-0.98795, 85, 57, 116, 120
-0.98799, 153, 113, 216, 240
-0.988035, 353, 241, 384, 304
-0.988132, 49, 289, 112, 352
-0.988214, 145, 137, 272, 200
-0.988239, 153, 129, 216, 368
-0.988247, 245, 153, 276, 216
-0.988256, 129, 65, 192, 192
-0.988267, 457, 241, 488, 304
-0.988297, 137, 105, 168, 168
-0.988308, 273, 233, 336, 296
-0.988309, 101, 153, 132, 216
-0.988408, 1, 137, 256, 200
-0.988453, 181, 137, 212, 200
-0.988522, 365, 129, 396, 256
-0.98855, 369, 241, 400, 368
-0.988579, 65, 49, 128, 112
-0.988603, 313, 225, 376, 256
-0.98866, 449, 241, 480, 368
-0.988669, 41, 81, 104, 112
-0.988675, 17, 265, 80, 328
-0.988684, 81, 73, 208, 136
-0.988697, 1, 89, 64, 152
-0.988729, 413, 201, 444, 264
-0.988762, 17, 17, 144, 144
-0.98881, 185, 165, 248, 196
-0.988818, 465, 241, 496, 368
-0.988819, 333, 153, 364, 216
-0.988828, 313, 1, 376, 368
-0.988904, 169, 137, 232, 200
-0.988943, 261, 153, 292, 216
-0.988947, 425, 289, 456, 352
-0.988958, 241, 241, 304, 368
-0.988966, 289, 129, 416, 192
-0.988971, 385, 297, 416, 360
-0.989028, 37, 65, 68, 192
-0.989117, 65, 89, 128, 120
-0.989132, 1, 305, 128, 368
-0.989174, 225, 233, 352, 296
-0.989238, 41, 97, 104, 128
-0.989259, 89, 1, 152, 368
-0.989262, 9, 289, 40, 352
-0.989342, 25, 149, 88, 180
-0.989343, 389, 201, 420, 264
-0.989392, 305, 249, 336, 312
-0.989392, 97, 129, 352, 192
-0.989399, 1, 233, 128, 296
-0.989476, 257, 249, 500, 312
-0.989521, 313, 129, 344, 192
-0.989532, 377, 213, 440, 244
-0.989575, 309, 169, 340, 232
-0.989588, 97, 101, 160, 132
-0.989593, 401, 177, 432, 240
-0.989593, 417, 201, 480, 264
-0.989594, 1, 1, 500, 128
-0.989676, 321, 177, 352, 240
-0.989695, 273, 153, 336, 184
-0.989763, 321, 201, 352, 264
-0.989804, 329, 137, 392, 200
-0.989817, 385, 129, 448, 368
-0.989845, 289, 165, 352, 196
-0.989869, 49, 241, 176, 368
-0.989881, 105, 137, 168, 168
-0.989896, 437, 281, 468, 344
-0.989968, 385, 145, 448, 272
-0.989995, 209, 165, 272, 196
-0.990006, 369, 217, 400, 280
-0.990028, 369, 289, 496, 352
-0.990046, 1, 281, 128, 344
-0.990088, 1, 225, 64, 256
-0.990124, 81, 77, 144, 108
-0.990124, 313, 237, 376, 268
-0.990129, 105, 173, 168, 204
-0.990136, 369, 145, 496, 272
-0.990155, 53, 201, 84, 264
-0.99018, 25, 165, 88, 196
-0.990221, 273, 1, 336, 368
-0.99026, 313, 249, 376, 280
-0.990274, 161, 169, 224, 200
-0.990313, 65, 185, 192, 248
-0.990325, 29, 297, 60, 360
-0.99033, 25, 137, 88, 168
-0.990332, 361, 197, 424, 228
-0.990358, 21, 249, 52, 312
-0.990368, 353, 217, 416, 248
-0.990401, 313, 177, 376, 208
-0.990401, 61, 97, 92, 224
-0.990435, 405, 297, 436, 360
-0.990478, 257, 225, 500, 288
-0.990549, 25, 181, 88, 212
-0.99055, 265, 33, 328, 288
-0.990581, 65, 217, 128, 280
-0.990625, 17, 145, 48, 272
-0.990643, 129, 89, 256, 152
-0.990731, 17, 197, 80, 228
-0.990757, 281, 293, 344, 324
-0.990784, 209, 81, 336, 208
-0.990867, 193, 273, 320, 336
-0.990868, 217, 153, 280, 184
-0.990873, 65, 101, 128, 132
-0.990884, 265, 169, 328, 200
-0.990886, 41, 209, 72, 336
-0.990895, 17, 85, 80, 116
-0.990898, 1, 169, 256, 232
-0.990901, 37, 273, 68, 336
-0.990928, 429, 193, 460, 320
-0.990946, 265, 141, 328, 172
-0.990952, 145, 181, 208, 212
-0.990971, 305, 217, 336, 280
-0.990991, 217, 337, 280, 368
-0.990992, 33, 117, 96, 148
-0.990996, 161, 153, 416, 216
-0.991003, 97, 89, 160, 120
-0.991036, 1, 169, 500, 232
-0.991044, 433, 269, 496, 300
-0.991081, 81, 17, 112, 144
-0.991105, 233, 169, 296, 200
-0.991118, 369, 217, 496, 280
-0.991131, 337, 245, 400, 276
-0.991132, 305, 337, 368, 368
-0.991132, 265, 337, 328, 368
-0.991136, 17, 241, 48, 368
-0.991167, 65, 149, 128, 180
-0.991172, 321, 289, 384, 320
-0.991188, 1, 301, 64, 332
-0.991194, 401, 249, 464, 280
-0.991201, 257, 289, 500, 352
-0.991207, 81, 161, 144, 192
-0.991214, 281, 309, 344, 340
-0.991226, 273, 201, 400, 264
-0.991226, 37, 249, 68, 312
-0.991239, 377, 337, 440, 368
-0.991252, 9, 213, 72, 244
-0.991302, 401, 337, 464, 368
-0.991309, 337, 337, 400, 368
-0.991329, 385, 237, 448, 268
-0.991351, 129, 73, 160, 136
-0.991403, 337, 193, 400, 224
-0.991405, 129, 165, 192, 196
-0.991409, 65, 265, 128, 328
-0.991413, 433, 285, 496, 316
-0.991473, 225, 209, 352, 272
-0.991485, 33, 193, 64, 256
-0.991489, 265, 105, 328, 168
-0.991493, 145, 113, 176, 240
-0.991503, 97, 49, 128, 176
-0.991527, 305, 97, 336, 224
-0.991559, 417, 225, 480, 256
-0.991596, 257, 105, 384, 168
-0.991614, 33, 57, 160, 120
-0.991628, 353, 177, 416, 208
-0.991643, 1, 105, 256, 168
-0.991654, 137, 121, 200, 152
-0.991657, 137, 33, 200, 288
-0.991665, 37, 73, 68, 136
-0.991688, 41, 69, 104, 100
-0.991689, 385, 201, 448, 232
-0.991691, 105, 161, 168, 192
-0.991706, 193, 337, 256, 368
-0.991737, 81, 289, 144, 352
-0.991763, 305, 277, 368, 308
-0.991784, 289, 257, 352, 288
-0.991789, 337, 229, 400, 260
-0.991795, 257, 65, 384, 192
-0.991806, 337, 325, 400, 356
-0.991829, 201, 137, 232, 200
-0.99186, 161, 113, 288, 176
-0.991868, 281, 245, 344, 276
-0.991868, 233, 129, 264, 192
-0.991884, 1, 161, 64, 192
-0.991944, 409, 289, 472, 320
-0.991952, 17, 97, 80, 128
-0.991966, 289, 233, 352, 264
-0.991982, 17, 1, 80, 368
-0.991984, 257, 313, 320, 344
-0.991995, 297, 153, 360, 184
-0.992009, 81, 173, 144, 204
-0.992012, 397, 197, 428, 228
-0.992014, 257, 281, 320, 344
-0.992032, 105, 149, 168, 180
-0.992034, 241, 133, 304, 164
-0.992074, 49, 81, 80, 112
-0.992079, 265, 325, 328, 356
-0.992094, 257, 149, 288, 180
-0.992095, 49, 209, 176, 272
-0.992114, 329, 157, 392, 188
-0.992116, 105, 1, 168, 256
-0.992131, 469, 241, 500, 304
-0.992142, 241, 145, 304, 176
-0.992153, 33, 233, 96, 264
-0.992154, 241, 337, 304, 368
-0.992165, 261, 133, 292, 164
-0.992178, 217, 165, 248, 196
-0.99218, 121, 93, 184, 124
-0.992186, 97, 121, 160, 152
-0.992188, 269, 281, 300, 344
-0.992203, 337, 257, 400, 288
-0.992214, 9, 313, 72, 344
-0.992217, 429, 225, 460, 288
-0.992233, 137, 105, 200, 136
-0.992241, 325, 237, 356, 268
-0.992265, 313, 261, 376, 292
-0.992272, 145, 1, 208, 368
-0.99228, 385, 325, 448, 356
-0.992284, 313, 189, 376, 220
-0.992288, 1, 149, 64, 180
-0.992298, 69, 85, 100, 116
-0.992302, 197, 161, 228, 192
-0.992304, 189, 113, 220, 240
-0.992304, 49, 165, 112, 196
-0.992304, 233, 1, 296, 368
-0.992305, 297, 321, 360, 352
-0.992306, 125, 101, 156, 132
-0.992308, 373, 197, 404, 228
-0.992312, 65, 189, 128, 220
-0.992312, 41, 129, 72, 160
-0.992328, 117, 137, 148, 168
-0.992337, 49, 93, 80, 124
-0.99236, 385, 225, 448, 256
-0.99236, 361, 325, 424, 356
-0.992368, 57, 133, 120, 164
-0.992374, 193, 177, 320, 304
-0.992388, 117, 173, 148, 204
-0.992392, 9, 121, 72, 152
-0.992395, 361, 229, 424, 260
-0.992397, 9, 237, 72, 268
-0.992412, 169, 181, 232, 212
-0.992415, 345, 225, 376, 256
-0.99245, 353, 293, 416, 324
-0.992461, 313, 209, 376, 240
-0.992474, 257, 301, 320, 332
-0.992481, 409, 225, 472, 288
-0.992496, 321, 221, 448, 252
-0.992505, 393, 185, 424, 216
-0.992505, 377, 281, 440, 312
-0.992508, 325, 249, 356, 280
-0.99251, 277, 305, 308, 368
-0.992517, 305, 97, 432, 224
-0.992523, 205, 113, 236, 240
-0.992532, 49, 313, 112, 344
-0.992535, 297, 165, 328, 196
-0.992543, 409, 261, 472, 292
-0.992558, 305, 153, 336, 184
-0.992559, 281, 281, 344, 312
-0.99256, 9, 289, 72, 320
-0.992566, 177, 153, 240, 184
-0.992566, 33, 145, 64, 176
-0.992585, 49, 233, 176, 296
-0.992592, 353, 185, 384, 216
-0.992592, 41, 113, 72, 144
-0.992601, 13, 221, 44, 252
-0.992608, 425, 337, 456, 368
-0.992619, 337, 273, 400, 304
-0.992622, 229, 113, 260, 240
-0.99263, 185, 169, 216, 200
-0.992631, 113, 185, 176, 216
-0.992632, 385, 293, 448, 324
-0.992644, 365, 329, 396, 360
-0.992648, 89, 85, 120, 116
-0.992657, 233, 317, 296, 348
-0.99266, 209, 177, 272, 208
-0.992671, 1, 109, 64, 140
-0.992676, 1, 301, 32, 332
-0.992676, 1, 133, 64, 164
-0.992676, 17, 149, 144, 180
-0.992681, 65, 241, 96, 304
-0.992682, 469, 269, 500, 300
-0.992685, 401, 209, 432, 240
-0.992686, 33, 209, 96, 240
-0.992703, 385, 197, 416, 228
-0.992704, 201, 1, 264, 368
-0.99272, 429, 249, 460, 280
-0.992721, 317, 161, 348, 192
-0.992729, 289, 177, 352, 208
-0.992739, 21, 205, 52, 236
-0.992751, 385, 185, 448, 216
-0.992753, 13, 301, 44, 332
-0.992754, 381, 337, 412, 368
-0.992762, 321, 113, 352, 240
-0.992768, 281, 217, 344, 248
-0.99277, 41, 293, 104, 324
-0.99277, 77, 73, 108, 104
-0.992771, 457, 269, 488, 300
-0.992774, 69, 97, 100, 160
-0.992781, 433, 257, 496, 288
-0.992786, 333, 177, 364, 208
-0.992788, 277, 153, 308, 184
-0.992799, 417, 209, 480, 240
-0.992807, 41, 245, 104, 276
-0.992812, 257, 281, 320, 312
-0.992818, 337, 205, 400, 236
-0.99282, 137, 177, 168, 208
-0.992821, 109, 85, 140, 116
-0.992823, 341, 253, 372, 284
-0.992824, 49, 165, 80, 196
-0.992828, 405, 337, 436, 368
-0.992828, 349, 325, 380, 356
-0.992844, 33, 165, 64, 196
-0.992846, 153, 157, 216, 188
-0.992853, 173, 161, 204, 192
-0.992862, 33, 325, 96, 356
-0.992862, 333, 225, 364, 256
-0.992874, 21, 193, 52, 224
-0.992875, 1, 229, 32, 260
-0.992879, 365, 281, 396, 344
-0.99288, 53, 17, 84, 144
-0.992882, 41, 177, 72, 208
-0.992893, 321, 309, 384, 340
-0.992898, 65, 201, 128, 232
-0.992899, 49, 289, 176, 352
-0.992905, 53, 145, 84, 176
-0.992921, 61, 97, 92, 128
-0.992921, 369, 169, 496, 232
-0.992922, 309, 245, 340, 276
-0.992922, 297, 129, 360, 192
-0.99293, 125, 125, 156, 156
-0.992932, 213, 137, 244, 200
-0.992934, 253, 161, 284, 192
-0.992937, 113, 101, 144, 132
-0.99294, 309, 337, 340, 368
-0.99295, 9, 265, 40, 328
-0.992953, 169, 181, 200, 212
-0.992955, 437, 337, 468, 368
-0.992955, 101, 169, 132, 200
-0.992968, 13, 289, 44, 320
-0.992968, 149, 177, 180, 208
-0.992973, 33, 189, 64, 220
-0.992975, 313, 173, 344, 204
-0.992979, 345, 337, 376, 368
-0.992982, 113, 161, 144, 192
-0.992984, 313, 233, 344, 264
-0.992984, 285, 165, 316, 196
-0.992988, 1, 65, 64, 128
-0.992988, 237, 153, 268, 184
-0.992989, 73, 97, 104, 128
-0.99299, 377, 209, 408, 240
-0.992993, 409, 221, 440, 252
-0.992996, 365, 213, 396, 244
-0.992999, 197, 173, 228, 204
-0.993, 353, 249, 384, 280
-0.993006, 65, 69, 96, 100
-0.993011, 33, 225, 64, 256
-0.993012, 101, 105, 132, 136
-0.993015, 233, 169, 264, 200
-0.993017, 297, 289, 328, 320
-0.993037, 217, 113, 248, 240
-0.993037, 377, 181, 408, 212
-0.99304, 225, 305, 288, 368
-0.99305, 417, 241, 448, 272
-0.993054, 145, 113, 176, 144
-0.993057, 89, 97, 120, 128
-0.993061, 445, 269, 476, 300
-0.993063, 337, 237, 368, 268
-0.99307, 313, 289, 344, 320
-0.993073, 33, 237, 64, 268
-0.993077, 121, 89, 152, 120
-0.993079, 33, 89, 64, 120
-0.993087, 265, 161, 296, 192
-0.993093, 1, 289, 32, 320
-0.993101, 341, 289, 372, 320
-0.99312, 37, 101, 68, 132
-0.993121, 389, 209, 420, 240
-0.993133, 313, 273, 344, 304
-0.993138, 25, 297, 56, 328
-0.993138, 53, 177, 84, 208
-0.993138, 429, 225, 460, 256
-0.99314, 229, 337, 260, 368
-0.993143, 185, 157, 216, 188
-0.99315, 249, 137, 280, 168
-0.993151, 119, 137, 134, 200
-0.993152, 293, 153, 324, 184
-0.993158, 1, 81, 256, 144
-0.99316, 137, 125, 168, 156
-0.993162, 289, 301, 320, 332
-0.993171, 129, 137, 160, 168
-0.993175, 53, 237, 84, 268
-0.993178, 385, 325, 416, 356
-0.993179, 361, 201, 392, 232
-0.993192, 409, 197, 440, 228
-0.993201, 105, 181, 136, 212
-0.993205, 41, 249, 72, 280
-0.993205, 397, 325, 428, 356
-0.993209, 329, 337, 360, 368
-0.993211, 209, 33, 272, 288
-0.993213, 293, 333, 324, 364
-0.993215, 153, 185, 216, 248
-0.993216, 97, 149, 128, 180
-0.993219, 393, 337, 424, 368
-0.993222, 13, 237, 44, 268
-0.993225, 53, 125, 84, 156
-0.993228, 45, 225, 76, 256
-0.99323, 1, 241, 32, 272
-0.993231, 349, 237, 380, 268
-0.993235, 21, 149, 52, 180
-0.993235, 441, 257, 472, 288
-0.993237, 453, 285, 484, 316
-0.993248, 355, 217, 370, 280
-0.993253, 353, 289, 384, 320
-0.993254, 433, 289, 464, 320
-0.993258, 329, 273, 360, 304
-0.993298, 273, 177, 336, 240
-0.993305, 337, 245, 464, 276
-0.993358, 1, 241, 32, 304
-0.993425, 413, 241, 444, 368
-0.993442, 33, 105, 160, 136
-0.993452, 137, 97, 152, 160
-0.993465, 345, 1, 408, 368
-0.993502, 73, 241, 136, 304
-0.993554, 343, 225, 358, 288
-0.993563, 271, 129, 286, 192
-0.993571, 169, 185, 200, 248
-0.993591, 349, 161, 380, 224
-0.993621, 33, 117, 160, 148
-0.993625, 45, 105, 60, 168
-0.993637, 305, 233, 432, 264
-0.993656, 33, 97, 64, 160
-0.993709, 349, 217, 364, 280
-0.993717, 361, 145, 424, 208
-0.993726, 209, 157, 336, 188
-0.993726, 257, 193, 500, 256
-0.993781, 25, 193, 40, 256
-0.993809, 39, 137, 54, 200
-0.99384, 369, 193, 496, 256
-0.993845, 113, 185, 240, 248
-0.993855, 33, 169, 160, 200
-0.99386, 169, 1, 232, 368
-0.993873, 55, 73, 70, 136
-0.993885, 333, 225, 348, 288
-0.993888, 1, 177, 64, 240
-0.993891, 141, 145, 172, 208
-0.993906, 321, 33, 384, 288
-0.993963, 97, 145, 128, 272
-0.993996, 385, 153, 416, 216
-0.994064, 263, 129, 278, 192
-0.994125, 369, 185, 384, 248
-0.994177, 173, 113, 204, 240
-0.994209, 333, 201, 364, 264
-0.994209, 157, 113, 188, 240
-0.994222, 401, 145, 432, 272
-0.994243, 33, 93, 160, 124
-0.994258, 17, 137, 144, 168
-0.994294, 355, 185, 370, 248
-0.994324, 125, 97, 140, 160
-0.994343, 79, 73, 94, 136
-0.99436, 327, 225, 342, 288
-0.994367, 5, 193, 36, 256
-0.994387, 33, 81, 160, 112
-0.99439, 241, 169, 368, 200
-0.994428, 35, 161, 50, 224
-0.994436, 321, 209, 448, 240
-0.994467, 241, 81, 272, 208
-0.994514, 145, 129, 208, 192
-0.994525, 45, 129, 60, 192
-0.994552, 273, 293, 400, 324
-0.99462, 315, 145, 330, 208
-0.994645, 385, 153, 448, 216
-0.994657, 453, 265, 468, 328
-0.994658, 261, 105, 292, 168
-0.994672, 273, 241, 304, 368
-0.994699, 129, 129, 144, 192
-0.994729, 161, 177, 416, 240
-0.994747, 49, 257, 80, 320
-0.994751, 361, 217, 376, 280
-0.994756, 139, 137, 154, 200
-0.994768, 65, 1, 96, 128
-0.994774, 179, 161, 194, 224
-0.994777, 61, 161, 92, 288
-0.994803, 353, 265, 384, 328
-0.994809, 97, 49, 160, 112
-0.99483, 447, 257, 462, 320
-0.994833, 369, 1, 432, 368
-0.994865, 105, 177, 136, 240
-0.994867, 365, 257, 396, 320
-0.994872, 479, 265, 494, 328
-0.994879, 381, 193, 396, 256
-0.994893, 21, 169, 52, 232
-0.994906, 485, 265, 500, 328
-0.994924, 459, 265, 474, 328
-0.994942, 289, 97, 320, 224
-0.994946, 117, 97, 132, 160
-0.994969, 325, 249, 340, 312
-0.994985, 347, 177, 362, 240
-0.994991, 245, 129, 276, 192
-0.994992, 131, 97, 146, 160
-0.994998, 65, 217, 96, 280
-0.995045, 473, 265, 488, 328
-0.995048, 161, 217, 416, 280
-0.995089, 1, 145, 500, 208
-0.995105, 55, 145, 70, 208
-0.995107, 441, 249, 456, 312
-0.995114, 81, 225, 144, 352
-0.995133, 169, 33, 232, 288
-0.995142, 193, 129, 448, 192
-0.995167, 195, 161, 210, 224
-0.995169, 97, 153, 224, 184
-0.995176, 465, 265, 480, 328
-0.995177, 273, 337, 400, 368
-0.995177, 413, 193, 428, 256
-0.995185, 81, 173, 208, 204
-0.995199, 21, 273, 52, 336
-0.995204, 363, 185, 378, 248
-0.995222, 1, 193, 256, 256
-0.995223, 349, 113, 380, 240
-0.995227, 153, 145, 184, 208
-0.99523, 225, 145, 352, 176
-0.995237, 445, 193, 476, 320
-0.995242, 45, 305, 76, 368
-0.995253, 133, 73, 148, 136
-0.995263, 425, 217, 440, 280
-0.995264, 219, 161, 234, 224
-0.99527, 97, 105, 352, 168
-0.995275, 81, 49, 208, 112
-0.995283, 53, 121, 68, 184
-0.995284, 1, 225, 500, 288
-0.995288, 145, 165, 272, 196
-0.995294, 257, 145, 272, 208
-0.995386, 369, 337, 496, 368
-0.995393, 21, 105, 52, 168
-0.9954, 405, 225, 436, 288
-0.995421, 17, 209, 32, 272
-0.995427, 49, 65, 80, 320
-0.995432, 277, 129, 292, 192
-0.995449, 273, 153, 288, 216
-0.995452, 347, 249, 362, 312
-0.99546, 241, 321, 368, 352
-0.995478, 61, 161, 92, 224
-0.995486, 393, 1, 456, 368
-0.9955, 301, 289, 316, 352
-0.995514, 17, 181, 144, 212
-0.995529, 111, 97, 126, 160
-0.995553, 291, 161, 306, 224
-0.995555, 341, 257, 356, 320
-0.995558, 257, 237, 384, 268
-0.995558, 97, 81, 112, 144
-0.995569, 161, 297, 416, 360
-0.99557, 1, 225, 128, 256
-0.995577, 389, 161, 404, 224
-0.995578, 157, 185, 188, 248
-0.995586, 333, 153, 348, 216
-0.995622, 271, 105, 286, 168
-0.995629, 1, 177, 32, 304
-0.995643, 395, 193, 410, 256
-0.995651, 307, 153, 322, 216
-0.995655, 353, 249, 368, 312
-0.995666, 409, 177, 472, 240
-0.995676, 47, 169, 62, 232
-0.995685, 333, 249, 348, 312
-0.995688, 203, 161, 218, 224
-0.995708, 37, 97, 68, 352
-0.995719, 137, 65, 200, 128
-0.99572, 231, 161, 246, 224
-0.995733, 61, 81, 76, 144
-0.99574, 89, 217, 152, 280
-0.995762, 359, 249, 374, 312
-0.99578, 319, 249, 334, 312
-0.995793, 45, 81, 60, 144
-0.995809, 185, 177, 200, 240
-0.995831, 321, 137, 336, 200
-0.99586, 375, 193, 390, 256
-0.995878, 57, 225, 88, 352
-0.995901, 63, 137, 78, 200
-0.995922, 435, 249, 450, 312
-0.995938, 341, 177, 356, 240
-0.995951, 105, 81, 120, 144
-0.995951, 109, 193, 140, 320
-0.995978, 11, 225, 26, 288
-0.995979, 31, 185, 46, 248
-0.995981, 257, 253, 384, 284
-0.995989, 41, 161, 56, 224
-0.996024, 337, 113, 368, 240
-0.996036, 401, 241, 432, 368
-0.996037, 161, 249, 416, 312
-0.996047, 143, 105, 158, 168
-0.996048, 1, 193, 128, 224
-0.996052, 173, 177, 188, 240
-0.996053, 1, 209, 128, 240
-0.996069, 147, 169, 162, 232
-0.996077, 1, 305, 500, 368
-0.996081, 389, 193, 404, 256
-0.996094, 331, 289, 346, 352
-0.996098, 289, 197, 416, 228
-0.99614, 185, 145, 200, 208
-0.99615, 177, 141, 304, 172
-0.996151, 353, 233, 480, 264
-0.996155, 327, 161, 342, 224
-0.996156, 419, 209, 434, 272
-0.99616, 321, 333, 448, 364
-0.996161, 257, 153, 500, 216
-0.996173, 161, 153, 288, 184
-0.996174, 213, 161, 228, 224
-0.99618, 369, 217, 384, 280
-0.996205, 37, 113, 52, 176
-0.99621, 1, 297, 128, 328
-0.996215, 297, 161, 312, 224
-0.996218, 127, 169, 142, 232
-0.996232, 273, 181, 400, 212
-0.996245, 91, 81, 106, 144
-0.996251, 85, 81, 100, 144
-0.996256, 65, 265, 192, 328
-0.996264, 225, 161, 240, 224
-0.996265, 313, 289, 328, 352
-0.996313, 193, 169, 320, 200
-0.99633, 1, 193, 500, 256
-0.996333, 293, 209, 324, 336
-0.996335, 177, 305, 304, 368
-0.996345, 249, 161, 264, 224
-0.996365, 401, 177, 416, 240
-0.996371, 65, 1, 96, 256
-0.996379, 241, 133, 368, 164
-0.996407, 81, 49, 96, 112
-0.996427, 69, 97, 84, 160
-0.996433, 97, 137, 224, 168
-0.996437, 321, 129, 352, 368
-0.996444, 37, 185, 52, 248
-0.996462, 167, 177, 182, 240
-0.99647, 133, 169, 148, 232
-0.996475, 125, 97, 156, 352
-0.996478, 257, 97, 288, 352
-0.996497, 67, 73, 82, 136
-0.996524, 243, 169, 258, 232
-0.996552, 73, 73, 88, 136
-0.996557, 133, 49, 164, 176
-0.996613, 225, 337, 352, 368
-0.996617, 427, 241, 442, 304
-0.996618, 281, 169, 296, 232
-0.99663, 353, 257, 480, 288
-0.996639, 117, 169, 132, 232
-0.996644, 321, 321, 448, 352
-0.996664, 97, 209, 224, 336
-0.996682, 29, 153, 44, 216
-0.996685, 337, 277, 464, 308
-0.996685, 173, 153, 188, 216
-0.99672, 345, 129, 376, 368
-0.996722, 109, 153, 124, 216
-0.996726, 319, 169, 334, 232
-0.996734, 125, 73, 140, 136
-0.996735, 341, 289, 356, 352
-0.996747, 395, 169, 410, 232
-0.996753, 121, 33, 152, 160
-0.996758, 33, 225, 48, 288
-0.996769, 237, 169, 252, 232
-0.996796, 273, 221, 400, 252
-0.996804, 363, 289, 378, 352
-0.996812, 337, 293, 464, 324
-0.996824, 321, 289, 336, 352
-0.996833, 1, 281, 500, 344
-0.996837, 405, 201, 420, 264
-0.99684, 271, 137, 286, 168
-0.996843, 161, 185, 288, 248
-0.996852, 209, 309, 336, 340
-0.996858, 51, 217, 66, 280
-0.996858, 63, 233, 78, 296
-0.996863, 1, 225, 16, 288
-0.996864, 425, 129, 488, 368
-0.996866, 257, 309, 384, 340
-0.996867, 73, 97, 104, 224
-0.99687, 25, 129, 56, 368
-0.996876, 295, 297, 310, 360
-0.996912, 111, 73, 126, 136
-0.996921, 289, 129, 320, 368
-0.996926, 129, 65, 256, 128
-0.996933, 325, 233, 340, 264
-0.996934, 67, 81, 82, 112
-0.996955, 25, 225, 40, 288
-0.996961, 305, 161, 432, 192
-0.996964, 29, 257, 44, 320
-0.996982, 59, 209, 74, 272
-0.996982, 53, 97, 68, 160
-0.996991, 369, 145, 496, 208
-0.997024, 257, 65, 288, 192
-0.997027, 97, 65, 128, 320
-0.997044, 97, 273, 352, 336
-0.997071, 97, 73, 352, 136
-0.997092, 1, 257, 500, 320
-0.997093, 381, 197, 396, 228
-0.997117, 263, 133, 278, 164
-0.997136, 113, 109, 240, 140
-0.997138, 81, 89, 208, 120
-0.997141, 259, 149, 274, 180
-0.997147, 177, 333, 304, 364
-0.997149, 321, 309, 448, 340
-0.997156, 413, 201, 428, 232
-0.997157, 273, 209, 400, 240
-0.997182, 309, 129, 340, 368
-0.997197, 89, 265, 152, 328
-0.997207, 131, 89, 146, 120
-0.997211, 271, 149, 286, 180
-0.997217, 129, 177, 256, 208
-0.99724, 77, 1, 108, 256
-0.997267, 205, 161, 220, 192
-0.997269, 81, 77, 96, 108
-0.997285, 271, 125, 286, 156
-0.997303, 139, 101, 154, 132
-0.997314, 257, 281, 384, 312
-0.997336, 257, 157, 384, 188
-0.997341, 219, 165, 234, 196
-0.997351, 37, 145, 52, 176
-0.997356, 1, 309, 128, 340
-0.997378, 369, 213, 496, 244
-0.997388, 315, 149, 330, 180
-0.997414, 55, 81, 70, 112
-0.997435, 199, 161, 214, 192
-0.99746, 425, 233, 440, 264
-0.997462, 307, 153, 322, 184
-0.997465, 55, 129, 70, 160
-0.997468, 273, 145, 400, 176
-0.997469, 389, 197, 404, 228
-0.99747, 25, 201, 40, 232
-0.997487, 1, 265, 128, 296
-0.997488, 417, 145, 448, 272
-0.997491, 57, 145, 72, 176
-0.997493, 305, 257, 432, 288
-0.997496, 343, 225, 358, 256
-0.997505, 331, 229, 346, 260
-0.997521, 353, 197, 480, 228
-0.99755, 113, 121, 240, 152
-0.997566, 359, 221, 374, 252
-0.99757, 45, 89, 60, 120
-0.997573, 113, 65, 144, 320
-0.997574, 73, 85, 88, 116
-0.997581, 1, 273, 256, 336
-0.997582, 69, 97, 84, 128
-0.997587, 459, 269, 474, 300
-0.997594, 137, 125, 152, 156
-0.997597, 17, 221, 32, 252
-0.9976, 305, 165, 320, 196
-0.997608, 417, 145, 480, 272
-0.997617, 375, 197, 390, 228
-0.997617, 69, 209, 100, 336
-0.997618, 369, 121, 496, 184
-0.997618, 45, 113, 60, 144
-0.997622, 261, 161, 292, 288
-0.997629, 333, 129, 364, 368
-0.997631, 117, 141, 132, 172
-0.997634, 401, 197, 416, 228
-0.997634, 127, 173, 142, 204
-0.997635, 99, 85, 114, 116
-0.997653, 45, 133, 60, 164
-0.99767, 395, 201, 410, 232
-0.99767, 1, 217, 256, 280
-0.99768, 333, 241, 348, 272
-0.997682, 231, 165, 246, 196
-0.997688, 273, 129, 304, 368
-0.99769, 65, 185, 192, 216
-0.997698, 325, 165, 340, 196
-0.997698, 133, 173, 148, 204
-0.997707, 147, 109, 162, 140
-0.997715, 5, 301, 20, 332
-0.997718, 225, 221, 352, 252
-0.997722, 337, 173, 464, 204
-0.997725, 193, 165, 208, 196
-0.997726, 293, 165, 308, 196
-0.997744, 471, 269, 486, 300
-0.997755, 117, 181, 132, 212
-0.997757, 365, 129, 396, 368
-0.997759, 1, 121, 500, 184
-0.997762, 11, 225, 26, 256
-0.997762, 21, 297, 36, 328
-0.997766, 193, 129, 320, 160
-0.997775, 117, 161, 132, 192
-0.997777, 41, 169, 56, 200
-0.997784, 465, 269, 480, 300
-0.997793, 129, 137, 144, 168
-0.997793, 47, 165, 62, 196
-0.997794, 443, 249, 458, 280
-0.997798, 25, 65, 56, 192
-0.997799, 233, 337, 248, 368
-0.997817, 45, 101, 60, 132
-0.997822, 185, 161, 200, 192
-0.997823, 105, 209, 168, 336
-0.997827, 17, 337, 144, 368
-0.997835, 363, 181, 378, 212
-0.997843, 325, 245, 340, 276
-0.997845, 317, 337, 332, 368
-0.997856, 81, 77, 208, 108
-0.997877, 317, 161, 332, 192
-0.997879, 149, 177, 164, 208
-0.997882, 421, 221, 436, 252
-0.997885, 479, 269, 494, 300
-0.997886, 211, 161, 226, 192
-0.997887, 27, 297, 42, 328
-0.99789, 265, 149, 280, 180
-0.997897, 109, 85, 124, 116
-0.997898, 323, 257, 338, 288
-0.997898, 343, 177, 358, 208
-0.997906, 289, 33, 352, 288
-0.997909, 239, 337, 254, 368
-0.997919, 11, 301, 26, 332
-0.997927, 363, 249, 378, 280
-0.997947, 1, 241, 128, 272
-0.997953, 397, 333, 412, 364
-0.997967, 353, 185, 368, 216
-0.997975, 277, 141, 292, 172
-0.997984, 361, 249, 424, 312
-0.997984, 35, 185, 50, 216
-0.997988, 55, 93, 70, 124
-0.997989, 381, 337, 396, 368
-0.997991, 485, 269, 500, 300
-0.997997, 63, 141, 78, 172
-0.998007, 407, 197, 422, 228
-0.998008, 369, 217, 384, 248
-0.998024, 355, 257, 370, 288
-0.998026, 91, 81, 106, 112
-0.998037, 131, 81, 146, 208
-0.99804, 337, 177, 352, 208
-0.99804, 307, 337, 322, 368
-0.99804, 51, 149, 66, 180
-0.99804, 333, 161, 348, 192
-0.998045, 357, 193, 372, 320
-0.998046, 107, 105, 122, 136
-0.998047, 369, 189, 384, 220
-0.998049, 145, 49, 176, 176
-0.998051, 123, 137, 138, 168
-0.998058, 205, 173, 220, 204
-0.99806, 63, 93, 78, 124
-0.99806, 311, 165, 326, 196
-0.998062, 193, 321, 320, 352
-0.998065, 321, 185, 448, 216
-0.998067, 343, 249, 358, 280
-0.998071, 61, 77, 76, 108
-0.998071, 63, 153, 78, 184
-0.998074, 1, 285, 128, 316
-0.998074, 13, 289, 28, 320
-0.998076, 225, 165, 240, 196
-0.998076, 345, 333, 360, 364
-0.998078, 9, 1, 72, 256
-0.998078, 131, 101, 146, 132
-0.998082, 253, 161, 268, 192
-0.998083, 175, 181, 190, 212
-0.998084, 117, 101, 132, 132
-0.998094, 281, 157, 296, 188
-0.998099, 23, 221, 38, 252
-0.998099, 65, 97, 96, 352
-0.9981, 277, 129, 292, 160
-0.998113, 395, 189, 410, 220
-0.998123, 129, 97, 256, 128
-0.998126, 211, 173, 226, 204
-0.998126, 451, 257, 466, 288
-0.998133, 429, 245, 444, 276
-0.998134, 33, 301, 48, 332
-0.998139, 29, 189, 44, 220
-0.998145, 65, 305, 320, 368
-0.998154, 125, 101, 140, 132
-0.998164, 333, 253, 348, 284
-0.998171, 123, 97, 138, 224
-0.998177, 137, 97, 168, 352
-0.998179, 351, 209, 366, 336
-0.998185, 271, 161, 286, 192
-0.998186, 181, 129, 212, 368
-0.998191, 169, 129, 200, 368
-0.998193, 1, 253, 128, 284
-0.998195, 427, 221, 442, 252
-0.998201, 345, 161, 360, 288
-0.998203, 317, 277, 332, 308
-0.998203, 291, 301, 306, 332
-0.998207, 369, 337, 384, 368
-0.998212, 233, 1, 296, 256
-0.998214, 167, 181, 182, 212
-0.998224, 419, 237, 434, 268
-0.998227, 245, 97, 276, 352
-0.99823, 3, 237, 18, 268
-0.998249, 209, 237, 336, 268
-0.99828, 213, 129, 244, 368
-0.998292, 193, 289, 320, 320
-0.998292, 65, 201, 192, 232
-0.998303, 343, 209, 358, 336
-0.998303, 369, 185, 496, 216
-0.998322, 351, 161, 366, 288
-0.998327, 369, 325, 496, 356
-0.998353, 193, 169, 256, 184
-0.998373, 97, 217, 224, 280
-0.998379, 233, 167, 296, 182
-0.998401, 53, 145, 84, 160
-0.998402, 445, 337, 476, 352
-0.998402, 169, 183, 200, 198
-0.998403, 329, 353, 360, 368
-0.998404, 181, 177, 212, 192
-0.998404, 317, 147, 348, 162
-0.998405, 1, 241, 32, 256
-0.998405, 21, 217, 52, 232
-0.998406, 33, 255, 64, 270
-0.998407, 265, 167, 296, 182
-0.998408, 401, 217, 432, 232
-0.998408, 105, 183, 136, 198
-0.998408, 29, 303, 60, 318
-0.998408, 109, 97, 140, 112
-0.99841, 317, 257, 348, 272
-0.998411, 33, 311, 64, 326
-0.998413, 137, 137, 168, 152
-0.998414, 209, 173, 240, 188
-0.998414, 5, 309, 36, 324
-0.998414, 185, 161, 216, 176
-0.998415, 65, 101, 96, 116
-0.998416, 377, 195, 408, 210
-0.998417, 313, 353, 344, 368
-0.998418, 65, 75, 96, 90
-0.998418, 437, 353, 468, 368
-0.998418, 437, 347, 468, 362
-0.998419, 417, 333, 448, 348
-0.99842, 385, 333, 416, 348
-0.998421, 301, 153, 332, 168
-0.998422, 37, 157, 68, 172
-0.998423, 157, 183, 188, 198
-0.998424, 349, 255, 380, 270
-0.998424, 17, 309, 48, 324
-0.998425, 109, 83, 140, 98
-0.998425, 41, 87, 72, 102
-0.998426, 241, 171, 272, 186
-0.998428, 33, 95, 64, 110
-0.998429, 393, 193, 424, 208
-0.99843, 57, 97, 120, 112
-0.998432, 273, 153, 336, 168
-0.998432, 365, 337, 396, 352
-0.998434, 349, 345, 380, 360
-0.998434, 81, 177, 112, 304
-0.998435, 349, 327, 380, 342
-0.998435, 33, 225, 64, 240
-0.998437, 41, 85, 104, 100
-0.998437, 333, 229, 364, 244
-0.998438, 105, 177, 168, 192
-0.998439, 377, 213, 408, 228
-0.998441, 81, 79, 112, 94
-0.998441, 125, 127, 156, 142
-0.998443, 361, 351, 424, 366
-0.998443, 413, 245, 444, 260
-0.998444, 357, 191, 388, 206
-0.998446, 21, 203, 52, 218
-0.998446, 25, 151, 88, 166
-0.998449, 333, 179, 364, 194
-0.99845, 229, 169, 260, 184
-0.99845, 41, 121, 72, 136
-0.998452, 117, 167, 148, 182
-0.998453, 49, 107, 80, 122
-0.998453, 173, 165, 204, 180
-0.998454, 265, 169, 328, 184
-0.998455, 21, 223, 52, 238
-0.998456, 21, 209, 52, 224
-0.998458, 241, 161, 304, 176
-0.998458, 33, 151, 64, 166
-0.998458, 139, 97, 154, 224
-0.998459, 57, 87, 88, 102
-0.99846, 373, 207, 404, 222
-0.99846, 129, 173, 160, 188
-0.998462, 149, 177, 180, 192
-0.998462, 377, 217, 440, 232
-0.998462, 397, 339, 428, 354
-0.998462, 41, 91, 104, 106
-0.998463, 397, 331, 428, 346
-0.998463, 241, 165, 272, 180
-0.998464, 41, 115, 72, 130
-0.998465, 349, 249, 380, 264
-0.998465, 425, 251, 456, 266
-0.998466, 1, 235, 32, 250
-0.998466, 413, 223, 444, 238
-0.998466, 317, 173, 348, 188
-0.998467, 309, 249, 340, 264
-0.998474, 313, 251, 376, 266
-0.998474, 117, 181, 148, 196
-0.998475, 273, 161, 336, 176
-0.998476, 201, 129, 232, 368
-0.998483, 49, 213, 176, 244
-0.998483, 89, 85, 120, 100
-0.998485, 89, 97, 120, 112
-0.998485, 365, 221, 396, 236
-0.998485, 297, 353, 360, 368
-0.998486, 365, 329, 396, 344
-0.998488, 425, 345, 456, 360
-0.998488, 37, 129, 68, 144
-0.998489, 405, 349, 436, 364
-0.998492, 289, 167, 352, 182
-0.998492, 313, 229, 376, 244
-0.998495, 349, 185, 380, 200
-0.998496, 69, 95, 100, 110
-0.998496, 45, 165, 76, 180
-0.998496, 373, 343, 404, 358
-0.998497, 257, 157, 288, 172
-0.9985, 301, 349, 332, 364
-0.998501, 365, 349, 396, 364
-0.998502, 321, 235, 352, 250
-0.998502, 425, 339, 456, 354
-0.998504, 125, 107, 156, 122
-0.998505, 37, 129, 52, 256
-0.998506, 335, 209, 350, 336
-0.998506, 65, 87, 128, 102
-0.998508, 1, 229, 32, 244
-0.99851, 9, 235, 72, 250
-0.998511, 41, 79, 104, 94
-0.998512, 193, 175, 224, 190
-0.998515, 97, 107, 160, 122
-0.998516, 377, 211, 440, 226
-0.998516, 277, 161, 308, 176
-0.998516, 129, 177, 192, 192
-0.998517, 381, 349, 412, 364
-0.998519, 333, 161, 348, 288
-0.998519, 257, 269, 384, 300
-0.99852, 145, 209, 272, 272
-0.998521, 185, 169, 216, 184
-0.998521, 209, 161, 272, 176
-0.998522, 309, 159, 340, 174
-0.998522, 105, 143, 168, 158
-0.998525, 301, 171, 332, 186
-0.998525, 9, 229, 72, 244
-0.998528, 297, 161, 360, 176
-0.998529, 233, 281, 296, 344
-0.998529, 65, 81, 128, 96
-0.99853, 261, 145, 292, 160
-0.99853, 69, 81, 100, 96
-0.99853, 329, 253, 360, 268
-0.99853, 125, 135, 156, 150
-0.998531, 321, 241, 352, 256
-0.998531, 169, 173, 232, 188
-0.998532, 363, 177, 378, 304
-0.998533, 353, 221, 416, 236
-0.998533, 241, 153, 304, 168
-0.998534, 25, 97, 88, 112
-0.998535, 97, 93, 160, 108
-0.998535, 397, 211, 428, 226
-0.998535, 377, 97, 408, 352
-0.998536, 369, 177, 384, 304
-0.99854, 425, 353, 456, 368
-0.99854, 25, 145, 88, 160
-0.998541, 313, 239, 376, 254
-0.998543, 13, 303, 44, 318
-0.998545, 41, 107, 104, 122
-0.998547, 313, 245, 376, 260
-0.998548, 17, 85, 80, 100
-0.99855, 285, 167, 316, 182
-0.998551, 337, 353, 400, 368
-0.998552, 1, 305, 64, 320
-0.998556, 157, 129, 188, 368
-0.998557, 121, 101, 152, 116
-0.998558, 313, 347, 376, 362
-0.998559, 25, 165, 88, 180
-0.99856, 345, 225, 376, 240
-0.99856, 13, 229, 44, 244
-0.998562, 25, 159, 88, 174
-0.998565, 265, 349, 328, 364
-0.998565, 289, 175, 352, 190
-0.998566, 337, 227, 400, 242
-0.998566, 41, 139, 72, 154
-0.998567, 313, 183, 376, 198
-0.998569, 361, 195, 424, 210
-0.998571, 49, 99, 80, 114
-0.998571, 389, 129, 420, 368
-0.998571, 337, 249, 400, 264
-0.998573, 69, 87, 100, 102
-0.998573, 17, 201, 80, 216
-0.998573, 105, 137, 168, 152
-0.998573, 277, 33, 308, 288
-0.998575, 313, 259, 376, 274
-0.998576, 25, 183, 88, 198
-0.998576, 253, 165, 284, 180
-0.998577, 217, 349, 280, 364
-0.998577, 377, 201, 408, 216
-0.998578, 313, 167, 344, 182
-0.998578, 339, 161, 354, 288
-0.998582, 377, 223, 440, 238
-0.998584, 169, 167, 232, 182
-0.998585, 25, 193, 88, 208
-0.998586, 145, 171, 208, 186
-0.998586, 197, 163, 228, 178
-0.998587, 297, 293, 360, 308
-0.998587, 401, 205, 432, 220
-0.998587, 9, 207, 72, 222
-0.998587, 65, 103, 128, 118
-0.998588, 65, 165, 128, 180
-0.998588, 261, 135, 292, 150
-0.998589, 49, 81, 80, 96
-0.998589, 1, 311, 64, 326
-0.998589, 1, 303, 32, 318
-0.99859, 85, 97, 116, 352
-0.99859, 385, 335, 448, 350
-0.99859, 321, 189, 384, 204
-0.998591, 105, 99, 168, 114
-0.998594, 33, 115, 96, 130
-0.998594, 9, 223, 72, 238
-0.998594, 33, 131, 96, 146
-0.998595, 361, 345, 424, 360
-0.998595, 401, 353, 464, 368
-0.998596, 133, 129, 148, 256
-0.998597, 169, 179, 232, 194
-0.998597, 321, 293, 384, 308
-0.998598, 345, 201, 408, 216
-0.998599, 433, 287, 496, 302
-0.998603, 361, 187, 424, 202
-0.998603, 177, 353, 240, 368
-0.998603, 297, 339, 360, 354
-0.998603, 209, 175, 272, 190
-0.998604, 337, 345, 400, 360
-0.998604, 97, 85, 160, 100
-0.998604, 321, 247, 352, 262
-0.998607, 377, 239, 440, 254
-0.998608, 393, 249, 456, 264
-0.998611, 241, 173, 304, 188
-0.998613, 105, 113, 168, 128
-0.998615, 137, 183, 200, 198
-0.998616, 81, 173, 144, 188
-0.998616, 397, 199, 428, 214
-0.998617, 385, 341, 448, 356
-0.998617, 225, 129, 256, 368
-0.998618, 265, 147, 328, 162
-0.99862, 73, 159, 136, 174
-0.998621, 117, 141, 148, 156
-0.998622, 1, 299, 64, 314
-0.998622, 105, 171, 168, 186
-0.998623, 17, 213, 80, 228
-0.998624, 359, 241, 374, 368
-0.998625, 353, 215, 416, 230
-0.998625, 137, 179, 168, 194
-0.998625, 33, 139, 96, 154
-0.998627, 33, 69, 160, 100
-0.998627, 337, 243, 400, 258
-0.998628, 33, 123, 96, 138
-0.998629, 137, 133, 200, 148
-0.99863, 313, 223, 376, 238
-0.99863, 129, 353, 192, 368
-0.99863, 385, 347, 448, 362
-0.998631, 97, 183, 160, 198
-0.998632, 257, 151, 288, 166
-0.998632, 417, 233, 480, 248
-0.998633, 1, 321, 128, 352
-0.998634, 137, 119, 200, 134
-0.998634, 353, 207, 416, 222
-0.998634, 25, 177, 88, 192
-0.998635, 329, 195, 392, 210
-0.998636, 289, 257, 352, 272
-0.998637, 17, 91, 80, 106
-0.998639, 409, 261, 472, 276
-0.998639, 117, 97, 132, 224
-0.99864, 297, 165, 328, 180
-0.99864, 105, 163, 168, 178
-0.998642, 73, 149, 136, 164
-0.998643, 289, 347, 352, 362
-0.998643, 105, 151, 168, 166
-0.998644, 9, 139, 72, 154
-0.998645, 369, 201, 432, 216
-0.998645, 313, 265, 376, 280
-0.998646, 249, 135, 312, 150
-0.998646, 129, 337, 256, 368
-0.998646, 217, 337, 280, 352
-0.998647, 361, 335, 424, 350
-0.998647, 321, 271, 384, 286
-0.998648, 185, 305, 248, 368
-0.998649, 25, 307, 88, 322
-0.998649, 153, 353, 216, 368
-0.998651, 281, 309, 344, 324
-0.998652, 97, 127, 160, 142
-0.998652, 241, 353, 304, 368
-0.998653, 337, 237, 400, 252
-0.998655, 25, 171, 88, 186
-0.998655, 433, 269, 496, 284
-0.998656, 225, 133, 288, 148
-0.998657, 197, 169, 228, 184
-0.998659, 65, 1, 320, 128
-0.998668, 49, 93, 80, 108
-0.998668, 43, 81, 58, 208
-0.998674, 209, 277, 336, 308
-0.998675, 55, 65, 70, 192
-0.998686, 217, 167, 248, 182
-0.998707, 117, 175, 148, 190
-0.998712, 417, 1, 480, 368
-0.998723, 61, 65, 76, 192
-0.998737, 49, 313, 176, 344
-0.998779, 441, 241, 456, 368
-0.998784, 241, 121, 368, 152
-0.998793, 427, 209, 442, 336
-0.998796, 97, 241, 224, 304
-0.998813, 271, 113, 286, 240
-0.998817, 323, 145, 338, 272
-0.998836, 325, 225, 340, 352
-0.99884, 263, 113, 278, 240
-0.998856, 447, 241, 462, 368
-0.998867, 123, 145, 138, 272
-0.998873, 435, 241, 450, 368
-0.998879, 49, 65, 64, 192
-0.998886, 365, 225, 380, 352
-0.998895, 415, 193, 430, 320
-0.9989, 111, 97, 126, 224
-0.998916, 409, 129, 440, 368
-0.998926, 51, 129, 66, 256
-0.998926, 29, 177, 44, 304
-0.998953, 177, 185, 240, 248
-0.998982, 209, 249, 336, 280
-0.998983, 49, 249, 176, 280
-0.998986, 81, 49, 96, 176
-0.998998, 277, 113, 292, 240
-0.998998, 49, 297, 176, 328
-0.998999, 65, 337, 192, 368
-0.999032, 147, 161, 162, 288
-0.999035, 425, 129, 456, 368
-0.999038, 7, 225, 22, 352
-0.999051, 391, 209, 406, 336
-0.999054, 117, 161, 132, 288
-0.999054, 303, 145, 318, 272
-0.999055, 13, 209, 28, 336
-0.999074, 385, 193, 400, 320
-0.999075, 73, 65, 88, 192
-0.999082, 375, 193, 390, 320
-0.999085, 23, 193, 38, 320
-0.99909, 401, 193, 416, 320
-0.99911, 35, 241, 50, 368
-0.999111, 297, 145, 312, 272
-0.999115, 1, 225, 16, 352
-0.999117, 305, 33, 336, 288
-0.999119, 49, 225, 176, 256
-0.999124, 1, 249, 256, 312
-0.999127, 317, 145, 332, 272
-0.999133, 141, 1, 172, 256
-0.999138, 285, 161, 300, 288
-0.999141, 43, 129, 58, 256
-0.999143, 253, 145, 268, 272
-0.999146, 125, 1, 156, 256
-0.99915, 59, 129, 74, 256
-0.999151, 13, 129, 44, 368
-0.999152, 179, 161, 194, 288
-0.999154, 453, 241, 468, 368
-0.999155, 229, 161, 244, 288
-0.999157, 145, 97, 160, 224
-0.999165, 37, 177, 52, 304
-0.999167, 239, 161, 254, 288
-0.999198, 391, 145, 406, 272
-0.999204, 99, 65, 114, 192
-0.99921, 221, 161, 236, 288
-0.99921, 421, 209, 436, 336
-0.999213, 45, 193, 60, 320
-0.999215, 189, 161, 204, 288
-0.999217, 195, 161, 210, 288
-0.999223, 381, 145, 396, 272
-0.999226, 257, 1, 288, 256
-0.999228, 97, 241, 160, 304
-0.999232, 309, 161, 324, 288
-0.999234, 67, 65, 82, 192
-0.999238, 213, 145, 228, 272
-0.99924, 81, 65, 208, 96
-0.999244, 65, 129, 80, 256
-0.999245, 173, 161, 188, 288
-0.999248, 279, 161, 294, 288
-0.999248, 357, 145, 372, 272
-0.999256, 49, 325, 176, 356
-0.999269, 407, 193, 422, 320
-0.999269, 129, 325, 256, 356
-0.99927, 203, 161, 218, 288
-0.999275, 291, 161, 306, 288
-0.999285, 105, 65, 120, 192
-0.999288, 245, 161, 260, 288
-0.999294, 371, 241, 386, 368
-0.9993, 319, 225, 334, 352
-0.99931, 365, 129, 380, 256
-0.999312, 153, 161, 168, 288
-0.999312, 167, 161, 182, 288
-0.999317, 49, 237, 176, 268
-0.999323, 375, 145, 390, 272
-0.999323, 87, 65, 102, 192
-0.999324, 177, 181, 304, 212
-0.999331, 159, 177, 174, 304
-0.999332, 311, 113, 326, 240
-0.999336, 141, 161, 156, 288
-0.999341, 229, 33, 260, 288
-0.999341, 437, 193, 452, 320
-0.99936, 125, 49, 140, 176
-0.999369, 137, 49, 152, 176
-0.99937, 29, 225, 44, 352
-0.999371, 51, 177, 66, 304
-0.999378, 21, 241, 36, 368
-0.999379, 49, 241, 64, 368
-0.99939, 49, 261, 176, 292
-0.999399, 193, 33, 224, 288
-0.9994, 93, 65, 108, 192
-0.999411, 113, 49, 128, 176
-0.999418, 31, 129, 46, 256
-0.999422, 461, 241, 476, 368
-0.999426, 267, 65, 282, 192
-0.999429, 129, 189, 256, 220
-0.999429, 313, 241, 328, 368
-0.999431, 481, 241, 496, 368
-0.999438, 473, 241, 488, 368
-0.99944, 369, 305, 496, 336
-0.999441, 467, 241, 482, 368
-0.999451, 445, 193, 460, 320
-0.999452, 111, 145, 126, 272
-0.999455, 177, 233, 304, 296
-0.999463, 307, 241, 322, 368
-0.999466, 403, 145, 418, 272
-0.999468, 283, 97, 298, 224
-0.999471, 37, 1, 68, 256
-0.999478, 97, 193, 160, 256
-0.999478, 423, 161, 438, 288
-0.999478, 397, 145, 412, 272
-0.999481, 59, 177, 74, 304
-0.999497, 71, 17, 86, 144
-0.999504, 319, 97, 334, 224
-0.999509, 305, 97, 320, 224
-0.99951, 219, 113, 234, 240
-0.999514, 119, 49, 134, 176
-0.999518, 411, 145, 426, 272
-0.999524, 129, 85, 256, 116
-0.999529, 227, 113, 242, 240
-0.999532, 189, 113, 204, 240
-0.999534, 273, 161, 288, 288
-0.999535, 73, 193, 88, 320
-0.999543, 135, 177, 150, 304
-0.999552, 37, 81, 52, 208
-0.999553, 195, 113, 210, 240
-0.999564, 239, 113, 254, 240
-0.999573, 241, 1, 272, 256
-0.999614, 425, 233, 440, 248
-0.999614, 397, 333, 412, 348
-0.999614, 9, 309, 24, 324
-0.999614, 223, 167, 238, 182
-0.999616, 381, 351, 396, 366
-0.999616, 363, 189, 378, 204
-0.999617, 233, 351, 248, 366
-0.999618, 277, 129, 292, 144
-0.999618, 363, 249, 378, 264
-0.999618, 51, 165, 66, 180
-0.999618, 131, 105, 146, 120
-0.99962, 387, 215, 402, 230
-0.99962, 415, 213, 430, 228
-0.999621, 1, 299, 16, 314
-0.999621, 317, 353, 332, 368
-0.999622, 75, 87, 90, 102
-0.999622, 309, 159, 324, 174
-0.999623, 423, 239, 438, 254
-0.999623, 79, 75, 94, 90
-0.999627, 461, 337, 476, 352
-0.999628, 33, 191, 48, 206
-0.999629, 451, 261, 466, 276
-0.99963, 319, 147, 334, 162
-0.999631, 63, 145, 78, 160
-0.999631, 271, 125, 286, 140
-0.999633, 117, 153, 132, 168
-0.999633, 327, 173, 342, 188
-0.999633, 113, 201, 240, 232
-0.999633, 105, 85, 120, 100
-0.999634, 41, 161, 56, 176
-0.999634, 117, 173, 132, 188
-0.999635, 15, 237, 30, 252
-0.999636, 271, 165, 286, 180
-0.999637, 355, 187, 370, 202
-0.999638, 43, 139, 58, 154
-0.999639, 23, 301, 38, 316
-0.99964, 119, 143, 134, 158
-0.99964, 95, 85, 110, 100
-0.999641, 23, 203, 38, 218
-0.999641, 345, 353, 360, 368
-0.999641, 307, 349, 322, 364
-0.999642, 379, 345, 394, 360
-0.999644, 401, 197, 416, 212
-0.999645, 55, 147, 70, 162
-0.999648, 165, 33, 196, 288
-0.999649, 271, 157, 286, 172
-0.99965, 321, 159, 336, 174
-0.999654, 333, 251, 348, 266
-0.999655, 45, 117, 60, 132
-0.999655, 53, 141, 68, 156
-0.999656, 289, 169, 304, 184
-0.999656, 119, 167, 134, 182
-0.999656, 387, 155, 402, 170
-0.999658, 53, 93, 68, 108
-0.999659, 193, 117, 320, 148
-0.99966, 341, 229, 356, 244
-0.999661, 131, 87, 146, 102
-0.999661, 45, 87, 60, 102
-0.999662, 143, 111, 158, 126
-0.999662, 389, 349, 404, 364
-0.999663, 137, 103, 152, 118
-0.999663, 443, 251, 458, 266
-0.999663, 47, 145, 62, 160
-0.999664, 481, 341, 496, 356
-0.999664, 7, 303, 22, 318
-0.999666, 367, 221, 382, 236
-0.999666, 401, 211, 416, 226
-0.999666, 425, 223, 440, 238
-0.999667, 263, 145, 278, 160
-0.999667, 333, 163, 348, 178
-0.999668, 305, 171, 320, 186
-0.99967, 393, 211, 408, 226
-0.99967, 29, 301, 44, 316
-0.999672, 233, 169, 248, 184
-0.999674, 7, 231, 22, 246
-0.999675, 425, 245, 440, 260
-0.999675, 397, 349, 412, 364
-0.999678, 193, 175, 208, 190
-0.999678, 137, 129, 152, 144
-0.999679, 311, 171, 326, 186
-0.999682, 255, 165, 270, 180
-0.999682, 259, 155, 274, 170
-0.999684, 347, 181, 362, 196
-0.999685, 413, 201, 428, 216
-0.999688, 203, 163, 218, 178
-0.99969, 413, 207, 428, 222
-0.99969, 391, 201, 406, 216
-0.999692, 369, 193, 384, 208
-0.999693, 325, 235, 340, 250
-0.999694, 1, 97, 32, 352
-0.999695, 45, 95, 60, 110
-0.999695, 325, 249, 340, 264
-0.999696, 325, 241, 340, 256
-0.999696, 69, 95, 84, 110
-0.999696, 47, 131, 62, 146
-0.999699, 117, 179, 132, 194
-0.999701, 375, 351, 390, 366
-0.999702, 131, 93, 146, 108
-0.999702, 133, 175, 148, 190
-0.999705, 217, 167, 232, 182
-0.999706, 149, 179, 164, 194
-0.999706, 263, 135, 278, 150
-0.999706, 65, 85, 80, 100
-0.999708, 357, 223, 372, 238
-0.999711, 131, 99, 146, 114
-0.999711, 129, 137, 144, 152
-0.999712, 1, 305, 16, 320
-0.999712, 363, 183, 378, 198
-0.999712, 13, 303, 28, 318
-0.999714, 331, 233, 346, 248
-0.999715, 189, 169, 204, 184
-0.999719, 15, 229, 30, 244
-0.99972, 211, 171, 226, 186
-0.999721, 317, 33, 348, 288
-0.999725, 45, 103, 60, 118
-0.999727, 53, 83, 68, 98
-0.999729, 193, 105, 448, 168
-0.99973, 457, 193, 488, 320
-0.999732, 127, 175, 142, 190
-0.999735, 271, 131, 286, 146
-0.999737, 315, 153, 330, 168
-0.999737, 21, 33, 52, 288
-0.999741, 271, 149, 286, 164
-0.999744, 289, 33, 320, 288
-0.999747, 381, 199, 396, 214
-0.999749, 217, 33, 248, 288
-0.999749, 315, 161, 330, 176
-0.999749, 203, 171, 218, 186
-0.999751, 369, 33, 432, 288
-0.999752, 35, 151, 50, 166
-0.999758, 137, 135, 152, 150
-0.999761, 161, 309, 288, 340
-0.999762, 81, 81, 96, 96
-0.999762, 205, 33, 236, 288
-0.999764, 273, 143, 288, 158
-0.999765, 271, 137, 286, 152
-0.999765, 317, 169, 332, 184
-0.999768, 303, 165, 318, 180
-0.999774, 353, 149, 480, 180
-0.999777, 323, 167, 338, 182
-0.999778, 49, 285, 176, 316
-0.999779, 209, 165, 224, 180
-0.999782, 89, 241, 120, 368
-0.999785, 181, 33, 212, 288
-0.999788, 197, 169, 212, 184
-0.99979, 309, 165, 324, 180
-0.9998, 295, 167, 310, 182
-0.999842, 65, 273, 192, 304
-0.999849, 437, 129, 468, 368
-0.999881, 145, 229, 272, 260
-0.999883, 225, 181, 352, 212
-0.999908, 209, 265, 336, 296
-0.999916, 193, 193, 320, 224
-0.99995, 153, 33, 184, 288
-0.999962, 333, 33, 364, 288
-0.999964, 97, 229, 224, 260
-0.999977, 97, 249, 224, 280
-0.99998, 289, 133, 416, 164
-0.999992, 113, 313, 240, 344
-0.999992, 121, 225, 184, 288
-1, 225, 185, 352, 248
-1.00002, 193, 89, 320, 152
-1.00007, 129, 73, 256, 104
-1.00011, 145, 217, 272, 248
-1.00012, 241, 197, 368, 228
-1.00014, 97, 217, 224, 248
-1.00016, 97, 49, 352, 112
-1.0002, 389, 33, 420, 288
-1.00021, 17, 41, 80, 104
-1.00022, 41, 17, 72, 144
-1.00023, 401, 33, 432, 288
-1.00023, 161, 49, 288, 176
-1.00025, 1, 45, 128, 76
-1.00025, 65, 33, 192, 64
-1.00029, 161, 241, 288, 272
-1.00029, 225, 209, 352, 240
-1.00038, 145, 209, 272, 336
-1.0004, 1, 57, 256, 120
-1.0004, 353, 161, 480, 192
-1.00042, 161, 273, 288, 304
-1.00044, 161, 205, 288, 236
-1.00044, 353, 33, 384, 288
-1.00047, 49, 45, 176, 76
-1.0005, 97, 261, 224, 292
-1.00051, 353, 137, 480, 168
-1.00052, 365, 33, 396, 288
-1.00054, 377, 121, 440, 184
-1.00056, 237, 177, 268, 304
-1.00059, 97, 297, 224, 328
-1.00062, 161, 261, 288, 292
-1.00063, 1, 81, 500, 144
-1.00072, 33, 33, 160, 96
-1.00074, 449, 129, 480, 368
-1.00074, 113, 289, 240, 352
-1.00091, 377, 1, 408, 256
-1.00091, 129, 41, 256, 104
-1.00098, 413, 33, 444, 288
-1.00109, 13, 97, 44, 224
-1.00119, 145, 217, 208, 280
-1.00129, 113, 265, 240, 328
-1.00132, 429, 33, 460, 288
-1.00134, 9, 1, 72, 128
-1.00137, 249, 225, 312, 288
-1.00144, 465, 129, 496, 368
-1.00147, 201, 185, 264, 248
-1.00152, 469, 193, 500, 320
-1.00157, 469, 1, 500, 256
-1.00162, 109, 1, 140, 128
-1.00162, 457, 1, 488, 256
-1.00169, 121, 201, 184, 264
-1.00173, 441, 33, 472, 288
-1.00174, 33, 25, 288, 88
-1.00177, 29, 17, 60, 144
-1.00178, 361, 113, 424, 240
-1.00182, 225, 177, 288, 304
-1.00182, 9, 1, 40, 256
-1.00184, 193, 81, 448, 144
-1.00185, 241, 257, 304, 320
-1.00187, 353, 97, 480, 160
-1.002, 257, 49, 500, 112
-1.00208, 113, 17, 176, 144
-1.0021, 257, 25, 500, 88
-1.00212, 65, 1, 320, 64
-1.00212, 161, 17, 416, 80
-1.00218, 257, 1, 500, 64
-1.00222, 217, 97, 280, 160
-1.00228, 305, 97, 432, 160
-1.00243, 241, 73, 368, 136
-1.00259, 113, 17, 240, 80
-1.00263, 65, 9, 192, 72
-1.00265, 97, 193, 128, 320
-1.00274, 225, 233, 288, 296
-1.0028, 1, 1, 128, 64
-1.00286, 345, 33, 408, 288
-1.00288, 177, 57, 304, 120
-1.00291, 225, 1, 352, 64
-1.00291, 273, 1, 400, 64
-1.00291, 321, 1, 448, 64
-1.00291, 369, 1, 496, 64
-1.00291, 177, 9, 304, 72
-1.00291, 225, 25, 352, 88
-1.00291, 273, 25, 400, 88
-1.00291, 321, 25, 448, 88
-1.00291, 369, 25, 496, 88
-1.00291, 177, 33, 304, 96
-1.00291, 225, 49, 352, 112
-1.00291, 273, 49, 400, 112
-1.00291, 321, 49, 448, 112
-1.00291, 369, 49, 496, 112
-1.00291, 321, 73, 448, 136
-1.00291, 369, 73, 496, 136
-1.00293, 1, 57, 500, 120
-1.00299, 105, 305, 168, 368
-1.00301, 409, 33, 472, 288
-1.00305, 137, 209, 200, 336
-1.00321, 381, 97, 412, 224
-1.00352, 121, 249, 184, 312
-1.00355, 329, 113, 392, 176
-1.00356, 1, 25, 500, 88
-1.00371, 1, 1, 500, 64
-1.00407, 241, 201, 304, 264
-1.00409, 337, 81, 400, 208
-1.00433, 141, 209, 172, 336
-1.00434, 257, 49, 500, 176
-1.00443, 85, 129, 116, 256
-1.00444, 1, 129, 32, 256
-1.00444, 245, 241, 276, 368
-1.00456, 137, 289, 200, 352
-1.00459, 73, 25, 136, 88
-1.00463, 369, 97, 496, 224
-1.0047, 133, 1, 164, 128
-1.00486, 93, 1, 124, 128
-1.00495, 369, 81, 400, 208
-1.00496, 101, 241, 132, 368
-1.00505, 129, 225, 160, 352
-1.00528, 185, 209, 248, 272
-1.00532, 153, 209, 184, 336
-1.00549, 249, 177, 280, 304
-1.00573, 217, 257, 280, 320
-1.00575, 33, 17, 96, 80
-1.00575, 165, 209, 196, 336
-1.00578, 273, 49, 304, 176
-1.00609, 429, 145, 460, 272
-1.00617, 161, 305, 224, 368
-1.00651, 209, 281, 272, 344
-1.00651, 113, 281, 176, 344
-1.00664, 209, 209, 272, 272
-1.00664, 353, 105, 416, 168
-1.00678, 261, 241, 292, 368
-1.00685, 393, 97, 424, 224
-1.00692, 117, 241, 148, 368
-1.00716, 137, 41, 200, 104
-1.00748, 289, 97, 352, 160
-1.00757, 241, 81, 304, 144
-1.00758, 329, 65, 360, 192
-1.00775, 241, 33, 272, 160
-1.00782, 225, 209, 256, 336
-1.00792, 177, 209, 208, 336
-1.00796, 193, 65, 224, 192
-1.0081, 229, 65, 260, 192
-1.00818, 225, 17, 352, 144
-1.00871, 353, 49, 480, 176
-1.00905, 129, 1, 256, 128
-1.00913, 137, 17, 200, 144
-1.00924, 369, 1, 496, 128
-1.00936, 225, 1, 480, 128
-1.00946, 217, 241, 280, 368
-1.00953, 289, 1, 416, 128
-1.00972, 225, 33, 288, 160
-1.01025, 177, 1, 304, 128
-1.01028, 433, 33, 496, 288
-1.01028, 393, 81, 456, 208
-1.01043, 201, 65, 264, 192
-1.01091, 305, 65, 368, 192
-1.01179, 193, 209, 256, 336
-1.01192, 161, 209, 224, 336
-1.01207, 249, 17, 312, 144
-1.01351, 369, 49, 432, 176
-1.01383, 345, 33, 408, 160
-1.01403, 305, 49, 432, 176
-1.01419, 289, 17, 352, 144
-1.01429, 433, 97, 496, 224
-1.01442, 321, 1, 384, 128
-1.01442, 377, 1, 440, 128
-1.01442, 433, 17, 496, 144
-1.01478, 201, 1, 264, 128
-1.01478, 177, 33, 240, 160
-1.01478, 409, 33, 472, 160
-1.01507, 153, 65, 216, 192
