1950
-0.457116, 193, 1, 448, 375
-0.464439, 1, 1, 500, 375
-0.531496, 1, 1, 500, 256
-0.546827, 1, 129, 500, 375
-0.548153, 65, 1, 320, 375
-0.640236, 193, 97, 448, 352
-0.647233, 33, 65, 288, 320
-0.711558, 193, 1, 448, 256
-0.861182, 225, 1, 352, 375
-0.871496, 209, 97, 336, 352
-0.874722, 129, 1, 256, 375
-0.876296, 129, 33, 256, 288
-0.883319, 273, 1, 400, 375
-0.896345, 177, 1, 304, 375
-0.898203, 321, 1, 448, 375
-0.898858, 225, 1, 352, 256
-0.910351, 81, 1, 208, 375
-0.913032, 305, 97, 432, 352
-0.914663, 273, 1, 400, 256
-0.920821, 81, 65, 208, 320
-0.920941, 177, 1, 304, 256
-0.923735, 1, 33, 500, 160
-0.92379, 353, 97, 480, 352
-0.924545, 369, 1, 496, 375
-0.924612, 33, 1, 160, 375
-0.924966, 65, 65, 320, 192
-0.928104, 33, 1, 160, 256
-0.930389, 257, 97, 384, 352
-0.93128, 161, 129, 288, 375
-0.931806, 65, 113, 320, 240
-0.933316, 1, 241, 500, 368
-0.935043, 353, 1, 480, 256
-0.935265, 1, 193, 500, 320
-0.93826, 113, 65, 240, 192
-0.938331, 193, 193, 448, 320
-0.939416, 193, 113, 448, 240
-0.942415, 185, 113, 248, 240
-0.943348, 193, 113, 320, 240
-0.943542, 129, 113, 256, 240
-0.945018, 161, 33, 416, 160
-0.947641, 65, 1, 320, 128
-0.94863, 1, 113, 500, 240
-0.950421, 121, 81, 184, 208
-0.951225, 161, 49, 288, 176
-0.954263, 145, 65, 208, 192
-0.95438, 193, 49, 256, 176
-0.954549, 97, 1, 224, 128
-0.957986, 193, 177, 256, 304
-0.958211, 257, 241, 500, 368
-0.958353, 193, 121, 256, 184
-0.959397, 97, 241, 352, 368
-0.959771, 209, 129, 272, 256
-0.960884, 217, 177, 280, 304
-0.961716, 97, 65, 160, 192
-0.961762, 113, 161, 240, 288
-0.962102, 225, 65, 352, 192
-0.962212, 113, 113, 176, 176
-0.962658, 193, 201, 256, 264
-0.963009, 137, 1, 200, 128
-0.963319, 209, 193, 336, 320
-0.963405, 233, 113, 296, 240
-0.964392, 169, 49, 232, 176
-0.964699, 305, 241, 432, 368
-0.964794, 257, 33, 500, 160
-0.96502, 345, 241, 408, 304
-0.965269, 97, 113, 160, 240
-0.965594, 193, 177, 256, 240
-0.966568, 65, 193, 320, 320
-0.96696, 225, 121, 288, 184
-0.96711, 201, 241, 264, 368
-0.967884, 305, 241, 368, 368
-0.968124, 137, 121, 200, 184
-0.968262, 233, 65, 296, 192
-0.968518, 241, 241, 368, 368
-0.96867, 249, 241, 312, 368
-0.969044, 209, 185, 240, 248
-0.969106, 241, 113, 368, 240
-0.969189, 273, 33, 400, 160
-0.969475, 145, 209, 272, 336
-0.969679, 193, 1, 320, 128
-0.969771, 177, 57, 240, 120
-0.96986, 33, 97, 160, 352
-0.970343, 161, 145, 224, 272
-0.970977, 177, 225, 240, 288
-0.971085, 217, 113, 248, 240
-0.97126, 193, 145, 256, 208
-0.971331, 201, 97, 264, 160
-0.971688, 241, 281, 304, 344
-0.971959, 193, 241, 320, 368
-0.972074, 81, 113, 208, 240
-0.972333, 377, 241, 440, 368
-0.972798, 289, 273, 352, 336
-0.973033, 217, 193, 248, 320
-0.973189, 113, 1, 176, 128
-0.973459, 329, 241, 392, 368
-0.973808, 137, 73, 200, 136
-0.974043, 205, 177, 236, 304
-0.974047, 369, 257, 432, 320
-0.974222, 401, 241, 464, 368
-0.974253, 33, 33, 160, 160
-0.974368, 121, 81, 152, 208
-0.974435, 161, 1, 224, 128
-0.974957, 433, 225, 496, 352
-0.974976, 217, 185, 280, 248
-0.975092, 193, 121, 320, 184
-0.975398, 225, 97, 288, 352
-0.975405, 353, 241, 480, 368
-0.975468, 193, 33, 256, 288
-0.975827, 73, 33, 136, 160
-0.975874, 201, 209, 232, 272
-0.9759, 337, 193, 464, 320
-0.976103, 145, 145, 272, 208
-0.976153, 161, 161, 288, 288
-0.976173, 217, 209, 248, 272
-0.976221, 105, 137, 168, 200
-0.976269, 113, 89, 176, 152
-0.976332, 201, 257, 264, 320
-0.976532, 433, 241, 496, 304
-0.976595, 129, 121, 256, 184
-0.976706, 225, 65, 256, 192
-0.976922, 265, 281, 328, 344
-0.977165, 221, 121, 252, 184
-0.97724, 169, 145, 232, 208
-0.977419, 169, 201, 232, 264
-0.977453, 161, 121, 224, 184
-0.977537, 273, 241, 336, 368
-0.97801, 233, 145, 296, 208
-0.978053, 225, 97, 288, 160
-0.978169, 321, 33, 384, 160
-0.978409, 233, 1, 296, 256
-0.978428, 237, 113, 268, 240
-0.978472, 221, 185, 252, 248
-0.978491, 217, 241, 248, 304
-0.978542, 393, 257, 456, 320
-0.978687, 225, 1, 288, 128
-0.97881, 217, 209, 280, 272
-0.978825, 201, 73, 264, 136
-0.978853, 161, 33, 224, 288
-0.978883, 353, 241, 416, 368
-0.978884, 145, 1, 272, 128
-0.978907, 33, 81, 160, 208
-0.979102, 321, 233, 448, 296
-0.979487, 225, 241, 288, 368
-0.979958, 345, 193, 408, 320
-0.979982, 153, 97, 216, 160
-0.980045, 281, 33, 344, 160
-0.980273, 321, 241, 384, 304
-0.980394, 289, 193, 416, 320
-0.980663, 257, 33, 320, 160
-0.981166, 89, 113, 152, 176
-0.981195, 249, 121, 312, 184
-0.981208, 141, 65, 172, 192
-0.981213, 145, 97, 272, 160
-0.981214, 305, 265, 432, 328
-0.981286, 121, 113, 152, 176
-0.981308, 205, 49, 236, 176
-0.981314, 169, 169, 232, 232
-0.981591, 177, 225, 240, 352
-0.981692, 313, 1, 376, 64
-0.981838, 329, 257, 360, 320
-0.981888, 305, 113, 432, 240
-0.98199, 345, 273, 408, 336
-0.982035, 177, 97, 240, 160
-0.982219, 345, 241, 376, 304
-0.982522, 369, 81, 496, 208
-0.982779, 201, 129, 264, 375
-0.982905, 201, 1, 264, 128
-0.982969, 281, 273, 312, 336
-0.98315, 201, 233, 232, 296
-0.983163, 185, 1, 248, 375
-0.98317, 313, 265, 376, 328
-0.983469, 225, 57, 288, 120
-0.983718, 321, 41, 384, 104
-0.983766, 257, 257, 384, 320
-0.983848, 145, 177, 272, 240
-0.983893, 197, 185, 228, 248
-0.983909, 221, 161, 252, 224
-0.983948, 321, 33, 448, 160
-0.98399, 221, 81, 252, 144
-0.98405, 121, 129, 184, 256
-0.984065, 193, 201, 320, 264
-0.984067, 193, 145, 224, 272
-0.984101, 229, 161, 260, 288
-0.984145, 205, 113, 236, 240
-0.984248, 385, 233, 448, 296
-0.984256, 129, 65, 256, 128
-0.984272, 425, 249, 456, 312
-0.984523, 225, 281, 352, 344
-0.984542, 369, 249, 496, 312
-0.984548, 205, 57, 236, 120
-0.984593, 193, 177, 320, 240
-0.984621, 73, 1, 136, 256
-0.984654, 297, 41, 360, 104
-0.984658, 237, 121, 268, 184
-0.984691, 241, 257, 304, 320
-0.984725, 217, 281, 280, 344
-0.984744, 257, 313, 320, 375
-0.984908, 193, 145, 320, 208
-0.984956, 97, 145, 224, 208
-0.984969, 397, 257, 428, 320
-0.985015, 113, 49, 176, 112
-0.985086, 189, 153, 220, 216
-0.985211, 81, 137, 144, 200
-0.985399, 305, 1, 368, 375
-0.985499, 241, 121, 368, 184
-0.98555, 129, 233, 256, 296
-0.985677, 121, 89, 152, 152
-0.985695, 201, 49, 264, 112
-0.985733, 145, 145, 208, 208
-0.985755, 177, 65, 208, 192
-0.985836, 369, 233, 400, 296
-0.985838, 329, 1, 392, 375
-0.985914, 297, 281, 328, 344
-0.985917, 225, 97, 352, 160
-0.985941, 193, 49, 224, 176
-0.985944, 49, 1, 112, 128
-0.986047, 209, 1, 272, 375
-0.986117, 281, 105, 344, 168
-0.986152, 345, 33, 408, 160
-0.986295, 133, 113, 164, 240
-0.986299, 105, 65, 168, 320
-0.98632, 333, 241, 364, 368
-0.986351, 437, 249, 468, 312
-0.986383, 233, 1, 296, 375
-0.986448, 393, 193, 456, 320
-0.986452, 253, 281, 284, 344
-0.986457, 109, 121, 140, 184
-0.986499, 129, 209, 256, 272
-0.986594, 165, 81, 196, 208
-0.986601, 177, 57, 304, 120
-0.986642, 313, 121, 376, 184
-0.986707, 269, 281, 300, 344
-0.986712, 201, 233, 264, 296
-0.986722, 125, 137, 156, 200
-0.986747, 209, 233, 336, 296
-0.986811, 137, 33, 200, 288
-0.986905, 141, 1, 172, 128
-0.986916, 409, 97, 472, 352
-0.987072, 141, 121, 172, 184
-0.987111, 161, 1, 224, 375
-0.987249, 337, 121, 400, 184
-0.987249, 81, 121, 208, 184
-0.98734, 137, 49, 200, 112
-0.987355, 89, 73, 152, 136
-0.987401, 109, 81, 140, 208
-0.987437, 361, 97, 424, 224
-0.987452, 153, 81, 184, 208
-0.987459, 329, 1, 392, 256
-0.987503, 297, 113, 360, 240
-0.987552, 237, 49, 268, 176
-0.987585, 81, 49, 208, 112
-0.987597, 249, 97, 312, 160
-0.987627, 153, 121, 184, 184
-0.987671, 205, 105, 236, 168
-0.987703, 261, 241, 292, 368
-0.987709, 273, 129, 336, 192
-0.987713, 277, 241, 308, 368
-0.987724, 401, 241, 432, 368
-0.987733, 337, 113, 400, 240
-0.987746, 73, 49, 136, 112
-0.987801, 165, 1, 196, 128
-0.987888, 353, 97, 416, 352
-0.987929, 385, 97, 448, 224
-0.988125, 273, 113, 336, 240
-0.988197, 193, 57, 224, 120
-0.988199, 225, 49, 352, 112
-0.98822, 205, 225, 236, 352
-0.988229, 193, 97, 224, 224
-0.988259, 469, 233, 500, 296
-0.988284, 273, 41, 400, 104
-0.988326, 181, 129, 212, 256
-0.988343, 265, 1, 328, 375
-0.988391, 141, 73, 172, 136
-0.988411, 161, 257, 288, 320
-0.988456, 273, 97, 400, 160
-0.988481, 57, 25, 120, 88
-0.988516, 249, 49, 280, 176
-0.988642, 273, 41, 336, 104
-0.988654, 97, 25, 160, 88
-0.988696, 217, 241, 248, 368
-0.988738, 273, 1, 336, 256
-0.988755, 81, 73, 208, 136
-0.988797, 305, 97, 368, 352
-0.988846, 321, 193, 384, 320
-0.98886, 73, 113, 136, 240
-0.988977, 417, 105, 480, 168
-0.988982, 237, 145, 268, 208
-0.989113, 189, 209, 220, 272
-0.989159, 237, 169, 268, 232
-0.989175, 389, 241, 420, 368
-0.989206, 165, 121, 196, 184
-0.989247, 249, 97, 280, 160
-0.989249, 353, 105, 480, 168
-0.989355, 349, 209, 380, 336
-0.989431, 121, 129, 152, 256
-0.989454, 193, 193, 256, 224
-0.989491, 153, 1, 184, 128
-0.989532, 265, 257, 328, 320
-0.989592, 377, 105, 440, 168
-0.989621, 237, 273, 268, 336
-0.989666, 181, 57, 212, 120
-0.989712, 121, 33, 152, 160
-0.989716, 193, 141, 256, 172
-0.989784, 233, 97, 264, 160
-0.989785, 377, 97, 440, 352
-0.989887, 225, 233, 288, 296
-0.989914, 81, 1, 144, 375
-0.989916, 209, 257, 336, 320
-0.989976, 257, 1, 384, 64
-0.990028, 369, 33, 496, 160
-0.99005, 177, 129, 240, 375
-0.990056, 381, 265, 412, 328
-0.990103, 193, 209, 256, 240
-0.990137, 309, 273, 340, 336
-0.99014, 241, 125, 304, 156
-0.990147, 421, 241, 452, 368
-0.990163, 281, 305, 344, 368
-0.990189, 205, 161, 236, 224
-0.990252, 409, 257, 440, 320
-0.990274, 145, 1, 272, 64
-0.990281, 97, 97, 224, 160
-0.990302, 177, 137, 208, 200
-0.990303, 193, 181, 256, 212
-0.990305, 265, 97, 328, 352
-0.990317, 357, 241, 388, 304
-0.990319, 457, 241, 488, 304
-0.990323, 433, 81, 496, 208
-0.990326, 153, 149, 216, 180
-0.990329, 113, 137, 176, 168
-0.990339, 201, 121, 264, 152
-0.990345, 249, 49, 312, 112
-0.990355, 137, 1, 200, 64
-0.990382, 97, 25, 224, 88
-0.990395, 249, 25, 312, 88
-0.9904, 113, 117, 176, 148
-0.990406, 237, 57, 268, 120
-0.990435, 205, 137, 236, 200
-0.99044, 345, 217, 408, 280
-0.990491, 305, 121, 432, 184
-0.990516, 337, 17, 400, 80
-0.990582, 369, 225, 496, 288
-0.99067, 281, 17, 344, 80
-0.990681, 209, 25, 336, 88
-0.990713, 177, 65, 240, 96
-0.990721, 433, 65, 496, 320
-0.990772, 385, 261, 448, 292
-0.990779, 17, 49, 144, 112
-0.990782, 329, 97, 392, 352
-0.990789, 201, 109, 264, 140
-0.990893, 193, 153, 256, 184
-0.990901, 161, 73, 192, 136
-0.990916, 193, 169, 256, 200
-0.99093, 297, 1, 360, 256
-0.990964, 305, 269, 368, 300
-0.991001, 289, 305, 320, 368
-0.99102, 249, 241, 280, 368
-0.991106, 193, 121, 224, 184
-0.991109, 433, 249, 496, 280
-0.991127, 349, 33, 380, 160
-0.991218, 217, 133, 280, 164
-0.991242, 153, 137, 216, 168
-0.991285, 113, 149, 176, 180
-0.991315, 261, 313, 292, 375
-0.991359, 209, 81, 240, 144
-0.991396, 137, 77, 200, 108
-0.991406, 409, 233, 472, 296
-0.991417, 241, 113, 304, 144
-0.991417, 249, 121, 280, 184
-0.99143, 241, 281, 304, 312
-0.99145, 433, 177, 496, 304
-0.991463, 469, 225, 500, 352
-0.991473, 81, 1, 208, 64
-0.991516, 185, 237, 248, 268
-0.991531, 169, 225, 232, 256
-0.991589, 417, 33, 480, 160
-0.991599, 297, 241, 328, 368
-0.991603, 313, 129, 376, 160
-0.991603, 437, 241, 468, 368
-0.991606, 217, 189, 280, 220
-0.991607, 89, 129, 152, 160
-0.991615, 329, 265, 392, 296
-0.991646, 137, 1, 200, 375
-0.991658, 321, 241, 352, 368
-0.991684, 353, 1, 416, 256
-0.991703, 381, 233, 412, 296
-0.991706, 217, 65, 280, 96
-0.991715, 169, 185, 232, 216
-0.991722, 193, 193, 224, 320
-0.991735, 193, 53, 256, 84
-0.991741, 241, 305, 368, 368
-0.991748, 89, 149, 152, 180
-0.991757, 193, 81, 256, 112
-0.991773, 177, 121, 240, 152
-0.991779, 237, 1, 268, 128
-0.991785, 345, 241, 408, 272
-0.991817, 225, 157, 288, 188
-0.991817, 265, 129, 328, 160
-0.99182, 353, 1, 416, 375
-0.991838, 81, 1, 144, 64
-0.991846, 369, 273, 432, 304
-0.991851, 233, 145, 296, 176
-0.991883, 193, 261, 256, 292
-0.991897, 289, 193, 352, 320
-0.991929, 353, 273, 480, 336
-0.991948, 161, 1, 224, 64
-0.99198, 225, 177, 288, 208
-0.991988, 281, 277, 344, 308
-0.992001, 229, 241, 260, 368
-0.992005, 409, 253, 472, 284
-0.99202, 217, 189, 248, 220
-0.992021, 33, 121, 160, 184
-0.992033, 169, 209, 232, 240
-0.99205, 345, 277, 408, 308
-0.992072, 177, 281, 304, 344
-0.99209, 209, 221, 272, 252
-0.992104, 97, 49, 128, 176
-0.992123, 241, 325, 304, 356
-0.992134, 105, 1, 168, 375
-0.992141, 141, 97, 172, 160
-0.99215, 17, 25, 144, 88
-0.992188, 65, 121, 320, 184
-0.992194, 41, 1, 104, 64
-0.992225, 185, 249, 248, 280
-0.992245, 409, 273, 472, 304
-0.992268, 217, 277, 280, 308
-0.99228, 177, 1, 208, 128
-0.9923, 217, 265, 248, 328
-0.992308, 113, 65, 176, 96
-0.992339, 297, 45, 360, 76
-0.992358, 169, 77, 232, 108
-0.992366, 217, 257, 248, 288
-0.992377, 161, 129, 416, 192
-0.992397, 201, 201, 232, 232
-0.992401, 113, 77, 176, 108
-0.992403, 217, 97, 280, 128
-0.99241, 345, 121, 408, 152
-0.992433, 65, 145, 320, 208
-0.992438, 229, 117, 260, 148
-0.992452, 89, 117, 152, 148
-0.992453, 289, 133, 352, 164
-0.992454, 433, 237, 496, 268
-0.992455, 153, 65, 216, 96
-0.992456, 385, 249, 448, 280
-0.992466, 289, 249, 352, 312
-0.99247, 137, 117, 200, 148
-0.992482, 409, 1, 472, 375
-0.992494, 161, 101, 224, 132
-0.992494, 337, 89, 400, 152
-0.992504, 121, 89, 184, 120
-0.992513, 257, 297, 320, 328
-0.992517, 205, 189, 236, 220
-0.992528, 169, 197, 232, 228
-0.992539, 225, 201, 288, 232
-0.992561, 281, 117, 344, 148
-0.992574, 425, 105, 488, 136
-0.992588, 217, 265, 280, 296
-0.992608, 281, 33, 312, 160
-0.992617, 77, 1, 108, 128
-0.99262, 213, 209, 244, 240
-0.992622, 137, 105, 200, 136
-0.992625, 177, 113, 208, 176
-0.992632, 89, 73, 152, 104
-0.992634, 401, 109, 464, 140
-0.992679, 337, 253, 400, 284
-0.992681, 205, 233, 236, 264
-0.992684, 217, 237, 280, 268
-0.9927, 321, 1, 384, 32
-0.992724, 377, 241, 408, 368
-0.992726, 321, 45, 384, 76
-0.992742, 329, 265, 360, 296
-0.992749, 265, 33, 296, 160
-0.99276, 221, 177, 252, 208
-0.992779, 369, 117, 432, 148
-0.992804, 197, 217, 228, 248
-0.992808, 209, 249, 272, 280
-0.992818, 193, 233, 448, 296
-0.992822, 409, 81, 472, 144
-0.99283, 321, 29, 384, 60
-0.992835, 221, 129, 252, 160
-0.992839, 421, 273, 452, 336
-0.992866, 121, 117, 152, 148
-0.992869, 241, 309, 304, 340
-0.992871, 241, 269, 304, 300
-0.992874, 185, 149, 216, 180
-0.992881, 209, 245, 240, 276
-0.992883, 113, 105, 176, 136
-0.992884, 217, 53, 280, 84
-0.992887, 385, 81, 448, 144
-0.992894, 121, 137, 152, 168
-0.992899, 225, 33, 288, 96
-0.9929, 217, 85, 280, 116
-0.992904, 321, 25, 448, 88
-0.992917, 169, 173, 232, 204
-0.992921, 105, 129, 136, 160
-0.992935, 273, 53, 336, 84
-0.992945, 117, 149, 148, 180
-0.992946, 193, 273, 256, 304
-0.992964, 217, 109, 248, 140
-0.992968, 317, 269, 348, 300
-0.992971, 425, 269, 456, 300
-0.992976, 333, 33, 364, 160
-0.992977, 161, 149, 192, 180
-0.99299, 393, 285, 456, 316
-0.992998, 221, 233, 236, 296
-0.993, 229, 209, 260, 272
-0.993005, 161, 33, 288, 96
-0.993009, 353, 81, 480, 144
-0.99301, 345, 245, 376, 276
-0.99302, 149, 149, 180, 180
-0.993026, 425, 257, 456, 288
-0.99303, 221, 269, 252, 300
-0.99303, 361, 261, 424, 292
-0.993033, 221, 81, 252, 112
-0.993036, 97, 89, 160, 120
-0.993039, 201, 1, 264, 32
-0.993049, 265, 309, 328, 340
-0.99305, 241, 101, 304, 132
-0.993051, 417, 265, 480, 328
-0.993051, 65, 133, 128, 164
-0.993054, 281, 145, 344, 176
-0.993054, 133, 141, 164, 172
-0.993067, 281, 281, 312, 312
-0.993073, 241, 337, 304, 368
-0.993073, 173, 145, 204, 176
-0.993076, 205, 177, 236, 208
-0.993079, 205, 117, 236, 148
-0.993079, 161, 137, 192, 168
-0.993081, 305, 141, 336, 172
-0.993086, 305, 281, 368, 312
-0.993087, 285, 129, 316, 160
-0.99309, 161, 89, 224, 120
-0.993101, 385, 1, 448, 375
-0.993104, 409, 81, 472, 208
-0.993106, 401, 261, 432, 292
-0.993108, 249, 125, 280, 156
-0.993112, 337, 229, 400, 260
-0.993113, 201, 61, 232, 92
-0.993127, 241, 57, 304, 88
-0.99313, 161, 161, 224, 192
-0.993132, 181, 69, 212, 100
-0.993137, 89, 29, 152, 60
-0.993138, 273, 37, 336, 68
-0.99314, 201, 145, 232, 176
-0.993144, 345, 261, 376, 292
-0.99316, 229, 193, 260, 224
-0.99316, 265, 265, 328, 296
-0.993163, 165, 77, 196, 108
-0.993163, 221, 165, 252, 196
-0.993171, 449, 225, 480, 352
-0.993172, 137, 9, 200, 40
-0.993174, 97, 49, 160, 80
-0.993178, 333, 253, 364, 284
-0.993178, 241, 145, 272, 176
-0.993185, 193, 97, 256, 128
-0.993191, 221, 141, 252, 172
-0.993198, 209, 81, 240, 112
-0.993201, 217, 65, 248, 96
-0.99321, 265, 321, 328, 352
-0.993211, 221, 245, 252, 276
-0.993214, 305, 281, 336, 312
-0.993215, 437, 257, 468, 288
-0.993224, 209, 221, 240, 252
-0.993229, 249, 41, 312, 72
-0.993231, 105, 141, 136, 172
-0.993232, 193, 133, 224, 164
-0.993232, 289, 1, 352, 32
-0.993237, 413, 257, 444, 288
-0.993251, 289, 293, 352, 324
-0.993254, 469, 241, 500, 272
-0.993257, 237, 181, 268, 212
-0.993258, 237, 157, 268, 188
-0.99326, 145, 117, 176, 148
-0.993261, 237, 169, 268, 200
-0.993265, 253, 317, 284, 348
-0.993267, 253, 281, 284, 312
-0.993274, 321, 129, 352, 160
-0.993277, 149, 137, 180, 168
-0.993284, 221, 97, 252, 128
-0.993286, 73, 1, 136, 32
-0.993289, 401, 97, 464, 128
-0.993291, 205, 101, 236, 132
-0.993297, 381, 245, 412, 276
-0.993301, 409, 241, 472, 272
-0.993303, 417, 281, 448, 312
-0.993312, 217, 317, 280, 348
-0.993312, 205, 49, 236, 80
-0.993313, 173, 133, 204, 164
-0.993314, 141, 105, 172, 136
-0.993322, 433, 261, 496, 292
-0.993325, 297, 33, 360, 64
-0.993325, 345, 37, 408, 68
-0.993328, 141, 77, 172, 108
-0.993328, 57, 41, 120, 72
-0.993328, 305, 129, 336, 160
-0.993331, 297, 257, 360, 288
-0.993332, 269, 325, 300, 356
-0.993334, 241, 281, 272, 312
-0.993342, 265, 117, 296, 148
-0.993346, 449, 249, 480, 280
-0.993353, 57, 1, 120, 375
-0.993356, 129, 153, 160, 184
-0.993357, 221, 153, 252, 184
-0.993359, 81, 13, 144, 44
-0.993368, 193, 189, 224, 220
-0.99337, 65, 53, 128, 84
-0.993372, 389, 265, 420, 296
-0.993375, 425, 345, 488, 375
-0.993385, 201, 257, 232, 288
-0.993389, 293, 281, 324, 312
-0.99339, 185, 213, 216, 244
-0.993395, 305, 237, 368, 268
-0.993397, 305, 117, 368, 148
-0.993399, 405, 285, 436, 316
-0.993404, 365, 277, 396, 308
-0.993405, 329, 45, 360, 76
-0.993407, 177, 1, 240, 32
-0.993407, 345, 277, 376, 308
-0.993409, 265, 281, 296, 312
-0.993413, 121, 69, 152, 100
-0.993413, 225, 205, 256, 236
-0.993418, 221, 225, 252, 256
-0.993423, 193, 229, 224, 260
-0.993425, 369, 237, 400, 268
-0.993427, 345, 109, 408, 140
-0.993431, 189, 201, 220, 232
-0.993438, 129, 81, 160, 112
-0.993442, 193, 305, 320, 368
-0.993444, 361, 9, 424, 72
-0.993444, 209, 269, 240, 300
-0.993444, 353, 233, 384, 264
-0.993445, 377, 273, 408, 304
-0.993447, 249, 113, 280, 144
-0.993449, 193, 25, 256, 88
-0.993453, 405, 273, 436, 304
-0.993455, 229, 257, 260, 288
-0.993457, 161, 113, 192, 144
-0.993458, 321, 13, 384, 44
-0.993458, 161, 53, 224, 84
-0.993458, 229, 69, 260, 100
-0.993465, 189, 57, 220, 88
-0.993469, 237, 105, 268, 136
-0.993472, 233, 129, 264, 160
-0.993473, 109, 117, 140, 148
-0.993474, 161, 33, 224, 96
-0.993474, 397, 245, 428, 276
-0.993474, 133, 129, 164, 160
-0.993476, 293, 297, 324, 328
-0.993477, 121, 93, 152, 124
-0.993484, 313, 33, 344, 160
-0.993487, 49, 145, 176, 208
-0.993487, 193, 177, 224, 208
-0.9935, 365, 121, 396, 152
-0.993506, 153, 81, 184, 112
-0.993512, 225, 53, 256, 84
-0.993518, 345, 33, 376, 64
-0.993521, 253, 337, 284, 368
-0.993525, 281, 313, 312, 344
-0.993536, 93, 133, 124, 164
-0.993537, 145, 149, 272, 180
-0.993542, 165, 61, 196, 92
-0.993544, 417, 245, 448, 276
-0.993548, 241, 261, 272, 292
-0.993558, 313, 97, 376, 160
-0.993558, 469, 253, 500, 284
-0.99356, 433, 245, 464, 276
-0.993565, 453, 105, 484, 136
-0.993566, 273, 233, 400, 296
-0.993568, 353, 125, 384, 156
-0.993571, 349, 221, 380, 252
-0.993577, 373, 261, 404, 292
-0.993577, 293, 269, 324, 300
-0.993616, 365, 273, 396, 336
-0.993687, 211, 185, 226, 248
-0.993739, 293, 33, 324, 160
-0.99378, 177, 249, 240, 312
-0.993785, 225, 49, 256, 112
-0.993935, 65, 97, 320, 160
-0.993972, 345, 1, 376, 64
-0.994018, 353, 273, 384, 336
-0.994073, 209, 129, 336, 160
-0.99408, 233, 313, 296, 375
-0.994093, 393, 281, 456, 344
-0.99413, 321, 1, 448, 64
-0.994152, 161, 201, 416, 264
-0.994154, 221, 201, 236, 264
-0.994159, 215, 209, 230, 272
-0.994163, 433, 1, 496, 375
-0.994221, 265, 193, 328, 320
-0.994262, 325, 41, 356, 104
-0.994283, 33, 145, 160, 272
-0.994289, 253, 257, 284, 320
-0.994312, 281, 129, 312, 192
-0.994322, 113, 145, 144, 208
-0.99433, 341, 265, 372, 328
-0.994396, 193, 273, 448, 336
-0.994406, 1, 1, 128, 64
-0.994435, 345, 121, 376, 184
-0.994455, 161, 97, 192, 160
-0.994614, 97, 49, 128, 112
-0.994619, 189, 1, 220, 128
-0.994633, 269, 121, 300, 184
-0.994641, 343, 249, 358, 312
-0.994648, 369, 209, 432, 272
-0.994653, 161, 49, 416, 112
-0.994665, 205, 201, 220, 264
-0.994735, 65, 65, 320, 128
-0.994737, 109, 129, 140, 256
-0.994739, 145, 129, 272, 160
-0.994832, 81, 25, 112, 88
-0.994868, 49, 97, 176, 160
-0.994888, 361, 241, 392, 368
-0.994911, 109, 33, 140, 160
-0.994918, 321, 209, 384, 272
-0.994946, 409, 281, 440, 344
-0.994959, 217, 177, 232, 240
-0.994984, 369, 193, 432, 320
-0.995019, 49, 1, 112, 256
-0.995044, 433, 217, 496, 280
-0.995058, 329, 1, 360, 64
-0.995072, 273, 313, 304, 375
-0.995085, 65, 25, 320, 88
-0.995093, 225, 1, 256, 128
-0.995124, 165, 145, 196, 208
-0.99525, 225, 141, 352, 172
-0.995255, 65, 113, 128, 176
-0.995267, 205, 257, 236, 320
-0.995283, 109, 73, 140, 136
-0.995301, 309, 241, 340, 368
-0.995323, 217, 65, 248, 320
-0.995327, 337, 113, 368, 240
-0.995382, 237, 113, 252, 176
-0.995406, 225, 117, 352, 148
-0.995413, 281, 113, 312, 240
-0.995442, 161, 97, 416, 160
-0.995451, 33, 73, 160, 136
-0.995487, 469, 177, 500, 304
-0.995521, 227, 241, 242, 304
-0.995522, 189, 81, 220, 144
-0.995522, 337, 261, 464, 292
-0.995565, 293, 257, 324, 320
-0.995568, 337, 257, 352, 320
-0.995586, 121, 49, 152, 112
-0.995597, 345, 49, 376, 112
-0.995599, 145, 117, 272, 148
-0.995603, 225, 73, 352, 136
-0.995625, 97, 137, 224, 168
-0.995653, 97, 121, 128, 184
-0.995686, 301, 129, 332, 192
-0.995694, 293, 273, 308, 336
-0.995725, 357, 209, 388, 272
-0.995748, 257, 113, 500, 176
-0.99576, 313, 41, 344, 104
-0.995765, 245, 129, 260, 192
-0.995773, 227, 185, 242, 248
-0.995803, 305, 273, 432, 304
-0.995813, 209, 225, 224, 288
-0.995816, 349, 241, 364, 304
-0.995838, 357, 113, 388, 240
-0.995838, 325, 233, 356, 296
-0.995867, 97, 149, 224, 180
-0.995873, 193, 177, 448, 240
-0.995882, 229, 209, 244, 272
-0.995951, 145, 161, 272, 192
-0.995959, 69, 1, 100, 64
-0.99598, 421, 105, 452, 168
-0.995991, 227, 81, 242, 144
-0.996, 249, 313, 280, 375
-0.996023, 249, 97, 280, 224
-0.99609, 215, 233, 230, 296
-0.996106, 33, 1, 288, 64
-0.996115, 129, 73, 256, 104
-0.996152, 165, 129, 196, 256
-0.996161, 193, 1, 320, 64
-0.996162, 161, 1, 416, 64
-0.996175, 301, 281, 316, 344
-0.996179, 257, 209, 384, 272
-0.996179, 193, 1, 256, 64
-0.996179, 33, 177, 288, 240
-0.996183, 209, 305, 272, 368
-0.996185, 97, 169, 224, 232
-0.996207, 205, 169, 220, 232
-0.996208, 349, 25, 380, 88
-0.99621, 285, 105, 316, 168
-0.996232, 433, 73, 496, 136
-0.99627, 1, 1, 500, 64
-0.996296, 129, 113, 144, 176
-0.996299, 225, 261, 352, 292
-0.99633, 419, 257, 434, 320
-0.996335, 285, 49, 316, 112
-0.996348, 33, 241, 288, 304
-0.996373, 437, 225, 468, 288
-0.996386, 361, 33, 392, 160
-0.996396, 199, 201, 214, 264
-0.996407, 233, 169, 248, 232
-0.996411, 137, 113, 152, 176
-0.996433, 231, 121, 246, 184
-0.99644, 333, 121, 364, 184
-0.996498, 243, 105, 258, 168
-0.996499, 369, 201, 496, 264
-0.996514, 233, 81, 248, 144
-0.996519, 439, 249, 454, 312
-0.996521, 239, 145, 254, 208
-0.996521, 273, 281, 288, 344
-0.996521, 417, 193, 448, 320
-0.996526, 137, 137, 152, 200
-0.996535, 193, 177, 320, 208
-0.996573, 177, 61, 304, 92
-0.996593, 267, 281, 282, 344
-0.9966, 97, 61, 224, 92
-0.996628, 193, 213, 320, 244
-0.996637, 389, 97, 420, 224
-0.996639, 293, 113, 324, 240
-0.99668, 217, 257, 232, 320
-0.99669, 123, 113, 138, 176
-0.996694, 109, 49, 140, 112
-0.996704, 33, 217, 288, 280
-0.996715, 453, 217, 484, 280
-0.996722, 377, 49, 440, 176
-0.996733, 309, 113, 340, 240
-0.996736, 417, 225, 448, 288
-0.996739, 129, 193, 256, 224
-0.996741, 479, 233, 494, 296
-0.996743, 129, 217, 256, 248
-0.996755, 203, 57, 218, 120
-0.996775, 225, 281, 352, 312
-0.996792, 433, 257, 448, 320
-0.996797, 293, 25, 324, 88
-0.996823, 153, 145, 184, 208
-0.996826, 305, 245, 432, 276
-0.99683, 469, 97, 500, 160
-0.996835, 161, 153, 416, 216
-0.996842, 429, 193, 460, 320
-0.99685, 117, 121, 132, 184
-0.996863, 337, 193, 368, 320
-0.996867, 257, 281, 272, 344
-0.996873, 239, 169, 254, 232
-0.99689, 131, 137, 146, 200
-0.996898, 399, 257, 414, 320
-0.996902, 171, 137, 186, 200
-0.996918, 345, 217, 376, 280
-0.996918, 145, 173, 272, 204
-0.996925, 229, 97, 260, 352
-0.996937, 129, 233, 256, 264
-0.996938, 219, 105, 234, 168
-0.996941, 203, 145, 218, 208
-0.996947, 159, 121, 174, 184
-0.996949, 397, 193, 428, 320
-0.996953, 413, 257, 428, 320
-0.996958, 289, 125, 416, 156
-0.996961, 201, 33, 232, 288
-0.996963, 97, 125, 224, 156
-0.996986, 161, 105, 288, 136
-0.996989, 457, 241, 472, 304
-0.997004, 97, 273, 352, 336
-0.997016, 197, 57, 212, 120
-0.997021, 213, 145, 228, 208
-0.997024, 165, 137, 180, 200
-0.997039, 137, 145, 168, 208
-0.99706, 1, 233, 500, 296
-0.997068, 233, 257, 248, 320
-0.997079, 173, 1, 204, 64
-0.997089, 375, 233, 390, 296
-0.997092, 381, 233, 396, 296
-0.997097, 295, 297, 310, 360
-0.997098, 137, 81, 152, 144
-0.997114, 217, 193, 232, 224
-0.99713, 137, 49, 168, 112
-0.997132, 365, 241, 380, 304
-0.997133, 341, 257, 356, 288
-0.997139, 297, 49, 328, 112
-0.997144, 289, 305, 416, 368
-0.997154, 229, 233, 260, 296
-0.997158, 425, 249, 440, 312
-0.997162, 241, 117, 256, 148
-0.997163, 221, 237, 236, 268
-0.997175, 251, 121, 266, 184
-0.997185, 121, 161, 184, 224
-0.99719, 307, 273, 322, 336
-0.997205, 317, 193, 348, 320
-0.997212, 377, 1, 440, 256
-0.997218, 361, 193, 392, 320
-0.997226, 81, 77, 208, 108
-0.997229, 143, 121, 158, 184
-0.997231, 193, 201, 320, 232
-0.997243, 143, 73, 158, 136
-0.997243, 239, 273, 254, 336
-0.997258, 209, 161, 336, 192
-0.997261, 289, 261, 416, 292
-0.997266, 125, 137, 140, 200
-0.997267, 225, 189, 240, 220
-0.997274, 129, 245, 256, 276
-0.997281, 223, 249, 238, 280
-0.997338, 145, 1, 272, 32
-0.997346, 209, 249, 336, 280
-0.99735, 285, 281, 300, 344
-0.99735, 273, 45, 400, 76
-0.997354, 369, 109, 496, 140
-0.997362, 313, 241, 344, 304
-0.997362, 265, 313, 280, 375
-0.997364, 157, 49, 188, 112
-0.997383, 191, 57, 206, 120
-0.997385, 273, 113, 400, 144
-0.997387, 313, 129, 344, 192
-0.997404, 269, 113, 300, 240
-0.997407, 257, 33, 500, 96
-0.997413, 387, 233, 402, 296
-0.997417, 469, 81, 500, 208
-0.99742, 279, 281, 294, 344
-0.997421, 391, 265, 406, 328
-0.997422, 207, 197, 222, 228
-0.997423, 245, 273, 260, 336
-0.997425, 233, 1, 296, 64
-0.997428, 425, 273, 440, 336
-0.997434, 321, 113, 352, 240
-0.997436, 251, 97, 266, 160
-0.997443, 257, 57, 288, 120
-0.997445, 153, 121, 168, 184
-0.997451, 445, 249, 460, 312
-0.997452, 193, 229, 320, 260
-0.997466, 127, 89, 142, 152
-0.997474, 265, 257, 296, 320
-0.997495, 331, 273, 346, 336
-0.997497, 359, 241, 374, 304
-0.997498, 209, 49, 224, 112
-0.9975, 353, 41, 416, 104
-0.997507, 377, 113, 408, 176
-0.997509, 297, 105, 328, 168
-0.997515, 211, 185, 226, 216
-0.997535, 301, 257, 316, 320
-0.997538, 145, 261, 272, 292
-0.997544, 273, 73, 400, 136
-0.997558, 401, 233, 432, 296
-0.997561, 181, 137, 196, 200
-0.997566, 197, 121, 212, 184
-0.997574, 233, 233, 248, 296
-0.997589, 219, 209, 234, 240
-0.997601, 407, 257, 422, 320
-0.997601, 365, 25, 396, 88
-0.997604, 169, 49, 200, 112
-0.997607, 225, 121, 240, 184
-0.997625, 237, 193, 252, 256
-0.997627, 241, 249, 272, 312
-0.997634, 185, 65, 200, 128
-0.997643, 207, 217, 222, 248
-0.997644, 231, 185, 246, 216
-0.997645, 227, 57, 242, 120
-0.997656, 221, 49, 236, 112
-0.997659, 129, 85, 256, 116
-0.997661, 161, 73, 416, 136
-0.997664, 473, 233, 488, 296
-0.997667, 189, 137, 204, 200
-0.997677, 313, 273, 328, 336
-0.997684, 463, 241, 478, 304
-0.997697, 341, 1, 356, 64
-0.997701, 231, 261, 246, 292
-0.997717, 213, 229, 228, 260
-0.997725, 111, 121, 126, 184
-0.997729, 449, 105, 480, 168
-0.997768, 213, 213, 228, 244
-0.997772, 205, 33, 236, 96
-0.997772, 453, 97, 484, 224
-0.99778, 349, 273, 364, 336
-0.997793, 237, 1, 268, 256
-0.997807, 217, 181, 232, 212
-0.997814, 365, 273, 380, 336
-0.997829, 221, 81, 236, 144
-0.997846, 161, 25, 416, 88
-0.997859, 49, 1, 176, 32
-0.997867, 249, 1, 280, 128
-0.997873, 169, 73, 184, 136
-0.997878, 1, 265, 500, 328
-0.997881, 335, 261, 350, 292
-0.997887, 203, 113, 218, 176
-0.99789, 321, 273, 336, 336
-0.9979, 257, 313, 272, 375
-0.997909, 241, 97, 272, 352
-0.997918, 121, 81, 136, 144
-0.99792, 203, 225, 218, 288
-0.99792, 163, 97, 178, 160
-0.997922, 425, 277, 440, 308
-0.997937, 221, 261, 236, 292
-0.997942, 163, 73, 178, 136
-0.997942, 225, 53, 352, 84
-0.997945, 293, 281, 308, 312
-0.997947, 413, 97, 444, 224
-0.997958, 347, 249, 362, 280
-0.997959, 239, 81, 254, 144
-0.997959, 485, 233, 500, 296
-0.99796, 375, 273, 390, 336
-0.997961, 155, 73, 170, 136
-0.997968, 161, 273, 288, 304
-0.997973, 287, 313, 302, 375
-0.997975, 201, 213, 216, 244
-0.997987, 381, 193, 412, 320
-0.99799, 321, 105, 352, 168
-0.997999, 49, 137, 176, 168
-0.998001, 97, 49, 224, 80
-0.998005, 219, 137, 234, 200
-0.998008, 225, 265, 240, 328
-0.998024, 341, 269, 356, 300
-0.998047, 145, 129, 176, 256
-0.998052, 451, 241, 466, 304
-0.998076, 125, 149, 140, 180
-0.998077, 281, 25, 312, 88
-0.998077, 277, 113, 292, 176
-0.998083, 49, 149, 176, 180
-0.998084, 357, 121, 388, 184
-0.998088, 285, 129, 300, 192
-0.998095, 163, 149, 178, 180
-0.998096, 175, 113, 190, 176
-0.99811, 223, 161, 238, 224
-0.998113, 205, 129, 236, 375
-0.998133, 237, 313, 268, 375
-0.998136, 249, 125, 264, 156
-0.998138, 177, 33, 208, 288
-0.998139, 131, 65, 146, 128
-0.998141, 329, 269, 344, 300
-0.998148, 377, 97, 408, 224
-0.998155, 201, 201, 216, 232
-0.998157, 431, 233, 446, 296
-0.998159, 179, 65, 194, 128
-0.998161, 215, 57, 230, 120
-0.998162, 177, 189, 304, 220
-0.998163, 355, 273, 370, 336
-0.998166, 245, 137, 260, 168
-0.998166, 337, 121, 464, 152
-0.99817, 369, 249, 496, 280
-0.998171, 337, 57, 464, 120
-0.998173, 209, 121, 224, 184
-0.998179, 383, 273, 398, 336
-0.998184, 315, 133, 330, 164
-0.998187, 97, 113, 224, 144
-0.998191, 197, 153, 212, 216
-0.998194, 49, 65, 176, 96
-0.998199, 433, 257, 448, 288
-0.998204, 369, 313, 496, 375
-0.998217, 337, 233, 352, 296
-0.998219, 423, 265, 438, 296
-0.998227, 341, 41, 356, 104
-0.998227, 295, 129, 310, 192
-0.998243, 439, 257, 454, 288
-0.998246, 189, 33, 220, 288
-0.998247, 119, 149, 134, 180
-0.998255, 233, 173, 248, 204
-0.998261, 215, 253, 230, 284
-0.998264, 409, 105, 440, 168
-0.998269, 229, 249, 244, 280
-0.998277, 65, 13, 192, 44
-0.998279, 309, 129, 324, 160
-0.99828, 393, 245, 408, 276
-0.998282, 257, 1, 500, 64
-0.998283, 347, 261, 362, 292
-0.998292, 227, 109, 242, 140
-0.998295, 357, 1, 388, 256
-0.998296, 431, 269, 446, 300
-0.998298, 185, 177, 216, 240
-0.998301, 345, 129, 376, 144
-0.998301, 377, 269, 408, 284
-0.998302, 137, 149, 152, 180
-0.998302, 225, 103, 256, 118
-0.998303, 157, 145, 188, 160
-0.998303, 157, 149, 172, 180
-0.998304, 225, 65, 256, 80
-0.998305, 209, 111, 240, 126
-0.998306, 205, 125, 236, 140
-0.998308, 189, 71, 220, 86
-0.99831, 231, 201, 246, 232
-0.99831, 417, 283, 448, 298
-0.998311, 141, 81, 172, 96
-0.998311, 349, 279, 380, 294
-0.998312, 141, 123, 172, 138
-0.998313, 233, 205, 264, 220
-0.998313, 131, 141, 146, 172
-0.998314, 193, 141, 224, 156
-0.998315, 417, 253, 448, 268
-0.998316, 237, 195, 268, 210
-0.998318, 365, 279, 396, 294
-0.998319, 217, 241, 248, 256
-0.998319, 257, 81, 500, 144
-0.99832, 293, 283, 324, 298
-0.99832, 237, 117, 268, 132
-0.998321, 237, 157, 268, 172
-0.998321, 357, 235, 388, 250
-0.998322, 189, 65, 220, 80
-0.998324, 205, 57, 236, 72
-0.998324, 413, 261, 444, 276
-0.998324, 205, 267, 236, 282
-0.998325, 109, 143, 140, 158
-0.998325, 397, 263, 428, 278
-0.998326, 141, 109, 172, 124
-0.998327, 229, 255, 260, 270
-0.998327, 273, 33, 400, 64
-0.998327, 209, 41, 336, 72
-0.998328, 253, 283, 284, 298
-0.99833, 213, 235, 244, 250
-0.99833, 197, 195, 228, 210
-0.99833, 237, 183, 268, 198
-0.99833, 429, 253, 460, 268
-0.998332, 205, 103, 236, 118
-0.998332, 185, 217, 216, 232
-0.998333, 217, 173, 248, 188
-0.998334, 185, 211, 216, 226
-0.998334, 341, 273, 372, 288
-0.998335, 141, 145, 172, 160
-0.998336, 421, 277, 452, 292
-0.998336, 221, 155, 252, 170
-0.998336, 225, 77, 256, 92
-0.998336, 237, 175, 268, 190
-0.998337, 325, 257, 356, 272
-0.998338, 221, 167, 252, 182
-0.998338, 449, 177, 480, 304
-0.998339, 237, 165, 268, 180
-0.99834, 437, 259, 468, 274
-0.998342, 173, 145, 204, 160
-0.998344, 209, 119, 240, 134
-0.998344, 209, 101, 336, 132
-0.998345, 237, 189, 268, 204
-0.998345, 317, 271, 348, 286
-0.998345, 277, 283, 308, 298
-0.998345, 221, 161, 252, 176
-0.998346, 245, 131, 276, 146
-0.998346, 241, 143, 272, 158
-0.998346, 303, 281, 318, 312
-0.998349, 441, 251, 472, 266
-0.998349, 321, 209, 448, 272
-0.99835, 381, 245, 412, 260
-0.99835, 337, 265, 368, 280
-0.998351, 253, 323, 284, 338
-0.998351, 205, 77, 236, 92
-0.998352, 171, 149, 186, 180
-0.998352, 483, 237, 498, 268
-0.998353, 195, 213, 210, 244
-0.998354, 469, 359, 500, 374
-0.998355, 425, 269, 456, 284
-0.998357, 233, 109, 248, 140
-0.998357, 197, 189, 228, 204
-0.998358, 469, 241, 500, 256
-0.998358, 217, 71, 248, 86
-0.99836, 225, 109, 256, 124
-0.99836, 453, 249, 484, 264
-0.998361, 205, 227, 236, 242
-0.998361, 221, 85, 252, 100
-0.998361, 209, 221, 240, 236
-0.998362, 305, 281, 336, 296
-0.998363, 165, 77, 196, 92
-0.998363, 241, 149, 272, 164
-0.998363, 345, 253, 376, 268
-0.998363, 185, 157, 216, 172
-0.998364, 245, 137, 276, 152
-0.998364, 205, 63, 236, 78
-0.998365, 191, 145, 206, 176
-0.998366, 325, 263, 356, 278
-0.998368, 225, 201, 240, 232
-0.99837, 169, 137, 184, 168
-0.998374, 321, 135, 352, 150
-0.998375, 121, 117, 152, 132
-0.998376, 145, 115, 176, 130
-0.998376, 205, 183, 236, 198
-0.998379, 249, 125, 280, 140
-0.998384, 485, 345, 500, 375
-0.998387, 309, 137, 340, 152
-0.998391, 213, 253, 244, 268
-0.998393, 221, 81, 236, 112
-0.998396, 221, 115, 252, 130
-0.998396, 221, 141, 252, 156
-0.998397, 425, 259, 456, 274
-0.998397, 163, 137, 178, 168
-0.998398, 197, 149, 228, 164
-0.998399, 177, 73, 208, 88
-0.998401, 123, 133, 138, 164
-0.998407, 227, 85, 242, 116
-0.998408, 105, 131, 136, 146
-0.998409, 109, 149, 140, 164
-0.998409, 209, 247, 240, 262
-0.998411, 243, 149, 258, 180
-0.998412, 337, 259, 368, 274
-0.998416, 317, 277, 348, 292
-0.998416, 297, 135, 328, 150
-0.998417, 225, 135, 256, 150
-0.998418, 221, 273, 252, 288
-0.99842, 285, 135, 316, 150
-0.998423, 133, 151, 164, 166
-0.998424, 121, 145, 152, 160
-0.998424, 205, 241, 236, 256
-0.998424, 193, 223, 224, 238
-0.998426, 305, 143, 336, 158
-0.998428, 357, 241, 388, 256
-0.998433, 145, 151, 176, 166
-0.998434, 229, 129, 260, 144
-0.998438, 353, 273, 480, 304
-0.998439, 143, 149, 158, 180
-0.99844, 217, 203, 248, 218
-0.998442, 149, 149, 164, 180
-0.998444, 217, 265, 248, 280
-0.998448, 193, 189, 256, 204
-0.998448, 197, 153, 212, 184
-0.998448, 217, 179, 248, 194
-0.998455, 193, 199, 256, 214
-0.998455, 201, 203, 232, 218
-0.998459, 349, 247, 380, 262
-0.998461, 1, 33, 500, 96
-0.998462, 121, 153, 152, 168
-0.998463, 161, 151, 192, 166
-0.998464, 219, 225, 234, 256
-0.998466, 213, 211, 244, 226
-0.998467, 437, 97, 468, 352
-0.998468, 239, 193, 254, 224
-0.998471, 201, 215, 232, 230
-0.998474, 191, 69, 206, 100
-0.998474, 115, 137, 130, 168
-0.998475, 221, 187, 252, 202
-0.998476, 465, 247, 496, 262
-0.998478, 165, 33, 196, 288
-0.998478, 201, 233, 232, 248
-0.998479, 193, 205, 256, 220
-0.99848, 219, 61, 234, 92
-0.99848, 409, 97, 440, 352
-0.99848, 145, 205, 272, 236
-0.998485, 207, 229, 222, 260
-0.998486, 193, 147, 256, 162
-0.998491, 359, 237, 374, 268
-0.998492, 49, 117, 176, 148
-0.998493, 177, 151, 208, 166
-0.998495, 241, 161, 256, 192
-0.998496, 307, 141, 322, 172
-0.998496, 225, 1, 352, 32
-0.998497, 345, 243, 408, 258
-0.998497, 353, 245, 368, 276
-0.998499, 135, 113, 150, 144
-0.9985, 129, 305, 384, 368
-0.998501, 153, 151, 216, 166
-0.998502, 241, 129, 304, 144
-0.998503, 185, 145, 200, 176
-0.998503, 329, 271, 360, 286
-0.998507, 179, 149, 194, 180
-0.99851, 225, 313, 352, 344
-0.998512, 209, 197, 240, 212
-0.998517, 139, 137, 154, 168
-0.998518, 193, 213, 256, 228
-0.998518, 369, 241, 400, 256
-0.998518, 201, 123, 264, 138
-0.998519, 113, 65, 144, 320
-0.998523, 221, 109, 236, 140
-0.998525, 209, 173, 224, 204
-0.998527, 223, 193, 238, 320
-0.998528, 197, 209, 228, 224
-0.998528, 419, 285, 434, 316
-0.998532, 241, 333, 368, 364
-0.998534, 129, 151, 192, 166
-0.998534, 229, 123, 260, 138
-0.998537, 181, 73, 196, 104
-0.99854, 177, 73, 240, 88
-0.998541, 229, 69, 244, 100
-0.998541, 241, 105, 256, 136
-0.998543, 193, 183, 256, 198
-0.998544, 193, 153, 256, 168
-0.998545, 369, 345, 496, 375
-0.998547, 125, 65, 156, 320
-0.998547, 301, 129, 316, 160
-0.998548, 353, 237, 480, 268
-0.998548, 113, 145, 176, 160
-0.99855, 273, 21, 400, 52
-0.99855, 217, 259, 248, 274
-0.998555, 217, 97, 232, 128
-0.998556, 109, 129, 124, 160
-0.998557, 245, 281, 260, 312
-0.998557, 221, 193, 252, 208
-0.99856, 81, 1, 112, 256
-0.99856, 273, 9, 400, 40
-0.998563, 475, 241, 490, 272
-0.998569, 321, 271, 384, 286
-0.99857, 193, 159, 256, 174
-0.99857, 155, 137, 170, 168
-0.998573, 223, 177, 238, 208
-0.998575, 297, 297, 312, 328
-0.998578, 215, 241, 230, 272
-0.998581, 225, 123, 288, 138
-0.998581, 399, 261, 414, 292
-0.998584, 201, 141, 264, 156
-0.998585, 385, 263, 448, 278
-0.998585, 239, 273, 254, 304
-0.998588, 113, 125, 176, 140
-0.998588, 201, 135, 264, 150
-0.99859, 193, 65, 256, 80
-0.998591, 209, 189, 240, 204
-0.998591, 385, 271, 448, 286
-0.998592, 105, 153, 168, 168
-0.998593, 113, 119, 176, 134
-0.998595, 113, 131, 176, 146
-0.998597, 123, 117, 138, 148
-0.998598, 193, 177, 256, 192
-0.998599, 201, 129, 264, 144
-0.998601, 321, 97, 352, 352
-0.998602, 201, 117, 264, 132
-0.998604, 289, 279, 352, 294
-0.998604, 193, 165, 256, 180
-0.998605, 273, 135, 336, 150
-0.998609, 433, 253, 496, 268
-0.998613, 193, 171, 256, 186
-0.998613, 169, 211, 232, 226
-0.998614, 421, 253, 436, 284
-0.998614, 17, 49, 144, 80
-0.998614, 197, 137, 212, 168
-0.998616, 171, 77, 186, 108
-0.998617, 313, 279, 376, 294
-0.998619, 287, 281, 302, 312
-0.998621, 177, 233, 240, 248
-0.998622, 393, 257, 456, 272
-0.998623, 217, 189, 280, 204
-0.998624, 265, 317, 280, 348
-0.998625, 145, 145, 208, 160
-0.998626, 115, 125, 130, 156
-0.998626, 89, 135, 152, 150
-0.998626, 175, 137, 190, 168
-0.998631, 295, 133, 310, 164
-0.998632, 233, 135, 296, 150
-0.998632, 275, 117, 290, 148
-0.998632, 255, 281, 270, 312
-0.998636, 297, 135, 360, 150
-0.998637, 169, 189, 232, 204
-0.998638, 241, 283, 304, 298
-0.998638, 153, 157, 216, 172
-0.998639, 97, 161, 224, 192
-0.99864, 137, 1, 168, 256
-0.99864, 233, 149, 296, 164
-0.998643, 185, 243, 248, 258
-0.998644, 235, 121, 250, 152
-0.998645, 169, 225, 232, 240
-0.998645, 413, 285, 428, 316
-0.998646, 177, 81, 240, 96
-0.998647, 169, 205, 232, 220
-0.998648, 225, 301, 352, 332
-0.998649, 325, 133, 340, 164
-0.99865, 121, 81, 184, 96
-0.99865, 113, 137, 176, 152
-0.99865, 225, 163, 288, 178
-0.99865, 201, 223, 264, 238
-0.998652, 137, 117, 200, 132
-0.998652, 193, 329, 320, 360
-0.998654, 199, 61, 214, 92
-0.998654, 297, 273, 360, 288
-0.998657, 225, 173, 288, 188
-0.998657, 153, 75, 216, 90
-0.998657, 241, 117, 304, 132
-0.998657, 233, 141, 296, 156
-0.998658, 229, 125, 244, 156
-0.998659, 425, 245, 488, 260
-0.998659, 345, 277, 408, 292
-0.998662, 131, 153, 146, 184
-0.998662, 427, 253, 442, 284
-0.998663, 281, 129, 344, 144
-0.998663, 169, 219, 232, 234
-0.998664, 185, 257, 248, 272
-0.998664, 113, 75, 176, 90
-0.998665, 321, 277, 336, 308
-0.998665, 205, 185, 220, 216
-0.998665, 193, 269, 256, 284
-0.998666, 81, 149, 144, 164
-0.998666, 305, 49, 368, 64
-0.998669, 257, 337, 272, 368
-0.99867, 265, 283, 328, 298
-0.99867, 217, 183, 280, 198
-0.998671, 217, 73, 280, 88
-0.998671, 417, 259, 480, 274
-0.998671, 193, 263, 256, 278
-0.998671, 337, 125, 400, 140
-0.998671, 241, 327, 304, 342
-0.998672, 137, 123, 200, 138
-0.998672, 225, 157, 288, 172
-0.998672, 369, 277, 432, 292
-0.998673, 185, 249, 248, 264
-0.998674, 169, 195, 232, 210
-0.998674, 169, 141, 232, 156
-0.998675, 217, 109, 280, 124
-0.998677, 225, 205, 288, 220
-0.998677, 201, 275, 264, 290
-0.998677, 225, 297, 480, 360
-0.998677, 217, 195, 280, 210
-0.998677, 345, 265, 408, 280
-0.998678, 217, 237, 280, 252
-0.998678, 225, 213, 240, 244
-0.998679, 137, 129, 200, 144
-0.998679, 177, 125, 240, 140
-0.99868, 341, 97, 372, 352
-0.99868, 217, 99, 280, 114
-0.998681, 249, 123, 312, 138
-0.998682, 267, 281, 282, 312
-0.998683, 193, 57, 256, 72
-0.998684, 409, 111, 472, 126
-0.998685, 361, 121, 424, 136
-0.998686, 233, 275, 296, 290
-0.998689, 201, 231, 264, 246
-0.998689, 273, 143, 336, 158
-0.998689, 417, 273, 432, 304
-0.998689, 121, 89, 184, 104
-0.998689, 161, 113, 224, 128
-0.998689, 297, 143, 360, 158
-0.998691, 257, 299, 320, 314
-0.998692, 217, 63, 280, 78
-0.998692, 207, 145, 222, 176
-0.998692, 345, 237, 408, 252
-0.998695, 169, 67, 232, 82
-0.998698, 89, 143, 152, 158
-0.998698, 113, 113, 176, 128
-0.998698, 309, 281, 324, 312
-0.9987, 89, 129, 152, 144
-0.9987, 153, 81, 216, 96
-0.998701, 249, 1, 280, 256
-0.998702, 257, 249, 384, 280
-0.998702, 169, 135, 232, 150
-0.998702, 225, 255, 288, 270
-0.998702, 225, 261, 288, 276
-0.998703, 225, 249, 288, 264
-0.998704, 313, 129, 376, 144
-0.998705, 409, 251, 472, 266
-0.998706, 257, 305, 320, 320
-0.998707, 217, 281, 280, 296
-0.998708, 361, 271, 424, 286
-0.998708, 177, 107, 240, 122
-0.998708, 217, 211, 280, 226
-0.998709, 265, 275, 328, 290
-0.998709, 281, 51, 344, 66
-0.99871, 281, 301, 344, 316
-0.998711, 217, 267, 280, 282
-0.998712, 217, 79, 280, 94
-0.998712, 177, 119, 240, 134
-0.998715, 433, 107, 496, 122
-0.998716, 193, 1, 256, 16
-0.998716, 89, 85, 152, 100
-0.998719, 165, 77, 180, 108
-0.998719, 291, 293, 306, 324
-0.998724, 273, 1, 304, 256
-0.998727, 273, 281, 288, 312
-0.998728, 347, 277, 362, 308
-0.998728, 193, 77, 320, 108
-0.99873, 113, 101, 240, 132
-0.998734, 207, 53, 222, 84
-0.998737, 231, 193, 246, 320
-0.998738, 377, 97, 408, 352
-0.998741, 421, 97, 452, 352
-0.998744, 153, 129, 216, 375
-0.998748, 321, 37, 448, 68
-0.998749, 205, 161, 220, 192
-0.998755, 161, 113, 176, 144
-0.998755, 155, 117, 170, 148
-0.998756, 93, 33, 124, 288
-0.998756, 215, 177, 230, 304
-0.998765, 279, 281, 294, 312
-0.998766, 177, 89, 304, 120
-0.998766, 399, 245, 414, 276
-0.998769, 373, 49, 404, 176
-0.99877, 445, 249, 460, 280
-0.998771, 133, 81, 148, 208
-0.998773, 241, 113, 256, 240
-0.998774, 397, 97, 428, 352
-0.998792, 65, 89, 192, 120
-0.998807, 145, 313, 272, 375
-0.998824, 81, 33, 208, 64
-0.998846, 273, 317, 400, 348
-0.998853, 127, 81, 142, 208
-0.998861, 297, 1, 328, 256
-0.99887, 361, 97, 392, 352
-0.998897, 353, 93, 480, 124
-0.9989, 209, 161, 224, 288
-0.998901, 329, 1, 360, 256
-0.998922, 285, 1, 316, 256
-0.998928, 229, 113, 244, 240
-0.998934, 425, 97, 456, 224
-0.998934, 437, 97, 468, 224
-0.998936, 33, 77, 160, 108
-0.998936, 273, 81, 336, 144
-0.998942, 161, 49, 288, 80
-0.998947, 301, 129, 332, 375
-0.998948, 225, 65, 352, 96
-0.998951, 235, 65, 250, 192
-0.998956, 17, 217, 144, 280
-0.998972, 341, 1, 372, 256
-0.998975, 449, 97, 480, 352
-0.998981, 289, 97, 320, 352
-0.998983, 1, 21, 128, 52
-0.999012, 1, 121, 500, 184
-0.999013, 401, 97, 432, 224
-0.999032, 369, 1, 496, 64
-0.999034, 1, 33, 128, 64
-0.999041, 193, 341, 320, 372
-0.999043, 139, 81, 154, 208
-0.999047, 353, 285, 480, 316
-0.999064, 369, 225, 496, 256
-0.999065, 337, 25, 464, 56
-0.999066, 313, 1, 344, 256
-0.999068, 93, 1, 124, 128
-0.999075, 305, 101, 432, 132
-0.999093, 225, 189, 352, 220
-0.999095, 219, 113, 234, 240
-0.999106, 257, 57, 500, 120
-0.99913, 273, 137, 400, 168
-0.999131, 273, 97, 304, 352
-0.99914, 1, 241, 256, 368
-0.999152, 121, 81, 136, 208
-0.999169, 261, 1, 292, 256
-0.999171, 65, 1, 96, 128
-0.999171, 449, 49, 480, 176
-0.999175, 257, 1, 320, 64
-0.999182, 113, 1, 176, 64
-0.999184, 237, 177, 252, 304
-0.999187, 461, 65, 492, 320
-0.999194, 149, 65, 180, 320
-0.999199, 225, 13, 352, 44
-0.9992, 221, 49, 236, 176
-0.999203, 339, 241, 354, 368
-0.999224, 203, 161, 218, 288
-0.999235, 241, 345, 368, 375
-0.99924, 229, 241, 244, 368
-0.99925, 241, 49, 256, 176
-0.999258, 235, 113, 250, 240
-0.999271, 369, 1, 400, 256
-0.999273, 177, 309, 304, 340
-0.999275, 229, 65, 244, 192
-0.999278, 369, 281, 432, 344
-0.999287, 257, 241, 272, 368
-0.999291, 159, 81, 174, 208
-0.999305, 189, 49, 204, 176
-0.999306, 213, 113, 228, 240
-0.999311, 203, 113, 218, 240
-0.999312, 293, 241, 308, 368
-0.999316, 209, 49, 224, 176
-0.999319, 181, 81, 196, 208
-0.999322, 97, 205, 224, 236
-0.999323, 249, 49, 264, 176
-0.999324, 115, 65, 130, 192
-0.999324, 145, 65, 160, 192
-0.999336, 273, 305, 400, 336
-0.999337, 217, 225, 232, 352
-0.999343, 171, 1, 186, 128
-0.99935, 205, 1, 236, 128
-0.999352, 223, 241, 238, 368
-0.999357, 401, 241, 416, 368
-0.999359, 273, 285, 400, 316
-0.999359, 131, 33, 146, 160
-0.99936, 159, 1, 174, 128
-0.999369, 209, 209, 224, 336
-0.999371, 165, 81, 180, 208
-0.999371, 165, 1, 180, 128
-0.999377, 247, 97, 262, 224
-0.999386, 225, 29, 352, 60
-0.999387, 253, 97, 284, 352
-0.999393, 345, 225, 360, 352
-0.999394, 353, 5, 480, 36
-0.999394, 203, 49, 218, 176
-0.999395, 285, 193, 316, 320
-0.999396, 1, 161, 500, 224
-0.999398, 129, 13, 256, 44
-0.9994, 1, 9, 128, 40
-0.9994, 171, 81, 186, 208
-0.9994, 435, 241, 450, 368
-0.999403, 197, 129, 212, 256
-0.999404, 423, 241, 438, 368
-0.999404, 81, 97, 144, 352
-0.999404, 177, 1, 192, 128
-0.999409, 271, 241, 286, 368
-0.99941, 125, 129, 140, 256
-0.99941, 395, 241, 410, 368
-0.999427, 141, 1, 156, 128
-0.999428, 265, 241, 280, 368
-0.99944, 151, 65, 166, 192
-0.999442, 411, 241, 426, 368
-0.999446, 145, 113, 160, 240
-0.999452, 197, 49, 212, 176
-0.999453, 333, 241, 348, 368
-0.999457, 153, 1, 168, 128
-0.999465, 187, 113, 202, 240
-0.99947, 193, 129, 224, 375
-0.999471, 361, 33, 376, 160
-0.999473, 279, 241, 294, 368
-0.999475, 355, 209, 370, 336
-0.999478, 287, 241, 302, 368
-0.999479, 457, 225, 472, 352
-0.999485, 247, 241, 262, 368
-0.999488, 97, 173, 224, 204
-0.999493, 441, 241, 456, 368
-0.999494, 185, 1, 200, 128
-0.999494, 429, 241, 444, 368
-0.999494, 215, 49, 230, 176
-0.999499, 305, 241, 320, 368
-0.999507, 133, 129, 148, 256
-0.999514, 125, 33, 140, 160
-0.999518, 1, 89, 500, 152
-0.999526, 449, 225, 464, 352
-0.999526, 473, 225, 488, 352
-0.999527, 97, 1, 224, 32
-0.999527, 177, 285, 304, 316
-0.99953, 475, 249, 490, 264
-0.99953, 437, 271, 452, 286
-0.999531, 321, 277, 336, 292
-0.999531, 343, 265, 358, 280
-0.999532, 233, 205, 248, 220
-0.999532, 239, 277, 254, 292
-0.999532, 401, 263, 416, 278
-0.999533, 451, 257, 466, 272
-0.999533, 217, 105, 232, 120
-0.999533, 123, 145, 138, 160
-0.999535, 425, 277, 440, 292
-0.999536, 223, 239, 238, 254
-0.999536, 137, 147, 152, 162
-0.999537, 229, 129, 244, 144
-0.999537, 363, 209, 378, 336
-0.999537, 423, 271, 438, 286
-0.999538, 293, 295, 308, 310
-0.999539, 243, 153, 258, 168
-0.999539, 305, 139, 320, 154
-0.99954, 215, 269, 230, 284
-0.99954, 241, 163, 256, 178
-0.99954, 167, 79, 182, 94
-0.99954, 417, 225, 432, 352
-0.99954, 201, 205, 216, 220
-0.999543, 351, 33, 366, 160
-0.999543, 361, 81, 424, 144
-0.999544, 463, 225, 478, 352
-0.999545, 455, 251, 470, 266
-0.999545, 247, 139, 262, 154
-0.999545, 355, 237, 370, 252
-0.999545, 223, 115, 238, 130
-0.999545, 203, 231, 218, 246
-0.999546, 303, 285, 318, 300
-0.999546, 325, 135, 340, 150
-0.999546, 231, 213, 246, 228
-0.999546, 131, 147, 146, 162
-0.999547, 285, 49, 300, 176
-0.999549, 431, 279, 446, 294
-0.999549, 215, 253, 230, 268
-0.99955, 303, 133, 318, 148
-0.99955, 349, 245, 364, 260
-0.999551, 421, 261, 436, 276
-0.999551, 389, 241, 404, 368
-0.999551, 183, 73, 198, 88
-0.999551, 245, 145, 260, 160
-0.999552, 297, 135, 312, 150
-0.999553, 251, 131, 266, 146
-0.999554, 195, 157, 210, 172
-0.999555, 107, 131, 122, 146
-0.999557, 117, 143, 132, 158
-0.999558, 243, 1, 258, 128
-0.999559, 417, 289, 432, 304
-0.99956, 317, 143, 332, 158
-0.99956, 223, 197, 238, 212
-0.999561, 241, 115, 256, 130
-0.999562, 343, 33, 358, 160
-0.999562, 153, 153, 168, 168
-0.999562, 213, 203, 228, 218
-0.999565, 173, 77, 188, 92
-0.999565, 113, 149, 128, 164
-0.999566, 229, 117, 244, 132
-0.999566, 151, 113, 166, 240
-0.999567, 209, 235, 224, 250
-0.999567, 231, 261, 246, 276
-0.999567, 279, 33, 294, 160
-0.999567, 201, 149, 216, 164
-0.999568, 431, 255, 446, 270
-0.999568, 419, 277, 434, 292
-0.999569, 105, 49, 120, 176
-0.999569, 441, 257, 456, 272
-0.99957, 225, 85, 240, 100
-0.999571, 433, 263, 448, 278
-0.999571, 299, 241, 314, 368
-0.999572, 195, 221, 210, 236
-0.999575, 477, 361, 492, 375
-0.999575, 337, 33, 352, 160
-0.999576, 341, 253, 356, 268
-0.999576, 227, 207, 242, 222
-0.999577, 367, 241, 382, 256
-0.999578, 171, 151, 186, 166
-0.99958, 297, 283, 312, 298
-0.999581, 361, 241, 376, 256
-0.999581, 147, 1, 162, 128
-0.999582, 269, 33, 284, 160
-0.999583, 323, 33, 338, 160
-0.999584, 395, 245, 410, 260
-0.999586, 253, 125, 268, 140
-0.999587, 373, 241, 388, 256
-0.999589, 463, 247, 478, 262
-0.99959, 227, 109, 242, 124
-0.99959, 145, 153, 160, 168
-0.999591, 329, 33, 344, 160
-0.999593, 233, 183, 248, 198
-0.999595, 195, 215, 210, 230
-0.999595, 421, 283, 436, 298
-0.999595, 249, 1, 264, 128
-0.999595, 255, 49, 270, 176
-0.999596, 483, 355, 498, 370
-0.999598, 343, 271, 358, 286
-0.999598, 297, 33, 312, 160
-0.999601, 429, 271, 444, 286
-0.999604, 159, 151, 174, 166
-0.999605, 177, 151, 192, 166
-0.999606, 327, 275, 342, 290
-0.999609, 317, 33, 332, 160
-0.99961, 317, 137, 332, 152
-0.999611, 133, 153, 148, 168
-0.999612, 235, 241, 250, 368
-0.999613, 327, 241, 342, 368
-0.999615, 331, 269, 346, 284
-0.999616, 311, 33, 326, 160
-0.99962, 165, 151, 180, 166
-0.999621, 383, 241, 398, 256
-0.999621, 355, 243, 370, 258
-0.999623, 139, 129, 154, 256
-0.999624, 217, 197, 232, 212
-0.999625, 185, 151, 200, 166
-0.999625, 235, 113, 250, 128
-0.999626, 383, 241, 398, 368
-0.999626, 139, 153, 154, 168
-0.999626, 229, 195, 244, 210
-0.999626, 311, 135, 326, 150
-0.999627, 315, 241, 330, 368
-0.999627, 485, 225, 500, 352
-0.999628, 389, 243, 404, 258
-0.99963, 429, 193, 444, 320
-0.999632, 231, 17, 246, 144
-0.999633, 127, 153, 142, 168
-0.999633, 485, 239, 500, 254
-0.999634, 207, 195, 222, 210
-0.999636, 273, 217, 400, 248
-0.999636, 79, 1, 94, 128
-0.999636, 303, 33, 318, 160
-0.999636, 213, 183, 228, 198
-0.999642, 263, 33, 278, 160
-0.999642, 291, 49, 306, 176
-0.999644, 119, 151, 134, 166
-0.999646, 293, 113, 308, 240
-0.999647, 347, 251, 362, 266
-0.99965, 377, 241, 392, 368
-0.999651, 207, 223, 222, 238
-0.999653, 211, 209, 226, 224
-0.999653, 115, 113, 130, 240
-0.999654, 225, 89, 352, 120
-0.999655, 311, 141, 326, 156
-0.999655, 97, 33, 112, 160
-0.999656, 337, 273, 352, 288
-0.999656, 201, 225, 216, 240
-0.999657, 469, 245, 484, 260
-0.999657, 225, 189, 240, 204
-0.999661, 337, 193, 352, 320
-0.999662, 223, 251, 238, 266
-0.999663, 367, 113, 382, 240
-0.999664, 191, 151, 206, 166
-0.999665, 207, 203, 222, 218
-0.999666, 241, 237, 368, 268
-0.999666, 369, 241, 384, 368
-0.999669, 321, 241, 336, 368
-0.999669, 257, 209, 500, 272
-0.99967, 241, 241, 256, 368
-0.999673, 219, 211, 234, 226
-0.999673, 221, 245, 236, 260
-0.999673, 191, 1, 206, 128
-0.999674, 231, 189, 246, 204
-0.999675, 257, 1, 272, 128
-0.999675, 277, 97, 292, 224
-0.999676, 219, 259, 234, 274
-0.999676, 237, 1, 252, 128
-0.999676, 341, 259, 356, 274
-0.999677, 367, 33, 382, 160
-0.999677, 479, 225, 494, 352
-0.999682, 89, 17, 104, 144
-0.999686, 361, 113, 376, 240
-0.999688, 337, 265, 352, 280
-0.999688, 409, 1, 472, 256
-0.99969, 475, 243, 490, 258
-0.999691, 225, 257, 240, 272
-0.999694, 229, 267, 244, 282
-0.999695, 349, 113, 364, 240
-0.999698, 49, 105, 176, 136
-0.999699, 221, 265, 236, 280
-0.999699, 299, 113, 314, 240
-0.9997, 201, 211, 216, 226
-0.999701, 209, 215, 224, 230
-0.999702, 317, 113, 332, 240
-0.999702, 349, 177, 364, 304
-0.999704, 201, 217, 216, 232
-0.999707, 243, 121, 258, 136
-0.99971, 219, 191, 234, 206
-0.999712, 393, 49, 424, 176
-0.999729, 211, 189, 226, 204
-0.99973, 211, 229, 226, 244
-0.999731, 1, 97, 128, 160
-0.999732, 217, 235, 232, 250
-0.999733, 81, 201, 208, 264
-0.999742, 321, 217, 448, 248
-0.999788, 33, 305, 160, 368
-0.999802, 305, 233, 432, 264
-0.99984, 273, 57, 400, 88
-0.99985, 337, 297, 464, 328
-0.999863, 137, 97, 168, 352
-0.999883, 177, 297, 304, 328
-0.999915, 1, 209, 500, 272
-0.999917, 1, 57, 500, 120
-0.999936, 437, 49, 468, 176
-0.999941, 289, 329, 416, 360
-0.999941, 321, 49, 448, 80
-0.99996, 145, 325, 272, 356
-0.999975, 369, 81, 496, 112
-1.00001, 177, 17, 304, 48
-1.00004, 1, 137, 128, 168
-1.00004, 1, 241, 128, 304
-1.00005, 321, 69, 448, 100
-1.00006, 129, 37, 256, 68
-1.00008, 129, 289, 256, 352
-1.0001, 145, 185, 208, 248
-1.00011, 49, 169, 176, 232
-1.00012, 381, 1, 412, 256
-1.00012, 33, 193, 160, 256
-1.00014, 257, 101, 384, 132
-1.00015, 33, 297, 288, 360
-1.00015, 1, 61, 128, 92
-1.00018, 241, 77, 368, 108
-1.00019, 33, 213, 160, 244
-1.00022, 97, 257, 224, 288
-1.00023, 1, 113, 128, 144
-1.00026, 33, 225, 160, 256
-1.00029, 69, 1, 100, 256
-1.00029, 49, 161, 176, 192
-1.00029, 177, 29, 304, 60
-1.0003, 429, 1, 460, 256
-1.0003, 17, 89, 144, 120
-1.0003, 321, 309, 448, 340
-1.00034, 405, 49, 436, 176
-1.00041, 401, 1, 432, 256
-1.00045, 33, 281, 160, 344
-1.00046, 129, 25, 192, 88
-1.00047, 181, 129, 212, 375
-1.00048, 413, 1, 444, 256
-1.00051, 253, 193, 284, 320
-1.00056, 101, 129, 132, 375
-1.00058, 1, 289, 500, 352
-1.00061, 257, 137, 500, 200
-1.00064, 17, 1, 80, 375
-1.00071, 441, 1, 472, 256
-1.00079, 81, 241, 208, 304
-1.00083, 469, 33, 500, 160
-1.00085, 97, 113, 128, 240
-1.00088, 241, 193, 304, 320
-1.00092, 241, 161, 368, 224
-1.00096, 85, 129, 116, 375
-1.00097, 69, 97, 100, 352
-1.00102, 1, 185, 500, 248
-1.00103, 53, 129, 84, 375
-1.00108, 85, 49, 116, 176
-1.00109, 1, 265, 256, 328
-1.00109, 305, 177, 432, 240
-1.0011, 297, 193, 328, 320
-1.00111, 29, 129, 60, 375
-1.00111, 1, 161, 128, 224
-1.00113, 369, 25, 496, 88
-1.00117, 257, 185, 384, 248
-1.00117, 41, 65, 72, 320
-1.0012, 425, 49, 456, 176
-1.0012, 265, 193, 296, 320
-1.00121, 5, 129, 36, 375
-1.00122, 161, 129, 192, 375
-1.00125, 241, 177, 272, 304
-1.00125, 9, 1, 40, 256
-1.00129, 21, 33, 52, 288
-1.00131, 17, 129, 48, 375
-1.00131, 81, 265, 208, 328
-1.00134, 53, 1, 84, 256
-1.00156, 97, 161, 160, 224
-1.00161, 409, 209, 472, 272
-1.00161, 369, 137, 496, 200
-1.00166, 305, 153, 432, 216
-1.00168, 1, 313, 500, 375
-1.00184, 369, 161, 496, 224
-1.00203, 81, 305, 208, 368
-1.00218, 1, 241, 64, 304
-1.00243, 181, 177, 212, 304
-1.00253, 1, 305, 64, 368
-1.00254, 97, 161, 160, 288
-1.00255, 1, 281, 64, 344
-1.0026, 97, 209, 224, 336
-1.00278, 33, 273, 96, 336
-1.0028, 145, 217, 208, 280
-1.0028, 25, 225, 88, 288
-1.0028, 41, 297, 104, 360
-1.00285, 433, 313, 496, 375
-1.00301, 133, 161, 164, 288
-1.00303, 297, 65, 360, 128
-1.00303, 409, 305, 472, 368
-1.00305, 297, 209, 360, 272
-1.0031, 17, 193, 144, 320
-1.00315, 129, 129, 192, 375
-1.00316, 65, 81, 128, 144
-1.00332, 369, 305, 432, 368
-1.00342, 241, 169, 304, 232
-1.00364, 345, 193, 408, 256
-1.00375, 401, 1, 464, 64
-1.0038, 373, 1, 404, 128
-1.00394, 265, 233, 328, 296
-1.00394, 409, 57, 472, 120
-1.00416, 349, 161, 380, 288
-1.00417, 425, 1, 488, 64
-1.00421, 329, 313, 392, 375
-1.00428, 249, 73, 312, 136
-1.0043, 9, 201, 72, 264
-1.00434, 17, 241, 144, 368
-1.00438, 57, 129, 120, 375
-1.00449, 85, 97, 116, 224
-1.00454, 49, 81, 112, 208
-1.00475, 1, 209, 32, 336
-1.0048, 9, 225, 72, 352
-1.005, 21, 241, 52, 368
-1.00514, 457, 1, 488, 128
-1.00522, 153, 193, 216, 320
-1.00536, 385, 1, 416, 128
-1.00541, 425, 1, 456, 128
-1.00546, 33, 225, 64, 352
-1.00556, 193, 241, 224, 368
-1.00578, 169, 177, 200, 304
-1.0059, 1, 129, 64, 375
-1.00601, 405, 1, 436, 128
-1.00602, 13, 177, 44, 304
-1.00605, 145, 225, 176, 352
-1.00631, 393, 1, 456, 128
-1.00633, 89, 161, 120, 288
-1.00639, 73, 81, 104, 208
-1.00644, 61, 65, 92, 192
-1.00647, 29, 129, 60, 256
-1.00647, 105, 209, 136, 336
-1.00652, 25, 97, 88, 352
-1.00658, 37, 65, 68, 192
-1.0066, 45, 225, 76, 352
-1.00663, 153, 177, 184, 304
-1.00689, 33, 225, 96, 352
-1.00695, 1, 33, 64, 288
-1.00739, 353, 145, 480, 272
-1.00766, 25, 161, 88, 288
-1.00793, 369, 1, 432, 128
-1.00796, 57, 241, 120, 368
-1.00831, 57, 161, 120, 288
-1.00836, 25, 1, 88, 256
-1.00896, 1, 97, 64, 224
-1.00928, 25, 113, 88, 240
-1.00932, 17, 49, 80, 176
-1.00955, 121, 177, 184, 304
-1.0099, 145, 241, 208, 368
-1.01013, 97, 225, 160, 352
-1.01049, 17, 1, 80, 128
-1.01101, 1, 177, 64, 304
-1.0112, 121, 225, 184, 352
-1.01268, 361, 145, 424, 272
-1.01322, 409, 145, 472, 272
-1.0153, 433, 129, 496, 256
-1.01845, 385, 145, 448, 272
