1960
-0.389168, 1, 129, 500, 375
-0.479628, 1, 1, 500, 375
-0.521131, 33, 129, 288, 375
-0.53561, 1, 33, 500, 288
-0.546283, 1, 1, 256, 375
-0.645676, 257, 1, 500, 375
-0.649487, 129, 1, 384, 375
-0.653559, 161, 129, 416, 375
-0.752135, 257, 129, 500, 375
-0.790791, 33, 33, 288, 288
-0.814041, 193, 33, 448, 288
-0.838682, 81, 129, 208, 375
-0.853781, 33, 129, 160, 375
-0.867466, 1, 177, 500, 304
-0.874661, 1, 225, 500, 352
-0.876772, 161, 129, 288, 375
-0.880026, 369, 1, 496, 375
-0.894987, 49, 1, 176, 375
-0.895722, 337, 129, 464, 375
-0.896411, 81, 33, 208, 288
-0.898709, 257, 129, 384, 375
-0.903508, 369, 1, 496, 256
-0.910279, 321, 1, 448, 375
-0.910436, 97, 1, 224, 375
-0.910948, 65, 209, 320, 336
-0.914094, 145, 1, 272, 375
-0.914287, 1, 129, 500, 256
-0.917022, 1, 1, 128, 375
-0.92237, 257, 209, 500, 336
-0.923562, 33, 145, 288, 272
-0.925326, 33, 33, 160, 288
-0.926265, 129, 33, 256, 288
-0.927652, 33, 225, 160, 352
-0.927822, 129, 161, 384, 288
-0.929163, 321, 33, 448, 288
-0.929178, 225, 1, 352, 375
-0.931836, 209, 129, 336, 375
-0.933774, 81, 161, 208, 288
-0.935107, 113, 161, 176, 288
-0.935485, 97, 209, 160, 336
-0.93685, 113, 209, 240, 336
-0.938311, 1, 161, 128, 288
-0.939471, 225, 161, 480, 288
-0.939547, 161, 241, 416, 368
-0.940547, 137, 209, 200, 336
-0.940835, 321, 209, 448, 336
-0.941009, 9, 241, 72, 368
-0.941401, 65, 209, 128, 336
-0.941633, 193, 33, 320, 288
-0.941656, 161, 161, 288, 288
-0.941748, 1, 193, 64, 320
-0.942472, 1, 81, 500, 208
-0.945545, 33, 97, 288, 224
-0.945693, 89, 161, 152, 288
-0.946474, 41, 193, 104, 320
-0.946806, 1, 33, 500, 160
-0.947361, 369, 225, 496, 352
-0.948556, 65, 169, 128, 232
-0.949604, 273, 1, 400, 375
-0.950092, 9, 257, 72, 320
-0.950302, 137, 161, 200, 288
-0.950327, 89, 169, 152, 232
-0.950732, 41, 241, 104, 368
-0.951895, 369, 1, 496, 128
-0.952269, 177, 145, 240, 272
-0.952283, 113, 113, 240, 240
-0.952558, 417, 241, 480, 368
-0.956882, 97, 297, 160, 360
-0.956933, 89, 241, 152, 304
-0.956976, 241, 177, 368, 304
-0.957024, 49, 297, 112, 360
-0.957162, 33, 257, 96, 320
-0.958004, 9, 289, 72, 352
-0.958199, 241, 241, 368, 368
-0.95884, 161, 113, 416, 240
-0.958882, 137, 209, 200, 272
-0.959057, 273, 33, 400, 288
-0.95909, 65, 129, 128, 256
-0.960291, 193, 241, 320, 368
-0.960354, 393, 1, 456, 128
-0.961405, 401, 233, 464, 296
-0.962905, 97, 273, 160, 336
-0.96308, 137, 185, 200, 248
-0.963519, 113, 169, 176, 232
-0.963698, 1, 201, 64, 264
-0.963893, 377, 209, 440, 336
-0.964065, 49, 113, 176, 240
-0.964119, 321, 161, 448, 288
-0.964532, 337, 177, 400, 304
-0.964763, 145, 241, 208, 304
-0.964807, 433, 1, 496, 128
-0.965943, 41, 169, 104, 232
-0.966664, 161, 209, 224, 336
-0.966848, 249, 241, 312, 368
-0.966864, 425, 241, 488, 304
-0.967014, 33, 249, 160, 312
-0.967371, 89, 129, 152, 375
-0.967453, 417, 265, 480, 328
-0.96754, 37, 241, 68, 368
-0.967647, 49, 297, 176, 360
-0.967816, 65, 249, 128, 312
-0.96797, 417, 177, 480, 304
-0.968416, 89, 113, 152, 240
-0.968486, 49, 169, 176, 232
-0.968638, 201, 177, 264, 304
-0.96894, 93, 161, 124, 224
-0.968997, 121, 257, 184, 320
-0.969051, 25, 129, 88, 256
-0.969081, 225, 177, 288, 304
-0.96931, 169, 169, 232, 232
-0.969381, 73, 297, 136, 360
-0.969625, 361, 185, 424, 248
-0.969648, 377, 1, 440, 64
-0.969676, 77, 169, 108, 232
-0.969784, 1, 233, 64, 296
-0.970059, 17, 313, 80, 375
-0.970225, 73, 273, 136, 336
-0.970408, 297, 177, 360, 304
-0.970453, 105, 169, 136, 232
-0.970663, 137, 113, 200, 240
-0.97069, 369, 177, 496, 304
-0.971719, 225, 241, 288, 368
-0.972103, 65, 193, 128, 256
-0.972223, 33, 249, 64, 312
-0.972223, 113, 217, 176, 280
-0.972395, 21, 241, 52, 368
-0.972573, 33, 273, 160, 336
-0.972715, 81, 209, 208, 272
-0.972733, 129, 161, 160, 288
-0.972864, 89, 201, 152, 264
-0.972869, 369, 129, 496, 256
-0.972938, 45, 265, 76, 328
-0.972968, 65, 97, 128, 352
-0.972989, 1, 169, 128, 232
-0.973235, 125, 209, 156, 336
-0.97332, 161, 65, 416, 192
-0.973408, 361, 161, 424, 288
-0.973421, 161, 161, 192, 288
-0.973734, 121, 297, 152, 360
-0.973852, 21, 249, 52, 312
-0.973966, 17, 169, 80, 232
-0.974061, 177, 129, 240, 375
-0.974211, 117, 161, 148, 224
-0.974216, 177, 193, 240, 256
-0.974229, 93, 209, 124, 336
-0.974327, 437, 225, 468, 352
-0.974462, 41, 129, 104, 375
-0.974474, 109, 241, 140, 368
-0.97466, 437, 241, 468, 304
-0.975203, 177, 217, 240, 280
-0.975244, 257, 177, 320, 304
-0.97535, 9, 249, 40, 312
-0.975368, 113, 169, 240, 232
-0.975428, 21, 289, 52, 352
-0.975449, 273, 241, 336, 368
-0.97548, 297, 241, 360, 368
-0.975545, 1, 49, 256, 176
-0.97558, 113, 193, 144, 320
-0.975596, 33, 273, 64, 336
-0.975746, 113, 97, 176, 352
-0.975788, 113, 193, 176, 256
-0.975842, 257, 113, 500, 240
-0.976065, 337, 233, 464, 296
-0.976116, 49, 225, 112, 288
-0.976244, 113, 145, 240, 208
-0.976342, 81, 145, 144, 208
-0.976385, 369, 1, 432, 128
-0.976437, 13, 193, 44, 320
-0.97651, 33, 297, 64, 360
-0.976615, 153, 209, 184, 336
-0.97662, 161, 113, 288, 240
-0.976634, 209, 113, 336, 240
-0.976812, 121, 241, 152, 304
-0.976839, 337, 225, 400, 288
-0.976991, 1, 113, 128, 240
-0.977165, 169, 209, 200, 336
-0.977418, 1, 201, 128, 264
-0.97747, 53, 297, 84, 360
-0.977487, 337, 185, 400, 248
-0.977514, 273, 129, 400, 256
-0.977534, 125, 273, 156, 336
-0.977683, 165, 209, 196, 272
-0.977755, 81, 241, 208, 304
-0.977852, 337, 225, 400, 352
-0.977987, 105, 145, 168, 208
-0.978121, 129, 305, 192, 368
-0.978128, 1, 185, 32, 248
-0.978169, 369, 81, 432, 208
-0.978221, 161, 193, 288, 256
-0.978239, 161, 17, 416, 144
-0.9783, 137, 257, 168, 320
-0.978467, 297, 257, 360, 320
-0.978479, 25, 201, 88, 264
-0.978554, 1, 161, 32, 288
-0.978612, 97, 65, 224, 192
-0.978631, 201, 241, 264, 368
-0.978631, 369, 161, 432, 224
-0.978641, 149, 161, 180, 288
-0.978656, 369, 49, 496, 176
-0.978769, 393, 161, 456, 288
-0.978776, 169, 145, 232, 208
-0.978835, 377, 225, 440, 288
-0.978878, 73, 177, 104, 304
-0.978967, 137, 129, 200, 375
-0.979279, 169, 185, 200, 248
-0.979322, 337, 129, 400, 256
-0.97934, 73, 241, 104, 368
-0.979354, 141, 241, 172, 368
-0.979381, 1, 297, 128, 360
-0.979392, 401, 1, 464, 64
-0.979483, 57, 145, 120, 208
-0.979601, 137, 161, 200, 224
-0.979688, 101, 129, 132, 256
-0.979785, 157, 241, 188, 304
-0.979999, 81, 297, 112, 360
-0.980024, 145, 233, 272, 296
-0.980061, 337, 273, 464, 336
-0.980213, 113, 113, 176, 240
-0.980214, 113, 129, 144, 256
-0.980219, 65, 169, 96, 232
-0.980408, 89, 161, 120, 288
-0.980511, 133, 169, 164, 232
-0.980864, 209, 113, 272, 240
-0.981092, 449, 249, 480, 312
-0.981158, 1, 209, 32, 272
-0.981232, 161, 97, 224, 224
-0.981259, 369, 65, 432, 320
-0.981327, 241, 257, 368, 320
-0.981505, 425, 225, 456, 352
-0.981562, 137, 217, 168, 280
-0.98162, 33, 225, 160, 288
-0.981684, 29, 193, 60, 320
-0.981717, 257, 1, 500, 128
-0.981792, 105, 273, 136, 336
-0.981935, 421, 233, 452, 296
-0.981953, 161, 169, 288, 232
-0.981984, 81, 273, 208, 336
-0.982043, 49, 241, 80, 368
-0.982055, 89, 233, 120, 296
-0.982409, 17, 129, 80, 375
-0.98253, 249, 257, 312, 320
-0.98258, 329, 161, 392, 224
-0.982648, 433, 9, 496, 72
-0.982686, 337, 129, 400, 375
-0.982727, 385, 193, 448, 256
-0.982732, 109, 297, 140, 360
-0.982772, 1, 145, 64, 272
-0.982905, 369, 9, 496, 72
-0.982958, 77, 129, 108, 256
-0.982959, 121, 185, 152, 248
-0.98307, 313, 129, 376, 256
-0.983169, 321, 97, 448, 224
-0.983214, 457, 177, 488, 304
-0.983235, 65, 289, 96, 352
-0.983293, 1, 241, 32, 368
-0.983574, 185, 129, 216, 256
-0.983737, 9, 273, 40, 336
-0.983978, 93, 185, 124, 248
-0.983986, 373, 185, 404, 248
-0.984073, 105, 249, 136, 312
-0.984102, 97, 305, 224, 368
-0.984116, 449, 241, 480, 368
-0.984136, 21, 313, 52, 375
-0.984172, 57, 193, 88, 320
-0.984311, 273, 265, 336, 328
-0.984348, 1, 25, 64, 88
-0.984348, 433, 1, 496, 256
-0.984518, 405, 209, 436, 336
-0.984596, 53, 169, 84, 232
-0.98465, 405, 1, 436, 64
-0.984684, 157, 185, 188, 248
-0.984699, 25, 233, 88, 296
-0.984752, 461, 233, 492, 296
-0.98477, 425, 265, 456, 328
-0.984799, 169, 233, 200, 296
-0.984805, 173, 161, 204, 288
-0.984818, 289, 257, 416, 320
-0.984818, 257, 281, 384, 344
-0.984844, 305, 193, 432, 256
-0.984952, 1, 145, 64, 208
-0.985, 305, 281, 368, 344
-0.985024, 69, 265, 100, 328
-0.985041, 33, 65, 160, 192
-0.985089, 425, 177, 456, 304
-0.98509, 393, 273, 456, 336
-0.985166, 345, 177, 376, 304
-0.98526, 57, 249, 88, 312
-0.985336, 77, 193, 108, 256
-0.985343, 145, 113, 208, 176
-0.985358, 201, 153, 264, 216
-0.985376, 89, 257, 120, 320
-0.9854, 201, 193, 264, 256
-0.985464, 437, 265, 468, 328
-0.985504, 369, 65, 432, 128
-0.985588, 369, 185, 496, 248
-0.985682, 133, 305, 164, 368
-0.985748, 65, 145, 192, 208
-0.985767, 405, 1, 436, 128
-0.986108, 145, 185, 176, 248
-0.986127, 257, 233, 384, 296
-0.986129, 377, 41, 440, 104
-0.986154, 93, 281, 124, 344
-0.986185, 101, 209, 132, 272
-0.986252, 77, 241, 108, 304
-0.986373, 437, 177, 468, 304
-0.986547, 1, 145, 128, 208
-0.986635, 145, 49, 208, 176
-0.986636, 369, 89, 432, 152
-0.98668, 217, 129, 280, 375
-0.986697, 1, 1, 256, 128
-0.986768, 409, 209, 472, 272
-0.986862, 385, 185, 416, 248
-0.986863, 265, 241, 296, 368
-0.986864, 393, 161, 456, 224
-0.986874, 133, 113, 164, 240
-0.986883, 377, 1, 440, 375
-0.98697, 137, 33, 200, 288
-0.986978, 197, 129, 228, 256
-0.986982, 153, 209, 184, 272
-0.98709, 409, 129, 472, 375
-0.987122, 289, 49, 416, 176
-0.987209, 381, 161, 412, 224
-0.987212, 257, 49, 500, 176
-0.987279, 113, 209, 144, 272
-0.98738, 369, 161, 496, 224
-0.987487, 213, 177, 244, 304
-0.987581, 277, 241, 308, 368
-0.987674, 133, 193, 164, 256
-0.987683, 25, 145, 88, 208
-0.987707, 229, 177, 260, 304
-0.987742, 329, 273, 392, 336
-0.987747, 297, 129, 360, 375
-0.987751, 1, 1, 64, 64
-0.987767, 13, 209, 44, 272
-0.987849, 389, 1, 420, 64
-0.987857, 193, 257, 320, 320
-0.987875, 225, 185, 288, 248
-0.987907, 357, 193, 388, 256
-0.987968, 129, 265, 256, 328
-0.988004, 289, 161, 416, 224
-0.988027, 161, 49, 288, 176
-0.988059, 321, 1, 448, 64
-0.988079, 121, 281, 184, 344
-0.988087, 357, 177, 388, 304
-0.988126, 433, 1, 464, 128
-0.988193, 89, 33, 152, 288
-0.988271, 305, 193, 368, 256
-0.988271, 421, 1, 452, 128
-0.988317, 69, 313, 100, 375
-0.988387, 1, 313, 32, 375
-0.98839, 409, 185, 472, 248
-0.988435, 9, 253, 72, 284
-0.988449, 45, 241, 76, 304
-0.988452, 249, 177, 280, 304
-0.988455, 253, 241, 284, 368
-0.988472, 185, 209, 216, 272
-0.988475, 193, 137, 224, 200
-0.988539, 81, 177, 144, 208
-0.988558, 469, 1, 500, 128
-0.988624, 1, 1, 64, 375
-0.988632, 453, 1, 484, 128
-0.988657, 89, 209, 120, 272
-0.988682, 225, 249, 288, 312
-0.988751, 161, 145, 288, 208
-0.988752, 113, 121, 240, 184
-0.988757, 305, 233, 368, 296
-0.988795, 33, 121, 160, 184
-0.988798, 461, 241, 492, 368
-0.988807, 393, 1, 424, 128
-0.988835, 353, 73, 480, 136
-0.988864, 341, 233, 372, 296
-0.988881, 1, 1, 64, 128
-0.988922, 1, 33, 32, 96
-0.988948, 137, 209, 200, 240
-0.988968, 65, 225, 96, 288
-0.988979, 433, 1, 496, 375
-0.988995, 81, 145, 112, 208
-0.988996, 57, 177, 120, 208
-0.989005, 469, 177, 500, 304
-0.989015, 65, 197, 128, 228
-0.989043, 433, 129, 496, 375
-0.98907, 57, 165, 120, 196
-0.989074, 105, 245, 168, 276
-0.989094, 373, 161, 404, 288
-0.989146, 433, 177, 496, 240
-0.989183, 13, 185, 44, 248
-0.98919, 257, 233, 500, 296
-0.989277, 81, 165, 144, 196
-0.989343, 409, 233, 440, 296
-0.989377, 241, 129, 304, 375
-0.989405, 9, 265, 72, 296
-0.989416, 1, 97, 64, 224
-0.989448, 417, 1, 448, 64
-0.989491, 73, 293, 136, 324
-0.989517, 321, 1, 448, 128
-0.989601, 17, 285, 80, 316
-0.989647, 369, 49, 496, 112
-0.989647, 213, 153, 244, 216
-0.989674, 393, 49, 456, 176
-0.989679, 433, 217, 496, 280
-0.989694, 261, 177, 292, 304
-0.989721, 57, 245, 120, 276
-0.989766, 105, 145, 136, 208
-0.989773, 325, 177, 356, 304
-0.989792, 33, 169, 288, 232
-0.989845, 33, 261, 96, 292
-0.989853, 105, 121, 168, 184
-0.989867, 81, 241, 144, 272
-0.989873, 57, 81, 120, 208
-0.989906, 385, 49, 416, 176
-0.989913, 145, 241, 208, 272
-0.989946, 353, 1, 416, 375
-0.989952, 89, 197, 152, 228
-0.989961, 417, 269, 480, 300
-0.989984, 353, 97, 480, 160
-0.989989, 213, 129, 244, 256
-0.990031, 241, 241, 272, 368
-0.990041, 121, 193, 184, 224
-0.990067, 25, 197, 88, 228
-0.990097, 93, 305, 124, 368
-0.990122, 257, 129, 320, 256
-0.990126, 113, 1, 176, 256
-0.990176, 97, 289, 160, 320
-0.990178, 17, 297, 80, 328
-0.990189, 1, 257, 500, 320
-0.990214, 449, 273, 480, 336
-0.990215, 105, 169, 168, 200
-0.990228, 97, 301, 160, 332
-0.990251, 361, 189, 424, 220
-0.990292, 97, 257, 352, 320
-0.990304, 113, 209, 176, 240
-0.990308, 1, 201, 64, 232
-0.990383, 145, 197, 208, 228
-0.990387, 33, 181, 96, 212
-0.990389, 369, 209, 496, 272
-0.990391, 73, 209, 136, 240
-0.990451, 241, 185, 368, 248
-0.990483, 49, 297, 112, 328
-0.990492, 369, 177, 432, 208
-0.990534, 369, 113, 432, 176
-0.990603, 41, 277, 104, 308
-0.99064, 233, 129, 296, 256
-0.990652, 401, 193, 432, 256
-0.990657, 145, 137, 208, 200
-0.990797, 33, 321, 96, 352
-0.990827, 421, 201, 452, 264
-0.990848, 137, 229, 200, 260
-0.990875, 401, 237, 464, 268
-0.990881, 265, 289, 328, 352
-0.990886, 41, 121, 104, 184
-0.990913, 209, 153, 336, 216
-0.990941, 169, 177, 232, 208
-0.990957, 185, 177, 216, 304
-0.990959, 289, 241, 320, 368
-0.991034, 145, 297, 272, 360
-0.991038, 461, 257, 492, 320
-0.991046, 57, 257, 120, 288
-0.991086, 177, 197, 240, 228
-0.991125, 413, 265, 444, 328
-0.99113, 49, 113, 80, 240
-0.991135, 1, 289, 256, 352
-0.991135, 1, 1, 128, 128
-0.991164, 61, 201, 92, 264
-0.991192, 81, 253, 144, 284
-0.991204, 393, 189, 456, 220
-0.991227, 113, 1, 176, 375
-0.991234, 9, 241, 72, 272
-0.991251, 65, 329, 128, 360
-0.991267, 1, 249, 256, 312
-0.991282, 113, 233, 176, 264
-0.9913, 57, 233, 120, 264
-0.991306, 33, 169, 96, 200
-0.991355, 393, 161, 424, 224
-0.991367, 333, 257, 364, 320
-0.991401, 145, 1, 208, 375
-0.99143, 385, 65, 416, 128
-0.99144, 337, 189, 400, 220
-0.991467, 33, 337, 96, 368
-0.991476, 133, 145, 164, 208
-0.991495, 73, 277, 136, 308
-0.991496, 185, 97, 248, 224
-0.991497, 385, 177, 416, 304
-0.991502, 409, 257, 472, 288
-0.991532, 9, 321, 72, 352
-0.991535, 145, 305, 176, 368
-0.99154, 1, 233, 500, 296
-0.991576, 329, 297, 392, 360
-0.991587, 465, 9, 496, 72
-0.991587, 433, 257, 496, 288
-0.991606, 121, 273, 184, 304
-0.991609, 137, 181, 200, 212
-0.99163, 137, 257, 200, 288
-0.991636, 49, 209, 112, 240
-0.991643, 377, 229, 440, 260
-0.991649, 433, 189, 496, 220
-0.991652, 65, 341, 128, 372
-0.991675, 229, 241, 260, 368
-0.991675, 69, 145, 100, 208
-0.991693, 89, 229, 152, 260
-0.991693, 17, 309, 80, 340
-0.991696, 77, 217, 108, 280
-0.991748, 89, 321, 152, 352
-0.991753, 209, 289, 336, 352
-0.991755, 241, 289, 304, 352
-0.991763, 65, 1, 128, 256
-0.991767, 397, 225, 428, 288
-0.991791, 121, 301, 184, 332
-0.991793, 33, 249, 96, 280
-0.991806, 177, 225, 240, 256
-0.99185, 337, 233, 400, 264
-0.99185, 453, 9, 484, 72
-0.991858, 81, 1, 208, 128
-0.991863, 401, 161, 432, 288
-0.991871, 121, 157, 184, 188
-0.991891, 265, 185, 328, 248
-0.991896, 89, 341, 152, 372
-0.991901, 161, 137, 224, 168
-0.991903, 329, 177, 392, 208
-0.991911, 161, 209, 224, 240
-0.991913, 65, 1, 128, 375
-0.991925, 273, 177, 304, 304
-0.99193, 113, 165, 144, 196
-0.991948, 409, 1, 472, 375
-0.991953, 305, 305, 432, 368
-0.991975, 401, 9, 464, 40
-0.99199, 97, 277, 160, 308
-0.991994, 97, 233, 352, 296
-0.992026, 169, 237, 232, 268
-0.992048, 241, 209, 368, 272
-0.992057, 369, 209, 400, 336
-0.992063, 377, 5, 440, 36
-0.992083, 377, 97, 408, 224
-0.992093, 337, 81, 400, 208
-0.992103, 393, 177, 456, 208
-0.992109, 105, 181, 168, 212
-0.992122, 377, 73, 440, 104
-0.992126, 425, 13, 488, 44
-0.992127, 85, 177, 116, 208
-0.992133, 1, 229, 64, 260
-0.99214, 129, 321, 192, 352
-0.992141, 333, 241, 364, 368
-0.992143, 209, 185, 272, 216
-0.992165, 81, 265, 144, 296
-0.992176, 313, 269, 376, 300
-0.992177, 37, 285, 68, 316
-0.992186, 65, 169, 96, 200
-0.992197, 113, 177, 144, 208
-0.992197, 1, 213, 64, 244
-0.992201, 1, 185, 64, 216
-0.992209, 201, 129, 264, 192
-0.992213, 33, 233, 96, 264
-0.992216, 25, 33, 88, 288
-0.992235, 433, 245, 496, 276
-0.992243, 1, 33, 32, 160
-0.992267, 193, 193, 448, 256
-0.992277, 1, 37, 64, 68
-0.992281, 105, 289, 136, 320
-0.992284, 305, 289, 368, 320
-0.992307, 29, 253, 60, 284
-0.992312, 337, 273, 400, 304
-0.992315, 45, 193, 76, 320
-0.992326, 393, 273, 456, 304
-0.992348, 101, 165, 132, 196
-0.992367, 113, 257, 176, 288
-0.992377, 297, 257, 360, 288
-0.992382, 73, 193, 104, 224
-0.992388, 85, 165, 116, 196
-0.992414, 137, 125, 200, 156
-0.992419, 369, 89, 432, 120
-0.99243, 49, 253, 176, 284
-0.992431, 97, 177, 128, 208
-0.992437, 57, 317, 120, 348
-0.992456, 53, 253, 84, 284
-0.992476, 89, 241, 120, 272
-0.992482, 345, 265, 376, 328
-0.992485, 1, 25, 64, 56
-0.992501, 69, 181, 100, 212
-0.992505, 113, 333, 176, 364
-0.992517, 1, 49, 64, 80
-0.992518, 1, 333, 64, 364
-0.992518, 21, 269, 52, 300
-0.992523, 377, 57, 440, 88
-0.992524, 137, 241, 168, 272
-0.992534, 165, 209, 196, 240
-0.992537, 169, 165, 232, 196
-0.992543, 121, 285, 184, 316
-0.992547, 169, 1, 232, 375
-0.992557, 93, 293, 124, 324
-0.992567, 29, 297, 60, 328
-0.992568, 53, 297, 84, 328
-0.992572, 93, 137, 124, 200
-0.992578, 165, 197, 196, 228
-0.99258, 85, 197, 116, 228
-0.992582, 81, 121, 144, 184
-0.992593, 433, 177, 496, 208
-0.992596, 1, 209, 32, 240
-0.992601, 41, 305, 72, 336
-0.992605, 1, 49, 64, 112
-0.992607, 417, 129, 480, 256
-0.992608, 265, 129, 328, 375
-0.992613, 297, 177, 328, 304
-0.99262, 113, 197, 144, 228
-0.992624, 81, 97, 208, 160
-0.992627, 41, 261, 72, 292
-0.992635, 193, 121, 320, 184
-0.992636, 125, 241, 156, 272
-0.992636, 105, 245, 136, 276
-0.992639, 369, 137, 432, 200
-0.992642, 373, 189, 404, 220
-0.992644, 1, 257, 32, 288
-0.992651, 129, 209, 160, 240
-0.992654, 53, 177, 84, 208
-0.992659, 265, 185, 328, 216
-0.992666, 129, 297, 160, 328
-0.992671, 149, 209, 180, 240
-0.992677, 117, 281, 148, 312
-0.992679, 345, 193, 376, 256
-0.992679, 337, 285, 400, 316
-0.99268, 117, 209, 148, 240
-0.992683, 33, 177, 64, 240
-0.992699, 1, 197, 32, 228
-0.992701, 153, 245, 184, 276
-0.992706, 1, 165, 64, 196
-0.992714, 61, 325, 92, 356
-0.992715, 1, 345, 64, 375
-0.992724, 437, 245, 468, 276
-0.992724, 369, 101, 432, 132
-0.992728, 33, 225, 64, 288
-0.992733, 61, 241, 92, 368
-0.992737, 421, 269, 452, 300
-0.992738, 105, 121, 168, 152
-0.992741, 97, 197, 128, 228
-0.992751, 21, 285, 52, 316
-0.992753, 101, 209, 132, 240
-0.992762, 145, 305, 208, 336
-0.992762, 129, 169, 192, 200
-0.992769, 433, 1, 496, 32
-0.992769, 201, 173, 264, 204
-0.992773, 169, 149, 232, 180
-0.992793, 81, 153, 144, 184
-0.992794, 13, 193, 44, 224
-0.992797, 77, 245, 108, 276
-0.992819, 113, 221, 176, 252
-0.992833, 33, 273, 64, 304
-0.992836, 409, 285, 472, 316
-0.992837, 17, 257, 48, 288
-0.992843, 433, 229, 496, 260
-0.992849, 457, 257, 488, 288
-0.992849, 353, 121, 480, 184
-0.99285, 125, 165, 156, 196
-0.99285, 81, 293, 112, 324
-0.99285, 377, 177, 408, 208
-0.99286, 117, 293, 148, 324
-0.992863, 305, 73, 432, 136
-0.992865, 361, 165, 424, 196
-0.992869, 77, 329, 108, 360
-0.992871, 133, 189, 164, 220
-0.992871, 73, 305, 136, 336
-0.992873, 77, 209, 108, 240
-0.992874, 49, 285, 80, 316
-0.992881, 49, 317, 80, 348
-0.992883, 21, 313, 52, 344
-0.992887, 249, 233, 312, 296
-0.992888, 389, 181, 420, 212
-0.992893, 153, 197, 184, 228
-0.9929, 289, 277, 352, 308
-0.992901, 241, 257, 304, 288
-0.992906, 37, 249, 52, 312
-0.992915, 209, 233, 336, 296
-0.992933, 1, 13, 64, 44
-0.99295, 165, 241, 196, 272
-0.992958, 125, 253, 156, 284
-0.992959, 353, 129, 384, 256
-0.992959, 53, 265, 84, 296
-0.992961, 437, 269, 468, 300
-0.992963, 125, 177, 156, 208
-0.992964, 41, 249, 72, 280
-0.992964, 1, 245, 32, 276
-0.992966, 41, 121, 104, 152
-0.99297, 65, 297, 96, 328
-0.992972, 17, 345, 48, 375
-0.99298, 409, 225, 472, 256
-0.992984, 113, 81, 144, 208
-0.992988, 457, 245, 488, 276
-0.992999, 129, 269, 160, 300
-0.993, 233, 185, 296, 216
-0.993, 181, 169, 212, 232
-0.993005, 89, 209, 120, 240
-0.993011, 337, 221, 400, 252
-0.993012, 57, 153, 120, 184
-0.993014, 1, 329, 32, 360
-0.993015, 49, 189, 80, 220
-0.993023, 165, 229, 196, 260
-0.993024, 125, 217, 156, 280
-0.993032, 33, 157, 96, 188
-0.993038, 169, 121, 232, 184
-0.993041, 33, 145, 288, 208
-0.993043, 257, 265, 500, 328
-0.993044, 105, 301, 136, 332
-0.993049, 141, 257, 172, 288
-0.993051, 33, 333, 64, 364
-0.993061, 85, 257, 116, 288
-0.993066, 377, 249, 440, 312
-0.993069, 93, 281, 124, 312
-0.993074, 53, 165, 84, 196
-0.993077, 73, 281, 104, 312
-0.993097, 65, 245, 96, 276
-0.9931, 33, 177, 160, 208
-0.993107, 25, 197, 56, 228
-0.993117, 61, 197, 92, 228
-0.993118, 105, 161, 120, 224
-0.993134, 401, 189, 432, 220
-0.993136, 13, 241, 44, 272
-0.993136, 285, 177, 316, 304
-0.993141, 401, 65, 464, 128
-0.993147, 89, 333, 120, 364
-0.993149, 13, 205, 44, 236
-0.993158, 105, 273, 136, 304
-0.993159, 169, 185, 200, 216
-0.993162, 389, 193, 420, 224
-0.993174, 101, 233, 132, 264
-0.993177, 289, 137, 416, 200
-0.993178, 1, 45, 32, 76
-0.993179, 177, 197, 208, 228
-0.993184, 113, 169, 128, 232
-0.993188, 469, 189, 500, 220
-0.993189, 417, 237, 448, 268
-0.993194, 1, 269, 32, 300
-0.993195, 37, 185, 68, 216
-0.993206, 73, 261, 104, 292
-0.993207, 441, 189, 472, 220
-0.993209, 1, 33, 32, 64
-0.993213, 457, 189, 488, 220
-0.993219, 17, 297, 48, 328
-0.99322, 413, 189, 444, 220
-0.993222, 445, 257, 476, 288
-0.993227, 425, 189, 456, 220
-0.993229, 449, 269, 480, 300
-0.993239, 193, 137, 224, 168
-0.993243, 1, 21, 32, 52
-0.993244, 61, 281, 92, 312
-0.993249, 21, 333, 52, 364
-0.99325, 101, 337, 132, 368
-0.993255, 181, 233, 212, 264
-0.993256, 201, 177, 232, 304
-0.993258, 213, 177, 244, 208
-0.993258, 305, 169, 368, 232
-0.993264, 141, 229, 172, 260
-0.993264, 361, 189, 392, 220
-0.993269, 341, 233, 372, 264
-0.99327, 65, 209, 96, 240
-0.993274, 405, 233, 436, 264
-0.993275, 1, 225, 256, 288
-0.993276, 169, 241, 232, 304
-0.993283, 177, 209, 208, 240
-0.993285, 345, 273, 376, 304
-0.993298, 113, 233, 144, 264
-0.993299, 89, 229, 120, 260
-0.9933, 137, 321, 168, 352
-0.993304, 389, 5, 420, 36
-0.993305, 69, 157, 100, 188
-0.993305, 1, 185, 32, 216
-0.993313, 405, 177, 436, 208
-0.993344, 277, 257, 308, 320
-0.993407, 1, 289, 500, 352
-0.993414, 1, 1, 32, 64
-0.993435, 385, 41, 416, 104
-0.993444, 337, 65, 400, 128
-0.993463, 213, 193, 244, 256
-0.99347, 99, 169, 114, 232
-0.993488, 437, 217, 468, 280
-0.993505, 433, 289, 496, 352
-0.993516, 413, 161, 444, 288
-0.993543, 89, 113, 120, 240
-0.993544, 1, 161, 32, 224
-0.993546, 37, 289, 52, 352
-0.993551, 153, 297, 216, 360
-0.993552, 93, 169, 108, 232
-0.993559, 321, 249, 352, 312
-0.993578, 97, 297, 352, 360
-0.993617, 309, 177, 340, 304
-0.993666, 65, 193, 192, 224
-0.993673, 121, 65, 184, 192
-0.993699, 33, 285, 160, 316
-0.993729, 89, 1, 152, 375
-0.993735, 129, 97, 256, 160
-0.993738, 1, 33, 64, 288
-0.993765, 181, 233, 212, 296
-0.993785, 33, 1, 96, 375
-0.993827, 305, 241, 336, 368
-0.993841, 87, 169, 102, 232
-0.993844, 169, 1, 232, 256
-0.993856, 265, 257, 296, 320
-0.99386, 441, 9, 472, 72
-0.993866, 137, 89, 200, 152
-0.993894, 81, 49, 208, 112
-0.993907, 149, 161, 180, 224
-0.993916, 357, 225, 388, 288
-0.993918, 33, 193, 288, 256
-0.993955, 13, 145, 44, 272
-0.993998, 81, 209, 208, 240
-0.994027, 49, 297, 176, 328
-0.994082, 1, 197, 128, 228
-0.99409, 49, 165, 176, 196
-0.994111, 353, 1, 416, 64
-0.994129, 173, 113, 204, 240
-0.994135, 451, 241, 466, 304
-0.994155, 369, 281, 432, 344
-0.994178, 1, 193, 500, 256
-0.994182, 1, 161, 500, 224
-0.994186, 385, 225, 416, 288
-0.994194, 345, 225, 376, 352
-0.994197, 161, 161, 192, 224
-0.99423, 127, 273, 142, 336
-0.99427, 193, 161, 448, 224
-0.994289, 289, 97, 416, 160
-0.994292, 11, 249, 26, 312
-0.994292, 113, 161, 240, 192
-0.994294, 429, 9, 460, 72
-0.994318, 3, 241, 18, 304
-0.994363, 409, 1, 472, 256
-0.994389, 201, 169, 232, 232
-0.994404, 97, 241, 224, 272
-0.994432, 1, 25, 128, 88
-0.994437, 31, 249, 46, 312
-0.994443, 449, 225, 480, 288
-0.99449, 201, 33, 264, 288
-0.994492, 97, 49, 160, 176
-0.994501, 433, 97, 496, 160
-0.994501, 225, 225, 288, 288
-0.99451, 217, 241, 248, 368
-0.994527, 79, 169, 94, 232
-0.994531, 337, 137, 400, 200
-0.994543, 43, 249, 58, 312
-0.994555, 257, 305, 384, 368
-0.994557, 289, 265, 320, 328
-0.994567, 43, 297, 58, 360
-0.994581, 461, 177, 492, 240
-0.994587, 209, 1, 272, 375
-0.994605, 337, 249, 400, 312
-0.994607, 49, 241, 176, 272
-0.99461, 181, 137, 212, 200
-0.994615, 217, 297, 280, 360
-0.994625, 31, 289, 46, 352
-0.994638, 25, 265, 40, 328
-0.994649, 47, 273, 62, 336
-0.994655, 81, 225, 208, 256
-0.994666, 53, 145, 84, 208
-0.994666, 333, 129, 364, 256
-0.994682, 1, 313, 256, 375
-0.994698, 289, 49, 416, 112
-0.994708, 409, 313, 472, 375
-0.994744, 273, 241, 336, 304
-0.994767, 81, 25, 208, 88
-0.994769, 133, 273, 148, 336
-0.994837, 119, 169, 134, 232
-0.99485, 127, 161, 142, 224
-0.994879, 139, 265, 154, 328
-0.994886, 181, 225, 212, 352
-0.994907, 5, 209, 20, 272
-0.994926, 135, 297, 150, 360
-0.994958, 257, 161, 320, 224
-0.994964, 73, 169, 88, 232
-0.994965, 345, 33, 408, 288
-0.994973, 135, 241, 150, 304
-0.994978, 1, 81, 32, 208
-0.994978, 17, 273, 144, 304
-0.995001, 113, 173, 240, 204
-0.995019, 193, 289, 448, 352
-0.995029, 177, 297, 240, 360
-0.995047, 1, 313, 500, 375
-0.995064, 65, 113, 96, 240
-0.995066, 369, 297, 496, 360
-0.995075, 181, 201, 196, 264
-0.99509, 53, 265, 68, 328
-0.995099, 57, 297, 72, 360
-0.995113, 129, 233, 144, 296
-0.995144, 201, 249, 264, 312
-0.99516, 1, 49, 128, 112
-0.995174, 161, 241, 176, 304
-0.995176, 1, 237, 128, 268
-0.995177, 321, 233, 448, 264
-0.995217, 357, 161, 388, 224
-0.995299, 129, 297, 144, 360
-0.995355, 113, 189, 240, 220
-0.995386, 1, 297, 128, 328
-0.995406, 141, 297, 156, 360
-0.995408, 337, 273, 464, 304
-0.995408, 119, 273, 134, 336
-0.995422, 459, 249, 474, 312
-0.995426, 135, 169, 150, 232
-0.995429, 175, 201, 190, 264
-0.995433, 405, 161, 436, 224
-0.995434, 59, 265, 74, 328
-0.99544, 443, 241, 458, 304
-0.995516, 373, 225, 404, 288
-0.99553, 433, 153, 496, 216
-0.995549, 71, 289, 86, 352
-0.995553, 229, 185, 260, 248
-0.99556, 435, 233, 450, 296
-0.995613, 41, 153, 72, 216
-0.995616, 1, 261, 128, 292
-0.995626, 109, 97, 140, 352
-0.995635, 13, 161, 44, 224
-0.995663, 369, 161, 400, 224
-0.995672, 19, 249, 34, 312
-0.995678, 161, 49, 288, 112
-0.995688, 145, 241, 272, 272
-0.99569, 163, 209, 178, 272
-0.995699, 161, 113, 192, 240
-0.995712, 123, 297, 138, 360
-0.995723, 369, 185, 496, 216
-0.995727, 449, 177, 480, 240
-0.995737, 97, 97, 128, 352
-0.99574, 169, 209, 184, 272
-0.995744, 33, 209, 160, 240
-0.995744, 25, 289, 40, 352
-0.995745, 51, 297, 66, 360
-0.995754, 5, 185, 20, 248
-0.995759, 425, 265, 440, 328
-0.99576, 121, 129, 152, 375
-0.995779, 147, 185, 162, 248
-0.995807, 107, 185, 122, 248
-0.995807, 281, 129, 344, 256
-0.995815, 97, 97, 160, 160
-0.995826, 87, 297, 102, 360
-0.995855, 155, 201, 170, 264
-0.995865, 27, 313, 42, 375
-0.995865, 205, 241, 236, 368
-0.995867, 63, 297, 78, 360
-0.9959, 65, 169, 80, 232
-0.995925, 81, 73, 208, 136
-0.995931, 425, 233, 440, 296
-0.995956, 11, 185, 26, 248
-0.995973, 141, 233, 156, 296
-0.995979, 337, 89, 400, 152
-0.996019, 145, 265, 160, 328
-0.99603, 123, 241, 138, 304
-0.99604, 233, 161, 296, 224
-0.996041, 33, 121, 288, 184
-0.996056, 181, 177, 196, 240
-0.996109, 17, 185, 32, 248
-0.996117, 161, 185, 176, 248
-0.996119, 11, 209, 26, 272
-0.996148, 155, 241, 170, 304
-0.996156, 49, 241, 64, 304
-0.996171, 15, 281, 30, 344
-0.996173, 1, 105, 64, 168
-0.996194, 99, 297, 114, 360
-0.996207, 149, 225, 164, 288
-0.996212, 49, 325, 176, 356
-0.996213, 369, 241, 496, 272
-0.996216, 417, 1, 432, 64
-0.996227, 161, 197, 288, 228
-0.996236, 109, 297, 124, 360
-0.996258, 193, 81, 224, 208
-0.996261, 87, 249, 102, 312
-0.996264, 117, 241, 132, 304
-0.996269, 33, 97, 160, 160
-0.996285, 425, 81, 488, 208
-0.996294, 145, 113, 176, 240
-0.996311, 169, 49, 232, 176
-0.996311, 161, 73, 288, 136
-0.996323, 141, 185, 156, 248
-0.996347, 337, 41, 400, 104
-0.996351, 107, 265, 122, 328
-0.996352, 97, 145, 112, 208
-0.996358, 171, 169, 186, 232
-0.996365, 117, 297, 132, 360
-0.996366, 181, 233, 196, 296
-0.996411, 1, 165, 128, 196
-0.996414, 103, 209, 118, 272
-0.996421, 321, 189, 448, 220
-0.996421, 445, 265, 460, 328
-0.996423, 113, 265, 128, 328
-0.996445, 1, 321, 128, 352
-0.996471, 209, 313, 336, 375
-0.996476, 77, 297, 92, 360
-0.99648, 171, 241, 186, 304
-0.996491, 101, 265, 116, 328
-0.996493, 109, 241, 124, 304
-0.996532, 137, 25, 200, 88
-0.996534, 453, 265, 468, 328
-0.996548, 257, 293, 384, 324
-0.996549, 1, 337, 128, 368
-0.99655, 49, 309, 176, 340
-0.996554, 81, 129, 112, 375
-0.996557, 25, 241, 40, 304
-0.996558, 379, 185, 394, 248
-0.996585, 37, 313, 52, 375
-0.99659, 411, 1, 426, 64
-0.996593, 129, 209, 144, 272
-0.996594, 187, 209, 202, 272
-0.996602, 193, 137, 448, 200
-0.996604, 435, 265, 450, 328
-0.996604, 389, 129, 420, 256
-0.996617, 99, 233, 114, 296
-0.996618, 81, 265, 96, 328
-0.996625, 111, 145, 126, 208
-0.996642, 81, 285, 208, 316
-0.99665, 241, 1, 304, 375
-0.996653, 353, 313, 416, 375
-0.996674, 369, 257, 496, 288
-0.996694, 1, 249, 128, 280
-0.996699, 225, 129, 256, 256
-0.996701, 133, 97, 164, 352
-0.996702, 49, 341, 176, 372
-0.996708, 169, 97, 232, 160
-0.996709, 129, 185, 144, 248
-0.996718, 21, 313, 36, 375
-0.996721, 161, 225, 288, 256
-0.996722, 129, 209, 256, 240
-0.996726, 321, 285, 448, 316
-0.996727, 369, 173, 496, 204
-0.996728, 419, 233, 434, 296
-0.99673, 129, 257, 256, 288
-0.996736, 395, 153, 410, 216
-0.996739, 161, 33, 224, 96
-0.996757, 135, 193, 150, 256
-0.996778, 127, 165, 142, 196
-0.99678, 257, 265, 384, 296
-0.996789, 59, 241, 74, 304
-0.996793, 385, 225, 416, 352
-0.996796, 93, 233, 108, 296
-0.996798, 369, 193, 384, 256
-0.9968, 73, 193, 88, 256
-0.996833, 89, 145, 104, 208
-0.996844, 97, 329, 224, 360
-0.996845, 193, 185, 320, 216
-0.996854, 401, 89, 464, 152
-0.996854, 129, 137, 256, 168
-0.996857, 161, 1, 288, 128
-0.996858, 147, 305, 162, 368
-0.996863, 399, 185, 414, 248
-0.99687, 119, 165, 134, 196
-0.996881, 391, 1, 406, 64
-0.99689, 75, 265, 90, 328
-0.996896, 403, 1, 418, 64
-0.996901, 23, 185, 38, 248
-0.996912, 369, 9, 496, 40
-0.996924, 1, 309, 128, 340
-0.996931, 145, 25, 272, 88
-0.996941, 423, 1, 438, 64
-0.996944, 329, 1, 392, 375
-0.996949, 113, 149, 240, 180
-0.996961, 481, 241, 496, 304
-0.996965, 65, 169, 80, 200
-0.996969, 65, 273, 80, 336
-0.996969, 91, 209, 106, 272
-0.996984, 119, 289, 134, 320
-0.996988, 77, 225, 92, 288
-0.996999, 121, 17, 184, 144
-0.997003, 123, 209, 138, 272
-0.997006, 289, 177, 416, 208
-0.997011, 397, 1, 412, 64
-0.997024, 113, 209, 128, 272
-0.997032, 1, 1, 128, 64
-0.997039, 9, 273, 24, 336
-0.997044, 113, 269, 240, 300
-0.997046, 193, 313, 448, 375
-0.997046, 125, 285, 140, 316
-0.997051, 111, 165, 126, 196
-0.997057, 401, 41, 464, 104
-0.997064, 473, 241, 488, 304
-0.997079, 237, 129, 268, 256
-0.997097, 93, 281, 108, 344
-0.997099, 101, 177, 116, 208
-0.997109, 321, 261, 448, 292
-0.997109, 321, 241, 352, 368
-0.99713, 153, 177, 168, 240
-0.997135, 79, 145, 94, 208
-0.997148, 297, 1, 360, 375
-0.997154, 385, 185, 400, 248
-0.997157, 201, 225, 264, 288
-0.997157, 95, 257, 110, 320
-0.997161, 69, 313, 84, 375
-0.997171, 49, 301, 64, 332
-0.997181, 113, 293, 128, 324
-0.997182, 105, 165, 120, 196
-0.997182, 49, 257, 64, 288
-0.997183, 111, 177, 126, 208
-0.997194, 77, 169, 92, 200
-0.997229, 129, 317, 256, 348
-0.997248, 35, 253, 50, 284
-0.997254, 41, 281, 56, 312
-0.997256, 71, 169, 86, 200
-0.997263, 265, 1, 328, 375
-0.997266, 257, 253, 384, 284
-0.997272, 57, 297, 72, 328
-0.997277, 25, 257, 40, 288
-0.997291, 149, 241, 164, 272
-0.997297, 161, 105, 416, 168
-0.997311, 129, 305, 256, 336
-0.997318, 73, 181, 88, 212
-0.997321, 83, 177, 98, 208
-0.997328, 289, 25, 416, 88
-0.997343, 257, 277, 384, 308
-0.997343, 1, 137, 500, 200
-0.997346, 107, 293, 122, 324
-0.997354, 101, 81, 132, 208
-0.997356, 91, 165, 106, 196
-0.997358, 59, 253, 74, 284
-0.997361, 257, 1, 500, 64
-0.997369, 113, 1, 240, 64
-0.997379, 45, 269, 60, 300
-0.997388, 177, 97, 304, 160
-0.997398, 125, 177, 140, 208
-0.9974, 35, 269, 50, 300
-0.99741, 73, 197, 88, 228
-0.997441, 117, 177, 132, 208
-0.99745, 93, 241, 108, 272
-0.997454, 133, 209, 148, 240
-0.997458, 35, 293, 50, 324
-0.997459, 161, 81, 416, 144
-0.997464, 101, 197, 116, 228
-0.99747, 161, 173, 288, 204
-0.997471, 99, 165, 114, 196
-0.997475, 85, 165, 100, 196
-0.997483, 15, 257, 30, 288
-0.997484, 101, 245, 116, 276
-0.997487, 177, 49, 208, 176
-0.997498, 89, 177, 104, 208
-0.997503, 95, 177, 110, 208
-0.997503, 159, 241, 174, 272
-0.997513, 353, 85, 480, 116
-0.997517, 393, 97, 456, 224
-0.997525, 111, 245, 126, 276
-0.997527, 177, 197, 192, 228
-0.997552, 5, 209, 20, 240
-0.99756, 171, 197, 186, 228
-0.997564, 353, 73, 480, 104
-0.997573, 5, 197, 20, 228
-0.997584, 41, 257, 56, 288
-0.997585, 193, 241, 224, 368
-0.997589, 93, 197, 108, 228
-0.997617, 143, 209, 158, 240
-0.997618, 11, 197, 26, 228
-0.997619, 181, 209, 196, 240
-0.997623, 119, 241, 134, 272
-0.997632, 241, 241, 368, 272
-0.997632, 51, 269, 66, 300
-0.997638, 115, 197, 130, 228
-0.997647, 101, 293, 116, 324
-0.997647, 185, 129, 216, 375
-0.997648, 369, 229, 496, 260
-0.997652, 47, 285, 62, 316
-0.997663, 33, 145, 64, 272
-0.997667, 145, 129, 176, 375
-0.997669, 3, 249, 18, 280
-0.997669, 69, 129, 100, 375
-0.997669, 123, 197, 138, 228
-0.99767, 35, 281, 50, 312
-0.997681, 107, 197, 122, 228
-0.997684, 49, 153, 176, 184
-0.99771, 25, 289, 40, 320
-0.997714, 63, 181, 78, 212
-0.997733, 151, 209, 166, 240
-0.99774, 393, 137, 456, 200
-0.997743, 123, 209, 138, 240
-0.997745, 17, 193, 32, 224
-0.997753, 129, 241, 144, 272
-0.997758, 53, 129, 84, 375
-0.997759, 425, 269, 440, 300
-0.99776, 143, 241, 158, 272
-0.997777, 81, 121, 208, 152
-0.997779, 43, 301, 58, 332
-0.997779, 321, 221, 448, 252
-0.997784, 469, 1, 500, 256
-0.997799, 3, 237, 18, 268
-0.997805, 197, 129, 228, 375
-0.997809, 65, 273, 192, 304
-0.997822, 87, 197, 102, 228
-0.997826, 163, 209, 178, 240
-0.997826, 103, 209, 118, 240
-0.997839, 117, 209, 132, 240
-0.997844, 353, 97, 480, 128
-0.997845, 29, 269, 44, 300
-0.997848, 63, 301, 78, 332
-0.997852, 131, 177, 146, 208
-0.997854, 321, 1, 448, 32
-0.997854, 379, 185, 394, 216
-0.997864, 121, 49, 184, 112
-0.997865, 157, 209, 172, 240
-0.997865, 449, 245, 464, 276
-0.997877, 165, 197, 180, 228
-0.997879, 337, 33, 400, 160
-0.997884, 169, 209, 184, 240
-0.997889, 161, 57, 416, 120
-0.997892, 79, 193, 94, 224
-0.997893, 357, 225, 388, 352
-0.997897, 33, 121, 160, 152
-0.99791, 241, 189, 368, 220
-0.99791, 111, 209, 126, 240
-0.997921, 175, 209, 190, 240
-0.997936, 133, 189, 148, 220
-0.997936, 177, 253, 304, 284
-0.997959, 131, 281, 146, 312
-0.997979, 361, 129, 392, 375
-0.997989, 53, 285, 68, 316
-0.997998, 95, 293, 110, 324
-0.998002, 387, 189, 402, 220
-0.998029, 21, 277, 36, 308
-0.998035, 69, 321, 84, 352
-0.998038, 183, 197, 198, 228
-0.998042, 393, 181, 408, 212
-0.998044, 59, 317, 74, 348
-0.998049, 459, 257, 474, 288
-0.998057, 381, 33, 412, 288
-0.998058, 1, 97, 256, 160
-0.998067, 151, 253, 166, 284
-0.998071, 143, 253, 158, 284
-0.998078, 83, 245, 98, 276
-0.998093, 345, 129, 376, 375
-0.998095, 129, 297, 144, 328
-0.998096, 137, 241, 152, 272
-0.9981, 337, 113, 400, 176
-0.998103, 89, 293, 104, 324
-0.998109, 101, 281, 116, 312
-0.998118, 369, 285, 496, 316
-0.998119, 97, 209, 112, 240
-0.998121, 353, 109, 480, 140
-0.998129, 75, 325, 90, 356
-0.998133, 373, 49, 404, 176
-0.998148, 261, 129, 292, 256
-0.998163, 143, 305, 158, 336
-0.998165, 451, 273, 466, 304
-0.998167, 133, 165, 148, 196
-0.99817, 177, 209, 304, 240
-0.99817, 79, 209, 94, 240
-0.998173, 29, 193, 44, 224
-0.998184, 59, 169, 74, 200
-0.998193, 461, 245, 476, 276
-0.998194, 33, 221, 160, 252
-0.998206, 1, 129, 32, 375
-0.998212, 135, 297, 150, 328
-0.998212, 145, 265, 160, 296
-0.998214, 425, 33, 488, 96
-0.998222, 165, 129, 196, 375
-0.998225, 405, 189, 420, 220
-0.998226, 95, 281, 110, 312
-0.998227, 181, 241, 196, 272
-0.998235, 97, 341, 224, 372
-0.998235, 103, 337, 118, 368
-0.998246, 159, 193, 174, 224
-0.998253, 373, 189, 388, 220
-0.998253, 193, 161, 320, 192
-0.998256, 209, 129, 240, 375
-0.998257, 57, 265, 72, 296
-0.998257, 443, 269, 458, 300
-0.99826, 161, 57, 224, 120
-0.998261, 225, 129, 256, 375
-0.998263, 89, 329, 104, 360
-0.998266, 27, 245, 42, 276
-0.998267, 129, 125, 256, 156
-0.998271, 1, 105, 500, 168
-0.998271, 369, 197, 496, 228
-0.998274, 9, 245, 24, 276
-0.998284, 109, 1, 140, 256
-0.998292, 399, 181, 414, 212
-0.998294, 23, 193, 38, 224
-0.998297, 13, 129, 44, 375
-0.998298, 107, 281, 122, 312
-0.998299, 177, 177, 192, 208
-0.998307, 369, 49, 496, 80
-0.998318, 67, 197, 82, 228
-0.998322, 83, 293, 98, 324
-0.998335, 421, 129, 452, 375
-0.998337, 33, 129, 64, 375
-0.998349, 353, 61, 480, 92
-0.998356, 21, 335, 52, 350
-0.998356, 137, 219, 168, 234
-0.998356, 133, 309, 164, 324
-0.998357, 69, 259, 100, 274
-0.998357, 93, 193, 124, 208
-0.998357, 81, 199, 112, 214
-0.998358, 1, 25, 32, 40
-0.998358, 129, 175, 160, 190
-0.998358, 153, 259, 184, 274
-0.998358, 53, 323, 84, 338
-0.998359, 441, 251, 472, 266
-0.998359, 21, 315, 52, 330
-0.99836, 49, 199, 80, 214
-0.998362, 417, 237, 448, 252
-0.998363, 109, 339, 140, 354
-0.998363, 377, 183, 408, 198
-0.998363, 1, 251, 32, 266
-0.998363, 117, 271, 148, 286
-0.998364, 109, 287, 140, 302
-0.998369, 65, 327, 96, 342
-0.998369, 93, 301, 124, 316
-0.99837, 137, 253, 168, 268
-0.998371, 33, 199, 64, 214
-0.998371, 169, 243, 200, 258
-0.998372, 1, 47, 32, 62
-0.998372, 1, 31, 32, 46
-0.998373, 117, 293, 148, 308
-0.998373, 69, 193, 100, 208
-0.998375, 57, 171, 120, 186
-0.998375, 53, 253, 84, 268
-0.998375, 165, 237, 196, 252
-0.998375, 33, 335, 64, 350
-0.998376, 429, 241, 460, 256
-0.998376, 73, 361, 104, 375
-0.998376, 13, 357, 44, 372
-0.998378, 17, 297, 48, 312
-0.998378, 105, 299, 136, 314
-0.998379, 345, 273, 376, 288
-0.998379, 457, 255, 488, 270
-0.99838, 85, 209, 116, 224
-0.998381, 69, 209, 100, 224
-0.998382, 13, 269, 44, 284
-0.998382, 1, 41, 32, 56
-0.998383, 117, 209, 148, 224
-0.998385, 41, 277, 72, 292
-0.998387, 1, 333, 32, 348
-0.998389, 169, 215, 200, 230
-0.998389, 305, 129, 336, 256
-0.998391, 101, 209, 132, 224
-0.998391, 437, 271, 468, 286
-0.998391, 109, 277, 140, 292
-0.998393, 29, 309, 60, 324
-0.998393, 9, 263, 40, 278
-0.998393, 457, 261, 488, 276
-0.998394, 137, 241, 168, 256
-0.998394, 1, 197, 32, 212
-0.998397, 37, 267, 68, 282
-0.998397, 121, 253, 152, 268
-0.998398, 157, 209, 188, 224
-0.998399, 169, 221, 200, 236
-0.998399, 1, 361, 32, 375
-0.998399, 129, 209, 160, 224
-0.9984, 461, 247, 492, 262
-0.998402, 21, 263, 52, 278
-0.998407, 1, 65, 500, 128
-0.998408, 49, 193, 80, 208
-0.998409, 65, 183, 96, 198
-0.99841, 193, 141, 320, 172
-0.998411, 13, 193, 44, 208
-0.998412, 133, 191, 164, 206
-0.998413, 141, 209, 172, 224
-0.998413, 169, 191, 200, 206
-0.998416, 389, 183, 420, 198
-0.998417, 81, 169, 144, 184
-0.998421, 105, 191, 136, 206
-0.998421, 121, 285, 152, 300
-0.998425, 1, 281, 32, 296
-0.998426, 21, 203, 52, 218
-0.998427, 373, 195, 404, 210
-0.998428, 81, 257, 112, 272
-0.998431, 41, 309, 72, 324
-0.998431, 41, 297, 72, 312
-0.998431, 1, 49, 256, 112
-0.998433, 441, 245, 472, 260
-0.998433, 69, 297, 100, 312
-0.998436, 125, 169, 156, 184
-0.998436, 45, 241, 60, 368
-0.998437, 21, 303, 52, 318
-0.998439, 421, 271, 452, 286
-0.99844, 13, 251, 44, 266
-0.99844, 129, 299, 160, 314
-0.998444, 97, 339, 128, 354
-0.998444, 41, 255, 72, 270
-0.998448, 33, 261, 64, 276
-0.99845, 361, 191, 424, 206
-0.99845, 69, 251, 100, 266
-0.998453, 9, 259, 72, 274
-0.998455, 65, 177, 96, 192
-0.998456, 89, 247, 152, 262
-0.998457, 237, 129, 268, 375
-0.998458, 101, 247, 132, 262
-0.998459, 53, 181, 84, 196
-0.99846, 113, 251, 176, 266
-0.998465, 157, 245, 188, 260
-0.998465, 397, 189, 428, 204
-0.998466, 37, 291, 68, 306
-0.998466, 17, 301, 80, 316
-0.998467, 21, 275, 52, 290
-0.998472, 81, 295, 144, 310
-0.998474, 85, 179, 116, 194
-0.998475, 49, 299, 112, 314
-0.998476, 289, 165, 416, 196
-0.998478, 49, 175, 80, 190
-0.998479, 117, 175, 148, 190
-0.998482, 37, 283, 68, 298
-0.998482, 65, 199, 128, 214
-0.998482, 445, 1, 476, 256
-0.998483, 25, 203, 88, 218
-0.998484, 73, 333, 104, 348
-0.998485, 1, 209, 32, 224
-0.998487, 137, 209, 200, 224
-0.998489, 385, 193, 416, 208
-0.998491, 37, 303, 68, 318
-0.998493, 21, 291, 52, 306
-0.998495, 125, 245, 156, 260
-0.998498, 113, 247, 144, 262
-0.998501, 89, 177, 152, 192
-0.998505, 9, 307, 72, 322
-0.998506, 381, 1, 412, 128
-0.998507, 21, 281, 52, 296
-0.99851, 9, 277, 72, 292
-0.99851, 321, 249, 448, 280
-0.99851, 77, 171, 108, 186
-0.998511, 9, 257, 40, 272
-0.998513, 105, 177, 136, 192
-0.998513, 1, 273, 32, 288
-0.998513, 1, 1, 500, 64
-0.998515, 29, 297, 60, 312
-0.998515, 169, 209, 200, 224
-0.998517, 85, 295, 116, 310
-0.99852, 57, 297, 88, 312
-0.998525, 273, 305, 400, 336
-0.998525, 409, 271, 472, 286
-0.998527, 145, 245, 208, 260
-0.998527, 85, 335, 116, 350
-0.998529, 17, 293, 80, 308
-0.99853, 57, 181, 120, 196
-0.998531, 41, 315, 72, 330
-0.998534, 113, 245, 176, 260
-0.998535, 89, 171, 120, 186
-0.998535, 77, 33, 108, 288
-0.998535, 281, 161, 344, 224
-0.998536, 9, 269, 72, 284
-0.998536, 29, 255, 60, 270
-0.998539, 57, 259, 88, 274
-0.998541, 89, 247, 120, 262
-0.998542, 145, 215, 208, 230
-0.998545, 101, 169, 132, 184
-0.998547, 25, 197, 88, 212
-0.998548, 49, 263, 112, 278
-0.998551, 49, 303, 80, 318
-0.998553, 105, 171, 168, 186
-0.998555, 49, 257, 112, 272
-0.998557, 137, 247, 168, 262
-0.998558, 129, 293, 256, 324
-0.998559, 49, 251, 112, 266
-0.99856, 337, 189, 400, 204
-0.998561, 9, 253, 72, 268
-0.998563, 105, 303, 168, 318
-0.998565, 121, 189, 184, 204
-0.998568, 81, 255, 144, 270
-0.998569, 117, 299, 148, 314
-0.998572, 145, 221, 208, 236
-0.998572, 33, 337, 96, 352
-0.998573, 65, 335, 128, 350
-0.998573, 393, 189, 456, 204
-0.99858, 39, 241, 54, 368
-0.998581, 69, 199, 100, 214
-0.998584, 51, 241, 66, 368
-0.998586, 113, 209, 176, 224
-0.998587, 161, 189, 224, 204
-0.998588, 57, 209, 120, 224
-0.998595, 353, 121, 480, 152
-0.998595, 33, 173, 96, 188
-0.998596, 41, 305, 104, 320
-0.998599, 33, 327, 96, 342
-0.998601, 369, 233, 432, 248
-0.998602, 249, 129, 280, 375
-0.998603, 409, 277, 472, 292
-0.998603, 33, 287, 96, 302
-0.998605, 89, 333, 152, 348
-0.998605, 1, 245, 64, 260
-0.998605, 89, 209, 152, 224
-0.998608, 1, 209, 64, 224
-0.99861, 81, 289, 144, 304
-0.99861, 9, 283, 72, 298
-0.998612, 145, 227, 208, 242
-0.998612, 409, 241, 472, 256
-0.998613, 369, 185, 432, 200
-0.998614, 81, 301, 144, 316
-0.998616, 105, 257, 168, 272
-0.998619, 9, 313, 72, 328
-0.998621, 81, 241, 144, 256
-0.998623, 113, 285, 176, 300
-0.998624, 65, 171, 96, 186
-0.998626, 105, 297, 168, 312
-0.998626, 1, 73, 256, 136
-0.998627, 457, 1, 488, 256
-0.998629, 33, 191, 96, 206
-0.998629, 345, 197, 408, 212
-0.998631, 461, 129, 492, 375
-0.998632, 33, 269, 96, 284
-0.998635, 17, 319, 80, 334
-0.998637, 81, 279, 144, 294
-0.998638, 41, 277, 104, 292
-0.998638, 113, 169, 144, 184
-0.998639, 409, 251, 472, 266
-0.998639, 385, 9, 448, 24
-0.99864, 57, 341, 120, 356
-0.998641, 81, 189, 144, 204
-0.998642, 409, 259, 472, 274
-0.998643, 409, 265, 472, 280
-0.998643, 105, 293, 136, 308
-0.998643, 97, 215, 160, 230
-0.998643, 113, 177, 176, 192
-0.998644, 1, 191, 64, 206
-0.998645, 137, 237, 200, 252
-0.998646, 361, 179, 424, 194
-0.998647, 177, 221, 240, 236
-0.998647, 33, 181, 96, 196
-0.998648, 209, 189, 272, 204
-0.998649, 209, 297, 336, 328
-0.99865, 369, 89, 432, 104
-0.99865, 105, 309, 168, 324
-0.99865, 73, 361, 136, 375
-0.99865, 49, 311, 112, 326
-0.998651, 337, 233, 400, 248
-0.998652, 305, 73, 432, 104
-0.998652, 433, 267, 496, 282
-0.998652, 89, 197, 152, 212
-0.998654, 97, 339, 160, 354
-0.998654, 177, 213, 240, 228
-0.998654, 65, 219, 128, 234
-0.998655, 89, 273, 152, 288
-0.998655, 177, 237, 240, 252
-0.998655, 121, 195, 184, 210
-0.998656, 169, 179, 232, 194
-0.998657, 137, 181, 200, 196
-0.998657, 1, 239, 64, 254
-0.998658, 145, 257, 208, 272
-0.998661, 57, 293, 120, 308
-0.998661, 177, 231, 240, 246
-0.998662, 1, 357, 64, 372
-0.998662, 145, 197, 208, 212
-0.998662, 177, 197, 240, 212
-0.998663, 369, 81, 432, 96
-0.998664, 129, 275, 192, 290
-0.998665, 33, 209, 96, 224
-0.998665, 409, 13, 472, 28
-0.998666, 129, 169, 192, 184
-0.998666, 137, 267, 200, 282
-0.998667, 185, 191, 248, 206
-0.998667, 105, 291, 168, 306
-0.998668, 1, 233, 64, 248
-0.998669, 329, 183, 392, 198
-0.99867, 433, 15, 496, 30
-0.998671, 57, 329, 120, 344
-0.998671, 97, 263, 160, 278
-0.998671, 57, 191, 120, 206
-0.998672, 1, 49, 64, 64
-0.998674, 373, 189, 404, 204
-0.998674, 123, 209, 138, 336
-0.998676, 369, 75, 432, 90
-0.998677, 105, 165, 168, 180
-0.998678, 145, 305, 208, 320
-0.998678, 145, 251, 208, 266
-0.998678, 425, 189, 488, 204
-0.998679, 169, 173, 232, 188
-0.99868, 97, 327, 160, 342
-0.99868, 1, 203, 64, 218
-0.998681, 175, 161, 190, 288
-0.998681, 49, 361, 112, 375
-0.998682, 121, 217, 184, 232
-0.998683, 313, 271, 376, 286
-0.998684, 1, 197, 64, 212
-0.998684, 297, 293, 360, 308
-0.998686, 129, 1, 160, 256
-0.998718, 433, 129, 464, 375
-0.998735, 133, 241, 148, 368
-0.998735, 117, 209, 132, 336
-0.998749, 147, 241, 162, 368
-0.998768, 1, 25, 256, 88
-0.99877, 31, 241, 46, 368
-0.998776, 129, 109, 256, 140
-0.998784, 397, 65, 428, 320
-0.998788, 449, 129, 480, 375
-0.998803, 111, 209, 126, 336
-0.998807, 1, 41, 500, 104
-0.998808, 1, 33, 32, 288
-0.998811, 353, 297, 480, 328
-0.998819, 169, 161, 184, 288
-0.99882, 241, 177, 368, 208
-0.99882, 377, 129, 408, 375
-0.998823, 181, 209, 196, 336
-0.998826, 209, 269, 336, 300
-0.998827, 451, 225, 466, 352
-0.998833, 369, 133, 496, 164
-0.998836, 103, 209, 118, 336
-0.998849, 149, 193, 164, 320
-0.998865, 129, 65, 160, 192
-0.998867, 129, 161, 144, 288
-0.998867, 1, 45, 128, 76
-0.99887, 161, 33, 416, 96
-0.998872, 329, 129, 360, 375
-0.998881, 261, 129, 292, 375
-0.998885, 159, 193, 174, 320
-0.998898, 139, 209, 154, 336
-0.9989, 1, 153, 128, 184
-0.998904, 305, 85, 432, 116
-0.998906, 5, 161, 20, 288
-0.998911, 137, 161, 152, 288
-0.998915, 181, 161, 196, 288
-0.998919, 49, 109, 176, 140
-0.998923, 289, 153, 416, 184
-0.998928, 143, 161, 158, 288
-0.998929, 241, 221, 368, 252
-0.99894, 11, 161, 26, 288
-0.998945, 289, 317, 416, 348
-0.998948, 369, 153, 496, 184
-0.998951, 25, 209, 40, 336
-0.998954, 95, 209, 110, 336
-0.998971, 289, 141, 416, 172
-0.998976, 123, 129, 138, 256
-0.998992, 285, 129, 316, 256
-0.998992, 193, 129, 320, 160
-0.998993, 165, 209, 180, 336
-0.998997, 115, 129, 130, 256
-0.998999, 175, 209, 190, 336
-0.999002, 401, 97, 432, 224
-0.999005, 89, 1, 120, 256
-0.999006, 93, 161, 108, 288
-0.99901, 431, 225, 446, 352
-0.999017, 19, 193, 34, 320
-0.999019, 5, 209, 20, 336
-0.999024, 249, 129, 280, 256
-0.999026, 425, 225, 440, 352
-0.999026, 83, 177, 98, 304
-0.999034, 305, 97, 432, 128
-0.999046, 369, 213, 496, 244
-0.999046, 161, 1, 288, 64
-0.999048, 321, 201, 448, 232
-0.99905, 101, 129, 116, 256
-0.999053, 443, 225, 458, 352
-0.999059, 109, 129, 124, 256
-0.999069, 81, 53, 208, 84
-0.99907, 437, 225, 452, 352
-0.999071, 49, 1, 176, 64
-0.999072, 369, 345, 496, 375
-0.999078, 49, 133, 176, 164
-0.999084, 409, 97, 440, 352
-0.999091, 15, 241, 30, 368
-0.999098, 89, 241, 104, 368
-0.999109, 35, 193, 50, 320
-0.999126, 241, 129, 368, 192
-0.99914, 73, 177, 88, 304
-0.999147, 321, 129, 352, 256
-0.999148, 369, 33, 496, 64
-0.999148, 305, 61, 432, 92
-0.999152, 57, 241, 72, 368
-0.999164, 153, 241, 168, 368
-0.999177, 45, 193, 60, 320
-0.999189, 457, 241, 472, 368
-0.99919, 209, 281, 336, 312
-0.999208, 419, 209, 434, 336
-0.999222, 53, 33, 84, 288
-0.999227, 87, 129, 102, 256
-0.999232, 459, 177, 474, 304
-0.999232, 213, 81, 244, 208
-0.999238, 97, 29, 224, 60
-0.999244, 81, 41, 208, 72
-0.999252, 447, 177, 462, 304
-0.999261, 25, 161, 40, 288
-0.999264, 207, 129, 222, 256
-0.999268, 83, 241, 98, 368
-0.999268, 351, 177, 366, 304
-0.999272, 257, 89, 500, 152
-0.999275, 273, 129, 304, 375
-0.999276, 305, 109, 432, 140
-0.999289, 407, 1, 422, 128
-0.99929, 345, 209, 360, 336
-0.999292, 145, 49, 272, 80
-0.999294, 439, 1, 454, 128
-0.999297, 413, 209, 428, 336
-0.999297, 187, 129, 202, 256
-0.999299, 429, 1, 444, 128
-0.999299, 427, 177, 442, 304
-0.99931, 433, 177, 448, 304
-0.99931, 163, 145, 178, 272
-0.99931, 417, 1, 432, 128
-0.99931, 469, 129, 500, 256
-0.999311, 165, 33, 196, 288
-0.999316, 453, 177, 468, 304
-0.999317, 441, 177, 456, 304
-0.999325, 1, 33, 16, 160
-0.999331, 217, 177, 232, 304
-0.999333, 289, 125, 416, 156
-0.999337, 281, 241, 296, 368
-0.999341, 273, 241, 288, 368
-0.999343, 81, 129, 96, 256
-0.999346, 479, 177, 494, 304
-0.999347, 473, 1, 488, 128
-0.99935, 129, 113, 144, 240
-0.99935, 373, 161, 388, 288
-0.999353, 263, 241, 278, 368
-0.999355, 259, 177, 274, 304
-0.999357, 187, 209, 202, 336
-0.99936, 139, 113, 154, 240
-0.999361, 423, 1, 438, 128
-0.999361, 485, 177, 500, 304
-0.999363, 445, 1, 460, 128
-0.999364, 75, 129, 90, 256
-0.999369, 229, 177, 244, 304
-0.999369, 479, 1, 494, 128
-0.999375, 223, 177, 238, 304
-0.999378, 63, 241, 78, 368
-0.999382, 1, 33, 128, 64
-0.999384, 361, 177, 376, 304
-0.999388, 257, 241, 272, 368
-0.999389, 237, 177, 252, 304
-0.999391, 81, 65, 208, 96
-0.999391, 463, 225, 478, 352
-0.999391, 287, 241, 302, 368
-0.999394, 463, 1, 478, 128
-0.999396, 273, 177, 288, 304
-0.999397, 401, 1, 416, 128
-0.999399, 193, 33, 224, 288
-0.999401, 77, 225, 92, 352
-0.999406, 451, 1, 466, 128
-0.999407, 267, 177, 282, 304
-0.999408, 279, 177, 294, 304
-0.999409, 369, 321, 496, 352
-0.999412, 251, 241, 266, 368
-0.999416, 395, 177, 410, 304
-0.999419, 473, 177, 488, 304
-0.99942, 159, 241, 174, 368
-0.999421, 457, 1, 472, 128
-0.999422, 465, 177, 480, 304
-0.999422, 485, 1, 500, 128
-0.999423, 243, 177, 258, 304
-0.999429, 213, 33, 244, 288
-0.99943, 345, 161, 360, 288
-0.999435, 321, 333, 448, 364
-0.999435, 253, 177, 268, 304
-0.999442, 395, 129, 410, 256
-0.999445, 153, 145, 168, 272
-0.999446, 217, 113, 232, 240
-0.999446, 245, 241, 260, 368
-0.999447, 401, 161, 416, 288
-0.999447, 145, 113, 160, 240
-0.999447, 295, 241, 310, 368
-0.999452, 367, 177, 382, 304
-0.999456, 285, 177, 300, 304
-0.999457, 193, 129, 208, 256
-0.999457, 81, 81, 208, 112
-0.999461, 145, 65, 272, 96
-0.999464, 473, 241, 488, 368
-0.999475, 65, 33, 96, 288
-0.999477, 401, 209, 416, 336
-0.99948, 379, 145, 394, 272
-0.999481, 385, 49, 400, 176
-0.999489, 239, 241, 254, 368
-0.999489, 67, 193, 82, 320
-0.999495, 69, 241, 84, 368
-0.999498, 81, 97, 208, 128
-0.999499, 339, 209, 354, 336
-0.999499, 285, 129, 316, 375
-0.9995, 299, 177, 314, 304
-0.999511, 301, 241, 316, 368
-0.999512, 161, 97, 288, 128
-0.999515, 289, 41, 416, 72
-0.999523, 369, 33, 400, 288
-0.99953, 1, 57, 128, 88
-0.999537, 161, 333, 288, 364
-0.999572, 145, 77, 272, 108
-0.999577, 105, 341, 120, 356
-0.999578, 451, 275, 466, 290
-0.999578, 25, 301, 40, 316
-0.999579, 177, 1, 208, 256
-0.999579, 41, 295, 56, 310
-0.99958, 75, 297, 90, 312
-0.99958, 113, 343, 128, 358
-0.999581, 129, 209, 144, 224
-0.999582, 59, 173, 74, 188
-0.999582, 451, 265, 466, 280
-0.999582, 73, 259, 88, 274
-0.999582, 181, 221, 196, 236
-0.999583, 173, 209, 188, 224
-0.999583, 45, 301, 60, 316
-0.999583, 31, 261, 46, 276
-0.999584, 141, 1, 172, 256
-0.999585, 29, 197, 44, 212
-0.999586, 135, 251, 150, 266
-0.999591, 163, 209, 178, 224
-0.999591, 85, 255, 100, 270
-0.999591, 1, 265, 16, 280
-0.999592, 49, 269, 64, 284
-0.999593, 193, 241, 320, 272
-0.999593, 137, 275, 152, 290
-0.999594, 29, 203, 44, 218
-0.999594, 141, 209, 156, 224
-0.999595, 15, 207, 30, 222
-0.999595, 145, 303, 160, 318
-0.999596, 77, 177, 92, 192
-0.999598, 99, 179, 114, 194
-0.999598, 151, 263, 166, 278
-0.999599, 71, 179, 86, 194
-0.999599, 65, 257, 80, 272
-0.999601, 273, 201, 400, 232
-0.999601, 175, 191, 190, 206
-0.999602, 1, 275, 16, 290
-0.999603, 131, 279, 146, 294
-0.999604, 145, 267, 160, 282
-0.999605, 103, 247, 118, 262
-0.999606, 59, 261, 74, 276
-0.999608, 17, 283, 32, 298
-0.999608, 27, 255, 42, 270
-0.999611, 105, 179, 120, 194
-0.999611, 39, 255, 54, 270
-0.999612, 147, 209, 162, 224
-0.999613, 425, 271, 440, 286
-0.999614, 461, 247, 476, 262
-0.999614, 25, 279, 40, 294
-0.999615, 15, 257, 30, 272
-0.999615, 157, 209, 172, 224
-0.999616, 69, 325, 84, 340
-0.999616, 87, 181, 102, 196
-0.999618, 151, 245, 166, 260
-0.999618, 111, 247, 126, 262
-0.99962, 9, 359, 24, 374
-0.999622, 3, 241, 18, 256
-0.999625, 63, 321, 78, 336
-0.999625, 451, 247, 466, 262
-0.999625, 99, 337, 114, 352
-0.999626, 65, 179, 80, 194
-0.999626, 105, 291, 120, 306
-0.999628, 129, 175, 144, 190
-0.999628, 139, 301, 154, 316
-0.999628, 49, 259, 64, 274
-0.999628, 159, 245, 174, 260
-0.999629, 395, 185, 410, 200
-0.99963, 57, 255, 72, 270
-0.999633, 113, 179, 128, 194
-0.999633, 403, 189, 418, 204
-0.999635, 3, 247, 18, 262
-0.999636, 51, 297, 66, 312
-0.999636, 25, 271, 40, 286
-0.999638, 33, 281, 48, 296
-0.999638, 93, 177, 108, 192
-0.999639, 1, 1, 256, 64
-0.999639, 69, 297, 84, 312
-0.999642, 119, 179, 134, 194
-0.999643, 45, 313, 60, 328
-0.999643, 41, 287, 56, 302
-0.999643, 3, 361, 18, 375
-0.999644, 153, 1, 184, 256
-0.999645, 117, 247, 132, 262
-0.999645, 55, 317, 70, 332
-0.999646, 91, 249, 106, 264
-0.999646, 87, 295, 102, 310
-0.999648, 27, 295, 42, 310
-0.999649, 15, 271, 30, 286
-0.999649, 17, 357, 32, 372
-0.999652, 81, 171, 96, 186
-0.999652, 7, 275, 22, 290
-0.999655, 37, 301, 52, 316
-0.999657, 5, 211, 20, 226
-0.999657, 15, 277, 30, 292
-0.999657, 35, 289, 50, 304
-0.999658, 145, 245, 160, 260
-0.999661, 107, 169, 122, 184
-0.999662, 117, 289, 132, 304
-0.999662, 75, 331, 90, 346
-0.999662, 71, 173, 86, 188
-0.999662, 139, 245, 154, 260
-0.999663, 93, 295, 108, 310
-0.999663, 43, 281, 58, 296
-0.999664, 111, 293, 126, 308
-0.999666, 149, 251, 164, 266
-0.999666, 99, 295, 114, 310
-0.999666, 389, 191, 404, 206
-0.999668, 123, 247, 138, 262
-0.99967, 57, 305, 72, 320
-0.999672, 89, 335, 104, 350
-0.999677, 33, 255, 48, 270
-0.999678, 21, 257, 36, 272
-0.999679, 99, 171, 114, 186
-0.99968, 181, 209, 196, 224
-0.99968, 395, 193, 410, 208
-0.999683, 35, 295, 50, 310
-0.999683, 113, 169, 128, 184
-0.999685, 83, 361, 98, 375
-0.999685, 127, 297, 142, 312
-0.999686, 25, 263, 40, 278
-0.999686, 87, 171, 102, 186
-0.999691, 129, 247, 144, 262
-0.999692, 123, 287, 138, 302
-0.999698, 133, 299, 148, 314
-0.999703, 83, 333, 98, 348
-0.999714, 93, 171, 108, 186
-0.999724, 119, 169, 134, 184
-0.999725, 51, 311, 66, 326
-0.999729, 379, 189, 394, 204
-0.999738, 117, 295, 132, 310
-0.999739, 73, 199, 88, 214
-0.99974, 29, 289, 44, 304
-0.999759, 59, 299, 74, 314
-0.999766, 257, 113, 500, 176
-0.999769, 65, 173, 80, 188
-0.999776, 297, 129, 328, 375
-0.999785, 127, 169, 142, 184
-0.999794, 33, 1, 64, 256
-0.999805, 45, 307, 60, 322
-0.999811, 17, 73, 144, 136
-0.999817, 317, 129, 348, 375
-0.999855, 257, 65, 500, 128
-0.99986, 51, 303, 66, 318
-0.999927, 161, 9, 416, 72
-0.999972, 433, 1, 464, 256
-1, 1, 49, 64, 176
-1.00012, 165, 49, 196, 176
-1.00017, 421, 33, 452, 288
-1.00017, 321, 33, 384, 288
-1.00021, 357, 33, 388, 288
-1.00025, 273, 129, 304, 256
-1.00025, 409, 1, 440, 256
-1.00027, 225, 33, 256, 288
-1.00028, 257, 41, 500, 104
-1.00028, 13, 33, 44, 288
-1.00031, 73, 33, 136, 160
-1.00036, 149, 49, 180, 176
-1.00039, 237, 33, 268, 288
-1.00054, 425, 129, 456, 256
-1.00061, 365, 113, 396, 240
-1.00062, 345, 33, 376, 288
-1.00064, 249, 33, 280, 288
-1.00071, 77, 81, 108, 208
-1.00075, 265, 33, 296, 288
-1.00076, 397, 49, 428, 176
-1.00077, 325, 33, 356, 288
-1.00077, 273, 1, 400, 128
-1.00083, 281, 33, 312, 288
-1.00087, 241, 105, 368, 168
-1.00091, 309, 1, 340, 256
-1.00094, 209, 17, 336, 80
-1.00097, 297, 33, 328, 288
-1.00104, 441, 97, 472, 224
-1.00133, 209, 49, 336, 112
-1.0014, 29, 97, 60, 224
-1.00151, 361, 17, 392, 144
-1.00152, 161, 1, 224, 128
-1.00158, 89, 49, 120, 176
-1.00175, 273, 1, 400, 64
-1.00176, 225, 33, 288, 288
-1.00196, 113, 33, 144, 160
-1.00202, 57, 49, 88, 176
-1.00221, 209, 73, 336, 136
-1.00253, 137, 17, 168, 144
-1.00257, 257, 73, 384, 136
-1.00264, 193, 49, 256, 176
-1.00271, 173, 1, 204, 128
-1.00285, 157, 1, 188, 128
-1.00287, 421, 49, 452, 176
-1.00291, 125, 17, 156, 144
-1.0033, 249, 33, 312, 288
-1.00366, 273, 33, 336, 288
-1.00388, 41, 33, 104, 160
-1.00437, 97, 1, 160, 128
-1.00458, 297, 1, 360, 256
-1.00568, 225, 1, 352, 128
-1.0062, 185, 1, 248, 128
-1.00666, 209, 65, 336, 192
-1.00703, 289, 81, 352, 208
-1.0078, 25, 81, 88, 208
-1.00909, 241, 81, 304, 208
-1.01053, 265, 81, 328, 208
-1.01059, 313, 81, 376, 208
-1.01146, 265, 1, 328, 128
-1.01191, 217, 49, 280, 176
-1.01211, 225, 1, 288, 128
-1.01224, 313, 1, 376, 128
-1.01289, 289, 1, 352, 128
