1942
-0.337804, 1, 97, 500, 352
-0.393613, 1, 1, 500, 374
-0.456067, 65, 1, 320, 374
-0.512241, 1, 1, 500, 256
-0.585598, 193, 97, 448, 352
-0.60166, 33, 65, 288, 320
-0.61056, 193, 1, 448, 374
-0.821904, 257, 1, 500, 256
-0.823842, 129, 1, 384, 256
-0.840578, 241, 97, 368, 352
-0.855003, 81, 65, 208, 320
-0.857342, 65, 1, 192, 374
-0.859295, 193, 97, 320, 352
-0.862841, 305, 97, 432, 352
-0.866431, 1, 1, 128, 374
-0.867663, 353, 97, 480, 352
-0.867895, 161, 1, 288, 374
-0.870398, 145, 97, 272, 352
-0.8816, 113, 1, 240, 374
-0.881655, 1, 65, 128, 320
-0.886275, 1, 97, 500, 224
-0.889446, 257, 1, 384, 374
-0.900122, 1, 209, 500, 336
-0.907734, 369, 1, 496, 374
-0.911828, 321, 1, 448, 374
-0.912993, 1, 145, 500, 272
-0.915011, 209, 1, 336, 374
-0.915303, 225, 129, 480, 256
-0.92252, 129, 1, 256, 256
-0.924108, 337, 1, 464, 256
-0.925961, 177, 1, 304, 256
-0.926474, 65, 81, 320, 208
-0.931682, 225, 1, 352, 256
-0.934168, 1, 49, 500, 176
-0.934579, 161, 193, 416, 320
-0.93674, 65, 193, 320, 320
-0.938899, 289, 1, 416, 256
-0.939557, 337, 129, 464, 256
-0.940978, 65, 81, 192, 208
-0.941325, 257, 177, 500, 304
-0.942855, 273, 113, 400, 240
-0.94537, 1, 145, 256, 272
-0.946176, 393, 113, 456, 240
-0.947163, 161, 81, 416, 208
-0.947459, 369, 113, 432, 240
-0.947561, 353, 177, 480, 304
-0.94803, 193, 81, 256, 208
-0.948081, 225, 113, 352, 240
-0.948744, 81, 81, 144, 208
-0.948924, 329, 129, 392, 256
-0.949096, 297, 113, 360, 240
-0.950009, 273, 193, 400, 320
-0.950613, 41, 97, 104, 224
-0.950972, 433, 97, 496, 224
-0.951633, 177, 97, 304, 224
-0.952353, 121, 81, 184, 208
-0.95299, 153, 129, 216, 256
-0.953747, 193, 97, 256, 160
-0.953951, 129, 129, 384, 256
-0.954307, 161, 193, 288, 320
-0.954767, 113, 129, 240, 256
-0.955448, 345, 193, 408, 320
-0.956063, 257, 65, 500, 192
-0.956661, 417, 177, 480, 304
-0.95704, 1, 33, 256, 160
-0.957392, 1, 81, 128, 208
-0.958285, 65, 193, 192, 320
-0.958604, 217, 193, 280, 320
-0.958794, 49, 145, 176, 272
-0.959365, 353, 185, 416, 248
-0.959405, 17, 81, 80, 208
-0.959591, 265, 113, 328, 176
-0.959647, 225, 97, 288, 224
-0.959831, 209, 193, 336, 320
-0.960485, 385, 193, 448, 320
-0.960998, 145, 81, 208, 208
-0.961485, 169, 81, 232, 208
-0.961755, 129, 105, 192, 168
-0.961847, 297, 193, 360, 320
-0.96205, 1, 145, 128, 272
-0.962141, 377, 177, 440, 240
-0.962185, 257, 113, 320, 240
-0.962444, 113, 193, 240, 320
-0.962817, 321, 193, 384, 320
-0.963059, 9, 89, 72, 152
-0.964159, 17, 33, 144, 160
-0.964679, 433, 105, 496, 168
-0.965477, 49, 145, 112, 272
-0.965507, 81, 97, 144, 160
-0.965839, 369, 241, 496, 368
-0.965965, 153, 97, 216, 160
-0.966835, 97, 33, 352, 160
-0.966955, 129, 49, 256, 176
-0.967802, 281, 201, 344, 264
-0.967805, 81, 129, 144, 256
-0.968015, 273, 193, 336, 320
-0.968071, 417, 193, 480, 256
-0.96815, 305, 97, 368, 352
-0.968271, 49, 105, 112, 168
-0.968353, 225, 65, 352, 192
-0.968412, 193, 65, 256, 320
-0.968939, 105, 97, 168, 160
-0.969102, 177, 129, 240, 256
-0.969484, 249, 97, 312, 352
-0.969754, 177, 49, 304, 176
-0.969834, 33, 209, 96, 336
-0.969907, 345, 97, 408, 352
-0.970191, 409, 113, 472, 176
-0.970232, 273, 97, 336, 352
-0.970308, 377, 97, 440, 352
-0.970308, 169, 193, 232, 320
-0.97043, 65, 97, 192, 160
-0.970491, 217, 105, 280, 168
-0.970574, 193, 193, 256, 320
-0.970842, 145, 97, 208, 352
-0.971045, 201, 145, 264, 272
-0.971103, 417, 225, 480, 352
-0.971512, 329, 185, 392, 248
-0.971628, 65, 65, 128, 320
-0.971944, 225, 97, 288, 352
-0.972177, 257, 241, 500, 368
-0.972355, 353, 129, 416, 192
-0.972597, 209, 193, 272, 256
-0.972869, 321, 241, 448, 368
-0.972872, 145, 89, 272, 152
-0.973151, 73, 209, 136, 336
-0.973247, 337, 65, 464, 192
-0.973268, 65, 153, 128, 216
-0.973581, 129, 129, 192, 256
-0.973619, 9, 65, 72, 320
-0.973641, 17, 209, 144, 336
-0.973681, 241, 193, 304, 320
-0.973725, 1, 209, 64, 272
-0.973889, 373, 113, 404, 240
-0.973961, 417, 97, 480, 352
-0.973968, 49, 33, 112, 160
-0.973973, 121, 193, 184, 320
-0.973975, 97, 65, 160, 320
-0.97405, 313, 129, 376, 192
-0.974064, 361, 241, 424, 368
-0.974181, 361, 113, 392, 240
-0.974256, 369, 177, 400, 240
-0.974359, 273, 65, 400, 192
-0.974375, 49, 217, 112, 280
-0.97443, 217, 49, 280, 176
-0.974674, 121, 65, 184, 320
-0.974738, 393, 313, 456, 374
-0.975057, 257, 65, 320, 192
-0.975147, 329, 113, 360, 240
-0.975421, 169, 97, 232, 352
-0.975561, 289, 185, 416, 248
-0.975649, 369, 209, 432, 272
-0.975739, 241, 209, 304, 272
-0.975879, 41, 137, 104, 200
-0.975895, 401, 113, 432, 240
-0.97591, 385, 113, 416, 240
-0.976366, 421, 113, 452, 240
-0.97652, 33, 97, 96, 352
-0.976554, 385, 129, 448, 192
-0.976602, 145, 193, 208, 320
-0.976793, 161, 33, 224, 160
-0.976877, 337, 185, 464, 248
-0.976883, 349, 129, 380, 256
-0.976885, 265, 265, 328, 328
-0.976971, 241, 105, 304, 168
-0.977194, 1, 33, 64, 160
-0.977467, 345, 209, 408, 272
-0.977646, 97, 81, 128, 208
-0.977656, 157, 97, 188, 160
-0.977779, 1, 1, 500, 128
-0.977816, 313, 209, 376, 272
-0.977992, 169, 121, 232, 184
-0.978003, 285, 105, 316, 168
-0.978008, 233, 129, 296, 192
-0.978021, 381, 185, 412, 248
-0.978201, 241, 81, 304, 144
-0.978229, 313, 113, 344, 240
-0.978347, 225, 113, 352, 176
-0.978378, 393, 201, 456, 264
-0.978393, 81, 129, 144, 192
-0.978587, 97, 193, 160, 320
-0.97866, 185, 209, 248, 272
-0.978678, 113, 33, 176, 160
-0.978734, 129, 209, 192, 272
-0.978836, 105, 145, 168, 272
-0.978968, 161, 145, 288, 272
-0.979027, 233, 185, 296, 248
-0.979123, 233, 145, 296, 272
-0.979191, 65, 97, 96, 224
-0.979553, 33, 81, 96, 144
-0.979667, 201, 81, 232, 208
-0.979788, 25, 217, 88, 280
-0.979877, 337, 129, 464, 192
-0.979907, 437, 113, 468, 240
-0.979939, 133, 97, 164, 224
-0.979946, 145, 97, 176, 160
-0.979967, 305, 177, 368, 240
-0.979984, 25, 33, 88, 160
-0.980072, 361, 193, 392, 320
-0.980101, 345, 81, 408, 208
-0.980159, 9, 145, 72, 272
-0.980167, 237, 97, 268, 224
-0.9802, 33, 241, 288, 368
-0.980408, 81, 81, 112, 208
-0.980452, 193, 89, 320, 152
-0.98047, 197, 97, 228, 160
-0.980575, 9, 65, 72, 128
-0.980623, 153, 193, 216, 256
-0.980679, 109, 81, 140, 208
-0.980681, 289, 113, 352, 176
-0.980693, 17, 97, 144, 160
-0.980759, 145, 129, 208, 192
-0.980941, 157, 81, 188, 208
-0.981011, 145, 73, 208, 136
-0.981088, 113, 97, 144, 160
-0.981119, 433, 113, 464, 176
-0.981207, 41, 89, 72, 152
-0.981212, 241, 201, 368, 264
-0.981303, 97, 97, 128, 160
-0.981417, 433, 313, 496, 374
-0.981449, 393, 241, 456, 368
-0.981462, 221, 81, 252, 208
-0.981485, 69, 105, 100, 168
-0.981531, 281, 65, 344, 192
-0.981596, 173, 113, 204, 176
-0.981604, 349, 193, 380, 320
-0.981742, 145, 113, 272, 176
-0.981772, 133, 105, 164, 168
-0.981948, 369, 281, 432, 344
-0.981958, 313, 105, 376, 168
-0.982125, 437, 177, 468, 304
-0.982126, 289, 129, 416, 192
-0.982144, 33, 81, 64, 208
-0.982262, 97, 193, 160, 256
-0.982384, 177, 129, 208, 256
-0.98249, 45, 81, 76, 208
-0.982496, 193, 209, 320, 272
-0.982534, 65, 33, 192, 160
-0.982552, 433, 273, 496, 336
-0.982593, 81, 97, 112, 160
-0.982623, 321, 209, 448, 272
-0.982748, 57, 1, 120, 374
-0.98277, 301, 113, 332, 240
-0.982808, 229, 97, 260, 160
-0.982958, 453, 97, 484, 224
-0.982996, 437, 193, 468, 256
-0.983012, 49, 193, 112, 256
-0.983155, 1, 113, 64, 176
-0.983178, 97, 1, 160, 374
-0.983181, 401, 169, 464, 232
-0.983262, 81, 33, 144, 160
-0.983302, 425, 177, 456, 304
-0.983324, 165, 129, 196, 256
-0.98333, 189, 97, 220, 224
-0.983418, 185, 97, 216, 160
-0.98344, 289, 273, 352, 336
-0.98348, 21, 81, 52, 208
-0.983483, 77, 137, 108, 200
-0.983502, 469, 105, 500, 168
-0.983526, 73, 217, 136, 280
-0.983559, 57, 105, 88, 168
-0.983601, 405, 193, 436, 320
-0.983658, 465, 97, 496, 224
-0.983667, 369, 201, 400, 264
-0.983684, 241, 97, 272, 160
-0.983711, 17, 153, 144, 216
-0.983734, 373, 193, 404, 320
-0.983803, 305, 65, 368, 192
-0.983819, 369, 105, 432, 168
-0.983832, 129, 241, 384, 368
-0.983837, 445, 105, 476, 168
-0.983863, 81, 121, 208, 184
-0.983865, 17, 1, 80, 374
-0.984026, 25, 193, 88, 256
-0.98403, 357, 185, 388, 248
-0.984122, 129, 209, 256, 272
-0.984138, 9, 81, 40, 144
-0.984172, 209, 265, 336, 328
-0.984237, 185, 281, 248, 344
-0.984258, 369, 105, 496, 168
-0.98426, 1, 81, 32, 208
-0.98426, 297, 113, 328, 176
-0.984267, 393, 65, 456, 192
-0.984305, 57, 73, 120, 136
-0.984327, 177, 185, 304, 248
-0.984372, 177, 185, 240, 248
-0.984378, 333, 193, 364, 320
-0.984458, 121, 1, 184, 374
-0.984515, 393, 177, 424, 240
-0.984555, 33, 1, 96, 256
-0.984556, 185, 73, 248, 136
-0.98458, 393, 193, 424, 320
-0.984597, 145, 193, 176, 320
-0.984598, 273, 105, 304, 168
-0.984602, 305, 193, 336, 320
-0.984608, 369, 161, 496, 224
-0.98461, 217, 89, 248, 152
-0.984629, 421, 129, 452, 192
-0.984635, 65, 241, 192, 368
-0.984636, 17, 217, 144, 280
-0.984648, 425, 169, 488, 232
-0.984657, 105, 137, 168, 200
-0.984741, 173, 81, 204, 208
-0.984783, 253, 113, 284, 240
-0.984799, 209, 1, 272, 374
-0.984834, 21, 89, 52, 152
-0.984911, 225, 273, 288, 336
-0.985027, 241, 193, 272, 320
-0.98503, 265, 89, 328, 152
-0.985058, 457, 97, 488, 160
-0.98509, 9, 209, 72, 336
-0.985095, 409, 281, 472, 344
-0.985113, 321, 193, 352, 320
-0.985124, 233, 193, 264, 256
-0.985189, 193, 121, 256, 184
-0.985204, 321, 265, 384, 328
-0.985219, 33, 73, 160, 136
-0.985254, 81, 209, 208, 272
-0.985265, 337, 129, 368, 192
-0.985297, 161, 241, 288, 368
-0.985348, 33, 193, 160, 256
-0.985406, 257, 105, 288, 168
-0.98543, 345, 105, 408, 168
-0.985488, 369, 121, 400, 184
-0.985644, 69, 145, 100, 272
-0.985667, 425, 193, 456, 256
-0.985687, 229, 177, 260, 304
-0.985781, 241, 177, 368, 240
-0.985865, 97, 73, 160, 136
-0.985975, 121, 81, 152, 208
-0.986293, 289, 97, 416, 160
-0.986346, 185, 1, 248, 374
-0.986369, 185, 33, 248, 160
-0.986492, 305, 201, 336, 264
-0.986512, 25, 113, 88, 176
-0.986709, 369, 313, 496, 374
-0.986809, 81, 145, 112, 272
-0.986875, 433, 49, 496, 176
-0.986879, 65, 153, 192, 216
-0.986891, 381, 121, 412, 184
-0.986933, 273, 97, 304, 224
-0.986978, 173, 89, 204, 152
-0.987049, 145, 1, 208, 256
-0.987073, 145, 81, 176, 208
-0.987073, 285, 97, 316, 224
-0.987134, 285, 193, 316, 256
-0.987229, 257, 185, 320, 248
-0.987245, 201, 193, 232, 320
-0.987295, 97, 73, 224, 136
-0.987356, 321, 129, 352, 192
-0.987366, 33, 209, 64, 272
-0.987369, 453, 193, 484, 320
-0.987425, 213, 145, 244, 272
-0.98745, 293, 193, 324, 320
-0.987467, 145, 289, 208, 352
-0.987534, 53, 217, 84, 280
-0.987629, 453, 313, 484, 374
-0.987704, 413, 177, 444, 240
-0.987771, 57, 209, 88, 336
-0.987802, 113, 185, 240, 248
-0.987814, 121, 281, 184, 344
-0.98791, 145, 1, 208, 374
-0.987924, 257, 265, 384, 328
-0.987936, 369, 65, 432, 192
-0.987973, 397, 129, 428, 192
-0.987974, 253, 193, 284, 320
-0.987983, 289, 161, 416, 224
-0.988004, 369, 313, 432, 374
-0.988046, 73, 193, 136, 256
-0.988055, 129, 281, 256, 344
-0.988061, 369, 249, 432, 312
-0.988147, 357, 129, 388, 192
-0.988163, 193, 305, 256, 368
-0.988191, 385, 209, 416, 272
-0.988315, 1, 129, 128, 192
-0.988328, 241, 121, 272, 184
-0.98836, 337, 289, 464, 352
-0.98837, 233, 1, 296, 374
-0.988378, 413, 209, 444, 272
-0.988401, 405, 313, 436, 374
-0.988428, 405, 241, 436, 368
-0.988434, 217, 81, 280, 144
-0.988483, 205, 209, 236, 272
-0.988527, 317, 201, 348, 264
-0.988538, 265, 1, 328, 374
-0.988568, 281, 177, 344, 240
-0.988603, 73, 217, 104, 280
-0.988632, 449, 193, 480, 256
-0.988658, 309, 129, 340, 192
-0.988682, 41, 161, 104, 224
-0.988685, 121, 241, 184, 368
-0.988692, 409, 129, 440, 192
-0.988711, 273, 201, 304, 264
-0.988719, 113, 241, 240, 368
-0.988742, 337, 161, 400, 224
-0.988792, 245, 209, 276, 272
-0.988889, 409, 241, 472, 304
-0.988933, 401, 209, 432, 272
-0.988993, 65, 49, 96, 176
-0.989021, 305, 265, 432, 328
-0.989057, 1, 33, 32, 160
-0.989062, 393, 1, 456, 256
-0.989081, 265, 113, 328, 144
-0.989113, 225, 241, 352, 368
-0.989135, 153, 113, 216, 144
-0.989154, 1, 185, 64, 248
-0.989186, 353, 193, 416, 224
-0.989229, 289, 89, 352, 152
-0.989248, 353, 1, 416, 374
-0.989271, 261, 209, 292, 272
-0.989323, 425, 1, 488, 374
-0.989387, 1, 289, 128, 352
-0.989414, 121, 73, 184, 136
-0.989444, 133, 49, 164, 176
-0.989451, 465, 313, 496, 374
-0.989504, 417, 137, 480, 200
-0.989506, 57, 81, 88, 144
-0.989517, 17, 209, 48, 272
-0.98954, 97, 145, 128, 208
-0.989626, 193, 101, 256, 132
-0.989627, 157, 193, 188, 320
-0.989644, 349, 209, 380, 272
-0.989666, 13, 33, 44, 160
-0.989681, 105, 217, 168, 280
-0.989755, 345, 177, 376, 240
-0.98977, 225, 129, 256, 256
-0.989774, 89, 161, 152, 224
-0.989774, 1, 297, 64, 360
-0.989827, 213, 193, 244, 320
-0.989888, 33, 281, 96, 344
-0.989914, 469, 193, 500, 320
-0.989947, 289, 205, 352, 236
-0.989972, 433, 109, 496, 140
-0.989988, 97, 101, 160, 132
-0.990047, 29, 65, 60, 128
-0.990066, 37, 33, 68, 160
-0.99007, 241, 145, 272, 272
-0.990074, 217, 297, 280, 360
-0.990083, 117, 129, 148, 256
-0.990115, 77, 209, 108, 336
-0.99012, 5, 209, 36, 272
-0.990221, 133, 81, 164, 144
-0.990257, 121, 105, 184, 136
-0.990261, 465, 201, 496, 264
-0.990269, 133, 193, 164, 320
-0.99029, 25, 33, 56, 160
-0.990304, 1, 93, 64, 124
-0.990307, 241, 117, 304, 148
-0.990357, 273, 241, 400, 368
-0.990377, 221, 193, 252, 256
-0.990385, 65, 141, 128, 172
-0.990386, 45, 209, 76, 336
-0.990395, 137, 33, 200, 160
-0.990412, 453, 241, 484, 368
-0.990437, 233, 1, 296, 256
-0.990448, 369, 209, 496, 272
-0.99048, 193, 213, 256, 244
-0.990514, 321, 241, 384, 368
-0.990529, 185, 121, 248, 152
-0.990597, 153, 121, 184, 184
-0.990603, 353, 129, 416, 160
-0.990645, 281, 209, 312, 336
-0.990654, 65, 145, 96, 208
-0.990657, 313, 205, 376, 236
-0.990676, 217, 109, 280, 140
-0.990693, 49, 221, 112, 252
-0.990707, 433, 81, 496, 144
-0.990743, 97, 121, 128, 184
-0.990743, 397, 289, 428, 352
-0.990746, 385, 181, 448, 212
-0.990747, 129, 117, 192, 148
-0.990758, 265, 205, 328, 236
-0.990775, 377, 1, 440, 374
-0.990811, 289, 1, 352, 374
-0.990849, 345, 273, 408, 336
-0.990868, 193, 89, 256, 120
-0.990878, 261, 65, 292, 192
-0.990885, 269, 209, 300, 336
-0.990901, 73, 101, 136, 132
-0.990904, 145, 101, 208, 132
-0.990907, 241, 209, 304, 240
-0.99091, 333, 209, 364, 272
-0.990915, 313, 133, 376, 164
-0.99093, 97, 217, 160, 248
-0.990943, 169, 213, 232, 244
-0.990964, 393, 129, 456, 160
-0.990982, 25, 221, 88, 252
-0.990988, 65, 281, 192, 344
-0.991016, 81, 305, 208, 368
-0.991023, 169, 1, 232, 256
-0.991035, 289, 249, 352, 312
-0.99105, 41, 109, 104, 140
-0.991068, 393, 89, 456, 152
-0.991094, 425, 269, 488, 300
-0.991096, 25, 97, 88, 128
-0.991108, 281, 125, 344, 156
-0.991169, 85, 217, 116, 280
-0.991177, 113, 33, 144, 160
-0.991177, 17, 137, 80, 200
-0.99118, 65, 161, 128, 192
-0.991202, 361, 277, 424, 308
-0.99122, 169, 101, 232, 132
-0.991221, 41, 289, 104, 320
-0.991224, 97, 281, 160, 344
-0.991225, 257, 129, 288, 192
-0.991248, 273, 241, 400, 304
-0.991252, 157, 209, 188, 272
-0.991256, 249, 65, 280, 192
-0.991259, 201, 73, 232, 136
-0.991261, 385, 205, 448, 236
-0.991264, 281, 277, 344, 308
-0.99127, 425, 197, 488, 228
-0.991277, 377, 193, 440, 224
-0.991332, 193, 201, 256, 232
-0.991337, 329, 193, 392, 224
-0.991356, 177, 289, 304, 352
-0.991388, 257, 185, 500, 248
-0.991422, 1, 221, 64, 252
-0.991431, 145, 129, 176, 256
-0.991451, 153, 125, 216, 156
-0.991454, 129, 305, 256, 368
-0.991467, 121, 217, 184, 248
-0.991474, 73, 285, 136, 316
-0.99152, 241, 105, 304, 136
-0.991547, 321, 1, 384, 374
-0.991552, 185, 289, 248, 320
-0.991562, 401, 329, 464, 360
-0.991571, 185, 241, 248, 368
-0.991599, 49, 129, 80, 192
-0.991637, 81, 177, 144, 208
-0.991655, 185, 193, 216, 320
-0.991677, 57, 161, 88, 288
-0.991677, 433, 1, 496, 256
-0.991685, 221, 33, 252, 160
-0.991699, 121, 185, 184, 248
-0.991711, 377, 153, 440, 216
-0.991712, 57, 289, 120, 352
-0.991724, 189, 121, 220, 184
-0.991726, 217, 213, 280, 244
-0.991749, 89, 141, 152, 172
-0.991753, 1, 81, 64, 112
-0.991772, 257, 269, 320, 300
-0.991795, 345, 177, 408, 208
-0.991809, 177, 137, 208, 200
-0.991859, 153, 137, 216, 168
-0.991862, 377, 333, 440, 364
-0.991867, 89, 209, 120, 336
-0.99188, 417, 129, 480, 160
-0.991883, 305, 121, 368, 152
-0.991891, 129, 105, 384, 168
-0.991902, 305, 277, 368, 308
-0.991903, 169, 89, 232, 120
-0.991916, 401, 193, 464, 224
-0.991969, 361, 209, 424, 240
-0.991994, 113, 281, 176, 312
-0.992014, 49, 89, 112, 120
-0.992053, 1, 209, 64, 240
-0.992054, 73, 217, 136, 248
-0.992075, 465, 241, 496, 368
-0.99208, 337, 205, 400, 236
-0.99208, 401, 317, 464, 348
-0.992089, 145, 209, 208, 240
-0.992106, 105, 177, 168, 208
-0.992124, 385, 285, 448, 316
-0.992127, 453, 265, 484, 328
-0.992135, 409, 117, 472, 148
-0.992142, 273, 265, 304, 328
-0.992163, 329, 1, 392, 256
-0.992164, 17, 293, 80, 324
-0.992181, 233, 49, 264, 176
-0.992198, 77, 33, 108, 160
-0.99222, 177, 113, 208, 144
-0.992225, 433, 185, 496, 216
-0.992241, 409, 289, 440, 352
-0.992282, 33, 97, 288, 160
-0.992305, 233, 289, 296, 320
-0.992319, 89, 157, 152, 188
-0.99232, 157, 105, 188, 136
-0.99233, 49, 209, 112, 240
-0.992337, 145, 65, 272, 128
-0.992338, 393, 141, 456, 172
-0.99234, 105, 117, 168, 148
-0.992345, 305, 193, 368, 224
-0.992345, 41, 153, 104, 184
-0.992345, 241, 89, 368, 152
-0.992349, 145, 301, 208, 332
-0.992349, 425, 317, 488, 348
-0.992351, 129, 129, 192, 160
-0.992356, 433, 169, 464, 232
-0.992373, 145, 265, 208, 328
-0.992384, 345, 141, 408, 172
-0.992394, 369, 265, 496, 328
-0.992398, 249, 129, 312, 160
-0.992399, 429, 241, 460, 368
-0.992403, 137, 281, 200, 312
-0.992409, 217, 121, 280, 152
-0.992426, 17, 109, 80, 140
-0.992431, 105, 89, 168, 120
-0.992455, 305, 265, 368, 296
-0.992478, 385, 241, 416, 368
-0.992484, 81, 129, 144, 160
-0.992485, 401, 269, 464, 300
-0.992488, 209, 301, 272, 332
-0.992496, 329, 121, 392, 152
-0.992516, 265, 217, 328, 248
-0.992518, 329, 273, 392, 304
-0.992519, 57, 129, 120, 160
-0.992527, 41, 165, 104, 196
-0.992544, 285, 113, 316, 144
-0.992545, 225, 197, 288, 228
-0.992573, 17, 237, 80, 268
-0.992574, 53, 33, 84, 160
-0.992576, 233, 93, 296, 124
-0.99258, 73, 273, 136, 304
-0.992581, 293, 205, 324, 236
-0.992581, 81, 205, 144, 236
-0.992591, 425, 329, 488, 360
-0.992598, 449, 145, 480, 272
-0.992611, 377, 321, 440, 352
-0.992616, 161, 197, 224, 228
-0.992626, 25, 209, 88, 240
-0.992632, 161, 177, 224, 208
-0.992638, 425, 141, 488, 172
-0.992638, 377, 345, 440, 374
-0.992638, 57, 177, 120, 208
-0.992638, 137, 109, 168, 140
-0.992646, 217, 297, 248, 360
-0.992648, 469, 105, 500, 136
-0.992649, 265, 1, 328, 256
-0.992667, 209, 289, 272, 320
-0.99268, 297, 117, 328, 148
-0.99268, 457, 269, 488, 300
-0.992692, 329, 241, 392, 304
-0.992692, 381, 193, 412, 224
-0.9927, 441, 109, 472, 140
-0.992704, 173, 193, 204, 320
-0.992706, 137, 177, 200, 208
-0.992723, 273, 109, 304, 140
-0.992725, 201, 169, 264, 232
-0.992732, 41, 141, 104, 172
-0.992732, 165, 117, 196, 148
-0.992733, 313, 105, 344, 168
-0.992738, 457, 105, 488, 136
-0.992746, 377, 181, 408, 212
-0.992749, 265, 193, 328, 224
-0.992749, 81, 229, 144, 260
-0.992749, 161, 289, 224, 320
-0.992759, 321, 181, 384, 212
-0.992764, 185, 49, 216, 176
-0.992773, 1, 313, 128, 374
-0.992777, 365, 193, 396, 224
-0.99279, 305, 205, 336, 236
-0.992792, 189, 213, 220, 244
-0.992798, 409, 281, 472, 312
-0.992798, 433, 241, 496, 304
-0.992802, 185, 177, 248, 208
-0.992804, 201, 89, 232, 120
-0.99281, 145, 209, 176, 272
-0.992811, 161, 277, 224, 308
-0.99282, 93, 145, 124, 272
-0.992822, 281, 265, 344, 296
-0.992823, 353, 241, 480, 304
-0.992832, 37, 93, 68, 124
-0.992852, 185, 305, 248, 336
-0.992859, 125, 101, 156, 132
-0.992862, 145, 221, 208, 252
-0.992863, 325, 205, 356, 236
-0.992864, 189, 105, 220, 136
-0.992866, 377, 125, 408, 156
-0.992867, 377, 169, 440, 200
-0.992869, 105, 129, 168, 160
-0.99287, 241, 109, 272, 140
-0.992872, 281, 205, 312, 236
-0.992877, 33, 177, 96, 208
-0.992884, 405, 265, 436, 328
-0.992887, 253, 117, 284, 148
-0.992888, 177, 241, 304, 304
-0.992892, 33, 221, 64, 252
-0.992903, 89, 101, 120, 132
-0.992921, 297, 65, 328, 192
-0.992932, 285, 265, 316, 328
-0.992935, 33, 57, 96, 120
-0.992938, 73, 105, 104, 136
-0.992944, 177, 125, 208, 156
-0.992944, 245, 185, 276, 248
-0.992955, 77, 145, 108, 176
-0.992956, 269, 209, 300, 240
-0.992957, 393, 193, 424, 224
-0.992964, 353, 1, 416, 256
-0.99297, 101, 209, 132, 336
-0.992975, 5, 89, 36, 120
-0.992976, 89, 141, 120, 172
-0.992979, 153, 117, 184, 148
-0.992991, 401, 1, 464, 374
-0.992993, 209, 33, 240, 160
-0.992995, 465, 273, 496, 336
-0.992997, 233, 213, 264, 244
-0.993002, 257, 121, 500, 184
-0.993003, 405, 205, 436, 236
-0.993004, 357, 129, 388, 160
-0.993004, 201, 213, 232, 244
-0.993007, 389, 129, 420, 160
-0.993009, 329, 133, 360, 164
-0.99301, 225, 101, 256, 132
-0.993017, 145, 109, 272, 140
-0.993024, 49, 97, 80, 128
-0.993035, 345, 205, 376, 236
-0.993039, 401, 277, 432, 308
-0.993039, 425, 197, 456, 228
-0.993041, 61, 109, 92, 140
-0.993041, 17, 89, 48, 120
-0.993047, 437, 197, 468, 228
-0.993047, 417, 129, 448, 160
-0.993049, 45, 221, 76, 252
-0.99305, 221, 213, 252, 244
-0.99305, 293, 273, 324, 304
-0.993052, 49, 109, 80, 140
-0.993054, 193, 121, 224, 152
-0.993054, 333, 185, 364, 248
-0.993066, 389, 181, 420, 212
-0.993068, 113, 177, 144, 304
-0.99307, 105, 217, 136, 248
-0.993073, 101, 97, 132, 128
-0.993074, 201, 101, 232, 132
-0.993074, 193, 209, 448, 272
-0.993077, 113, 101, 144, 132
-0.993083, 1, 113, 500, 176
-0.993085, 173, 101, 204, 132
-0.993085, 309, 277, 340, 308
-0.993095, 445, 269, 476, 300
-0.9931, 437, 121, 468, 152
-0.993101, 213, 89, 244, 120
-0.993103, 265, 121, 296, 152
-0.993109, 213, 201, 244, 232
-0.993112, 349, 105, 380, 168
-0.993119, 317, 133, 348, 164
-0.993129, 85, 221, 116, 252
-0.993133, 413, 281, 444, 312
-0.993136, 1, 213, 32, 244
-0.993145, 341, 133, 372, 164
-0.993152, 21, 225, 52, 256
-0.993156, 385, 341, 416, 372
-0.993156, 97, 157, 128, 188
-0.993157, 457, 193, 488, 224
-0.993163, 229, 113, 260, 144
-0.993163, 125, 217, 156, 248
-0.993169, 81, 165, 112, 196
-0.993176, 77, 161, 108, 224
-0.993178, 405, 321, 436, 352
-0.993178, 17, 213, 48, 244
-0.99318, 313, 65, 344, 192
-0.99318, 353, 193, 384, 224
-0.993195, 401, 129, 432, 160
-0.9932, 457, 317, 488, 348
-0.993201, 241, 121, 272, 152
-0.993203, 109, 73, 140, 136
-0.993204, 413, 189, 444, 220
-0.993205, 105, 141, 136, 172
-0.993209, 145, 97, 176, 128
-0.993218, 393, 209, 424, 240
-0.993219, 365, 277, 396, 308
-0.993226, 465, 177, 496, 240
-0.99323, 469, 197, 500, 228
-0.993232, 469, 81, 500, 144
-0.993236, 253, 209, 284, 240
-0.99324, 173, 209, 204, 240
-0.993242, 389, 277, 420, 308
-0.993244, 69, 217, 100, 248
-0.993247, 177, 137, 208, 168
-0.993254, 37, 293, 68, 324
-0.993254, 361, 177, 392, 208
-0.993255, 469, 269, 500, 300
-0.99326, 1, 101, 32, 132
-0.993265, 257, 17, 500, 144
-0.993269, 221, 289, 252, 320
-0.99327, 97, 177, 128, 208
-0.993271, 225, 89, 256, 120
-0.993271, 425, 277, 456, 308
-0.993273, 165, 129, 196, 160
-0.993274, 313, 193, 344, 224
-0.993281, 349, 277, 380, 308
-0.993281, 253, 105, 284, 136
-0.99329, 457, 257, 488, 288
-0.99329, 245, 289, 276, 320
-0.993292, 49, 289, 80, 320
-0.9933, 29, 81, 60, 112
-0.993305, 301, 129, 332, 160
-0.993311, 57, 221, 88, 252
-0.993314, 461, 117, 492, 148
-0.993316, 109, 129, 140, 160
-0.993317, 93, 209, 124, 240
-0.993317, 277, 269, 308, 300
-0.993318, 437, 185, 468, 216
-0.993321, 377, 281, 408, 312
-0.993322, 117, 177, 148, 208
-0.993327, 333, 193, 364, 224
-0.993329, 61, 93, 92, 124
-0.993346, 345, 65, 376, 192
-0.993346, 361, 213, 392, 244
-0.99335, 105, 285, 136, 316
-0.993352, 17, 105, 48, 136
-0.993352, 401, 177, 432, 208
-0.993356, 317, 117, 348, 148
-0.99336, 17, 77, 48, 108
-0.993376, 89, 33, 120, 160
-0.99344, 161, 217, 224, 280
-0.993444, 261, 185, 292, 248
-0.993473, 185, 193, 216, 256
-0.993595, 441, 65, 472, 192
-0.99363, 365, 65, 396, 192
-0.993667, 397, 105, 428, 168
-0.993686, 277, 49, 308, 176
-0.993715, 121, 73, 152, 136
-0.993729, 205, 281, 236, 344
-0.993733, 461, 145, 492, 272
-0.993753, 105, 129, 136, 256
-0.993759, 65, 101, 192, 132
-0.993787, 17, 49, 144, 112
-0.993835, 41, 65, 72, 128
-0.993906, 1, 105, 32, 168
-0.993908, 225, 289, 352, 352
-0.993928, 229, 73, 260, 136
-0.993934, 353, 81, 480, 144
-0.993966, 309, 177, 340, 240
-0.993978, 145, 241, 208, 368
-0.993989, 201, 145, 232, 272
-0.993991, 17, 241, 80, 304
-0.994011, 113, 137, 144, 200
-0.994098, 193, 113, 320, 144
-0.994136, 273, 205, 400, 236
-0.994215, 261, 265, 292, 328
-0.994227, 393, 265, 424, 328
-0.994253, 385, 185, 400, 248
-0.994287, 77, 185, 108, 248
-0.99432, 201, 185, 232, 248
-0.994322, 417, 241, 448, 368
-0.994342, 357, 241, 388, 368
-0.99435, 357, 161, 388, 224
-0.994351, 129, 257, 256, 320
-0.994351, 129, 281, 160, 344
-0.994378, 393, 65, 424, 192
-0.994437, 145, 33, 176, 160
-0.994451, 65, 265, 128, 328
-0.994451, 337, 313, 400, 374
-0.99446, 393, 313, 424, 374
-0.994469, 337, 125, 464, 156
-0.994495, 337, 193, 464, 224
-0.994504, 289, 1, 352, 256
-0.994511, 325, 105, 356, 168
-0.99455, 93, 73, 124, 136
-0.994572, 381, 65, 412, 192
-0.994598, 409, 105, 440, 168
-0.994608, 241, 137, 368, 200
-0.994618, 209, 217, 272, 280
-0.994662, 449, 169, 480, 232
-0.994669, 381, 161, 412, 224
-0.99469, 189, 145, 220, 272
-0.994698, 1, 209, 500, 272
-0.994753, 1, 241, 128, 304
-0.994779, 379, 177, 394, 240
-0.994814, 33, 193, 288, 256
-0.994849, 445, 241, 476, 304
-0.994874, 417, 313, 448, 374
-0.994892, 377, 273, 408, 336
-0.9949, 129, 137, 256, 200
-0.994925, 417, 65, 448, 192
-0.994942, 321, 273, 352, 336
-0.994952, 145, 97, 272, 128
-0.994954, 159, 97, 174, 160
-0.994964, 373, 97, 404, 160
-0.995003, 265, 81, 296, 144
-0.995019, 97, 241, 160, 368
-0.995025, 33, 121, 288, 184
-0.995078, 241, 161, 304, 224
-0.995081, 209, 209, 336, 240
-0.995092, 161, 185, 416, 248
-0.995094, 145, 121, 272, 152
-0.995108, 225, 265, 480, 328
-0.995125, 65, 217, 320, 280
-0.99517, 225, 125, 352, 156
-0.995173, 391, 185, 406, 248
-0.995187, 199, 97, 214, 160
-0.995187, 371, 185, 386, 248
-0.995202, 9, 41, 72, 104
-0.995266, 45, 129, 76, 256
-0.995289, 173, 33, 204, 160
-0.995298, 265, 241, 328, 304
-0.995328, 97, 117, 224, 148
-0.995333, 121, 305, 184, 368
-0.995335, 373, 241, 404, 368
-0.995406, 469, 49, 500, 176
-0.995468, 33, 209, 64, 336
-0.995487, 73, 105, 88, 168
-0.995506, 127, 97, 142, 160
-0.995558, 41, 257, 104, 320
-0.995563, 451, 105, 466, 168
-0.995576, 47, 89, 62, 152
-0.995578, 53, 89, 68, 152
-0.995589, 221, 89, 236, 152
-0.995594, 133, 145, 164, 272
-0.995598, 185, 257, 248, 320
-0.995601, 169, 313, 232, 374
-0.995603, 161, 213, 288, 244
-0.995629, 225, 89, 480, 152
-0.995633, 193, 289, 448, 352
-0.995648, 325, 65, 356, 192
-0.995651, 369, 181, 496, 212
-0.995652, 289, 105, 304, 168
-0.995663, 457, 49, 488, 176
-0.995663, 1, 73, 256, 136
-0.995684, 217, 249, 280, 312
-0.995689, 149, 105, 164, 168
-0.995692, 273, 161, 304, 288
-0.995697, 341, 241, 372, 368
-0.995698, 273, 129, 400, 160
-0.995743, 257, 113, 384, 144
-0.995752, 167, 97, 182, 160
-0.995776, 333, 97, 364, 352
-0.995788, 255, 105, 270, 168
-0.995795, 289, 193, 416, 224
-0.995797, 79, 105, 94, 168
-0.995802, 445, 113, 460, 176
-0.995815, 111, 97, 126, 160
-0.995821, 289, 289, 416, 352
-0.995846, 205, 89, 220, 152
-0.995856, 351, 129, 366, 192
-0.995863, 225, 241, 288, 368
-0.995869, 119, 97, 134, 160
-0.995871, 17, 221, 144, 252
-0.995877, 253, 97, 284, 352
-0.995891, 193, 101, 320, 132
-0.995894, 283, 105, 298, 168
-0.995932, 289, 145, 320, 272
-0.995938, 265, 97, 296, 352
-0.995954, 1, 25, 128, 88
-0.995956, 59, 105, 74, 168
-0.995974, 133, 97, 148, 160
-0.995984, 345, 97, 376, 352
-0.995995, 245, 97, 260, 160
-0.996005, 289, 313, 416, 374
-0.996009, 437, 121, 452, 184
-0.996018, 439, 193, 454, 256
-0.996028, 377, 201, 392, 264
-0.996037, 1, 137, 500, 200
-0.996038, 33, 273, 288, 336
-0.996039, 91, 97, 106, 160
-0.996051, 305, 97, 336, 352
-0.996052, 209, 65, 336, 128
-0.996056, 299, 105, 314, 168
-0.99606, 357, 97, 388, 352
-0.996088, 277, 97, 308, 352
-0.996115, 113, 213, 240, 244
-0.996126, 273, 105, 288, 168
-0.996134, 89, 65, 120, 320
-0.996135, 321, 97, 352, 352
-0.996135, 11, 81, 26, 144
-0.996155, 397, 177, 412, 240
-0.99618, 41, 89, 56, 152
-0.996194, 17, 97, 144, 128
-0.9962, 293, 97, 324, 352
-0.996223, 1, 177, 500, 240
-0.996228, 373, 97, 404, 352
-0.996228, 17, 265, 144, 328
-0.996234, 237, 97, 252, 160
-0.996245, 193, 105, 208, 168
-0.99625, 105, 97, 120, 160
-0.996274, 173, 97, 188, 160
-0.996275, 461, 105, 476, 168
-0.996276, 363, 129, 378, 192
-0.996283, 365, 177, 380, 240
-0.996286, 65, 105, 80, 168
-0.996289, 141, 97, 156, 160
-0.996325, 89, 313, 152, 374
-0.996334, 21, 89, 36, 152
-0.996334, 99, 97, 114, 160
-0.996336, 233, 97, 264, 352
-0.996352, 229, 89, 244, 152
-0.996358, 85, 97, 100, 160
-0.996368, 261, 129, 276, 192
-0.996386, 467, 97, 482, 160
-0.996402, 371, 121, 386, 184
-0.996411, 413, 129, 428, 192
-0.996427, 385, 97, 416, 352
-0.996436, 427, 129, 442, 192
-0.996436, 89, 257, 152, 320
-0.996439, 33, 285, 160, 316
-0.996441, 405, 129, 420, 192
-0.996454, 369, 281, 496, 312
-0.996463, 419, 129, 434, 192
-0.996465, 65, 217, 192, 248
-0.996485, 169, 97, 200, 352
-0.996488, 441, 97, 472, 352
-0.996492, 217, 65, 248, 320
-0.996502, 181, 97, 212, 352
-0.996503, 45, 209, 60, 272
-0.996512, 157, 65, 188, 320
-0.996514, 399, 129, 414, 192
-0.996523, 125, 65, 156, 320
-0.996527, 81, 145, 96, 208
-0.996532, 101, 33, 132, 160
-0.99654, 215, 89, 230, 152
-0.996547, 183, 113, 198, 176
-0.996551, 307, 113, 322, 176
-0.996554, 337, 137, 464, 168
-0.996554, 31, 81, 46, 144
-0.996578, 323, 193, 338, 256
-0.996591, 69, 65, 100, 320
-0.996593, 387, 121, 402, 184
-0.996599, 93, 137, 108, 200
-0.996625, 345, 129, 360, 192
-0.99663, 413, 97, 444, 352
-0.996647, 225, 273, 352, 304
-0.99665, 327, 129, 342, 192
-0.996657, 161, 289, 288, 320
-0.99666, 483, 97, 498, 160
-0.996663, 473, 97, 488, 160
-0.996675, 405, 65, 436, 192
-0.996691, 193, 197, 320, 228
-0.996699, 289, 137, 352, 200
-0.996702, 441, 241, 472, 368
-0.996704, 239, 193, 254, 256
-0.996713, 305, 273, 432, 304
-0.996722, 353, 177, 368, 240
-0.99673, 257, 241, 500, 304
-0.996737, 369, 109, 496, 140
-0.996737, 161, 129, 416, 192
-0.996738, 337, 129, 352, 192
-0.996743, 261, 105, 276, 168
-0.996745, 97, 233, 224, 296
-0.996746, 369, 329, 496, 360
-0.996759, 319, 129, 334, 192
-0.996775, 287, 201, 302, 264
-0.996776, 57, 97, 88, 352
-0.996793, 363, 201, 378, 264
-0.996803, 1, 161, 32, 288
-0.996819, 129, 265, 384, 328
-0.996825, 245, 185, 260, 248
-0.996833, 311, 201, 326, 264
-0.996838, 461, 65, 492, 320
-0.996855, 313, 121, 328, 184
-0.996857, 251, 209, 266, 272
-0.996858, 321, 209, 448, 240
-0.996862, 41, 65, 72, 320
-0.996865, 197, 65, 228, 320
-0.996871, 359, 169, 374, 232
-0.996872, 9, 17, 72, 80
-0.996876, 87, 153, 102, 216
-0.996877, 49, 113, 176, 144
-0.996879, 129, 81, 384, 144
-0.996881, 387, 209, 402, 272
-0.996884, 113, 65, 144, 320
-0.996887, 425, 185, 440, 248
-0.996888, 431, 193, 446, 256
-0.99689, 403, 209, 418, 272
-0.996897, 357, 129, 372, 192
-0.996911, 97, 129, 224, 160
-0.996917, 453, 193, 468, 256
-0.996937, 267, 105, 282, 168
-0.996945, 261, 209, 276, 272
-0.996953, 1, 109, 128, 140
-0.996955, 401, 97, 432, 352
-0.996956, 369, 205, 496, 236
-0.996975, 289, 181, 416, 212
-0.99698, 39, 209, 54, 272
-0.996981, 421, 209, 436, 272
-0.996983, 21, 65, 52, 320
-0.99702, 445, 193, 460, 256
-0.997022, 147, 81, 162, 144
-0.997026, 1, 85, 128, 116
-0.997033, 145, 65, 176, 320
-0.997036, 61, 217, 76, 280
-0.997055, 197, 33, 228, 160
-0.997057, 393, 209, 408, 272
-0.997068, 119, 121, 134, 184
-0.997079, 97, 297, 352, 360
-0.99708, 459, 193, 474, 256
-0.997084, 101, 65, 132, 320
-0.997088, 1, 89, 16, 152
-0.997091, 405, 185, 420, 248
-0.997091, 409, 209, 424, 272
-0.997091, 415, 209, 430, 272
-0.997111, 477, 313, 492, 374
-0.997126, 67, 217, 82, 280
-0.997129, 1, 89, 500, 152
-0.997129, 1, 209, 128, 240
-0.997133, 267, 129, 282, 192
-0.997137, 97, 281, 224, 312
-0.997143, 357, 201, 372, 264
-0.997148, 9, 209, 24, 272
-0.997152, 467, 193, 482, 256
-0.997153, 425, 97, 456, 352
-0.997163, 77, 217, 92, 280
-0.997168, 51, 209, 66, 272
-0.997174, 407, 265, 422, 328
-0.997188, 17, 141, 144, 172
-0.997189, 381, 121, 396, 184
-0.997203, 475, 201, 490, 264
-0.997206, 317, 201, 332, 264
-0.99721, 1, 265, 500, 328
-0.997224, 411, 313, 426, 374
-0.997226, 233, 193, 248, 256
-0.997228, 57, 313, 120, 374
-0.997264, 97, 89, 224, 120
-0.997268, 329, 185, 344, 248
-0.997277, 461, 273, 476, 336
-0.997282, 347, 209, 362, 272
-0.997284, 71, 153, 86, 216
-0.997294, 417, 185, 432, 248
-0.997303, 269, 209, 284, 272
-0.997311, 459, 313, 474, 374
-0.997315, 393, 129, 408, 192
-0.997315, 371, 209, 386, 272
-0.997317, 33, 209, 48, 272
-0.997318, 17, 65, 32, 128
-0.997333, 483, 201, 498, 264
-0.997337, 305, 201, 320, 264
-0.997346, 411, 185, 426, 248
-0.997355, 209, 313, 336, 374
-0.997376, 49, 161, 176, 192
-0.997379, 1, 157, 128, 188
-0.997384, 241, 17, 304, 144
-0.997405, 193, 109, 208, 140
-0.99742, 1, 169, 128, 200
-0.997463, 353, 269, 480, 300
-0.997476, 369, 345, 496, 374
-0.997491, 159, 101, 174, 132
-0.997492, 187, 117, 202, 148
-0.997519, 225, 293, 352, 324
-0.997533, 81, 257, 208, 320
-0.997533, 81, 141, 208, 172
-0.997536, 161, 301, 288, 332
-0.997541, 225, 161, 480, 224
-0.997546, 169, 145, 232, 208
-0.997553, 121, 225, 152, 352
-0.997584, 321, 289, 448, 320
-0.997622, 33, 161, 64, 288
-0.997636, 47, 93, 62, 124
-0.997638, 65, 177, 192, 208
-0.997642, 171, 109, 186, 140
-0.997674, 193, 161, 320, 224
-0.997698, 273, 285, 400, 316
-0.997699, 309, 121, 324, 152
-0.9977, 209, 145, 272, 208
-0.997707, 387, 181, 402, 212
-0.99771, 193, 313, 448, 374
-0.997719, 149, 109, 164, 140
-0.997733, 209, 185, 336, 216
-0.997757, 309, 205, 324, 236
-0.99776, 301, 117, 316, 148
-0.997771, 305, 113, 432, 144
-0.997775, 129, 201, 256, 232
-0.997783, 143, 105, 158, 136
-0.997793, 393, 193, 408, 224
-0.997803, 1, 97, 32, 352
-0.997814, 301, 205, 316, 236
-0.99782, 281, 113, 296, 144
-0.997826, 387, 193, 402, 224
-0.997837, 145, 177, 272, 208
-0.997856, 455, 105, 470, 136
-0.99786, 295, 205, 310, 236
-0.997865, 197, 213, 212, 244
-0.997868, 471, 105, 486, 136
-0.997869, 203, 89, 218, 120
-0.997874, 283, 209, 298, 240
-0.997876, 73, 109, 88, 140
-0.997891, 291, 109, 306, 140
-0.997908, 463, 265, 478, 296
-0.997912, 129, 101, 144, 132
-0.997918, 247, 109, 262, 140
-0.997919, 193, 121, 208, 152
-0.997922, 473, 269, 488, 300
-0.997926, 57, 1, 88, 256
-0.99793, 225, 233, 352, 296
-0.99793, 481, 105, 496, 136
-0.997935, 1, 297, 500, 360
-0.997963, 289, 169, 416, 200
-0.997964, 83, 105, 98, 136
-0.997979, 129, 161, 256, 224
-0.997981, 381, 185, 396, 216
-0.997986, 203, 213, 218, 244
-0.997988, 209, 221, 336, 252
-0.997997, 93, 101, 108, 132
-0.998, 1, 297, 128, 328
-0.998003, 391, 125, 406, 156
-0.998012, 199, 105, 214, 136
-0.998014, 63, 113, 78, 144
-0.998017, 289, 205, 304, 236
-0.998021, 253, 113, 268, 144
-0.998025, 53, 97, 68, 128
-0.998033, 277, 209, 292, 240
-0.998035, 181, 117, 196, 148
-0.99804, 275, 109, 290, 140
-0.998045, 39, 221, 54, 252
-0.998045, 111, 97, 126, 128
-0.99805, 165, 105, 180, 136
-0.998059, 317, 205, 332, 236
-0.998069, 121, 101, 136, 132
-0.99808, 443, 117, 458, 148
-0.998087, 349, 137, 364, 168
-0.998093, 209, 93, 224, 124
-0.998095, 327, 201, 342, 232
-0.998097, 337, 205, 352, 236
-0.998102, 339, 133, 354, 164
-0.998103, 65, 205, 192, 236
-0.998105, 209, 213, 224, 244
-0.998117, 231, 213, 246, 244
-0.998121, 403, 277, 418, 308
-0.99813, 407, 129, 422, 160
-0.998141, 415, 277, 430, 308
-0.998146, 91, 217, 106, 248
-0.998146, 381, 197, 396, 228
-0.998148, 93, 141, 108, 172
-0.99815, 177, 129, 192, 160
-0.998153, 185, 129, 200, 160
-0.998158, 145, 277, 272, 308
-0.998161, 35, 89, 50, 120
-0.998167, 393, 181, 408, 212
-0.998171, 65, 305, 192, 336
-0.998172, 101, 101, 116, 132
-0.998181, 429, 129, 444, 160
-0.998183, 369, 169, 496, 200
-0.998185, 353, 257, 480, 288
-0.998188, 137, 105, 152, 136
-0.998194, 369, 193, 384, 224
-0.998204, 359, 133, 374, 164
-0.998214, 49, 125, 176, 156
-0.998219, 215, 89, 230, 120
-0.99822, 435, 197, 450, 228
-0.998224, 21, 89, 36, 120
-0.998226, 29, 81, 44, 112
-0.99823, 237, 213, 252, 244
-0.998233, 47, 221, 62, 252
-0.998243, 121, 217, 136, 248
-0.998247, 399, 193, 414, 224
-0.998259, 457, 269, 472, 300
-0.998267, 59, 101, 74, 132
-0.99827, 309, 273, 324, 304
-0.998281, 237, 97, 252, 128
-0.998284, 371, 277, 386, 308
-0.998287, 375, 193, 390, 224
-0.998289, 465, 105, 480, 136
-0.998292, 315, 125, 330, 156
-0.998297, 417, 205, 432, 236
-0.9983, 7, 97, 22, 128
-0.998303, 243, 213, 258, 244
-0.998307, 269, 117, 284, 148
-0.998313, 111, 137, 126, 168
-0.998318, 371, 125, 386, 156
-0.998322, 259, 109, 274, 140
-0.998324, 33, 221, 48, 252
-0.998324, 191, 213, 206, 244
-0.998327, 467, 193, 482, 224
-0.998328, 97, 317, 224, 348
-0.99833, 389, 341, 404, 372
-0.998332, 247, 121, 262, 152
-0.998338, 427, 189, 442, 220
-0.998343, 233, 125, 264, 140
-0.998343, 437, 127, 468, 142
-0.998344, 77, 221, 108, 236
-0.998344, 461, 123, 492, 138
-0.998346, 177, 101, 208, 116
-0.998347, 21, 231, 52, 246
-0.998348, 297, 215, 328, 230
-0.998348, 457, 315, 488, 330
-0.998349, 53, 221, 68, 252
-0.998349, 425, 131, 456, 146
-0.99835, 249, 127, 280, 142
-0.99835, 77, 169, 108, 184
-0.998351, 317, 127, 348, 142
-0.998351, 353, 205, 368, 236
-0.998351, 241, 105, 272, 120
-0.998351, 181, 221, 212, 236
-0.998352, 373, 197, 404, 212
-0.998352, 415, 317, 430, 348
-0.998352, 249, 219, 280, 234
-0.998354, 229, 303, 260, 318
-0.998354, 125, 225, 156, 240
-0.998355, 273, 217, 304, 232
-0.998355, 101, 137, 116, 168
-0.998355, 323, 133, 338, 164
-0.998356, 197, 129, 228, 144
-0.998356, 317, 133, 348, 148
-0.998356, 237, 209, 268, 224
-0.998357, 205, 123, 236, 138
-0.998358, 173, 215, 204, 230
-0.99836, 13, 87, 44, 102
-0.998361, 69, 111, 100, 126
-0.998362, 377, 127, 408, 142
-0.998363, 213, 99, 244, 114
-0.998363, 17, 223, 48, 238
-0.998363, 417, 133, 432, 164
-0.998364, 409, 329, 440, 344
-0.998364, 37, 93, 68, 108
-0.998366, 289, 141, 416, 172
-0.998366, 393, 181, 424, 196
-0.998368, 369, 133, 400, 148
-0.998368, 393, 279, 424, 294
-0.998368, 229, 101, 260, 116
-0.998369, 285, 217, 316, 232
-0.998369, 361, 277, 392, 292
-0.998369, 381, 283, 412, 298
-0.99837, 217, 219, 248, 234
-0.99837, 113, 101, 144, 116
-0.998372, 81, 105, 112, 120
-0.998373, 253, 115, 284, 130
-0.998374, 353, 133, 384, 148
-0.998376, 261, 125, 292, 140
-0.998376, 357, 183, 388, 198
-0.998377, 333, 133, 348, 164
-0.998377, 181, 141, 196, 172
-0.998377, 53, 113, 84, 128
-0.998377, 417, 207, 448, 222
-0.998379, 101, 213, 116, 244
-0.998379, 109, 141, 140, 156
-0.998379, 89, 161, 120, 176
-0.99838, 265, 119, 296, 134
-0.99838, 81, 177, 112, 192
-0.99838, 181, 107, 212, 122
-0.998382, 185, 115, 216, 130
-0.998383, 273, 111, 304, 126
-0.998383, 423, 129, 438, 160
-0.998383, 185, 135, 216, 150
-0.998385, 153, 127, 184, 142
-0.998386, 117, 181, 148, 196
-0.998387, 33, 223, 64, 238
-0.998388, 33, 233, 64, 248
-0.998388, 201, 93, 232, 108
-0.998389, 417, 139, 448, 154
-0.998389, 165, 117, 180, 148
-0.998389, 413, 133, 444, 148
-0.998389, 201, 103, 232, 118
-0.998394, 357, 203, 388, 218
-0.998394, 93, 143, 124, 158
-0.998395, 285, 125, 316, 140
-0.998395, 113, 219, 144, 234
-0.998397, 383, 125, 398, 156
-0.998397, 277, 269, 308, 284
-0.998397, 145, 105, 176, 120
-0.998398, 93, 165, 108, 196
-0.998398, 405, 279, 436, 294
-0.998398, 157, 217, 188, 232
-0.998399, 101, 101, 132, 116
-0.998399, 453, 107, 484, 122
-0.998399, 41, 107, 72, 122
-0.998401, 227, 89, 242, 120
-0.998401, 299, 269, 314, 300
-0.998402, 171, 121, 186, 152
-0.998404, 173, 139, 204, 154
-0.998406, 305, 277, 336, 292
-0.998406, 97, 181, 128, 196
-0.998407, 17, 181, 144, 212
-0.998408, 297, 123, 328, 138
-0.998408, 477, 197, 492, 228
-0.998409, 137, 221, 168, 236
-0.998409, 441, 121, 472, 136
-0.998411, 481, 121, 496, 152
-0.998411, 205, 217, 236, 232
-0.998412, 145, 111, 176, 126
-0.998413, 429, 277, 460, 292
-0.998415, 393, 137, 424, 152
-0.998416, 61, 105, 92, 120
-0.998416, 361, 195, 392, 210
-0.998417, 425, 201, 456, 216
-0.998417, 125, 219, 156, 234
-0.998417, 157, 111, 188, 126
-0.998418, 377, 125, 392, 156
-0.998419, 413, 287, 444, 302
-0.99842, 193, 215, 224, 230
-0.99842, 41, 99, 72, 114
-0.998424, 77, 141, 108, 156
-0.998425, 185, 129, 216, 144
-0.998425, 449, 109, 464, 140
-0.998427, 445, 113, 476, 128
-0.998428, 85, 217, 100, 248
-0.998429, 129, 103, 160, 118
-0.998429, 365, 129, 380, 160
-0.998432, 161, 133, 192, 148
-0.998432, 381, 191, 412, 206
-0.998433, 77, 159, 108, 174
-0.998434, 293, 273, 324, 288
-0.998435, 93, 219, 124, 234
-0.998437, 329, 133, 360, 148
-0.998439, 249, 121, 280, 136
-0.99844, 17, 273, 144, 304
-0.998442, 411, 205, 426, 236
-0.998446, 157, 121, 188, 136
-0.99845, 441, 271, 472, 286
-0.998452, 395, 281, 410, 312
-0.998453, 177, 137, 304, 200
-0.998453, 309, 205, 340, 220
-0.998454, 87, 141, 102, 172
-0.998458, 169, 111, 200, 126
-0.998458, 381, 183, 412, 198
-0.998459, 453, 197, 484, 212
-0.99846, 241, 113, 256, 144
-0.998463, 321, 321, 448, 352
-0.998466, 215, 205, 230, 236
-0.998469, 297, 207, 328, 222
-0.998469, 115, 221, 130, 252
-0.998469, 217, 213, 280, 228
-0.998471, 305, 129, 336, 144
-0.998473, 221, 89, 236, 120
-0.998473, 57, 113, 72, 144
-0.998475, 117, 137, 132, 168
-0.998477, 65, 25, 192, 88
-0.998478, 469, 107, 500, 122
-0.998481, 345, 205, 376, 220
-0.998482, 241, 241, 304, 304
-0.998485, 465, 197, 496, 212
-0.998486, 285, 111, 316, 126
-0.998486, 457, 269, 488, 284
-0.998488, 153, 119, 216, 134
-0.99849, 273, 211, 304, 226
-0.998493, 173, 127, 204, 142
-0.998496, 321, 205, 384, 220
-0.998496, 289, 345, 416, 374
-0.998497, 433, 197, 496, 212
-0.998498, 329, 205, 360, 220
-0.998499, 1, 169, 256, 232
-0.9985, 369, 189, 400, 204
-0.9985, 5, 1, 36, 256
-0.998501, 173, 117, 204, 132
-0.998502, 217, 213, 248, 228
-0.998505, 265, 207, 328, 222
-0.998507, 241, 211, 304, 226
-0.99851, 229, 215, 260, 230
-0.998511, 185, 123, 216, 138
-0.998512, 437, 197, 468, 212
-0.998515, 193, 215, 256, 230
-0.998516, 157, 105, 188, 120
-0.998518, 225, 17, 352, 144
-0.998519, 377, 181, 440, 196
-0.998528, 89, 101, 152, 116
-0.998528, 289, 205, 352, 220
-0.998529, 285, 207, 316, 222
-0.998536, 153, 217, 216, 232
-0.998538, 193, 99, 256, 114
-0.998538, 153, 107, 216, 122
-0.998538, 273, 127, 336, 142
-0.998539, 261, 213, 292, 228
-0.99854, 249, 111, 312, 126
-0.998542, 97, 221, 160, 236
-0.998544, 433, 119, 496, 134
-0.998546, 129, 111, 192, 126
-0.998546, 417, 277, 480, 292
-0.998548, 161, 225, 288, 256
-0.99855, 249, 213, 280, 228
-0.99855, 193, 105, 256, 120
-0.998552, 121, 219, 184, 234
-0.998553, 369, 189, 432, 204
-0.998554, 425, 203, 488, 218
-0.998555, 81, 179, 144, 194
-0.998555, 265, 121, 328, 136
-0.998557, 65, 141, 128, 156
-0.998557, 369, 149, 496, 180
-0.998558, 173, 133, 204, 148
-0.998563, 49, 159, 112, 174
-0.998563, 377, 281, 440, 296
-0.998567, 297, 133, 360, 148
-0.998568, 1, 1, 128, 64
-0.998572, 169, 129, 232, 144
-0.998573, 113, 329, 240, 360
-0.998573, 433, 271, 496, 286
-0.998574, 1, 91, 64, 106
-0.998575, 113, 103, 176, 118
-0.998576, 345, 131, 408, 146
-0.998584, 161, 113, 224, 128
-0.998586, 433, 107, 496, 122
-0.998586, 193, 129, 256, 144
-0.998587, 177, 123, 240, 138
-0.998589, 145, 313, 272, 344
-0.998589, 345, 279, 408, 294
-0.99859, 345, 183, 408, 198
-0.998592, 65, 223, 128, 238
-0.998594, 257, 271, 320, 286
-0.998595, 217, 123, 280, 138
-0.998596, 241, 119, 304, 134
-0.998598, 145, 133, 272, 164
-0.9986, 193, 93, 256, 108
-0.998601, 257, 217, 320, 232
-0.998601, 353, 195, 416, 210
-0.998604, 425, 125, 488, 140
-0.998604, 393, 129, 456, 144
-0.998605, 297, 127, 360, 142
-0.998606, 153, 137, 216, 152
-0.998606, 9, 97, 72, 112
-0.998606, 401, 325, 464, 340
-0.998607, 41, 107, 104, 122
-0.998608, 17, 103, 80, 118
-0.99861, 393, 191, 456, 206
-0.99861, 129, 129, 192, 144
-0.99861, 257, 289, 320, 352
-0.998611, 249, 129, 312, 144
-0.998612, 1, 231, 64, 246
-0.998612, 273, 277, 336, 292
-0.998612, 9, 223, 72, 238
-0.998613, 65, 147, 128, 162
-0.998615, 105, 181, 168, 196
-0.998618, 353, 201, 416, 216
-0.998618, 185, 111, 248, 126
-0.99862, 177, 221, 240, 236
-0.998622, 57, 153, 120, 168
-0.998624, 233, 219, 296, 234
-0.998624, 49, 291, 112, 306
-0.998624, 385, 135, 448, 150
-0.998626, 209, 115, 272, 130
-0.998627, 321, 135, 384, 150
-0.998628, 401, 207, 464, 222
-0.998629, 81, 157, 144, 172
-0.998632, 41, 101, 104, 116
-0.998633, 65, 185, 128, 200
-0.998633, 385, 287, 448, 302
-0.998633, 281, 215, 344, 230
-0.998634, 377, 211, 440, 226
-0.998635, 433, 113, 496, 128
-0.998637, 81, 163, 144, 178
-0.998639, 161, 99, 224, 114
-0.998639, 33, 223, 96, 238
-0.998639, 313, 281, 376, 296
-0.99864, 401, 333, 464, 348
-0.998641, 289, 241, 352, 368
-0.998642, 409, 319, 472, 334
-0.998642, 257, 217, 384, 248
-0.998643, 129, 119, 192, 134
-0.998643, 49, 177, 112, 192
-0.998643, 321, 211, 384, 226
-0.998643, 345, 189, 408, 204
-0.998644, 241, 105, 304, 120
-0.998645, 97, 215, 160, 230
-0.998645, 73, 107, 136, 122
-0.998648, 65, 169, 128, 184
-0.99865, 97, 141, 160, 156
-0.99865, 409, 141, 472, 156
-0.998651, 353, 207, 416, 222
-0.998651, 209, 221, 272, 236
-0.998653, 145, 181, 208, 196
-0.998655, 409, 271, 472, 286
-0.998658, 25, 231, 88, 246
-0.998658, 73, 283, 136, 298
-0.998661, 273, 111, 336, 126
-0.998662, 337, 177, 400, 192
-0.998662, 401, 201, 464, 216
-0.998663, 217, 303, 280, 318
-0.998663, 433, 191, 496, 206
-0.998664, 49, 217, 112, 232
-0.998665, 345, 137, 408, 152
-0.998665, 145, 223, 208, 238
-0.998666, 369, 125, 432, 140
-0.998666, 121, 225, 184, 240
-0.998667, 169, 181, 232, 196
-0.998667, 217, 207, 280, 222
-0.998668, 353, 213, 416, 228
-0.998669, 377, 323, 440, 338
-0.998669, 409, 135, 472, 150
-0.998669, 49, 95, 112, 110
-0.998669, 433, 325, 496, 340
-0.99867, 353, 355, 416, 370
-0.998673, 329, 195, 392, 210
-0.998673, 393, 121, 456, 136
-0.998673, 25, 157, 88, 172
-0.998674, 1, 121, 128, 152
-0.998674, 385, 141, 448, 156
-0.998675, 81, 135, 144, 150
-0.998676, 97, 285, 160, 300
-0.998676, 17, 111, 80, 126
-0.998676, 217, 109, 280, 124
-0.998676, 377, 275, 440, 290
-0.998676, 233, 297, 296, 312
-0.998681, 245, 1, 276, 256
-0.998692, 113, 297, 240, 328
-0.998696, 1, 305, 256, 368
-0.998697, 177, 1, 208, 256
-0.998709, 441, 1, 472, 256
-0.998709, 193, 89, 320, 120
-0.998713, 17, 233, 144, 264
-0.998726, 369, 317, 496, 348
-0.998738, 49, 85, 176, 116
-0.998758, 377, 113, 392, 240
-0.998769, 361, 113, 376, 240
-0.998771, 351, 129, 366, 256
-0.998771, 1, 145, 256, 208
-0.998781, 113, 189, 240, 220
-0.998799, 387, 113, 402, 240
-0.998803, 229, 1, 260, 256
-0.998822, 331, 113, 346, 240
-0.998823, 1, 313, 128, 344
-0.998824, 289, 261, 416, 292
-0.998825, 405, 113, 420, 240
-0.998828, 97, 157, 224, 188
-0.998834, 81, 229, 208, 260
-0.998835, 343, 113, 358, 240
-0.998843, 369, 305, 496, 336
-0.998846, 145, 85, 272, 116
-0.99885, 427, 113, 442, 240
-0.998855, 321, 113, 336, 240
-0.998856, 273, 101, 400, 132
-0.998879, 433, 113, 448, 240
-0.998881, 367, 113, 382, 240
-0.998882, 419, 113, 434, 240
-0.998887, 393, 113, 408, 240
-0.998895, 109, 81, 124, 208
-0.998915, 97, 269, 224, 300
-0.998918, 439, 113, 454, 240
-0.998918, 87, 81, 102, 208
-0.998928, 321, 333, 448, 364
-0.998929, 399, 113, 414, 240
-0.998934, 75, 97, 90, 224
-0.998939, 413, 113, 428, 240
-0.99894, 177, 265, 304, 296
-0.99896, 93, 81, 108, 208
-0.99897, 81, 97, 96, 224
-0.998972, 97, 241, 352, 304
-0.998974, 245, 97, 260, 224
-0.998978, 337, 113, 352, 240
-0.998983, 315, 113, 330, 240
-0.998985, 121, 81, 136, 208
-0.998987, 209, 305, 336, 336
-0.998996, 361, 193, 376, 320
-0.998997, 429, 1, 460, 256
-0.999005, 1, 325, 128, 356
-0.99901, 115, 81, 130, 208
-0.999016, 349, 1, 380, 256
-0.999023, 101, 81, 116, 208
-0.999025, 371, 193, 386, 320
-0.99905, 151, 113, 166, 240
-0.999058, 447, 97, 462, 224
-0.999058, 241, 173, 368, 204
-0.999062, 205, 81, 220, 208
-0.999062, 179, 129, 194, 256
-0.999075, 377, 193, 392, 320
-0.999081, 1, 241, 500, 304
-0.999084, 355, 193, 370, 320
-0.999088, 51, 81, 66, 208
-0.999088, 59, 81, 74, 208
-0.999096, 309, 113, 324, 240
-0.999106, 321, 309, 448, 340
-0.999108, 69, 97, 84, 224
-0.99911, 229, 81, 244, 208
-0.999112, 129, 81, 144, 208
-0.999112, 237, 81, 252, 208
-0.999115, 453, 97, 468, 224
-0.999117, 439, 177, 454, 304
-0.999127, 49, 317, 176, 348
-0.999134, 35, 81, 50, 208
-0.999137, 253, 113, 268, 240
-0.999143, 341, 193, 356, 320
-0.999143, 145, 97, 160, 224
-0.999146, 219, 65, 234, 192
-0.999149, 45, 81, 60, 208
-0.999151, 413, 193, 428, 320
-0.999156, 189, 129, 204, 256
-0.999159, 197, 97, 212, 224
-0.999174, 427, 193, 442, 320
-0.999174, 173, 129, 188, 256
-0.999179, 49, 1, 176, 64
-0.999181, 151, 193, 166, 320
-0.999182, 139, 97, 154, 224
-0.999182, 257, 1, 288, 256
-0.99919, 187, 81, 202, 208
-0.999191, 21, 81, 36, 208
-0.999193, 433, 177, 448, 304
-0.999197, 7, 81, 22, 208
-0.999198, 263, 113, 278, 240
-0.9992, 481, 113, 496, 240
-0.999201, 395, 193, 410, 320
-0.999206, 83, 145, 98, 272
-0.999208, 167, 81, 182, 208
-0.99921, 419, 193, 434, 320
-0.999218, 465, 97, 480, 224
-0.999219, 459, 113, 474, 240
-0.999219, 29, 81, 44, 208
-0.999226, 161, 81, 176, 208
-0.999226, 333, 193, 348, 320
-0.999227, 347, 193, 362, 320
-0.999233, 403, 193, 418, 320
-0.999234, 303, 113, 318, 240
-0.999237, 303, 193, 318, 320
-0.999237, 287, 97, 302, 224
-0.999241, 327, 193, 342, 320
-0.999246, 453, 177, 468, 304
-0.999257, 383, 193, 398, 320
-0.999259, 353, 97, 480, 128
-0.99926, 1, 81, 16, 208
-0.999261, 251, 193, 266, 320
-0.999261, 309, 193, 324, 320
-0.999262, 235, 145, 250, 272
-0.999262, 447, 177, 462, 304
-0.999266, 415, 241, 430, 368
-0.999268, 229, 177, 244, 304
-0.999271, 33, 73, 160, 104
-0.999272, 273, 97, 288, 224
-0.999281, 75, 161, 90, 288
-0.999283, 213, 65, 228, 192
-0.999287, 1, 49, 256, 112
-0.99929, 319, 193, 334, 320
-0.999293, 245, 193, 260, 320
-0.999298, 1, 197, 128, 228
-0.9993, 243, 145, 258, 272
-0.999301, 145, 193, 160, 320
-0.999304, 269, 1, 300, 256
-0.999306, 423, 241, 438, 368
-0.999308, 239, 193, 254, 320
-0.999309, 465, 193, 480, 320
-0.999311, 207, 193, 222, 320
-0.999311, 297, 97, 312, 224
-0.999313, 157, 193, 172, 320
-0.999313, 71, 209, 86, 336
-0.999315, 475, 97, 490, 224
-0.99933, 65, 189, 192, 220
-0.999331, 337, 1, 368, 256
-0.999334, 79, 209, 94, 336
-0.999337, 255, 65, 270, 192
-0.999337, 459, 193, 474, 320
-0.999345, 215, 145, 230, 272
-0.999347, 179, 81, 194, 208
-0.999349, 389, 193, 404, 320
-0.999367, 13, 81, 28, 208
-0.99937, 243, 49, 258, 176
-0.999374, 223, 113, 238, 240
-0.999375, 305, 1, 336, 256
-0.99938, 121, 129, 136, 256
-0.99938, 155, 65, 170, 192
-0.999381, 89, 129, 104, 256
-0.999382, 257, 193, 272, 320
-0.999382, 369, 1, 400, 256
-0.999391, 281, 97, 296, 224
-0.999397, 13, 33, 28, 160
-0.9994, 127, 129, 142, 256
-0.999401, 223, 177, 238, 304
-0.999407, 471, 193, 486, 320
-0.999409, 193, 173, 320, 204
-0.999412, 65, 209, 80, 336
-0.999412, 213, 193, 228, 320
-0.999418, 135, 49, 150, 176
-0.99942, 417, 1, 448, 256
-0.999421, 477, 193, 492, 320
-0.999421, 285, 1, 316, 256
-0.999426, 467, 241, 482, 368
-0.99943, 293, 209, 308, 336
-0.999431, 325, 1, 356, 256
-0.999433, 41, 33, 56, 160
-0.999437, 113, 1, 240, 128
-0.999438, 59, 209, 74, 336
-0.999443, 53, 209, 68, 336
-0.99945, 263, 193, 278, 320
-0.999466, 401, 1, 432, 256
-0.999467, 33, 341, 160, 372
-0.999489, 321, 153, 448, 184
-0.999509, 257, 65, 500, 128
-0.999511, 129, 341, 256, 372
-0.999561, 143, 219, 158, 234
-0.999562, 93, 177, 108, 192
-0.999562, 1, 37, 128, 68
-0.999563, 11, 103, 26, 118
-0.999563, 37, 223, 52, 238
-0.999563, 423, 285, 438, 300
-0.999563, 277, 269, 292, 284
-0.999564, 397, 135, 412, 150
-0.999566, 131, 219, 146, 234
-0.999566, 285, 111, 300, 126
-0.999566, 39, 231, 54, 246
-0.999567, 169, 123, 184, 138
-0.999567, 85, 171, 100, 186
-0.999567, 109, 141, 124, 156
-0.999568, 273, 117, 288, 132
-0.999568, 251, 219, 266, 234
-0.999568, 379, 193, 394, 208
-0.999568, 89, 221, 104, 236
-0.999568, 45, 231, 60, 246
-0.999569, 407, 129, 422, 144
-0.999569, 367, 203, 382, 218
-0.99957, 387, 195, 402, 210
-0.999571, 205, 215, 220, 230
-0.999571, 63, 113, 78, 128
-0.999572, 203, 119, 218, 134
-0.999573, 177, 139, 192, 154
-0.999574, 421, 279, 436, 294
-0.999575, 313, 277, 328, 292
-0.999575, 185, 139, 200, 154
-0.999576, 45, 93, 60, 108
-0.999576, 469, 105, 484, 120
-0.999577, 483, 107, 498, 122
-0.999577, 241, 209, 256, 224
-0.999577, 391, 127, 406, 142
-0.999577, 217, 215, 232, 230
-0.999578, 207, 93, 222, 108
-0.999579, 181, 111, 196, 126
-0.99958, 91, 157, 106, 172
-0.99958, 217, 91, 232, 106
-0.99958, 53, 97, 68, 112
-0.999581, 241, 161, 368, 192
-0.999581, 111, 219, 126, 234
-0.999581, 43, 223, 58, 238
-0.999582, 159, 119, 174, 134
-0.999582, 111, 181, 126, 196
-0.999582, 119, 219, 134, 234
-0.999583, 85, 159, 100, 174
-0.999583, 381, 1, 412, 256
-0.999583, 93, 141, 108, 156
-0.999583, 411, 135, 426, 150
-0.999584, 457, 269, 472, 284
-0.999584, 305, 275, 320, 290
-0.999584, 275, 111, 290, 126
-0.999585, 261, 121, 276, 136
-0.999585, 453, 107, 468, 122
-0.999585, 55, 107, 70, 122
-0.999586, 315, 131, 330, 146
-0.999586, 201, 103, 216, 118
-0.999586, 359, 133, 374, 148
-0.999586, 121, 181, 136, 196
-0.999587, 393, 181, 408, 196
-0.999588, 297, 273, 312, 288
-0.999588, 313, 205, 328, 220
-0.999588, 447, 197, 462, 212
-0.999588, 291, 109, 306, 124
-0.999589, 85, 105, 100, 120
-0.999589, 307, 119, 322, 134
-0.99959, 339, 133, 354, 148
-0.999591, 211, 217, 226, 232
-0.999592, 187, 127, 202, 142
-0.999593, 413, 317, 428, 332
-0.999594, 445, 273, 460, 288
-0.999595, 129, 101, 144, 116
-0.999596, 153, 105, 168, 120
-0.999596, 165, 113, 180, 128
-0.999597, 467, 267, 482, 282
-0.999598, 443, 119, 458, 134
-0.999599, 167, 105, 182, 120
-0.999599, 175, 117, 190, 132
-0.999599, 367, 195, 382, 210
-0.999601, 353, 203, 368, 218
-0.999602, 485, 195, 500, 210
-0.999603, 459, 197, 474, 212
-0.999604, 435, 201, 450, 216
-0.999604, 251, 121, 266, 136
-0.999606, 349, 137, 364, 152
-0.999607, 185, 117, 200, 132
-0.999607, 193, 113, 208, 128
-0.999607, 195, 129, 210, 144
-0.999608, 125, 219, 140, 234
-0.999609, 301, 207, 316, 222
-0.99961, 307, 207, 322, 222
-0.999611, 393, 191, 408, 206
-0.999611, 225, 215, 240, 230
-0.999611, 103, 141, 118, 156
-0.999613, 101, 219, 116, 234
-0.999614, 427, 131, 442, 146
-0.999617, 177, 127, 192, 142
-0.999618, 319, 205, 334, 220
-0.999618, 141, 105, 156, 120
-0.999618, 453, 197, 468, 212
-0.999618, 175, 111, 190, 126
-0.999621, 149, 111, 164, 126
-0.999623, 339, 205, 354, 220
-0.999625, 191, 135, 206, 150
-0.999625, 473, 269, 488, 284
-0.999629, 225, 137, 352, 168
-0.99963, 387, 183, 402, 198
-0.999631, 359, 205, 374, 220
-0.999633, 73, 109, 88, 124
-0.999633, 309, 125, 324, 140
-0.999634, 417, 135, 432, 150
-0.99964, 327, 203, 342, 218
-0.999644, 193, 123, 208, 138
-0.999647, 477, 197, 492, 212
-0.999648, 295, 207, 310, 222
-0.99965, 231, 215, 246, 230
-0.999653, 129, 161, 384, 224
-0.999659, 237, 215, 252, 230
-0.999663, 441, 197, 456, 212
-0.999664, 333, 205, 348, 220
-0.999668, 373, 191, 388, 206
-0.99967, 285, 209, 300, 224
-0.999671, 247, 213, 262, 228
-0.999673, 259, 213, 274, 228
-0.999676, 381, 187, 396, 202
-0.999678, 271, 213, 286, 228
-0.999678, 1, 249, 256, 312
-0.999679, 265, 213, 280, 228
-0.999679, 467, 195, 482, 210
-0.999679, 369, 293, 496, 324
-0.999684, 253, 213, 268, 228
-0.999685, 159, 103, 174, 118
-0.999695, 185, 133, 200, 148
-0.999697, 279, 211, 294, 226
-0.999697, 173, 133, 188, 148
-0.999714, 179, 133, 194, 148
-0.999772, 225, 261, 352, 292
-0.999794, 1, 61, 128, 92
-0.999805, 257, 237, 384, 268
-0.999816, 145, 157, 272, 188
-0.999863, 161, 57, 416, 120
-0.999865, 17, 49, 144, 80
-0.999891, 177, 345, 304, 374
-0.999938, 1, 25, 128, 56
-0.999962, 241, 89, 368, 120
-0.999978, 273, 333, 400, 364
-0.999992, 65, 329, 192, 360
-1.00002, 161, 145, 288, 176
-1.00003, 193, 325, 320, 356
-1.00004, 1, 245, 128, 276
-1.00006, 1, 17, 256, 80
-1.00006, 305, 241, 432, 272
-1.00006, 273, 313, 400, 344
-1.00009, 161, 253, 288, 284
-1.00009, 337, 225, 464, 256
-1.0001, 225, 341, 352, 372
-1.00011, 257, 249, 384, 280
-1.00036, 65, 49, 192, 112
-1.0004, 113, 9, 240, 72
-1.00047, 1, 65, 500, 128
-1.00066, 257, 65, 384, 128
-1.00076, 97, 1, 352, 64
-1.00093, 225, 1, 352, 64
-1.00099, 193, 33, 320, 96
-1.00108, 97, 25, 352, 88
-1.00112, 329, 33, 392, 160
-1.00116, 113, 33, 240, 96
-1.00139, 193, 1, 448, 64
-1.00161, 177, 1, 304, 64
-1.00164, 273, 33, 400, 96
-1.00177, 193, 25, 448, 88
-1.00177, 1, 25, 500, 88
-1.00178, 369, 57, 496, 120
-1.00194, 273, 9, 400, 72
-1.00213, 321, 9, 448, 72
-1.00237, 1, 1, 500, 64
-1.00244, 265, 241, 328, 368
-1.00262, 321, 33, 448, 96
-1.0028, 369, 33, 496, 96
-1.00314, 305, 73, 432, 136
-1.00324, 369, 1, 496, 64
-1.00374, 273, 17, 400, 144
-1.00383, 209, 1, 272, 128
-1.00427, 353, 17, 480, 144
-1.00449, 177, 1, 304, 128
-1.0083, 281, 17, 344, 144
-1.01045, 409, 17, 472, 144
-1.01331, 305, 17, 368, 144
-1.01409, 353, 1, 416, 128
-1.01734, 433, 1, 496, 128
-1.01795, 385, 17, 448, 144
