1902
-0.715102, 1, 33, 500, 288
-0.831341, 1, 1, 500, 333
-0.923263, 33, 1, 288, 333
-0.929591, 257, 1, 500, 333
-0.943226, 129, 1, 384, 333
-0.952792, 1, 145, 500, 272
-0.95778, 249, 145, 312, 208
-0.970866, 257, 1, 384, 333
-0.971608, 169, 153, 232, 216
-0.972662, 209, 161, 272, 224
-0.972708, 249, 145, 312, 272
-0.973042, 269, 137, 300, 200
-0.974536, 257, 33, 384, 288
-0.974698, 17, 1, 144, 333
-0.97473, 161, 145, 416, 272
-0.975379, 193, 129, 320, 256
-0.97606, 65, 1, 192, 333
-0.977295, 177, 1, 304, 333
-0.978021, 193, 153, 320, 216
-0.978108, 225, 137, 288, 200
-0.97937, 337, 1, 464, 333
-0.979472, 213, 161, 244, 224
-0.98098, 161, 1, 288, 256
-0.981198, 113, 1, 240, 333
-0.981527, 193, 153, 224, 216
-0.982035, 257, 145, 288, 208
-0.982735, 225, 161, 256, 224
-0.982825, 249, 169, 312, 232
-0.982984, 201, 137, 264, 200
-0.982987, 273, 137, 336, 200
-0.983788, 277, 129, 308, 256
-0.983897, 1, 65, 500, 192
-0.983981, 241, 145, 368, 208
-0.984165, 281, 137, 312, 200
-0.985131, 65, 145, 320, 272
-0.985534, 241, 129, 368, 256
-0.985648, 193, 145, 256, 272
-0.985875, 145, 161, 272, 224
-0.986492, 225, 145, 288, 272
-0.987488, 1, 97, 256, 224
-0.987559, 225, 97, 288, 224
-0.987737, 185, 177, 248, 240
-0.988034, 369, 33, 496, 288
-0.98804, 177, 129, 304, 192
-0.988178, 209, 137, 240, 200
-0.988282, 193, 97, 448, 224
-0.988419, 241, 161, 272, 224
-0.988879, 145, 161, 272, 288
-0.988956, 209, 65, 336, 320
-0.989061, 249, 157, 312, 188
-0.989278, 273, 129, 336, 256
-0.989317, 273, 161, 336, 224
-0.989322, 193, 161, 256, 192
-0.98945, 49, 33, 176, 288
-0.989573, 321, 65, 448, 320
-0.989604, 177, 81, 304, 208
-0.990074, 169, 161, 232, 192
-0.990102, 249, 145, 312, 176
-0.990448, 225, 157, 288, 188
-0.99052, 281, 161, 312, 224
-0.991067, 249, 169, 312, 200
-0.991084, 281, 153, 344, 184
-0.991357, 269, 161, 300, 224
-0.991544, 181, 153, 212, 216
-0.991652, 273, 141, 336, 172
-0.991655, 1, 65, 128, 320
-0.991696, 249, 121, 312, 184
-0.991763, 217, 173, 280, 204
-0.991803, 169, 173, 232, 204
-0.992081, 273, 165, 336, 196
-0.992086, 145, 169, 208, 200
-0.99216, 229, 137, 260, 200
-0.992211, 193, 177, 256, 208
-0.992373, 265, 129, 296, 256
-0.992396, 269, 141, 300, 172
-0.992453, 225, 145, 288, 176
-0.992503, 209, 157, 240, 188
-0.99252, 97, 1, 224, 256
-0.992538, 185, 161, 216, 192
-0.992545, 273, 121, 400, 184
-0.99255, 281, 153, 312, 184
-0.992606, 197, 157, 228, 188
-0.992702, 245, 157, 276, 188
-0.992704, 261, 165, 292, 196
-0.992773, 221, 161, 252, 192
-0.992774, 269, 153, 300, 184
-0.992839, 289, 165, 320, 196
-0.992875, 169, 165, 200, 196
-0.992902, 233, 161, 264, 192
-0.992936, 257, 149, 288, 180
-0.993018, 193, 177, 320, 240
-0.993047, 193, 149, 256, 180
-0.993106, 277, 165, 308, 196
-0.993107, 249, 169, 280, 200
-0.993121, 281, 129, 344, 160
-0.993142, 193, 173, 224, 204
-0.993142, 281, 141, 312, 172
-0.99323, 237, 173, 268, 204
-0.993234, 225, 173, 256, 204
-0.993267, 145, 153, 208, 184
-0.993355, 289, 145, 320, 272
-0.993387, 161, 157, 288, 188
-0.993403, 205, 177, 236, 208
-0.993425, 181, 173, 212, 204
-0.993464, 169, 149, 232, 180
-0.993471, 249, 133, 312, 164
-0.993479, 301, 153, 332, 184
-0.993492, 157, 165, 188, 196
-0.993497, 173, 153, 204, 184
-0.993557, 273, 129, 304, 160
-0.99357, 281, 81, 344, 208
-0.993571, 209, 185, 272, 248
-0.993618, 161, 153, 192, 184
-0.99362, 293, 133, 324, 164
-0.993635, 1, 17, 500, 144
-0.99365, 221, 149, 252, 180
-0.993665, 113, 137, 240, 200
-0.993692, 185, 149, 216, 180
-0.993698, 121, 157, 184, 188
-0.993757, 205, 145, 236, 176
-0.993767, 245, 141, 276, 172
-0.99377, 233, 149, 264, 180
-0.99382, 281, 113, 344, 176
-0.993824, 253, 129, 284, 160
-0.993846, 225, 129, 288, 160
-0.993847, 165, 177, 196, 208
-0.993881, 301, 165, 332, 196
-0.993954, 145, 165, 176, 196
-0.993955, 361, 121, 392, 152
-0.993971, 273, 177, 304, 208
-0.993994, 289, 121, 320, 152
-0.994009, 325, 137, 356, 168
-0.994015, 349, 125, 380, 156
-0.99405, 337, 125, 400, 156
-0.994064, 337, 133, 368, 164
-0.994067, 381, 117, 412, 148
-0.994069, 313, 137, 344, 168
-0.994079, 393, 109, 424, 140
-0.994081, 153, 177, 184, 208
-0.994107, 349, 137, 380, 168
-0.99411, 249, 181, 280, 212
-0.994112, 261, 177, 292, 208
-0.994116, 149, 153, 180, 184
-0.994124, 457, 85, 488, 116
-0.994138, 469, 77, 500, 108
-0.994147, 325, 149, 356, 180
-0.994154, 361, 141, 392, 172
-0.994161, 409, 105, 440, 136
-0.994163, 377, 129, 408, 160
-0.994166, 469, 117, 500, 148
-0.994166, 285, 177, 316, 208
-0.994168, 313, 149, 344, 180
-0.994168, 233, 137, 264, 168
-0.994173, 437, 93, 468, 124
-0.994177, 337, 117, 368, 148
-0.99418, 381, 105, 412, 136
-0.994182, 421, 93, 452, 124
-0.994185, 365, 105, 396, 136
-0.994187, 325, 125, 356, 156
-0.994188, 453, 109, 484, 140
-0.994194, 269, 117, 300, 148
-0.994197, 453, 125, 484, 156
-0.994198, 393, 93, 424, 124
-0.994201, 337, 145, 368, 176
-0.994204, 173, 141, 204, 172
-0.994204, 429, 129, 460, 160
-0.994205, 429, 117, 460, 148
-0.994209, 389, 129, 420, 160
-0.99421, 441, 125, 472, 156
-0.994212, 469, 89, 500, 120
-0.994213, 469, 65, 500, 96
-0.994215, 353, 109, 384, 140
-0.994216, 469, 105, 500, 136
-0.994221, 313, 125, 344, 156
-0.994221, 409, 133, 440, 164
-0.994226, 453, 73, 484, 104
-0.994227, 409, 117, 440, 148
-0.994234, 373, 141, 404, 172
-0.994236, 441, 73, 472, 104
-0.994244, 137, 153, 168, 184
-0.994245, 409, 93, 440, 124
-0.994249, 217, 137, 248, 168
-0.994253, 313, 137, 376, 168
-0.994253, 193, 97, 256, 224
-0.994255, 421, 81, 452, 112
-0.994255, 441, 113, 472, 144
-0.994264, 449, 97, 480, 128
-0.994268, 369, 109, 432, 140
-0.994274, 429, 105, 460, 136
-0.99428, 189, 137, 220, 168
-0.99428, 341, 105, 372, 136
-0.994282, 301, 121, 332, 152
-0.994284, 9, 141, 40, 172
-0.994284, 21, 141, 52, 172
-0.994286, 1, 121, 32, 152
-0.994291, 377, 93, 408, 124
-0.994295, 469, 53, 500, 84
-0.994295, 37, 141, 68, 172
-0.994297, 421, 141, 452, 172
-0.994303, 17, 125, 48, 156
-0.994303, 41, 129, 72, 160
-0.994304, 321, 113, 352, 144
-0.994306, 17, 109, 48, 140
-0.994306, 41, 153, 72, 184
-0.994306, 297, 177, 328, 208
-0.994308, 445, 61, 476, 92
-0.994312, 353, 97, 384, 128
-0.994313, 457, 57, 488, 88
-0.994313, 429, 69, 460, 100
-0.994313, 393, 81, 424, 112
-0.994313, 365, 93, 396, 124
-0.994314, 29, 125, 60, 156
-0.994314, 433, 141, 464, 172
-0.994314, 313, 161, 344, 192
-0.994314, 405, 81, 436, 112
-0.994315, 117, 1, 148, 32
-0.994315, 129, 1, 160, 32
-0.994315, 469, 129, 500, 160
-0.994315, 61, 141, 92, 172
-0.994315, 397, 141, 428, 172
-0.994315, 409, 145, 440, 176
-0.994315, 57, 153, 88, 184
-0.994315, 29, 157, 60, 188
-0.994316, 133, 169, 164, 200
-0.994319, 1, 105, 32, 136
-0.994321, 41, 117, 72, 148
-0.994349, 361, 121, 424, 152
-0.994375, 273, 81, 400, 208
-0.99438, 121, 169, 184, 200
-0.994417, 275, 137, 290, 200
-0.994508, 337, 141, 400, 172
-0.994522, 285, 137, 300, 200
-0.994549, 305, 149, 368, 180
-0.994603, 1, 209, 500, 333
-0.994643, 401, 97, 464, 128
-0.994643, 145, 153, 208, 216
-0.994684, 313, 125, 376, 156
-0.994708, 393, 117, 456, 148
-0.994716, 425, 89, 488, 120
-0.994723, 249, 121, 312, 152
-0.994743, 253, 169, 284, 232
-0.994775, 337, 113, 400, 144
-0.994782, 145, 141, 208, 172
-0.994786, 361, 133, 424, 164
-0.9948, 211, 153, 226, 216
-0.994823, 313, 113, 376, 144
-0.994833, 1, 137, 64, 168
-0.994835, 297, 165, 360, 196
-0.994849, 273, 177, 336, 208
-0.994859, 353, 97, 416, 128
-0.994875, 385, 129, 448, 160
-0.994904, 425, 125, 488, 156
-0.994906, 241, 181, 304, 212
-0.994919, 189, 129, 220, 256
-0.994921, 329, 101, 392, 132
-0.994932, 201, 129, 232, 256
-0.99494, 433, 77, 496, 108
-0.99495, 409, 73, 472, 104
-0.994955, 377, 97, 440, 128
-0.994958, 417, 109, 480, 140
-0.994968, 433, 65, 496, 96
-0.994975, 281, 117, 344, 148
-0.994979, 201, 137, 264, 168
-0.995005, 17, 153, 80, 184
-0.995028, 41, 145, 104, 176
-0.995033, 385, 85, 448, 116
-0.995078, 409, 137, 472, 168
-0.995083, 1, 125, 64, 156
-0.995093, 41, 133, 104, 164
-0.995107, 145, 181, 208, 212
-0.995119, 361, 85, 424, 116
-0.995135, 361, 145, 424, 176
-0.995135, 169, 137, 232, 168
-0.995138, 33, 121, 96, 152
-0.995158, 257, 109, 320, 140
-0.995159, 433, 137, 496, 168
-0.995159, 41, 157, 104, 188
-0.995164, 97, 161, 160, 192
-0.995193, 81, 1, 144, 32
-0.995193, 105, 1, 168, 32
-0.995193, 385, 141, 448, 172
-0.995193, 1, 209, 64, 240
-0.995195, 385, 73, 448, 104
-0.995206, 161, 153, 416, 216
-0.995211, 9, 109, 72, 140
-0.995211, 97, 149, 160, 180
-0.995213, 409, 61, 472, 92
-0.995216, 1, 197, 64, 228
-0.995217, 169, 129, 232, 192
-0.995221, 241, 137, 272, 200
-0.995221, 73, 277, 136, 308
-0.995221, 97, 277, 160, 308
-0.995221, 121, 277, 184, 308
-0.995221, 145, 277, 208, 308
-0.995221, 169, 277, 232, 308
-0.995221, 193, 277, 256, 308
-0.995221, 217, 277, 280, 308
-0.995221, 241, 277, 304, 308
-0.995221, 265, 277, 328, 308
-0.995221, 289, 277, 352, 308
-0.995221, 313, 277, 376, 308
-0.995221, 337, 277, 400, 308
-0.995221, 361, 277, 424, 308
-0.995221, 385, 277, 448, 308
-0.995221, 409, 277, 472, 308
-0.995221, 433, 277, 496, 308
-0.995221, 1, 289, 64, 320
-0.995221, 25, 289, 88, 320
-0.995221, 49, 289, 112, 320
-0.995221, 73, 289, 136, 320
-0.995221, 97, 289, 160, 320
-0.995221, 121, 289, 184, 320
-0.995221, 145, 289, 208, 320
-0.995221, 169, 289, 232, 320
-0.995221, 193, 289, 256, 320
-0.995221, 217, 289, 280, 320
-0.995221, 241, 289, 304, 320
-0.995221, 265, 289, 328, 320
-0.995221, 289, 289, 352, 320
-0.995221, 313, 289, 376, 320
-0.995221, 337, 289, 400, 320
-0.995221, 361, 289, 424, 320
-0.995221, 385, 289, 448, 320
-0.995221, 409, 289, 472, 320
-0.995221, 433, 289, 496, 320
-0.995221, 1, 301, 64, 332
-0.995221, 25, 301, 88, 332
-0.995221, 49, 301, 112, 332
-0.995221, 73, 301, 136, 332
-0.995221, 97, 301, 160, 332
-0.995221, 121, 301, 184, 332
-0.995221, 145, 301, 208, 332
-0.995221, 169, 301, 232, 332
-0.995221, 193, 301, 256, 332
-0.995221, 217, 301, 280, 332
-0.995221, 241, 301, 304, 332
-0.995221, 265, 301, 328, 332
-0.995221, 289, 301, 352, 332
-0.995221, 313, 301, 376, 332
-0.995221, 337, 301, 400, 332
-0.995221, 361, 301, 424, 332
-0.995221, 385, 301, 448, 332
-0.995221, 409, 301, 472, 332
-0.995221, 433, 301, 496, 332
-0.995404, 219, 161, 234, 224
-0.995473, 209, 157, 336, 188
-0.995499, 293, 161, 324, 224
-0.995514, 205, 153, 220, 216
-0.995524, 241, 169, 368, 232
-0.995562, 169, 153, 200, 216
-0.99567, 227, 161, 242, 224
-0.995676, 201, 177, 232, 240
-0.995757, 97, 161, 224, 224
-0.995836, 297, 137, 360, 200
-0.995985, 213, 129, 244, 256
-0.995987, 169, 161, 232, 288
-0.996029, 265, 145, 280, 208
-0.996254, 209, 169, 336, 200
-0.996281, 145, 169, 272, 200
-0.996321, 193, 145, 320, 176
-0.996372, 291, 137, 306, 200
-0.996396, 269, 113, 300, 176
-0.996565, 233, 161, 248, 224
-0.996592, 191, 153, 206, 216
-0.996601, 65, 153, 320, 216
-0.996844, 257, 161, 272, 224
-0.996871, 199, 153, 214, 216
-0.996891, 241, 161, 256, 224
-0.996933, 219, 137, 234, 200
-0.997065, 293, 129, 324, 192
-0.997103, 97, 97, 224, 224
-0.9972, 249, 161, 264, 224
-0.997348, 287, 153, 302, 184
-0.997361, 277, 81, 308, 208
-0.997376, 281, 161, 296, 224
-0.997422, 189, 161, 204, 192
-0.997428, 181, 153, 196, 216
-0.997472, 241, 145, 368, 176
-0.997533, 295, 161, 310, 192
-0.997567, 257, 137, 500, 200
-0.997584, 183, 161, 198, 192
-0.997604, 271, 161, 286, 224
-0.997634, 225, 137, 240, 200
-0.997645, 281, 157, 296, 188
-0.997651, 209, 157, 224, 188
-0.997672, 213, 177, 228, 240
-0.997673, 225, 157, 240, 188
-0.997673, 283, 137, 298, 168
-0.99769, 231, 137, 246, 200
-0.997692, 97, 165, 224, 196
-0.997694, 199, 161, 214, 192
-0.997716, 265, 153, 280, 184
-0.997739, 295, 161, 310, 224
-0.997745, 177, 165, 192, 196
-0.997746, 289, 129, 416, 256
-0.997771, 215, 161, 230, 192
-0.997844, 293, 149, 308, 180
-0.997868, 277, 141, 292, 172
-0.997875, 235, 161, 250, 192
-0.997958, 253, 129, 284, 256
-0.997959, 271, 145, 286, 176
-0.998052, 257, 165, 384, 196
-0.998082, 325, 127, 356, 142
-0.998082, 421, 137, 452, 152
-0.998082, 313, 159, 344, 174
-0.998083, 433, 103, 464, 118
-0.998083, 465, 115, 496, 130
-0.998084, 437, 85, 468, 100
-0.998084, 421, 91, 452, 106
-0.998086, 137, 175, 168, 190
-0.998086, 449, 97, 480, 112
-0.998087, 377, 107, 408, 122
-0.998087, 393, 131, 424, 146
-0.998087, 341, 147, 372, 162
-0.998087, 417, 131, 448, 146
-0.998088, 281, 177, 312, 192
-0.998089, 313, 133, 344, 148
-0.998089, 457, 121, 488, 136
-0.998089, 405, 129, 436, 144
-0.998091, 365, 109, 396, 124
-0.998091, 405, 101, 436, 116
-0.998091, 469, 121, 500, 136
-0.998091, 469, 77, 500, 92
-0.998092, 425, 125, 456, 140
-0.998093, 381, 137, 412, 152
-0.998093, 437, 91, 468, 106
-0.998093, 405, 113, 436, 128
-0.998093, 389, 101, 420, 116
-0.998094, 441, 127, 472, 142
-0.998094, 453, 127, 484, 142
-0.998094, 449, 85, 480, 100
-0.998094, 365, 133, 396, 148
-0.998094, 429, 131, 460, 146
-0.998095, 409, 137, 440, 152
-0.998096, 149, 159, 180, 174
-0.998097, 337, 121, 368, 136
-0.998097, 417, 105, 448, 120
-0.998097, 301, 135, 332, 150
-0.998098, 377, 129, 408, 144
-0.998098, 209, 149, 240, 164
-0.998098, 357, 115, 388, 130
-0.9981, 353, 143, 384, 158
-0.9981, 325, 133, 356, 148
-0.9981, 305, 141, 336, 156
-0.998102, 269, 129, 300, 144
-0.998103, 369, 139, 400, 154
-0.998103, 329, 145, 360, 160
-0.998103, 461, 89, 492, 104
-0.998107, 365, 127, 396, 142
-0.998108, 341, 127, 372, 142
-0.998109, 377, 123, 408, 138
-0.99811, 313, 153, 344, 168
-0.998111, 465, 83, 496, 98
-0.998112, 449, 91, 480, 106
-0.998113, 353, 137, 384, 152
-0.998114, 437, 97, 468, 112
-0.998115, 325, 151, 356, 166
-0.998116, 421, 99, 452, 114
-0.998117, 169, 153, 200, 168
-0.998118, 353, 131, 384, 146
-0.99812, 341, 141, 372, 156
-0.998121, 317, 145, 348, 160
-0.998123, 373, 115, 404, 130
-0.998124, 405, 107, 436, 122
-0.998129, 181, 153, 212, 168
-0.99813, 259, 157, 274, 188
-0.998136, 393, 111, 424, 126
-0.998136, 305, 147, 336, 162
-0.99814, 353, 125, 384, 140
-0.99814, 337, 133, 368, 148
-0.998141, 301, 153, 332, 168
-0.998142, 385, 117, 416, 132
-0.998143, 153, 165, 184, 180
-0.998147, 321, 139, 352, 154
-0.998155, 365, 121, 396, 136
-0.998155, 265, 165, 280, 196
-0.998163, 289, 131, 320, 146
-0.998167, 149, 177, 180, 192
-0.998169, 253, 121, 284, 184
-0.998181, 245, 179, 276, 194
-0.998186, 245, 147, 276, 162
-0.998191, 273, 135, 304, 150
-0.998193, 225, 153, 256, 168
-0.998194, 305, 165, 336, 180
-0.998197, 141, 167, 172, 182
-0.998197, 161, 159, 192, 174
-0.998198, 241, 169, 256, 200
-0.998201, 177, 171, 208, 186
-0.998201, 257, 147, 288, 162
-0.998206, 201, 129, 216, 192
-0.99822, 261, 135, 292, 150
-0.998227, 253, 157, 268, 188
-0.998232, 281, 113, 296, 176
-0.998233, 233, 179, 264, 194
-0.998235, 177, 159, 208, 174
-0.998243, 253, 141, 284, 156
-0.998259, 171, 165, 186, 196
-0.998263, 237, 153, 268, 168
-0.998263, 193, 155, 224, 170
-0.998263, 301, 159, 332, 174
-0.998264, 189, 171, 220, 186
-0.998269, 293, 171, 324, 186
-0.998275, 289, 137, 320, 152
-0.998276, 229, 169, 244, 200
-0.998287, 213, 155, 244, 170
-0.998288, 161, 177, 192, 192
-0.998288, 181, 177, 212, 192
-0.998289, 289, 143, 320, 158
-0.998296, 253, 137, 268, 200
-0.998307, 221, 177, 252, 192
-0.998316, 249, 155, 280, 170
-0.998316, 269, 173, 300, 188
-0.998316, 289, 155, 320, 170
-0.998317, 201, 167, 232, 182
-0.998327, 189, 129, 220, 192
-0.998329, 153, 171, 184, 186
-0.998335, 193, 177, 224, 192
-0.998336, 275, 157, 290, 188
-0.998339, 289, 149, 320, 164
-0.998342, 209, 177, 240, 192
-0.998354, 213, 169, 244, 184
-0.998355, 207, 177, 222, 240
-0.998357, 265, 161, 296, 176
-0.998359, 201, 161, 232, 176
-0.998364, 177, 165, 208, 180
-0.998374, 247, 169, 262, 200
-0.998377, 213, 129, 228, 192
-0.998383, 225, 167, 256, 182
-0.998384, 161, 177, 224, 240
-0.998388, 225, 159, 256, 174
-0.998398, 293, 165, 324, 180
-0.998401, 289, 165, 304, 196
-0.998421, 261, 155, 292, 170
-0.998421, 245, 173, 276, 188
-0.99843, 249, 161, 280, 176
-0.998435, 257, 173, 288, 188
-0.998443, 189, 161, 220, 176
-0.998443, 205, 173, 220, 204
-0.998448, 233, 173, 264, 188
-0.998453, 237, 161, 268, 176
-0.998457, 249, 169, 312, 184
-0.998459, 281, 171, 312, 186
-0.99846, 287, 161, 302, 224
-0.998463, 283, 169, 298, 200
-0.99847, 277, 157, 308, 172
-0.998476, 249, 161, 312, 176
-0.998478, 213, 161, 244, 176
-0.998482, 165, 167, 196, 182
-0.998483, 249, 155, 312, 170
-0.998489, 255, 169, 270, 200
-0.998496, 269, 149, 300, 164
-0.998512, 259, 137, 274, 200
-0.998518, 237, 167, 268, 182
-0.998521, 225, 167, 288, 182
-0.998526, 245, 157, 260, 188
-0.998536, 249, 97, 312, 224
-0.998538, 177, 161, 240, 176
-0.998542, 273, 141, 304, 156
-0.998546, 161, 167, 224, 182
-0.998547, 269, 167, 300, 182
-0.998548, 217, 161, 280, 176
-0.998552, 257, 149, 320, 164
-0.998573, 263, 169, 278, 232
-0.998584, 273, 161, 336, 176
-0.998585, 273, 167, 336, 182
-0.998587, 257, 167, 288, 182
-0.998588, 193, 173, 208, 204
-0.998589, 301, 161, 316, 192
-0.99859, 201, 171, 264, 186
-0.998598, 281, 163, 312, 178
-0.998601, 225, 173, 288, 188
-0.998604, 265, 143, 328, 158
-0.998621, 1, 129, 256, 192
-0.998626, 187, 173, 202, 204
-0.998635, 281, 153, 344, 168
-0.998639, 225, 155, 288, 170
-0.998658, 241, 143, 304, 158
-0.998668, 185, 177, 248, 192
-0.998672, 249, 175, 312, 190
-0.998673, 153, 173, 216, 188
-0.998673, 175, 153, 190, 216
-0.998678, 281, 137, 344, 152
-0.998679, 269, 121, 284, 184
-0.998683, 129, 171, 192, 186
-0.998706, 81, 153, 208, 184
-0.998707, 193, 155, 256, 170
-0.998713, 233, 149, 296, 164
-0.998717, 235, 173, 250, 204
-0.998719, 289, 143, 352, 158
-0.998722, 273, 173, 336, 188
-0.998727, 297, 137, 312, 200
-0.998734, 241, 137, 304, 152
-0.998739, 199, 173, 214, 204
-0.99874, 245, 137, 260, 200
-0.998749, 209, 179, 272, 194
-0.998754, 129, 161, 192, 176
-0.998762, 153, 159, 216, 174
-0.998764, 297, 165, 360, 180
-0.998764, 211, 177, 226, 208
-0.998782, 177, 153, 192, 184
-0.998789, 129, 177, 192, 192
-0.998792, 297, 159, 360, 174
-0.998796, 161, 179, 224, 194
-0.998797, 209, 149, 272, 164
-0.998797, 221, 177, 236, 208
-0.998804, 217, 143, 280, 158
-0.998807, 281, 131, 344, 146
-0.998812, 361, 121, 424, 136
-0.998817, 345, 127, 408, 142
-0.99882, 329, 133, 392, 148
-0.998821, 105, 167, 168, 182
-0.998821, 153, 153, 216, 168
-0.998822, 241, 131, 304, 146
-0.998827, 377, 115, 440, 130
-0.998829, 313, 139, 376, 154
-0.998837, 337, 141, 400, 156
-0.998842, 385, 109, 448, 124
-0.998843, 409, 101, 472, 116
-0.998846, 329, 121, 392, 136
-0.998849, 369, 135, 432, 150
-0.998851, 313, 145, 376, 160
-0.998853, 353, 113, 416, 128
-0.998853, 225, 129, 256, 256
-0.998854, 433, 95, 496, 110
-0.998854, 329, 113, 392, 128
-0.998855, 313, 151, 376, 166
-0.998855, 433, 89, 496, 104
-0.998856, 305, 133, 368, 148
-0.998856, 321, 127, 384, 142
-0.998857, 433, 73, 496, 88
-0.998858, 361, 101, 424, 116
-0.998859, 401, 123, 464, 138
-0.998859, 377, 129, 440, 144
-0.998862, 401, 129, 464, 144
-0.998862, 345, 107, 408, 122
-0.998863, 337, 147, 400, 162
-0.998863, 1, 137, 64, 152
-0.998864, 305, 121, 368, 136
-0.998865, 1, 145, 64, 160
-0.998865, 297, 171, 360, 186
-0.998866, 409, 93, 472, 108
-0.998867, 369, 141, 432, 156
-0.998867, 409, 107, 472, 122
-0.998867, 433, 127, 496, 142
-0.998868, 425, 83, 488, 98
-0.998871, 401, 135, 464, 150
-0.998871, 41, 153, 104, 168
-0.998872, 385, 93, 448, 108
-0.998872, 233, 181, 296, 196
-0.998872, 385, 103, 448, 118
-0.998873, 433, 101, 496, 116
-0.998873, 401, 115, 464, 130
-0.998873, 401, 87, 464, 102
-0.998874, 41, 147, 104, 162
-0.998874, 425, 117, 488, 132
-0.998875, 41, 141, 104, 156
-0.998876, 129, 155, 192, 170
-0.998876, 33, 135, 96, 150
-0.998876, 105, 175, 168, 190
-0.998877, 425, 133, 488, 148
-0.998877, 9, 151, 72, 166
-0.998878, 217, 137, 280, 152
-0.998879, 9, 157, 72, 172
-0.99888, 409, 141, 472, 156
-0.99888, 41, 159, 104, 174
-0.998881, 1, 131, 64, 146
-0.998882, 265, 125, 328, 140
-0.998882, 33, 129, 96, 144
-0.998883, 185, 149, 248, 164
-0.998883, 321, 157, 384, 172
-0.998883, 401, 81, 464, 96
-0.998884, 9, 123, 72, 138
-0.998884, 1, 217, 64, 232
-0.998884, 241, 125, 304, 140
-0.998884, 361, 95, 424, 110
-0.998884, 17, 117, 80, 132
-0.998884, 361, 147, 424, 162
-0.998884, 17, 163, 80, 178
-0.998885, 433, 111, 496, 126
-0.998886, 1, 211, 64, 226
-0.998886, 17, 111, 80, 126
-0.998886, 33, 123, 96, 138
-0.998886, 57, 131, 120, 146
-0.998886, 1, 317, 64, 332
-0.998886, 25, 317, 88, 332
-0.998886, 49, 317, 112, 332
-0.998886, 73, 317, 136, 332
-0.998886, 97, 317, 160, 332
-0.998886, 121, 317, 184, 332
-0.998886, 145, 317, 208, 332
-0.998886, 169, 317, 232, 332
-0.998886, 193, 317, 256, 332
-0.998886, 217, 317, 280, 332
-0.998886, 241, 317, 304, 332
-0.998886, 265, 317, 328, 332
-0.998886, 289, 317, 352, 332
-0.998886, 313, 317, 376, 332
-0.998886, 337, 317, 400, 332
-0.998886, 361, 317, 424, 332
-0.998886, 385, 317, 448, 332
-0.998886, 409, 317, 472, 332
-0.998886, 433, 317, 496, 332
-0.998889, 301, 161, 316, 224
-0.998896, 165, 165, 180, 196
-0.998906, 177, 177, 208, 240
-0.998918, 161, 129, 416, 192
-0.99892, 273, 1, 336, 333
-0.998932, 191, 129, 206, 192
-0.998994, 305, 149, 320, 180
-0.999025, 275, 113, 290, 176
-0.999039, 257, 81, 288, 208
-0.999045, 187, 177, 202, 240
-0.999051, 237, 137, 252, 200
-0.999052, 293, 137, 308, 168
-0.999052, 1, 145, 500, 208
-0.999058, 287, 113, 302, 176
-0.99908, 199, 149, 214, 180
-0.999094, 273, 133, 400, 164
-0.999103, 321, 113, 448, 176
-0.999109, 225, 121, 352, 184
-0.999123, 219, 145, 234, 176
-0.999131, 145, 185, 272, 248
-0.999145, 235, 149, 250, 180
-0.99917, 169, 153, 184, 184
-0.999183, 275, 129, 290, 160
-0.999184, 189, 149, 204, 180
-0.99919, 299, 149, 314, 180
-0.999203, 289, 145, 416, 208
-0.999223, 295, 173, 310, 204
-0.999227, 161, 177, 416, 240
-0.999236, 271, 169, 286, 200
-0.999254, 305, 137, 320, 200
-0.999258, 265, 133, 280, 164
-0.999261, 289, 81, 320, 208
-0.999267, 277, 169, 292, 200
-0.99927, 261, 177, 276, 208
-0.999273, 65, 137, 192, 200
-0.999276, 279, 113, 294, 240
-0.999299, 369, 97, 496, 160
-0.999314, 213, 145, 228, 176
-0.999317, 205, 145, 220, 176
-0.999325, 181, 177, 196, 240
-0.999325, 283, 125, 298, 156
-0.999351, 253, 149, 268, 164
-0.999352, 313, 157, 328, 172
-0.999352, 379, 125, 394, 140
-0.999352, 467, 85, 482, 100
-0.999352, 357, 129, 372, 144
-0.999353, 461, 89, 476, 104
-0.999353, 353, 139, 368, 154
-0.999354, 207, 129, 222, 192
-0.999355, 329, 149, 344, 164
-0.999358, 279, 129, 294, 144
-0.999359, 307, 147, 322, 162
-0.99936, 233, 149, 248, 164
-0.999361, 279, 149, 294, 164
-0.999362, 393, 111, 408, 126
-0.999362, 399, 111, 414, 126
-0.999362, 313, 151, 328, 166
-0.999362, 317, 143, 332, 158
-0.999363, 335, 139, 350, 154
-0.999363, 291, 129, 306, 144
-0.999363, 337, 133, 352, 148
-0.999364, 415, 105, 430, 120
-0.999364, 387, 115, 402, 130
-0.999366, 409, 107, 424, 122
-0.999366, 351, 131, 366, 146
-0.999366, 363, 125, 378, 140
-0.999367, 343, 133, 358, 148
-0.999367, 323, 143, 338, 158
-0.999375, 329, 139, 344, 154
-0.999381, 237, 181, 252, 196
-0.999381, 373, 121, 388, 136
-0.999383, 381, 119, 396, 134
-0.999383, 299, 151, 314, 166
-0.999385, 153, 175, 168, 190
-0.999389, 185, 155, 200, 170
-0.999394, 181, 129, 196, 192
-0.999396, 293, 113, 308, 176
-0.999405, 259, 151, 274, 166
-0.999408, 153, 167, 168, 182
-0.999408, 273, 145, 288, 272
-0.99941, 305, 155, 320, 170
-0.999413, 259, 141, 274, 172
-0.999421, 167, 163, 182, 178
-0.999422, 281, 155, 296, 170
-0.999423, 183, 149, 198, 180
-0.999424, 275, 177, 290, 192
-0.999424, 181, 177, 196, 208
-0.999425, 221, 185, 236, 248
-0.999425, 251, 185, 266, 248
-0.999425, 289, 175, 304, 190
-0.999427, 275, 135, 290, 150
-0.99943, 285, 133, 300, 148
-0.999431, 269, 139, 284, 154
-0.999432, 159, 165, 174, 196
-0.999433, 245, 179, 260, 194
-0.999435, 303, 171, 318, 186
-0.999436, 261, 145, 276, 160
-0.999438, 161, 177, 176, 192
-0.99944, 173, 161, 188, 176
-0.999443, 161, 165, 176, 180
-0.999445, 299, 157, 314, 172
-0.999449, 285, 129, 300, 256
-0.999454, 197, 171, 212, 186
-0.999454, 223, 155, 238, 170
-0.999456, 237, 155, 252, 170
-0.999457, 273, 151, 288, 166
-0.999458, 191, 171, 206, 186
-0.999458, 245, 155, 260, 170
-0.999459, 293, 135, 308, 150
-0.99946, 273, 159, 288, 174
-0.999462, 307, 161, 322, 176
-0.999462, 179, 159, 194, 174
-0.999464, 253, 155, 268, 170
-0.999466, 215, 155, 230, 170
-0.999466, 199, 155, 214, 170
-0.999469, 289, 149, 416, 180
-0.999472, 167, 177, 182, 192
-0.999475, 173, 177, 188, 192
-0.999476, 231, 155, 246, 170
-0.999476, 293, 125, 308, 156
-0.999477, 223, 171, 238, 186
-0.99948, 293, 141, 308, 156
-0.99948, 191, 155, 206, 170
-0.999483, 239, 175, 254, 190
-0.999483, 179, 177, 194, 192
-0.999484, 205, 155, 220, 170
-0.999484, 165, 177, 180, 208
-0.999492, 245, 185, 260, 248
-0.999493, 185, 177, 200, 192
-0.999496, 193, 129, 208, 256
-0.999496, 219, 177, 234, 192
-0.999501, 251, 181, 266, 212
-0.999503, 203, 171, 218, 186
-0.999504, 271, 145, 286, 160
-0.999505, 215, 167, 230, 182
-0.999508, 159, 171, 174, 186
-0.999508, 267, 157, 282, 172
-0.99951, 231, 177, 246, 192
-0.999513, 213, 177, 228, 192
-0.999513, 195, 177, 210, 192
-0.999514, 285, 147, 300, 162
-0.999515, 201, 177, 216, 192
-0.999515, 245, 181, 260, 212
-0.999515, 229, 145, 244, 176
-0.999522, 193, 177, 208, 240
-0.999523, 293, 147, 308, 162
-0.999523, 185, 167, 200, 182
-0.999525, 237, 185, 252, 248
-0.999525, 261, 175, 276, 190
-0.999526, 251, 177, 266, 192
-0.999533, 301, 165, 316, 180
-0.999534, 207, 177, 222, 192
-0.999536, 199, 129, 214, 256
-0.999539, 293, 155, 308, 170
-0.999543, 261, 163, 276, 178
-0.999545, 221, 161, 236, 176
-0.999546, 283, 173, 298, 188
-0.999546, 297, 171, 312, 186
-0.999548, 225, 177, 240, 192
-0.999553, 229, 169, 244, 184
-0.999558, 261, 157, 276, 172
-0.999565, 291, 169, 306, 184
-0.999567, 267, 151, 282, 166
-0.999567, 267, 173, 282, 188
-0.999572, 209, 167, 224, 182
-0.999574, 187, 161, 202, 176
-0.999581, 173, 177, 188, 208
-0.999582, 279, 167, 294, 182
-0.999584, 273, 171, 288, 186
-0.999588, 241, 167, 256, 182
-0.999589, 267, 129, 282, 256
-0.99959, 255, 161, 270, 176
-0.999593, 277, 143, 292, 158
-0.999594, 247, 161, 262, 176
-0.999595, 247, 167, 262, 182
-0.999597, 201, 161, 216, 176
-0.999599, 215, 161, 230, 176
-0.9996, 291, 129, 306, 256
-0.999605, 229, 161, 244, 176
-0.999606, 239, 161, 254, 176
-0.99961, 179, 167, 194, 182
-0.999614, 205, 129, 220, 256
-0.999616, 207, 161, 222, 176
-0.999621, 165, 171, 180, 186
-0.999628, 253, 145, 268, 176
-0.999632, 193, 161, 208, 176
-0.999639, 263, 113, 278, 176
-0.999643, 171, 169, 186, 184
-0.999647, 245, 173, 260, 188
-0.999654, 235, 169, 250, 184
-0.999671, 215, 129, 230, 256
-0.999674, 287, 157, 302, 172
-0.999677, 261, 169, 276, 184
-0.999678, 281, 161, 296, 176
-0.999679, 253, 171, 268, 186
-0.99968, 285, 167, 300, 182
-0.999683, 227, 129, 242, 256
-0.999686, 161, 133, 288, 164
-0.999687, 169, 153, 184, 216
-0.999689, 267, 167, 282, 182
-0.9997, 307, 161, 322, 192
-0.999705, 329, 137, 344, 168
-0.999705, 283, 139, 298, 154
-0.999711, 279, 161, 294, 288
-0.999711, 221, 129, 236, 256
-0.99972, 293, 81, 308, 208
-0.999721, 361, 125, 376, 156
-0.999733, 233, 129, 248, 256
-0.999734, 201, 177, 216, 240
-0.999735, 273, 165, 288, 180
-0.999744, 163, 153, 178, 184
-0.999746, 381, 117, 396, 148
-0.999748, 373, 121, 388, 152
-0.999752, 321, 141, 336, 172
-0.999755, 295, 163, 310, 178
-0.999761, 355, 125, 370, 156
-0.999762, 187, 129, 202, 256
-0.999763, 297, 145, 312, 272
-0.999774, 367, 121, 382, 152
-0.999774, 269, 81, 284, 208
-0.999779, 339, 133, 354, 164
-0.999789, 129, 145, 256, 176
-0.999792, 301, 173, 316, 204
-0.99981, 239, 129, 254, 256
-0.999827, 387, 117, 402, 148
-0.999831, 245, 145, 260, 176
-0.999837, 285, 81, 300, 208
-0.99984, 349, 133, 364, 164
-0.99984, 315, 141, 330, 172
-0.999843, 227, 181, 242, 212
-0.999844, 261, 129, 276, 256
-0.999845, 401, 109, 416, 140
-0.99985, 411, 105, 426, 136
-0.999854, 159, 177, 174, 208
-0.999858, 155, 153, 170, 184
-0.999864, 269, 121, 284, 152
-0.999871, 289, 177, 304, 208
-0.999883, 417, 101, 432, 132
-0.999884, 393, 109, 408, 140
-0.999904, 245, 129, 260, 256
-0.999907, 327, 149, 342, 180
-0.999909, 277, 65, 292, 192
-0.999913, 379, 137, 394, 168
-0.999919, 357, 137, 372, 168
-0.999919, 197, 177, 212, 304
-0.999921, 191, 81, 206, 208
-0.999922, 467, 81, 482, 112
-0.999922, 255, 129, 270, 256
-0.999927, 305, 129, 320, 256
-0.999931, 461, 81, 476, 112
-0.999934, 363, 121, 378, 184
-0.999934, 481, 73, 496, 104
-0.999936, 381, 105, 396, 136
-0.999938, 371, 109, 386, 140
-0.999945, 337, 145, 352, 176
-0.999945, 275, 117, 290, 148
-0.999948, 153, 165, 168, 196
-0.99995, 479, 117, 494, 148
-0.999953, 365, 141, 380, 172
-0.999954, 329, 125, 344, 156
-0.999955, 373, 141, 388, 172
-0.999956, 473, 77, 488, 108
-0.999957, 191, 177, 206, 304
-0.999957, 205, 177, 220, 304
-0.999962, 451, 89, 466, 120
-0.999963, 323, 129, 338, 160
-0.999963, 197, 81, 212, 208
-0.999963, 181, 129, 196, 256
-0.999965, 349, 121, 364, 152
-0.999965, 441, 93, 456, 124
-0.999969, 319, 153, 334, 184
-0.999972, 467, 109, 482, 140
-0.999976, 301, 137, 316, 168
-0.999977, 321, 125, 448, 156
-0.999978, 343, 121, 358, 152
-0.999979, 467, 121, 482, 152
-0.999982, 399, 97, 414, 128
-0.999984, 161, 181, 288, 212
-0.999985, 205, 81, 220, 208
-0.999986, 457, 125, 472, 156
-0.999989, 407, 117, 422, 148
-0.999991, 239, 137, 254, 168
-0.999992, 175, 177, 190, 240
-0.999993, 313, 153, 328, 184
-0.999998, 445, 117, 460, 148
-0.999998, 451, 125, 466, 156
-0.999998, 407, 129, 422, 160
-0.999999, 409, 93, 424, 124
-1, 425, 101, 440, 132
-1, 231, 177, 246, 304
-1, 369, 109, 496, 140
-1, 485, 105, 500, 136
-1, 473, 105, 488, 136
-1, 363, 109, 378, 140
-1.00001, 425, 129, 440, 160
-1.00001, 345, 145, 360, 176
-1.00001, 215, 81, 230, 208
-1.00001, 221, 177, 236, 304
-1.00003, 305, 81, 320, 208
-1.00003, 267, 177, 282, 304
-1.00004, 229, 81, 244, 208
-1.00005, 221, 81, 236, 208
-1.00005, 237, 177, 252, 304
-1.00006, 1, 169, 500, 232
-1.00006, 235, 81, 250, 208
-1.00006, 211, 177, 226, 304
-1.00006, 263, 81, 278, 208
-1.00007, 181, 81, 196, 208
-1.00008, 375, 113, 390, 176
-1.00008, 381, 113, 396, 176
-1.00009, 261, 177, 276, 304
-1.00009, 443, 81, 458, 208
-1.0001, 185, 177, 200, 304
-1.0001, 243, 81, 258, 208
-1.0001, 97, 177, 224, 208
-1.0001, 389, 97, 404, 224
-1.00012, 437, 81, 452, 208
-1.00012, 255, 81, 270, 208
-1.00012, 475, 65, 490, 192
-1.00012, 299, 97, 314, 224
-1.00012, 431, 81, 446, 208
-1.00012, 245, 177, 260, 304
-1.00012, 357, 121, 372, 184
-1.00012, 449, 81, 464, 208
-1.00013, 175, 129, 190, 192
-1.00013, 419, 81, 434, 208
-1.00013, 465, 65, 480, 192
-1.00013, 485, 65, 500, 192
-1.00014, 383, 113, 398, 240
-1.00014, 357, 97, 372, 224
-1.00014, 363, 97, 378, 224
-1.00014, 249, 81, 264, 208
-1.00014, 395, 97, 410, 224
-1.00014, 253, 177, 268, 304
-1.00014, 291, 177, 306, 304
-1.00015, 467, 113, 482, 240
-1.00015, 485, 113, 500, 240
-1.00015, 425, 81, 440, 208
-1.00015, 459, 81, 474, 208
-1.00015, 411, 97, 426, 224
-1.00015, 375, 97, 390, 224
-1.00016, 421, 129, 436, 256
-1.00016, 369, 97, 384, 224
-1.00017, 441, 33, 456, 160
-1.00017, 473, 113, 488, 240
-1.00017, 303, 177, 318, 304
-1.00017, 315, 113, 330, 240
-1.00017, 325, 113, 340, 240
-1.00017, 479, 113, 494, 240
-1.00017, 453, 33, 468, 160
-1.00017, 351, 97, 366, 224
-1.00018, 387, 49, 402, 176
-1.00018, 401, 129, 416, 256
-1.00018, 11, 145, 26, 272
-1.00018, 393, 49, 408, 176
-1.00018, 443, 129, 458, 256
-1.00018, 401, 65, 416, 192
-1.00018, 345, 97, 360, 224
-1.00018, 331, 113, 346, 240
-1.00018, 381, 49, 396, 176
-1.00018, 337, 129, 352, 256
-1.00019, 33, 161, 48, 288
-1.00019, 35, 113, 50, 240
-1.00019, 41, 129, 56, 256
-1.00019, 355, 145, 370, 272
-1.00019, 365, 145, 380, 272
-1.00019, 435, 33, 450, 160
-1.00019, 227, 185, 242, 248
-1.00019, 411, 49, 426, 176
-1.00019, 427, 129, 442, 256
-1.00019, 5, 145, 20, 272
-1.00019, 27, 161, 42, 288
-1.0002, 437, 129, 452, 256
-1.0002, 285, 177, 300, 304
-1.0002, 17, 145, 32, 272
-1.0002, 459, 33, 474, 160
-1.00021, 427, 33, 442, 160
-1.00021, 135, 33, 150, 160
-1.00021, 21, 81, 36, 208
-1.00021, 447, 33, 462, 160
-1.00021, 1, 97, 16, 224
-1.00021, 9, 97, 24, 224
-1.00021, 29, 113, 44, 240
-1.00021, 175, 113, 190, 240
-1.00021, 449, 129, 464, 256
-1.00021, 461, 129, 476, 256
-1.00021, 371, 145, 386, 272
-1.00021, 415, 145, 430, 272
-1.00021, 49, 161, 64, 288
-1.00021, 363, 49, 378, 176
-1.00021, 421, 33, 436, 160
-1.00022, 129, 33, 144, 160
-1.00022, 47, 113, 62, 240
-1.00022, 313, 65, 328, 192
-1.00022, 485, 17, 500, 144
-1.00022, 375, 49, 390, 176
-1.00022, 109, 49, 124, 176
-1.00022, 343, 145, 358, 272
-1.00022, 353, 49, 368, 176
-1.00022, 369, 49, 384, 176
-1.00022, 323, 65, 338, 192
-1.00023, 341, 129, 356, 192
-1.00026, 369, 121, 384, 184
-1.00027, 237, 185, 268, 248
-1.00027, 391, 105, 406, 168
-1.00028, 265, 65, 296, 320
-1.0003, 463, 81, 478, 144
-1.00031, 399, 105, 414, 168
-1.00032, 321, 137, 336, 200
-1.00032, 169, 129, 184, 192
-1.00032, 277, 65, 308, 320
-1.00033, 233, 1, 296, 333
-1.00033, 237, 129, 268, 256
-1.00035, 321, 137, 448, 168
-1.00036, 241, 121, 368, 152
-1.00036, 257, 145, 500, 272
-1.00037, 405, 105, 420, 168
-1.00038, 333, 137, 348, 200
-1.00039, 327, 129, 342, 192
-1.00039, 65, 177, 320, 240
-1.00039, 361, 113, 424, 176
-1.00039, 367, 97, 382, 160
-1.0004, 221, 113, 236, 176
-1.00041, 351, 121, 366, 184
-1.00041, 469, 81, 484, 144
-1.00042, 375, 137, 390, 200
-1.00043, 257, 185, 272, 248
-1.00044, 481, 81, 496, 144
-1.00044, 257, 161, 500, 224
-1.00044, 411, 97, 426, 160
-1.00047, 321, 113, 448, 144
-1.00047, 315, 137, 330, 200
-1.00048, 475, 81, 490, 144
-1.00048, 443, 89, 458, 152
-1.00049, 369, 97, 496, 128
-1.00049, 419, 97, 434, 160
-1.00049, 49, 165, 176, 196
-1.0005, 269, 97, 284, 160
-1.00052, 353, 97, 368, 160
-1.00052, 473, 105, 488, 168
-1.00053, 97, 161, 224, 288
-1.00053, 385, 89, 400, 152
-1.00054, 449, 89, 464, 152
-1.00054, 381, 137, 396, 200
-1.00054, 341, 105, 356, 168
-1.00055, 347, 145, 362, 208
-1.00055, 433, 97, 448, 160
-1.00056, 481, 113, 496, 176
-1.00056, 369, 125, 496, 156
-1.00057, 301, 113, 316, 176
-1.00057, 361, 97, 376, 160
-1.00057, 307, 161, 322, 224
-1.00057, 447, 121, 462, 184
-1.00057, 387, 129, 402, 192
-1.00058, 425, 97, 440, 160
-1.00059, 289, 1, 320, 256
-1.00059, 457, 81, 472, 144
-1.0006, 321, 113, 336, 176
-1.0006, 241, 97, 368, 160
-1.0006, 429, 129, 444, 192
-1.00061, 467, 121, 482, 184
-1.00061, 415, 137, 430, 200
-1.00062, 453, 121, 468, 184
-1.00063, 257, 113, 500, 176
-1.00064, 393, 129, 408, 192
-1.00064, 289, 97, 416, 128
-1.00064, 331, 105, 346, 168
-1.00066, 441, 121, 456, 184
-1.00066, 369, 137, 496, 168
-1.00066, 1, 141, 128, 172
-1.00067, 461, 121, 476, 184
-1.00067, 379, 89, 394, 152
-1.00067, 421, 129, 436, 192
-1.00068, 225, 133, 352, 164
-1.00068, 397, 81, 412, 144
-1.00068, 327, 153, 342, 216
-1.00068, 485, 49, 500, 112
-1.00068, 407, 129, 422, 192
-1.00069, 193, 177, 320, 304
-1.00069, 363, 145, 378, 208
-1.00069, 369, 145, 384, 208
-1.0007, 313, 113, 328, 176
-1.0007, 163, 145, 178, 208
-1.0007, 469, 57, 484, 120
-1.0007, 177, 129, 208, 256
-1.00071, 401, 129, 416, 192
-1.00072, 39, 137, 54, 200
-1.00072, 373, 89, 388, 152
-1.00072, 11, 153, 26, 216
-1.00073, 321, 85, 448, 116
-1.00074, 479, 57, 494, 120
-1.00074, 391, 81, 406, 144
-1.00075, 257, 109, 384, 140
-1.00075, 65, 1, 192, 32
-1.00075, 435, 129, 450, 192
-1.00075, 209, 181, 336, 212
-1.00076, 33, 129, 160, 160
-1.00077, 369, 77, 496, 108
-1.00077, 457, 57, 472, 120
-1.00077, 81, 141, 208, 172
-1.00078, 33, 153, 48, 216
-1.00078, 281, 65, 344, 320
-1.00078, 353, 145, 368, 208
-1.00078, 403, 81, 418, 144
-1.00079, 33, 153, 160, 184
-1.00082, 369, 65, 496, 96
-1.00083, 161, 121, 288, 152
-1.00086, 33, 117, 160, 148
-1.00086, 177, 129, 208, 192
-1.00092, 145, 13, 272, 44
-1.00095, 145, 1, 272, 32
-1.00095, 65, 13, 192, 44
-1.00097, 33, 105, 160, 136
-1.001, 65, 25, 192, 56
-1.001, 145, 25, 272, 56
-1.001, 1, 165, 128, 196
-1.001, 369, 129, 496, 192
-1.00102, 153, 97, 216, 224
-1.00103, 1, 89, 128, 120
-1.00103, 321, 73, 448, 104
-1.00103, 17, 5, 144, 36
-1.00103, 97, 41, 224, 72
-1.00103, 145, 41, 272, 72
-1.00103, 17, 65, 144, 96
-1.00103, 17, 77, 144, 108
-1.00104, 305, 161, 432, 192
-1.00106, 337, 149, 464, 180
-1.00106, 49, 37, 176, 68
-1.00107, 273, 193, 400, 224
-1.00107, 321, 193, 448, 224
-1.00107, 369, 193, 496, 224
-1.00107, 33, 205, 160, 236
-1.00107, 81, 205, 208, 236
-1.00107, 129, 205, 256, 236
-1.00107, 177, 205, 304, 236
-1.00107, 225, 205, 352, 236
-1.00107, 273, 205, 400, 236
-1.00107, 321, 205, 448, 236
-1.00107, 369, 205, 496, 236
-1.00107, 33, 217, 160, 248
-1.00107, 81, 217, 208, 248
-1.00107, 129, 217, 256, 248
-1.00107, 177, 217, 304, 248
-1.00107, 225, 217, 352, 248
-1.00107, 273, 217, 400, 248
-1.00107, 321, 217, 448, 248
-1.00107, 369, 217, 496, 248
-1.00107, 33, 229, 160, 260
-1.00107, 81, 229, 208, 260
-1.00107, 129, 229, 256, 260
-1.00107, 177, 229, 304, 260
-1.00107, 225, 229, 352, 260
-1.00107, 273, 229, 400, 260
-1.00107, 321, 229, 448, 260
-1.00107, 369, 229, 496, 260
-1.00107, 33, 241, 160, 272
-1.00107, 81, 241, 208, 272
-1.00107, 129, 241, 256, 272
-1.00107, 177, 241, 304, 272
-1.00107, 225, 241, 352, 272
-1.00107, 273, 241, 400, 272
-1.00107, 321, 241, 448, 272
-1.00107, 369, 241, 496, 272
-1.00107, 33, 253, 160, 284
-1.00107, 81, 253, 208, 284
-1.00107, 129, 253, 256, 284
-1.00107, 177, 253, 304, 284
-1.00107, 225, 253, 352, 284
-1.00107, 273, 253, 400, 284
-1.00107, 321, 253, 448, 284
-1.00107, 369, 253, 496, 284
-1.00107, 33, 265, 160, 296
-1.00107, 81, 265, 208, 296
-1.00107, 129, 265, 256, 296
-1.00107, 177, 265, 304, 296
-1.00107, 225, 265, 352, 296
-1.00107, 273, 265, 400, 296
-1.00107, 321, 265, 448, 296
-1.00107, 369, 265, 496, 296
-1.00107, 33, 277, 160, 308
-1.00107, 81, 277, 208, 308
-1.00107, 129, 277, 256, 308
-1.00107, 177, 277, 304, 308
-1.00107, 225, 277, 352, 308
-1.00107, 273, 277, 400, 308
-1.00107, 321, 277, 448, 308
-1.00107, 369, 277, 496, 308
-1.00107, 33, 289, 160, 320
-1.00107, 81, 289, 208, 320
-1.00107, 129, 289, 256, 320
-1.00107, 177, 289, 304, 320
-1.00107, 225, 289, 352, 320
-1.00107, 273, 289, 400, 320
-1.00107, 321, 289, 448, 320
-1.00107, 369, 289, 496, 320
-1.00107, 33, 301, 160, 332
-1.00107, 81, 301, 208, 332
-1.00107, 129, 301, 256, 332
-1.00107, 177, 301, 304, 332
-1.00107, 225, 301, 352, 332
-1.00107, 273, 301, 400, 332
-1.00107, 321, 301, 448, 332
-1.00107, 369, 301, 496, 332
-1.00114, 189, 177, 220, 240
-1.00118, 177, 105, 304, 168
-1.00119, 253, 1, 284, 256
-1.00119, 329, 121, 392, 184
-1.0012, 469, 33, 500, 288
-1.00129, 257, 89, 500, 152
-1.00132, 161, 105, 416, 168
-1.00132, 17, 65, 48, 320
-1.00133, 217, 113, 280, 176
-1.00137, 353, 97, 480, 224
-1.0014, 33, 65, 64, 320
-1.00144, 453, 33, 484, 288
-1.00144, 393, 65, 424, 320
-1.00145, 369, 73, 496, 136
-1.00149, 5, 65, 36, 320
-1.00149, 145, 1, 176, 256
-1.0015, 189, 177, 220, 304
-1.00154, 405, 33, 436, 288
-1.00154, 441, 33, 472, 288
-1.00155, 317, 65, 348, 320
-1.00156, 381, 33, 412, 288
-1.00157, 97, 33, 128, 288
-1.00157, 109, 33, 140, 288
-1.00157, 121, 33, 152, 288
-1.00157, 133, 33, 164, 288
-1.00157, 417, 33, 448, 288
-1.00158, 429, 33, 460, 288
-1.0016, 85, 33, 116, 288
-1.00161, 1, 1, 64, 333
-1.00162, 321, 89, 448, 152
-1.00162, 301, 113, 332, 240
-1.00162, 289, 169, 416, 232
-1.00163, 45, 65, 76, 320
-1.00165, 337, 65, 368, 320
-1.00167, 1, 145, 128, 208
-1.00168, 157, 1, 188, 256
-1.00169, 301, 65, 332, 320
-1.0017, 369, 33, 400, 288
-1.00171, 73, 1, 104, 256
-1.00174, 57, 65, 88, 320
-1.00175, 353, 1, 384, 256
-1.00177, 257, 57, 500, 120
-1.0018, 129, 17, 384, 80
-1.00181, 181, 1, 212, 256
-1.00181, 193, 1, 224, 256
-1.00182, 33, 113, 160, 176
-1.00184, 205, 65, 236, 320
-1.00184, 217, 65, 248, 320
-1.00184, 229, 65, 260, 320
-1.00184, 241, 65, 272, 320
-1.00185, 1, 49, 256, 112
-1.00186, 169, 33, 200, 288
-1.00187, 1, 17, 256, 80
-1.00187, 1, 89, 256, 152
-1.00188, 97, 41, 352, 104
-1.00189, 1, 105, 500, 168
-1.0019, 97, 113, 224, 176
-1.0019, 297, 1, 360, 333
-1.00191, 257, 1, 500, 64
-1.00193, 73, 1, 136, 333
-1.00193, 161, 201, 416, 264
-1.00196, 213, 185, 244, 248
-1.00198, 161, 81, 416, 144
-1.00199, 321, 1, 384, 333
-1.002, 105, 1, 168, 333
-1.002, 129, 1, 192, 333
-1.002, 257, 201, 500, 264
-1.00205, 257, 25, 500, 88
-1.00205, 1, 249, 256, 312
-1.00206, 225, 233, 480, 296
-1.00207, 257, 273, 500, 333
-1.0021, 1, 225, 256, 288
-1.00211, 129, 225, 384, 288
-1.00211, 129, 273, 384, 333
-1.00212, 65, 201, 320, 264
-1.00212, 129, 249, 384, 312
-1.00212, 33, 273, 288, 333
-1.00213, 65, 1, 192, 64
-1.00214, 225, 81, 352, 208
-1.00215, 49, 1, 112, 333
-1.00215, 369, 49, 496, 112
-1.00222, 433, 1, 496, 333
-1.0023, 305, 65, 432, 128
-1.0023, 145, 9, 272, 72
-1.0023, 393, 1, 456, 333
-1.00236, 25, 1, 88, 333
-1.00238, 345, 1, 408, 333
-1.00239, 17, 89, 144, 152
-1.00239, 401, 97, 464, 160
-1.00247, 305, 145, 336, 208
-1.00247, 1, 169, 128, 232
-1.00249, 97, 81, 352, 208
-1.00258, 233, 1, 296, 256
-1.00261, 177, 81, 304, 144
-1.00262, 81, 41, 208, 104
-1.00262, 129, 41, 256, 104
-1.0027, 369, 1, 432, 333
-1.00271, 17, 65, 144, 128
-1.00272, 153, 1, 216, 333
-1.00273, 49, 161, 176, 224
-1.00274, 1, 41, 128, 104
-1.00274, 1, 217, 128, 280
-1.00276, 129, 129, 192, 192
-1.00276, 1, 17, 128, 80
-1.00276, 353, 17, 480, 80
-1.00276, 353, 153, 480, 216
-1.00276, 81, 185, 208, 248
-1.00276, 1, 265, 128, 328
-1.00285, 1, 193, 128, 256
-1.00291, 209, 9, 336, 72
-1.00291, 257, 17, 384, 80
-1.00291, 305, 17, 432, 80
-1.00291, 193, 33, 320, 96
-1.00291, 241, 41, 368, 104
-1.00291, 289, 41, 416, 104
-1.00291, 177, 57, 304, 120
-1.00291, 81, 65, 208, 128
-1.00291, 129, 65, 256, 128
-1.00291, 225, 65, 352, 128
-1.00291, 81, 89, 208, 152
-1.00291, 129, 89, 256, 152
-1.00291, 369, 177, 496, 240
-1.00291, 225, 201, 352, 264
-1.00291, 273, 201, 400, 264
-1.00291, 321, 201, 448, 264
-1.00291, 369, 201, 496, 264
-1.00291, 81, 225, 208, 288
-1.00291, 129, 225, 256, 288
-1.00291, 177, 225, 304, 288
-1.00291, 225, 225, 352, 288
-1.00291, 273, 225, 400, 288
-1.00291, 321, 225, 448, 288
-1.00291, 369, 225, 496, 288
-1.00291, 33, 241, 160, 304
-1.00291, 81, 249, 208, 312
-1.00291, 129, 249, 256, 312
-1.00291, 177, 249, 304, 312
-1.00291, 225, 249, 352, 312
-1.00291, 273, 249, 400, 312
-1.00291, 321, 249, 448, 312
-1.00291, 369, 249, 496, 312
-1.00291, 65, 273, 192, 333
-1.00291, 113, 273, 240, 333
-1.00291, 161, 273, 288, 333
-1.00291, 209, 273, 336, 333
-1.00291, 257, 273, 384, 333
-1.00291, 305, 273, 432, 333
-1.00291, 353, 273, 480, 333
-1.00292, 157, 153, 188, 216
-1.00294, 209, 1, 272, 333
-1.00317, 1, 81, 500, 144
-1.00317, 1, 9, 500, 72
-1.00324, 197, 81, 228, 208
-1.00334, 185, 1, 248, 333
-1.00336, 1, 241, 500, 304
-1.00343, 1, 217, 500, 280
-1.00346, 1, 193, 500, 256
-1.00347, 433, 81, 496, 144
-1.0035, 1, 57, 500, 120
-1.00354, 1, 265, 500, 328
-1.00365, 1, 33, 500, 96
-1.00366, 225, 185, 256, 248
-1.00394, 281, 113, 312, 176
-1.00399, 209, 81, 240, 208
-1.00412, 361, 121, 392, 184
-1.00413, 201, 177, 232, 304
-1.00413, 225, 177, 256, 304
-1.00413, 185, 81, 216, 208
-1.00443, 369, 49, 496, 176
-1.00445, 297, 129, 360, 256
-1.00446, 349, 121, 380, 184
-1.00447, 165, 177, 196, 240
-1.00448, 257, 177, 288, 304
-1.00457, 377, 113, 408, 176
-1.00466, 213, 177, 244, 304
-1.00472, 221, 81, 252, 208
-1.00496, 245, 81, 276, 208
-1.00511, 121, 153, 184, 216
-1.00513, 301, 161, 332, 288
-1.0053, 329, 145, 392, 208
-1.00532, 157, 129, 188, 192
-1.00537, 425, 121, 488, 184
-1.00541, 385, 129, 448, 192
-1.00546, 353, 137, 416, 200
-1.00548, 329, 129, 360, 192
-1.00549, 257, 65, 320, 320
-1.0055, 321, 97, 384, 160
-1.00555, 293, 105, 324, 168
-1.00556, 397, 105, 428, 168
-1.00557, 377, 89, 440, 152
-1.00559, 233, 81, 264, 208
-1.00561, 453, 89, 484, 152
-1.00561, 165, 97, 196, 224
-1.00565, 465, 81, 496, 144
-1.00585, 241, 97, 304, 160
-1.00588, 429, 81, 460, 208
-1.00591, 469, 65, 500, 192
-1.00602, 385, 97, 416, 224
-1.00607, 257, 33, 500, 160
-1.00623, 445, 81, 476, 208
-1.00623, 269, 177, 300, 304
-1.00624, 209, 113, 240, 176
-1.0063, 361, 97, 392, 160
-1.00634, 1, 137, 64, 200
-1.00636, 409, 97, 440, 160
-1.00643, 241, 177, 368, 304
-1.00647, 373, 97, 404, 224
-1.00647, 433, 97, 464, 160
-1.0065, 137, 177, 200, 240
-1.00656, 425, 57, 488, 120
-1.0066, 317, 137, 348, 200
-1.00662, 321, 49, 448, 176
-1.00667, 1, 1, 256, 128
-1.00668, 257, 97, 288, 160
-1.00668, 417, 81, 448, 208
-1.00669, 417, 81, 480, 208
-1.0067, 353, 89, 416, 152
-1.00678, 421, 97, 452, 160
-1.0069, 397, 81, 428, 208
-1.0069, 345, 97, 376, 160
-1.00693, 193, 113, 256, 176
-1.00693, 177, 177, 208, 304
-1.00693, 237, 177, 268, 304
-1.00696, 25, 137, 88, 200
-1.00703, 457, 65, 488, 192
-1.00708, 453, 121, 484, 184
-1.00708, 469, 121, 500, 184
-1.00709, 337, 145, 464, 272
-1.00709, 341, 97, 372, 224
-1.00712, 357, 97, 388, 224
-1.00712, 465, 113, 496, 240
-1.00716, 401, 65, 464, 128
-1.00716, 1, 113, 64, 176
-1.00721, 301, 65, 332, 192
-1.00724, 321, 105, 352, 168
-1.00725, 373, 137, 404, 200
-1.00726, 9, 161, 72, 224
-1.00735, 321, 129, 352, 256
-1.00735, 417, 129, 448, 192
-1.0074, 409, 129, 440, 256
-1.00745, 433, 33, 496, 288
-1.00746, 385, 89, 416, 152
-1.00747, 97, 33, 352, 160
-1.00749, 393, 129, 424, 192
-1.00752, 441, 121, 472, 184
-1.00757, 429, 121, 460, 184
-1.00763, 373, 89, 404, 152
-1.00768, 373, 49, 404, 176
-1.00772, 113, 49, 240, 176
-1.00774, 97, 1, 224, 128
-1.00774, 405, 137, 436, 200
-1.00774, 361, 145, 392, 208
-1.00774, 441, 33, 472, 160
-1.00775, 425, 129, 456, 256
-1.00776, 321, 81, 352, 208
-1.00777, 1, 145, 128, 272
-1.00782, 465, 49, 496, 112
-1.00786, 397, 129, 428, 256
-1.00786, 1, 145, 32, 272
-1.00786, 353, 97, 416, 224
-1.00788, 333, 105, 364, 168
-1.00789, 1, 65, 64, 320
-1.00789, 29, 137, 60, 200
-1.0079, 17, 97, 144, 224
-1.00795, 41, 113, 104, 176
-1.00795, 341, 145, 372, 272
-1.00795, 29, 161, 60, 288
-1.00797, 393, 33, 456, 288
-1.00799, 29, 113, 60, 240
-1.00799, 353, 145, 384, 272
-1.008, 449, 57, 480, 120
-1.00802, 341, 145, 372, 208
-1.00811, 17, 81, 48, 208
-1.00813, 385, 49, 416, 176
-1.00813, 437, 129, 468, 256
-1.00814, 429, 33, 460, 160
-1.00815, 377, 97, 440, 224
-1.00816, 397, 81, 428, 144
-1.00819, 41, 153, 72, 216
-1.00819, 165, 161, 196, 288
-1.0082, 417, 65, 448, 128
-1.00826, 17, 1, 144, 128
-1.00827, 13, 129, 44, 192
-1.0083, 109, 49, 140, 176
-1.0083, 17, 161, 48, 288
-1.00831, 297, 161, 360, 224
-1.00832, 361, 49, 392, 176
-1.00834, 369, 65, 432, 128
-1.00835, 41, 145, 72, 272
-1.00838, 305, 121, 336, 184
-1.00839, 49, 137, 112, 200
-1.00839, 13, 153, 44, 216
-1.00841, 345, 1, 408, 256
-1.00842, 429, 73, 460, 136
-1.00845, 417, 33, 448, 160
-1.00847, 1, 145, 32, 208
-1.00848, 329, 73, 392, 136
-1.00849, 5, 81, 36, 208
-1.00851, 453, 129, 484, 256
-1.00851, 365, 145, 396, 272
-1.00854, 25, 65, 88, 320
-1.00855, 33, 49, 160, 176
-1.00856, 329, 153, 360, 216
-1.00859, 145, 1, 272, 128
-1.00862, 337, 49, 368, 176
-1.00865, 117, 1, 148, 128
-1.00865, 129, 33, 160, 160
-1.00866, 241, 105, 272, 168
-1.00867, 397, 33, 428, 160
-1.00868, 349, 49, 380, 176
-1.00869, 381, 145, 412, 272
-1.00869, 33, 161, 96, 224
-1.00873, 145, 145, 176, 208
-1.00876, 25, 161, 56, 224
-1.00878, 461, 1, 492, 128
-1.00878, 105, 1, 168, 64
-1.00878, 129, 1, 192, 64
-1.00878, 25, 65, 88, 128
-1.0088, 97, 1, 128, 128
-1.00881, 41, 129, 72, 192
-1.00881, 41, 81, 72, 208
-1.00884, 289, 33, 320, 160
-1.00884, 129, 1, 192, 256
-1.00885, 17, 89, 80, 152
-1.00886, 97, 49, 128, 176
-1.00891, 97, 33, 160, 288
-1.00896, 297, 81, 360, 144
-1.00899, 113, 177, 176, 240
-1.00899, 29, 113, 60, 176
-1.00901, 401, 41, 464, 104
-1.00904, 429, 49, 460, 112
-1.00904, 57, 113, 88, 240
-1.00904, 53, 137, 84, 200
-1.00906, 229, 113, 260, 176
-1.00908, 425, 33, 488, 96
-1.00908, 269, 17, 300, 144
-1.0091, 317, 161, 348, 224
-1.0091, 369, 1, 496, 128
-1.00911, 385, 65, 416, 128
-1.00913, 405, 57, 436, 120
-1.00913, 305, 169, 336, 232
-1.00914, 269, 81, 300, 144
-1.00915, 141, 33, 172, 160
-1.00916, 13, 105, 44, 168
-1.00918, 25, 33, 56, 160
-1.00918, 1, 193, 32, 320
-1.0092, 1, 41, 64, 104
-1.0092, 25, 41, 88, 104
-1.00921, 1, 113, 32, 176
-1.00921, 369, 65, 432, 320
-1.00922, 73, 33, 136, 288
-1.00922, 265, 81, 328, 144
-1.00923, 241, 49, 304, 176
-1.00924, 105, 129, 168, 192
-1.00925, 41, 105, 72, 168
-1.00929, 41, 201, 104, 264
-1.00929, 65, 201, 128, 264
-1.00929, 89, 201, 152, 264
-1.00929, 113, 201, 176, 264
-1.00929, 137, 201, 200, 264
-1.00929, 161, 201, 224, 264
-1.00929, 185, 201, 248, 264
-1.00929, 241, 201, 304, 264
-1.00929, 265, 201, 328, 264
-1.00929, 289, 201, 352, 264
-1.00929, 313, 201, 376, 264
-1.00929, 337, 201, 400, 264
-1.00929, 361, 201, 424, 264
-1.00929, 385, 201, 448, 264
-1.00929, 409, 201, 472, 264
-1.00929, 433, 201, 496, 264
-1.00929, 1, 225, 64, 288
-1.00929, 25, 225, 88, 288
-1.00929, 49, 225, 112, 288
-1.00929, 73, 225, 136, 288
-1.00929, 97, 225, 160, 288
-1.00929, 121, 225, 184, 288
-1.00929, 145, 225, 208, 288
-1.00929, 169, 225, 232, 288
-1.00929, 193, 225, 256, 288
-1.00929, 217, 225, 280, 288
-1.00929, 241, 225, 304, 288
-1.00929, 265, 225, 328, 288
-1.00929, 289, 225, 352, 288
-1.00929, 313, 225, 376, 288
-1.00929, 337, 225, 400, 288
-1.00929, 361, 225, 424, 288
-1.00929, 385, 225, 448, 288
-1.00929, 409, 225, 472, 288
-1.00929, 433, 225, 496, 288
-1.00929, 1, 249, 64, 312
-1.00929, 25, 249, 88, 312
-1.00929, 49, 249, 112, 312
-1.00929, 73, 249, 136, 312
-1.00929, 97, 249, 160, 312
-1.00929, 121, 249, 184, 312
-1.00929, 145, 249, 208, 312
-1.00929, 169, 249, 232, 312
-1.00929, 193, 249, 256, 312
-1.00929, 217, 249, 280, 312
-1.00929, 241, 249, 304, 312
-1.00929, 265, 249, 328, 312
-1.00929, 289, 249, 352, 312
-1.00929, 313, 249, 376, 312
-1.00929, 337, 249, 400, 312
-1.00929, 361, 249, 424, 312
-1.00929, 385, 249, 448, 312
-1.00929, 409, 249, 472, 312
-1.00929, 433, 249, 496, 312
-1.00929, 1, 273, 64, 333
-1.00929, 25, 273, 88, 333
-1.00929, 49, 273, 112, 333
-1.00929, 73, 273, 136, 333
-1.00929, 97, 273, 160, 333
-1.00929, 121, 273, 184, 333
-1.00929, 145, 273, 208, 333
-1.00929, 169, 273, 232, 333
-1.00929, 193, 273, 256, 333
-1.00929, 217, 273, 280, 333
-1.00929, 241, 273, 304, 333
-1.00929, 265, 273, 328, 333
-1.00929, 289, 273, 352, 333
-1.00929, 313, 273, 376, 333
-1.00929, 337, 273, 400, 333
-1.00929, 361, 273, 424, 333
-1.00929, 385, 273, 448, 333
-1.00929, 409, 273, 472, 333
-1.00929, 433, 273, 496, 333
-1.00931, 169, 49, 200, 176
-1.00932, 53, 113, 84, 176
-1.00932, 1, 33, 32, 160
-1.00932, 57, 65, 88, 192
-1.00934, 305, 33, 368, 288
-1.00936, 53, 161, 84, 288
-1.00938, 357, 73, 388, 136
-1.00938, 309, 97, 340, 160
-1.00939, 153, 1, 184, 128
-1.00939, 85, 17, 116, 144
-1.00939, 273, 33, 400, 160
-1.00939, 49, 33, 112, 288
-1.00941, 5, 81, 36, 144
-1.00941, 25, 89, 56, 152
-1.00941, 145, 177, 176, 240
-1.00943, 257, 33, 288, 160
-1.00943, 37, 33, 68, 160
-1.00944, 117, 1, 148, 64
-1.00944, 129, 1, 160, 64
-1.00944, 5, 57, 36, 120
-1.00944, 29, 65, 60, 128
-1.00945, 161, 209, 416, 333
-1.00946, 145, 121, 176, 184
-1.00951, 313, 33, 344, 160
-1.00953, 453, 33, 484, 96
-1.00954, 153, 1, 216, 256
-1.00955, 325, 33, 356, 160
-1.00956, 81, 161, 112, 288
-1.00956, 93, 161, 124, 288
-1.00956, 105, 161, 136, 288
-1.00956, 117, 161, 148, 288
-1.00956, 129, 161, 160, 288
-1.00956, 141, 161, 172, 288
-1.00956, 153, 161, 184, 288
-1.00956, 469, 161, 500, 288
-1.00956, 21, 209, 52, 333
-1.00956, 33, 209, 64, 333
-1.00956, 45, 209, 76, 333
-1.00956, 57, 209, 88, 333
-1.00956, 69, 209, 100, 333
-1.00956, 81, 209, 112, 333
-1.00956, 93, 209, 124, 333
-1.00956, 105, 209, 136, 333
-1.00956, 117, 209, 148, 333
-1.00956, 129, 209, 160, 333
-1.00956, 141, 209, 172, 333
-1.00956, 153, 209, 184, 333
-1.00956, 165, 209, 196, 333
-1.00956, 289, 209, 320, 333
-1.00956, 301, 209, 332, 333
-1.00956, 313, 209, 344, 333
-1.00956, 325, 209, 356, 333
-1.00956, 337, 209, 368, 333
-1.00956, 349, 209, 380, 333
-1.00956, 361, 209, 392, 333
-1.00956, 373, 209, 404, 333
-1.00956, 385, 209, 416, 333
-1.00956, 397, 209, 428, 333
-1.00956, 409, 209, 440, 333
-1.00956, 421, 209, 452, 333
-1.00956, 433, 209, 464, 333
-1.00956, 445, 209, 476, 333
-1.00956, 457, 209, 488, 333
-1.00956, 469, 209, 500, 333
-1.00958, 373, 65, 404, 128
-1.00958, 5, 33, 36, 96
-1.00958, 17, 41, 48, 104
-1.00958, 29, 41, 60, 104
-1.00959, 321, 81, 352, 144
-1.00959, 197, 97, 228, 160
-1.00961, 217, 273, 248, 333
-1.00961, 229, 273, 260, 333
-1.00961, 241, 273, 272, 333
-1.00961, 253, 273, 284, 333
-1.00961, 265, 273, 296, 333
-1.00961, 277, 273, 308, 333
-1.00961, 289, 273, 320, 333
-1.00961, 301, 273, 332, 333
-1.00961, 313, 273, 344, 333
-1.00961, 325, 273, 356, 333
-1.00961, 337, 273, 368, 333
-1.00961, 349, 273, 380, 333
-1.00961, 361, 273, 392, 333
-1.00961, 373, 273, 404, 333
-1.00961, 385, 273, 416, 333
-1.00961, 397, 273, 428, 333
-1.00961, 409, 273, 440, 333
-1.00961, 421, 273, 452, 333
-1.00961, 433, 273, 464, 333
-1.00961, 445, 273, 476, 333
-1.00961, 457, 273, 488, 333
-1.00961, 469, 273, 500, 333
-1.00965, 1, 49, 256, 176
-1.00966, 257, 209, 500, 333
-1.00976, 1, 193, 128, 320
-1.00983, 49, 145, 176, 272
-1.00994, 329, 113, 392, 240
-1.00999, 321, 1, 448, 128
-1.0101, 377, 49, 440, 176
-1.01031, 225, 17, 352, 144
-1.01032, 369, 209, 496, 333
-1.01038, 49, 209, 176, 333
-1.01038, 97, 209, 224, 333
-1.01038, 145, 209, 272, 333
-1.01038, 321, 209, 448, 333
-1.01038, 1, 209, 256, 333
-1.01046, 185, 1, 248, 256
-1.01052, 305, 65, 368, 192
-1.01066, 209, 33, 272, 288
-1.01117, 433, 33, 496, 160
-1.01123, 345, 49, 408, 176
-1.01124, 17, 145, 80, 272
-1.01137, 401, 129, 464, 256
-1.01143, 409, 33, 472, 160
-1.01156, 1, 81, 64, 208
-1.01156, 281, 177, 344, 304
-1.01162, 145, 145, 208, 272
-1.01192, 433, 129, 496, 256
-1.01221, 113, 49, 176, 176
-1.0125, 105, 1, 168, 128
-1.01264, 377, 145, 440, 272
-1.01267, 41, 113, 104, 240
-1.01291, 169, 49, 232, 176
-1.01299, 353, 145, 416, 272
-1.01335, 73, 1, 136, 128
-1.01335, 89, 49, 152, 176
-1.01351, 137, 33, 200, 160
-1.01393, 129, 97, 192, 224
-1.01394, 209, 49, 272, 176
-1.014, 161, 1, 224, 128
-1.014, 41, 161, 104, 288
-1.014, 1, 193, 64, 320
-1.01409, 41, 65, 104, 192
-1.01422, 17, 33, 80, 160
-1.01442, 65, 97, 128, 224
-1.01452, 305, 17, 368, 144
-1.01464, 281, 33, 344, 160
-1.01465, 65, 49, 128, 176
-1.01468, 369, 1, 432, 128
-1.01471, 121, 145, 184, 272
-1.01478, 49, 1, 112, 128
-1.01478, 185, 1, 248, 128
-1.01478, 209, 1, 272, 128
-1.01478, 233, 1, 296, 128
-1.01478, 257, 1, 320, 128
-1.01478, 97, 113, 160, 240
-1.01478, 73, 161, 136, 288
-1.01478, 97, 161, 160, 288
-1.01478, 329, 161, 392, 288
-1.01478, 41, 209, 104, 333
-1.01478, 65, 209, 128, 333
-1.01478, 89, 209, 152, 333
-1.01478, 113, 209, 176, 333
-1.01478, 137, 209, 200, 333
-1.01478, 161, 209, 224, 333
-1.01478, 185, 209, 248, 333
-1.01478, 209, 209, 272, 333
-1.01478, 233, 209, 296, 333
-1.01478, 257, 209, 320, 333
-1.01478, 313, 209, 376, 333
-1.01478, 337, 209, 400, 333
-1.01478, 361, 209, 424, 333
-1.01478, 385, 209, 448, 333
-1.01478, 409, 209, 472, 333
-1.01478, 433, 209, 496, 333
-1.01487, 345, 1, 408, 128
-1.05901, 1, 33, 256, 288
-1.07105, 257, 1, 500, 256
-1.07685, 97, 1, 352, 256
