1878
-0.221172, 1, 1, 500, 333
-0.34638, 1, 65, 500, 320
-0.463007, 129, 1, 384, 333
-0.502283, 97, 65, 352, 320
-0.521461, 257, 1, 500, 333
-0.586865, 193, 33, 448, 288
-0.588289, 1, 1, 256, 333
-0.653863, 1, 65, 256, 320
-0.846335, 257, 65, 384, 320
-0.858806, 209, 65, 336, 320
-0.86143, 97, 33, 224, 288
-0.864373, 257, 1, 384, 333
-0.867734, 305, 33, 432, 288
-0.87349, 33, 65, 160, 320
-0.874548, 305, 1, 432, 333
-0.876675, 161, 65, 288, 320
-0.88, 209, 1, 336, 333
-0.888548, 1, 65, 500, 192
-0.889081, 81, 1, 208, 333
-0.90041, 33, 1, 160, 333
-0.906024, 145, 1, 272, 333
-0.912109, 97, 97, 352, 224
-0.913861, 353, 33, 480, 288
-0.914339, 1, 177, 500, 304
-0.915447, 353, 1, 480, 333
-0.917593, 1, 17, 500, 144
-0.920516, 1, 65, 256, 192
-0.921012, 1, 129, 500, 256
-0.921876, 161, 49, 416, 176
-0.92241, 193, 97, 448, 224
-0.927033, 81, 81, 208, 208
-0.932874, 121, 65, 184, 192
-0.933376, 209, 81, 336, 208
-0.934114, 97, 161, 352, 288
-0.934754, 1, 209, 256, 333
-0.936217, 1, 65, 64, 192
-0.936728, 289, 49, 416, 176
-0.9375, 225, 177, 480, 304
-0.937727, 289, 17, 352, 144
-0.938751, 321, 65, 384, 192
-0.940038, 161, 97, 288, 224
-0.943109, 257, 1, 500, 128
-0.944027, 25, 97, 88, 224
-0.944665, 257, 49, 500, 176
-0.944888, 209, 81, 272, 208
-0.945044, 249, 81, 312, 208
-0.945259, 257, 97, 384, 224
-0.946061, 25, 97, 88, 160
-0.947227, 1, 113, 256, 240
-0.948669, 1, 81, 64, 144
-0.949689, 49, 97, 112, 224
-0.949759, 241, 33, 368, 160
-0.949808, 249, 33, 312, 160
-0.950242, 273, 193, 400, 320
-0.952253, 1, 161, 256, 288
-0.952639, 33, 81, 160, 208
-0.953176, 169, 113, 232, 240
-0.953701, 313, 113, 376, 240
-0.954098, 121, 65, 184, 128
-0.954268, 289, 129, 352, 256
-0.954372, 249, 89, 312, 152
-0.955283, 353, 177, 480, 304
-0.955419, 97, 209, 224, 333
-0.956072, 97, 209, 352, 333
-0.956297, 281, 17, 344, 80
-0.956363, 209, 33, 272, 160
-0.95643, 65, 105, 128, 168
-0.956704, 305, 97, 432, 224
-0.957193, 81, 97, 144, 224
-0.957305, 17, 129, 144, 256
-0.958887, 313, 177, 376, 304
-0.959013, 353, 193, 416, 320
-0.960255, 25, 121, 88, 184
-0.960858, 289, 65, 352, 192
-0.96114, 313, 1, 376, 128
-0.961426, 161, 1, 416, 128
-0.96149, 33, 177, 160, 304
-0.961957, 305, 1, 432, 128
-0.961966, 193, 177, 320, 304
-0.962873, 145, 97, 208, 224
-0.963163, 305, 121, 368, 184
-0.963169, 17, 33, 144, 160
-0.963862, 313, 1, 376, 64
-0.963875, 209, 89, 272, 152
-0.964306, 169, 49, 232, 176
-0.964527, 113, 209, 176, 333
-0.964618, 169, 193, 232, 320
-0.964706, 145, 33, 272, 160
-0.96471, 145, 193, 272, 320
-0.964875, 137, 193, 200, 320
-0.965077, 353, 233, 416, 296
-0.965204, 289, 89, 352, 152
-0.965241, 105, 97, 168, 160
-0.965313, 273, 145, 400, 272
-0.965874, 305, 33, 368, 288
-0.96594, 289, 49, 352, 112
-0.966181, 81, 129, 208, 256
-0.966261, 25, 193, 88, 320
-0.966321, 289, 177, 352, 304
-0.966394, 33, 49, 96, 176
-0.966839, 401, 161, 464, 288
-0.966936, 321, 97, 384, 160
-0.967093, 169, 89, 232, 152
-0.967322, 401, 225, 464, 288
-0.967393, 249, 33, 312, 288
-0.967831, 353, 65, 416, 192
-0.96785, 65, 129, 128, 192
-0.967852, 121, 145, 184, 272
-0.967908, 401, 209, 464, 333
-0.968082, 249, 65, 312, 128
-0.968213, 129, 241, 192, 304
-0.968231, 1, 105, 64, 168
-0.968308, 337, 73, 400, 136
-0.968591, 121, 33, 184, 288
-0.968758, 81, 97, 208, 160
-0.969032, 89, 121, 152, 184
-0.969118, 209, 89, 336, 152
-0.969403, 313, 233, 376, 296
-0.969641, 137, 89, 200, 152
-0.969749, 281, 129, 344, 192
-0.969786, 313, 209, 376, 272
-0.969946, 57, 145, 120, 272
-0.969956, 377, 161, 440, 288
-0.970048, 13, 65, 44, 192
-0.970077, 257, 161, 320, 288
-0.970369, 281, 1, 344, 256
-0.970455, 337, 129, 400, 256
-0.970604, 49, 193, 112, 320
-0.970609, 249, 41, 312, 104
-0.970659, 345, 257, 408, 320
-0.970681, 89, 145, 152, 272
-0.970738, 377, 257, 440, 320
-0.970936, 37, 97, 68, 160
-0.971558, 209, 113, 272, 176
-0.971722, 193, 209, 256, 333
-0.971748, 145, 145, 272, 272
-0.971893, 113, 73, 240, 136
-0.971898, 369, 113, 496, 240
-0.972052, 169, 113, 232, 176
-0.972257, 1, 65, 64, 320
-0.972359, 209, 65, 272, 128
-0.972521, 141, 57, 172, 120
-0.972554, 433, 161, 496, 288
-0.972653, 329, 65, 392, 320
-0.972697, 289, 81, 416, 144
-0.972706, 273, 57, 304, 120
-0.972803, 433, 9, 496, 72
-0.972832, 317, 1, 348, 128
-0.973145, 265, 81, 296, 144
-0.973167, 337, 49, 464, 176
-0.973212, 169, 265, 232, 328
-0.973377, 329, 65, 360, 192
-0.973381, 65, 17, 320, 144
-0.973406, 337, 1, 400, 128
-0.973427, 169, 241, 232, 304
-0.973481, 277, 33, 308, 160
-0.97356, 273, 105, 400, 168
-0.973595, 97, 217, 160, 280
-0.973619, 193, 273, 256, 333
-0.973903, 33, 145, 96, 272
-0.97404, 97, 33, 224, 160
-0.974083, 121, 217, 184, 280
-0.974206, 73, 49, 136, 176
-0.974226, 65, 217, 128, 280
-0.974272, 317, 1, 348, 64
-0.974428, 17, 73, 48, 136
-0.974517, 273, 57, 400, 120
-0.97468, 377, 233, 440, 296
-0.974728, 353, 209, 416, 272
-0.974738, 97, 49, 160, 176
-0.974939, 61, 105, 92, 168
-0.974979, 217, 65, 248, 192
-0.975036, 145, 265, 208, 328
-0.975049, 209, 65, 272, 320
-0.975127, 97, 33, 160, 288
-0.975369, 17, 89, 144, 152
-0.975422, 329, 89, 360, 152
-0.97547, 325, 49, 356, 112
-0.975582, 57, 65, 120, 320
-0.975599, 105, 241, 168, 304
-0.975608, 145, 113, 208, 176
-0.975715, 305, 241, 432, 304
-0.975848, 1, 113, 64, 240
-0.975919, 389, 249, 420, 312
-0.975982, 281, 161, 344, 224
-0.97608, 337, 41, 400, 104
-0.976287, 305, 145, 368, 208
-0.976289, 89, 193, 152, 320
-0.976307, 277, 81, 308, 144
-0.976337, 257, 137, 320, 200
-0.976353, 141, 49, 172, 176
-0.976529, 377, 193, 440, 256
-0.976597, 345, 113, 408, 176
-0.9766, 25, 225, 88, 288
-0.976652, 161, 97, 288, 160
-0.976655, 289, 201, 352, 264
-0.976767, 225, 161, 288, 288
-0.9769, 393, 169, 456, 232
-0.976965, 353, 65, 416, 320
-0.977029, 157, 241, 188, 304
-0.977092, 217, 209, 280, 333
-0.977221, 169, 217, 232, 280
-0.977237, 309, 121, 340, 184
-0.977275, 305, 1, 432, 64
-0.97739, 317, 49, 348, 176
-0.9774, 313, 49, 376, 112
-0.977518, 193, 241, 256, 304
-0.97752, 317, 113, 348, 240
-0.977662, 169, 65, 232, 128
-0.977755, 257, 81, 288, 208
-0.977785, 277, 81, 308, 208
-0.977838, 1, 209, 64, 333
-0.977938, 213, 89, 244, 152
-0.977979, 305, 177, 368, 240
-0.977985, 145, 49, 208, 176
-0.978086, 369, 1, 496, 128
-0.978193, 321, 121, 352, 184
-0.978196, 65, 81, 128, 144
-0.978248, 297, 113, 328, 240
-0.978284, 25, 65, 88, 320
-0.978285, 397, 273, 428, 333
-0.978428, 117, 81, 148, 208
-0.978482, 97, 73, 160, 136
-0.978499, 281, 225, 344, 288
-0.978575, 305, 217, 432, 280
-0.97884, 25, 65, 88, 128
-0.978858, 157, 65, 188, 192
-0.979156, 425, 209, 488, 333
-0.979218, 33, 113, 160, 176
-0.979247, 145, 145, 208, 272
-0.979247, 161, 81, 192, 144
-0.979282, 169, 1, 232, 128
-0.979332, 17, 201, 80, 264
-0.979393, 153, 65, 216, 320
-0.979395, 105, 145, 168, 208
-0.979436, 385, 97, 448, 224
-0.979443, 49, 193, 112, 256
-0.97949, 297, 121, 328, 184
-0.979491, 193, 33, 320, 160
-0.979501, 65, 217, 192, 280
-0.979516, 185, 1, 248, 256
-0.979522, 129, 49, 160, 176
-0.979529, 369, 193, 400, 320
-0.97983, 177, 113, 208, 240
-0.979867, 109, 113, 140, 176
-0.979876, 25, 105, 56, 168
-0.979986, 37, 81, 68, 208
-0.979994, 369, 233, 496, 296
-0.980083, 129, 193, 192, 256
-0.980115, 377, 209, 440, 333
-0.980116, 113, 273, 240, 333
-0.980143, 469, 17, 500, 80
-0.98018, 69, 137, 100, 200
-0.980267, 341, 113, 372, 176
-0.980434, 425, 201, 488, 264
-0.980435, 157, 193, 188, 320
-0.980517, 297, 1, 360, 333
-0.980529, 257, 113, 320, 176
-0.980538, 77, 105, 108, 168
-0.98058, 97, 137, 128, 200
-0.980628, 353, 137, 416, 200
-0.980648, 113, 241, 240, 304
-0.980651, 469, 1, 500, 128
-0.980826, 97, 121, 224, 184
-0.980922, 209, 273, 240, 333
-0.981011, 277, 105, 308, 168
-0.98117, 61, 113, 92, 240
-0.981211, 361, 113, 424, 240
-0.981325, 337, 65, 368, 128
-0.981434, 245, 81, 276, 208
-0.981456, 1, 89, 32, 152
-0.981508, 409, 233, 440, 296
-0.981614, 401, 265, 464, 328
-0.981632, 241, 129, 368, 192
-0.981651, 65, 65, 192, 128
-0.981712, 193, 241, 320, 304
-0.981806, 265, 209, 328, 333
-0.981859, 341, 65, 372, 192
-0.981868, 93, 105, 124, 168
-0.981896, 49, 81, 80, 208
-0.982061, 17, 65, 144, 128
-0.982066, 45, 121, 76, 184
-0.982074, 225, 41, 288, 104
-0.982079, 1, 129, 64, 192
-0.982101, 1, 233, 64, 296
-0.982146, 265, 1, 296, 128
-0.982199, 393, 193, 424, 320
-0.982268, 201, 97, 232, 224
-0.982332, 117, 81, 148, 144
-0.982389, 233, 273, 296, 333
-0.98243, 365, 241, 396, 304
-0.982455, 225, 17, 288, 80
-0.98246, 113, 1, 176, 333
-0.982472, 197, 273, 228, 333
-0.982521, 377, 241, 408, 304
-0.982573, 153, 217, 184, 280
-0.982589, 189, 113, 220, 240
-0.982595, 385, 129, 448, 192
-0.982673, 57, 241, 120, 304
-0.982903, 121, 17, 184, 144
-0.982961, 425, 113, 488, 240
-0.983009, 225, 241, 288, 304
-0.983015, 257, 241, 384, 304
-0.983019, 129, 57, 160, 120
-0.983033, 129, 217, 160, 280
-0.983052, 205, 1, 236, 64
-0.983074, 273, 33, 304, 96
-0.983086, 369, 1, 496, 64
-0.98311, 257, 217, 384, 280
-0.983129, 457, 1, 488, 64
-0.983151, 253, 81, 284, 144
-0.983188, 129, 209, 256, 272
-0.983198, 81, 241, 144, 304
-0.983241, 81, 177, 144, 240
-0.983271, 433, 1, 496, 128
-0.983306, 17, 137, 144, 200
-0.983309, 257, 209, 320, 272
-0.983356, 337, 73, 464, 136
-0.983364, 209, 177, 336, 240
-0.983382, 313, 73, 376, 136
-0.983404, 217, 17, 248, 144
-0.983425, 269, 1, 300, 64
-0.983442, 181, 265, 212, 328
-0.983574, 129, 169, 192, 232
-0.98364, 325, 177, 356, 304
-0.983722, 17, 233, 144, 296
-0.983758, 161, 73, 288, 136
-0.983825, 353, 225, 384, 288
-0.98392, 169, 193, 200, 320
-0.983929, 433, 1, 496, 256
-0.984076, 249, 169, 312, 232
-0.98408, 205, 1, 236, 128
-0.984095, 301, 161, 332, 288
-0.984126, 249, 17, 312, 80
-0.984128, 1, 81, 32, 208
-0.984143, 257, 153, 384, 216
-0.984172, 329, 1, 360, 128
-0.984175, 249, 1, 312, 333
-0.984196, 65, 241, 192, 304
-0.984245, 113, 121, 176, 184
-0.98428, 209, 65, 240, 128
-0.984285, 57, 137, 88, 200
-0.984301, 361, 81, 424, 144
-0.984351, 25, 65, 56, 192
-0.984375, 321, 193, 448, 256
-0.98438, 241, 89, 272, 152
-0.984387, 337, 185, 400, 248
-0.984399, 161, 273, 288, 333
-0.984405, 105, 97, 136, 224
-0.984419, 313, 25, 376, 88
-0.984419, 257, 241, 320, 304
-0.984432, 305, 25, 432, 88
-0.984454, 201, 145, 264, 272
-0.984531, 81, 97, 112, 224
-0.984554, 361, 17, 424, 144
-0.984778, 229, 81, 260, 208
-0.9849, 221, 65, 252, 128
-0.984932, 361, 1, 424, 64
-0.984987, 49, 97, 80, 160
-0.985043, 229, 89, 260, 152
-0.985077, 329, 153, 392, 216
-0.985117, 321, 105, 448, 168
-0.985144, 385, 217, 416, 280
-0.985148, 369, 105, 432, 168
-0.985151, 201, 201, 264, 264
-0.985166, 133, 209, 164, 333
-0.985196, 373, 217, 404, 280
-0.985204, 321, 1, 384, 333
-0.985234, 129, 241, 160, 304
-0.985281, 49, 193, 80, 320
-0.985294, 345, 193, 376, 320
-0.985304, 337, 113, 368, 240
-0.985333, 201, 241, 232, 304
-0.985372, 433, 225, 496, 288
-0.985373, 145, 193, 176, 320
-0.985499, 305, 153, 432, 216
-0.98551, 173, 241, 204, 304
-0.985522, 341, 209, 372, 272
-0.985526, 377, 57, 440, 120
-0.985536, 321, 49, 448, 112
-0.985633, 433, 33, 496, 96
-0.985633, 81, 153, 144, 216
-0.985655, 381, 193, 412, 320
-0.985665, 81, 137, 112, 200
-0.985687, 141, 201, 172, 264
-0.985719, 273, 1, 336, 333
-0.9858, 137, 145, 168, 272
-0.985816, 337, 17, 400, 80
-0.985854, 353, 249, 384, 312
-0.985857, 233, 145, 296, 208
-0.985876, 285, 57, 316, 120
-0.985878, 281, 9, 312, 72
-0.98591, 369, 201, 496, 264
-0.985968, 417, 137, 480, 200
-0.986029, 177, 113, 208, 176
-0.986045, 305, 225, 336, 288
-0.986073, 369, 81, 400, 144
-0.986106, 353, 65, 384, 192
-0.986129, 205, 113, 236, 176
-0.986154, 185, 25, 248, 88
-0.98616, 209, 41, 240, 104
-0.986298, 257, 273, 320, 333
-0.986308, 169, 177, 232, 240
-0.986311, 145, 217, 208, 280
-0.986367, 377, 65, 440, 320
-0.986385, 153, 145, 184, 272
-0.986387, 201, 1, 264, 333
-0.986462, 285, 129, 316, 192
-0.986546, 289, 129, 416, 192
-0.986582, 349, 129, 380, 256
-0.986593, 145, 241, 176, 304
-0.986608, 417, 161, 480, 224
-0.986627, 345, 17, 376, 144
-0.986661, 337, 129, 464, 192
-0.986682, 105, 177, 168, 240
-0.986699, 85, 233, 116, 296
-0.986709, 209, 129, 336, 256
-0.986722, 41, 145, 104, 208
-0.986747, 225, 65, 352, 128
-0.9868, 185, 1, 248, 64
-0.986845, 281, 177, 312, 304
-0.986888, 217, 1, 248, 64
-0.98693, 405, 161, 436, 288
-0.986954, 33, 193, 160, 256
-0.986971, 241, 1, 368, 64
-0.986999, 205, 49, 236, 176
-0.987012, 357, 177, 388, 304
-0.987076, 165, 113, 196, 240
-0.987086, 401, 201, 464, 264
-0.987088, 241, 25, 368, 88
-0.987204, 93, 97, 124, 224
-0.987247, 81, 193, 208, 256
-0.987256, 209, 209, 336, 272
-0.987261, 137, 1, 200, 333
-0.987343, 393, 105, 456, 168
-0.98738, 369, 177, 496, 240
-0.987393, 341, 153, 372, 216
-0.987417, 349, 57, 380, 120
-0.987426, 369, 65, 400, 192
-0.987454, 1, 161, 64, 288
-0.98761, 273, 193, 400, 256
-0.987626, 177, 121, 304, 184
-0.987651, 361, 129, 392, 256
-0.987685, 17, 1, 80, 333
-0.987692, 109, 241, 140, 304
-0.987782, 233, 113, 296, 176
-0.987828, 353, 257, 480, 320
-0.987847, 341, 241, 372, 304
-0.987859, 305, 17, 336, 80
-0.9879, 205, 209, 236, 333
-0.987905, 61, 225, 92, 288
-0.987967, 409, 273, 440, 333
-0.988083, 225, 273, 256, 333
-0.988085, 209, 273, 336, 333
-0.988087, 193, 113, 224, 176
-0.988093, 33, 117, 96, 148
-0.988106, 409, 33, 472, 288
-0.988112, 61, 65, 92, 192
-0.988166, 165, 217, 196, 280
-0.988184, 317, 81, 348, 144
-0.988235, 441, 161, 472, 288
-0.988281, 353, 89, 384, 152
-0.988327, 281, 249, 344, 312
-0.988337, 169, 65, 200, 192
-0.988379, 329, 185, 360, 248
-0.988381, 165, 113, 196, 176
-0.988391, 293, 153, 324, 216
-0.988499, 97, 153, 224, 216
-0.988507, 261, 49, 292, 112
-0.98854, 305, 265, 432, 328
-0.988563, 153, 57, 184, 120
-0.988592, 329, 17, 360, 80
-0.988602, 221, 41, 252, 104
-0.988625, 97, 97, 352, 160
-0.988632, 129, 145, 192, 208
-0.988654, 289, 97, 320, 160
-0.98867, 41, 145, 72, 272
-0.988682, 49, 169, 176, 232
-0.988704, 373, 193, 404, 256
-0.988725, 201, 89, 232, 152
-0.988738, 117, 209, 148, 272
-0.988796, 217, 241, 248, 304
-0.988804, 293, 217, 324, 280
-0.988829, 313, 41, 344, 104
-0.988863, 33, 101, 96, 132
-0.98894, 241, 209, 304, 333
-0.988942, 385, 49, 448, 176
-0.988952, 1, 81, 256, 144
-0.988955, 97, 217, 128, 280
-0.988972, 65, 113, 128, 144
-0.988985, 273, 33, 336, 64
-0.989003, 113, 177, 144, 240
-0.989032, 385, 57, 416, 120
-0.989111, 133, 177, 164, 240
-0.989117, 1, 85, 64, 116
-0.989158, 453, 161, 484, 288
-0.989185, 73, 193, 104, 320
-0.989187, 325, 225, 356, 288
-0.989214, 393, 1, 456, 64
-0.989215, 465, 145, 496, 272
-0.989237, 429, 161, 460, 288
-0.989247, 305, 121, 368, 152
-0.989263, 249, 93, 312, 124
-0.98927, 405, 209, 436, 333
-0.989296, 121, 73, 184, 104
-0.989301, 121, 177, 152, 304
-0.989316, 233, 113, 264, 176
-0.989338, 409, 49, 472, 112
-0.989388, 217, 113, 248, 176
-0.989403, 73, 1, 136, 333
-0.989427, 361, 185, 392, 248
-0.989434, 289, 93, 352, 124
-0.98947, 1, 97, 64, 128
-0.989475, 217, 209, 248, 333
-0.989475, 301, 185, 332, 248
-0.9895, 301, 97, 332, 160
-0.989553, 129, 177, 256, 240
-0.989568, 361, 257, 424, 288
-0.989589, 309, 161, 340, 224
-0.989613, 225, 169, 288, 232
-0.989631, 169, 153, 232, 216
-0.989637, 169, 265, 200, 328
-0.989674, 297, 65, 328, 192
-0.989741, 61, 161, 92, 288
-0.989757, 369, 169, 432, 232
-0.989765, 341, 89, 372, 152
-0.989774, 209, 145, 272, 208
-0.989798, 13, 97, 44, 160
-0.989807, 393, 113, 424, 240
-0.98982, 113, 265, 176, 328
-0.98983, 1, 113, 64, 144
-0.98983, 65, 125, 128, 156
-0.989832, 353, 113, 384, 176
-0.989842, 33, 129, 96, 160
-0.989849, 193, 209, 224, 333
-0.98986, 217, 289, 280, 320
-0.989914, 321, 109, 384, 140
-0.98992, 225, 217, 288, 280
-0.989923, 73, 101, 136, 132
-0.989966, 289, 105, 352, 136
-0.989967, 109, 161, 140, 288
-0.989995, 209, 105, 272, 136
-0.990004, 1, 217, 32, 280
-0.990008, 389, 113, 420, 176
-0.990038, 321, 81, 384, 112
-0.990043, 281, 21, 344, 52
-0.990075, 209, 93, 272, 124
-0.990095, 109, 137, 140, 200
-0.990099, 429, 225, 460, 288
-0.990124, 293, 209, 324, 333
-0.990127, 177, 1, 240, 333
-0.990137, 33, 73, 64, 136
-0.990175, 169, 97, 232, 128
-0.990183, 289, 53, 352, 84
-0.990212, 257, 297, 320, 328
-0.99025, 281, 133, 344, 164
-0.990251, 313, 241, 376, 272
-0.990265, 41, 1, 104, 333
-0.990294, 181, 89, 212, 152
-0.990297, 73, 229, 136, 260
-0.99031, 125, 137, 156, 200
-0.990336, 385, 273, 416, 333
-0.990344, 409, 209, 440, 272
-0.990349, 73, 137, 136, 168
-0.990391, 329, 161, 360, 224
-0.990403, 181, 209, 212, 333
-0.990406, 73, 209, 104, 272
-0.990417, 381, 145, 412, 272
-0.990419, 249, 81, 312, 112
-0.990435, 185, 241, 216, 304
-0.990448, 25, 89, 88, 120
-0.990465, 313, 9, 376, 40
-0.990484, 105, 97, 168, 128
-0.990498, 145, 49, 272, 112
-0.990527, 129, 61, 192, 92
-0.990559, 225, 77, 288, 108
-0.990562, 321, 257, 384, 320
-0.990579, 285, 33, 316, 96
-0.990592, 265, 9, 328, 40
-0.990627, 249, 105, 312, 136
-0.990628, 433, 1, 496, 333
-0.990629, 81, 145, 112, 272
-0.99064, 401, 1, 464, 128
-0.99066, 9, 125, 72, 156
-0.990678, 129, 85, 192, 116
-0.990682, 169, 109, 232, 140
-0.990687, 129, 41, 192, 104
-0.990712, 169, 85, 232, 116
-0.990735, 33, 129, 64, 192
-0.990761, 33, 225, 96, 256
-0.990799, 153, 41, 216, 104
-0.990831, 161, 229, 224, 260
-0.990834, 37, 209, 68, 333
-0.990854, 97, 73, 352, 136
-0.990879, 257, 117, 320, 148
-0.990898, 129, 101, 192, 132
-0.990901, 137, 229, 200, 260
-0.990922, 321, 97, 384, 128
-0.990949, 201, 277, 264, 308
-0.991004, 177, 269, 240, 300
-0.991014, 269, 161, 300, 288
-0.991034, 337, 253, 400, 284
-0.991054, 313, 225, 376, 256
-0.991055, 161, 121, 224, 152
-0.991064, 249, 41, 312, 72
-0.991127, 49, 141, 112, 172
-0.991128, 209, 153, 336, 216
-0.991165, 353, 241, 416, 272
-0.991184, 345, 101, 408, 132
-0.99119, 281, 121, 344, 152
-0.991199, 401, 229, 464, 260
-0.991207, 381, 81, 412, 144
-0.991221, 105, 109, 168, 140
-0.991228, 353, 229, 416, 260
-0.991228, 105, 241, 168, 272
-0.991239, 89, 41, 152, 104
-0.991264, 33, 233, 64, 296
-0.991266, 281, 145, 344, 176
-0.991286, 305, 133, 368, 164
-0.991287, 97, 129, 160, 160
-0.991313, 381, 97, 412, 224
-0.991316, 145, 265, 208, 296
-0.991317, 337, 61, 400, 92
-0.991324, 97, 229, 160, 260
-0.991326, 9, 221, 72, 252
-0.991333, 369, 273, 432, 304
-0.991334, 377, 301, 440, 332
-0.991347, 185, 65, 216, 192
-0.991368, 297, 181, 360, 212
-0.991378, 289, 225, 352, 256
-0.991383, 281, 169, 344, 200
-0.991385, 201, 117, 264, 148
-0.991385, 105, 89, 136, 152
-0.991414, 265, 229, 328, 260
-0.991433, 201, 229, 264, 260
-0.991446, 105, 85, 168, 116
-0.991448, 289, 81, 352, 112
-0.991505, 433, 9, 496, 40
-0.991511, 129, 217, 192, 248
-0.991512, 361, 113, 424, 144
-0.991513, 97, 121, 352, 184
-0.991522, 97, 141, 160, 172
-0.991542, 337, 189, 400, 220
-0.991546, 313, 209, 376, 240
-0.991559, 313, 145, 376, 176
-0.99156, 345, 137, 408, 168
-0.99158, 121, 261, 184, 292
-0.991584, 161, 241, 416, 304
-0.991589, 161, 241, 224, 272
-0.991591, 417, 161, 448, 288
-0.991593, 257, 129, 320, 160
-0.991601, 41, 237, 104, 268
-0.991609, 73, 241, 136, 272
-0.991611, 345, 77, 408, 108
-0.991622, 249, 69, 312, 100
-0.991624, 393, 277, 456, 308
-0.991627, 313, 21, 376, 52
-0.991636, 433, 21, 496, 52
-0.991636, 97, 1, 160, 128
-0.991654, 385, 261, 448, 292
-0.991657, 377, 217, 440, 248
-0.991671, 1, 105, 256, 168
-0.991684, 257, 153, 320, 184
-0.991692, 321, 41, 384, 72
-0.991709, 361, 125, 424, 156
-0.991736, 9, 73, 72, 104
-0.991745, 289, 241, 352, 272
-0.991778, 249, 53, 312, 84
-0.991805, 225, 233, 288, 264
-0.991812, 297, 65, 360, 96
-0.991826, 209, 65, 272, 96
-0.991853, 105, 153, 168, 184
-0.991859, 137, 113, 200, 144
-0.991869, 257, 245, 320, 276
-0.991873, 193, 89, 448, 152
-0.991886, 73, 89, 136, 120
-0.991896, 433, 225, 496, 256
-0.991898, 225, 33, 288, 64
-0.991906, 121, 177, 184, 208
-0.99191, 329, 121, 392, 152
-0.991946, 73, 217, 136, 248
-0.991965, 9, 237, 72, 268
-0.991969, 249, 29, 312, 60
-0.991985, 361, 289, 424, 320
-0.991988, 353, 201, 416, 232
-0.991993, 353, 213, 416, 244
-0.991996, 401, 301, 464, 332
-0.992011, 141, 61, 172, 92
-0.992015, 401, 213, 464, 244
-0.992018, 177, 281, 240, 312
-0.992022, 369, 25, 496, 88
-0.992056, 169, 73, 232, 104
-0.99207, 393, 173, 456, 204
-0.992071, 297, 17, 328, 144
-0.992073, 145, 277, 208, 308
-0.992074, 97, 217, 160, 248
-0.992079, 345, 269, 408, 300
-0.992099, 57, 185, 120, 216
-0.992113, 33, 113, 64, 144
-0.99212, 33, 93, 64, 124
-0.992187, 145, 145, 272, 208
-0.992206, 33, 217, 288, 280
-0.992223, 17, 77, 48, 108
-0.992227, 253, 209, 284, 333
-0.992231, 9, 17, 72, 144
-0.99231, 317, 9, 348, 40
-0.99237, 385, 81, 448, 144
-0.992414, 77, 129, 108, 160
-0.992449, 53, 101, 84, 132
-0.99246, 37, 125, 68, 156
-0.992478, 265, 81, 296, 112
-0.99248, 9, 209, 40, 333
-0.99248, 345, 1, 408, 333
-0.992482, 61, 141, 92, 172
-0.992483, 225, 285, 256, 316
-0.992484, 273, 65, 304, 96
-0.992542, 193, 161, 224, 288
-0.992543, 205, 277, 236, 308
-0.992561, 277, 81, 308, 112
-0.992573, 313, 121, 344, 152
-0.992574, 21, 209, 52, 333
-0.992578, 393, 261, 424, 292
-0.992579, 221, 97, 252, 128
-0.992582, 365, 237, 396, 268
-0.992596, 333, 101, 364, 132
-0.992616, 57, 121, 88, 152
-0.99263, 257, 161, 288, 288
-0.992638, 345, 241, 376, 272
-0.99267, 369, 77, 400, 108
-0.992674, 325, 57, 356, 88
-0.992677, 277, 109, 308, 140
-0.992678, 297, 117, 328, 148
-0.992689, 97, 105, 128, 136
-0.9927, 237, 289, 268, 320
-0.992712, 453, 209, 484, 333
-0.992717, 73, 97, 104, 128
-0.992721, 377, 245, 408, 276
-0.992722, 81, 229, 112, 260
-0.99274, 417, 209, 448, 333
-0.992743, 333, 85, 364, 116
-0.992745, 93, 117, 124, 148
-0.992754, 157, 241, 188, 272
-0.992757, 361, 253, 392, 284
-0.992758, 277, 93, 308, 124
-0.992762, 297, 129, 328, 160
-0.992762, 77, 117, 108, 148
-0.992774, 181, 269, 212, 300
-0.992777, 233, 97, 264, 128
-0.99278, 353, 109, 384, 140
-0.992788, 409, 1, 472, 333
-0.992788, 345, 73, 376, 104
-0.992793, 225, 57, 480, 120
-0.992798, 153, 261, 184, 292
-0.992799, 97, 129, 128, 160
-0.992807, 181, 109, 212, 140
-0.992807, 77, 141, 108, 172
-0.99281, 5, 89, 36, 120
-0.992818, 229, 33, 260, 160
-0.992824, 465, 13, 496, 44
-0.992825, 65, 225, 96, 256
-0.992826, 401, 273, 432, 304
-0.99283, 277, 21, 308, 52
-0.99283, 121, 81, 152, 112
-0.992833, 97, 105, 224, 136
-0.992834, 249, 97, 280, 128
-0.992837, 405, 113, 436, 240
-0.992846, 345, 85, 376, 116
-0.992856, 369, 49, 496, 112
-0.992858, 161, 85, 192, 116
-0.992862, 253, 293, 284, 324
-0.992866, 469, 1, 500, 32
-0.992867, 333, 113, 364, 144
-0.992867, 213, 109, 244, 140
-0.992868, 281, 33, 312, 64
-0.99287, 453, 1, 484, 32
-0.992875, 89, 141, 120, 172
-0.992889, 153, 221, 184, 252
-0.992897, 193, 269, 224, 300
-0.992898, 265, 297, 296, 328
-0.992902, 277, 1, 308, 32
-0.99291, 209, 73, 240, 104
-0.992923, 257, 201, 500, 264
-0.992928, 217, 49, 248, 80
-0.992929, 25, 125, 56, 156
-0.99293, 281, 45, 312, 76
-0.992934, 221, 81, 252, 112
-0.99294, 469, 25, 500, 56
-0.992947, 317, 241, 348, 272
-0.992954, 169, 265, 200, 296
-0.99296, 185, 121, 216, 152
-0.992961, 201, 113, 232, 144
-0.992967, 109, 97, 140, 128
-0.992969, 217, 61, 248, 92
-0.992973, 69, 237, 100, 268
-0.992977, 409, 233, 440, 264
-0.992977, 317, 109, 348, 140
-0.992978, 257, 265, 384, 328
-0.99298, 173, 229, 204, 260
-0.99298, 285, 125, 316, 156
-0.992983, 285, 65, 316, 96
-0.992996, 161, 101, 192, 132
-0.992997, 33, 41, 160, 104
-0.992999, 93, 233, 124, 264
-0.993002, 49, 133, 80, 164
-0.993006, 145, 65, 208, 128
-0.993008, 205, 1, 236, 32
-0.993009, 277, 301, 308, 332
-0.993012, 213, 113, 244, 240
-0.993014, 45, 113, 76, 144
-0.993019, 141, 245, 172, 276
-0.993023, 361, 225, 392, 256
-0.993026, 305, 233, 336, 264
-0.993049, 49, 145, 80, 176
-0.993054, 209, 85, 240, 116
-0.993061, 109, 129, 140, 160
-0.993062, 329, 1, 360, 32
-0.993065, 305, 33, 336, 64
-0.993067, 389, 249, 420, 280
-0.993071, 17, 89, 48, 120
-0.993073, 217, 37, 248, 68
-0.993073, 205, 13, 236, 44
-0.993073, 229, 209, 260, 333
-0.993075, 269, 33, 300, 64
-0.993077, 169, 117, 200, 148
-0.993081, 237, 301, 268, 332
-0.993081, 225, 265, 480, 328
-0.993083, 129, 65, 160, 96
-0.993087, 81, 241, 112, 272
-0.993087, 329, 241, 360, 272
-0.99309, 329, 125, 360, 156
-0.993091, 49, 89, 80, 120
-0.993096, 341, 145, 372, 176
-0.993098, 325, 41, 356, 72
-0.993102, 345, 121, 376, 152
-0.993102, 113, 109, 144, 140
-0.993104, 217, 1, 248, 32
-0.993106, 381, 233, 412, 264
-0.993112, 193, 281, 224, 312
-0.993112, 145, 73, 176, 104
-0.993116, 33, 81, 64, 112
-0.993116, 129, 213, 160, 244
-0.993119, 21, 113, 52, 144
-0.993121, 313, 133, 344, 164
-0.993123, 141, 225, 172, 256
-0.993125, 409, 217, 440, 248
-0.993126, 297, 181, 328, 212
-0.993127, 21, 101, 52, 132
-0.99313, 289, 233, 320, 264
-0.993135, 309, 221, 340, 252
-0.993136, 413, 301, 444, 332
-0.99314, 205, 25, 236, 56
-0.99314, 457, 225, 488, 256
-0.993184, 201, 169, 264, 232
-0.993251, 369, 105, 496, 168
-0.993277, 257, 1, 500, 64
-0.993306, 113, 93, 240, 124
-0.993325, 241, 81, 368, 112
-0.993338, 1, 57, 500, 120
-0.993339, 469, 193, 500, 320
-0.993355, 225, 153, 480, 216
-0.993376, 97, 117, 224, 148
-0.993397, 457, 1, 488, 128
-0.993405, 97, 49, 128, 176
-0.993485, 97, 177, 352, 240
-0.993502, 369, 1, 400, 128
-0.993536, 225, 1, 288, 333
-0.99358, 193, 113, 448, 176
-0.993637, 45, 97, 60, 160
-0.993666, 329, 9, 344, 72
-0.993686, 339, 57, 354, 120
-0.993687, 61, 209, 92, 333
-0.993752, 161, 109, 288, 140
-0.993805, 305, 241, 432, 272
-0.99381, 33, 109, 160, 140
-0.99382, 209, 93, 336, 124
-0.993839, 233, 161, 264, 288
-0.993894, 321, 1, 336, 64
-0.99395, 245, 161, 276, 288
-0.993975, 65, 105, 80, 168
-0.994054, 1, 105, 500, 168
-0.994072, 381, 49, 412, 176
-0.994117, 93, 145, 124, 272
-0.994146, 181, 161, 212, 288
-0.99423, 483, 1, 498, 64
-0.994272, 289, 81, 416, 112
-0.9943, 313, 209, 344, 333
-0.994305, 223, 73, 238, 136
-0.994312, 369, 1, 432, 333
-0.994324, 33, 97, 160, 128
-0.994331, 33, 265, 288, 328
-0.994373, 37, 33, 68, 160
-0.994414, 17, 121, 144, 152
-0.99447, 289, 109, 416, 140
-0.994486, 133, 97, 164, 224
-0.994515, 73, 113, 88, 176
-0.994542, 193, 1, 320, 64
-0.994548, 51, 97, 66, 160
-0.994607, 37, 113, 52, 176
-0.994625, 285, 41, 300, 104
-0.994631, 37, 89, 52, 152
-0.994711, 405, 257, 420, 320
-0.994713, 97, 209, 128, 333
-0.994713, 139, 57, 154, 120
-0.994716, 1, 89, 16, 152
-0.994742, 369, 153, 496, 216
-0.994759, 9, 89, 24, 152
-0.994764, 225, 113, 352, 144
-0.994813, 161, 217, 416, 280
-0.99483, 221, 41, 236, 104
-0.994841, 241, 33, 272, 160
-0.994845, 281, 1, 296, 64
-0.994873, 333, 49, 348, 112
-0.994879, 345, 73, 360, 136
-0.994887, 471, 1, 486, 64
-0.994895, 29, 73, 44, 136
-0.994903, 221, 161, 252, 288
-0.994915, 83, 137, 98, 200
-0.994918, 171, 241, 186, 304
-0.994928, 163, 241, 178, 304
-0.994928, 225, 33, 480, 96
-0.994933, 113, 81, 240, 112
-0.994945, 301, 129, 316, 192
-0.994948, 29, 129, 60, 256
-0.994948, 287, 65, 302, 128
-0.994973, 257, 93, 384, 124
-0.994979, 273, 69, 400, 100
-0.994987, 65, 225, 192, 256
-0.994993, 157, 57, 172, 120
-0.995006, 59, 121, 74, 184
-0.995022, 333, 89, 348, 152
-0.99504, 1, 161, 128, 224
-0.99504, 219, 1, 234, 64
-0.995042, 65, 265, 192, 328
-0.995076, 65, 129, 80, 192
-0.995085, 411, 233, 426, 296
-0.995099, 121, 81, 136, 144
-0.995099, 313, 161, 344, 288
-0.995143, 173, 89, 188, 152
-0.995145, 269, 81, 284, 144
-0.995163, 333, 33, 364, 288
-0.995165, 33, 241, 288, 304
-0.995174, 117, 105, 132, 168
-0.995175, 153, 17, 184, 144
-0.995235, 161, 97, 288, 128
-0.995259, 305, 121, 432, 152
-0.995281, 257, 245, 384, 276
-0.995283, 281, 129, 312, 256
-0.995289, 311, 121, 326, 184
-0.995301, 1, 193, 256, 256
-0.995304, 321, 257, 448, 288
-0.995312, 279, 81, 294, 144
-0.995319, 1, 137, 256, 200
-0.995321, 131, 73, 146, 136
-0.995348, 351, 113, 366, 176
-0.995412, 257, 177, 500, 240
-0.995413, 33, 81, 160, 112
-0.99542, 341, 97, 356, 160
-0.995436, 317, 121, 332, 184
-0.995442, 117, 17, 148, 144
-0.995445, 325, 121, 340, 184
-0.995484, 49, 137, 176, 168
-0.995505, 411, 265, 426, 328
-0.995506, 97, 153, 352, 216
-0.995515, 129, 33, 160, 288
-0.995525, 141, 1, 172, 128
-0.995552, 257, 225, 500, 288
-0.995553, 1, 209, 500, 272
-0.995555, 305, 1, 432, 32
-0.99557, 149, 57, 164, 120
-0.995576, 177, 285, 304, 316
-0.995587, 213, 273, 228, 333
-0.995593, 289, 89, 304, 152
-0.995594, 375, 241, 390, 304
-0.995618, 213, 113, 228, 176
-0.99564, 259, 89, 274, 152
-0.995655, 111, 129, 126, 192
-0.995656, 399, 249, 414, 312
-0.995683, 405, 33, 436, 160
-0.99572, 145, 33, 176, 288
-0.99574, 209, 297, 336, 328
-0.995756, 161, 81, 288, 112
-0.995767, 31, 97, 46, 160
-0.99578, 161, 9, 416, 72
-0.995784, 385, 209, 400, 272
-0.995796, 97, 129, 224, 160
-0.995801, 167, 217, 182, 280
-0.995835, 277, 1, 308, 256
-0.995848, 195, 265, 210, 328
-0.995874, 369, 225, 384, 288
-0.995878, 9, 17, 40, 144
-0.995878, 393, 49, 424, 176
-0.995884, 113, 269, 240, 300
-0.995895, 1, 221, 128, 252
-0.995905, 1, 233, 500, 296
-0.995927, 465, 81, 496, 208
-0.995935, 485, 33, 500, 96
-0.995942, 321, 61, 448, 92
-0.995948, 81, 49, 112, 176
-0.995955, 477, 9, 492, 72
-0.995965, 93, 113, 108, 176
-0.995974, 359, 233, 374, 296
-0.995979, 17, 237, 144, 268
-0.995982, 1, 33, 500, 96
-0.996006, 9, 129, 40, 256
-0.996023, 317, 1, 348, 256
-0.996035, 21, 73, 36, 136
-0.996048, 17, 257, 144, 320
-0.996055, 1, 81, 500, 144
-0.996057, 305, 97, 432, 128
-0.996067, 207, 113, 222, 176
-0.996069, 167, 81, 182, 144
-0.996074, 155, 217, 170, 280
-0.996081, 59, 97, 74, 160
-0.996082, 305, 17, 432, 48
-0.99609, 177, 241, 192, 304
-0.9961, 393, 249, 408, 312
-0.996132, 105, 137, 120, 200
-0.996134, 327, 97, 342, 160
-0.996135, 75, 137, 90, 200
-0.996143, 53, 129, 68, 192
-0.996153, 305, 41, 432, 72
-0.996156, 1, 145, 500, 208
-0.996179, 313, 217, 328, 280
-0.996184, 201, 273, 216, 333
-0.996187, 357, 105, 372, 168
-0.996206, 277, 49, 292, 112
-0.996206, 295, 121, 310, 184
-0.996213, 79, 113, 94, 176
-0.996224, 327, 49, 342, 112
-0.996242, 319, 25, 334, 88
-0.996242, 253, 97, 268, 160
-0.996265, 85, 193, 116, 320
-0.996268, 381, 73, 396, 136
-0.996279, 437, 209, 468, 333
-0.996279, 17, 33, 48, 288
-0.996279, 377, 193, 392, 256
-0.996281, 315, 1, 330, 64
-0.996287, 129, 49, 384, 112
-0.996299, 239, 105, 254, 168
-0.996301, 383, 241, 398, 304
-0.996309, 241, 129, 368, 160
-0.996315, 241, 229, 368, 260
-0.996317, 215, 89, 230, 152
-0.996322, 183, 113, 198, 176
-0.996322, 145, 97, 176, 224
-0.996337, 111, 105, 126, 168
-0.996345, 223, 97, 238, 160
-0.996347, 145, 233, 160, 296
-0.99636, 145, 121, 272, 152
-0.996372, 433, 65, 496, 192
-0.996381, 305, 197, 432, 228
-0.996401, 209, 33, 240, 288
-0.996401, 129, 225, 256, 256
-0.996424, 219, 273, 234, 333
-0.996435, 247, 89, 262, 152
-0.996437, 321, 229, 448, 260
-0.99644, 197, 121, 212, 184
-0.996459, 1, 169, 500, 232
-0.996486, 369, 213, 496, 244
-0.996496, 157, 65, 188, 320
-0.996517, 389, 1, 420, 128
-0.996518, 97, 237, 224, 268
-0.996524, 337, 77, 464, 108
-0.996535, 371, 73, 386, 136
-0.996537, 395, 273, 410, 333
-0.996562, 331, 121, 346, 184
-0.996567, 109, 65, 140, 320
-0.996579, 89, 137, 104, 200
-0.996581, 305, 29, 432, 60
-0.996588, 157, 241, 172, 304
-0.996603, 307, 217, 322, 280
-0.996604, 33, 69, 160, 100
-0.99664, 209, 241, 336, 272
-0.996651, 99, 137, 114, 200
-0.996657, 105, 113, 120, 176
-0.996657, 369, 233, 496, 264
-0.996658, 31, 121, 46, 184
-0.996659, 113, 69, 240, 100
-0.996668, 241, 53, 368, 84
-0.9967, 353, 217, 368, 280
-0.996702, 369, 257, 384, 320
-0.996703, 479, 33, 494, 96
-0.996705, 129, 1, 160, 128
-0.996707, 417, 113, 448, 240
-0.996708, 347, 145, 362, 208
-0.996725, 129, 281, 256, 312
-0.996735, 405, 233, 420, 296
-0.996751, 39, 65, 54, 128
-0.996764, 109, 217, 124, 280
-0.996774, 151, 241, 166, 304
-0.996776, 289, 133, 416, 164
-0.996791, 353, 245, 480, 276
-0.9968, 225, 25, 352, 56
-0.996803, 183, 241, 198, 304
-0.996805, 205, 241, 220, 304
-0.996809, 351, 57, 366, 120
-0.996811, 47, 129, 62, 192
-0.996826, 181, 265, 196, 328
-0.996828, 305, 185, 432, 216
-0.996835, 117, 241, 132, 304
-0.996839, 29, 65, 60, 320
-0.996842, 189, 113, 204, 176
-0.996844, 135, 217, 150, 280
-0.99686, 189, 265, 204, 328
-0.996865, 353, 241, 368, 304
-0.996871, 261, 65, 292, 320
-0.996873, 305, 1, 336, 256
-0.996875, 43, 113, 58, 144
-0.996876, 145, 237, 272, 268
-0.996885, 273, 257, 400, 288
-0.996889, 369, 261, 496, 292
-0.996896, 339, 33, 354, 96
-0.996944, 301, 225, 316, 288
-0.996953, 65, 233, 80, 296
-0.996954, 377, 49, 392, 112
-0.996955, 229, 89, 244, 152
-0.996957, 49, 97, 64, 128
-0.996973, 379, 217, 394, 280
-0.99698, 295, 153, 310, 216
-0.996988, 137, 177, 152, 240
-0.997019, 39, 101, 54, 132
-0.997027, 369, 1, 496, 32
-0.997055, 321, 269, 448, 300
-0.997055, 253, 33, 284, 160
-0.997057, 241, 1, 368, 32
-0.997081, 49, 205, 176, 236
-0.997101, 69, 121, 84, 152
-0.997108, 57, 65, 88, 320
-0.997124, 193, 229, 320, 260
-0.997134, 321, 301, 448, 332
-0.997149, 81, 257, 208, 288
-0.997159, 1, 65, 32, 320
-0.997173, 293, 65, 324, 320
-0.997183, 77, 65, 108, 320
-0.997207, 97, 157, 224, 188
-0.997216, 245, 65, 276, 320
-0.997221, 1, 141, 128, 172
-0.997246, 49, 117, 64, 148
-0.997246, 37, 113, 52, 144
-0.997256, 285, 53, 300, 84
-0.997256, 37, 89, 52, 120
-0.997267, 177, 173, 304, 204
-0.997281, 1, 161, 256, 224
-0.997305, 65, 109, 80, 140
-0.997308, 61, 133, 76, 164
-0.997313, 305, 209, 432, 240
-0.997316, 349, 65, 380, 320
-0.99732, 283, 29, 298, 60
-0.997337, 257, 161, 384, 192
-0.997349, 71, 105, 86, 136
-0.997351, 361, 65, 392, 320
-0.997352, 353, 113, 480, 144
-0.997372, 55, 109, 70, 140
-0.997375, 281, 5, 296, 36
-0.997391, 169, 65, 200, 320
-0.997396, 157, 61, 172, 92
-0.997409, 285, 41, 300, 72
-0.997411, 129, 213, 256, 244
-0.997413, 337, 133, 464, 164
-0.997437, 25, 73, 40, 104
-0.99745, 223, 89, 238, 120
-0.997452, 221, 53, 236, 84
-0.997455, 113, 189, 240, 220
-0.997457, 193, 125, 320, 156
-0.997458, 257, 181, 384, 212
-0.997462, 141, 61, 156, 92
-0.997471, 225, 13, 352, 44
-0.997472, 339, 89, 354, 120
-0.997475, 287, 69, 302, 100
-0.997487, 385, 65, 416, 320
-0.99749, 71, 133, 86, 164
-0.997499, 45, 65, 76, 320
-0.9975, 225, 37, 352, 68
-0.997504, 283, 17, 298, 48
-0.997522, 241, 141, 368, 172
-0.997527, 221, 41, 236, 72
-0.997541, 229, 65, 260, 320
-0.997545, 369, 21, 496, 52
-0.997548, 485, 9, 500, 40
-0.997554, 219, 17, 234, 48
-0.997571, 9, 93, 24, 124
-0.997575, 223, 77, 238, 108
-0.997577, 485, 21, 500, 52
-0.997579, 319, 9, 334, 40
-0.997587, 65, 173, 192, 204
-0.997597, 313, 121, 328, 152
-0.997599, 1, 97, 16, 128
-0.997599, 221, 65, 236, 96
-0.997626, 257, 97, 272, 128
-0.997632, 165, 241, 180, 272
-0.997634, 303, 133, 318, 164
-0.997645, 341, 69, 356, 100
-0.997655, 131, 77, 146, 108
-0.997655, 321, 153, 448, 184
-0.997662, 333, 85, 348, 116
-0.997695, 219, 29, 234, 60
-0.997697, 219, 5, 234, 36
-0.997709, 107, 113, 122, 144
-0.997709, 97, 65, 128, 320
-0.997709, 19, 77, 34, 108
-0.99771, 403, 277, 418, 308
-0.997712, 369, 237, 384, 268
-0.997724, 371, 81, 386, 112
-0.997729, 375, 253, 390, 284
-0.997735, 409, 261, 424, 292
-0.997737, 239, 285, 254, 316
-0.99774, 59, 121, 74, 152
-0.997749, 319, 33, 334, 64
-0.997757, 65, 97, 80, 128
-0.99776, 43, 125, 58, 156
-0.997764, 375, 241, 390, 272
-0.997768, 167, 81, 182, 112
-0.997769, 369, 33, 496, 64
-0.99779, 479, 21, 494, 52
-0.997797, 279, 89, 294, 120
-0.997811, 1, 109, 16, 140
-0.997811, 161, 269, 288, 300
-0.997812, 331, 241, 346, 272
-0.997813, 269, 81, 284, 112
-0.997816, 33, 185, 160, 216
-0.997823, 55, 133, 70, 164
-0.997825, 353, 189, 480, 220
-0.997826, 289, 93, 304, 124
-0.997838, 395, 285, 410, 316
-0.997852, 385, 249, 400, 280
-0.997853, 107, 125, 122, 156
-0.997861, 31, 77, 46, 108
-0.997863, 353, 113, 368, 144
-0.997873, 157, 257, 172, 288
-0.997875, 29, 101, 44, 132
-0.997881, 395, 269, 410, 300
-0.997884, 319, 241, 334, 272
-0.99789, 85, 229, 100, 260
-0.997895, 215, 109, 230, 140
-0.997896, 469, 1, 484, 32
-0.997903, 287, 81, 302, 112
-0.997906, 129, 273, 384, 333
-0.997913, 149, 57, 164, 88
-0.997916, 81, 137, 96, 168
-0.997917, 325, 125, 340, 156
-0.997923, 369, 257, 384, 288
-0.997936, 91, 129, 106, 160
-0.997938, 229, 281, 244, 312
-0.997942, 245, 97, 260, 128
-0.997946, 257, 301, 384, 332
-0.997949, 367, 225, 382, 256
-0.99795, 297, 129, 312, 160
-0.997952, 77, 125, 92, 156
-0.997956, 305, 169, 432, 200
-0.997957, 337, 1, 352, 32
-0.99796, 129, 201, 256, 232
-0.997977, 219, 277, 234, 308
-0.997984, 307, 233, 322, 264
-0.997989, 327, 41, 342, 72
-0.997991, 65, 145, 80, 176
-0.997995, 249, 289, 264, 320
-0.997996, 479, 9, 494, 40
-0.998005, 385, 237, 400, 268
-0.99801, 155, 245, 170, 276
-0.99802, 383, 213, 398, 244
-0.998024, 377, 77, 392, 108
-0.998028, 77, 105, 92, 136
-0.998029, 55, 97, 70, 128
-0.99803, 209, 193, 336, 224
-0.998041, 231, 97, 246, 128
-0.998048, 209, 69, 336, 100
-0.998049, 205, 117, 220, 148
-0.99805, 187, 121, 202, 152
-0.998053, 369, 169, 496, 200
-0.998057, 277, 73, 292, 104
-0.998058, 177, 229, 192, 260
-0.998058, 403, 253, 418, 284
-0.998065, 203, 273, 218, 304
-0.998074, 357, 241, 372, 272
-0.998088, 49, 161, 176, 192
-0.998089, 113, 105, 128, 136
-0.99809, 107, 137, 122, 168
-0.9981, 175, 265, 190, 296
-0.998102, 71, 225, 86, 256
-0.998104, 263, 81, 278, 112
-0.998107, 183, 265, 198, 296
-0.998108, 347, 85, 362, 116
-0.99811, 121, 93, 136, 124
-0.998111, 49, 149, 176, 180
-0.998118, 409, 233, 424, 264
-0.99812, 83, 125, 98, 156
-0.998125, 155, 225, 170, 256
-0.998129, 319, 121, 334, 152
-0.998129, 377, 189, 392, 220
-0.99813, 485, 37, 500, 68
-0.998139, 327, 13, 342, 44
-0.998139, 251, 101, 266, 132
-0.998145, 257, 193, 384, 224
-0.998151, 223, 101, 238, 132
-0.998155, 99, 141, 114, 172
-0.998156, 55, 145, 70, 176
-0.998159, 169, 225, 184, 256
-0.99816, 49, 129, 64, 160
-0.998171, 237, 97, 252, 128
-0.998175, 209, 281, 224, 312
-0.998176, 369, 301, 496, 332
-0.998224, 161, 297, 288, 328
-0.998238, 189, 65, 220, 320
-0.998297, 225, 209, 352, 240
-0.998329, 33, 249, 160, 280
-0.998334, 369, 153, 496, 184
-0.998357, 241, 277, 368, 308
-0.998359, 469, 1, 500, 256
-0.998363, 145, 141, 272, 172
-0.998385, 25, 103, 88, 118
-0.998424, 277, 7, 308, 22
-0.998424, 317, 17, 348, 32
-0.998425, 333, 95, 364, 110
-0.998425, 345, 243, 376, 258
-0.998425, 125, 83, 156, 98
-0.998426, 329, 243, 360, 258
-0.998426, 281, 53, 312, 68
-0.998426, 109, 113, 140, 128
-0.998427, 297, 115, 328, 130
-0.998427, 401, 277, 432, 292
-0.998428, 197, 273, 228, 288
-0.998429, 161, 275, 192, 290
-0.998429, 277, 35, 308, 50
-0.99843, 217, 65, 248, 80
-0.998431, 325, 47, 356, 62
-0.998431, 281, 41, 312, 56
-0.998431, 217, 51, 248, 66
-0.998432, 217, 59, 248, 74
-0.998432, 145, 265, 176, 280
-0.998433, 1, 89, 64, 104
-0.998433, 41, 135, 104, 150
-0.998433, 337, 111, 368, 126
-0.998434, 337, 105, 368, 120
-0.998434, 161, 243, 192, 258
-0.998435, 209, 157, 336, 188
-0.998435, 221, 93, 252, 108
-0.998435, 1, 273, 500, 333
-0.998436, 353, 113, 384, 128
-0.998438, 269, 317, 300, 332
-0.998438, 121, 79, 184, 94
-0.998438, 73, 119, 136, 134
-0.998438, 97, 257, 128, 272
-0.998439, 5, 93, 36, 108
-0.998439, 397, 263, 428, 278
-0.998439, 109, 261, 140, 276
-0.998441, 273, 59, 304, 74
-0.998441, 109, 137, 140, 152
-0.998442, 201, 285, 232, 300
-0.998442, 181, 117, 212, 132
-0.998442, 33, 123, 96, 138
-0.998442, 45, 97, 76, 112
-0.998443, 133, 77, 164, 92
-0.998443, 349, 255, 380, 270
-0.998443, 257, 315, 288, 330
-0.998443, 345, 79, 376, 94
-0.998444, 57, 129, 88, 144
-0.998444, 277, 1, 308, 16
-0.998445, 61, 99, 92, 114
-0.998446, 277, 23, 308, 38
-0.998447, 145, 75, 176, 90
-0.998448, 365, 251, 396, 266
-0.998448, 281, 47, 312, 62
-0.998448, 377, 251, 408, 266
-0.998449, 365, 239, 396, 254
-0.99845, 33, 111, 96, 126
-0.998451, 29, 111, 60, 126
-0.998452, 225, 97, 288, 112
-0.998452, 381, 265, 412, 280
-0.998454, 277, 29, 308, 44
-0.998454, 281, 67, 312, 82
-0.998455, 309, 123, 340, 138
-0.998455, 273, 37, 336, 52
-0.998456, 329, 125, 360, 140
-0.998459, 33, 117, 96, 132
-0.998459, 29, 133, 60, 148
-0.998459, 17, 129, 80, 144
-0.998459, 353, 101, 480, 132
-0.99846, 97, 133, 128, 148
-0.99846, 241, 309, 272, 324
-0.998461, 265, 91, 296, 106
-0.998462, 397, 271, 428, 286
-0.998463, 257, 97, 288, 112
-0.998463, 373, 33, 404, 288
-0.998463, 233, 291, 264, 306
-0.998465, 137, 69, 168, 84
-0.998465, 41, 117, 72, 132
-0.998466, 217, 283, 248, 298
-0.998466, 77, 125, 108, 140
-0.998467, 249, 95, 312, 110
-0.998467, 245, 291, 276, 306
-0.998468, 233, 97, 264, 112
-0.998476, 441, 313, 472, 328
-0.998477, 289, 123, 352, 138
-0.998477, 161, 267, 192, 282
-0.998477, 17, 173, 144, 204
-0.998478, 289, 111, 352, 126
-0.998478, 277, 93, 308, 108
-0.998479, 149, 239, 180, 254
-0.998479, 93, 247, 124, 262
-0.99848, 73, 139, 136, 154
-0.99848, 273, 43, 336, 58
-0.998481, 345, 87, 376, 102
-0.998482, 49, 233, 112, 248
-0.998483, 337, 117, 368, 132
-0.998483, 65, 129, 128, 144
-0.998484, 377, 243, 408, 258
-0.998484, 73, 107, 136, 122
-0.998485, 57, 123, 88, 138
-0.998487, 173, 269, 204, 284
-0.998487, 361, 261, 424, 276
-0.998487, 93, 141, 124, 156
-0.998488, 337, 85, 400, 100
-0.99849, 277, 85, 308, 100
-0.99849, 61, 111, 92, 126
-0.99849, 453, 317, 484, 332
-0.99849, 221, 99, 252, 114
-0.998491, 65, 113, 128, 128
-0.998492, 289, 57, 352, 72
-0.998492, 277, 103, 308, 118
-0.998493, 17, 91, 48, 106
-0.998493, 41, 123, 72, 138
-0.998494, 273, 289, 400, 320
-0.998497, 25, 97, 88, 112
-0.998498, 185, 271, 216, 286
-0.998498, 217, 293, 248, 308
-0.998499, 181, 277, 212, 292
-0.998499, 369, 201, 496, 232
-0.9985, 365, 245, 396, 260
-0.9985, 57, 105, 88, 120
-0.998501, 249, 87, 312, 102
-0.998503, 281, 31, 344, 46
-0.998504, 81, 141, 112, 156
-0.998504, 329, 89, 360, 104
-0.998504, 153, 269, 216, 284
-0.998505, 81, 233, 144, 248
-0.998505, 253, 309, 284, 324
-0.998508, 273, 73, 304, 88
-0.998508, 289, 117, 352, 132
-0.998508, 249, 103, 312, 118
-0.998509, 85, 131, 116, 146
-0.99851, 209, 105, 272, 120
-0.99851, 313, 243, 376, 258
-0.99851, 69, 243, 100, 258
-0.99851, 289, 101, 352, 116
-0.998512, 337, 79, 400, 94
-0.998514, 41, 129, 104, 144
-0.998514, 77, 115, 108, 130
-0.998515, 321, 115, 384, 130
-0.998515, 201, 289, 264, 304
-0.998516, 73, 237, 104, 252
-0.998516, 169, 119, 232, 134
-0.998518, 265, 15, 328, 30
-0.998518, 17, 139, 80, 154
-0.99852, 1, 119, 64, 134
-0.998521, 361, 259, 392, 274
-0.998521, 197, 279, 228, 294
-0.998522, 265, 23, 328, 38
-0.998523, 277, 109, 308, 124
-0.998523, 273, 49, 336, 64
-0.998526, 41, 135, 72, 150
-0.998526, 389, 255, 420, 270
-0.998527, 169, 277, 232, 292
-0.998529, 321, 97, 384, 112
-0.998529, 69, 143, 100, 158
-0.998529, 73, 103, 104, 118
-0.99853, 249, 111, 312, 126
-0.998532, 1, 99, 64, 114
-0.998533, 297, 121, 328, 136
-0.998534, 277, 79, 308, 94
-0.998534, 145, 161, 272, 192
-0.998536, 289, 91, 352, 106
-0.998537, 309, 131, 340, 146
-0.998537, 33, 105, 64, 120
-0.998538, 225, 91, 288, 106
-0.998539, 241, 297, 304, 312
-0.998539, 293, 133, 324, 148
-0.998539, 209, 115, 272, 130
-0.998541, 81, 243, 112, 258
-0.998543, 169, 113, 232, 128
-0.998544, 337, 257, 400, 272
-0.998544, 65, 101, 128, 116
-0.998545, 129, 85, 192, 100
-0.998545, 29, 127, 60, 142
-0.998546, 185, 283, 248, 298
-0.998548, 317, 11, 348, 26
-0.998548, 121, 73, 184, 88
-0.998548, 57, 141, 88, 156
-0.99855, 329, 103, 392, 118
-0.998551, 49, 141, 112, 156
-0.998551, 313, 121, 376, 136
-0.998552, 241, 311, 304, 326
-0.998553, 9, 83, 72, 98
-0.998553, 57, 245, 120, 260
-0.998553, 249, 81, 312, 96
-0.998553, 169, 97, 232, 112
-0.998554, 229, 299, 260, 314
-0.998556, 169, 107, 232, 122
-0.998556, 129, 65, 192, 80
-0.998557, 121, 237, 184, 252
-0.998558, 93, 109, 124, 124
-0.99856, 329, 1, 392, 16
-0.99856, 281, 9, 344, 24
-0.998561, 369, 267, 432, 282
-0.998562, 169, 91, 232, 106
-0.998562, 265, 83, 296, 98
-0.998567, 105, 113, 168, 128
-0.998569, 353, 251, 416, 266
-0.998569, 257, 303, 320, 318
-0.998569, 337, 73, 400, 88
-0.998571, 297, 133, 360, 148
-0.998572, 57, 135, 88, 150
-0.998573, 221, 107, 252, 122
-0.998574, 225, 83, 288, 98
-0.998574, 339, 49, 354, 176
-0.998576, 161, 239, 224, 254
-0.998577, 93, 121, 124, 136
-0.998578, 105, 101, 168, 116
-0.998579, 81, 243, 144, 258
-0.998581, 113, 91, 176, 106
-0.998581, 305, 21, 368, 36
-0.998583, 57, 239, 120, 254
-0.998584, 305, 15, 368, 30
-0.998585, 417, 229, 480, 244
-0.998586, 129, 265, 192, 280
-0.998586, 265, 133, 328, 148
-0.998587, 29, 93, 60, 108
-0.998587, 69, 137, 100, 152
-0.998587, 217, 309, 280, 324
-0.998588, 169, 125, 232, 140
-0.998588, 281, 315, 344, 330
-0.998589, 273, 309, 336, 324
-0.998589, 33, 241, 96, 256
-0.99859, 369, 83, 400, 98
-0.998593, 281, 139, 344, 154
-0.998593, 225, 291, 288, 306
-0.998596, 289, 63, 352, 78
-0.998597, 305, 9, 368, 24
-0.998598, 249, 317, 312, 332
-0.998598, 249, 39, 312, 54
-0.998599, 305, 27, 368, 42
-0.9986, 17, 85, 48, 100
-0.9986, 1, 113, 64, 128
-0.998601, 433, 1, 496, 16
-0.998601, 137, 97, 200, 112
-0.998601, 433, 315, 496, 330
-0.998603, 321, 91, 384, 106
-0.998604, 345, 109, 408, 124
-0.998604, 337, 65, 400, 80
-0.998604, 9, 77, 72, 92
-0.998605, 249, 235, 312, 250
-0.998607, 249, 45, 312, 60
-0.998607, 331, 1, 346, 128
-0.998607, 297, 185, 360, 200
-0.998607, 45, 103, 76, 118
-0.998607, 249, 75, 312, 90
-0.998608, 17, 77, 48, 92
-0.998608, 417, 309, 480, 324
-0.998608, 97, 227, 160, 242
-0.998609, 433, 9, 496, 24
-0.998609, 361, 127, 424, 142
-0.998609, 321, 109, 384, 124
-0.99861, 305, 141, 368, 156
-0.99861, 201, 99, 264, 114
-0.99861, 433, 29, 496, 44
-0.99861, 169, 83, 232, 98
-0.998612, 129, 271, 192, 286
-0.998613, 113, 259, 176, 274
-0.998613, 353, 241, 416, 256
-0.998614, 377, 277, 440, 292
-0.998614, 137, 113, 200, 128
-0.998616, 321, 129, 384, 144
-0.998616, 321, 263, 384, 278
-0.998616, 1, 237, 64, 252
-0.998616, 105, 125, 168, 140
-0.998618, 29, 121, 60, 136
-0.998619, 41, 111, 72, 126
-0.998621, 41, 129, 72, 144
-0.998644, 409, 65, 472, 192
-0.998646, 141, 63, 172, 78
-0.998648, 65, 269, 192, 300
-0.998653, 161, 69, 288, 100
-0.998654, 161, 257, 288, 288
-0.998663, 97, 141, 224, 172
-0.998704, 33, 99, 64, 114
-0.998713, 177, 217, 304, 248
-0.998715, 81, 281, 208, 312
-0.998746, 369, 65, 496, 96
-0.998751, 331, 49, 346, 176
-0.998767, 369, 273, 496, 304
-0.998772, 193, 141, 320, 172
-0.998781, 299, 113, 314, 240
-0.998785, 1, 153, 128, 184
-0.998802, 119, 81, 134, 208
-0.998805, 223, 33, 238, 160
-0.998827, 287, 17, 302, 144
-0.99884, 173, 81, 188, 208
-0.998843, 145, 57, 272, 88
-0.998867, 485, 1, 500, 128
-0.998872, 279, 81, 294, 208
-0.998872, 353, 89, 480, 120
-0.998886, 113, 177, 240, 208
-0.998905, 65, 57, 192, 88
-0.998906, 141, 49, 156, 176
-0.998909, 19, 65, 34, 192
-0.998917, 323, 113, 338, 240
-0.998926, 63, 113, 78, 240
-0.998928, 325, 1, 340, 128
-0.998959, 29, 65, 44, 192
-0.998968, 313, 113, 328, 240
-0.998969, 275, 17, 290, 144
-0.998971, 71, 81, 86, 208
-0.998988, 157, 49, 172, 176
-0.998998, 269, 81, 284, 208
-0.999004, 249, 81, 264, 208
-0.999008, 9, 81, 24, 208
-0.999011, 477, 1, 492, 128
-0.999014, 257, 81, 272, 208
-0.999053, 1, 9, 500, 72
-0.999053, 185, 113, 200, 240
-0.999053, 377, 177, 392, 304
-0.999054, 49, 81, 64, 208
-0.999057, 147, 49, 162, 176
-0.999064, 215, 97, 230, 224
-0.999068, 441, 33, 472, 288
-0.999072, 325, 49, 340, 176
-0.999076, 209, 265, 336, 296
-0.999079, 241, 97, 256, 224
-0.999086, 345, 65, 360, 192
-0.999086, 235, 81, 250, 208
-0.999094, 319, 1, 334, 128
-0.999096, 351, 81, 366, 208
-0.9991, 109, 113, 124, 240
-0.999101, 335, 97, 350, 224
-0.999102, 129, 65, 144, 192
-0.999107, 305, 113, 320, 240
-0.999118, 229, 81, 244, 208
-0.999119, 179, 97, 194, 224
-0.999121, 167, 65, 182, 192
-0.999136, 3, 81, 18, 208
-0.999137, 57, 113, 72, 240
-0.999137, 337, 1, 352, 128
-0.999144, 329, 113, 344, 240
-0.999147, 289, 65, 304, 192
-0.999155, 135, 65, 150, 192
-0.999155, 197, 113, 212, 240
-0.999156, 263, 81, 278, 208
-0.999157, 203, 113, 218, 240
-0.99916, 367, 193, 382, 320
-0.999161, 409, 65, 440, 320
-0.999168, 43, 81, 58, 208
-0.99917, 77, 81, 92, 208
-0.99918, 213, 33, 228, 160
-0.999183, 383, 193, 398, 320
-0.999193, 223, 81, 238, 208
-0.999197, 55, 65, 70, 192
-0.999221, 157, 193, 172, 320
-0.999225, 173, 209, 188, 333
-0.999234, 365, 65, 380, 192
-0.999236, 303, 161, 318, 288
-0.999237, 191, 113, 206, 240
-0.999244, 281, 1, 296, 128
-0.999245, 193, 41, 320, 104
-0.999247, 353, 145, 368, 272
-0.99925, 347, 129, 362, 256
-0.999255, 399, 209, 414, 333
-0.999258, 137, 177, 152, 304
-0.999261, 35, 81, 50, 208
-0.99927, 361, 129, 376, 256
-0.999276, 359, 49, 374, 176
-0.999277, 347, 17, 362, 144
-0.999279, 209, 97, 224, 224
-0.999282, 161, 185, 288, 216
-0.999288, 291, 113, 306, 240
-0.999292, 177, 161, 192, 288
-0.999302, 93, 97, 108, 224
-0.999303, 389, 209, 404, 333
-0.999306, 177, 205, 304, 236
-0.999307, 167, 209, 182, 333
-0.999315, 409, 193, 424, 320
-0.999317, 57, 193, 72, 320
-0.999318, 415, 161, 430, 288
-0.999326, 339, 177, 354, 304
-0.99933, 331, 177, 346, 304
-0.999332, 1, 57, 256, 120
-0.99934, 295, 193, 310, 320
-0.999347, 471, 1, 486, 128
-0.999349, 357, 193, 372, 320
-0.999349, 131, 209, 146, 333
-0.99935, 449, 161, 464, 288
-0.999352, 319, 161, 334, 288
-0.999354, 309, 161, 324, 288
-0.999355, 143, 193, 158, 320
-0.999363, 65, 65, 80, 192
-0.999365, 483, 145, 498, 272
-0.999369, 39, 33, 54, 160
-0.999374, 51, 193, 66, 320
-0.999374, 83, 81, 98, 208
-0.999374, 77, 129, 92, 256
-0.999376, 219, 209, 234, 333
-0.999377, 371, 65, 386, 192
-0.999381, 439, 161, 454, 288
-0.999382, 455, 161, 470, 288
-0.999394, 103, 113, 118, 240
-0.999401, 351, 193, 366, 320
-0.999405, 475, 161, 490, 288
-0.999406, 143, 145, 158, 272
-0.999412, 345, 177, 360, 304
-0.999414, 457, 33, 488, 288
-0.999414, 63, 193, 78, 320
-0.999416, 87, 129, 102, 256
-0.99942, 149, 209, 164, 333
-0.99942, 209, 209, 224, 333
-0.99942, 469, 145, 484, 272
-0.999421, 369, 53, 496, 84
-0.999429, 307, 65, 322, 192
-0.999429, 47, 145, 62, 272
-0.99943, 301, 209, 316, 333
-0.999435, 463, 161, 478, 288
-0.999435, 429, 161, 444, 288
-0.999435, 403, 113, 418, 240
-0.999446, 423, 161, 438, 288
-0.999456, 325, 177, 340, 304
-0.99946, 289, 161, 304, 288
-0.999463, 187, 209, 202, 333
-0.999464, 1, 289, 128, 320
-0.999467, 113, 297, 240, 328
-0.999468, 83, 193, 98, 320
-0.999469, 165, 145, 180, 272
-0.99947, 151, 145, 166, 272
-0.999472, 295, 65, 310, 192
-0.999476, 131, 145, 146, 272
-0.999483, 281, 161, 296, 288
-0.999488, 201, 209, 216, 333
-0.99949, 35, 209, 50, 333
-0.999525, 429, 33, 460, 288
-0.999534, 1, 209, 128, 240
-0.999541, 129, 25, 256, 88
-0.999553, 193, 1, 320, 32
-0.999624, 145, 1, 208, 128
-0.999625, 83, 237, 98, 252
-0.999625, 383, 83, 398, 98
-0.999626, 165, 271, 180, 286
-0.999626, 395, 285, 410, 300
-0.999628, 253, 97, 268, 112
-0.999628, 369, 247, 384, 262
-0.999629, 43, 133, 58, 148
-0.99963, 101, 245, 116, 260
-0.999631, 323, 247, 338, 262
-0.999632, 217, 5, 232, 20
-0.999634, 339, 91, 354, 106
-0.999634, 215, 115, 230, 130
-0.999634, 93, 141, 108, 156
-0.999635, 353, 119, 368, 134
-0.999635, 331, 125, 346, 140
-0.999637, 485, 13, 500, 28
-0.999639, 397, 33, 428, 288
-0.99964, 289, 95, 304, 110
-0.999643, 219, 35, 234, 50
-0.999643, 245, 301, 260, 316
-0.999644, 463, 317, 478, 332
-0.999644, 141, 65, 156, 80
-0.999645, 155, 263, 170, 278
-0.999645, 219, 11, 234, 26
-0.999645, 477, 13, 492, 28
-0.999646, 207, 119, 222, 134
-0.999647, 297, 131, 312, 146
-0.999648, 329, 47, 344, 62
-0.999649, 63, 119, 78, 134
-0.999649, 77, 101, 92, 116
-0.999649, 87, 139, 102, 154
-0.99965, 63, 141, 78, 156
-0.99965, 375, 257, 390, 272
-0.99965, 267, 83, 282, 98
-0.999651, 81, 143, 96, 158
-0.999651, 1, 103, 16, 118
-0.999651, 287, 85, 302, 100
-0.999651, 133, 79, 148, 94
-0.999653, 79, 125, 94, 140
-0.999654, 147, 61, 162, 76
-0.999654, 221, 43, 236, 58
-0.999654, 229, 295, 244, 310
-0.999654, 219, 29, 234, 44
-0.999654, 71, 241, 86, 256
-0.999655, 317, 245, 332, 260
-0.999655, 483, 19, 498, 34
-0.999655, 369, 261, 384, 276
-0.999656, 71, 101, 86, 116
-0.999656, 357, 113, 372, 128
-0.999657, 303, 133, 318, 148
-0.999657, 231, 99, 246, 114
-0.999657, 161, 261, 176, 276
-0.999658, 55, 137, 70, 152
-0.99966, 339, 97, 354, 112
-0.99966, 223, 89, 238, 104
-0.99966, 219, 17, 234, 32
-0.999661, 25, 75, 40, 90
-0.999662, 1, 111, 16, 126
-0.999662, 47, 111, 62, 126
-0.999663, 289, 105, 304, 120
-0.999663, 279, 89, 294, 104
-0.999665, 191, 121, 206, 136
-0.999665, 221, 281, 236, 296
-0.999665, 347, 87, 362, 102
-0.999666, 223, 77, 238, 92
-0.999666, 239, 299, 254, 314
-0.999667, 167, 83, 182, 98
-0.999668, 219, 23, 234, 38
-0.999668, 281, 21, 296, 36
-0.999669, 95, 247, 110, 262
-0.999669, 157, 63, 172, 78
-0.99967, 401, 253, 416, 268
-0.99967, 307, 125, 322, 140
-0.99967, 55, 111, 70, 126
-0.99967, 321, 9, 336, 24
-0.999671, 223, 97, 238, 112
-0.999672, 107, 123, 122, 138
-0.999673, 221, 61, 236, 76
-0.999675, 211, 277, 226, 292
-0.999676, 11, 93, 26, 108
-0.999676, 221, 49, 236, 64
-0.999677, 221, 69, 236, 84
-0.999677, 105, 131, 120, 146
-0.999679, 281, 3, 296, 18
-0.999679, 41, 117, 56, 132
-0.999681, 223, 83, 238, 98
-0.999681, 55, 123, 70, 138
-0.999681, 287, 67, 302, 82
-0.999681, 287, 79, 302, 94
-0.999683, 201, 273, 216, 288
-0.999683, 35, 129, 50, 144
-0.999683, 65, 101, 80, 116
-0.999685, 1, 91, 16, 106
-0.999686, 49, 95, 64, 110
-0.999687, 221, 55, 236, 70
-0.999688, 285, 49, 300, 64
-0.999692, 281, 15, 296, 30
-0.999692, 283, 39, 298, 54
-0.999693, 283, 27, 298, 42
-0.999696, 63, 113, 78, 128
-0.999698, 77, 241, 92, 256
-0.9997, 377, 81, 392, 96
-0.9997, 35, 93, 50, 108
-0.999704, 281, 9, 296, 24
-0.999704, 61, 125, 76, 140
-0.999706, 285, 61, 300, 76
-0.999707, 283, 33, 298, 48
-0.99971, 333, 89, 348, 104
-0.99971, 285, 55, 300, 70
-0.99971, 63, 107, 78, 122
-0.999712, 89, 245, 104, 260
-0.999713, 1, 97, 16, 112
-0.999713, 287, 73, 302, 88
-0.999713, 69, 121, 84, 136
-0.999715, 71, 131, 86, 146
-0.999718, 69, 107, 84, 122
-0.999722, 57, 131, 72, 146
-0.999723, 51, 131, 66, 146
-0.999723, 81, 137, 96, 152
-0.999723, 83, 243, 98, 258
-0.999724, 43, 93, 58, 108
-0.999725, 35, 121, 50, 136
-0.999729, 81, 41, 208, 104
-0.999734, 371, 83, 386, 98
-0.99974, 65, 135, 80, 150
-0.99974, 55, 101, 70, 116
-0.999751, 485, 25, 500, 40
-0.99976, 45, 127, 60, 142
-0.999767, 71, 139, 86, 154
-0.999774, 41, 111, 56, 126
-0.999785, 45, 105, 60, 120
-0.999809, 39, 101, 54, 116
-1.00008, 65, 25, 320, 88
-1.00097, 65, 17, 192, 80
-1.00161, 65, 1, 320, 64
-1.00167, 1, 1, 128, 64
-1.00202, 113, 1, 240, 64
-1.00304, 33, 1, 96, 128
-1.00357, 73, 1, 136, 128
