1886
-0.482794, 161, 1, 416, 333
-0.486808, 1, 65, 500, 320
-0.510649, 1, 1, 500, 333
-0.606303, 161, 65, 416, 320
-0.650693, 257, 1, 500, 333
-0.65154, 65, 65, 320, 320
-0.664363, 33, 1, 288, 333
-0.780878, 257, 1, 500, 256
-0.854342, 241, 1, 368, 333
-0.860945, 145, 65, 272, 320
-0.864033, 241, 33, 368, 288
-0.878095, 193, 1, 320, 333
-0.886178, 145, 1, 272, 333
-0.888338, 193, 33, 320, 288
-0.903007, 1, 97, 500, 224
-0.905688, 305, 1, 432, 333
-0.908767, 1, 177, 500, 304
-0.908991, 97, 65, 224, 320
-0.914836, 289, 65, 416, 320
-0.917399, 353, 1, 480, 333
-0.918434, 81, 1, 208, 333
-0.921837, 161, 81, 416, 208
-0.921955, 353, 1, 480, 256
-0.926611, 33, 161, 288, 288
-0.927086, 1, 1, 128, 333
-0.93003, 1, 49, 500, 176
-0.932256, 129, 145, 384, 272
-0.934875, 49, 65, 176, 320
-0.936032, 193, 193, 448, 320
-0.938785, 145, 81, 272, 208
-0.939621, 257, 33, 500, 160
-0.940366, 225, 145, 352, 272
-0.940544, 241, 65, 368, 192
-0.941666, 193, 49, 320, 176
-0.942689, 1, 1, 500, 128
-0.944717, 161, 33, 416, 160
-0.946866, 161, 193, 288, 320
-0.94723, 201, 49, 264, 176
-0.948294, 1, 65, 128, 320
-0.948937, 97, 209, 352, 333
-0.950338, 225, 129, 480, 256
-0.951133, 145, 33, 272, 160
-0.951196, 65, 81, 320, 208
-0.951349, 225, 209, 352, 333
-0.951659, 273, 1, 400, 128
-0.95259, 145, 145, 272, 272
-0.953328, 257, 49, 320, 176
-0.953619, 241, 209, 304, 333
-0.954221, 1, 209, 256, 333
-0.955341, 169, 65, 232, 128
-0.956674, 49, 161, 176, 288
-0.957155, 1, 161, 128, 288
-0.957235, 241, 209, 304, 272
-0.957555, 209, 177, 272, 304
-0.958686, 161, 81, 224, 208
-0.958963, 81, 65, 208, 192
-0.95938, 209, 73, 272, 136
-0.959416, 113, 209, 240, 333
-0.959813, 249, 57, 312, 120
-0.960301, 1, 177, 64, 304
-0.960324, 121, 193, 184, 320
-0.960506, 33, 161, 96, 288
-0.960596, 257, 81, 500, 208
-0.960839, 233, 145, 296, 272
-0.961094, 281, 17, 344, 144
-0.961567, 233, 81, 296, 208
-0.961691, 49, 209, 176, 333
-0.961777, 289, 81, 352, 208
-0.962301, 121, 217, 184, 280
-0.962934, 81, 161, 144, 288
-0.96372, 17, 153, 80, 216
-0.964341, 153, 193, 216, 320
-0.964978, 305, 97, 432, 224
-0.965039, 97, 161, 224, 288
-0.965288, 145, 145, 208, 272
-0.965526, 65, 33, 320, 160
-0.96589, 257, 161, 320, 288
-0.966025, 313, 97, 376, 224
-0.966135, 145, 97, 208, 160
-0.966165, 273, 145, 400, 272
-0.966587, 49, 209, 112, 333
-0.966803, 305, 49, 432, 176
-0.967083, 217, 201, 280, 264
-0.967201, 177, 33, 240, 160
-0.967614, 185, 97, 248, 224
-0.967946, 193, 49, 256, 112
-0.968213, 369, 49, 496, 176
-0.968331, 273, 65, 336, 128
-0.968611, 1, 209, 128, 333
-0.96889, 177, 209, 240, 333
-0.969132, 129, 65, 192, 192
-0.969163, 153, 33, 216, 160
-0.969262, 145, 209, 208, 272
-0.969578, 193, 97, 320, 224
-0.969604, 225, 1, 352, 128
-0.970369, 265, 209, 328, 333
-0.970634, 249, 89, 312, 152
-0.970781, 129, 73, 192, 136
-0.971199, 273, 193, 400, 320
-0.971462, 177, 217, 240, 280
-0.972027, 57, 161, 120, 288
-0.972095, 41, 169, 104, 232
-0.972267, 281, 161, 344, 288
-0.972281, 9, 217, 72, 280
-0.972715, 241, 89, 368, 152
-0.97272, 1, 177, 64, 240
-0.972798, 297, 1, 360, 64
-0.972937, 265, 201, 328, 264
-0.972947, 193, 57, 320, 120
-0.973023, 169, 89, 232, 152
-0.973081, 97, 209, 160, 333
-0.973623, 81, 225, 144, 288
-0.973959, 201, 177, 264, 240
-0.974094, 9, 129, 72, 256
-0.974367, 253, 201, 284, 264
-0.97443, 233, 145, 296, 208
-0.974675, 25, 209, 88, 333
-0.974829, 241, 33, 304, 288
-0.974944, 161, 209, 288, 272
-0.975023, 289, 25, 352, 88
-0.975082, 265, 225, 328, 288
-0.975108, 161, 89, 288, 152
-0.975505, 193, 97, 256, 160
-0.975525, 209, 225, 272, 288
-0.975611, 9, 249, 72, 312
-0.975828, 169, 113, 232, 176
-0.975919, 241, 209, 272, 272
-0.976035, 121, 249, 184, 312
-0.976047, 297, 97, 360, 160
-0.976058, 313, 33, 376, 160
-0.976129, 145, 65, 272, 128
-0.976199, 153, 233, 216, 296
-0.976307, 241, 233, 304, 296
-0.976527, 121, 145, 184, 272
-0.976711, 81, 169, 144, 232
-0.976959, 417, 17, 480, 144
-0.976989, 337, 97, 400, 224
-0.977094, 281, 65, 344, 320
-0.977242, 265, 209, 296, 272
-0.977332, 237, 193, 268, 320
-0.977455, 337, 49, 400, 176
-0.977594, 49, 241, 176, 304
-0.977661, 313, 177, 376, 304
-0.977739, 217, 49, 280, 112
-0.978159, 241, 185, 304, 248
-0.978274, 193, 33, 256, 288
-0.978473, 225, 33, 288, 160
-0.978726, 113, 217, 240, 280
-0.978748, 369, 1, 496, 128
-0.978762, 433, 81, 496, 208
-0.979259, 329, 185, 392, 248
-0.979458, 145, 49, 208, 112
-0.979589, 281, 57, 312, 120
-0.98001, 161, 113, 288, 176
-0.980086, 265, 193, 296, 320
-0.980103, 49, 217, 112, 280
-0.980193, 285, 17, 316, 144
-0.98025, 73, 209, 136, 333
-0.980371, 265, 25, 328, 88
-0.980406, 417, 97, 480, 160
-0.980477, 209, 201, 336, 264
-0.980486, 225, 225, 352, 288
-0.980569, 141, 161, 172, 288
-0.980682, 217, 65, 280, 320
-0.980705, 225, 153, 352, 216
-0.980762, 321, 177, 448, 304
-0.98079, 153, 65, 216, 320
-0.980859, 353, 129, 480, 256
-0.981014, 81, 201, 144, 264
-0.98111, 129, 65, 192, 320
-0.98112, 49, 193, 112, 256
-0.981236, 209, 49, 240, 112
-0.981355, 249, 177, 280, 304
-0.981401, 265, 57, 296, 120
-0.981447, 65, 217, 192, 280
-0.981473, 49, 257, 112, 320
-0.981492, 297, 65, 328, 128
-0.981756, 121, 177, 184, 240
-0.981918, 137, 217, 168, 280
-0.981933, 225, 177, 352, 240
-0.981952, 241, 121, 304, 184
-0.982138, 129, 177, 160, 304
-0.982158, 161, 209, 192, 272
-0.982248, 193, 81, 224, 144
-0.982384, 297, 73, 360, 136
-0.982578, 277, 217, 308, 280
-0.982598, 169, 89, 200, 152
-0.982718, 289, 209, 352, 333
-0.982772, 177, 249, 240, 312
-0.982779, 393, 33, 456, 160
-0.982851, 105, 65, 168, 128
-0.982875, 225, 177, 256, 304
-0.983045, 81, 113, 208, 240
-0.983144, 1, 209, 128, 272
-0.983148, 329, 113, 392, 176
-0.983176, 137, 153, 200, 216
-0.983196, 153, 209, 184, 333
-0.983258, 273, 17, 400, 80
-0.9835, 257, 1, 320, 128
-0.983576, 185, 65, 216, 192
-0.983582, 217, 249, 280, 312
-0.983637, 433, 73, 496, 136
-0.983654, 97, 81, 224, 144
-0.983674, 209, 33, 240, 160
-0.983686, 1, 153, 128, 216
-0.983725, 221, 49, 252, 112
-0.983754, 237, 161, 268, 224
-0.983798, 257, 201, 384, 264
-0.98382, 5, 193, 36, 256
-0.983856, 305, 65, 368, 320
-0.983872, 289, 145, 352, 208
-0.983934, 321, 121, 448, 184
-0.983964, 157, 161, 188, 288
-0.984018, 229, 49, 260, 176
-0.984064, 245, 65, 276, 128
-0.984146, 125, 217, 156, 280
-0.984169, 321, 145, 384, 208
-0.984175, 141, 209, 172, 333
-0.984218, 229, 193, 260, 256
-0.984222, 153, 73, 184, 136
-0.98424, 289, 217, 352, 280
-0.984255, 345, 89, 408, 152
-0.984329, 281, 1, 344, 333
-0.984336, 273, 41, 400, 104
-0.984341, 269, 49, 300, 176
-0.984476, 177, 233, 304, 296
-0.98449, 153, 233, 184, 296
-0.984538, 361, 49, 424, 176
-0.984624, 241, 65, 368, 128
-0.984629, 273, 89, 336, 152
-0.984681, 145, 145, 272, 208
-0.984691, 13, 161, 44, 288
-0.984772, 137, 65, 168, 128
-0.984778, 193, 33, 320, 96
-0.984784, 225, 129, 352, 192
-0.984904, 1, 185, 128, 248
-0.984983, 193, 1, 256, 333
-0.985033, 145, 185, 272, 248
-0.985084, 25, 177, 56, 240
-0.985274, 253, 65, 284, 192
-0.985296, 257, 233, 288, 296
-0.985342, 53, 249, 84, 312
-0.985352, 285, 33, 316, 96
-0.98536, 1, 113, 128, 240
-0.985383, 301, 1, 332, 128
-0.985431, 17, 209, 48, 272
-0.985497, 409, 73, 472, 136
-0.985511, 153, 65, 184, 192
-0.985534, 233, 25, 296, 88
-0.985558, 9, 169, 40, 232
-0.985578, 237, 145, 268, 272
-0.985674, 361, 113, 424, 240
-0.985828, 113, 249, 240, 312
-0.985834, 321, 1, 448, 128
-0.985986, 49, 177, 176, 240
-0.986051, 377, 41, 440, 104
-0.986073, 129, 41, 256, 104
-0.986103, 209, 129, 272, 256
-0.98622, 185, 105, 216, 168
-0.986314, 245, 233, 276, 296
-0.986437, 273, 145, 304, 272
-0.986439, 65, 161, 96, 288
-0.98645, 409, 33, 472, 96
-0.98651, 297, 25, 328, 88
-0.986512, 369, 81, 496, 144
-0.986537, 277, 209, 308, 333
-0.986559, 321, 97, 352, 224
-0.986608, 169, 113, 200, 176
-0.986647, 153, 185, 216, 248
-0.986674, 257, 1, 320, 333
-0.986776, 305, 65, 432, 128
-0.986777, 297, 49, 360, 112
-0.986904, 173, 233, 204, 296
-0.986905, 169, 81, 200, 208
-0.986941, 229, 217, 260, 280
-0.986958, 233, 65, 264, 128
-0.986967, 297, 65, 328, 192
-0.986986, 345, 97, 376, 224
-0.986998, 233, 1, 296, 333
-0.987016, 53, 177, 84, 304
-0.987083, 185, 161, 248, 288
-0.987162, 177, 193, 208, 320
-0.987242, 89, 249, 152, 312
-0.987255, 181, 65, 212, 128
-0.98727, 113, 161, 144, 288
-0.987272, 289, 193, 352, 256
-0.987585, 161, 137, 224, 200
-0.987593, 89, 161, 120, 288
-0.987633, 97, 1, 224, 128
-0.987675, 305, 169, 368, 232
-0.987794, 333, 97, 364, 224
-0.987845, 305, 201, 432, 264
-0.987877, 329, 1, 392, 256
-0.987968, 321, 81, 384, 144
-0.988, 289, 225, 320, 288
-0.98805, 457, 105, 488, 168
-0.988128, 205, 73, 236, 136
-0.988153, 385, 65, 448, 128
-0.988185, 253, 89, 284, 152
-0.988314, 337, 57, 400, 120
-0.988334, 61, 161, 92, 224
-0.988372, 281, 169, 344, 232
-0.988379, 1, 225, 32, 288
-0.988418, 1, 193, 32, 320
-0.988499, 289, 97, 416, 160
-0.988519, 309, 81, 340, 208
-0.988565, 353, 41, 480, 104
-0.988588, 277, 193, 308, 256
-0.988663, 49, 17, 176, 144
-0.988709, 185, 217, 216, 280
-0.988748, 17, 145, 48, 208
-0.98876, 337, 161, 400, 288
-0.988773, 189, 209, 220, 333
-0.988871, 33, 209, 64, 333
-0.988882, 241, 213, 304, 244
-0.989037, 41, 145, 104, 208
-0.9891, 217, 97, 280, 160
-0.989101, 109, 225, 140, 288
-0.989109, 129, 177, 160, 240
-0.989138, 145, 257, 208, 320
-0.989146, 433, 17, 496, 80
-0.98931, 329, 33, 392, 96
-0.989363, 77, 177, 108, 304
-0.989388, 25, 273, 88, 333
-0.989391, 269, 81, 300, 144
-0.989391, 97, 105, 224, 168
-0.989446, 1, 265, 128, 328
-0.989484, 305, 1, 336, 64
-0.989494, 61, 225, 92, 288
-0.989515, 125, 241, 156, 304
-0.989555, 305, 177, 432, 240
-0.989572, 149, 209, 180, 272
-0.989581, 45, 153, 76, 216
-0.989589, 85, 217, 116, 280
-0.989635, 233, 241, 264, 304
-0.989659, 37, 161, 68, 288
-0.989666, 221, 73, 252, 136
-0.989686, 105, 81, 168, 208
-0.989687, 173, 145, 204, 272
-0.989711, 201, 193, 232, 320
-0.989718, 329, 105, 360, 168
-0.989757, 65, 209, 320, 272
-0.989758, 249, 61, 312, 92
-0.989807, 141, 81, 172, 208
-0.989822, 37, 217, 68, 280
-0.989933, 165, 209, 196, 333
-0.989956, 321, 1, 384, 64
-0.98997, 461, 49, 492, 176
-0.989987, 285, 161, 316, 288
-0.989987, 157, 105, 188, 168
-0.990018, 289, 201, 320, 264
-0.99005, 241, 97, 272, 224
-0.990076, 249, 233, 312, 264
-0.990123, 325, 49, 356, 176
-0.99016, 65, 145, 128, 208
-0.990167, 29, 153, 60, 216
-0.990183, 385, 113, 448, 240
-0.990232, 305, 1, 368, 333
-0.990234, 309, 65, 340, 128
-0.990275, 193, 57, 256, 88
-0.990279, 285, 65, 316, 192
-0.990329, 1, 233, 128, 296
-0.990349, 369, 89, 432, 152
-0.990357, 69, 257, 100, 320
-0.990408, 217, 229, 280, 260
-0.990425, 293, 1, 324, 64
-0.990438, 353, 177, 416, 240
-0.990444, 273, 121, 400, 184
-0.99047, 177, 85, 240, 116
-0.990497, 241, 201, 304, 232
-0.990505, 257, 177, 288, 240
-0.990527, 197, 49, 228, 176
-0.99055, 257, 89, 320, 120
-0.990559, 317, 145, 348, 272
-0.990581, 121, 97, 184, 160
-0.990589, 49, 145, 176, 208
-0.990657, 105, 65, 168, 320
-0.990684, 409, 1, 472, 256
-0.990708, 193, 57, 224, 120
-0.99072, 17, 157, 80, 188
-0.990721, 129, 237, 192, 268
-0.990745, 241, 49, 272, 176
-0.990755, 153, 237, 216, 268
-0.990789, 97, 193, 224, 256
-0.990806, 1, 1, 32, 128
-0.99084, 145, 73, 208, 104
-0.990847, 173, 209, 204, 272
-0.990863, 121, 221, 184, 252
-0.990882, 217, 77, 280, 108
-0.990949, 225, 169, 256, 232
-0.990978, 265, 209, 328, 240
-0.991022, 161, 89, 416, 152
-0.991031, 121, 249, 184, 280
-0.991041, 241, 185, 272, 248
-0.991054, 97, 241, 160, 272
-0.991058, 409, 81, 472, 208
-0.991062, 337, 17, 464, 80
-0.991074, 169, 97, 232, 128
-0.991085, 265, 221, 328, 252
-0.991114, 145, 93, 208, 124
-0.991121, 209, 197, 272, 228
-0.991131, 169, 65, 232, 96
-0.991149, 213, 209, 244, 333
-0.991168, 1, 217, 64, 248
-0.991169, 1, 253, 64, 284
-0.991176, 9, 169, 72, 200
-0.991179, 141, 241, 172, 304
-0.991199, 217, 217, 280, 248
-0.991204, 41, 257, 72, 320
-0.991219, 141, 89, 172, 152
-0.991226, 65, 185, 96, 248
-0.991229, 145, 105, 208, 136
-0.991239, 85, 177, 116, 240
-0.991288, 129, 209, 192, 240
-0.99129, 289, 77, 352, 108
-0.991314, 209, 105, 272, 136
-0.991332, 225, 241, 288, 272
-0.991369, 209, 89, 272, 120
-0.991403, 153, 213, 216, 244
-0.99143, 329, 145, 360, 208
-0.99143, 25, 253, 88, 284
-0.991439, 177, 193, 240, 256
-0.991451, 177, 113, 240, 144
-0.991463, 145, 249, 208, 280
-0.991471, 265, 77, 328, 108
-0.991493, 193, 69, 256, 100
-0.991501, 233, 185, 296, 216
-0.991522, 81, 57, 208, 120
-0.991528, 289, 221, 352, 252
-0.991608, 281, 41, 344, 72
-0.99162, 145, 169, 176, 232
-0.991663, 273, 225, 400, 288
-0.99167, 101, 161, 132, 288
-0.991675, 65, 209, 96, 333
-0.991708, 305, 101, 368, 132
-0.991713, 1, 201, 64, 232
-0.991721, 81, 173, 144, 204
-0.991731, 257, 1, 320, 64
-0.991739, 121, 81, 184, 112
-0.991749, 197, 113, 228, 176
-0.991784, 465, 73, 496, 136
-0.991792, 273, 153, 400, 216
-0.991793, 33, 169, 96, 200
-0.991816, 281, 93, 344, 124
-0.991855, 1, 189, 64, 220
-0.991867, 49, 249, 112, 280
-0.991875, 445, 89, 476, 152
-0.991877, 281, 53, 344, 84
-0.99188, 233, 157, 296, 188
-0.991892, 81, 229, 144, 260
-0.991898, 313, 209, 376, 272
-0.991924, 425, 89, 488, 120
-0.991931, 193, 233, 256, 264
-0.991941, 261, 145, 292, 272
-0.991964, 369, 105, 496, 168
-0.991968, 313, 97, 344, 160
-0.992026, 177, 249, 240, 280
-0.992047, 41, 185, 104, 216
-0.992047, 281, 81, 312, 144
-0.992071, 145, 121, 208, 152
-0.992073, 337, 121, 400, 152
-0.992075, 289, 25, 352, 56
-0.992078, 145, 61, 208, 92
-0.992122, 241, 49, 304, 80
-0.992124, 305, 1, 368, 32
-0.992127, 225, 65, 288, 96
-0.992152, 129, 65, 384, 128
-0.992158, 233, 173, 296, 204
-0.992159, 217, 49, 280, 80
-0.9922, 433, 1, 496, 256
-0.9922, 185, 217, 248, 248
-0.992209, 369, 17, 432, 80
-0.992211, 213, 97, 244, 160
-0.992222, 361, 1, 424, 333
-0.99223, 57, 161, 120, 192
-0.992234, 281, 121, 344, 184
-0.992244, 45, 185, 76, 248
-0.992258, 293, 209, 324, 333
-0.992262, 121, 69, 184, 100
-0.992265, 13, 249, 44, 312
-0.992266, 433, 101, 496, 132
-0.992273, 25, 145, 56, 272
-0.992277, 9, 241, 72, 272
-0.992282, 457, 97, 488, 224
-0.992283, 81, 209, 144, 240
-0.992285, 233, 145, 296, 176
-0.9923, 57, 173, 120, 204
-0.992305, 105, 173, 168, 204
-0.992312, 97, 169, 224, 232
-0.992333, 321, 177, 384, 208
-0.992338, 329, 1, 392, 333
-0.992343, 25, 217, 88, 248
-0.992357, 281, 197, 344, 228
-0.99236, 281, 153, 344, 184
-0.99237, 213, 217, 244, 280
-0.992375, 273, 233, 336, 264
-0.99239, 249, 229, 280, 260
-0.992401, 121, 97, 184, 128
-0.992403, 185, 25, 248, 88
-0.992409, 329, 193, 392, 224
-0.992412, 185, 45, 248, 76
-0.992418, 329, 81, 360, 144
-0.992425, 345, 181, 408, 212
-0.992426, 201, 185, 264, 216
-0.992429, 273, 217, 304, 248
-0.992462, 41, 201, 104, 232
-0.992471, 273, 1, 336, 32
-0.992476, 337, 1, 400, 128
-0.992494, 385, 113, 448, 176
-0.992496, 273, 65, 336, 96
-0.992497, 49, 261, 112, 292
-0.992502, 9, 265, 72, 296
-0.992504, 145, 225, 208, 256
-0.992506, 49, 113, 112, 240
-0.99251, 353, 1, 416, 256
-0.992533, 73, 209, 104, 272
-0.992536, 333, 145, 364, 272
-0.992561, 201, 253, 264, 284
-0.992562, 241, 125, 304, 156
-0.992577, 329, 93, 392, 124
-0.992597, 285, 69, 316, 100
-0.992599, 161, 237, 192, 268
-0.992602, 305, 113, 368, 144
-0.992604, 469, 97, 500, 160
-0.992607, 317, 1, 348, 64
-0.992624, 73, 249, 136, 280
-0.992626, 273, 205, 304, 236
-0.992643, 253, 209, 284, 240
-0.992647, 153, 201, 216, 232
-0.992651, 305, 13, 368, 44
-0.992674, 369, 53, 432, 84
-0.992683, 265, 1, 296, 128
-0.992685, 341, 185, 372, 248
-0.992692, 249, 101, 312, 132
-0.992732, 329, 109, 392, 140
-0.992752, 297, 77, 328, 108
-0.992757, 129, 165, 192, 196
-0.992759, 261, 225, 292, 256
-0.992765, 173, 237, 204, 268
-0.992768, 41, 237, 104, 268
-0.99277, 237, 229, 268, 260
-0.992777, 285, 221, 316, 252
-0.992787, 249, 241, 280, 272
-0.992791, 237, 201, 268, 232
-0.992794, 353, 121, 416, 184
-0.99281, 221, 249, 252, 312
-0.992817, 49, 213, 112, 244
-0.992817, 321, 205, 384, 236
-0.992821, 141, 245, 172, 276
-0.992828, 201, 117, 264, 148
-0.992841, 193, 165, 256, 196
-0.992842, 433, 49, 496, 112
-0.992853, 105, 209, 168, 240
-0.992856, 241, 113, 304, 144
-0.992859, 409, 9, 472, 72
-0.992861, 1, 1, 64, 128
-0.992867, 313, 81, 376, 112
-0.992872, 161, 221, 192, 252
-0.992874, 53, 273, 84, 333
-0.992886, 41, 273, 104, 304
-0.992892, 261, 237, 292, 268
-0.992899, 213, 49, 244, 80
-0.99291, 253, 197, 284, 228
-0.992916, 165, 89, 196, 120
-0.992918, 181, 101, 212, 132
-0.992921, 361, 161, 424, 288
-0.99293, 289, 209, 352, 240
-0.992936, 145, 209, 176, 240
-0.992936, 121, 245, 152, 276
-0.992942, 289, 41, 320, 72
-0.992944, 353, 109, 416, 140
-0.992945, 25, 193, 88, 256
-0.992947, 53, 253, 84, 284
-0.992952, 169, 113, 200, 144
-0.992958, 269, 57, 300, 88
-0.99296, 409, 101, 472, 132
-0.992962, 153, 77, 184, 108
-0.992969, 1, 145, 32, 272
-0.992973, 157, 101, 188, 132
-0.992975, 237, 217, 268, 248
-0.992976, 297, 141, 360, 172
-0.992989, 141, 65, 172, 96
-0.992999, 81, 197, 144, 228
-0.993, 97, 73, 160, 104
-0.993006, 145, 89, 176, 120
-0.993006, 9, 197, 40, 228
-0.99301, 125, 217, 156, 248
-0.993011, 201, 65, 232, 96
-0.993013, 237, 165, 268, 196
-0.99302, 277, 233, 308, 264
-0.993027, 401, 85, 464, 116
-0.993028, 385, 121, 448, 152
-0.993041, 177, 125, 240, 156
-0.993056, 141, 229, 172, 260
-0.993061, 153, 249, 184, 280
-0.993064, 49, 225, 112, 256
-0.993066, 361, 65, 424, 128
-0.993068, 225, 233, 256, 264
-0.99308, 329, 41, 392, 72
-0.993083, 385, 69, 448, 100
-0.993083, 229, 61, 260, 92
-0.993085, 145, 1, 208, 333
-0.993086, 21, 153, 52, 184
-0.993086, 17, 145, 80, 176
-0.993088, 17, 209, 48, 240
-0.993091, 297, 65, 360, 96
-0.993093, 337, 57, 400, 88
-0.993094, 377, 133, 440, 164
-0.993101, 97, 161, 160, 192
-0.993109, 409, 129, 472, 160
-0.993112, 261, 89, 292, 120
-0.993113, 241, 189, 272, 220
-0.993113, 409, 117, 472, 148
-0.993114, 317, 1, 348, 32
-0.99312, 457, 105, 488, 136
-0.993121, 45, 157, 76, 188
-0.993132, 281, 57, 312, 88
-0.993133, 173, 137, 204, 200
-0.993134, 321, 165, 384, 196
-0.993145, 249, 113, 280, 176
-0.993156, 213, 77, 244, 108
-0.993157, 65, 165, 96, 196
-0.993163, 1, 229, 32, 260
-0.993164, 29, 201, 60, 232
-0.993166, 297, 57, 328, 88
-0.993176, 293, 29, 324, 60
-0.993178, 193, 113, 224, 144
-0.99319, 65, 241, 96, 272
-0.993194, 133, 77, 164, 108
-0.993197, 197, 249, 228, 312
-0.993198, 173, 125, 204, 156
-0.993199, 461, 85, 492, 116
-0.993204, 237, 245, 268, 276
-0.993205, 201, 89, 232, 120
-0.993206, 157, 209, 188, 240
-0.993216, 9, 177, 40, 208
-0.993217, 225, 73, 256, 104
-0.993222, 165, 253, 196, 284
-0.993234, 245, 65, 276, 96
-0.993241, 85, 177, 116, 208
-0.993247, 185, 77, 216, 108
-0.993248, 257, 57, 288, 88
-0.993253, 301, 89, 332, 120
-0.993254, 189, 65, 220, 96
-0.993255, 341, 113, 372, 176
-0.993256, 1, 253, 32, 284
-0.993262, 445, 93, 476, 124
-0.993269, 21, 209, 52, 333
-0.993271, 317, 101, 348, 132
-0.993273, 113, 229, 144, 260
-0.993282, 133, 205, 164, 236
-0.993285, 193, 53, 224, 84
-0.993288, 5, 213, 36, 244
-0.99329, 337, 109, 368, 140
-0.993291, 229, 185, 260, 216
-0.993293, 277, 45, 308, 76
-0.993294, 353, 177, 384, 208
-0.993295, 129, 121, 192, 184
-0.993297, 305, 17, 336, 48
-0.99332, 85, 245, 116, 276
-0.993325, 313, 85, 344, 116
-0.993327, 1, 1, 32, 64
-0.993333, 385, 1, 448, 333
-0.993342, 341, 189, 372, 220
-0.993343, 285, 89, 316, 120
-0.993349, 13, 253, 44, 284
-0.99335, 225, 85, 256, 116
-0.993355, 65, 177, 96, 208
-0.993357, 109, 169, 140, 200
-0.993358, 9, 161, 40, 192
-0.99336, 469, 97, 500, 128
-0.99336, 169, 101, 200, 132
-0.993363, 265, 193, 296, 224
-0.993364, 157, 113, 188, 240
-0.993365, 73, 253, 104, 284
-0.993369, 265, 145, 328, 208
-0.993376, 273, 85, 304, 116
-0.993379, 33, 213, 64, 244
-0.993381, 297, 225, 328, 256
-0.993383, 81, 225, 112, 256
-0.993386, 185, 125, 216, 156
-0.99339, 125, 177, 156, 208
-0.99339, 177, 249, 208, 280
-0.993391, 353, 117, 384, 148
-0.993392, 241, 177, 272, 208
-0.993393, 173, 69, 204, 100
-0.993394, 25, 189, 56, 220
-0.993395, 173, 225, 204, 256
-0.9934, 137, 257, 168, 288
-0.993402, 293, 1, 324, 32
-0.993404, 25, 169, 56, 200
-0.993408, 173, 213, 204, 244
-0.993408, 129, 233, 160, 264
-0.993408, 253, 101, 284, 132
-0.99341, 181, 113, 212, 144
-0.99341, 285, 209, 316, 240
-0.993413, 53, 169, 84, 200
-0.993414, 197, 209, 228, 272
-0.993414, 117, 209, 148, 333
-0.993417, 157, 157, 188, 188
-0.99342, 53, 273, 84, 304
-0.993421, 225, 1, 352, 64
-0.993422, 41, 197, 72, 228
-0.993426, 33, 153, 64, 184
-0.993429, 77, 213, 108, 244
-0.99343, 217, 97, 248, 128
-0.993431, 313, 221, 344, 252
-0.993443, 13, 225, 44, 256
-0.993457, 145, 165, 176, 196
-0.99346, 329, 89, 360, 120
-0.993465, 193, 249, 224, 280
-0.99347, 225, 165, 256, 196
-0.993471, 237, 153, 268, 184
-0.99353, 417, 121, 480, 184
-0.993545, 225, 57, 480, 120
-0.993619, 49, 225, 80, 288
-0.993626, 161, 193, 416, 256
-0.993634, 193, 121, 256, 184
-0.99364, 161, 217, 416, 280
-0.993651, 321, 145, 448, 208
-0.99382, 161, 113, 416, 176
-0.99382, 65, 161, 320, 224
-0.993844, 209, 81, 240, 208
-0.993858, 81, 241, 112, 304
-0.993875, 433, 1, 496, 333
-0.994135, 201, 153, 264, 216
-0.994141, 445, 1, 476, 128
-0.994146, 277, 201, 292, 264
-0.994178, 17, 129, 80, 192
-0.994178, 369, 177, 496, 304
-0.994265, 257, 97, 320, 224
-0.994266, 49, 265, 176, 328
-0.994297, 385, 137, 448, 200
-0.994299, 209, 25, 272, 88
-0.994301, 313, 33, 344, 160
-0.994309, 197, 33, 228, 96
-0.994342, 353, 185, 480, 248
-0.994358, 169, 17, 200, 144
-0.994393, 165, 257, 196, 320
-0.994405, 225, 205, 352, 236
-0.994437, 241, 93, 368, 124
-0.994463, 345, 49, 376, 176
-0.994497, 193, 33, 448, 96
-0.994523, 409, 1, 472, 333
-0.994548, 237, 137, 268, 200
-0.994548, 117, 177, 148, 240
-0.994569, 97, 145, 160, 208
-0.994575, 241, 161, 256, 224
-0.99458, 105, 17, 168, 144
-0.994585, 161, 229, 288, 260
-0.994588, 161, 93, 288, 124
-0.994658, 313, 209, 344, 333
-0.99466, 293, 89, 324, 152
-0.994666, 33, 249, 288, 312
-0.994703, 49, 245, 176, 276
-0.994722, 313, 217, 344, 280
-0.994758, 253, 209, 268, 272
-0.99488, 297, 161, 328, 288
-0.994888, 1, 25, 128, 88
-0.994896, 1, 33, 64, 288
-0.994924, 129, 137, 384, 200
-0.994925, 197, 113, 228, 240
-0.994972, 401, 49, 432, 176
-0.99501, 65, 185, 320, 248
-0.99506, 97, 145, 224, 208
-0.995072, 105, 201, 136, 264
-0.995082, 369, 145, 496, 208
-0.995085, 357, 113, 388, 240
-0.995093, 33, 1, 96, 333
-0.995094, 161, 109, 288, 140
-0.995095, 161, 217, 288, 248
-0.995135, 169, 57, 200, 120
-0.995156, 145, 77, 272, 108
-0.99517, 157, 153, 188, 216
-0.995205, 33, 65, 96, 320
-0.995207, 189, 161, 220, 288
-0.995214, 193, 169, 448, 232
-0.99522, 445, 1, 476, 64
-0.99523, 29, 241, 60, 304
-0.99523, 241, 229, 368, 260
-0.995254, 165, 185, 196, 248
-0.995294, 353, 89, 384, 152
-0.995376, 377, 185, 440, 248
-0.995377, 225, 153, 352, 184
-0.995391, 1, 81, 500, 144
-0.995411, 193, 57, 320, 88
-0.995461, 149, 17, 180, 144
-0.995469, 185, 97, 200, 160
-0.995501, 449, 65, 480, 128
-0.995504, 269, 241, 300, 304
-0.995519, 445, 97, 476, 224
-0.995545, 247, 209, 262, 272
-0.995559, 97, 225, 128, 288
-0.995623, 201, 1, 264, 128
-0.995626, 241, 193, 256, 256
-0.995634, 465, 1, 496, 128
-0.995634, 113, 233, 240, 264
-0.995647, 53, 129, 84, 256
-0.995657, 1, 25, 64, 88
-0.995693, 257, 201, 500, 264
-0.995695, 65, 233, 192, 264
-0.995723, 287, 225, 302, 288
-0.995729, 301, 225, 332, 288
-0.995754, 373, 49, 404, 176
-0.995775, 265, 201, 280, 264
-0.995776, 293, 57, 308, 120
-0.995785, 185, 241, 216, 304
-0.995814, 257, 1, 500, 64
-0.995821, 165, 217, 180, 280
-0.995833, 353, 169, 384, 232
-0.995837, 409, 145, 472, 272
-0.995857, 73, 161, 104, 224
-0.995893, 55, 257, 70, 320
-0.995902, 89, 209, 120, 333
-0.995902, 305, 1, 320, 64
-0.995914, 179, 113, 194, 176
-0.99592, 1, 145, 500, 208
-0.995931, 225, 249, 352, 312
-0.995946, 113, 213, 240, 244
-0.995957, 225, 97, 256, 224
-0.995989, 271, 209, 286, 272
-0.995995, 209, 249, 240, 312
-0.996002, 209, 81, 336, 112
-0.996005, 1, 213, 128, 244
-0.996018, 145, 201, 272, 232
-0.996021, 361, 33, 392, 160
-0.996022, 139, 217, 154, 280
-0.996027, 149, 49, 180, 112
-0.996028, 153, 257, 184, 320
-0.996033, 287, 49, 302, 112
-0.99605, 425, 161, 488, 224
-0.996073, 273, 33, 304, 96
-0.996103, 1, 209, 500, 272
-0.996108, 169, 81, 184, 144
-0.99611, 241, 105, 368, 136
-0.99612, 1, 57, 500, 120
-0.996126, 259, 233, 274, 296
-0.996129, 161, 257, 288, 320
-0.996133, 299, 65, 314, 128
-0.996164, 279, 57, 294, 120
-0.996169, 433, 17, 464, 144
-0.996178, 265, 57, 280, 120
-0.996187, 177, 89, 192, 152
-0.996187, 193, 69, 320, 100
-0.996196, 33, 129, 288, 192
-0.996201, 105, 1, 168, 333
-0.996218, 305, 73, 320, 136
-0.99625, 259, 201, 274, 264
-0.996251, 225, 189, 352, 220
-0.996251, 225, 217, 352, 248
-0.996258, 161, 73, 176, 136
-0.996262, 33, 81, 288, 144
-0.996267, 1, 161, 128, 192
-0.996285, 153, 65, 168, 128
-0.99629, 129, 241, 384, 304
-0.9963, 217, 121, 280, 184
-0.99631, 7, 193, 22, 256
-0.996317, 131, 217, 146, 280
-0.996317, 231, 49, 246, 112
-0.996322, 241, 1, 272, 128
-0.996342, 397, 49, 428, 112
-0.996369, 147, 57, 162, 120
-0.996373, 1, 249, 32, 312
-0.996374, 145, 217, 160, 280
-0.996391, 161, 129, 288, 160
-0.996395, 195, 57, 210, 120
-0.996397, 225, 137, 480, 200
-0.996407, 177, 217, 192, 280
-0.99641, 257, 89, 500, 152
-0.996423, 445, 49, 476, 176
-0.996435, 257, 113, 500, 176
-0.996445, 145, 61, 272, 92
-0.996449, 113, 249, 240, 280
-0.996455, 219, 41, 234, 104
-0.996478, 321, 125, 448, 156
-0.996482, 65, 221, 192, 252
-0.996486, 317, 145, 348, 208
-0.996502, 469, 97, 500, 224
-0.996506, 145, 153, 272, 184
-0.996508, 325, 1, 356, 128
-0.996518, 153, 209, 168, 272
-0.996526, 65, 105, 320, 168
-0.99653, 13, 169, 28, 232
-0.996541, 193, 105, 208, 168
-0.996551, 225, 165, 352, 196
-0.996555, 1, 233, 500, 296
-0.996599, 161, 141, 288, 172
-0.996604, 205, 73, 220, 136
-0.996604, 1, 249, 128, 280
-0.996618, 385, 1, 448, 256
-0.996621, 257, 225, 500, 288
-0.996623, 19, 153, 34, 216
-0.996636, 145, 49, 272, 80
-0.996637, 1, 1, 128, 64
-0.996638, 253, 241, 268, 304
-0.996639, 235, 177, 250, 240
-0.99664, 7, 233, 22, 296
-0.996654, 33, 57, 288, 120
-0.99666, 161, 249, 288, 280
-0.996671, 1, 121, 500, 184
-0.996675, 289, 201, 304, 264
-0.996682, 105, 209, 136, 333
-0.996691, 273, 49, 400, 80
-0.996691, 265, 225, 280, 288
-0.996694, 171, 105, 186, 168
-0.996694, 49, 257, 176, 288
-0.996695, 187, 121, 202, 184
-0.996718, 81, 65, 144, 320
-0.996719, 249, 41, 280, 104
-0.996729, 73, 1, 136, 333
-0.996729, 105, 41, 168, 104
-0.99673, 1, 1, 128, 128
-0.996745, 213, 57, 228, 120
-0.99675, 259, 65, 274, 128
-0.99675, 193, 45, 320, 76
-0.996776, 245, 233, 260, 296
-0.996786, 97, 81, 224, 112
-0.996803, 417, 33, 448, 160
-0.996805, 177, 9, 304, 72
-0.996809, 421, 25, 452, 88
-0.996817, 283, 201, 298, 264
-0.996835, 61, 249, 76, 312
-0.996835, 271, 57, 286, 120
-0.996835, 105, 169, 136, 232
-0.996837, 253, 185, 268, 248
-0.996848, 209, 241, 336, 272
-0.996853, 273, 217, 400, 248
-0.996855, 175, 241, 190, 304
-0.996856, 297, 25, 312, 88
-0.996858, 225, 141, 352, 172
-0.996866, 225, 49, 240, 112
-0.996894, 249, 65, 264, 128
-0.996902, 285, 137, 316, 200
-0.996906, 1, 225, 16, 288
-0.996911, 17, 209, 32, 272
-0.996915, 29, 169, 44, 232
-0.996963, 255, 97, 270, 160
-0.99698, 305, 89, 432, 120
-0.996983, 385, 49, 416, 176
-0.996987, 1, 129, 128, 192
-0.997, 65, 209, 192, 240
-0.99701, 113, 93, 240, 124
-0.997011, 345, 153, 408, 216
-0.997021, 253, 17, 284, 144
-0.997023, 145, 165, 272, 196
-0.997024, 25, 201, 40, 264
-0.99703, 285, 33, 316, 288
-0.997036, 1, 273, 64, 333
-0.997039, 49, 173, 176, 204
-0.997039, 169, 1, 232, 333
-0.997044, 273, 29, 400, 60
-0.997044, 157, 233, 172, 296
-0.997081, 275, 233, 290, 296
-0.997084, 227, 73, 242, 136
-0.997111, 239, 57, 254, 120
-0.997133, 9, 1, 72, 333
-0.997139, 291, 25, 306, 88
-0.997145, 187, 73, 202, 136
-0.997149, 247, 177, 262, 240
-0.99715, 125, 225, 140, 288
-0.997152, 35, 169, 50, 232
-0.997157, 225, 177, 352, 208
-0.997189, 23, 177, 38, 240
-0.997196, 255, 229, 270, 260
-0.997206, 155, 89, 170, 152
-0.997211, 297, 217, 312, 280
-0.997214, 129, 17, 256, 80
-0.997223, 343, 105, 358, 168
-0.997224, 49, 81, 176, 144
-0.997225, 129, 17, 192, 144
-0.997226, 29, 145, 44, 208
-0.997255, 183, 217, 198, 280
-0.997258, 43, 193, 58, 256
-0.997263, 337, 105, 352, 168
-0.997278, 163, 97, 178, 160
-0.997282, 81, 33, 208, 96
-0.997286, 305, 121, 368, 184
-0.997293, 1, 169, 500, 232
-0.997306, 147, 81, 162, 144
-0.997311, 211, 81, 226, 144
-0.99732, 35, 145, 50, 208
-0.997335, 239, 165, 254, 196
-0.99734, 145, 189, 272, 220
-0.997348, 237, 65, 268, 320
-0.99735, 241, 61, 368, 92
-0.997357, 221, 73, 236, 136
-0.997365, 145, 177, 160, 240
-0.997367, 205, 49, 220, 112
-0.997375, 277, 205, 292, 236
-0.997383, 141, 241, 156, 304
-0.997386, 17, 225, 144, 256
-0.997388, 273, 33, 304, 288
-0.997389, 135, 249, 150, 312
-0.997399, 247, 153, 262, 216
-0.997408, 21, 233, 36, 296
-0.99741, 83, 177, 98, 240
-0.99742, 63, 161, 78, 224
-0.997423, 13, 233, 28, 296
-0.997425, 189, 209, 204, 272
-0.997431, 241, 121, 368, 152
-0.99744, 1, 173, 128, 204
-0.997444, 195, 81, 210, 144
-0.997448, 125, 129, 156, 256
-0.997456, 73, 225, 88, 288
-0.997462, 151, 169, 166, 232
-0.997467, 273, 197, 400, 228
-0.997475, 353, 233, 480, 296
-0.997481, 257, 65, 288, 320
-0.997489, 139, 177, 154, 240
-0.997498, 273, 77, 400, 108
-0.997499, 85, 217, 100, 280
-0.997507, 327, 1, 342, 64
-0.997508, 73, 161, 88, 224
-0.997508, 169, 241, 184, 304
-0.99752, 171, 217, 186, 280
-0.997521, 239, 225, 254, 288
-0.997537, 349, 105, 364, 168
-0.997537, 175, 237, 190, 268
-0.997561, 463, 105, 478, 168
-0.997562, 13, 1, 44, 128
-0.997564, 141, 65, 156, 128
-0.997566, 333, 137, 348, 200
-0.997583, 273, 97, 304, 224
-0.997587, 261, 229, 276, 260
-0.997594, 469, 81, 484, 144
-0.997599, 149, 241, 164, 304
-0.997603, 67, 249, 82, 312
-0.997606, 321, 113, 448, 144
-0.997608, 281, 225, 296, 288
-0.997609, 269, 225, 284, 256
-0.997634, 1, 185, 128, 216
-0.997648, 317, 65, 332, 128
-0.997649, 289, 17, 416, 48
-0.997661, 79, 233, 94, 296
-0.997665, 217, 97, 232, 160
-0.997667, 261, 89, 276, 152
-0.997673, 233, 225, 248, 288
-0.997675, 119, 225, 134, 288
-0.997679, 91, 217, 106, 280
-0.9977, 97, 33, 352, 96
-0.997701, 133, 177, 148, 240
-0.997706, 41, 145, 56, 208
-0.99771, 183, 121, 198, 152
-0.997713, 195, 217, 210, 280
-0.99772, 329, 97, 344, 160
-0.997723, 297, 65, 328, 320
-0.997725, 353, 101, 480, 132
-0.997729, 1, 197, 128, 228
-0.997736, 321, 137, 448, 168
-0.997742, 57, 153, 72, 216
-0.997744, 481, 97, 496, 160
-0.997746, 251, 217, 266, 248
-0.99775, 311, 73, 326, 136
-0.997751, 175, 113, 190, 144
-0.997752, 471, 105, 486, 168
-0.997762, 425, 193, 488, 320
-0.997764, 249, 229, 264, 260
-0.997767, 353, 77, 480, 108
-0.997767, 325, 193, 356, 320
-0.997772, 65, 225, 80, 288
-0.997775, 91, 177, 106, 240
-0.997791, 1, 193, 16, 256
-0.997818, 185, 113, 216, 240
-0.997835, 167, 105, 182, 136
-0.997843, 369, 65, 496, 96
-0.997846, 177, 65, 208, 320
-0.997855, 147, 85, 162, 116
-0.997861, 345, 177, 376, 304
-0.997877, 129, 9, 384, 72
-0.997878, 289, 1, 416, 32
-0.997884, 279, 217, 294, 248
-0.997891, 155, 93, 170, 124
-0.997895, 289, 225, 304, 256
-0.997907, 1, 261, 128, 292
-0.997917, 289, 53, 304, 84
-0.99794, 305, 73, 320, 104
-0.99795, 369, 89, 496, 120
-0.997953, 397, 97, 428, 224
-0.997956, 251, 193, 266, 224
-0.997965, 161, 65, 192, 320
-0.997971, 97, 109, 224, 140
-0.997972, 313, 65, 344, 320
-0.997976, 289, 205, 304, 236
-0.99799, 149, 65, 180, 320
-0.997996, 97, 65, 224, 96
-0.997998, 213, 1, 244, 256
-0.99801, 135, 249, 150, 280
-0.998023, 385, 177, 448, 304
-0.998037, 161, 97, 176, 128
-0.998037, 209, 33, 336, 64
-0.998038, 193, 61, 208, 92
-0.99804, 77, 129, 108, 256
-0.998042, 253, 241, 268, 272
-0.998046, 289, 61, 416, 92
-0.998049, 243, 177, 258, 208
-0.99805, 189, 129, 204, 160
-0.99807, 193, 1, 224, 128
-0.998078, 295, 69, 310, 100
-0.998081, 65, 193, 192, 224
-0.998083, 139, 77, 154, 108
-0.99809, 165, 241, 180, 272
-0.998099, 297, 221, 312, 252
-0.998106, 201, 1, 232, 256
-0.998106, 49, 157, 176, 188
-0.998113, 243, 229, 258, 260
-0.998115, 145, 249, 160, 280
-0.998119, 243, 201, 258, 232
-0.998125, 267, 237, 282, 268
-0.998136, 369, 113, 496, 144
-0.998145, 385, 113, 416, 240
-0.998147, 181, 237, 196, 268
-0.998157, 147, 209, 162, 240
-0.998158, 345, 9, 408, 72
-0.998161, 157, 249, 172, 280
-0.998168, 199, 65, 214, 96
-0.998189, 145, 65, 160, 96
-0.998193, 161, 209, 176, 240
-0.998209, 369, 113, 400, 240
-0.998219, 305, 177, 432, 208
-0.998223, 247, 241, 262, 272
-0.998225, 321, 189, 448, 220
-0.998239, 401, 193, 464, 256
-0.998255, 141, 217, 156, 248
-0.998257, 333, 65, 364, 320
-0.998258, 275, 233, 290, 264
-0.998261, 283, 49, 298, 80
-0.998264, 259, 217, 274, 248
-0.998275, 289, 41, 304, 72
-0.998293, 205, 69, 220, 100
-0.998296, 151, 249, 166, 280
-0.99831, 13, 219, 44, 234
-0.998311, 245, 57, 276, 72
-0.998312, 121, 227, 152, 242
-0.998312, 297, 221, 328, 236
-0.998313, 213, 63, 244, 78
-0.998313, 17, 161, 48, 176
-0.998313, 117, 175, 148, 190
-0.998315, 181, 253, 212, 268
-0.998316, 193, 121, 224, 136
-0.998316, 197, 71, 228, 86
-0.998317, 321, 103, 352, 118
-0.998317, 37, 165, 68, 180
-0.998317, 353, 49, 480, 80
-0.998317, 229, 189, 260, 204
-0.998317, 237, 183, 268, 198
-0.998319, 305, 23, 336, 38
-0.998319, 1, 17, 32, 32
-0.99832, 9, 197, 40, 212
-0.99832, 233, 175, 264, 190
-0.99832, 45, 159, 76, 174
-0.99832, 261, 243, 292, 258
-0.998323, 465, 101, 496, 116
-0.998324, 217, 45, 232, 76
-0.998325, 357, 119, 388, 134
-0.998325, 245, 69, 276, 84
-0.998325, 445, 101, 476, 116
-0.998326, 285, 219, 316, 234
-0.998329, 457, 107, 488, 122
-0.998329, 21, 201, 52, 216
-0.99833, 9, 177, 40, 192
-0.99833, 293, 79, 324, 94
-0.998331, 57, 163, 88, 178
-0.998332, 81, 179, 112, 194
-0.998333, 25, 153, 56, 168
-0.998333, 321, 91, 352, 106
-0.998334, 13, 225, 44, 240
-0.998334, 289, 233, 320, 248
-0.998335, 25, 213, 56, 228
-0.998335, 229, 245, 260, 260
-0.998335, 285, 209, 316, 224
-0.998335, 53, 259, 84, 274
-0.998336, 109, 241, 140, 256
-0.998336, 229, 197, 260, 212
-0.998337, 165, 221, 180, 252
-0.998338, 237, 167, 268, 182
-0.998338, 277, 53, 308, 68
-0.998338, 13, 167, 44, 182
-0.998341, 285, 91, 316, 106
-0.998341, 1, 263, 32, 278
-0.998342, 297, 31, 328, 46
-0.998344, 129, 245, 144, 276
-0.998345, 309, 99, 340, 114
-0.998346, 117, 247, 148, 262
-0.998348, 173, 129, 204, 144
-0.998349, 49, 265, 80, 280
-0.998349, 9, 203, 40, 218
-0.99835, 13, 209, 44, 224
-0.998351, 461, 95, 492, 110
-0.998352, 229, 237, 260, 252
-0.998352, 129, 81, 160, 96
-0.998353, 105, 173, 136, 188
-0.998353, 301, 71, 332, 86
-0.998355, 133, 241, 164, 256
-0.998357, 237, 217, 268, 232
-0.998357, 197, 55, 228, 70
-0.99836, 293, 65, 324, 80
-0.998361, 133, 213, 164, 228
-0.998362, 257, 97, 272, 128
-0.998363, 225, 75, 256, 90
-0.998363, 237, 231, 268, 246
-0.998364, 7, 213, 22, 244
-0.998365, 173, 225, 188, 256
-0.998366, 237, 205, 268, 220
-0.998366, 241, 189, 256, 220
-0.998366, 137, 65, 168, 320
-0.998366, 181, 247, 212, 262
-0.998367, 295, 57, 310, 88
-0.99837, 309, 1, 340, 16
-0.99837, 1, 223, 32, 238
-0.998371, 129, 251, 160, 266
-0.998371, 1, 237, 128, 268
-0.998373, 213, 83, 244, 98
-0.998375, 241, 1, 368, 32
-0.998376, 285, 71, 316, 86
-0.998378, 133, 87, 164, 102
-0.99838, 233, 67, 264, 82
-0.998381, 289, 39, 320, 54
-0.998381, 153, 225, 168, 256
-0.998381, 153, 253, 184, 268
-0.998381, 55, 257, 70, 288
-0.998382, 161, 227, 192, 242
-0.998385, 169, 255, 200, 270
-0.998385, 145, 221, 176, 236
-0.998385, 277, 59, 308, 74
-0.998386, 193, 109, 208, 140
-0.998392, 65, 249, 96, 264
-0.998393, 277, 235, 308, 250
-0.998393, 185, 115, 216, 130
-0.998394, 205, 77, 236, 92
-0.998395, 235, 185, 250, 216
-0.998397, 149, 101, 180, 116
-0.998397, 157, 85, 188, 100
-0.998397, 265, 201, 280, 232
-0.998398, 223, 49, 238, 80
-0.998398, 145, 211, 176, 226
-0.998398, 157, 221, 188, 236
-0.9984, 261, 241, 276, 272
-0.998402, 213, 47, 244, 62
-0.998403, 145, 75, 176, 90
-0.998404, 217, 57, 248, 72
-0.998406, 165, 93, 196, 108
-0.998408, 189, 65, 220, 80
-0.998409, 241, 249, 272, 264
-0.998409, 161, 233, 192, 248
-0.99841, 173, 239, 204, 254
-0.998411, 241, 191, 272, 206
-0.998412, 153, 107, 184, 122
-0.998412, 141, 95, 172, 110
-0.998412, 155, 237, 170, 268
-0.998414, 65, 161, 80, 192
-0.998414, 225, 85, 240, 116
-0.998415, 261, 201, 292, 216
-0.998416, 281, 65, 312, 80
-0.998416, 173, 101, 204, 116
-0.998417, 273, 137, 400, 168
-0.998418, 241, 199, 272, 214
-0.998419, 301, 85, 332, 100
-0.99842, 137, 67, 168, 82
-0.998421, 269, 89, 300, 104
-0.998422, 161, 115, 192, 130
-0.998426, 245, 225, 276, 240
-0.998428, 169, 123, 200, 138
-0.998429, 169, 249, 200, 264
-0.998431, 141, 229, 172, 244
-0.998437, 181, 109, 212, 124
-0.998438, 245, 237, 276, 252
-0.998438, 353, 209, 480, 272
-0.998439, 271, 213, 286, 244
-0.998441, 295, 29, 310, 60
-0.998445, 229, 53, 244, 84
-0.998445, 273, 203, 304, 218
-0.998445, 129, 221, 160, 236
-0.998445, 141, 251, 172, 266
-0.998446, 253, 213, 284, 228
-0.998446, 285, 225, 316, 240
-0.998446, 283, 201, 298, 232
-0.998447, 461, 105, 476, 136
-0.998451, 259, 205, 274, 236
-0.998454, 307, 5, 322, 36
-0.998457, 273, 211, 304, 226
-0.998457, 369, 1, 432, 128
-0.998463, 153, 247, 184, 262
-0.998465, 241, 219, 304, 234
-0.998466, 289, 101, 416, 132
-0.998467, 249, 243, 280, 258
-0.998472, 161, 239, 192, 254
-0.998478, 321, 1, 336, 32
-0.998478, 265, 231, 296, 246
-0.998479, 183, 101, 198, 132
-0.998481, 253, 219, 284, 234
-0.998488, 239, 57, 254, 88
-0.998491, 265, 237, 296, 252
-0.998503, 273, 225, 304, 240
-0.998505, 263, 89, 278, 120
-0.998506, 17, 161, 32, 192
-0.998508, 129, 251, 192, 266
-0.99851, 1, 149, 128, 180
-0.99851, 281, 229, 296, 260
-0.998511, 249, 231, 280, 246
-0.998512, 273, 165, 400, 196
-0.998514, 257, 207, 288, 222
-0.998515, 353, 1, 384, 256
-0.998516, 311, 81, 326, 112
-0.998517, 241, 227, 304, 242
-0.99852, 43, 201, 58, 232
-0.998521, 159, 77, 174, 108
-0.998524, 245, 65, 260, 96
-0.998528, 273, 219, 304, 234
-0.998529, 241, 61, 304, 76
-0.99853, 175, 93, 190, 124
-0.998533, 257, 91, 320, 106
-0.998533, 13, 249, 28, 280
-0.998533, 319, 89, 334, 120
-0.998538, 265, 61, 296, 76
-0.998539, 249, 205, 264, 236
-0.998542, 241, 213, 304, 228
-0.998544, 241, 207, 304, 222
-0.998546, 327, 1, 342, 32
-0.99855, 217, 93, 232, 124
-0.998557, 7, 233, 22, 264
-0.998562, 153, 209, 168, 240
-0.998563, 19, 245, 34, 276
-0.998563, 265, 223, 328, 238
-0.998566, 167, 85, 182, 116
-0.998571, 151, 69, 166, 100
-0.998571, 245, 217, 260, 248
-0.998573, 303, 21, 318, 52
-0.998573, 125, 225, 140, 256
-0.998575, 137, 229, 152, 260
-0.998576, 169, 113, 232, 128
-0.998579, 113, 223, 176, 238
-0.99858, 129, 245, 192, 260
-0.998581, 169, 107, 232, 122
-0.998582, 219, 77, 234, 108
-0.998582, 249, 67, 312, 82
-0.998586, 181, 225, 196, 256
-0.99859, 233, 233, 296, 248
-0.99859, 33, 167, 96, 182
-0.998591, 249, 239, 312, 254
-0.998594, 201, 61, 264, 76
-0.998595, 199, 113, 214, 144
-0.998598, 241, 201, 304, 216
-0.9986, 209, 105, 272, 120
-0.998605, 351, 113, 366, 144
-0.998605, 145, 75, 208, 90
-0.998606, 9, 169, 72, 184
-0.998606, 135, 213, 150, 244
-0.998607, 137, 223, 200, 238
-0.998608, 89, 243, 152, 258
-0.998608, 71, 165, 86, 196
-0.998609, 171, 249, 186, 280
-0.99861, 169, 253, 232, 268
-0.99861, 241, 245, 304, 260
-0.99861, 217, 87, 280, 102
-0.998615, 17, 155, 80, 170
-0.998615, 9, 223, 72, 238
-0.998616, 15, 225, 30, 256
-0.998616, 209, 111, 272, 126
-0.998618, 187, 233, 202, 264
-0.998619, 153, 245, 216, 260
-0.99862, 121, 237, 184, 252
-0.99862, 153, 235, 216, 250
-0.998621, 1, 229, 16, 260
-0.998625, 1, 259, 64, 274
-0.998625, 59, 161, 74, 192
-0.998625, 289, 85, 352, 100
-0.998626, 113, 229, 176, 244
-0.998626, 289, 69, 304, 100
-0.998626, 13, 197, 28, 228
-0.998627, 209, 213, 272, 228
-0.998627, 269, 89, 284, 120
-0.998627, 81, 257, 96, 288
-0.998627, 9, 217, 72, 232
-0.998628, 177, 65, 240, 80
-0.998629, 217, 221, 280, 236
-0.998629, 1, 211, 64, 226
-0.998631, 201, 243, 264, 258
-0.998632, 97, 175, 160, 190
-0.998632, 177, 247, 240, 262
-0.998632, 209, 55, 272, 70
-0.998633, 169, 81, 232, 96
-0.998633, 193, 79, 256, 94
-0.998633, 217, 95, 280, 110
-0.998634, 49, 251, 112, 266
-0.998634, 145, 97, 208, 112
-0.998634, 177, 93, 240, 108
-0.998635, 129, 213, 192, 228
-0.998637, 209, 237, 272, 252
-0.998637, 1, 1, 500, 64
-0.998638, 73, 173, 136, 188
-0.998639, 129, 81, 192, 96
-0.998639, 209, 203, 272, 218
-0.998639, 145, 103, 208, 118
-0.99864, 265, 217, 328, 232
-0.99864, 97, 125, 224, 156
-0.998642, 137, 229, 200, 244
-0.998642, 273, 55, 336, 70
-0.998643, 105, 251, 168, 266
-0.998643, 137, 91, 200, 106
-0.998644, 209, 67, 272, 82
-0.998646, 23, 153, 38, 184
-0.998646, 169, 87, 232, 102
-0.998646, 281, 229, 344, 244
-0.998647, 185, 71, 248, 86
-0.998648, 185, 55, 248, 70
-0.998648, 201, 197, 264, 212
-0.998649, 9, 249, 72, 264
-0.998649, 265, 205, 328, 220
-0.99865, 137, 257, 200, 272
-0.998651, 289, 221, 352, 236
-0.998651, 257, 233, 320, 248
-0.998654, 473, 105, 488, 136
-0.998654, 297, 1, 360, 16
-0.998655, 17, 161, 80, 176
-0.998655, 217, 249, 280, 264
-0.998655, 233, 195, 296, 210
-0.998656, 313, 93, 376, 108
-0.998657, 145, 125, 208, 140
-0.998657, 273, 63, 336, 78
-0.998658, 1, 175, 64, 190
-0.998658, 13, 173, 28, 204
-0.998658, 19, 209, 34, 240
-0.99866, 145, 109, 208, 124
-0.998662, 233, 163, 296, 178
-0.998662, 177, 99, 240, 114
-0.998662, 249, 181, 264, 212
-0.998663, 217, 73, 280, 88
-0.998664, 233, 189, 296, 204
-0.998664, 49, 175, 112, 190
-0.998665, 137, 117, 200, 132
-0.998665, 41, 263, 104, 278
-0.998665, 455, 97, 470, 128
-0.998666, 1, 195, 64, 210
-0.998666, 209, 227, 272, 242
-0.998666, 417, 101, 480, 116
-0.998667, 153, 65, 216, 80
-0.998669, 281, 211, 344, 226
-0.998669, 231, 173, 246, 204
-0.99867, 281, 69, 344, 84
-0.998672, 161, 217, 224, 232
-0.998673, 281, 39, 344, 54
-0.998673, 7, 253, 22, 284
-0.998673, 345, 127, 408, 142
-0.998674, 297, 23, 360, 38
-0.998674, 265, 83, 328, 98
-0.998674, 213, 65, 228, 96
-0.998675, 269, 57, 284, 88
-0.998675, 281, 97, 344, 112
-0.998675, 329, 183, 392, 198
-0.998677, 1, 205, 64, 220
-0.998678, 481, 97, 496, 128
-0.998679, 17, 181, 80, 196
-0.99868, 49, 215, 112, 230
-0.99868, 241, 55, 304, 70
-0.99868, 297, 89, 312, 120
-0.998681, 89, 227, 152, 242
-0.998683, 41, 257, 104, 272
-0.998683, 121, 101, 184, 116
-0.998683, 177, 119, 240, 134
-0.998683, 113, 93, 176, 108
-0.998683, 289, 75, 352, 90
-0.998684, 233, 183, 296, 198
-0.998684, 249, 99, 312, 114
-0.998685, 265, 75, 328, 90
-0.998685, 467, 109, 482, 140
-0.998686, 233, 157, 296, 172
-0.998686, 305, 7, 368, 22
-0.998687, 271, 197, 286, 228
-0.998687, 321, 209, 448, 240
-0.998688, 65, 245, 128, 260
-0.998688, 25, 197, 40, 228
-0.998689, 425, 95, 488, 110
-0.998689, 305, 13, 368, 28
-0.99869, 9, 267, 72, 282
-0.998691, 89, 221, 152, 236
-0.998691, 273, 49, 336, 64
-0.998691, 297, 103, 360, 118
-0.998692, 105, 85, 168, 100
-0.998692, 129, 69, 192, 84
-0.998692, 225, 177, 288, 192
-0.998692, 289, 31, 352, 46
-0.998693, 153, 165, 168, 196
-0.998694, 81, 215, 144, 230
-0.998696, 1, 189, 64, 204
-0.998696, 65, 273, 80, 304
-0.998696, 17, 1, 80, 64
-0.998698, 329, 101, 392, 116
-0.998706, 237, 233, 252, 264
-0.998727, 225, 33, 256, 288
-0.998729, 33, 57, 160, 120
-0.998746, 145, 177, 272, 208
-0.998767, 17, 273, 144, 304
-0.998768, 241, 161, 256, 288
-0.998769, 357, 177, 388, 304
-0.998815, 353, 37, 480, 68
-0.998839, 113, 273, 240, 333
-0.998874, 305, 153, 432, 184
-0.99888, 189, 65, 220, 320
-0.998901, 65, 113, 96, 240
-0.998916, 49, 121, 176, 184
-0.998939, 65, 145, 192, 176
-0.998949, 97, 161, 224, 192
-0.998964, 369, 129, 496, 160
-0.999009, 417, 129, 448, 256
-0.99902, 337, 25, 464, 56
-0.999021, 49, 65, 176, 96
-0.999023, 247, 177, 262, 304
-0.999042, 143, 177, 158, 304
-0.999044, 213, 161, 244, 288
-0.999048, 97, 261, 224, 292
-0.99905, 353, 257, 480, 320
-0.999052, 65, 97, 192, 128
-0.999063, 253, 193, 268, 320
-0.999075, 1, 25, 256, 88
-0.99908, 461, 1, 492, 256
-0.999093, 295, 17, 310, 144
-0.999103, 135, 177, 150, 304
-0.999104, 275, 193, 290, 320
-0.999111, 287, 209, 302, 333
-0.999137, 133, 33, 164, 160
-0.999155, 153, 177, 168, 304
-0.999157, 57, 209, 72, 333
-0.999163, 335, 97, 350, 224
-0.99917, 225, 13, 352, 44
-0.999177, 289, 33, 304, 160
-0.999179, 305, 1, 320, 128
-0.999187, 49, 85, 176, 116
-0.999188, 251, 113, 266, 240
-0.999204, 1, 37, 128, 68
-0.999204, 283, 49, 298, 176
-0.999217, 235, 177, 250, 304
-0.999225, 97, 173, 224, 204
-0.999229, 269, 193, 284, 320
-0.999246, 287, 161, 302, 288
-0.999247, 215, 33, 230, 160
-0.999247, 173, 65, 188, 192
-0.99925, 261, 177, 276, 304
-0.999254, 263, 49, 278, 176
-0.999255, 57, 33, 120, 288
-0.999259, 161, 193, 176, 320
-0.99927, 205, 65, 220, 192
-0.999275, 167, 65, 182, 192
-0.999276, 281, 161, 296, 288
-0.999294, 323, 97, 338, 224
-0.999311, 269, 49, 284, 176
-0.999316, 241, 209, 256, 333
-0.999317, 289, 229, 416, 260
-0.99932, 113, 37, 240, 68
-0.999322, 183, 81, 198, 208
-0.999323, 129, 161, 144, 288
-0.999324, 65, 161, 80, 288
-0.999332, 161, 97, 176, 224
-0.999336, 257, 273, 384, 333
-0.999337, 257, 49, 272, 176
-0.999347, 249, 49, 264, 176
-0.999348, 245, 113, 260, 240
-0.999349, 281, 209, 296, 333
-0.999352, 177, 113, 192, 240
-0.999357, 161, 145, 176, 272
-0.999363, 9, 177, 24, 304
-0.999366, 15, 161, 30, 288
-0.999373, 277, 49, 292, 176
-0.999375, 329, 97, 344, 224
-0.999375, 167, 209, 182, 333
-0.999376, 193, 193, 208, 320
-0.999381, 347, 97, 362, 224
-0.999383, 89, 177, 104, 304
-0.999384, 337, 13, 464, 44
-0.999387, 167, 161, 182, 288
-0.999389, 57, 161, 72, 288
-0.999392, 123, 161, 138, 288
-0.999395, 187, 193, 202, 320
-0.999398, 175, 161, 190, 288
-0.999399, 199, 193, 214, 320
-0.9994, 293, 209, 308, 333
-0.999402, 209, 273, 336, 333
-0.999402, 303, 65, 318, 192
-0.999403, 23, 145, 38, 272
-0.999407, 257, 241, 384, 272
-0.999408, 311, 1, 326, 128
-0.999412, 37, 145, 52, 272
-0.999418, 95, 161, 110, 288
-0.999423, 97, 53, 224, 84
-0.999426, 189, 65, 204, 192
-0.999429, 101, 161, 116, 288
-0.999431, 209, 193, 224, 320
-0.999431, 29, 161, 44, 288
-0.999432, 173, 209, 188, 333
-0.999433, 79, 161, 94, 288
-0.999434, 199, 49, 214, 176
-0.999436, 181, 193, 196, 320
-0.999445, 243, 65, 258, 192
-0.999446, 473, 49, 488, 176
-0.999447, 289, 81, 304, 208
-0.999447, 15, 209, 30, 333
-0.999447, 341, 97, 356, 224
-0.999448, 221, 33, 236, 160
-0.999468, 63, 209, 78, 333
-0.999473, 309, 65, 324, 192
-0.999474, 219, 209, 234, 333
-0.999474, 171, 113, 186, 240
-0.999476, 369, 177, 496, 208
-0.999476, 275, 145, 290, 272
-0.99948, 317, 81, 332, 208
-0.99948, 327, 49, 342, 176
-0.999481, 227, 209, 242, 333
-0.999481, 221, 1, 252, 128
-0.999485, 129, 209, 144, 333
-0.999493, 3, 193, 18, 320
-0.999496, 147, 81, 162, 208
-0.999496, 329, 145, 344, 272
-0.999498, 229, 33, 244, 160
-0.999498, 433, 65, 464, 192
-0.999498, 465, 49, 480, 176
-0.999503, 299, 209, 314, 333
-0.999505, 369, 197, 496, 228
-0.999506, 433, 233, 496, 296
-0.99951, 153, 81, 168, 208
-0.999513, 483, 49, 498, 176
-0.999519, 51, 209, 66, 333
-0.999521, 369, 141, 496, 172
-0.999521, 117, 161, 132, 288
-0.999522, 321, 101, 336, 116
-0.999522, 231, 55, 246, 70
-0.999522, 125, 175, 140, 190
-0.999523, 475, 105, 490, 120
-0.999523, 197, 67, 212, 82
-0.999524, 321, 93, 336, 108
-0.999525, 153, 169, 168, 184
-0.999525, 261, 199, 276, 214
-0.999525, 173, 225, 188, 240
-0.999525, 69, 209, 84, 333
-0.999525, 67, 165, 82, 180
-0.999525, 219, 95, 234, 110
-0.999526, 67, 273, 82, 288
-0.999527, 333, 49, 348, 176
-0.999528, 257, 221, 272, 236
-0.999529, 315, 15, 330, 30
-0.99953, 65, 249, 80, 264
-0.99953, 267, 225, 282, 240
-0.99953, 297, 31, 312, 46
-0.99953, 167, 255, 182, 270
-0.999531, 307, 23, 322, 38
-0.999531, 281, 273, 344, 333
-0.999533, 267, 217, 282, 232
-0.999535, 183, 233, 198, 248
-0.999535, 157, 219, 172, 234
-0.999535, 233, 187, 248, 202
-0.999536, 295, 65, 310, 192
-0.999536, 293, 161, 308, 288
-0.999536, 291, 37, 306, 52
-0.999536, 289, 49, 304, 64
-0.999538, 181, 251, 196, 266
-0.999539, 353, 97, 368, 224
-0.999539, 291, 43, 306, 58
-0.99954, 271, 89, 286, 104
-0.99954, 143, 227, 158, 242
-0.999541, 299, 225, 314, 240
-0.999541, 127, 241, 142, 256
-0.999541, 7, 223, 22, 238
-0.999542, 21, 193, 36, 320
-0.999543, 181, 239, 196, 254
-0.999543, 173, 255, 188, 270
-0.999544, 7, 233, 22, 248
-0.999544, 13, 229, 28, 244
-0.999544, 279, 57, 294, 72
-0.999544, 253, 211, 268, 226
-0.999545, 81, 249, 96, 264
-0.999547, 193, 133, 208, 148
-0.999547, 271, 199, 286, 214
-0.999547, 239, 61, 254, 76
-0.999547, 163, 213, 178, 228
-0.999548, 289, 213, 304, 228
-0.999549, 165, 231, 180, 246
-0.999549, 247, 67, 262, 82
-0.99955, 461, 97, 476, 224
-0.999551, 163, 237, 178, 252
-0.999552, 155, 243, 170, 258
-0.999553, 45, 209, 60, 333
-0.999553, 263, 93, 278, 108
-0.999554, 239, 195, 254, 210
-0.999555, 449, 1, 480, 256
-0.999556, 307, 79, 322, 94
-0.999558, 253, 195, 268, 210
-0.999558, 339, 49, 354, 176
-0.99956, 245, 251, 260, 266
-0.99956, 165, 243, 180, 258
-0.999561, 147, 211, 162, 226
-0.999561, 159, 93, 174, 108
-0.999562, 259, 245, 274, 260
-0.999562, 137, 211, 152, 226
-0.999562, 151, 223, 166, 238
-0.999564, 123, 209, 138, 333
-0.999564, 221, 49, 236, 64
-0.999565, 163, 223, 178, 238
-0.999565, 165, 101, 180, 116
-0.999565, 173, 107, 188, 122
-0.999565, 153, 87, 168, 102
-0.999567, 179, 113, 194, 128
-0.999568, 263, 205, 278, 220
-0.999568, 279, 237, 294, 252
-0.999569, 129, 247, 144, 262
-0.99957, 243, 201, 258, 216
-0.999573, 251, 249, 266, 264
-0.999573, 147, 81, 162, 96
-0.999574, 279, 1, 294, 128
-0.999575, 147, 217, 162, 232
-0.999575, 271, 209, 286, 224
-0.999577, 135, 251, 150, 266
-0.999578, 185, 121, 200, 136
-0.999578, 353, 1, 480, 32
-0.999579, 1, 229, 16, 244
-0.999579, 269, 59, 284, 74
-0.999581, 51, 161, 66, 288
-0.999581, 251, 223, 266, 238
-0.999582, 113, 273, 240, 304
-0.999583, 151, 251, 166, 266
-0.999584, 273, 225, 288, 240
-0.999584, 19, 1, 34, 128
-0.999586, 247, 243, 262, 258
-0.999588, 241, 183, 256, 198
-0.999588, 257, 97, 272, 224
-0.999589, 261, 239, 276, 254
-0.99959, 71, 145, 86, 272
-0.999591, 283, 201, 298, 216
-0.999591, 37, 209, 52, 333
-0.999591, 239, 175, 254, 190
-0.999592, 285, 61, 300, 76
-0.999597, 287, 235, 302, 250
-0.999599, 185, 245, 200, 260
-0.9996, 157, 251, 172, 266
-0.999601, 251, 203, 266, 218
-0.999601, 191, 63, 206, 78
-0.999603, 245, 233, 260, 248
-0.999604, 445, 1, 460, 128
-0.999604, 469, 97, 484, 224
-0.999605, 305, 73, 320, 88
-0.999605, 293, 227, 308, 242
-0.999605, 239, 163, 254, 178
-0.999606, 215, 45, 230, 60
-0.999606, 239, 169, 254, 184
-0.999608, 139, 79, 154, 94
-0.99961, 17, 25, 144, 56
-0.999611, 145, 129, 160, 256
-0.999612, 287, 55, 302, 70
-0.999612, 1, 33, 500, 96
-0.999612, 155, 129, 170, 256
-0.999613, 107, 161, 122, 288
-0.999613, 281, 229, 296, 244
-0.999613, 183, 145, 198, 272
-0.999614, 289, 219, 304, 234
-0.999616, 267, 239, 282, 254
-0.999618, 299, 67, 314, 82
-0.99962, 45, 161, 60, 288
-0.999621, 75, 209, 90, 333
-0.999623, 361, 113, 376, 240
-0.999627, 165, 249, 180, 264
-0.999627, 153, 229, 168, 244
-0.999627, 319, 17, 334, 144
-0.999628, 269, 145, 284, 272
-0.999629, 133, 217, 148, 232
-0.99963, 143, 251, 158, 266
-0.999633, 291, 61, 306, 76
-0.999633, 287, 225, 302, 240
-0.999633, 277, 203, 292, 218
-0.999634, 345, 49, 360, 176
-0.999637, 339, 145, 354, 272
-0.99964, 213, 81, 228, 208
-0.999641, 319, 209, 334, 333
-0.999642, 155, 33, 170, 160
-0.999643, 147, 87, 162, 102
-0.999644, 175, 239, 190, 254
-0.999644, 3, 1, 18, 128
-0.999644, 201, 113, 216, 240
-0.999647, 475, 97, 490, 224
-0.999649, 141, 219, 156, 234
-0.99965, 145, 33, 160, 160
-0.999654, 287, 207, 302, 222
-0.999655, 175, 249, 190, 264
-0.999659, 251, 231, 266, 246
-0.999659, 243, 189, 258, 204
-0.99966, 159, 99, 174, 114
-0.999662, 173, 113, 188, 128
-0.999663, 5, 33, 36, 288
-0.999663, 167, 107, 182, 122
-0.999664, 153, 93, 168, 108
-0.999665, 267, 231, 282, 246
-0.999666, 455, 97, 470, 224
-0.999666, 273, 235, 288, 250
-0.999667, 13, 1, 28, 128
-0.999667, 421, 1, 452, 256
-0.999668, 305, 273, 432, 333
-0.999669, 247, 195, 262, 210
-0.999669, 365, 65, 396, 320
-0.999674, 179, 119, 194, 134
-0.999674, 187, 127, 202, 142
-0.999677, 433, 1, 464, 256
-0.99969, 209, 253, 336, 284
-0.999692, 253, 239, 268, 254
-0.999694, 277, 215, 292, 230
-0.999698, 277, 209, 292, 224
-0.999717, 409, 217, 472, 280
-0.999722, 261, 231, 276, 246
-0.999724, 73, 113, 136, 240
-0.999724, 1, 13, 128, 44
-0.999762, 321, 165, 448, 196
-0.999762, 125, 65, 156, 320
-0.999769, 369, 221, 496, 252
-0.999778, 1, 1, 128, 32
-0.999809, 401, 249, 464, 312
-0.999821, 177, 273, 304, 304
-0.999847, 397, 33, 428, 288
-0.999906, 113, 137, 240, 168
-0.999916, 41, 113, 72, 240
-0.999917, 21, 65, 52, 320
-0.999925, 337, 237, 464, 268
-0.999954, 353, 153, 480, 184
-0.999982, 377, 65, 408, 320
-0.999995, 361, 217, 424, 280
-1.00004, 49, 65, 80, 320
-1.00007, 369, 209, 496, 240
-1.00007, 17, 289, 144, 320
-1.00008, 425, 185, 488, 248
-1.00009, 113, 65, 144, 320
-1.0001, 69, 65, 100, 320
-1.00011, 193, 1, 320, 32
-1.00012, 433, 129, 464, 256
-1.00014, 85, 65, 116, 320
-1.00015, 33, 49, 160, 80
-1.00015, 257, 301, 384, 332
-1.00016, 409, 1, 440, 256
-1.0002, 369, 165, 496, 196
-1.00022, 193, 297, 320, 328
-1.00022, 337, 249, 464, 280
-1.00022, 369, 161, 400, 288
-1.00025, 49, 1, 176, 64
-1.00026, 349, 1, 380, 128
-1.00026, 97, 65, 128, 320
-1.00028, 33, 273, 288, 333
-1.00028, 257, 273, 320, 333
-1.00029, 1, 301, 128, 332
-1.0003, 225, 269, 352, 300
-1.0003, 1, 1, 256, 64
-1.00031, 369, 289, 496, 320
-1.00031, 369, 265, 496, 296
-1.00036, 89, 113, 120, 240
-1.0004, 17, 81, 80, 208
-1.00041, 33, 65, 64, 320
-1.00048, 393, 161, 456, 224
-1.00055, 129, 265, 384, 328
-1.00056, 257, 257, 500, 320
-1.00071, 289, 249, 416, 312
-1.00077, 181, 17, 212, 144
-1.00079, 413, 81, 444, 208
-1.00091, 401, 177, 432, 304
-1.00092, 457, 145, 488, 272
-1.00096, 129, 81, 160, 208
-1.00102, 13, 113, 44, 240
-1.00129, 433, 145, 496, 272
-1.00131, 305, 265, 368, 328
-1.00138, 337, 209, 400, 272
-1.00139, 145, 25, 208, 88
-1.0014, 1, 257, 500, 320
-1.00151, 337, 1, 368, 128
-1.00156, 293, 113, 324, 240
-1.00158, 25, 97, 56, 224
-1.00159, 161, 161, 224, 224
-1.0016, 393, 1, 424, 128
-1.00161, 289, 241, 352, 304
-1.00165, 433, 273, 496, 333
-1.00165, 441, 177, 472, 304
-1.00175, 381, 1, 412, 128
-1.00175, 417, 193, 448, 320
-1.00177, 1, 105, 128, 168
-1.00179, 353, 209, 416, 333
-1.00191, 177, 273, 240, 333
-1.00192, 405, 1, 436, 128
-1.002, 429, 177, 460, 304
-1.00209, 389, 161, 420, 288
-1.00228, 25, 1, 88, 128
-1.00297, 1, 81, 128, 144
-1.00584, 33, 65, 160, 192
-1.0076, 81, 17, 144, 144
-1.00841, 49, 17, 112, 144
-1.01329, 49, 65, 112, 192
-1.0144, 73, 65, 136, 192
