1887
-0.547192, 1, 1, 500, 256
-0.641401, 1, 1, 500, 333
-0.710266, 161, 1, 416, 333
-0.731924, 1, 1, 256, 333
-0.734895, 257, 1, 500, 333
-0.829621, 225, 1, 480, 256
-0.848949, 129, 1, 384, 256
-0.875755, 1, 1, 256, 256
-0.885453, 353, 1, 480, 333
-0.893287, 353, 1, 480, 256
-0.902917, 289, 1, 416, 333
-0.910892, 289, 1, 416, 256
-0.919236, 113, 1, 240, 333
-0.92701, 113, 1, 240, 256
-0.927778, 177, 1, 304, 333
-0.929441, 225, 1, 352, 333
-0.930746, 241, 1, 368, 256
-0.932925, 17, 1, 144, 333
-0.939825, 177, 1, 304, 256
-0.941521, 65, 1, 192, 333
-0.945991, 1, 209, 500, 333
-0.948409, 65, 1, 192, 256
-0.948502, 1, 129, 500, 256
-0.948988, 1, 49, 500, 176
-0.95233, 1, 1, 500, 128
-0.95241, 1, 1, 128, 256
-0.955151, 369, 97, 496, 224
-0.95556, 129, 1, 384, 128
-0.958285, 353, 1, 480, 128
-0.958539, 257, 1, 500, 128
-0.958968, 257, 113, 500, 240
-0.959239, 369, 1, 432, 128
-0.960544, 289, 1, 416, 128
-0.962029, 393, 97, 456, 224
-0.966336, 337, 177, 464, 304
-0.966345, 129, 177, 384, 304
-0.966887, 129, 1, 256, 128
-0.967511, 369, 1, 432, 64
-0.968201, 345, 49, 408, 176
-0.968418, 369, 97, 432, 224
-0.968633, 153, 1, 216, 128
-0.969407, 337, 1, 400, 128
-0.969422, 193, 49, 448, 176
-0.969691, 257, 193, 500, 320
-0.970152, 369, 177, 432, 304
-0.970267, 33, 177, 288, 304
-0.970835, 305, 1, 368, 128
-0.97092, 33, 1, 288, 128
-0.971915, 345, 193, 408, 320
-0.972314, 393, 17, 456, 144
-0.972454, 369, 49, 496, 176
-0.973277, 49, 209, 176, 333
-0.973479, 193, 1, 320, 128
-0.974197, 289, 49, 416, 176
-0.974251, 353, 185, 416, 248
-0.974294, 329, 1, 392, 64
-0.974325, 385, 105, 448, 168
-0.974556, 145, 161, 272, 288
-0.975413, 161, 129, 416, 256
-0.975736, 281, 1, 344, 128
-0.976362, 321, 97, 448, 224
-0.976655, 193, 1, 256, 128
-0.977267, 33, 113, 288, 240
-0.977732, 305, 1, 368, 64
-0.977735, 369, 25, 432, 88
-0.977838, 417, 97, 480, 224
-0.978078, 161, 177, 224, 304
-0.979026, 273, 1, 400, 64
-0.979055, 289, 177, 416, 304
-0.979877, 33, 1, 96, 128
-0.979974, 49, 1, 176, 128
-0.980028, 377, 177, 440, 240
-0.980169, 321, 1, 448, 64
-0.98022, 329, 33, 392, 96
-0.980255, 329, 129, 392, 256
-0.98047, 97, 49, 352, 176
-0.980524, 353, 81, 416, 144
-0.98064, 393, 1, 456, 256
-0.980677, 137, 145, 200, 272
-0.981351, 393, 177, 456, 304
-0.981411, 369, 105, 496, 168
-0.981602, 97, 145, 224, 272
-0.981926, 129, 209, 256, 333
-0.982098, 33, 1, 96, 64
-0.982132, 129, 49, 256, 176
-0.982134, 281, 1, 344, 64
-0.982331, 145, 49, 208, 176
-0.982841, 161, 97, 288, 224
-0.982851, 153, 25, 216, 88
-0.98297, 417, 49, 480, 176
-0.982984, 129, 1, 192, 128
-0.983098, 161, 1, 224, 64
-0.983151, 329, 201, 392, 264
-0.983311, 157, 1, 188, 128
-0.983455, 401, 81, 464, 144
-0.983564, 353, 25, 480, 88
-0.983615, 257, 1, 320, 64
-0.983662, 337, 57, 400, 120
-0.983826, 241, 1, 368, 128
-0.984083, 353, 193, 480, 256
-0.984172, 193, 1, 256, 64
-0.984401, 17, 225, 80, 288
-0.984515, 41, 233, 104, 296
-0.984654, 361, 105, 424, 168
-0.984674, 369, 185, 400, 248
-0.984934, 425, 145, 488, 272
-0.985361, 369, 65, 432, 320
-0.985386, 385, 201, 448, 264
-0.985463, 193, 161, 320, 288
-0.985564, 169, 113, 232, 240
-0.985569, 369, 49, 432, 176
-0.985587, 1, 177, 64, 304
-0.985682, 337, 1, 400, 256
-0.9858, 113, 209, 176, 333
-0.985874, 257, 1, 320, 128
-0.986125, 365, 17, 396, 144
-0.986172, 153, 225, 216, 288
-0.986178, 433, 121, 496, 184
-0.986387, 49, 209, 112, 333
-0.98651, 373, 177, 404, 304
-0.986521, 273, 97, 400, 224
-0.986552, 33, 161, 160, 288
-0.986562, 305, 185, 432, 248
-0.98672, 289, 25, 416, 88
-0.986789, 1, 49, 256, 176
-0.98684, 333, 1, 364, 64
-0.986967, 389, 161, 420, 288
-0.987101, 81, 177, 144, 304
-0.987279, 417, 1, 480, 64
-0.987287, 49, 225, 176, 288
-0.987324, 81, 49, 208, 176
-0.987474, 129, 1, 256, 64
-0.987582, 305, 25, 368, 88
-0.987699, 353, 217, 416, 280
-0.987754, 281, 49, 344, 176
-0.987771, 297, 1, 328, 128
-0.987801, 425, 1, 488, 128
-0.98782, 113, 265, 176, 328
-0.987875, 169, 201, 232, 264
-0.98788, 369, 1, 496, 64
-0.988018, 121, 201, 184, 264
-0.988065, 385, 81, 416, 208
-0.988071, 145, 153, 208, 216
-0.988145, 305, 81, 432, 144
-0.988195, 369, 81, 496, 144
-0.988208, 417, 17, 448, 144
-0.988274, 425, 97, 488, 160
-0.988312, 297, 1, 360, 256
-0.988331, 165, 1, 196, 64
-0.988369, 369, 153, 432, 216
-0.988432, 129, 225, 192, 288
-0.98849, 337, 1, 400, 333
-0.988498, 401, 105, 432, 168
-0.988521, 177, 145, 240, 208
-0.988526, 393, 1, 456, 333
-0.988595, 145, 225, 272, 288
-0.988704, 321, 193, 384, 320
-0.988775, 137, 1, 200, 64
-0.988794, 225, 49, 352, 176
-0.988831, 409, 193, 472, 256
-0.988888, 353, 169, 480, 232
-0.988942, 105, 225, 168, 288
-0.989017, 193, 1, 320, 64
-0.989109, 17, 249, 80, 312
-0.989168, 185, 1, 248, 256
-0.989183, 353, 49, 480, 112
-0.989189, 161, 177, 224, 240
-0.989378, 145, 49, 208, 112
-0.989395, 169, 1, 200, 128
-0.989422, 361, 33, 392, 96
-0.989478, 337, 1, 368, 128
-0.989522, 81, 201, 208, 264
-0.989546, 145, 41, 176, 104
-0.989888, 169, 145, 200, 272
-0.989901, 409, 97, 440, 224
-0.989925, 201, 1, 232, 128
-0.989977, 1, 1, 128, 128
-0.989999, 281, 25, 344, 88
-0.990022, 193, 113, 256, 240
-0.990054, 313, 1, 344, 64
-0.990065, 129, 25, 256, 88
-0.990074, 233, 1, 296, 64
-0.990232, 273, 49, 400, 112
-0.990246, 49, 1, 176, 64
-0.990264, 397, 97, 428, 224
-0.990279, 321, 49, 384, 176
-0.990286, 421, 97, 452, 224
-0.990318, 233, 1, 296, 128
-0.990319, 45, 225, 76, 288
-0.990324, 41, 209, 104, 272
-0.990329, 381, 81, 412, 144
-0.990339, 305, 113, 368, 240
-0.990439, 161, 25, 192, 88
-0.990457, 145, 185, 272, 248
-0.990458, 321, 105, 448, 168
-0.990562, 57, 1, 120, 64
-0.990631, 41, 161, 104, 288
-0.990801, 417, 1, 480, 256
-0.990812, 365, 57, 396, 120
-0.990919, 25, 1, 88, 256
-0.990997, 201, 161, 264, 288
-0.991102, 297, 193, 360, 320
-0.991119, 369, 1, 432, 32
-0.991119, 309, 1, 340, 128
-0.991157, 329, 177, 392, 240
-0.991176, 273, 209, 400, 272
-0.991186, 1, 233, 128, 296
-0.991208, 369, 17, 432, 48
-0.991213, 369, 185, 432, 216
-0.991214, 393, 109, 456, 140
-0.991228, 145, 33, 176, 160
-0.991271, 1, 209, 128, 333
-0.991315, 377, 1, 408, 128
-0.991338, 281, 89, 344, 152
-0.991365, 405, 1, 436, 128
-0.99139, 305, 1, 368, 32
-0.991392, 161, 1, 224, 256
-0.991477, 393, 9, 456, 72
-0.991555, 337, 9, 400, 40
-0.991557, 377, 73, 440, 136
-0.991573, 9, 1, 72, 64
-0.9916, 241, 145, 368, 272
-0.991654, 17, 233, 80, 264
-0.991687, 353, 249, 416, 312
-0.991716, 121, 57, 184, 120
-0.991738, 357, 193, 388, 256
-0.991739, 373, 65, 404, 192
-0.991774, 213, 1, 244, 64
-0.991779, 373, 17, 404, 80
-0.991781, 65, 41, 192, 104
-0.991813, 393, 197, 456, 228
-0.991827, 241, 193, 368, 320
-0.991848, 345, 193, 408, 224
-0.991858, 177, 209, 304, 333
-0.991896, 33, 1, 96, 32
-0.99191, 433, 65, 496, 128
-0.991916, 177, 121, 240, 184
-0.991916, 433, 177, 496, 240
-0.99192, 401, 97, 464, 128
-0.991929, 405, 9, 436, 72
-0.99194, 129, 225, 192, 256
-0.991999, 409, 153, 472, 216
-0.992005, 33, 1, 96, 333
-0.992032, 137, 45, 200, 76
-0.99207, 433, 97, 464, 224
-0.992085, 161, 1, 224, 32
-0.992089, 369, 109, 432, 140
-0.992106, 369, 29, 432, 60
-0.992116, 145, 1, 208, 333
-0.992135, 385, 49, 448, 112
-0.99214, 377, 209, 408, 272
-0.99215, 49, 265, 176, 328
-0.992172, 121, 1, 184, 333
-0.992189, 329, 21, 392, 52
-0.992194, 361, 97, 424, 128
-0.992198, 293, 1, 324, 64
-0.992205, 169, 153, 200, 216
-0.992208, 425, 105, 488, 136
-0.992216, 313, 57, 376, 120
-0.992219, 389, 105, 420, 168
-0.992219, 201, 225, 264, 288
-0.992246, 169, 1, 232, 333
-0.992265, 57, 233, 88, 296
-0.99231, 329, 37, 392, 68
-0.992336, 329, 49, 392, 80
-0.992339, 153, 229, 216, 260
-0.992343, 369, 197, 432, 228
-0.992352, 429, 1, 460, 128
-0.992359, 281, 17, 344, 48
-0.992391, 161, 13, 224, 44
-0.992455, 41, 237, 104, 268
-0.992479, 337, 65, 400, 96
-0.992485, 185, 65, 248, 192
-0.992516, 33, 225, 64, 288
-0.992524, 409, 9, 472, 40
-0.992529, 425, 117, 488, 148
-0.992534, 145, 201, 208, 264
-0.992562, 257, 1, 320, 32
-0.99258, 305, 17, 368, 48
-0.9926, 97, 153, 224, 216
-0.992622, 177, 221, 240, 252
-0.992631, 137, 61, 200, 92
-0.992635, 345, 205, 408, 236
-0.992663, 273, 161, 400, 224
-0.992677, 389, 185, 420, 248
-0.992679, 285, 1, 316, 128
-0.99269, 33, 13, 96, 44
-0.992721, 305, 29, 368, 60
-0.992733, 81, 97, 208, 224
-0.992739, 401, 177, 432, 304
-0.992743, 361, 1, 392, 64
-0.992765, 401, 181, 464, 212
-0.992774, 353, 145, 480, 208
-0.992781, 137, 9, 200, 40
-0.992783, 145, 45, 176, 76
-0.992804, 345, 85, 408, 116
-0.99281, 113, 261, 176, 292
-0.992819, 137, 33, 200, 64
-0.992833, 337, 217, 400, 248
-0.992837, 129, 49, 256, 112
-0.992888, 129, 249, 256, 312
-0.992891, 273, 29, 336, 60
-0.992896, 385, 85, 448, 116
-0.992899, 177, 233, 240, 264
-0.992929, 177, 141, 240, 172
-0.99293, 97, 201, 160, 264
-0.992935, 113, 49, 176, 80
-0.992964, 409, 21, 472, 52
-0.992969, 145, 241, 208, 272
-0.992977, 281, 1, 344, 32
-0.992994, 57, 221, 120, 252
-0.992995, 305, 201, 368, 264
-0.992995, 365, 189, 396, 220
-0.99303, 177, 225, 240, 288
-0.993033, 417, 197, 480, 228
-0.993047, 121, 49, 184, 176
-0.993055, 401, 109, 432, 140
-0.99306, 57, 1, 120, 32
-0.99306, 177, 145, 304, 208
-0.993081, 425, 9, 456, 72
-0.993089, 329, 1, 360, 32
-0.993093, 161, 25, 224, 56
-0.993106, 121, 1, 184, 256
-0.993122, 201, 1, 264, 32
-0.993126, 349, 1, 380, 128
-0.993128, 33, 249, 96, 280
-0.993141, 65, 217, 128, 280
-0.993152, 345, 181, 408, 212
-0.993166, 257, 13, 320, 44
-0.993169, 161, 157, 224, 188
-0.993175, 17, 221, 80, 252
-0.993179, 161, 121, 288, 184
-0.993179, 313, 1, 376, 333
-0.99318, 309, 5, 340, 36
-0.993182, 177, 177, 240, 208
-0.993214, 377, 209, 440, 240
-0.993216, 313, 213, 376, 244
-0.993236, 45, 233, 76, 264
-0.993241, 369, 1, 432, 333
-0.993253, 9, 245, 72, 276
-0.993255, 113, 61, 176, 92
-0.99326, 173, 1, 204, 32
-0.993265, 397, 193, 428, 224
-0.993275, 105, 281, 168, 312
-0.993281, 161, 225, 192, 256
-0.993287, 321, 193, 384, 224
-0.993289, 193, 209, 320, 272
-0.993294, 369, 113, 400, 240
-0.993302, 161, 45, 224, 76
-0.993306, 293, 13, 324, 44
-0.99331, 65, 233, 128, 264
-0.993312, 149, 33, 180, 64
-0.993312, 313, 17, 344, 48
-0.993314, 425, 93, 488, 124
-0.993318, 365, 69, 396, 100
-0.993318, 137, 153, 200, 184
-0.993339, 413, 197, 444, 228
-0.993341, 385, 193, 416, 224
-0.993347, 337, 13, 368, 44
-0.993349, 377, 121, 440, 152
-0.99335, 429, 49, 460, 176
-0.993351, 1, 1, 64, 32
-0.993352, 145, 61, 176, 92
-0.993358, 373, 81, 404, 112
-0.993359, 193, 97, 256, 128
-0.993363, 377, 181, 408, 212
-0.993365, 305, 113, 368, 144
-0.993369, 185, 153, 248, 184
-0.993371, 157, 9, 188, 40
-0.993379, 357, 53, 388, 84
-0.993382, 425, 185, 488, 216
-0.993388, 373, 29, 404, 60
-0.993393, 433, 57, 496, 88
-0.993399, 33, 25, 96, 56
-0.993401, 361, 69, 424, 100
-0.993404, 25, 209, 88, 333
-0.993411, 209, 225, 272, 256
-0.993417, 49, 245, 80, 276
-0.993423, 45, 1, 76, 32
-0.993427, 293, 1, 324, 32
-0.993428, 413, 109, 444, 140
-0.99343, 157, 53, 188, 84
-0.993435, 381, 97, 412, 128
-0.993441, 129, 213, 192, 244
-0.993449, 213, 1, 244, 32
-0.99345, 81, 217, 144, 248
-0.993459, 169, 153, 200, 184
-0.99346, 361, 13, 392, 44
-0.993464, 453, 105, 484, 136
-0.993465, 329, 25, 360, 56
-0.993467, 425, 105, 456, 136
-0.99347, 169, 205, 232, 236
-0.993471, 417, 33, 480, 64
-0.993472, 357, 37, 388, 68
-0.993474, 281, 97, 344, 128
-0.993478, 133, 49, 164, 80
-0.993484, 273, 73, 336, 104
-0.993485, 321, 181, 384, 212
-0.993486, 33, 233, 64, 264
-0.993489, 425, 197, 456, 228
-0.99349, 33, 25, 96, 88
-0.993493, 425, 33, 456, 64
-0.993493, 441, 105, 472, 136
-0.993496, 161, 33, 192, 64
-0.993497, 369, 173, 432, 204
-0.993502, 377, 205, 408, 236
-0.993502, 225, 1, 288, 32
-0.993505, 145, 73, 208, 104
-0.993506, 449, 129, 480, 256
-0.993508, 169, 13, 200, 44
-0.99351, 389, 109, 420, 140
-0.993516, 301, 25, 332, 56
-0.993517, 345, 1, 376, 32
-0.993518, 161, 57, 224, 88
-0.993522, 361, 41, 424, 72
-0.993523, 365, 201, 396, 232
-0.993523, 417, 193, 448, 256
-0.993523, 273, 49, 336, 80
-0.993523, 425, 21, 456, 52
-0.993525, 389, 181, 420, 212
-0.993526, 173, 229, 204, 260
-0.993538, 185, 165, 248, 196
-0.99354, 349, 17, 380, 48
-0.993543, 345, 109, 408, 140
-0.993546, 129, 21, 192, 52
-0.993546, 297, 201, 360, 232
-0.993547, 361, 1, 392, 32
-0.993557, 161, 189, 224, 220
-0.993562, 313, 61, 376, 92
-0.993568, 61, 237, 92, 268
-0.993569, 369, 57, 432, 88
-0.99357, 393, 1, 424, 32
-0.993572, 185, 113, 216, 240
-0.993573, 425, 45, 456, 76
-0.993574, 137, 261, 168, 292
-0.993578, 105, 225, 168, 256
-0.993585, 133, 249, 164, 280
-0.99359, 157, 21, 188, 52
-0.99359, 345, 29, 376, 60
-0.993595, 405, 17, 436, 48
-0.993596, 281, 9, 312, 40
-0.993599, 377, 225, 408, 256
-0.993601, 353, 121, 416, 152
-0.993601, 153, 141, 216, 172
-0.993604, 57, 13, 120, 44
-0.993604, 361, 249, 424, 280
-0.993605, 357, 177, 388, 304
-0.993605, 385, 73, 448, 104
-0.993605, 393, 97, 424, 128
-0.993605, 57, 1, 120, 128
-0.993606, 137, 225, 168, 256
-0.993607, 441, 117, 472, 148
-0.993609, 145, 1, 176, 32
-0.993613, 421, 5, 452, 36
-0.993615, 29, 245, 60, 276
-0.993618, 325, 13, 356, 44
-0.993622, 249, 89, 312, 120
-0.993622, 113, 249, 176, 280
-0.993624, 193, 1, 224, 32
-0.993633, 433, 69, 496, 100
-0.993634, 413, 29, 444, 60
-0.993636, 37, 257, 68, 288
-0.993636, 153, 241, 184, 272
-0.993639, 369, 57, 400, 88
-0.99364, 305, 41, 368, 72
-0.993642, 377, 17, 408, 48
-0.993648, 457, 121, 488, 152
-0.99365, 113, 37, 176, 68
-0.993651, 61, 1, 92, 32
-0.993656, 45, 1, 76, 128
-0.993659, 185, 13, 248, 44
-0.993659, 65, 225, 96, 256
-0.993659, 9, 257, 72, 288
-0.99366, 209, 233, 240, 264
-0.993663, 381, 237, 412, 268
-0.993666, 21, 233, 52, 264
-0.99367, 317, 29, 348, 60
-0.993674, 353, 193, 384, 224
-0.993674, 153, 109, 216, 140
-0.993677, 45, 221, 76, 252
-0.993677, 349, 205, 380, 236
-0.993678, 389, 205, 420, 236
-0.993683, 45, 13, 76, 44
-0.993685, 149, 225, 180, 256
-0.993688, 185, 45, 248, 76
-0.99369, 261, 1, 292, 32
-0.99369, 377, 69, 408, 100
-0.993694, 465, 105, 496, 136
-0.993695, 433, 233, 496, 264
-0.9937, 461, 201, 492, 232
-0.993701, 333, 205, 364, 236
-0.993702, 185, 141, 216, 172
-0.993703, 309, 89, 340, 120
-0.993703, 121, 205, 152, 236
-0.99371, 209, 25, 336, 88
-0.993711, 361, 221, 424, 252
-0.993712, 273, 49, 336, 112
-0.993713, 157, 65, 188, 96
-0.993713, 345, 233, 408, 264
-0.993713, 409, 97, 440, 128
-0.993713, 121, 261, 152, 292
-0.993714, 389, 225, 420, 256
-0.993715, 361, 25, 392, 56
-0.993716, 373, 41, 404, 72
-0.993717, 289, 25, 320, 56
-0.993718, 133, 61, 164, 92
-0.99372, 441, 189, 472, 220
-0.993721, 185, 225, 216, 256
-0.993721, 345, 133, 408, 164
-0.993727, 405, 5, 436, 36
-0.99373, 197, 233, 228, 264
-0.993731, 297, 89, 328, 120
-0.993731, 465, 233, 496, 264
-0.993734, 413, 185, 444, 216
-0.993735, 129, 273, 256, 333
-0.99374, 33, 1, 64, 32
-0.993742, 429, 117, 460, 148
-0.993744, 385, 249, 416, 280
-0.993745, 329, 105, 360, 136
-0.99375, 297, 73, 328, 104
-0.99375, 145, 21, 176, 52
-0.993755, 393, 277, 424, 308
-0.993757, 137, 273, 168, 304
-0.993758, 121, 221, 152, 252
-0.993759, 225, 1, 256, 32
-0.993759, 385, 85, 416, 116
-0.993761, 165, 137, 196, 168
-0.993762, 61, 253, 92, 284
-0.993764, 397, 297, 428, 328
-0.993765, 201, 177, 264, 208
-0.993769, 345, 49, 376, 80
-0.993773, 197, 221, 228, 252
-0.993774, 313, 109, 344, 140
-0.993774, 437, 13, 468, 44
-0.993775, 1, 1, 128, 64
-0.993777, 341, 225, 372, 256
-0.993781, 281, 109, 344, 140
-0.993796, 9, 13, 72, 44
-0.993802, 177, 109, 240, 140
-0.99381, 393, 41, 456, 72
-0.993813, 33, 37, 96, 68
-0.993814, 213, 1, 244, 128
-0.993815, 425, 209, 488, 240
-0.993819, 89, 205, 152, 236
-0.99382, 321, 125, 384, 156
-0.993831, 417, 145, 448, 272
-0.993833, 145, 289, 208, 320
-0.99394, 153, 1, 184, 64
-0.993972, 97, 225, 224, 288
-0.994009, 369, 217, 496, 280
-0.99404, 177, 49, 240, 112
-0.994044, 137, 209, 200, 333
-0.994065, 281, 265, 344, 328
-0.994067, 345, 1, 376, 64
-0.994098, 29, 177, 60, 304
-0.994144, 193, 185, 320, 248
-0.994153, 201, 209, 264, 333
-0.994199, 289, 241, 416, 304
-0.994271, 385, 209, 416, 333
-0.994312, 1, 201, 128, 264
-0.994315, 241, 89, 304, 152
-0.994365, 157, 145, 188, 272
-0.994423, 137, 177, 200, 240
-0.994428, 153, 225, 184, 288
-0.994449, 9, 1, 72, 128
-0.99449, 137, 225, 168, 288
-0.994501, 145, 249, 208, 312
-0.994565, 153, 105, 216, 168
-0.994572, 313, 97, 376, 160
-0.994585, 161, 1, 416, 64
-0.994592, 417, 1, 480, 333
-0.994633, 305, 129, 432, 192
-0.99471, 425, 41, 456, 104
-0.994739, 41, 1, 72, 64
-0.994762, 281, 97, 344, 224
-0.994789, 133, 41, 164, 104
-0.994801, 417, 25, 480, 88
-0.994925, 413, 105, 444, 168
-0.994976, 17, 201, 80, 264
-0.995041, 49, 209, 80, 333
-0.995066, 137, 209, 168, 333
-0.995095, 241, 89, 368, 152
-0.9951, 17, 25, 144, 88
-0.995149, 385, 161, 416, 224
-0.995153, 281, 1, 344, 333
-0.995169, 193, 89, 256, 152
-0.995193, 145, 73, 208, 136
-0.995193, 273, 1, 336, 256
-0.995204, 321, 5, 448, 36
-0.995214, 189, 1, 220, 128
-0.995226, 321, 1, 352, 128
-0.995242, 129, 73, 256, 136
-0.99528, 177, 49, 304, 176
-0.995307, 145, 97, 272, 160
-0.995376, 137, 97, 200, 224
-0.995402, 401, 193, 432, 256
-0.995442, 1, 257, 128, 320
-0.995465, 241, 273, 304, 333
-0.995466, 121, 201, 152, 264
-0.995468, 461, 129, 492, 256
-0.995483, 453, 81, 484, 208
-0.995486, 97, 177, 224, 240
-0.995512, 157, 49, 188, 112
-0.995555, 113, 1, 176, 64
-0.995588, 377, 233, 408, 296
-0.995592, 441, 1, 472, 128
-0.99563, 437, 145, 468, 272
-0.995634, 369, 81, 400, 144
-0.995679, 305, 233, 368, 296
-0.995679, 429, 97, 460, 160
-0.995728, 1, 1, 64, 333
-0.995775, 225, 97, 352, 224
-0.995789, 305, 25, 336, 88
-0.99579, 1, 177, 64, 240
-0.995892, 257, 193, 500, 256
-0.995908, 329, 225, 392, 288
-0.995908, 49, 257, 112, 320
-0.99593, 457, 121, 488, 184
-0.995961, 185, 121, 216, 184
-0.995981, 57, 1, 88, 128
-0.995989, 369, 113, 496, 144
-0.99604, 433, 153, 496, 216
-0.996043, 185, 169, 248, 232
-0.996063, 341, 1, 356, 64
-0.996067, 437, 9, 468, 72
-0.996076, 41, 257, 72, 320
-0.996109, 353, 17, 480, 48
-0.996111, 361, 273, 424, 333
-0.996113, 201, 1, 232, 64
-0.996115, 165, 225, 196, 288
-0.996136, 209, 193, 272, 256
-0.996161, 393, 129, 456, 192
-0.996175, 1, 177, 128, 240
-0.996181, 193, 241, 320, 304
-0.996186, 225, 113, 288, 176
-0.9962, 1, 113, 128, 240
-0.996201, 129, 25, 192, 88
-0.996201, 257, 185, 384, 248
-0.99621, 167, 9, 182, 72
-0.996211, 353, 193, 480, 224
-0.996225, 193, 1, 256, 333
-0.996246, 321, 217, 448, 280
-0.996272, 379, 185, 394, 248
-0.996272, 257, 25, 320, 88
-0.996273, 305, 265, 432, 328
-0.996297, 241, 113, 368, 176
-0.996326, 157, 33, 172, 96
-0.996336, 129, 185, 384, 248
-0.996378, 357, 129, 388, 256
-0.996409, 61, 1, 92, 64
-0.996416, 273, 13, 400, 44
-0.996416, 177, 49, 304, 112
-0.996438, 181, 161, 212, 288
-0.99644, 21, 225, 52, 288
-0.996442, 225, 57, 352, 120
-0.996462, 133, 49, 164, 176
-0.996464, 289, 113, 352, 176
-0.996507, 141, 65, 172, 128
-0.99651, 161, 201, 192, 264
-0.996512, 173, 1, 188, 64
-0.996563, 151, 33, 166, 96
-0.996563, 81, 65, 208, 128
-0.996579, 315, 1, 330, 64
-0.996596, 441, 49, 472, 176
-0.996603, 145, 201, 176, 264
-0.996612, 345, 209, 376, 272
-0.996661, 57, 1, 120, 333
-0.996662, 273, 25, 400, 56
-0.996682, 349, 33, 380, 96
-0.996687, 329, 25, 360, 88
-0.996733, 81, 241, 144, 304
-0.996739, 193, 25, 256, 88
-0.996747, 257, 25, 500, 88
-0.99678, 441, 97, 472, 160
-0.996782, 137, 265, 168, 328
-0.996794, 257, 1, 500, 64
-0.996797, 181, 161, 212, 224
-0.996804, 353, 129, 416, 192
-0.996825, 97, 113, 224, 176
-0.996832, 373, 33, 388, 96
-0.996837, 61, 177, 92, 304
-0.996862, 129, 25, 384, 88
-0.996889, 333, 193, 364, 320
-0.996899, 121, 193, 152, 320
-0.996921, 225, 265, 352, 328
-0.996937, 353, 29, 480, 60
-0.996942, 193, 217, 448, 280
-0.996951, 387, 177, 402, 240
-0.996951, 301, 49, 332, 176
-0.996955, 353, 181, 480, 212
-0.996964, 401, 81, 432, 144
-0.996979, 305, 81, 336, 144
-0.996991, 389, 209, 420, 272
-0.996998, 353, 49, 384, 176
-0.997001, 405, 105, 420, 168
-0.997023, 393, 97, 408, 160
-0.997025, 369, 265, 496, 328
-0.997032, 305, 193, 432, 224
-0.99706, 1, 225, 256, 288
-0.997069, 375, 57, 390, 120
-0.997086, 69, 209, 100, 272
-0.997093, 371, 185, 386, 248
-0.997104, 225, 97, 288, 224
-0.997105, 429, 193, 460, 256
-0.997163, 307, 17, 322, 80
-0.997163, 49, 225, 64, 288
-0.997185, 241, 233, 368, 296
-0.997201, 379, 25, 394, 88
-0.997204, 33, 265, 288, 328
-0.997249, 81, 225, 208, 256
-0.997251, 353, 53, 480, 84
-0.997265, 153, 129, 216, 192
-0.997273, 369, 5, 496, 36
-0.997278, 209, 1, 272, 256
-0.99729, 353, 41, 480, 72
-0.997304, 225, 1, 256, 64
-0.997321, 33, 1, 64, 128
-0.997329, 305, 177, 368, 240
-0.997357, 433, 201, 496, 264
-0.997358, 157, 57, 172, 120
-0.997361, 265, 241, 328, 304
-0.997364, 273, 1, 400, 32
-0.997369, 225, 1, 288, 333
-0.997384, 141, 17, 172, 80
-0.997406, 193, 97, 320, 160
-0.997407, 177, 1, 208, 64
-0.997409, 411, 105, 426, 168
-0.997435, 367, 33, 382, 96
-0.997456, 257, 81, 500, 144
-0.997477, 417, 1, 448, 256
-0.997492, 257, 113, 500, 176
-0.997505, 1, 233, 128, 264
-0.997539, 383, 73, 398, 136
-0.997543, 337, 101, 464, 132
-0.997551, 273, 41, 400, 72
-0.997564, 105, 33, 168, 96
-0.997569, 351, 1, 366, 64
-0.997578, 163, 33, 178, 96
-0.99758, 193, 1, 320, 32
-0.997581, 17, 1, 144, 32
-0.997586, 81, 177, 144, 240
-0.997588, 55, 225, 70, 288
-0.997599, 301, 1, 316, 64
-0.997615, 453, 97, 484, 160
-0.997633, 335, 1, 350, 64
-0.997651, 391, 201, 406, 264
-0.997654, 225, 1, 256, 128
-0.997655, 257, 57, 500, 120
-0.997665, 145, 41, 160, 104
-0.997666, 49, 177, 176, 240
-0.997702, 33, 1, 288, 64
-0.997704, 317, 25, 348, 88
-0.997707, 129, 241, 384, 304
-0.997733, 413, 161, 444, 224
-0.997735, 17, 177, 48, 304
-0.997736, 375, 1, 390, 64
-0.997742, 145, 1, 272, 32
-0.997755, 43, 225, 58, 288
-0.997764, 177, 265, 304, 328
-0.997766, 125, 225, 156, 288
-0.997767, 129, 229, 256, 260
-0.99778, 157, 9, 172, 72
-0.997783, 411, 1, 426, 64
-0.997789, 225, 169, 480, 232
-0.997794, 383, 209, 398, 272
-0.997799, 221, 1, 236, 64
-0.997799, 445, 121, 476, 184
-0.997803, 399, 105, 414, 168
-0.997804, 419, 17, 434, 80
-0.997805, 305, 89, 432, 120
-0.997819, 179, 153, 194, 216
-0.997822, 365, 1, 396, 256
-0.997827, 129, 105, 384, 168
-0.997868, 225, 161, 352, 224
-0.997874, 173, 153, 188, 216
-0.997875, 273, 53, 400, 84
-0.997905, 113, 49, 240, 80
-0.997911, 427, 193, 442, 256
-0.997955, 333, 201, 364, 264
-0.997969, 205, 217, 236, 280
-0.997974, 369, 241, 496, 304
-0.997977, 169, 193, 200, 320
-0.99798, 151, 45, 166, 76
-0.997995, 157, 37, 172, 68
-0.998005, 405, 1, 436, 256
-0.99801, 49, 1, 112, 256
-0.998027, 33, 185, 288, 248
-0.998047, 227, 1, 242, 64
-0.998049, 341, 49, 372, 176
-0.998054, 225, 137, 352, 200
-0.998059, 151, 57, 166, 120
-0.998062, 61, 225, 76, 288
-0.998067, 403, 81, 418, 144
-0.998075, 421, 193, 436, 256
-0.998093, 369, 89, 496, 120
-0.998116, 369, 161, 400, 224
-0.99814, 1, 129, 64, 256
-0.998143, 157, 209, 188, 333
-0.998143, 347, 201, 362, 264
-0.998164, 429, 1, 444, 64
-0.998168, 281, 9, 312, 72
-0.998168, 417, 105, 432, 168
-0.998169, 305, 205, 432, 236
-0.99817, 129, 37, 256, 68
-0.998171, 369, 65, 496, 96
-0.998183, 49, 161, 80, 288
-0.998187, 49, 237, 176, 268
-0.99819, 175, 1, 190, 32
-0.9982, 113, 213, 240, 244
-0.998211, 379, 161, 394, 224
-0.998211, 393, 273, 424, 333
-0.998223, 457, 121, 488, 136
-0.998224, 361, 187, 392, 202
-0.998224, 37, 235, 68, 250
-0.998224, 65, 233, 96, 248
-0.998225, 381, 85, 412, 100
-0.998225, 33, 245, 64, 260
-0.998226, 173, 235, 204, 250
-0.998226, 157, 69, 188, 84
-0.998226, 457, 203, 488, 218
-0.998226, 137, 283, 168, 298
-0.998227, 393, 3, 424, 18
-0.998227, 413, 7, 444, 22
-0.998228, 289, 27, 320, 42
-0.998228, 305, 53, 336, 68
-0.998228, 425, 107, 456, 122
-0.998228, 309, 89, 340, 104
-0.998228, 425, 193, 456, 208
-0.998229, 381, 77, 412, 92
-0.998229, 177, 225, 192, 288
-0.99823, 143, 225, 158, 288
-0.99823, 317, 15, 348, 30
-0.99823, 401, 117, 432, 132
-0.99823, 45, 251, 76, 266
-0.998231, 185, 149, 216, 164
-0.998231, 149, 5, 180, 20
-0.998232, 401, 105, 432, 120
-0.998233, 421, 21, 452, 36
-0.998234, 377, 229, 408, 244
-0.998234, 377, 219, 408, 234
-0.998234, 45, 229, 76, 244
-0.998235, 381, 25, 412, 40
-0.998235, 413, 107, 444, 122
-0.998236, 381, 241, 412, 256
-0.998236, 161, 51, 192, 66
-0.998237, 361, 5, 392, 20
-0.998238, 445, 111, 476, 126
-0.998239, 321, 21, 352, 36
-0.99824, 321, 1, 336, 64
-0.998241, 393, 205, 424, 220
-0.998242, 409, 1, 440, 16
-0.998243, 425, 27, 456, 42
-0.998243, 281, 11, 312, 26
-0.998244, 285, 5, 316, 20
-0.998244, 349, 7, 380, 22
-0.998244, 345, 19, 376, 34
-0.998244, 357, 201, 372, 264
-0.998245, 45, 13, 76, 28
-0.998246, 129, 225, 160, 240
-0.998247, 441, 201, 472, 216
-0.998247, 185, 233, 216, 248
-0.998248, 213, 7, 244, 22
-0.998249, 173, 11, 204, 26
-0.998249, 381, 101, 412, 116
-0.99825, 353, 33, 384, 48
-0.99825, 209, 235, 240, 250
-0.99825, 369, 37, 400, 52
-0.998252, 345, 1, 376, 16
-0.998253, 133, 43, 164, 58
-0.998254, 169, 157, 200, 172
-0.998254, 365, 11, 396, 26
-0.998255, 153, 227, 184, 242
-0.998256, 129, 55, 160, 70
-0.998257, 45, 7, 76, 22
-0.998257, 357, 27, 388, 42
-0.998257, 353, 39, 384, 54
-0.998257, 365, 67, 396, 82
-0.998258, 197, 1, 228, 16
-0.998258, 373, 31, 404, 46
-0.998259, 145, 37, 176, 52
-0.998259, 313, 27, 344, 42
-0.99826, 137, 61, 168, 76
-0.99826, 389, 187, 420, 202
-0.99826, 377, 213, 408, 228
-0.99826, 281, 209, 344, 272
-0.998262, 129, 161, 384, 224
-0.998262, 341, 13, 372, 28
-0.998262, 65, 239, 96, 254
-0.998262, 337, 29, 368, 44
-0.998262, 45, 245, 76, 260
-0.998263, 301, 27, 332, 42
-0.998263, 377, 207, 408, 222
-0.998264, 133, 49, 164, 64
-0.998264, 357, 193, 388, 208
-0.998264, 137, 261, 168, 276
-0.998266, 437, 117, 468, 132
-0.998269, 425, 45, 456, 60
-0.998269, 365, 17, 396, 32
-0.99827, 353, 47, 384, 62
-0.99827, 365, 73, 396, 88
-0.998272, 153, 13, 184, 28
-0.998273, 373, 91, 404, 106
-0.998274, 413, 113, 444, 128
-0.998275, 149, 25, 180, 40
-0.998275, 45, 1, 76, 16
-0.998276, 161, 59, 192, 74
-0.998277, 165, 25, 196, 40
-0.998277, 257, 145, 500, 208
-0.998277, 377, 185, 392, 216
-0.998278, 389, 107, 420, 122
-0.998279, 333, 23, 364, 38
-0.998279, 425, 201, 456, 216
-0.99828, 425, 33, 456, 48
-0.998281, 425, 113, 456, 128
-0.998283, 165, 17, 196, 32
-0.998284, 165, 217, 180, 280
-0.998284, 357, 55, 388, 70
-0.998285, 145, 69, 176, 84
-0.998287, 197, 237, 228, 252
-0.998288, 385, 249, 448, 312
-0.998291, 329, 13, 360, 28
-0.998291, 49, 235, 80, 250
-0.998297, 425, 39, 456, 54
-0.998297, 301, 5, 332, 20
-0.998299, 289, 65, 416, 96
-0.998299, 289, 21, 320, 36
-0.9983, 161, 7, 192, 22
-0.998302, 385, 199, 416, 214
-0.998302, 365, 199, 396, 214
-0.998302, 37, 225, 52, 288
-0.998303, 371, 189, 386, 220
-0.998303, 201, 145, 264, 208
-0.998306, 369, 81, 400, 96
-0.998307, 145, 273, 208, 333
-0.998308, 153, 225, 168, 288
-0.998309, 293, 11, 324, 26
-0.998312, 161, 1, 192, 16
-0.998312, 361, 61, 392, 76
-0.998312, 165, 229, 196, 244
-0.998313, 305, 11, 336, 26
-0.998315, 41, 185, 104, 248
-0.998315, 157, 33, 188, 48
-0.998315, 337, 7, 368, 22
-0.998316, 149, 63, 180, 78
-0.998317, 49, 253, 176, 284
-0.99832, 309, 21, 340, 36
-0.998322, 333, 1, 364, 16
-0.998322, 397, 195, 428, 210
-0.998325, 373, 187, 404, 202
-0.998328, 185, 145, 200, 208
-0.998332, 173, 5, 204, 20
-0.998334, 335, 1, 350, 32
-0.998338, 401, 49, 432, 176
-0.998338, 345, 129, 376, 256
-0.998338, 325, 7, 356, 22
-0.998346, 65, 49, 192, 80
-0.998346, 81, 89, 208, 152
-0.99835, 145, 241, 272, 272
-0.998352, 133, 201, 164, 264
-0.998353, 213, 145, 244, 272
-0.998355, 193, 185, 224, 248
-0.998358, 273, 181, 400, 212
-0.998359, 141, 55, 172, 70
-0.998359, 327, 1, 342, 64
-0.998361, 189, 1, 220, 256
-0.998364, 317, 1, 348, 16
-0.998365, 385, 193, 416, 208
-0.998365, 401, 111, 432, 126
-0.998367, 409, 197, 440, 212
-0.998368, 405, 109, 420, 140
-0.998368, 145, 45, 160, 76
-0.99837, 149, 43, 180, 58
-0.998371, 249, 65, 312, 128
-0.998372, 197, 177, 228, 304
-0.998374, 397, 225, 412, 288
-0.99838, 33, 221, 160, 252
-0.998384, 437, 17, 452, 80
-0.998387, 171, 217, 186, 280
-0.998388, 321, 113, 448, 144
-0.998393, 121, 145, 184, 208
-0.998397, 1, 249, 500, 312
-0.9984, 1, 153, 256, 216
-0.998402, 53, 249, 68, 312
-0.998402, 369, 193, 400, 208
-0.99842, 161, 217, 288, 248
-0.998433, 329, 1, 360, 256
-0.998438, 1, 25, 256, 88
-0.998446, 321, 121, 384, 184
-0.998451, 423, 105, 438, 168
-0.998454, 145, 49, 176, 64
-0.998458, 169, 9, 184, 40
-0.998458, 49, 37, 176, 68
-0.998462, 169, 177, 200, 240
-0.998464, 385, 189, 400, 220
-0.998466, 213, 1, 228, 64
-0.998467, 341, 5, 356, 36
-0.99847, 369, 125, 496, 156
-0.998475, 351, 25, 366, 88
-0.998476, 49, 277, 176, 308
-0.998481, 159, 225, 174, 288
-0.998505, 415, 185, 430, 248
-0.998506, 301, 1, 332, 256
-0.998512, 179, 1, 194, 64
-0.998512, 429, 105, 444, 168
-0.998515, 335, 25, 350, 88
-0.998519, 389, 73, 404, 136
-0.998524, 433, 193, 448, 256
-0.998532, 245, 1, 276, 128
-0.998539, 47, 1, 62, 64
-0.998542, 431, 41, 446, 104
-0.998543, 265, 1, 296, 64
-0.998548, 403, 249, 418, 312
-0.998548, 425, 25, 440, 88
-0.998555, 163, 57, 178, 120
-0.998556, 225, 13, 352, 44
-0.998557, 375, 61, 390, 92
-0.998557, 89, 273, 152, 333
-0.998563, 387, 201, 402, 232
-0.998563, 305, 77, 432, 108
-0.998563, 369, 57, 384, 120
-0.998563, 407, 273, 422, 333
-0.998563, 381, 1, 396, 64
-0.998563, 161, 181, 288, 212
-0.998564, 349, 13, 364, 44
-0.998566, 213, 217, 228, 280
-0.998567, 163, 33, 178, 64
-0.998567, 361, 193, 424, 208
-0.998572, 413, 33, 444, 96
-0.998572, 207, 9, 222, 72
-0.998584, 293, 1, 308, 64
-0.998595, 411, 109, 426, 140
-0.998599, 389, 249, 420, 312
-0.9986, 393, 111, 456, 126
-0.9986, 369, 13, 432, 28
-0.998604, 157, 49, 172, 80
-0.998605, 305, 1, 368, 16
-0.998613, 369, 7, 432, 22
-0.998614, 49, 289, 176, 320
-0.998614, 149, 201, 164, 264
-0.998618, 393, 65, 424, 320
-0.998618, 311, 5, 326, 36
-0.998623, 385, 195, 448, 210
-0.998624, 389, 225, 404, 288
-0.998624, 369, 19, 432, 34
-0.998624, 409, 193, 424, 224
-0.998628, 157, 61, 172, 92
-0.998629, 463, 113, 478, 176
-0.998632, 361, 187, 424, 202
-0.998634, 369, 1, 432, 16
-0.998635, 177, 73, 304, 136
-0.998639, 169, 3, 232, 18
-0.998639, 289, 101, 416, 132
-0.998641, 17, 13, 144, 44
-0.998641, 329, 1, 392, 16
-0.998642, 33, 1, 96, 16
-0.998644, 25, 235, 88, 250
-0.998646, 337, 17, 400, 32
-0.99865, 369, 27, 432, 42
-0.998656, 409, 199, 472, 214
-0.998662, 129, 229, 192, 244
-0.998663, 137, 51, 200, 66
-0.998664, 113, 201, 240, 232
-0.998665, 47, 257, 62, 320
-0.998665, 357, 9, 372, 72
-0.998666, 369, 109, 432, 124
-0.998667, 33, 7, 96, 22
-0.998668, 337, 11, 400, 26
-0.998671, 177, 149, 304, 180
-0.998672, 439, 97, 454, 160
-0.998673, 329, 53, 392, 68
-0.998674, 305, 33, 368, 48
-0.998676, 1, 153, 128, 216
-0.998676, 353, 199, 416, 214
-0.998676, 329, 25, 392, 40
-0.998677, 303, 13, 318, 44
-0.998678, 433, 233, 496, 296
-0.998679, 471, 121, 486, 184
-0.99868, 137, 61, 200, 76
-0.99868, 161, 15, 224, 30
-0.998682, 409, 117, 472, 132
-0.998682, 253, 1, 284, 64
-0.998683, 329, 35, 392, 50
-0.998686, 369, 33, 432, 48
-0.998687, 169, 235, 232, 250
-0.998687, 289, 7, 352, 22
-0.998688, 329, 129, 360, 256
-0.99869, 297, 17, 360, 32
-0.998691, 297, 23, 360, 38
-0.998693, 273, 23, 336, 38
-0.998693, 409, 19, 472, 34
-0.998693, 313, 9, 376, 24
-0.998695, 33, 245, 96, 260
-0.998697, 339, 201, 354, 264
-0.998698, 337, 193, 400, 208
-0.998698, 33, 13, 96, 28
-0.998699, 409, 13, 472, 28
-0.998699, 137, 45, 200, 60
-0.9987, 401, 105, 464, 120
-0.998701, 401, 187, 464, 202
-0.998701, 337, 65, 400, 80
-0.998702, 281, 29, 344, 44
-0.998703, 337, 71, 400, 86
-0.998704, 349, 1, 364, 32
-0.998705, 169, 9, 232, 24
-0.998705, 401, 1, 464, 16
-0.998706, 281, 1, 344, 16
-0.998706, 153, 35, 216, 50
-0.998709, 177, 229, 240, 244
-0.998709, 469, 97, 484, 160
-0.998709, 257, 5, 320, 20
-0.998711, 161, 25, 224, 40
-0.998714, 353, 103, 416, 118
-0.998714, 329, 41, 392, 56
-0.998715, 433, 121, 496, 136
-0.998716, 401, 7, 464, 22
-0.998716, 393, 97, 456, 112
-0.998719, 57, 237, 120, 252
-0.998722, 345, 85, 408, 100
-0.998723, 313, 33, 328, 96
-0.998724, 409, 25, 472, 40
-0.998724, 177, 229, 192, 260
-0.998724, 329, 47, 392, 62
-0.998725, 113, 261, 176, 276
-0.998725, 273, 15, 336, 30
-0.998725, 169, 223, 232, 238
-0.998725, 425, 107, 488, 122
-0.998726, 17, 229, 80, 244
-0.998727, 185, 179, 248, 194
-0.998727, 129, 5, 192, 20
-0.998727, 385, 201, 448, 216
-0.99873, 329, 59, 392, 74
-0.998731, 137, 21, 200, 36
-0.998731, 153, 241, 216, 256
-0.998732, 369, 115, 432, 130
-0.998732, 375, 33, 390, 64
-0.998733, 113, 59, 176, 74
-0.998733, 33, 251, 96, 266
-0.998733, 33, 19, 96, 34
-0.998733, 181, 49, 212, 176
-0.998733, 139, 201, 154, 264
-0.998733, 113, 285, 176, 300
-0.998735, 149, 1, 180, 256
-0.998735, 385, 91, 448, 106
-0.998735, 137, 11, 200, 26
-0.998735, 363, 9, 378, 72
-0.998735, 329, 187, 392, 202
-0.998737, 177, 149, 240, 164
-0.998738, 273, 37, 336, 52
-0.998738, 353, 213, 416, 228
-0.998738, 49, 301, 176, 332
-0.998739, 163, 13, 178, 44
-0.998739, 445, 1, 460, 64
-0.99874, 297, 57, 328, 120
-0.99874, 329, 199, 392, 214
-0.998741, 57, 243, 120, 258
-0.998741, 345, 205, 408, 220
-0.998741, 345, 77, 408, 92
-0.998742, 377, 225, 440, 288
-0.998743, 57, 1, 120, 16
-0.998744, 417, 193, 480, 208
-0.998744, 1, 243, 64, 258
-0.998745, 361, 39, 424, 54
-0.998745, 345, 113, 408, 128
-0.998745, 153, 229, 216, 244
-0.998745, 97, 209, 352, 272
-0.998746, 137, 67, 200, 82
-0.998746, 1, 1, 64, 16
-0.998746, 57, 231, 120, 246
-0.998747, 345, 91, 408, 106
-0.998747, 351, 213, 366, 244
-0.998748, 305, 41, 368, 56
-0.998748, 1, 235, 64, 250
-0.998748, 421, 169, 436, 232
-0.998748, 113, 51, 176, 66
-0.998749, 33, 25, 96, 40
-0.998749, 113, 269, 176, 284
-0.99875, 177, 155, 240, 170
-0.99875, 209, 233, 272, 248
-0.99875, 57, 7, 120, 22
-0.99875, 121, 27, 184, 42
-0.99875, 249, 15, 312, 30
-0.998751, 113, 277, 176, 292
-0.998751, 409, 31, 472, 46
-0.998751, 329, 153, 392, 216
-0.998751, 433, 63, 496, 78
-0.998752, 385, 85, 448, 100
-0.998752, 343, 25, 358, 88
-0.998753, 377, 215, 440, 230
-0.998753, 121, 37, 184, 52
-0.998753, 209, 7, 272, 22
-0.998753, 369, 181, 432, 196
-0.998754, 293, 25, 324, 88
-0.998755, 433, 113, 496, 128
-0.998755, 361, 71, 424, 86
-0.998756, 417, 109, 432, 140
-0.998756, 89, 221, 152, 236
-0.998757, 281, 51, 344, 66
-0.998757, 305, 119, 368, 134
-0.998757, 145, 235, 208, 250
-0.998757, 305, 55, 368, 70
-0.998757, 353, 227, 416, 242
-0.998758, 193, 239, 256, 254
-0.998759, 149, 57, 164, 88
-0.998759, 361, 47, 424, 62
-0.99876, 81, 227, 144, 242
-0.998761, 129, 293, 256, 324
-0.998761, 161, 59, 224, 74
-0.998761, 353, 57, 416, 72
-0.998763, 399, 105, 414, 136
-0.998764, 457, 97, 472, 160
-0.998764, 31, 225, 46, 288
-0.998767, 465, 81, 496, 208
-0.99877, 53, 1, 68, 64
-0.998772, 329, 21, 344, 52
-0.998773, 157, 153, 188, 216
-0.998776, 177, 201, 192, 264
-0.998781, 385, 81, 400, 112
-0.998793, 383, 49, 398, 112
-0.998793, 433, 193, 496, 320
-0.998796, 45, 1, 76, 256
-0.998798, 225, 145, 288, 272
-0.9988, 377, 197, 392, 228
-0.998801, 301, 1, 316, 32
-0.998805, 151, 69, 166, 100
-0.998809, 381, 69, 396, 100
-0.998814, 167, 225, 182, 256
-0.998815, 357, 33, 372, 96
-0.998818, 63, 249, 78, 312
-0.99882, 353, 77, 480, 108
-0.998827, 97, 157, 224, 188
-0.998827, 113, 177, 240, 208
-0.998838, 429, 1, 460, 256
-0.998839, 49, 25, 176, 56
-0.998842, 427, 197, 442, 228
-0.998843, 137, 225, 152, 288
-0.998845, 189, 121, 204, 184
-0.998847, 181, 1, 196, 32
-0.998847, 47, 233, 62, 264
-0.998849, 429, 29, 444, 60
-0.998852, 191, 161, 206, 224
-0.998855, 167, 153, 182, 216
-0.998857, 169, 73, 232, 136
-0.998857, 49, 265, 176, 296
-0.998861, 393, 101, 408, 132
-0.998864, 409, 185, 424, 248
-0.99887, 401, 273, 416, 333
-0.998876, 365, 185, 380, 248
-0.998877, 129, 265, 384, 328
-0.998878, 369, 49, 384, 80
-0.998879, 113, 13, 240, 44
-0.998879, 437, 41, 452, 104
-0.998881, 1, 161, 32, 288
-0.998882, 409, 81, 424, 144
-0.998884, 421, 197, 436, 228
-0.998886, 415, 193, 430, 224
-0.998888, 273, 225, 400, 256
-0.998888, 377, 1, 408, 256
-0.99889, 339, 21, 354, 52
-0.998892, 171, 21, 186, 52
-0.9989, 423, 109, 438, 140
-0.998908, 357, 205, 372, 236
-0.998909, 319, 25, 334, 88
-0.998911, 393, 161, 408, 224
-0.998912, 177, 225, 208, 288
-0.998915, 427, 161, 442, 224
-0.998917, 1, 245, 128, 276
-0.99892, 407, 1, 422, 32
-0.998921, 401, 273, 464, 333
-0.998922, 41, 249, 56, 312
-0.998922, 469, 113, 500, 176
-0.998927, 413, 81, 444, 144
-0.998928, 265, 121, 328, 184
-0.998931, 165, 49, 180, 80
-0.998934, 323, 81, 338, 144
-0.998934, 317, 9, 332, 40
-0.998938, 193, 29, 320, 60
-0.998943, 453, 105, 468, 136
-0.998943, 399, 185, 414, 248
-0.998945, 159, 201, 174, 264
-0.998951, 369, 145, 496, 176
-0.998952, 429, 109, 444, 140
-0.998952, 59, 233, 74, 264
-0.998952, 439, 193, 454, 256
-0.998953, 261, 1, 276, 64
-0.998955, 477, 201, 492, 264
-0.998955, 165, 97, 196, 224
-0.998961, 141, 57, 156, 88
-0.998962, 459, 109, 474, 140
-0.998964, 177, 169, 304, 200
-0.998964, 415, 81, 430, 144
-0.998968, 457, 153, 472, 216
-0.998969, 395, 73, 410, 136
-0.99897, 233, 1, 248, 64
-0.998971, 361, 49, 424, 112
-0.998972, 129, 49, 384, 112
-0.998973, 181, 177, 196, 240
-0.998974, 237, 1, 268, 64
-0.998975, 305, 25, 320, 56
-0.998977, 369, 157, 496, 188
-0.998977, 113, 189, 240, 220
-0.998977, 1, 105, 500, 168
-0.998979, 393, 249, 408, 312
-0.998983, 193, 229, 320, 260
-0.998984, 391, 213, 406, 244
-0.998989, 133, 201, 148, 264
-0.99899, 113, 269, 240, 300
-0.998994, 345, 193, 376, 320
-0.998994, 405, 97, 420, 128
-0.998995, 463, 153, 478, 216
-0.998998, 295, 5, 310, 36
-0.999001, 53, 229, 68, 260
-0.999004, 441, 105, 456, 136
-0.999012, 193, 41, 320, 72
-0.999013, 433, 197, 448, 228
-0.999018, 417, 17, 432, 48
-0.999019, 469, 105, 484, 136
-0.999029, 227, 1, 242, 32
-0.99903, 65, 1, 192, 32
-0.999031, 41, 229, 56, 260
-0.99904, 249, 1, 312, 333
-0.999042, 345, 25, 360, 56
-0.999044, 161, 1, 176, 32
-0.999044, 323, 9, 338, 40
-0.999054, 313, 1, 344, 256
-0.999055, 51, 245, 66, 276
-0.999056, 221, 65, 252, 192
-0.999056, 129, 253, 256, 284
-0.999056, 145, 61, 272, 92
-0.999057, 97, 129, 352, 192
-0.999057, 353, 169, 480, 200
-0.999058, 347, 201, 362, 232
-0.999068, 447, 109, 462, 140
-0.999069, 215, 225, 230, 256
-0.999072, 355, 5, 370, 36
-0.999072, 169, 1, 184, 128
-0.999073, 183, 229, 198, 260
-0.999078, 129, 281, 256, 312
-0.999081, 161, 225, 176, 256
-0.999082, 317, 89, 348, 152
-0.999084, 311, 17, 326, 48
-0.999086, 313, 49, 344, 176
-0.999087, 151, 33, 166, 64
-0.999088, 33, 97, 288, 160
-0.99909, 39, 241, 54, 272
-0.999091, 353, 205, 480, 236
-0.999094, 145, 101, 272, 132
-0.999096, 209, 233, 224, 264
-0.999098, 381, 25, 396, 56
-0.9991, 341, 1, 372, 256
-0.999101, 225, 89, 352, 120
-0.999102, 209, 1, 224, 32
-0.999106, 369, 221, 496, 252
-0.999112, 351, 29, 366, 60
-0.999114, 175, 153, 190, 184
-0.999116, 257, 193, 384, 224
-0.999119, 33, 233, 48, 264
-0.999119, 57, 245, 72, 276
-0.999131, 65, 233, 80, 264
-0.999138, 463, 121, 478, 152
-0.999138, 145, 133, 272, 164
-0.99914, 129, 81, 384, 144
-0.999142, 435, 105, 450, 136
-0.999143, 397, 193, 412, 224
-0.999143, 379, 209, 394, 240
-0.999145, 395, 233, 410, 264
-0.999146, 421, 29, 436, 60
-0.999148, 49, 257, 64, 288
-0.99915, 317, 21, 332, 52
-0.999154, 437, 37, 452, 68
-0.999155, 403, 189, 418, 220
-0.999157, 383, 225, 398, 256
-0.999157, 379, 81, 394, 112
-0.999158, 161, 13, 288, 44
-0.999159, 399, 89, 414, 120
-0.99916, 365, 37, 380, 68
-0.999161, 29, 1, 60, 64
-0.999162, 379, 13, 394, 44
-0.999163, 329, 1, 344, 32
-0.999173, 469, 201, 500, 264
-0.999174, 181, 153, 196, 184
-0.999177, 163, 61, 178, 92
-0.999185, 177, 217, 192, 248
-0.99919, 387, 177, 402, 208
-0.999197, 413, 5, 428, 36
-0.999199, 381, 173, 396, 204
-0.999205, 147, 229, 162, 260
-0.999209, 97, 145, 224, 176
-0.99921, 429, 41, 444, 72
-0.999211, 319, 77, 334, 108
-0.999217, 45, 245, 60, 276
-0.999218, 63, 245, 78, 276
-0.999222, 145, 81, 272, 112
-0.999222, 1, 1, 64, 256
-0.999222, 397, 245, 412, 276
-0.99923, 409, 289, 424, 320
-0.999231, 393, 181, 408, 212
-0.999233, 145, 249, 160, 280
-0.99924, 153, 229, 168, 260
-0.999242, 193, 53, 320, 84
-0.999242, 391, 89, 406, 120
-0.999242, 127, 269, 142, 300
-0.999243, 485, 237, 500, 268
-0.999244, 45, 1, 60, 32
-0.999244, 181, 141, 196, 172
-0.999248, 469, 121, 484, 152
-0.999248, 155, 241, 170, 272
-0.999251, 405, 273, 420, 304
-0.999255, 439, 197, 454, 228
-0.999256, 409, 217, 472, 280
-0.999258, 215, 5, 230, 36
-0.999265, 163, 1, 178, 128
-0.999271, 113, 145, 176, 272
-0.999273, 305, 129, 432, 160
-0.999274, 375, 17, 390, 144
-0.999311, 281, 145, 344, 272
-0.999322, 145, 25, 272, 56
-0.999324, 305, 257, 368, 320
-0.999326, 381, 177, 396, 304
-0.999334, 273, 237, 400, 268
-0.999337, 81, 61, 208, 92
-0.99934, 317, 113, 348, 240
-0.99934, 381, 1, 396, 128
-0.999355, 437, 153, 468, 216
-0.999357, 389, 161, 404, 288
-0.99937, 415, 1, 430, 128
-0.99937, 405, 97, 420, 224
-0.999397, 193, 201, 320, 232
-0.999398, 309, 1, 324, 128
-0.999403, 1, 73, 256, 136
-0.999407, 61, 257, 92, 320
-0.99941, 201, 113, 264, 176
-0.999427, 411, 97, 426, 224
-0.999429, 391, 81, 406, 208
-0.99943, 429, 33, 444, 160
-0.999434, 441, 185, 472, 248
-0.999434, 353, 1, 384, 256
-0.999438, 97, 241, 224, 272
-0.999438, 379, 129, 394, 256
-0.999438, 197, 113, 228, 240
-0.999445, 139, 53, 154, 68
-0.999445, 445, 201, 460, 216
-0.999445, 435, 17, 450, 144
-0.999445, 183, 233, 198, 248
-0.999446, 417, 21, 432, 36
-0.999446, 173, 25, 188, 40
-0.999446, 293, 277, 308, 292
-0.999446, 403, 115, 418, 130
-0.999447, 303, 1, 318, 128
-0.999447, 411, 305, 426, 320
-0.999447, 397, 251, 412, 266
-0.999447, 367, 189, 382, 204
-0.999448, 223, 5, 238, 20
-0.999448, 449, 111, 464, 126
-0.999448, 421, 17, 436, 144
-0.999448, 157, 17, 172, 144
-0.999448, 335, 15, 350, 30
-0.999448, 319, 85, 334, 100
-0.999448, 257, 129, 384, 160
-0.999449, 47, 251, 62, 266
-0.999449, 347, 9, 362, 24
-0.999449, 389, 85, 404, 100
-0.99945, 409, 299, 424, 314
-0.99945, 403, 103, 418, 118
-0.999451, 345, 21, 360, 36
-0.999451, 389, 77, 404, 92
-0.999453, 403, 275, 418, 290
-0.999453, 353, 217, 368, 232
-0.999455, 137, 223, 152, 238
-0.999455, 161, 7, 176, 22
-0.999456, 373, 37, 388, 52
-0.999457, 469, 231, 484, 246
-0.999457, 397, 107, 412, 122
-0.999457, 429, 113, 444, 128
-0.999458, 351, 29, 366, 44
-0.999459, 395, 243, 410, 258
-0.999459, 385, 187, 400, 202
-0.999459, 393, 235, 408, 250
-0.99946, 429, 29, 444, 44
-0.99946, 307, 15, 322, 30
-0.99946, 341, 35, 356, 50
-0.99946, 391, 225, 406, 240
-0.999461, 175, 145, 190, 272
-0.999462, 423, 113, 438, 128
-0.999462, 317, 25, 332, 40
-0.999463, 379, 201, 394, 216
-0.999464, 207, 1, 222, 128
-0.999464, 341, 1, 356, 16
-0.999464, 207, 237, 222, 252
-0.999465, 435, 113, 450, 128
-0.999465, 365, 49, 380, 64
-0.999465, 167, 227, 182, 242
-0.999466, 155, 35, 170, 50
-0.999466, 335, 27, 350, 42
-0.999467, 387, 91, 402, 106
-0.999467, 377, 73, 392, 88
-0.999467, 321, 217, 448, 248
-0.999467, 439, 201, 454, 216
-0.999467, 389, 219, 404, 234
-0.999467, 305, 141, 432, 172
-0.999468, 379, 31, 394, 46
-0.999468, 219, 231, 234, 246
-0.999469, 393, 101, 408, 116
-0.999469, 383, 65, 398, 192
-0.999469, 201, 1, 232, 256
-0.999469, 167, 1, 182, 16
-0.999469, 305, 27, 320, 42
-0.999471, 351, 21, 366, 36
-0.999471, 315, 7, 330, 22
-0.999472, 417, 111, 432, 126
-0.999472, 343, 1, 358, 128
-0.999472, 141, 59, 156, 74
-0.999472, 445, 117, 460, 132
-0.999474, 389, 213, 404, 228
-0.999474, 383, 85, 398, 100
-0.999474, 433, 201, 448, 216
-0.999475, 147, 65, 162, 80
-0.999475, 395, 199, 410, 214
-0.999475, 337, 21, 352, 36
-0.999475, 329, 1, 344, 16
-0.999476, 353, 9, 368, 24
-0.999476, 273, 193, 336, 320
-0.999478, 331, 9, 346, 24
-0.999479, 161, 23, 176, 38
-0.999479, 329, 23, 344, 38
-0.999479, 389, 193, 404, 208
-0.999479, 367, 55, 382, 70
-0.999479, 375, 67, 390, 82
-0.999479, 301, 3, 316, 18
-0.99948, 429, 41, 444, 56
-0.999482, 153, 65, 168, 80
-0.999482, 325, 17, 340, 32
-0.999482, 163, 59, 178, 74
-0.999483, 421, 97, 436, 224
-0.999484, 213, 235, 228, 250
-0.999484, 429, 35, 444, 50
-0.999485, 341, 27, 356, 42
-0.999486, 317, 1, 332, 128
-0.999486, 371, 195, 386, 210
-0.999487, 321, 11, 336, 26
-0.999491, 341, 13, 356, 28
-0.999491, 273, 169, 400, 200
-0.999492, 149, 71, 164, 86
-0.999492, 295, 9, 310, 24
-0.999492, 373, 61, 388, 76
-0.999493, 163, 47, 178, 62
-0.999494, 311, 1, 326, 16
-0.999494, 395, 193, 410, 208
-0.999496, 163, 41, 178, 56
-0.999497, 381, 79, 396, 94
-0.999499, 289, 257, 416, 288
-0.9995, 423, 199, 438, 214
-0.9995, 347, 3, 362, 18
-0.999501, 189, 33, 220, 96
-0.999502, 411, 111, 426, 126
-0.999502, 313, 19, 328, 34
-0.999503, 213, 1, 228, 128
-0.999505, 307, 9, 322, 24
-0.999506, 233, 25, 296, 88
-0.999507, 397, 97, 412, 224
-0.999508, 49, 129, 176, 192
-0.999511, 303, 21, 318, 36
-0.999512, 143, 47, 158, 62
-0.999512, 167, 25, 182, 40
-0.999514, 65, 13, 192, 44
-0.999514, 347, 15, 362, 30
-0.999515, 387, 207, 402, 222
-0.999516, 159, 65, 174, 80
-0.999518, 413, 197, 428, 212
-0.999518, 351, 1, 366, 128
-0.99952, 181, 1, 196, 16
-0.999522, 177, 231, 192, 246
-0.999525, 405, 195, 420, 210
-0.999525, 321, 269, 448, 300
-0.999525, 435, 97, 450, 224
-0.999527, 167, 31, 182, 46
-0.999528, 441, 1, 472, 256
-0.99953, 33, 49, 288, 112
-0.999531, 353, 233, 480, 264
-0.999531, 299, 15, 314, 30
-0.999531, 171, 11, 186, 26
-0.999533, 151, 59, 166, 74
-0.999533, 427, 97, 442, 224
-0.999533, 201, 1, 216, 128
-0.999534, 387, 201, 402, 216
-0.999534, 209, 77, 336, 108
-0.999536, 1, 81, 500, 144
-0.999538, 335, 3, 350, 18
-0.999539, 377, 195, 392, 210
-0.999542, 51, 209, 66, 333
-0.999543, 165, 13, 180, 28
-0.999544, 151, 41, 166, 56
-0.999544, 341, 7, 356, 22
-0.999546, 387, 209, 402, 333
-0.999548, 1, 185, 500, 248
-0.999548, 379, 187, 394, 202
-0.999551, 403, 109, 418, 124
-0.999551, 369, 33, 384, 160
-0.999553, 145, 113, 272, 144
-0.999557, 145, 53, 160, 68
-0.999559, 171, 19, 186, 34
-0.999565, 65, 197, 192, 228
-0.999566, 397, 209, 412, 333
-0.999568, 155, 51, 170, 66
-0.999569, 175, 1, 190, 128
-0.99957, 147, 33, 162, 160
-0.999576, 175, 5, 190, 20
-0.999576, 181, 145, 196, 272
-0.999577, 29, 249, 60, 312
-0.999577, 157, 249, 188, 312
-0.999583, 373, 177, 388, 304
-0.999585, 1, 41, 500, 104
-0.999585, 455, 129, 470, 256
-0.999588, 323, 1, 338, 128
-0.999596, 49, 209, 176, 240
-0.999598, 45, 177, 60, 304
-0.9996, 161, 35, 176, 50
-0.999601, 383, 193, 398, 208
-0.999603, 169, 145, 184, 272
-0.999607, 193, 241, 320, 272
-0.999607, 385, 113, 400, 240
-0.999609, 395, 161, 410, 288
-0.999612, 465, 81, 480, 208
-0.999616, 373, 189, 388, 204
-0.999616, 149, 47, 164, 62
-0.999621, 293, 81, 324, 144
-0.999623, 209, 185, 336, 216
-0.999625, 465, 129, 480, 256
-0.999632, 47, 1, 62, 128
-0.999635, 425, 169, 456, 232
-0.999642, 225, 101, 352, 132
-0.999644, 459, 81, 474, 208
-0.999645, 241, 205, 368, 236
-0.999647, 53, 1, 68, 128
-0.999648, 435, 145, 450, 272
-0.999657, 441, 81, 456, 208
-0.999657, 295, 1, 310, 128
-0.999658, 39, 177, 54, 304
-0.999658, 1, 181, 128, 212
-0.999662, 57, 209, 72, 333
-0.999662, 441, 1, 456, 128
-0.999664, 59, 1, 74, 128
-0.999666, 449, 129, 464, 256
-0.99967, 361, 49, 376, 176
-0.999674, 429, 145, 444, 272
-0.999675, 157, 41, 172, 56
-0.999676, 443, 145, 458, 272
-0.999677, 337, 1, 352, 128
-0.999684, 415, 145, 430, 272
-0.999684, 219, 1, 234, 128
-0.999695, 181, 185, 212, 248
-0.999696, 187, 113, 202, 240
-0.999697, 289, 1, 320, 256
-0.9997, 369, 273, 496, 304
-0.999701, 471, 129, 486, 256
-0.999702, 257, 241, 500, 304
-0.999708, 371, 129, 386, 256
-0.999708, 367, 177, 382, 304
-0.999712, 409, 1, 424, 128
-0.999713, 195, 1, 210, 128
-0.999716, 179, 97, 194, 224
-0.999718, 405, 145, 420, 272
-0.99972, 403, 49, 418, 176
-0.999721, 377, 65, 392, 192
-0.999722, 57, 1, 88, 256
-0.999723, 423, 145, 438, 272
-0.999725, 471, 81, 486, 208
-0.999725, 403, 193, 418, 320
-0.999725, 289, 1, 304, 128
-0.999728, 225, 65, 352, 96
-0.999728, 453, 81, 468, 208
-0.99974, 33, 1, 64, 256
-0.999741, 329, 1, 344, 128
-0.999742, 321, 193, 352, 320
-0.999742, 361, 193, 376, 320
-0.999742, 161, 1, 192, 256
-0.999743, 1, 225, 500, 288
-0.999744, 355, 193, 370, 320
-0.999745, 1, 1, 500, 64
-0.999748, 97, 73, 224, 104
-0.999755, 141, 33, 156, 160
-0.999755, 33, 177, 48, 304
-0.999755, 441, 73, 472, 136
-0.999758, 137, 1, 168, 256
-0.999759, 143, 209, 158, 333
-0.999761, 447, 1, 462, 128
-0.999761, 125, 193, 140, 320
-0.999764, 447, 81, 462, 208
-0.999766, 183, 1, 198, 128
-0.999767, 377, 57, 408, 120
-0.999768, 331, 113, 346, 240
-0.999769, 193, 97, 208, 224
-0.999775, 387, 17, 402, 144
-0.999776, 1, 257, 128, 288
-0.999776, 131, 193, 146, 320
-0.999776, 413, 49, 428, 176
-0.999776, 213, 185, 244, 248
-0.999777, 357, 1, 372, 128
-0.999779, 361, 129, 376, 256
-0.999779, 397, 49, 412, 176
-0.999779, 307, 65, 322, 192
-0.99978, 393, 1, 424, 64
-0.999781, 217, 89, 280, 152
-0.999783, 163, 145, 178, 272
-0.999784, 313, 65, 328, 192
-0.999784, 349, 193, 364, 320
-0.999786, 321, 281, 448, 312
-0.999788, 239, 1, 254, 128
-0.999788, 209, 145, 224, 272
-0.99979, 163, 193, 178, 320
-0.999791, 63, 209, 78, 333
-0.999792, 257, 117, 384, 148
-0.999793, 187, 177, 202, 304
-0.999794, 25, 177, 40, 304
-0.999795, 175, 193, 190, 320
-0.999803, 1, 209, 128, 240
-0.999803, 341, 49, 356, 176
-0.999807, 337, 193, 352, 320
-0.999807, 215, 161, 230, 288
-0.999809, 73, 177, 88, 304
-0.999809, 149, 209, 164, 333
-0.999809, 363, 1, 378, 128
-0.99981, 137, 209, 152, 333
-0.99981, 169, 193, 184, 320
-0.999813, 173, 97, 188, 224
-0.999814, 225, 169, 352, 200
-0.999815, 353, 113, 368, 240
-0.999818, 355, 49, 370, 176
-0.999821, 193, 257, 320, 288
-0.999822, 65, 1, 80, 128
-0.999824, 203, 161, 218, 288
-0.999824, 199, 113, 214, 240
-0.999826, 189, 1, 204, 128
-0.999827, 257, 273, 384, 304
-0.999829, 221, 145, 236, 272
-0.999829, 225, 217, 352, 248
-0.999833, 225, 145, 352, 176
-0.999834, 173, 65, 204, 320
-0.999835, 51, 161, 66, 288
-0.999835, 41, 1, 56, 128
-0.999836, 109, 177, 140, 304
-0.999837, 319, 49, 334, 176
-0.999837, 477, 81, 492, 208
-0.999838, 301, 49, 316, 176
-0.999839, 347, 113, 362, 240
-0.99984, 261, 1, 276, 128
-0.99984, 233, 1, 248, 128
-0.999843, 193, 289, 320, 320
-0.999861, 193, 301, 320, 332
-0.999862, 321, 245, 448, 276
-0.999877, 57, 25, 120, 88
-0.99989, 1, 25, 128, 56
-0.999892, 241, 249, 304, 312
-0.9999, 453, 153, 484, 216
-0.999912, 49, 185, 176, 216
-0.999915, 97, 133, 224, 164
-0.999932, 321, 201, 352, 264
-0.999934, 257, 81, 320, 208
-0.999938, 369, 285, 496, 316
-0.999942, 173, 121, 204, 184
-0.999942, 169, 49, 200, 176
-0.999944, 65, 173, 192, 204
-0.999948, 193, 269, 320, 300
-0.999948, 1, 289, 128, 320
-0.999954, 81, 101, 208, 132
-0.999956, 81, 1, 144, 333
-0.999957, 305, 153, 432, 184
-0.999959, 249, 193, 312, 320
-0.99996, 369, 261, 496, 292
-0.999963, 121, 257, 152, 320
-0.999975, 1, 129, 256, 192
-0.999977, 217, 89, 248, 152
-0.999977, 401, 169, 432, 232
-1.00001, 229, 97, 260, 160
-1.00004, 457, 65, 488, 320
-1.00006, 97, 1, 160, 128
-1.00008, 129, 113, 192, 176
-1.00008, 17, 49, 144, 112
-1.00011, 249, 217, 312, 280
-1.00011, 261, 1, 292, 128
-1.00017, 25, 161, 88, 224
-1.00019, 225, 49, 288, 176
-1.0002, 233, 1, 264, 256
-1.00021, 389, 33, 420, 160
-1.00021, 157, 49, 188, 176
-1.00023, 29, 129, 60, 256
-1.00024, 129, 1, 160, 128
-1.00025, 425, 73, 456, 136
-1.00026, 209, 169, 272, 232
-1.00027, 225, 217, 288, 280
-1.00027, 449, 177, 480, 304
-1.00027, 1, 273, 500, 333
-1.00029, 1, 97, 128, 160
-1.0003, 309, 49, 340, 112
-1.00031, 33, 49, 160, 176
-1.00038, 1, 129, 128, 192
-1.00038, 1, 73, 128, 136
-1.00038, 469, 33, 500, 288
-1.00039, 1, 161, 500, 224
-1.0004, 105, 177, 168, 240
-1.00047, 353, 57, 384, 120
-1.00047, 169, 49, 200, 112
-1.00047, 193, 153, 224, 216
-1.00048, 221, 1, 252, 256
-1.00049, 233, 1, 296, 256
-1.00049, 245, 1, 276, 256
-1.00049, 225, 273, 480, 333
-1.0005, 277, 1, 308, 256
-1.00051, 329, 49, 360, 176
-1.00053, 365, 217, 396, 280
-1.00059, 13, 65, 44, 320
-1.00066, 81, 33, 112, 288
-1.00069, 349, 169, 380, 232
-1.00069, 1, 65, 32, 320
-1.0007, 413, 193, 444, 320
-1.0007, 81, 209, 112, 333
-1.0007, 285, 57, 316, 120
-1.00071, 321, 113, 352, 176
-1.00072, 333, 97, 364, 160
-1.00074, 145, 145, 176, 272
-1.00077, 49, 153, 176, 216
-1.00078, 5, 177, 36, 240
-1.00078, 401, 249, 432, 312
-1.00078, 121, 65, 152, 320
-1.00079, 201, 49, 232, 176
-1.00079, 73, 33, 136, 288
-1.00079, 229, 161, 260, 288
-1.0008, 161, 129, 192, 192
-1.00081, 289, 49, 320, 176
-1.00081, 305, 105, 336, 168
-1.00082, 93, 65, 124, 320
-1.00083, 1, 137, 500, 200
-1.00086, 377, 105, 408, 168
-1.00088, 69, 65, 100, 320
-1.00088, 257, 1, 288, 256
-1.00089, 429, 193, 460, 320
-1.00092, 289, 273, 320, 333
-1.00096, 105, 1, 136, 256
-1.00097, 457, 177, 488, 240
-1.00108, 233, 97, 264, 224
-1.00109, 209, 97, 240, 224
-1.0011, 97, 177, 128, 304
-1.00116, 153, 97, 184, 224
-1.00121, 277, 65, 308, 192
-1.0013, 209, 209, 240, 333
-1.00135, 309, 193, 340, 320
-1.00139, 293, 193, 324, 320
-1.00148, 301, 97, 332, 224
-1.00172, 17, 129, 48, 256
-1.00177, 113, 97, 176, 224
-1.00184, 249, 145, 312, 272
-1.00207, 125, 145, 156, 272
-1.00215, 465, 177, 496, 304
-1.00243, 225, 209, 288, 333
-1.00245, 237, 209, 268, 333
-1.00247, 33, 49, 96, 176
-1.00256, 77, 161, 108, 288
-1.00275, 273, 17, 304, 144
-1.00278, 289, 97, 320, 224
-1.0028, 241, 145, 272, 272
-1.00301, 305, 145, 336, 272
-1.00303, 77, 1, 108, 128
-1.00307, 281, 193, 312, 320
-1.00314, 293, 145, 324, 272
-1.00331, 257, 209, 288, 333
-1.0034, 73, 129, 136, 256
-1.00347, 5, 113, 36, 240
-1.00357, 97, 49, 160, 176
-1.00375, 25, 113, 88, 240
-1.00385, 61, 129, 92, 256
-1.00404, 233, 49, 264, 176
-1.00404, 225, 209, 256, 333
-1.0042, 105, 129, 136, 256
-1.00423, 453, 33, 484, 160
-1.00424, 245, 65, 276, 192
-1.00428, 41, 49, 72, 176
-1.00446, 49, 97, 80, 224
-1.00446, 181, 209, 212, 333
-1.00455, 81, 113, 112, 240
-1.00464, 265, 65, 296, 192
-1.00473, 49, 97, 112, 224
-1.00485, 469, 33, 500, 160
-1.00491, 97, 33, 160, 288
-1.00494, 77, 49, 108, 176
-1.00497, 57, 49, 88, 176
-1.00503, 253, 145, 284, 272
-1.00538, 1, 81, 64, 208
-1.00565, 57, 49, 120, 176
