1879
-0.335441, 1, 1, 500, 333
-0.42865, 1, 65, 500, 320
-0.450911, 161, 1, 416, 333
-0.524205, 257, 1, 500, 333
-0.528471, 65, 1, 320, 333
-0.607153, 225, 65, 480, 320
-0.704688, 97, 33, 352, 288
-0.737371, 1, 33, 256, 288
-0.858284, 225, 1, 352, 333
-0.866128, 273, 65, 400, 320
-0.86664, 321, 1, 448, 256
-0.867729, 177, 1, 304, 333
-0.873171, 1, 209, 500, 333
-0.875396, 321, 1, 448, 333
-0.878774, 273, 1, 400, 333
-0.882173, 1, 161, 500, 288
-0.88226, 161, 65, 288, 320
-0.886689, 81, 65, 208, 320
-0.887239, 369, 1, 496, 333
-0.893226, 225, 33, 352, 288
-0.894305, 1, 49, 500, 176
-0.898131, 369, 33, 496, 288
-0.901123, 129, 1, 256, 333
-0.905975, 1, 1, 500, 128
-0.908643, 33, 209, 288, 333
-0.909124, 257, 177, 500, 304
-0.909145, 17, 65, 144, 320
-0.909176, 81, 1, 208, 333
-0.910479, 1, 113, 500, 240
-0.913207, 161, 161, 416, 288
-0.915723, 33, 1, 160, 333
-0.920448, 129, 209, 384, 333
-0.92458, 257, 129, 500, 256
-0.927923, 225, 1, 480, 128
-0.930929, 161, 209, 288, 333
-0.932244, 257, 49, 500, 176
-0.934466, 33, 161, 288, 288
-0.934535, 337, 193, 464, 320
-0.935315, 353, 161, 416, 288
-0.936012, 177, 209, 240, 333
-0.936329, 137, 209, 200, 333
-0.936902, 49, 209, 176, 333
-0.93723, 129, 49, 384, 176
-0.939655, 289, 129, 416, 256
-0.941166, 193, 145, 320, 272
-0.942102, 225, 193, 352, 320
-0.942183, 1, 81, 256, 208
-0.942973, 201, 209, 264, 333
-0.943332, 129, 1, 384, 128
-0.944317, 241, 193, 304, 320
-0.944921, 169, 129, 232, 256
-0.945131, 265, 209, 328, 333
-0.945665, 81, 129, 208, 256
-0.945898, 129, 113, 384, 240
-0.946267, 329, 145, 392, 272
-0.947051, 393, 209, 456, 333
-0.947116, 321, 209, 384, 333
-0.947249, 145, 161, 272, 288
-0.94738, 337, 145, 464, 272
-0.947495, 241, 145, 368, 272
-0.947512, 377, 129, 440, 256
-0.94791, 1, 209, 128, 333
-0.948287, 145, 161, 208, 288
-0.948384, 113, 209, 240, 333
-0.948656, 305, 145, 368, 272
-0.949099, 305, 1, 432, 128
-0.949329, 289, 177, 416, 304
-0.949903, 241, 1, 304, 128
-0.950132, 265, 161, 328, 288
-0.950392, 1, 161, 128, 288
-0.952313, 57, 193, 120, 320
-0.952775, 241, 1, 368, 128
-0.95337, 361, 209, 424, 333
-0.953988, 17, 161, 80, 288
-0.95431, 313, 97, 376, 224
-0.954445, 129, 113, 256, 240
-0.954757, 337, 49, 464, 176
-0.954901, 161, 65, 288, 192
-0.955003, 33, 33, 288, 160
-0.955222, 289, 121, 352, 184
-0.955614, 353, 1, 416, 128
-0.955882, 241, 145, 304, 272
-0.956093, 41, 241, 104, 304
-0.956937, 169, 193, 232, 256
-0.957212, 329, 1, 392, 128
-0.957266, 297, 193, 360, 320
-0.957444, 169, 153, 232, 216
-0.957636, 393, 233, 456, 296
-0.957682, 209, 265, 272, 328
-0.957688, 217, 129, 280, 256
-0.957793, 137, 113, 200, 240
-0.957938, 65, 65, 192, 192
-0.9583, 353, 113, 416, 176
-0.958367, 337, 97, 400, 224
-0.958446, 153, 65, 216, 192
-0.958497, 81, 209, 144, 333
-0.958893, 209, 185, 272, 248
-0.959226, 289, 49, 416, 176
-0.959432, 145, 233, 208, 296
-0.959517, 201, 49, 264, 176
-0.959526, 121, 161, 184, 288
-0.959868, 9, 241, 72, 304
-0.959945, 65, 225, 128, 288
-0.960007, 169, 225, 232, 288
-0.960007, 137, 265, 200, 328
-0.960035, 1, 209, 64, 333
-0.960128, 1, 265, 64, 328
-0.960231, 337, 49, 400, 176
-0.96061, 193, 233, 256, 296
-0.960684, 329, 145, 392, 208
-0.961178, 1, 113, 128, 240
-0.961332, 361, 49, 424, 176
-0.961419, 177, 1, 304, 128
-0.961485, 313, 225, 376, 288
-0.961581, 257, 273, 320, 333
-0.961628, 225, 49, 288, 176
-0.961663, 113, 49, 240, 176
-0.961682, 369, 137, 432, 200
-0.962517, 225, 49, 352, 176
-0.96256, 241, 169, 304, 232
-0.96278, 169, 249, 232, 312
-0.963086, 177, 49, 240, 176
-0.963151, 265, 113, 328, 240
-0.963191, 129, 161, 192, 224
-0.963769, 353, 185, 416, 248
-0.963942, 225, 209, 288, 272
-0.964215, 369, 257, 432, 320
-0.964344, 249, 193, 312, 256
-0.964455, 41, 273, 104, 333
-0.964626, 289, 241, 352, 304
-0.964631, 241, 97, 368, 224
-0.964802, 329, 121, 392, 184
-0.965009, 281, 209, 344, 272
-0.965176, 97, 65, 160, 192
-0.965285, 305, 1, 368, 128
-0.965519, 193, 161, 256, 288
-0.965668, 241, 41, 304, 104
-0.965787, 369, 97, 496, 224
-0.965852, 169, 129, 232, 192
-0.966069, 193, 129, 256, 192
-0.966177, 49, 113, 112, 240
-0.966464, 265, 33, 328, 160
-0.966886, 97, 129, 160, 256
-0.966947, 65, 273, 128, 333
-0.967441, 17, 209, 80, 272
-0.96767, 289, 49, 352, 176
-0.967708, 129, 137, 192, 200
-0.96798, 145, 185, 208, 248
-0.968122, 25, 113, 88, 240
-0.968347, 353, 217, 416, 280
-0.968351, 193, 153, 256, 216
-0.96849, 225, 137, 288, 200
-0.968605, 129, 65, 192, 192
-0.968866, 401, 33, 464, 160
-0.968974, 113, 209, 176, 333
-0.969254, 289, 97, 352, 224
-0.969257, 417, 209, 480, 272
-0.969636, 217, 241, 280, 304
-0.969771, 369, 25, 432, 88
-0.96991, 265, 137, 328, 200
-0.969916, 353, 1, 416, 64
-0.970107, 233, 273, 296, 333
-0.970177, 417, 193, 480, 320
-0.970441, 401, 113, 464, 240
-0.97049, 121, 217, 184, 280
-0.9705, 257, 217, 320, 280
-0.970658, 209, 209, 336, 272
-0.970814, 41, 209, 104, 272
-0.970882, 369, 1, 496, 128
-0.970956, 217, 1, 280, 128
-0.970957, 361, 153, 392, 216
-0.971179, 217, 161, 280, 224
-0.971217, 401, 257, 464, 320
-0.97122, 161, 265, 288, 328
-0.971356, 353, 161, 416, 224
-0.971451, 33, 209, 96, 333
-0.97152, 249, 1, 312, 64
-0.971596, 73, 129, 136, 256
-0.971631, 313, 49, 376, 176
-0.971746, 265, 249, 328, 312
-0.97181, 169, 105, 232, 168
-0.971972, 169, 225, 200, 288
-0.972312, 365, 145, 396, 272
-0.972314, 65, 225, 192, 288
-0.972333, 169, 209, 200, 333
-0.972335, 289, 185, 352, 248
-0.972502, 321, 129, 448, 192
-0.972536, 145, 209, 208, 272
-0.972581, 89, 217, 152, 280
-0.972663, 161, 169, 288, 232
-0.972706, 73, 65, 136, 192
-0.972927, 377, 161, 440, 224
-0.97303, 353, 145, 384, 272
-0.973185, 393, 209, 456, 272
-0.973216, 1, 265, 128, 328
-0.973337, 337, 249, 464, 312
-0.973338, 321, 201, 384, 264
-0.973511, 273, 129, 400, 192
-0.973552, 145, 241, 272, 304
-0.973618, 161, 145, 288, 208
-0.97379, 177, 273, 240, 333
-0.973795, 225, 257, 352, 320
-0.973866, 289, 145, 352, 208
-0.973891, 377, 113, 440, 176
-0.974079, 73, 225, 104, 288
-0.974281, 377, 33, 440, 288
-0.974287, 245, 185, 276, 248
-0.974417, 53, 249, 84, 312
-0.97442, 265, 169, 328, 232
-0.974438, 65, 193, 128, 256
-0.974445, 305, 273, 432, 333
-0.974491, 105, 193, 168, 256
-0.97453, 145, 201, 272, 264
-0.974543, 245, 265, 276, 328
-0.974622, 257, 177, 384, 240
-0.974638, 193, 97, 256, 224
-0.974682, 193, 209, 256, 272
-0.974703, 17, 65, 144, 192
-0.974738, 337, 201, 464, 264
-0.974764, 373, 145, 404, 208
-0.974831, 121, 241, 184, 304
-0.974837, 153, 73, 216, 136
-0.974884, 433, 233, 496, 296
-0.974889, 209, 137, 336, 200
-0.974937, 425, 265, 488, 328
-0.975051, 97, 105, 160, 168
-0.975059, 81, 177, 208, 240
-0.97518, 169, 249, 200, 312
-0.975261, 345, 257, 408, 320
-0.975308, 33, 89, 96, 152
-0.975313, 113, 273, 176, 333
-0.975384, 377, 1, 440, 128
-0.975404, 249, 177, 280, 304
-0.975406, 137, 113, 200, 176
-0.975462, 177, 65, 240, 128
-0.975732, 305, 225, 432, 288
-0.975755, 89, 257, 152, 320
-0.975773, 65, 249, 128, 312
-0.97578, 385, 185, 448, 248
-0.976068, 201, 57, 264, 120
-0.976237, 105, 65, 168, 128
-0.976419, 13, 241, 44, 304
-0.976426, 193, 97, 256, 160
-0.976521, 265, 33, 328, 288
-0.976522, 1, 97, 64, 224
-0.976583, 341, 145, 372, 272
-0.976583, 345, 193, 376, 320
-0.976589, 337, 177, 464, 240
-0.9766, 401, 129, 464, 192
-0.976632, 233, 33, 296, 288
-0.976777, 361, 129, 392, 192
-0.976831, 329, 177, 392, 240
-0.976876, 1, 233, 128, 296
-0.976921, 157, 209, 188, 333
-0.977056, 253, 1, 284, 128
-0.977211, 41, 65, 104, 192
-0.97738, 349, 137, 380, 200
-0.977589, 201, 185, 232, 248
-0.977718, 113, 265, 240, 328
-0.977977, 221, 233, 252, 296
-0.977995, 177, 177, 208, 240
-0.978164, 49, 273, 80, 333
-0.978182, 313, 273, 376, 333
-0.978189, 73, 105, 136, 168
-0.97819, 289, 153, 416, 216
-0.97825, 273, 33, 336, 96
-0.978337, 313, 97, 376, 160
-0.978535, 233, 257, 264, 320
-0.978561, 297, 225, 328, 288
-0.978569, 161, 193, 192, 256
-0.978611, 313, 121, 344, 184
-0.978659, 261, 193, 292, 256
-0.978746, 409, 209, 440, 272
-0.978747, 265, 113, 328, 176
-0.978767, 401, 209, 432, 333
-0.978771, 401, 41, 464, 104
-0.978801, 181, 201, 212, 264
-0.978844, 281, 81, 344, 144
-0.978848, 433, 65, 496, 192
-0.978868, 401, 233, 432, 296
-0.978868, 17, 185, 80, 248
-0.978933, 81, 113, 208, 176
-0.978943, 25, 153, 88, 216
-0.978944, 221, 177, 252, 240
-0.978952, 205, 177, 236, 304
-0.978984, 265, 145, 296, 272
-0.978987, 173, 161, 204, 288
-0.979023, 65, 273, 192, 333
-0.97905, 365, 193, 396, 320
-0.979106, 113, 145, 240, 208
-0.979138, 305, 105, 432, 168
-0.979152, 233, 185, 264, 248
-0.979201, 65, 201, 192, 264
-0.979268, 97, 169, 160, 232
-0.979286, 73, 65, 136, 128
-0.979302, 297, 49, 360, 112
-0.979403, 305, 17, 432, 80
-0.979436, 329, 1, 392, 256
-0.979565, 353, 225, 480, 288
-0.979567, 353, 97, 384, 224
-0.979572, 177, 153, 208, 216
-0.979607, 313, 241, 344, 304
-0.979657, 313, 249, 376, 312
-0.979711, 305, 65, 368, 320
-0.979717, 373, 113, 404, 176
-0.979734, 17, 177, 48, 304
-0.979781, 233, 209, 264, 333
-0.979782, 209, 185, 336, 248
-0.979808, 289, 161, 320, 288
-0.979839, 253, 161, 284, 224
-0.979927, 209, 161, 336, 224
-0.979947, 241, 97, 304, 224
-0.979954, 41, 185, 104, 248
-0.979972, 409, 185, 472, 248
-0.980011, 129, 89, 256, 152
-0.980138, 381, 1, 412, 128
-0.980165, 193, 209, 224, 333
-0.980227, 233, 1, 296, 333
-0.980229, 337, 129, 368, 192
-0.980229, 161, 137, 192, 200
-0.980238, 389, 249, 420, 312
-0.980246, 189, 145, 220, 208
-0.980278, 121, 89, 184, 152
-0.980402, 1, 201, 128, 264
-0.980451, 317, 217, 348, 280
-0.980465, 49, 249, 176, 312
-0.980491, 257, 201, 384, 264
-0.980507, 185, 233, 216, 296
-0.980526, 209, 257, 240, 320
-0.98061, 313, 17, 376, 80
-0.980641, 157, 169, 188, 232
-0.980652, 85, 209, 116, 272
-0.980655, 269, 1, 300, 128
-0.980697, 377, 129, 408, 256
-0.980737, 193, 233, 320, 296
-0.98077, 141, 273, 172, 333
-0.980799, 37, 249, 68, 312
-0.980806, 401, 129, 432, 192
-0.980857, 181, 209, 212, 333
-0.980907, 385, 113, 416, 176
-0.98091, 233, 65, 296, 128
-0.980971, 97, 1, 224, 128
-0.981097, 153, 17, 216, 144
-0.981183, 417, 273, 448, 333
-0.981286, 401, 25, 432, 88
-0.981331, 417, 177, 448, 304
-0.981442, 337, 153, 464, 216
-0.981483, 209, 225, 240, 288
-0.981485, 153, 225, 184, 288
-0.981512, 385, 137, 416, 200
-0.981528, 225, 113, 352, 176
-0.981532, 289, 249, 416, 312
-0.981546, 369, 121, 496, 184
-0.981557, 421, 233, 452, 296
-0.981562, 325, 121, 356, 184
-0.981634, 65, 129, 128, 192
-0.981635, 401, 129, 432, 256
-0.981654, 161, 161, 192, 288
-0.981748, 257, 273, 288, 333
-0.981793, 253, 129, 284, 256
-0.98187, 197, 225, 228, 288
-0.981889, 249, 33, 280, 96
-0.981928, 393, 17, 424, 144
-0.981938, 81, 193, 112, 320
-0.981969, 69, 201, 100, 264
-0.98197, 41, 121, 104, 184
-0.982199, 409, 97, 472, 160
-0.982257, 329, 193, 360, 320
-0.982269, 297, 209, 328, 333
-0.982275, 349, 1, 380, 128
-0.982338, 333, 97, 364, 224
-0.982366, 281, 185, 312, 248
-0.982388, 377, 49, 440, 112
-0.982392, 301, 249, 332, 312
-0.982439, 217, 145, 248, 272
-0.982515, 61, 225, 92, 288
-0.982519, 421, 193, 452, 256
-0.982577, 149, 129, 180, 256
-0.982596, 233, 153, 264, 216
-0.982598, 361, 177, 392, 240
-0.982673, 209, 65, 272, 320
-0.982812, 389, 177, 420, 304
-0.982854, 73, 273, 104, 333
-0.982884, 425, 1, 488, 128
-0.982924, 129, 121, 256, 184
-0.982951, 177, 113, 304, 176
-0.982974, 217, 113, 280, 176
-0.982979, 65, 249, 96, 312
-0.983041, 369, 49, 400, 176
-0.983068, 177, 57, 304, 120
-0.983071, 193, 161, 224, 288
-0.983181, 353, 33, 416, 288
-0.983196, 301, 129, 332, 192
-0.983254, 365, 97, 396, 224
-0.983261, 149, 113, 180, 176
-0.983261, 349, 161, 380, 224
-0.983346, 33, 105, 160, 168
-0.983385, 205, 145, 236, 208
-0.983386, 145, 65, 208, 320
-0.983392, 241, 241, 304, 304
-0.983438, 129, 65, 192, 128
-0.983514, 241, 17, 368, 80
-0.983593, 41, 65, 104, 320
-0.98362, 113, 57, 240, 120
-0.983655, 377, 193, 408, 320
-0.983718, 237, 209, 268, 272
-0.983743, 361, 105, 392, 168
-0.983784, 433, 73, 496, 136
-0.983785, 189, 257, 220, 320
-0.983826, 313, 113, 344, 240
-0.983884, 89, 129, 152, 192
-0.983904, 225, 49, 352, 112
-0.983909, 337, 201, 368, 264
-0.983936, 241, 129, 272, 192
-0.983963, 265, 161, 296, 224
-0.983979, 357, 49, 388, 176
-0.983994, 305, 161, 336, 288
-0.984024, 337, 57, 464, 120
-0.984122, 257, 65, 320, 128
-0.984122, 261, 193, 292, 320
-0.984212, 353, 273, 480, 333
-0.984214, 221, 257, 252, 320
-0.984234, 257, 225, 384, 288
-0.984281, 241, 105, 304, 168
-0.98429, 21, 217, 52, 280
-0.984315, 341, 49, 372, 176
-0.984357, 61, 193, 92, 320
-0.98447, 145, 209, 176, 333
-0.984489, 361, 1, 392, 128
-0.984533, 365, 249, 396, 312
-0.984563, 153, 49, 216, 112
-0.984631, 169, 97, 200, 224
-0.98473, 25, 241, 56, 304
-0.984759, 49, 161, 112, 224
-0.984812, 377, 1, 440, 333
-0.984838, 261, 137, 292, 200
-0.98484, 257, 1, 288, 64
-0.984916, 433, 113, 496, 240
-0.98492, 173, 129, 204, 192
-0.984924, 33, 17, 160, 144
-0.984927, 437, 209, 468, 272
-0.984971, 285, 1, 316, 128
-0.985017, 257, 1, 320, 333
-0.985026, 157, 257, 188, 320
-0.985037, 121, 65, 184, 320
-0.985058, 217, 33, 280, 96
-0.985148, 217, 209, 248, 333
-0.98518, 201, 49, 232, 176
-0.985199, 397, 273, 428, 333
-0.985223, 273, 49, 400, 112
-0.985269, 133, 137, 164, 200
-0.985279, 65, 113, 96, 240
-0.9853, 229, 129, 260, 192
-0.985314, 125, 265, 156, 328
-0.985338, 189, 49, 220, 176
-0.985381, 33, 129, 160, 192
-0.985416, 65, 153, 192, 216
-0.985422, 213, 201, 244, 264
-0.985424, 373, 177, 404, 240
-0.985488, 241, 89, 368, 152
-0.985561, 145, 145, 176, 208
-0.985561, 293, 169, 324, 232
-0.98559, 277, 129, 308, 256
-0.985637, 417, 129, 448, 256
-0.985641, 353, 97, 480, 160
-0.985689, 321, 49, 352, 176
-0.985708, 81, 81, 208, 144
-0.985737, 353, 217, 384, 280
-0.985748, 153, 1, 216, 333
-0.985763, 49, 65, 112, 128
-0.985791, 401, 161, 464, 224
-0.985847, 353, 57, 416, 120
-0.985874, 341, 241, 372, 304
-0.985898, 281, 273, 344, 333
-0.985902, 49, 225, 80, 288
-0.985947, 177, 33, 304, 96
-0.985956, 33, 145, 64, 272
-0.985968, 405, 33, 436, 160
-0.986046, 109, 81, 140, 208
-0.986075, 389, 129, 420, 256
-0.986092, 93, 209, 124, 333
-0.986094, 401, 161, 432, 224
-0.986104, 289, 137, 320, 200
-0.986149, 217, 153, 248, 216
-0.986259, 89, 233, 120, 296
-0.986313, 381, 49, 412, 176
-0.986323, 285, 209, 316, 333
-0.986397, 1, 161, 64, 224
-0.986397, 17, 153, 144, 216
-0.986426, 433, 193, 464, 320
-0.98643, 73, 169, 136, 232
-0.986431, 333, 1, 364, 128
-0.986447, 433, 105, 496, 168
-0.986452, 449, 241, 480, 304
-0.986471, 237, 33, 268, 160
-0.986475, 197, 121, 228, 184
-0.986477, 33, 73, 160, 136
-0.986484, 273, 209, 304, 333
-0.986519, 1, 177, 128, 240
-0.986542, 185, 65, 248, 320
-0.986568, 137, 113, 168, 176
-0.986586, 193, 113, 224, 240
-0.986587, 141, 217, 172, 280
-0.986587, 97, 65, 128, 192
-0.986649, 169, 273, 200, 333
-0.986659, 77, 129, 108, 256
-0.986659, 229, 129, 260, 256
-0.986717, 89, 273, 120, 333
-0.986724, 297, 201, 328, 264
-0.986753, 157, 81, 188, 208
-0.986819, 61, 273, 92, 333
-0.986901, 277, 161, 308, 224
-0.986961, 209, 1, 272, 333
-0.986971, 133, 97, 164, 224
-0.986978, 337, 105, 368, 168
-0.986985, 349, 113, 380, 176
-0.986987, 193, 1, 256, 128
-0.986999, 5, 209, 36, 333
-0.987039, 433, 257, 464, 320
-0.987108, 277, 81, 308, 208
-0.987111, 389, 185, 420, 248
-0.987111, 329, 49, 392, 112
-0.987202, 205, 97, 236, 224
-0.987222, 401, 1, 464, 64
-0.98724, 89, 97, 120, 160
-0.987268, 301, 113, 332, 240
-0.987341, 165, 65, 196, 128
-0.987407, 353, 1, 480, 64
-0.987419, 329, 1, 392, 333
-0.987466, 317, 209, 348, 333
-0.987534, 69, 121, 100, 184
-0.987537, 177, 41, 240, 104
-0.987556, 57, 201, 88, 264
-0.987608, 273, 49, 304, 112
-0.987623, 333, 153, 364, 216
-0.98765, 281, 209, 312, 272
-0.987674, 397, 209, 428, 272
-0.987693, 261, 49, 292, 176
-0.987699, 353, 241, 384, 304
-0.987789, 105, 193, 136, 320
-0.987791, 57, 89, 88, 152
-0.987818, 33, 225, 288, 288
-0.987826, 213, 49, 244, 176
-0.987846, 133, 209, 164, 333
-0.987853, 273, 137, 304, 200
-0.987853, 325, 273, 356, 333
-0.987863, 249, 209, 280, 272
-0.987872, 105, 41, 168, 104
-0.987884, 97, 65, 128, 128
-0.987888, 177, 1, 304, 64
-0.987936, 385, 1, 416, 64
-0.987996, 37, 273, 68, 333
-0.988028, 305, 1, 368, 333
-0.988041, 9, 265, 40, 328
-0.988043, 269, 273, 300, 333
-0.988049, 217, 129, 248, 192
-0.98807, 177, 89, 304, 152
-0.988094, 377, 249, 408, 312
-0.988149, 109, 89, 140, 152
-0.988175, 17, 121, 80, 184
-0.988259, 465, 233, 496, 296
-0.988317, 353, 33, 480, 96
-0.988407, 241, 129, 272, 256
-0.988488, 145, 81, 176, 208
-0.98849, 177, 49, 208, 176
-0.988524, 49, 209, 80, 333
-0.988568, 129, 265, 384, 328
-0.988601, 289, 113, 320, 240
-0.988648, 401, 1, 464, 256
-0.988662, 81, 65, 144, 320
-0.988749, 193, 233, 448, 296
-0.988779, 313, 229, 376, 260
-0.988845, 121, 49, 152, 176
-0.988855, 169, 221, 232, 252
-0.98886, 41, 245, 104, 276
-0.98911, 169, 201, 232, 232
-0.98914, 241, 197, 304, 228
-0.989192, 177, 1, 240, 333
-0.989198, 445, 209, 476, 333
-0.989213, 137, 225, 200, 256
-0.989256, 209, 201, 272, 232
-0.989341, 125, 161, 156, 288
-0.98937, 353, 149, 416, 180
-0.989405, 301, 49, 332, 176
-0.989417, 217, 189, 280, 220
-0.989421, 129, 161, 192, 192
-0.989435, 33, 97, 64, 224
-0.989441, 113, 17, 176, 144
-0.989474, 249, 209, 312, 240
-0.989519, 137, 281, 200, 312
-0.98952, 73, 225, 136, 256
-0.989593, 73, 109, 136, 140
-0.989616, 169, 149, 232, 180
-0.989647, 113, 113, 176, 144
-0.989647, 161, 161, 224, 192
-0.989653, 305, 133, 368, 164
-0.989691, 353, 181, 416, 212
-0.989716, 377, 133, 440, 164
-0.989734, 17, 249, 80, 280
-0.98974, 49, 229, 112, 260
-0.989762, 209, 213, 272, 244
-0.989762, 393, 245, 456, 276
-0.989827, 17, 65, 80, 320
-0.989852, 393, 65, 424, 192
-0.989876, 169, 257, 232, 288
-0.989883, 265, 97, 296, 224
-0.989939, 181, 97, 212, 224
-0.989956, 353, 117, 416, 148
-0.989965, 265, 137, 328, 168
-0.989973, 193, 129, 448, 192
-0.989988, 209, 261, 272, 292
-0.990023, 321, 161, 384, 192
-0.99005, 25, 281, 88, 312
-0.990082, 317, 161, 348, 288
-0.990087, 49, 269, 112, 300
-0.990116, 289, 213, 352, 244
-0.990139, 217, 137, 280, 168
-0.990142, 161, 241, 224, 272
-0.99016, 353, 1, 416, 333
-0.990175, 241, 177, 304, 208
-0.990194, 65, 289, 128, 320
-0.990223, 137, 189, 200, 220
-0.990225, 169, 181, 232, 212
-0.990254, 461, 65, 492, 192
-0.990258, 353, 221, 416, 252
-0.990266, 393, 257, 456, 288
-0.990272, 297, 121, 360, 152
-0.990283, 33, 1, 96, 333
-0.990286, 1, 281, 64, 312
-0.990301, 113, 293, 176, 324
-0.990315, 409, 1, 472, 333
-0.990319, 9, 233, 72, 264
-0.990337, 161, 269, 224, 300
-0.990343, 265, 197, 328, 228
-0.990344, 1, 261, 64, 292
-0.990355, 401, 193, 464, 224
-0.990371, 129, 149, 192, 180
-0.990371, 257, 157, 320, 188
-0.990386, 313, 217, 376, 248
-0.990404, 129, 265, 192, 296
-0.990405, 137, 161, 168, 288
-0.990406, 225, 161, 480, 224
-0.990423, 353, 129, 416, 160
-0.990423, 185, 233, 248, 264
-0.990452, 329, 145, 360, 272
-0.990452, 41, 213, 104, 244
-0.990478, 225, 149, 288, 180
-0.990481, 329, 133, 392, 164
-0.990501, 393, 229, 456, 260
-0.990511, 129, 1, 192, 333
-0.99052, 209, 165, 272, 196
-0.990527, 329, 113, 392, 144
-0.99053, 353, 165, 416, 196
-0.99055, 289, 145, 352, 176
-0.990563, 93, 113, 124, 240
-0.990568, 5, 129, 36, 256
-0.990568, 153, 137, 216, 168
-0.990632, 353, 261, 416, 292
-0.990637, 193, 149, 256, 180
-0.990655, 369, 205, 432, 236
-0.990658, 377, 177, 440, 208
-0.990661, 201, 245, 264, 276
-0.990676, 329, 145, 392, 176
-0.990721, 105, 101, 168, 132
-0.990722, 193, 189, 256, 220
-0.990723, 113, 217, 176, 248
-0.990747, 145, 117, 208, 148
-0.990765, 369, 241, 432, 272
-0.990792, 89, 125, 152, 156
-0.990799, 209, 273, 272, 304
-0.990803, 49, 101, 112, 132
-0.990808, 137, 201, 200, 232
-0.99081, 129, 161, 384, 224
-0.990832, 41, 257, 104, 288
-0.990842, 377, 121, 440, 152
-0.990848, 145, 253, 208, 284
-0.990861, 409, 217, 472, 248
-0.990867, 377, 273, 440, 304
-0.99087, 241, 49, 304, 80
-0.990878, 65, 205, 128, 236
-0.990879, 121, 125, 184, 156
-0.990882, 305, 241, 368, 272
-0.99089, 241, 137, 304, 168
-0.990896, 129, 201, 384, 264
-0.990905, 257, 285, 320, 316
-0.990907, 193, 137, 256, 168
-0.99092, 249, 65, 280, 192
-0.990988, 185, 169, 248, 200
-0.991015, 217, 177, 280, 208
-0.991036, 417, 237, 480, 268
-0.991046, 289, 193, 352, 224
-0.991047, 265, 125, 328, 156
-0.991047, 265, 169, 328, 200
-0.991051, 169, 65, 232, 96
-0.991053, 281, 225, 344, 256
-0.991074, 321, 177, 384, 208
-0.991081, 297, 1, 328, 128
-0.991084, 97, 65, 160, 96
-0.991091, 85, 65, 116, 192
-0.991119, 1, 273, 500, 333
-0.991119, 329, 197, 392, 228
-0.991127, 393, 1, 456, 32
-0.99113, 17, 221, 80, 252
-0.991143, 97, 137, 352, 200
-0.991152, 377, 161, 440, 192
-0.991163, 105, 273, 168, 304
-0.991195, 353, 9, 416, 40
-0.9912, 265, 41, 328, 72
-0.991202, 89, 213, 152, 244
-0.991216, 241, 37, 304, 68
-0.991236, 249, 257, 312, 288
-0.99124, 249, 269, 312, 300
-0.99124, 137, 173, 200, 204
-0.991264, 281, 245, 344, 276
-0.991265, 409, 205, 472, 236
-0.991283, 53, 97, 84, 224
-0.991296, 249, 9, 312, 40
-0.991297, 281, 1, 344, 333
-0.991297, 313, 285, 376, 316
-0.991305, 265, 181, 328, 212
-0.991309, 25, 177, 88, 208
-0.991309, 161, 281, 224, 312
-0.991315, 209, 73, 272, 104
-0.991317, 41, 293, 104, 324
-0.991326, 1, 137, 256, 200
-0.991349, 25, 269, 88, 300
-0.991354, 377, 45, 440, 76
-0.991392, 217, 97, 248, 224
-0.991422, 1, 233, 500, 296
-0.991442, 145, 213, 208, 244
-0.991445, 169, 117, 232, 148
-0.991454, 65, 249, 128, 280
-0.991461, 113, 145, 144, 272
-0.991485, 377, 149, 440, 180
-0.991491, 25, 201, 88, 232
-0.991495, 177, 93, 240, 124
-0.991507, 241, 65, 304, 96
-0.991508, 225, 185, 480, 248
-0.991574, 321, 1, 352, 128
-0.991622, 33, 249, 288, 312
-0.991685, 425, 1, 488, 256
-0.99172, 33, 273, 288, 333
-0.991766, 225, 273, 480, 333
-0.991881, 1, 209, 500, 272
-0.992048, 245, 193, 276, 224
-0.99208, 33, 193, 64, 320
-0.992196, 121, 97, 152, 224
-0.992246, 173, 269, 204, 300
-0.992285, 1, 113, 256, 176
-0.992292, 189, 1, 220, 128
-0.992303, 201, 201, 232, 232
-0.992342, 349, 145, 380, 176
-0.992348, 165, 225, 196, 256
-0.992348, 257, 57, 500, 120
-0.992392, 361, 153, 392, 184
-0.992395, 337, 225, 368, 256
-0.992404, 49, 49, 176, 112
-0.992406, 57, 17, 120, 144
-0.992409, 249, 177, 280, 208
-0.992424, 369, 165, 400, 196
-0.992425, 225, 209, 480, 272
-0.992431, 181, 209, 212, 240
-0.99245, 257, 201, 288, 232
-0.992471, 169, 257, 200, 288
-0.992476, 373, 145, 404, 176
-0.992482, 353, 225, 384, 256
-0.992486, 121, 209, 152, 333
-0.992493, 201, 213, 232, 244
-0.992499, 173, 241, 204, 272
-0.992503, 169, 153, 200, 184
-0.992506, 153, 165, 184, 196
-0.992515, 313, 121, 344, 152
-0.992518, 413, 217, 444, 248
-0.992527, 93, 161, 124, 288
-0.992534, 397, 241, 428, 272
-0.99254, 353, 165, 384, 196
-0.992565, 145, 153, 176, 184
-0.992583, 81, 225, 112, 256
-0.992587, 409, 229, 440, 260
-0.992588, 325, 229, 356, 260
-0.992599, 53, 245, 84, 276
-0.992606, 65, 273, 96, 304
-0.992607, 109, 109, 140, 140
-0.992615, 153, 265, 184, 296
-0.992616, 61, 229, 92, 260
-0.992616, 137, 281, 168, 312
-0.992621, 245, 205, 276, 236
-0.992628, 313, 233, 344, 264
-0.992632, 157, 149, 188, 180
-0.992643, 297, 249, 328, 280
-0.992645, 53, 265, 84, 296
-0.992657, 33, 201, 288, 264
-0.992661, 93, 221, 124, 252
-0.992664, 181, 189, 212, 220
-0.992669, 13, 249, 44, 280
-0.992681, 89, 113, 120, 144
-0.992684, 153, 225, 184, 256
-0.992687, 73, 213, 104, 244
-0.992689, 385, 253, 416, 284
-0.992692, 213, 217, 244, 248
-0.992692, 257, 269, 288, 300
-0.992699, 21, 229, 52, 260
-0.992699, 337, 133, 368, 164
-0.992706, 265, 185, 296, 216
-0.992711, 249, 45, 280, 76
-0.992733, 165, 213, 196, 244
-0.992735, 197, 189, 228, 220
-0.992735, 229, 173, 260, 204
-0.992736, 189, 261, 220, 292
-0.992739, 361, 141, 392, 172
-0.992739, 149, 117, 180, 148
-0.992739, 241, 137, 272, 168
-0.992743, 41, 245, 72, 276
-0.992744, 225, 137, 256, 168
-0.992746, 237, 261, 268, 292
-0.992748, 185, 145, 216, 176
-0.99275, 301, 233, 332, 264
-0.992751, 49, 281, 80, 312
-0.992756, 225, 1, 480, 64
-0.992761, 273, 197, 304, 228
-0.992764, 233, 185, 264, 216
-0.992766, 373, 117, 404, 148
-0.992767, 353, 177, 384, 208
-0.99277, 393, 125, 424, 156
-0.992771, 221, 189, 252, 220
-0.992771, 265, 161, 296, 192
-0.992772, 121, 289, 152, 320
-0.992774, 385, 149, 416, 180
-0.99278, 405, 129, 436, 160
-0.992794, 229, 149, 260, 180
-0.992803, 321, 217, 352, 248
-0.992808, 165, 181, 196, 212
-0.992809, 341, 161, 372, 192
-0.992812, 137, 117, 168, 148
-0.992816, 361, 129, 392, 160
-0.992822, 157, 133, 188, 164
-0.992833, 341, 213, 372, 244
-0.992834, 185, 241, 216, 272
-0.992836, 153, 281, 184, 312
-0.992839, 209, 153, 240, 184
-0.992839, 377, 177, 408, 208
-0.99284, 309, 249, 340, 280
-0.992841, 97, 97, 352, 160
-0.992848, 213, 229, 244, 260
-0.992849, 373, 133, 404, 164
-0.99285, 429, 233, 460, 264
-0.992855, 301, 129, 332, 160
-0.992855, 257, 281, 288, 312
-0.992856, 285, 209, 316, 240
-0.992859, 277, 137, 308, 168
-0.992864, 393, 177, 424, 208
-0.992872, 129, 33, 256, 96
-0.992879, 253, 137, 284, 168
-0.99288, 217, 173, 248, 204
-0.992884, 165, 165, 196, 196
-0.992884, 161, 193, 192, 224
-0.992885, 181, 157, 212, 188
-0.992889, 153, 181, 184, 212
-0.992892, 217, 201, 248, 232
-0.992893, 29, 249, 60, 280
-0.992895, 289, 161, 320, 192
-0.992896, 409, 241, 440, 272
-0.992902, 177, 177, 208, 208
-0.992905, 41, 269, 72, 300
-0.99291, 125, 109, 156, 140
-0.992911, 33, 281, 64, 312
-0.992915, 265, 149, 296, 180
-0.99292, 349, 133, 380, 164
-0.992931, 101, 65, 132, 96
-0.992931, 141, 173, 172, 204
-0.992933, 129, 169, 160, 200
-0.992935, 173, 141, 204, 172
-0.992937, 133, 153, 164, 184
-0.992938, 337, 149, 368, 180
-0.992945, 401, 209, 432, 240
-0.992945, 85, 209, 116, 240
-0.992947, 269, 273, 300, 304
-0.992949, 213, 137, 244, 168
-0.992949, 201, 141, 232, 172
-0.99295, 73, 245, 104, 276
-0.992953, 137, 141, 168, 172
-0.992953, 177, 229, 208, 260
-0.992954, 113, 61, 144, 92
-0.992956, 429, 209, 460, 240
-0.992957, 253, 149, 284, 180
-0.99296, 5, 281, 36, 312
-0.99296, 197, 229, 228, 260
-0.992961, 37, 225, 68, 256
-0.993006, 133, 49, 164, 176
-0.993042, 453, 1, 484, 128
-0.993055, 33, 169, 288, 232
-0.993113, 161, 137, 288, 168
-0.993139, 65, 225, 192, 256
-0.993164, 65, 65, 96, 192
-0.993174, 109, 33, 140, 160
-0.993215, 105, 1, 168, 333
-0.99329, 225, 33, 480, 96
-0.993442, 309, 1, 340, 128
-0.99349, 33, 273, 160, 304
-0.993512, 289, 49, 320, 176
-0.993516, 225, 49, 256, 176
-0.993559, 129, 49, 384, 112
-0.993589, 45, 161, 76, 288
-0.9936, 465, 209, 496, 333
-0.993602, 181, 233, 196, 296
-0.993667, 1, 137, 500, 200
-0.993676, 145, 221, 272, 252
-0.993687, 17, 33, 80, 160
-0.993755, 145, 261, 272, 292
-0.993781, 209, 137, 336, 168
-0.993785, 193, 209, 320, 240
-0.993818, 45, 49, 76, 176
-0.993827, 449, 65, 480, 192
-0.993834, 129, 153, 256, 184
-0.993839, 33, 57, 288, 120
-0.993854, 1, 1, 64, 333
-0.993915, 65, 117, 192, 148
-0.993947, 193, 197, 320, 228
-0.994059, 253, 185, 268, 248
-0.99408, 145, 245, 272, 276
-0.994102, 305, 81, 432, 144
-0.99418, 145, 209, 272, 240
-0.994205, 193, 105, 448, 168
-0.994216, 433, 1, 496, 333
-0.994255, 145, 233, 272, 264
-0.994257, 187, 241, 202, 304
-0.99426, 353, 249, 480, 280
-0.99428, 321, 121, 448, 152
-0.994304, 405, 81, 436, 208
-0.994338, 161, 273, 288, 304
-0.99442, 55, 241, 70, 304
-0.994423, 371, 153, 386, 216
-0.99443, 33, 285, 160, 316
-0.994444, 81, 1, 144, 333
-0.99449, 381, 153, 396, 216
-0.994531, 145, 33, 176, 160
-0.994551, 21, 97, 52, 224
-0.994567, 241, 209, 368, 240
-0.994568, 175, 225, 190, 288
-0.994575, 257, 133, 384, 164
-0.994606, 113, 285, 240, 316
-0.994618, 225, 221, 352, 252
-0.994644, 129, 165, 256, 196
-0.99465, 177, 149, 304, 180
-0.994655, 337, 213, 464, 244
-0.994667, 305, 229, 432, 260
-0.994699, 1, 185, 500, 248
-0.994734, 247, 185, 262, 248
-0.994735, 375, 129, 390, 192
-0.994739, 19, 233, 34, 296
-0.994744, 161, 181, 288, 212
-0.994761, 209, 173, 336, 204
-0.994763, 33, 105, 160, 136
-0.994768, 165, 33, 196, 160
-0.994811, 407, 233, 422, 296
-0.994839, 77, 217, 92, 280
-0.994856, 17, 241, 144, 272
-0.994863, 13, 257, 28, 320
-0.99488, 81, 213, 208, 244
-0.994897, 165, 225, 180, 288
-0.994901, 261, 265, 276, 328
-0.994907, 267, 273, 282, 333
-0.994916, 161, 297, 288, 328
-0.994916, 321, 141, 448, 172
-0.994938, 65, 253, 192, 284
-0.994982, 365, 121, 380, 184
-0.994986, 245, 257, 260, 320
-0.995008, 81, 201, 208, 232
-0.99501, 1, 113, 500, 176
-0.995019, 305, 181, 432, 212
-0.995036, 263, 161, 278, 224
-0.99504, 337, 201, 464, 232
-0.995042, 193, 145, 208, 208
-0.995059, 129, 125, 256, 156
-0.995076, 429, 113, 460, 240
-0.995097, 1, 253, 128, 284
-0.995097, 129, 25, 384, 88
-0.995102, 225, 281, 352, 312
-0.995158, 365, 161, 380, 224
-0.995168, 1, 229, 128, 260
-0.99518, 241, 197, 368, 228
-0.995182, 113, 273, 240, 304
-0.995188, 83, 217, 98, 280
-0.995189, 353, 137, 368, 200
-0.995191, 387, 113, 402, 176
-0.995199, 305, 285, 432, 316
-0.995218, 257, 169, 384, 200
-0.995226, 113, 177, 240, 208
-0.995227, 1, 17, 500, 80
-0.995245, 181, 209, 196, 272
-0.995267, 49, 249, 64, 312
-0.995287, 225, 265, 352, 296
-0.995341, 81, 105, 208, 136
-0.995358, 1, 213, 128, 244
-0.99538, 229, 233, 244, 296
-0.995412, 129, 73, 384, 136
-0.99542, 173, 137, 188, 200
-0.995421, 469, 113, 500, 240
-0.99544, 67, 233, 82, 296
-0.995455, 289, 153, 416, 184
-0.995495, 241, 153, 368, 184
-0.995498, 81, 189, 208, 220
-0.995505, 305, 241, 432, 272
-0.995509, 305, 165, 432, 196
-0.995527, 91, 225, 106, 288
-0.995531, 81, 149, 208, 180
-0.995553, 259, 185, 274, 248
-0.995562, 317, 225, 332, 288
-0.995577, 183, 153, 198, 216
-0.995582, 81, 129, 208, 160
-0.99559, 257, 185, 384, 216
-0.995594, 405, 25, 420, 88
-0.995596, 23, 209, 38, 272
-0.995614, 307, 225, 322, 288
-0.995617, 215, 225, 230, 288
-0.995623, 225, 257, 240, 320
-0.995626, 177, 161, 304, 192
-0.995632, 145, 193, 272, 224
-0.995635, 221, 225, 236, 288
-0.995637, 49, 297, 176, 328
-0.995648, 183, 265, 198, 328
-0.995666, 321, 45, 448, 76
-0.995668, 213, 177, 228, 240
-0.995673, 65, 165, 192, 196
-0.995693, 411, 33, 426, 96
-0.995696, 303, 137, 318, 200
-0.995696, 215, 257, 230, 320
-0.995712, 209, 233, 336, 264
-0.995713, 175, 201, 190, 264
-0.995738, 387, 137, 402, 200
-0.995741, 203, 161, 218, 224
-0.995743, 1, 81, 500, 144
-0.995744, 301, 209, 316, 272
-0.995744, 239, 257, 254, 320
-0.995746, 305, 257, 432, 288
-0.99576, 413, 233, 428, 296
-0.99576, 171, 249, 186, 312
-0.995772, 251, 265, 266, 328
-0.995782, 97, 301, 224, 332
-0.995789, 259, 1, 274, 64
-0.995802, 225, 253, 352, 284
-0.995814, 65, 237, 192, 268
-0.995822, 1, 41, 500, 104
-0.995822, 241, 293, 368, 324
-0.995869, 1, 161, 500, 224
-0.995876, 401, 241, 416, 304
-0.995889, 325, 217, 340, 280
-0.995893, 235, 233, 250, 296
-0.995894, 195, 201, 210, 264
-0.995895, 327, 113, 342, 176
-0.995907, 371, 177, 386, 240
-0.995912, 301, 169, 316, 232
-0.995913, 381, 129, 396, 192
-0.995938, 411, 121, 426, 184
-0.99596, 415, 209, 430, 272
-0.995963, 179, 129, 194, 192
-0.996002, 315, 249, 330, 312
-0.996003, 17, 117, 144, 148
-0.996014, 63, 265, 78, 328
-0.996025, 1, 201, 128, 232
-0.996031, 273, 121, 400, 152
-0.996037, 97, 209, 112, 272
-0.996068, 379, 105, 394, 168
-0.99607, 267, 185, 282, 248
-0.996072, 321, 273, 448, 304
-0.996083, 289, 297, 416, 328
-0.996091, 71, 209, 86, 272
-0.996093, 337, 153, 464, 184
-0.996104, 257, 161, 272, 224
-0.996104, 369, 137, 496, 168
-0.996105, 427, 273, 442, 333
-0.996109, 217, 145, 232, 208
-0.996119, 25, 241, 40, 304
-0.996128, 321, 121, 336, 184
-0.996134, 223, 169, 238, 232
-0.996138, 1, 89, 256, 152
-0.996142, 231, 257, 246, 320
-0.996149, 441, 201, 456, 264
-0.996152, 159, 233, 174, 296
-0.996158, 403, 129, 418, 192
-0.996172, 187, 217, 202, 280
-0.996177, 379, 177, 394, 240
-0.996181, 89, 193, 104, 256
-0.996184, 361, 209, 376, 272
-0.996189, 207, 201, 222, 264
-0.996205, 41, 257, 56, 320
-0.996206, 143, 273, 158, 333
-0.996207, 167, 153, 182, 216
-0.996214, 341, 129, 356, 192
-0.996223, 409, 257, 424, 320
-0.996227, 61, 241, 76, 304
-0.996232, 127, 265, 142, 328
-0.996241, 437, 249, 452, 312
-0.996243, 421, 209, 436, 272
-0.996246, 407, 209, 422, 272
-0.996248, 149, 273, 164, 333
-0.996249, 251, 33, 266, 96
-0.996251, 159, 265, 174, 328
-0.996253, 393, 113, 408, 176
-0.996268, 267, 249, 282, 312
-0.996268, 361, 1, 392, 256
-0.996275, 51, 273, 66, 333
-0.99628, 161, 285, 288, 316
-0.996283, 257, 81, 500, 144
-0.996297, 393, 249, 408, 312
-0.996305, 17, 161, 144, 192
-0.996307, 417, 41, 432, 104
-0.996309, 263, 137, 278, 200
-0.996311, 359, 145, 374, 208
-0.996313, 33, 93, 160, 124
-0.996316, 337, 1, 464, 32
-0.996318, 421, 273, 436, 333
-0.996319, 81, 241, 96, 304
-0.996333, 313, 121, 328, 184
-0.996333, 249, 161, 264, 224
-0.996346, 13, 233, 28, 296
-0.996348, 225, 53, 352, 84
-0.996358, 73, 273, 88, 333
-0.996361, 333, 113, 348, 176
-0.996367, 433, 209, 448, 272
-0.996378, 185, 185, 200, 248
-0.996385, 109, 97, 124, 160
-0.996386, 289, 201, 416, 232
-0.996393, 347, 129, 362, 192
-0.996397, 167, 129, 182, 192
-0.996403, 385, 177, 400, 240
-0.996408, 177, 125, 304, 156
-0.996411, 145, 121, 160, 184
-0.996413, 145, 65, 272, 96
-0.996427, 289, 217, 416, 248
-0.996428, 239, 137, 254, 200
-0.996434, 201, 137, 216, 200
-0.996435, 113, 81, 240, 112
-0.99645, 213, 201, 228, 264
-0.996456, 353, 181, 480, 212
-0.996463, 241, 217, 256, 280
-0.996465, 307, 265, 322, 328
-0.996473, 115, 97, 130, 160
-0.996475, 295, 177, 310, 240
-0.996477, 209, 225, 224, 288
-0.99648, 323, 249, 338, 312
-0.996496, 305, 13, 432, 44
-0.99651, 179, 177, 194, 240
-0.996517, 293, 145, 308, 208
-0.996543, 65, 177, 192, 208
-0.996545, 225, 117, 352, 148
-0.99656, 145, 113, 272, 144
-0.996597, 33, 17, 288, 80
-0.996602, 377, 33, 408, 288
-0.996619, 353, 229, 480, 260
-0.996688, 241, 5, 368, 36
-0.996738, 33, 129, 160, 160
-0.99674, 369, 105, 496, 136
-0.996755, 209, 185, 336, 216
-0.99677, 177, 93, 304, 124
-0.996803, 57, 1, 120, 333
-0.996806, 353, 261, 480, 292
-0.996822, 241, 21, 368, 52
-0.996823, 1, 185, 128, 216
-0.996862, 193, 77, 320, 108
-0.996875, 183, 233, 198, 264
-0.996879, 273, 269, 400, 300
-0.996883, 113, 93, 240, 124
-0.996915, 33, 25, 160, 88
-0.996942, 177, 49, 304, 80
-0.997027, 321, 33, 448, 64
-0.99704, 97, 61, 224, 92
-0.997055, 257, 1, 288, 256
-0.997059, 273, 57, 400, 88
-0.997076, 369, 273, 496, 304
-0.997108, 293, 33, 324, 288
-0.997123, 177, 37, 304, 68
-0.997138, 251, 185, 266, 216
-0.997165, 49, 65, 176, 96
-0.997185, 53, 245, 68, 276
-0.997189, 1, 297, 128, 328
-0.997196, 193, 65, 320, 96
-0.997236, 389, 33, 420, 288
-0.997248, 263, 205, 278, 236
-0.99725, 355, 221, 370, 252
-0.997256, 281, 65, 312, 320
-0.997271, 187, 245, 202, 276
-0.997275, 353, 169, 480, 200
-0.997291, 337, 61, 464, 92
-0.997291, 183, 257, 198, 288
-0.997311, 177, 65, 208, 320
-0.997316, 167, 225, 182, 256
-0.997321, 355, 145, 370, 176
-0.997322, 401, 1, 432, 256
-0.997324, 289, 105, 416, 136
-0.997324, 259, 173, 274, 204
-0.997342, 215, 213, 230, 244
-0.997359, 161, 25, 288, 56
-0.99736, 257, 193, 272, 224
-0.997388, 81, 17, 208, 80
-0.997414, 225, 41, 352, 72
-0.997422, 33, 1, 160, 64
-0.997426, 261, 269, 276, 300
-0.997428, 115, 109, 130, 140
-0.997432, 129, 1, 384, 64
-0.997436, 257, 233, 384, 264
-0.997441, 179, 221, 194, 252
-0.997441, 223, 153, 238, 184
-0.997443, 369, 125, 496, 156
-0.997448, 373, 153, 388, 184
-0.997464, 343, 225, 358, 256
-0.997471, 417, 213, 432, 244
-0.99749, 63, 237, 78, 268
-0.997498, 369, 297, 496, 328
-0.9975, 175, 245, 190, 276
-0.997516, 349, 1, 380, 256
-0.99752, 317, 233, 332, 264
-0.997532, 307, 253, 322, 284
-0.997534, 79, 113, 94, 144
-0.997536, 209, 201, 224, 232
-0.997559, 159, 149, 174, 180
-0.997565, 267, 189, 282, 220
-0.997581, 241, 1, 272, 256
-0.997586, 161, 9, 288, 40
-0.997597, 19, 237, 34, 268
-0.997607, 251, 169, 266, 200
-0.997635, 269, 33, 300, 288
-0.997635, 423, 221, 438, 252
-0.997636, 175, 265, 190, 296
-0.99764, 89, 217, 104, 248
-0.997644, 407, 237, 422, 268
-0.997648, 329, 1, 360, 256
-0.997654, 55, 269, 70, 300
-0.997658, 175, 149, 190, 180
-0.997662, 109, 105, 124, 136
-0.997666, 49, 81, 176, 112
-0.997693, 349, 221, 364, 252
-0.997702, 73, 229, 88, 260
-0.997728, 197, 149, 212, 180
-0.99773, 173, 229, 188, 260
-0.997734, 415, 233, 430, 264
-0.99774, 17, 173, 144, 204
-0.997742, 81, 213, 96, 244
-0.997743, 379, 165, 394, 196
-0.997743, 385, 177, 400, 208
-0.997754, 55, 257, 70, 288
-0.997757, 185, 269, 200, 300
-0.997759, 401, 241, 416, 272
-0.997765, 169, 165, 184, 196
-0.997765, 267, 281, 282, 312
-0.997768, 109, 117, 124, 148
-0.997769, 83, 225, 98, 256
-0.997774, 361, 221, 376, 252
-0.997775, 49, 273, 64, 304
-0.997776, 199, 201, 214, 232
-0.997777, 301, 249, 316, 280
-0.997777, 215, 201, 230, 232
-0.997778, 353, 133, 368, 164
-0.99778, 363, 169, 378, 200
-0.997789, 187, 161, 202, 192
-0.997801, 247, 261, 262, 292
-0.997806, 219, 169, 234, 200
-0.997818, 121, 117, 136, 148
-0.997823, 267, 161, 282, 192
-0.997826, 95, 221, 110, 252
-0.997827, 41, 249, 56, 280
-0.997829, 189, 257, 204, 288
-0.997835, 229, 157, 244, 188
-0.997853, 241, 137, 256, 168
-0.997853, 17, 249, 32, 280
-0.997868, 179, 177, 194, 208
-0.997869, 371, 185, 386, 216
-0.997878, 225, 225, 240, 256
-0.997879, 173, 217, 188, 248
-0.997882, 143, 121, 158, 152
-0.997888, 375, 141, 390, 172
-0.997891, 383, 117, 398, 148
-0.997892, 273, 45, 400, 76
-0.997892, 371, 165, 386, 196
-0.997892, 165, 153, 180, 184
-0.997893, 229, 173, 244, 204
-0.997893, 231, 137, 246, 168
-0.997899, 189, 145, 204, 176
-0.997905, 315, 249, 330, 280
-0.997905, 241, 101, 368, 132
-0.997907, 145, 277, 160, 308
-0.997907, 311, 133, 326, 164
-0.997912, 411, 221, 426, 252
-0.997915, 13, 261, 28, 292
-0.997917, 247, 137, 262, 168
-0.997919, 297, 209, 312, 240
-0.997921, 157, 273, 172, 304
-0.997923, 171, 133, 186, 164
-0.997923, 303, 161, 318, 192
-0.997931, 167, 261, 182, 292
-0.997933, 309, 65, 340, 320
-0.997936, 65, 249, 80, 280
-0.997939, 403, 157, 418, 188
-0.997943, 417, 129, 432, 160
-0.997945, 257, 205, 272, 236
-0.997946, 409, 125, 424, 156
-0.997949, 175, 197, 190, 228
-0.997958, 113, 217, 128, 248
-0.997963, 365, 157, 380, 188
-0.997964, 247, 205, 262, 236
-0.997964, 395, 173, 410, 204
-0.997971, 183, 141, 198, 172
-0.997974, 365, 133, 380, 164
-0.997981, 161, 221, 176, 252
-0.997982, 313, 169, 328, 200
-0.997984, 169, 177, 184, 208
-0.997989, 433, 233, 448, 264
-0.99799, 289, 1, 416, 32
-0.99799, 245, 185, 260, 216
-0.998, 153, 145, 168, 176
-0.998, 391, 253, 406, 284
-0.998004, 327, 117, 342, 148
-0.998008, 207, 221, 222, 252
-0.998009, 47, 249, 62, 280
-0.998009, 75, 213, 90, 244
-0.998012, 353, 13, 480, 44
-0.998015, 111, 65, 126, 96
-0.998017, 269, 205, 284, 236
-0.998018, 103, 105, 118, 136
-0.998022, 411, 137, 426, 168
-0.998023, 151, 157, 166, 188
-0.998025, 315, 121, 330, 152
-0.998026, 167, 273, 182, 304
-0.998029, 321, 121, 336, 152
-0.998033, 149, 65, 180, 320
-0.998033, 149, 117, 164, 148
-0.998035, 213, 181, 228, 212
-0.998039, 387, 133, 402, 164
-0.99804, 193, 161, 208, 192
-0.998042, 361, 209, 376, 240
-0.998044, 423, 233, 438, 264
-0.998048, 267, 269, 282, 300
-0.998052, 17, 149, 144, 180
-0.998086, 369, 49, 496, 80
-0.998223, 137, 65, 168, 320
-0.99826, 193, 105, 320, 136
-0.998293, 273, 69, 400, 100
-0.998318, 1, 49, 128, 112
-0.998327, 225, 89, 352, 120
-0.998362, 165, 65, 196, 320
-0.998439, 189, 65, 220, 320
-0.998442, 389, 123, 420, 138
-0.998442, 341, 145, 372, 160
-0.998443, 53, 261, 84, 276
-0.998443, 97, 115, 128, 130
-0.998443, 57, 277, 88, 292
-0.998444, 369, 179, 400, 194
-0.998444, 397, 161, 428, 176
-0.998444, 149, 287, 180, 302
-0.998444, 153, 179, 184, 194
-0.998444, 13, 251, 44, 266
-0.998444, 221, 101, 252, 116
-0.998445, 165, 185, 196, 200
-0.998447, 81, 211, 112, 226
-0.998448, 381, 259, 412, 274
-0.998448, 101, 221, 132, 236
-0.998449, 409, 215, 440, 230
-0.99845, 137, 159, 200, 174
-0.99845, 209, 155, 240, 170
-0.99845, 245, 209, 276, 224
-0.998451, 57, 271, 88, 286
-0.998451, 405, 135, 436, 150
-0.998451, 181, 225, 212, 240
-0.998452, 313, 233, 376, 248
-0.998453, 177, 241, 208, 256
-0.998453, 401, 225, 432, 240
-0.998453, 169, 223, 200, 238
-0.998453, 185, 249, 216, 264
-0.998454, 153, 143, 184, 158
-0.998455, 249, 45, 280, 60
-0.998455, 265, 213, 328, 228
-0.998456, 65, 109, 96, 124
-0.998457, 169, 261, 200, 276
-0.998458, 245, 175, 276, 190
-0.998458, 169, 221, 232, 236
-0.998458, 41, 109, 104, 124
-0.998458, 205, 103, 236, 118
-0.99846, 177, 213, 240, 228
-0.99846, 161, 169, 192, 184
-0.99846, 281, 209, 312, 224
-0.998461, 249, 141, 280, 156
-0.998461, 161, 283, 192, 298
-0.998462, 129, 289, 160, 304
-0.998462, 233, 209, 296, 224
-0.998462, 217, 209, 248, 224
-0.998463, 177, 205, 240, 220
-0.998463, 377, 163, 408, 178
-0.998463, 225, 145, 256, 160
-0.998464, 93, 215, 124, 230
-0.998464, 405, 129, 436, 144
-0.998465, 261, 163, 292, 178
-0.998466, 393, 249, 424, 264
-0.998467, 237, 189, 268, 204
-0.998467, 377, 121, 408, 136
-0.998467, 217, 139, 248, 154
-0.998467, 61, 239, 92, 254
-0.998468, 373, 145, 404, 160
-0.998468, 181, 155, 212, 170
-0.998471, 297, 215, 328, 230
-0.998471, 41, 251, 72, 266
-0.998472, 45, 231, 76, 246
-0.998473, 425, 249, 456, 264
-0.998473, 409, 245, 440, 260
-0.998476, 121, 299, 152, 314
-0.998476, 17, 229, 48, 244
-0.998476, 197, 195, 228, 210
-0.998478, 133, 181, 164, 196
-0.998478, 249, 163, 280, 178
-0.998479, 277, 137, 308, 152
-0.99848, 97, 109, 128, 124
-0.99848, 305, 243, 336, 258
-0.99848, 213, 237, 244, 252
-0.998482, 145, 281, 208, 296
-0.998482, 57, 97, 88, 112
-0.998483, 173, 147, 204, 162
-0.998484, 73, 109, 136, 124
-0.998484, 349, 231, 380, 246
-0.998485, 373, 151, 404, 166
-0.998487, 217, 203, 280, 218
-0.998488, 261, 139, 292, 154
-0.998488, 293, 249, 324, 264
-0.998489, 249, 165, 312, 180
-0.998491, 113, 123, 176, 138
-0.998491, 101, 125, 132, 140
-0.998492, 329, 227, 392, 242
-0.998492, 433, 243, 464, 258
-0.998492, 133, 121, 164, 136
-0.998492, 205, 219, 236, 234
-0.998493, 277, 215, 308, 230
-0.998493, 89, 221, 120, 236
-0.998493, 41, 227, 104, 242
-0.998493, 329, 119, 392, 134
-0.998494, 353, 161, 384, 176
-0.998494, 49, 103, 112, 118
-0.998494, 169, 229, 232, 244
-0.998494, 149, 191, 180, 206
-0.998495, 145, 223, 208, 238
-0.998495, 117, 113, 148, 128
-0.998496, 201, 213, 232, 228
-0.998496, 361, 167, 392, 182
-0.998496, 389, 167, 420, 182
-0.998497, 353, 225, 384, 240
-0.998497, 65, 231, 96, 246
-0.998499, 413, 221, 444, 236
-0.998499, 249, 187, 280, 202
-0.998499, 257, 207, 288, 222
-0.9985, 289, 135, 320, 150
-0.9985, 169, 229, 200, 244
-0.998502, 73, 223, 136, 238
-0.998502, 249, 199, 312, 214
-0.998503, 149, 173, 180, 188
-0.998504, 245, 201, 276, 216
-0.998505, 45, 101, 76, 116
-0.998506, 237, 141, 268, 156
-0.998506, 265, 139, 328, 154
-0.998507, 137, 163, 168, 178
-0.998507, 305, 253, 336, 268
-0.998508, 89, 125, 152, 140
-0.998509, 161, 151, 192, 166
-0.99851, 61, 103, 92, 118
-0.99851, 261, 193, 292, 208
-0.998511, 169, 159, 232, 174
-0.998511, 209, 213, 272, 228
-0.998511, 361, 163, 424, 178
-0.998512, 45, 109, 76, 124
-0.998512, 233, 141, 296, 156
-0.998512, 225, 161, 288, 176
-0.998512, 225, 147, 288, 162
-0.998512, 297, 129, 360, 144
-0.998513, 121, 165, 184, 180
-0.998514, 1, 251, 64, 266
-0.998515, 329, 147, 392, 162
-0.998515, 61, 65, 92, 320
-0.998516, 169, 255, 200, 270
-0.998516, 217, 169, 280, 184
-0.998516, 289, 223, 352, 238
-0.998517, 385, 245, 448, 260
-0.998517, 145, 167, 208, 182
-0.998519, 65, 231, 128, 246
-0.998519, 269, 201, 300, 216
-0.998519, 113, 221, 176, 236
-0.99852, 369, 173, 400, 188
-0.99852, 341, 223, 372, 238
-0.998521, 181, 203, 212, 218
-0.998522, 345, 153, 408, 168
-0.998522, 193, 237, 256, 252
-0.998522, 353, 155, 384, 170
-0.998523, 89, 115, 152, 130
-0.998523, 137, 201, 200, 216
-0.998524, 317, 121, 348, 136
-0.998525, 137, 283, 168, 298
-0.998525, 185, 213, 216, 228
-0.998526, 173, 269, 204, 284
-0.998527, 121, 123, 152, 138
-0.998527, 409, 231, 440, 246
-0.998527, 145, 153, 208, 168
-0.998527, 353, 169, 416, 184
-0.998529, 193, 139, 256, 154
-0.998529, 161, 249, 224, 264
-0.998529, 121, 171, 184, 186
-0.99853, 169, 193, 232, 208
-0.998534, 353, 223, 416, 238
-0.998535, 161, 275, 224, 290
-0.998535, 169, 163, 200, 178
-0.998535, 297, 259, 328, 274
-0.998537, 161, 255, 224, 270
-0.998539, 353, 147, 384, 162
-0.998539, 249, 219, 312, 234
-0.998539, 265, 159, 328, 174
-0.99854, 321, 167, 384, 182
-0.99854, 353, 119, 416, 134
-0.99854, 321, 215, 384, 230
-0.99854, 257, 271, 288, 286
-0.99854, 157, 275, 188, 290
-0.998541, 113, 113, 176, 128
-0.998541, 225, 271, 288, 286
-0.998542, 169, 235, 200, 250
-0.998542, 57, 213, 120, 228
-0.998543, 201, 219, 264, 234
-0.998543, 197, 203, 228, 218
-0.998545, 169, 277, 200, 292
-0.998545, 41, 247, 104, 262
-0.998545, 49, 289, 112, 304
-0.998545, 217, 189, 280, 204
-0.998545, 297, 123, 360, 138
-0.998547, 149, 159, 180, 174
-0.998549, 85, 109, 116, 124
-0.998552, 265, 145, 328, 160
-0.998553, 209, 197, 272, 212
-0.998553, 289, 217, 352, 232
-0.998553, 145, 287, 208, 302
-0.998554, 385, 253, 448, 268
-0.998555, 137, 185, 200, 200
-0.998556, 393, 195, 456, 210
-0.998556, 113, 285, 176, 300
-0.998556, 281, 247, 344, 262
-0.998557, 1, 261, 64, 276
-0.998557, 245, 195, 276, 210
-0.998557, 393, 239, 456, 254
-0.998558, 169, 157, 200, 172
-0.998558, 369, 125, 432, 140
-0.998559, 369, 195, 432, 210
-0.99856, 369, 151, 432, 166
-0.998561, 41, 257, 104, 272
-0.998562, 73, 291, 136, 306
-0.998563, 113, 301, 176, 316
-0.998563, 417, 239, 480, 254
-0.998564, 161, 243, 224, 258
-0.998564, 353, 131, 416, 146
-0.998566, 185, 167, 248, 182
-0.998566, 345, 175, 408, 190
-0.998566, 169, 247, 200, 262
-0.998566, 17, 229, 80, 244
-0.998566, 369, 177, 432, 192
-0.998567, 145, 235, 208, 250
-0.998567, 73, 225, 104, 240
-0.998567, 1, 283, 64, 298
-0.998567, 53, 247, 84, 262
-0.998568, 297, 253, 360, 268
-0.998569, 321, 221, 384, 236
-0.99857, 149, 281, 180, 296
-0.99857, 353, 189, 416, 204
-0.99857, 241, 47, 304, 62
-0.998571, 193, 107, 256, 122
-0.998571, 249, 271, 312, 286
-0.998572, 137, 217, 200, 232
-0.998573, 393, 215, 456, 230
-0.998574, 369, 145, 432, 160
-0.998574, 137, 229, 200, 244
-0.998575, 193, 145, 256, 160
-0.998575, 305, 135, 368, 150
-0.998576, 137, 265, 200, 280
-0.998576, 193, 153, 256, 168
-0.998577, 257, 207, 320, 222
-0.998577, 217, 155, 280, 170
-0.998578, 201, 263, 264, 278
-0.998578, 145, 147, 208, 162
-0.998578, 129, 193, 192, 208
-0.998578, 169, 153, 232, 168
-0.998581, 113, 291, 176, 306
-0.998581, 137, 119, 200, 134
-0.998581, 325, 231, 356, 246
-0.998582, 169, 107, 232, 122
-0.998582, 57, 239, 120, 254
-0.998583, 161, 131, 224, 146
-0.998583, 345, 183, 408, 198
-0.998584, 169, 147, 232, 162
-0.998584, 33, 283, 96, 298
-0.998585, 249, 191, 312, 206
-0.998585, 25, 221, 88, 236
-0.998585, 193, 245, 256, 260
-0.998585, 89, 103, 152, 118
-0.998586, 161, 267, 224, 282
-0.998586, 393, 233, 456, 248
-0.998586, 121, 151, 184, 166
-0.998587, 105, 187, 168, 202
-0.998588, 49, 205, 112, 220
-0.998588, 417, 245, 480, 260
-0.998589, 265, 171, 328, 186
-0.99859, 33, 65, 64, 320
-0.998593, 421, 237, 452, 252
-0.998616, 337, 229, 368, 244
-0.998625, 157, 225, 188, 240
-0.998668, 73, 65, 104, 320
-0.998701, 183, 209, 198, 333
-0.99878, 259, 1, 274, 128
-0.998792, 375, 113, 390, 240
-0.998815, 357, 145, 372, 272
-0.998818, 221, 65, 252, 320
-0.998833, 177, 209, 192, 333
-0.998843, 89, 65, 120, 320
-0.998853, 125, 33, 156, 288
-0.998868, 397, 1, 412, 128
-0.998901, 201, 65, 232, 320
-0.998903, 171, 209, 186, 333
-0.998936, 265, 177, 280, 304
-0.998938, 45, 33, 76, 288
-0.99895, 209, 161, 224, 288
-0.998951, 257, 177, 272, 304
-0.998954, 363, 113, 378, 240
-0.998955, 281, 1, 296, 128
-0.998957, 347, 113, 362, 240
-0.998989, 299, 177, 314, 304
-0.998997, 251, 177, 266, 304
-0.999, 381, 113, 396, 240
-0.999, 307, 161, 322, 288
-0.999003, 365, 1, 380, 128
-0.999017, 369, 161, 384, 288
-0.999026, 355, 193, 370, 320
-0.999033, 195, 193, 210, 320
-0.99906, 413, 65, 444, 320
-0.999062, 187, 161, 202, 288
-0.999071, 265, 129, 280, 256
-0.999072, 407, 17, 422, 144
-0.999075, 215, 129, 230, 256
-0.999075, 177, 129, 192, 256
-0.999077, 113, 65, 144, 320
-0.999077, 165, 209, 180, 333
-0.999091, 413, 209, 428, 333
-0.999095, 413, 145, 428, 272
-0.999099, 361, 209, 376, 333
-0.999101, 215, 209, 230, 333
-0.999101, 307, 209, 322, 333
-0.999111, 349, 193, 364, 320
-0.999112, 347, 49, 362, 176
-0.99912, 381, 161, 396, 288
-0.999129, 25, 177, 40, 304
-0.999141, 383, 49, 398, 176
-0.999142, 317, 113, 332, 240
-0.999151, 371, 49, 386, 176
-0.999157, 163, 161, 178, 288
-0.999163, 375, 161, 390, 288
-0.999163, 245, 177, 260, 304
-0.999164, 141, 97, 156, 224
-0.999166, 259, 129, 274, 256
-0.999167, 341, 113, 356, 240
-0.999168, 85, 193, 100, 320
-0.999168, 405, 129, 420, 256
-0.999171, 387, 177, 402, 304
-0.999172, 235, 209, 250, 333
-0.999181, 229, 209, 244, 333
-0.999182, 407, 209, 422, 333
-0.999182, 363, 161, 378, 288
-0.999184, 357, 49, 372, 176
-0.999186, 293, 161, 308, 288
-0.999187, 73, 209, 88, 333
-0.999189, 79, 113, 94, 240
-0.999193, 95, 193, 110, 320
-0.999197, 377, 49, 392, 176
-0.999198, 343, 193, 358, 320
-0.999198, 271, 209, 286, 333
-0.999202, 221, 209, 236, 333
-0.999203, 347, 1, 362, 128
-0.999205, 423, 129, 438, 256
-0.99921, 359, 1, 374, 128
-0.999213, 171, 161, 186, 288
-0.999216, 273, 129, 288, 256
-0.999216, 429, 1, 460, 256
-0.999223, 357, 97, 372, 224
-0.999223, 225, 145, 240, 272
-0.999225, 203, 145, 218, 272
-0.999227, 31, 161, 46, 288
-0.999229, 271, 1, 286, 128
-0.999235, 401, 209, 416, 333
-0.999238, 211, 49, 226, 176
-0.999243, 341, 49, 356, 176
-0.999246, 249, 129, 264, 256
-0.999249, 387, 113, 402, 240
-0.999257, 183, 65, 198, 192
-0.99926, 401, 49, 416, 176
-0.999261, 337, 193, 352, 320
-0.999262, 265, 1, 280, 128
-0.999263, 313, 209, 328, 333
-0.999263, 193, 145, 208, 272
-0.999268, 287, 1, 302, 128
-0.999269, 249, 33, 264, 160
-0.999271, 369, 113, 384, 240
-0.999273, 391, 1, 406, 128
-0.999275, 109, 49, 124, 176
-0.999283, 63, 177, 78, 304
-0.99929, 189, 209, 204, 333
-0.99929, 79, 209, 94, 333
-0.999291, 331, 97, 346, 224
-0.999294, 159, 209, 174, 333
-0.999294, 371, 1, 386, 128
-0.999302, 365, 49, 380, 176
-0.999304, 419, 193, 434, 320
-0.999305, 187, 113, 202, 240
-0.999307, 341, 1, 356, 128
-0.999307, 299, 129, 314, 256
-0.999309, 411, 97, 426, 224
-0.999313, 201, 209, 216, 333
-0.999318, 201, 49, 216, 176
-0.999319, 177, 81, 192, 208
-0.99932, 145, 177, 160, 304
-0.999325, 135, 209, 150, 333
-0.999325, 101, 209, 116, 333
-0.999326, 413, 33, 428, 160
-0.999329, 231, 129, 246, 256
-0.999339, 285, 145, 300, 272
-0.99934, 157, 129, 172, 256
-0.99934, 395, 49, 410, 176
-0.999341, 165, 97, 180, 224
-0.999343, 281, 65, 296, 192
-0.999343, 85, 97, 100, 224
-0.999347, 305, 113, 320, 240
-0.999348, 425, 177, 440, 304
-0.999348, 43, 97, 58, 224
-0.999352, 395, 177, 410, 304
-0.999359, 149, 49, 164, 176
-0.999361, 311, 113, 326, 240
-0.999363, 19, 193, 34, 320
-0.99937, 367, 209, 382, 333
-0.999372, 205, 97, 220, 224
-0.999377, 447, 193, 462, 320
-0.999377, 239, 145, 254, 272
-0.999378, 171, 81, 186, 208
-0.999379, 275, 81, 290, 208
-0.999381, 115, 65, 130, 192
-0.999382, 157, 65, 172, 192
-0.999383, 327, 49, 342, 176
-0.999389, 319, 209, 334, 333
-0.999391, 461, 65, 492, 320
-0.99946, 13, 65, 44, 320
-0.99962, 165, 191, 180, 206
-0.99962, 95, 223, 110, 238
-0.99962, 139, 163, 154, 178
-0.99962, 249, 265, 264, 280
-0.99962, 117, 109, 132, 124
-0.999621, 149, 191, 164, 206
-0.999622, 317, 123, 332, 138
-0.999622, 269, 141, 284, 156
-0.999622, 263, 201, 278, 216
-0.999622, 251, 141, 266, 156
-0.999622, 103, 213, 118, 228
-0.999622, 187, 265, 202, 280
-0.999623, 167, 149, 182, 164
-0.999623, 445, 1, 476, 256
-0.999624, 419, 221, 434, 236
-0.999624, 261, 171, 276, 186
-0.999625, 373, 153, 388, 168
-0.999625, 55, 107, 70, 122
-0.999625, 317, 235, 332, 250
-0.999625, 95, 215, 110, 230
-0.999627, 155, 153, 170, 168
-0.999627, 369, 223, 384, 238
-0.999627, 185, 163, 200, 178
-0.999628, 271, 199, 286, 214
-0.999628, 113, 115, 128, 130
-0.999628, 301, 263, 316, 278
-0.999628, 307, 303, 322, 318
-0.999629, 213, 207, 228, 222
-0.999629, 151, 167, 166, 182
-0.999629, 435, 239, 450, 254
-0.999629, 253, 43, 268, 58
-0.999629, 171, 247, 186, 262
-0.99963, 227, 235, 242, 250
-0.999631, 183, 271, 198, 286
-0.999632, 249, 195, 264, 210
-0.999632, 223, 105, 238, 120
-0.999632, 327, 119, 342, 134
-0.999633, 257, 193, 272, 208
-0.999633, 143, 177, 158, 192
-0.999633, 363, 221, 378, 236
-0.999634, 431, 249, 446, 264
-0.999634, 219, 171, 234, 186
-0.999636, 267, 283, 282, 298
-0.999636, 67, 97, 82, 112
-0.999636, 139, 287, 154, 302
-0.999636, 173, 149, 188, 164
-0.999637, 145, 285, 160, 300
-0.999637, 59, 241, 74, 256
-0.999638, 145, 163, 160, 178
-0.999638, 55, 257, 70, 272
-0.999638, 411, 223, 426, 238
-0.999638, 357, 145, 372, 160
-0.999639, 101, 221, 116, 236
-0.999639, 171, 163, 186, 178
-0.999641, 107, 109, 122, 124
-0.999641, 423, 231, 438, 246
-0.999642, 163, 251, 178, 266
-0.999642, 365, 161, 380, 176
-0.999643, 259, 183, 274, 198
-0.999643, 417, 229, 432, 244
-0.999643, 267, 163, 282, 178
-0.999643, 101, 65, 132, 320
-0.999645, 303, 137, 318, 152
-0.999645, 153, 173, 168, 188
-0.999645, 55, 101, 70, 116
-0.999646, 133, 123, 148, 138
-0.999646, 161, 165, 176, 180
-0.999646, 375, 145, 390, 160
-0.999646, 299, 251, 314, 266
-0.999647, 155, 187, 170, 202
-0.999647, 239, 141, 254, 156
-0.999647, 183, 157, 198, 172
-0.999649, 143, 279, 158, 294
-0.999649, 57, 247, 72, 262
-0.999649, 215, 219, 230, 234
-0.999649, 251, 171, 266, 186
-0.999651, 351, 225, 366, 240
-0.999654, 99, 109, 114, 124
-0.999654, 265, 207, 280, 222
-0.999654, 127, 121, 142, 136
-0.999654, 257, 199, 272, 214
-0.999654, 169, 155, 184, 170
-0.999656, 203, 203, 218, 218
-0.999659, 115, 123, 130, 138
-0.999661, 175, 155, 190, 170
-0.999661, 157, 283, 172, 298
-0.999662, 167, 279, 182, 294
-0.999662, 189, 247, 204, 262
-0.999662, 87, 111, 102, 126
-0.999664, 49, 107, 64, 122
-0.999664, 359, 231, 374, 246
-0.999665, 307, 251, 322, 266
-0.999665, 423, 237, 438, 252
-0.999666, 271, 211, 286, 226
-0.999668, 245, 141, 260, 156
-0.999669, 63, 247, 78, 262
-0.99967, 75, 229, 90, 244
-0.99967, 307, 259, 322, 274
-0.99967, 159, 159, 174, 174
-0.999671, 429, 237, 444, 252
-0.999673, 61, 97, 76, 112
-0.999673, 77, 109, 92, 124
-0.999674, 309, 137, 324, 152
-0.999674, 85, 225, 100, 240
-0.999675, 357, 223, 372, 238
-0.999676, 211, 105, 226, 120
-0.999677, 121, 125, 136, 140
-0.999678, 267, 193, 282, 208
-0.999685, 179, 221, 194, 236
-0.999686, 249, 189, 264, 204
-0.999687, 139, 121, 154, 136
-0.999688, 335, 229, 350, 244
-0.999689, 51, 251, 66, 266
-0.99969, 215, 213, 230, 228
-0.999691, 173, 273, 188, 288
-0.999691, 301, 257, 316, 272
-0.999691, 209, 213, 224, 228
-0.999691, 151, 283, 166, 298
-0.999694, 353, 231, 368, 246
-0.999695, 183, 247, 198, 262
-0.9997, 345, 227, 360, 242
-0.9997, 177, 247, 192, 262
-0.999701, 371, 167, 386, 182
-0.999704, 181, 265, 196, 280
-0.999705, 261, 177, 276, 192
-0.999712, 179, 231, 194, 246
-0.999717, 187, 253, 202, 268
-0.999728, 163, 225, 178, 240
-0.999729, 171, 227, 186, 242
-0.99973, 183, 237, 198, 252
-0.999736, 145, 183, 160, 198
-0.999736, 187, 259, 202, 274
-0.99999, 1, 65, 32, 320
-1.00014, 89, 17, 152, 144
-1.00068, 129, 9, 256, 72
