1943
-0.177213, 1, 1, 500, 375
-0.391811, 1, 65, 500, 320
-0.509557, 225, 1, 480, 375
-0.526425, 33, 1, 288, 375
-0.593288, 129, 1, 384, 375
-0.59945, 193, 97, 448, 352
-0.642718, 33, 65, 288, 320
-0.701662, 193, 1, 448, 256
-0.841698, 353, 1, 480, 375
-0.852171, 289, 65, 416, 320
-0.853859, 305, 1, 432, 375
-0.854117, 1, 65, 500, 192
-0.857306, 369, 65, 496, 320
-0.861613, 1, 145, 500, 272
-0.864373, 241, 1, 368, 375
-0.868378, 241, 97, 368, 352
-0.877465, 17, 1, 144, 256
-0.884396, 177, 1, 304, 375
-0.886388, 17, 97, 144, 352
-0.887938, 1, 225, 500, 352
-0.888303, 209, 1, 336, 256
-0.888823, 177, 129, 304, 375
-0.89083, 129, 97, 256, 352
-0.891618, 1, 17, 500, 144
-0.892505, 33, 1, 160, 375
-0.89754, 65, 65, 192, 320
-0.907373, 97, 1, 224, 375
-0.907416, 129, 1, 256, 256
-0.908131, 305, 81, 432, 208
-0.911199, 225, 97, 480, 224
-0.915122, 257, 145, 500, 272
-0.918542, 129, 129, 384, 256
-0.926421, 1, 113, 256, 240
-0.930746, 1, 241, 256, 368
-0.930905, 257, 225, 500, 352
-0.931895, 97, 81, 352, 208
-0.931953, 369, 113, 432, 240
-0.932591, 225, 49, 480, 176
-0.933381, 161, 209, 416, 336
-0.934452, 337, 161, 464, 288
-0.936599, 257, 65, 384, 192
-0.937003, 321, 49, 384, 176
-0.937138, 321, 17, 448, 144
-0.937152, 209, 129, 336, 256
-0.937209, 273, 97, 336, 224
-0.937418, 289, 129, 416, 256
-0.937843, 401, 65, 464, 192
-0.939585, 369, 81, 496, 208
-0.940726, 297, 97, 360, 224
-0.942689, 209, 81, 336, 208
-0.94426, 321, 209, 448, 336
-0.944412, 273, 137, 336, 200
-0.944963, 353, 161, 416, 288
-0.945686, 1, 65, 256, 192
-0.946045, 265, 145, 328, 272
-0.946453, 129, 129, 256, 256
-0.94669, 1, 145, 128, 272
-0.946847, 273, 225, 400, 352
-0.946912, 1, 193, 256, 320
-0.947237, 297, 33, 360, 160
-0.948175, 385, 161, 448, 288
-0.948415, 225, 225, 352, 352
-0.948445, 273, 177, 400, 304
-0.948511, 289, 73, 352, 136
-0.949325, 329, 73, 392, 136
-0.949754, 225, 177, 352, 304
-0.949843, 369, 65, 432, 192
-0.950366, 129, 17, 384, 144
-0.950631, 345, 65, 408, 192
-0.950976, 65, 209, 192, 336
-0.95186, 273, 113, 336, 176
-0.95215, 401, 89, 464, 152
-0.95262, 177, 177, 304, 304
-0.953806, 289, 193, 352, 320
-0.953946, 33, 145, 96, 272
-0.953969, 113, 241, 240, 368
-0.95437, 321, 49, 384, 112
-0.95445, 433, 1, 496, 128
-0.954529, 433, 217, 496, 280
-0.954828, 33, 1, 288, 128
-0.95491, 33, 97, 160, 224
-0.955108, 393, 113, 456, 240
-0.955234, 113, 193, 240, 320
-0.955294, 249, 225, 312, 352
-0.955522, 241, 17, 368, 144
-0.955682, 153, 225, 216, 352
-0.955896, 409, 161, 472, 288
-0.955972, 265, 161, 328, 224
-0.956168, 377, 137, 440, 200
-0.95633, 289, 145, 352, 272
-0.956343, 409, 153, 472, 216
-0.956358, 377, 81, 440, 144
-0.956792, 241, 97, 304, 224
-0.95708, 369, 17, 496, 144
-0.957084, 233, 145, 296, 272
-0.957401, 249, 129, 312, 192
-0.957462, 273, 49, 336, 176
-0.957947, 9, 145, 72, 272
-0.958004, 297, 97, 360, 160
-0.958054, 25, 97, 88, 224
-0.958084, 1, 193, 128, 320
-0.958215, 321, 97, 384, 224
-0.958433, 401, 113, 464, 176
-0.958437, 337, 1, 400, 128
-0.958598, 241, 169, 304, 232
-0.958621, 161, 81, 288, 208
-0.959324, 409, 209, 472, 272
-0.960026, 177, 225, 304, 352
-0.960254, 145, 137, 208, 200
-0.960413, 369, 17, 432, 144
-0.960457, 281, 241, 344, 368
-0.960727, 329, 145, 392, 272
-0.960748, 161, 177, 224, 304
-0.960749, 193, 1, 320, 128
-0.961067, 361, 161, 424, 224
-0.961339, 385, 201, 448, 264
-0.961553, 393, 177, 456, 240
-0.961803, 369, 57, 432, 120
-0.961867, 361, 113, 424, 176
-0.962099, 49, 65, 112, 192
-0.962297, 129, 177, 192, 304
-0.962794, 425, 81, 488, 208
-0.962803, 73, 33, 136, 160
-0.962881, 113, 81, 240, 208
-0.963025, 377, 225, 440, 352
-0.963127, 9, 121, 72, 184
-0.96317, 225, 1, 480, 128
-0.963191, 105, 49, 168, 176
-0.963475, 297, 49, 360, 112
-0.963548, 177, 81, 240, 208
-0.96368, 241, 257, 304, 320
-0.963713, 201, 145, 264, 272
-0.963721, 65, 161, 192, 288
-0.963996, 393, 17, 456, 144
-0.963996, 425, 241, 488, 368
-0.96421, 345, 41, 408, 104
-0.964347, 49, 33, 176, 160
-0.964392, 329, 193, 392, 320
-0.964544, 169, 129, 232, 256
-0.965127, 401, 241, 464, 368
-0.965157, 273, 1, 336, 128
-0.965192, 113, 241, 176, 368
-0.965372, 81, 193, 144, 320
-0.965383, 433, 137, 496, 200
-0.965393, 33, 129, 96, 192
-0.965703, 369, 209, 496, 336
-0.965806, 257, 89, 320, 152
-0.966016, 337, 193, 400, 256
-0.966089, 337, 217, 400, 280
-0.966281, 321, 33, 384, 288
-0.966669, 1, 193, 64, 320
-0.966791, 329, 33, 360, 160
-0.966891, 329, 241, 392, 368
-0.966964, 265, 257, 328, 320
-0.96705, 225, 137, 288, 200
-0.967303, 433, 161, 496, 288
-0.96755, 369, 313, 432, 375
-0.967561, 113, 33, 240, 160
-0.967644, 41, 209, 104, 336
-0.967835, 433, 241, 496, 304
-0.967936, 217, 97, 280, 224
-0.967958, 329, 57, 360, 120
-0.967996, 129, 161, 192, 224
-0.968283, 137, 97, 200, 224
-0.968351, 433, 185, 496, 248
-0.96839, 289, 65, 352, 320
-0.968586, 337, 161, 400, 224
-0.968614, 273, 193, 336, 256
-0.968617, 329, 97, 392, 160
-0.968839, 169, 145, 232, 208
-0.968871, 201, 225, 264, 352
-0.9689, 265, 129, 328, 375
-0.968901, 65, 113, 128, 240
-0.969, 305, 161, 368, 224
-0.969192, 305, 105, 432, 168
-0.969353, 209, 233, 272, 296
-0.969457, 389, 97, 420, 224
-0.969606, 9, 49, 72, 176
-0.969628, 121, 129, 184, 192
-0.969696, 121, 201, 184, 264
-0.969853, 1, 201, 64, 264
-0.970089, 433, 9, 496, 72
-0.970142, 161, 217, 224, 280
-0.970261, 297, 185, 360, 248
-0.970324, 113, 129, 176, 256
-0.970341, 417, 65, 480, 320
-0.970442, 369, 225, 432, 288
-0.970475, 145, 193, 208, 256
-0.97049, 401, 313, 464, 375
-0.970605, 1, 33, 128, 160
-0.970697, 305, 81, 432, 144
-0.970796, 1, 169, 64, 232
-0.970976, 401, 113, 432, 240
-0.971075, 297, 217, 360, 280
-0.971106, 425, 97, 488, 160
-0.971121, 97, 1, 160, 64
-0.971145, 321, 201, 448, 264
-0.971206, 361, 97, 424, 352
-0.97128, 349, 17, 380, 144
-0.971282, 241, 225, 304, 288
-0.971316, 409, 233, 472, 296
-0.971333, 385, 65, 448, 320
-0.971517, 145, 241, 208, 304
-0.971563, 345, 305, 408, 368
-0.971789, 433, 161, 496, 224
-0.97183, 289, 153, 416, 216
-0.971969, 105, 177, 168, 304
-0.972021, 409, 65, 472, 128
-0.972045, 285, 97, 316, 224
-0.972129, 401, 137, 432, 200
-0.972144, 153, 49, 216, 176
-0.972314, 285, 145, 316, 208
-0.972367, 193, 113, 256, 176
-0.972438, 417, 169, 448, 232
-0.972449, 369, 89, 496, 152
-0.972503, 193, 153, 256, 216
-0.972513, 417, 97, 448, 224
-0.972527, 289, 113, 320, 176
-0.972548, 1, 97, 64, 224
-0.972636, 177, 225, 240, 352
-0.972792, 225, 241, 288, 368
-0.972801, 9, 145, 72, 208
-0.972912, 317, 89, 348, 152
-0.972952, 121, 281, 184, 344
-0.972995, 217, 257, 280, 320
-0.973179, 225, 113, 288, 176
-0.973248, 217, 297, 280, 360
-0.973267, 217, 161, 280, 224
-0.973271, 321, 81, 352, 208
-0.973412, 305, 105, 336, 168
-0.973431, 297, 145, 328, 208
-0.973555, 113, 257, 176, 320
-0.973656, 361, 201, 424, 264
-0.9739, 353, 81, 416, 144
-0.973906, 153, 113, 216, 176
-0.973968, 353, 241, 416, 368
-0.973977, 225, 137, 352, 200
-0.974023, 177, 241, 304, 304
-0.974037, 185, 249, 248, 312
-0.974047, 1, 241, 128, 368
-0.974076, 305, 65, 336, 192
-0.974095, 297, 121, 360, 184
-0.974309, 385, 169, 416, 232
-0.974451, 145, 1, 208, 128
-0.97447, 305, 225, 432, 288
-0.974481, 273, 137, 304, 200
-0.974484, 265, 233, 328, 296
-0.974516, 33, 105, 96, 168
-0.974534, 153, 273, 216, 336
-0.974556, 305, 241, 368, 368
-0.97459, 41, 257, 104, 320
-0.974698, 193, 289, 256, 352
-0.97475, 381, 145, 412, 272
-0.974777, 353, 153, 480, 216
-0.974803, 249, 49, 312, 176
-0.974842, 389, 97, 420, 160
-0.974943, 65, 25, 128, 88
-0.975049, 369, 217, 496, 280
-0.975069, 41, 201, 104, 264
-0.975131, 169, 193, 232, 256
-0.97518, 41, 161, 104, 224
-0.975182, 273, 161, 304, 224
-0.975199, 305, 25, 368, 88
-0.975212, 185, 217, 248, 280
-0.975442, 409, 105, 440, 168
-0.975463, 225, 209, 352, 272
-0.975465, 89, 201, 152, 264
-0.975603, 257, 241, 384, 304
-0.975629, 289, 297, 352, 360
-0.975691, 241, 281, 304, 344
-0.975751, 265, 33, 328, 288
-0.975841, 385, 33, 448, 96
-0.975888, 369, 129, 496, 192
-0.97595, 261, 161, 292, 224
-0.975972, 25, 1, 88, 256
-0.975987, 369, 177, 496, 240
-0.975998, 433, 209, 464, 272
-0.976045, 289, 177, 416, 240
-0.976126, 9, 97, 72, 160
-0.976204, 241, 129, 304, 375
-0.976216, 365, 161, 396, 224
-0.976312, 89, 305, 152, 368
-0.976349, 273, 97, 304, 224
-0.976355, 137, 305, 200, 368
-0.976379, 1, 121, 128, 184
-0.976386, 73, 249, 136, 312
-0.9764, 329, 89, 360, 152
-0.976497, 113, 105, 176, 168
-0.976529, 457, 225, 488, 288
-0.976574, 349, 65, 380, 128
-0.976589, 225, 161, 352, 224
-0.976612, 297, 241, 360, 304
-0.976718, 305, 57, 432, 120
-0.976806, 273, 145, 304, 272
-0.976806, 409, 73, 440, 136
-0.976884, 413, 145, 444, 272
-0.976915, 377, 1, 440, 64
-0.976955, 273, 33, 336, 96
-0.977015, 49, 17, 112, 144
-0.977044, 337, 17, 400, 80
-0.977059, 17, 97, 80, 352
-0.977064, 9, 241, 72, 368
-0.977091, 105, 169, 168, 232
-0.97719, 265, 289, 328, 352
-0.977217, 337, 313, 464, 375
-0.977218, 289, 129, 416, 192
-0.977225, 1, 305, 64, 368
-0.977311, 97, 129, 160, 192
-0.977316, 57, 161, 120, 288
-0.977341, 225, 193, 288, 320
-0.977344, 129, 249, 256, 312
-0.977396, 413, 137, 444, 200
-0.977432, 121, 233, 184, 296
-0.977485, 309, 65, 340, 128
-0.977498, 433, 89, 464, 152
-0.977603, 353, 65, 384, 192
-0.977607, 9, 1, 72, 128
-0.97772, 365, 145, 396, 272
-0.977839, 57, 1, 120, 64
-0.977886, 177, 145, 304, 208
-0.977992, 37, 145, 68, 272
-0.978007, 49, 97, 80, 224
-0.978043, 25, 145, 56, 272
-0.978098, 33, 145, 160, 208
-0.978154, 161, 169, 224, 232
-0.978155, 81, 241, 144, 368
-0.978216, 205, 113, 236, 240
-0.978238, 377, 201, 408, 264
-0.978411, 321, 289, 384, 352
-0.978466, 293, 145, 324, 272
-0.978477, 89, 113, 152, 240
-0.978487, 177, 1, 240, 128
-0.978519, 373, 65, 404, 192
-0.978644, 61, 129, 92, 256
-0.978711, 57, 113, 120, 176
-0.978754, 73, 225, 136, 288
-0.97884, 113, 217, 240, 280
-0.978893, 345, 1, 408, 256
-0.978965, 401, 201, 432, 264
-0.979014, 169, 313, 232, 375
-0.979065, 397, 161, 428, 288
-0.979066, 177, 137, 208, 200
-0.97911, 289, 265, 352, 328
-0.97913, 81, 1, 144, 256
-0.979147, 9, 233, 72, 296
-0.979178, 241, 305, 304, 368
-0.97924, 153, 89, 216, 152
-0.979264, 265, 313, 328, 375
-0.979268, 81, 177, 144, 240
-0.97927, 321, 1, 384, 375
-0.979302, 161, 209, 192, 336
-0.979382, 113, 81, 176, 144
-0.979391, 309, 113, 340, 240
-0.979458, 257, 81, 384, 144
-0.979481, 409, 41, 472, 104
-0.979547, 317, 33, 348, 160
-0.979596, 57, 137, 120, 200
-0.979614, 201, 193, 264, 256
-0.979626, 29, 65, 60, 192
-0.979657, 421, 81, 452, 144
-0.979696, 405, 65, 436, 192
-0.979721, 57, 97, 120, 352
-0.979767, 193, 153, 224, 216
-0.979783, 421, 225, 452, 288
-0.979815, 333, 81, 364, 208
-0.979817, 289, 169, 320, 232
-0.979828, 145, 65, 208, 128
-0.97986, 257, 257, 288, 320
-0.979925, 209, 113, 336, 176
-0.979957, 385, 289, 448, 352
-0.979959, 261, 129, 292, 192
-0.979964, 405, 161, 436, 224
-0.979978, 325, 201, 356, 264
-0.979997, 413, 201, 444, 264
-0.980007, 65, 81, 128, 144
-0.980029, 129, 145, 256, 208
-0.980041, 177, 169, 304, 232
-0.980086, 433, 41, 496, 104
-0.980128, 321, 33, 448, 96
-0.980183, 273, 201, 400, 264
-0.980351, 17, 97, 48, 224
-0.980359, 433, 241, 464, 368
-0.980368, 425, 313, 488, 375
-0.980409, 113, 65, 176, 320
-0.980623, 113, 1, 176, 128
-0.980785, 257, 49, 384, 112
-0.980807, 249, 193, 312, 256
-0.980835, 33, 225, 96, 288
-0.980892, 241, 33, 304, 288
-0.980899, 373, 81, 404, 144
-0.980918, 173, 193, 204, 256
-0.980949, 161, 217, 288, 280
-0.980949, 1, 265, 64, 328
-0.980975, 453, 121, 484, 184
-0.981012, 309, 129, 340, 192
-0.981137, 417, 49, 448, 176
-0.981201, 241, 281, 368, 344
-0.981249, 213, 233, 244, 296
-0.981287, 353, 65, 480, 128
-0.981346, 389, 209, 420, 272
-0.981407, 89, 273, 152, 336
-0.98144, 81, 121, 208, 184
-0.981454, 393, 313, 424, 375
-0.981521, 25, 201, 56, 264
-0.981609, 149, 129, 180, 192
-0.98162, 217, 113, 248, 240
-0.98162, 149, 177, 180, 304
-0.981646, 357, 41, 388, 104
-0.981655, 205, 121, 236, 184
-0.981667, 429, 185, 460, 248
-0.981853, 97, 177, 224, 240
-0.981875, 145, 129, 208, 375
-0.981879, 373, 193, 404, 320
-0.981881, 469, 161, 500, 288
-0.981962, 157, 153, 188, 216
-0.982017, 65, 241, 192, 304
-0.982036, 397, 73, 428, 136
-0.982036, 421, 113, 452, 176
-0.982115, 257, 105, 384, 168
-0.982117, 469, 217, 500, 280
-0.982118, 425, 145, 456, 272
-0.982146, 225, 185, 352, 248
-0.982156, 61, 121, 92, 184
-0.982182, 353, 145, 384, 272
-0.982202, 261, 161, 292, 288
-0.982227, 277, 241, 308, 304
-0.982258, 17, 169, 144, 232
-0.982292, 429, 161, 460, 224
-0.982327, 49, 1, 112, 256
-0.982332, 445, 209, 476, 272
-0.982395, 313, 161, 344, 224
-0.982415, 461, 225, 492, 352
-0.982418, 297, 1, 360, 375
-0.982421, 177, 313, 304, 375
-0.982543, 361, 1, 392, 128
-0.982588, 5, 169, 36, 232
-0.982621, 13, 145, 44, 272
-0.982781, 177, 265, 304, 328
-0.982805, 321, 129, 384, 375
-0.982837, 65, 217, 192, 280
-0.982847, 289, 257, 320, 320
-0.982906, 373, 1, 404, 128
-0.982956, 305, 9, 432, 72
-0.983005, 201, 33, 264, 160
-0.98303, 273, 113, 304, 176
-0.983048, 237, 225, 268, 288
-0.983079, 9, 113, 40, 176
-0.98312, 305, 177, 336, 304
-0.983161, 225, 225, 256, 288
-0.983182, 429, 81, 460, 208
-0.983215, 129, 161, 160, 224
-0.983313, 241, 169, 272, 232
-0.98335, 369, 1, 432, 375
-0.983397, 341, 201, 372, 264
-0.983401, 21, 193, 52, 320
-0.983409, 129, 49, 192, 176
-0.983453, 233, 1, 296, 128
-0.983483, 1, 97, 32, 224
-0.983603, 17, 145, 48, 208
-0.983611, 469, 1, 500, 128
-0.983633, 137, 209, 168, 336
-0.983688, 61, 81, 92, 208
-0.983702, 177, 289, 304, 352
-0.983727, 205, 225, 236, 352
-0.983729, 249, 233, 280, 296
-0.983744, 49, 41, 176, 104
-0.983799, 41, 121, 72, 184
-0.983851, 65, 273, 192, 336
-0.983852, 301, 177, 332, 240
-0.983922, 193, 81, 224, 208
-0.983997, 1, 201, 128, 264
-0.984005, 289, 297, 416, 360
-0.984017, 137, 129, 168, 192
-0.98402, 293, 193, 324, 320
-0.984033, 193, 145, 224, 272
-0.984036, 125, 249, 156, 312
-0.984051, 89, 97, 152, 352
-0.984056, 421, 313, 452, 375
-0.984079, 33, 89, 160, 152
-0.98408, 329, 33, 360, 96
-0.9841, 221, 161, 252, 224
-0.984139, 249, 137, 280, 200
-0.984158, 9, 193, 40, 256
-0.984196, 81, 177, 112, 304
-0.984218, 281, 89, 312, 152
-0.984268, 149, 185, 180, 248
-0.984287, 321, 129, 352, 256
-0.984315, 293, 89, 324, 152
-0.984344, 285, 49, 316, 176
-0.984347, 245, 257, 276, 320
-0.98436, 113, 281, 240, 344
-0.984374, 229, 249, 260, 312
-0.984395, 353, 241, 480, 304
-0.984402, 453, 89, 484, 152
-0.984432, 449, 225, 480, 352
-0.98444, 145, 105, 272, 168
-0.984441, 149, 129, 180, 256
-0.984467, 325, 113, 356, 176
-0.984486, 89, 201, 120, 264
-0.984502, 469, 1, 500, 64
-0.984529, 165, 129, 196, 192
-0.984598, 269, 265, 300, 328
-0.984603, 181, 129, 212, 256
-0.98463, 345, 1, 408, 375
-0.984648, 409, 225, 440, 352
-0.984653, 49, 193, 176, 256
-0.984653, 373, 1, 404, 64
-0.98468, 229, 137, 260, 200
-0.984692, 389, 137, 420, 200
-0.984713, 173, 169, 204, 232
-0.984726, 393, 1, 456, 375
-0.984771, 225, 49, 288, 176
-0.984791, 257, 97, 288, 224
-0.984817, 405, 313, 436, 375
-0.984843, 25, 113, 56, 176
-0.984847, 245, 113, 276, 240
-0.984863, 217, 97, 280, 352
-0.984867, 353, 1, 480, 64
-0.984872, 173, 177, 204, 304
-0.984892, 1, 305, 128, 368
-0.984938, 97, 1, 160, 375
-0.984983, 281, 241, 312, 368
-0.98501, 137, 281, 168, 344
-0.98507, 361, 73, 392, 136
-0.985101, 65, 313, 192, 375
-0.985133, 97, 1, 224, 64
-0.985151, 85, 129, 116, 192
-0.985184, 373, 233, 404, 296
-0.985187, 1, 265, 128, 328
-0.98519, 29, 153, 60, 216
-0.985274, 81, 145, 208, 208
-0.985291, 433, 1, 496, 375
-0.985318, 385, 73, 416, 136
-0.985348, 161, 193, 288, 256
-0.985354, 441, 233, 472, 296
-0.985376, 77, 217, 108, 280
-0.985393, 145, 241, 176, 304
-0.985395, 17, 233, 144, 296
-0.985415, 421, 225, 452, 352
-0.98546, 9, 49, 40, 176
-0.985484, 269, 209, 300, 336
-0.985514, 257, 209, 288, 336
-0.985514, 193, 97, 256, 352
-0.985536, 161, 217, 192, 280
-0.985586, 69, 257, 100, 320
-0.985645, 97, 97, 224, 160
-0.985654, 145, 81, 176, 144
-0.985659, 93, 1, 124, 128
-0.985671, 133, 105, 164, 168
-0.985691, 105, 81, 136, 208
-0.985704, 105, 209, 136, 272
-0.985719, 437, 161, 468, 288
-0.985766, 141, 153, 172, 216
-0.985807, 469, 113, 500, 176
-0.985884, 381, 305, 412, 368
-0.985905, 49, 145, 80, 208
-0.985943, 121, 1, 184, 375
-0.985996, 305, 17, 336, 144
-0.986042, 217, 225, 248, 352
-0.986048, 369, 25, 496, 88
-0.986065, 161, 241, 192, 304
-0.986093, 461, 113, 492, 240
-0.986118, 193, 121, 224, 184
-0.986279, 329, 177, 360, 304
-0.986281, 33, 225, 64, 352
-0.986291, 429, 1, 460, 128
-0.986292, 461, 153, 492, 216
-0.986317, 389, 49, 420, 176
-0.986323, 449, 161, 480, 288
-0.986394, 433, 121, 464, 184
-0.986398, 61, 145, 92, 208
-0.986402, 333, 233, 364, 296
-0.986458, 5, 137, 36, 200
-0.986464, 341, 41, 372, 104
-0.986532, 273, 1, 336, 375
-0.986532, 125, 225, 156, 288
-0.986565, 1, 65, 128, 128
-0.98657, 37, 185, 68, 248
-0.986625, 125, 241, 156, 368
-0.986676, 149, 225, 180, 352
-0.98668, 209, 81, 336, 144
-0.986714, 97, 73, 224, 136
-0.986723, 261, 225, 292, 288
-0.986732, 1, 145, 32, 272
-0.986732, 373, 241, 404, 368
-0.98674, 213, 161, 244, 288
-0.986751, 49, 65, 176, 128
-0.986827, 369, 49, 400, 112
-0.986849, 125, 145, 156, 272
-0.986871, 341, 89, 372, 152
-0.986874, 165, 105, 196, 168
-0.986901, 153, 105, 184, 168
-0.986903, 441, 185, 472, 248
-0.986933, 105, 145, 136, 272
-0.986952, 165, 49, 196, 176
-0.986958, 117, 137, 148, 200
-0.986965, 233, 161, 264, 288
-0.986965, 229, 201, 260, 264
-0.987041, 293, 241, 324, 368
-0.987109, 185, 177, 216, 240
-0.987138, 361, 225, 392, 352
-0.987176, 341, 177, 372, 304
-0.987214, 45, 49, 76, 176
-0.987236, 345, 225, 376, 352
-0.987268, 49, 145, 80, 272
-0.987377, 281, 193, 312, 320
-0.98741, 305, 273, 432, 336
-0.987436, 65, 1, 128, 375
-0.987535, 189, 193, 220, 320
-0.987571, 257, 17, 384, 80
-0.987573, 225, 313, 352, 375
-0.987574, 65, 209, 96, 336
-0.987924, 245, 177, 276, 304
-0.987984, 73, 129, 104, 256
-0.988048, 137, 1, 200, 256
-0.988102, 45, 193, 76, 320
-0.988221, 389, 225, 420, 352
-0.988313, 265, 161, 328, 192
-0.988352, 333, 225, 364, 352
-0.988379, 17, 1, 144, 64
-0.988384, 321, 57, 384, 88
-0.988458, 469, 49, 500, 176
-0.988546, 217, 1, 280, 256
-0.988568, 241, 1, 304, 375
-0.988601, 169, 129, 200, 256
-0.988606, 265, 173, 328, 204
-0.988612, 209, 65, 240, 192
-0.988641, 305, 249, 432, 312
-0.988655, 5, 193, 36, 320
-0.988686, 289, 105, 352, 136
-0.988759, 417, 149, 480, 180
-0.988787, 273, 49, 304, 176
-0.988841, 161, 65, 288, 128
-0.988869, 321, 93, 384, 124
-0.988889, 113, 313, 240, 375
-0.9889, 161, 1, 288, 64
-0.988905, 337, 81, 400, 112
-0.988912, 237, 225, 268, 352
-0.988914, 393, 157, 456, 188
-0.98892, 145, 1, 208, 375
-0.988963, 273, 141, 336, 172
-0.988988, 77, 33, 108, 160
-0.989053, 225, 129, 480, 192
-0.989112, 353, 289, 480, 352
-0.989112, 169, 129, 232, 375
-0.989122, 233, 157, 296, 188
-0.989139, 29, 17, 60, 144
-0.989193, 93, 129, 124, 256
-0.989215, 425, 165, 488, 196
-0.989221, 181, 81, 212, 208
-0.989277, 441, 97, 472, 224
-0.989294, 257, 153, 500, 216
-0.989319, 289, 85, 352, 116
-0.989324, 77, 81, 108, 208
-0.98936, 121, 1, 152, 128
-0.989373, 129, 97, 160, 224
-0.989392, 93, 209, 124, 336
-0.98943, 65, 17, 96, 144
-0.989443, 289, 1, 320, 128
-0.989481, 393, 85, 456, 116
-0.989536, 393, 169, 456, 200
-0.989545, 393, 341, 456, 372
-0.989571, 265, 121, 328, 152
-0.989657, 393, 121, 456, 152
-0.989663, 193, 241, 224, 368
-0.989757, 405, 17, 436, 144
-0.989817, 1, 33, 128, 96
-0.989836, 129, 129, 384, 192
-0.98984, 137, 161, 168, 288
-0.989849, 317, 209, 348, 336
-0.989853, 377, 101, 440, 132
-0.989879, 229, 97, 260, 224
-0.989903, 201, 1, 264, 375
-0.989905, 321, 69, 384, 100
-0.989923, 289, 157, 352, 188
-0.989924, 9, 121, 72, 152
-0.989946, 121, 193, 152, 320
-0.989951, 17, 137, 80, 168
-0.989955, 257, 81, 500, 144
-0.989962, 281, 73, 344, 104
-0.98998, 425, 137, 488, 168
-0.990002, 121, 49, 152, 176
-0.990004, 129, 249, 384, 312
-0.990013, 313, 81, 376, 112
-0.990021, 369, 157, 432, 188
-0.990023, 233, 137, 296, 168
-0.990054, 177, 241, 208, 368
-0.990073, 337, 229, 400, 260
-0.990076, 145, 1, 176, 128
-0.990077, 177, 1, 240, 375
-0.990088, 289, 117, 352, 148
-0.990103, 385, 181, 448, 212
-0.990185, 345, 49, 408, 80
-0.990224, 225, 225, 480, 288
-0.990231, 249, 249, 312, 280
-0.990243, 193, 153, 256, 184
-0.990252, 361, 173, 424, 204
-0.990252, 425, 217, 488, 248
-0.99027, 193, 137, 256, 168
-0.990275, 233, 169, 296, 200
-0.990276, 369, 85, 432, 116
-0.990294, 241, 329, 304, 360
-0.990301, 145, 173, 208, 204
-0.990319, 425, 329, 488, 360
-0.990333, 173, 1, 204, 128
-0.990335, 401, 137, 464, 168
-0.99034, 137, 205, 200, 236
-0.9904, 385, 1, 416, 128
-0.990429, 145, 149, 208, 180
-0.990441, 41, 1, 104, 375
-0.990476, 193, 165, 256, 196
-0.990497, 417, 117, 480, 148
-0.990498, 409, 101, 472, 132
-0.990504, 153, 161, 216, 192
-0.99051, 377, 145, 440, 176
-0.990537, 281, 61, 344, 92
-0.990589, 249, 265, 312, 296
-0.990592, 345, 69, 408, 100
-0.990608, 385, 209, 448, 240
-0.990628, 433, 233, 496, 264
-0.990634, 321, 153, 384, 184
-0.990641, 377, 73, 440, 104
-0.990658, 153, 185, 216, 216
-0.990664, 297, 237, 360, 268
-0.990703, 385, 329, 448, 360
-0.990722, 369, 345, 432, 375
-0.990723, 433, 341, 496, 372
-0.990729, 289, 181, 352, 212
-0.990731, 153, 129, 216, 160
-0.990731, 33, 209, 96, 240
-0.990736, 369, 113, 432, 144
-0.990742, 265, 285, 328, 316
-0.990743, 433, 177, 496, 208
-0.990786, 137, 261, 200, 292
-0.99081, 217, 253, 280, 284
-0.990815, 297, 49, 360, 80
-0.990822, 121, 193, 184, 224
-0.99084, 369, 229, 432, 260
-0.990848, 377, 133, 440, 164
-0.990859, 305, 213, 368, 244
-0.990863, 369, 317, 432, 348
-0.990864, 409, 229, 472, 260
-0.990882, 113, 157, 176, 188
-0.990901, 161, 197, 224, 228
-0.990908, 49, 133, 112, 164
-0.990916, 233, 181, 296, 212
-0.990922, 233, 237, 296, 268
-0.990924, 265, 109, 328, 140
-0.990932, 209, 241, 272, 272
-0.990942, 73, 37, 136, 68
-0.990958, 33, 149, 96, 180
-0.990963, 49, 121, 112, 152
-0.990973, 193, 125, 256, 156
-0.990974, 337, 201, 400, 232
-0.990982, 409, 189, 472, 220
-0.99101, 217, 341, 280, 372
-0.991012, 297, 145, 360, 176
-0.991021, 233, 125, 296, 156
-0.991022, 369, 197, 432, 228
-0.99103, 313, 169, 376, 200
-0.991039, 97, 265, 160, 296
-0.99105, 97, 41, 224, 104
-0.991073, 289, 285, 352, 316
-0.991076, 337, 241, 400, 272
-0.991082, 417, 89, 480, 120
-0.991087, 289, 129, 352, 160
-0.991087, 169, 225, 232, 256
-0.99109, 217, 113, 280, 144
-0.991101, 321, 45, 384, 76
-0.991108, 297, 225, 360, 256
-0.991121, 9, 201, 72, 232
-0.991128, 385, 245, 448, 276
-0.99113, 377, 37, 440, 68
-0.991135, 161, 1, 224, 256
-0.991145, 169, 145, 232, 176
-0.99115, 97, 253, 160, 284
-0.991176, 73, 201, 136, 232
-0.991189, 105, 213, 168, 244
-0.991195, 105, 29, 168, 60
-0.991197, 1, 153, 64, 184
-0.991199, 393, 317, 456, 348
-0.9912, 433, 41, 496, 72
-0.9912, 265, 185, 328, 216
-0.991238, 353, 101, 416, 132
-0.99124, 265, 97, 328, 128
-0.991266, 57, 1, 120, 32
-0.991275, 9, 1, 72, 375
-0.991275, 161, 213, 224, 244
-0.991275, 265, 333, 328, 364
-0.99128, 217, 225, 280, 256
-0.99128, 289, 169, 352, 200
-0.99129, 57, 213, 120, 244
-0.991309, 185, 205, 248, 236
-0.991318, 345, 157, 408, 188
-0.991325, 209, 57, 336, 120
-0.991337, 361, 333, 424, 364
-0.991379, 337, 173, 400, 204
-0.991392, 369, 61, 432, 92
-0.991415, 33, 137, 288, 200
-0.991435, 433, 29, 496, 60
-0.991436, 401, 69, 464, 100
-0.991515, 33, 217, 288, 280
-0.991618, 209, 1, 336, 64
-0.991645, 177, 25, 304, 88
-0.991677, 257, 105, 500, 168
-0.991918, 257, 177, 500, 240
-0.992035, 129, 153, 384, 216
-0.992046, 1, 81, 500, 144
-0.992197, 305, 141, 336, 172
-0.992232, 289, 101, 416, 132
-0.992241, 417, 153, 448, 184
-0.992335, 401, 109, 432, 140
-0.992358, 289, 133, 320, 164
-0.992362, 317, 101, 348, 132
-0.992367, 277, 161, 308, 192
-0.992384, 329, 53, 360, 84
-0.992405, 321, 89, 352, 120
-0.992406, 353, 73, 384, 104
-0.992419, 185, 1, 248, 256
-0.992422, 293, 169, 324, 200
-0.992442, 417, 173, 448, 204
-0.992443, 417, 141, 448, 172
-0.992459, 409, 129, 440, 160
-0.992509, 349, 89, 380, 120
-0.992524, 381, 97, 412, 128
-0.992525, 405, 165, 436, 196
-0.992527, 285, 149, 316, 180
-0.992537, 249, 245, 280, 276
-0.99254, 369, 161, 400, 192
-0.992542, 305, 109, 336, 140
-0.992549, 429, 161, 460, 192
-0.992566, 185, 145, 216, 176
-0.992576, 397, 125, 428, 156
-0.992582, 369, 81, 400, 112
-0.992596, 257, 169, 288, 200
-0.992603, 309, 129, 340, 160
-0.992608, 277, 173, 308, 204
-0.99261, 469, 333, 500, 364
-0.992616, 393, 337, 424, 368
-0.992617, 469, 237, 500, 268
-0.992618, 333, 65, 364, 96
-0.99263, 333, 77, 364, 108
-0.992632, 17, 117, 48, 148
-0.992632, 169, 201, 200, 232
-0.992633, 289, 121, 320, 152
-0.992645, 389, 109, 420, 140
-0.99265, 29, 137, 60, 168
-0.992652, 129, 205, 160, 236
-0.992655, 417, 341, 448, 372
-0.992664, 385, 169, 416, 200
-0.992665, 333, 97, 364, 128
-0.99268, 385, 121, 416, 152
-0.992703, 129, 105, 384, 168
-0.992704, 353, 61, 384, 92
-0.99271, 173, 157, 204, 188
-0.992715, 317, 113, 348, 144
-0.992719, 289, 181, 320, 212
-0.99272, 405, 345, 436, 375
-0.99272, 1, 121, 500, 184
-0.992723, 161, 177, 416, 240
-0.992725, 273, 117, 304, 148
-0.992732, 449, 221, 480, 252
-0.992733, 197, 149, 228, 180
-0.992734, 437, 217, 468, 248
-0.992739, 405, 153, 436, 184
-0.992741, 429, 333, 460, 364
-0.992744, 113, 253, 144, 284
-0.992745, 413, 69, 444, 100
-0.992754, 261, 253, 292, 284
-0.992754, 125, 269, 156, 300
-0.992761, 405, 317, 436, 348
-0.992763, 397, 81, 428, 112
-0.992764, 149, 189, 180, 220
-0.992768, 41, 125, 72, 156
-0.992777, 405, 333, 436, 364
-0.992779, 9, 137, 40, 168
-0.99278, 301, 181, 332, 212
-0.992782, 413, 113, 444, 144
-0.992782, 417, 81, 448, 112
-0.992785, 437, 149, 468, 180
-0.992793, 265, 157, 296, 188
-0.992793, 149, 205, 180, 236
-0.992793, 161, 157, 192, 188
-0.992802, 293, 277, 324, 308
-0.992804, 445, 341, 476, 372
-0.992813, 281, 249, 312, 280
-0.992814, 157, 173, 188, 204
-0.992818, 377, 201, 408, 232
-0.992822, 305, 97, 336, 128
-0.992824, 301, 153, 332, 184
-0.992824, 289, 101, 320, 132
-0.992828, 1, 117, 32, 148
-0.99283, 281, 265, 312, 296
-0.992831, 273, 185, 304, 216
-0.992834, 405, 181, 436, 212
-0.992838, 257, 329, 288, 360
-0.992841, 33, 241, 288, 304
-0.992842, 461, 225, 492, 256
-0.992844, 349, 49, 380, 80
-0.992844, 269, 329, 300, 360
-0.992847, 377, 345, 408, 375
-0.992849, 457, 341, 488, 372
-0.992852, 425, 129, 456, 160
-0.992852, 137, 161, 168, 192
-0.992852, 377, 225, 408, 256
-0.992854, 445, 329, 476, 360
-0.992859, 265, 129, 296, 160
-0.99286, 169, 141, 200, 172
-0.992865, 429, 173, 460, 204
-0.992866, 249, 157, 280, 188
-0.992867, 133, 193, 164, 224
-0.992867, 381, 189, 412, 220
-0.99287, 441, 233, 472, 264
-0.992871, 173, 185, 204, 216
-0.992874, 409, 93, 440, 124
-0.992876, 53, 121, 84, 152
-0.992877, 65, 125, 96, 156
-0.992879, 153, 141, 184, 172
-0.992879, 233, 157, 264, 188
-0.992881, 117, 213, 148, 244
-0.992888, 125, 257, 156, 288
-0.992893, 405, 141, 436, 172
-0.992899, 393, 309, 424, 340
-0.9929, 249, 261, 280, 292
-0.992902, 305, 165, 336, 196
-0.992904, 325, 237, 356, 268
-0.992908, 377, 237, 408, 268
-0.99291, 29, 117, 60, 148
-0.992917, 225, 145, 256, 176
-0.99292, 277, 137, 308, 168
-0.992923, 309, 73, 340, 104
-0.992924, 61, 141, 92, 172
-0.992925, 413, 209, 444, 240
-0.992925, 237, 229, 268, 260
-0.992926, 253, 341, 284, 372
-0.992929, 433, 345, 464, 375
-0.99293, 241, 169, 272, 200
-0.992937, 201, 321, 232, 352
-0.992937, 445, 129, 476, 160
-0.992937, 417, 313, 448, 344
-0.992938, 321, 221, 352, 252
-0.992939, 25, 213, 56, 244
-0.992943, 457, 129, 488, 160
-0.992946, 229, 241, 260, 272
-0.992962, 65, 297, 320, 360
-0.992978, 1, 153, 500, 216
-0.99302, 257, 305, 500, 368
-0.993033, 305, 157, 432, 188
-0.993052, 225, 201, 480, 264
-0.993079, 1, 49, 500, 112
-0.993132, 1, 193, 500, 256
-0.993414, 337, 81, 464, 112
-0.993442, 1, 113, 256, 176
-0.993563, 295, 121, 310, 184
-0.993628, 1, 161, 256, 224
-0.993629, 423, 145, 438, 208
-0.993674, 369, 113, 496, 144
-0.99368, 129, 225, 384, 288
-0.993688, 193, 57, 448, 120
-0.993728, 301, 105, 316, 168
-0.993735, 369, 93, 496, 124
-0.993735, 1, 225, 500, 288
-0.993772, 279, 153, 294, 216
-0.993803, 369, 217, 496, 248
-0.99383, 321, 113, 448, 144
-0.99387, 1, 249, 500, 312
-0.993889, 225, 137, 352, 168
-0.993907, 177, 145, 304, 176
-0.993972, 337, 69, 464, 100
-0.993975, 409, 105, 424, 168
-0.993981, 225, 281, 480, 344
-0.99402, 369, 165, 496, 196
-0.994043, 129, 201, 384, 264
-0.994049, 285, 137, 300, 200
-0.994052, 307, 129, 322, 192
-0.994059, 273, 169, 400, 200
-0.99408, 333, 49, 348, 112
-0.994095, 315, 105, 330, 168
-0.994107, 1, 193, 256, 256
-0.994132, 293, 153, 308, 216
-0.99418, 305, 129, 432, 160
-0.9942, 329, 81, 344, 144
-0.994233, 1, 137, 128, 168
-0.994253, 257, 157, 384, 188
-0.994277, 323, 73, 338, 136
-0.994303, 275, 121, 290, 184
-0.994313, 65, 273, 320, 336
-0.994332, 1, 313, 500, 375
-0.994348, 345, 57, 360, 120
-0.994385, 353, 181, 480, 212
-0.994391, 257, 69, 384, 100
-0.994431, 421, 169, 436, 232
-0.994453, 433, 209, 448, 272
-0.994458, 285, 113, 300, 176
-0.994469, 437, 185, 452, 248
-0.994476, 241, 101, 368, 132
-0.994476, 415, 129, 430, 192
-0.994518, 273, 85, 400, 116
-0.994536, 301, 145, 316, 208
-0.994548, 335, 89, 350, 152
-0.994557, 409, 145, 424, 208
-0.994587, 257, 249, 500, 312
-0.994605, 161, 313, 416, 375
-0.994607, 419, 105, 434, 168
-0.994609, 411, 177, 426, 240
-0.994612, 167, 145, 182, 208
-0.99463, 383, 193, 398, 256
-0.994631, 369, 233, 496, 264
-0.994655, 287, 161, 302, 224
-0.994664, 403, 105, 418, 168
-0.99471, 289, 201, 416, 232
-0.994748, 257, 57, 384, 88
-0.994757, 337, 145, 464, 176
-0.99479, 209, 165, 336, 196
-0.994841, 273, 237, 400, 268
-0.994844, 49, 205, 176, 236
-0.994845, 313, 129, 328, 192
-0.994851, 323, 97, 338, 160
-0.994885, 445, 209, 460, 272
-0.99489, 307, 105, 322, 168
-0.994898, 397, 97, 412, 160
-0.994912, 465, 217, 480, 280
-0.994916, 225, 117, 352, 148
-0.994928, 353, 265, 480, 328
-0.994967, 387, 169, 402, 232
-0.994967, 343, 201, 358, 264
-0.994972, 161, 81, 416, 144
-0.99498, 1, 1, 64, 256
-0.994989, 321, 121, 336, 184
-0.99501, 81, 217, 208, 248
-0.995019, 177, 209, 304, 240
-0.995028, 273, 113, 400, 144
-0.995033, 377, 153, 392, 216
-0.995044, 321, 225, 448, 256
-0.995046, 273, 161, 288, 224
-0.995058, 321, 237, 448, 268
-0.99507, 145, 249, 272, 280
-0.995079, 439, 209, 454, 272
-0.995095, 435, 81, 450, 144
-0.995113, 1, 289, 500, 352
-0.995124, 321, 169, 448, 200
-0.995127, 415, 153, 430, 216
-0.995133, 193, 1, 448, 64
-0.995139, 353, 65, 368, 128
-0.995144, 33, 1, 288, 64
-0.995155, 289, 145, 416, 176
-0.995156, 145, 161, 272, 192
-0.995163, 33, 25, 288, 88
-0.995182, 413, 81, 428, 144
-0.995202, 485, 225, 500, 288
-0.995202, 65, 145, 192, 176
-0.99521, 475, 217, 490, 280
-0.995214, 305, 57, 432, 88
-0.995216, 423, 73, 438, 136
-0.995219, 427, 185, 442, 248
-0.995235, 445, 97, 460, 160
-0.995237, 183, 145, 198, 208
-0.995245, 311, 81, 326, 144
-0.99525, 29, 193, 44, 256
-0.995251, 435, 161, 450, 224
-0.995264, 35, 201, 50, 264
-0.995273, 197, 145, 212, 208
-0.99529, 369, 245, 496, 276
-0.995298, 329, 105, 344, 168
-0.995299, 451, 209, 466, 272
-0.995305, 61, 121, 76, 184
-0.995335, 367, 65, 382, 128
-0.995338, 403, 305, 418, 368
-0.99534, 353, 341, 480, 372
-0.995341, 369, 125, 496, 156
-0.995343, 65, 257, 192, 288
-0.99535, 229, 241, 244, 304
-0.99536, 241, 249, 368, 280
-0.995372, 193, 257, 320, 288
-0.995379, 225, 181, 352, 212
-0.99538, 411, 201, 426, 264
-0.995401, 225, 281, 352, 312
-0.995404, 443, 185, 458, 248
-0.99543, 339, 49, 354, 112
-0.995445, 113, 201, 240, 232
-0.995471, 427, 121, 442, 184
-0.995488, 407, 81, 422, 144
-0.9955, 279, 265, 294, 328
-0.995512, 289, 185, 416, 216
-0.995519, 391, 97, 406, 160
-0.995521, 1, 149, 128, 180
-0.995559, 293, 97, 308, 160
-0.995559, 223, 225, 238, 288
-0.995567, 341, 89, 356, 152
-0.99559, 417, 201, 432, 264
-0.995592, 241, 225, 368, 256
-0.995593, 53, 121, 68, 184
-0.995596, 425, 209, 440, 272
-0.995615, 69, 121, 84, 184
-0.995617, 145, 153, 160, 216
-0.995618, 273, 241, 288, 304
-0.995618, 81, 129, 208, 160
-0.995622, 33, 57, 288, 120
-0.995628, 379, 73, 394, 136
-0.995639, 17, 125, 144, 156
-0.995642, 399, 201, 414, 264
-0.995642, 337, 197, 464, 228
-0.995646, 1, 205, 128, 236
-0.995646, 285, 89, 300, 152
-0.995648, 21, 137, 36, 200
-0.995651, 45, 121, 60, 184
-0.995655, 177, 237, 304, 268
-0.995659, 415, 305, 430, 368
-0.995669, 219, 121, 234, 184
-0.995684, 403, 137, 418, 200
-0.995706, 289, 241, 304, 304
-0.995707, 161, 33, 416, 96
-0.995711, 447, 153, 462, 216
-0.995721, 459, 217, 474, 280
-0.995722, 455, 121, 470, 184
-0.995737, 305, 169, 320, 232
-0.995766, 225, 237, 352, 268
-0.995775, 135, 137, 150, 200
-0.995776, 403, 177, 418, 240
-0.99578, 1, 25, 500, 88
-0.99578, 223, 249, 238, 312
-0.995782, 29, 121, 44, 184
-0.995794, 429, 161, 444, 224
-0.995801, 325, 49, 340, 112
-0.995805, 357, 41, 372, 104
-0.995809, 385, 81, 400, 144
-0.995815, 353, 313, 480, 344
-0.995815, 1, 81, 256, 144
-0.995821, 199, 121, 214, 184
-0.995836, 263, 241, 278, 304
-0.995839, 371, 41, 386, 104
-0.995851, 19, 193, 34, 256
-0.995879, 1, 217, 128, 248
-0.995881, 425, 305, 440, 368
-0.995881, 461, 121, 476, 184
-0.995882, 265, 161, 280, 224
-0.995885, 145, 121, 272, 152
-0.995886, 113, 261, 240, 292
-0.99589, 113, 189, 240, 220
-0.995891, 393, 217, 408, 280
-0.995896, 251, 217, 266, 280
-0.995903, 289, 213, 416, 244
-0.995906, 311, 177, 326, 240
-0.995922, 267, 137, 282, 200
-0.995925, 257, 257, 272, 320
-0.995927, 153, 153, 168, 216
-0.995933, 143, 105, 158, 168
-0.995933, 39, 145, 54, 208
-0.995936, 147, 185, 162, 248
-0.995938, 485, 33, 500, 96
-0.995939, 191, 137, 206, 200
-0.995943, 405, 209, 420, 272
-0.995945, 19, 113, 34, 176
-0.995958, 343, 225, 358, 288
-0.995959, 241, 301, 368, 332
-0.995959, 393, 161, 408, 224
-0.995963, 161, 129, 176, 192
-0.995969, 173, 145, 188, 208
-0.99597, 333, 209, 348, 272
-0.995973, 129, 217, 256, 248
-0.99599, 225, 81, 352, 112
-0.995991, 463, 89, 478, 152
-0.995992, 219, 161, 234, 224
-0.995993, 81, 157, 208, 188
-0.996004, 347, 81, 362, 144
-0.99602, 113, 237, 240, 268
-0.996027, 283, 241, 298, 304
-0.996045, 33, 269, 160, 300
-0.996045, 177, 181, 304, 212
-0.99607, 281, 177, 296, 240
-0.996072, 455, 145, 470, 208
-0.996081, 471, 113, 486, 176
-0.996082, 305, 341, 432, 372
-0.996107, 317, 65, 348, 320
-0.996121, 281, 65, 312, 320
-0.996144, 405, 129, 436, 375
-0.996155, 305, 317, 432, 348
-0.996211, 17, 193, 144, 224
-0.996225, 241, 193, 368, 224
-0.996278, 389, 129, 420, 375
-0.996298, 225, 269, 352, 300
-0.996325, 161, 197, 288, 228
-0.99634, 65, 117, 192, 148
-0.996341, 353, 65, 384, 320
-0.996347, 241, 337, 368, 368
-0.996355, 177, 313, 304, 344
-0.996371, 17, 249, 144, 280
-0.996398, 177, 133, 304, 164
-0.996407, 193, 329, 320, 360
-0.996427, 129, 149, 256, 180
-0.996486, 145, 273, 272, 304
-0.996495, 113, 177, 240, 208
-0.996505, 369, 329, 496, 360
-0.99651, 457, 65, 488, 320
-0.996518, 293, 97, 324, 352
-0.996533, 257, 33, 500, 96
-0.996576, 421, 65, 452, 320
-0.996581, 65, 193, 192, 224
-0.996582, 49, 169, 176, 200
-0.996589, 1, 113, 128, 144
-0.996598, 193, 341, 320, 372
-0.996602, 49, 77, 176, 108
-0.996604, 65, 33, 192, 64
-0.996651, 329, 1, 360, 256
-0.99667, 305, 65, 336, 320
-0.996674, 437, 65, 468, 320
-0.996691, 49, 45, 176, 76
-0.996703, 129, 133, 256, 164
-0.996706, 33, 237, 160, 268
-0.996709, 225, 41, 352, 72
-0.996712, 161, 289, 288, 320
-0.99672, 305, 305, 432, 336
-0.996734, 289, 249, 416, 280
-0.996749, 305, 41, 432, 72
-0.996766, 257, 317, 384, 348
-0.996787, 269, 129, 300, 375
-0.996793, 193, 105, 320, 136
-0.996802, 377, 129, 408, 375
-0.996807, 333, 105, 348, 136
-0.996838, 129, 321, 256, 352
-0.99684, 273, 285, 400, 316
-0.996842, 399, 105, 414, 136
-0.996849, 407, 113, 422, 144
-0.996879, 1, 161, 128, 192
-0.99688, 241, 209, 368, 240
-0.996903, 145, 341, 272, 372
-0.996936, 341, 33, 372, 288
-0.99695, 405, 33, 436, 288
-0.996964, 369, 1, 400, 256
-0.99699, 353, 1, 480, 32
-0.997002, 333, 93, 348, 124
-0.997034, 81, 277, 208, 308
-0.997034, 273, 269, 400, 300
-0.997075, 49, 325, 176, 356
-0.997103, 1, 309, 128, 340
-0.997131, 145, 109, 272, 140
-0.997144, 277, 157, 292, 188
-0.997154, 1, 181, 128, 212
-0.997157, 1, 65, 128, 96
-0.997178, 177, 225, 304, 256
-0.997182, 289, 329, 416, 360
-0.997213, 385, 33, 416, 288
-0.997216, 417, 133, 432, 164
-0.997227, 9, 97, 40, 352
-0.997235, 305, 5, 432, 36
-0.997241, 161, 301, 288, 332
-0.997247, 287, 165, 302, 196
-0.997257, 97, 333, 224, 364
-0.99726, 411, 125, 426, 156
-0.997263, 97, 73, 224, 104
-0.997265, 269, 169, 284, 200
-0.997275, 53, 1, 84, 256
-0.997291, 305, 29, 432, 60
-0.997294, 327, 89, 342, 120
-0.997306, 97, 105, 224, 136
-0.997319, 369, 33, 496, 64
-0.997326, 431, 161, 446, 192
-0.997351, 469, 1, 500, 256
-0.997355, 329, 53, 344, 84
-0.997356, 177, 69, 304, 100
-0.997362, 421, 145, 436, 176
-0.997365, 355, 77, 370, 108
-0.997368, 49, 97, 80, 352
-0.997378, 307, 141, 322, 172
-0.997386, 17, 101, 144, 132
-0.9974, 257, 1, 384, 32
-0.99741, 421, 169, 436, 200
-0.997418, 29, 117, 44, 148
-0.997423, 337, 17, 464, 48
-0.997431, 1, 77, 128, 108
-0.997434, 427, 341, 442, 372
-0.997448, 279, 173, 294, 204
-0.99745, 323, 117, 338, 148
-0.997452, 285, 177, 300, 208
-0.997454, 49, 65, 176, 96
-0.997461, 367, 73, 382, 104
-0.997463, 285, 117, 300, 148
-0.997468, 97, 289, 224, 320
-0.997473, 317, 125, 332, 156
-0.99749, 301, 165, 316, 196
-0.997508, 293, 157, 308, 188
-0.997524, 399, 121, 414, 152
-0.997524, 309, 173, 324, 204
-0.997526, 343, 97, 358, 128
-0.997546, 199, 141, 214, 172
-0.997556, 37, 65, 68, 320
-0.997563, 159, 173, 174, 204
-0.997567, 21, 97, 52, 352
-0.997569, 39, 125, 54, 156
-0.997589, 149, 193, 164, 224
-0.997592, 31, 137, 46, 168
-0.997598, 417, 65, 432, 96
-0.997607, 287, 105, 302, 136
-0.997611, 421, 345, 436, 375
-0.997619, 393, 161, 408, 192
-0.997627, 189, 149, 204, 180
-0.997628, 311, 101, 326, 132
-0.99763, 365, 129, 396, 375
-0.997631, 169, 157, 184, 188
-0.997635, 255, 169, 270, 200
-0.997638, 313, 137, 328, 168
-0.99764, 37, 137, 52, 168
-0.997642, 339, 53, 354, 84
-0.997643, 61, 97, 92, 352
-0.997644, 293, 177, 308, 208
-0.997645, 427, 173, 442, 204
-0.997647, 361, 61, 376, 92
-0.997648, 393, 97, 408, 128
-0.99765, 293, 1, 324, 256
-0.997663, 307, 161, 322, 192
-0.99767, 383, 189, 398, 220
-0.997671, 263, 157, 278, 188
-0.997672, 327, 101, 342, 132
-0.997689, 21, 137, 36, 168
-0.99769, 393, 113, 408, 144
-0.9977, 301, 177, 316, 208
-0.997709, 461, 221, 476, 252
-0.997728, 389, 173, 404, 204
-0.99773, 301, 145, 316, 176
-0.997738, 133, 257, 148, 288
-0.997742, 361, 73, 376, 104
-0.997743, 405, 101, 420, 132
-0.997752, 263, 245, 278, 276
-0.997759, 407, 345, 422, 375
-0.997762, 255, 245, 270, 276
-0.997762, 43, 137, 58, 168
-0.997764, 23, 125, 38, 156
-0.997779, 85, 1, 116, 256
-0.997784, 485, 237, 500, 268
-0.997793, 65, 117, 80, 148
-0.997796, 321, 101, 336, 132
-0.997807, 409, 333, 424, 364
-0.997808, 153, 181, 168, 212
-0.997809, 437, 185, 452, 216
-0.997812, 281, 249, 296, 280
-0.997821, 163, 185, 178, 216
-0.997822, 421, 117, 436, 148
-0.997827, 147, 205, 162, 236
-0.997827, 265, 333, 280, 364
-0.997831, 455, 237, 470, 268
-0.997831, 65, 133, 80, 164
-0.997834, 183, 157, 198, 188
-0.997835, 283, 145, 298, 176
-0.997835, 485, 41, 500, 72
-0.997836, 375, 81, 390, 112
-0.997836, 421, 333, 436, 364
-0.997841, 173, 145, 188, 176
-0.997847, 459, 129, 474, 160
-0.99785, 399, 341, 414, 372
-0.997852, 343, 229, 358, 260
-0.997856, 471, 233, 486, 264
-0.997863, 23, 69, 38, 100
-0.997864, 453, 341, 468, 372
-0.997865, 73, 97, 104, 352
-0.997867, 299, 125, 314, 156
-0.997873, 433, 173, 448, 204
-0.997873, 129, 129, 160, 375
-0.997875, 271, 249, 286, 280
-0.997879, 411, 321, 426, 352
-0.997881, 277, 121, 292, 152
-0.997883, 127, 253, 142, 284
-0.997887, 129, 205, 144, 236
-0.997888, 257, 129, 288, 375
-0.997896, 379, 161, 394, 192
-0.997899, 275, 329, 290, 360
-0.997899, 237, 141, 252, 172
-0.997901, 41, 157, 56, 188
-0.997903, 295, 265, 310, 296
-0.997903, 315, 177, 330, 208
-0.997908, 151, 85, 166, 116
-0.997911, 485, 333, 500, 364
-0.997912, 329, 69, 344, 100
-0.997912, 311, 121, 326, 152
-0.997913, 169, 169, 184, 200
-0.997918, 137, 201, 152, 232
-0.997923, 441, 165, 456, 196
-0.997927, 1, 1, 500, 64
-0.997928, 421, 317, 436, 348
-0.997932, 197, 161, 212, 192
-0.997934, 425, 157, 440, 188
-0.997937, 15, 137, 30, 168
-0.997941, 477, 225, 492, 256
-0.997947, 169, 205, 184, 236
-0.997948, 187, 193, 202, 224
-0.99795, 417, 105, 432, 136
-0.997955, 137, 161, 152, 192
-0.997955, 145, 153, 160, 184
-0.997958, 383, 93, 398, 124
-0.997958, 405, 317, 420, 348
-0.997959, 233, 153, 248, 184
-0.997961, 13, 117, 28, 148
-0.997962, 161, 97, 192, 352
-0.997965, 415, 337, 430, 368
-0.997967, 371, 61, 386, 92
-0.997967, 293, 105, 308, 136
-0.997971, 477, 237, 492, 268
-0.997976, 213, 129, 244, 375
-0.998048, 269, 33, 300, 288
-0.99807, 105, 97, 136, 352
-0.998114, 97, 1, 128, 256
-0.998136, 181, 129, 212, 375
-0.998164, 117, 1, 148, 256
-0.998175, 329, 97, 360, 352
-0.998176, 145, 97, 176, 352
-0.998204, 257, 33, 288, 288
-0.998281, 17, 1, 48, 256
-0.998369, 229, 129, 260, 375
-0.998387, 265, 175, 328, 190
-0.998414, 265, 161, 328, 176
-0.998426, 297, 109, 360, 124
-0.998431, 289, 115, 352, 130
-0.99844, 265, 127, 328, 142
-0.998442, 445, 133, 476, 148
-0.998442, 397, 159, 428, 174
-0.998442, 5, 95, 36, 110
-0.998443, 121, 275, 152, 290
-0.998443, 429, 193, 460, 208
-0.998444, 273, 143, 336, 158
-0.998445, 201, 129, 232, 375
-0.998445, 165, 263, 196, 278
-0.998445, 297, 115, 328, 130
-0.998445, 333, 211, 364, 226
-0.998445, 153, 205, 184, 220
-0.998446, 305, 155, 336, 170
-0.998446, 449, 183, 480, 198
-0.998446, 145, 275, 176, 290
-0.998446, 289, 143, 320, 158
-0.998449, 173, 189, 204, 204
-0.998449, 181, 161, 212, 176
-0.99845, 377, 203, 408, 218
-0.99845, 9, 135, 72, 150
-0.998451, 393, 217, 424, 232
-0.998451, 245, 251, 276, 266
-0.998452, 413, 75, 444, 90
-0.998452, 425, 187, 456, 202
-0.998452, 413, 111, 444, 126
-0.998452, 413, 211, 444, 226
-0.998453, 353, 55, 384, 70
-0.998453, 433, 165, 464, 180
-0.998454, 85, 211, 116, 226
-0.998454, 281, 155, 312, 170
-0.998454, 329, 99, 392, 114
-0.998455, 225, 147, 256, 162
-0.998456, 121, 257, 152, 272
-0.998457, 265, 169, 328, 184
-0.998457, 197, 159, 228, 174
-0.998457, 321, 85, 384, 100
-0.998457, 453, 341, 484, 356
-0.998457, 309, 79, 340, 94
-0.998457, 29, 217, 60, 232
-0.998457, 321, 57, 384, 72
-0.998458, 429, 151, 460, 166
-0.998459, 377, 221, 408, 236
-0.998459, 313, 71, 376, 86
-0.998459, 397, 313, 428, 328
-0.998462, 117, 209, 148, 224
-0.998463, 457, 189, 488, 204
-0.998463, 369, 97, 400, 112
-0.998464, 429, 111, 460, 126
-0.998464, 313, 87, 344, 102
-0.998464, 433, 185, 496, 200
-0.998464, 321, 113, 352, 128
-0.998464, 241, 169, 304, 184
-0.998465, 141, 203, 172, 218
-0.998465, 417, 87, 448, 102
-0.998465, 345, 93, 376, 108
-0.998466, 405, 105, 436, 120
-0.998466, 301, 173, 332, 188
-0.998466, 321, 79, 384, 94
-0.998467, 421, 333, 452, 348
-0.998468, 9, 129, 72, 144
-0.998469, 177, 197, 208, 212
-0.998469, 409, 163, 472, 178
-0.998469, 405, 97, 420, 224
-0.99847, 361, 157, 392, 172
-0.998471, 397, 81, 428, 96
-0.998472, 65, 137, 96, 152
-0.998473, 377, 167, 440, 182
-0.998473, 401, 157, 464, 172
-0.998473, 329, 91, 392, 106
-0.998474, 285, 281, 316, 296
-0.998475, 437, 181, 468, 196
-0.998475, 433, 339, 464, 354
-0.998476, 245, 65, 276, 320
-0.998478, 285, 137, 316, 152
-0.998479, 25, 125, 56, 140
-0.998479, 325, 57, 356, 72
-0.99848, 401, 207, 432, 222
-0.99848, 289, 103, 352, 118
-0.99848, 129, 213, 160, 228
-0.998481, 369, 111, 432, 126
-0.998482, 297, 93, 360, 108
-0.998482, 69, 269, 100, 284
-0.998483, 461, 235, 492, 250
-0.998483, 365, 87, 396, 102
-0.998483, 169, 171, 200, 186
-0.998483, 385, 83, 448, 98
-0.998484, 305, 167, 336, 182
-0.998484, 409, 175, 440, 190
-0.998484, 9, 141, 72, 156
-0.998484, 377, 173, 440, 188
-0.998484, 361, 81, 392, 96
-0.998485, 9, 67, 40, 82
-0.998485, 5, 129, 36, 144
-0.998485, 313, 65, 376, 80
-0.998487, 153, 155, 184, 170
-0.998487, 45, 129, 76, 144
-0.998487, 281, 149, 312, 164
-0.998488, 225, 163, 288, 178
-0.998488, 157, 199, 188, 214
-0.99849, 409, 139, 440, 154
-0.99849, 45, 135, 76, 150
-0.998491, 425, 349, 456, 364
-0.998492, 137, 157, 200, 172
-0.998492, 101, 211, 132, 226
-0.998493, 461, 129, 492, 144
-0.998494, 117, 97, 148, 352
-0.998496, 253, 341, 284, 356
-0.998496, 221, 247, 252, 262
-0.998496, 397, 123, 428, 138
-0.998496, 289, 163, 320, 178
-0.998496, 381, 101, 412, 116
-0.998497, 265, 133, 328, 148
-0.998498, 401, 111, 432, 126
-0.998498, 197, 153, 228, 168
-0.998499, 413, 145, 444, 160
-0.998499, 409, 343, 440, 358
-0.998499, 417, 149, 480, 164
-0.998499, 421, 165, 452, 180
-0.998501, 281, 149, 344, 164
-0.998502, 353, 65, 384, 80
-0.998502, 417, 335, 480, 350
-0.998502, 233, 143, 296, 158
-0.998503, 289, 123, 352, 138
-0.998503, 317, 93, 348, 108
-0.998503, 169, 151, 200, 166
-0.998504, 141, 157, 172, 172
-0.998504, 297, 179, 328, 194
-0.998505, 445, 329, 476, 344
-0.998505, 457, 177, 488, 192
-0.998506, 297, 85, 360, 100
-0.998507, 145, 1, 176, 256
-0.998507, 393, 129, 456, 144
-0.998508, 345, 59, 408, 74
-0.998508, 401, 143, 464, 158
-0.998509, 297, 121, 328, 136
-0.998509, 413, 117, 444, 132
-0.998509, 337, 33, 352, 160
-0.998509, 385, 179, 448, 194
-0.99851, 185, 155, 216, 170
-0.99851, 265, 173, 296, 188
-0.998511, 413, 81, 444, 96
-0.998511, 265, 121, 328, 136
-0.998511, 369, 315, 432, 330
-0.998513, 329, 105, 392, 120
-0.998514, 441, 345, 472, 360
-0.998514, 425, 191, 488, 206
-0.998514, 349, 87, 380, 102
-0.998514, 369, 105, 432, 120
-0.998515, 353, 173, 416, 188
-0.998516, 317, 107, 348, 122
-0.998517, 257, 179, 288, 194
-0.998517, 393, 349, 456, 364
-0.998517, 265, 155, 328, 170
-0.998517, 329, 91, 360, 106
-0.998518, 369, 161, 432, 176
-0.998518, 369, 119, 432, 134
-0.998518, 409, 351, 440, 366
-0.998519, 417, 347, 480, 362
-0.998521, 401, 167, 432, 182
-0.998521, 121, 165, 184, 180
-0.998522, 277, 125, 308, 140
-0.998523, 305, 139, 336, 154
-0.998523, 297, 55, 360, 70
-0.998523, 225, 157, 288, 172
-0.998525, 293, 157, 324, 172
-0.998525, 277, 177, 308, 192
-0.998525, 393, 113, 456, 128
-0.998526, 449, 99, 480, 114
-0.998527, 393, 121, 456, 136
-0.998527, 17, 149, 80, 164
-0.998528, 409, 333, 440, 348
-0.998528, 293, 131, 324, 146
-0.998529, 417, 169, 480, 184
-0.998529, 153, 199, 216, 214
-0.99853, 393, 135, 456, 150
-0.998531, 273, 161, 304, 176
-0.998532, 393, 343, 456, 358
-0.998532, 33, 143, 96, 158
-0.998533, 145, 207, 208, 222
-0.998533, 433, 235, 496, 250
-0.998534, 345, 79, 408, 94
-0.998535, 393, 91, 456, 106
-0.998537, 417, 341, 480, 356
-0.998539, 41, 219, 104, 234
-0.99854, 285, 169, 316, 184
-0.99854, 369, 125, 432, 140
-0.998541, 469, 97, 500, 352
-0.998542, 305, 145, 336, 160
-0.998542, 369, 91, 432, 106
-0.998542, 137, 149, 200, 164
-0.998542, 361, 179, 424, 194
-0.998543, 309, 113, 340, 128
-0.998544, 393, 117, 424, 132
-0.998545, 9, 123, 72, 138
-0.998545, 265, 181, 328, 196
-0.998545, 305, 103, 336, 118
-0.998545, 281, 79, 344, 94
-0.998546, 137, 263, 200, 278
-0.998547, 345, 85, 408, 100
-0.998547, 121, 203, 184, 218
-0.998547, 217, 245, 280, 260
-0.998548, 333, 97, 364, 112
-0.998548, 401, 213, 464, 228
-0.998549, 113, 213, 176, 228
-0.998549, 281, 61, 344, 76
-0.998549, 369, 211, 432, 226
-0.99855, 233, 151, 296, 166
-0.998551, 417, 175, 480, 190
-0.998551, 33, 137, 96, 152
-0.998552, 369, 345, 432, 360
-0.998552, 389, 177, 420, 192
-0.998553, 405, 129, 436, 144
-0.998554, 253, 173, 284, 188
-0.998554, 401, 325, 464, 340
-0.998554, 145, 215, 208, 230
-0.998556, 25, 161, 88, 176
-0.998556, 377, 331, 440, 346
-0.998556, 377, 141, 440, 156
-0.998557, 265, 287, 328, 302
-0.998557, 337, 237, 400, 252
-0.998558, 329, 51, 392, 66
-0.998558, 97, 155, 160, 170
-0.998559, 345, 73, 408, 88
-0.998559, 241, 175, 304, 190
-0.99856, 369, 205, 432, 220
-0.99856, 413, 151, 444, 166
-0.998561, 417, 135, 480, 150
-0.998561, 281, 281, 344, 296
-0.998562, 97, 275, 160, 290
-0.998562, 89, 215, 152, 230
-0.998564, 177, 241, 240, 256
-0.998564, 401, 355, 464, 370
-0.998564, 369, 77, 432, 92
-0.998564, 193, 145, 256, 160
-0.998565, 369, 155, 432, 170
-0.998565, 193, 153, 256, 168
-0.998565, 385, 187, 448, 202
-0.998565, 41, 213, 104, 228
-0.998565, 129, 173, 192, 188
-0.998566, 389, 107, 420, 122
-0.998566, 401, 107, 464, 122
-0.998567, 145, 193, 208, 208
-0.998567, 353, 75, 384, 90
-0.998568, 343, 33, 358, 160
-0.998569, 321, 157, 384, 172
-0.998569, 257, 257, 320, 272
-0.998569, 241, 333, 304, 348
-0.99857, 393, 337, 456, 352
-0.998571, 289, 155, 352, 170
-0.998571, 369, 217, 432, 232
-0.998572, 297, 97, 312, 224
-0.998573, 369, 243, 432, 258
-0.998573, 241, 339, 304, 354
-0.998573, 433, 141, 496, 156
-0.998574, 329, 83, 360, 98
-0.998575, 337, 205, 400, 220
-0.998576, 361, 99, 424, 114
-0.998576, 369, 223, 432, 238
-0.998577, 265, 115, 328, 130
-0.998578, 233, 1, 264, 256
-0.998579, 413, 113, 428, 240
-0.998579, 393, 101, 456, 116
-0.998579, 33, 125, 96, 140
-0.998579, 425, 155, 488, 170
-0.99858, 317, 101, 348, 116
-0.998583, 273, 167, 304, 182
-0.998589, 89, 97, 120, 352
-0.998621, 417, 159, 448, 174
-0.998627, 419, 97, 434, 224
-0.998639, 359, 1, 374, 128
-0.998642, 331, 33, 346, 160
-0.998679, 311, 97, 326, 224
-0.998689, 287, 97, 302, 224
-0.998705, 5, 1, 36, 256
-0.998715, 305, 97, 320, 224
-0.998715, 73, 1, 104, 256
-0.998728, 395, 81, 410, 208
-0.998736, 381, 161, 396, 288
-0.99874, 161, 1, 192, 256
-0.998785, 367, 65, 382, 192
-0.998805, 31, 145, 46, 272
-0.998823, 349, 1, 364, 128
-0.998837, 415, 161, 430, 288
-0.998843, 329, 81, 344, 208
-0.998845, 39, 145, 54, 272
-0.998855, 421, 161, 436, 288
-0.998857, 373, 97, 388, 224
-0.99886, 285, 161, 300, 288
-0.998865, 209, 1, 240, 256
-0.998866, 407, 145, 422, 272
-0.998866, 319, 65, 334, 192
-0.998868, 221, 33, 252, 288
-0.998876, 325, 33, 340, 160
-0.998889, 281, 97, 296, 224
-0.99889, 387, 161, 402, 288
-0.998897, 65, 113, 80, 240
-0.9989, 275, 129, 290, 256
-0.998929, 335, 81, 350, 208
-0.998933, 411, 65, 426, 192
-0.998934, 303, 49, 318, 176
-0.998942, 33, 97, 48, 224
-0.998944, 129, 1, 160, 256
-0.99895, 421, 49, 436, 176
-0.998951, 53, 97, 68, 224
-0.998958, 275, 177, 290, 304
-0.998961, 387, 97, 402, 224
-0.998966, 341, 81, 356, 208
-0.998967, 427, 65, 442, 192
-0.99897, 45, 145, 60, 272
-0.998971, 45, 97, 60, 224
-0.99899, 219, 113, 234, 240
-0.998995, 401, 161, 416, 288
-0.998995, 23, 49, 38, 176
-0.999011, 395, 145, 410, 272
-0.999014, 401, 49, 416, 176
-0.999029, 59, 65, 74, 192
-0.999033, 369, 145, 384, 272
-0.999035, 169, 209, 184, 336
-0.999039, 293, 145, 308, 272
-0.999041, 225, 113, 240, 240
-0.999043, 205, 145, 220, 272
-0.99905, 301, 145, 316, 272
-0.999056, 375, 145, 390, 272
-0.999057, 39, 97, 54, 224
-0.999058, 349, 49, 364, 176
-0.999072, 1, 65, 16, 192
-0.999072, 371, 17, 386, 144
-0.999078, 427, 145, 442, 272
-0.999079, 341, 129, 372, 375
-0.999081, 319, 113, 334, 240
-0.999086, 469, 241, 484, 368
-0.999095, 289, 49, 304, 176
-0.999101, 379, 97, 394, 224
-0.999104, 23, 113, 38, 240
-0.999112, 205, 97, 220, 224
-0.999113, 11, 81, 26, 208
-0.999118, 377, 209, 392, 336
-0.999125, 477, 177, 492, 304
-0.999125, 177, 209, 192, 336
-0.999126, 55, 145, 70, 272
-0.999129, 313, 49, 328, 176
-0.999132, 181, 1, 212, 256
-0.999143, 485, 49, 500, 176
-0.999144, 213, 97, 228, 224
-0.999144, 151, 225, 166, 352
-0.99915, 297, 49, 312, 176
-0.999151, 441, 225, 456, 352
-0.999158, 433, 65, 448, 192
-0.999162, 269, 129, 284, 256
-0.999171, 439, 161, 454, 288
-0.999183, 221, 225, 236, 352
-0.999185, 365, 17, 380, 144
-0.999188, 413, 225, 428, 352
-0.999192, 293, 193, 308, 320
-0.999192, 33, 193, 48, 320
-0.999203, 283, 209, 298, 336
-0.999207, 79, 209, 94, 336
-0.999207, 383, 49, 398, 176
-0.99921, 475, 113, 490, 240
-0.99921, 193, 129, 208, 256
-0.999212, 169, 161, 184, 288
-0.999214, 39, 193, 54, 320
-0.999215, 395, 33, 410, 160
-0.999217, 485, 129, 500, 256
-0.999219, 65, 65, 80, 192
-0.99922, 17, 97, 32, 224
-0.999225, 199, 129, 214, 256
-0.999226, 163, 209, 178, 336
-0.999229, 215, 225, 230, 352
-0.999231, 5, 113, 20, 240
-0.999231, 447, 241, 462, 368
-0.999233, 423, 225, 438, 352
-0.999236, 307, 145, 322, 272
-0.999236, 71, 81, 86, 208
-0.999246, 241, 145, 256, 272
-0.999249, 85, 209, 100, 336
-0.999251, 359, 65, 374, 192
-0.999253, 441, 65, 456, 192
-0.999254, 213, 145, 228, 272
-0.999256, 183, 225, 198, 352
-0.999258, 235, 113, 250, 240
-0.999261, 435, 225, 450, 352
-0.999262, 175, 161, 190, 288
-0.999262, 299, 193, 314, 320
-0.999269, 29, 49, 44, 176
-0.999269, 17, 145, 32, 272
-0.999272, 247, 145, 262, 272
-0.999273, 269, 177, 284, 304
-0.999277, 465, 161, 480, 288
-0.999278, 271, 241, 286, 368
-0.999278, 185, 129, 200, 256
-0.999279, 25, 193, 40, 320
-0.99928, 143, 193, 158, 320
-0.999282, 345, 177, 360, 304
-0.999283, 337, 161, 352, 288
-0.999284, 49, 193, 64, 320
-0.999285, 473, 1, 488, 128
-0.999287, 193, 81, 208, 208
-0.99929, 445, 161, 460, 288
-0.999294, 471, 161, 486, 288
-0.999294, 339, 225, 354, 352
-0.999384, 197, 1, 228, 256
-0.999637, 417, 321, 432, 336
-0.999637, 317, 137, 332, 152
-0.999638, 411, 345, 426, 360
-0.999638, 469, 191, 484, 206
-0.999638, 155, 203, 170, 218
-0.999638, 301, 287, 316, 302
-0.999638, 67, 145, 82, 160
-0.999638, 49, 129, 64, 144
-0.999638, 485, 43, 500, 58
-0.999638, 403, 311, 418, 326
-0.999639, 403, 103, 418, 118
-0.999639, 411, 327, 426, 342
-0.999639, 235, 247, 250, 262
-0.999639, 307, 109, 322, 124
-0.999639, 307, 115, 322, 130
-0.99964, 203, 157, 218, 172
-0.99964, 465, 235, 480, 250
-0.999641, 435, 153, 450, 168
-0.999641, 433, 349, 448, 364
-0.999641, 415, 351, 430, 366
-0.999642, 455, 337, 470, 352
-0.999642, 409, 81, 424, 96
-0.999642, 1, 129, 16, 144
-0.999643, 267, 345, 282, 360
-0.999643, 313, 131, 328, 146
-0.999643, 165, 149, 180, 164
-0.999644, 37, 147, 52, 162
-0.999644, 165, 181, 180, 196
-0.999644, 281, 157, 296, 172
-0.999645, 137, 269, 152, 284
-0.999645, 315, 183, 330, 198
-0.999645, 485, 185, 500, 200
-0.999645, 243, 171, 258, 186
-0.999646, 257, 255, 272, 270
-0.999646, 269, 181, 284, 196
-0.999646, 371, 55, 386, 70
-0.999647, 305, 145, 320, 160
-0.999647, 307, 167, 322, 182
-0.999648, 159, 197, 174, 212
-0.999649, 325, 79, 340, 94
-0.999649, 457, 359, 472, 374
-0.999649, 403, 205, 418, 220
-0.99965, 457, 129, 472, 144
-0.99965, 289, 83, 304, 98
-0.99965, 367, 73, 382, 88
-0.99965, 321, 105, 336, 120
-0.999651, 373, 159, 388, 174
-0.999652, 429, 343, 444, 358
-0.999652, 17, 143, 32, 158
-0.999652, 299, 177, 314, 192
-0.999653, 383, 195, 398, 210
-0.999653, 181, 151, 196, 166
-0.999653, 421, 351, 436, 366
-0.999654, 393, 165, 408, 180
-0.999654, 441, 193, 456, 208
-0.999654, 69, 139, 84, 154
-0.999656, 331, 83, 346, 98
-0.999656, 343, 205, 358, 220
-0.999657, 415, 119, 430, 134
-0.999658, 329, 63, 344, 78
-0.999659, 409, 335, 424, 350
-0.999659, 177, 161, 192, 176
-0.999659, 457, 343, 472, 358
-0.99966, 147, 157, 162, 172
-0.999661, 241, 249, 256, 264
-0.999661, 387, 173, 402, 188
-0.999662, 421, 153, 436, 168
-0.999662, 411, 135, 426, 150
-0.999662, 11, 67, 26, 82
-0.999662, 295, 161, 310, 176
-0.999662, 19, 129, 34, 144
-0.999663, 451, 183, 466, 198
-0.999663, 339, 93, 354, 108
-0.999664, 309, 183, 324, 198
-0.999664, 301, 155, 316, 170
-0.999665, 395, 119, 410, 134
-0.999667, 139, 165, 154, 180
-0.999667, 285, 119, 300, 134
-0.999667, 219, 245, 234, 260
-0.999668, 27, 143, 42, 158
-0.999668, 281, 183, 296, 198
-0.999669, 281, 171, 296, 186
-0.999671, 165, 207, 180, 222
-0.999672, 165, 197, 180, 212
-0.999672, 429, 149, 444, 164
-0.999673, 321, 147, 336, 162
-0.999674, 359, 71, 374, 86
-0.999675, 433, 187, 448, 202
-0.999675, 297, 121, 312, 136
-0.999677, 175, 207, 190, 222
-0.999677, 275, 165, 290, 180
-0.999677, 329, 69, 344, 84
-0.999677, 305, 177, 320, 192
-0.999678, 269, 175, 284, 190
-0.999679, 341, 233, 356, 248
-0.99968, 209, 153, 224, 168
-0.999682, 311, 103, 326, 118
-0.999686, 229, 247, 244, 262
-0.999686, 405, 317, 420, 332
-0.999687, 401, 117, 416, 132
-0.999688, 395, 311, 410, 326
-0.999689, 321, 123, 336, 138
-0.999689, 417, 145, 432, 160
-0.999689, 333, 101, 348, 116
-0.999689, 415, 337, 430, 352
-0.999691, 395, 109, 410, 124
-0.999693, 27, 129, 42, 144
-0.999695, 21, 69, 36, 84
-0.999695, 439, 187, 454, 202
-0.999695, 191, 153, 206, 168
-0.999699, 331, 115, 346, 130
-0.999702, 163, 175, 178, 190
-0.999705, 289, 165, 304, 180
-0.999708, 355, 87, 370, 102
-0.999708, 409, 127, 424, 142
-0.99971, 471, 235, 486, 250
-0.999712, 421, 345, 436, 360
-0.999716, 405, 111, 420, 126
-0.999719, 327, 101, 342, 116
-0.999719, 285, 177, 300, 192
-0.999723, 407, 119, 422, 134
-0.999726, 341, 101, 356, 116
-0.999729, 333, 95, 348, 110
-0.999731, 323, 113, 338, 128
-0.999732, 287, 171, 302, 186
-0.999736, 355, 79, 370, 94
-0.999736, 277, 177, 292, 192
-0.999743, 311, 177, 326, 192
-0.999749, 311, 137, 326, 152
-0.999759, 333, 109, 348, 124
