1973
-0.248062, 1, 1, 500, 375
-0.266363, 1, 97, 500, 352
-0.351692, 193, 1, 448, 375
-0.441681, 65, 1, 320, 375
-0.447423, 193, 97, 448, 352
-0.449201, 1, 1, 500, 256
-0.53676, 129, 1, 384, 256
-0.538697, 33, 129, 288, 375
-0.670549, 33, 33, 288, 288
-0.740943, 225, 1, 480, 256
-0.810071, 257, 33, 384, 288
-0.825548, 257, 1, 384, 375
-0.834672, 209, 33, 336, 288
-0.842573, 129, 97, 256, 352
-0.843764, 209, 1, 336, 375
-0.84499, 129, 1, 256, 375
-0.855025, 161, 1, 288, 256
-0.855916, 209, 129, 336, 375
-0.861689, 1, 97, 500, 224
-0.864019, 1, 145, 500, 272
-0.864399, 33, 129, 160, 375
-0.876971, 1, 193, 500, 320
-0.878131, 81, 97, 208, 352
-0.885262, 305, 1, 432, 375
-0.889051, 1, 49, 500, 176
-0.892667, 193, 97, 448, 224
-0.896541, 161, 33, 416, 160
-0.898744, 305, 65, 432, 320
-0.900694, 1, 193, 256, 320
-0.901163, 1, 241, 500, 368
-0.902079, 65, 129, 320, 256
-0.902468, 193, 145, 448, 272
-0.909891, 113, 1, 240, 256
-0.9102, 97, 81, 352, 208
-0.910521, 81, 1, 208, 375
-0.915539, 1, 241, 256, 368
-0.917661, 257, 97, 384, 224
-0.918775, 257, 129, 384, 375
-0.923641, 33, 1, 160, 375
-0.924227, 97, 241, 352, 368
-0.925565, 257, 49, 384, 176
-0.925634, 129, 193, 384, 320
-0.925728, 1, 1, 500, 128
-0.926728, 305, 33, 368, 160
-0.927089, 17, 161, 144, 288
-0.929834, 129, 193, 256, 320
-0.930369, 241, 97, 304, 224
-0.930383, 273, 33, 336, 160
-0.930902, 257, 49, 500, 176
-0.932207, 193, 129, 320, 256
-0.932923, 209, 49, 336, 176
-0.933294, 233, 49, 296, 176
-0.933329, 129, 209, 192, 336
-0.935828, 353, 129, 480, 375
-0.935883, 129, 81, 256, 208
-0.935986, 201, 113, 264, 240
-0.936616, 185, 193, 248, 320
-0.937066, 329, 97, 392, 224
-0.937187, 49, 1, 176, 256
-0.937314, 273, 97, 336, 224
-0.938942, 33, 209, 160, 336
-0.939043, 353, 1, 480, 375
-0.940102, 225, 193, 480, 320
-0.94123, 201, 65, 264, 192
-0.941244, 9, 209, 72, 336
-0.941988, 153, 209, 216, 336
-0.942829, 145, 129, 272, 256
-0.943061, 113, 241, 240, 368
-0.943089, 353, 33, 480, 288
-0.94388, 209, 177, 336, 304
-0.943946, 81, 161, 208, 288
-0.948805, 305, 97, 368, 224
-0.949637, 161, 241, 288, 368
-0.95099, 233, 161, 296, 288
-0.951316, 65, 17, 320, 144
-0.95152, 73, 161, 136, 288
-0.95177, 329, 49, 392, 176
-0.95177, 209, 161, 272, 288
-0.951982, 49, 241, 112, 368
-0.953573, 321, 97, 384, 160
-0.953732, 177, 81, 240, 208
-0.954602, 49, 161, 112, 288
-0.9553, 193, 241, 448, 368
-0.955346, 105, 241, 168, 368
-0.955518, 281, 105, 344, 168
-0.955674, 1, 33, 128, 288
-0.955793, 185, 89, 248, 152
-0.956191, 313, 73, 376, 136
-0.956615, 121, 241, 184, 304
-0.957465, 305, 41, 368, 104
-0.957751, 177, 1, 304, 128
-0.958028, 241, 121, 304, 184
-0.958115, 121, 217, 184, 280
-0.958182, 241, 1, 368, 128
-0.958464, 209, 65, 272, 128
-0.958715, 321, 161, 448, 288
-0.958913, 89, 281, 152, 344
-0.959493, 49, 113, 176, 240
-0.959698, 209, 89, 272, 152
-0.960091, 121, 129, 184, 256
-0.960121, 265, 41, 328, 104
-0.960375, 121, 297, 184, 360
-0.960593, 185, 97, 248, 352
-0.961216, 233, 169, 296, 232
-0.961498, 193, 201, 256, 264
-0.961815, 161, 161, 224, 288
-0.961924, 73, 169, 136, 232
-0.962247, 1, 81, 256, 208
-0.962331, 233, 65, 296, 320
-0.962342, 97, 145, 160, 272
-0.96244, 273, 145, 400, 272
-0.963087, 321, 97, 448, 224
-0.963272, 329, 121, 392, 184
-0.963291, 305, 33, 432, 160
-0.963338, 17, 161, 80, 288
-0.963386, 289, 33, 352, 288
-0.963473, 97, 193, 160, 320
-0.963745, 185, 65, 248, 128
-0.963955, 161, 313, 224, 375
-0.964066, 177, 33, 240, 160
-0.964416, 193, 177, 256, 240
-0.96448, 97, 217, 160, 280
-0.965055, 217, 129, 280, 192
-0.965302, 89, 249, 152, 312
-0.965337, 1, 265, 64, 328
-0.96544, 265, 33, 328, 288
-0.965662, 65, 257, 128, 320
-0.965758, 225, 193, 288, 256
-0.966039, 329, 145, 392, 272
-0.966295, 229, 113, 260, 240
-0.966426, 273, 105, 400, 168
-0.96654, 113, 145, 176, 208
-0.966666, 233, 73, 296, 136
-0.967544, 73, 209, 136, 336
-0.967705, 257, 65, 320, 128
-0.967808, 333, 33, 364, 160
-0.968042, 25, 281, 88, 344
-0.96815, 161, 217, 224, 280
-0.968162, 153, 81, 216, 208
-0.968707, 25, 169, 88, 232
-0.968775, 1, 241, 64, 304
-0.968777, 233, 97, 296, 160
-0.968851, 129, 33, 256, 160
-0.968883, 177, 241, 240, 368
-0.969107, 217, 225, 280, 352
-0.969204, 241, 145, 304, 208
-0.969473, 209, 33, 272, 288
-0.969706, 185, 113, 248, 176
-0.969923, 317, 33, 348, 160
-0.969924, 145, 209, 272, 272
-0.969965, 257, 49, 384, 112
-0.970039, 81, 241, 208, 304
-0.970132, 285, 49, 316, 176
-0.970468, 145, 265, 208, 328
-0.970538, 305, 33, 336, 160
-0.970562, 265, 97, 296, 224
-0.970636, 329, 65, 392, 320
-0.970823, 281, 97, 312, 224
-0.971365, 209, 17, 272, 144
-0.971478, 177, 97, 304, 160
-0.971688, 193, 225, 256, 288
-0.971703, 209, 81, 240, 144
-0.971737, 153, 137, 216, 200
-0.971845, 121, 121, 184, 184
-0.971845, 273, 145, 336, 272
-0.971867, 257, 1, 500, 128
-0.971896, 201, 153, 264, 216
-0.972016, 33, 265, 160, 328
-0.972024, 281, 81, 344, 144
-0.972166, 217, 177, 248, 304
-0.972175, 273, 49, 304, 176
-0.972329, 161, 289, 224, 352
-0.972557, 17, 233, 144, 296
-0.97259, 241, 145, 272, 272
-0.972728, 349, 49, 380, 176
-0.972742, 209, 225, 336, 352
-0.97276, 401, 177, 464, 304
-0.972782, 369, 177, 496, 304
-0.973023, 241, 73, 368, 136
-0.973028, 113, 265, 176, 328
-0.973035, 161, 89, 224, 152
-0.973059, 25, 233, 88, 296
-0.973186, 225, 105, 352, 168
-0.973424, 145, 129, 208, 375
-0.973425, 161, 209, 192, 336
-0.973555, 353, 113, 416, 240
-0.973632, 245, 161, 276, 224
-0.973684, 41, 257, 104, 320
-0.973798, 185, 297, 248, 360
-0.974024, 121, 81, 184, 208
-0.974214, 333, 97, 364, 224
-0.974216, 81, 217, 208, 280
-0.974223, 129, 97, 256, 160
-0.974253, 425, 209, 488, 336
-0.9743, 253, 113, 284, 240
-0.974383, 185, 273, 248, 336
-0.974409, 353, 161, 416, 288
-0.974421, 337, 41, 368, 104
-0.974493, 177, 153, 304, 216
-0.974498, 241, 1, 304, 128
-0.974541, 73, 305, 136, 368
-0.97465, 145, 129, 272, 192
-0.974784, 209, 65, 240, 192
-0.974827, 241, 65, 272, 192
-0.974868, 145, 241, 176, 368
-0.97488, 161, 193, 224, 256
-0.974897, 329, 153, 392, 216
-0.975064, 261, 49, 292, 176
-0.975165, 49, 281, 112, 344
-0.975271, 265, 121, 296, 184
-0.975503, 349, 97, 380, 160
-0.975551, 233, 49, 296, 112
-0.975626, 49, 193, 112, 256
-0.975651, 145, 241, 208, 304
-0.975722, 133, 225, 164, 352
-0.975734, 209, 185, 336, 248
-0.975904, 17, 177, 144, 240
-0.976101, 293, 97, 324, 224
-0.976226, 329, 41, 392, 104
-0.976265, 161, 65, 224, 128
-0.976304, 97, 265, 224, 328
-0.976306, 17, 289, 144, 352
-0.976315, 193, 129, 320, 192
-0.976357, 73, 177, 104, 240
-0.976368, 177, 1, 240, 256
-0.976441, 257, 89, 320, 152
-0.976469, 81, 169, 208, 232
-0.976526, 353, 97, 384, 224
-0.976792, 145, 305, 176, 368
-0.976875, 17, 305, 80, 368
-0.977168, 129, 241, 256, 304
-0.977173, 9, 233, 40, 296
-0.977258, 121, 97, 184, 352
-0.977425, 229, 81, 260, 144
-0.977505, 137, 97, 200, 160
-0.977581, 229, 153, 260, 216
-0.977623, 293, 41, 324, 104
-0.977628, 145, 281, 272, 344
-0.97779, 257, 129, 384, 192
-0.977906, 161, 65, 288, 128
-0.977925, 1, 201, 128, 264
-0.977965, 357, 121, 388, 184
-0.977977, 289, 105, 320, 168
-0.977982, 273, 153, 336, 216
-0.977985, 205, 193, 236, 320
-0.978025, 345, 97, 408, 160
-0.978026, 97, 145, 224, 208
-0.978056, 89, 129, 152, 375
-0.978134, 153, 33, 216, 160
-0.978141, 217, 113, 248, 240
-0.978215, 245, 137, 276, 200
-0.978274, 185, 193, 216, 320
-0.978383, 333, 105, 364, 168
-0.978398, 121, 193, 184, 256
-0.978496, 221, 49, 252, 176
-0.978637, 177, 249, 240, 312
-0.978644, 229, 129, 260, 192
-0.978663, 113, 265, 144, 328
-0.978664, 209, 129, 272, 375
-0.978709, 353, 169, 416, 232
-0.978723, 9, 225, 40, 352
-0.978855, 125, 217, 156, 280
-0.97899, 313, 65, 344, 128
-0.979009, 129, 249, 160, 312
-0.979042, 217, 57, 248, 120
-0.979047, 81, 313, 208, 375
-0.979063, 277, 113, 308, 176
-0.979071, 97, 241, 128, 304
-0.979275, 225, 1, 288, 375
-0.979401, 117, 289, 148, 352
-0.979453, 177, 137, 240, 200
-0.979458, 65, 233, 128, 296
-0.979589, 121, 169, 184, 232
-0.979609, 217, 193, 248, 256
-0.979695, 393, 185, 456, 248
-0.979698, 241, 105, 272, 168
-0.979717, 33, 241, 64, 368
-0.979738, 225, 161, 352, 224
-0.979749, 65, 161, 96, 288
-0.979908, 157, 217, 188, 280
-0.979917, 121, 129, 152, 256
-0.979935, 17, 193, 80, 256
-0.979964, 225, 233, 288, 296
-0.980077, 117, 193, 148, 320
-0.980124, 81, 161, 112, 288
-0.980269, 41, 273, 72, 336
-0.980317, 317, 105, 348, 168
-0.980328, 345, 65, 376, 128
-0.980343, 89, 145, 152, 208
-0.980387, 145, 33, 208, 288
-0.980411, 377, 161, 440, 288
-0.980585, 217, 257, 280, 320
-0.98064, 157, 241, 188, 304
-0.980665, 321, 97, 352, 224
-0.980687, 161, 185, 288, 248
-0.980717, 173, 217, 204, 280
-0.9808, 305, 97, 336, 224
-0.980818, 109, 241, 140, 304
-0.980894, 173, 209, 204, 336
-0.980898, 81, 289, 208, 352
-0.980909, 193, 97, 224, 160
-0.980982, 289, 81, 416, 144
-0.981061, 281, 41, 312, 104
-0.981067, 353, 137, 416, 200
-0.981173, 369, 225, 496, 352
-0.9812, 73, 193, 136, 256
-0.981211, 257, 1, 320, 375
-0.981255, 1, 113, 128, 240
-0.98127, 325, 41, 356, 104
-0.98133, 257, 177, 320, 240
-0.981382, 233, 25, 296, 88
-0.981453, 265, 129, 328, 192
-0.981464, 113, 209, 144, 272
-0.981511, 149, 161, 180, 288
-0.981527, 81, 1, 208, 128
-0.981541, 101, 265, 132, 328
-0.981669, 329, 81, 360, 144
-0.98175, 337, 65, 400, 128
-0.981818, 177, 41, 240, 104
-0.981871, 257, 129, 320, 375
-0.981912, 313, 177, 376, 240
-0.981923, 109, 145, 140, 272
-0.982065, 297, 161, 360, 288
-0.982131, 1, 313, 128, 375
-0.98222, 145, 161, 208, 224
-0.982368, 273, 153, 400, 216
-0.982382, 97, 169, 128, 232
-0.982427, 97, 305, 160, 368
-0.982443, 73, 97, 136, 224
-0.982444, 161, 41, 288, 104
-0.982446, 49, 169, 112, 232
-0.982517, 305, 121, 368, 184
-0.982544, 313, 1, 376, 375
-0.982569, 209, 105, 240, 168
-0.982614, 281, 1, 344, 375
-0.982724, 29, 273, 60, 336
-0.98273, 93, 161, 124, 288
-0.982763, 189, 65, 220, 128
-0.98289, 137, 217, 168, 280
-0.98294, 241, 193, 272, 256
-0.983142, 21, 241, 52, 368
-0.983181, 209, 49, 336, 112
-0.983327, 257, 169, 288, 232
-0.983502, 201, 1, 264, 375
-0.983572, 221, 105, 252, 168
-0.983787, 53, 161, 84, 288
-0.983791, 353, 65, 416, 192
-0.98382, 49, 145, 176, 208
-0.983821, 97, 121, 224, 184
-0.983906, 185, 241, 216, 368
-0.983912, 417, 193, 480, 256
-0.983939, 369, 129, 496, 256
-0.984097, 25, 161, 56, 288
-0.984107, 133, 161, 164, 288
-0.984116, 321, 169, 448, 232
-0.984139, 133, 121, 164, 184
-0.984155, 209, 289, 272, 352
-0.984246, 205, 241, 236, 368
-0.984262, 369, 113, 400, 240
-0.984298, 65, 193, 192, 256
-0.984311, 129, 281, 160, 344
-0.984321, 209, 41, 272, 104
-0.984336, 177, 17, 304, 80
-0.984456, 313, 41, 344, 104
-0.984495, 209, 225, 336, 288
-0.984508, 433, 217, 496, 280
-0.984537, 241, 57, 272, 120
-0.984562, 21, 249, 52, 312
-0.984637, 117, 145, 148, 208
-0.984665, 169, 1, 232, 375
-0.984687, 217, 129, 248, 192
-0.984691, 305, 105, 336, 168
-0.98478, 49, 305, 112, 368
-0.984801, 9, 273, 40, 336
-0.984973, 9, 129, 72, 375
-0.984998, 145, 305, 272, 368
-0.985073, 97, 169, 160, 232
-0.985112, 25, 113, 88, 240
-0.985118, 253, 97, 284, 160
-0.985211, 85, 169, 116, 232
-0.985326, 105, 225, 136, 352
-0.985423, 305, 49, 432, 112
-0.985426, 145, 281, 176, 344
-0.985476, 229, 225, 260, 352
-0.985515, 353, 17, 416, 144
-0.985553, 173, 249, 204, 312
-0.985571, 33, 65, 160, 192
-0.985612, 113, 73, 240, 136
-0.985613, 145, 241, 176, 304
-0.985627, 169, 169, 232, 232
-0.985627, 165, 273, 196, 336
-0.985673, 49, 169, 80, 232
-0.985725, 205, 193, 236, 256
-0.985725, 433, 145, 496, 272
-0.985758, 297, 153, 360, 216
-0.985795, 257, 185, 384, 248
-0.98583, 133, 305, 164, 368
-0.985939, 57, 129, 120, 375
-0.98594, 353, 33, 480, 160
-0.985945, 201, 145, 232, 272
-0.985972, 29, 169, 60, 232
-0.986003, 237, 17, 268, 144
-0.986007, 13, 177, 44, 304
-0.986125, 217, 225, 248, 288
-0.986127, 97, 193, 160, 256
-0.986135, 61, 249, 92, 312
-0.986135, 209, 249, 336, 312
-0.98615, 229, 161, 260, 288
-0.986151, 169, 313, 200, 375
-0.986191, 361, 145, 392, 208
-0.986242, 189, 185, 220, 248
-0.986362, 297, 17, 360, 80
-0.986458, 189, 313, 220, 375
-0.986479, 205, 169, 236, 232
-0.98652, 121, 241, 152, 368
-0.986528, 225, 25, 352, 88
-0.986566, 61, 177, 92, 240
-0.986599, 321, 105, 448, 168
-0.986699, 65, 201, 96, 264
-0.986713, 45, 209, 76, 336
-0.986781, 257, 145, 288, 208
-0.986831, 297, 65, 328, 128
-0.986836, 177, 17, 240, 80
-0.986874, 173, 193, 204, 256
-0.986879, 321, 313, 384, 375
-0.986902, 25, 297, 56, 360
-0.986924, 205, 305, 236, 368
-0.98696, 201, 273, 232, 336
-0.986968, 33, 249, 64, 312
-0.986975, 197, 81, 228, 208
-0.987005, 81, 249, 112, 312
-0.987051, 53, 273, 84, 336
-0.987056, 193, 105, 448, 168
-0.987096, 433, 169, 496, 232
-0.987136, 337, 145, 464, 208
-0.987223, 361, 97, 392, 160
-0.987251, 173, 145, 204, 272
-0.987271, 33, 129, 96, 375
-0.987317, 217, 161, 248, 224
-0.987469, 369, 185, 496, 248
-0.987612, 261, 65, 292, 128
-0.98768, 65, 145, 128, 208
-0.987751, 189, 17, 220, 144
-0.987772, 173, 89, 204, 152
-0.987804, 209, 313, 272, 375
-0.987855, 273, 145, 304, 208
-0.987999, 61, 241, 92, 368
-0.988125, 37, 161, 68, 288
-0.988174, 97, 313, 128, 375
-0.988207, 97, 97, 160, 224
-0.988219, 193, 273, 320, 336
-0.988247, 253, 161, 284, 288
-0.988268, 161, 161, 192, 288
-0.988284, 129, 1, 192, 375
-0.988375, 81, 225, 112, 288
-0.988389, 337, 81, 464, 144
-0.988474, 161, 65, 416, 128
-0.988493, 193, 209, 224, 272
-0.988513, 285, 65, 316, 128
-0.988521, 241, 193, 272, 320
-0.988651, 41, 145, 104, 208
-0.988698, 273, 89, 304, 152
-0.988704, 145, 129, 176, 192
-0.988719, 229, 249, 260, 312
-0.988762, 157, 313, 188, 375
-0.988772, 133, 113, 164, 240
-0.988788, 353, 97, 416, 352
-0.988808, 257, 1, 288, 128
-0.988812, 269, 41, 300, 104
-0.988851, 233, 121, 296, 152
-0.98886, 141, 97, 172, 160
-0.988887, 129, 241, 192, 272
-0.988896, 329, 113, 392, 144
-0.988926, 185, 93, 248, 124
-0.988926, 77, 241, 108, 368
-0.988941, 217, 265, 248, 328
-0.988975, 281, 177, 344, 240
-0.989061, 241, 133, 304, 164
-0.989083, 161, 113, 224, 176
-0.989093, 321, 101, 384, 132
-0.989183, 85, 273, 116, 336
-0.989222, 277, 145, 308, 272
-0.989227, 313, 53, 376, 84
-0.989247, 1, 273, 256, 336
-0.989307, 145, 153, 176, 216
-0.989336, 161, 129, 416, 192
-0.989341, 181, 65, 212, 192
-0.989346, 369, 233, 496, 296
-0.989401, 313, 81, 376, 112
-0.989401, 1, 217, 64, 280
-0.989417, 281, 109, 344, 140
-0.989434, 49, 113, 112, 240
-0.989451, 89, 281, 152, 312
-0.989451, 113, 305, 176, 336
-0.989468, 129, 253, 192, 284
-0.989482, 153, 97, 184, 160
-0.989482, 229, 201, 260, 264
-0.989488, 273, 25, 400, 88
-0.989519, 81, 65, 208, 192
-0.989552, 189, 265, 220, 328
-0.989563, 209, 85, 272, 116
-0.989602, 357, 145, 388, 272
-0.989604, 337, 1, 400, 375
-0.989608, 113, 49, 240, 112
-0.989634, 321, 209, 448, 336
-0.989719, 121, 121, 152, 184
-0.989731, 1, 153, 128, 216
-0.989732, 57, 269, 120, 300
-0.989759, 177, 77, 240, 108
-0.989813, 105, 293, 168, 324
-0.989844, 345, 121, 376, 184
-0.989848, 193, 137, 224, 200
-0.989868, 229, 57, 260, 120
-0.989899, 217, 241, 248, 368
-0.989905, 65, 161, 320, 224
-0.989915, 353, 313, 480, 375
-0.989915, 81, 249, 144, 280
-0.98994, 97, 121, 160, 184
-0.989966, 193, 201, 256, 232
-0.99003, 201, 129, 264, 160
-0.990043, 229, 177, 260, 240
-0.990054, 181, 137, 212, 200
-0.990064, 353, 41, 416, 104
-0.990088, 209, 101, 272, 132
-0.990103, 97, 261, 160, 292
-0.990142, 49, 281, 112, 312
-0.990167, 101, 217, 132, 280
-0.990171, 177, 273, 208, 336
-0.990207, 105, 225, 168, 256
-0.990209, 169, 81, 200, 208
-0.990289, 209, 73, 272, 104
-0.990294, 97, 105, 352, 168
-0.990304, 189, 289, 220, 352
-0.990326, 273, 17, 336, 80
-0.990327, 237, 225, 268, 288
-0.990356, 113, 273, 176, 304
-0.990357, 273, 49, 336, 80
-0.990375, 305, 69, 368, 100
-0.99038, 225, 177, 480, 240
-0.990405, 65, 177, 128, 208
-0.990421, 97, 9, 224, 72
-0.99043, 125, 193, 156, 256
-0.990433, 161, 321, 224, 352
-0.990447, 233, 193, 296, 224
-0.99045, 361, 73, 424, 136
-0.990493, 465, 193, 496, 320
-0.990532, 193, 297, 320, 360
-0.990543, 145, 333, 208, 364
-0.990587, 257, 113, 320, 144
-0.990588, 329, 125, 392, 156
-0.990608, 49, 113, 176, 176
-0.990615, 241, 145, 304, 176
-0.990619, 109, 177, 140, 240
-0.990624, 65, 241, 320, 304
-0.990637, 161, 345, 224, 375
-0.990651, 153, 81, 184, 208
-0.990653, 1, 265, 64, 296
-0.990654, 289, 93, 352, 124
-0.990663, 25, 177, 88, 208
-0.990668, 129, 229, 192, 260
-0.990714, 161, 129, 192, 192
-0.990729, 37, 297, 68, 360
-0.990731, 233, 177, 296, 208
-0.990737, 185, 273, 248, 304
-0.990741, 401, 217, 464, 280
-0.990754, 105, 245, 168, 276
-0.990767, 1, 177, 500, 240
-0.990776, 1, 105, 500, 168
-0.990789, 185, 345, 248, 375
-0.990804, 329, 1, 392, 128
-0.990813, 9, 277, 72, 308
-0.990816, 425, 177, 456, 304
-0.990831, 417, 265, 480, 328
-0.990841, 193, 213, 256, 244
-0.990845, 201, 141, 264, 172
-0.990848, 129, 213, 192, 244
-0.990851, 353, 209, 480, 272
-0.990854, 113, 157, 176, 188
-0.990857, 289, 1, 320, 128
-0.990862, 193, 233, 256, 264
-0.99087, 209, 61, 272, 92
-0.990936, 153, 293, 216, 324
-0.990937, 209, 113, 272, 144
-0.990945, 281, 125, 344, 156
-0.990951, 57, 257, 120, 288
-0.990959, 117, 313, 148, 375
-0.990989, 145, 309, 208, 340
-0.990994, 217, 157, 280, 188
-0.990996, 153, 221, 216, 252
-0.990999, 121, 129, 184, 160
-0.991004, 137, 277, 200, 308
-0.991005, 33, 293, 96, 324
-0.991036, 33, 209, 288, 272
-0.991059, 137, 265, 200, 296
-0.991076, 121, 321, 184, 352
-0.991087, 161, 97, 224, 128
-0.991149, 161, 41, 416, 104
-0.991155, 281, 129, 344, 375
-0.991177, 233, 109, 296, 140
-0.991206, 241, 81, 272, 144
-0.991216, 105, 1, 168, 375
-0.991222, 273, 241, 400, 368
-0.991223, 17, 189, 80, 220
-0.991242, 369, 113, 432, 176
-0.991242, 73, 1, 136, 375
-0.991254, 209, 181, 272, 212
-0.991256, 33, 261, 96, 292
-0.991257, 233, 69, 296, 100
-0.991259, 81, 293, 144, 324
-0.991301, 233, 81, 296, 112
-0.991313, 241, 97, 304, 128
-0.991317, 257, 73, 320, 104
-0.991326, 365, 169, 396, 232
-0.991361, 305, 113, 368, 144
-0.991373, 113, 145, 176, 176
-0.991373, 201, 169, 264, 200
-0.991387, 185, 261, 248, 292
-0.99139, 13, 209, 44, 272
-0.991399, 377, 161, 440, 224
-0.991402, 185, 117, 248, 148
-0.991422, 1, 237, 64, 268
-0.991428, 233, 57, 296, 88
-0.991431, 417, 241, 480, 304
-0.991433, 81, 305, 144, 336
-0.991443, 345, 101, 408, 132
-0.991443, 57, 189, 120, 220
-0.991451, 241, 161, 304, 192
-0.991463, 49, 213, 112, 244
-0.991464, 129, 293, 192, 324
-0.991467, 1, 249, 64, 280
-0.991494, 421, 185, 452, 248
-0.991496, 145, 133, 208, 164
-0.991504, 161, 245, 224, 276
-0.991517, 185, 105, 248, 136
-0.991518, 193, 245, 256, 276
-0.991523, 153, 145, 216, 176
-0.991525, 225, 205, 288, 236
-0.99153, 81, 217, 144, 248
-0.991546, 169, 205, 232, 236
-0.991547, 57, 301, 120, 332
-0.991581, 133, 145, 164, 208
-0.9916, 33, 245, 96, 276
-0.991606, 225, 241, 288, 272
-0.991616, 177, 137, 240, 168
-0.991635, 225, 225, 288, 256
-0.991637, 89, 169, 152, 200
-0.99164, 57, 245, 120, 276
-0.991655, 33, 233, 96, 264
-0.991662, 185, 189, 248, 220
-0.991677, 305, 41, 368, 72
-0.99169, 177, 53, 240, 84
-0.991703, 13, 305, 44, 368
-0.99175, 49, 201, 80, 264
-0.991751, 369, 265, 496, 328
-0.991762, 65, 129, 320, 192
-0.991799, 81, 329, 144, 360
-0.991825, 185, 65, 248, 96
-0.991841, 289, 177, 352, 208
-0.991849, 265, 85, 328, 116
-0.991856, 17, 217, 80, 248
-0.991857, 201, 333, 264, 364
-0.991859, 89, 341, 152, 372
-0.991859, 257, 185, 320, 216
-0.991873, 17, 305, 80, 336
-0.991876, 73, 229, 136, 260
-0.991896, 177, 301, 240, 332
-0.991899, 81, 201, 112, 264
-0.991925, 89, 209, 120, 336
-0.991945, 257, 25, 288, 88
-0.991946, 153, 233, 216, 264
-0.991949, 1, 297, 256, 360
-0.991953, 1, 153, 500, 216
-0.991962, 153, 85, 216, 116
-0.991966, 145, 1, 208, 64
-0.991988, 81, 189, 144, 220
-0.991993, 169, 333, 232, 364
-0.991994, 273, 193, 400, 320
-0.991997, 225, 257, 288, 288
-0.992012, 49, 341, 112, 372
-0.992013, 329, 137, 392, 168
-0.99203, 97, 317, 160, 348
-0.992035, 329, 69, 392, 100
-0.992051, 81, 201, 144, 232
-0.992051, 321, 153, 384, 184
-0.992056, 265, 169, 328, 200
-0.992056, 177, 285, 240, 316
-0.992076, 105, 213, 168, 244
-0.992081, 373, 129, 404, 192
-0.992117, 209, 93, 240, 124
-0.992161, 193, 153, 448, 216
-0.992172, 185, 129, 216, 256
-0.992242, 277, 1, 308, 128
-0.992254, 305, 193, 432, 256
-0.992352, 333, 109, 364, 140
-0.99245, 337, 49, 368, 80
-0.992456, 157, 241, 188, 272
-0.992492, 1, 81, 500, 144
-0.992493, 221, 97, 252, 128
-0.992504, 97, 265, 352, 328
-0.992509, 265, 121, 296, 152
-0.99251, 185, 341, 216, 372
-0.992527, 229, 109, 260, 140
-0.992531, 113, 97, 176, 160
-0.992531, 353, 105, 384, 136
-0.992551, 149, 309, 180, 340
-0.992561, 1, 233, 500, 296
-0.992585, 49, 81, 176, 144
-0.992607, 117, 265, 148, 296
-0.992611, 281, 113, 312, 144
-0.992616, 109, 277, 140, 308
-0.992616, 81, 253, 112, 284
-0.992629, 209, 17, 240, 144
-0.992639, 129, 297, 160, 328
-0.992648, 197, 89, 228, 120
-0.992658, 309, 89, 340, 120
-0.992664, 241, 125, 272, 156
-0.992683, 245, 169, 276, 200
-0.992686, 241, 313, 368, 375
-0.992687, 129, 253, 160, 284
-0.992688, 237, 149, 268, 180
-0.992693, 97, 269, 128, 300
-0.992703, 209, 109, 240, 140
-0.992707, 265, 133, 296, 164
-0.992712, 345, 117, 376, 148
-0.992717, 229, 85, 260, 116
-0.992719, 309, 105, 340, 136
-0.992723, 349, 93, 380, 124
-0.992735, 357, 121, 388, 152
-0.992742, 213, 81, 244, 112
-0.992743, 149, 329, 180, 360
-0.99275, 9, 261, 40, 292
-0.992754, 73, 181, 104, 212
-0.992755, 109, 249, 140, 280
-0.992759, 221, 217, 252, 248
-0.99276, 157, 229, 188, 260
-0.992768, 197, 101, 228, 132
-0.992788, 129, 269, 160, 300
-0.992793, 9, 241, 40, 272
-0.992794, 221, 65, 252, 96
-0.992799, 213, 197, 244, 228
-0.992802, 33, 185, 288, 248
-0.992804, 145, 237, 176, 268
-0.992807, 117, 289, 148, 320
-0.992814, 161, 329, 192, 360
-0.992814, 233, 137, 264, 168
-0.992819, 345, 193, 408, 256
-0.992832, 37, 293, 68, 324
-0.992833, 325, 49, 356, 80
-0.99284, 253, 125, 284, 156
-0.992841, 189, 325, 220, 356
-0.992845, 297, 49, 328, 80
-0.992862, 133, 125, 164, 156
-0.992864, 161, 317, 192, 348
-0.99287, 321, 105, 352, 136
-0.992873, 113, 217, 144, 248
-0.992876, 173, 341, 204, 372
-0.992892, 137, 65, 200, 128
-0.992896, 313, 53, 344, 84
-0.992896, 141, 157, 172, 188
-0.992903, 141, 293, 172, 324
-0.992904, 409, 161, 440, 288
-0.99291, 345, 73, 376, 104
-0.99292, 241, 113, 272, 144
-0.992921, 197, 345, 228, 375
-0.99293, 341, 61, 372, 92
-0.992931, 141, 225, 172, 256
-0.992933, 221, 125, 252, 156
-0.992952, 225, 161, 256, 192
-0.992953, 277, 129, 308, 160
-0.992954, 101, 173, 132, 204
-0.992956, 157, 253, 188, 284
-0.992956, 189, 77, 220, 108
-0.99296, 293, 109, 324, 140
-0.992969, 69, 193, 100, 224
-0.992969, 337, 97, 368, 128
-0.99297, 113, 301, 144, 332
-0.99297, 261, 173, 292, 204
-0.992974, 141, 249, 172, 280
-0.992982, 225, 177, 256, 208
-0.992983, 221, 233, 252, 264
-0.99299, 37, 277, 68, 308
-0.992994, 77, 269, 108, 300
-0.992996, 177, 137, 208, 168
-0.992998, 61, 265, 92, 296
-0.992999, 129, 285, 160, 316
-0.993, 161, 217, 192, 248
-0.993003, 245, 137, 276, 168
-0.993028, 97, 285, 128, 316
-0.99303, 173, 221, 204, 252
-0.993037, 97, 241, 128, 272
-0.993038, 177, 257, 208, 288
-0.993042, 53, 177, 84, 208
-0.993045, 53, 213, 84, 244
-0.993048, 237, 197, 268, 228
-0.99305, 285, 49, 316, 80
-0.99306, 173, 237, 204, 268
-0.993065, 85, 241, 116, 272
-0.993072, 357, 133, 388, 164
-0.993075, 25, 301, 56, 332
-0.993082, 201, 205, 232, 236
-0.993091, 133, 309, 164, 340
-0.993092, 173, 317, 204, 348
-0.993093, 297, 93, 328, 124
-0.993094, 437, 193, 468, 320
-0.993095, 321, 117, 352, 148
-0.993095, 241, 73, 272, 104
-0.993096, 117, 153, 148, 184
-0.993102, 89, 173, 120, 204
-0.993107, 189, 137, 220, 168
-0.993112, 169, 273, 200, 304
-0.993112, 137, 325, 168, 356
-0.993116, 129, 229, 160, 260
-0.993117, 201, 77, 232, 108
-0.993123, 313, 69, 344, 100
-0.993127, 129, 241, 160, 272
-0.993133, 333, 73, 364, 104
-0.993138, 321, 93, 352, 124
-0.993143, 329, 129, 360, 160
-0.993145, 157, 341, 188, 372
-0.993146, 249, 149, 280, 180
-0.993146, 173, 209, 204, 240
-0.993148, 241, 97, 272, 128
-0.993148, 109, 325, 140, 356
-0.99315, 145, 129, 176, 160
-0.99315, 13, 229, 44, 260
-0.993151, 209, 121, 240, 152
-0.993152, 57, 281, 88, 312
-0.993155, 97, 321, 128, 352
-0.993157, 21, 257, 52, 288
-0.993161, 161, 301, 192, 332
-0.993162, 205, 281, 236, 312
-0.993164, 213, 257, 244, 288
-0.993166, 97, 257, 128, 288
-0.993171, 205, 333, 236, 364
-0.993202, 273, 109, 400, 140
-0.993208, 33, 285, 160, 316
-0.993208, 89, 89, 152, 152
-0.993253, 225, 201, 480, 264
-0.993311, 129, 313, 384, 375
-0.993328, 129, 17, 384, 80
-0.993328, 305, 129, 368, 375
-0.993406, 241, 1, 304, 64
-0.993412, 129, 185, 384, 248
-0.993465, 257, 49, 384, 80
-0.993568, 177, 17, 208, 144
-0.993575, 1, 201, 500, 264
-0.993582, 321, 25, 448, 88
-0.993601, 417, 289, 480, 352
-0.99362, 1, 265, 500, 328
-0.993691, 1, 57, 500, 120
-0.993795, 385, 161, 416, 288
-0.993798, 145, 41, 208, 104
-0.993805, 93, 113, 124, 240
-0.993806, 233, 89, 248, 152
-0.993857, 161, 241, 416, 304
-0.993892, 121, 1, 184, 256
-0.993906, 341, 161, 372, 288
-0.993923, 453, 225, 484, 352
-0.993944, 321, 289, 448, 352
-0.993982, 241, 89, 368, 120
-0.993993, 129, 217, 384, 280
-0.994007, 401, 129, 464, 375
-0.994009, 247, 153, 262, 216
-0.994044, 65, 113, 96, 240
-0.994051, 225, 109, 352, 140
-0.994068, 369, 177, 400, 304
-0.994159, 225, 1, 352, 64
-0.994163, 177, 129, 304, 160
-0.994211, 177, 101, 304, 132
-0.994262, 257, 81, 500, 144
-0.994272, 129, 253, 256, 284
-0.994274, 257, 73, 384, 104
-0.99431, 353, 57, 480, 120
-0.994325, 145, 217, 272, 248
-0.994336, 33, 81, 288, 144
-0.99439, 257, 61, 384, 92
-0.994397, 223, 89, 238, 152
-0.9944, 81, 249, 208, 280
-0.994414, 289, 145, 320, 272
-0.994451, 321, 177, 352, 304
-0.994465, 129, 97, 256, 128
-0.994476, 213, 81, 228, 144
-0.994506, 1, 129, 500, 192
-0.994536, 339, 41, 354, 104
-0.99456, 129, 109, 256, 140
-0.994563, 129, 289, 384, 352
-0.994567, 145, 237, 272, 268
-0.994573, 255, 145, 270, 208
-0.994605, 333, 105, 348, 168
-0.994648, 1, 237, 128, 268
-0.994654, 265, 145, 296, 272
-0.994656, 97, 265, 224, 296
-0.994665, 369, 209, 432, 272
-0.99467, 33, 273, 160, 304
-0.994692, 289, 105, 304, 168
-0.994701, 401, 225, 464, 352
-0.994705, 81, 341, 208, 372
-0.994712, 253, 169, 268, 232
-0.994713, 161, 153, 288, 184
-0.994723, 121, 81, 152, 208
-0.994734, 83, 177, 98, 240
-0.994749, 365, 97, 380, 160
-0.994796, 13, 233, 28, 296
-0.99485, 273, 125, 400, 156
-0.994856, 281, 113, 296, 176
-0.994863, 239, 121, 254, 184
-0.994864, 343, 89, 358, 152
-0.994868, 295, 105, 310, 168
-0.994885, 273, 33, 304, 288
-0.994891, 261, 129, 276, 192
-0.994902, 377, 209, 440, 336
-0.994917, 257, 57, 500, 120
-0.994937, 145, 265, 272, 296
-0.99494, 1, 253, 128, 284
-0.994942, 131, 265, 146, 328
-0.994961, 293, 33, 324, 288
-0.995001, 321, 233, 448, 296
-0.995022, 289, 313, 416, 375
-0.995023, 97, 277, 224, 308
-0.995031, 225, 125, 352, 156
-0.995031, 221, 97, 252, 352
-0.995068, 301, 145, 332, 272
-0.99507, 353, 1, 416, 256
-0.995073, 51, 273, 66, 336
-0.995085, 371, 113, 386, 176
-0.995131, 193, 181, 320, 212
-0.995136, 315, 65, 330, 128
-0.995141, 353, 49, 368, 112
-0.995169, 33, 1, 96, 375
-0.995189, 335, 81, 350, 144
-0.995193, 211, 313, 226, 375
-0.995214, 97, 165, 224, 196
-0.995223, 177, 169, 304, 200
-0.995227, 205, 297, 220, 360
-0.995256, 273, 257, 400, 320
-0.995268, 345, 1, 376, 128
-0.995281, 141, 65, 172, 192
-0.995282, 81, 305, 208, 336
-0.995287, 17, 181, 144, 212
-0.995297, 327, 105, 342, 168
-0.995304, 345, 41, 360, 104
-0.995317, 145, 205, 272, 236
-0.995325, 241, 165, 368, 196
-0.995337, 121, 249, 136, 312
-0.995344, 369, 1, 432, 375
-0.995359, 139, 217, 154, 280
-0.995395, 1, 305, 128, 336
-0.995403, 177, 117, 304, 148
-0.995413, 169, 241, 184, 304
-0.99542, 245, 33, 276, 288
-0.995433, 43, 273, 58, 336
-0.995435, 231, 129, 246, 192
-0.995436, 33, 57, 288, 120
-0.995453, 207, 73, 222, 136
-0.995458, 225, 137, 352, 168
-0.99546, 1, 289, 500, 352
-0.995496, 273, 1, 400, 64
-0.995498, 97, 329, 224, 360
-0.995512, 161, 81, 288, 112
-0.995522, 155, 297, 170, 360
-0.995523, 353, 81, 368, 144
-0.995538, 81, 237, 208, 268
-0.995544, 129, 289, 256, 320
-0.995544, 297, 41, 312, 104
-0.995547, 257, 129, 500, 192
-0.995572, 113, 241, 128, 304
-0.995591, 81, 317, 208, 348
-0.995595, 291, 41, 306, 104
-0.995604, 261, 33, 292, 288
-0.995608, 97, 141, 224, 172
-0.99561, 231, 257, 246, 320
-0.995613, 77, 185, 92, 248
-0.995616, 17, 205, 144, 236
-0.995645, 89, 177, 104, 240
-0.995646, 311, 89, 326, 152
-0.995667, 385, 113, 448, 240
-0.995684, 129, 217, 144, 280
-0.995693, 161, 61, 288, 92
-0.9957, 149, 217, 164, 280
-0.995712, 305, 41, 320, 104
-0.995728, 33, 217, 160, 248
-0.99573, 71, 185, 86, 248
-0.995749, 223, 113, 238, 176
-0.995762, 329, 65, 344, 128
-0.995769, 209, 193, 336, 224
-0.99577, 81, 225, 208, 256
-0.995788, 267, 121, 282, 184
-0.99579, 361, 33, 392, 160
-0.995815, 161, 305, 176, 368
-0.995827, 261, 161, 276, 224
-0.995833, 77, 113, 108, 240
-0.99584, 249, 113, 264, 176
-0.995841, 65, 177, 192, 208
-0.995846, 233, 209, 248, 272
-0.995853, 209, 77, 336, 108
-0.995857, 333, 33, 364, 288
-0.995861, 161, 141, 288, 172
-0.995864, 229, 65, 244, 128
-0.995876, 317, 33, 348, 288
-0.995886, 321, 265, 448, 328
-0.995898, 129, 317, 256, 348
-0.995898, 163, 217, 178, 280
-0.995923, 33, 273, 48, 336
-0.995936, 255, 121, 270, 184
-0.995936, 177, 217, 192, 280
-0.995956, 257, 149, 384, 180
-0.995964, 239, 169, 254, 232
-0.995967, 373, 65, 404, 192
-0.99597, 209, 97, 240, 352
-0.995985, 241, 177, 368, 208
-0.995986, 227, 193, 242, 256
-0.995996, 155, 217, 170, 280
-0.996016, 359, 57, 374, 120
-0.996023, 321, 105, 336, 168
-0.996032, 123, 217, 138, 280
-0.996033, 221, 65, 236, 128
-0.996035, 321, 65, 336, 128
-0.996049, 333, 41, 348, 104
-0.996072, 81, 33, 144, 288
-0.996082, 219, 169, 234, 232
-0.996105, 193, 209, 208, 272
-0.996108, 343, 65, 358, 128
-0.996118, 129, 121, 256, 152
-0.996129, 275, 113, 290, 176
-0.996131, 169, 313, 184, 375
-0.996135, 279, 49, 294, 112
-0.996139, 397, 161, 428, 288
-0.996141, 147, 305, 162, 368
-0.996166, 239, 81, 254, 144
-0.996173, 359, 81, 374, 144
-0.996186, 121, 281, 136, 344
-0.996193, 17, 169, 144, 200
-0.996199, 145, 193, 272, 224
-0.996211, 311, 41, 326, 104
-0.996213, 115, 169, 130, 232
-0.996219, 305, 33, 336, 288
-0.996219, 193, 265, 448, 328
-0.996222, 365, 121, 380, 184
-0.996226, 129, 289, 144, 352
-0.996227, 33, 25, 288, 88
-0.996238, 243, 193, 258, 256
-0.99624, 103, 241, 118, 304
-0.996244, 109, 169, 124, 232
-0.99625, 1, 33, 500, 96
-0.996253, 17, 193, 144, 224
-0.996259, 289, 97, 416, 128
-0.996262, 345, 305, 408, 368
-0.996282, 221, 193, 236, 256
-0.996297, 235, 57, 250, 120
-0.9963, 393, 1, 456, 375
-0.996301, 161, 49, 288, 80
-0.996302, 259, 97, 274, 160
-0.996302, 377, 129, 440, 375
-0.996304, 233, 97, 264, 352
-0.99632, 369, 289, 496, 352
-0.996321, 215, 193, 230, 256
-0.996322, 95, 169, 110, 232
-0.99633, 101, 169, 116, 232
-0.996347, 369, 121, 496, 184
-0.996348, 21, 273, 36, 336
-0.996354, 303, 105, 318, 168
-0.996359, 273, 137, 400, 168
-0.996366, 1, 313, 500, 375
-0.996387, 197, 65, 228, 320
-0.996391, 453, 161, 484, 288
-0.996403, 209, 149, 336, 180
-0.996454, 317, 41, 332, 104
-0.996455, 231, 153, 246, 216
-0.996459, 61, 265, 76, 328
-0.996461, 373, 145, 388, 208
-0.996468, 321, 177, 448, 208
-0.996476, 105, 97, 136, 224
-0.996481, 199, 313, 214, 375
-0.996494, 7, 241, 22, 304
-0.996495, 321, 193, 384, 320
-0.996515, 129, 345, 256, 375
-0.996517, 203, 193, 218, 256
-0.996528, 129, 305, 256, 336
-0.996537, 97, 189, 224, 220
-0.996545, 147, 129, 162, 192
-0.996551, 123, 153, 138, 216
-0.996561, 31, 297, 46, 360
-0.996564, 45, 113, 76, 240
-0.996575, 155, 241, 170, 304
-0.996576, 209, 249, 336, 280
-0.996576, 27, 257, 42, 320
-0.996593, 359, 105, 374, 168
-0.996598, 209, 229, 336, 260
-0.9966, 241, 297, 304, 360
-0.996604, 229, 1, 260, 256
-0.996615, 351, 105, 366, 168
-0.996615, 169, 217, 184, 280
-0.996616, 267, 169, 282, 232
-0.996618, 1, 105, 256, 168
-0.996629, 49, 261, 176, 292
-0.996638, 425, 97, 488, 352
-0.996654, 285, 41, 300, 104
-0.996654, 113, 265, 128, 328
-0.996659, 307, 65, 322, 128
-0.996665, 131, 241, 146, 304
-0.996681, 209, 217, 336, 248
-0.996701, 305, 77, 432, 108
-0.996703, 201, 265, 216, 328
-0.996703, 237, 241, 252, 304
-0.99671, 187, 89, 202, 152
-0.996714, 145, 333, 272, 364
-0.996716, 301, 65, 316, 128
-0.996723, 153, 129, 168, 192
-0.996725, 1, 129, 128, 192
-0.996746, 75, 257, 90, 320
-0.996747, 325, 41, 340, 104
-0.996754, 177, 97, 208, 352
-0.996758, 189, 129, 204, 192
-0.996767, 223, 281, 238, 344
-0.996776, 13, 273, 28, 336
-0.996777, 161, 281, 176, 344
-0.99678, 81, 293, 208, 324
-0.996782, 273, 289, 400, 352
-0.996787, 135, 289, 150, 352
-0.996795, 37, 297, 52, 360
-0.996803, 271, 89, 286, 152
-0.996807, 137, 257, 152, 320
-0.996818, 81, 205, 208, 236
-0.996821, 349, 65, 380, 320
-0.996825, 157, 153, 172, 216
-0.996833, 175, 305, 190, 368
-0.996835, 65, 185, 80, 248
-0.996855, 469, 241, 500, 368
-0.996877, 337, 93, 464, 124
-0.996934, 113, 153, 240, 184
-0.996944, 49, 157, 176, 188
-0.996948, 209, 49, 336, 80
-0.996958, 193, 205, 320, 236
-0.996961, 121, 129, 152, 375
-0.996966, 1, 333, 128, 364
-0.996971, 305, 225, 368, 288
-0.996975, 81, 129, 208, 160
-0.996982, 177, 37, 304, 68
-0.997001, 209, 61, 336, 92
-0.997033, 113, 73, 176, 136
-0.997037, 337, 65, 464, 96
-0.997054, 257, 189, 384, 220
-0.997057, 273, 313, 336, 375
-0.997059, 17, 345, 144, 375
-0.99707, 33, 1, 288, 64
-0.997073, 321, 109, 448, 140
-0.99709, 337, 241, 400, 368
-0.997091, 321, 17, 384, 80
-0.997132, 335, 109, 350, 140
-0.997135, 145, 181, 272, 212
-0.997141, 221, 93, 236, 124
-0.997146, 257, 217, 384, 280
-0.997175, 209, 261, 336, 292
-0.997208, 201, 341, 216, 372
-0.997238, 49, 329, 176, 360
-0.997265, 33, 113, 64, 240
-0.997266, 177, 345, 304, 375
-0.997266, 313, 89, 328, 120
-0.997268, 433, 313, 496, 375
-0.997269, 17, 317, 144, 348
-0.99733, 161, 97, 192, 352
-0.99734, 215, 89, 230, 120
-0.997346, 343, 109, 358, 140
-0.997349, 289, 165, 416, 196
-0.997356, 145, 277, 272, 308
-0.997357, 149, 97, 180, 352
-0.997395, 257, 33, 500, 96
-0.99741, 245, 129, 276, 375
-0.997413, 285, 113, 300, 144
-0.997437, 273, 121, 288, 152
-0.997449, 279, 117, 294, 148
-0.997465, 305, 149, 432, 180
-0.997467, 211, 73, 226, 104
-0.997475, 267, 125, 282, 156
-0.997477, 305, 53, 432, 84
-0.997513, 217, 1, 248, 256
-0.997525, 133, 97, 164, 352
-0.997534, 323, 105, 338, 136
-0.997551, 353, 149, 480, 180
-0.997572, 225, 1, 256, 128
-0.99758, 369, 193, 496, 224
-0.997589, 355, 53, 370, 84
-0.997589, 155, 309, 170, 340
-0.997607, 285, 129, 300, 160
-0.997613, 167, 241, 182, 272
-0.997618, 433, 1, 496, 375
-0.997624, 229, 101, 244, 132
-0.997634, 237, 133, 252, 164
-0.997644, 163, 313, 178, 344
-0.997656, 209, 273, 336, 304
-0.99766, 365, 101, 380, 132
-0.997662, 371, 121, 386, 152
-0.997667, 113, 85, 240, 116
-0.997681, 215, 101, 230, 132
-0.997684, 369, 233, 496, 264
-0.997689, 177, 25, 304, 56
-0.997717, 65, 57, 192, 120
-0.997727, 51, 277, 66, 308
-0.997731, 353, 341, 480, 372
-0.997738, 191, 137, 206, 168
-0.997746, 253, 149, 268, 180
-0.997746, 369, 205, 496, 236
-0.997757, 289, 345, 416, 375
-0.99776, 257, 313, 500, 375
-0.997764, 329, 105, 344, 136
-0.997769, 225, 37, 352, 68
-0.997777, 209, 85, 224, 116
-0.99778, 105, 273, 120, 304
-0.997784, 125, 217, 140, 248
-0.997787, 153, 237, 168, 268
-0.997788, 221, 109, 236, 140
-0.997789, 161, 5, 288, 36
-0.997789, 353, 137, 480, 168
-0.997808, 131, 269, 146, 300
-0.997822, 261, 129, 292, 375
-0.997834, 351, 109, 366, 140
-0.997842, 161, 237, 176, 268
-0.997843, 341, 45, 356, 76
-0.997849, 167, 325, 182, 356
-0.997858, 279, 133, 294, 164
-0.997863, 233, 213, 248, 244
-0.997866, 189, 341, 204, 372
-0.997874, 297, 225, 360, 352
-0.997877, 233, 89, 248, 120
-0.997879, 25, 129, 56, 375
-0.997879, 125, 285, 140, 316
-0.997883, 193, 285, 320, 316
-0.997897, 255, 177, 270, 208
-0.997898, 355, 73, 370, 104
-0.9979, 347, 69, 362, 100
-0.9979, 177, 305, 304, 336
-0.997908, 83, 257, 98, 288
-0.99791, 319, 89, 334, 120
-0.997911, 131, 281, 146, 312
-0.997921, 173, 1, 204, 256
-0.997921, 11, 261, 26, 292
-0.997922, 121, 261, 136, 292
-0.997925, 13, 229, 28, 260
-0.997926, 131, 257, 146, 288
-0.997929, 309, 49, 324, 80
-0.99793, 141, 301, 156, 332
-0.997933, 111, 277, 126, 308
-0.997937, 159, 221, 174, 252
-0.997942, 109, 129, 140, 375
-0.997943, 243, 117, 258, 148
-0.997951, 319, 53, 334, 84
-0.997953, 61, 217, 76, 248
-0.997955, 349, 49, 364, 80
-0.997958, 239, 81, 254, 112
-0.997963, 237, 113, 252, 144
-0.997964, 335, 49, 350, 80
-0.997967, 113, 57, 240, 88
-0.997974, 325, 93, 340, 124
-0.997976, 229, 197, 244, 228
-0.997985, 261, 133, 276, 164
-0.997985, 293, 109, 308, 140
-0.997986, 137, 289, 152, 320
-0.997992, 337, 161, 464, 192
-0.997993, 77, 269, 92, 300
-0.997995, 257, 225, 500, 288
-0.998006, 89, 177, 104, 208
-0.998007, 371, 133, 386, 164
-0.998019, 125, 249, 140, 280
-0.998027, 337, 241, 368, 368
-0.99803, 131, 297, 146, 328
-0.998038, 259, 121, 274, 152
-0.99804, 151, 225, 166, 256
-0.998041, 209, 305, 224, 336
-0.998049, 165, 217, 180, 248
-0.998057, 67, 197, 82, 228
-0.998057, 147, 245, 162, 276
-0.998066, 45, 129, 76, 375
-0.998068, 149, 305, 164, 336
-0.998074, 83, 181, 98, 212
-0.998074, 31, 301, 46, 332
-0.998077, 173, 333, 188, 364
-0.998083, 185, 1, 216, 256
-0.998086, 53, 217, 68, 248
-0.99809, 207, 97, 222, 128
-0.99809, 315, 105, 330, 136
-0.998097, 247, 165, 262, 196
-0.9981, 353, 125, 480, 156
-0.998102, 277, 129, 308, 375
-0.998111, 243, 153, 258, 184
-0.998113, 65, 117, 192, 148
-0.998114, 361, 97, 392, 352
-0.998119, 121, 273, 136, 304
-0.998129, 81, 129, 112, 375
-0.998131, 247, 133, 262, 164
-0.998133, 231, 113, 246, 144
-0.998135, 207, 341, 222, 372
-0.998138, 303, 49, 318, 80
-0.998138, 317, 73, 332, 104
-0.998141, 195, 345, 210, 375
-0.998142, 357, 101, 372, 132
-0.998144, 95, 253, 110, 284
-0.998145, 75, 185, 90, 216
-0.998146, 211, 321, 226, 352
-0.998157, 113, 73, 240, 104
-0.998162, 307, 89, 322, 120
-0.998168, 343, 97, 358, 128
-0.998169, 273, 37, 400, 68
-0.998175, 229, 125, 244, 156
-0.998181, 273, 333, 400, 364
-0.998194, 261, 169, 276, 200
-0.998194, 67, 209, 82, 240
-0.998195, 243, 201, 258, 232
-0.998201, 25, 257, 40, 288
-0.998203, 365, 117, 380, 148
-0.998206, 231, 153, 246, 184
-0.998207, 141, 277, 156, 308
-0.998209, 185, 137, 200, 168
-0.998209, 155, 157, 170, 188
-0.998211, 115, 265, 130, 296
-0.998216, 349, 97, 364, 128
-0.998217, 167, 229, 182, 260
-0.998218, 173, 221, 188, 252
-0.998219, 137, 253, 152, 284
-0.998219, 97, 41, 224, 72
-0.998226, 71, 221, 86, 252
-0.998226, 293, 133, 308, 164
-0.998228, 95, 281, 110, 312
-0.998229, 235, 253, 250, 284
-0.99823, 11, 245, 26, 276
-0.99824, 55, 289, 70, 320
-0.998248, 61, 273, 76, 304
-0.99825, 203, 325, 218, 356
-0.998252, 201, 85, 216, 116
-0.998259, 17, 265, 32, 296
-0.998261, 287, 49, 302, 80
-0.998261, 355, 89, 370, 120
-0.998267, 119, 285, 134, 316
-0.998269, 253, 125, 268, 156
-0.998277, 179, 249, 194, 280
-0.998292, 89, 49, 152, 176
-0.998349, 335, 33, 350, 160
-0.998355, 369, 221, 496, 252
-0.998361, 165, 17, 196, 144
-0.998378, 221, 213, 252, 228
-0.998378, 165, 275, 196, 290
-0.998378, 145, 131, 176, 146
-0.998379, 221, 171, 252, 186
-0.998379, 261, 121, 292, 136
-0.998381, 65, 211, 96, 226
-0.998381, 173, 321, 204, 336
-0.998381, 141, 297, 172, 312
-0.998382, 157, 255, 188, 270
-0.998383, 57, 275, 88, 290
-0.998384, 61, 269, 92, 284
-0.998386, 213, 125, 244, 140
-0.998387, 9, 237, 40, 252
-0.998388, 185, 87, 216, 102
-0.998388, 173, 239, 204, 254
-0.998388, 341, 77, 372, 92
-0.99839, 121, 157, 152, 172
-0.998391, 181, 99, 212, 114
-0.998392, 157, 221, 188, 236
-0.998392, 241, 109, 272, 124
-0.998392, 241, 81, 272, 96
-0.998394, 5, 253, 36, 268
-0.998395, 113, 249, 144, 264
-0.998395, 197, 103, 228, 118
-0.998397, 93, 129, 124, 375
-0.998399, 161, 317, 192, 332
-0.998401, 253, 167, 284, 182
-0.998401, 229, 125, 260, 140
-0.998402, 125, 287, 156, 302
-0.998403, 349, 95, 380, 110
-0.998404, 205, 79, 236, 94
-0.998405, 129, 275, 160, 290
-0.998405, 109, 339, 140, 354
-0.998405, 129, 253, 160, 268
-0.998406, 341, 63, 372, 78
-0.998406, 349, 101, 380, 116
-0.998406, 109, 263, 140, 278
-0.998407, 369, 273, 496, 304
-0.998407, 345, 85, 376, 100
-0.998407, 229, 165, 260, 180
-0.998407, 173, 251, 204, 266
-0.998408, 125, 281, 156, 296
-0.998408, 105, 309, 136, 324
-0.998408, 149, 319, 180, 334
-0.998409, 81, 183, 112, 198
-0.99841, 285, 111, 316, 126
-0.998411, 241, 133, 304, 148
-0.998413, 209, 113, 240, 128
-0.998414, 81, 253, 112, 268
-0.998416, 173, 359, 204, 374
-0.998416, 253, 173, 284, 188
-0.998417, 357, 127, 388, 142
-0.998417, 221, 219, 252, 234
-0.998421, 37, 281, 68, 296
-0.998421, 225, 89, 256, 104
-0.998421, 301, 51, 332, 66
-0.998422, 153, 325, 184, 340
-0.998423, 85, 267, 116, 282
-0.998423, 173, 345, 204, 360
-0.998424, 185, 351, 216, 366
-0.998424, 189, 139, 220, 154
-0.998424, 109, 291, 140, 306
-0.998425, 93, 175, 124, 190
-0.998425, 121, 223, 152, 238
-0.998426, 129, 247, 160, 262
-0.998427, 189, 339, 220, 354
-0.998427, 141, 161, 172, 176
-0.998429, 237, 149, 268, 164
-0.998429, 73, 273, 104, 288
-0.99843, 289, 49, 320, 64
-0.99843, 249, 119, 280, 134
-0.998431, 193, 361, 224, 375
-0.998434, 329, 119, 360, 134
-0.998434, 97, 247, 128, 262
-0.998435, 57, 287, 88, 302
-0.998438, 245, 181, 276, 196
-0.998438, 185, 95, 248, 110
-0.998439, 297, 109, 328, 124
-0.99844, 153, 311, 184, 326
-0.998441, 321, 189, 448, 220
-0.998444, 217, 201, 248, 216
-0.998444, 141, 253, 172, 268
-0.998445, 221, 131, 252, 146
-0.998446, 109, 285, 140, 300
-0.998446, 129, 259, 160, 274
-0.998447, 289, 109, 352, 124
-0.998449, 321, 115, 384, 130
-0.99845, 197, 95, 228, 110
-0.99845, 241, 143, 272, 158
-0.99845, 109, 269, 140, 284
-0.998453, 121, 309, 184, 324
-0.998454, 273, 123, 304, 138
-0.998454, 121, 309, 152, 324
-0.998455, 117, 299, 148, 314
-0.998456, 277, 117, 308, 132
-0.998457, 221, 97, 252, 112
-0.998457, 221, 225, 252, 240
-0.998458, 217, 81, 248, 96
-0.998459, 313, 109, 344, 124
-0.998459, 109, 219, 140, 234
-0.998461, 321, 121, 384, 136
-0.998462, 121, 293, 152, 308
-0.998463, 5, 267, 36, 282
-0.998464, 161, 331, 192, 346
-0.998464, 129, 269, 160, 284
-0.998465, 129, 253, 192, 268
-0.998466, 101, 279, 132, 294
-0.998467, 337, 41, 464, 72
-0.998467, 161, 343, 224, 358
-0.998467, 341, 55, 372, 70
-0.998468, 317, 55, 348, 70
-0.998469, 89, 249, 152, 264
-0.99847, 165, 339, 196, 354
-0.99847, 229, 119, 260, 134
-0.998473, 93, 273, 124, 288
-0.998473, 349, 117, 380, 132
-0.998474, 233, 127, 296, 142
-0.998477, 237, 157, 268, 172
-0.998481, 97, 13, 224, 44
-0.998481, 337, 111, 368, 126
-0.998484, 241, 173, 272, 188
-0.998484, 225, 115, 288, 130
-0.998485, 173, 213, 204, 228
-0.998489, 193, 333, 320, 364
-0.99849, 229, 113, 260, 128
-0.99849, 177, 139, 208, 154
-0.998491, 133, 131, 164, 146
-0.998491, 313, 55, 376, 70
-0.998491, 319, 33, 334, 160
-0.998492, 229, 103, 260, 118
-0.998493, 313, 87, 376, 102
-0.998495, 177, 89, 240, 104
-0.998496, 325, 109, 356, 124
-0.998498, 273, 133, 304, 148
-0.998498, 209, 91, 272, 106
-0.998498, 343, 33, 358, 160
-0.9985, 177, 321, 304, 352
-0.998501, 117, 275, 148, 290
-0.998502, 353, 107, 384, 122
-0.998502, 205, 87, 236, 102
-0.998503, 157, 249, 188, 264
-0.998504, 305, 49, 368, 64
-0.998505, 241, 137, 272, 152
-0.998509, 309, 89, 340, 104
-0.998509, 261, 137, 292, 152
-0.998509, 121, 245, 184, 260
-0.99851, 321, 101, 384, 116
-0.998511, 321, 109, 384, 124
-0.998512, 369, 245, 496, 276
-0.998514, 273, 117, 336, 132
-0.998515, 81, 271, 144, 286
-0.998516, 141, 307, 172, 322
-0.998518, 313, 63, 376, 78
-0.998521, 209, 95, 240, 110
-0.998521, 313, 81, 376, 96
-0.998521, 193, 103, 256, 118
-0.998522, 73, 185, 136, 200
-0.998522, 209, 103, 240, 118
-0.998524, 241, 167, 272, 182
-0.998526, 121, 303, 184, 318
-0.998528, 129, 303, 160, 318
-0.998531, 241, 139, 304, 154
-0.998532, 129, 259, 192, 274
-0.998532, 209, 77, 272, 92
-0.998533, 137, 341, 200, 356
-0.998533, 217, 135, 280, 150
-0.998533, 353, 329, 480, 360
-0.998535, 97, 29, 224, 60
-0.998535, 97, 293, 160, 308
-0.998537, 209, 85, 272, 100
-0.998538, 161, 349, 224, 364
-0.998538, 49, 277, 112, 292
-0.998539, 97, 303, 160, 318
-0.998541, 97, 313, 160, 328
-0.998544, 189, 345, 220, 360
-0.998544, 49, 269, 112, 284
-0.998544, 241, 129, 272, 144
-0.998545, 177, 83, 240, 98
-0.998545, 89, 255, 152, 270
-0.998545, 89, 279, 152, 294
-0.998546, 193, 133, 256, 148
-0.998548, 65, 129, 96, 375
-0.998548, 217, 97, 280, 112
-0.998551, 185, 345, 248, 360
-0.998554, 161, 323, 224, 338
-0.998554, 113, 161, 176, 176
-0.998555, 153, 243, 184, 258
-0.998557, 193, 203, 256, 218
-0.998558, 49, 283, 112, 298
-0.998558, 81, 285, 144, 300
-0.99856, 97, 261, 160, 276
-0.998561, 233, 181, 296, 196
-0.998561, 1, 271, 64, 286
-0.998562, 283, 49, 298, 176
-0.998562, 89, 341, 152, 356
-0.998564, 41, 293, 104, 308
-0.998565, 193, 215, 256, 230
-0.998565, 113, 281, 176, 296
-0.998567, 73, 177, 136, 192
-0.998567, 209, 71, 272, 86
-0.998567, 121, 323, 184, 338
-0.99857, 225, 121, 288, 136
-0.99857, 185, 261, 248, 276
-0.998571, 145, 317, 208, 332
-0.998573, 201, 117, 264, 132
-0.998575, 129, 335, 192, 350
-0.998577, 201, 141, 264, 156
-0.998577, 121, 217, 184, 232
-0.998578, 161, 97, 224, 112
-0.998578, 129, 1, 192, 128
-0.998579, 217, 169, 280, 184
-0.99858, 261, 127, 292, 142
-0.998581, 145, 243, 208, 258
-0.998582, 121, 291, 184, 306
-0.998583, 25, 303, 88, 318
-0.998585, 249, 115, 312, 130
-0.998585, 161, 361, 224, 375
-0.998586, 265, 51, 328, 66
-0.998588, 313, 75, 376, 90
-0.998589, 57, 257, 120, 272
-0.998589, 217, 163, 280, 178
-0.998589, 185, 277, 248, 292
-0.998589, 9, 277, 72, 292
-0.998591, 169, 271, 232, 286
-0.998591, 289, 49, 304, 176
-0.998595, 241, 145, 304, 160
-0.998596, 145, 355, 208, 370
-0.998599, 97, 1, 224, 32
-0.9986, 329, 49, 392, 64
-0.9986, 265, 87, 328, 102
-0.998601, 193, 209, 256, 224
-0.998601, 273, 135, 336, 150
-0.998601, 169, 337, 232, 352
-0.998601, 193, 197, 256, 212
-0.998601, 129, 231, 192, 246
-0.998602, 177, 77, 240, 92
-0.998602, 279, 97, 294, 224
-0.998602, 337, 49, 368, 64
-0.998603, 73, 301, 136, 316
-0.998604, 169, 209, 232, 224
-0.998604, 185, 285, 248, 300
-0.998604, 57, 33, 120, 288
-0.998605, 225, 197, 288, 212
-0.998605, 137, 137, 200, 152
-0.998606, 313, 93, 376, 108
-0.998606, 113, 239, 176, 254
-0.998606, 233, 81, 296, 96
-0.998606, 193, 235, 256, 250
-0.998606, 105, 223, 168, 238
-0.998607, 137, 277, 200, 292
-0.998607, 121, 315, 184, 330
-0.998608, 241, 163, 304, 178
-0.998608, 113, 275, 176, 290
-0.998609, 257, 127, 320, 142
-0.998609, 233, 175, 296, 190
-0.998609, 177, 141, 240, 156
-0.998609, 233, 69, 296, 84
-0.99861, 121, 131, 184, 146
-0.998611, 201, 157, 264, 172
-0.998613, 121, 265, 184, 280
-0.998613, 25, 189, 88, 204
-0.998613, 241, 189, 304, 204
-0.998613, 9, 227, 72, 242
-0.998613, 321, 127, 384, 142
-0.998614, 249, 121, 312, 136
-0.998615, 209, 127, 272, 142
-0.998615, 233, 75, 296, 90
-0.998615, 225, 211, 288, 226
-0.998616, 185, 351, 248, 366
-0.998616, 113, 155, 176, 170
-0.998617, 233, 109, 296, 124
-0.998619, 193, 241, 256, 256
-0.998619, 137, 271, 200, 286
-0.998619, 25, 181, 88, 196
-0.998619, 49, 183, 112, 198
-0.99862, 57, 263, 120, 278
-0.998621, 113, 349, 176, 364
-0.998623, 121, 329, 184, 344
-0.998623, 169, 331, 232, 346
-0.998624, 285, 97, 300, 224
-0.99865, 301, 33, 316, 160
-0.998653, 265, 113, 280, 240
-0.998654, 1, 9, 500, 72
-0.998658, 353, 33, 368, 160
-0.998661, 369, 257, 496, 288
-0.998665, 33, 145, 160, 176
-0.998675, 295, 49, 310, 176
-0.998675, 327, 49, 342, 176
-0.998676, 311, 33, 326, 160
-0.998681, 253, 97, 268, 224
-0.998689, 225, 9, 480, 72
-0.998717, 295, 97, 310, 224
-0.998732, 365, 81, 380, 208
-0.998734, 33, 133, 160, 164
-0.998739, 257, 289, 500, 352
-0.998753, 277, 49, 292, 176
-0.998756, 237, 113, 252, 240
-0.998788, 335, 97, 350, 224
-0.998788, 243, 113, 258, 240
-0.998796, 229, 65, 244, 192
-0.998824, 195, 193, 210, 320
-0.998829, 65, 33, 192, 96
-0.998845, 157, 225, 172, 352
-0.998846, 125, 193, 140, 320
-0.998864, 13, 129, 44, 375
-0.998868, 343, 81, 358, 208
-0.998873, 171, 225, 186, 352
-0.998884, 231, 145, 246, 272
-0.998899, 269, 49, 284, 176
-0.998915, 359, 49, 374, 176
-0.998932, 221, 177, 236, 304
-0.998934, 221, 97, 236, 224
-0.998935, 255, 145, 270, 272
-0.99894, 83, 161, 98, 288
-0.998942, 273, 97, 288, 224
-0.998944, 151, 225, 166, 352
-0.99895, 303, 97, 318, 224
-0.998961, 133, 209, 148, 336
-0.998964, 13, 209, 28, 336
-0.998972, 261, 65, 276, 192
-0.998974, 181, 193, 196, 320
-0.998996, 89, 161, 104, 288
-0.998998, 329, 97, 344, 224
-0.999, 223, 49, 238, 176
-0.999006, 371, 113, 386, 240
-0.999011, 351, 81, 366, 208
-0.999017, 249, 145, 264, 272
-0.999017, 243, 161, 258, 288
-0.999019, 189, 193, 204, 320
-0.999019, 71, 177, 86, 304
-0.999049, 95, 161, 110, 288
-0.999051, 125, 129, 140, 256
-0.999053, 165, 193, 180, 320
-0.999057, 19, 225, 34, 352
-0.999077, 45, 209, 60, 336
-0.999079, 329, 129, 360, 375
-0.999082, 235, 225, 250, 352
-0.999083, 319, 97, 334, 224
-0.999085, 35, 241, 50, 368
-0.999088, 313, 81, 328, 208
-0.999095, 77, 161, 92, 288
-0.999098, 131, 129, 146, 256
-0.999098, 203, 193, 218, 320
-0.999104, 113, 161, 128, 288
-0.999114, 141, 225, 156, 352
-0.999114, 289, 129, 320, 375
-0.999114, 253, 49, 268, 176
-0.999119, 243, 65, 258, 192
-0.99913, 211, 193, 226, 320
-0.99915, 235, 49, 250, 176
-0.999153, 229, 193, 244, 320
-0.999167, 163, 241, 178, 368
-0.999179, 159, 161, 174, 288
-0.999182, 61, 177, 76, 304
-0.999183, 313, 129, 344, 375
-0.999192, 51, 209, 66, 336
-0.999195, 29, 241, 44, 368
-0.999197, 101, 161, 116, 288
-0.999223, 119, 145, 134, 272
-0.999247, 229, 241, 244, 368
-0.99925, 237, 161, 252, 288
-0.999254, 209, 65, 224, 192
-0.999256, 55, 161, 70, 288
-0.999259, 365, 129, 380, 256
-0.999264, 177, 241, 192, 368
-0.999264, 41, 161, 56, 288
-0.999266, 217, 49, 232, 176
-0.999273, 137, 1, 168, 256
-0.999275, 147, 161, 162, 288
-0.999278, 7, 225, 22, 352
-0.999299, 127, 241, 142, 368
-0.999303, 153, 161, 168, 288
-0.999306, 203, 241, 218, 368
-0.999322, 215, 241, 230, 368
-0.999323, 191, 241, 206, 368
-0.999332, 107, 145, 122, 272
-0.999338, 119, 209, 134, 336
-0.999345, 359, 113, 374, 240
-0.999354, 183, 241, 198, 368
-0.999354, 373, 129, 404, 375
-0.999355, 79, 241, 94, 368
-0.999356, 165, 145, 180, 272
-0.999357, 215, 113, 230, 240
-0.999357, 209, 145, 224, 272
-0.999365, 49, 9, 176, 72
-0.999368, 327, 1, 342, 128
-0.999368, 61, 241, 76, 368
-0.999373, 209, 241, 224, 368
-0.999381, 253, 1, 268, 128
-0.999387, 23, 177, 38, 304
-0.99939, 171, 161, 186, 288
-0.999394, 137, 161, 152, 288
-0.999395, 477, 193, 492, 320
-0.9994, 125, 1, 156, 256
-0.999409, 377, 113, 392, 240
-0.99943, 85, 209, 100, 336
-0.999432, 187, 129, 202, 256
-0.999437, 191, 33, 206, 160
-0.999437, 203, 129, 218, 256
-0.99944, 49, 161, 64, 288
-0.999457, 31, 161, 46, 288
-0.999462, 139, 113, 154, 240
-0.999466, 151, 81, 166, 208
-0.999469, 169, 81, 184, 208
-0.999469, 361, 1, 392, 256
-0.99947, 93, 209, 108, 336
-0.999472, 197, 241, 212, 368
-0.999473, 483, 177, 498, 304
-0.999473, 221, 225, 236, 352
-0.99948, 199, 81, 214, 208
-0.999484, 73, 241, 88, 368
-0.999488, 193, 129, 208, 256
-0.999488, 289, 1, 304, 128
-0.999489, 261, 17, 276, 144
-0.999491, 185, 65, 200, 192
-0.999506, 157, 81, 172, 208
-0.999507, 101, 209, 116, 336
-0.999518, 301, 129, 332, 375
-0.999528, 177, 145, 192, 272
-0.999529, 153, 1, 184, 256
-0.99953, 241, 209, 256, 336
-0.999531, 425, 129, 456, 375
-0.999579, 249, 191, 264, 206
-0.999579, 219, 117, 234, 132
-0.999579, 177, 249, 192, 264
-0.999579, 173, 213, 188, 228
-0.99958, 129, 261, 144, 276
-0.99958, 171, 337, 186, 352
-0.99958, 239, 87, 254, 102
-0.999581, 149, 309, 164, 324
-0.999581, 123, 341, 138, 356
-0.999581, 167, 215, 182, 230
-0.999581, 211, 321, 226, 336
-0.999581, 149, 323, 164, 338
-0.999581, 195, 101, 210, 116
-0.999582, 299, 49, 314, 64
-0.999582, 163, 329, 178, 344
-0.999582, 227, 197, 242, 212
-0.999582, 231, 113, 246, 128
-0.999583, 163, 323, 178, 338
-0.999583, 31, 303, 46, 318
-0.999583, 77, 185, 92, 200
-0.999583, 211, 75, 226, 90
-0.999583, 363, 99, 378, 114
-0.999583, 249, 117, 264, 132
-0.999583, 161, 313, 176, 328
-0.999584, 83, 273, 98, 288
-0.999584, 159, 161, 174, 176
-0.999584, 167, 221, 182, 236
-0.999585, 131, 221, 146, 236
-0.999585, 371, 143, 386, 158
-0.999585, 143, 307, 158, 322
-0.999586, 137, 293, 152, 308
-0.999586, 69, 183, 84, 198
-0.999587, 279, 133, 294, 148
-0.999588, 225, 123, 240, 138
-0.999588, 11, 265, 26, 280
-0.999588, 125, 225, 140, 240
-0.999588, 121, 275, 136, 290
-0.999588, 135, 305, 150, 320
-0.999589, 107, 279, 122, 294
-0.999589, 71, 195, 86, 210
-0.999589, 219, 109, 234, 124
-0.99959, 249, 123, 264, 138
-0.999591, 65, 221, 80, 236
-0.999591, 253, 173, 268, 188
-0.999592, 245, 107, 260, 122
-0.999593, 83, 183, 98, 198
-0.999594, 355, 75, 370, 90
-0.999595, 197, 361, 212, 375
-0.999597, 115, 279, 130, 294
-0.999597, 249, 149, 264, 164
-0.999597, 207, 97, 222, 112
-0.999597, 245, 133, 260, 148
-0.999598, 247, 143, 262, 158
-0.999598, 169, 249, 184, 264
-0.999599, 247, 171, 262, 186
-0.999599, 129, 281, 144, 296
-0.999599, 305, 51, 320, 66
-0.999599, 205, 303, 220, 318
-0.999599, 123, 291, 138, 306
-0.9996, 119, 217, 134, 232
-0.9996, 275, 119, 290, 134
-0.9996, 239, 127, 254, 142
-0.9996, 201, 297, 216, 312
-0.9996, 295, 111, 310, 126
-0.999602, 225, 111, 240, 126
-0.999602, 373, 131, 388, 146
-0.999604, 355, 63, 370, 78
-0.999605, 151, 247, 166, 262
-0.999605, 233, 219, 248, 234
-0.999606, 13, 239, 28, 254
-0.999608, 259, 127, 274, 142
-0.999608, 129, 303, 144, 318
-0.999609, 153, 33, 184, 160
-0.999611, 321, 107, 336, 122
-0.999611, 137, 257, 152, 272
-0.999611, 361, 111, 376, 126
-0.999612, 319, 55, 334, 70
-0.999612, 231, 107, 246, 122
-0.999612, 255, 143, 270, 158
-0.999613, 51, 281, 66, 296
-0.999613, 255, 133, 270, 148
-0.999614, 357, 83, 372, 98
-0.999614, 287, 115, 302, 130
-0.999615, 371, 137, 386, 152
-0.999615, 237, 137, 252, 152
-0.999616, 231, 131, 246, 146
-0.999617, 313, 53, 328, 68
-0.999617, 355, 117, 370, 132
-0.999617, 261, 173, 276, 188
-0.999621, 153, 241, 168, 256
-0.999622, 339, 49, 354, 64
-0.999622, 155, 309, 170, 324
-0.999623, 147, 129, 162, 144
-0.999624, 253, 159, 268, 174
-0.999624, 371, 125, 386, 140
-0.999625, 93, 177, 108, 192
-0.999627, 397, 129, 428, 375
-0.999631, 267, 131, 282, 146
-0.999632, 9, 271, 24, 286
-0.999632, 61, 215, 76, 230
-0.999635, 15, 233, 30, 248
-0.999637, 129, 293, 144, 308
-0.999639, 131, 271, 146, 286
-0.999642, 177, 337, 192, 352
-0.999642, 77, 269, 92, 284
-0.99965, 349, 113, 364, 128
-0.999651, 159, 241, 174, 256
-0.999653, 319, 89, 334, 104
-0.999653, 255, 165, 270, 180
-0.999655, 369, 119, 384, 134
-0.999655, 329, 109, 344, 124
-0.999657, 333, 119, 348, 134
-0.999658, 209, 81, 224, 96
-0.999659, 217, 93, 232, 108
-0.999659, 119, 285, 134, 300
-0.999663, 169, 331, 184, 346
-0.999664, 223, 97, 238, 112
-0.999667, 191, 345, 206, 360
-0.999669, 167, 243, 182, 258
-0.99967, 183, 343, 198, 358
-0.999671, 215, 103, 230, 118
-0.999671, 141, 301, 156, 316
-0.999672, 339, 111, 354, 126
-0.999674, 285, 133, 300, 148
-0.999674, 281, 117, 296, 132
-0.999675, 9, 1, 72, 375
-0.999675, 105, 33, 136, 288
-0.999676, 377, 33, 408, 288
-0.999685, 273, 125, 288, 140
-0.9997, 191, 139, 206, 154
-0.999703, 125, 217, 140, 232
-0.999717, 211, 87, 226, 102
-0.999723, 201, 345, 216, 360
-0.999723, 313, 89, 328, 104
-0.999729, 273, 241, 336, 368
-0.99973, 135, 299, 150, 314
-0.999803, 453, 129, 484, 375
-0.999805, 377, 33, 440, 288
-0.999812, 409, 129, 440, 375
-0.999904, 73, 33, 104, 288
-0.99996, 25, 33, 88, 288
-1.00006, 437, 129, 468, 375
-1.00011, 469, 129, 500, 375
-1.00013, 49, 33, 80, 288
-1.00014, 93, 33, 124, 288
-1.00015, 385, 113, 416, 240
-1.00018, 61, 33, 92, 288
-1.00026, 385, 129, 416, 375
-1.00027, 425, 129, 456, 256
-1.00038, 397, 113, 428, 240
-1.0004, 29, 33, 60, 288
-1.00044, 389, 33, 420, 288
-1.00045, 1, 17, 128, 80
-1.00049, 409, 129, 472, 256
-1.00057, 1, 129, 32, 375
-1.0006, 401, 33, 432, 288
-1.00061, 353, 241, 384, 368
-1.00061, 321, 1, 448, 64
-1.00064, 353, 193, 384, 320
-1.00069, 417, 33, 448, 288
-1.00077, 17, 41, 144, 104
-1.00096, 429, 33, 460, 288
-1.00105, 13, 33, 44, 288
-1.00114, 465, 33, 496, 288
-1.00117, 257, 193, 320, 320
-1.00118, 445, 33, 476, 288
-1.00121, 369, 81, 496, 208
-1.00129, 1, 81, 128, 144
-1.00135, 405, 209, 436, 336
-1.00146, 425, 225, 456, 352
-1.00151, 441, 241, 472, 368
-1.00153, 369, 33, 496, 96
-1.00155, 325, 225, 356, 352
-1.00158, 1, 33, 32, 288
-1.00162, 9, 113, 40, 240
-1.00181, 441, 145, 472, 272
-1.00182, 1, 105, 128, 168
-1.00245, 297, 193, 328, 320
-1.00259, 313, 241, 344, 368
-1.00262, 125, 33, 156, 160
-1.00275, 33, 17, 160, 144
-1.0028, 413, 113, 444, 240
-1.00315, 309, 193, 340, 320
-1.00329, 469, 145, 500, 272
-1.00351, 137, 17, 168, 144
-1.0036, 285, 193, 316, 320
-1.0036, 389, 209, 420, 336
-1.00374, 369, 9, 496, 72
-1.00375, 293, 241, 324, 368
-1.00399, 113, 33, 144, 160
-1.00422, 269, 193, 300, 320
-1.00434, 1, 177, 32, 304
-1.00455, 401, 33, 464, 288
-1.00466, 241, 241, 272, 368
-1.00567, 1, 113, 64, 240
-1.00599, 1, 33, 64, 288
-1.00658, 105, 1, 168, 128
-1.00723, 425, 1, 488, 256
-1.00867, 73, 1, 136, 128
-1.00904, 433, 97, 496, 224
-1.00921, 377, 49, 440, 176
-1.01036, 49, 65, 112, 192
-1.01044, 249, 241, 312, 368
-1.01073, 409, 81, 472, 208
-1.01198, 49, 1, 112, 128
-1.01218, 25, 1, 88, 128
-1.01265, 1, 65, 64, 192
-1.01429, 1, 17, 64, 144
-1.01429, 409, 33, 472, 160
-1.01471, 385, 1, 448, 128
-1.01478, 433, 1, 496, 128
-1.01478, 433, 49, 496, 176
-1.016, 25, 49, 88, 176
