1974
-0.324369, 257, 1, 500, 375
-0.360318, 1, 1, 500, 375
-0.444522, 1, 129, 500, 375
-0.496482, 129, 1, 384, 375
-0.500658, 1, 1, 500, 256
-0.503457, 1, 1, 256, 375
-0.562012, 129, 129, 384, 375
-0.630612, 225, 129, 480, 375
-0.635176, 257, 1, 500, 256
-0.653574, 1, 1, 256, 256
-0.667762, 129, 1, 384, 256
-0.734745, 33, 97, 288, 352
-0.848945, 353, 1, 480, 375
-0.849652, 241, 1, 368, 256
-0.849721, 241, 1, 368, 375
-0.850901, 289, 1, 416, 375
-0.855299, 145, 129, 272, 375
-0.856097, 193, 97, 320, 352
-0.872418, 241, 97, 368, 352
-0.873287, 1, 1, 128, 256
-0.881805, 49, 1, 176, 256
-0.881863, 65, 1, 192, 375
-0.882576, 193, 1, 320, 375
-0.886424, 17, 1, 144, 375
-0.886861, 321, 129, 448, 375
-0.888203, 1, 129, 500, 256
-0.89533, 1, 1, 500, 128
-0.895859, 369, 1, 496, 256
-0.899384, 97, 97, 224, 352
-0.901717, 1, 225, 500, 352
-0.902119, 225, 161, 480, 288
-0.902445, 193, 1, 320, 256
-0.905413, 129, 113, 384, 240
-0.907827, 289, 33, 416, 288
-0.908494, 1, 49, 500, 176
-0.9099, 369, 129, 496, 375
-0.909948, 1, 177, 500, 304
-0.910593, 129, 1, 256, 375
-0.914843, 129, 161, 384, 288
-0.917773, 97, 1, 224, 256
-0.92397, 1, 33, 256, 160
-0.924016, 193, 113, 320, 240
-0.925039, 129, 209, 384, 336
-0.92679, 145, 33, 272, 288
-0.927411, 129, 17, 384, 144
-0.929121, 305, 161, 432, 288
-0.930537, 177, 161, 240, 288
-0.930805, 273, 113, 400, 240
-0.931242, 233, 113, 296, 240
-0.93153, 225, 209, 480, 336
-0.933052, 49, 17, 176, 144
-0.933075, 97, 1, 160, 128
-0.933455, 257, 1, 500, 128
-0.933721, 369, 161, 496, 288
-0.935925, 257, 113, 500, 240
-0.938506, 257, 161, 384, 288
-0.939504, 209, 161, 272, 288
-0.939581, 353, 145, 416, 272
-0.941349, 1, 81, 256, 208
-0.941753, 257, 1, 320, 128
-0.942371, 337, 97, 400, 224
-0.94244, 145, 145, 272, 272
-0.942646, 305, 161, 368, 288
-0.944044, 273, 161, 336, 288
-0.945022, 361, 177, 424, 240
-0.945058, 337, 193, 400, 320
-0.945158, 129, 97, 256, 224
-0.945245, 1, 1, 64, 128
-0.945532, 385, 193, 448, 320
-0.945902, 257, 33, 384, 160
-0.947176, 209, 161, 336, 288
-0.947206, 129, 225, 256, 352
-0.948129, 129, 65, 384, 192
-0.949723, 49, 129, 176, 375
-0.950081, 33, 145, 288, 272
-0.950213, 305, 169, 368, 232
-0.950354, 425, 193, 488, 320
-0.951151, 145, 241, 208, 368
-0.951391, 257, 1, 320, 64
-0.951392, 33, 1, 96, 128
-0.951491, 257, 65, 500, 192
-0.951591, 401, 185, 464, 248
-0.952055, 369, 1, 496, 128
-0.952105, 361, 193, 424, 320
-0.952262, 321, 113, 448, 240
-0.95285, 73, 1, 136, 128
-0.95286, 33, 241, 288, 368
-0.953016, 97, 17, 160, 80
-0.953109, 329, 145, 392, 272
-0.95372, 153, 113, 216, 240
-0.954704, 177, 209, 240, 336
-0.955273, 273, 161, 336, 224
-0.955773, 305, 113, 368, 240
-0.955987, 145, 49, 272, 176
-0.95599, 233, 145, 296, 208
-0.956479, 137, 65, 200, 192
-0.95672, 233, 193, 296, 320
-0.95688, 337, 209, 464, 336
-0.957033, 145, 225, 208, 288
-0.957039, 337, 145, 400, 208
-0.957239, 1, 1, 128, 128
-0.957538, 57, 33, 120, 96
-0.957599, 297, 1, 360, 64
-0.957967, 345, 9, 408, 72
-0.95801, 433, 17, 496, 80
-0.958129, 425, 1, 488, 128
-0.958434, 369, 9, 432, 72
-0.958507, 209, 113, 272, 240
-0.958607, 265, 185, 328, 248
-0.958773, 137, 193, 200, 320
-0.95906, 65, 241, 192, 368
-0.95944, 289, 209, 352, 336
-0.959545, 321, 1, 448, 128
-0.959695, 289, 209, 416, 336
-0.959741, 209, 209, 272, 336
-0.960212, 329, 1, 392, 128
-0.960214, 113, 241, 176, 368
-0.960416, 393, 9, 456, 72
-0.961349, 33, 33, 96, 96
-0.96136, 329, 209, 392, 272
-0.961985, 233, 121, 296, 184
-0.962023, 417, 209, 480, 272
-0.962041, 385, 209, 448, 272
-0.962273, 257, 25, 320, 88
-0.962312, 33, 193, 288, 320
-0.962423, 1, 49, 128, 176
-0.962637, 225, 209, 352, 336
-0.962738, 81, 81, 208, 208
-0.962799, 177, 209, 304, 336
-0.962895, 329, 97, 392, 160
-0.963287, 361, 233, 424, 296
-0.963758, 321, 9, 384, 72
-0.96383, 233, 65, 296, 192
-0.963945, 337, 177, 400, 240
-0.964404, 137, 97, 200, 160
-0.964448, 97, 33, 224, 160
-0.964525, 193, 65, 320, 192
-0.964669, 433, 185, 496, 248
-0.964718, 369, 113, 496, 240
-0.964976, 73, 1, 136, 64
-0.965094, 233, 17, 296, 144
-0.965164, 1, 49, 64, 112
-0.965223, 281, 1, 344, 128
-0.965903, 193, 177, 256, 240
-0.966165, 305, 177, 432, 240
-0.966179, 185, 113, 248, 240
-0.966233, 177, 217, 240, 280
-0.966308, 49, 281, 112, 344
-0.966314, 393, 145, 456, 272
-0.966959, 233, 169, 296, 232
-0.967259, 65, 49, 128, 176
-0.967379, 233, 97, 296, 352
-0.967529, 121, 233, 184, 296
-0.967739, 1, 297, 64, 360
-0.967891, 273, 113, 336, 240
-0.967987, 361, 1, 424, 128
-0.968064, 49, 33, 176, 96
-0.968086, 361, 201, 424, 264
-0.968293, 297, 225, 360, 288
-0.968396, 81, 193, 208, 320
-0.968579, 369, 65, 496, 192
-0.968596, 121, 257, 184, 320
-0.968735, 329, 73, 392, 136
-0.968754, 249, 1, 312, 256
-0.96925, 193, 137, 256, 200
-0.969492, 265, 1, 296, 64
-0.969784, 273, 1, 336, 256
-0.969982, 145, 97, 208, 352
-0.970085, 161, 89, 224, 152
-0.970187, 313, 137, 376, 200
-0.970307, 17, 9, 80, 72
-0.970359, 257, 169, 384, 232
-0.970677, 169, 249, 232, 312
-0.970701, 353, 185, 480, 248
-0.970756, 289, 193, 352, 256
-0.970877, 433, 129, 496, 256
-0.971169, 377, 241, 440, 368
-0.971192, 1, 49, 64, 176
-0.97121, 273, 9, 400, 72
-0.971236, 241, 113, 368, 176
-0.971347, 177, 121, 304, 184
-0.971358, 65, 57, 128, 120
-0.971513, 217, 161, 248, 288
-0.971746, 321, 241, 384, 304
-0.971761, 257, 49, 320, 176
-0.97182, 25, 57, 88, 120
-0.971842, 289, 161, 320, 224
-0.971951, 265, 1, 296, 128
-0.971997, 409, 185, 440, 248
-0.972072, 469, 129, 500, 256
-0.972231, 113, 289, 176, 352
-0.972253, 145, 249, 208, 312
-0.972285, 265, 129, 328, 375
-0.972308, 321, 9, 448, 72
-0.972363, 361, 113, 392, 240
-0.972398, 121, 17, 184, 144
-0.972449, 209, 153, 336, 216
-0.97248, 425, 241, 488, 368
-0.972534, 233, 97, 296, 160
-0.972733, 193, 161, 224, 288
-0.972839, 97, 145, 224, 272
-0.97294, 245, 113, 276, 240
-0.972944, 361, 73, 392, 136
-0.973002, 73, 241, 136, 368
-0.973035, 421, 185, 452, 248
-0.973084, 305, 1, 368, 128
-0.97315, 205, 161, 236, 288
-0.973248, 97, 257, 160, 320
-0.973315, 369, 209, 496, 272
-0.97354, 145, 129, 208, 192
-0.973632, 369, 9, 496, 72
-0.973889, 49, 289, 176, 352
-0.973975, 361, 81, 424, 208
-0.974012, 337, 121, 400, 184
-0.974073, 169, 169, 232, 232
-0.974077, 1, 129, 128, 375
-0.974082, 313, 225, 376, 352
-0.974091, 313, 169, 344, 232
-0.974152, 393, 1, 456, 128
-0.974304, 389, 185, 420, 248
-0.974352, 209, 209, 272, 272
-0.974355, 49, 241, 112, 368
-0.974379, 325, 113, 356, 240
-0.974638, 313, 65, 376, 192
-0.974744, 361, 145, 392, 208
-0.974761, 233, 1, 296, 64
-0.974762, 381, 161, 412, 288
-0.974857, 241, 193, 304, 256
-0.974904, 305, 201, 432, 264
-0.974914, 173, 89, 204, 152
-0.974916, 349, 137, 380, 200
-0.974957, 361, 145, 424, 208
-0.975097, 353, 97, 416, 160
-0.975227, 129, 73, 192, 136
-0.975283, 73, 289, 136, 352
-0.975323, 41, 1, 104, 64
-0.975339, 33, 305, 96, 368
-0.975344, 433, 289, 496, 352
-0.975357, 297, 249, 360, 312
-0.975393, 369, 177, 400, 240
-0.975407, 193, 17, 320, 144
-0.975452, 273, 137, 400, 200
-0.975588, 153, 201, 216, 264
-0.975706, 37, 1, 68, 128
-0.975706, 397, 193, 428, 320
-0.975729, 393, 9, 424, 72
-0.975771, 49, 9, 176, 72
-0.975773, 433, 161, 496, 224
-0.975913, 93, 1, 124, 128
-0.975992, 333, 169, 364, 232
-0.976019, 117, 1, 148, 64
-0.976034, 353, 9, 384, 72
-0.976223, 333, 161, 364, 288
-0.97624, 233, 129, 264, 256
-0.976282, 181, 145, 212, 272
-0.976355, 317, 161, 348, 288
-0.976398, 65, 57, 192, 120
-0.976415, 261, 97, 292, 224
-0.976442, 297, 1, 328, 64
-0.976454, 177, 113, 240, 176
-0.976499, 357, 97, 388, 160
-0.976612, 17, 1, 48, 128
-0.976672, 285, 1, 316, 64
-0.976695, 121, 209, 184, 272
-0.97674, 469, 153, 500, 216
-0.976759, 69, 33, 100, 96
-0.976968, 261, 49, 292, 176
-0.977146, 277, 1, 308, 128
-0.977157, 249, 49, 312, 112
-0.977274, 157, 241, 188, 368
-0.977295, 465, 177, 496, 240
-0.977341, 297, 1, 360, 256
-0.977405, 165, 225, 196, 288
-0.977407, 361, 65, 392, 192
-0.977407, 401, 209, 432, 272
-0.97746, 405, 9, 436, 72
-0.977472, 373, 9, 404, 72
-0.977517, 337, 9, 368, 72
-0.97752, 17, 57, 144, 120
-0.97753, 33, 49, 96, 176
-0.977611, 129, 137, 256, 200
-0.977626, 369, 233, 496, 296
-0.977635, 345, 97, 376, 224
-0.977636, 17, 241, 144, 368
-0.977651, 425, 249, 488, 312
-0.977667, 145, 273, 208, 336
-0.977795, 445, 193, 476, 256
-0.977831, 233, 25, 296, 88
-0.977859, 313, 1, 344, 64
-0.977998, 465, 17, 496, 80
-0.978028, 305, 105, 368, 168
-0.97809, 305, 65, 368, 128
-0.978101, 469, 177, 500, 304
-0.978176, 461, 1, 492, 128
-0.978221, 245, 113, 276, 176
-0.978405, 145, 217, 272, 280
-0.978446, 257, 193, 384, 256
-0.978528, 153, 217, 184, 280
-0.978629, 469, 129, 500, 192
-0.978642, 273, 225, 400, 288
-0.978652, 217, 113, 248, 240
-0.978679, 321, 233, 448, 296
-0.978687, 81, 1, 112, 128
-0.978728, 97, 97, 224, 160
-0.978761, 369, 33, 496, 96
-0.978796, 301, 161, 332, 224
-0.978848, 249, 249, 312, 312
-0.978863, 289, 25, 352, 88
-0.978968, 393, 297, 456, 360
-0.978974, 321, 129, 384, 375
-0.978983, 257, 209, 320, 336
-0.97899, 129, 1, 160, 128
-0.978993, 105, 41, 168, 104
-0.979039, 165, 81, 196, 208
-0.979039, 385, 233, 448, 296
-0.97907, 385, 273, 448, 336
-0.97909, 273, 73, 400, 136
-0.979094, 209, 129, 272, 375
-0.979102, 1, 1, 128, 64
-0.979106, 305, 65, 432, 192
-0.979125, 1, 25, 128, 88
-0.979178, 105, 1, 136, 128
-0.979185, 321, 265, 384, 328
-0.979208, 57, 1, 88, 128
-0.979255, 273, 1, 336, 375
-0.979367, 333, 73, 364, 136
-0.979413, 305, 161, 336, 288
-0.979414, 121, 313, 184, 375
-0.979443, 153, 65, 216, 128
-0.979448, 193, 177, 320, 240
-0.979458, 185, 169, 216, 232
-0.979494, 357, 185, 388, 248
-0.979568, 257, 97, 288, 160
-0.979579, 425, 129, 488, 375
-0.979611, 37, 49, 68, 112
-0.979628, 277, 169, 308, 232
-0.979704, 49, 49, 80, 112
-0.979772, 325, 1, 356, 64
-0.979785, 145, 241, 272, 304
-0.979805, 221, 177, 252, 240
-0.979894, 25, 41, 56, 104
-0.979979, 129, 177, 256, 240
-0.980009, 161, 89, 288, 152
-0.980099, 169, 193, 200, 320
-0.980126, 261, 25, 292, 88
-0.98019, 469, 81, 500, 208
-0.980205, 233, 73, 296, 136
-0.98029, 433, 313, 496, 375
-0.980311, 357, 193, 388, 320
-0.980388, 353, 241, 416, 368
-0.980403, 433, 185, 464, 248
-0.980489, 249, 1, 312, 375
-0.98049, 197, 113, 228, 240
-0.980592, 229, 145, 260, 208
-0.980613, 257, 89, 320, 152
-0.980686, 85, 281, 116, 344
-0.980713, 369, 193, 400, 320
-0.980857, 321, 1, 352, 128
-0.980877, 425, 17, 456, 80
-0.980878, 361, 233, 392, 296
-0.980879, 57, 1, 120, 256
-0.98092, 385, 129, 448, 375
-0.981016, 1, 73, 64, 136
-0.981054, 345, 177, 376, 240
-0.98106, 265, 145, 296, 208
-0.981091, 449, 193, 480, 320
-0.981115, 265, 137, 328, 200
-0.981167, 433, 81, 496, 208
-0.981181, 333, 145, 364, 208
-0.981247, 441, 17, 472, 80
-0.98127, 81, 257, 208, 320
-0.981422, 401, 161, 464, 224
-0.981455, 305, 1, 368, 375
-0.981468, 173, 121, 204, 184
-0.98149, 237, 193, 268, 320
-0.981516, 145, 241, 176, 304
-0.981528, 157, 249, 188, 312
-0.981544, 377, 33, 440, 96
-0.98156, 185, 209, 216, 272
-0.981566, 157, 73, 188, 136
-0.981578, 157, 97, 188, 160
-0.981643, 129, 17, 160, 80
-0.981643, 353, 145, 480, 208
-0.981719, 69, 281, 100, 344
-0.981792, 145, 1, 272, 128
-0.981816, 169, 145, 232, 208
-0.981819, 433, 41, 496, 104
-0.981819, 81, 33, 112, 96
-0.981834, 345, 265, 408, 328
-0.981867, 273, 225, 336, 288
-0.981885, 361, 1, 392, 128
-0.981902, 341, 17, 372, 144
-0.981918, 345, 65, 376, 128
-0.981968, 313, 225, 344, 288
-0.981988, 413, 177, 444, 304
-0.982024, 317, 201, 348, 264
-0.982026, 5, 49, 36, 112
-0.982088, 293, 185, 324, 248
-0.982145, 209, 209, 336, 272
-0.982152, 345, 161, 376, 288
-0.982169, 201, 177, 232, 240
-0.982204, 313, 209, 344, 336
-0.98228, 225, 249, 288, 312
-0.982323, 121, 17, 184, 80
-0.982329, 277, 25, 308, 88
-0.982335, 225, 1, 352, 64
-0.982377, 465, 241, 496, 368
-0.982401, 65, 313, 192, 375
-0.982409, 321, 257, 448, 320
-0.982523, 273, 113, 336, 176
-0.982645, 169, 129, 232, 375
-0.982659, 361, 121, 424, 184
-0.982698, 453, 17, 484, 80
-0.982702, 181, 193, 212, 320
-0.982795, 353, 73, 416, 136
-0.982807, 241, 137, 272, 200
-0.982913, 37, 305, 68, 368
-0.982933, 289, 129, 352, 375
-0.982939, 169, 201, 200, 264
-0.982969, 193, 249, 256, 312
-0.983015, 329, 33, 392, 96
-0.983126, 329, 1, 392, 375
-0.983212, 97, 33, 224, 96
-0.983227, 353, 209, 384, 272
-0.983313, 97, 289, 128, 352
-0.983322, 361, 121, 392, 184
-0.983323, 401, 1, 464, 375
-0.983334, 153, 297, 216, 360
-0.983353, 181, 97, 212, 224
-0.983369, 261, 73, 292, 136
-0.983389, 1, 1, 64, 256
-0.983461, 1, 289, 128, 352
-0.983491, 193, 113, 224, 176
-0.983504, 277, 193, 308, 256
-0.983537, 21, 65, 52, 128
-0.983558, 49, 25, 80, 88
-0.983579, 9, 241, 72, 368
-0.98359, 233, 217, 296, 280
-0.983605, 273, 249, 400, 312
-0.983719, 101, 25, 132, 88
-0.983729, 281, 145, 312, 272
-0.983739, 121, 249, 152, 312
-0.983752, 193, 65, 256, 192
-0.983794, 137, 289, 168, 352
-0.983894, 289, 97, 416, 160
-0.983905, 5, 1, 36, 128
-0.983937, 121, 1, 184, 256
-0.983957, 373, 209, 404, 272
-0.98401, 257, 193, 288, 320
-0.98405, 113, 65, 176, 192
-0.984069, 389, 233, 420, 296
-0.984104, 25, 1, 88, 256
-0.98412, 425, 1, 488, 375
-0.984198, 97, 233, 224, 296
-0.984221, 353, 1, 416, 375
-0.984254, 49, 289, 80, 352
-0.984292, 453, 169, 484, 232
-0.984299, 469, 217, 500, 280
-0.984351, 293, 177, 324, 304
-0.984411, 145, 265, 176, 328
-0.984482, 469, 105, 500, 168
-0.984505, 373, 73, 404, 136
-0.984589, 253, 177, 284, 240
-0.984644, 321, 73, 448, 136
-0.984646, 317, 105, 348, 168
-0.984677, 289, 137, 352, 200
-0.984737, 225, 49, 288, 112
-0.984767, 321, 33, 448, 96
-0.984816, 129, 265, 256, 328
-0.984817, 337, 201, 368, 264
-0.984823, 261, 49, 292, 112
-0.984914, 97, 1, 128, 64
-0.984948, 153, 81, 184, 208
-0.98495, 65, 57, 96, 120
-0.984979, 273, 249, 336, 312
-0.984985, 401, 33, 464, 96
-0.985125, 133, 241, 164, 304
-0.985128, 401, 241, 464, 368
-0.98513, 273, 65, 336, 128
-0.985138, 121, 225, 152, 352
-0.985163, 325, 225, 356, 288
-0.985207, 221, 209, 252, 336
-0.985208, 313, 97, 344, 224
-0.985223, 425, 177, 456, 304
-0.985233, 141, 217, 172, 280
-0.985261, 369, 97, 400, 160
-0.985353, 225, 1, 288, 375
-0.985383, 145, 153, 208, 216
-0.985431, 353, 65, 416, 320
-0.985476, 145, 25, 208, 88
-0.985531, 381, 209, 412, 336
-0.985534, 97, 209, 224, 272
-0.985539, 169, 241, 200, 368
-0.985558, 333, 65, 364, 192
-0.985575, 17, 1, 48, 64
-0.985626, 97, 289, 224, 352
-0.985627, 81, 1, 112, 64
-0.985669, 225, 1, 288, 256
-0.985708, 129, 49, 192, 112
-0.985708, 145, 241, 176, 368
-0.985751, 145, 1, 208, 128
-0.985758, 269, 177, 300, 304
-0.985817, 233, 273, 296, 336
-0.985847, 217, 137, 248, 200
-0.985875, 353, 281, 480, 344
-0.985905, 201, 113, 264, 176
-0.985958, 73, 265, 136, 328
-0.985977, 157, 177, 188, 304
-0.986006, 377, 1, 440, 375
-0.986046, 297, 1, 328, 128
-0.986063, 173, 145, 204, 208
-0.986125, 157, 297, 188, 360
-0.98618, 381, 1, 412, 128
-0.98618, 373, 81, 404, 208
-0.986251, 433, 105, 496, 168
-0.986297, 173, 249, 204, 312
-0.986298, 233, 169, 264, 232
-0.986352, 337, 241, 368, 304
-0.986414, 353, 33, 416, 96
-0.986417, 465, 249, 496, 312
-0.986555, 1, 49, 32, 176
-0.98656, 161, 49, 224, 176
-0.986628, 197, 209, 228, 272
-0.986643, 205, 209, 236, 336
-0.986694, 37, 1, 68, 64
-0.986734, 433, 129, 496, 192
-0.986754, 433, 33, 496, 288
-0.986874, 97, 9, 224, 72
-0.986884, 225, 177, 480, 240
-0.986891, 317, 137, 348, 200
-0.986902, 393, 145, 424, 272
-0.986927, 413, 209, 444, 272
-0.986989, 237, 209, 268, 272
-0.987022, 369, 313, 432, 375
-0.987094, 265, 177, 296, 240
-0.987142, 133, 241, 164, 368
-0.987159, 377, 241, 408, 304
-0.987316, 369, 57, 496, 120
-0.987319, 365, 257, 396, 320
-0.987321, 461, 289, 492, 352
-0.987352, 97, 233, 160, 296
-0.987381, 305, 193, 336, 256
-0.987399, 457, 145, 488, 272
-0.987428, 137, 1, 200, 375
-0.987494, 77, 49, 108, 176
-0.987522, 253, 1, 284, 128
-0.987586, 449, 217, 480, 280
-0.987607, 345, 273, 376, 336
-0.987614, 225, 241, 352, 304
-0.987638, 157, 193, 188, 256
-0.987641, 373, 145, 404, 208
-0.987642, 413, 273, 444, 336
-0.98765, 81, 313, 144, 375
-0.987697, 317, 73, 348, 136
-0.987704, 337, 97, 464, 160
-0.987707, 341, 97, 372, 160
-0.987757, 349, 241, 380, 304
-0.987762, 145, 193, 176, 320
-0.987809, 253, 1, 284, 64
-0.987868, 413, 241, 444, 368
-0.987972, 241, 33, 368, 96
-0.988002, 257, 9, 500, 72
-0.988016, 73, 241, 104, 368
-0.988062, 257, 9, 320, 40
-0.988109, 109, 241, 140, 368
-0.988141, 369, 185, 432, 216
-0.988142, 145, 297, 272, 360
-0.988176, 73, 1, 136, 375
-0.988209, 393, 189, 456, 220
-0.988315, 345, 181, 408, 212
-0.988365, 321, 177, 384, 208
-0.98842, 289, 177, 352, 208
-0.988431, 105, 1, 168, 375
-0.98846, 225, 89, 352, 152
-0.988472, 117, 1, 148, 128
-0.988493, 177, 265, 304, 328
-0.988511, 201, 89, 264, 152
-0.988518, 393, 205, 456, 236
-0.988521, 193, 209, 224, 336
-0.988526, 1, 313, 128, 375
-0.988546, 161, 1, 224, 375
-0.988579, 417, 209, 480, 240
-0.988614, 41, 1, 104, 375
-0.988632, 233, 241, 296, 368
-0.9888, 353, 313, 480, 375
-0.988802, 209, 17, 272, 144
-0.98881, 289, 273, 352, 336
-0.98886, 257, 145, 288, 272
-0.988901, 401, 1, 432, 128
-0.988915, 233, 157, 296, 188
-0.988921, 69, 1, 100, 128
-0.988928, 337, 13, 400, 44
-0.988931, 417, 197, 480, 228
-0.988977, 321, 49, 352, 176
-0.989012, 369, 17, 432, 48
-0.989027, 145, 33, 176, 160
-0.989053, 265, 185, 328, 216
-0.989054, 305, 189, 368, 220
-0.989071, 33, 57, 96, 88
-0.989082, 105, 25, 168, 56
-0.989149, 161, 33, 192, 160
-0.989166, 297, 13, 360, 44
-0.989168, 361, 201, 424, 232
-0.989173, 325, 225, 356, 352
-0.989234, 49, 233, 176, 296
-0.989237, 417, 1, 448, 128
-0.989239, 65, 37, 128, 68
-0.98924, 249, 21, 312, 52
-0.989312, 93, 49, 124, 176
-0.989357, 153, 113, 216, 144
-0.989403, 437, 193, 468, 320
-0.989455, 1, 1, 64, 375
-0.989465, 337, 197, 400, 228
-0.989491, 177, 125, 240, 156
-0.989496, 161, 113, 416, 176
-0.989572, 417, 17, 480, 48
-0.989575, 105, 37, 168, 68
-0.989591, 273, 273, 400, 336
-0.989608, 265, 173, 328, 204
-0.989643, 329, 137, 392, 168
-0.989694, 121, 245, 184, 276
-0.989755, 185, 33, 248, 288
-0.989776, 393, 17, 456, 48
-0.989781, 145, 245, 208, 276
-0.989785, 129, 57, 256, 120
-0.98982, 233, 121, 296, 152
-0.989862, 161, 209, 224, 240
-0.989867, 257, 273, 320, 336
-0.989902, 129, 177, 384, 240
-0.989931, 225, 265, 352, 328
-0.989993, 409, 273, 472, 336
-0.990065, 181, 241, 212, 368
-0.990072, 129, 217, 384, 280
-0.990085, 89, 9, 152, 40
-0.990101, 233, 137, 296, 168
-0.990136, 329, 121, 392, 152
-0.990152, 337, 121, 464, 184
-0.99016, 185, 173, 248, 204
-0.990162, 121, 97, 184, 352
-0.990177, 273, 25, 336, 56
-0.990212, 81, 21, 144, 52
-0.990252, 273, 197, 336, 228
-0.990262, 245, 65, 276, 192
-0.99029, 65, 289, 128, 320
-0.990302, 17, 45, 80, 76
-0.990312, 17, 69, 80, 100
-0.990321, 233, 169, 296, 200
-0.990334, 369, 257, 496, 320
-0.990344, 121, 289, 184, 320
-0.990356, 105, 193, 168, 320
-0.990418, 185, 153, 248, 184
-0.99043, 225, 201, 480, 264
-0.990454, 433, 33, 496, 64
-0.990456, 289, 229, 352, 260
-0.990499, 129, 229, 192, 260
-0.990546, 25, 281, 88, 344
-0.99056, 305, 201, 368, 232
-0.99058, 329, 25, 392, 56
-0.990593, 209, 169, 272, 200
-0.990596, 241, 181, 304, 212
-0.990626, 329, 101, 392, 132
-0.990661, 297, 113, 328, 240
-0.990666, 121, 257, 184, 288
-0.990679, 137, 101, 200, 132
-0.990708, 305, 25, 368, 56
-0.990727, 129, 145, 384, 208
-0.990732, 161, 165, 224, 196
-0.990743, 85, 241, 116, 368
-0.990743, 65, 53, 128, 84
-0.990755, 169, 129, 200, 256
-0.99077, 137, 213, 200, 244
-0.990802, 9, 1, 72, 32
-0.990816, 445, 1, 476, 128
-0.990836, 57, 25, 120, 56
-0.990838, 393, 217, 456, 248
-0.990865, 353, 133, 416, 164
-0.990895, 145, 89, 208, 120
-0.990896, 425, 289, 488, 320
-0.990926, 425, 221, 488, 252
-0.990942, 177, 113, 240, 144
-0.990945, 385, 29, 448, 60
-0.990967, 337, 209, 368, 336
-0.990998, 249, 33, 312, 64
-0.991002, 209, 273, 272, 336
-0.991008, 429, 1, 460, 128
-0.991023, 17, 265, 144, 328
-0.99104, 201, 125, 264, 156
-0.991057, 289, 165, 352, 196
-0.991061, 233, 9, 296, 40
-0.991076, 417, 181, 480, 212
-0.991098, 1, 9, 500, 72
-0.991102, 385, 237, 448, 268
-0.991127, 321, 217, 384, 248
-0.991143, 313, 165, 376, 196
-0.991145, 309, 1, 340, 128
-0.991166, 313, 85, 376, 116
-0.99118, 161, 101, 224, 132
-0.991181, 41, 41, 104, 72
-0.991182, 41, 321, 104, 352
-0.991192, 49, 301, 112, 332
-0.991212, 369, 213, 432, 244
-0.991225, 1, 273, 64, 336
-0.991229, 241, 253, 304, 284
-0.991244, 445, 145, 476, 272
-0.991252, 177, 221, 240, 252
-0.991253, 1, 313, 64, 344
-0.99126, 45, 49, 76, 176
-0.991266, 249, 45, 312, 76
-0.991272, 185, 137, 248, 168
-0.991273, 353, 29, 416, 60
-0.991283, 345, 249, 408, 280
-0.991286, 9, 57, 72, 88
-0.991289, 185, 209, 248, 240
-0.991295, 257, 145, 500, 208
-0.991299, 321, 257, 384, 288
-0.991302, 89, 297, 152, 328
-0.991312, 105, 49, 168, 80
-0.99134, 353, 225, 416, 256
-0.991343, 409, 29, 472, 60
-0.991363, 305, 241, 368, 272
-0.991376, 129, 337, 192, 368
-0.991394, 281, 97, 312, 224
-0.991395, 265, 161, 328, 192
-0.991414, 9, 333, 72, 364
-0.991421, 305, 121, 368, 152
-0.991422, 145, 1, 208, 256
-0.991429, 129, 57, 384, 120
-0.991481, 161, 257, 224, 288
-0.991527, 145, 153, 208, 184
-0.991532, 353, 117, 416, 148
-0.991539, 233, 109, 296, 140
-0.991544, 425, 301, 488, 332
-0.991569, 265, 209, 328, 240
-0.991573, 329, 229, 392, 260
-0.991591, 425, 241, 488, 272
-0.99163, 1, 41, 256, 104
-0.991651, 153, 277, 216, 308
-0.991654, 337, 149, 400, 180
-0.991659, 249, 57, 312, 88
-0.991673, 201, 113, 264, 144
-0.99168, 81, 129, 208, 192
-0.991712, 233, 213, 296, 244
-0.991719, 25, 29, 88, 60
-0.991751, 209, 217, 272, 248
-0.991762, 41, 5, 104, 36
-0.991764, 433, 133, 496, 164
-0.991771, 409, 341, 472, 372
-0.991786, 257, 105, 320, 136
-0.991788, 329, 73, 392, 104
-0.991812, 289, 213, 352, 244
-0.991818, 1, 29, 64, 60
-0.991824, 153, 233, 216, 264
-0.991826, 289, 261, 352, 292
-0.991826, 97, 245, 160, 276
-0.991832, 281, 249, 344, 280
-0.99184, 145, 289, 208, 320
-0.991842, 41, 69, 104, 100
-0.991843, 177, 1, 304, 64
-0.991848, 145, 65, 208, 96
-0.99188, 353, 189, 480, 220
-0.991904, 257, 177, 384, 208
-0.991929, 129, 89, 384, 152
-0.991963, 97, 1, 160, 256
-0.992031, 401, 189, 432, 220
-0.992043, 97, 17, 352, 80
-0.99208, 265, 9, 296, 40
-0.992155, 405, 129, 436, 256
-0.992194, 169, 97, 200, 128
-0.992212, 381, 189, 412, 220
-0.992213, 433, 241, 464, 368
-0.992215, 1, 313, 256, 375
-0.992238, 329, 177, 360, 208
-0.992246, 277, 181, 308, 212
-0.992264, 301, 173, 332, 204
-0.992267, 65, 49, 96, 176
-0.99227, 349, 181, 380, 212
-0.992297, 361, 185, 392, 216
-0.992298, 1, 65, 256, 128
-0.992314, 357, 137, 388, 168
-0.992321, 65, 53, 96, 84
-0.992361, 333, 13, 364, 44
-0.992362, 425, 197, 456, 228
-0.992369, 445, 201, 476, 232
-0.992383, 297, 185, 328, 216
-0.992391, 281, 169, 312, 200
-0.992403, 321, 1, 384, 256
-0.992403, 313, 189, 344, 220
-0.992403, 225, 169, 256, 200
-0.992404, 445, 213, 476, 244
-0.992405, 393, 17, 424, 48
-0.992412, 413, 189, 444, 220
-0.992413, 157, 85, 188, 116
-0.992423, 401, 201, 432, 232
-0.992433, 313, 13, 344, 44
-0.992435, 469, 141, 500, 172
-0.992437, 345, 13, 376, 44
-0.992439, 289, 9, 320, 40
-0.992446, 313, 177, 344, 208
-0.992457, 21, 1, 52, 32
-0.992476, 361, 89, 392, 120
-0.992484, 357, 13, 388, 44
-0.992485, 33, 49, 64, 176
-0.992485, 405, 17, 436, 48
-0.992497, 381, 17, 412, 48
-0.9925, 277, 9, 308, 40
-0.992503, 425, 209, 456, 240
-0.992506, 357, 117, 388, 148
-0.992509, 177, 65, 304, 128
-0.992518, 301, 13, 332, 44
-0.992537, 369, 13, 400, 44
-0.992566, 129, 21, 160, 52
-0.992567, 153, 245, 184, 276
-0.992568, 365, 197, 396, 228
-0.992582, 389, 201, 420, 232
-0.992591, 333, 189, 364, 220
-0.992597, 313, 225, 344, 256
-0.992599, 173, 213, 204, 244
-0.9926, 261, 25, 292, 56
-0.9926, 357, 105, 388, 136
-0.99261, 417, 17, 448, 48
-0.992614, 21, 65, 52, 96
-0.992628, 469, 169, 500, 200
-0.992631, 377, 201, 408, 232
-0.992632, 53, 57, 84, 88
-0.99264, 465, 181, 496, 212
-0.992641, 273, 21, 304, 52
-0.992645, 121, 245, 152, 276
-0.992651, 177, 113, 208, 144
-0.992658, 349, 197, 380, 228
-0.992671, 193, 65, 224, 192
-0.992677, 345, 137, 376, 168
-0.992684, 333, 81, 364, 112
-0.992685, 245, 121, 276, 152
-0.992695, 429, 17, 460, 48
-0.992711, 413, 205, 444, 236
-0.992712, 361, 77, 392, 108
-0.992719, 457, 193, 488, 224
-0.992722, 189, 165, 220, 196
-0.992723, 261, 105, 292, 136
-0.992725, 289, 197, 416, 228
-0.992725, 229, 81, 260, 208
-0.992734, 77, 285, 108, 316
-0.992735, 33, 65, 64, 96
-0.992736, 257, 225, 500, 288
-0.992737, 13, 49, 44, 176
-0.992737, 341, 121, 372, 152
-0.992745, 465, 209, 496, 240
-0.992751, 37, 325, 68, 356
-0.992761, 469, 129, 500, 160
-0.992761, 273, 13, 400, 44
-0.992761, 465, 21, 496, 52
-0.992762, 97, 289, 128, 320
-0.992775, 201, 121, 232, 152
-0.992778, 469, 153, 500, 184
-0.992783, 165, 237, 196, 268
-0.992805, 169, 249, 200, 280
-0.992811, 77, 45, 108, 76
-0.992813, 93, 37, 124, 68
-0.992814, 245, 137, 276, 168
-0.992815, 257, 117, 288, 148
-0.992816, 1, 209, 500, 272
-0.992818, 141, 241, 172, 272
-0.992826, 277, 193, 308, 224
-0.992834, 373, 177, 404, 208
-0.992837, 153, 209, 184, 240
-0.992837, 189, 109, 220, 140
-0.992841, 329, 137, 360, 168
-0.992843, 97, 21, 128, 52
-0.992845, 337, 49, 400, 176
-0.992851, 193, 209, 224, 240
-0.992857, 201, 177, 232, 208
-0.992858, 233, 137, 264, 168
-0.992865, 245, 157, 276, 188
-0.992867, 373, 85, 404, 116
-0.992882, 441, 17, 472, 48
-0.992886, 53, 41, 84, 72
-0.99289, 469, 221, 500, 252
-0.992895, 145, 285, 176, 316
-0.992895, 437, 189, 468, 220
-0.992896, 281, 65, 344, 192
-0.992898, 317, 121, 348, 152
-0.992899, 465, 37, 496, 68
-0.9929, 453, 21, 484, 52
-0.992902, 341, 25, 372, 56
-0.992904, 117, 5, 148, 36
-0.992914, 257, 177, 288, 208
-0.992915, 177, 157, 208, 188
-0.992917, 157, 73, 188, 104
-0.992918, 261, 37, 292, 68
-0.992921, 349, 93, 380, 124
-0.992922, 305, 181, 432, 212
-0.992924, 93, 301, 124, 332
-0.992924, 161, 109, 192, 140
-0.992925, 189, 129, 220, 160
-0.992936, 353, 25, 384, 56
-0.992936, 1, 65, 32, 96
-0.992939, 345, 73, 376, 104
-0.99294, 133, 253, 164, 284
-0.992941, 261, 89, 292, 120
-0.992944, 41, 53, 72, 84
-0.992945, 193, 1, 256, 375
-0.992949, 21, 49, 52, 80
-0.992959, 113, 25, 144, 56
-0.99296, 157, 97, 188, 128
-0.992966, 261, 77, 292, 108
-0.992967, 153, 53, 184, 84
-0.992969, 397, 237, 428, 268
-0.992975, 313, 25, 344, 56
-0.992979, 173, 125, 204, 156
-0.992982, 333, 201, 364, 232
-0.992987, 21, 77, 52, 108
-0.992989, 157, 265, 188, 296
-0.992991, 375, 73, 390, 136
-0.992995, 81, 297, 112, 328
-0.993013, 305, 305, 432, 368
-0.993039, 65, 33, 192, 64
-0.993102, 193, 165, 320, 196
-0.993105, 409, 33, 472, 288
-0.993183, 49, 209, 176, 272
-0.993199, 145, 33, 272, 96
-0.993201, 373, 145, 388, 208
-0.993234, 257, 97, 500, 160
-0.993237, 1, 81, 128, 144
-0.993279, 81, 185, 208, 248
-0.993335, 65, 49, 192, 80
-0.993359, 33, 105, 288, 168
-0.993382, 337, 17, 464, 48
-0.993484, 1, 45, 128, 76
-0.993551, 417, 129, 448, 256
-0.993601, 225, 249, 480, 312
-0.993666, 177, 121, 304, 152
-0.993697, 421, 185, 436, 248
-0.993771, 1, 177, 500, 240
-0.993792, 193, 25, 320, 88
-0.993804, 249, 121, 264, 184
-0.993817, 353, 209, 480, 240
-0.993829, 295, 161, 310, 224
-0.99386, 273, 117, 400, 148
-0.993867, 257, 73, 500, 136
-0.993884, 373, 121, 388, 184
-0.993895, 129, 257, 384, 320
-0.993962, 173, 89, 188, 152
-0.99398, 273, 141, 400, 172
-0.994035, 265, 1, 280, 64
-0.994039, 1, 249, 500, 312
-0.994067, 367, 97, 382, 160
-0.994074, 373, 185, 388, 248
-0.994077, 257, 121, 500, 184
-0.994106, 177, 49, 208, 176
-0.994161, 1, 33, 500, 96
-0.994199, 285, 161, 300, 224
-0.994207, 193, 153, 320, 184
-0.994254, 65, 61, 192, 92
-0.994256, 65, 193, 128, 320
-0.99432, 485, 153, 500, 216
-0.994337, 167, 225, 182, 288
-0.994364, 179, 97, 194, 160
-0.994377, 1, 17, 256, 80
-0.994408, 385, 1, 448, 256
-0.994414, 369, 237, 496, 268
-0.994461, 355, 9, 370, 72
-0.994467, 253, 241, 284, 368
-0.994502, 273, 129, 400, 160
-0.994513, 397, 9, 412, 72
-0.994539, 483, 177, 498, 240
-0.99454, 177, 137, 304, 168
-0.994555, 49, 21, 176, 52
-0.994555, 1, 29, 128, 60
-0.994564, 411, 193, 426, 256
-0.994586, 283, 1, 298, 64
-0.994593, 365, 145, 380, 208
-0.994595, 317, 161, 332, 224
-0.994601, 405, 9, 420, 72
-0.994632, 403, 185, 418, 248
-0.994641, 369, 33, 496, 64
-0.994641, 1, 289, 256, 352
-0.994683, 373, 97, 388, 160
-0.994686, 301, 225, 332, 352
-0.994688, 27, 41, 42, 104
-0.994689, 317, 1, 332, 64
-0.994689, 391, 9, 406, 72
-0.994717, 193, 313, 320, 375
-0.994723, 303, 1, 318, 64
-0.994756, 241, 189, 368, 220
-0.994765, 297, 1, 312, 64
-0.994773, 33, 153, 288, 216
-0.994774, 225, 125, 352, 156
-0.994788, 29, 241, 60, 368
-0.994795, 257, 25, 384, 56
-0.994805, 1, 1, 128, 32
-0.994823, 311, 1, 326, 64
-0.994855, 447, 185, 462, 248
-0.994861, 41, 241, 72, 368
-0.994874, 129, 145, 192, 272
-0.994876, 177, 177, 304, 208
-0.994892, 129, 157, 256, 188
-0.994908, 429, 129, 460, 256
-0.994911, 477, 17, 492, 80
-0.99492, 161, 105, 288, 136
-0.994924, 347, 177, 362, 240
-0.99493, 411, 9, 426, 72
-0.994935, 369, 9, 384, 72
-0.994941, 361, 9, 376, 72
-0.994956, 161, 249, 176, 312
-0.994972, 289, 1, 304, 64
-0.994974, 375, 9, 390, 72
-0.994977, 373, 233, 388, 296
-0.994977, 345, 9, 360, 72
-0.994978, 301, 161, 316, 224
-0.994983, 337, 9, 352, 72
-0.994985, 277, 49, 308, 176
-0.994985, 43, 313, 58, 375
-0.994987, 385, 9, 400, 72
-0.99499, 325, 169, 340, 232
-0.994994, 347, 137, 362, 200
-0.995007, 461, 193, 476, 256
-0.995019, 49, 289, 176, 320
-0.995022, 1, 273, 500, 336
-0.995038, 99, 281, 114, 344
-0.995041, 79, 25, 94, 88
-0.995058, 63, 49, 78, 112
-0.995061, 17, 57, 144, 88
-0.995075, 379, 185, 394, 248
-0.995091, 471, 161, 486, 224
-0.995101, 353, 105, 368, 168
-0.995109, 247, 145, 262, 208
-0.995131, 331, 1, 346, 64
-0.995155, 201, 169, 216, 232
-0.995155, 33, 241, 288, 304
-0.995162, 325, 1, 340, 64
-0.995168, 195, 105, 210, 168
-0.995171, 179, 233, 194, 296
-0.995179, 355, 65, 370, 128
-0.995185, 129, 121, 256, 152
-0.995198, 357, 177, 372, 240
-0.995218, 321, 29, 448, 60
-0.995228, 277, 1, 292, 64
-0.99523, 167, 65, 182, 128
-0.995238, 279, 161, 294, 224
-0.995251, 225, 65, 352, 128
-0.995273, 225, 13, 352, 44
-0.995278, 207, 177, 222, 240
-0.995289, 225, 273, 480, 336
-0.995289, 93, 281, 108, 344
-0.995293, 173, 209, 188, 272
-0.995307, 165, 113, 180, 176
-0.995314, 257, 33, 500, 96
-0.995324, 417, 9, 432, 72
-0.995325, 1, 69, 128, 100
-0.995331, 331, 177, 346, 240
-0.995338, 439, 185, 454, 248
-0.99534, 33, 129, 288, 192
-0.995344, 81, 153, 208, 216
-0.995352, 229, 145, 244, 208
-0.995357, 281, 193, 312, 320
-0.995361, 441, 17, 456, 80
-0.995375, 401, 241, 432, 368
-0.995398, 475, 137, 490, 200
-0.995398, 107, 25, 122, 88
-0.9954, 217, 169, 232, 232
-0.995411, 393, 177, 408, 240
-0.995418, 369, 225, 496, 256
-0.995419, 309, 177, 324, 240
-0.995445, 73, 33, 88, 96
-0.995454, 143, 17, 158, 80
-0.995464, 433, 17, 448, 80
-0.995472, 427, 185, 442, 248
-0.995502, 367, 73, 382, 136
-0.995505, 191, 153, 206, 216
-0.995524, 353, 129, 368, 192
-0.99553, 125, 241, 140, 304
-0.995556, 245, 97, 276, 352
-0.99556, 289, 241, 416, 272
-0.995568, 447, 17, 462, 80
-0.995568, 235, 169, 250, 232
-0.99557, 33, 41, 48, 104
-0.99557, 367, 177, 382, 240
-0.995598, 129, 237, 256, 268
-0.995601, 131, 1, 146, 64
-0.995604, 341, 209, 356, 272
-0.995605, 259, 105, 274, 168
-0.995637, 367, 249, 382, 312
-0.995653, 361, 97, 376, 160
-0.995667, 113, 1, 128, 64
-0.995668, 129, 145, 256, 176
-0.995673, 337, 73, 352, 136
-0.995674, 479, 113, 494, 176
-0.99569, 159, 89, 174, 152
-0.995692, 337, 169, 352, 232
-0.995694, 129, 313, 384, 375
-0.995697, 237, 145, 252, 208
-0.9957, 425, 9, 440, 72
-0.995715, 433, 185, 448, 248
-0.995717, 17, 193, 144, 320
-0.995729, 369, 173, 496, 204
-0.995733, 367, 121, 382, 184
-0.995737, 179, 201, 194, 264
-0.995752, 241, 165, 368, 196
-0.995758, 97, 225, 128, 352
-0.995774, 121, 1, 136, 64
-0.995786, 155, 265, 170, 328
-0.995788, 305, 221, 432, 252
-0.995795, 183, 121, 198, 184
-0.995806, 333, 201, 348, 264
-0.99581, 411, 217, 426, 280
-0.995812, 1, 13, 128, 44
-0.995814, 51, 49, 66, 112
-0.995817, 277, 1, 308, 256
-0.995817, 463, 17, 478, 80
-0.995829, 455, 17, 470, 80
-0.995833, 1, 57, 500, 120
-0.995837, 401, 233, 416, 296
-0.995843, 367, 201, 382, 264
-0.995844, 145, 249, 272, 280
-0.995847, 471, 17, 486, 80
-0.99585, 273, 101, 400, 132
-0.995862, 399, 209, 414, 272
-0.995871, 271, 1, 286, 64
-0.995877, 303, 185, 318, 248
-0.995885, 1, 217, 256, 280
-0.995887, 361, 73, 376, 136
-0.995889, 273, 89, 400, 120
-0.995898, 449, 97, 480, 224
-0.995899, 261, 33, 292, 288
-0.9959, 379, 105, 394, 168
-0.995928, 161, 209, 176, 272
-0.995929, 43, 49, 58, 112
-0.995933, 85, 25, 100, 88
-0.99594, 379, 145, 394, 208
-0.995941, 17, 41, 32, 104
-0.995955, 483, 81, 498, 144
-0.995978, 285, 185, 300, 248
-0.995995, 91, 25, 106, 88
-0.996049, 305, 209, 432, 240
-0.99606, 241, 201, 368, 232
-0.996064, 225, 113, 352, 144
-0.996066, 453, 241, 484, 368
-0.996071, 9, 241, 40, 368
-0.996079, 129, 213, 256, 244
-0.996099, 97, 341, 224, 372
-0.996112, 97, 105, 224, 136
-0.99617, 273, 77, 400, 108
-0.996192, 469, 97, 500, 352
-0.996213, 225, 137, 352, 168
-0.996214, 257, 313, 384, 375
-0.99627, 177, 193, 304, 224
-0.996272, 1, 153, 500, 216
-0.996281, 65, 301, 192, 332
-0.996285, 129, 173, 256, 204
-0.996297, 225, 213, 352, 244
-0.996318, 97, 285, 224, 316
-0.996373, 337, 129, 464, 160
-0.996377, 281, 241, 312, 368
-0.996377, 129, 133, 256, 164
-0.996378, 209, 249, 336, 280
-0.996425, 97, 249, 224, 280
-0.996428, 33, 177, 288, 240
-0.996431, 33, 265, 288, 328
-0.996448, 169, 65, 200, 320
-0.996451, 65, 321, 192, 352
-0.996503, 289, 253, 416, 284
-0.996506, 49, 89, 176, 152
-0.996528, 1, 289, 128, 320
-0.99657, 269, 241, 300, 368
-0.996639, 371, 141, 386, 172
-0.996653, 241, 241, 272, 368
-0.99666, 49, 9, 176, 40
-0.996668, 257, 1, 384, 32
-0.996675, 81, 93, 208, 124
-0.996683, 241, 237, 368, 268
-0.99669, 273, 129, 304, 375
-0.996703, 81, 237, 208, 268
-0.996738, 1, 1, 32, 256
-0.996766, 273, 153, 400, 184
-0.996797, 375, 77, 390, 108
-0.9968, 321, 277, 448, 308
-0.996824, 321, 81, 448, 112
-0.996858, 61, 241, 92, 368
-0.996883, 1, 129, 500, 192
-0.996884, 1, 333, 128, 364
-0.996886, 297, 1, 328, 256
-0.996887, 141, 81, 172, 208
-0.996921, 321, 105, 448, 136
-0.996948, 367, 185, 382, 216
-0.996951, 225, 101, 352, 132
-0.996952, 369, 249, 496, 280
-0.996958, 229, 129, 260, 375
-0.996963, 375, 89, 390, 120
-0.997002, 157, 97, 188, 352
-0.99701, 357, 181, 372, 212
-0.997016, 163, 85, 178, 116
-0.997016, 353, 137, 368, 168
-0.997042, 279, 181, 294, 212
-0.99707, 323, 177, 338, 208
-0.997104, 411, 189, 426, 220
-0.997121, 179, 101, 194, 132
-0.997125, 241, 17, 272, 144
-0.997126, 97, 21, 224, 52
-0.997128, 393, 189, 408, 220
-0.997152, 65, 225, 192, 256
-0.997164, 401, 189, 416, 220
-0.997175, 313, 1, 344, 256
-0.997177, 411, 201, 426, 232
-0.997183, 313, 129, 344, 375
-0.997191, 145, 281, 272, 312
-0.997202, 139, 17, 154, 48
-0.997203, 333, 13, 348, 44
-0.997205, 161, 93, 288, 124
-0.997211, 387, 185, 402, 216
-0.997212, 295, 173, 310, 204
-0.997213, 313, 173, 328, 204
-0.997219, 417, 189, 432, 220
-0.997222, 425, 193, 440, 224
-0.997239, 369, 85, 496, 116
-0.997247, 81, 81, 208, 112
-0.997248, 337, 177, 352, 208
-0.997264, 293, 129, 324, 375
-0.997266, 439, 193, 454, 224
-0.997283, 311, 185, 326, 216
-0.997299, 339, 13, 354, 44
-0.997301, 347, 13, 362, 44
-0.997303, 347, 181, 362, 212
-0.997305, 13, 1, 44, 256
-0.997314, 189, 129, 220, 375
-0.997317, 123, 245, 138, 276
-0.997323, 365, 65, 396, 320
-0.997327, 321, 5, 448, 36
-0.997328, 337, 261, 464, 292
-0.997337, 455, 193, 470, 224
-0.99734, 195, 161, 210, 192
-0.99734, 327, 13, 342, 44
-0.997343, 407, 17, 422, 48
-0.997345, 287, 169, 302, 200
-0.997353, 367, 85, 382, 116
-0.997365, 377, 185, 392, 216
-0.997365, 331, 177, 346, 208
-0.997367, 27, 65, 42, 96
-0.997367, 321, 117, 448, 148
-0.997368, 285, 9, 300, 40
-0.997369, 431, 193, 446, 224
-0.997369, 367, 105, 382, 136
-0.997371, 177, 217, 304, 248
-0.997372, 171, 89, 186, 120
-0.997372, 353, 13, 368, 44
-0.997376, 405, 201, 420, 232
-0.997377, 133, 241, 148, 272
-0.997383, 321, 13, 336, 44
-0.997391, 365, 129, 380, 160
-0.997396, 401, 17, 416, 48
-0.997397, 191, 109, 206, 140
-0.997404, 107, 37, 122, 68
-0.997409, 413, 17, 428, 48
-0.99741, 177, 9, 304, 40
-0.997414, 337, 345, 464, 375
-0.997422, 337, 69, 352, 100
-0.997425, 359, 13, 374, 44
-0.99743, 297, 9, 312, 40
-0.997431, 395, 17, 410, 48
-0.997432, 461, 197, 476, 228
-0.997432, 371, 129, 386, 160
-0.997436, 369, 305, 496, 336
-0.997437, 321, 69, 448, 100
-0.997438, 81, 117, 208, 148
-0.997443, 373, 101, 388, 132
-0.997446, 17, 305, 144, 336
-0.997447, 41, 321, 56, 352
-0.997448, 361, 193, 376, 224
-0.99746, 227, 169, 242, 200
-0.997461, 341, 189, 356, 220
-0.99747, 291, 9, 306, 40
-0.99748, 365, 141, 380, 172
-0.997482, 73, 53, 88, 84
-0.997482, 317, 185, 332, 216
-0.997483, 303, 9, 318, 40
-0.997494, 365, 13, 380, 44
-0.997501, 307, 173, 322, 204
-0.997502, 419, 17, 434, 48
-0.997503, 301, 173, 316, 204
-0.997507, 447, 197, 462, 228
-0.997518, 185, 109, 200, 140
-0.997519, 101, 289, 116, 320
-0.997519, 305, 169, 432, 200
-0.997523, 65, 273, 192, 304
-0.997524, 145, 261, 272, 292
-0.997525, 383, 197, 398, 228
-0.997525, 485, 169, 500, 200
-0.997526, 459, 209, 474, 240
-0.997529, 369, 65, 496, 96
-0.997533, 279, 9, 294, 40
-0.997539, 469, 1, 500, 256
-0.99754, 315, 13, 330, 44
-0.997541, 309, 9, 324, 40
-0.997544, 373, 197, 388, 228
-0.997555, 321, 141, 448, 172
-0.997561, 97, 289, 352, 352
-0.997569, 359, 137, 374, 168
-0.997569, 113, 297, 240, 328
-0.997571, 239, 165, 254, 196
-0.997574, 137, 1, 168, 256
-0.997574, 73, 129, 136, 375
-0.997575, 373, 13, 388, 44
-0.997595, 421, 205, 436, 236
-0.997599, 265, 9, 280, 40
-0.997599, 325, 1, 356, 256
-0.997602, 145, 81, 272, 112
-0.997608, 345, 97, 376, 352
-0.99761, 471, 213, 486, 244
-0.997615, 389, 17, 404, 48
-0.997621, 129, 309, 256, 340
-0.997622, 373, 117, 388, 148
-0.997627, 67, 53, 82, 84
-0.997634, 425, 17, 440, 48
-0.997641, 251, 121, 266, 152
-0.997641, 321, 93, 448, 124
-0.997643, 303, 185, 318, 216
-0.99765, 173, 101, 188, 132
-0.997658, 435, 205, 450, 236
-0.997662, 129, 61, 256, 92
-0.997665, 33, 61, 48, 92
-0.997668, 395, 201, 410, 232
-0.997669, 427, 205, 442, 236
-0.997675, 357, 117, 372, 148
-0.997676, 335, 193, 350, 224
-0.997682, 81, 261, 208, 292
-0.997685, 35, 329, 50, 360
-0.997687, 157, 209, 172, 240
-0.997687, 381, 13, 396, 44
-0.997691, 123, 257, 138, 288
-0.997694, 357, 105, 372, 136
-0.997698, 209, 25, 336, 56
-0.997704, 447, 209, 462, 240
-0.997708, 161, 269, 176, 300
-0.997715, 279, 21, 294, 52
-0.99772, 81, 281, 96, 312
-0.997723, 281, 169, 296, 200
-0.997732, 1, 97, 500, 160
-0.997734, 101, 41, 116, 72
-0.997735, 193, 121, 208, 152
-0.997748, 413, 129, 444, 375
-0.997749, 153, 285, 168, 316
-0.997751, 65, 1, 96, 256
-0.997751, 113, 225, 240, 256
-0.997761, 45, 309, 60, 340
-0.997767, 353, 333, 480, 364
-0.997771, 237, 149, 252, 180
-0.997772, 129, 49, 256, 80
-0.997773, 287, 181, 302, 212
-0.997776, 133, 13, 148, 44
-0.99778, 369, 5, 496, 36
-0.997781, 481, 189, 496, 220
-0.997787, 193, 133, 208, 164
-0.997801, 357, 93, 372, 124
-0.997802, 369, 113, 496, 144
-0.99781, 197, 173, 212, 204
-0.997813, 93, 45, 108, 76
-0.997817, 335, 221, 350, 252
-0.997823, 335, 125, 350, 156
-0.997826, 217, 129, 248, 375
-0.997836, 431, 17, 446, 48
-0.997836, 17, 65, 32, 96
-0.997839, 323, 189, 338, 220
-0.997843, 77, 1, 108, 256
-0.997843, 59, 53, 74, 84
-0.997843, 363, 117, 378, 148
-0.997844, 353, 161, 480, 192
-0.997848, 453, 209, 468, 240
-0.997875, 479, 21, 494, 52
-0.997875, 361, 241, 392, 368
-0.997888, 81, 213, 208, 244
-0.997892, 133, 193, 164, 320
-0.997912, 369, 281, 496, 312
-0.997916, 353, 293, 480, 324
-0.99793, 257, 65, 384, 96
-0.99794, 177, 205, 304, 236
-0.997942, 273, 269, 400, 300
-0.997958, 129, 37, 256, 68
-0.997973, 333, 97, 364, 352
-0.997977, 193, 341, 320, 372
-0.99799, 225, 261, 352, 292
-0.997999, 145, 325, 272, 356
-0.998039, 1, 81, 128, 112
-0.998077, 1, 345, 128, 375
-0.99811, 205, 129, 236, 375
-0.99811, 129, 201, 256, 232
-0.998113, 457, 129, 488, 375
-0.998161, 97, 9, 224, 40
-0.998179, 257, 313, 500, 375
-0.998203, 393, 97, 456, 224
-0.998212, 1, 313, 500, 375
-0.99824, 49, 333, 176, 364
-0.99824, 245, 1, 276, 256
-0.998272, 369, 145, 496, 176
-0.998319, 445, 129, 476, 375
-0.998323, 49, 249, 176, 280
-0.998338, 261, 129, 292, 375
-0.998338, 17, 321, 144, 352
-0.998367, 157, 1, 188, 256
-0.998416, 65, 49, 128, 64
-0.998421, 305, 195, 368, 210
-0.998423, 233, 163, 296, 178
-0.998426, 337, 183, 400, 198
-0.998432, 273, 187, 336, 202
-0.998436, 361, 187, 424, 202
-0.998438, 217, 173, 280, 188
-0.998441, 165, 261, 196, 276
-0.998441, 129, 259, 160, 274
-0.998441, 153, 109, 216, 124
-0.998442, 361, 135, 392, 150
-0.998442, 325, 121, 356, 136
-0.998443, 325, 27, 356, 42
-0.998443, 389, 31, 420, 46
-0.998444, 381, 209, 412, 224
-0.998446, 241, 163, 272, 178
-0.998446, 433, 33, 464, 48
-0.998447, 349, 151, 380, 166
-0.998447, 385, 191, 448, 206
-0.998447, 401, 207, 464, 222
-0.998448, 273, 173, 336, 188
-0.998448, 341, 119, 372, 134
-0.998451, 317, 95, 348, 110
-0.998452, 449, 205, 480, 220
-0.998452, 365, 81, 396, 96
-0.998452, 57, 65, 88, 80
-0.998452, 313, 179, 376, 194
-0.998452, 249, 25, 312, 40
-0.998452, 129, 31, 160, 46
-0.998453, 245, 129, 276, 144
-0.998453, 213, 171, 244, 186
-0.998454, 393, 211, 424, 226
-0.998454, 41, 61, 104, 76
-0.998455, 465, 223, 496, 238
-0.998455, 297, 25, 328, 40
-0.998456, 225, 137, 256, 152
-0.998456, 129, 251, 160, 266
-0.998456, 465, 195, 496, 210
-0.998457, 169, 121, 200, 136
-0.998457, 77, 283, 108, 298
-0.998457, 273, 25, 336, 40
-0.998457, 141, 217, 172, 232
-0.998459, 141, 253, 172, 268
-0.998459, 245, 121, 276, 136
-0.998459, 349, 27, 380, 42
-0.998459, 145, 253, 208, 268
-0.99846, 337, 201, 368, 216
-0.998461, 77, 53, 108, 68
-0.998461, 185, 169, 216, 184
-0.998462, 201, 123, 232, 138
-0.998463, 465, 37, 496, 52
-0.998463, 237, 169, 268, 184
-0.998464, 409, 213, 440, 228
-0.998464, 293, 171, 324, 186
-0.998464, 469, 143, 500, 158
-0.998464, 417, 213, 480, 228
-0.998464, 149, 287, 180, 302
-0.998465, 309, 25, 340, 40
-0.998468, 377, 29, 408, 44
-0.998468, 317, 71, 348, 86
-0.998468, 261, 111, 292, 126
-0.998469, 113, 23, 144, 38
-0.99847, 305, 173, 336, 188
-0.99847, 317, 175, 348, 190
-0.99847, 349, 203, 380, 218
-0.998471, 161, 117, 224, 132
-0.998472, 465, 181, 496, 196
-0.998473, 245, 157, 276, 172
-0.998475, 273, 25, 304, 40
-0.998477, 401, 31, 432, 46
-0.998477, 337, 141, 400, 156
-0.998479, 241, 183, 304, 198
-0.99848, 329, 177, 360, 192
-0.998481, 105, 33, 168, 48
-0.998481, 353, 75, 384, 90
-0.998481, 365, 29, 396, 44
-0.998482, 261, 29, 292, 44
-0.998483, 233, 127, 296, 142
-0.998484, 185, 175, 248, 190
-0.998484, 233, 157, 296, 172
-0.998484, 25, 67, 88, 82
-0.998488, 93, 293, 124, 308
-0.998488, 177, 125, 240, 140
-0.998488, 369, 203, 432, 218
-0.998488, 469, 167, 500, 182
-0.99849, 225, 179, 256, 194
-0.998491, 33, 67, 64, 82
-0.998492, 349, 97, 380, 112
-0.998492, 265, 197, 328, 212
-0.998492, 267, 1, 282, 128
-0.998493, 469, 155, 500, 170
-0.998493, 425, 193, 456, 208
-0.998493, 189, 175, 220, 190
-0.998494, 57, 55, 120, 70
-0.998494, 201, 215, 232, 230
-0.998494, 257, 191, 288, 206
-0.998494, 361, 209, 424, 224
-0.998494, 65, 291, 128, 306
-0.998496, 369, 207, 400, 222
-0.998496, 305, 27, 368, 42
-0.998497, 121, 243, 152, 258
-0.998497, 345, 199, 408, 214
-0.998499, 69, 289, 100, 304
-0.998499, 261, 17, 292, 32
-0.998499, 325, 137, 356, 152
-0.9985, 261, 11, 292, 26
-0.998501, 465, 189, 496, 204
-0.998502, 337, 27, 368, 42
-0.998505, 329, 97, 392, 112
-0.998505, 45, 57, 76, 72
-0.998506, 317, 115, 348, 130
-0.998506, 201, 177, 232, 192
-0.998506, 341, 179, 372, 194
-0.998508, 337, 73, 368, 88
-0.998508, 261, 117, 292, 132
-0.998508, 357, 121, 388, 136
-0.998509, 433, 35, 496, 50
-0.998509, 189, 117, 220, 132
-0.998511, 369, 31, 432, 46
-0.998511, 337, 29, 400, 44
-0.998512, 21, 65, 52, 80
-0.998512, 105, 53, 168, 68
-0.998513, 65, 43, 128, 58
-0.998513, 177, 137, 240, 152
-0.998514, 113, 261, 176, 276
-0.998516, 105, 25, 168, 40
-0.998517, 445, 195, 476, 210
-0.998518, 21, 77, 52, 92
-0.998519, 161, 171, 224, 186
-0.99852, 57, 51, 88, 66
-0.99852, 353, 181, 384, 196
-0.998523, 153, 213, 216, 228
-0.998525, 9, 1, 72, 16
-0.998525, 201, 131, 264, 146
-0.998525, 157, 87, 188, 102
-0.998525, 113, 243, 176, 258
-0.998526, 69, 59, 100, 74
-0.998527, 413, 191, 444, 206
-0.998527, 257, 11, 320, 26
-0.998528, 25, 47, 88, 62
-0.998528, 437, 211, 468, 226
-0.998528, 401, 33, 464, 48
-0.998529, 393, 215, 456, 230
-0.998529, 297, 189, 360, 204
-0.99853, 233, 137, 296, 152
-0.99853, 417, 193, 480, 208
-0.998531, 177, 113, 208, 128
-0.998531, 337, 205, 400, 220
-0.998532, 329, 121, 392, 136
-0.998532, 141, 243, 172, 258
-0.998533, 241, 169, 304, 184
-0.998535, 261, 23, 292, 38
-0.998535, 25, 3, 56, 18
-0.998536, 145, 247, 208, 262
-0.998537, 153, 251, 184, 266
-0.998538, 233, 121, 296, 136
-0.998538, 421, 215, 452, 230
-0.998539, 313, 227, 344, 242
-0.998539, 381, 185, 412, 200
-0.998539, 93, 47, 124, 62
-0.998541, 193, 167, 256, 182
-0.998542, 25, 1, 56, 256
-0.998542, 365, 183, 396, 198
-0.998543, 249, 19, 312, 34
-0.998543, 433, 129, 464, 375
-0.998543, 17, 59, 80, 74
-0.998544, 285, 185, 316, 200
-0.998545, 297, 193, 328, 208
-0.998545, 401, 189, 432, 204
-0.998547, 213, 177, 244, 192
-0.998547, 329, 193, 360, 208
-0.998548, 137, 241, 200, 256
-0.99855, 433, 219, 496, 234
-0.998551, 305, 201, 368, 216
-0.998552, 233, 151, 296, 166
-0.998552, 97, 41, 160, 56
-0.998552, 49, 37, 112, 52
-0.998553, 201, 125, 264, 140
-0.998553, 1, 69, 64, 84
-0.998555, 401, 221, 464, 236
-0.998556, 341, 195, 372, 210
-0.998557, 185, 215, 248, 230
-0.998558, 425, 209, 456, 224
-0.998559, 329, 193, 392, 208
-0.998559, 129, 25, 160, 40
-0.99856, 113, 255, 176, 270
-0.998562, 393, 197, 456, 212
-0.998564, 153, 263, 216, 278
-0.998565, 321, 225, 384, 240
-0.998565, 417, 201, 480, 216
-0.998566, 49, 301, 112, 316
-0.998567, 261, 185, 292, 200
-0.998567, 337, 147, 400, 162
-0.998568, 81, 291, 112, 306
-0.998568, 25, 41, 88, 56
-0.998569, 249, 31, 312, 46
-0.998569, 153, 103, 216, 118
-0.998569, 297, 173, 360, 188
-0.99857, 417, 187, 480, 202
-0.99857, 65, 31, 128, 46
-0.99857, 81, 23, 144, 38
-0.998571, 469, 149, 500, 164
-0.998572, 313, 139, 376, 154
-0.998574, 337, 135, 400, 150
-0.998574, 233, 143, 296, 158
-0.998574, 449, 213, 480, 228
-0.998575, 145, 91, 208, 106
-0.998575, 249, 37, 312, 52
-0.998578, 329, 75, 392, 90
-0.998578, 9, 331, 72, 346
-0.998578, 257, 269, 320, 284
-0.998579, 145, 149, 208, 164
-0.998579, 341, 139, 372, 154
-0.998579, 265, 181, 328, 196
-0.99858, 153, 219, 216, 234
-0.998582, 345, 251, 408, 266
-0.998582, 393, 203, 424, 218
-0.998582, 153, 97, 216, 112
-0.998582, 17, 77, 80, 92
-0.998582, 361, 217, 424, 232
-0.998583, 353, 197, 384, 212
-0.998583, 289, 229, 352, 244
-0.998584, 265, 167, 328, 182
-0.998585, 165, 101, 196, 116
-0.998585, 25, 53, 88, 68
-0.998585, 377, 201, 408, 216
-0.998586, 157, 93, 188, 108
-0.998586, 385, 241, 448, 256
-0.998586, 105, 47, 168, 62
-0.998586, 121, 293, 184, 308
-0.998587, 249, 191, 312, 206
-0.998588, 265, 209, 328, 224
-0.998588, 361, 99, 392, 114
-0.99859, 313, 197, 344, 212
-0.99859, 49, 323, 112, 338
-0.99859, 113, 299, 176, 314
-0.998591, 313, 255, 376, 270
-0.998591, 73, 299, 136, 314
-0.998592, 137, 115, 200, 130
-0.998592, 317, 191, 348, 206
-0.998592, 89, 347, 152, 362
-0.998592, 185, 161, 248, 176
-0.998593, 361, 229, 424, 244
-0.998593, 177, 221, 240, 236
-0.998594, 249, 43, 312, 58
-0.998594, 89, 9, 152, 24
-0.998595, 369, 197, 432, 212
-0.998595, 209, 217, 272, 232
-0.998596, 425, 301, 488, 316
-0.998597, 145, 155, 208, 170
-0.998597, 193, 181, 256, 196
-0.998597, 425, 307, 488, 322
-0.998598, 177, 143, 240, 158
-0.998599, 105, 19, 168, 34
-0.998599, 41, 7, 104, 22
-0.9986, 277, 193, 308, 208
-0.998602, 297, 187, 328, 202
-0.998602, 413, 207, 444, 222
-0.99861, 273, 183, 304, 198
-0.998613, 365, 199, 396, 214
-0.998638, 225, 171, 256, 186
-0.998654, 361, 143, 392, 158
-0.998656, 165, 107, 196, 122
-0.998666, 247, 113, 262, 240
-0.998676, 227, 161, 242, 288
-0.998679, 373, 65, 388, 192
-0.998691, 221, 161, 236, 288
-0.998702, 335, 113, 350, 240
-0.998726, 53, 1, 84, 256
-0.998735, 389, 129, 420, 375
-0.998738, 39, 1, 54, 128
-0.998753, 471, 129, 486, 256
-0.998811, 89, 1, 120, 256
-0.998818, 235, 161, 250, 288
-0.998826, 353, 1, 384, 256
-0.998836, 109, 1, 124, 128
-0.998837, 319, 161, 334, 288
-0.998837, 207, 161, 222, 288
-0.998839, 407, 177, 422, 304
-0.998839, 453, 1, 484, 256
-0.998842, 197, 161, 212, 288
-0.998845, 215, 161, 230, 288
-0.99885, 399, 177, 414, 304
-0.998851, 485, 1, 500, 128
-0.998863, 481, 65, 496, 192
-0.998865, 159, 241, 174, 368
-0.998866, 345, 97, 360, 224
-0.998867, 385, 193, 400, 320
-0.99887, 93, 1, 108, 128
-0.998875, 485, 145, 500, 272
-0.998877, 193, 113, 208, 240
-0.998877, 37, 1, 68, 256
-0.998899, 99, 1, 114, 128
-0.998899, 475, 1, 490, 128
-0.998908, 241, 129, 256, 256
-0.998913, 401, 129, 432, 375
-0.998917, 145, 97, 176, 352
-0.998924, 367, 81, 382, 208
-0.998928, 355, 81, 370, 208
-0.99893, 313, 161, 328, 288
-0.998953, 257, 97, 272, 224
-0.998964, 329, 113, 344, 240
-0.99897, 365, 33, 380, 160
-0.998973, 281, 1, 296, 128
-0.998981, 393, 161, 408, 288
-0.998982, 335, 33, 350, 160
-0.998984, 327, 161, 342, 288
-0.998988, 23, 1, 38, 128
-0.998994, 335, 161, 350, 288
-0.998996, 191, 161, 206, 288
-0.998999, 375, 113, 390, 240
-0.999002, 181, 193, 196, 320
-0.999009, 33, 1, 48, 128
-0.999021, 375, 17, 390, 144
-0.999026, 171, 65, 186, 192
-0.999029, 361, 81, 376, 208
-0.999032, 477, 193, 492, 320
-0.999038, 381, 145, 396, 272
-0.999038, 165, 241, 180, 368
-0.999041, 413, 177, 428, 304
-0.999043, 187, 113, 202, 240
-0.999049, 165, 49, 180, 176
-0.999054, 337, 1, 368, 256
-0.99906, 379, 193, 394, 320
-0.99907, 341, 161, 356, 288
-0.999075, 209, 113, 224, 240
-0.999104, 355, 33, 370, 160
-0.99911, 229, 113, 244, 240
-0.999114, 377, 97, 408, 352
-0.999116, 153, 49, 168, 176
-0.999116, 381, 81, 396, 208
-0.999118, 181, 33, 212, 288
-0.99912, 347, 161, 362, 288
-0.999121, 141, 1, 156, 128
-0.999121, 465, 193, 480, 320
-0.999124, 55, 1, 70, 128
-0.999124, 3, 33, 18, 160
-0.999124, 485, 209, 500, 336
-0.999125, 373, 193, 388, 320
-0.999125, 159, 81, 174, 208
-0.99913, 191, 209, 206, 336
-0.99913, 475, 81, 490, 208
-0.999138, 225, 289, 352, 352
-0.99914, 241, 177, 256, 304
-0.999143, 247, 161, 262, 288
-0.999146, 181, 81, 196, 208
-0.99915, 17, 1, 32, 128
-0.999152, 343, 33, 358, 160
-0.999154, 479, 241, 494, 368
-0.999159, 327, 1, 342, 128
-0.999164, 87, 1, 102, 128
-0.999167, 281, 145, 296, 272
-0.99917, 45, 1, 60, 128
-0.999172, 369, 145, 384, 272
-0.999176, 255, 193, 270, 320
-0.999184, 1, 241, 128, 304
-0.999187, 473, 241, 488, 368
-0.99919, 327, 209, 342, 336
-0.999191, 9, 33, 24, 160
-0.999194, 387, 145, 402, 272
-0.999195, 353, 161, 368, 288
-0.999199, 271, 193, 286, 320
-0.999203, 121, 241, 136, 368
-0.999212, 215, 113, 230, 240
-0.999217, 319, 113, 334, 240
-0.999224, 61, 1, 76, 128
-0.99923, 359, 161, 374, 288
-0.999232, 433, 177, 448, 304
-0.999235, 141, 241, 156, 368
-0.999239, 313, 1, 328, 128
-0.999245, 69, 1, 84, 128
-0.999245, 153, 241, 168, 368
-0.999247, 307, 161, 322, 288
-0.999251, 321, 1, 336, 128
-0.999251, 273, 1, 288, 128
-0.999254, 329, 65, 344, 192
-0.999261, 223, 113, 238, 240
-0.999266, 115, 1, 130, 128
-0.99927, 173, 241, 188, 368
-0.999271, 275, 129, 290, 256
-0.999271, 385, 1, 400, 128
-0.999271, 127, 1, 142, 128
-0.999273, 165, 177, 180, 304
-0.999274, 133, 1, 148, 128
-0.999276, 81, 1, 96, 128
-0.999284, 79, 49, 94, 176
-0.999287, 419, 161, 434, 288
-0.999289, 261, 193, 276, 320
-0.999291, 381, 1, 412, 256
-0.999291, 225, 33, 256, 288
-0.999299, 183, 241, 198, 368
-0.999301, 427, 177, 442, 304
-0.999305, 115, 241, 130, 368
-0.999307, 223, 209, 238, 336
-0.999309, 199, 113, 214, 240
-0.99931, 235, 113, 250, 240
-0.999312, 469, 1, 484, 128
-0.99932, 89, 49, 152, 176
-0.99932, 217, 209, 232, 336
-0.999322, 365, 193, 380, 320
-0.999324, 319, 209, 334, 336
-0.999327, 259, 33, 274, 160
-0.99933, 349, 1, 364, 128
-0.99933, 235, 209, 250, 336
-0.999334, 313, 209, 328, 336
-0.999341, 173, 193, 188, 320
-0.999348, 197, 209, 212, 336
-0.999349, 443, 161, 458, 288
-0.999543, 125, 1, 156, 256
-0.999571, 197, 33, 228, 288
-0.999611, 393, 1, 424, 256
-0.99964, 193, 157, 208, 172
-0.99964, 211, 215, 226, 230
-0.99964, 109, 49, 124, 64
-0.999641, 365, 135, 380, 150
-0.999642, 447, 211, 462, 226
-0.999642, 261, 121, 276, 136
-0.999643, 331, 221, 346, 236
-0.999644, 63, 49, 78, 64
-0.999644, 239, 145, 254, 160
-0.999644, 339, 27, 354, 42
-0.999644, 361, 181, 376, 196
-0.999644, 291, 185, 306, 200
-0.999644, 325, 229, 340, 244
-0.999645, 105, 39, 120, 54
-0.999646, 51, 57, 66, 72
-0.999647, 271, 189, 286, 204
-0.999647, 171, 119, 186, 134
-0.999648, 345, 27, 360, 42
-0.999648, 213, 123, 228, 138
-0.999648, 75, 53, 90, 68
-0.999651, 485, 189, 500, 204
-0.999652, 429, 191, 444, 206
-0.999652, 405, 211, 420, 226
-0.999653, 237, 151, 252, 166
-0.999654, 361, 149, 376, 164
-0.999654, 459, 195, 474, 210
-0.999654, 159, 287, 174, 302
-0.999654, 375, 207, 390, 222
-0.999655, 279, 195, 294, 210
-0.999655, 25, 69, 40, 84
-0.999656, 337, 191, 352, 206
-0.999656, 373, 87, 388, 102
-0.999657, 365, 273, 380, 288
-0.999658, 407, 187, 422, 202
-0.999658, 359, 197, 374, 212
-0.999659, 131, 241, 146, 256
-0.99966, 25, 61, 40, 76
-0.999661, 373, 135, 388, 150
-0.999661, 307, 187, 322, 202
-0.999663, 183, 109, 198, 124
-0.999663, 169, 97, 184, 112
-0.999664, 335, 137, 350, 152
-0.999664, 297, 185, 312, 200
-0.999664, 91, 289, 106, 304
-0.999665, 393, 185, 408, 200
-0.999666, 305, 193, 320, 208
-0.999667, 175, 95, 190, 110
-0.999667, 247, 145, 262, 160
-0.999668, 123, 253, 138, 268
-0.999668, 157, 253, 172, 268
-0.999669, 133, 23, 148, 38
-0.99967, 381, 183, 396, 198
-0.99967, 293, 191, 308, 206
-0.99967, 37, 1, 52, 16
-0.99967, 377, 99, 392, 114
-0.99967, 343, 139, 358, 154
-0.999672, 203, 117, 218, 132
-0.999673, 367, 181, 382, 196
-0.999674, 223, 137, 238, 152
-0.999674, 363, 121, 378, 136
-0.999675, 319, 197, 334, 212
-0.999677, 413, 213, 428, 228
-0.999677, 163, 93, 178, 108
-0.999677, 471, 219, 486, 234
-0.999677, 313, 189, 328, 204
-0.999677, 159, 81, 174, 96
-0.99968, 439, 209, 454, 224
-0.999681, 165, 261, 180, 276
-0.999681, 417, 189, 432, 204
-0.999681, 169, 103, 184, 118
-0.999683, 355, 179, 370, 194
-0.999684, 353, 117, 368, 132
-0.999686, 417, 205, 432, 220
-0.999689, 357, 97, 372, 112
-0.999691, 139, 19, 154, 34
-0.999691, 201, 177, 216, 192
-0.999692, 427, 207, 442, 222
-0.999692, 193, 169, 208, 184
-0.999693, 371, 197, 386, 212
-0.999694, 81, 285, 96, 300
-0.999695, 33, 67, 48, 82
-0.999697, 337, 77, 352, 92
-0.999699, 193, 123, 208, 138
-0.9997, 311, 195, 326, 210
-0.999701, 353, 195, 368, 210
-0.999702, 69, 51, 84, 66
-0.999702, 255, 121, 270, 136
-0.999702, 411, 205, 426, 220
-0.999705, 285, 183, 300, 198
-0.999705, 375, 81, 390, 96
-0.999705, 399, 203, 414, 218
-0.999706, 373, 121, 388, 136
-0.999706, 473, 213, 488, 228
-0.999706, 25, 75, 40, 90
-0.999708, 269, 183, 284, 198
-0.99971, 331, 191, 346, 206
-0.99971, 323, 189, 338, 204
-0.999711, 321, 93, 336, 108
-0.999711, 61, 55, 76, 70
-0.999713, 405, 203, 420, 218
-0.999714, 393, 201, 408, 216
-0.999716, 387, 201, 402, 216
-0.999716, 197, 113, 212, 128
-0.99972, 365, 143, 380, 158
-0.999721, 377, 199, 392, 214
-0.999725, 287, 191, 302, 206
-0.999726, 191, 163, 206, 178
-0.999728, 343, 193, 358, 208
-0.999729, 189, 117, 204, 132
-0.99973, 365, 197, 380, 212
-0.999731, 219, 175, 234, 190
-0.999734, 365, 99, 380, 114
-0.999735, 227, 179, 242, 194
-0.999735, 375, 75, 390, 90
-0.999736, 141, 25, 156, 40
-0.999741, 371, 149, 386, 164
-0.999741, 461, 213, 476, 228
-0.999745, 163, 87, 178, 102
-0.999745, 97, 291, 112, 306
-0.999746, 225, 171, 240, 186
-0.999748, 337, 71, 352, 86
-0.99975, 371, 97, 386, 112
-0.999753, 189, 111, 204, 126
-0.999756, 405, 1, 436, 256
-0.99976, 177, 101, 192, 116
-0.999761, 421, 1, 452, 256
-0.999776, 353, 139, 368, 154
-0.999776, 235, 173, 250, 188
-0.999782, 277, 189, 292, 204
-0.999787, 123, 259, 138, 274
-0.999789, 279, 183, 294, 198
-0.999803, 97, 129, 160, 375
-0.999865, 433, 1, 464, 256
-0.999868, 371, 143, 386, 158
-0.999917, 117, 129, 148, 375
-0.999923, 133, 97, 164, 352
-0.999963, 1, 97, 32, 352
-0.999995, 97, 129, 128, 375
-1.00019, 49, 145, 176, 272
-1.00021, 213, 33, 244, 288
-1.00021, 85, 129, 116, 375
-1.00023, 25, 193, 88, 320
-1.00035, 109, 1, 140, 256
-1.00048, 69, 129, 100, 375
-1.00064, 13, 129, 44, 375
-1.00071, 1, 209, 128, 272
-1.00075, 49, 129, 80, 375
-1.00115, 17, 177, 144, 240
-1.00115, 37, 129, 68, 375
-1.00132, 33, 137, 160, 200
-1.00134, 25, 129, 56, 375
-1.00187, 33, 113, 160, 176
-1.00199, 1, 97, 64, 352
-1.00286, 169, 1, 232, 128
-1.0032, 33, 129, 96, 375
-1.00655, 385, 49, 448, 176
-1.00779, 105, 113, 168, 240
-1.00809, 1, 145, 128, 272
-1.01051, 17, 97, 144, 224
-1.01149, 409, 49, 472, 176
-1.01267, 65, 97, 128, 224
-1.01269, 65, 145, 128, 272
-1.0127, 17, 129, 80, 256
-1.01354, 41, 145, 104, 272
-1.01374, 1, 193, 64, 320
-1.01455, 41, 97, 104, 224
