1980
-0.724624, 97, 129, 352, 375
-0.758199, 1, 129, 500, 375
-0.760841, 1, 1, 500, 256
-0.774034, 225, 1, 480, 375
-0.805481, 65, 1, 320, 375
-0.887253, 225, 65, 480, 320
-0.894249, 193, 129, 320, 375
-0.896415, 1, 1, 500, 375
-0.90405, 33, 33, 288, 288
-0.929275, 241, 1, 368, 375
-0.93112, 201, 129, 264, 256
-0.932472, 145, 129, 272, 375
-0.935818, 249, 161, 312, 288
-0.936078, 65, 145, 320, 272
-0.937148, 225, 129, 288, 256
-0.941364, 193, 1, 320, 375
-0.942363, 1, 177, 500, 304
-0.944504, 193, 161, 320, 288
-0.945233, 273, 129, 400, 375
-0.945594, 209, 33, 336, 288
-0.947737, 113, 1, 240, 375
-0.948407, 209, 209, 336, 336
-0.948409, 129, 33, 256, 288
-0.952085, 129, 193, 384, 320
-0.952856, 209, 137, 272, 200
-0.95319, 265, 209, 328, 336
-0.953746, 145, 129, 272, 256
-0.95728, 241, 177, 304, 240
-0.958815, 281, 241, 344, 304
-0.959741, 289, 1, 416, 375
-0.960118, 257, 201, 320, 264
-0.962877, 49, 1, 176, 375
-0.963174, 225, 193, 288, 320
-0.963822, 225, 129, 480, 256
-0.96603, 201, 177, 264, 304
-0.966304, 281, 217, 344, 280
-0.966636, 185, 161, 248, 224
-0.966636, 337, 1, 464, 375
-0.966825, 209, 185, 272, 248
-0.967597, 185, 129, 248, 192
-0.96765, 257, 225, 384, 352
-0.967837, 233, 153, 296, 216
-0.967849, 225, 225, 480, 352
-0.968359, 233, 129, 264, 256
-0.968515, 273, 33, 400, 288
-0.969313, 401, 297, 464, 360
-0.97043, 249, 145, 280, 272
-0.970519, 33, 97, 288, 224
-0.970541, 289, 241, 352, 368
-0.971053, 233, 209, 296, 272
-0.971091, 221, 129, 252, 192
-0.97209, 193, 113, 320, 240
-0.972614, 273, 177, 304, 304
-0.973243, 33, 65, 160, 320
-0.973574, 209, 97, 272, 352
-0.973636, 273, 177, 400, 304
-0.973645, 97, 129, 224, 375
-0.973725, 305, 249, 368, 312
-0.973991, 257, 225, 320, 288
-0.974544, 177, 129, 240, 256
-0.974599, 233, 137, 264, 200
-0.975119, 261, 161, 292, 288
-0.975489, 321, 129, 448, 375
-0.975664, 425, 313, 488, 375
-0.975843, 289, 209, 320, 272
-0.975964, 225, 225, 352, 288
-0.976025, 193, 185, 320, 248
-0.976612, 309, 233, 340, 296
-0.977115, 281, 161, 344, 288
-0.97739, 177, 161, 304, 224
-0.977747, 285, 193, 316, 320
-0.977753, 1, 1, 128, 375
-0.9778, 221, 113, 252, 240
-0.977883, 305, 225, 368, 288
-0.978206, 209, 161, 272, 224
-0.978344, 273, 193, 304, 256
-0.978711, 1, 225, 500, 352
-0.978789, 185, 185, 248, 248
-0.978981, 225, 81, 288, 208
-0.97922, 329, 257, 392, 320
-0.979303, 209, 161, 240, 224
-0.979356, 193, 137, 320, 200
-0.979734, 209, 129, 240, 192
-0.979753, 257, 161, 288, 224
-0.979954, 417, 289, 448, 352
-0.980292, 257, 177, 500, 304
-0.980377, 229, 185, 260, 248
-0.980634, 273, 129, 400, 256
-0.98064, 185, 81, 248, 208
-0.980662, 161, 209, 288, 336
-0.980874, 193, 81, 448, 208
-0.981019, 369, 281, 432, 344
-0.981028, 441, 305, 472, 368
-0.981255, 113, 209, 176, 336
-0.981323, 233, 129, 296, 375
-0.981567, 209, 129, 240, 256
-0.982314, 305, 193, 368, 320
-0.982342, 145, 137, 272, 200
-0.982648, 305, 225, 432, 352
-0.982833, 301, 209, 332, 336
-0.98284, 273, 249, 400, 312
-0.982872, 325, 241, 356, 304
-0.983199, 273, 217, 304, 280
-0.983303, 129, 161, 256, 224
-0.983464, 1, 129, 500, 256
-0.983523, 65, 193, 192, 320
-0.983524, 241, 177, 272, 240
-0.983603, 297, 233, 328, 296
-0.983672, 453, 313, 484, 375
-0.983708, 245, 153, 276, 216
-0.983747, 249, 113, 312, 240
-0.983897, 145, 185, 272, 248
-0.983955, 429, 297, 460, 360
-0.98419, 321, 241, 384, 368
-0.9842, 245, 201, 276, 264
-0.98506, 225, 161, 352, 224
-0.985118, 105, 201, 168, 264
-0.985218, 265, 177, 328, 240
-0.985391, 257, 201, 384, 264
-0.985511, 269, 169, 300, 232
-0.985902, 177, 209, 304, 272
-0.985903, 169, 289, 232, 352
-0.985978, 193, 209, 256, 272
-0.986132, 161, 193, 224, 256
-0.986248, 393, 241, 456, 368
-0.986303, 257, 129, 320, 375
-0.986497, 73, 185, 136, 248
-0.986576, 229, 177, 260, 304
-0.98667, 65, 153, 96, 216
-0.987101, 353, 241, 416, 368
-0.987309, 257, 217, 288, 280
-0.987458, 353, 249, 416, 312
-0.987643, 249, 193, 280, 320
-0.987689, 153, 145, 216, 272
-0.987708, 193, 161, 224, 224
-0.987783, 65, 241, 192, 368
-0.987798, 313, 225, 344, 352
-0.987874, 337, 249, 368, 312
-0.988027, 33, 169, 96, 232
-0.988072, 221, 153, 252, 216
-0.98813, 257, 185, 288, 248
-0.988346, 353, 289, 480, 352
-0.988443, 217, 185, 248, 248
-0.988525, 201, 137, 264, 168
-0.9887, 429, 241, 460, 368
-0.988721, 305, 273, 432, 336
-0.988735, 209, 153, 272, 184
-0.988801, 285, 185, 316, 248
-0.988811, 353, 241, 480, 368
-0.988816, 273, 225, 400, 288
-0.988867, 285, 233, 316, 296
-0.988877, 113, 233, 176, 296
-0.988912, 117, 201, 148, 264
-0.988932, 145, 297, 272, 360
-0.988956, 321, 261, 384, 292
-0.989076, 249, 205, 312, 236
-0.989282, 281, 245, 344, 276
-0.989318, 185, 97, 248, 352
-0.98943, 225, 165, 288, 196
-0.989442, 405, 281, 436, 344
-0.989677, 241, 189, 304, 220
-0.989738, 353, 277, 416, 308
-0.989754, 217, 209, 280, 240
-0.989757, 273, 153, 336, 216
-0.989906, 137, 281, 200, 344
-0.989913, 257, 221, 320, 252
-0.989939, 185, 149, 248, 180
-0.989963, 65, 177, 96, 240
-0.990033, 209, 197, 272, 228
-0.99004, 377, 285, 440, 316
-0.990102, 261, 209, 292, 336
-0.990133, 265, 233, 328, 264
-0.99017, 313, 257, 344, 320
-0.990189, 233, 177, 296, 208
-0.990202, 241, 81, 368, 208
-0.990238, 305, 245, 368, 276
-0.990274, 201, 193, 232, 256
-0.990417, 217, 305, 280, 368
-0.99043, 369, 313, 496, 375
-0.990471, 433, 325, 496, 356
-0.990519, 393, 297, 456, 328
-0.990602, 193, 281, 256, 344
-0.990649, 193, 185, 256, 216
-0.990656, 185, 161, 248, 192
-0.990659, 189, 193, 220, 256
-0.990667, 161, 193, 224, 224
-0.990676, 349, 257, 380, 320
-0.990728, 417, 313, 480, 344
-0.990761, 273, 129, 304, 256
-0.990827, 289, 233, 352, 264
-0.990884, 129, 301, 192, 332
-0.990902, 257, 249, 320, 312
-0.990905, 193, 209, 256, 240
-0.99096, 233, 121, 296, 184
-0.990968, 73, 193, 136, 224
-0.991034, 233, 221, 296, 252
-0.991075, 385, 273, 416, 336
-0.991088, 425, 241, 488, 368
-0.991093, 433, 289, 496, 352
-0.991094, 53, 169, 84, 232
-0.991099, 233, 33, 296, 288
-0.991113, 129, 241, 384, 368
-0.991172, 289, 193, 352, 256
-0.991194, 345, 265, 408, 296
-0.991288, 33, 193, 288, 320
-0.991324, 41, 181, 104, 212
-0.99133, 273, 209, 336, 240
-0.99138, 409, 345, 472, 375
-0.991387, 197, 137, 228, 200
-0.991435, 297, 257, 360, 288
-0.991499, 121, 197, 184, 228
-0.991555, 197, 113, 228, 240
-0.99162, 81, 1, 208, 256
-0.991638, 329, 233, 392, 296
-0.991697, 105, 305, 168, 368
-0.991709, 361, 257, 392, 320
-0.991758, 185, 173, 248, 204
-0.991854, 417, 285, 480, 316
-0.991876, 185, 197, 248, 228
-0.991884, 313, 177, 344, 304
-0.991943, 313, 241, 344, 272
-0.991961, 393, 273, 456, 304
-0.991998, 169, 193, 232, 320
-0.991999, 289, 221, 352, 252
-0.99201, 113, 81, 240, 208
-0.99206, 225, 249, 352, 312
-0.992136, 329, 253, 360, 284
-0.992176, 97, 193, 160, 224
-0.99221, 169, 293, 232, 324
-0.992248, 225, 141, 288, 172
-0.992257, 409, 333, 472, 364
-0.99226, 233, 153, 296, 184
-0.992279, 177, 133, 240, 164
-0.992284, 97, 201, 224, 264
-0.99232, 209, 1, 272, 375
-0.99233, 293, 225, 324, 256
-0.992356, 273, 257, 336, 288
-0.992375, 185, 105, 248, 168
-0.992397, 433, 337, 496, 368
-0.992413, 17, 173, 80, 204
-0.992418, 241, 129, 368, 192
-0.992428, 393, 273, 456, 336
-0.992438, 433, 273, 464, 336
-0.992439, 329, 249, 392, 280
-0.992464, 81, 181, 144, 212
-0.992474, 413, 289, 444, 320
-0.992477, 225, 133, 256, 164
-0.992501, 173, 281, 204, 344
-0.992512, 289, 197, 352, 228
-0.992523, 273, 177, 400, 240
-0.992529, 425, 301, 456, 332
-0.992533, 249, 209, 280, 240
-0.992533, 293, 237, 324, 268
-0.992535, 213, 137, 244, 168
-0.99255, 369, 261, 432, 292
-0.992558, 437, 313, 468, 344
-0.99258, 361, 265, 392, 296
-0.9926, 425, 289, 456, 320
-0.992608, 217, 149, 248, 180
-0.992609, 281, 209, 312, 240
-0.992623, 197, 149, 228, 180
-0.992624, 213, 205, 244, 236
-0.992628, 233, 197, 264, 228
-0.99264, 77, 185, 108, 248
-0.992653, 193, 297, 256, 328
-0.992656, 257, 245, 320, 276
-0.992668, 393, 321, 456, 352
-0.992671, 249, 165, 312, 196
-0.992676, 237, 213, 268, 244
-0.992687, 153, 153, 216, 184
-0.992689, 453, 321, 484, 352
-0.992696, 337, 241, 464, 304
-0.992722, 105, 309, 168, 340
-0.992728, 273, 225, 304, 256
-0.992745, 297, 249, 328, 280
-0.992745, 125, 305, 156, 368
-0.992766, 341, 257, 372, 288
-0.992773, 169, 345, 232, 375
-0.992776, 225, 209, 256, 240
-0.992788, 469, 325, 500, 356
-0.992795, 189, 197, 220, 228
-0.992806, 145, 181, 208, 212
-0.992822, 233, 145, 264, 176
-0.992834, 161, 153, 224, 216
-0.992836, 381, 273, 412, 304
-0.992839, 253, 161, 284, 192
-0.992851, 193, 193, 320, 224
-0.992853, 137, 313, 200, 344
-0.992857, 261, 173, 292, 204
-0.992858, 397, 281, 428, 312
-0.99286, 281, 185, 344, 216
-0.992863, 385, 333, 448, 364
-0.992866, 257, 177, 320, 208
-0.992868, 245, 305, 276, 368
-0.992877, 201, 201, 232, 232
-0.992886, 329, 193, 392, 320
-0.99289, 233, 341, 296, 372
-0.992899, 373, 265, 404, 328
-0.992907, 209, 113, 272, 176
-0.992913, 445, 333, 476, 364
-0.992919, 421, 345, 452, 375
-0.992923, 273, 193, 304, 224
-0.992937, 145, 337, 208, 368
-0.992939, 433, 337, 464, 368
-0.992951, 197, 161, 228, 192
-0.992955, 417, 301, 480, 332
-0.992972, 233, 173, 264, 204
-0.992986, 177, 193, 208, 224
-0.992998, 145, 289, 208, 320
-0.993004, 309, 257, 340, 288
-0.993018, 261, 217, 292, 248
-0.99302, 65, 185, 96, 216
-0.993025, 241, 157, 272, 188
-0.993027, 437, 297, 468, 328
-0.993034, 117, 193, 148, 224
-0.993056, 81, 189, 112, 220
-0.99306, 113, 237, 176, 268
-0.993064, 221, 193, 252, 224
-0.993081, 401, 293, 432, 324
-0.993084, 305, 229, 336, 260
-0.993093, 261, 205, 292, 236
-0.993113, 45, 169, 76, 200
-0.993114, 225, 161, 256, 192
-0.993115, 93, 193, 124, 224
-0.993149, 49, 193, 112, 224
-0.993156, 369, 277, 400, 308
-0.99316, 133, 193, 164, 224
-0.993167, 9, 161, 72, 192
-0.993173, 153, 297, 184, 328
-0.993174, 413, 277, 444, 308
-0.993176, 105, 193, 136, 224
-0.993179, 293, 213, 324, 244
-0.993182, 413, 301, 444, 332
-0.993183, 65, 161, 128, 192
-0.993206, 213, 169, 244, 200
-0.993211, 281, 245, 312, 276
-0.993221, 241, 233, 304, 264
-0.993221, 201, 137, 232, 168
-0.993224, 393, 309, 456, 340
-0.993232, 249, 197, 280, 228
-0.99324, 185, 149, 216, 180
-0.993261, 225, 129, 288, 160
-0.993261, 249, 221, 280, 252
-0.993261, 273, 181, 304, 212
-0.993262, 145, 197, 176, 228
-0.993267, 297, 209, 360, 240
-0.993269, 257, 149, 320, 180
-0.993271, 353, 253, 384, 284
-0.993278, 57, 173, 88, 204
-0.993279, 121, 185, 184, 216
-0.993286, 421, 325, 452, 356
-0.993288, 449, 305, 480, 336
-0.993293, 353, 249, 416, 280
-0.993298, 117, 305, 148, 336
-0.993303, 249, 185, 280, 216
-0.993304, 349, 269, 380, 300
-0.993306, 385, 285, 416, 316
-0.993314, 321, 233, 384, 264
-0.993322, 181, 341, 212, 372
-0.993328, 141, 301, 172, 332
-0.993331, 125, 205, 156, 236
-0.993338, 61, 161, 92, 288
-0.993339, 321, 273, 384, 304
-0.99334, 169, 333, 200, 364
-0.99334, 185, 329, 248, 360
-0.993349, 321, 33, 448, 288
-0.993352, 229, 305, 260, 336
-0.993355, 185, 161, 216, 192
-0.993356, 233, 113, 264, 176
-0.993369, 65, 153, 96, 184
-0.993372, 265, 345, 296, 375
-0.993378, 225, 293, 288, 324
-0.99338, 217, 181, 248, 212
-0.993388, 121, 285, 184, 316
-0.993389, 313, 209, 344, 272
-0.993395, 245, 145, 276, 176
-0.993397, 273, 165, 336, 196
-0.993403, 465, 313, 496, 344
-0.993412, 409, 333, 440, 364
-0.993416, 173, 293, 204, 324
-0.993423, 149, 285, 180, 316
-0.993435, 245, 321, 276, 352
-0.993457, 341, 241, 372, 272
-0.993459, 105, 249, 168, 280
-0.99346, 329, 265, 360, 296
-0.993461, 237, 185, 268, 216
-0.993463, 33, 169, 64, 200
-0.993466, 433, 325, 464, 356
-0.993468, 49, 157, 80, 188
-0.99347, 129, 301, 160, 332
-0.99347, 373, 261, 404, 292
-0.993472, 97, 161, 352, 224
-0.993485, 17, 169, 48, 200
-0.993488, 165, 305, 196, 336
-0.993493, 173, 181, 204, 212
-0.993501, 41, 169, 104, 200
-0.993501, 97, 297, 224, 360
-0.993509, 105, 225, 168, 256
-0.993509, 193, 181, 224, 212
-0.993512, 281, 129, 344, 375
-0.993512, 213, 125, 244, 156
-0.993513, 149, 337, 180, 368
-0.993513, 437, 285, 468, 316
-0.993517, 213, 297, 244, 328
-0.993519, 385, 261, 416, 292
-0.993524, 137, 229, 200, 260
-0.993528, 113, 205, 144, 236
-0.993529, 425, 277, 456, 308
-0.993532, 269, 265, 300, 296
-0.993534, 241, 305, 272, 336
-0.993534, 165, 321, 196, 352
-0.993534, 457, 333, 488, 364
-0.993535, 237, 345, 268, 375
-0.993537, 53, 137, 84, 168
-0.993538, 77, 177, 108, 208
-0.993538, 161, 345, 192, 375
-0.993539, 325, 241, 356, 272
-0.993539, 285, 193, 316, 224
-0.99354, 97, 181, 128, 212
-0.993545, 157, 197, 188, 228
-0.993546, 137, 325, 200, 356
-0.993547, 217, 309, 280, 340
-0.993555, 97, 293, 160, 324
-0.993555, 401, 269, 432, 300
-0.993556, 169, 241, 232, 368
-0.993569, 261, 189, 292, 220
-0.99357, 237, 289, 268, 320
-0.993585, 469, 337, 500, 368
-0.993594, 169, 317, 232, 348
-0.993597, 249, 137, 312, 168
-0.993599, 297, 193, 328, 224
-0.993606, 233, 81, 264, 208
-0.993609, 281, 169, 312, 200
-0.993617, 265, 345, 328, 375
-0.99362, 173, 153, 204, 184
-0.99362, 181, 329, 212, 360
-0.993627, 1, 129, 256, 375
-0.993628, 205, 185, 236, 216
-0.993649, 369, 345, 432, 375
-0.993655, 177, 121, 240, 152
-0.99367, 233, 329, 296, 360
-0.993689, 297, 161, 328, 288
-0.993693, 81, 249, 144, 280
-0.993708, 105, 209, 168, 240
-0.993714, 209, 221, 272, 252
-0.993719, 209, 345, 272, 375
-0.993724, 49, 193, 176, 256
-0.99374, 161, 165, 224, 196
-0.993755, 105, 261, 168, 292
-0.993765, 181, 145, 212, 272
-0.9938, 313, 221, 376, 252
-0.993804, 129, 185, 160, 248
-0.993813, 249, 97, 280, 224
-0.993821, 293, 201, 308, 264
-0.993838, 257, 129, 320, 192
-0.993841, 225, 281, 288, 312
-0.993868, 81, 205, 144, 236
-0.993871, 289, 269, 352, 300
-0.993875, 257, 269, 320, 300
-0.993884, 145, 277, 208, 308
-0.993904, 145, 241, 208, 368
-0.993922, 169, 209, 232, 240
-0.993929, 57, 149, 120, 180
-0.993937, 185, 281, 248, 312
-0.99394, 357, 241, 388, 368
-0.993974, 201, 125, 264, 156
-0.993976, 283, 185, 298, 248
-0.993978, 113, 273, 176, 304
-0.993979, 369, 297, 432, 328
-0.993989, 33, 137, 288, 200
-0.994, 113, 329, 176, 360
-0.994008, 33, 157, 96, 188
-0.994011, 177, 181, 304, 212
-0.994013, 225, 129, 240, 192
-0.994039, 241, 305, 304, 336
-0.994045, 89, 185, 120, 248
-0.994047, 169, 305, 232, 336
-0.994053, 25, 137, 88, 168
-0.994142, 145, 193, 272, 224
-0.994147, 145, 137, 208, 168
-0.994162, 219, 129, 234, 192
-0.994202, 145, 217, 208, 248
-0.994205, 121, 177, 152, 304
-0.994221, 81, 313, 144, 344
-0.994224, 225, 261, 288, 292
-0.994272, 231, 129, 246, 192
-0.994288, 299, 209, 314, 272
-0.994297, 225, 117, 288, 148
-0.9943, 153, 265, 216, 296
-0.994302, 17, 185, 80, 216
-0.994303, 325, 225, 356, 352
-0.994309, 65, 133, 128, 164
-0.99432, 17, 233, 80, 264
-0.994333, 249, 285, 312, 316
-0.994338, 457, 289, 488, 352
-0.994338, 273, 153, 400, 216
-0.994361, 245, 129, 276, 192
-0.994397, 469, 313, 500, 375
-0.99442, 129, 113, 256, 176
-0.994451, 307, 225, 322, 288
-0.994465, 317, 233, 332, 296
-0.994473, 241, 289, 304, 352
-0.994551, 193, 209, 320, 240
-0.994562, 89, 161, 152, 224
-0.994574, 241, 249, 368, 280
-0.994596, 33, 169, 160, 232
-0.994646, 113, 281, 144, 344
-0.994705, 217, 177, 248, 304
-0.994708, 53, 145, 84, 208
-0.994711, 57, 153, 120, 216
-0.994714, 261, 113, 292, 240
-0.994722, 141, 209, 172, 336
-0.994768, 285, 145, 316, 272
-0.99478, 161, 297, 192, 360
-0.994817, 301, 209, 332, 272
-0.99496, 181, 145, 212, 208
-0.994984, 177, 157, 304, 188
-0.995017, 313, 129, 376, 375
-0.995112, 177, 145, 304, 176
-0.995122, 77, 161, 108, 224
-0.995142, 193, 161, 448, 224
-0.995256, 97, 197, 224, 228
-0.995273, 405, 257, 436, 320
-0.995362, 49, 305, 176, 368
-0.995375, 249, 1, 312, 375
-0.995422, 353, 265, 480, 328
-0.995427, 289, 257, 416, 288
-0.995471, 129, 209, 384, 272
-0.995497, 255, 153, 270, 216
-0.995508, 67, 153, 82, 216
-0.995543, 145, 205, 272, 236
-0.995561, 193, 185, 448, 248
-0.9956, 323, 233, 338, 296
-0.995641, 229, 153, 244, 216
-0.995651, 185, 281, 216, 344
-0.995653, 113, 225, 240, 352
-0.995666, 193, 221, 320, 252
-0.995689, 257, 137, 288, 200
-0.995697, 447, 297, 462, 360
-0.995723, 271, 169, 286, 232
-0.995762, 453, 305, 468, 368
-0.995775, 229, 209, 260, 272
-0.995799, 177, 169, 304, 200
-0.995816, 459, 313, 474, 375
-0.995829, 193, 113, 320, 176
-0.995844, 329, 241, 344, 304
-0.995852, 223, 169, 238, 232
-0.995861, 241, 137, 256, 200
-0.995866, 247, 145, 262, 208
-0.995882, 201, 177, 232, 304
-0.995906, 213, 129, 228, 192
-0.995906, 263, 161, 278, 224
-0.99593, 233, 185, 248, 248
-0.99595, 193, 257, 448, 320
-0.995969, 241, 209, 368, 240
-0.99597, 425, 281, 440, 344
-0.995976, 121, 201, 136, 264
-0.996041, 325, 217, 356, 280
-0.996078, 277, 177, 292, 240
-0.996114, 289, 269, 416, 300
-0.996165, 283, 217, 298, 280
-0.996251, 321, 217, 448, 280
-0.996283, 431, 281, 446, 344
-0.996313, 247, 185, 262, 248
-0.996314, 177, 185, 208, 248
-0.996375, 81, 305, 208, 336
-0.996449, 225, 181, 352, 212
-0.996465, 255, 177, 270, 240
-0.996476, 221, 65, 252, 192
-0.996477, 193, 137, 448, 200
-0.996504, 133, 209, 164, 272
-0.996527, 261, 201, 276, 264
-0.996547, 225, 233, 352, 264
-0.996572, 113, 273, 240, 336
-0.996604, 401, 241, 432, 368
-0.996647, 275, 217, 290, 280
-0.996655, 161, 129, 224, 192
-0.996665, 113, 177, 176, 240
-0.99673, 41, 145, 72, 208
-0.996731, 49, 197, 176, 228
-0.996767, 441, 313, 456, 375
-0.996829, 145, 217, 208, 280
-0.996838, 217, 153, 232, 216
-0.996844, 253, 129, 284, 375
-0.99685, 311, 249, 326, 312
-0.996866, 235, 153, 250, 216
-0.996869, 229, 97, 260, 352
-0.99687, 217, 105, 248, 168
-0.996876, 247, 305, 262, 368
-0.996884, 333, 249, 348, 280
-0.996887, 293, 233, 308, 296
-0.996909, 437, 281, 452, 344
-0.996911, 213, 209, 244, 272
-0.996932, 271, 193, 286, 256
-0.996941, 465, 313, 480, 375
-0.996941, 203, 161, 218, 224
-0.996956, 323, 245, 338, 276
-0.996972, 165, 241, 196, 368
-0.996993, 173, 305, 204, 368
-0.996999, 65, 185, 320, 248
-0.996999, 413, 313, 444, 375
-0.997001, 427, 305, 442, 368
-0.997003, 185, 1, 248, 256
-0.997024, 241, 197, 368, 228
-0.997046, 195, 161, 210, 224
-0.997051, 129, 153, 256, 184
-0.997132, 321, 257, 336, 320
-0.997137, 417, 265, 480, 328
-0.997144, 241, 193, 256, 256
-0.997156, 129, 297, 256, 328
-0.997166, 317, 241, 332, 272
-0.997183, 453, 241, 484, 368
-0.997189, 225, 169, 352, 200
-0.997196, 427, 289, 442, 320
-0.997228, 443, 297, 458, 328
-0.997236, 369, 65, 496, 320
-0.997241, 177, 313, 192, 375
-0.997251, 335, 241, 350, 304
-0.99726, 193, 133, 320, 164
-0.997266, 1, 145, 128, 208
-0.997287, 183, 305, 198, 368
-0.997302, 369, 305, 496, 336
-0.997313, 299, 241, 314, 304
-0.997315, 257, 33, 320, 288
-0.99732, 289, 245, 416, 276
-0.997328, 269, 217, 284, 280
-0.997328, 213, 141, 228, 172
-0.997335, 455, 317, 470, 348
-0.99734, 419, 289, 434, 352
-0.997348, 61, 113, 92, 240
-0.997378, 203, 193, 218, 256
-0.997389, 337, 293, 464, 324
-0.997393, 369, 317, 496, 348
-0.997396, 181, 281, 196, 344
-0.9974, 273, 1, 336, 375
-0.99741, 253, 297, 268, 360
-0.997415, 365, 257, 380, 320
-0.997421, 135, 297, 150, 360
-0.997436, 207, 145, 222, 176
-0.99744, 89, 241, 152, 368
-0.997457, 101, 169, 132, 232
-0.997459, 207, 129, 222, 192
-0.997459, 257, 289, 500, 352
-0.99746, 81, 185, 208, 216
-0.99748, 471, 313, 486, 375
-0.997486, 177, 273, 304, 336
-0.997503, 169, 265, 232, 328
-0.997513, 311, 237, 326, 268
-0.997536, 371, 265, 386, 296
-0.997537, 435, 289, 450, 320
-0.99754, 449, 301, 464, 332
-0.997541, 237, 113, 252, 176
-0.997547, 293, 209, 308, 240
-0.997548, 359, 257, 374, 320
-0.997552, 147, 217, 162, 280
-0.997561, 91, 185, 106, 248
-0.997563, 81, 153, 96, 216
-0.997568, 219, 137, 234, 168
-0.997587, 233, 241, 296, 368
-0.997592, 353, 193, 416, 320
-0.997598, 247, 205, 262, 236
-0.997606, 223, 201, 238, 264
-0.997608, 281, 113, 344, 240
-0.997614, 33, 145, 160, 272
-0.997616, 449, 321, 464, 352
-0.997618, 241, 129, 272, 375
-0.997624, 215, 153, 230, 184
-0.997624, 273, 233, 400, 264
-0.997625, 305, 225, 320, 256
-0.997637, 241, 261, 368, 292
-0.997641, 289, 177, 304, 240
-0.997648, 239, 137, 254, 168
-0.997652, 101, 193, 132, 320
-0.997653, 161, 325, 288, 356
-0.997655, 211, 153, 226, 216
-0.99766, 289, 197, 304, 228
-0.997675, 61, 137, 76, 200
-0.997694, 217, 205, 232, 236
-0.997703, 273, 225, 304, 352
-0.997704, 225, 133, 240, 164
-0.997708, 339, 253, 354, 284
-0.997713, 321, 281, 448, 312
-0.997714, 129, 173, 256, 204
-0.997715, 221, 149, 236, 180
-0.997718, 255, 209, 270, 240
-0.997726, 207, 201, 222, 232
-0.997742, 1, 185, 128, 216
-0.997745, 195, 185, 210, 248
-0.99775, 61, 169, 76, 232
-0.99775, 191, 281, 206, 344
-0.997754, 479, 313, 494, 375
-0.997759, 241, 169, 256, 232
-0.997761, 253, 201, 268, 264
-0.997762, 49, 145, 176, 208
-0.997773, 273, 221, 400, 252
-0.997777, 115, 241, 130, 304
-0.997784, 193, 113, 224, 176
-0.99779, 261, 137, 276, 200
-0.997793, 337, 225, 368, 288
-0.997793, 253, 153, 268, 184
-0.997799, 305, 249, 320, 312
-0.997804, 377, 269, 392, 300
-0.997804, 383, 273, 398, 304
-0.997815, 313, 209, 328, 272
-0.997818, 347, 257, 362, 288
-0.997818, 113, 285, 240, 316
-0.997826, 149, 193, 180, 256
-0.997827, 355, 261, 370, 292
-0.997832, 277, 177, 292, 208
-0.99784, 421, 289, 436, 320
-0.99784, 443, 313, 458, 344
-0.997842, 325, 257, 340, 288
-0.997856, 399, 281, 414, 312
-0.997857, 305, 201, 320, 264
-0.997857, 433, 301, 448, 332
-0.997864, 173, 289, 188, 352
-0.997867, 415, 289, 430, 320
-0.99787, 77, 185, 92, 216
-0.997872, 269, 129, 300, 375
-0.997889, 29, 201, 44, 264
-0.997894, 321, 177, 448, 304
-0.997895, 259, 281, 274, 344
-0.997896, 233, 225, 264, 352
-0.997902, 411, 281, 426, 344
-0.997905, 225, 145, 352, 176
-0.997909, 261, 161, 276, 192
-0.997909, 199, 197, 214, 228
-0.99791, 421, 257, 436, 320
-0.997914, 225, 105, 240, 168
-0.997917, 151, 241, 166, 304
-0.99793, 273, 217, 288, 248
-0.997934, 407, 285, 422, 316
-0.997941, 217, 97, 248, 352
-0.997944, 421, 265, 452, 328
-0.99795, 341, 241, 356, 304
-0.997951, 465, 321, 480, 352
-0.997953, 241, 201, 256, 232
-0.99796, 113, 161, 176, 288
-0.997962, 459, 289, 474, 352
-0.997964, 113, 141, 240, 172
-0.997966, 291, 233, 306, 264
-0.997968, 365, 265, 380, 296
-0.99797, 391, 277, 406, 308
-0.997971, 77, 177, 92, 240
-0.997974, 123, 201, 138, 232
-0.997976, 191, 193, 206, 224
-0.997979, 283, 225, 298, 256
-0.99801, 353, 249, 368, 312
-0.998014, 231, 133, 246, 164
-0.998015, 253, 281, 284, 344
-0.998017, 81, 209, 144, 272
-0.998028, 65, 177, 80, 208
-0.998028, 233, 265, 296, 328
-0.99803, 269, 169, 284, 200
-0.998036, 301, 257, 332, 320
-0.998044, 227, 153, 242, 184
-0.998044, 399, 273, 414, 336
-0.998045, 115, 193, 130, 224
-0.99805, 347, 249, 362, 312
-0.998053, 189, 153, 204, 216
-0.998057, 299, 217, 314, 248
-0.99806, 247, 309, 262, 340
-0.998072, 247, 145, 262, 176
-0.998084, 1, 161, 128, 192
-0.998084, 297, 241, 312, 272
-0.99809, 89, 189, 104, 220
-0.998097, 237, 305, 252, 368
-0.998101, 225, 205, 240, 236
-0.998102, 267, 213, 282, 244
-0.998116, 169, 1, 232, 375
-0.998119, 143, 193, 158, 256
-0.998126, 115, 217, 130, 280
-0.998137, 287, 213, 302, 244
-0.998139, 25, 145, 88, 208
-0.99815, 1, 185, 500, 248
-0.998152, 433, 305, 448, 368
-0.998153, 71, 181, 86, 212
-0.998154, 371, 257, 386, 320
-0.998155, 273, 185, 400, 216
-0.998171, 319, 209, 334, 272
-0.998171, 257, 209, 500, 272
-0.998172, 131, 305, 146, 336
-0.998181, 231, 105, 246, 168
-0.998185, 483, 325, 498, 356
-0.998188, 445, 281, 476, 344
-0.998196, 377, 257, 392, 320
-0.998198, 69, 149, 84, 180
-0.998201, 225, 157, 352, 188
-0.998202, 283, 189, 298, 220
-0.998217, 193, 65, 320, 192
-0.998223, 67, 161, 82, 192
-0.998225, 269, 145, 284, 208
-0.998226, 417, 313, 432, 375
-0.998231, 1, 65, 500, 192
-0.998231, 45, 129, 76, 256
-0.998232, 137, 177, 200, 240
-0.998232, 101, 225, 132, 288
-0.998236, 309, 249, 324, 280
-0.998238, 113, 341, 240, 372
-0.998241, 383, 265, 398, 328
-0.998245, 123, 273, 138, 336
-0.998248, 427, 345, 442, 375
-0.998248, 255, 297, 270, 328
-0.998261, 477, 325, 492, 356
-0.998266, 241, 33, 272, 288
-0.998267, 435, 341, 450, 372
-0.998271, 255, 129, 270, 192
-0.998272, 61, 165, 76, 196
-0.998292, 245, 113, 260, 176
-0.998294, 259, 285, 274, 316
-0.998297, 235, 193, 250, 224
-0.998301, 239, 213, 254, 244
-0.998301, 471, 321, 486, 352
-0.998301, 141, 313, 156, 375
-0.998306, 221, 169, 236, 200
-0.998314, 433, 257, 448, 320
-0.998321, 299, 185, 314, 248
-0.998334, 197, 149, 212, 180
-0.998334, 421, 337, 436, 368
-0.998336, 427, 329, 442, 360
-0.998338, 209, 185, 224, 248
-0.998339, 229, 305, 260, 320
-0.998339, 281, 225, 312, 240
-0.99834, 241, 325, 272, 340
-0.99834, 237, 299, 268, 314
-0.998341, 353, 261, 384, 276
-0.998342, 177, 345, 208, 360
-0.998342, 289, 241, 320, 256
-0.998342, 229, 179, 260, 194
-0.998343, 313, 267, 344, 282
-0.998343, 233, 157, 264, 172
-0.998344, 21, 171, 52, 186
-0.998346, 257, 227, 288, 242
-0.998347, 229, 173, 260, 188
-0.998347, 73, 185, 104, 200
-0.998348, 429, 327, 460, 342
-0.998349, 261, 205, 276, 236
-0.998349, 173, 357, 204, 372
-0.998351, 269, 215, 300, 230
-0.998352, 233, 219, 264, 234
-0.998352, 65, 191, 96, 206
-0.998353, 315, 253, 330, 284
-0.998353, 275, 145, 290, 208
-0.998354, 337, 269, 464, 300
-0.998354, 129, 289, 144, 352
-0.998354, 469, 335, 500, 350
-0.998354, 445, 333, 460, 364
-0.998355, 89, 191, 120, 206
-0.998356, 429, 313, 460, 328
-0.998356, 357, 275, 388, 290
-0.998357, 163, 285, 178, 316
-0.998357, 393, 265, 408, 328
-0.998362, 49, 181, 80, 196
-0.998363, 233, 185, 264, 200
-0.998363, 105, 193, 136, 208
-0.998363, 165, 351, 196, 366
-0.998363, 209, 157, 224, 188
-0.998364, 293, 223, 324, 238
-0.998365, 321, 247, 352, 262
-0.998366, 273, 233, 304, 248
-0.998366, 201, 201, 232, 216
-0.99837, 63, 141, 78, 172
-0.99837, 247, 217, 262, 248
-0.99837, 269, 189, 300, 204
-0.998372, 49, 169, 80, 184
-0.998373, 149, 303, 180, 318
-0.998374, 427, 305, 442, 336
-0.998375, 189, 297, 220, 312
-0.998379, 305, 261, 336, 276
-0.99838, 129, 233, 384, 296
-0.998383, 453, 319, 484, 334
-0.998385, 245, 223, 276, 238
-0.998387, 189, 195, 220, 210
-0.998387, 421, 337, 452, 352
-0.998387, 209, 155, 272, 170
-0.998391, 441, 307, 472, 322
-0.998391, 305, 253, 336, 268
-0.998391, 381, 277, 412, 292
-0.998392, 273, 195, 304, 210
-0.998393, 169, 339, 200, 354
-0.998394, 341, 257, 372, 272
-0.998394, 151, 193, 166, 224
-0.998395, 249, 167, 280, 182
-0.998396, 117, 195, 148, 210
-0.998397, 133, 305, 164, 320
-0.998397, 349, 269, 380, 284
-0.9984, 229, 205, 260, 220
-0.9984, 397, 283, 428, 298
-0.9984, 197, 281, 212, 344
-0.998401, 209, 139, 240, 154
-0.998402, 413, 283, 444, 298
-0.998402, 485, 313, 500, 375
-0.998402, 113, 205, 128, 236
-0.998403, 173, 297, 204, 312
-0.998403, 401, 361, 432, 375
-0.998404, 69, 151, 100, 166
-0.998404, 277, 203, 308, 218
-0.998405, 153, 193, 168, 256
-0.998406, 221, 153, 252, 168
-0.998406, 373, 271, 404, 286
-0.998407, 165, 195, 196, 210
-0.998409, 157, 297, 188, 312
-0.998409, 337, 253, 464, 284
-0.998413, 201, 147, 264, 162
-0.998413, 305, 261, 368, 276
-0.998414, 209, 161, 240, 176
-0.998414, 437, 337, 468, 352
-0.998414, 425, 277, 440, 308
-0.998414, 195, 129, 210, 192
-0.998414, 385, 249, 448, 312
-0.998414, 281, 213, 312, 228
-0.998415, 121, 309, 152, 324
-0.998416, 233, 157, 248, 188
-0.998417, 201, 161, 216, 192
-0.998417, 167, 281, 182, 344
-0.998418, 235, 173, 250, 204
-0.998419, 33, 173, 64, 188
-0.998419, 457, 329, 472, 360
-0.99842, 417, 301, 448, 316
-0.99842, 185, 189, 200, 220
-0.998425, 247, 321, 262, 352
-0.998425, 153, 197, 216, 212
-0.998427, 261, 179, 292, 194
-0.99843, 197, 155, 228, 170
-0.998433, 39, 173, 54, 204
-0.998433, 257, 173, 288, 188
-0.998436, 429, 307, 460, 322
-0.998438, 409, 291, 440, 306
-0.998439, 219, 105, 234, 168
-0.998439, 97, 281, 352, 344
-0.998442, 329, 265, 360, 280
-0.998445, 257, 219, 320, 234
-0.998445, 67, 177, 82, 240
-0.998446, 455, 305, 470, 336
-0.998447, 257, 215, 288, 230
-0.998447, 217, 301, 248, 316
-0.998448, 441, 321, 472, 336
-0.99845, 141, 197, 172, 212
-0.998452, 397, 289, 428, 304
-0.998453, 305, 297, 432, 360
-0.998455, 305, 255, 368, 270
-0.998458, 429, 345, 460, 360
-0.998459, 245, 161, 276, 176
-0.998459, 421, 351, 452, 366
-0.998463, 341, 263, 372, 278
-0.998465, 269, 221, 300, 236
-0.998466, 233, 209, 248, 240
-0.998466, 413, 357, 444, 372
-0.998468, 261, 217, 276, 248
-0.998471, 153, 199, 184, 214
-0.998471, 153, 65, 216, 320
-0.998471, 213, 207, 244, 222
-0.998473, 441, 315, 472, 330
-0.998475, 433, 301, 464, 316
-0.998476, 257, 213, 320, 228
-0.998476, 217, 209, 232, 272
-0.998482, 217, 215, 280, 230
-0.998483, 385, 283, 416, 298
-0.998485, 141, 193, 156, 224
-0.998486, 301, 241, 332, 256
-0.998488, 317, 259, 348, 274
-0.998488, 159, 273, 174, 336
-0.998491, 421, 289, 452, 304
-0.998492, 189, 305, 204, 368
-0.998493, 225, 167, 288, 182
-0.998495, 201, 141, 264, 156
-0.998495, 451, 333, 466, 364
-0.998498, 361, 267, 392, 282
-0.998499, 465, 327, 496, 342
-0.998502, 329, 253, 360, 268
-0.998505, 61, 185, 92, 200
-0.998506, 281, 247, 344, 262
-0.998506, 329, 217, 344, 280
-0.998508, 85, 197, 116, 212
-0.998508, 369, 277, 400, 292
-0.998508, 249, 197, 312, 212
-0.998511, 289, 247, 320, 262
-0.998511, 405, 281, 420, 344
-0.998512, 189, 345, 204, 375
-0.998513, 249, 205, 312, 220
-0.998513, 193, 211, 256, 226
-0.998513, 281, 153, 296, 216
-0.998514, 129, 193, 144, 224
-0.998516, 229, 145, 260, 160
-0.998517, 185, 153, 248, 168
-0.998517, 209, 205, 272, 220
-0.998518, 225, 221, 288, 236
-0.998519, 281, 219, 312, 234
-0.99852, 83, 189, 98, 220
-0.99852, 345, 281, 408, 344
-0.99852, 77, 191, 108, 206
-0.998521, 321, 267, 384, 282
-0.998521, 153, 205, 168, 236
-0.998521, 241, 211, 272, 226
-0.998521, 217, 161, 280, 176
-0.998522, 105, 199, 136, 214
-0.998522, 269, 269, 284, 300
-0.998523, 265, 225, 328, 240
-0.998523, 241, 281, 256, 344
-0.998523, 269, 227, 300, 242
-0.998524, 161, 313, 288, 344
-0.998525, 85, 193, 100, 256
-0.998526, 333, 261, 348, 292
-0.998528, 281, 241, 344, 256
-0.998528, 293, 229, 324, 244
-0.998528, 125, 201, 156, 216
-0.998529, 233, 151, 264, 166
-0.998529, 425, 295, 456, 310
-0.99853, 189, 201, 220, 216
-0.998531, 45, 175, 76, 190
-0.998532, 201, 207, 232, 222
-0.998532, 453, 325, 484, 340
-0.998534, 185, 155, 216, 170
-0.998536, 265, 233, 328, 248
-0.998537, 297, 235, 328, 250
-0.998537, 193, 193, 256, 208
-0.998537, 209, 199, 272, 214
-0.998539, 449, 333, 480, 348
-0.99854, 197, 185, 212, 216
-0.998541, 225, 173, 288, 188
-0.998542, 197, 161, 228, 176
-0.998542, 189, 185, 204, 248
-0.998543, 345, 277, 408, 292
-0.998544, 233, 181, 296, 196
-0.998548, 319, 265, 334, 296
-0.998549, 45, 169, 60, 200
-0.998549, 153, 297, 216, 312
-0.998549, 305, 237, 320, 268
-0.998551, 279, 213, 294, 244
-0.998554, 121, 199, 184, 214
-0.998554, 183, 333, 198, 364
-0.998555, 25, 177, 88, 192
-0.998558, 241, 191, 304, 206
-0.998558, 433, 335, 496, 350
-0.998558, 221, 137, 252, 152
-0.998558, 217, 193, 232, 224
-0.998559, 185, 165, 248, 180
-0.998559, 191, 149, 206, 180
-0.99856, 229, 213, 260, 228
-0.99856, 81, 199, 144, 214
-0.998561, 209, 145, 240, 160
-0.998562, 217, 213, 248, 228
-0.998563, 197, 149, 228, 164
-0.998563, 175, 345, 190, 375
-0.998565, 209, 155, 240, 170
-0.998569, 305, 249, 368, 264
-0.998571, 65, 129, 128, 256
-0.998572, 353, 283, 416, 298
-0.998574, 329, 237, 344, 268
-0.998575, 401, 287, 464, 302
-0.998577, 309, 247, 340, 262
-0.998579, 119, 217, 134, 248
-0.99858, 201, 135, 264, 150
-0.998581, 369, 333, 496, 364
-0.998585, 385, 293, 448, 308
-0.998585, 345, 271, 408, 286
-0.998587, 273, 253, 336, 268
-0.998587, 329, 261, 392, 276
-0.998587, 177, 205, 240, 220
-0.998592, 229, 189, 244, 220
-0.998592, 57, 193, 120, 208
-0.998592, 289, 235, 352, 250
-0.998595, 177, 195, 208, 210
-0.998597, 365, 253, 380, 284
-0.998598, 425, 319, 488, 334
-0.998599, 297, 229, 312, 260
-0.998601, 345, 245, 360, 276
-0.998605, 239, 309, 254, 340
-0.998605, 273, 259, 336, 274
-0.998609, 81, 193, 144, 208
-0.998612, 409, 313, 472, 328
-0.998613, 297, 1, 360, 375
-0.998613, 161, 153, 224, 168
-0.998613, 357, 233, 388, 296
-0.998615, 377, 287, 440, 302
-0.998616, 257, 221, 288, 236
-0.99862, 241, 227, 304, 242
-0.99862, 433, 327, 496, 342
-0.998621, 153, 265, 168, 296
-0.99863, 153, 191, 216, 206
-0.998632, 129, 303, 192, 318
-0.998632, 245, 217, 276, 232
-0.998633, 329, 259, 360, 274
-0.998634, 317, 253, 348, 268
-0.998635, 185, 159, 248, 174
-0.998636, 185, 187, 248, 202
-0.998637, 333, 177, 364, 304
-0.998637, 1, 173, 64, 188
-0.998639, 185, 171, 248, 186
-0.998639, 409, 297, 472, 312
-0.998639, 425, 341, 488, 356
-0.99864, 177, 147, 240, 162
-0.99864, 177, 297, 240, 312
-0.998645, 225, 149, 288, 164
-0.998646, 105, 193, 168, 208
-0.998648, 33, 185, 96, 200
-0.998648, 401, 357, 464, 372
-0.998649, 169, 357, 232, 372
-0.998651, 161, 337, 288, 368
-0.998652, 385, 299, 448, 314
-0.998653, 193, 113, 448, 176
-0.998658, 281, 265, 344, 280
-0.99866, 393, 305, 456, 320
-0.998662, 409, 325, 472, 340
-0.998662, 289, 229, 352, 244
-0.998664, 385, 279, 448, 294
-0.998668, 245, 129, 260, 256
-0.998669, 249, 175, 312, 190
-0.998671, 329, 255, 392, 270
-0.998671, 369, 271, 432, 286
-0.998674, 417, 347, 480, 362
-0.998674, 137, 305, 200, 368
-0.998675, 409, 331, 472, 346
-0.99868, 193, 303, 256, 318
-0.998684, 273, 185, 336, 200
-0.998687, 97, 313, 160, 328
-0.998688, 57, 187, 120, 202
-0.998688, 257, 247, 320, 262
-0.998689, 129, 293, 192, 308
-0.99869, 305, 243, 368, 258
-0.99869, 433, 305, 496, 320
-0.998691, 289, 211, 352, 226
-0.998692, 217, 187, 280, 202
-0.998692, 145, 357, 208, 372
-0.998694, 177, 199, 240, 214
-0.998695, 289, 203, 352, 218
-0.998696, 353, 265, 416, 280
-0.998697, 217, 297, 280, 312
-0.998698, 129, 311, 192, 326
-0.998699, 241, 233, 304, 248
-0.998699, 433, 313, 496, 328
-0.998699, 41, 171, 104, 186
-0.998701, 225, 141, 288, 156
-0.998704, 257, 361, 320, 375
-0.998704, 177, 139, 240, 154
-0.998704, 193, 217, 256, 232
-0.998705, 129, 193, 192, 208
-0.998706, 297, 219, 360, 234
-0.998707, 145, 337, 208, 352
-0.998708, 257, 239, 320, 254
-0.99871, 401, 319, 464, 334
-0.998711, 209, 179, 272, 194
-0.998711, 385, 343, 448, 358
-0.998712, 105, 205, 168, 220
-0.998713, 161, 159, 224, 174
-0.998713, 369, 345, 496, 375
-0.998714, 249, 153, 312, 168
-0.998714, 257, 161, 320, 176
-0.998715, 273, 179, 336, 194
-0.998716, 281, 195, 344, 210
-0.998716, 65, 179, 128, 194
-0.998717, 105, 307, 168, 322
-0.998719, 33, 191, 96, 206
-0.998719, 33, 149, 96, 164
-0.998719, 177, 351, 240, 366
-0.998719, 321, 273, 384, 288
-0.99872, 153, 291, 216, 306
-0.99872, 265, 167, 328, 182
-0.998724, 313, 237, 376, 252
-0.998724, 277, 161, 292, 288
-0.998724, 137, 351, 200, 366
-0.998725, 169, 345, 232, 360
-0.998727, 145, 329, 208, 344
-0.99873, 225, 131, 288, 146
-0.998733, 57, 199, 120, 214
-0.998734, 241, 355, 304, 370
-0.998739, 265, 145, 280, 272
-0.998744, 17, 173, 144, 204
-0.998766, 295, 193, 310, 320
-0.998771, 233, 305, 264, 368
-0.998775, 257, 313, 500, 375
-0.998782, 287, 177, 302, 304
-0.998794, 255, 145, 270, 272
-0.9988, 239, 129, 254, 256
-0.998801, 1, 161, 256, 224
-0.998804, 289, 209, 416, 240
-0.998853, 205, 65, 236, 320
-0.998909, 49, 157, 176, 188
-0.998909, 97, 317, 224, 348
-0.998916, 271, 161, 286, 288
-0.998929, 185, 305, 216, 368
-0.998968, 65, 121, 192, 184
-0.998971, 257, 233, 500, 296
-0.998988, 193, 245, 320, 276
-0.998989, 233, 113, 248, 240
-0.998992, 33, 293, 160, 324
-0.998996, 141, 289, 172, 352
-0.999017, 193, 313, 256, 375
-0.999018, 385, 249, 416, 312
-0.999052, 301, 193, 316, 320
-0.999058, 265, 193, 280, 320
-0.999075, 377, 209, 408, 336
-0.999075, 281, 153, 312, 216
-0.999131, 1, 17, 500, 144
-0.999141, 225, 97, 240, 224
-0.999175, 41, 169, 72, 232
-0.999176, 241, 133, 368, 164
-0.999181, 257, 273, 384, 336
-0.999188, 337, 241, 464, 272
-0.999196, 369, 281, 496, 312
-0.999204, 289, 197, 416, 228
-0.99921, 209, 289, 336, 320
-0.999218, 213, 129, 228, 256
-0.99922, 307, 209, 322, 336
-0.999222, 65, 129, 96, 192
-0.999223, 197, 281, 228, 344
-0.999226, 145, 129, 272, 160
-0.999231, 97, 209, 224, 240
-0.999235, 317, 209, 332, 336
-0.999253, 1, 217, 500, 280
-0.999258, 329, 225, 344, 352
-0.999265, 273, 173, 400, 204
-0.999276, 323, 209, 338, 336
-0.999281, 245, 177, 260, 304
-0.999284, 257, 193, 272, 320
-0.999289, 123, 177, 138, 304
-0.999295, 101, 201, 132, 264
-0.999301, 289, 129, 320, 375
-0.999304, 133, 129, 164, 375
-0.999316, 81, 177, 144, 304
-0.999316, 269, 249, 300, 312
-0.999326, 65, 337, 192, 368
-0.999334, 65, 273, 192, 336
-0.999346, 217, 1, 248, 256
-0.999352, 145, 217, 272, 248
-0.999377, 193, 129, 208, 256
-0.999384, 293, 145, 308, 272
-0.999385, 97, 257, 352, 320
-0.999387, 125, 129, 156, 256
-0.99939, 33, 129, 96, 256
-0.9994, 277, 209, 292, 336
-0.999404, 283, 129, 298, 256
-0.999404, 33, 113, 288, 176
-0.999405, 17, 317, 144, 348
-0.999418, 225, 305, 352, 368
-0.999423, 345, 225, 376, 352
-0.999427, 219, 129, 234, 256
-0.999446, 1, 201, 128, 264
-0.999454, 251, 193, 266, 320
-0.999455, 233, 161, 248, 288
-0.999461, 161, 285, 288, 316
-0.999464, 115, 193, 130, 320
-0.99947, 33, 305, 160, 336
-0.999501, 49, 141, 176, 172
-0.999503, 209, 325, 336, 356
-0.999504, 65, 281, 192, 312
-0.999509, 1, 281, 256, 344
-0.999516, 97, 129, 224, 160
-0.99953, 177, 301, 304, 332
-0.999534, 227, 145, 242, 272
-0.999534, 265, 33, 296, 288
-0.999536, 273, 113, 288, 240
-0.999538, 427, 241, 442, 368
-0.999547, 119, 241, 134, 368
-0.999556, 113, 1, 176, 375
-0.999557, 239, 177, 254, 304
-0.999557, 271, 209, 286, 336
-0.999561, 377, 313, 440, 375
-0.999562, 307, 161, 322, 288
-0.999564, 255, 97, 270, 224
-0.999565, 243, 81, 258, 208
-0.999566, 439, 241, 454, 368
-0.999569, 153, 225, 168, 352
-0.999575, 301, 145, 316, 272
-0.999581, 199, 161, 214, 288
-0.999582, 321, 345, 448, 375
-0.999583, 147, 193, 162, 320
-0.999587, 205, 177, 220, 304
-0.999591, 267, 167, 282, 182
-0.999592, 485, 329, 500, 344
-0.999592, 77, 161, 92, 288
-0.999593, 451, 241, 466, 368
-0.999595, 279, 185, 294, 200
-0.999596, 311, 255, 326, 270
-0.999596, 193, 297, 208, 312
-0.999598, 177, 195, 192, 210
-0.999598, 147, 329, 162, 344
-0.999598, 303, 227, 318, 242
-0.999598, 311, 239, 326, 254
-0.999599, 157, 197, 172, 212
-0.999599, 63, 145, 78, 160
-0.999599, 227, 167, 242, 182
-0.999599, 419, 293, 434, 308
-0.999599, 443, 319, 458, 334
-0.9996, 141, 305, 156, 320
-0.999603, 305, 251, 320, 266
-0.999603, 249, 319, 264, 334
-0.999604, 407, 361, 422, 375
-0.999604, 253, 209, 268, 224
-0.999605, 123, 205, 138, 220
-0.999605, 131, 199, 146, 214
-0.999605, 167, 297, 182, 312
-0.999605, 463, 329, 478, 344
-0.999608, 287, 199, 302, 214
-0.999609, 429, 299, 444, 314
-0.999609, 451, 323, 466, 338
-0.999609, 193, 153, 208, 168
-0.99961, 359, 271, 374, 286
-0.99961, 269, 225, 284, 240
-0.999611, 271, 173, 286, 188
-0.999612, 131, 307, 146, 322
-0.999612, 447, 303, 462, 318
-0.999613, 111, 199, 126, 214
-0.999613, 89, 197, 104, 212
-0.999613, 369, 275, 384, 290
-0.999614, 329, 177, 344, 304
-0.999616, 369, 225, 384, 352
-0.999618, 221, 147, 236, 162
-0.99962, 197, 163, 212, 178
-0.99962, 241, 313, 368, 344
-0.999621, 149, 197, 164, 212
-0.999621, 285, 231, 300, 246
-0.999621, 291, 205, 306, 220
-0.999622, 39, 171, 54, 186
-0.999622, 151, 335, 166, 350
-0.999623, 455, 317, 470, 332
-0.999623, 251, 155, 266, 170
-0.999624, 183, 195, 198, 210
-0.999626, 143, 197, 158, 212
-0.999627, 231, 301, 246, 316
-0.999629, 435, 301, 450, 316
-0.999634, 175, 351, 190, 366
-0.999635, 295, 217, 310, 232
-0.999636, 199, 155, 214, 170
-0.999637, 205, 157, 220, 172
-0.999639, 257, 159, 272, 174
-0.999639, 187, 145, 202, 272
-0.99964, 205, 113, 220, 240
-0.999641, 359, 225, 374, 352
-0.999641, 59, 173, 74, 188
-0.999641, 289, 249, 304, 264
-0.999643, 379, 271, 394, 286
-0.999643, 263, 223, 278, 238
-0.999646, 229, 135, 244, 150
-0.999646, 313, 161, 328, 288
-0.999647, 479, 327, 494, 342
-0.999647, 211, 153, 226, 168
-0.999648, 83, 189, 98, 204
-0.999648, 117, 197, 132, 212
-0.999648, 289, 225, 304, 352
-0.999649, 419, 357, 434, 372
-0.99965, 311, 249, 326, 264
-0.99965, 435, 345, 450, 360
-0.999651, 427, 349, 442, 364
-0.999651, 361, 265, 376, 280
-0.999653, 73, 151, 88, 166
-0.999653, 441, 341, 456, 356
-0.999653, 69, 185, 84, 200
-0.999658, 441, 305, 456, 320
-0.999659, 219, 137, 234, 152
-0.999659, 413, 359, 428, 374
-0.99966, 317, 243, 332, 258
-0.99966, 69, 145, 84, 272
-0.999662, 413, 289, 428, 304
-0.999663, 195, 195, 210, 210
-0.999664, 101, 197, 116, 212
-0.999665, 239, 139, 254, 154
-0.999668, 431, 283, 446, 298
-0.99967, 217, 155, 232, 170
-0.99967, 97, 225, 224, 256
-0.999671, 281, 225, 296, 240
-0.999671, 457, 331, 472, 346
-0.999672, 391, 279, 406, 294
-0.999673, 447, 335, 462, 350
-0.999673, 441, 295, 456, 310
-0.999673, 125, 199, 140, 214
-0.999673, 353, 261, 368, 276
-0.999673, 397, 281, 412, 296
-0.999674, 333, 259, 348, 274
-0.999676, 405, 285, 420, 300
-0.999678, 337, 253, 352, 268
-0.999679, 449, 311, 464, 326
-0.999679, 203, 149, 218, 164
-0.999681, 323, 261, 338, 276
-0.999681, 207, 203, 222, 218
-0.999682, 385, 275, 400, 290
-0.999682, 293, 211, 308, 226
-0.999684, 225, 153, 240, 168
-0.999684, 295, 245, 310, 260
-0.999685, 95, 195, 110, 210
-0.999686, 81, 173, 208, 204
-0.999686, 373, 269, 388, 284
-0.999687, 159, 241, 174, 368
-0.999688, 75, 185, 90, 200
-0.999689, 45, 173, 60, 188
-0.99969, 63, 179, 78, 194
-0.999692, 469, 325, 484, 340
-0.999693, 457, 323, 472, 338
-0.999694, 367, 267, 382, 282
-0.999695, 343, 257, 358, 272
-0.999698, 177, 233, 304, 264
-0.999701, 317, 253, 332, 268
-0.999702, 235, 213, 250, 228
-0.999705, 213, 205, 228, 220
-0.999705, 203, 163, 218, 178
-0.999708, 117, 129, 148, 375
-0.999708, 329, 129, 360, 375
-0.999708, 425, 291, 440, 306
-0.999709, 201, 199, 216, 214
-0.99971, 81, 225, 208, 288
-0.99971, 323, 247, 338, 262
-0.99971, 335, 225, 350, 352
-0.99971, 229, 211, 244, 226
-0.999711, 463, 323, 478, 338
-0.999712, 189, 193, 204, 208
-0.999716, 309, 129, 340, 375
-0.999718, 29, 185, 60, 248
-0.999725, 255, 215, 270, 230
-0.999728, 261, 217, 276, 232
-0.99973, 89, 189, 104, 204
-0.99973, 321, 333, 448, 364
-0.999732, 245, 215, 260, 230
-0.999733, 221, 209, 236, 224
-0.999734, 211, 159, 226, 174
-0.999735, 213, 145, 228, 160
-0.999742, 433, 241, 448, 368
-0.999742, 211, 81, 226, 208
-0.999748, 245, 225, 260, 352
-0.999753, 397, 241, 412, 368
-0.999755, 275, 223, 290, 238
-0.999757, 145, 273, 272, 304
-0.999769, 269, 219, 284, 234
-0.999769, 77, 113, 92, 240
-0.999774, 249, 81, 264, 208
-0.999775, 261, 97, 276, 224
-0.999776, 167, 225, 182, 352
-0.999776, 373, 241, 404, 304
-0.999777, 435, 289, 450, 304
-0.999778, 241, 313, 304, 375
-0.999782, 67, 97, 82, 224
-0.999787, 27, 177, 42, 304
-0.999792, 323, 161, 338, 288
-0.999795, 323, 255, 338, 270
-0.999799, 331, 251, 346, 266
-0.999802, 209, 345, 336, 375
-0.999811, 225, 121, 352, 152
-0.999816, 445, 241, 460, 368
-0.999818, 65, 1, 128, 375
-0.999821, 219, 81, 234, 208
-0.999825, 289, 241, 320, 368
-0.999827, 153, 145, 168, 272
-0.999828, 253, 33, 284, 288
-0.999831, 237, 65, 252, 192
-0.999832, 195, 81, 210, 208
-0.999834, 457, 241, 472, 368
-0.999843, 229, 1, 260, 256
-0.999846, 63, 145, 78, 272
-0.999846, 413, 225, 444, 352
-0.999846, 239, 225, 254, 352
-0.999847, 185, 241, 200, 368
-0.999848, 231, 65, 246, 192
-0.99985, 119, 129, 134, 256
-0.999851, 267, 97, 282, 224
-0.999854, 421, 225, 436, 352
-0.999856, 197, 65, 228, 192
-0.999864, 233, 233, 296, 296
-0.99987, 227, 225, 242, 352
-0.99987, 301, 241, 316, 368
-0.999875, 211, 193, 226, 320
-0.999881, 199, 209, 214, 336
-0.999881, 143, 145, 158, 272
-0.999882, 375, 241, 390, 368
-0.999882, 193, 241, 208, 368
-0.999887, 101, 241, 132, 368
-0.999889, 125, 241, 140, 368
-0.999894, 145, 241, 160, 368
-0.999894, 33, 161, 48, 288
-0.999898, 175, 241, 190, 368
-0.999905, 113, 145, 128, 272
-0.999909, 221, 225, 236, 352
-0.999914, 403, 241, 418, 368
-0.999916, 49, 209, 176, 240
-0.999919, 113, 241, 128, 368
-0.999919, 129, 193, 144, 320
-0.99992, 83, 129, 98, 256
-0.999922, 257, 241, 272, 368
-0.999923, 335, 177, 350, 304
-0.999924, 57, 113, 72, 240
-0.999928, 283, 225, 298, 352
-0.999932, 23, 225, 38, 352
-0.999941, 353, 225, 368, 352
-0.999941, 183, 81, 198, 208
-0.999945, 391, 241, 406, 368
-0.99995, 39, 161, 54, 288
-0.999955, 33, 209, 288, 272
-0.999956, 131, 241, 146, 368
-0.999964, 33, 241, 288, 368
-0.999977, 399, 193, 414, 320
-0.999982, 129, 257, 192, 320
-0.999982, 369, 177, 384, 304
-0.999984, 273, 161, 400, 192
-0.999986, 129, 129, 144, 256
-0.99999, 359, 177, 374, 304
-0.999992, 89, 281, 152, 344
-0.999993, 233, 241, 248, 368
-0.999994, 1, 149, 128, 180
-0.999999, 297, 169, 328, 232
-1, 225, 49, 240, 176
-1, 161, 193, 176, 320
-1.00001, 71, 193, 86, 320
-1.00002, 409, 209, 424, 336
-1.00003, 429, 193, 444, 320
-1.00004, 251, 241, 266, 368
-1.00004, 377, 193, 392, 320
-1.00004, 101, 241, 116, 368
-1.00005, 265, 241, 280, 368
-1.00005, 219, 177, 234, 304
-1.00005, 137, 233, 168, 296
-1.00005, 73, 177, 104, 304
-1.00005, 19, 145, 34, 272
-1.00005, 205, 225, 220, 352
-1.00005, 35, 113, 50, 240
-1.00006, 83, 177, 98, 304
-1.00006, 479, 241, 494, 368
-1.00006, 189, 81, 204, 208
-1.00006, 17, 209, 32, 336
-1.00007, 27, 129, 42, 256
-1.00007, 295, 241, 310, 368
-1.00009, 77, 129, 108, 256
-1.0001, 185, 129, 216, 375
-1.00014, 257, 341, 384, 372
-1.00015, 105, 129, 136, 375
-1.00015, 97, 237, 224, 268
-1.00015, 145, 249, 272, 280
-1.00017, 81, 169, 208, 232
-1.00017, 89, 257, 152, 320
-1.00018, 321, 305, 448, 336
-1.00018, 113, 329, 240, 360
-1.0002, 161, 249, 288, 312
-1.0002, 325, 265, 356, 328
-1.00023, 241, 277, 368, 308
-1.00026, 45, 121, 76, 184
-1.00029, 65, 269, 192, 300
-1.0003, 1, 257, 500, 320
-1.00031, 321, 229, 448, 260
-1.00035, 25, 161, 56, 288
-1.00035, 1, 197, 128, 228
-1.00036, 209, 257, 272, 320
-1.00037, 33, 225, 160, 288
-1.00038, 33, 229, 160, 260
-1.00039, 177, 261, 304, 292
-1.00039, 105, 257, 136, 320
-1.0004, 49, 129, 176, 160
-1.00044, 149, 97, 180, 352
-1.00044, 1, 137, 128, 168
-1.00047, 225, 301, 352, 332
-1.0005, 289, 33, 320, 288
-1.00051, 1, 257, 256, 320
-1.00055, 33, 305, 288, 368
-1.00056, 65, 65, 96, 320
-1.00057, 153, 241, 184, 368
-1.0006, 321, 321, 448, 352
-1.00061, 57, 129, 120, 192
-1.00061, 1, 217, 128, 248
-1.00065, 113, 117, 240, 148
-1.0007, 189, 33, 220, 288
-1.00071, 17, 345, 144, 375
-1.00072, 97, 253, 224, 284
-1.00075, 153, 257, 184, 320
-1.00075, 161, 117, 288, 148
-1.00077, 117, 33, 148, 288
-1.00081, 361, 129, 392, 375
-1.00082, 93, 97, 124, 352
-1.00083, 257, 329, 384, 360
-1.00083, 257, 289, 384, 320
-1.00084, 137, 153, 200, 216
-1.00085, 49, 129, 80, 375
-1.00086, 49, 241, 176, 272
-1.00086, 1, 121, 128, 152
-1.00088, 149, 145, 180, 272
-1.00089, 269, 145, 300, 208
-1.0009, 313, 201, 376, 264
-1.0009, 17, 333, 144, 364
-1.00092, 25, 129, 56, 375
-1.00092, 161, 129, 192, 375
-1.00092, 209, 225, 240, 352
-1.00092, 429, 129, 460, 375
-1.00093, 189, 193, 220, 320
-1.00093, 41, 33, 72, 288
-1.00094, 113, 225, 144, 288
-1.00095, 133, 33, 164, 288
-1.00095, 357, 193, 388, 320
-1.00097, 65, 117, 192, 148
-1.00098, 49, 257, 176, 288
-1.00098, 209, 81, 240, 208
-1.00101, 161, 105, 288, 136
-1.00101, 209, 105, 336, 136
-1.00103, 17, 281, 144, 312
-1.00103, 341, 129, 372, 375
-1.00105, 113, 177, 240, 304
-1.00106, 145, 1, 208, 375
-1.00106, 1, 241, 128, 272
-1.00107, 241, 225, 272, 288
-1.00107, 321, 137, 448, 168
-1.00107, 369, 145, 496, 176
-1.00107, 321, 149, 448, 180
-1.00107, 369, 157, 496, 188
-1.00107, 321, 161, 448, 192
-1.00107, 369, 169, 496, 200
-1.00107, 321, 173, 448, 204
-1.00107, 369, 181, 496, 212
-1.00107, 321, 185, 448, 216
-1.00107, 369, 193, 496, 224
-1.00107, 369, 205, 496, 236
-1.00107, 369, 217, 496, 248
-1.00107, 369, 229, 496, 260
-1.00107, 1, 257, 128, 288
-1.00107, 1, 269, 128, 300
-1.00107, 169, 153, 200, 216
-1.00107, 5, 129, 36, 375
-1.00108, 173, 129, 204, 375
-1.0011, 241, 105, 368, 168
-1.00113, 1, 297, 500, 360
-1.00115, 337, 1, 400, 375
-1.00116, 129, 305, 384, 368
-1.00116, 409, 129, 440, 375
-1.00117, 277, 33, 308, 288
-1.00118, 97, 249, 224, 312
-1.00118, 105, 33, 136, 288
-1.00123, 137, 313, 168, 375
-1.00123, 445, 129, 476, 375
-1.00123, 465, 129, 496, 375
-1.0013, 25, 33, 56, 288
-1.00131, 117, 241, 148, 368
-1.00131, 149, 1, 180, 256
-1.00135, 149, 313, 180, 375
-1.00136, 1, 121, 128, 184
-1.00141, 469, 289, 500, 352
-1.00142, 17, 281, 144, 344
-1.00143, 37, 129, 68, 375
-1.00147, 153, 193, 184, 320
-1.00148, 177, 33, 208, 288
-1.00149, 397, 129, 428, 375
-1.0015, 5, 33, 36, 288
-1.00152, 161, 89, 416, 152
-1.00154, 85, 1, 116, 256
-1.00154, 81, 129, 112, 375
-1.00155, 301, 33, 332, 288
-1.00159, 113, 97, 176, 352
-1.00163, 265, 313, 328, 375
-1.00163, 161, 33, 192, 288
-1.00164, 49, 193, 112, 256
-1.00169, 173, 257, 204, 320
-1.00175, 409, 33, 440, 288
-1.00176, 361, 33, 392, 288
-1.00176, 209, 1, 272, 256
-1.00176, 401, 1, 464, 375
-1.00178, 341, 1, 372, 256
-1.00178, 317, 33, 348, 288
-1.00179, 65, 89, 320, 152
-1.0018, 1, 161, 500, 224
-1.0018, 445, 33, 476, 288
-1.00182, 329, 33, 360, 288
-1.00182, 177, 241, 208, 368
-1.00184, 53, 1, 84, 256
-1.00184, 421, 1, 452, 256
-1.00184, 433, 1, 464, 256
-1.00184, 377, 33, 408, 288
-1.00184, 389, 33, 420, 288
-1.00184, 457, 33, 488, 288
-1.00184, 469, 33, 500, 288
-1.00184, 377, 129, 408, 375
-1.00185, 49, 249, 176, 312
-1.00185, 205, 105, 236, 168
-1.00189, 221, 297, 252, 360
-1.0019, 161, 89, 288, 152
-1.0019, 113, 281, 176, 344
-1.00192, 305, 145, 368, 272
-1.00194, 401, 313, 432, 375
-1.00196, 1, 233, 256, 296
-1.00201, 25, 209, 56, 272
-1.0021, 25, 97, 88, 352
-1.00211, 369, 193, 496, 320
-1.00212, 257, 1, 500, 64
-1.00212, 65, 17, 320, 80
-1.00212, 161, 17, 416, 80
-1.00212, 257, 25, 500, 88
-1.00212, 65, 41, 320, 104
-1.00212, 161, 41, 416, 104
-1.00212, 257, 49, 500, 112
-1.00212, 65, 65, 320, 128
-1.00212, 161, 65, 416, 128
-1.00212, 257, 73, 500, 136
-1.00221, 129, 161, 160, 224
-1.00221, 241, 281, 272, 344
-1.00227, 1, 97, 128, 160
-1.00227, 49, 97, 176, 160
-1.00235, 369, 217, 496, 280
-1.00241, 73, 233, 136, 296
-1.00247, 89, 161, 120, 224
-1.00247, 377, 193, 440, 320
-1.00248, 125, 257, 156, 320
-1.00253, 137, 265, 168, 328
-1.00258, 97, 145, 128, 272
-1.00261, 65, 65, 96, 192
-1.00261, 145, 193, 208, 320
-1.00267, 209, 73, 336, 136
-1.00271, 1, 313, 128, 375
-1.00272, 1, 257, 128, 320
-1.0028, 425, 1, 488, 375
-1.00281, 153, 217, 184, 280
-1.00281, 45, 81, 76, 208
-1.00283, 81, 305, 144, 368
-1.00291, 33, 1, 160, 64
-1.00291, 81, 1, 208, 64
-1.00291, 129, 1, 256, 64
-1.00291, 225, 1, 352, 64
-1.00291, 321, 1, 448, 64
-1.00291, 369, 1, 496, 64
-1.00291, 273, 9, 400, 72
-1.00291, 177, 17, 304, 80
-1.00291, 33, 25, 160, 88
-1.00291, 81, 25, 208, 88
-1.00291, 129, 25, 256, 88
-1.00291, 225, 25, 352, 88
-1.00291, 321, 25, 448, 88
-1.00291, 369, 25, 496, 88
-1.00291, 273, 33, 400, 96
-1.00291, 177, 41, 304, 104
-1.00291, 17, 49, 144, 112
-1.00291, 65, 49, 192, 112
-1.00291, 113, 49, 240, 112
-1.00291, 225, 49, 352, 112
-1.00291, 321, 49, 448, 112
-1.00291, 369, 49, 496, 112
-1.00291, 273, 57, 400, 120
-1.00291, 161, 65, 288, 128
-1.00291, 1, 73, 128, 136
-1.00291, 49, 73, 176, 136
-1.00291, 97, 73, 224, 136
-1.00291, 321, 73, 448, 136
-1.00291, 369, 73, 496, 136
-1.00291, 273, 81, 400, 144
-1.00291, 321, 97, 448, 160
-1.00291, 369, 97, 496, 160
-1.00291, 321, 121, 448, 184
-1.00291, 369, 121, 496, 184
-1.00291, 321, 145, 448, 208
-1.00291, 369, 145, 496, 208
-1.00291, 321, 169, 448, 232
-1.00291, 369, 169, 496, 232
-1.00291, 369, 193, 496, 256
-1.00299, 1, 129, 500, 192
-1.00306, 81, 129, 144, 375
-1.00313, 17, 1, 80, 375
-1.0032, 9, 177, 72, 240
-1.00321, 221, 241, 252, 368
-1.00325, 17, 217, 80, 280
-1.00325, 149, 169, 180, 232
-1.00326, 41, 1, 104, 375
-1.00328, 97, 129, 224, 256
-1.00354, 161, 313, 224, 375
-1.00357, 189, 257, 220, 320
-1.00358, 169, 81, 200, 208
-1.00363, 9, 193, 40, 256
-1.00367, 389, 241, 420, 368
-1.00372, 369, 1, 432, 375
-1.00372, 9, 225, 40, 288
-1.00376, 29, 161, 60, 224
-1.00378, 233, 97, 296, 160
-1.00381, 117, 177, 148, 240
-1.00381, 1, 89, 500, 152
-1.00381, 1, 25, 500, 88
-1.00384, 89, 1, 152, 375
-1.00386, 181, 121, 212, 184
-1.00386, 1, 1, 500, 64
-1.00387, 1, 241, 64, 304
-1.00387, 1, 65, 500, 128
-1.0039, 17, 161, 48, 224
-1.00394, 93, 305, 124, 368
-1.00395, 25, 121, 88, 184
-1.00397, 245, 105, 276, 168
-1.004, 321, 193, 448, 256
-1.00402, 161, 241, 224, 304
-1.0041, 57, 33, 120, 288
-1.00414, 169, 121, 200, 184
-1.00415, 257, 113, 288, 176
-1.00418, 265, 273, 296, 336
-1.00423, 185, 97, 216, 224
-1.00431, 305, 273, 368, 336
-1.00433, 353, 225, 416, 288
-1.00436, 297, 169, 360, 232
-1.00438, 137, 121, 200, 184
-1.00438, 129, 225, 256, 288
-1.00445, 21, 209, 52, 336
-1.00451, 1, 153, 64, 216
-1.00456, 345, 129, 408, 375
-1.00463, 189, 241, 220, 368
-1.00467, 441, 241, 472, 368
-1.00474, 9, 225, 40, 352
-1.00487, 169, 145, 200, 272
-1.00495, 49, 97, 176, 224
-1.00519, 21, 113, 52, 240
-1.00521, 161, 105, 224, 168
-1.00528, 209, 241, 272, 368
-1.00549, 33, 49, 288, 176
-1.00549, 281, 33, 344, 288
-1.00554, 397, 193, 428, 320
-1.00554, 345, 177, 376, 304
-1.00557, 109, 129, 140, 256
-1.00559, 249, 65, 312, 192
-1.00564, 17, 241, 144, 368
-1.00566, 65, 105, 128, 168
-1.00567, 145, 97, 208, 224
-1.00567, 9, 1, 72, 256
-1.00585, 193, 33, 448, 160
-1.00591, 429, 193, 460, 320
-1.00592, 49, 129, 112, 375
-1.00592, 65, 281, 128, 344
-1.00599, 5, 177, 36, 304
-1.00599, 281, 273, 344, 336
-1.00602, 249, 241, 280, 368
-1.00605, 281, 81, 312, 208
-1.00608, 137, 161, 168, 288
-1.00632, 377, 129, 440, 375
-1.00644, 169, 193, 200, 320
-1.00646, 77, 241, 108, 368
-1.00647, 185, 233, 248, 296
-1.00648, 77, 81, 108, 208
-1.00669, 129, 241, 160, 368
-1.00685, 5, 129, 36, 256
-1.00692, 25, 81, 88, 208
-1.00699, 217, 33, 280, 160
-1.00707, 73, 81, 136, 208
-1.00707, 89, 193, 120, 320
-1.00712, 293, 97, 324, 224
-1.00717, 465, 225, 496, 352
-1.00717, 409, 241, 472, 304
-1.00724, 17, 193, 144, 320
-1.00727, 81, 33, 144, 288
-1.00729, 249, 49, 280, 176
-1.00733, 113, 1, 176, 256
-1.00749, 21, 65, 52, 192
-1.00751, 353, 305, 416, 368
-1.00751, 57, 305, 120, 368
-1.00755, 17, 97, 80, 160
-1.00759, 113, 113, 176, 240
-1.00765, 417, 193, 480, 320
-1.00769, 145, 17, 272, 144
-1.0077, 25, 241, 88, 304
-1.00771, 181, 49, 212, 176
-1.00773, 269, 65, 300, 192
-1.00776, 149, 97, 180, 224
-1.00777, 33, 81, 64, 208
-1.00779, 137, 113, 168, 240
-1.0079, 49, 177, 80, 304
-1.00792, 1, 129, 64, 192
-1.00795, 37, 177, 68, 304
-1.00797, 413, 177, 444, 304
-1.00801, 209, 81, 272, 144
-1.00802, 425, 129, 488, 375
-1.00802, 321, 297, 384, 360
-1.00807, 209, 33, 240, 160
-1.00809, 445, 193, 476, 320
-1.00833, 377, 225, 440, 288
-1.00835, 89, 81, 120, 208
-1.00838, 1, 81, 128, 208
-1.00839, 65, 49, 192, 176
-1.00844, 233, 33, 264, 160
-1.00847, 321, 129, 352, 256
-1.00848, 81, 129, 144, 192
-1.00849, 377, 161, 408, 288
-1.00852, 309, 129, 340, 256
-1.00869, 49, 81, 112, 144
-1.00875, 65, 257, 128, 320
-1.00884, 113, 145, 176, 208
-1.00887, 57, 177, 120, 304
-1.00889, 117, 81, 148, 208
-1.0089, 365, 145, 396, 272
-1.009, 169, 33, 200, 160
-1.00905, 137, 97, 200, 160
-1.0091, 17, 73, 80, 136
-1.00918, 33, 33, 64, 160
-1.00921, 393, 145, 424, 272
-1.00924, 53, 33, 84, 160
-1.00924, 433, 225, 496, 288
-1.00924, 41, 281, 104, 344
-1.00927, 65, 17, 96, 144
-1.00927, 85, 33, 116, 160
-1.00929, 337, 137, 400, 200
-1.00929, 313, 145, 376, 208
-1.00929, 361, 145, 424, 208
-1.00929, 409, 145, 472, 208
-1.00929, 385, 153, 448, 216
-1.00929, 433, 153, 496, 216
-1.00929, 337, 161, 400, 224
-1.00929, 361, 169, 424, 232
-1.00929, 409, 169, 472, 232
-1.00929, 385, 177, 448, 240
-1.00929, 433, 177, 496, 240
-1.00929, 337, 185, 400, 248
-1.00929, 361, 193, 424, 256
-1.00929, 409, 193, 472, 256
-1.00929, 385, 201, 448, 264
-1.00929, 433, 201, 496, 264
-1.00929, 409, 217, 472, 280
-1.00929, 49, 233, 112, 296
-1.00929, 17, 265, 80, 328
-1.00929, 17, 289, 80, 352
-1.00929, 9, 313, 72, 375
-1.00929, 33, 313, 96, 375
-1.00929, 5, 81, 36, 208
-1.00934, 101, 81, 132, 208
-1.00934, 221, 1, 252, 128
-1.00945, 137, 65, 168, 192
-1.00947, 425, 145, 456, 272
-1.00953, 5, 33, 36, 160
-1.00953, 65, 241, 96, 368
-1.00956, 445, 97, 476, 224
-1.00956, 353, 113, 384, 240
-1.00956, 381, 113, 412, 240
-1.00956, 457, 113, 488, 240
-1.00956, 413, 129, 444, 256
-1.00956, 469, 129, 500, 256
-1.00956, 445, 145, 476, 272
-1.00956, 457, 161, 488, 288
-1.00956, 469, 177, 500, 304
-1.00956, 41, 241, 72, 368
-1.00956, 53, 241, 84, 368
-1.00958, 177, 33, 240, 160
-1.0097, 97, 1, 352, 128
-1.00971, 1, 97, 64, 352
-1.00979, 209, 1, 336, 128
-1.00979, 1, 33, 128, 160
-1.00997, 401, 129, 464, 375
-1.01021, 393, 33, 456, 288
-1.01038, 49, 1, 176, 128
-1.01038, 97, 1, 224, 128
-1.01038, 321, 1, 448, 128
-1.01038, 369, 17, 496, 144
-1.01038, 273, 33, 400, 160
-1.01038, 321, 49, 448, 176
-1.01038, 369, 65, 496, 192
-1.01038, 321, 97, 448, 224
-1.01038, 369, 113, 496, 240
-1.01082, 337, 1, 400, 256
-1.01082, 433, 33, 496, 288
-1.01083, 305, 33, 368, 288
-1.01086, 369, 1, 432, 256
-1.01097, 89, 129, 152, 256
-1.01117, 65, 225, 128, 352
-1.01121, 33, 177, 96, 304
-1.01126, 145, 49, 208, 176
-1.01166, 41, 241, 104, 368
-1.01172, 9, 129, 72, 256
-1.01188, 33, 1, 96, 256
-1.01266, 57, 33, 120, 160
-1.01309, 1, 81, 64, 208
-1.01358, 49, 81, 112, 208
-1.01364, 9, 209, 72, 336
-1.01431, 369, 145, 432, 272
-1.01439, 425, 145, 488, 272
-1.01457, 33, 33, 96, 160
-1.01458, 9, 17, 72, 144
-1.01461, 97, 65, 160, 192
-1.01465, 345, 129, 408, 256
-1.01469, 1, 1, 256, 128
-1.01478, 129, 1, 192, 128
-1.01478, 153, 1, 216, 128
-1.01478, 313, 1, 376, 128
-1.01478, 337, 1, 400, 128
-1.01478, 385, 1, 448, 128
-1.01478, 433, 1, 496, 128
-1.01478, 97, 17, 160, 144
-1.01478, 257, 17, 320, 144
-1.01478, 281, 33, 344, 160
-1.01478, 361, 33, 424, 160
-1.01478, 409, 33, 472, 160
-1.01478, 121, 49, 184, 176
-1.01478, 305, 49, 368, 176
-1.01478, 329, 49, 392, 176
-1.01478, 385, 49, 448, 176
-1.01478, 433, 49, 496, 176
-1.01478, 353, 81, 416, 208
-1.01478, 409, 81, 472, 208
-1.01478, 321, 97, 384, 224
-1.01478, 377, 97, 440, 224
-1.01478, 433, 97, 496, 224
-1.01478, 401, 129, 464, 256
-1.08189, 129, 33, 384, 288
