1948
-0.538779, 1, 97, 500, 351
-0.601943, 1, 1, 500, 351
-0.613415, 1, 1, 500, 256
-0.646209, 257, 97, 500, 351
-0.652844, 225, 1, 480, 351
-0.759421, 1, 97, 256, 351
-0.770329, 97, 1, 352, 351
-0.816216, 1, 1, 256, 351
-0.859331, 369, 97, 496, 351
-0.87329, 225, 1, 480, 256
-0.873883, 129, 97, 384, 351
-0.880643, 1, 225, 500, 351
-0.893124, 129, 225, 384, 351
-0.900632, 289, 97, 416, 351
-0.912814, 225, 225, 480, 351
-0.913347, 369, 1, 496, 351
-0.916565, 1, 177, 500, 304
-0.916801, 321, 1, 448, 351
-0.918162, 257, 145, 500, 272
-0.920142, 129, 177, 384, 304
-0.923681, 353, 225, 480, 351
-0.925045, 1, 225, 256, 351
-0.926849, 145, 1, 272, 351
-0.927385, 161, 97, 288, 351
-0.927694, 145, 193, 272, 320
-0.929243, 81, 97, 208, 351
-0.929291, 33, 97, 160, 351
-0.931385, 273, 1, 400, 351
-0.935337, 1, 113, 500, 240
-0.936705, 209, 1, 336, 351
-0.93764, 417, 209, 480, 336
-0.937645, 145, 225, 208, 351
-0.937824, 385, 225, 448, 351
-0.938745, 369, 129, 496, 256
-0.939372, 193, 193, 320, 320
-0.941778, 257, 225, 384, 351
-0.942435, 305, 225, 432, 351
-0.942998, 33, 1, 160, 351
-0.943416, 409, 113, 472, 240
-0.944201, 369, 1, 496, 256
-0.944687, 169, 193, 232, 320
-0.94474, 97, 1, 352, 256
-0.945131, 1, 177, 256, 304
-0.946197, 97, 1, 224, 351
-0.94667, 257, 97, 500, 224
-0.948579, 369, 177, 496, 304
-0.949127, 241, 193, 304, 320
-0.950293, 1, 65, 500, 192
-0.950302, 289, 225, 352, 351
-0.950841, 321, 225, 384, 351
-0.951461, 305, 1, 432, 256
-0.951651, 89, 289, 152, 351
-0.95243, 193, 193, 256, 320
-0.952474, 361, 225, 424, 351
-0.953038, 161, 209, 224, 272
-0.953181, 17, 225, 144, 351
-0.953321, 409, 257, 472, 320
-0.954056, 97, 225, 224, 351
-0.954292, 409, 161, 472, 288
-0.954399, 209, 97, 336, 351
-0.954834, 113, 273, 176, 336
-0.955822, 265, 209, 328, 336
-0.956651, 305, 177, 432, 304
-0.956983, 217, 209, 280, 336
-0.957429, 17, 177, 80, 304
-0.959271, 185, 201, 248, 264
-0.959569, 113, 1, 240, 256
-0.959899, 417, 209, 480, 272
-0.960382, 385, 177, 448, 304
-0.960502, 217, 201, 280, 264
-0.961362, 257, 201, 320, 264
-0.961411, 385, 113, 448, 240
-0.962088, 433, 161, 496, 288
-0.962499, 409, 121, 472, 184
-0.962669, 145, 241, 208, 304
-0.96308, 433, 257, 496, 320
-0.963629, 121, 225, 184, 351
-0.963854, 17, 193, 80, 256
-0.964404, 433, 233, 496, 296
-0.964985, 409, 97, 472, 351
-0.965004, 329, 249, 392, 312
-0.96552, 33, 1, 160, 256
-0.966037, 1, 225, 64, 351
-0.966193, 361, 177, 424, 304
-0.966518, 1, 257, 64, 320
-0.966811, 385, 233, 448, 296
-0.967005, 41, 289, 104, 351
-0.967058, 137, 273, 200, 336
-0.968325, 17, 177, 144, 304
-0.968453, 385, 193, 448, 256
-0.968662, 409, 185, 472, 248
-0.968672, 305, 81, 432, 208
-0.969107, 217, 161, 280, 288
-0.969128, 385, 257, 448, 320
-0.969226, 409, 233, 472, 296
-0.969737, 1, 1, 500, 128
-0.969822, 241, 177, 368, 304
-0.969906, 257, 49, 500, 176
-0.970024, 393, 281, 456, 344
-0.970213, 265, 225, 328, 288
-0.970346, 161, 193, 192, 320
-0.970516, 161, 209, 192, 272
-0.970531, 353, 233, 480, 296
-0.970606, 81, 289, 208, 351
-0.970866, 145, 209, 272, 272
-0.971059, 145, 177, 208, 304
-0.971477, 113, 281, 144, 344
-0.971746, 289, 233, 352, 296
-0.972002, 129, 217, 192, 280
-0.97214, 369, 129, 496, 192
-0.972313, 193, 201, 320, 264
-0.972818, 433, 177, 496, 240
-0.97348, 329, 273, 392, 336
-0.973664, 289, 129, 416, 256
-0.973701, 185, 225, 248, 288
-0.97381, 369, 81, 496, 208
-0.97381, 177, 145, 304, 272
-0.97381, 89, 265, 152, 328
-0.973951, 385, 121, 448, 184
-0.974002, 409, 161, 472, 224
-0.974045, 33, 281, 160, 344
-0.974287, 353, 273, 416, 336
-0.974589, 193, 1, 320, 256
-0.974602, 1, 225, 64, 288
-0.974606, 441, 257, 472, 320
-0.974615, 241, 225, 304, 288
-0.97481, 401, 225, 432, 351
-0.974836, 229, 193, 260, 320
-0.974895, 137, 273, 168, 336
-0.974909, 385, 169, 448, 232
-0.975052, 161, 113, 416, 240
-0.975261, 277, 193, 308, 320
-0.975452, 121, 249, 184, 312
-0.975554, 181, 193, 212, 320
-0.975643, 289, 177, 352, 304
-0.975694, 289, 273, 352, 336
-0.975789, 277, 201, 308, 264
-0.975932, 217, 225, 280, 288
-0.975961, 353, 257, 480, 320
-0.976193, 289, 265, 416, 328
-0.97626, 425, 281, 488, 344
-0.976489, 209, 201, 240, 264
-0.976496, 101, 289, 132, 351
-0.976655, 369, 185, 496, 248
-0.97668, 241, 1, 368, 256
-0.976714, 41, 225, 104, 351
-0.976958, 361, 233, 424, 296
-0.976962, 353, 249, 384, 312
-0.977131, 201, 193, 232, 320
-0.977193, 385, 97, 448, 351
-0.977341, 425, 257, 456, 320
-0.977356, 113, 265, 240, 328
-0.977411, 449, 225, 480, 351
-0.977422, 261, 193, 292, 320
-0.97754, 289, 209, 352, 272
-0.977571, 369, 161, 496, 224
-0.977579, 237, 201, 268, 264
-0.97772, 129, 241, 256, 304
-0.977889, 257, 241, 384, 304
-0.977928, 445, 129, 476, 256
-0.977982, 457, 265, 488, 328
-0.978292, 65, 161, 192, 288
-0.978458, 413, 225, 444, 351
-0.978511, 465, 209, 496, 336
-0.978669, 353, 225, 384, 351
-0.979039, 189, 209, 220, 272
-0.97906, 437, 233, 468, 296
-0.97907, 169, 145, 232, 272
-0.979205, 241, 145, 304, 272
-0.979334, 33, 177, 64, 304
-0.979364, 25, 225, 88, 288
-0.979376, 433, 97, 496, 351
-0.97949, 9, 289, 72, 351
-0.979608, 125, 281, 156, 344
-0.979677, 257, 289, 320, 351
-0.979701, 209, 225, 336, 288
-0.979806, 225, 289, 288, 351
-0.979876, 337, 225, 368, 351
-0.9799, 469, 249, 500, 312
-0.980059, 353, 281, 480, 344
-0.980099, 253, 201, 284, 264
-0.980117, 433, 113, 496, 240
-0.980131, 401, 65, 464, 192
-0.980136, 193, 145, 256, 272
-0.980347, 1, 129, 256, 256
-0.980502, 25, 225, 56, 351
-0.980522, 149, 225, 180, 351
-0.980716, 289, 209, 320, 336
-0.980734, 321, 225, 352, 351
-0.98076, 465, 209, 496, 272
-0.980882, 437, 209, 468, 336
-0.98094, 33, 257, 160, 320
-0.981109, 401, 129, 432, 256
-0.981214, 341, 249, 372, 312
-0.981259, 433, 113, 464, 240
-0.981296, 161, 281, 224, 344
-0.981317, 149, 241, 180, 304
-0.981346, 401, 177, 432, 304
-0.981361, 221, 201, 252, 264
-0.981434, 241, 193, 272, 320
-0.981436, 241, 113, 368, 240
-0.981466, 417, 113, 448, 240
-0.981642, 213, 193, 244, 320
-0.981649, 193, 289, 256, 351
-0.981697, 177, 289, 304, 351
-0.981739, 305, 201, 432, 264
-0.982218, 241, 289, 368, 351
-0.982225, 449, 233, 480, 296
-0.982356, 25, 265, 56, 328
-0.982716, 425, 193, 456, 320
-0.983037, 353, 209, 480, 272
-0.98306, 417, 233, 448, 296
-0.983118, 97, 65, 352, 192
-0.983215, 441, 121, 472, 184
-0.983281, 361, 185, 424, 248
-0.983478, 401, 121, 432, 184
-0.983517, 137, 249, 168, 312
-0.983533, 401, 201, 432, 264
-0.983614, 265, 161, 328, 288
-0.983692, 125, 257, 156, 320
-0.983737, 129, 145, 256, 272
-0.983831, 193, 177, 256, 240
-0.983852, 17, 169, 80, 232
-0.983955, 409, 97, 472, 160
-0.984208, 265, 265, 328, 328
-0.984337, 417, 121, 448, 184
-0.984388, 449, 177, 480, 304
-0.984392, 1, 249, 32, 312
-0.984424, 65, 289, 128, 351
-0.984505, 153, 185, 216, 248
-0.98466, 17, 193, 144, 256
-0.984695, 17, 177, 48, 304
-0.984768, 181, 233, 212, 296
-0.984785, 41, 177, 104, 304
-0.984897, 97, 225, 160, 351
-0.984993, 445, 169, 476, 232
-0.985069, 97, 217, 224, 280
-0.985126, 433, 121, 496, 184
-0.985132, 277, 225, 308, 288
-0.98517, 253, 225, 284, 288
-0.985292, 305, 225, 432, 288
-0.985316, 177, 209, 208, 272
-0.985337, 29, 193, 60, 256
-0.98534, 461, 161, 492, 288
-0.985417, 429, 209, 460, 272
-0.985554, 65, 265, 128, 328
-0.985632, 161, 249, 192, 312
-0.985637, 121, 177, 184, 304
-0.985666, 389, 225, 420, 351
-0.985733, 385, 145, 448, 208
-0.985853, 129, 289, 256, 351
-0.985966, 89, 241, 152, 304
-0.985996, 405, 233, 436, 296
-0.986005, 265, 201, 296, 264
-0.986082, 1, 225, 128, 288
-0.986094, 329, 241, 360, 304
-0.986197, 413, 257, 444, 320
-0.986298, 241, 177, 304, 240
-0.986332, 81, 241, 208, 304
-0.986373, 437, 281, 468, 344
-0.986377, 309, 225, 340, 351
-0.986402, 429, 121, 460, 184
-0.986419, 157, 281, 188, 344
-0.986542, 225, 265, 352, 328
-0.986734, 453, 137, 484, 200
-0.986736, 465, 169, 496, 232
-0.986753, 401, 289, 432, 351
-0.98687, 45, 289, 76, 351
-0.986919, 273, 81, 336, 208
-0.986927, 445, 193, 476, 256
-0.986987, 361, 97, 424, 224
-0.987003, 93, 265, 124, 328
-0.987201, 169, 249, 232, 312
-0.98727, 305, 33, 432, 160
-0.987355, 337, 273, 368, 336
-0.987463, 433, 153, 496, 216
-0.987467, 401, 169, 432, 232
-0.9876, 217, 265, 280, 328
-0.987605, 313, 225, 376, 288
-0.987632, 469, 273, 500, 336
-0.987644, 113, 97, 176, 351
-0.987764, 161, 265, 288, 328
-0.987783, 45, 177, 76, 304
-0.98779, 89, 301, 152, 332
-0.987918, 361, 153, 424, 216
-0.987964, 257, 217, 384, 280
-0.98813, 289, 225, 320, 288
-0.98819, 361, 209, 424, 272
-0.988199, 289, 289, 416, 351
-0.988209, 421, 281, 452, 344
-0.988332, 49, 193, 112, 256
-0.988367, 265, 225, 296, 288
-0.988435, 33, 289, 64, 351
-0.988448, 409, 1, 472, 351
-0.988455, 409, 1, 472, 256
-0.988461, 305, 145, 432, 208
-0.988561, 369, 273, 400, 336
-0.988618, 397, 265, 428, 328
-0.988621, 161, 105, 224, 168
-0.988637, 277, 289, 308, 351
-0.988678, 137, 225, 168, 351
-0.988681, 17, 129, 80, 256
-0.988697, 365, 225, 396, 351
-0.98871, 353, 33, 480, 160
-0.988742, 289, 177, 416, 240
-0.988752, 45, 193, 76, 256
-0.988843, 357, 273, 388, 336
-0.988864, 361, 121, 424, 184
-0.988976, 13, 257, 44, 320
-0.989053, 153, 213, 216, 244
-0.989078, 401, 121, 464, 152
-0.989101, 369, 105, 496, 168
-0.989118, 425, 265, 488, 296
-0.989164, 409, 253, 472, 284
-0.989189, 217, 177, 280, 240
-0.989234, 113, 285, 176, 316
-0.989286, 129, 209, 384, 272
-0.989295, 185, 213, 248, 244
-0.98932, 413, 201, 444, 264
-0.989335, 257, 209, 320, 240
-0.989501, 377, 225, 408, 351
-0.989551, 289, 289, 320, 351
-0.989561, 445, 81, 476, 208
-0.989575, 409, 281, 472, 312
-0.989591, 113, 305, 176, 336
-0.989594, 17, 129, 144, 256
-0.989615, 9, 321, 72, 351
-0.989616, 397, 145, 428, 208
-0.989644, 389, 289, 420, 351
-0.989726, 301, 265, 332, 328
-0.989736, 169, 145, 200, 272
-0.989846, 25, 225, 56, 288
-0.98985, 433, 233, 496, 264
-0.989901, 401, 221, 464, 252
-0.989908, 321, 257, 384, 288
-0.989908, 113, 273, 176, 304
-0.989948, 161, 225, 224, 256
-0.989993, 241, 249, 304, 312
-0.990005, 321, 121, 448, 184
-0.990047, 89, 289, 152, 320
-0.990049, 313, 273, 344, 336
-0.990078, 385, 277, 448, 308
-0.990099, 13, 225, 44, 288
-0.990099, 225, 225, 256, 288
-0.990099, 37, 233, 68, 296
-0.990159, 137, 265, 200, 296
-0.990214, 353, 97, 416, 351
-0.990232, 49, 305, 112, 336
-0.990238, 89, 313, 152, 344
-0.99025, 257, 193, 500, 256
-0.99026, 217, 209, 280, 240
-0.990265, 433, 65, 496, 192
-0.990293, 137, 293, 200, 324
-0.990304, 1, 281, 256, 344
-0.990354, 317, 233, 348, 296
-0.99039, 145, 185, 272, 248
-0.990395, 89, 289, 120, 351
-0.990411, 433, 221, 496, 252
-0.990425, 417, 205, 480, 236
-0.990459, 185, 301, 248, 332
-0.990499, 289, 201, 320, 264
-0.990568, 429, 65, 460, 192
-0.990617, 329, 177, 392, 304
-0.990631, 409, 237, 472, 268
-0.99064, 401, 81, 432, 208
-0.990642, 261, 289, 292, 351
-0.990643, 1, 265, 64, 296
-0.99067, 17, 205, 80, 236
-0.990716, 433, 1, 496, 351
-0.990717, 385, 237, 448, 268
-0.990728, 257, 221, 320, 252
-0.990744, 153, 241, 216, 272
-0.990757, 369, 265, 432, 296
-0.990776, 13, 225, 44, 351
-0.990778, 41, 249, 104, 312
-0.990799, 193, 265, 256, 328
-0.990832, 393, 185, 456, 216
-0.990847, 257, 65, 384, 192
-0.99085, 297, 81, 360, 208
-0.990854, 241, 145, 272, 272
-0.99087, 257, 273, 500, 336
-0.990882, 17, 181, 80, 212
-0.990965, 97, 289, 352, 351
-0.990975, 169, 97, 232, 351
-0.99098, 33, 317, 96, 348
-0.990988, 369, 49, 432, 176
-0.990995, 45, 225, 76, 351
-0.991007, 201, 225, 264, 256
-0.991017, 289, 241, 352, 272
-0.991025, 325, 281, 356, 344
-0.991043, 433, 245, 496, 276
-0.991105, 77, 289, 108, 351
-0.991123, 353, 281, 416, 312
-0.991123, 41, 293, 104, 324
-0.991145, 17, 193, 80, 224
-0.991175, 433, 193, 496, 224
-0.991181, 433, 277, 496, 308
-0.991202, 137, 305, 200, 336
-0.991248, 257, 1, 500, 128
-0.991267, 373, 249, 404, 312
-0.991295, 193, 201, 256, 232
-0.99131, 433, 181, 496, 212
-0.991312, 17, 169, 144, 232
-0.991331, 329, 277, 392, 308
-0.991333, 129, 229, 192, 260
-0.991343, 385, 173, 448, 204
-0.991356, 129, 233, 384, 296
-0.991357, 241, 293, 304, 324
-0.991367, 65, 185, 192, 248
-0.991382, 417, 65, 448, 192
-0.991402, 413, 177, 444, 304
-0.991403, 385, 201, 448, 232
-0.99141, 129, 253, 192, 284
-0.991422, 385, 293, 448, 324
-0.991433, 409, 169, 472, 200
-0.991442, 289, 273, 352, 304
-0.991469, 169, 201, 232, 232
-0.991471, 105, 261, 168, 292
-0.991473, 457, 113, 488, 240
-0.991478, 265, 145, 296, 272
-0.991513, 345, 261, 408, 292
-0.991537, 17, 185, 48, 248
-0.991569, 153, 281, 216, 312
-0.991572, 49, 217, 176, 280
-0.991591, 129, 209, 192, 240
-0.991657, 185, 237, 248, 268
-0.991676, 409, 137, 472, 168
-0.99169, 217, 197, 280, 228
-0.991703, 289, 265, 320, 328
-0.991705, 169, 281, 200, 344
-0.991716, 17, 217, 80, 248
-0.991726, 389, 201, 420, 264
-0.991727, 217, 297, 280, 328
-0.991727, 113, 317, 176, 348
-0.991764, 289, 309, 352, 340
-0.991773, 377, 121, 440, 152
-0.991791, 289, 229, 352, 260
-0.991794, 221, 289, 252, 351
-0.991796, 213, 233, 244, 296
-0.991805, 65, 317, 128, 348
-0.991833, 393, 265, 456, 296
-0.991846, 181, 185, 212, 248
-0.991877, 249, 289, 280, 351
-0.991933, 437, 145, 468, 208
-0.991935, 377, 225, 440, 256
-0.991958, 385, 133, 448, 164
-0.991963, 1, 281, 64, 312
-0.991969, 257, 233, 320, 264
-0.991985, 241, 225, 272, 288
-0.992003, 153, 317, 216, 348
-0.992011, 409, 157, 472, 188
-0.992047, 149, 177, 180, 304
-0.992076, 409, 145, 440, 208
-0.992112, 225, 229, 288, 260
-0.992116, 161, 209, 192, 240
-0.992129, 161, 305, 224, 336
-0.992132, 257, 225, 500, 288
-0.992175, 9, 309, 72, 340
-0.992179, 217, 281, 280, 312
-0.992189, 217, 145, 248, 272
-0.992193, 361, 185, 424, 216
-0.992196, 313, 245, 376, 276
-0.992198, 425, 125, 488, 156
-0.992202, 1, 257, 256, 320
-0.992212, 421, 277, 452, 308
-0.992218, 265, 293, 328, 324
-0.992221, 89, 273, 152, 304
-0.992221, 257, 249, 500, 312
-0.99223, 193, 289, 256, 320
-0.992275, 169, 185, 200, 248
-0.992286, 9, 297, 72, 328
-0.992291, 385, 161, 448, 192
-0.992318, 1, 97, 64, 351
-0.992322, 369, 253, 432, 284
-0.992322, 289, 213, 352, 244
-0.992344, 193, 81, 320, 208
-0.992344, 433, 289, 496, 320
-0.992352, 129, 241, 192, 272
-0.992364, 161, 1, 416, 128
-0.992366, 145, 105, 272, 168
-0.992371, 257, 197, 320, 228
-0.992373, 385, 97, 448, 160
-0.992402, 181, 209, 212, 240
-0.992438, 429, 245, 460, 276
-0.992438, 105, 297, 136, 328
-0.99247, 353, 257, 384, 288
-0.992486, 161, 229, 192, 260
-0.992488, 205, 209, 236, 240
-0.992492, 361, 205, 424, 236
-0.992504, 241, 209, 272, 240
-0.99251, 229, 209, 260, 240
-0.992518, 209, 177, 336, 240
-0.992519, 193, 289, 224, 351
-0.992538, 117, 285, 148, 316
-0.992548, 457, 273, 488, 304
-0.992556, 249, 277, 312, 308
-0.992575, 409, 293, 472, 324
-0.992575, 225, 241, 288, 272
-0.992604, 193, 145, 224, 272
-0.992611, 181, 145, 212, 272
-0.992627, 121, 301, 152, 332
-0.992636, 345, 313, 408, 344
-0.99264, 49, 201, 112, 232
-0.992641, 449, 233, 480, 264
-0.992649, 145, 209, 272, 240
-0.992652, 429, 233, 460, 264
-0.992661, 5, 177, 36, 304
-0.992661, 289, 285, 352, 316
-0.992666, 385, 145, 448, 176
-0.992673, 1, 253, 64, 284
-0.992674, 205, 289, 236, 351
-0.992675, 1, 257, 32, 288
-0.992682, 329, 301, 392, 332
-0.99269, 277, 205, 308, 236
-0.99269, 321, 317, 384, 348
-0.992709, 437, 261, 468, 292
-0.992733, 161, 265, 224, 296
-0.992734, 465, 213, 496, 244
-0.992738, 93, 301, 124, 332
-0.992739, 277, 145, 308, 272
-0.992739, 1, 237, 64, 268
-0.992741, 217, 213, 248, 244
-0.992748, 41, 281, 104, 312
-0.992754, 37, 321, 68, 351
-0.992759, 289, 201, 352, 232
-0.992761, 445, 125, 476, 156
-0.992768, 417, 265, 448, 296
-0.992776, 193, 209, 224, 240
-0.992781, 401, 121, 432, 152
-0.992785, 137, 281, 168, 312
-0.992787, 81, 81, 208, 144
-0.992788, 353, 217, 416, 248
-0.992801, 433, 137, 496, 168
-0.99281, 105, 105, 168, 136
-0.992811, 125, 225, 156, 351
-0.992813, 369, 273, 496, 304
-0.992813, 21, 265, 52, 296
-0.992821, 141, 261, 172, 292
-0.992823, 253, 205, 284, 236
-0.992835, 409, 237, 440, 268
-0.992836, 337, 253, 368, 284
-0.99284, 413, 121, 444, 152
-0.992843, 437, 285, 468, 316
-0.992844, 433, 121, 464, 152
-0.992847, 153, 253, 216, 284
-0.992852, 189, 229, 220, 260
-0.992856, 353, 113, 416, 144
-0.992857, 137, 305, 168, 336
-0.992872, 201, 313, 264, 344
-0.992881, 465, 225, 496, 256
-0.992882, 105, 309, 136, 340
-0.992882, 97, 257, 352, 320
-0.992884, 49, 189, 112, 220
-0.992886, 449, 285, 480, 316
-0.992889, 265, 205, 296, 236
-0.992894, 301, 241, 332, 304
-0.992898, 177, 249, 240, 280
-0.99291, 453, 137, 484, 168
-0.992912, 389, 177, 420, 304
-0.992916, 401, 273, 432, 304
-0.992917, 217, 113, 280, 144
-0.992938, 469, 277, 500, 308
-0.99294, 357, 269, 388, 300
-0.992944, 33, 269, 96, 300
-0.992961, 165, 265, 196, 296
-0.992969, 465, 201, 496, 232
-0.99297, 177, 33, 304, 160
-0.992975, 121, 265, 152, 296
-0.992976, 433, 169, 496, 200
-0.992983, 121, 313, 152, 344
-0.992991, 89, 313, 120, 344
-0.992994, 361, 133, 424, 164
-0.992999, 145, 249, 176, 280
-0.993002, 137, 293, 168, 324
-0.993005, 221, 225, 252, 256
-0.99301, 353, 173, 416, 204
-0.993013, 193, 301, 224, 332
-0.993021, 277, 217, 308, 248
-0.993023, 289, 297, 352, 328
-0.993024, 25, 229, 88, 260
-0.993028, 177, 317, 240, 348
-0.993037, 201, 249, 264, 280
-0.993039, 445, 177, 476, 208
-0.993039, 193, 185, 224, 248
-0.993043, 453, 113, 484, 176
-0.993045, 149, 217, 180, 280
-0.993046, 453, 149, 484, 180
-0.993048, 369, 1, 432, 351
-0.993057, 401, 205, 432, 236
-0.993059, 465, 185, 496, 216
-0.993059, 161, 249, 192, 280
-0.993065, 105, 285, 136, 316
-0.99308, 453, 253, 484, 284
-0.993082, 401, 293, 432, 324
-0.993087, 461, 293, 492, 324
-0.993092, 217, 201, 248, 232
-0.993093, 161, 293, 224, 324
-0.993093, 25, 321, 56, 351
-0.993098, 417, 253, 448, 284
-0.9931, 449, 289, 480, 351
-0.993109, 33, 257, 96, 288
-0.993114, 81, 293, 208, 324
-0.993118, 441, 273, 472, 304
-0.993124, 153, 269, 184, 300
-0.993129, 469, 257, 500, 288
-0.993137, 49, 213, 112, 244
-0.99314, 401, 217, 432, 248
-0.993141, 277, 229, 308, 260
-0.993148, 397, 133, 428, 164
-0.993149, 29, 181, 60, 212
-0.993149, 445, 221, 476, 252
-0.993149, 429, 221, 460, 252
-0.993153, 181, 241, 212, 272
-0.993162, 453, 161, 484, 192
-0.993162, 433, 97, 496, 160
-0.993166, 441, 137, 472, 168
-0.993166, 237, 221, 268, 252
-0.99318, 193, 209, 320, 240
-0.993183, 241, 197, 272, 228
-0.993191, 53, 321, 84, 351
-0.993197, 201, 225, 232, 256
-0.993208, 41, 309, 72, 340
-0.993213, 157, 281, 188, 312
-0.993218, 445, 193, 476, 224
-0.993222, 29, 201, 60, 232
-0.993223, 297, 225, 328, 256
-0.993225, 369, 269, 400, 300
-0.993229, 281, 285, 312, 316
-0.993231, 445, 209, 476, 240
-0.993234, 33, 293, 64, 324
-0.993235, 77, 313, 108, 344
-0.993235, 397, 161, 428, 192
-0.993238, 121, 193, 184, 256
-0.993242, 157, 301, 188, 332
-0.993244, 241, 293, 272, 324
-0.993245, 457, 125, 488, 156
-0.993251, 233, 289, 264, 351
-0.993255, 81, 301, 112, 332
-0.993258, 137, 97, 200, 160
-0.993258, 149, 209, 180, 240
-0.993265, 397, 149, 428, 180
-0.993266, 205, 237, 236, 268
-0.993269, 25, 217, 56, 248
-0.99327, 417, 289, 448, 320
-0.993271, 401, 185, 432, 216
-0.993273, 173, 305, 204, 336
-0.993279, 1, 233, 500, 296
-0.993279, 157, 313, 188, 344
-0.993282, 289, 237, 320, 268
-0.993288, 433, 297, 464, 328
-0.993289, 177, 229, 208, 260
-0.99329, 25, 277, 56, 308
-0.993292, 289, 273, 320, 304
-0.993293, 413, 217, 444, 248
-0.993297, 253, 225, 284, 256
-0.993297, 297, 285, 328, 316
-0.993306, 109, 269, 140, 300
-0.993309, 305, 89, 432, 152
-0.99331, 221, 293, 252, 324
-0.99332, 469, 173, 500, 204
-0.993327, 313, 305, 344, 336
-0.993327, 369, 281, 400, 312
-0.993335, 441, 249, 472, 280
-0.993335, 413, 169, 444, 200
-0.993342, 181, 197, 212, 228
-0.993343, 253, 145, 284, 272
-0.993347, 321, 241, 352, 272
-0.993354, 33, 17, 288, 144
-0.993355, 169, 197, 200, 228
-0.99336, 357, 281, 388, 312
-0.993361, 397, 237, 428, 268
-0.993369, 49, 197, 80, 228
-0.993373, 201, 197, 232, 228
-0.993377, 261, 293, 292, 324
-0.993378, 389, 293, 420, 324
-0.993397, 369, 125, 496, 156
-0.993411, 289, 129, 352, 256
-0.993416, 1, 233, 256, 296
-0.993466, 173, 257, 204, 320
-0.993478, 277, 249, 308, 312
-0.993542, 113, 257, 144, 320
-0.993606, 97, 105, 224, 168
-0.993612, 385, 1, 448, 256
-0.993646, 33, 209, 288, 272
-0.993668, 127, 281, 142, 344
-0.993684, 201, 225, 232, 288
-0.993713, 165, 209, 180, 272
-0.993713, 217, 177, 248, 240
-0.993758, 353, 261, 480, 292
-0.993863, 169, 97, 200, 160
-0.993869, 177, 81, 304, 144
-0.993884, 1, 1, 256, 256
-0.993895, 441, 97, 472, 160
-0.993921, 257, 169, 500, 232
-0.993952, 459, 121, 474, 184
-0.993959, 33, 301, 160, 332
-0.993974, 301, 201, 332, 264
-0.994041, 117, 281, 132, 344
-0.994064, 33, 289, 160, 320
-0.994088, 457, 257, 472, 320
-0.994104, 205, 145, 236, 272
-0.994121, 73, 225, 136, 351
-0.994152, 369, 285, 496, 316
-0.994184, 249, 81, 312, 208
-0.994186, 257, 121, 500, 184
-0.994231, 289, 97, 352, 351
-0.994272, 229, 177, 260, 240
-0.994275, 225, 201, 240, 264
-0.994292, 29, 169, 60, 232
-0.994316, 81, 305, 208, 336
-0.994334, 451, 257, 466, 320
-0.994349, 1, 49, 128, 176
-0.994414, 353, 81, 480, 144
-0.994422, 239, 201, 254, 264
-0.994428, 369, 165, 496, 196
-0.994436, 185, 81, 248, 144
-0.994448, 57, 169, 120, 232
-0.994455, 215, 201, 230, 264
-0.994482, 369, 137, 496, 168
-0.99451, 341, 225, 372, 288
-0.994515, 457, 233, 472, 296
-0.994582, 369, 185, 496, 216
-0.994582, 145, 225, 272, 256
-0.994585, 175, 209, 190, 272
-0.994667, 209, 97, 272, 351
-0.994682, 191, 201, 206, 264
-0.994703, 353, 237, 480, 268
-0.994726, 1, 65, 256, 192
-0.994747, 133, 281, 148, 344
-0.994779, 105, 73, 168, 136
-0.994824, 249, 97, 312, 351
-0.994838, 431, 249, 446, 312
-0.994844, 459, 145, 474, 208
-0.99489, 389, 225, 420, 288
-0.994902, 253, 177, 284, 240
-0.994946, 469, 97, 500, 224
-0.994948, 463, 265, 478, 328
-0.994957, 389, 113, 420, 240
-0.99496, 369, 153, 496, 184
-0.99499, 161, 81, 224, 144
-0.994993, 57, 129, 120, 256
-0.994995, 229, 265, 260, 328
-0.995003, 1, 1, 64, 351
-0.995012, 17, 277, 144, 308
-0.995013, 305, 277, 432, 308
-0.995013, 1, 313, 128, 344
-0.995027, 485, 249, 500, 312
-0.995029, 205, 177, 236, 240
-0.995032, 81, 317, 208, 348
-0.995055, 1, 201, 500, 264
-0.995071, 217, 1, 280, 351
-0.995075, 193, 221, 320, 252
-0.995096, 429, 185, 460, 248
-0.995112, 353, 249, 480, 280
-0.995157, 293, 201, 308, 264
-0.995162, 143, 265, 158, 328
-0.995197, 275, 201, 290, 264
-0.995202, 169, 1, 232, 351
-0.995227, 97, 281, 224, 312
-0.995252, 305, 81, 336, 208
-0.995275, 417, 169, 448, 232
-0.99528, 1, 273, 500, 336
-0.99532, 47, 289, 62, 351
-0.995321, 389, 177, 420, 240
-0.995324, 417, 121, 432, 184
-0.995333, 229, 145, 260, 272
-0.995341, 273, 33, 336, 160
-0.995386, 369, 197, 496, 228
-0.995391, 249, 201, 264, 264
-0.995446, 289, 161, 320, 288
-0.995466, 145, 1, 208, 351
-0.995478, 265, 265, 296, 328
-0.995488, 145, 301, 272, 332
-0.995519, 1, 249, 16, 312
-0.995519, 257, 1, 320, 351
-0.995527, 31, 185, 46, 248
-0.995549, 263, 201, 278, 264
-0.995554, 369, 213, 496, 244
-0.995558, 201, 209, 216, 272
-0.995579, 451, 233, 466, 296
-0.995587, 181, 209, 196, 272
-0.995598, 285, 81, 316, 208
-0.995601, 369, 225, 496, 256
-0.995601, 129, 241, 256, 272
-0.995612, 159, 241, 174, 304
-0.995625, 289, 221, 416, 252
-0.995646, 389, 121, 420, 184
-0.995651, 361, 97, 424, 160
-0.995673, 97, 269, 224, 300
-0.995674, 305, 261, 432, 292
-0.995676, 285, 201, 300, 264
-0.995677, 225, 241, 352, 272
-0.995714, 469, 145, 500, 208
-0.995727, 405, 201, 420, 264
-0.995752, 241, 177, 272, 240
-0.995753, 1, 185, 256, 248
-0.995758, 33, 129, 64, 256
-0.995759, 359, 249, 374, 312
-0.995765, 257, 145, 500, 208
-0.99578, 337, 209, 400, 272
-0.995802, 209, 201, 224, 264
-0.995844, 269, 201, 284, 264
-0.995844, 111, 289, 126, 351
-0.995888, 145, 97, 208, 351
-0.995895, 271, 225, 286, 288
-0.995905, 443, 241, 458, 304
-0.995908, 281, 1, 344, 351
-0.995917, 209, 289, 336, 320
-0.995924, 385, 265, 416, 328
-0.995959, 425, 97, 456, 160
-0.995972, 437, 265, 452, 328
-0.995989, 41, 273, 56, 336
-0.99601, 449, 281, 464, 344
-0.99604, 181, 97, 212, 160
-0.996052, 453, 121, 468, 184
-0.99607, 367, 257, 382, 320
-0.996072, 99, 289, 114, 351
-0.996094, 231, 201, 246, 264
-0.996097, 425, 249, 440, 312
-0.996107, 369, 297, 496, 328
-0.996114, 401, 97, 432, 351
-0.99616, 421, 225, 436, 288
-0.996165, 277, 225, 292, 288
-0.996165, 185, 233, 200, 296
-0.996166, 175, 249, 190, 312
-0.99617, 403, 177, 418, 240
-0.996213, 343, 241, 358, 304
-0.996215, 351, 249, 366, 312
-0.996251, 459, 169, 474, 232
-0.996266, 457, 65, 488, 192
-0.996272, 405, 121, 420, 184
-0.99628, 121, 1, 184, 351
-0.996294, 103, 265, 118, 328
-0.996299, 255, 201, 270, 264
-0.996306, 289, 209, 416, 240
-0.996306, 105, 289, 120, 351
-0.996321, 421, 273, 436, 336
-0.996381, 145, 281, 272, 312
-0.996402, 33, 261, 160, 292
-0.99641, 353, 225, 384, 288
-0.996412, 429, 121, 444, 184
-0.996427, 463, 233, 478, 296
-0.996427, 1, 225, 32, 288
-0.996445, 447, 121, 462, 184
-0.996465, 51, 193, 66, 256
-0.996466, 479, 233, 494, 296
-0.996467, 413, 97, 444, 160
-0.996477, 129, 185, 384, 248
-0.996485, 1, 201, 128, 232
-0.996485, 289, 289, 416, 320
-0.996491, 337, 81, 400, 208
-0.99651, 105, 225, 136, 351
-0.996512, 413, 97, 444, 351
-0.996517, 35, 265, 50, 328
-0.996519, 97, 209, 224, 240
-0.996527, 411, 121, 426, 184
-0.996548, 443, 281, 458, 344
-0.996557, 295, 225, 310, 288
-0.99656, 137, 257, 152, 320
-0.996564, 165, 249, 180, 312
-0.996568, 411, 209, 426, 272
-0.996569, 49, 217, 112, 280
-0.996581, 31, 225, 46, 288
-0.996591, 301, 177, 332, 304
-0.996612, 297, 33, 360, 160
-0.996642, 471, 249, 486, 312
-0.996643, 241, 205, 368, 236
-0.996661, 423, 121, 438, 184
-0.996691, 7, 249, 22, 312
-0.996711, 485, 273, 500, 336
-0.996737, 41, 185, 56, 248
-0.996737, 469, 273, 484, 336
-0.99674, 213, 265, 244, 328
-0.996765, 1, 225, 32, 351
-0.996771, 273, 241, 400, 272
-0.996777, 285, 225, 300, 288
-0.996787, 289, 197, 416, 228
-0.9968, 149, 249, 164, 312
-0.996808, 93, 289, 108, 351
-0.996811, 427, 225, 442, 288
-0.996836, 193, 1, 256, 351
-0.996838, 479, 273, 494, 336
-0.996838, 433, 225, 448, 288
-0.996842, 337, 241, 352, 304
-0.996854, 25, 185, 40, 248
-0.996858, 457, 281, 472, 344
-0.996858, 143, 241, 158, 304
-0.996883, 145, 197, 272, 228
-0.996888, 313, 1, 376, 351
-0.996894, 25, 1, 88, 351
-0.996895, 441, 97, 472, 351
-0.996907, 231, 225, 246, 288
-0.996915, 289, 177, 352, 240
-0.996922, 337, 177, 368, 304
-0.996956, 345, 1, 408, 351
-0.996957, 373, 257, 388, 320
-0.996963, 415, 233, 430, 296
-0.996975, 403, 289, 418, 351
-0.996975, 317, 81, 348, 208
-0.996985, 417, 201, 432, 264
-0.996987, 129, 301, 144, 332
-0.996988, 193, 197, 320, 228
-0.996999, 289, 317, 416, 348
-0.997002, 285, 289, 300, 351
-0.997029, 27, 257, 42, 320
-0.99704, 159, 209, 174, 272
-0.997046, 301, 241, 316, 304
-0.997047, 257, 225, 272, 288
-0.997048, 161, 273, 176, 336
-0.997049, 403, 145, 418, 208
-0.997055, 485, 193, 500, 256
-0.997066, 339, 273, 354, 336
-0.997087, 435, 121, 450, 184
-0.997091, 1, 65, 128, 128
-0.997097, 265, 177, 328, 240
-0.997115, 429, 97, 460, 351
-0.997131, 145, 313, 272, 344
-0.997135, 89, 97, 152, 160
-0.997136, 397, 289, 412, 351
-0.997139, 257, 253, 384, 284
-0.997146, 225, 277, 352, 308
-0.997164, 431, 289, 446, 351
-0.997165, 263, 225, 278, 288
-0.997172, 433, 1, 496, 256
-0.997174, 295, 281, 310, 344
-0.997182, 25, 225, 40, 288
-0.997185, 215, 213, 230, 244
-0.99719, 129, 253, 256, 284
-0.997195, 97, 229, 224, 260
-0.997195, 131, 257, 146, 320
-0.997202, 257, 17, 384, 144
-0.997205, 405, 265, 420, 328
-0.997217, 165, 209, 180, 240
-0.997223, 389, 281, 404, 344
-0.997231, 451, 233, 466, 264
-0.997231, 327, 273, 342, 336
-0.997235, 233, 33, 296, 160
-0.997247, 149, 273, 164, 336
-0.997256, 353, 177, 384, 304
-0.997256, 59, 193, 74, 256
-0.997265, 225, 213, 240, 244
-0.997275, 441, 217, 456, 280
-0.997281, 139, 289, 154, 351
-0.997282, 21, 257, 36, 320
-0.997293, 455, 209, 470, 272
-0.997306, 371, 281, 386, 344
-0.997308, 175, 209, 190, 240
-0.997319, 479, 209, 494, 272
-0.997325, 411, 289, 426, 351
-0.997353, 117, 289, 132, 320
-0.997353, 191, 209, 206, 240
-0.997355, 377, 281, 392, 344
-0.997356, 289, 249, 304, 312
-0.997366, 459, 125, 474, 156
-0.997375, 129, 289, 144, 320
-0.997386, 461, 97, 492, 351
-0.997391, 441, 121, 456, 184
-0.997391, 239, 209, 254, 240
-0.997393, 431, 273, 446, 304
-0.997393, 269, 289, 284, 351
-0.997402, 167, 281, 182, 344
-0.997402, 367, 257, 382, 288
-0.997414, 247, 209, 262, 240
-0.997416, 459, 137, 474, 168
-0.997417, 1, 1, 128, 128
-0.997421, 49, 217, 176, 248
-0.997428, 411, 265, 426, 328
-0.99744, 365, 233, 380, 296
-0.997448, 263, 289, 278, 351
-0.99746, 285, 205, 300, 236
-0.997466, 275, 289, 290, 351
-0.997471, 305, 129, 432, 160
-0.997474, 455, 269, 470, 300
-0.997491, 459, 153, 474, 184
-0.9975, 233, 205, 248, 236
-0.997512, 97, 1, 160, 351
-0.99754, 467, 273, 482, 304
-0.997555, 49, 105, 176, 168
-0.997573, 257, 265, 384, 296
-0.997575, 201, 209, 216, 240
-0.997578, 33, 105, 288, 168
-0.997582, 305, 153, 432, 184
-0.997627, 425, 277, 440, 308
-0.997635, 337, 57, 464, 120
-0.997639, 305, 165, 432, 196
-0.997645, 473, 273, 488, 304
-0.99765, 129, 65, 256, 192
-0.997652, 3, 253, 18, 284
-0.997653, 405, 121, 420, 152
-0.997659, 109, 297, 124, 328
-0.99766, 1, 169, 500, 232
-0.997694, 209, 213, 224, 244
-0.997694, 241, 229, 368, 260
-0.997705, 121, 305, 136, 336
-0.997715, 293, 209, 308, 240
-0.997719, 305, 177, 432, 208
-0.99772, 143, 265, 158, 296
-0.997724, 1, 217, 128, 248
-0.99773, 257, 205, 272, 236
-0.997745, 273, 301, 400, 332
-0.997747, 93, 309, 108, 340
-0.997751, 101, 301, 116, 332
-0.997754, 185, 209, 200, 240
-0.997755, 1, 185, 128, 216
-0.997763, 49, 205, 176, 236
-0.997769, 271, 205, 286, 236
-0.99777, 459, 165, 474, 196
-0.997798, 437, 277, 452, 308
-0.997803, 185, 113, 248, 176
-0.997806, 145, 269, 272, 300
-0.997807, 361, 257, 376, 288
-0.997809, 455, 285, 470, 316
-0.997812, 423, 237, 438, 268
-0.997819, 65, 113, 192, 240
-0.997821, 193, 97, 448, 160
-0.997834, 443, 285, 458, 316
-0.997837, 457, 253, 472, 284
-0.997847, 45, 317, 60, 348
-0.99786, 355, 253, 370, 284
-0.997869, 99, 317, 114, 348
-0.997878, 73, 1, 136, 351
-0.997884, 485, 257, 500, 288
-0.997887, 193, 301, 320, 332
-0.997901, 461, 273, 476, 304
-0.997914, 35, 265, 50, 296
-0.997916, 81, 245, 208, 276
-0.997921, 369, 113, 496, 144
-0.997928, 449, 125, 464, 156
-0.997931, 263, 209, 278, 240
-0.997935, 305, 141, 432, 172
-0.997945, 123, 285, 138, 316
-0.997962, 405, 217, 420, 248
-0.99798, 415, 121, 430, 152
-0.99801, 449, 285, 464, 316
-0.998031, 129, 81, 256, 144
-0.998039, 425, 253, 440, 284
-0.998042, 425, 265, 440, 296
-0.99805, 431, 261, 446, 292
-0.998059, 459, 177, 474, 208
-0.998063, 241, 313, 368, 344
-0.998067, 163, 229, 178, 260
-0.998071, 181, 229, 196, 260
-0.998092, 45, 297, 60, 328
-0.998093, 403, 205, 418, 236
-0.998096, 279, 205, 294, 236
-0.998101, 433, 237, 448, 268
-0.998118, 39, 321, 54, 351
-0.998121, 481, 277, 496, 308
-0.998124, 17, 249, 144, 280
-0.998133, 461, 285, 476, 316
-0.998134, 225, 225, 240, 256
-0.998137, 371, 269, 386, 300
-0.998148, 159, 273, 174, 304
-0.998159, 135, 281, 150, 312
-0.998184, 447, 253, 462, 284
-0.998188, 129, 313, 144, 344
-0.998188, 1, 113, 500, 176
-0.998191, 193, 301, 208, 332
-0.998201, 133, 269, 148, 300
-0.998203, 275, 229, 290, 260
-0.998203, 413, 273, 428, 304
-0.998205, 177, 245, 304, 276
-0.998206, 419, 265, 434, 296
-0.99822, 135, 305, 150, 336
-0.998228, 29, 321, 44, 351
-0.998228, 403, 181, 418, 212
-0.998235, 337, 309, 464, 340
-0.99824, 305, 117, 432, 148
-0.998249, 81, 257, 208, 288
-0.998254, 187, 225, 202, 256
-0.998281, 467, 261, 482, 292
-0.998284, 403, 169, 418, 200
-0.998293, 453, 137, 468, 168
-0.998293, 105, 313, 120, 344
-0.998294, 403, 293, 418, 324
-0.998313, 431, 285, 446, 316
-0.998314, 209, 201, 224, 232
-0.998316, 423, 121, 438, 152
-0.998317, 419, 281, 434, 312
-0.99832, 65, 109, 192, 140
-0.998341, 219, 201, 234, 232
-0.998343, 145, 129, 208, 256
-0.99835, 51, 321, 66, 351
-0.998358, 445, 187, 476, 202
-0.998358, 153, 273, 184, 288
-0.998359, 413, 125, 444, 140
-0.99836, 445, 179, 476, 194
-0.998361, 157, 299, 188, 314
-0.998361, 397, 137, 428, 152
-0.998362, 125, 263, 156, 278
-0.998362, 441, 139, 472, 154
-0.998362, 289, 289, 320, 304
-0.998364, 429, 297, 460, 312
-0.998364, 439, 121, 454, 152
-0.998365, 297, 235, 328, 250
-0.998366, 33, 317, 64, 332
-0.998367, 353, 253, 384, 268
-0.998367, 469, 187, 500, 202
-0.99837, 409, 259, 440, 274
-0.99837, 445, 227, 476, 242
-0.998371, 397, 131, 428, 146
-0.998371, 449, 251, 480, 266
-0.998371, 349, 253, 364, 284
-0.998372, 117, 295, 148, 310
-0.998372, 433, 121, 448, 152
-0.998374, 25, 329, 56, 344
-0.998376, 101, 271, 132, 286
-0.998377, 137, 295, 168, 310
-0.998377, 441, 301, 472, 316
-0.998378, 29, 205, 60, 220
-0.99838, 205, 225, 236, 240
-0.99838, 429, 289, 460, 304
-0.99838, 453, 169, 484, 184
-0.99838, 401, 207, 432, 222
-0.998382, 401, 295, 432, 310
-0.998382, 189, 303, 220, 318
-0.998383, 89, 303, 152, 318
-0.998384, 89, 323, 120, 338
-0.998384, 13, 337, 44, 351
-0.998385, 445, 195, 476, 210
-0.998387, 69, 333, 100, 348
-0.998389, 181, 233, 212, 248
-0.998391, 421, 259, 452, 274
-0.998393, 181, 241, 212, 256
-0.998393, 465, 193, 496, 208
-0.998393, 443, 233, 458, 264
-0.998393, 401, 229, 432, 244
-0.998394, 401, 285, 432, 300
-0.998395, 137, 275, 168, 290
-0.998396, 409, 269, 440, 284
-0.998398, 173, 225, 204, 240
-0.998398, 313, 293, 344, 308
-0.998399, 453, 157, 484, 172
-0.9984, 253, 223, 284, 238
-0.998401, 97, 313, 128, 328
-0.998401, 445, 33, 476, 160
-0.998402, 453, 149, 468, 180
-0.998402, 467, 293, 482, 324
-0.998403, 277, 237, 308, 252
-0.998404, 453, 163, 484, 178
-0.998405, 253, 217, 268, 248
-0.998406, 461, 285, 492, 300
-0.998406, 453, 145, 484, 160
-0.998406, 137, 313, 168, 328
-0.998408, 95, 297, 110, 328
-0.998408, 113, 305, 176, 320
-0.998408, 453, 151, 484, 166
-0.998409, 243, 297, 258, 328
-0.99841, 137, 301, 168, 316
-0.998414, 37, 327, 68, 342
-0.998415, 357, 277, 388, 292
-0.998419, 229, 293, 244, 324
-0.99842, 281, 229, 296, 260
-0.998421, 437, 279, 468, 294
-0.998421, 411, 225, 426, 256
-0.998421, 341, 249, 356, 280
-0.998423, 165, 265, 196, 280
-0.998424, 265, 219, 296, 234
-0.998424, 449, 271, 480, 286
-0.998424, 137, 285, 168, 300
-0.998425, 121, 97, 152, 351
-0.998425, 137, 265, 168, 280
-0.998426, 105, 303, 136, 318
-0.998427, 101, 319, 132, 334
-0.998427, 163, 245, 178, 276
-0.998428, 65, 97, 128, 160
-0.998428, 403, 193, 418, 224
-0.998428, 121, 315, 152, 330
-0.998428, 121, 309, 152, 324
-0.998429, 465, 231, 496, 246
-0.998431, 85, 329, 116, 344
-0.998433, 217, 215, 280, 230
-0.998434, 453, 137, 484, 152
-0.998435, 277, 221, 308, 236
-0.998435, 429, 237, 460, 252
-0.998435, 453, 261, 484, 276
-0.998437, 257, 209, 320, 224
-0.998439, 409, 265, 472, 280
-0.998443, 409, 239, 440, 254
-0.998443, 403, 281, 418, 312
-0.998445, 109, 309, 140, 324
-0.998445, 445, 235, 476, 250
-0.998447, 465, 219, 496, 234
-0.998447, 429, 249, 460, 264
-0.998447, 477, 261, 492, 292
-0.998448, 217, 209, 280, 224
-0.998452, 401, 123, 432, 138
-0.998453, 257, 81, 384, 144
-0.998453, 239, 225, 254, 256
-0.998453, 357, 267, 388, 282
-0.998455, 169, 213, 232, 228
-0.998456, 441, 289, 472, 304
-0.998458, 37, 333, 68, 348
-0.998459, 193, 113, 320, 144
-0.998461, 465, 199, 496, 214
-0.998461, 193, 219, 224, 234
-0.998462, 193, 211, 256, 226
-0.998462, 445, 125, 476, 140
-0.998464, 193, 313, 320, 344
-0.998464, 437, 269, 468, 284
-0.998467, 465, 213, 496, 228
-0.998468, 153, 219, 216, 234
-0.998468, 461, 293, 492, 308
-0.998469, 21, 267, 52, 282
-0.99847, 39, 277, 54, 308
-0.99847, 13, 261, 28, 292
-0.998471, 185, 241, 200, 272
-0.998471, 113, 109, 240, 140
-0.998472, 293, 221, 308, 252
-0.998473, 113, 289, 176, 304
-0.998473, 241, 211, 272, 226
-0.998474, 217, 223, 248, 238
-0.998474, 425, 289, 488, 304
-0.998475, 465, 207, 496, 222
-0.998475, 137, 307, 168, 322
-0.998475, 121, 269, 152, 284
-0.998475, 161, 243, 192, 258
-0.998478, 417, 255, 480, 270
-0.998478, 421, 265, 452, 280
-0.998479, 217, 213, 248, 228
-0.998483, 417, 289, 448, 304
-0.998484, 417, 275, 448, 290
-0.998484, 205, 211, 236, 226
-0.998486, 257, 221, 320, 236
-0.998487, 461, 275, 492, 290
-0.998487, 113, 295, 176, 310
-0.998488, 185, 221, 248, 236
-0.998488, 161, 235, 192, 250
-0.998488, 97, 313, 160, 328
-0.998489, 215, 225, 230, 256
-0.998489, 437, 263, 468, 278
-0.99849, 459, 213, 474, 244
-0.99849, 203, 221, 218, 252
-0.99849, 409, 125, 472, 140
-0.998491, 405, 133, 420, 164
-0.998492, 237, 223, 268, 238
-0.998492, 1, 263, 32, 278
-0.998493, 105, 297, 136, 312
-0.998493, 337, 255, 368, 270
-0.998495, 461, 229, 476, 260
-0.998497, 29, 265, 44, 296
-0.998498, 53, 335, 84, 350
-0.998498, 465, 225, 496, 240
-0.998499, 117, 289, 148, 304
-0.9985, 193, 211, 224, 226
-0.998502, 229, 209, 260, 224
-0.998502, 235, 297, 250, 328
-0.998502, 257, 215, 320, 230
-0.998503, 169, 261, 184, 292
-0.998504, 277, 215, 308, 230
-0.998506, 153, 225, 216, 240
-0.998506, 189, 225, 220, 240
-0.998507, 293, 285, 308, 316
-0.998508, 205, 219, 236, 234
-0.998509, 9, 331, 72, 346
-0.99851, 425, 273, 488, 288
-0.998513, 229, 217, 260, 232
-0.998514, 241, 217, 272, 232
-0.998516, 129, 265, 192, 280
-0.99852, 313, 289, 328, 320
-0.998521, 153, 231, 216, 246
-0.998523, 253, 217, 284, 232
-0.998523, 433, 257, 464, 272
-0.998529, 295, 273, 310, 304
-0.998531, 275, 241, 290, 272
-0.998531, 433, 233, 496, 248
-0.998532, 1, 265, 64, 280
-0.998534, 217, 223, 280, 238
-0.998536, 145, 311, 208, 326
-0.998536, 433, 249, 496, 264
-0.998538, 181, 211, 212, 226
-0.998539, 435, 225, 450, 256
-0.998541, 261, 209, 292, 224
-0.998542, 129, 275, 192, 290
-0.998542, 377, 177, 408, 304
-0.998542, 177, 303, 240, 318
-0.998542, 181, 219, 212, 234
-0.998542, 17, 205, 80, 220
-0.998543, 93, 301, 124, 316
-0.998544, 159, 209, 174, 240
-0.998544, 115, 313, 130, 344
-0.998545, 121, 313, 184, 328
-0.998546, 401, 289, 464, 304
-0.998546, 377, 239, 440, 254
-0.998547, 429, 243, 460, 258
-0.998549, 417, 243, 480, 258
-0.998549, 129, 281, 192, 296
-0.998549, 137, 305, 200, 320
-0.998552, 41, 325, 104, 340
-0.998554, 417, 217, 480, 232
-0.998554, 393, 295, 456, 310
-0.998556, 321, 257, 384, 272
-0.998556, 385, 125, 448, 140
-0.998556, 97, 271, 160, 286
-0.998557, 161, 243, 224, 258
-0.998558, 277, 209, 308, 224
-0.998558, 153, 249, 216, 264
-0.998561, 93, 225, 124, 351
-0.998563, 421, 283, 452, 298
-0.998563, 353, 259, 384, 274
-0.998564, 17, 211, 80, 226
-0.998565, 145, 213, 208, 228
-0.998567, 393, 227, 456, 242
-0.998568, 329, 263, 392, 278
-0.998571, 89, 297, 152, 312
-0.998571, 9, 337, 72, 351
-0.998573, 433, 227, 496, 242
-0.998573, 161, 227, 192, 242
-0.99858, 137, 299, 200, 314
-0.99858, 121, 303, 152, 318
-0.998581, 417, 197, 480, 212
-0.998583, 417, 209, 480, 224
-0.998584, 393, 189, 456, 204
-0.998586, 89, 319, 152, 334
-0.998586, 41, 299, 104, 314
-0.998586, 329, 279, 392, 294
-0.998587, 409, 135, 472, 150
-0.998587, 385, 283, 448, 298
-0.998588, 9, 325, 72, 340
-0.998589, 161, 237, 224, 252
-0.998589, 425, 279, 488, 294
-0.998589, 49, 333, 112, 348
-0.998592, 49, 311, 112, 326
-0.998593, 385, 219, 448, 234
-0.998593, 49, 233, 176, 264
-0.998594, 393, 233, 456, 248
-0.998595, 433, 203, 496, 218
-0.998598, 257, 227, 320, 242
-0.998598, 393, 275, 456, 290
-0.998598, 41, 305, 104, 320
-0.9986, 393, 197, 456, 212
-0.998601, 257, 233, 320, 248
-0.998602, 185, 227, 248, 242
-0.998603, 369, 275, 432, 290
-0.998605, 433, 191, 496, 206
-0.998607, 65, 81, 320, 144
-0.998609, 289, 243, 352, 258
-0.998609, 17, 199, 80, 214
-0.99861, 9, 319, 72, 334
-0.99861, 185, 243, 248, 258
-0.998613, 161, 221, 192, 236
-0.998613, 241, 217, 368, 248
-0.998614, 105, 265, 168, 280
-0.99862, 113, 319, 176, 334
-0.998621, 289, 237, 352, 252
-0.998621, 1, 271, 64, 286
-0.998621, 89, 325, 152, 340
-0.998622, 401, 249, 464, 264
-0.998623, 337, 285, 400, 300
-0.998623, 329, 269, 392, 284
-0.998627, 17, 217, 80, 232
-0.998628, 385, 183, 448, 198
-0.998634, 105, 283, 168, 298
-0.998634, 241, 295, 304, 310
-0.998635, 385, 259, 448, 274
-0.998635, 129, 221, 192, 236
-0.998635, 385, 269, 448, 284
-0.998635, 17, 185, 80, 200
-0.998636, 161, 213, 192, 228
-0.998637, 137, 241, 200, 256
-0.998637, 385, 203, 448, 218
-0.998638, 385, 133, 448, 148
-0.998639, 257, 243, 320, 258
-0.99864, 433, 185, 496, 200
-0.998641, 361, 265, 424, 280
-0.998643, 185, 309, 248, 324
-0.998644, 129, 231, 192, 246
-0.998644, 433, 295, 496, 310
-0.998645, 217, 297, 280, 312
-0.998647, 17, 193, 80, 208
-0.998648, 105, 111, 168, 126
-0.998648, 209, 231, 272, 246
-0.998648, 417, 169, 480, 184
-0.998649, 377, 289, 440, 304
-0.998652, 49, 319, 112, 334
-0.998652, 17, 227, 80, 242
-0.998653, 89, 289, 152, 304
-0.998653, 385, 213, 448, 228
-0.998654, 153, 293, 216, 308
-0.998655, 385, 171, 448, 186
-0.998657, 169, 207, 232, 222
-0.998658, 153, 317, 216, 332
-0.99866, 361, 233, 424, 248
-0.998661, 73, 331, 136, 346
-0.998661, 289, 215, 352, 230
-0.998661, 409, 179, 472, 194
-0.998661, 409, 161, 472, 176
-0.998663, 1, 287, 64, 302
-0.998663, 433, 267, 496, 282
-0.998665, 281, 289, 344, 304
-0.998665, 401, 141, 464, 156
-0.998665, 385, 177, 448, 192
-0.998669, 165, 193, 180, 320
-0.998676, 1, 97, 128, 160
-0.998682, 175, 193, 190, 320
-0.998685, 1, 145, 500, 208
-0.998702, 285, 193, 300, 320
-0.998728, 329, 33, 392, 160
-0.99874, 57, 161, 88, 288
-0.998753, 459, 113, 474, 240
-0.998766, 459, 209, 474, 336
-0.998771, 65, 65, 128, 128
-0.998771, 129, 161, 256, 224
-0.99881, 385, 97, 416, 351
-0.998811, 215, 193, 230, 320
-0.998833, 177, 257, 304, 288
-0.998837, 453, 225, 468, 351
-0.998838, 33, 177, 48, 304
-0.998849, 201, 193, 216, 320
-0.998853, 81, 1, 208, 128
-0.998857, 191, 193, 206, 320
-0.998864, 291, 193, 306, 320
-0.998907, 239, 193, 254, 320
-0.998915, 365, 225, 380, 351
-0.998915, 417, 225, 432, 351
-0.998919, 407, 209, 422, 336
-0.998921, 185, 209, 200, 336
-0.998929, 337, 225, 352, 351
-0.99893, 247, 193, 262, 320
-0.998936, 433, 1, 464, 256
-0.99894, 279, 193, 294, 320
-0.998941, 263, 193, 278, 320
-0.998942, 271, 193, 286, 320
-0.998943, 273, 57, 400, 120
-0.998944, 225, 193, 240, 320
-0.998948, 27, 177, 42, 304
-0.998957, 49, 193, 176, 224
-0.99896, 417, 113, 432, 240
-0.998968, 459, 161, 474, 288
-0.998978, 1, 57, 64, 120
-0.998991, 35, 225, 50, 351
-0.998991, 253, 209, 268, 336
-0.999001, 331, 225, 346, 351
-0.999003, 207, 209, 222, 336
-0.999005, 423, 209, 438, 336
-0.999013, 483, 225, 498, 351
-0.999017, 401, 225, 416, 351
-0.999022, 159, 225, 174, 351
-0.999025, 405, 33, 436, 160
-0.999025, 359, 225, 374, 351
-0.999028, 39, 177, 54, 304
-0.999031, 121, 129, 184, 256
-0.999035, 449, 113, 464, 240
-0.999053, 297, 209, 312, 336
-0.999055, 231, 209, 246, 336
-0.99906, 329, 81, 360, 208
-0.999066, 349, 225, 364, 351
-0.999066, 1, 229, 128, 260
-0.999077, 403, 113, 418, 240
-0.999085, 401, 1, 432, 256
-0.999095, 169, 97, 200, 351
-0.999129, 343, 225, 358, 351
-0.999138, 407, 161, 422, 288
-0.999143, 485, 177, 500, 304
-0.999154, 429, 209, 444, 336
-0.999158, 33, 161, 288, 224
-0.999162, 29, 225, 44, 351
-0.999169, 465, 225, 480, 351
-0.99917, 129, 97, 256, 128
-0.999176, 371, 225, 386, 351
-0.999181, 325, 225, 340, 351
-0.999227, 97, 197, 224, 228
-0.999229, 265, 97, 296, 351
-0.999229, 41, 225, 56, 351
-0.999231, 45, 177, 60, 304
-0.999232, 145, 97, 176, 351
-0.999233, 313, 225, 328, 351
-0.999236, 477, 225, 492, 351
-0.999237, 427, 113, 442, 240
-0.999264, 439, 113, 454, 240
-0.999264, 453, 161, 468, 288
-0.999267, 445, 1, 476, 256
-0.999281, 417, 161, 432, 288
-0.999286, 319, 225, 334, 351
-0.999292, 303, 225, 318, 351
-0.999303, 21, 209, 36, 336
-0.999314, 433, 97, 448, 224
-0.999321, 441, 209, 456, 336
-0.999328, 185, 161, 200, 288
-0.999328, 149, 225, 164, 351
-0.999337, 105, 217, 168, 280
-0.999348, 411, 113, 426, 240
-0.999365, 377, 225, 392, 351
-0.999367, 143, 225, 158, 351
-0.99937, 447, 209, 462, 336
-0.999371, 137, 177, 168, 304
-0.999374, 47, 225, 62, 351
-0.999375, 413, 1, 444, 256
-0.99938, 317, 177, 348, 304
-0.999386, 253, 161, 268, 288
-0.999388, 425, 17, 488, 144
-0.999389, 233, 161, 248, 288
-0.999397, 157, 97, 188, 351
-0.999406, 209, 161, 224, 288
-0.999412, 253, 97, 284, 351
-0.999414, 457, 65, 472, 192
-0.999414, 395, 209, 410, 336
-0.99942, 465, 177, 480, 304
-0.999425, 1, 225, 16, 351
-0.999427, 159, 177, 174, 304
-0.999432, 275, 145, 290, 272
-0.999432, 129, 1, 192, 256
-0.999434, 329, 97, 392, 351
-0.999437, 57, 161, 72, 288
-0.999437, 33, 173, 160, 204
-0.999442, 465, 1, 496, 256
-0.999449, 435, 209, 450, 336
-0.999449, 51, 177, 66, 304
-0.999462, 277, 97, 308, 351
-0.999464, 291, 129, 306, 256
-0.999465, 425, 65, 440, 192
-0.999471, 193, 145, 208, 272
-0.999471, 241, 193, 368, 224
-0.999472, 447, 65, 462, 192
-0.999476, 321, 105, 448, 136
-0.999478, 273, 113, 400, 176
-0.999483, 439, 65, 454, 192
-0.999483, 1, 33, 128, 96
-0.999492, 181, 97, 212, 351
-0.999496, 25, 97, 56, 351
-0.9995, 171, 145, 186, 272
-0.999507, 417, 65, 432, 192
-0.999508, 471, 225, 486, 351
-0.999512, 401, 161, 416, 288
-0.99953, 281, 145, 296, 272
-0.999532, 407, 65, 422, 192
-0.999539, 269, 145, 284, 272
-0.999551, 193, 113, 320, 176
-0.999552, 119, 225, 134, 351
-0.999557, 199, 145, 214, 272
-0.999573, 263, 145, 278, 272
-0.999574, 15, 209, 30, 336
-0.999575, 209, 225, 224, 240
-0.999576, 403, 201, 418, 216
-0.999577, 15, 337, 30, 351
-0.999577, 45, 299, 60, 314
-0.999578, 275, 227, 290, 242
-0.999578, 325, 291, 340, 306
-0.999579, 241, 217, 256, 232
-0.999579, 103, 317, 118, 332
-0.999579, 225, 309, 240, 324
-0.999579, 337, 85, 464, 116
-0.99958, 225, 145, 240, 272
-0.999581, 13, 65, 44, 320
-0.999581, 421, 291, 436, 306
-0.999581, 455, 265, 470, 280
-0.999582, 405, 207, 420, 222
-0.999582, 177, 145, 192, 272
-0.999582, 433, 243, 448, 258
-0.999582, 405, 217, 420, 232
-0.999583, 247, 145, 262, 272
-0.999583, 433, 49, 448, 176
-0.999583, 473, 287, 488, 302
-0.999584, 185, 241, 200, 256
-0.999584, 467, 81, 482, 208
-0.999586, 25, 331, 40, 346
-0.999586, 285, 221, 300, 236
-0.999587, 159, 275, 174, 290
-0.999588, 293, 221, 308, 236
-0.999589, 35, 325, 50, 340
-0.999589, 451, 125, 466, 140
-0.999589, 231, 223, 246, 238
-0.99959, 27, 265, 42, 280
-0.99959, 43, 325, 58, 340
-0.999591, 119, 311, 134, 326
-0.999593, 53, 225, 68, 351
-0.999593, 125, 287, 140, 302
-0.999594, 193, 303, 208, 318
-0.999596, 447, 253, 462, 268
-0.999597, 29, 323, 44, 338
-0.999597, 477, 277, 492, 292
-0.999599, 187, 233, 202, 248
-0.9996, 143, 277, 158, 292
-0.9996, 403, 123, 418, 138
-0.9996, 45, 305, 60, 320
-0.999601, 131, 225, 146, 351
-0.999601, 187, 217, 202, 232
-0.999601, 369, 269, 384, 284
-0.999602, 95, 327, 110, 342
-0.999603, 131, 317, 146, 332
-0.999604, 369, 277, 384, 292
-0.999605, 473, 293, 488, 308
-0.999605, 103, 323, 118, 338
-0.999606, 467, 285, 482, 300
-0.999608, 153, 177, 168, 304
-0.999609, 165, 227, 180, 242
-0.99961, 421, 269, 436, 284
-0.999611, 101, 311, 116, 326
-0.999612, 425, 277, 440, 292
-0.999614, 437, 237, 452, 252
-0.999615, 297, 81, 312, 208
-0.999616, 353, 257, 368, 272
-0.999617, 425, 237, 440, 252
-0.999617, 133, 267, 148, 282
-0.999617, 239, 223, 254, 238
-0.999618, 165, 245, 180, 260
-0.999619, 429, 259, 444, 274
-0.99962, 201, 219, 216, 234
-0.99962, 49, 333, 64, 348
-0.99962, 453, 249, 468, 264
-0.999622, 457, 287, 472, 302
-0.999623, 209, 209, 224, 224
-0.999623, 117, 305, 132, 320
-0.999627, 143, 271, 158, 286
-0.999627, 219, 145, 234, 272
-0.999627, 125, 313, 140, 328
-0.999628, 423, 161, 438, 288
-0.999629, 269, 217, 284, 232
-0.99963, 275, 221, 290, 236
-0.99963, 459, 175, 474, 190
-0.999631, 117, 295, 132, 310
-0.999631, 47, 313, 62, 328
-0.999632, 471, 277, 486, 292
-0.999633, 451, 237, 466, 252
-0.999633, 111, 299, 126, 314
-0.999635, 311, 81, 326, 208
-0.999636, 137, 73, 200, 136
-0.999636, 457, 259, 472, 274
-0.999637, 165, 145, 180, 272
-0.999638, 33, 267, 48, 282
-0.999638, 163, 221, 178, 236
-0.999639, 303, 177, 318, 304
-0.999639, 293, 215, 308, 230
-0.999639, 141, 265, 156, 280
-0.99964, 247, 217, 262, 232
-0.999641, 241, 145, 256, 272
-0.999643, 57, 335, 72, 350
-0.999644, 383, 225, 398, 351
-0.999644, 281, 215, 296, 230
-0.999644, 233, 211, 248, 226
-0.999646, 347, 255, 362, 270
-0.999647, 459, 127, 474, 142
-0.999648, 7, 225, 22, 351
-0.999649, 181, 227, 196, 242
-0.99965, 225, 223, 240, 238
-0.999651, 247, 209, 262, 224
-0.999654, 279, 209, 294, 224
-0.999655, 215, 219, 230, 234
-0.999656, 291, 81, 306, 208
-0.999658, 253, 217, 268, 232
-0.999659, 429, 265, 444, 280
-0.999659, 105, 301, 120, 316
-0.999661, 459, 169, 474, 184
-0.999662, 433, 285, 448, 300
-0.999663, 209, 219, 224, 234
-0.999663, 459, 143, 474, 158
-0.999664, 185, 211, 200, 226
-0.999666, 327, 81, 342, 208
-0.999666, 467, 291, 482, 306
-0.999668, 457, 273, 472, 288
-0.999669, 95, 303, 110, 318
-0.99967, 459, 149, 474, 164
-0.99967, 107, 225, 122, 351
-0.999671, 117, 289, 132, 304
-0.999673, 3, 257, 18, 272
-0.999673, 169, 221, 184, 236
-0.999673, 137, 225, 152, 351
-0.999674, 321, 81, 336, 208
-0.999674, 431, 275, 446, 290
-0.999676, 389, 225, 404, 351
-0.999676, 65, 57, 192, 120
-0.999676, 305, 81, 320, 208
-0.999678, 191, 223, 206, 238
-0.99968, 459, 161, 474, 176
-0.999681, 253, 211, 268, 226
-0.999683, 459, 135, 474, 150
-0.999684, 291, 209, 306, 224
-0.999684, 175, 221, 190, 236
-0.999685, 239, 209, 254, 224
-0.999686, 465, 275, 480, 290
-0.999687, 1, 145, 128, 208
-0.999687, 201, 211, 216, 226
-0.999687, 459, 155, 474, 170
-0.999687, 423, 259, 438, 274
-0.999689, 225, 217, 240, 232
-0.999691, 429, 161, 444, 288
-0.999693, 269, 209, 284, 224
-0.999694, 1, 177, 16, 304
-0.999696, 259, 217, 274, 232
-0.999697, 235, 217, 250, 232
-0.999697, 367, 177, 382, 304
-0.999697, 129, 303, 144, 318
-0.999699, 359, 257, 374, 272
-0.999702, 285, 81, 300, 208
-0.999702, 467, 129, 482, 256
-0.999704, 225, 211, 240, 226
-0.999706, 285, 209, 300, 224
-0.999707, 229, 97, 260, 351
-0.999707, 369, 261, 384, 276
-0.999708, 477, 177, 492, 304
-0.99971, 33, 129, 48, 256
-0.999712, 301, 97, 332, 351
-0.999719, 301, 129, 316, 256
-0.999721, 345, 177, 360, 304
-0.999722, 125, 225, 140, 351
-0.999725, 423, 285, 438, 300
-0.999727, 175, 213, 190, 228
-0.999727, 191, 211, 206, 226
-0.999731, 275, 215, 290, 230
-0.999734, 263, 209, 278, 224
-0.999736, 289, 97, 320, 351
-0.99974, 181, 219, 196, 234
-0.999747, 201, 97, 232, 351
-0.999751, 289, 85, 416, 116
-0.999753, 165, 211, 180, 226
-0.999755, 241, 97, 272, 351
-0.999757, 225, 101, 352, 132
-0.999761, 49, 1, 112, 351
-0.999761, 215, 211, 230, 226
-0.999762, 37, 65, 68, 320
-0.999766, 17, 101, 144, 132
-0.999781, 225, 49, 480, 112
-0.999797, 145, 57, 272, 120
-0.9998, 337, 17, 464, 80
-0.999808, 241, 117, 368, 148
-0.999855, 369, 73, 496, 104
-0.999864, 217, 97, 248, 351
-0.999887, 337, 321, 464, 351
-0.999915, 377, 81, 408, 208
-0.999924, 329, 81, 392, 144
-0.999936, 145, 121, 272, 152
-0.999949, 1, 97, 32, 351
-0.999968, 373, 97, 404, 351
-0.999987, 1, 81, 500, 144
-1.00001, 1, 65, 128, 96
-1.00001, 1, 121, 128, 184
-1.00006, 133, 97, 164, 351
-1.00006, 209, 81, 272, 144
-1.00006, 381, 1, 412, 256
-1.00011, 257, 73, 500, 136
-1.00012, 65, 97, 192, 128
-1.00013, 65, 57, 320, 120
-1.00013, 65, 73, 192, 104
-1.00015, 45, 129, 76, 256
-1.00022, 17, 145, 80, 208
-1.00022, 97, 85, 224, 116
-1.00023, 305, 73, 432, 104
-1.00025, 273, 81, 304, 208
-1.00025, 333, 97, 364, 351
-1.00027, 225, 41, 352, 104
-1.00028, 349, 65, 380, 320
-1.00029, 369, 97, 496, 128
-1.00029, 217, 113, 280, 240
-1.0003, 177, 97, 304, 128
-1.0003, 65, 121, 192, 152
-1.00032, 17, 89, 144, 120
-1.00033, 161, 185, 288, 216
-1.00034, 145, 85, 272, 116
-1.00034, 1, 129, 128, 160
-1.00035, 161, 73, 416, 136
-1.00036, 89, 97, 152, 351
-1.00037, 297, 33, 328, 160
-1.00037, 193, 85, 320, 116
-1.00038, 1, 53, 128, 84
-1.00038, 129, 121, 384, 184
-1.0004, 145, 69, 272, 100
-1.00041, 369, 53, 496, 84
-1.00044, 65, 137, 192, 168
-1.00044, 289, 9, 416, 72
-1.00044, 241, 77, 368, 108
-1.00046, 65, 153, 192, 184
-1.00046, 353, 5, 480, 36
-1.00046, 225, 129, 352, 160
-1.00047, 389, 65, 420, 192
-1.00048, 65, 129, 192, 192
-1.00048, 337, 37, 464, 68
-1.0005, 133, 1, 164, 256
-1.00052, 313, 97, 344, 351
-1.00052, 57, 33, 88, 288
-1.00053, 1, 1, 128, 32
-1.00053, 17, 161, 144, 192
-1.00054, 337, 21, 464, 52
-1.00055, 241, 89, 368, 120
-1.00056, 1, 29, 128, 60
-1.00056, 97, 97, 128, 351
-1.00057, 273, 105, 400, 136
-1.00058, 281, 33, 312, 160
-1.00059, 65, 61, 192, 92
-1.00059, 1, 117, 128, 148
-1.0006, 361, 97, 392, 351
-1.00062, 145, 141, 272, 172
-1.00063, 129, 173, 256, 204
-1.00064, 425, 57, 488, 120
-1.00064, 81, 1, 208, 32
-1.00064, 305, 5, 432, 36
-1.00064, 321, 53, 448, 84
-1.00066, 209, 1, 240, 256
-1.00069, 221, 1, 252, 256
-1.00069, 265, 1, 296, 256
-1.00069, 245, 1, 276, 256
-1.00071, 153, 161, 216, 224
-1.00072, 257, 1, 500, 64
-1.00072, 109, 97, 140, 351
-1.00073, 177, 17, 304, 80
-1.00073, 285, 1, 316, 256
-1.00074, 233, 1, 264, 256
-1.00075, 301, 129, 332, 256
-1.00075, 1, 1, 32, 256
-1.00076, 113, 1, 144, 256
-1.00079, 241, 1, 368, 64
-1.00081, 57, 97, 120, 351
-1.00082, 145, 129, 272, 192
-1.00082, 225, 25, 480, 88
-1.00084, 25, 33, 88, 288
-1.00084, 365, 1, 396, 256
-1.00084, 189, 1, 220, 256
-1.00087, 177, 1, 208, 256
-1.00087, 385, 73, 448, 136
-1.00088, 25, 1, 56, 256
-1.00089, 193, 137, 320, 200
-1.00093, 81, 1, 208, 64
-1.00093, 129, 161, 384, 224
-1.00094, 149, 1, 180, 256
-1.00095, 1, 33, 256, 96
-1.00102, 69, 33, 100, 288
-1.00103, 297, 1, 328, 256
-1.00104, 97, 25, 224, 88
-1.00107, 1, 1, 128, 64
-1.00107, 113, 97, 176, 160
-1.00107, 1, 1, 64, 128
-1.00108, 65, 65, 192, 192
-1.00108, 321, 1, 352, 256
-1.00111, 33, 137, 288, 200
-1.00112, 49, 33, 176, 96
-1.00112, 233, 81, 296, 144
-1.00114, 161, 1, 192, 256
-1.00118, 33, 1, 288, 64
-1.00119, 337, 1, 368, 256
-1.0012, 309, 1, 340, 256
-1.00123, 85, 97, 116, 351
-1.00124, 317, 33, 348, 160
-1.00124, 137, 121, 200, 184
-1.00125, 161, 1, 416, 64
-1.00125, 129, 169, 192, 232
-1.00127, 81, 161, 208, 224
-1.00128, 81, 1, 112, 256
-1.00129, 101, 1, 132, 256
-1.0013, 1, 49, 500, 112
-1.0013, 361, 1, 424, 256
-1.00144, 21, 129, 52, 256
-1.00157, 241, 153, 368, 216
-1.0016, 1, 1, 64, 256
-1.00161, 289, 33, 416, 96
-1.00161, 97, 33, 352, 96
-1.00166, 469, 49, 500, 176
-1.00171, 1, 25, 500, 88
-1.00177, 129, 1, 256, 64
-1.00178, 1, 1, 500, 64
-1.00181, 369, 49, 432, 112
-1.00188, 305, 81, 368, 144
-1.00188, 1, 49, 64, 176
-1.00193, 393, 49, 456, 112
-1.00196, 341, 81, 372, 208
-1.00202, 129, 1, 256, 128
-1.00208, 89, 1, 152, 256
-1.00221, 41, 49, 104, 176
-1.00223, 281, 89, 344, 152
-1.00229, 333, 33, 364, 160
-1.00245, 353, 73, 416, 136
-1.00249, 157, 129, 188, 256
-1.00253, 265, 33, 296, 160
-1.00261, 5, 49, 36, 176
-1.00267, 33, 65, 96, 128
-1.0029, 257, 89, 320, 152
-1.00292, 193, 33, 256, 160
-1.00296, 349, 33, 380, 160
-1.00297, 233, 1, 296, 256
-1.00306, 365, 81, 396, 208
-1.00309, 261, 81, 292, 208
-1.0031, 1, 33, 64, 96
-1.00311, 353, 1, 416, 128
-1.00319, 185, 1, 248, 256
-1.00325, 365, 33, 396, 160
-1.00327, 209, 113, 272, 176
-1.00335, 365, 177, 396, 304
-1.00335, 153, 65, 216, 192
-1.00346, 229, 1, 260, 128
-1.00347, 433, 17, 464, 144
-1.00347, 245, 33, 276, 160
-1.00349, 153, 1, 216, 256
-1.00351, 97, 177, 160, 304
-1.00358, 9, 129, 40, 256
-1.00367, 57, 145, 120, 208
-1.00369, 209, 1, 272, 256
-1.0037, 345, 41, 408, 104
-1.00371, 21, 49, 52, 176
-1.00375, 461, 1, 492, 128
-1.0038, 25, 1, 88, 128
-1.00383, 353, 81, 384, 208
-1.00383, 257, 1, 320, 256
-1.00388, 145, 129, 176, 256
-1.00391, 321, 1, 384, 256
-1.00393, 385, 17, 416, 144
-1.00402, 1, 1, 32, 128
-1.00403, 321, 57, 384, 120
-1.00403, 13, 1, 44, 128
-1.00405, 49, 1, 112, 256
-1.00416, 57, 209, 88, 336
-1.00417, 393, 1, 456, 128
-1.00418, 25, 1, 56, 128
-1.00418, 45, 49, 76, 176
-1.00425, 229, 65, 260, 192
-1.00429, 169, 65, 200, 192
-1.00433, 273, 65, 336, 128
-1.00435, 265, 113, 328, 176
-1.00436, 217, 1, 248, 128
-1.00437, 197, 33, 228, 160
-1.00437, 157, 65, 188, 192
-1.00442, 145, 17, 208, 144
-1.00443, 181, 33, 212, 160
-1.00446, 421, 17, 452, 144
-1.00448, 289, 1, 352, 256
-1.00455, 337, 105, 400, 168
-1.00458, 81, 1, 144, 128
-1.00459, 273, 153, 336, 216
-1.00459, 33, 49, 64, 176
-1.0046, 433, 9, 496, 72
-1.00463, 241, 1, 304, 64
-1.00464, 161, 17, 192, 144
-1.00465, 1, 105, 64, 168
-1.00468, 77, 49, 108, 176
-1.00472, 25, 41, 88, 104
-1.00478, 125, 177, 156, 304
-1.00478, 89, 49, 152, 112
-1.00481, 97, 65, 128, 192
-1.00483, 37, 1, 68, 128
-1.00485, 177, 57, 240, 120
-1.00485, 317, 129, 348, 256
-1.00489, 57, 1, 88, 128
-1.00494, 69, 145, 100, 272
-1.00499, 137, 65, 168, 192
-1.00501, 377, 129, 408, 256
-1.00503, 313, 201, 376, 264
-1.00504, 233, 113, 296, 176
-1.00511, 281, 1, 344, 64
-1.00516, 345, 1, 408, 64
-1.00525, 57, 33, 120, 96
-1.00558, 121, 1, 184, 128
-1.00565, 121, 65, 184, 192
-1.00581, 169, 1, 232, 128
-1.00604, 57, 1, 120, 128
-1.00614, 89, 65, 152, 192
-1.00618, 313, 129, 376, 256
-1.00682, 65, 49, 128, 176
-1.00951, 89, 113, 152, 240
-1.00982, 65, 177, 128, 304
-1.01048, 185, 81, 248, 208
-1.01088, 337, 129, 400, 256
