1876
-0.177385, 1, 1, 500, 333
-0.275897, 225, 1, 480, 333
-0.309594, 1, 65, 500, 320
-0.34664, 129, 1, 384, 333
-0.455088, 33, 1, 288, 333
-0.471714, 193, 33, 448, 288
-0.555911, 97, 65, 352, 320
-0.717163, 1, 33, 256, 288
-0.810315, 321, 1, 448, 333
-0.819388, 193, 33, 320, 288
-0.821011, 337, 1, 464, 256
-0.830407, 209, 1, 336, 333
-0.83214, 257, 65, 384, 320
-0.838167, 161, 1, 288, 333
-0.841485, 273, 1, 400, 333
-0.848618, 65, 1, 192, 333
-0.852089, 369, 1, 496, 333
-0.85915, 129, 65, 256, 320
-0.860504, 1, 161, 500, 288
-0.861645, 1, 113, 500, 240
-0.863575, 113, 1, 240, 333
-0.873131, 17, 1, 144, 333
-0.873389, 81, 33, 208, 288
-0.875098, 161, 129, 416, 256
-0.882692, 193, 81, 448, 208
-0.893599, 65, 177, 320, 304
-0.894169, 1, 1, 500, 128
-0.900761, 1, 209, 500, 333
-0.901528, 1, 65, 500, 192
-0.903111, 17, 1, 144, 256
-0.904004, 65, 129, 320, 256
-0.909308, 257, 113, 384, 240
-0.910648, 177, 113, 304, 240
-0.911377, 193, 1, 448, 128
-0.912379, 161, 177, 416, 304
-0.914697, 305, 81, 432, 208
-0.915465, 185, 129, 248, 256
-0.916911, 209, 113, 272, 240
-0.91693, 225, 65, 352, 192
-0.917077, 257, 129, 500, 256
-0.917901, 113, 113, 240, 240
-0.918764, 145, 161, 272, 288
-0.918851, 209, 161, 336, 288
-0.919611, 33, 193, 160, 320
-0.92293, 97, 161, 224, 288
-0.923953, 369, 97, 496, 224
-0.924141, 233, 113, 296, 240
-0.924225, 353, 113, 416, 240
-0.924724, 265, 129, 328, 256
-0.9254, 305, 129, 432, 256
-0.925669, 313, 113, 376, 240
-0.925708, 89, 161, 152, 288
-0.926196, 385, 81, 448, 208
-0.926679, 265, 81, 328, 208
-0.929875, 185, 177, 248, 304
-0.929996, 313, 65, 376, 192
-0.930661, 289, 113, 352, 240
-0.933269, 217, 161, 280, 288
-0.933324, 145, 209, 272, 333
-0.935256, 425, 97, 488, 224
-0.93528, 161, 129, 224, 256
-0.935431, 209, 121, 272, 184
-0.935478, 97, 81, 352, 208
-0.935674, 265, 177, 328, 304
-0.935828, 289, 65, 352, 192
-0.936069, 273, 33, 400, 160
-0.936159, 337, 65, 400, 192
-0.936625, 313, 1, 376, 128
-0.936761, 41, 177, 104, 304
-0.936934, 257, 161, 384, 288
-0.938212, 89, 209, 152, 333
-0.938268, 305, 161, 368, 288
-0.938473, 185, 113, 248, 176
-0.938551, 177, 65, 304, 192
-0.938787, 257, 177, 500, 304
-0.939112, 185, 81, 248, 208
-0.939268, 337, 17, 464, 144
-0.939971, 65, 161, 128, 288
-0.940549, 113, 193, 176, 320
-0.940916, 225, 65, 288, 192
-0.941025, 137, 145, 200, 272
-0.941067, 281, 193, 344, 256
-0.941924, 265, 113, 328, 176
-0.942391, 177, 145, 240, 208
-0.942492, 401, 33, 464, 160
-0.942646, 241, 121, 304, 184
-0.943373, 353, 145, 480, 272
-0.943594, 209, 225, 272, 288
-0.943755, 393, 137, 456, 200
-0.944223, 265, 153, 328, 216
-0.944561, 97, 17, 352, 144
-0.945198, 97, 209, 224, 333
-0.945377, 225, 145, 288, 208
-0.9456, 361, 33, 424, 160
-0.94574, 241, 161, 304, 288
-0.946094, 225, 97, 288, 160
-0.946187, 425, 17, 488, 144
-0.946301, 345, 113, 408, 176
-0.94674, 337, 1, 400, 128
-0.946744, 417, 121, 480, 184
-0.946793, 265, 57, 328, 120
-0.946811, 265, 89, 328, 152
-0.947537, 321, 97, 384, 160
-0.948266, 17, 209, 80, 333
-0.94854, 249, 185, 312, 248
-0.948886, 177, 201, 240, 264
-0.948917, 17, 217, 80, 280
-0.949012, 377, 113, 440, 176
-0.949096, 353, 137, 416, 200
-0.949122, 113, 129, 176, 256
-0.949247, 97, 177, 160, 240
-0.949449, 145, 193, 208, 320
-0.94964, 233, 1, 296, 128
-0.950385, 313, 129, 376, 192
-0.950493, 297, 65, 360, 128
-0.95121, 161, 121, 224, 184
-0.951638, 89, 209, 152, 272
-0.952266, 209, 209, 336, 333
-0.953146, 217, 209, 280, 333
-0.953305, 201, 145, 264, 208
-0.954198, 289, 137, 352, 200
-0.954198, 145, 185, 208, 248
-0.954513, 257, 209, 384, 333
-0.95477, 1, 1, 256, 128
-0.954841, 41, 225, 104, 288
-0.954859, 1, 81, 256, 208
-0.954991, 289, 97, 352, 160
-0.955088, 193, 1, 320, 128
-0.955514, 401, 129, 464, 256
-0.955775, 329, 161, 392, 288
-0.955917, 377, 129, 440, 256
-0.955959, 321, 65, 384, 128
-0.956096, 305, 201, 368, 264
-0.956259, 137, 145, 200, 208
-0.956395, 417, 97, 480, 160
-0.956468, 137, 225, 200, 288
-0.956603, 289, 17, 352, 144
-0.956838, 305, 177, 432, 304
-0.957619, 361, 73, 424, 136
-0.957795, 265, 33, 328, 160
-0.957922, 57, 193, 120, 256
-0.95834, 209, 185, 272, 248
-0.958418, 161, 81, 224, 208
-0.95846, 65, 209, 128, 333
-0.958532, 257, 209, 320, 272
-0.958675, 137, 97, 200, 224
-0.958814, 113, 209, 176, 272
-0.958905, 33, 145, 160, 272
-0.959253, 289, 209, 352, 333
-0.959271, 305, 65, 368, 320
-0.95937, 241, 233, 304, 296
-0.95946, 177, 225, 240, 288
-0.959506, 401, 25, 464, 88
-0.959529, 345, 1, 408, 256
-0.960002, 353, 161, 416, 288
-0.960216, 289, 169, 352, 232
-0.960343, 233, 209, 296, 272
-0.960451, 313, 177, 376, 240
-0.9609, 89, 153, 152, 216
-0.961122, 257, 65, 320, 320
-0.961497, 377, 1, 440, 256
-0.961539, 169, 169, 232, 232
-0.961665, 225, 137, 256, 200
-0.961882, 121, 177, 184, 240
-0.962002, 361, 161, 424, 224
-0.962029, 249, 129, 280, 192
-0.962924, 301, 145, 332, 272
-0.962958, 385, 161, 448, 224
-0.962988, 193, 121, 320, 184
-0.96301, 177, 121, 208, 184
-0.963112, 417, 145, 480, 208
-0.963275, 273, 145, 400, 208
-0.963592, 213, 137, 244, 200
-0.963592, 241, 209, 304, 333
-0.963697, 197, 113, 228, 176
-0.963757, 293, 145, 324, 208
-0.963892, 217, 33, 280, 288
-0.963976, 49, 1, 176, 128
-0.963996, 17, 209, 144, 272
-0.964117, 209, 113, 240, 240
-0.964192, 385, 89, 448, 152
-0.964281, 233, 113, 264, 176
-0.964333, 281, 217, 344, 280
-0.964486, 353, 113, 480, 176
-0.964624, 417, 65, 480, 128
-0.964813, 181, 129, 212, 256
-0.964901, 445, 105, 476, 168
-0.965133, 229, 113, 260, 240
-0.965515, 301, 193, 332, 256
-0.965562, 129, 65, 256, 192
-0.965926, 97, 185, 224, 248
-0.965953, 273, 89, 400, 152
-0.966122, 225, 153, 352, 216
-0.966215, 425, 25, 488, 88
-0.96631, 145, 137, 272, 200
-0.96631, 65, 97, 192, 224
-0.966361, 41, 249, 104, 312
-0.966371, 17, 249, 80, 312
-0.966488, 313, 153, 376, 216
-0.966503, 273, 81, 304, 208
-0.966584, 297, 65, 328, 192
-0.966585, 9, 161, 72, 288
-0.966657, 401, 1, 464, 256
-0.966661, 281, 33, 344, 288
-0.966776, 241, 121, 368, 184
-0.966778, 97, 1, 160, 128
-0.966789, 209, 89, 336, 152
-0.966798, 29, 233, 60, 296
-0.96683, 137, 113, 200, 176
-0.966873, 389, 145, 420, 208
-0.967009, 57, 169, 120, 232
-0.967018, 193, 145, 224, 208
-0.967049, 401, 137, 432, 200
-0.967075, 241, 185, 368, 248
-0.967113, 129, 225, 256, 288
-0.967205, 289, 113, 416, 176
-0.967241, 345, 49, 408, 112
-0.967337, 385, 113, 416, 176
-0.967516, 193, 33, 256, 160
-0.967561, 241, 113, 272, 240
-0.967774, 309, 121, 340, 184
-0.967779, 289, 145, 320, 272
-0.967809, 193, 97, 224, 224
-0.967852, 169, 33, 232, 288
-0.967866, 381, 113, 412, 240
-0.968083, 353, 73, 480, 136
-0.968097, 65, 217, 128, 280
-0.968225, 217, 113, 248, 176
-0.968275, 253, 97, 284, 160
-0.968513, 193, 249, 256, 312
-0.968589, 145, 113, 272, 176
-0.968597, 209, 209, 336, 272
-0.968611, 65, 209, 192, 272
-0.968802, 193, 1, 256, 256
-0.968872, 129, 17, 256, 144
-0.968928, 237, 137, 268, 200
-0.96893, 313, 193, 344, 256
-0.968995, 225, 161, 256, 288
-0.969025, 241, 57, 304, 120
-0.969028, 337, 161, 400, 224
-0.969062, 313, 129, 344, 256
-0.969179, 377, 17, 440, 80
-0.969223, 425, 1, 488, 256
-0.969224, 253, 113, 284, 240
-0.969226, 337, 17, 400, 80
-0.969413, 113, 241, 176, 304
-0.969536, 1, 1, 128, 128
-0.969576, 433, 121, 464, 184
-0.969829, 385, 49, 448, 112
-0.969974, 297, 121, 328, 184
-0.970094, 321, 145, 448, 208
-0.970274, 89, 233, 152, 296
-0.970301, 269, 121, 300, 184
-0.970303, 197, 145, 228, 272
-0.970337, 113, 145, 176, 208
-0.970427, 17, 233, 144, 296
-0.970461, 285, 201, 316, 264
-0.970531, 361, 129, 392, 192
-0.970562, 293, 81, 324, 144
-0.970569, 345, 113, 376, 240
-0.970698, 73, 113, 136, 240
-0.970707, 113, 81, 176, 208
-0.970729, 393, 113, 424, 240
-0.970747, 309, 65, 340, 192
-0.970779, 117, 161, 148, 288
-0.97094, 333, 65, 364, 192
-0.970965, 193, 89, 256, 152
-0.97099, 349, 73, 380, 136
-0.971136, 73, 1, 136, 128
-0.971145, 361, 81, 392, 208
-0.971163, 277, 49, 308, 112
-0.971299, 257, 153, 288, 216
-0.97132, 345, 65, 376, 192
-0.9715, 345, 1, 376, 128
-0.971538, 273, 161, 304, 224
-0.971578, 437, 97, 468, 224
-0.971686, 333, 185, 364, 248
-0.971705, 273, 49, 400, 112
-0.971712, 169, 33, 232, 160
-0.971758, 449, 81, 480, 208
-0.971771, 369, 137, 496, 200
-0.971822, 25, 193, 88, 256
-0.971832, 425, 145, 456, 208
-0.971843, 309, 81, 340, 144
-0.971857, 405, 97, 436, 224
-0.971878, 137, 65, 200, 320
-0.971944, 361, 97, 392, 160
-0.971961, 169, 129, 200, 256
-0.972005, 65, 225, 96, 288
-0.972099, 421, 121, 452, 184
-0.97211, 297, 57, 328, 120
-0.972176, 97, 129, 224, 192
-0.972259, 309, 169, 340, 232
-0.972261, 225, 225, 256, 288
-0.972334, 241, 1, 304, 64
-0.97237, 313, 17, 376, 80
-0.972371, 33, 177, 160, 240
-0.972412, 341, 97, 372, 160
-0.972579, 105, 145, 136, 272
-0.972739, 97, 153, 224, 216
-0.972806, 297, 169, 328, 232
-0.972927, 285, 97, 316, 224
-0.973109, 145, 161, 272, 224
-0.973184, 445, 129, 476, 192
-0.973194, 373, 129, 404, 192
-0.97324, 41, 217, 72, 280
-0.973307, 325, 113, 356, 240
-0.97332, 229, 65, 260, 192
-0.973477, 241, 89, 272, 152
-0.973491, 237, 225, 268, 288
-0.973563, 333, 65, 364, 128
-0.973635, 193, 185, 320, 248
-0.973693, 285, 177, 316, 240
-0.973722, 325, 209, 356, 272
-0.973747, 97, 201, 128, 264
-0.973812, 289, 41, 352, 104
-0.973849, 209, 161, 240, 288
-0.973984, 225, 209, 256, 333
-0.974024, 65, 241, 192, 304
-0.974116, 257, 209, 384, 272
-0.974118, 409, 113, 440, 176
-0.97415, 49, 193, 80, 320
-0.974198, 389, 65, 420, 192
-0.974288, 269, 81, 300, 144
-0.974551, 361, 33, 392, 160
-0.974572, 277, 161, 308, 288
-0.974581, 177, 177, 208, 304
-0.974593, 161, 153, 192, 216
-0.974657, 329, 89, 360, 152
-0.974679, 425, 145, 488, 272
-0.974745, 33, 1, 96, 128
-0.974763, 145, 201, 272, 264
-0.974772, 89, 193, 120, 320
-0.975077, 113, 33, 176, 288
-0.975161, 457, 73, 488, 136
-0.975254, 345, 161, 376, 224
-0.975255, 281, 73, 312, 136
-0.975273, 361, 153, 392, 216
-0.975356, 137, 33, 200, 160
-0.975424, 1, 1, 64, 128
-0.975551, 69, 177, 100, 304
-0.975602, 97, 177, 128, 240
-0.975681, 113, 177, 144, 240
-0.975722, 281, 113, 312, 176
-0.97575, 321, 209, 384, 333
-0.975774, 345, 129, 376, 192
-0.975811, 237, 161, 268, 288
-0.975848, 265, 161, 296, 288
-0.975912, 457, 17, 488, 144
-0.975989, 261, 65, 292, 192
-0.976056, 313, 193, 344, 320
-0.976066, 181, 145, 212, 208
-0.976222, 209, 233, 336, 296
-0.976222, 85, 209, 116, 272
-0.976224, 161, 185, 192, 248
-0.976324, 125, 217, 156, 280
-0.976337, 373, 105, 404, 168
-0.976378, 129, 177, 160, 304
-0.976395, 417, 97, 448, 224
-0.97641, 429, 97, 460, 160
-0.976447, 141, 193, 172, 320
-0.976455, 309, 217, 340, 280
-0.976536, 289, 177, 416, 240
-0.976652, 113, 121, 176, 184
-0.976653, 177, 81, 208, 208
-0.976872, 157, 177, 188, 304
-0.976906, 357, 129, 388, 256
-0.97691, 217, 249, 280, 312
-0.976934, 273, 185, 304, 248
-0.977027, 225, 57, 352, 120
-0.977064, 257, 1, 288, 128
-0.977133, 109, 153, 140, 216
-0.977236, 221, 201, 252, 264
-0.977263, 309, 57, 340, 120
-0.977274, 141, 209, 172, 272
-0.977303, 313, 1, 376, 333
-0.977391, 225, 1, 288, 333
-0.977396, 313, 41, 376, 104
-0.977422, 101, 193, 132, 320
-0.977436, 205, 201, 236, 264
-0.977497, 445, 17, 476, 144
-0.977523, 337, 169, 464, 232
-0.977572, 285, 49, 316, 176
-0.977665, 337, 161, 368, 288
-0.977708, 353, 49, 480, 112
-0.977735, 49, 249, 80, 312
-0.977743, 17, 233, 48, 296
-0.97787, 301, 193, 332, 320
-0.977877, 165, 121, 196, 184
-0.977877, 53, 209, 84, 272
-0.977989, 329, 201, 392, 264
-0.978142, 161, 89, 288, 152
-0.978149, 129, 249, 256, 312
-0.978411, 461, 65, 492, 192
-0.978416, 213, 161, 244, 224
-0.978557, 65, 241, 128, 304
-0.978561, 257, 1, 320, 333
-0.978566, 145, 233, 176, 296
-0.978648, 281, 1, 344, 333
-0.978652, 333, 1, 364, 128
-0.978675, 305, 145, 336, 208
-0.978843, 193, 201, 224, 264
-0.978844, 141, 177, 172, 240
-0.978899, 377, 1, 440, 333
-0.978963, 413, 145, 444, 208
-0.979039, 373, 33, 404, 160
-0.979055, 29, 209, 60, 333
-0.979061, 173, 193, 204, 256
-0.979212, 337, 1, 400, 333
-0.979415, 417, 1, 480, 333
-0.979495, 265, 241, 328, 304
-0.979519, 337, 25, 464, 88
-0.979533, 181, 169, 212, 232
-0.979634, 397, 17, 428, 144
-0.979643, 377, 153, 408, 216
-0.979665, 373, 73, 404, 136
-0.979681, 165, 225, 196, 288
-0.979713, 417, 17, 448, 144
-0.979764, 177, 225, 208, 288
-0.979781, 229, 89, 260, 152
-0.979902, 169, 249, 232, 312
-0.979933, 217, 65, 248, 192
-0.979949, 257, 185, 288, 248
-0.97995, 321, 49, 352, 176
-0.98, 1, 193, 64, 256
-0.98012, 257, 233, 384, 296
-0.980163, 321, 129, 352, 192
-0.980261, 249, 161, 280, 288
-0.980269, 125, 241, 156, 304
-0.980347, 169, 1, 232, 333
-0.980384, 157, 129, 188, 256
-0.98039, 289, 193, 320, 320
-0.980428, 245, 161, 276, 224
-0.980443, 317, 1, 348, 128
-0.980459, 333, 129, 364, 192
-0.980479, 29, 209, 60, 272
-0.980533, 417, 89, 448, 152
-0.980551, 401, 161, 432, 224
-0.980561, 197, 193, 228, 320
-0.980562, 249, 217, 280, 280
-0.98057, 417, 1, 480, 64
-0.980638, 297, 217, 328, 280
-0.980688, 137, 249, 200, 312
-0.980737, 241, 257, 304, 320
-0.980827, 305, 225, 368, 288
-0.980828, 349, 49, 380, 112
-0.980832, 237, 201, 268, 264
-0.980839, 81, 233, 112, 296
-0.980875, 257, 1, 384, 64
-0.980936, 137, 129, 168, 256
-0.981024, 225, 177, 256, 240
-0.981193, 265, 1, 296, 64
-0.981218, 145, 89, 208, 152
-0.981226, 241, 65, 272, 192
-0.981277, 265, 57, 296, 120
-0.981279, 49, 153, 176, 216
-0.981284, 457, 97, 488, 160
-0.981309, 365, 49, 396, 112
-0.981313, 193, 1, 256, 333
-0.981356, 393, 73, 424, 136
-0.981365, 153, 209, 184, 272
-0.981379, 25, 169, 88, 232
-0.981587, 369, 129, 400, 256
-0.981635, 129, 1, 192, 333
-0.98165, 273, 17, 336, 80
-0.981666, 345, 185, 376, 248
-0.981756, 1, 257, 128, 320
-0.981794, 385, 17, 416, 144
-0.981843, 217, 49, 280, 112
-0.981862, 201, 169, 232, 232
-0.981901, 429, 73, 460, 136
-0.981908, 253, 1, 284, 64
-0.981981, 305, 17, 336, 144
-0.982155, 205, 233, 236, 296
-0.98227, 449, 25, 480, 88
-0.982343, 169, 89, 232, 152
-0.982366, 269, 209, 300, 272
-0.982517, 273, 33, 304, 160
-0.982562, 217, 73, 280, 136
-0.982649, 97, 153, 128, 216
-0.982652, 305, 209, 432, 272
-0.982701, 129, 161, 160, 224
-0.982764, 73, 33, 136, 288
-0.98282, 417, 1, 448, 64
-0.982846, 281, 137, 312, 200
-0.982905, 37, 265, 68, 328
-0.982911, 9, 273, 72, 333
-0.982941, 85, 169, 116, 232
-0.982952, 237, 209, 268, 333
-0.982963, 337, 1, 464, 64
-0.98298, 429, 17, 460, 144
-0.983008, 17, 201, 48, 264
-0.983031, 417, 25, 448, 88
-0.983042, 325, 193, 356, 320
-0.983096, 153, 113, 184, 176
-0.983151, 393, 49, 424, 112
-0.983166, 285, 233, 316, 296
-0.983188, 165, 81, 196, 208
-0.983239, 237, 257, 268, 320
-0.983358, 273, 25, 400, 88
-0.983981, 97, 105, 224, 168
-0.984046, 469, 17, 500, 144
-0.984091, 81, 49, 208, 176
-0.984121, 81, 1, 144, 333
-0.984437, 217, 1, 280, 64
-0.984461, 205, 65, 236, 192
-0.984516, 213, 209, 244, 333
-0.984528, 65, 145, 128, 208
-0.984591, 405, 145, 436, 272
-0.984624, 161, 49, 288, 112
-0.984628, 57, 1, 120, 333
-0.984646, 193, 1, 320, 64
-0.984672, 225, 25, 288, 88
-0.984864, 113, 209, 144, 333
-0.984888, 425, 145, 456, 272
-0.984908, 389, 161, 420, 288
-0.984912, 33, 1, 96, 333
-0.985074, 105, 1, 168, 333
-0.985121, 217, 273, 280, 333
-0.985439, 153, 17, 216, 80
-0.985443, 37, 161, 68, 288
-0.985664, 177, 257, 304, 320
-0.985722, 293, 1, 324, 128
-0.985762, 261, 209, 292, 333
-0.985828, 377, 177, 440, 304
-0.985828, 33, 129, 96, 256
-0.985829, 161, 145, 416, 208
-0.98606, 93, 145, 124, 272
-0.986246, 121, 17, 184, 80
-0.986339, 185, 17, 248, 80
-0.98635, 249, 209, 280, 333
-0.986351, 121, 113, 152, 240
-0.986428, 209, 125, 272, 156
-0.986462, 209, 137, 272, 168
-0.986569, 1, 1, 64, 256
-0.986657, 25, 1, 88, 256
-0.986758, 257, 129, 500, 192
-0.986847, 177, 145, 240, 176
-0.986922, 121, 1, 152, 128
-0.987242, 33, 273, 96, 333
-0.987322, 209, 153, 272, 184
-0.987361, 353, 177, 384, 304
-0.987449, 257, 105, 500, 168
-0.987449, 97, 169, 352, 232
-0.987472, 25, 1, 56, 128
-0.987551, 257, 85, 320, 116
-0.98765, 353, 185, 416, 248
-0.987676, 241, 133, 304, 164
-0.987677, 97, 209, 352, 272
-0.987684, 217, 17, 248, 144
-0.987692, 265, 145, 328, 176
-0.987707, 281, 189, 344, 220
-0.987711, 161, 121, 416, 184
-0.987731, 1, 1, 64, 333
-0.987768, 185, 129, 248, 160
-0.987775, 37, 1, 68, 128
-0.987806, 145, 81, 176, 208
-0.987814, 81, 17, 144, 80
-0.98785, 49, 33, 112, 288
-0.98792, 185, 113, 248, 144
-0.987935, 409, 169, 472, 232
-0.988007, 313, 121, 376, 152
-0.988019, 289, 201, 352, 232
-0.988076, 385, 145, 448, 176
-0.988079, 25, 229, 88, 260
-0.988088, 153, 137, 216, 168
-0.988138, 401, 101, 464, 132
-0.988145, 225, 113, 288, 144
-0.988149, 265, 169, 328, 200
-0.988161, 265, 125, 328, 156
-0.988211, 345, 113, 408, 144
-0.988219, 297, 73, 360, 104
-0.988241, 177, 165, 240, 196
-0.98828, 345, 153, 408, 184
-0.988329, 345, 129, 408, 160
-0.988339, 17, 193, 48, 320
-0.988366, 369, 117, 432, 148
-0.988411, 73, 229, 136, 260
-0.988532, 313, 85, 376, 116
-0.988543, 97, 173, 160, 204
-0.988545, 257, 157, 320, 188
-0.988605, 401, 121, 464, 152
-0.988614, 217, 225, 280, 256
-0.988618, 193, 25, 320, 88
-0.988654, 249, 25, 312, 88
-0.988667, 409, 137, 472, 168
-0.988681, 185, 209, 248, 240
-0.988703, 241, 145, 304, 176
-0.988729, 361, 141, 424, 172
-0.988729, 289, 217, 352, 248
-0.988751, 49, 237, 112, 268
-0.988766, 169, 229, 232, 260
-0.988773, 401, 157, 464, 188
-0.988774, 273, 113, 336, 144
-0.988781, 257, 73, 320, 104
-0.988793, 233, 161, 296, 192
-0.988796, 57, 249, 120, 280
-0.988801, 105, 209, 168, 240
-0.988806, 1, 185, 256, 248
-0.98881, 249, 225, 312, 256
-0.988815, 89, 193, 152, 224
-0.988815, 249, 209, 312, 240
-0.988819, 281, 85, 344, 116
-0.988828, 49, 209, 112, 240
-0.988888, 257, 81, 500, 144
-0.988912, 249, 113, 312, 144
-0.988924, 353, 165, 416, 196
-0.988925, 305, 137, 368, 168
-0.988949, 245, 1, 276, 128
-0.989005, 257, 185, 320, 216
-0.989034, 109, 1, 140, 128
-0.989047, 273, 57, 336, 88
-0.989055, 377, 165, 440, 196
-0.989127, 49, 265, 176, 328
-0.989153, 137, 233, 200, 264
-0.989154, 313, 57, 376, 88
-0.989192, 209, 213, 272, 244
-0.989208, 257, 153, 500, 216
-0.989308, 81, 161, 144, 192
-0.989309, 145, 197, 208, 228
-0.989314, 321, 73, 384, 104
-0.989328, 1, 145, 500, 208
-0.989337, 113, 193, 176, 224
-0.989348, 225, 173, 288, 204
-0.989349, 321, 97, 384, 128
-0.989367, 313, 109, 376, 140
-0.989378, 137, 209, 200, 240
-0.989385, 33, 233, 288, 296
-0.989394, 233, 93, 296, 124
-0.989404, 289, 97, 352, 128
-0.989407, 425, 101, 488, 132
-0.989439, 289, 125, 352, 156
-0.989454, 129, 181, 192, 212
-0.989483, 17, 241, 80, 272
-0.989506, 153, 121, 216, 152
-0.989522, 81, 145, 112, 272
-0.989533, 313, 213, 376, 244
-0.989562, 113, 17, 240, 80
-0.989567, 257, 57, 500, 120
-0.989575, 425, 125, 488, 156
-0.989589, 305, 185, 368, 216
-0.989614, 177, 33, 208, 160
-0.989653, 193, 49, 256, 112
-0.989657, 273, 229, 336, 260
-0.989663, 25, 217, 88, 248
-0.989671, 461, 113, 492, 240
-0.989703, 377, 129, 440, 160
-0.989705, 369, 105, 432, 136
-0.989727, 57, 177, 120, 208
-0.989734, 425, 113, 488, 144
-0.989781, 425, 153, 488, 184
-0.989793, 305, 165, 368, 196
-0.989794, 161, 89, 416, 152
-0.9898, 257, 197, 320, 228
-0.9898, 217, 241, 280, 272
-0.989806, 313, 149, 376, 180
-0.989821, 313, 197, 376, 228
-0.989836, 1, 209, 256, 272
-0.989836, 153, 149, 216, 180
-0.989837, 345, 101, 408, 132
-0.989838, 189, 33, 220, 160
-0.989843, 281, 157, 344, 188
-0.989864, 337, 141, 400, 172
-0.989881, 113, 221, 176, 252
-0.989919, 49, 197, 112, 228
-0.989943, 209, 101, 272, 132
-0.989946, 201, 165, 264, 196
-0.989951, 353, 61, 416, 92
-0.989982, 89, 245, 152, 276
-0.990027, 1, 229, 64, 260
-0.990055, 433, 137, 496, 168
-0.99006, 81, 205, 144, 236
-0.990092, 233, 17, 264, 144
-0.990126, 65, 137, 320, 200
-0.990145, 193, 273, 256, 333
-0.990149, 225, 261, 288, 292
-0.990149, 113, 141, 176, 172
-0.990195, 265, 97, 328, 128
-0.990224, 113, 245, 176, 276
-0.990251, 49, 221, 112, 252
-0.990284, 169, 101, 232, 132
-0.990285, 177, 177, 240, 208
-0.990308, 1, 209, 500, 272
-0.990318, 33, 253, 96, 284
-0.990319, 17, 97, 144, 224
-0.990461, 145, 105, 208, 136
-0.990471, 193, 225, 256, 256
-0.990488, 1, 169, 500, 232
-0.990496, 161, 213, 224, 244
-0.9905, 121, 165, 184, 196
-0.990503, 73, 217, 136, 248
-0.990529, 345, 89, 408, 120
-0.990549, 417, 89, 480, 120
-0.990577, 249, 61, 312, 92
-0.990584, 345, 73, 408, 104
-0.990593, 97, 233, 160, 264
-0.990648, 129, 153, 192, 184
-0.990655, 169, 189, 232, 220
-0.990659, 225, 81, 288, 112
-0.990661, 145, 17, 176, 144
-0.990706, 313, 9, 376, 40
-0.990713, 417, 29, 480, 60
-0.990715, 337, 13, 400, 44
-0.99075, 417, 65, 480, 96
-0.990779, 385, 61, 448, 92
-0.990799, 201, 261, 264, 292
-0.990814, 145, 165, 208, 196
-0.990835, 257, 241, 320, 272
-0.991011, 53, 1, 84, 128
-0.991178, 193, 137, 320, 168
-0.991328, 193, 153, 320, 184
-0.991356, 225, 257, 352, 320
-0.991378, 161, 117, 288, 148
-0.991407, 1, 161, 256, 224
-0.991442, 85, 1, 116, 128
-0.991456, 273, 153, 400, 184
-0.991484, 1, 17, 64, 80
-0.991505, 41, 17, 104, 80
-0.991519, 13, 1, 44, 128
-0.991528, 165, 33, 196, 160
-0.991604, 193, 201, 448, 264
-0.99161, 217, 137, 248, 168
-0.991615, 437, 145, 468, 272
-0.991617, 209, 117, 336, 148
-0.991637, 57, 145, 88, 272
-0.991716, 229, 133, 260, 164
-0.991722, 389, 153, 420, 184
-0.991726, 145, 149, 272, 180
-0.991761, 213, 149, 244, 180
-0.991769, 249, 141, 280, 172
-0.991781, 249, 121, 264, 184
-0.991806, 241, 125, 272, 156
-0.991835, 197, 141, 228, 172
-0.991835, 145, 137, 272, 168
-0.991838, 97, 1, 128, 128
-0.991847, 289, 129, 416, 160
-0.991854, 229, 153, 260, 184
-0.991857, 193, 1, 448, 64
-0.991865, 449, 129, 480, 256
-0.99187, 235, 129, 250, 192
-0.991875, 293, 145, 324, 176
-0.9919, 445, 101, 476, 132
-0.99191, 389, 141, 420, 172
-0.991937, 217, 165, 248, 196
-0.991945, 217, 125, 248, 156
-0.99196, 229, 121, 260, 152
-0.991987, 249, 113, 280, 144
-0.991988, 337, 117, 464, 148
-0.991989, 253, 153, 284, 184
-0.991996, 301, 205, 332, 236
-0.992011, 129, 233, 384, 296
-0.992024, 65, 233, 96, 264
-0.992052, 177, 117, 208, 148
-0.992056, 273, 165, 304, 196
-0.992058, 177, 137, 208, 168
-0.992059, 293, 85, 324, 116
-0.99206, 403, 137, 418, 200
-0.992066, 253, 129, 284, 160
-0.992083, 29, 229, 60, 260
-0.992101, 225, 221, 256, 252
-0.992118, 321, 77, 352, 108
-0.992121, 197, 153, 228, 184
-0.992127, 241, 137, 368, 168
-0.992127, 297, 129, 328, 160
-0.992128, 421, 97, 452, 128
-0.992132, 401, 153, 432, 184
-0.992136, 297, 189, 328, 220
-0.992143, 285, 221, 316, 252
-0.992158, 193, 177, 448, 240
-0.992164, 361, 157, 392, 188
-0.992165, 313, 193, 328, 256
-0.992166, 389, 121, 420, 152
-0.99217, 345, 77, 376, 108
-0.992176, 301, 73, 332, 104
-0.992178, 313, 197, 344, 228
-0.992181, 197, 113, 228, 144
-0.992201, 337, 145, 464, 176
-0.992206, 209, 165, 336, 196
-0.992215, 309, 217, 340, 248
-0.992226, 289, 157, 320, 188
-0.992229, 297, 217, 328, 248
-0.992232, 317, 125, 348, 156
-0.992232, 273, 73, 304, 104
-0.992232, 257, 93, 288, 124
-0.992234, 109, 161, 140, 192
-0.992239, 273, 81, 400, 112
-0.992249, 377, 153, 408, 184
-0.992251, 65, 113, 320, 176
-0.992253, 45, 217, 76, 248
-0.992261, 333, 205, 364, 236
-0.992261, 273, 85, 304, 116
-0.992268, 281, 177, 312, 208
-0.99227, 257, 117, 384, 148
-0.99227, 33, 209, 160, 240
-0.992273, 137, 209, 168, 240
-0.992273, 341, 65, 372, 96
-0.992278, 237, 225, 268, 256
-0.992279, 365, 113, 396, 144
-0.992282, 433, 121, 464, 152
-0.992295, 389, 165, 420, 196
-0.992295, 341, 113, 372, 144
-0.992298, 433, 101, 464, 132
-0.992312, 185, 213, 216, 244
-0.992315, 333, 85, 364, 116
-0.992318, 273, 153, 304, 184
-0.992326, 425, 145, 456, 176
-0.992329, 309, 113, 340, 144
-0.992337, 321, 105, 448, 136
-0.992341, 305, 61, 336, 92
-0.992344, 305, 85, 336, 116
-0.992348, 217, 137, 232, 200
-0.99235, 369, 141, 400, 172
-0.992352, 277, 209, 308, 333
-0.992353, 205, 17, 236, 144
-0.992356, 17, 229, 144, 260
-0.99236, 361, 129, 392, 160
-0.992363, 1, 121, 500, 184
-0.992366, 421, 121, 452, 152
-0.992373, 85, 229, 116, 260
-0.992377, 353, 97, 384, 128
-0.992382, 165, 141, 196, 172
-0.992386, 321, 217, 352, 248
-0.992396, 113, 181, 144, 212
-0.992401, 93, 217, 124, 248
-0.992402, 309, 185, 340, 216
-0.992403, 33, 17, 160, 80
-0.992403, 255, 121, 270, 184
-0.992405, 197, 125, 228, 156
-0.992414, 149, 185, 180, 216
-0.992415, 245, 93, 276, 124
-0.992416, 185, 149, 216, 180
-0.992417, 129, 225, 256, 256
-0.992418, 297, 229, 328, 260
-0.992419, 289, 69, 320, 100
-0.992424, 377, 117, 408, 148
-0.992425, 269, 129, 300, 160
-0.992425, 261, 165, 292, 196
-0.992429, 241, 153, 272, 184
-0.992434, 401, 137, 432, 168
-0.992437, 209, 209, 336, 240
-0.992437, 261, 121, 276, 184
-0.992438, 277, 61, 308, 92
-0.992438, 293, 169, 324, 200
-0.992441, 445, 113, 476, 144
-0.992444, 325, 105, 356, 136
-0.992447, 101, 173, 132, 204
-0.992456, 401, 165, 432, 196
-0.992456, 97, 193, 128, 224
-0.992456, 441, 133, 472, 164
-0.992463, 313, 97, 344, 128
-0.992473, 81, 245, 112, 276
-0.992474, 237, 261, 268, 292
-0.992484, 227, 137, 242, 200
-0.992488, 49, 237, 80, 268
-0.992489, 121, 193, 152, 224
-0.992493, 453, 141, 484, 172
-0.992498, 265, 189, 296, 220
-0.992499, 137, 245, 168, 276
-0.992499, 269, 117, 300, 148
-0.992501, 329, 117, 360, 148
-0.992503, 289, 201, 320, 232
-0.992519, 461, 85, 492, 116
-0.99252, 293, 57, 324, 88
-0.992523, 349, 141, 380, 172
-0.992524, 405, 117, 436, 148
-0.992525, 205, 165, 236, 196
-0.992527, 229, 105, 260, 136
-0.992531, 213, 217, 244, 248
-0.992538, 161, 177, 192, 208
-0.992541, 433, 157, 464, 188
-0.992541, 341, 97, 372, 128
-0.992544, 243, 113, 258, 176
-0.992545, 129, 173, 160, 204
-0.992551, 329, 57, 360, 88
-0.992552, 309, 173, 340, 204
-0.992552, 53, 253, 84, 284
-0.992554, 377, 165, 408, 196
-0.992559, 237, 209, 268, 240
-0.992573, 217, 113, 248, 144
-0.992573, 101, 229, 132, 260
-0.992576, 413, 149, 444, 180
-0.992579, 277, 197, 308, 228
-0.99258, 273, 141, 304, 172
-0.992581, 133, 193, 164, 224
-0.9926, 265, 177, 296, 208
-0.992605, 69, 1, 100, 128
-0.992608, 417, 133, 448, 164
-0.992608, 429, 133, 460, 164
-0.992712, 273, 93, 400, 124
-0.992735, 309, 97, 324, 160
-0.992751, 287, 161, 302, 224
-0.992775, 437, 129, 452, 192
-0.992788, 133, 1, 164, 128
-0.992802, 307, 193, 322, 256
-0.992807, 223, 113, 238, 176
-0.992861, 301, 57, 316, 120
-0.99287, 193, 221, 320, 252
-0.992873, 289, 141, 416, 172
-0.992896, 81, 189, 208, 220
-0.992913, 267, 137, 282, 200
-0.992944, 191, 129, 206, 192
-0.992948, 273, 121, 288, 184
-0.992953, 1, 1, 32, 128
-0.992974, 311, 153, 326, 216
-0.992974, 369, 105, 496, 136
-0.993006, 337, 133, 464, 164
-0.993026, 49, 113, 176, 176
-0.993036, 267, 113, 282, 176
-0.993072, 113, 161, 240, 192
-0.993094, 367, 89, 382, 152
-0.993122, 33, 197, 160, 228
-0.993167, 65, 237, 192, 268
-0.993173, 97, 209, 224, 240
-0.993175, 225, 85, 352, 116
-0.993213, 17, 245, 144, 276
-0.993251, 397, 137, 412, 200
-0.993273, 257, 25, 500, 88
-0.993274, 255, 97, 270, 160
-0.993299, 257, 169, 384, 200
-0.993338, 273, 61, 400, 92
-0.993345, 257, 213, 384, 244
-0.993387, 113, 153, 128, 216
-0.993444, 391, 113, 406, 176
-0.993451, 353, 93, 480, 124
-0.99347, 311, 121, 326, 184
-0.993486, 451, 105, 466, 168
-0.993495, 49, 173, 176, 204
-0.993509, 261, 97, 276, 160
-0.99351, 443, 137, 458, 200
-0.993533, 1, 1, 500, 64
-0.993538, 409, 137, 424, 200
-0.993551, 357, 89, 372, 152
-0.993576, 217, 113, 232, 176
-0.99358, 277, 161, 292, 224
-0.993602, 361, 129, 376, 192
-0.993622, 145, 213, 272, 244
-0.993624, 379, 105, 394, 168
-0.993643, 257, 185, 384, 216
-0.993654, 113, 81, 240, 144
-0.993657, 197, 137, 212, 200
-0.993683, 33, 49, 160, 176
-0.99369, 201, 113, 216, 176
-0.993704, 207, 145, 222, 208
-0.993713, 1, 153, 128, 216
-0.993714, 321, 185, 336, 248
-0.993714, 65, 225, 192, 256
-0.993721, 225, 105, 352, 136
-0.993739, 161, 173, 288, 204
-0.99374, 89, 257, 152, 320
-0.993794, 229, 113, 244, 176
-0.993851, 337, 165, 464, 196
-0.993856, 309, 57, 324, 120
-0.993857, 279, 185, 294, 248
-0.993887, 245, 225, 260, 288
-0.993894, 169, 41, 232, 104
-0.993896, 209, 237, 336, 268
-0.993904, 65, 265, 128, 328
-0.993927, 293, 145, 308, 208
-0.993928, 243, 137, 258, 200
-0.993961, 299, 81, 314, 144
-0.993963, 211, 113, 226, 176
-0.994006, 401, 177, 464, 304
-0.994009, 383, 137, 398, 200
-0.994039, 353, 65, 368, 128
-0.994067, 261, 145, 276, 208
-0.994094, 347, 65, 362, 128
-0.994095, 97, 149, 224, 180
-0.994106, 467, 121, 482, 184
-0.994127, 285, 49, 300, 112
-0.99413, 303, 113, 318, 176
-0.994135, 297, 113, 312, 176
-0.99415, 319, 97, 334, 160
-0.994151, 97, 137, 224, 168
-0.994155, 145, 49, 208, 112
-0.994169, 319, 129, 334, 192
-0.994173, 385, 113, 400, 176
-0.994177, 1, 209, 32, 333
-0.994212, 423, 121, 438, 184
-0.994213, 113, 237, 240, 268
-0.994216, 185, 113, 200, 176
-0.994217, 293, 73, 308, 136
-0.994252, 33, 225, 48, 288
-0.994259, 431, 121, 446, 184
-0.994267, 85, 225, 100, 288
-0.994269, 301, 193, 316, 256
-0.994269, 47, 225, 62, 288
-0.994282, 273, 105, 400, 136
-0.994305, 253, 225, 268, 288
-0.994364, 107, 177, 122, 240
-0.994377, 271, 161, 286, 224
-0.994379, 287, 113, 302, 176
-0.99438, 161, 57, 416, 120
-0.994389, 161, 105, 288, 136
-0.994395, 113, 185, 128, 248
-0.9944, 331, 89, 346, 152
-0.99441, 249, 145, 264, 208
-0.994412, 443, 89, 458, 152
-0.994412, 39, 209, 54, 272
-0.994421, 429, 145, 444, 208
-0.994425, 243, 89, 258, 152
-0.994435, 267, 89, 282, 152
-0.994443, 225, 73, 352, 104
-0.994443, 401, 161, 416, 224
-0.994445, 55, 249, 70, 312
-0.99446, 303, 145, 318, 208
-0.994472, 353, 65, 480, 96
-0.994493, 291, 49, 306, 112
-0.994496, 141, 225, 156, 288
-0.994512, 237, 105, 252, 168
-0.994521, 391, 145, 406, 208
-0.994536, 461, 105, 476, 168
-0.994538, 303, 169, 318, 232
-0.994546, 349, 193, 364, 256
-0.994552, 129, 197, 256, 228
-0.994552, 417, 137, 432, 200
-0.994569, 227, 217, 242, 280
-0.994576, 363, 65, 378, 128
-0.994586, 53, 217, 68, 280
-0.994598, 141, 201, 156, 264
-0.994607, 193, 185, 320, 216
-0.994608, 219, 217, 234, 280
-0.994612, 319, 73, 334, 136
-0.994623, 341, 177, 356, 240
-0.994626, 33, 257, 288, 320
-0.994632, 355, 129, 370, 192
-0.994637, 101, 169, 116, 232
-0.994647, 113, 49, 240, 112
-0.994654, 225, 225, 480, 288
-0.994655, 325, 105, 340, 168
-0.994691, 367, 161, 382, 224
-0.994696, 179, 121, 194, 184
-0.994722, 375, 137, 390, 200
-0.994723, 65, 121, 128, 184
-0.99473, 113, 173, 240, 204
-0.99473, 275, 57, 290, 120
-0.994746, 257, 201, 384, 232
-0.994748, 445, 113, 460, 176
-0.994758, 437, 153, 452, 216
-0.994762, 101, 193, 116, 256
-0.994763, 185, 225, 200, 288
-0.994773, 187, 153, 202, 216
-0.994781, 293, 201, 308, 264
-0.994789, 171, 153, 186, 216
-0.994793, 389, 1, 420, 256
-0.994804, 217, 161, 232, 224
-0.994806, 335, 65, 350, 128
-0.994822, 407, 113, 422, 176
-0.994844, 135, 217, 150, 280
-0.994858, 89, 49, 152, 176
-0.994871, 333, 201, 348, 264
-0.99488, 239, 225, 254, 288
-0.994883, 349, 97, 364, 160
-0.994884, 293, 169, 308, 232
-0.994913, 277, 89, 292, 152
-0.994916, 387, 89, 402, 152
-0.99492, 155, 193, 170, 256
-0.994937, 283, 217, 298, 280
-0.994959, 217, 193, 232, 256
-0.99496, 241, 1, 368, 32
-0.99497, 97, 97, 160, 160
-0.99497, 451, 129, 466, 192
-0.994996, 319, 217, 334, 280
-0.994996, 455, 81, 470, 144
-0.995001, 371, 113, 386, 176
-0.995006, 469, 81, 484, 144
-0.995017, 255, 145, 270, 208
-0.995024, 147, 201, 162, 264
-0.995025, 113, 117, 240, 148
-0.995044, 33, 185, 160, 216
-0.995047, 145, 249, 272, 280
-0.995055, 177, 93, 304, 124
-0.995056, 285, 33, 316, 288
-0.995067, 341, 1, 372, 256
-0.995082, 113, 265, 176, 328
-0.995107, 353, 193, 480, 256
-0.995115, 321, 81, 448, 112
-0.995139, 269, 65, 300, 320
-0.99515, 65, 249, 192, 280
-0.99518, 321, 5, 448, 36
-0.99518, 133, 81, 164, 208
-0.995205, 1, 97, 500, 160
-0.995211, 361, 1, 392, 256
-0.995226, 257, 225, 384, 256
-0.995286, 121, 49, 184, 112
-0.995373, 129, 273, 256, 333
-0.995384, 193, 249, 320, 280
-0.995408, 209, 197, 336, 228
-0.995439, 425, 1, 456, 256
-0.995442, 321, 177, 448, 208
-0.995479, 257, 1, 288, 256
-0.995514, 109, 97, 140, 224
-0.995515, 225, 61, 352, 92
-0.995535, 449, 1, 480, 256
-0.995543, 121, 65, 152, 192
-0.99557, 129, 185, 256, 216
-0.995648, 273, 49, 400, 80
-0.995665, 401, 1, 432, 256
-0.99567, 193, 33, 224, 288
-0.995692, 65, 49, 192, 112
-0.995697, 1, 129, 128, 192
-0.995698, 229, 1, 260, 256
-0.995709, 245, 33, 276, 288
-0.995726, 213, 1, 244, 256
-0.995744, 313, 65, 344, 320
-0.995751, 413, 1, 444, 256
-0.995778, 297, 33, 328, 288
-0.995798, 1, 233, 500, 296
-0.995798, 305, 233, 432, 296
-0.995826, 113, 105, 240, 136
-0.995897, 257, 13, 384, 44
-0.995919, 373, 1, 404, 256
-0.99595, 329, 1, 360, 256
-0.995974, 177, 33, 208, 288
-0.995992, 97, 97, 128, 224
-0.996028, 341, 209, 372, 333
-0.996078, 235, 133, 250, 164
-0.996164, 213, 137, 228, 168
-0.996174, 225, 145, 240, 176
-0.996225, 263, 125, 278, 156
-0.996229, 161, 237, 288, 268
-0.99623, 193, 1, 320, 32
-0.996242, 403, 137, 418, 168
-0.996282, 65, 49, 320, 112
-0.996287, 17, 257, 144, 288
-0.996323, 1, 57, 500, 120
-0.996332, 241, 125, 256, 156
-0.996347, 305, 213, 432, 244
-0.996366, 221, 157, 236, 188
-0.996405, 321, 17, 448, 48
-0.996419, 247, 137, 262, 168
-0.996446, 257, 137, 272, 168
-0.996458, 469, 1, 500, 256
-0.99647, 65, 89, 320, 152
-0.99648, 251, 125, 266, 156
-0.996482, 193, 261, 320, 292
-0.996502, 321, 53, 448, 84
-0.996518, 295, 81, 310, 112
-0.996521, 219, 145, 234, 176
-0.996523, 129, 265, 384, 328
-0.996527, 221, 133, 236, 164
-0.996596, 49, 89, 176, 152
-0.996619, 237, 145, 252, 176
-0.996631, 305, 197, 432, 228
-0.996636, 437, 1, 468, 256
-0.996658, 157, 33, 188, 288
-0.996668, 129, 93, 256, 124
-0.996672, 447, 97, 462, 128
-0.99668, 285, 161, 300, 192
-0.996695, 359, 125, 374, 156
-0.996703, 227, 165, 242, 196
-0.99673, 1, 173, 128, 204
-0.996742, 223, 117, 238, 148
-0.996745, 85, 97, 116, 224
-0.996747, 411, 149, 426, 180
-0.996757, 169, 145, 184, 176
-0.99676, 145, 261, 272, 292
-0.996766, 191, 129, 206, 160
-0.996769, 399, 161, 414, 192
-0.996771, 229, 125, 244, 156
-0.996776, 265, 113, 280, 144
-0.996785, 309, 209, 324, 240
-0.996787, 215, 157, 230, 188
-0.996789, 457, 101, 472, 132
-0.99679, 257, 125, 272, 156
-0.996795, 389, 157, 404, 188
-0.996815, 177, 81, 304, 112
-0.996816, 361, 153, 376, 184
-0.996822, 65, 161, 192, 192
-0.996829, 263, 153, 278, 184
-0.996835, 273, 165, 288, 196
-0.996836, 389, 117, 404, 148
-0.996837, 117, 1, 148, 256
-0.996874, 271, 129, 286, 160
-0.996878, 161, 273, 224, 333
-0.996884, 257, 237, 384, 268
-0.996886, 305, 225, 432, 256
-0.996892, 161, 25, 416, 88
-0.996898, 301, 85, 316, 116
-0.996899, 209, 149, 224, 180
-0.996911, 299, 221, 314, 252
-0.996912, 195, 141, 210, 172
-0.996929, 357, 97, 372, 128
-0.99693, 279, 161, 294, 192
-0.996931, 17, 41, 144, 104
-0.99694, 403, 149, 418, 180
-0.996948, 355, 141, 370, 172
-0.996949, 251, 153, 266, 184
-0.996953, 369, 17, 496, 48
-0.996954, 227, 217, 242, 248
-0.996955, 311, 189, 326, 220
-0.996963, 183, 117, 198, 148
-0.996964, 33, 229, 48, 260
-0.996966, 377, 109, 392, 140
-0.996973, 263, 141, 278, 172
-0.99698, 305, 185, 320, 216
-0.996991, 405, 161, 420, 192
-0.996996, 469, 141, 484, 172
-0.996997, 269, 93, 284, 124
-0.996999, 87, 233, 102, 264
-0.997002, 115, 165, 130, 196
-0.997003, 49, 217, 64, 248
-0.997006, 317, 85, 332, 116
-0.997011, 359, 77, 374, 108
-0.997013, 361, 141, 376, 172
-0.997017, 323, 125, 338, 156
-0.99703, 433, 149, 448, 180
-0.997038, 367, 93, 382, 124
-0.99704, 337, 85, 352, 116
-0.997057, 309, 85, 324, 116
-0.99707, 311, 133, 326, 164
-0.997071, 319, 213, 334, 244
-0.997073, 189, 117, 204, 148
-0.997081, 121, 89, 184, 152
-0.997085, 301, 73, 316, 104
-0.997088, 277, 185, 292, 216
-0.997099, 87, 245, 102, 276
-0.99711, 329, 225, 392, 288
-0.997121, 141, 33, 172, 288
-0.997128, 251, 113, 266, 144
-0.997129, 293, 225, 308, 256
-0.99714, 441, 113, 456, 144
-0.997147, 111, 149, 126, 180
-0.997147, 325, 213, 340, 244
-0.997148, 287, 173, 302, 204
-0.997151, 65, 17, 320, 80
-0.997158, 261, 93, 276, 124
-0.997159, 381, 137, 396, 168
-0.99716, 127, 169, 142, 200
-0.997162, 349, 61, 364, 92
-0.997172, 241, 113, 256, 144
-0.997172, 221, 169, 236, 200
-0.997175, 203, 145, 218, 176
-0.997195, 303, 129, 318, 160
-0.997196, 291, 153, 306, 184
-0.997196, 293, 93, 308, 124
-0.997202, 81, 233, 96, 264
-0.997207, 389, 141, 404, 172
-0.997216, 299, 141, 314, 172
-0.997221, 323, 85, 338, 116
-0.997223, 69, 113, 100, 240
-0.997224, 439, 145, 454, 176
-0.997225, 313, 113, 328, 144
-0.997233, 305, 225, 320, 256
-0.997234, 397, 149, 412, 180
-0.997236, 343, 77, 358, 108
-0.997241, 43, 225, 58, 256
-0.997242, 319, 73, 334, 104
-0.997253, 1, 269, 128, 300
-0.997253, 309, 145, 324, 176
-0.997259, 369, 49, 496, 80
-0.99726, 257, 153, 272, 184
-0.997264, 309, 73, 324, 104
-0.997284, 327, 105, 342, 136
-0.997288, 333, 205, 348, 236
-0.997288, 379, 125, 394, 156
-0.997289, 387, 101, 402, 132
-0.997292, 355, 109, 370, 140
-0.997296, 331, 117, 346, 148
-0.9973, 369, 29, 496, 60
-0.997305, 257, 113, 272, 144
-0.997309, 93, 229, 108, 260
-0.997322, 317, 129, 332, 160
-0.997322, 109, 161, 124, 192
-0.997323, 309, 97, 324, 128
-0.997324, 235, 221, 250, 252
-0.997324, 193, 49, 320, 80
-0.997326, 369, 141, 384, 172
-0.997327, 311, 177, 326, 208
-0.997327, 121, 169, 136, 200
-0.997342, 247, 261, 262, 292
-0.997344, 443, 133, 458, 164
-0.997348, 321, 181, 336, 212
-0.997354, 271, 113, 286, 144
-0.99736, 433, 121, 448, 152
-0.997372, 75, 233, 90, 264
-0.997376, 169, 133, 184, 164
-0.997376, 367, 157, 382, 188
-0.997377, 1, 25, 500, 88
-0.99738, 339, 57, 354, 88
-0.997396, 319, 97, 334, 128
-0.9974, 245, 225, 260, 256
-0.997402, 293, 165, 308, 196
-0.997407, 81, 41, 144, 104
-0.99741, 311, 165, 326, 196
-0.997416, 293, 141, 308, 172
-0.997422, 33, 149, 160, 180
-0.997584, 89, 129, 152, 192
-0.997588, 225, 249, 480, 312
-0.997618, 321, 29, 448, 60
-0.997666, 105, 1, 136, 256
-0.997741, 177, 273, 304, 304
-0.997741, 65, 101, 192, 132
-0.997816, 129, 33, 160, 288
-0.997827, 369, 77, 496, 108
-0.997894, 241, 249, 368, 280
-0.997939, 273, 25, 400, 56
-0.99795, 65, 125, 192, 156
-0.998001, 97, 261, 224, 292
-0.998022, 365, 177, 396, 304
-0.998056, 9, 49, 72, 112
-0.998121, 33, 41, 96, 104
-0.998189, 89, 1, 120, 256
-0.998201, 65, 113, 192, 144
-0.998222, 17, 17, 144, 48
-0.998246, 1, 257, 500, 320
-0.998275, 201, 149, 264, 164
-0.998289, 209, 135, 272, 150
-0.998296, 241, 261, 368, 292
-0.998309, 225, 127, 288, 142
-0.998322, 257, 91, 320, 106
-0.99833, 265, 131, 328, 146
-0.998331, 313, 129, 328, 256
-0.998334, 401, 149, 464, 164
-0.998338, 209, 121, 272, 136
-0.998344, 225, 141, 288, 156
-0.998345, 193, 141, 256, 156
-0.998355, 5, 1, 36, 256
-0.998356, 353, 115, 416, 130
-0.998359, 169, 143, 232, 158
-0.99836, 289, 211, 352, 226
-0.998361, 389, 81, 404, 208
-0.998365, 281, 189, 344, 204
-0.998365, 185, 133, 248, 148
-0.998367, 227, 129, 242, 256
-0.998368, 281, 197, 344, 212
-0.998372, 313, 123, 376, 138
-0.998373, 233, 133, 296, 148
-0.998374, 305, 139, 368, 154
-0.998374, 191, 129, 206, 256
-0.998376, 193, 127, 256, 142
-0.998376, 185, 117, 248, 132
-0.998382, 409, 101, 472, 116
-0.998382, 385, 141, 448, 156
-0.998382, 289, 205, 352, 220
-0.998383, 257, 85, 320, 100
-0.998383, 297, 91, 360, 106
-0.998389, 265, 137, 328, 152
-0.998389, 249, 151, 312, 166
-0.998392, 345, 135, 408, 150
-0.998392, 369, 161, 432, 176
-0.998401, 185, 157, 248, 172
-0.998402, 329, 117, 392, 132
-0.998404, 217, 159, 280, 174
-0.998405, 177, 61, 304, 92
-0.998405, 89, 213, 152, 228
-0.998406, 233, 121, 296, 136
-0.998407, 409, 109, 472, 124
-0.998407, 201, 165, 264, 180
-0.99841, 265, 165, 328, 180
-0.998412, 345, 145, 408, 160
-0.998412, 241, 159, 304, 174
-0.998412, 401, 155, 464, 170
-0.998412, 273, 219, 336, 234
-0.998412, 185, 219, 248, 234
-0.998414, 177, 165, 240, 180
-0.998414, 209, 225, 272, 240
-0.998415, 225, 149, 288, 164
-0.998415, 89, 171, 152, 186
-0.998416, 361, 121, 424, 136
-0.998417, 25, 231, 88, 246
-0.998417, 17, 237, 80, 252
-0.998419, 425, 143, 488, 158
-0.998421, 177, 151, 240, 166
-0.998422, 73, 231, 136, 246
-0.998423, 153, 137, 216, 152
-0.998424, 401, 115, 464, 130
-0.998426, 169, 127, 232, 142
-0.998428, 265, 203, 328, 218
-0.99843, 57, 251, 120, 266
-0.998433, 265, 183, 328, 198
-0.998433, 129, 189, 192, 204
-0.998434, 345, 167, 408, 182
-0.998434, 401, 163, 464, 178
-0.998435, 273, 61, 336, 76
-0.998435, 297, 83, 360, 98
-0.998437, 307, 129, 322, 256
-0.998438, 209, 115, 272, 130
-0.998439, 265, 125, 328, 140
-0.99844, 17, 161, 144, 192
-0.998443, 265, 143, 328, 158
-0.998444, 361, 151, 424, 166
-0.998447, 433, 157, 496, 172
-0.998448, 425, 149, 488, 164
-0.998449, 257, 231, 320, 246
-0.998451, 169, 229, 232, 244
-0.998452, 185, 171, 248, 186
-0.998453, 49, 233, 112, 248
-0.998454, 377, 169, 440, 184
-0.998454, 41, 243, 104, 258
-0.998456, 89, 245, 152, 260
-0.998459, 129, 243, 192, 258
-0.998461, 89, 193, 152, 208
-0.998462, 233, 115, 296, 130
-0.998465, 241, 169, 304, 184
-0.998465, 41, 221, 104, 236
-0.998465, 77, 33, 108, 288
-0.998467, 265, 157, 328, 172
-0.998468, 385, 135, 448, 150
-0.99847, 409, 135, 472, 150
-0.998471, 273, 225, 336, 240
-0.998472, 81, 187, 144, 202
-0.998473, 281, 117, 344, 132
-0.998474, 297, 75, 360, 90
-0.998475, 425, 67, 488, 82
-0.998477, 57, 211, 120, 226
-0.998478, 265, 97, 328, 112
-0.998478, 305, 131, 368, 146
-0.998478, 345, 129, 408, 144
-0.998479, 153, 149, 216, 164
-0.998479, 233, 97, 248, 224
-0.998479, 345, 159, 408, 174
-0.99848, 321, 89, 384, 104
-0.99848, 145, 121, 208, 136
-0.998481, 313, 203, 376, 218
-0.998481, 225, 91, 288, 106
-0.998481, 265, 175, 328, 190
-0.998483, 377, 115, 440, 130
-0.998484, 305, 115, 368, 130
-0.998485, 393, 125, 456, 140
-0.998486, 433, 103, 496, 118
-0.998489, 201, 97, 216, 224
-0.998489, 217, 173, 280, 188
-0.998491, 113, 211, 176, 226
-0.998491, 89, 203, 152, 218
-0.998491, 265, 113, 280, 240
-0.998492, 305, 185, 368, 200
-0.998492, 313, 217, 376, 232
-0.998492, 17, 243, 80, 258
-0.998493, 409, 95, 472, 110
-0.998494, 193, 209, 256, 224
-0.998495, 353, 173, 416, 188
-0.998495, 329, 111, 392, 126
-0.998495, 337, 123, 400, 138
-0.998499, 273, 149, 336, 164
-0.998499, 73, 177, 136, 192
-0.9985, 145, 213, 208, 228
-0.998501, 1, 231, 64, 246
-0.998502, 217, 231, 280, 246
-0.998504, 249, 191, 312, 206
-0.998505, 249, 209, 312, 224
-0.998506, 97, 181, 160, 196
-0.998507, 289, 97, 352, 112
-0.998507, 385, 65, 448, 80
-0.998507, 105, 219, 168, 234
-0.998509, 297, 61, 360, 76
-0.998511, 425, 119, 488, 134
-0.998513, 433, 97, 496, 112
-0.998514, 273, 79, 336, 94
-0.998514, 33, 1, 64, 256
-0.998517, 217, 113, 232, 240
-0.998532, 383, 97, 398, 224
-0.998535, 211, 113, 226, 240
-0.998541, 245, 265, 276, 280
-0.998541, 197, 133, 228, 148
-0.998541, 297, 129, 328, 144
-0.998542, 307, 65, 322, 192
-0.998543, 293, 159, 324, 174
-0.998544, 53, 253, 84, 268
-0.998545, 85, 249, 116, 264
-0.998545, 453, 119, 484, 134
-0.998546, 273, 167, 304, 182
-0.998547, 293, 235, 324, 250
-0.998548, 309, 115, 340, 130
-0.998548, 321, 83, 352, 98
-0.998549, 377, 157, 408, 172
-0.99855, 285, 209, 316, 224
-0.998551, 401, 149, 432, 164
-0.998552, 197, 127, 228, 142
-0.998554, 289, 203, 320, 218
-0.998554, 341, 73, 372, 88
-0.998555, 93, 229, 124, 244
-0.998556, 285, 187, 316, 202
-0.998556, 245, 147, 276, 162
-0.998557, 205, 225, 236, 240
-0.998557, 277, 85, 308, 100
-0.998557, 177, 147, 208, 162
-0.998557, 333, 217, 364, 232
-0.998557, 369, 131, 400, 146
-0.998558, 361, 161, 392, 176
-0.998558, 433, 117, 464, 132
-0.998558, 21, 239, 52, 254
-0.998559, 225, 231, 256, 246
-0.99856, 449, 125, 480, 140
-0.99856, 273, 59, 304, 74
-0.99856, 293, 229, 324, 244
-0.998561, 237, 229, 268, 244
-0.998561, 41, 235, 72, 250
-0.998561, 399, 113, 414, 240
-0.998561, 437, 133, 468, 148
-0.998563, 353, 145, 384, 160
-0.998564, 313, 203, 344, 218
-0.998565, 389, 121, 420, 136
-0.998565, 285, 219, 316, 234
-0.998566, 297, 223, 328, 238
-0.998566, 417, 135, 448, 150
-0.998568, 289, 91, 320, 106
-0.998568, 361, 153, 392, 168
-0.998568, 309, 193, 340, 208
-0.998569, 177, 127, 208, 142
-0.99857, 365, 125, 396, 140
-0.99857, 233, 127, 264, 142
-0.99857, 297, 59, 328, 74
-0.998571, 229, 115, 260, 130
-0.998572, 305, 81, 336, 96
-0.998572, 261, 115, 292, 130
-0.998573, 245, 153, 276, 168
-0.998573, 289, 77, 320, 92
-0.998574, 369, 141, 400, 156
-0.998574, 361, 167, 392, 182
-0.998574, 457, 143, 488, 158
-0.998574, 269, 125, 300, 140
-0.998574, 189, 115, 220, 130
-0.998577, 105, 171, 136, 186
-0.998578, 53, 33, 84, 288
-0.998578, 229, 165, 260, 180
-0.998579, 353, 135, 384, 150
-0.998579, 301, 75, 332, 90
-0.998581, 249, 115, 280, 130
-0.998582, 341, 121, 372, 136
-0.998582, 317, 223, 348, 238
-0.998582, 333, 91, 364, 106
-0.998583, 237, 215, 268, 230
-0.998586, 181, 97, 196, 224
-0.998586, 233, 159, 264, 174
-0.998587, 329, 115, 360, 130
-0.998588, 305, 87, 336, 102
-0.998589, 445, 113, 476, 128
-0.99859, 221, 171, 252, 186
-0.998591, 281, 231, 312, 246
-0.998592, 233, 121, 264, 136
-0.998593, 293, 149, 324, 164
-0.998595, 321, 125, 352, 140
-0.998597, 401, 163, 432, 178
-0.998598, 193, 155, 224, 170
-0.998599, 261, 137, 292, 152
-0.9986, 117, 171, 148, 186
-0.998602, 161, 189, 192, 204
-0.998604, 45, 221, 76, 236
-0.998605, 449, 151, 480, 166
-0.998605, 377, 163, 408, 178
-0.998609, 109, 163, 140, 178
-0.99861, 297, 135, 328, 150
-0.99861, 433, 169, 496, 232
-0.99861, 177, 141, 208, 156
-0.998612, 359, 113, 374, 240
-0.998613, 453, 99, 484, 114
-0.998615, 351, 1, 366, 128
-0.998615, 73, 233, 104, 248
-0.998617, 357, 49, 372, 176
-0.998617, 361, 119, 392, 134
-0.998618, 401, 139, 432, 154
-0.99862, 137, 189, 168, 204
-0.998622, 297, 97, 312, 224
-0.998622, 319, 129, 334, 256
-0.998624, 197, 149, 228, 164
-0.998625, 353, 129, 368, 256
-0.998625, 225, 221, 256, 236
-0.998626, 273, 91, 304, 106
-0.998631, 297, 215, 328, 230
-0.998634, 253, 159, 284, 174
-0.998639, 405, 113, 420, 240
-0.99864, 441, 103, 472, 118
-0.998642, 257, 93, 288, 108
-0.998642, 389, 167, 420, 182
-0.998642, 369, 177, 496, 208
-0.998643, 297, 143, 328, 158
-0.998647, 411, 97, 426, 224
-0.998647, 49, 137, 176, 168
-0.998648, 81, 17, 208, 48
-0.998649, 439, 97, 454, 224
-0.998649, 137, 211, 168, 226
-0.998652, 185, 145, 200, 272
-0.998653, 129, 81, 256, 112
-0.998655, 229, 141, 260, 156
-0.998656, 229, 147, 260, 162
-0.998657, 29, 233, 60, 248
-0.998657, 389, 137, 420, 152
-0.998659, 249, 121, 280, 136
-0.998661, 197, 145, 212, 272
-0.998662, 389, 155, 420, 170
-0.998664, 221, 125, 252, 140
-0.998666, 297, 195, 328, 210
-0.998668, 197, 141, 228, 156
-0.998672, 217, 131, 248, 146
-0.998674, 351, 81, 366, 208
-0.998676, 261, 131, 292, 146
-0.998677, 213, 159, 244, 174
-0.998681, 249, 141, 280, 156
-0.998682, 273, 97, 288, 224
-0.998683, 241, 113, 256, 240
-0.998689, 309, 217, 340, 232
-0.998691, 117, 161, 132, 288
-0.998691, 389, 161, 420, 176
-0.998692, 235, 145, 250, 272
-0.998693, 213, 149, 244, 164
-0.998699, 377, 117, 408, 132
-0.998699, 307, 177, 322, 304
-0.998699, 209, 143, 240, 158
-0.998701, 289, 83, 320, 98
-0.998703, 249, 133, 280, 148
-0.998706, 209, 21, 336, 52
-0.998709, 177, 121, 208, 136
-0.99871, 275, 145, 290, 272
-0.998716, 233, 153, 264, 168
-0.998719, 65, 33, 96, 288
-0.998727, 209, 165, 240, 180
-0.998727, 389, 149, 420, 164
-0.998732, 229, 177, 244, 304
-0.998738, 297, 49, 312, 176
-0.99874, 389, 143, 420, 158
-0.998741, 315, 81, 330, 208
-0.998745, 221, 161, 236, 288
-0.998745, 249, 127, 280, 142
-0.998748, 217, 137, 248, 152
-0.998751, 161, 13, 288, 44
-0.998754, 169, 129, 184, 256
-0.998758, 237, 133, 268, 148
-0.99876, 469, 49, 484, 176
-0.998763, 315, 177, 330, 304
-0.998763, 393, 129, 408, 256
-0.998764, 293, 145, 308, 272
-0.998767, 137, 273, 200, 333
-0.998768, 203, 145, 218, 272
-0.99877, 175, 129, 190, 256
-0.99877, 111, 145, 126, 272
-0.998774, 345, 81, 360, 208
-0.998778, 365, 81, 380, 208
-0.998782, 259, 113, 274, 240
-0.998807, 63, 193, 78, 320
-0.998809, 191, 177, 206, 304
-0.998812, 449, 97, 464, 224
-0.998823, 191, 81, 206, 208
-0.998824, 291, 81, 306, 208
-0.998825, 333, 129, 348, 256
-0.998826, 25, 145, 56, 272
-0.99883, 287, 145, 302, 272
-0.998835, 347, 145, 362, 272
-0.998837, 385, 33, 400, 160
-0.998839, 301, 145, 316, 272
-0.998842, 265, 161, 280, 288
-0.998842, 367, 33, 382, 160
-0.998844, 79, 209, 94, 333
-0.998847, 377, 113, 392, 240
-0.99885, 357, 1, 372, 128
-0.998851, 247, 113, 262, 240
-0.998852, 285, 97, 300, 224
-0.998853, 325, 129, 340, 256
-0.998855, 323, 177, 338, 304
-0.998856, 279, 97, 294, 224
-0.998857, 125, 161, 140, 288
-0.998865, 339, 129, 354, 256
-0.998869, 239, 65, 254, 192
-0.998872, 57, 193, 72, 320
-0.998872, 147, 193, 162, 320
-0.998877, 227, 81, 242, 208
-0.998882, 269, 1, 284, 128
-0.998883, 17, 1, 48, 256
-0.998894, 51, 209, 66, 333
-0.998904, 323, 65, 338, 192
-0.998913, 1, 49, 128, 80
-0.998914, 235, 193, 250, 320
-0.998917, 461, 33, 476, 160
-0.998922, 461, 81, 476, 208
-0.998933, 157, 209, 172, 333
-0.998943, 281, 145, 296, 272
-0.998945, 395, 33, 410, 160
-0.998947, 335, 65, 350, 192
-0.998947, 425, 1, 440, 128
-0.998951, 49, 5, 176, 36
-0.99896, 279, 33, 294, 160
-0.998963, 253, 97, 268, 224
-0.998968, 93, 193, 108, 320
-0.99897, 475, 65, 490, 192
-0.998972, 161, 161, 176, 288
-0.998974, 365, 129, 380, 256
-0.998974, 417, 97, 432, 224
-0.998985, 169, 209, 184, 333
-0.998986, 379, 33, 394, 160
-0.998988, 209, 161, 224, 288
-0.998999, 435, 17, 450, 144
-0.999, 45, 193, 60, 320
-0.999, 71, 161, 86, 288
-0.999005, 101, 177, 116, 304
-0.999007, 433, 97, 448, 224
-0.99901, 371, 81, 386, 208
-0.999011, 135, 177, 150, 304
-0.999012, 469, 97, 484, 224
-0.999014, 449, 17, 464, 144
-0.999019, 341, 177, 356, 304
-0.999021, 39, 209, 54, 333
-0.999026, 245, 193, 260, 320
-0.999028, 1, 5, 128, 36
-0.999029, 141, 193, 156, 320
-0.999036, 321, 41, 448, 72
-0.999046, 345, 33, 360, 160
-0.999046, 353, 189, 480, 220
-0.999047, 179, 177, 194, 304
-0.999049, 267, 65, 282, 192
-0.999052, 77, 161, 92, 288
-0.999054, 455, 81, 470, 208
-0.999057, 475, 17, 490, 144
-0.999059, 285, 17, 300, 144
-0.999061, 403, 65, 418, 192
-0.999061, 9, 113, 72, 240
-0.999063, 281, 193, 296, 320
-0.999071, 253, 209, 268, 333
-0.999074, 329, 81, 344, 208
-0.999079, 221, 65, 236, 192
-0.999085, 327, 1, 342, 128
-0.999085, 49, 49, 176, 80
-0.999086, 291, 17, 306, 144
-0.999089, 263, 1, 278, 128
-0.999089, 273, 49, 288, 176
-0.999091, 109, 193, 124, 320
-0.999097, 253, 145, 268, 272
-0.999097, 303, 17, 318, 144
-0.999101, 73, 209, 88, 333
-0.999102, 317, 33, 332, 160
-0.999105, 117, 209, 132, 333
-0.999106, 329, 193, 344, 320
-0.99918, 49, 269, 176, 300
-0.999244, 145, 49, 272, 80
-0.999285, 257, 37, 384, 68
-0.999301, 369, 5, 496, 36
-0.999313, 49, 89, 176, 120
-0.999349, 129, 273, 256, 304
-0.99941, 209, 37, 336, 68
-0.99946, 161, 25, 288, 56
-0.999474, 225, 273, 352, 304
-0.999525, 145, 1, 272, 32
-0.999535, 353, 217, 480, 280
-0.999562, 97, 5, 224, 36
-0.999623, 97, 49, 224, 80
-0.999706, 195, 155, 210, 170
-0.999707, 259, 91, 274, 106
-0.999707, 305, 191, 320, 206
-0.999707, 355, 123, 370, 138
-0.999708, 273, 167, 288, 182
-0.999708, 249, 117, 264, 132
-0.999708, 139, 211, 154, 226
-0.999708, 319, 115, 334, 130
-0.999708, 379, 159, 394, 174
-0.999709, 263, 1, 278, 16
-0.999709, 245, 229, 260, 244
-0.99971, 435, 143, 450, 158
-0.99971, 299, 221, 314, 236
-0.999711, 219, 149, 234, 164
-0.999712, 311, 153, 326, 168
-0.999713, 215, 171, 230, 186
-0.999713, 389, 169, 404, 184
-0.999713, 301, 59, 316, 74
-0.999713, 409, 139, 424, 154
-0.999714, 1, 137, 128, 168
-0.999715, 189, 135, 204, 150
-0.999715, 357, 115, 372, 130
-0.999715, 319, 223, 334, 238
-0.999715, 409, 145, 424, 160
-0.999716, 263, 149, 278, 164
-0.999716, 265, 93, 280, 108
-0.999717, 87, 239, 102, 254
-0.999717, 255, 121, 270, 136
-0.999717, 239, 125, 254, 140
-0.999718, 301, 77, 316, 92
-0.99972, 385, 111, 400, 126
-0.99972, 309, 87, 324, 102
-0.999721, 271, 135, 286, 150
-0.999721, 451, 153, 466, 168
-0.999722, 335, 115, 350, 130
-0.999723, 247, 155, 262, 170
-0.999723, 89, 233, 104, 248
-0.999723, 279, 185, 294, 200
-0.999723, 379, 127, 394, 142
-0.999724, 271, 117, 286, 132
-0.999726, 307, 143, 322, 158
-0.999726, 43, 233, 58, 248
-0.999727, 453, 109, 468, 124
-0.999728, 215, 137, 230, 152
-0.999728, 251, 141, 266, 156
-0.999729, 275, 91, 290, 106
-0.99973, 397, 161, 412, 176
-0.999731, 271, 127, 286, 142
-0.999731, 363, 145, 378, 160
-0.999731, 379, 167, 394, 182
-0.999733, 309, 185, 324, 200
-0.999733, 307, 93, 322, 108
-0.999735, 285, 85, 300, 100
-0.999735, 83, 233, 98, 248
-0.999736, 371, 161, 386, 176
-0.999736, 389, 163, 404, 178
-0.999737, 207, 143, 222, 158
-0.999738, 111, 167, 126, 182
-0.999738, 291, 199, 306, 214
-0.999738, 295, 75, 310, 90
-0.999741, 181, 119, 196, 134
-0.999741, 249, 265, 264, 280
-0.999742, 265, 139, 280, 154
-0.999745, 309, 81, 324, 96
-0.999745, 311, 193, 326, 208
-0.999747, 397, 167, 412, 182
-0.999748, 291, 233, 306, 248
-0.99975, 263, 155, 278, 170
-0.999751, 359, 133, 374, 148
-0.999751, 343, 91, 358, 106
-0.999753, 311, 135, 326, 150
-0.999755, 87, 245, 102, 260
-0.999756, 229, 139, 244, 154
-0.999758, 305, 229, 320, 244
-0.99976, 221, 173, 236, 188
-0.999761, 301, 91, 316, 106
-0.999762, 409, 163, 424, 178
-0.999763, 123, 171, 138, 186
-0.999763, 221, 135, 236, 150
-0.999766, 237, 151, 252, 166
-0.999767, 225, 165, 240, 180
-0.999767, 223, 119, 238, 134
-0.999769, 323, 217, 338, 232
-0.999769, 221, 143, 236, 158
-0.999772, 213, 159, 228, 174
-0.999772, 225, 149, 240, 164
-0.999772, 213, 165, 228, 180
-0.999774, 205, 149, 220, 164
-0.999774, 195, 141, 210, 156
-0.999775, 261, 121, 276, 136
-0.999776, 463, 151, 478, 166
-0.999777, 169, 149, 184, 164
-0.999777, 235, 131, 250, 146
-0.999777, 469, 145, 484, 160
-0.999778, 243, 143, 258, 158
-0.99978, 113, 173, 128, 188
-0.99978, 337, 91, 352, 106
-0.99978, 245, 149, 260, 164
-0.999781, 113, 161, 128, 176
-0.999782, 313, 221, 328, 236
-0.999782, 379, 153, 394, 168
-0.999782, 253, 155, 268, 170
-0.999782, 199, 149, 214, 164
-0.999784, 245, 125, 260, 140
-0.999785, 379, 117, 394, 132
-0.999791, 361, 155, 376, 170
-0.999794, 403, 149, 418, 164
-0.999795, 299, 83, 314, 98
-0.999796, 357, 145, 372, 160
-0.999798, 257, 133, 272, 148
-0.999801, 329, 117, 344, 132
-0.999805, 293, 83, 308, 98
-0.999806, 227, 159, 242, 174
-0.999811, 235, 143, 250, 158
-0.999813, 403, 163, 418, 178
-0.999816, 387, 117, 402, 132
-0.999816, 447, 103, 462, 118
-0.999816, 403, 139, 418, 154
-0.999817, 469, 151, 484, 166
-0.999819, 459, 101, 474, 116
-0.999825, 191, 119, 206, 134
-0.999827, 31, 231, 46, 246
-0.999834, 219, 159, 234, 174
-0.999835, 219, 165, 234, 180
-0.999839, 17, 65, 144, 128
-0.999852, 255, 127, 270, 142
-0.999857, 241, 137, 256, 152
-0.999865, 251, 133, 266, 148
-0.999867, 265, 127, 280, 142
-0.999868, 245, 131, 260, 146
-0.999874, 263, 133, 278, 148
-0.999881, 213, 143, 228, 158
-1.00009, 345, 209, 408, 333
-1.00055, 289, 273, 416, 333
-1.00084, 1, 105, 128, 168
-1.00095, 369, 249, 496, 312
-1.00141, 337, 273, 464, 333
-1.00143, 353, 193, 480, 320
-1.00149, 225, 273, 480, 333
-1.00209, 41, 81, 104, 208
-1.00373, 65, 65, 128, 192
-1.00461, 9, 49, 72, 176
-1.01142, 433, 209, 496, 333
