1956
-0.346516, 1, 129, 500, 375
-0.456294, 33, 1, 288, 375
-0.468686, 1, 33, 500, 288
-0.480592, 225, 1, 480, 375
-0.507362, 1, 1, 500, 375
-0.536861, 129, 1, 384, 375
-0.547312, 33, 129, 288, 375
-0.570067, 225, 129, 480, 375
-0.663136, 129, 129, 384, 375
-0.722335, 33, 33, 288, 288
-0.736075, 225, 33, 480, 288
-0.780062, 129, 33, 384, 288
-0.852661, 225, 129, 352, 375
-0.854209, 113, 129, 240, 375
-0.856441, 65, 97, 192, 352
-0.859383, 257, 1, 384, 375
-0.860464, 353, 129, 480, 375
-0.860637, 1, 209, 500, 336
-0.867564, 97, 1, 224, 375
-0.867619, 49, 1, 176, 375
-0.872163, 161, 65, 288, 320
-0.874372, 1, 145, 500, 272
-0.88034, 209, 1, 336, 375
-0.880469, 17, 97, 144, 352
-0.882266, 1, 1, 128, 375
-0.885365, 65, 1, 192, 256
-0.885597, 337, 1, 464, 375
-0.888118, 305, 129, 432, 375
-0.8906, 161, 1, 288, 375
-0.892097, 209, 33, 336, 288
-0.893693, 273, 33, 400, 288
-0.897745, 65, 145, 320, 272
-0.901815, 225, 193, 480, 320
-0.903669, 33, 209, 288, 336
-0.904487, 17, 1, 144, 256
-0.904796, 113, 33, 240, 288
-0.908707, 1, 97, 500, 224
-0.917105, 129, 193, 384, 320
-0.919353, 1, 49, 500, 176
-0.920098, 321, 33, 448, 288
-0.920654, 225, 241, 480, 368
-0.924499, 193, 145, 320, 272
-0.925723, 161, 129, 416, 256
-0.926029, 369, 225, 496, 352
-0.92715, 225, 193, 352, 320
-0.928096, 81, 129, 208, 256
-0.929163, 337, 177, 464, 304
-0.929431, 1, 65, 256, 192
-0.930174, 129, 193, 256, 320
-0.932042, 113, 145, 176, 272
-0.932403, 233, 145, 296, 272
-0.932487, 345, 145, 408, 272
-0.93263, 289, 177, 416, 304
-0.933222, 81, 193, 144, 320
-0.933339, 369, 113, 432, 240
-0.935646, 321, 241, 448, 368
-0.936198, 17, 209, 144, 336
-0.936612, 409, 193, 472, 320
-0.936712, 201, 193, 264, 320
-0.9372, 129, 241, 384, 368
-0.937753, 65, 209, 192, 336
-0.938281, 161, 97, 288, 224
-0.938419, 201, 145, 264, 272
-0.938821, 137, 145, 200, 272
-0.938919, 201, 241, 264, 368
-0.93901, 225, 97, 288, 224
-0.939759, 113, 241, 240, 368
-0.94001, 33, 145, 160, 272
-0.940056, 225, 65, 480, 192
-0.940268, 257, 113, 384, 240
-0.940274, 425, 241, 488, 368
-0.940838, 337, 129, 464, 256
-0.940974, 369, 209, 432, 336
-0.941061, 257, 145, 500, 272
-0.942229, 65, 49, 192, 176
-0.942266, 433, 193, 496, 320
-0.943551, 337, 241, 400, 368
-0.943754, 129, 97, 192, 224
-0.943879, 369, 1, 496, 256
-0.94418, 225, 241, 352, 368
-0.944216, 153, 97, 216, 224
-0.9443, 1, 81, 128, 208
-0.944512, 385, 161, 448, 288
-0.944909, 321, 177, 384, 304
-0.945152, 73, 129, 136, 256
-0.945407, 129, 145, 256, 272
-0.945907, 225, 49, 352, 176
-0.945996, 193, 201, 256, 264
-0.94619, 161, 177, 224, 304
-0.946253, 241, 193, 304, 320
-0.947417, 273, 161, 336, 288
-0.947477, 113, 209, 176, 336
-0.947526, 265, 185, 328, 248
-0.947804, 337, 297, 400, 360
-0.948133, 177, 193, 304, 320
-0.948784, 41, 65, 104, 192
-0.949092, 393, 113, 456, 240
-0.949113, 241, 193, 304, 256
-0.950363, 297, 161, 360, 288
-0.950866, 273, 241, 400, 368
-0.950986, 65, 33, 128, 160
-0.951381, 393, 201, 456, 264
-0.951434, 401, 241, 464, 368
-0.951479, 217, 97, 280, 160
-0.951567, 417, 193, 480, 256
-0.952188, 201, 273, 264, 336
-0.952229, 225, 241, 288, 368
-0.952249, 225, 129, 288, 192
-0.952523, 225, 305, 288, 368
-0.952572, 297, 305, 360, 368
-0.952806, 225, 161, 288, 224
-0.952909, 129, 81, 384, 208
-0.953396, 265, 97, 328, 224
-0.953811, 377, 65, 440, 192
-0.953824, 65, 1, 192, 128
-0.953941, 321, 185, 384, 248
-0.95435, 297, 193, 360, 256
-0.954375, 1, 1, 500, 128
-0.954776, 97, 177, 160, 240
-0.954794, 89, 137, 152, 200
-0.955147, 81, 201, 144, 264
-0.955395, 49, 225, 112, 352
-0.955452, 161, 241, 288, 368
-0.955647, 73, 241, 136, 368
-0.955747, 121, 185, 184, 248
-0.955829, 113, 81, 240, 208
-0.955887, 193, 65, 256, 192
-0.956012, 201, 305, 264, 368
-0.956072, 153, 201, 216, 264
-0.956565, 393, 177, 456, 240
-0.957009, 137, 193, 200, 320
-0.957051, 361, 137, 424, 200
-0.957051, 433, 217, 496, 280
-0.957072, 49, 161, 112, 288
-0.957183, 353, 201, 416, 264
-0.957212, 177, 241, 240, 368
-0.957558, 417, 289, 480, 352
-0.957626, 129, 137, 192, 200
-0.957805, 97, 97, 160, 224
-0.957995, 209, 97, 336, 224
-0.95828, 129, 49, 192, 176
-0.958356, 377, 113, 440, 176
-0.959085, 17, 33, 144, 160
-0.959228, 177, 113, 240, 240
-0.95942, 25, 297, 88, 360
-0.9595, 49, 289, 112, 352
-0.959526, 129, 33, 256, 160
-0.960128, 257, 113, 320, 176
-0.960214, 425, 249, 488, 312
-0.960373, 345, 193, 408, 320
-0.960384, 265, 209, 328, 336
-0.960517, 289, 241, 352, 368
-0.960641, 233, 217, 296, 280
-0.960741, 121, 161, 184, 224
-0.96086, 385, 289, 448, 352
-0.960956, 73, 257, 136, 320
-0.961318, 321, 113, 384, 240
-0.96172, 273, 305, 336, 368
-0.961959, 89, 1, 152, 128
-0.961988, 369, 177, 432, 240
-0.962144, 41, 57, 104, 120
-0.96222, 97, 281, 160, 344
-0.962323, 289, 113, 352, 240
-0.962731, 345, 169, 408, 232
-0.963247, 73, 289, 136, 352
-0.963277, 97, 33, 352, 160
-0.963303, 49, 113, 112, 240
-0.963335, 17, 81, 80, 208
-0.963526, 65, 41, 128, 104
-0.963634, 193, 249, 256, 312
-0.963753, 257, 153, 320, 216
-0.963814, 313, 241, 376, 368
-0.963825, 209, 65, 272, 320
-0.963841, 361, 297, 424, 360
-0.96405, 241, 129, 304, 375
-0.964051, 201, 73, 264, 136
-0.964354, 161, 225, 224, 288
-0.964725, 153, 121, 216, 184
-0.964941, 41, 201, 104, 264
-0.964977, 201, 169, 264, 232
-0.964987, 113, 209, 176, 272
-0.965029, 257, 129, 288, 256
-0.96513, 65, 129, 128, 192
-0.965349, 417, 145, 480, 272
-0.965411, 377, 225, 440, 288
-0.965513, 377, 89, 440, 152
-0.965726, 225, 281, 288, 344
-0.965729, 249, 305, 312, 368
-0.965832, 225, 49, 288, 176
-0.965908, 177, 281, 240, 344
-0.966218, 225, 73, 256, 136
-0.96622, 257, 89, 320, 152
-0.96624, 169, 313, 232, 375
-0.96644, 81, 233, 144, 296
-0.966518, 401, 225, 464, 288
-0.966624, 425, 313, 488, 375
-0.966642, 337, 193, 464, 256
-0.9667, 369, 97, 432, 352
-0.966873, 233, 241, 264, 368
-0.966881, 257, 185, 384, 248
-0.967254, 185, 105, 248, 168
-0.967257, 321, 225, 384, 288
-0.967322, 117, 129, 148, 256
-0.967406, 289, 65, 416, 192
-0.96748, 81, 201, 208, 264
-0.967532, 361, 161, 392, 288
-0.967541, 433, 241, 464, 368
-0.96767, 321, 281, 448, 344
-0.967674, 233, 97, 264, 160
-0.967754, 73, 169, 136, 232
-0.967788, 369, 297, 496, 360
-0.967805, 217, 193, 248, 320
-0.967822, 1, 289, 64, 352
-0.96785, 225, 73, 288, 136
-0.96786, 17, 81, 80, 144
-0.967872, 105, 113, 168, 176
-0.967976, 81, 313, 144, 375
-0.968133, 125, 177, 156, 240
-0.968137, 105, 305, 168, 368
-0.96842, 373, 297, 404, 360
-0.968443, 145, 177, 208, 240
-0.968468, 129, 201, 256, 264
-0.968747, 277, 193, 308, 256
-0.968747, 353, 113, 416, 176
-0.968771, 25, 145, 88, 272
-0.968864, 1, 313, 64, 375
-0.968953, 257, 49, 320, 176
-0.968994, 233, 273, 264, 336
-0.96913, 113, 225, 240, 288
-0.969275, 49, 177, 112, 240
-0.969587, 129, 145, 160, 272
-0.96965, 201, 129, 264, 192
-0.969689, 217, 193, 280, 256
-0.970543, 129, 105, 192, 168
-0.970581, 273, 209, 336, 272
-0.970638, 261, 177, 292, 240
-0.970664, 33, 153, 96, 216
-0.970797, 225, 65, 256, 192
-0.970932, 401, 185, 432, 248
-0.970985, 345, 97, 408, 224
-0.971071, 101, 201, 132, 264
-0.971254, 241, 97, 272, 224
-0.971322, 101, 129, 132, 256
-0.971325, 193, 1, 448, 128
-0.9714, 193, 193, 320, 256
-0.971497, 421, 177, 452, 304
-0.971524, 113, 129, 176, 375
-0.971535, 289, 169, 352, 232
-0.971623, 229, 145, 260, 272
-0.971684, 469, 289, 500, 352
-0.971761, 321, 161, 384, 224
-0.97187, 361, 209, 392, 272
-0.971915, 241, 305, 368, 368
-0.971978, 225, 217, 352, 280
-0.972027, 9, 241, 72, 368
-0.972138, 385, 265, 448, 328
-0.972221, 381, 113, 412, 240
-0.97223, 81, 137, 208, 200
-0.972254, 237, 177, 268, 240
-0.972294, 177, 49, 304, 176
-0.972299, 429, 241, 460, 304
-0.972311, 417, 169, 480, 232
-0.972329, 241, 193, 272, 320
-0.97242, 169, 257, 232, 320
-0.972431, 25, 193, 88, 320
-0.97249, 189, 313, 220, 375
-0.972523, 385, 313, 448, 375
-0.972585, 361, 241, 392, 368
-0.972675, 49, 313, 112, 375
-0.972782, 49, 33, 112, 288
-0.972831, 393, 145, 456, 208
-0.972867, 421, 185, 452, 248
-0.972967, 41, 241, 104, 304
-0.973028, 217, 249, 280, 312
-0.973068, 337, 273, 400, 336
-0.97316, 269, 129, 300, 256
-0.973184, 377, 65, 440, 128
-0.973209, 113, 233, 176, 296
-0.973285, 41, 265, 104, 328
-0.973363, 101, 177, 132, 304
-0.973414, 357, 185, 388, 248
-0.973414, 201, 225, 264, 288
-0.97345, 253, 305, 284, 368
-0.973483, 33, 281, 160, 344
-0.973504, 457, 193, 488, 320
-0.973537, 285, 177, 316, 304
-0.973562, 249, 193, 280, 256
-0.973641, 161, 121, 288, 184
-0.973731, 145, 137, 176, 200
-0.973797, 461, 193, 492, 256
-0.973798, 33, 17, 96, 144
-0.973885, 301, 305, 332, 368
-0.973989, 441, 201, 472, 264
-0.973994, 261, 153, 292, 216
-0.974024, 405, 297, 436, 360
-0.974175, 145, 193, 176, 256
-0.974185, 297, 185, 328, 248
-0.974217, 409, 241, 440, 368
-0.974229, 369, 225, 496, 288
-0.974246, 397, 145, 428, 272
-0.974305, 469, 241, 500, 368
-0.974375, 369, 273, 496, 336
-0.97439, 401, 73, 432, 136
-0.974484, 153, 153, 216, 216
-0.974506, 305, 273, 368, 336
-0.974541, 345, 185, 376, 248
-0.974556, 129, 281, 160, 344
-0.974571, 181, 201, 212, 264
-0.974581, 193, 281, 320, 344
-0.974624, 385, 305, 416, 368
-0.974694, 257, 129, 288, 192
-0.974801, 397, 65, 428, 192
-0.974846, 409, 177, 440, 304
-0.97487, 289, 305, 416, 368
-0.974902, 421, 241, 452, 368
-0.974908, 125, 209, 156, 336
-0.975019, 145, 129, 176, 256
-0.975099, 233, 305, 264, 368
-0.975106, 129, 305, 192, 368
-0.975149, 89, 129, 152, 375
-0.975205, 373, 209, 404, 336
-0.975212, 129, 81, 192, 144
-0.975233, 353, 241, 416, 304
-0.97535, 209, 89, 336, 152
-0.975356, 169, 201, 200, 264
-0.975386, 281, 89, 344, 152
-0.975437, 169, 177, 232, 240
-0.975631, 313, 129, 376, 375
-0.975652, 33, 145, 64, 208
-0.975667, 113, 257, 240, 320
-0.975681, 389, 121, 420, 184
-0.975782, 173, 97, 204, 224
-0.975962, 401, 65, 464, 192
-0.976044, 41, 289, 72, 352
-0.976062, 113, 257, 176, 320
-0.976104, 417, 145, 448, 208
-0.976135, 393, 97, 424, 160
-0.976138, 337, 169, 464, 232
-0.976156, 457, 241, 488, 368
-0.976227, 73, 49, 104, 112
-0.976338, 17, 241, 144, 304
-0.976388, 289, 209, 416, 272
-0.976423, 57, 65, 88, 128
-0.976437, 1, 1, 256, 128
-0.976452, 273, 177, 304, 304
-0.976456, 33, 201, 160, 264
-0.976476, 9, 265, 72, 328
-0.976487, 49, 49, 176, 112
-0.976495, 33, 169, 160, 232
-0.976549, 369, 113, 400, 240
-0.976565, 297, 177, 328, 304
-0.976582, 157, 177, 188, 240
-0.976657, 101, 137, 132, 200
-0.976671, 89, 193, 120, 320
-0.976708, 81, 177, 208, 240
-0.976752, 433, 265, 464, 328
-0.976758, 1, 129, 64, 256
-0.976759, 281, 129, 312, 256
-0.976835, 349, 161, 380, 288
-0.97686, 53, 289, 84, 352
-0.976893, 401, 121, 464, 184
-0.976902, 25, 33, 88, 96
-0.976903, 381, 201, 412, 264
-0.976969, 361, 313, 392, 375
-0.976975, 265, 129, 328, 375
-0.976994, 201, 193, 232, 320
-0.976998, 409, 129, 440, 256
-0.977024, 189, 177, 220, 304
-0.977029, 281, 113, 344, 176
-0.977096, 321, 65, 384, 192
-0.977104, 421, 265, 452, 328
-0.977113, 421, 289, 452, 352
-0.977169, 221, 249, 252, 312
-0.977176, 121, 137, 152, 200
-0.977221, 369, 137, 400, 200
-0.97725, 225, 185, 256, 248
-0.977255, 233, 153, 264, 216
-0.977275, 221, 241, 252, 368
-0.977311, 49, 313, 176, 375
-0.977335, 97, 313, 224, 375
-0.977372, 141, 177, 172, 304
-0.977425, 161, 73, 288, 136
-0.97745, 89, 17, 152, 80
-0.977493, 209, 65, 336, 128
-0.977494, 393, 129, 456, 375
-0.977528, 77, 161, 108, 288
-0.977537, 65, 233, 192, 296
-0.977556, 457, 289, 488, 352
-0.977628, 221, 161, 252, 224
-0.977675, 33, 121, 96, 184
-0.9777, 137, 273, 200, 336
-0.977724, 77, 193, 108, 256
-0.977792, 89, 33, 120, 96
-0.97781, 345, 65, 408, 320
-0.977822, 209, 169, 336, 232
-0.977871, 357, 161, 388, 224
-0.977889, 153, 49, 216, 176
-0.977948, 469, 193, 500, 320
-0.978061, 145, 161, 176, 224
-0.978108, 157, 145, 188, 272
-0.978126, 253, 281, 284, 344
-0.978143, 201, 193, 232, 256
-0.978164, 81, 1, 144, 256
-0.978219, 333, 185, 364, 248
-0.978247, 157, 201, 188, 264
-0.978261, 225, 257, 352, 320
-0.978287, 269, 297, 300, 360
-0.978318, 221, 97, 252, 160
-0.978346, 289, 57, 352, 120
-0.978356, 9, 33, 72, 160
-0.978408, 401, 129, 432, 192
-0.978446, 129, 281, 256, 344
-0.978494, 321, 113, 384, 176
-0.978518, 25, 121, 56, 184
-0.978531, 161, 313, 288, 375
-0.978654, 385, 65, 416, 192
-0.978702, 289, 305, 320, 368
-0.978724, 213, 297, 244, 360
-0.978787, 293, 129, 324, 256
-0.978804, 433, 129, 496, 375
-0.978888, 273, 161, 400, 224
-0.978947, 33, 129, 64, 256
-0.978967, 249, 161, 280, 224
-0.978986, 273, 273, 400, 336
-0.979072, 161, 97, 288, 160
-0.979212, 289, 17, 416, 144
-0.979218, 161, 257, 288, 320
-0.979254, 129, 97, 160, 224
-0.979256, 217, 129, 248, 256
-0.979259, 389, 193, 420, 320
-0.979274, 1, 113, 64, 176
-0.979283, 329, 249, 392, 312
-0.979322, 221, 137, 252, 200
-0.979384, 249, 65, 312, 128
-0.979405, 209, 241, 240, 368
-0.97941, 245, 105, 276, 168
-0.979432, 1, 201, 64, 264
-0.979478, 125, 113, 156, 176
-0.979495, 97, 161, 128, 224
-0.979573, 313, 193, 344, 256
-0.979576, 121, 313, 152, 375
-0.979584, 337, 177, 368, 304
-0.979593, 65, 257, 192, 320
-0.979599, 137, 241, 200, 368
-0.979788, 81, 105, 208, 168
-0.979804, 445, 225, 476, 352
-0.979817, 85, 225, 116, 288
-0.979837, 205, 273, 236, 336
-0.979853, 293, 105, 324, 168
-0.979885, 445, 225, 476, 288
-0.979892, 41, 81, 104, 144
-0.979917, 81, 281, 208, 344
-0.979937, 337, 81, 464, 208
-0.979947, 373, 177, 404, 240
-0.979971, 309, 129, 340, 256
-0.979981, 17, 145, 144, 208
-0.98001, 129, 217, 160, 280
-0.98002, 77, 225, 108, 352
-0.98006, 409, 65, 440, 192
-0.980081, 273, 169, 304, 232
-0.980153, 345, 297, 376, 360
-0.980165, 365, 113, 396, 176
-0.980199, 25, 33, 88, 288
-0.9802, 225, 1, 352, 128
-0.9802, 201, 313, 232, 375
-0.980315, 113, 177, 144, 240
-0.980316, 229, 193, 260, 320
-0.980381, 153, 49, 184, 176
-0.980389, 233, 33, 296, 288
-0.980413, 233, 1, 296, 128
-0.980511, 437, 289, 468, 352
-0.98057, 1, 193, 64, 320
-0.980624, 357, 113, 388, 240
-0.980646, 433, 161, 464, 224
-0.980663, 253, 177, 284, 304
-0.980748, 369, 249, 496, 312
-0.980753, 325, 297, 356, 360
-0.980766, 413, 113, 444, 176
-0.98077, 173, 113, 204, 176
-0.980776, 389, 241, 420, 368
-0.980782, 429, 217, 460, 280
-0.980804, 177, 217, 304, 280
-0.980837, 37, 169, 68, 232
-0.980842, 305, 113, 432, 176
-0.980928, 41, 9, 104, 72
-0.98093, 177, 81, 240, 144
-0.980989, 281, 1, 344, 375
-0.981025, 33, 121, 160, 184
-0.981039, 265, 281, 328, 344
-0.981048, 257, 129, 384, 192
-0.981069, 29, 297, 60, 360
-0.981103, 129, 161, 256, 224
-0.981139, 361, 289, 392, 352
-0.981143, 69, 161, 100, 224
-0.981213, 1, 305, 128, 368
-0.981229, 325, 161, 356, 288
-0.981234, 41, 129, 104, 375
-0.981253, 89, 201, 120, 264
-0.981292, 249, 241, 280, 368
-0.981313, 237, 73, 268, 136
-0.981331, 349, 241, 380, 368
-0.981367, 321, 249, 448, 312
-0.981456, 193, 225, 224, 288
-0.981478, 25, 81, 56, 144
-0.981485, 177, 137, 240, 200
-0.981617, 361, 265, 424, 328
-0.981627, 177, 305, 208, 368
-0.981708, 297, 17, 360, 144
-0.981773, 153, 113, 184, 176
-0.981777, 137, 1, 200, 375
-0.981847, 273, 113, 304, 176
-0.981914, 357, 265, 388, 328
-0.981965, 185, 129, 248, 375
-0.982033, 209, 113, 336, 176
-0.982042, 353, 49, 416, 176
-0.982127, 409, 257, 440, 320
-0.982131, 313, 89, 376, 152
-0.982146, 109, 281, 140, 344
-0.982195, 17, 73, 144, 136
-0.98222, 137, 225, 200, 288
-0.98225, 265, 33, 328, 288
-0.982252, 289, 129, 352, 375
-0.982259, 113, 33, 176, 288
-0.982284, 89, 129, 120, 256
-0.98235, 277, 145, 308, 208
-0.982386, 233, 129, 264, 192
-0.982398, 61, 209, 92, 336
-0.982435, 213, 73, 244, 136
-0.982462, 245, 129, 276, 192
-0.982542, 405, 209, 436, 272
-0.982551, 313, 297, 344, 360
-0.982579, 105, 1, 168, 375
-0.982612, 113, 201, 144, 264
-0.982646, 145, 129, 208, 375
-0.982656, 457, 249, 488, 312
-0.982711, 353, 73, 416, 136
-0.982734, 445, 265, 476, 328
-0.982758, 393, 209, 424, 272
-0.982772, 17, 97, 144, 160
-0.982787, 113, 193, 144, 320
-0.98284, 105, 113, 136, 176
-0.982861, 161, 89, 192, 152
-0.982882, 293, 73, 324, 136
-0.982918, 17, 57, 80, 120
-0.982921, 377, 161, 408, 288
-0.982946, 321, 137, 384, 200
-0.982969, 73, 289, 104, 352
-0.983043, 133, 313, 164, 375
-0.983043, 73, 33, 104, 160
-0.983086, 337, 137, 464, 200
-0.983151, 169, 177, 200, 304
-0.983178, 193, 145, 320, 208
-0.983222, 261, 201, 292, 264
-0.98333, 457, 313, 488, 375
-0.983346, 433, 193, 464, 320
-0.983365, 257, 1, 320, 375
-0.983407, 105, 89, 168, 152
-0.983416, 9, 137, 72, 200
-0.983431, 45, 129, 76, 256
-0.983443, 41, 209, 72, 336
-0.983485, 65, 25, 192, 88
-0.983488, 57, 49, 88, 176
-0.983554, 117, 1, 148, 64
-0.983606, 49, 313, 80, 375
-0.983626, 73, 81, 136, 208
-0.983635, 149, 225, 180, 352
-0.983669, 297, 209, 328, 272
-0.983698, 401, 81, 464, 144
-0.983781, 305, 49, 336, 176
-0.983784, 289, 81, 320, 208
-0.983872, 69, 137, 100, 200
-0.983964, 369, 1, 432, 256
-0.983964, 241, 217, 272, 280
-0.983979, 65, 129, 128, 375
-0.984107, 57, 1, 120, 375
-0.984273, 277, 81, 308, 208
-0.984447, 33, 1, 96, 375
-0.984461, 77, 113, 108, 240
-0.984537, 25, 81, 56, 208
-0.98457, 445, 161, 476, 288
-0.984656, 377, 1, 440, 375
-0.984858, 65, 73, 192, 136
-0.984917, 421, 129, 452, 256
-0.984959, 141, 81, 172, 208
-0.984968, 129, 49, 256, 112
-0.984971, 401, 33, 464, 288
-0.985007, 305, 89, 432, 152
-0.985066, 257, 105, 384, 168
-0.985116, 165, 49, 196, 176
-0.98512, 241, 145, 272, 272
-0.985145, 197, 241, 228, 368
-0.985317, 369, 65, 400, 192
-0.98539, 313, 177, 344, 304
-0.985609, 113, 73, 240, 136
-0.985632, 105, 49, 168, 176
-0.985633, 65, 145, 96, 272
-0.985659, 45, 81, 76, 208
-0.985699, 317, 241, 348, 368
-0.985726, 65, 1, 192, 64
-0.985862, 213, 81, 244, 208
-0.985992, 9, 129, 72, 375
-0.986189, 29, 225, 60, 352
-0.986428, 157, 97, 188, 224
-0.986459, 1, 17, 128, 80
-0.986477, 289, 65, 416, 128
-0.98654, 137, 33, 200, 288
-0.986666, 161, 1, 224, 375
-0.986806, 237, 49, 268, 176
-0.986971, 369, 97, 496, 160
-0.986984, 25, 177, 56, 304
-0.986996, 433, 145, 464, 272
-0.987001, 201, 145, 232, 272
-0.987052, 257, 1, 320, 128
-0.987095, 97, 1, 128, 128
-0.987391, 169, 1, 232, 128
-0.987584, 305, 1, 368, 375
-0.987636, 305, 1, 336, 128
-0.9877, 13, 225, 44, 352
-0.987721, 345, 113, 376, 240
-0.98777, 193, 1, 256, 375
-0.987909, 225, 1, 288, 375
-0.988027, 289, 33, 352, 288
-0.988183, 109, 1, 140, 128
-0.988184, 289, 65, 352, 192
-0.988233, 161, 193, 416, 256
-0.988258, 13, 97, 44, 224
-0.988264, 321, 193, 384, 224
-0.988298, 185, 97, 216, 224
-0.988423, 117, 81, 148, 208
-0.988474, 297, 305, 360, 336
-0.988483, 257, 201, 320, 232
-0.988483, 369, 193, 432, 224
-0.988513, 89, 209, 152, 240
-0.98853, 113, 241, 144, 368
-0.988651, 81, 1, 144, 375
-0.988796, 393, 205, 456, 236
-0.988831, 417, 193, 480, 224
-0.98885, 393, 189, 456, 220
-0.988934, 289, 201, 352, 232
-0.988948, 113, 161, 176, 192
-0.98904, 321, 33, 384, 288
-0.989083, 137, 205, 200, 236
-0.989083, 65, 201, 320, 264
-0.989089, 21, 17, 52, 144
-0.98911, 85, 49, 116, 176
-0.98914, 273, 249, 400, 312
-0.989227, 1, 41, 128, 104
-0.989257, 369, 133, 432, 164
-0.989278, 225, 309, 288, 340
-0.98938, 425, 225, 488, 256
-0.989402, 433, 205, 496, 236
-0.989426, 209, 273, 272, 304
-0.989429, 145, 117, 208, 148
-0.98944, 233, 129, 296, 160
-0.98945, 329, 309, 392, 340
-0.989482, 273, 117, 336, 148
-0.989494, 369, 109, 432, 140
-0.989531, 241, 213, 304, 244
-0.989596, 337, 297, 400, 328
-0.989603, 345, 1, 408, 375
-0.989624, 377, 121, 440, 152
-0.98963, 353, 321, 416, 352
-0.989635, 9, 301, 72, 332
-0.989637, 81, 277, 144, 308
-0.989663, 129, 173, 192, 204
-0.989676, 49, 213, 112, 244
-0.989688, 201, 293, 264, 324
-0.989714, 33, 73, 96, 104
-0.989721, 217, 181, 280, 212
-0.989722, 161, 225, 224, 256
-0.989758, 209, 109, 272, 140
-0.989822, 337, 205, 400, 236
-0.989837, 225, 193, 288, 224
-0.989851, 81, 165, 144, 196
-0.989858, 1, 257, 256, 320
-0.989862, 369, 213, 432, 244
-0.989872, 329, 241, 360, 368
-0.989873, 425, 317, 488, 348
-0.989874, 65, 153, 128, 184
-0.989912, 305, 321, 368, 352
-0.989914, 137, 157, 200, 188
-0.989916, 105, 297, 168, 328
-0.989922, 233, 141, 296, 172
-0.989926, 425, 289, 488, 320
-0.989939, 305, 241, 336, 368
-0.989941, 57, 201, 120, 232
-0.98995, 1, 1, 64, 375
-0.989958, 249, 189, 312, 220
-0.989968, 201, 17, 264, 144
-0.989987, 217, 153, 280, 184
-0.990001, 177, 117, 240, 148
-0.990013, 49, 297, 112, 328
-0.99003, 249, 49, 280, 176
-0.990107, 97, 149, 160, 180
-0.990131, 233, 165, 296, 196
-0.990139, 329, 321, 392, 352
-0.990183, 193, 189, 256, 220
-0.990197, 233, 117, 296, 148
-0.990215, 193, 245, 256, 276
-0.990217, 41, 225, 104, 256
-0.99022, 273, 309, 336, 340
-0.990228, 105, 193, 168, 224
-0.990247, 65, 97, 96, 224
-0.990255, 273, 105, 336, 136
-0.990259, 1, 225, 256, 288
-0.990273, 121, 217, 184, 248
-0.990278, 425, 1, 488, 375
-0.990286, 385, 293, 448, 324
-0.990288, 185, 257, 248, 288
-0.99029, 113, 133, 176, 164
-0.990295, 101, 81, 132, 208
-0.990296, 105, 121, 168, 152
-0.990325, 137, 305, 200, 336
-0.990349, 297, 213, 360, 244
-0.990352, 273, 133, 336, 164
-0.990352, 201, 309, 264, 340
-0.990357, 345, 193, 408, 224
-0.990361, 385, 305, 448, 336
-0.990372, 401, 1, 464, 375
-0.990373, 209, 41, 336, 104
-0.990382, 377, 89, 440, 120
-0.990404, 401, 237, 464, 268
-0.990408, 385, 317, 448, 348
-0.990415, 1, 321, 64, 352
-0.990416, 225, 285, 288, 316
-0.990416, 81, 237, 144, 268
-0.990419, 41, 241, 104, 272
-0.990428, 105, 309, 168, 340
-0.990432, 137, 293, 200, 324
-0.990433, 1, 177, 256, 240
-0.990446, 417, 277, 480, 308
-0.990455, 345, 217, 408, 248
-0.990457, 129, 105, 192, 136
-0.990461, 345, 181, 408, 212
-0.990465, 353, 121, 416, 152
-0.990479, 201, 97, 264, 128
-0.990495, 201, 73, 264, 104
-0.990502, 33, 297, 288, 360
-0.990513, 425, 245, 488, 276
-0.990514, 9, 89, 72, 120
-0.990537, 225, 97, 288, 128
-0.990566, 297, 113, 360, 144
-0.990567, 353, 149, 416, 180
-0.990578, 49, 285, 112, 316
-0.990579, 241, 297, 304, 328
-0.990595, 9, 289, 72, 320
-0.990616, 177, 281, 240, 312
-0.990624, 201, 205, 264, 236
-0.99064, 81, 289, 144, 320
-0.990666, 65, 53, 128, 84
-0.990686, 209, 261, 272, 292
-0.990695, 25, 317, 88, 348
-0.990714, 185, 269, 248, 300
-0.990715, 25, 149, 88, 180
-0.990725, 81, 221, 144, 252
-0.990731, 273, 241, 304, 368
-0.99074, 33, 89, 96, 120
-0.990771, 377, 145, 440, 176
-0.990776, 265, 325, 328, 356
-0.99078, 417, 181, 480, 212
-0.99082, 361, 73, 424, 104
-0.990826, 209, 329, 272, 360
-0.990835, 97, 177, 160, 208
-0.990835, 193, 105, 448, 168
-0.990845, 257, 193, 500, 256
-0.990855, 241, 177, 304, 208
-0.990892, 73, 261, 136, 292
-0.990913, 73, 249, 136, 280
-0.990916, 201, 233, 264, 264
-0.990924, 105, 321, 168, 352
-0.990934, 145, 193, 208, 224
-0.990939, 129, 145, 192, 176
-0.990946, 353, 333, 416, 364
-0.990946, 369, 181, 432, 212
-0.990949, 289, 189, 352, 220
-0.990962, 401, 225, 464, 256
-0.990967, 249, 309, 312, 340
-0.990968, 401, 257, 464, 288
-0.990972, 361, 301, 424, 332
-0.990987, 177, 201, 240, 232
-0.990988, 25, 57, 88, 88
-0.990993, 257, 165, 320, 196
-0.991041, 201, 141, 264, 172
-0.991052, 313, 293, 376, 324
-0.991054, 469, 145, 500, 272
-0.991087, 161, 265, 416, 328
-0.991131, 369, 33, 496, 160
-0.991185, 289, 33, 320, 160
-0.99128, 185, 33, 248, 288
-0.99129, 61, 1, 92, 128
-0.991318, 1, 201, 500, 264
-0.991347, 193, 305, 448, 368
-0.99147, 97, 225, 352, 288
-0.99149, 225, 217, 480, 280
-0.99172, 177, 1, 304, 128
-0.991721, 1, 33, 64, 288
-0.991725, 101, 241, 132, 368
-0.991954, 185, 225, 216, 352
-0.992125, 253, 301, 284, 332
-0.992152, 253, 289, 284, 320
-0.992155, 169, 113, 200, 144
-0.992189, 453, 193, 484, 224
-0.992204, 225, 73, 256, 104
-0.992244, 365, 121, 396, 152
-0.992251, 433, 269, 464, 300
-0.992251, 377, 121, 408, 152
-0.992261, 229, 85, 260, 116
-0.992276, 241, 193, 272, 224
-0.992285, 129, 293, 160, 324
-0.992288, 233, 309, 264, 340
-0.992289, 253, 185, 284, 216
-0.992305, 413, 317, 444, 348
-0.992333, 417, 197, 448, 228
-0.992334, 381, 137, 412, 168
-0.992335, 373, 317, 404, 348
-0.992337, 253, 125, 284, 156
-0.992339, 393, 321, 424, 352
-0.992341, 397, 193, 428, 224
-0.992347, 373, 301, 404, 332
-0.992349, 393, 129, 424, 160
-0.992351, 313, 197, 344, 228
-0.99237, 261, 81, 292, 208
-0.992373, 305, 113, 336, 144
-0.992374, 149, 205, 180, 236
-0.992374, 125, 181, 156, 212
-0.992376, 217, 257, 248, 288
-0.992377, 357, 173, 388, 204
-0.992378, 401, 77, 432, 108
-0.992385, 129, 197, 160, 228
-0.992389, 441, 201, 472, 232
-0.99241, 109, 205, 140, 236
-0.992424, 101, 149, 132, 180
-0.992425, 257, 193, 384, 224
-0.992426, 257, 141, 288, 172
-0.992432, 85, 41, 116, 72
-0.992435, 437, 189, 468, 220
-0.992435, 325, 197, 356, 228
-0.992442, 113, 1, 240, 64
-0.992442, 457, 317, 488, 348
-0.992444, 401, 89, 432, 120
-0.992451, 309, 309, 340, 340
-0.992452, 265, 181, 296, 212
-0.992454, 349, 189, 380, 220
-0.992455, 117, 165, 148, 196
-0.992457, 233, 281, 264, 312
-0.992459, 381, 217, 412, 248
-0.992467, 113, 9, 144, 40
-0.992474, 353, 309, 384, 340
-0.99248, 273, 305, 304, 336
-0.992493, 73, 53, 104, 84
-0.992499, 397, 309, 428, 340
-0.9925, 97, 25, 128, 56
-0.992503, 261, 169, 292, 200
-0.992504, 233, 105, 264, 136
-0.992509, 301, 193, 332, 224
-0.992518, 149, 193, 180, 224
-0.992528, 225, 189, 256, 220
-0.992529, 145, 161, 176, 192
-0.992542, 41, 289, 72, 320
-0.992546, 261, 201, 292, 232
-0.992556, 73, 157, 104, 188
-0.992559, 221, 269, 252, 300
-0.992559, 293, 113, 324, 144
-0.992564, 361, 205, 392, 236
-0.992565, 233, 149, 264, 180
-0.992572, 161, 33, 224, 288
-0.992574, 361, 321, 392, 352
-0.992577, 457, 289, 488, 320
-0.992579, 365, 133, 396, 164
-0.992595, 97, 205, 128, 236
-0.992599, 405, 181, 436, 212
-0.992599, 125, 309, 156, 340
-0.9926, 409, 305, 440, 336
-0.992601, 465, 201, 496, 232
-0.992603, 429, 245, 460, 276
-0.992604, 453, 205, 484, 236
-0.992608, 97, 169, 352, 232
-0.992613, 409, 129, 440, 160
-0.99262, 57, 229, 88, 260
-0.992621, 433, 257, 464, 288
-0.992624, 337, 189, 368, 220
-0.992632, 305, 125, 336, 156
-0.992635, 241, 181, 272, 212
-0.992641, 377, 197, 408, 228
-0.992643, 401, 205, 432, 236
-0.992645, 121, 153, 152, 184
-0.992646, 361, 233, 392, 264
-0.992647, 93, 229, 124, 260
-0.992649, 441, 233, 472, 264
-0.992658, 393, 101, 424, 132
-0.992667, 33, 81, 64, 112
-0.992671, 413, 293, 444, 324
-0.992672, 345, 321, 376, 352
-0.992674, 253, 213, 284, 244
-0.992676, 369, 65, 496, 128
-0.992677, 273, 201, 304, 232
-0.99268, 125, 1, 156, 32
-0.992682, 441, 213, 472, 244
-0.992682, 61, 65, 92, 96
-0.992684, 421, 213, 452, 244
-0.992687, 217, 97, 248, 128
-0.992688, 297, 305, 328, 336
-0.99269, 241, 129, 272, 160
-0.992691, 325, 321, 356, 352
-0.992691, 149, 137, 180, 168
-0.992696, 233, 205, 264, 236
-0.992697, 257, 153, 288, 184
-0.9927, 293, 205, 324, 236
-0.992702, 413, 265, 444, 296
-0.992702, 77, 233, 108, 264
-0.992702, 469, 301, 500, 332
-0.992708, 341, 305, 372, 336
-0.992714, 289, 65, 320, 96
-0.992715, 237, 297, 268, 328
-0.992715, 181, 301, 212, 332
-0.992717, 269, 117, 300, 148
-0.99272, 239, 65, 254, 128
-0.992724, 401, 113, 432, 144
-0.992727, 389, 205, 420, 236
-0.992733, 149, 149, 180, 180
-0.992734, 129, 137, 384, 200
-0.992738, 157, 117, 188, 148
-0.992739, 429, 225, 460, 256
-0.99274, 401, 65, 432, 96
-0.99274, 457, 301, 488, 332
-0.992748, 389, 117, 420, 148
-0.99275, 1, 177, 500, 240
-0.992756, 129, 169, 160, 200
-0.99276, 169, 125, 200, 156
-0.992765, 401, 141, 432, 172
-0.992769, 41, 69, 72, 100
-0.992772, 33, 301, 64, 332
-0.992773, 377, 109, 408, 140
-0.992775, 101, 165, 132, 196
-0.992779, 41, 193, 72, 224
-0.992784, 197, 193, 228, 224
-0.992784, 241, 169, 272, 200
-0.992798, 121, 1, 152, 128
-0.992874, 337, 205, 464, 236
-0.992905, 321, 113, 352, 240
-0.992926, 33, 41, 288, 104
-0.992994, 113, 1, 176, 128
-0.993017, 271, 137, 286, 200
-0.993055, 409, 17, 472, 144
-0.993076, 221, 17, 252, 144
-0.993078, 81, 209, 208, 240
-0.993092, 321, 301, 448, 332
-0.993136, 1, 145, 500, 208
-0.993189, 365, 161, 380, 224
-0.993222, 201, 305, 216, 368
-0.993364, 239, 185, 254, 248
-0.993404, 307, 297, 322, 360
-0.993405, 377, 305, 392, 368
-0.993421, 361, 1, 424, 128
-0.993433, 97, 73, 352, 136
-0.993437, 1, 297, 500, 360
-0.993461, 273, 305, 400, 336
-0.993472, 423, 289, 438, 352
-0.99349, 233, 105, 248, 168
-0.993492, 305, 193, 432, 224
-0.9935, 1, 233, 500, 296
-0.993525, 369, 297, 496, 328
-0.993537, 141, 33, 172, 160
-0.993541, 33, 137, 288, 200
-0.993564, 113, 225, 240, 256
-0.993578, 353, 285, 480, 316
-0.993599, 145, 205, 272, 236
-0.993613, 1, 97, 256, 160
-0.99364, 81, 137, 208, 168
-0.993642, 37, 33, 68, 160
-0.993663, 225, 241, 480, 304
-0.993684, 255, 177, 270, 240
-0.993685, 289, 225, 320, 352
-0.9937, 373, 201, 388, 264
-0.993753, 273, 1, 400, 64
-0.993765, 353, 317, 480, 348
-0.993805, 249, 193, 264, 256
-0.993827, 289, 193, 304, 256
-0.993833, 227, 73, 242, 136
-0.993834, 257, 205, 384, 236
-0.993842, 193, 49, 224, 176
-0.993842, 161, 293, 288, 324
-0.993848, 271, 185, 286, 248
-0.993849, 483, 281, 498, 344
-0.993856, 353, 193, 480, 224
-0.993887, 49, 293, 176, 324
-0.993891, 1, 105, 500, 168
-0.99391, 225, 113, 352, 144
-0.99391, 129, 193, 256, 224
-0.993939, 49, 281, 176, 312
-0.993951, 203, 193, 218, 256
-0.993954, 337, 217, 464, 248
-0.993969, 463, 193, 478, 256
-0.993969, 405, 89, 420, 152
-0.993984, 81, 149, 208, 180
-0.994012, 97, 113, 352, 176
-0.994016, 261, 241, 292, 368
-0.994055, 273, 113, 400, 144
-0.994059, 173, 225, 204, 352
-0.994136, 475, 305, 490, 368
-0.994139, 279, 193, 294, 256
-0.994144, 119, 121, 134, 184
-0.994161, 461, 289, 476, 352
-0.994162, 235, 305, 250, 368
-0.99419, 209, 305, 336, 336
-0.994243, 239, 233, 254, 296
-0.994247, 17, 309, 144, 340
-0.994252, 257, 265, 500, 328
-0.994256, 139, 177, 154, 240
-0.994256, 235, 137, 250, 200
-0.994267, 257, 81, 500, 144
-0.994284, 207, 313, 222, 375
-0.994296, 385, 209, 400, 272
-0.994302, 307, 185, 322, 248
-0.994306, 151, 201, 166, 264
-0.99431, 413, 177, 428, 240
-0.994312, 209, 201, 336, 232
-0.994318, 247, 281, 262, 344
-0.994334, 99, 201, 114, 264
-0.994345, 467, 297, 482, 360
-0.994356, 53, 289, 68, 352
-0.994376, 81, 193, 208, 224
-0.994376, 169, 201, 184, 264
-0.994395, 415, 113, 430, 176
-0.994399, 305, 181, 432, 212
-0.994403, 245, 161, 260, 224
-0.994409, 225, 221, 352, 252
-0.994446, 263, 121, 278, 184
-0.994449, 123, 177, 138, 240
-0.994493, 435, 241, 450, 304
-0.994534, 473, 281, 488, 344
-0.994535, 301, 185, 316, 248
-0.994535, 265, 177, 280, 240
-0.994538, 141, 281, 156, 344
-0.994552, 407, 137, 422, 200
-0.994552, 105, 201, 120, 264
-0.994553, 161, 193, 176, 256
-0.994555, 225, 129, 480, 192
-0.994571, 161, 77, 288, 108
-0.994588, 407, 185, 422, 248
-0.994597, 93, 137, 108, 200
-0.994598, 417, 305, 432, 368
-0.994611, 273, 129, 400, 160
-0.994619, 145, 121, 272, 152
-0.994622, 383, 297, 398, 360
-0.994626, 413, 81, 428, 144
-0.994631, 209, 93, 336, 124
-0.994649, 369, 273, 496, 304
-0.994656, 193, 201, 208, 264
-0.994657, 169, 121, 184, 184
-0.994673, 161, 133, 288, 164
-0.994673, 225, 169, 480, 232
-0.994679, 421, 193, 436, 256
-0.99468, 233, 65, 248, 128
-0.994682, 121, 281, 136, 344
-0.994686, 177, 201, 192, 264
-0.994696, 147, 145, 162, 208
-0.994709, 129, 281, 256, 312
-0.994713, 75, 49, 90, 112
-0.99474, 287, 305, 302, 368
-0.994754, 233, 265, 248, 328
-0.99476, 367, 313, 382, 375
-0.994763, 145, 237, 272, 268
-0.994769, 273, 325, 400, 356
-0.994779, 351, 185, 366, 248
-0.994797, 121, 145, 136, 208
-0.994799, 399, 97, 414, 160
-0.994811, 183, 201, 198, 264
-0.994818, 369, 237, 496, 268
-0.994832, 271, 297, 286, 360
-0.994837, 33, 213, 160, 244
-0.994846, 161, 109, 288, 140
-0.994861, 275, 161, 290, 224
-0.994875, 113, 265, 240, 296
-0.99488, 233, 161, 248, 224
-0.994887, 373, 281, 388, 344
-0.994887, 295, 193, 310, 256
-0.994889, 145, 193, 160, 256
-0.994893, 209, 81, 336, 112
-0.994894, 97, 161, 112, 224
-0.994894, 345, 185, 360, 248
-0.994901, 397, 201, 412, 264
-0.994903, 289, 217, 416, 248
-0.994906, 209, 189, 336, 220
-0.99491, 129, 169, 144, 232
-0.994919, 375, 129, 390, 192
-0.994934, 117, 201, 132, 264
-0.994946, 33, 249, 160, 280
-0.994954, 49, 177, 176, 208
-0.994956, 97, 313, 224, 344
-0.994957, 37, 153, 52, 216
-0.994964, 407, 305, 422, 368
-0.994966, 457, 185, 472, 248
-0.994969, 171, 177, 186, 240
-0.99497, 177, 105, 192, 168
-0.994976, 91, 193, 106, 256
-0.995009, 371, 169, 386, 232
-0.99502, 91, 33, 106, 96
-0.995036, 369, 121, 384, 184
-0.995049, 293, 297, 308, 360
-0.995062, 239, 89, 254, 152
-0.995068, 209, 285, 336, 316
-0.99508, 239, 273, 254, 336
-0.995101, 313, 305, 328, 368
-0.995103, 65, 125, 192, 156
-0.995105, 177, 217, 304, 248
-0.995113, 95, 225, 110, 288
-0.995114, 41, 185, 56, 248
-0.99512, 1, 65, 256, 128
-0.995127, 273, 293, 400, 324
-0.995134, 193, 313, 208, 375
-0.995138, 209, 65, 336, 96
-0.995167, 309, 105, 324, 168
-0.995168, 451, 265, 466, 328
-0.995174, 441, 225, 456, 288
-0.995178, 99, 25, 114, 88
-0.995183, 239, 161, 254, 224
-0.995198, 225, 129, 352, 160
-0.995202, 445, 257, 460, 320
-0.995203, 399, 73, 414, 136
-0.995208, 339, 185, 354, 248
-0.995214, 161, 25, 288, 88
-0.995222, 79, 281, 94, 344
-0.995233, 423, 257, 438, 320
-0.995233, 337, 1, 464, 64
-0.995247, 83, 41, 98, 104
-0.995259, 227, 97, 242, 160
-0.995277, 33, 269, 160, 300
-0.99528, 141, 153, 156, 216
-0.995304, 301, 305, 316, 368
-0.995306, 391, 209, 406, 272
-0.995319, 347, 297, 362, 360
-0.995321, 233, 65, 264, 320
-0.995327, 113, 249, 240, 280
-0.995333, 179, 305, 194, 368
-0.995339, 317, 105, 332, 168
-0.995358, 117, 169, 132, 232
-0.995358, 407, 281, 422, 344
-0.99536, 257, 181, 384, 212
-0.995373, 239, 113, 254, 176
-0.995385, 387, 113, 402, 176
-0.995386, 431, 177, 446, 240
-0.995387, 45, 81, 60, 144
-0.995393, 301, 57, 316, 120
-0.995393, 437, 201, 452, 264
-0.995393, 165, 161, 180, 224
-0.995396, 407, 65, 422, 128
-0.995406, 375, 257, 390, 320
-0.995407, 321, 121, 448, 152
-0.995413, 401, 305, 416, 368
-0.995417, 469, 201, 484, 264
-0.995421, 65, 237, 192, 268
-0.995436, 17, 165, 144, 196
-0.995446, 161, 97, 288, 128
-0.995461, 395, 297, 410, 360
-0.995462, 451, 201, 466, 264
-0.995499, 289, 281, 416, 312
-0.995503, 161, 269, 288, 300
-0.995514, 17, 145, 144, 176
-0.99552, 49, 57, 176, 88
-0.995523, 289, 41, 416, 104
-0.995563, 17, 229, 144, 260
-0.995624, 33, 321, 160, 352
-0.995699, 193, 57, 448, 120
-0.995753, 17, 133, 144, 164
-0.995795, 49, 69, 176, 100
-0.995823, 193, 153, 320, 184
-0.995828, 81, 161, 208, 192
-0.995832, 33, 333, 160, 364
-0.995849, 161, 309, 288, 340
-0.995891, 225, 329, 352, 360
-0.995892, 129, 65, 256, 96
-0.995902, 241, 273, 368, 304
-0.995939, 17, 189, 144, 220
-0.995947, 241, 169, 368, 200
-0.995999, 77, 33, 108, 288
-0.996038, 193, 233, 320, 264
-0.996045, 65, 225, 192, 256
-0.996057, 221, 129, 252, 375
-0.996091, 369, 249, 496, 280
-0.996116, 321, 269, 448, 300
-0.99613, 321, 337, 448, 368
-0.996152, 81, 113, 208, 144
-0.996199, 145, 145, 272, 176
-0.996204, 369, 329, 496, 360
-0.996217, 65, 45, 192, 76
-0.996282, 129, 97, 160, 352
-0.996296, 1, 281, 128, 312
-0.996349, 421, 129, 452, 375
-0.996377, 1, 273, 500, 336
-0.99639, 401, 97, 432, 352
-0.996394, 33, 345, 160, 375
-0.996395, 97, 293, 224, 324
-0.996408, 129, 177, 256, 208
-0.996439, 193, 165, 320, 196
-0.996447, 289, 101, 416, 132
-0.996448, 97, 337, 224, 368
-0.996456, 17, 121, 144, 152
-0.996462, 273, 337, 400, 368
-0.996467, 257, 129, 288, 375
-0.996468, 373, 97, 404, 352
-0.996523, 89, 129, 120, 375
-0.996525, 369, 125, 496, 156
-0.99653, 353, 181, 480, 212
-0.996532, 225, 245, 352, 276
-0.996595, 1, 109, 128, 140
-0.996635, 357, 129, 388, 375
-0.99666, 145, 345, 272, 375
-0.996678, 117, 129, 148, 375
-0.996684, 145, 1, 208, 128
-0.996692, 225, 261, 352, 292
-0.996714, 175, 113, 190, 144
-0.996716, 473, 305, 488, 336
-0.99674, 193, 177, 320, 208
-0.996749, 241, 149, 368, 180
-0.996749, 369, 93, 496, 124
-0.996752, 1, 81, 500, 144
-0.996766, 385, 65, 416, 320
-0.996772, 369, 261, 496, 292
-0.99679, 309, 109, 324, 140
-0.996802, 321, 133, 448, 164
-0.996851, 265, 125, 280, 156
-0.996861, 225, 341, 352, 372
-0.996864, 375, 301, 390, 332
-0.996905, 271, 161, 286, 192
-0.99692, 305, 249, 432, 280
-0.996943, 145, 333, 272, 364
-0.996943, 405, 97, 420, 128
-0.996945, 69, 129, 100, 375
-0.996964, 17, 201, 144, 232
-0.996975, 383, 217, 398, 248
-0.996978, 49, 81, 176, 112
-0.997003, 289, 233, 416, 264
-0.997004, 425, 33, 488, 288
-0.997016, 309, 305, 324, 336
-0.99703, 239, 73, 254, 104
-0.997031, 233, 137, 248, 168
-0.997045, 181, 113, 196, 144
-0.997051, 413, 85, 428, 116
-0.997053, 149, 65, 180, 320
-0.997063, 371, 177, 386, 208
-0.997065, 33, 97, 160, 128
-0.99707, 33, 17, 288, 80
-0.997071, 271, 145, 286, 176
-0.997078, 37, 97, 68, 352
-0.99709, 309, 129, 340, 375
-0.9971, 209, 317, 336, 348
-0.997101, 233, 69, 248, 100
-0.997104, 113, 85, 240, 116
-0.997138, 473, 293, 488, 324
-0.997145, 137, 177, 152, 208
-0.997146, 239, 93, 254, 124
-0.997152, 97, 325, 224, 356
-0.997172, 161, 257, 288, 288
-0.997174, 273, 189, 288, 220
-0.99719, 407, 129, 422, 160
-0.997191, 399, 193, 414, 224
-0.997192, 463, 301, 478, 332
-0.997202, 257, 73, 384, 104
-0.997208, 1, 293, 128, 324
-0.997214, 149, 205, 164, 236
-0.997218, 463, 313, 478, 344
-0.99722, 143, 293, 158, 324
-0.997221, 433, 129, 464, 375
-0.997225, 245, 65, 276, 320
-0.99723, 289, 129, 320, 375
-0.997234, 459, 189, 474, 220
-0.997238, 283, 309, 298, 340
-0.99724, 239, 189, 254, 220
-0.997244, 365, 165, 380, 196
-0.997245, 13, 109, 28, 140
-0.997251, 295, 309, 310, 340
-0.997268, 249, 197, 264, 228
-0.997273, 143, 197, 158, 228
-0.997279, 105, 97, 136, 352
-0.997283, 317, 117, 332, 148
-0.997286, 233, 81, 248, 112
-0.997288, 263, 201, 278, 232
-0.997297, 53, 33, 84, 288
-0.997298, 353, 169, 480, 200
-0.997301, 405, 189, 420, 220
-0.997321, 273, 65, 304, 320
-0.997329, 473, 317, 488, 348
-0.99733, 321, 1, 384, 128
-0.997332, 209, 129, 240, 375
-0.997333, 411, 185, 426, 216
-0.997339, 321, 89, 448, 120
-0.997343, 247, 281, 262, 312
-0.997344, 221, 33, 252, 288
-0.997345, 169, 117, 184, 148
-0.997351, 117, 145, 132, 176
-0.997369, 407, 141, 422, 172
-0.997378, 255, 185, 270, 216
-0.997382, 455, 201, 470, 232
-0.997402, 303, 309, 318, 340
-0.997403, 333, 197, 348, 228
-0.997408, 409, 153, 424, 184
-0.99741, 421, 193, 436, 224
-0.997414, 41, 141, 56, 172
-0.997416, 103, 209, 118, 240
-0.997418, 423, 297, 438, 328
-0.997425, 309, 121, 324, 152
-0.997427, 33, 17, 160, 48
-0.997431, 403, 117, 418, 148
-0.997437, 207, 193, 222, 224
-0.99744, 303, 117, 318, 148
-0.997442, 381, 121, 396, 152
-0.997444, 85, 41, 100, 72
-0.997448, 179, 309, 194, 340
-0.99745, 413, 33, 444, 288
-0.997451, 1, 177, 128, 208
-0.997457, 75, 157, 90, 188
-0.997458, 95, 229, 110, 260
-0.997458, 413, 113, 428, 144
-0.997467, 255, 201, 270, 232
-0.997467, 81, 33, 208, 64
-0.997469, 299, 201, 314, 232
-0.99747, 467, 197, 482, 228
-0.997475, 123, 157, 138, 188
-0.997481, 119, 13, 134, 44
-0.997485, 407, 85, 422, 116
-0.997492, 261, 137, 276, 168
-0.997493, 375, 317, 390, 348
-0.997504, 405, 317, 420, 348
-0.997504, 79, 45, 94, 76
-0.997506, 485, 301, 500, 332
-0.997513, 305, 33, 336, 288
-0.997516, 371, 149, 386, 180
-0.997516, 301, 65, 316, 96
-0.997517, 415, 197, 430, 228
-0.997517, 263, 181, 278, 212
-0.997521, 479, 317, 494, 348
-0.997526, 371, 133, 386, 164
-0.997527, 371, 121, 386, 152
-0.997527, 369, 137, 496, 168
-0.997531, 387, 121, 402, 152
-0.997534, 341, 129, 372, 375
-0.997539, 465, 129, 496, 375
-0.997542, 439, 229, 454, 260
-0.997542, 445, 257, 460, 288
-0.997543, 259, 121, 274, 152
-0.997546, 463, 289, 478, 320
-0.997552, 363, 313, 378, 344
-0.997554, 117, 1, 148, 256
-0.997555, 187, 117, 202, 148
-0.997559, 367, 197, 382, 228
-0.997564, 91, 37, 106, 68
-0.997565, 113, 13, 128, 44
-0.997568, 1, 65, 128, 96
-0.997573, 397, 113, 412, 144
-0.997574, 39, 129, 54, 160
-0.997575, 235, 309, 250, 340
-0.997584, 385, 301, 400, 332
-0.997587, 317, 101, 332, 132
-0.997594, 1, 45, 128, 76
-0.997594, 339, 197, 354, 228
-0.997598, 319, 129, 334, 160
-0.997602, 369, 113, 496, 144
-0.997607, 405, 201, 420, 232
-0.997612, 245, 165, 260, 196
-0.997613, 127, 5, 142, 36
-0.99762, 453, 189, 468, 220
-0.997626, 397, 317, 412, 348
-0.997627, 319, 193, 334, 224
-0.997635, 269, 201, 284, 232
-0.997636, 243, 153, 258, 184
-0.997642, 39, 81, 54, 112
-0.997644, 367, 325, 382, 356
-0.997646, 383, 137, 398, 168
-0.997652, 201, 309, 216, 340
-0.997655, 373, 205, 388, 236
-0.997657, 479, 305, 494, 336
-0.997658, 479, 201, 494, 232
-0.99766, 53, 129, 84, 375
-0.997665, 347, 309, 362, 340
-0.997674, 225, 17, 352, 80
-0.997682, 413, 129, 428, 160
-0.997687, 399, 77, 414, 108
-0.997687, 1, 29, 128, 60
-0.99769, 115, 121, 130, 152
-0.997693, 89, 33, 120, 288
-0.997698, 443, 197, 458, 228
-0.9977, 479, 293, 494, 324
-0.997707, 39, 185, 54, 216
-0.997709, 271, 305, 286, 336
-0.997709, 329, 321, 344, 352
-0.997711, 161, 321, 288, 352
-0.997711, 169, 129, 184, 160
-0.997712, 157, 189, 172, 220
-0.997712, 71, 53, 86, 84
-0.997712, 415, 317, 430, 348
-0.997716, 353, 325, 368, 356
-0.997719, 93, 153, 108, 184
-0.997724, 227, 297, 242, 328
-0.997724, 313, 193, 328, 224
-0.997733, 321, 129, 352, 375
-0.997736, 65, 33, 96, 288
-0.997829, 161, 1, 288, 64
-0.997862, 445, 129, 476, 375
-0.997942, 17, 129, 48, 375
-0.998087, 293, 33, 324, 288
-0.998123, 29, 1, 60, 256
-0.998133, 357, 33, 388, 288
-0.998195, 1, 57, 500, 120
-0.998196, 397, 1, 428, 256
-0.998228, 257, 1, 500, 64
-0.998228, 193, 33, 448, 96
-0.998263, 1, 17, 500, 80
-0.998349, 409, 203, 472, 218
-0.998371, 425, 197, 488, 212
-0.998382, 241, 203, 304, 218
-0.998388, 121, 129, 136, 256
-0.998399, 369, 207, 432, 222
-0.998399, 329, 195, 392, 210
-0.998401, 375, 241, 390, 368
-0.99841, 97, 209, 160, 224
-0.998411, 239, 241, 254, 368
-0.998411, 297, 319, 360, 334
-0.998425, 201, 321, 264, 336
-0.998427, 289, 199, 352, 214
-0.998427, 369, 197, 432, 212
-0.998428, 297, 309, 360, 324
-0.998441, 329, 313, 392, 328
-0.998443, 113, 165, 176, 180
-0.998444, 201, 279, 264, 294
-0.998445, 385, 213, 448, 228
-0.998445, 409, 209, 472, 224
-0.998454, 433, 205, 496, 220
-0.998455, 241, 197, 304, 212
-0.998462, 233, 147, 296, 162
-0.998463, 145, 117, 208, 132
-0.998463, 169, 119, 232, 134
-0.998465, 241, 221, 304, 236
-0.998467, 41, 1, 72, 256
-0.998468, 273, 111, 336, 126
-0.998472, 257, 33, 288, 288
-0.998475, 433, 221, 496, 236
-0.998476, 377, 121, 440, 136
-0.998477, 361, 191, 424, 206
-0.998478, 73, 209, 136, 224
-0.998478, 233, 165, 296, 180
-0.998478, 129, 173, 192, 188
-0.99848, 217, 287, 280, 302
-0.998482, 233, 141, 296, 156
-0.998482, 409, 147, 440, 162
-0.998482, 253, 289, 284, 304
-0.998484, 457, 303, 488, 318
-0.998484, 373, 195, 404, 210
-0.998484, 89, 215, 152, 230
-0.998485, 277, 195, 308, 210
-0.998485, 457, 291, 488, 306
-0.998485, 229, 91, 260, 106
-0.998486, 425, 291, 488, 306
-0.998486, 73, 167, 136, 182
-0.998486, 41, 245, 104, 260
-0.998487, 313, 205, 344, 220
-0.998487, 241, 151, 272, 166
-0.998487, 257, 135, 288, 150
-0.998487, 269, 203, 300, 218
-0.998488, 249, 123, 280, 138
-0.998488, 405, 189, 436, 204
-0.998489, 413, 127, 444, 142
-0.998489, 73, 161, 136, 176
-0.99849, 361, 129, 424, 144
-0.99849, 233, 109, 264, 124
-0.99849, 101, 167, 132, 182
-0.998491, 237, 299, 268, 314
-0.998491, 217, 139, 248, 154
-0.998491, 73, 241, 104, 256
-0.998491, 373, 323, 404, 338
-0.998492, 129, 207, 160, 222
-0.998492, 385, 309, 416, 324
-0.998492, 261, 157, 292, 172
-0.998492, 185, 305, 216, 320
-0.998492, 381, 217, 412, 232
-0.998493, 441, 217, 472, 232
-0.998493, 113, 159, 176, 174
-0.998493, 145, 205, 208, 220
-0.998493, 217, 255, 248, 270
-0.998494, 265, 201, 328, 216
-0.998494, 393, 189, 456, 204
-0.998494, 361, 329, 424, 344
-0.998495, 217, 263, 248, 278
-0.998495, 81, 289, 144, 304
-0.998495, 401, 71, 432, 86
-0.998496, 457, 313, 488, 328
-0.998497, 413, 133, 444, 148
-0.998497, 49, 205, 112, 220
-0.998497, 33, 79, 96, 94
-0.998497, 293, 193, 324, 208
-0.998497, 265, 195, 328, 210
-0.998498, 233, 163, 264, 178
-0.998498, 9, 303, 72, 318
-0.998498, 329, 319, 392, 334
-0.998499, 305, 191, 368, 206
-0.998499, 329, 203, 392, 218
-0.998499, 433, 211, 496, 226
-0.9985, 125, 159, 156, 174
-0.998501, 129, 217, 160, 232
-0.998502, 265, 127, 296, 142
-0.998502, 145, 167, 176, 182
-0.998503, 49, 295, 112, 310
-0.998503, 405, 317, 436, 332
-0.998503, 401, 83, 432, 98
-0.998504, 229, 85, 260, 100
-0.998505, 405, 333, 436, 348
-0.998505, 373, 307, 404, 322
-0.998506, 365, 119, 396, 134
-0.998506, 441, 211, 472, 226
-0.998507, 261, 169, 292, 184
-0.998507, 201, 197, 232, 212
-0.998508, 409, 311, 440, 326
-0.998508, 273, 313, 336, 328
-0.998509, 149, 153, 180, 168
-0.998509, 273, 319, 336, 334
-0.998509, 421, 265, 452, 280
-0.998509, 293, 121, 324, 136
-0.99851, 397, 307, 428, 322
-0.99851, 49, 237, 112, 252
-0.998511, 217, 135, 280, 150
-0.998511, 249, 201, 280, 216
-0.998513, 261, 177, 292, 192
-0.998514, 337, 213, 400, 228
-0.998514, 41, 293, 72, 308
-0.998514, 457, 205, 488, 220
-0.998514, 201, 99, 264, 114
-0.998515, 233, 171, 296, 186
-0.998515, 273, 119, 336, 134
-0.998515, 241, 193, 272, 208
-0.998516, 289, 207, 352, 222
-0.998516, 193, 273, 256, 288
-0.998516, 329, 307, 392, 322
-0.998516, 353, 315, 384, 330
-0.998517, 237, 305, 268, 320
-0.998517, 257, 129, 320, 144
-0.998518, 401, 197, 464, 212
-0.998519, 233, 325, 264, 340
-0.99852, 129, 153, 192, 168
-0.99852, 297, 309, 328, 324
-0.99852, 225, 183, 288, 198
-0.99852, 249, 215, 312, 230
-0.998521, 109, 209, 140, 224
-0.998521, 121, 205, 184, 220
-0.998522, 309, 133, 340, 148
-0.998522, 225, 313, 288, 328
-0.998522, 237, 49, 252, 176
-0.998523, 97, 145, 112, 272
-0.998523, 145, 161, 176, 176
-0.998523, 217, 199, 280, 214
-0.998523, 393, 131, 424, 146
-0.998523, 293, 207, 324, 222
-0.998524, 425, 227, 488, 242
-0.998524, 297, 111, 360, 126
-0.998524, 457, 327, 488, 342
-0.998525, 153, 223, 216, 238
-0.998526, 121, 215, 184, 230
-0.998526, 253, 151, 284, 166
-0.998526, 225, 105, 288, 120
-0.998528, 233, 103, 264, 118
-0.998528, 225, 321, 288, 336
-0.998529, 371, 177, 386, 304
-0.998529, 273, 305, 304, 320
-0.998529, 385, 307, 448, 322
-0.99853, 117, 165, 148, 180
-0.99853, 369, 143, 432, 158
-0.99853, 81, 281, 144, 296
-0.99853, 145, 127, 208, 142
-0.998531, 57, 215, 120, 230
-0.998531, 125, 171, 156, 186
-0.998531, 137, 307, 200, 322
-0.998531, 469, 205, 500, 220
-0.998532, 217, 157, 280, 172
-0.998532, 425, 327, 488, 342
-0.998533, 201, 239, 264, 254
-0.998533, 233, 305, 296, 320
-0.998534, 73, 247, 136, 262
-0.998535, 409, 285, 472, 300
-0.998536, 25, 73, 88, 88
-0.998536, 297, 303, 360, 318
-0.998536, 257, 141, 288, 156
-0.998536, 233, 177, 296, 192
-0.998536, 81, 231, 144, 246
-0.998537, 137, 167, 200, 182
-0.998538, 9, 309, 72, 324
-0.998538, 377, 125, 408, 140
-0.998538, 113, 179, 176, 194
-0.998538, 353, 333, 384, 348
-0.998539, 233, 313, 264, 328
-0.998539, 177, 281, 240, 296
-0.998539, 201, 303, 264, 318
-0.998539, 153, 205, 184, 220
-0.998539, 201, 309, 264, 324
-0.99854, 253, 321, 284, 336
-0.99854, 261, 193, 292, 208
-0.998541, 393, 129, 456, 144
-0.998542, 201, 231, 264, 246
-0.998542, 401, 195, 432, 210
-0.998542, 193, 261, 256, 276
-0.998544, 421, 201, 452, 216
-0.998544, 329, 189, 392, 204
-0.998544, 401, 141, 432, 156
-0.998544, 385, 321, 448, 336
-0.998544, 345, 301, 408, 316
-0.998544, 73, 275, 136, 290
-0.998545, 377, 107, 440, 122
-0.998545, 361, 323, 424, 338
-0.998546, 73, 163, 104, 178
-0.998547, 437, 197, 468, 212
-0.998547, 89, 221, 152, 236
-0.998548, 393, 315, 424, 330
-0.998548, 125, 315, 156, 330
-0.998549, 265, 209, 328, 224
-0.99855, 433, 265, 464, 280
-0.99855, 49, 69, 112, 84
-0.99855, 105, 299, 168, 314
-0.998551, 81, 239, 144, 254
-0.998551, 9, 105, 72, 120
-0.998552, 353, 151, 416, 166
-0.998552, 209, 207, 272, 222
-0.998552, 201, 75, 264, 90
-0.998553, 209, 111, 272, 126
-0.998553, 125, 323, 156, 338
-0.998554, 357, 175, 388, 190
-0.998554, 361, 213, 424, 228
-0.998554, 253, 129, 284, 144
-0.998554, 105, 325, 168, 340
-0.998555, 189, 323, 220, 338
-0.998555, 193, 255, 256, 270
-0.998555, 345, 219, 408, 234
-0.998555, 337, 325, 400, 340
-0.998555, 421, 209, 452, 224
-0.998555, 73, 155, 136, 170
-0.998556, 113, 313, 176, 328
-0.998556, 293, 319, 324, 334
-0.998556, 221, 275, 252, 290
-0.998557, 149, 197, 180, 212
-0.998557, 33, 211, 96, 226
-0.998558, 81, 329, 144, 344
-0.998558, 381, 139, 412, 154
-0.998559, 1, 315, 64, 330
-0.998559, 425, 239, 488, 254
-0.99856, 121, 221, 184, 236
-0.99856, 393, 329, 424, 344
-0.99856, 281, 201, 312, 216
-0.998561, 309, 319, 340, 334
-0.998561, 349, 191, 380, 206
-0.998562, 373, 315, 404, 330
-0.998562, 245, 193, 260, 320
-0.998562, 271, 129, 286, 256
-0.998562, 229, 151, 260, 166
-0.998563, 261, 185, 292, 200
-0.998565, 97, 209, 128, 224
-0.99857, 121, 179, 152, 194
-0.998571, 273, 311, 304, 326
-0.998575, 363, 129, 378, 256
-0.998575, 413, 327, 444, 342
-0.998577, 305, 127, 336, 142
-0.998581, 393, 321, 424, 336
-0.998581, 241, 187, 272, 202
-0.998581, 147, 129, 162, 256
-0.998581, 305, 111, 336, 126
-0.998581, 233, 157, 264, 172
-0.998584, 401, 207, 432, 222
-0.998586, 369, 131, 400, 146
-0.998588, 433, 271, 464, 286
-0.99859, 441, 203, 472, 218
-0.998593, 401, 91, 432, 106
-0.998595, 129, 293, 160, 308
-0.998598, 217, 269, 248, 284
-0.9986, 235, 129, 250, 256
-0.998601, 449, 195, 480, 210
-0.998602, 225, 73, 256, 88
-0.998602, 321, 199, 352, 214
-0.998603, 253, 311, 284, 326
-0.998606, 357, 183, 388, 198
-0.998606, 253, 295, 284, 310
-0.998608, 105, 1, 136, 256
-0.998618, 437, 209, 452, 336
-0.998621, 301, 199, 332, 214
-0.998621, 209, 33, 240, 288
-0.998629, 229, 97, 260, 112
-0.998631, 165, 145, 180, 272
-0.998636, 365, 241, 380, 368
-0.998639, 233, 319, 264, 334
-0.99864, 233, 241, 248, 368
-0.998642, 253, 305, 284, 320
-0.998653, 287, 177, 302, 304
-0.998659, 407, 129, 422, 256
-0.998678, 295, 161, 310, 288
-0.998683, 433, 161, 448, 288
-0.998686, 245, 241, 260, 368
-0.998686, 317, 1, 348, 256
-0.998695, 203, 177, 218, 304
-0.998704, 217, 193, 232, 320
-0.99871, 239, 177, 254, 304
-0.998717, 197, 129, 228, 375
-0.998718, 253, 177, 268, 304
-0.998719, 173, 117, 204, 132
-0.998763, 209, 177, 224, 304
-0.998768, 231, 193, 246, 320
-0.998779, 377, 193, 392, 320
-0.998785, 377, 129, 392, 256
-0.9988, 281, 161, 296, 288
-0.998805, 79, 225, 94, 352
-0.998806, 115, 177, 130, 304
-0.998807, 301, 177, 316, 304
-0.99881, 369, 1, 400, 256
-0.998815, 229, 129, 244, 256
-0.998815, 263, 113, 278, 240
-0.998816, 141, 145, 156, 272
-0.99882, 243, 81, 258, 208
-0.998822, 173, 97, 188, 224
-0.998827, 407, 81, 422, 208
-0.998827, 423, 177, 438, 304
-0.998838, 383, 193, 398, 320
-0.998842, 153, 177, 168, 304
-0.998843, 423, 241, 438, 368
-0.998845, 123, 193, 138, 320
-0.998856, 131, 129, 146, 256
-0.998859, 443, 209, 458, 336
-0.99886, 475, 241, 490, 368
-0.998873, 383, 145, 398, 272
-0.998874, 431, 225, 446, 352
-0.998877, 433, 97, 496, 224
-0.998878, 161, 129, 192, 375
-0.998882, 167, 49, 182, 176
-0.998889, 115, 113, 130, 240
-0.998889, 341, 33, 372, 288
-0.998896, 401, 145, 416, 272
-0.998897, 353, 177, 368, 304
-0.998898, 103, 129, 118, 256
-0.998899, 409, 177, 424, 304
-0.998903, 289, 129, 304, 256
-0.998907, 413, 65, 428, 192
-0.998907, 413, 129, 428, 256
-0.998923, 91, 145, 106, 272
-0.998924, 471, 193, 486, 320
-0.998937, 223, 193, 238, 320
-0.998938, 109, 113, 124, 240
-0.998939, 417, 193, 432, 320
-0.998941, 129, 177, 144, 304
-0.998942, 483, 193, 498, 320
-0.998957, 245, 129, 260, 256
-0.998963, 9, 1, 40, 256
-0.998965, 147, 177, 162, 304
-0.998976, 461, 241, 476, 368
-0.998979, 31, 113, 46, 240
-0.998986, 395, 177, 410, 304
-0.998986, 307, 129, 322, 256
-0.998991, 85, 145, 100, 272
-0.998991, 257, 113, 272, 240
-0.998992, 381, 241, 396, 368
-0.998993, 483, 241, 498, 368
-0.998995, 171, 145, 186, 272
-0.999001, 95, 193, 110, 320
-0.999007, 231, 49, 246, 176
-0.999011, 101, 193, 116, 320
-0.999018, 223, 113, 238, 240
-0.999024, 369, 113, 384, 240
-0.999045, 87, 225, 102, 352
-0.999055, 449, 241, 464, 368
-0.999057, 359, 225, 374, 352
-0.999057, 401, 81, 416, 208
-0.999059, 209, 225, 224, 352
-0.999068, 403, 209, 418, 336
-0.99907, 141, 193, 156, 320
-0.999071, 165, 1, 196, 256
-0.999077, 419, 129, 434, 256
-0.999077, 37, 129, 52, 256
-0.999087, 217, 241, 232, 368
-0.99909, 295, 209, 310, 336
-0.999094, 477, 193, 492, 320
-0.999095, 159, 145, 174, 272
-0.999101, 109, 161, 124, 288
-0.999102, 413, 241, 428, 368
-0.999102, 251, 97, 266, 224
-0.999104, 395, 113, 410, 240
-0.999113, 303, 49, 318, 176
-0.999115, 311, 177, 326, 304
-0.999127, 311, 49, 326, 176
-0.999127, 365, 177, 380, 304
-0.999137, 281, 113, 296, 240
-0.999138, 223, 241, 238, 368
-0.99914, 469, 241, 484, 368
-0.999141, 331, 161, 346, 288
-0.999144, 137, 97, 152, 224
-0.999152, 173, 49, 188, 176
-0.999153, 69, 225, 84, 352
-0.999155, 43, 145, 58, 272
-0.99916, 427, 129, 442, 256
-0.999164, 157, 97, 172, 224
-0.999166, 461, 193, 476, 320
-0.999171, 65, 161, 80, 288
-0.999172, 47, 225, 62, 352
-0.999172, 275, 177, 290, 304
-0.999177, 301, 129, 316, 256
-0.999181, 167, 97, 182, 224
-0.999181, 371, 65, 386, 192
-0.999184, 395, 65, 410, 192
-0.999185, 193, 177, 208, 304
-0.999188, 177, 177, 192, 304
-0.999192, 257, 241, 272, 368
-0.999193, 225, 65, 240, 192
-0.999195, 49, 129, 64, 256
-0.999195, 23, 33, 38, 160
-0.999197, 251, 241, 266, 368
-0.9992, 337, 161, 352, 288
-0.999203, 347, 177, 362, 304
-0.999208, 77, 33, 92, 160
-0.999214, 43, 97, 58, 224
-0.999254, 441, 33, 472, 288
-0.999298, 5, 97, 36, 352
-0.999428, 137, 1, 168, 256
-0.99954, 185, 129, 216, 375
-0.999651, 329, 33, 360, 288
-0.999663, 301, 201, 316, 216
-0.999663, 235, 319, 250, 334
-0.999663, 109, 19, 124, 34
-0.999664, 93, 139, 108, 154
-0.999664, 479, 323, 494, 338
-0.999665, 413, 143, 428, 158
-0.999665, 471, 289, 486, 304
-0.999665, 115, 147, 130, 162
-0.999666, 155, 205, 170, 220
-0.999666, 241, 79, 256, 94
-0.999666, 289, 197, 304, 212
-0.999666, 395, 323, 410, 338
-0.999668, 461, 321, 476, 336
-0.999668, 275, 193, 290, 208
-0.999668, 483, 317, 498, 332
-0.999669, 399, 91, 414, 106
-0.999669, 375, 297, 390, 312
-0.99967, 71, 57, 86, 72
-0.99967, 271, 147, 286, 162
-0.999672, 233, 145, 248, 160
-0.999672, 395, 329, 410, 344
-0.999672, 409, 103, 424, 118
-0.999672, 233, 71, 248, 86
-0.999672, 115, 19, 130, 34
-0.999673, 407, 89, 422, 104
-0.999673, 87, 251, 102, 266
-0.999673, 403, 199, 418, 214
-0.999673, 43, 85, 58, 100
-0.999673, 409, 109, 424, 124
-0.999674, 303, 323, 318, 338
-0.999675, 247, 321, 262, 336
-0.999675, 381, 127, 396, 142
-0.999676, 199, 313, 214, 328
-0.999676, 411, 189, 426, 204
-0.999677, 329, 323, 344, 338
-0.999677, 237, 189, 252, 204
-0.999677, 307, 201, 322, 216
-0.999677, 415, 207, 430, 222
-0.999677, 201, 321, 216, 336
-0.999678, 463, 315, 478, 330
-0.999679, 317, 113, 332, 128
-0.999679, 369, 183, 384, 198
-0.999679, 383, 219, 398, 234
-0.99968, 95, 33, 110, 48
-0.99968, 269, 301, 284, 316
-0.999682, 405, 329, 420, 344
-0.999682, 253, 191, 268, 206
-0.999683, 153, 197, 168, 212
-0.999683, 239, 95, 254, 110
-0.999683, 259, 131, 274, 146
-0.999683, 309, 319, 324, 334
-0.999684, 315, 127, 330, 142
-0.999684, 95, 233, 110, 248
-0.999686, 243, 199, 258, 214
-0.999686, 413, 87, 428, 102
-0.999687, 485, 305, 500, 320
-0.999687, 169, 125, 184, 140
-0.999687, 373, 149, 388, 164
-0.999687, 13, 113, 28, 128
-0.999688, 353, 191, 368, 206
-0.999689, 251, 159, 266, 174
-0.99969, 373, 127, 388, 142
-0.99969, 247, 283, 262, 298
-0.999691, 41, 141, 56, 156
-0.999691, 271, 175, 286, 190
-0.999691, 249, 151, 264, 166
-0.999691, 473, 205, 488, 220
-0.999691, 179, 305, 194, 320
-0.999692, 123, 11, 138, 26
-0.999694, 89, 39, 104, 54
-0.999695, 91, 167, 106, 182
-0.999696, 371, 175, 386, 190
-0.999697, 83, 163, 98, 178
-0.999697, 77, 51, 92, 66
-0.999698, 473, 297, 488, 312
-0.999699, 293, 309, 308, 324
-0.999699, 135, 181, 150, 196
-0.9997, 411, 197, 426, 212
-0.999701, 377, 315, 392, 330
-0.999701, 445, 265, 460, 280
-0.999703, 295, 201, 310, 216
-0.999704, 463, 297, 478, 312
-0.999707, 83, 45, 98, 60
-0.999707, 207, 201, 222, 216
-0.999708, 323, 199, 338, 214
-0.999708, 403, 207, 418, 222
-0.999708, 405, 97, 420, 112
-0.99971, 461, 193, 476, 208
-0.99971, 267, 139, 282, 154
-0.999712, 273, 169, 288, 184
-0.999712, 145, 215, 160, 230
-0.999714, 363, 169, 378, 184
-0.999714, 365, 335, 380, 350
-0.999715, 377, 303, 392, 318
-0.999715, 313, 195, 328, 210
-0.999717, 133, 1, 148, 16
-0.999717, 303, 311, 318, 326
-0.999718, 295, 319, 310, 334
-0.999718, 405, 191, 420, 206
-0.999718, 459, 327, 474, 342
-0.999718, 463, 305, 478, 320
-0.999719, 231, 139, 246, 154
-0.999721, 465, 199, 480, 214
-0.999721, 311, 305, 326, 320
-0.999722, 185, 117, 200, 132
-0.999722, 373, 133, 388, 148
-0.999724, 371, 189, 386, 204
-0.999724, 255, 197, 270, 212
-0.999727, 317, 107, 332, 122
-0.999727, 239, 73, 254, 88
-0.99973, 403, 133, 418, 148
-0.99973, 273, 153, 288, 168
-0.999733, 473, 311, 488, 326
-0.999733, 319, 133, 334, 148
-0.999736, 309, 121, 324, 136
-0.999737, 173, 117, 188, 132
-0.999739, 273, 159, 288, 174
-0.999741, 363, 181, 378, 196
-0.999742, 309, 127, 324, 142
-0.999744, 473, 317, 488, 332
-0.999749, 265, 133, 280, 148
-0.99975, 303, 317, 318, 332
-0.99975, 377, 309, 392, 324
-0.999751, 473, 303, 488, 318
-0.999753, 285, 319, 300, 334
-0.99976, 101, 209, 116, 224
-0.999762, 141, 293, 156, 308
-0.999772, 263, 125, 278, 140
-0.999772, 207, 195, 222, 210
-0.99979, 307, 111, 322, 126
-0.999847, 425, 1, 456, 256
-0.99988, 385, 17, 448, 144
-0.999892, 113, 25, 240, 88
-0.999954, 161, 1, 416, 64
-0.999968, 369, 41, 496, 104
-1.00008, 177, 1, 208, 256
-1.00015, 173, 97, 204, 352
-1.00027, 469, 33, 500, 288
-1.00033, 453, 1, 484, 256
-1.0005, 189, 33, 220, 288
-1.00954, 433, 17, 496, 144
