1975
-0.47357, 1, 1, 500, 375
-0.474134, 1, 129, 500, 375
-0.535381, 1, 33, 500, 288
-0.552613, 1, 129, 256, 375
-0.590243, 225, 129, 480, 375
-0.602151, 1, 1, 256, 375
-0.625344, 97, 129, 352, 375
-0.663611, 257, 1, 500, 375
-0.665133, 97, 1, 352, 375
-0.71316, 1, 33, 256, 288
-0.795627, 97, 33, 352, 288
-0.79979, 225, 33, 480, 288
-0.852745, 33, 129, 160, 375
-0.855221, 33, 1, 160, 375
-0.862326, 17, 33, 144, 288
-0.866106, 209, 129, 336, 375
-0.872935, 321, 129, 448, 375
-0.880072, 97, 97, 224, 352
-0.885899, 145, 129, 272, 375
-0.886669, 1, 129, 500, 256
-0.904413, 1, 177, 500, 304
-0.905922, 81, 1, 208, 375
-0.908701, 257, 129, 500, 256
-0.908768, 1, 241, 500, 368
-0.908775, 369, 65, 496, 320
-0.909428, 1, 113, 256, 240
-0.911077, 97, 241, 352, 368
-0.911433, 353, 1, 480, 375
-0.91248, 1, 177, 256, 304
-0.91378, 97, 161, 352, 288
-0.913932, 273, 129, 400, 375
-0.916453, 129, 1, 256, 375
-0.920081, 225, 177, 480, 304
-0.922805, 241, 1, 368, 375
-0.92332, 161, 193, 224, 320
-0.925056, 273, 33, 400, 288
-0.925277, 321, 33, 448, 288
-0.925426, 33, 129, 160, 256
-0.925632, 129, 241, 256, 368
-0.927837, 65, 193, 192, 320
-0.928987, 289, 1, 416, 375
-0.929243, 113, 177, 240, 304
-0.930388, 137, 241, 200, 368
-0.930478, 161, 33, 288, 288
-0.93196, 65, 1, 192, 256
-0.933297, 33, 81, 96, 208
-0.934649, 369, 129, 496, 256
-0.937694, 393, 145, 456, 272
-0.937715, 97, 113, 352, 240
-0.938163, 81, 129, 208, 256
-0.938264, 209, 209, 336, 336
-0.938454, 49, 33, 112, 160
-0.939056, 193, 1, 320, 375
-0.939712, 161, 177, 288, 304
-0.939897, 17, 81, 144, 208
-0.94036, 417, 129, 480, 256
-0.941383, 1, 81, 500, 208
-0.942186, 1, 65, 256, 192
-0.943428, 161, 241, 224, 368
-0.943784, 1, 177, 128, 304
-0.94443, 225, 33, 352, 288
-0.944767, 193, 225, 448, 352
-0.945014, 369, 145, 432, 272
-0.945602, 73, 97, 136, 224
-0.945849, 201, 209, 264, 336
-0.946308, 81, 241, 208, 368
-0.946629, 161, 225, 224, 288
-0.94845, 241, 161, 368, 288
-0.949283, 233, 113, 296, 240
-0.949371, 89, 313, 152, 375
-0.950106, 49, 129, 112, 256
-0.950111, 9, 161, 72, 288
-0.950411, 321, 129, 448, 256
-0.95058, 105, 113, 168, 240
-0.951061, 1, 241, 256, 368
-0.951499, 393, 137, 456, 200
-0.951604, 233, 193, 296, 320
-0.952652, 49, 97, 112, 160
-0.952859, 89, 241, 152, 368
-0.953053, 257, 177, 320, 304
-0.953109, 401, 161, 464, 224
-0.953431, 121, 161, 184, 288
-0.953901, 121, 313, 184, 375
-0.953992, 321, 305, 384, 368
-0.954123, 305, 177, 368, 304
-0.954388, 361, 313, 424, 375
-0.954625, 417, 137, 480, 200
-0.954658, 113, 225, 176, 352
-0.954844, 321, 177, 448, 304
-0.955063, 297, 313, 360, 375
-0.955098, 257, 209, 384, 336
-0.955525, 49, 9, 112, 72
-0.955717, 193, 161, 256, 288
-0.956296, 33, 241, 160, 368
-0.956398, 153, 201, 216, 264
-0.956918, 105, 289, 168, 352
-0.957271, 1, 17, 500, 144
-0.9578, 129, 289, 192, 352
-0.957822, 225, 81, 480, 208
-0.957844, 25, 1, 88, 128
-0.958035, 33, 121, 96, 184
-0.958177, 81, 113, 144, 176
-0.958508, 193, 129, 320, 256
-0.958532, 249, 209, 312, 272
-0.959225, 145, 257, 208, 320
-0.959281, 265, 129, 328, 256
-0.959428, 209, 225, 272, 288
-0.959708, 273, 225, 336, 352
-0.959839, 57, 177, 120, 304
-0.960467, 169, 249, 232, 312
-0.960553, 113, 1, 240, 256
-0.960955, 17, 17, 144, 144
-0.961553, 113, 225, 176, 288
-0.96171, 321, 241, 448, 368
-0.961719, 89, 193, 152, 320
-0.961903, 41, 1, 104, 256
-0.962057, 73, 49, 136, 176
-0.962923, 297, 225, 360, 352
-0.963185, 193, 201, 256, 264
-0.963337, 57, 121, 120, 184
-0.963395, 265, 185, 328, 248
-0.963741, 49, 49, 112, 112
-0.963748, 353, 177, 416, 240
-0.963924, 249, 129, 312, 192
-0.964028, 393, 305, 456, 368
-0.96415, 65, 65, 192, 192
-0.964663, 393, 193, 456, 320
-0.964743, 241, 113, 368, 240
-0.96481, 393, 81, 456, 208
-0.96491, 145, 129, 272, 256
-0.965006, 225, 201, 288, 264
-0.965167, 25, 241, 88, 368
-0.965365, 33, 73, 96, 136
-0.965408, 369, 137, 432, 200
-0.965643, 49, 209, 112, 272
-0.965668, 289, 185, 352, 248
-0.965761, 89, 193, 152, 256
-0.965768, 9, 65, 72, 192
-0.965884, 249, 161, 312, 224
-0.966017, 1, 1, 256, 128
-0.966055, 81, 145, 144, 272
-0.966281, 73, 89, 136, 152
-0.966354, 17, 201, 80, 264
-0.966368, 353, 225, 416, 352
-0.966825, 345, 161, 408, 288
-0.966843, 25, 97, 88, 160
-0.966883, 273, 313, 400, 375
-0.967115, 137, 225, 200, 288
-0.967497, 113, 177, 176, 240
-0.967579, 145, 145, 208, 272
-0.968, 97, 65, 352, 192
-0.968074, 193, 257, 256, 320
-0.96853, 65, 313, 128, 375
-0.968753, 137, 281, 168, 344
-0.968806, 369, 81, 496, 208
-0.968859, 33, 145, 96, 208
-0.968883, 369, 97, 432, 224
-0.96901, 305, 209, 368, 272
-0.969066, 393, 185, 456, 248
-0.969267, 425, 169, 488, 232
-0.969268, 417, 177, 480, 304
-0.969371, 225, 121, 288, 184
-0.969403, 157, 241, 188, 368
-0.969575, 89, 161, 152, 224
-0.969628, 409, 145, 440, 272
-0.96965, 241, 241, 304, 368
-0.969718, 265, 281, 328, 344
-0.969761, 49, 169, 112, 232
-0.969804, 113, 201, 176, 264
-0.970021, 41, 65, 72, 192
-0.970029, 145, 241, 176, 368
-0.97024, 49, 241, 112, 368
-0.970292, 33, 145, 160, 208
-0.970418, 57, 97, 88, 160
-0.97043, 69, 97, 100, 160
-0.970496, 97, 137, 160, 200
-0.970505, 273, 313, 336, 375
-0.970665, 289, 129, 352, 256
-0.970745, 157, 177, 188, 304
-0.970821, 217, 177, 280, 240
-0.970985, 9, 177, 72, 240
-0.971046, 217, 249, 280, 312
-0.971176, 93, 81, 124, 144
-0.971433, 57, 1, 88, 128
-0.971697, 17, 225, 80, 288
-0.971889, 33, 193, 96, 320
-0.971891, 201, 201, 232, 264
-0.971959, 361, 313, 392, 375
-0.972019, 101, 113, 132, 240
-0.972194, 157, 249, 188, 312
-0.972259, 41, 313, 104, 375
-0.97227, 181, 225, 212, 288
-0.972274, 417, 81, 480, 208
-0.972353, 129, 225, 256, 288
-0.97241, 329, 209, 392, 336
-0.972502, 69, 9, 100, 72
-0.972651, 205, 225, 236, 288
-0.972682, 121, 313, 152, 375
-0.972778, 393, 281, 456, 344
-0.972798, 121, 129, 184, 375
-0.972804, 393, 209, 456, 272
-0.97283, 33, 121, 160, 184
-0.97284, 421, 113, 452, 240
-0.972888, 281, 177, 344, 304
-0.973109, 321, 313, 448, 375
-0.973185, 413, 137, 444, 200
-0.973249, 41, 73, 72, 136
-0.973286, 97, 193, 224, 256
-0.973339, 369, 137, 496, 200
-0.97334, 137, 305, 168, 368
-0.973366, 273, 217, 336, 280
-0.97343, 193, 217, 320, 280
-0.973439, 369, 177, 496, 304
-0.973601, 57, 1, 88, 64
-0.973605, 33, 209, 160, 272
-0.973623, 65, 313, 192, 375
-0.973648, 113, 313, 240, 375
-0.973685, 389, 313, 420, 375
-0.973716, 417, 193, 480, 256
-0.973829, 353, 169, 480, 232
-0.973923, 145, 313, 208, 375
-0.973928, 181, 193, 212, 320
-0.974141, 377, 241, 440, 368
-0.974235, 69, 1, 100, 128
-0.974256, 305, 281, 368, 344
-0.974348, 249, 97, 312, 352
-0.974379, 97, 97, 160, 352
-0.974433, 121, 137, 184, 200
-0.974516, 345, 113, 408, 240
-0.974689, 1, 185, 128, 248
-0.974816, 9, 73, 72, 136
-0.974831, 433, 313, 496, 375
-0.974949, 149, 225, 180, 288
-0.975005, 257, 201, 288, 264
-0.975008, 157, 193, 188, 256
-0.975051, 121, 249, 184, 312
-0.975137, 273, 129, 336, 192
-0.975245, 281, 161, 344, 224
-0.975286, 209, 113, 272, 240
-0.975316, 313, 177, 376, 240
-0.97545, 369, 201, 432, 264
-0.975491, 321, 129, 384, 256
-0.975551, 353, 281, 416, 344
-0.975584, 61, 49, 92, 176
-0.975664, 309, 305, 340, 368
-0.975735, 433, 137, 464, 200
-0.975833, 89, 265, 152, 328
-0.975841, 65, 1, 192, 128
-0.975857, 93, 65, 124, 192
-0.975986, 81, 97, 112, 160
-0.97606, 437, 113, 468, 240
-0.976065, 81, 225, 208, 288
-0.976188, 393, 129, 456, 375
-0.976251, 97, 121, 128, 184
-0.976356, 373, 313, 404, 375
-0.976362, 377, 161, 440, 224
-0.97642, 185, 225, 248, 288
-0.976492, 177, 241, 304, 304
-0.976599, 145, 265, 272, 328
-0.976611, 9, 65, 72, 320
-0.976683, 25, 17, 88, 80
-0.976867, 409, 185, 440, 248
-0.976983, 225, 145, 288, 208
-0.976985, 141, 177, 172, 304
-0.977014, 241, 313, 304, 375
-0.97702, 237, 217, 268, 280
-0.97703, 149, 297, 180, 360
-0.977047, 301, 129, 332, 256
-0.977341, 1, 241, 64, 368
-0.977366, 41, 137, 72, 200
-0.977375, 77, 97, 108, 224
-0.977404, 241, 273, 368, 336
-0.977413, 81, 169, 208, 232
-0.977414, 73, 1, 136, 128
-0.977548, 393, 113, 456, 176
-0.977637, 77, 121, 108, 184
-0.977728, 449, 137, 480, 200
-0.977817, 53, 97, 84, 224
-0.977835, 369, 313, 496, 375
-0.97788, 133, 225, 164, 352
-0.977883, 89, 217, 152, 280
-0.977886, 49, 233, 112, 296
-0.977888, 453, 129, 484, 256
-0.977898, 257, 193, 384, 256
-0.977907, 265, 257, 328, 320
-0.977934, 73, 289, 136, 352
-0.977942, 137, 225, 168, 288
-0.977949, 9, 249, 72, 312
-0.977949, 145, 193, 272, 256
-0.978014, 349, 313, 380, 375
-0.978046, 369, 129, 432, 375
-0.978074, 81, 137, 208, 200
-0.97824, 189, 201, 220, 264
-0.978279, 429, 161, 460, 224
-0.978344, 125, 289, 156, 352
-0.978384, 209, 129, 272, 375
-0.978437, 169, 225, 200, 288
-0.978503, 257, 193, 288, 320
-0.978531, 445, 169, 476, 232
-0.978547, 201, 177, 232, 304
-0.978551, 321, 81, 448, 208
-0.978584, 61, 121, 92, 184
-0.978609, 217, 225, 248, 288
-0.978682, 65, 129, 128, 375
-0.97872, 1, 113, 64, 240
-0.978802, 249, 113, 280, 240
-0.978883, 153, 281, 216, 344
-0.978986, 329, 281, 392, 344
-0.979065, 209, 193, 336, 256
-0.979163, 41, 177, 72, 304
-0.979205, 49, 97, 176, 160
-0.979214, 49, 1, 112, 375
-0.979232, 329, 305, 360, 368
-0.979236, 105, 97, 168, 160
-0.979245, 41, 113, 72, 176
-0.979254, 169, 241, 200, 368
-0.979282, 1, 233, 128, 296
-0.979315, 177, 305, 304, 368
-0.979319, 289, 129, 352, 375
-0.979327, 113, 289, 240, 352
-0.97933, 41, 113, 72, 240
-0.979362, 241, 193, 272, 320
-0.97939, 313, 177, 344, 304
-0.979426, 381, 129, 412, 256
-0.979429, 97, 65, 160, 192
-0.979464, 401, 241, 464, 368
-0.979574, 225, 281, 288, 344
-0.979803, 241, 257, 304, 320
-0.979823, 65, 1, 128, 256
-0.979858, 317, 185, 348, 248
-0.979869, 49, 33, 80, 96
-0.979869, 265, 137, 296, 200
-0.979925, 465, 153, 496, 216
-0.979937, 305, 193, 432, 256
-0.979957, 45, 17, 76, 144
-0.979979, 81, 33, 112, 160
-0.979982, 377, 257, 440, 320
-0.980053, 193, 169, 320, 232
-0.98006, 57, 145, 120, 208
-0.980062, 337, 281, 464, 344
-0.980064, 393, 145, 424, 208
-0.980139, 169, 193, 200, 320
-0.980139, 293, 313, 324, 375
-0.980407, 245, 185, 276, 248
-0.980414, 321, 153, 384, 216
-0.980534, 189, 241, 220, 368
-0.980621, 381, 137, 412, 200
-0.980737, 65, 289, 192, 352
-0.980835, 305, 169, 432, 232
-0.980864, 221, 209, 252, 336
-0.98089, 225, 129, 352, 192
-0.980911, 73, 313, 104, 375
-0.981025, 253, 225, 284, 288
-0.981032, 397, 129, 428, 256
-0.98106, 305, 225, 336, 352
-0.981132, 425, 113, 488, 176
-0.981164, 337, 129, 400, 375
-0.981164, 241, 169, 368, 232
-0.981191, 201, 241, 232, 368
-0.981195, 253, 257, 284, 320
-0.981268, 145, 177, 208, 240
-0.981491, 153, 129, 216, 375
-0.981514, 289, 289, 416, 352
-0.981627, 297, 233, 360, 296
-0.981651, 97, 177, 128, 240
-0.981679, 1, 81, 128, 144
-0.981713, 113, 145, 144, 272
-0.981755, 125, 145, 156, 272
-0.98183, 401, 33, 464, 288
-0.981836, 193, 169, 256, 232
-0.981902, 269, 201, 300, 264
-0.981917, 97, 313, 128, 375
-0.982053, 301, 177, 332, 240
-0.982212, 201, 257, 232, 320
-0.982266, 257, 161, 288, 224
-0.982306, 333, 281, 364, 344
-0.982308, 189, 249, 220, 312
-0.982418, 289, 193, 320, 256
-0.982519, 217, 201, 248, 264
-0.982552, 325, 145, 356, 272
-0.982581, 97, 249, 224, 312
-0.982601, 97, 161, 128, 288
-0.982614, 225, 313, 352, 375
-0.982625, 469, 145, 500, 272
-0.982656, 305, 209, 336, 272
-0.982731, 193, 297, 256, 360
-0.982742, 85, 313, 116, 375
-0.982755, 425, 161, 456, 288
-0.98284, 213, 249, 244, 312
-0.982889, 257, 217, 384, 280
-0.982921, 321, 137, 448, 200
-0.982934, 377, 233, 440, 296
-0.982959, 73, 17, 136, 80
-0.982977, 397, 193, 428, 320
-0.983003, 145, 249, 176, 312
-0.983009, 17, 305, 80, 368
-0.983045, 289, 257, 352, 320
-0.983163, 277, 129, 308, 192
-0.98318, 397, 169, 428, 232
-0.983207, 421, 185, 452, 248
-0.983291, 49, 241, 80, 368
-0.98345, 41, 129, 104, 375
-0.983491, 329, 201, 392, 264
-0.983526, 245, 121, 276, 184
-0.983547, 113, 193, 144, 320
-0.983575, 401, 313, 432, 375
-0.9836, 169, 145, 232, 272
-0.983602, 345, 153, 408, 216
-0.983642, 25, 49, 88, 112
-0.983658, 313, 153, 344, 216
-0.983671, 317, 225, 348, 352
-0.983726, 65, 97, 96, 224
-0.983726, 177, 193, 208, 256
-0.983741, 253, 241, 284, 368
-0.983859, 1, 313, 128, 375
-0.98392, 89, 241, 152, 304
-0.984042, 1, 9, 128, 72
-0.984043, 321, 257, 448, 320
-0.984048, 1, 97, 64, 160
-0.984258, 77, 145, 108, 208
-0.984259, 145, 129, 176, 256
-0.984301, 169, 249, 200, 312
-0.984418, 285, 145, 316, 272
-0.984451, 241, 241, 368, 304
-0.984493, 413, 161, 444, 224
-0.984506, 369, 241, 496, 368
-0.984512, 57, 57, 88, 120
-0.984518, 313, 129, 376, 375
-0.984521, 417, 273, 448, 336
-0.98455, 253, 281, 284, 344
-0.9846, 1, 217, 32, 280
-0.984624, 293, 225, 324, 352
-0.984782, 293, 217, 324, 280
-0.984956, 193, 281, 320, 344
-0.984971, 113, 97, 144, 224
-0.985069, 313, 129, 344, 256
-0.985176, 237, 113, 268, 240
-0.985268, 109, 313, 140, 375
-0.985306, 377, 161, 408, 224
-0.985351, 301, 177, 332, 304
-0.9854, 261, 113, 292, 240
-0.985428, 61, 313, 92, 375
-0.98543, 169, 313, 232, 375
-0.985454, 437, 161, 468, 288
-0.985491, 1, 153, 64, 216
-0.985495, 401, 209, 432, 272
-0.985516, 269, 193, 300, 320
-0.985604, 361, 161, 392, 288
-0.985632, 121, 193, 152, 256
-0.985639, 273, 177, 304, 240
-0.985645, 369, 113, 496, 176
-0.985651, 233, 121, 264, 184
-0.985658, 145, 81, 272, 208
-0.985671, 49, 1, 176, 64
-0.98575, 117, 241, 148, 368
-0.985753, 417, 313, 448, 375
-0.985764, 301, 137, 332, 200
-0.985859, 329, 129, 392, 192
-0.985893, 417, 129, 480, 375
-0.985909, 157, 273, 188, 336
-0.98606, 121, 129, 152, 192
-0.986108, 437, 313, 468, 375
-0.98624, 345, 241, 408, 304
-0.986287, 129, 153, 256, 216
-0.986326, 273, 137, 400, 200
-0.986375, 245, 161, 276, 224
-0.986395, 465, 177, 496, 240
-0.986439, 49, 289, 112, 352
-0.986442, 17, 225, 48, 288
-0.986482, 101, 153, 132, 216
-0.986513, 61, 241, 92, 368
-0.986517, 369, 113, 432, 176
-0.986628, 353, 201, 480, 264
-0.986722, 377, 33, 440, 288
-0.986781, 97, 209, 128, 272
-0.986817, 89, 249, 120, 312
-0.986918, 281, 193, 312, 320
-0.986966, 425, 33, 488, 288
-0.986971, 29, 65, 60, 192
-0.987108, 249, 105, 312, 168
-0.987126, 449, 193, 480, 256
-0.98718, 265, 241, 296, 368
-0.987202, 221, 161, 252, 288
-0.987239, 17, 57, 144, 120
-0.987248, 1, 17, 64, 144
-0.987369, 73, 1, 136, 375
-0.987403, 113, 97, 144, 160
-0.987446, 233, 193, 264, 256
-0.987479, 177, 129, 304, 192
-0.987494, 249, 233, 312, 296
-0.987512, 81, 145, 112, 272
-0.9876, 57, 265, 120, 328
-0.987607, 193, 225, 224, 288
-0.987619, 417, 209, 448, 336
-0.987623, 41, 209, 72, 272
-0.987629, 273, 65, 400, 192
-0.987632, 401, 1, 464, 375
-0.987782, 337, 209, 368, 336
-0.987818, 1, 209, 32, 336
-0.987877, 273, 129, 304, 256
-0.988116, 141, 129, 172, 192
-0.98814, 321, 233, 448, 296
-0.988166, 269, 313, 300, 375
-0.988201, 1, 313, 500, 375
-0.988205, 285, 169, 316, 232
-0.988226, 369, 225, 400, 352
-0.988239, 81, 333, 144, 364
-0.9883, 241, 257, 272, 320
-0.988315, 305, 113, 432, 176
-0.988355, 257, 1, 500, 128
-0.988381, 25, 241, 56, 368
-0.988386, 385, 177, 416, 304
-0.988415, 109, 201, 140, 264
-0.988481, 13, 249, 44, 312
-0.988522, 265, 257, 296, 320
-0.988526, 93, 241, 124, 368
-0.988674, 153, 225, 216, 256
-0.988688, 109, 249, 140, 312
-0.988714, 321, 281, 352, 344
-0.988727, 157, 129, 188, 256
-0.988729, 321, 309, 384, 340
-0.988738, 337, 177, 368, 240
-0.988739, 141, 185, 172, 248
-0.988741, 49, 17, 112, 48
-0.98875, 201, 121, 264, 184
-0.988762, 325, 161, 356, 224
-0.988798, 49, 249, 176, 312
-0.988836, 41, 333, 104, 364
-0.988845, 153, 253, 216, 284
-0.988866, 417, 141, 480, 172
-0.988931, 193, 205, 256, 236
-0.988942, 177, 245, 240, 276
-0.988973, 405, 289, 436, 352
-0.988977, 249, 65, 312, 192
-0.989, 169, 177, 232, 240
-0.989022, 81, 241, 112, 368
-0.989026, 113, 321, 176, 352
-0.989035, 153, 169, 184, 232
-0.989042, 153, 213, 216, 244
-0.989051, 193, 225, 256, 256
-0.989078, 109, 225, 140, 288
-0.989081, 241, 241, 272, 368
-0.989112, 289, 325, 352, 356
-0.989123, 153, 237, 216, 268
-0.98915, 129, 249, 160, 312
-0.989151, 25, 161, 56, 288
-0.989204, 233, 289, 264, 352
-0.989254, 161, 217, 416, 280
-0.989276, 85, 225, 116, 288
-0.989364, 433, 1, 496, 375
-0.989388, 417, 209, 448, 272
-0.989402, 409, 97, 440, 224
-0.989411, 105, 1, 168, 375
-0.989454, 193, 313, 448, 375
-0.989533, 381, 289, 412, 352
-0.989539, 145, 145, 208, 208
-0.989566, 385, 149, 448, 180
-0.98957, 177, 257, 240, 288
-0.989571, 177, 145, 208, 272
-0.989741, 61, 145, 92, 272
-0.989766, 217, 249, 280, 280
-0.989772, 249, 205, 312, 236
-0.98979, 369, 137, 432, 168
-0.989836, 353, 341, 416, 372
-0.989869, 217, 233, 280, 264
-0.989879, 349, 193, 380, 320
-0.98988, 393, 161, 456, 192
-0.989885, 9, 121, 72, 184
-0.98989, 33, 145, 96, 176
-0.989891, 185, 129, 248, 375
-0.989895, 121, 233, 184, 264
-0.989902, 105, 289, 136, 352
-0.989911, 113, 133, 176, 164
-0.989922, 137, 333, 200, 364
-0.989934, 129, 289, 192, 320
-0.989936, 97, 73, 160, 136
-0.98994, 49, 101, 112, 132
-0.989949, 121, 153, 152, 216
-0.98995, 105, 289, 168, 320
-0.98996, 81, 33, 112, 96
-0.98998, 425, 241, 488, 368
-0.989983, 77, 57, 108, 120
-0.990001, 281, 217, 312, 280
-0.990007, 377, 337, 440, 368
-0.990015, 49, 5, 112, 36
-0.990023, 389, 209, 420, 272
-0.9901, 97, 169, 352, 232
-0.99012, 105, 241, 136, 368
-0.990121, 17, 33, 144, 96
-0.990142, 401, 333, 464, 364
-0.990156, 137, 269, 200, 300
-0.990159, 1, 225, 256, 288
-0.990161, 361, 325, 424, 356
-0.990176, 257, 137, 500, 200
-0.990188, 329, 345, 392, 375
-0.990193, 289, 313, 352, 344
-0.990206, 89, 137, 152, 168
-0.990225, 125, 97, 156, 224
-0.990238, 217, 221, 280, 252
-0.99024, 41, 125, 104, 156
-0.990249, 417, 265, 480, 328
-0.990266, 73, 93, 136, 124
-0.990269, 129, 253, 192, 284
-0.990324, 329, 321, 392, 352
-0.990345, 169, 201, 232, 232
-0.99039, 65, 313, 320, 375
-0.990409, 257, 217, 320, 248
-0.99045, 401, 345, 464, 375
-0.990454, 397, 81, 428, 208
-0.990466, 401, 1, 464, 64
-0.990467, 273, 193, 336, 224
-0.990468, 17, 229, 80, 260
-0.990476, 121, 305, 184, 336
-0.990486, 49, 193, 112, 224
-0.990492, 417, 177, 480, 208
-0.990516, 49, 209, 112, 240
-0.990525, 393, 309, 456, 340
-0.990543, 161, 337, 224, 368
-0.990574, 33, 89, 96, 120
-0.990576, 393, 197, 456, 228
-0.990596, 65, 193, 320, 256
-0.990599, 273, 205, 336, 236
-0.9906, 89, 181, 152, 212
-0.990606, 433, 153, 496, 184
-0.990608, 353, 181, 416, 212
-0.990623, 313, 205, 376, 236
-0.990626, 49, 29, 112, 60
-0.990628, 73, 317, 136, 348
-0.990644, 469, 97, 500, 224
-0.990644, 385, 225, 416, 352
-0.990705, 137, 321, 200, 352
-0.990734, 113, 145, 176, 176
-0.990767, 9, 241, 72, 272
-0.99079, 73, 121, 136, 152
-0.990802, 249, 193, 312, 224
-0.990807, 1, 137, 256, 200
-0.990811, 281, 337, 344, 368
-0.990826, 129, 221, 192, 252
-0.990829, 57, 81, 120, 112
-0.990832, 265, 317, 328, 348
-0.990836, 89, 205, 152, 236
-0.990857, 89, 149, 152, 180
-0.990864, 17, 213, 80, 244
-0.990872, 417, 165, 480, 196
-0.990881, 201, 193, 264, 224
-0.990887, 353, 309, 416, 340
-0.990894, 57, 145, 120, 176
-0.990906, 401, 1, 464, 128
-0.990912, 1, 1, 64, 375
-0.990963, 257, 229, 320, 260
-0.990994, 113, 333, 176, 364
-0.991005, 97, 289, 352, 352
-0.991033, 361, 193, 424, 224
-0.991057, 113, 197, 176, 228
-0.991067, 249, 141, 312, 172
-0.99107, 1, 257, 128, 320
-0.99108, 89, 193, 152, 224
-0.991106, 113, 169, 176, 200
-0.991113, 393, 137, 456, 168
-0.991134, 113, 181, 176, 212
-0.99114, 241, 321, 304, 352
-0.991145, 217, 205, 280, 236
-0.991147, 1, 193, 64, 224
-0.99115, 233, 161, 296, 192
-0.991156, 17, 337, 80, 368
-0.991172, 233, 285, 296, 316
-0.991178, 289, 217, 352, 248
-0.99119, 297, 193, 360, 224
-0.991193, 277, 241, 308, 368
-0.991201, 305, 297, 368, 328
-0.991201, 9, 77, 72, 108
-0.991203, 113, 157, 176, 188
-0.991232, 393, 125, 456, 156
-0.991244, 265, 257, 328, 288
-0.991247, 233, 181, 296, 212
-0.991253, 25, 1, 88, 375
-0.991274, 105, 221, 168, 252
-0.991298, 433, 341, 496, 372
-0.991334, 97, 345, 160, 375
-0.991335, 289, 161, 352, 192
-0.991337, 89, 169, 152, 200
-0.991355, 289, 181, 352, 212
-0.991356, 49, 245, 112, 276
-0.99138, 161, 269, 224, 300
-0.991407, 377, 173, 440, 204
-0.991432, 257, 181, 320, 212
-0.991435, 305, 345, 368, 375
-0.99144, 105, 245, 168, 276
-0.991443, 161, 193, 416, 256
-0.991465, 337, 145, 368, 272
-0.991465, 97, 301, 160, 332
-0.991467, 313, 181, 376, 212
-0.991469, 281, 301, 344, 332
-0.99148, 393, 217, 456, 248
-0.991484, 353, 297, 416, 328
-0.991491, 433, 325, 496, 356
-0.991502, 449, 177, 480, 304
-0.991505, 233, 125, 296, 156
-0.991517, 369, 161, 432, 192
-0.991518, 33, 77, 96, 108
-0.991523, 73, 105, 136, 136
-0.991535, 137, 201, 200, 232
-0.991557, 49, 181, 112, 212
-0.991566, 393, 321, 456, 352
-0.991566, 145, 301, 208, 332
-0.991579, 393, 185, 456, 216
-0.991635, 81, 281, 144, 312
-0.991679, 201, 261, 264, 292
-0.991771, 137, 285, 168, 316
-0.991836, 353, 241, 384, 368
-0.991873, 129, 129, 256, 192
-0.991881, 129, 241, 384, 304
-0.99192, 61, 193, 92, 320
-0.991943, 257, 169, 500, 232
-0.991987, 1, 169, 256, 232
-0.991994, 129, 245, 256, 276
-0.992006, 369, 113, 400, 240
-0.992161, 141, 329, 172, 360
-0.992161, 405, 141, 436, 172
-0.992169, 65, 329, 96, 360
-0.992176, 205, 249, 236, 280
-0.992217, 181, 213, 212, 244
-0.992229, 17, 281, 144, 344
-0.992271, 97, 97, 224, 160
-0.992287, 81, 73, 208, 136
-0.992299, 37, 73, 68, 104
-0.992373, 153, 229, 184, 260
-0.992401, 129, 265, 384, 328
-0.992412, 417, 145, 448, 176
-0.992431, 297, 33, 360, 288
-0.992436, 93, 85, 124, 116
-0.992453, 157, 273, 188, 304
-0.992464, 205, 205, 236, 236
-0.992478, 133, 317, 164, 348
-0.99248, 1, 161, 32, 288
-0.992489, 337, 305, 368, 336
-0.9925, 65, 329, 192, 360
-0.992507, 181, 201, 212, 232
-0.992508, 37, 241, 68, 368
-0.992513, 265, 213, 296, 244
-0.992516, 201, 225, 232, 256
-0.992517, 193, 209, 224, 240
-0.992519, 353, 1, 480, 128
-0.992527, 157, 253, 188, 284
-0.99255, 393, 137, 424, 168
-0.992565, 205, 237, 236, 268
-0.992569, 121, 321, 152, 352
-0.99257, 41, 141, 72, 172
-0.992581, 225, 97, 288, 160
-0.992586, 305, 317, 336, 348
-0.992597, 1, 129, 500, 192
-0.992598, 169, 229, 200, 260
-0.992603, 389, 321, 420, 352
-0.992607, 433, 289, 496, 352
-0.992612, 401, 41, 464, 104
-0.992615, 61, 5, 92, 36
-0.992618, 69, 17, 100, 48
-0.992624, 237, 225, 268, 256
-0.992625, 97, 137, 128, 168
-0.992646, 89, 337, 120, 368
-0.992651, 113, 133, 144, 164
-0.992657, 297, 137, 360, 200
-0.992657, 53, 17, 84, 48
-0.992667, 217, 233, 248, 264
-0.99267, 305, 213, 336, 244
-0.992674, 41, 89, 72, 120
-0.992674, 217, 253, 248, 284
-0.992692, 313, 305, 344, 336
-0.992692, 213, 221, 244, 252
-0.992692, 289, 325, 320, 356
-0.992701, 253, 225, 284, 256
-0.99271, 321, 233, 384, 296
-0.992714, 93, 101, 124, 132
-0.992716, 401, 333, 432, 364
-0.992722, 285, 217, 316, 248
-0.992731, 429, 141, 460, 172
-0.992733, 377, 1, 440, 375
-0.99274, 77, 333, 108, 364
-0.992745, 141, 233, 172, 264
-0.992748, 245, 205, 276, 236
-0.99275, 313, 185, 344, 216
-0.992756, 465, 161, 496, 192
-0.992756, 157, 241, 188, 272
-0.992758, 189, 225, 220, 256
-0.992759, 145, 317, 176, 348
-0.992762, 289, 205, 320, 236
-0.992767, 137, 297, 168, 328
-0.992773, 421, 345, 452, 375
-0.992779, 361, 321, 392, 352
-0.992782, 345, 345, 376, 375
-0.992785, 65, 33, 96, 64
-0.992785, 73, 105, 104, 136
-0.992788, 189, 253, 220, 284
-0.992791, 77, 145, 108, 176
-0.992801, 169, 217, 200, 248
-0.992805, 141, 249, 172, 280
-0.992807, 305, 225, 336, 256
-0.992815, 425, 161, 456, 192
-0.992818, 393, 149, 424, 180
-0.992818, 377, 165, 408, 196
-0.99282, 409, 201, 440, 232
-0.992821, 105, 333, 136, 364
-0.992824, 53, 333, 84, 364
-0.992824, 385, 341, 416, 372
-0.992828, 81, 193, 112, 320
-0.99283, 277, 317, 308, 348
-0.992834, 469, 337, 500, 368
-0.992835, 381, 149, 412, 180
-0.992835, 117, 293, 148, 324
-0.992843, 193, 201, 208, 264
-0.992844, 225, 221, 256, 252
-0.992845, 97, 189, 128, 220
-0.992845, 97, 145, 352, 208
-0.992849, 193, 197, 224, 228
-0.992852, 405, 153, 436, 184
-0.992859, 373, 341, 404, 372
-0.99286, 33, 249, 288, 312
-0.99286, 1, 217, 32, 248
-0.992861, 325, 309, 356, 340
-0.992865, 97, 153, 128, 184
-0.992866, 349, 309, 380, 340
-0.992867, 245, 285, 276, 316
-0.992868, 397, 165, 428, 196
-0.992868, 205, 261, 236, 292
-0.992869, 465, 181, 496, 212
-0.992872, 93, 121, 124, 152
-0.992873, 401, 181, 432, 212
-0.992876, 317, 329, 348, 360
-0.992876, 125, 137, 156, 168
-0.992876, 81, 321, 112, 352
-0.992897, 413, 333, 444, 364
-0.992897, 61, 101, 92, 132
-0.9929, 265, 201, 296, 232
-0.9929, 57, 125, 88, 156
-0.992902, 321, 201, 352, 232
-0.992903, 405, 241, 436, 368
-0.992904, 97, 209, 128, 240
-0.992909, 253, 273, 284, 304
-0.992915, 453, 141, 484, 172
-0.992915, 293, 193, 324, 224
-0.992917, 449, 173, 480, 204
-0.992927, 157, 289, 188, 320
-0.992929, 357, 345, 388, 375
-0.99293, 157, 217, 188, 248
-0.99293, 409, 345, 440, 375
-0.992938, 185, 337, 216, 368
-0.992939, 253, 249, 284, 280
-0.992951, 373, 321, 404, 352
-0.992952, 73, 5, 104, 36
-0.992954, 129, 225, 160, 256
-0.992956, 289, 337, 320, 368
-0.992959, 125, 345, 156, 375
-0.992959, 277, 197, 308, 228
-0.99296, 381, 137, 412, 168
-0.992968, 69, 125, 100, 156
-0.992969, 261, 285, 292, 316
-0.99297, 441, 141, 472, 172
-0.992971, 177, 257, 208, 288
-0.992982, 393, 89, 456, 152
-0.992988, 233, 237, 264, 268
-0.992995, 377, 177, 408, 208
-0.992995, 141, 217, 172, 248
-0.992996, 329, 1, 392, 375
-0.993001, 45, 121, 76, 152
-0.993002, 433, 329, 464, 360
-0.993003, 333, 293, 364, 324
-0.993006, 333, 345, 364, 375
-0.993006, 197, 345, 228, 375
-0.993009, 113, 149, 144, 180
-0.993027, 113, 337, 240, 368
-0.993027, 257, 193, 500, 256
-0.993048, 329, 33, 392, 288
-0.99307, 1, 209, 500, 272
-0.993078, 425, 1, 488, 128
-0.993115, 65, 25, 192, 88
-0.993147, 13, 241, 44, 368
-0.993156, 1, 341, 128, 372
-0.993161, 139, 281, 154, 344
-0.993175, 145, 105, 272, 168
-0.993252, 225, 241, 480, 304
-0.993264, 13, 193, 44, 320
-0.993272, 129, 233, 256, 264
-0.993302, 273, 1, 336, 375
-0.993313, 145, 121, 208, 184
-0.993314, 369, 145, 496, 176
-0.993334, 449, 81, 480, 208
-0.993344, 1, 205, 128, 236
-0.993375, 257, 105, 384, 168
-0.993418, 109, 49, 140, 176
-0.993433, 105, 1, 168, 256
-0.993441, 373, 313, 388, 375
-0.993442, 305, 317, 432, 348
-0.993498, 33, 113, 288, 176
-0.993502, 73, 97, 88, 160
-0.993602, 373, 177, 404, 304
-0.993629, 177, 213, 304, 244
-0.993638, 199, 233, 214, 296
-0.99365, 167, 241, 182, 304
-0.993727, 49, 225, 176, 256
-0.993764, 193, 289, 448, 352
-0.993778, 67, 97, 82, 160
-0.993785, 145, 1, 208, 375
-0.993812, 141, 153, 156, 216
-0.993837, 59, 97, 74, 160
-0.993843, 79, 97, 94, 160
-0.993858, 133, 153, 148, 216
-0.993873, 367, 313, 382, 375
-0.993876, 193, 225, 320, 256
-0.993909, 385, 81, 416, 208
-0.993909, 131, 313, 146, 375
-0.993914, 113, 213, 240, 244
-0.993978, 185, 1, 248, 375
-0.994021, 91, 97, 106, 160
-0.994036, 419, 137, 434, 200
-0.994078, 257, 309, 384, 340
-0.994093, 407, 145, 422, 208
-0.994103, 437, 137, 452, 200
-0.994106, 1, 185, 500, 248
-0.994129, 379, 313, 394, 375
-0.994133, 249, 1, 312, 375
-0.994144, 361, 313, 376, 375
-0.99415, 423, 185, 438, 248
-0.994182, 1, 289, 500, 352
-0.99424, 161, 265, 176, 328
-0.99424, 437, 65, 468, 192
-0.994256, 413, 161, 428, 224
-0.994271, 17, 145, 144, 176
-0.994273, 129, 257, 256, 288
-0.994275, 369, 225, 496, 288
-0.994285, 149, 281, 164, 344
-0.99429, 257, 217, 500, 280
-0.99432, 151, 305, 166, 368
-0.994407, 85, 97, 100, 160
-0.994416, 97, 197, 224, 228
-0.994434, 323, 305, 338, 368
-0.994505, 149, 161, 164, 224
-0.994534, 49, 213, 176, 244
-0.994545, 221, 225, 236, 288
-0.994545, 145, 313, 160, 375
-0.994561, 225, 113, 256, 240
-0.994564, 61, 1, 76, 64
-0.99457, 393, 313, 408, 375
-0.994578, 405, 169, 420, 232
-0.994583, 257, 201, 272, 264
-0.994604, 429, 137, 444, 200
-0.994684, 65, 137, 192, 168
-0.994689, 43, 137, 58, 200
-0.994695, 241, 217, 368, 248
-0.994705, 403, 313, 418, 375
-0.994707, 177, 245, 304, 276
-0.994714, 17, 101, 144, 132
-0.994716, 73, 121, 88, 184
-0.994734, 33, 185, 160, 216
-0.994743, 217, 201, 232, 264
-0.994743, 353, 73, 480, 136
-0.994758, 349, 129, 380, 256
-0.99476, 459, 169, 474, 232
-0.994785, 105, 81, 120, 144
-0.994794, 193, 201, 320, 232
-0.994795, 173, 249, 188, 312
-0.994804, 337, 193, 464, 224
-0.994823, 317, 305, 332, 368
-0.994866, 159, 145, 174, 208
-0.99487, 309, 217, 324, 280
-0.994876, 387, 313, 402, 375
-0.994893, 83, 9, 98, 72
-0.994928, 173, 201, 188, 264
-0.994935, 213, 241, 228, 304
-0.994946, 77, 1, 92, 64
-0.994947, 63, 121, 78, 184
-0.994949, 305, 341, 432, 372
-0.994969, 133, 129, 148, 192
-0.994994, 225, 1, 288, 375
-0.994994, 1, 237, 128, 268
-0.995013, 241, 205, 368, 236
-0.995018, 19, 225, 34, 288
-0.995022, 33, 157, 160, 188
-0.99503, 83, 121, 98, 184
-0.99503, 321, 81, 384, 208
-0.995063, 1, 225, 128, 256
-0.995074, 17, 121, 144, 152
-0.995097, 353, 33, 416, 288
-0.995104, 65, 317, 192, 348
-0.995119, 151, 225, 166, 288
-0.995131, 119, 145, 134, 208
-0.995133, 339, 281, 354, 344
-0.995133, 225, 265, 480, 328
-0.995145, 411, 185, 426, 248
-0.995153, 209, 261, 336, 292
-0.995164, 369, 333, 496, 364
-0.995179, 29, 113, 60, 240
-0.99518, 289, 81, 352, 208
-0.995181, 401, 137, 416, 200
-0.995184, 201, 209, 216, 272
-0.995187, 1, 153, 500, 216
-0.995211, 129, 185, 144, 248
-0.995224, 43, 113, 58, 176
-0.995273, 151, 185, 166, 248
-0.995275, 443, 137, 458, 200
-0.995291, 305, 1, 368, 375
-0.995297, 53, 121, 68, 184
-0.995329, 225, 285, 352, 316
-0.99533, 353, 177, 480, 208
-0.995334, 205, 249, 220, 312
-0.995339, 449, 137, 464, 200
-0.99534, 43, 65, 58, 128
-0.99534, 269, 201, 284, 264
-0.995344, 305, 305, 432, 336
-0.995367, 81, 149, 208, 180
-0.995373, 157, 241, 172, 304
-0.995382, 399, 169, 414, 232
-0.995395, 97, 81, 112, 144
-0.995408, 139, 129, 154, 192
-0.995422, 307, 193, 322, 256
-0.995425, 53, 1, 84, 256
-0.995426, 273, 329, 400, 360
-0.995431, 157, 305, 172, 368
-0.995431, 93, 313, 108, 375
-0.995432, 475, 153, 490, 216
-0.995456, 53, 97, 68, 160
-0.995471, 17, 85, 144, 116
-0.995473, 143, 177, 158, 240
-0.995474, 353, 1, 416, 375
-0.995477, 219, 249, 234, 312
-0.995486, 317, 177, 332, 240
-0.995488, 265, 137, 280, 200
-0.995496, 459, 137, 474, 200
-0.995499, 193, 225, 208, 288
-0.995515, 101, 113, 116, 176
-0.995521, 193, 333, 320, 364
-0.995556, 51, 73, 66, 136
-0.995581, 315, 209, 330, 272
-0.995582, 401, 193, 416, 256
-0.995584, 91, 121, 106, 184
-0.995585, 333, 305, 348, 368
-0.995602, 255, 121, 270, 184
-0.995609, 259, 257, 274, 320
-0.995619, 137, 305, 152, 368
-0.995621, 165, 217, 180, 280
-0.995622, 55, 209, 70, 272
-0.99563, 225, 113, 480, 176
-0.995631, 119, 193, 134, 256
-0.995638, 123, 313, 138, 375
-0.995652, 355, 305, 370, 368
-0.995653, 209, 189, 336, 220
-0.995656, 167, 193, 182, 256
-0.995678, 83, 305, 98, 368
-0.995687, 421, 65, 452, 192
-0.995703, 429, 209, 460, 336
-0.995703, 49, 237, 176, 268
-0.995706, 71, 17, 86, 80
-0.995708, 113, 321, 240, 352
-0.995721, 73, 313, 88, 375
-0.995732, 135, 177, 150, 240
-0.995751, 305, 137, 432, 168
-0.995761, 227, 241, 242, 304
-0.995761, 247, 193, 262, 256
-0.995777, 273, 121, 288, 184
-0.995779, 17, 169, 144, 200
-0.995799, 161, 169, 176, 232
-0.9958, 429, 177, 444, 240
-0.995803, 263, 201, 278, 264
-0.995809, 241, 297, 368, 328
-0.995809, 101, 313, 116, 375
-0.995812, 381, 137, 396, 200
-0.99582, 211, 265, 226, 328
-0.995825, 55, 33, 70, 96
-0.995831, 13, 217, 28, 280
-0.995832, 259, 225, 274, 288
-0.995834, 369, 345, 496, 375
-0.995837, 353, 1, 480, 64
-0.995839, 173, 225, 188, 288
-0.995845, 289, 201, 416, 232
-0.995864, 193, 345, 320, 375
-0.995864, 183, 225, 198, 288
-0.995869, 81, 249, 208, 280
-0.995875, 93, 145, 108, 208
-0.995888, 141, 81, 172, 208
-0.995895, 113, 185, 128, 248
-0.995899, 305, 181, 432, 212
-0.995925, 311, 305, 326, 368
-0.995932, 65, 49, 192, 112
-0.995936, 465, 137, 480, 200
-0.995939, 265, 257, 280, 320
-0.995951, 273, 33, 336, 288
-0.995952, 301, 217, 316, 280
-0.995953, 453, 169, 468, 232
-0.995958, 225, 65, 352, 192
-0.995959, 257, 345, 384, 375
-0.995959, 345, 281, 360, 344
-0.995964, 33, 89, 288, 152
-0.995966, 265, 169, 280, 232
-0.995968, 411, 305, 426, 368
-0.99597, 85, 33, 100, 96
-0.995977, 119, 169, 134, 232
-0.995989, 1, 201, 16, 264
-0.995996, 391, 129, 406, 192
-0.995996, 353, 49, 480, 112
-0.996001, 65, 297, 192, 328
-0.996012, 145, 273, 272, 304
-0.996041, 49, 197, 176, 228
-0.996049, 41, 65, 72, 320
-0.996061, 69, 1, 100, 256
-0.996064, 257, 273, 384, 304
-0.996089, 321, 269, 448, 300
-0.996117, 353, 309, 480, 340
-0.996124, 369, 165, 496, 196
-0.996132, 81, 177, 208, 208
-0.996133, 129, 121, 384, 184
-0.996135, 289, 213, 416, 244
-0.996158, 113, 293, 240, 324
-0.996185, 1, 65, 256, 128
-0.996193, 369, 321, 496, 352
-0.996201, 145, 97, 208, 224
-0.996204, 257, 185, 384, 216
-0.996211, 241, 1, 304, 256
-0.996234, 321, 25, 448, 88
-0.99626, 17, 329, 144, 360
-0.996297, 113, 309, 240, 340
-0.996313, 33, 13, 160, 44
-0.996315, 321, 329, 448, 360
-0.996341, 49, 341, 176, 372
-0.996351, 145, 201, 272, 232
-0.996371, 101, 65, 132, 320
-0.996394, 225, 141, 352, 172
-0.996395, 17, 73, 144, 104
-0.996418, 417, 129, 448, 375
-0.996448, 209, 309, 336, 340
-0.996452, 337, 205, 464, 236
-0.996462, 193, 33, 256, 288
-0.996474, 241, 229, 368, 260
-0.996525, 369, 133, 496, 164
-0.996576, 81, 165, 208, 196
-0.996618, 305, 285, 432, 316
-0.996664, 273, 169, 400, 200
-0.996668, 225, 169, 352, 200
-0.996685, 1, 29, 128, 60
-0.996689, 1, 233, 500, 296
-0.99674, 225, 321, 352, 352
-0.996741, 209, 105, 336, 168
-0.996749, 285, 129, 316, 375
-0.996758, 145, 129, 176, 375
-0.99676, 1, 265, 500, 328
-0.996846, 257, 221, 272, 252
-0.996855, 177, 285, 304, 316
-0.996858, 193, 209, 208, 240
-0.996891, 33, 249, 160, 280
-0.996927, 177, 321, 304, 352
-0.996948, 1, 281, 256, 344
-0.996956, 237, 97, 268, 352
-0.996958, 65, 285, 192, 316
-0.996986, 65, 261, 192, 292
-0.997006, 321, 153, 448, 184
-0.997006, 313, 129, 344, 375
-0.99701, 405, 129, 436, 375
-0.997021, 139, 285, 154, 316
-0.997029, 205, 205, 220, 236
-0.997037, 151, 281, 166, 312
-0.997069, 419, 141, 434, 172
-0.997133, 161, 189, 288, 220
-0.997151, 203, 245, 218, 276
-0.997153, 75, 329, 90, 360
-0.997199, 213, 249, 228, 280
-0.997209, 93, 17, 124, 144
-0.997221, 103, 81, 118, 112
-0.997228, 149, 177, 164, 208
-0.99723, 145, 325, 160, 356
-0.997236, 129, 181, 144, 212
-0.997236, 135, 181, 150, 212
-0.997251, 113, 97, 144, 352
-0.997262, 297, 129, 328, 375
-0.997273, 325, 97, 356, 224
-0.99728, 429, 145, 444, 176
-0.997293, 261, 97, 292, 352
-0.997302, 219, 249, 234, 280
-0.997303, 305, 125, 432, 156
-0.99731, 405, 173, 420, 204
-0.997326, 141, 177, 156, 208
-0.997329, 157, 129, 188, 375
-0.997331, 225, 241, 352, 272
-0.99735, 409, 161, 424, 192
-0.997353, 325, 129, 356, 375
-0.997388, 257, 233, 272, 264
-0.997399, 227, 241, 242, 272
-0.997417, 411, 141, 426, 172
-0.997424, 171, 253, 186, 284
-0.997426, 197, 129, 228, 256
-0.99743, 211, 201, 226, 232
-0.99745, 17, 133, 144, 164
-0.997473, 267, 213, 282, 244
-0.99748, 83, 333, 98, 364
-0.997483, 205, 257, 220, 288
-0.997511, 149, 165, 164, 196
-0.997512, 161, 129, 288, 160
-0.997522, 151, 241, 166, 272
-0.997524, 113, 137, 240, 168
-0.997533, 161, 233, 176, 264
-0.997533, 353, 297, 480, 328
-0.997537, 65, 85, 192, 116
-0.997537, 151, 313, 166, 344
-0.997538, 133, 169, 148, 200
-0.997543, 197, 197, 212, 228
-0.997548, 85, 13, 100, 44
-0.997555, 161, 301, 288, 332
-0.997562, 317, 317, 332, 348
-0.997567, 129, 177, 256, 208
-0.99757, 391, 157, 406, 188
-0.997575, 289, 225, 416, 256
-0.997576, 403, 137, 418, 168
-0.997578, 17, 57, 144, 88
-0.997597, 161, 145, 288, 176
-0.997615, 411, 189, 426, 220
-0.997615, 405, 149, 420, 180
-0.997616, 217, 229, 232, 260
-0.997626, 201, 217, 216, 248
-0.997626, 209, 129, 336, 160
-0.997633, 69, 329, 84, 360
-0.997633, 161, 221, 176, 252
-0.997645, 139, 153, 154, 184
-0.997648, 135, 313, 150, 344
-0.99765, 89, 333, 104, 364
-0.997655, 151, 225, 166, 256
-0.99767, 119, 153, 134, 184
-0.997675, 403, 161, 418, 192
-0.997688, 311, 317, 326, 348
-0.997696, 307, 225, 322, 256
-0.997701, 133, 153, 148, 184
-0.997701, 95, 337, 110, 368
-0.997702, 193, 229, 208, 260
-0.997704, 409, 337, 424, 368
-0.997708, 225, 157, 352, 188
-0.997713, 221, 261, 236, 292
-0.997714, 485, 337, 500, 368
-0.997716, 161, 157, 288, 188
-0.997721, 393, 129, 424, 375
-0.997722, 201, 65, 264, 192
-0.997725, 127, 137, 142, 168
-0.997726, 41, 73, 56, 104
-0.997738, 145, 273, 160, 304
-0.997739, 1, 205, 16, 236
-0.997743, 437, 141, 452, 172
-0.997747, 265, 201, 280, 232
-0.997748, 81, 113, 208, 144
-0.997751, 217, 213, 232, 244
-0.997752, 157, 257, 172, 288
-0.997759, 409, 49, 440, 176
-0.997764, 421, 337, 436, 368
-0.997779, 61, 129, 92, 375
-0.997787, 141, 165, 156, 196
-0.997789, 249, 97, 280, 352
-0.997796, 81, 33, 112, 288
-0.9978, 313, 213, 328, 244
-0.997804, 323, 317, 338, 348
-0.997804, 227, 221, 242, 252
-0.997806, 73, 17, 88, 48
-0.997807, 297, 217, 312, 248
-0.99781, 399, 321, 414, 352
-0.99781, 107, 93, 122, 124
-0.997813, 145, 153, 160, 184
-0.997815, 369, 249, 496, 312
-0.99782, 325, 329, 340, 360
-0.997821, 15, 221, 30, 252
-0.997824, 115, 137, 130, 168
-0.997828, 397, 161, 412, 192
-0.99783, 209, 273, 336, 304
-0.99783, 209, 233, 224, 264
-0.997832, 425, 273, 440, 304
-0.997836, 49, 25, 176, 56
-0.997836, 413, 177, 428, 208
-0.997843, 375, 321, 390, 352
-0.997846, 135, 137, 150, 168
-0.997847, 213, 265, 228, 296
-0.997849, 63, 5, 78, 36
-0.997854, 63, 333, 78, 364
-0.997854, 185, 217, 200, 248
-0.997855, 217, 201, 232, 232
-0.997857, 121, 177, 136, 208
-0.997857, 333, 313, 348, 344
-0.997858, 351, 305, 366, 336
-0.997858, 385, 321, 400, 352
-0.997862, 171, 273, 186, 304
-0.997865, 91, 145, 106, 176
-0.997865, 41, 141, 56, 172
-0.997869, 303, 205, 318, 236
-0.997871, 419, 153, 434, 184
-0.997879, 125, 97, 156, 352
-0.997879, 415, 165, 430, 196
-0.997881, 325, 305, 340, 336
-0.997891, 281, 317, 296, 348
-0.997892, 387, 133, 402, 164
-0.997892, 199, 257, 214, 288
-0.997904, 161, 177, 176, 208
-0.997908, 159, 269, 174, 300
-0.997917, 421, 201, 436, 232
-0.997923, 151, 189, 166, 220
-0.997923, 29, 65, 60, 320
-0.997926, 135, 345, 150, 375
-0.997928, 81, 129, 112, 375
-0.997928, 401, 337, 416, 368
-0.997929, 363, 345, 378, 375
-0.997931, 299, 321, 314, 352
-0.997935, 83, 317, 98, 348
-0.997939, 71, 5, 86, 36
-0.99794, 357, 309, 372, 340
-0.997941, 391, 321, 406, 352
-0.997944, 131, 293, 146, 324
-0.997949, 337, 217, 464, 248
-0.997949, 483, 161, 498, 192
-0.99795, 369, 25, 496, 88
-0.997954, 227, 253, 242, 284
-0.997955, 237, 225, 252, 256
-0.997966, 97, 17, 352, 144
-0.997967, 339, 309, 354, 340
-0.997972, 257, 261, 384, 292
-0.997974, 63, 125, 78, 156
-0.997975, 197, 241, 212, 272
-0.99798, 65, 125, 192, 156
-0.997987, 149, 293, 164, 324
-0.997988, 57, 13, 72, 44
-0.997992, 395, 141, 410, 172
-0.997992, 381, 97, 412, 352
-0.997995, 87, 105, 102, 136
-0.997995, 25, 17, 56, 144
-0.998001, 465, 177, 480, 208
-0.998004, 255, 285, 270, 316
-0.998004, 405, 185, 420, 216
-0.998009, 121, 137, 136, 168
-0.998028, 1, 41, 128, 72
-0.998054, 17, 313, 144, 344
-0.998075, 369, 129, 400, 375
-0.998081, 321, 165, 448, 196
-0.998085, 301, 81, 332, 208
-0.998094, 249, 65, 280, 192
-0.998106, 273, 153, 400, 184
-0.998125, 429, 129, 460, 375
-0.998167, 321, 257, 448, 288
-0.998185, 177, 169, 304, 200
-0.998204, 405, 33, 436, 288
-0.99821, 201, 129, 232, 375
-0.998247, 65, 273, 192, 304
-0.998276, 353, 281, 480, 312
-0.998311, 273, 97, 304, 352
-0.998378, 289, 237, 416, 268
-0.998388, 97, 101, 224, 132
-0.998406, 361, 1, 424, 128
-0.99841, 153, 247, 216, 262
-0.99841, 159, 241, 174, 368
-0.998412, 177, 253, 240, 268
-0.998417, 113, 329, 176, 344
-0.99842, 153, 255, 216, 270
-0.998423, 69, 105, 100, 120
-0.998424, 413, 155, 444, 170
-0.998424, 201, 217, 232, 232
-0.998424, 197, 267, 228, 282
-0.998424, 97, 213, 128, 228
-0.998424, 333, 321, 364, 336
-0.998425, 69, 343, 100, 358
-0.998425, 449, 345, 480, 360
-0.998426, 105, 333, 136, 348
-0.998426, 409, 361, 440, 375
-0.998427, 417, 179, 448, 194
-0.998428, 233, 235, 264, 250
-0.998429, 245, 215, 276, 230
-0.998431, 193, 231, 256, 246
-0.998432, 441, 143, 472, 158
-0.998432, 305, 235, 336, 250
-0.998434, 145, 135, 176, 150
-0.998435, 273, 329, 304, 344
-0.998435, 117, 355, 148, 370
-0.998436, 81, 331, 112, 346
-0.998436, 153, 335, 184, 350
-0.998437, 469, 175, 500, 190
-0.998438, 241, 289, 272, 304
-0.998438, 369, 149, 432, 164
-0.998438, 217, 237, 248, 252
-0.998439, 49, 335, 80, 350
-0.998439, 141, 337, 172, 352
-0.998439, 97, 357, 128, 372
-0.99844, 121, 331, 152, 346
-0.99844, 57, 19, 88, 34
-0.998441, 301, 207, 332, 222
-0.998441, 161, 261, 224, 276
-0.998442, 253, 243, 284, 258
-0.998444, 97, 83, 128, 98
-0.998445, 285, 217, 316, 232
-0.998445, 397, 161, 428, 176
-0.998445, 41, 99, 72, 114
-0.998445, 49, 41, 176, 72
-0.998446, 261, 137, 292, 152
-0.998446, 157, 243, 188, 258
-0.998449, 369, 117, 496, 148
-0.99845, 97, 141, 128, 156
-0.998452, 457, 199, 488, 214
-0.998452, 165, 227, 196, 242
-0.998453, 37, 91, 68, 106
-0.998454, 257, 129, 384, 160
-0.998454, 149, 269, 180, 284
-0.998455, 385, 141, 448, 156
-0.998456, 429, 145, 460, 160
-0.998458, 417, 149, 448, 164
-0.998459, 361, 355, 424, 370
-0.998459, 37, 81, 68, 96
-0.99846, 281, 327, 344, 342
-0.99846, 181, 257, 212, 272
-0.99846, 181, 337, 212, 352
-0.998461, 313, 191, 344, 206
-0.998461, 201, 225, 232, 240
-0.998461, 417, 145, 480, 160
-0.998461, 49, 17, 112, 32
-0.998462, 181, 251, 212, 266
-0.998463, 141, 253, 172, 268
-0.998464, 149, 285, 180, 300
-0.998464, 69, 25, 100, 40
-0.998467, 113, 145, 176, 160
-0.998467, 361, 321, 392, 336
-0.998467, 313, 329, 344, 344
-0.998468, 253, 227, 284, 242
-0.998468, 57, 333, 120, 348
-0.998469, 69, 19, 100, 34
-0.998469, 409, 213, 440, 228
-0.99847, 93, 95, 124, 110
-0.998471, 177, 223, 208, 238
-0.998471, 97, 151, 128, 166
-0.998472, 217, 245, 248, 260
-0.998472, 305, 215, 336, 230
-0.998473, 197, 259, 228, 274
-0.998473, 385, 137, 416, 152
-0.998473, 205, 237, 236, 252
-0.998474, 313, 311, 376, 326
-0.998474, 49, 27, 112, 42
-0.998474, 137, 143, 168, 158
-0.998474, 389, 323, 420, 338
-0.998475, 261, 217, 292, 232
-0.998475, 209, 263, 240, 278
-0.998476, 317, 301, 348, 316
-0.998476, 329, 321, 392, 336
-0.998477, 129, 135, 160, 150
-0.998477, 149, 227, 180, 242
-0.998477, 153, 241, 216, 256
-0.998478, 401, 351, 464, 366
-0.998479, 77, 147, 108, 162
-0.998479, 317, 311, 348, 326
-0.998481, 405, 353, 436, 368
-0.998482, 153, 33, 216, 288
-0.998482, 281, 139, 312, 154
-0.998486, 121, 293, 184, 308
-0.998488, 161, 223, 224, 238
-0.998488, 381, 147, 412, 162
-0.998488, 273, 321, 304, 336
-0.998489, 225, 97, 256, 352
-0.99849, 153, 235, 216, 250
-0.99849, 181, 203, 212, 218
-0.99849, 301, 227, 332, 242
-0.99849, 53, 25, 84, 40
-0.998491, 153, 229, 216, 244
-0.998491, 193, 213, 256, 228
-0.998492, 401, 153, 432, 168
-0.998493, 129, 335, 192, 350
-0.998493, 113, 137, 144, 152
-0.998493, 213, 225, 244, 240
-0.998493, 273, 321, 336, 336
-0.998494, 157, 293, 188, 308
-0.998494, 141, 237, 172, 252
-0.998497, 285, 327, 316, 342
-0.998498, 161, 261, 192, 276
-0.998501, 193, 219, 256, 234
-0.998501, 193, 225, 256, 240
-0.998501, 193, 247, 256, 262
-0.998501, 189, 211, 220, 226
-0.998502, 61, 337, 92, 352
-0.998504, 193, 237, 256, 252
-0.998504, 117, 145, 148, 160
-0.998505, 233, 229, 264, 244
-0.998505, 177, 129, 208, 375
-0.998506, 33, 339, 96, 354
-0.998506, 153, 215, 216, 230
-0.998508, 137, 303, 168, 318
-0.998511, 217, 243, 280, 258
-0.998511, 133, 319, 164, 334
-0.998511, 33, 99, 96, 114
-0.998511, 313, 317, 344, 332
-0.998511, 81, 335, 144, 350
-0.998514, 201, 211, 232, 226
-0.998515, 153, 337, 216, 352
-0.998516, 297, 325, 328, 340
-0.998517, 41, 145, 72, 160
-0.998518, 105, 135, 168, 150
-0.998518, 249, 139, 312, 154
-0.998519, 177, 229, 208, 244
-0.99852, 257, 217, 320, 232
-0.998523, 121, 311, 184, 326
-0.998523, 33, 145, 96, 160
-0.998523, 65, 1, 192, 32
-0.998525, 217, 225, 280, 240
-0.998525, 81, 137, 144, 152
-0.998526, 49, 33, 112, 48
-0.998527, 1, 1, 128, 32
-0.998527, 469, 193, 500, 208
-0.998527, 121, 319, 184, 334
-0.998527, 193, 205, 256, 220
-0.998527, 469, 341, 500, 356
-0.998527, 213, 231, 244, 246
-0.998528, 49, 209, 112, 224
-0.998528, 137, 261, 200, 276
-0.99853, 157, 249, 188, 264
-0.99853, 9, 249, 72, 264
-0.998531, 309, 323, 340, 338
-0.998531, 197, 231, 228, 246
-0.998532, 137, 293, 168, 308
-0.998532, 393, 355, 424, 370
-0.998533, 73, 97, 136, 112
-0.998535, 85, 337, 116, 352
-0.998535, 225, 231, 288, 246
-0.998537, 121, 233, 184, 248
-0.998537, 417, 351, 448, 366
-0.998537, 149, 225, 164, 352
-0.998538, 1, 1, 256, 64
-0.998539, 337, 309, 368, 324
-0.99854, 297, 321, 360, 336
-0.99854, 393, 147, 424, 162
-0.998542, 253, 287, 284, 302
-0.998542, 113, 299, 176, 314
-0.998543, 241, 221, 272, 236
-0.998543, 437, 33, 468, 288
-0.998543, 49, 203, 112, 218
-0.998543, 137, 309, 168, 324
-0.998545, 137, 231, 168, 246
-0.998545, 49, 11, 112, 26
-0.998546, 177, 267, 240, 282
-0.998547, 89, 345, 152, 360
-0.998547, 393, 153, 456, 168
-0.998547, 61, 7, 92, 22
-0.998548, 401, 357, 464, 372
-0.998549, 225, 253, 288, 268
-0.99855, 201, 243, 232, 258
-0.998551, 393, 147, 456, 162
-0.998551, 161, 255, 192, 270
-0.998551, 17, 233, 80, 248
-0.998552, 129, 287, 192, 302
-0.998552, 273, 207, 336, 222
-0.998553, 89, 203, 152, 218
-0.998554, 73, 325, 136, 340
-0.998554, 169, 205, 232, 220
-0.998554, 1, 1, 500, 64
-0.998555, 89, 143, 152, 158
-0.998555, 281, 81, 312, 208
-0.998556, 201, 205, 232, 220
-0.998556, 105, 305, 168, 320
-0.998556, 129, 251, 192, 266
-0.998558, 193, 261, 256, 276
-0.99856, 153, 233, 184, 248
-0.998561, 257, 229, 320, 244
-0.998562, 249, 287, 312, 302
-0.998562, 353, 321, 416, 336
-0.998562, 189, 225, 220, 240
-0.998565, 65, 105, 128, 120
-0.998565, 353, 313, 416, 328
-0.998566, 241, 203, 304, 218
-0.998571, 49, 197, 112, 212
-0.998571, 129, 305, 192, 320
-0.998572, 137, 267, 200, 282
-0.998572, 129, 241, 192, 256
-0.998572, 249, 145, 312, 160
-0.998573, 433, 343, 496, 358
-0.998574, 397, 141, 428, 156
-0.998575, 217, 237, 280, 252
-0.998575, 329, 361, 392, 375
-0.998575, 225, 287, 288, 302
-0.998576, 417, 173, 480, 188
-0.998577, 233, 211, 296, 226
-0.998578, 37, 75, 68, 90
-0.998578, 97, 321, 160, 336
-0.998578, 89, 299, 152, 314
-0.998579, 9, 75, 72, 90
-0.998579, 105, 287, 168, 302
-0.998581, 145, 293, 208, 308
-0.998582, 141, 331, 172, 346
-0.998582, 105, 241, 168, 256
-0.998582, 17, 227, 80, 242
-0.998584, 393, 163, 456, 178
-0.998585, 361, 191, 424, 206
-0.998586, 129, 199, 192, 214
-0.998586, 49, 87, 112, 102
-0.998587, 369, 341, 432, 356
-0.998588, 57, 147, 120, 162
-0.998588, 97, 315, 160, 330
-0.998589, 337, 229, 464, 260
-0.99859, 105, 227, 168, 242
-0.998591, 433, 159, 496, 174
-0.998591, 313, 207, 376, 222
-0.998592, 273, 315, 336, 330
-0.998592, 17, 219, 80, 234
-0.998592, 113, 173, 176, 188
-0.998592, 89, 195, 152, 210
-0.998592, 169, 199, 232, 214
-0.998593, 305, 305, 368, 320
-0.998593, 209, 199, 272, 214
-0.998595, 369, 159, 432, 174
-0.998595, 89, 155, 152, 170
-0.998596, 113, 257, 176, 272
-0.998596, 49, 215, 112, 230
-0.998598, 121, 221, 184, 236
-0.998598, 377, 329, 440, 344
-0.998598, 137, 329, 200, 344
-0.998598, 217, 263, 280, 278
-0.998599, 57, 351, 120, 366
-0.9986, 361, 185, 424, 200
-0.9986, 401, 203, 464, 218
-0.9986, 353, 307, 416, 322
-0.998601, 9, 239, 72, 254
-0.998601, 33, 93, 96, 108
-0.998601, 361, 141, 424, 156
-0.998602, 97, 351, 160, 366
-0.998603, 393, 179, 456, 194
-0.998608, 341, 97, 372, 352
-0.998618, 137, 287, 168, 302
-0.998622, 129, 325, 160, 340
-0.998634, 65, 331, 96, 346
-0.998639, 411, 145, 426, 272
-0.998639, 423, 129, 438, 256
-0.998641, 205, 253, 236, 268
-0.998649, 1, 261, 128, 292
-0.998664, 181, 217, 212, 232
-0.998665, 409, 143, 440, 158
-0.998677, 167, 177, 182, 304
-0.998682, 257, 1, 500, 64
-0.998687, 195, 193, 210, 320
-0.998693, 59, 1, 74, 128
-0.998706, 73, 1, 88, 128
-0.998712, 43, 65, 58, 192
-0.998714, 49, 65, 64, 192
-0.99872, 157, 177, 172, 304
-0.998738, 103, 65, 118, 192
-0.998749, 441, 241, 472, 368
-0.998764, 17, 301, 144, 332
-0.998784, 445, 129, 476, 375
-0.998803, 151, 161, 166, 288
-0.998803, 141, 145, 156, 272
-0.998811, 85, 33, 100, 160
-0.998814, 1, 97, 500, 160
-0.998815, 173, 193, 188, 320
-0.998816, 449, 1, 480, 128
-0.998824, 431, 129, 446, 256
-0.998825, 405, 129, 420, 256
-0.998825, 265, 177, 280, 304
-0.998829, 237, 65, 268, 192
-0.998835, 201, 241, 216, 368
-0.998837, 75, 81, 90, 208
-0.998839, 43, 113, 58, 240
-0.998839, 1, 33, 256, 96
-0.998842, 425, 33, 456, 288
-0.99885, 135, 145, 150, 272
-0.998854, 437, 113, 452, 240
-0.998863, 305, 89, 432, 152
-0.998863, 61, 49, 76, 176
-0.998865, 171, 241, 186, 368
-0.998866, 119, 129, 134, 256
-0.998874, 17, 285, 144, 316
-0.998875, 393, 33, 424, 288
-0.998877, 189, 129, 220, 375
-0.998897, 357, 129, 388, 375
-0.998899, 305, 65, 432, 128
-0.998899, 259, 193, 274, 320
-0.998902, 213, 129, 244, 375
-0.998903, 143, 225, 158, 352
-0.998905, 69, 65, 84, 192
-0.998906, 447, 113, 462, 240
-0.99891, 93, 81, 108, 208
-0.998921, 127, 145, 142, 272
-0.998927, 309, 225, 324, 352
-0.998927, 457, 129, 472, 256
-0.998929, 103, 113, 118, 240
-0.998948, 161, 129, 176, 256
-0.998948, 353, 101, 480, 132
-0.998953, 467, 129, 482, 256
-0.998956, 79, 1, 94, 128
-0.998958, 257, 241, 272, 368
-0.998969, 303, 225, 318, 352
-0.998972, 417, 145, 432, 272
-0.998972, 261, 65, 292, 192
-0.998972, 65, 1, 80, 128
-0.998974, 117, 177, 132, 304
-0.998989, 301, 33, 332, 288
-0.99899, 251, 113, 266, 240
-0.999003, 317, 161, 332, 288
-0.999005, 81, 81, 96, 208
-0.999012, 201, 193, 216, 320
-0.999017, 53, 193, 68, 320
-0.999026, 165, 241, 180, 368
-0.999033, 217, 177, 232, 304
-0.999043, 109, 81, 124, 208
-0.999055, 469, 129, 500, 375
-0.999068, 109, 129, 124, 256
-0.999069, 49, 113, 64, 240
-0.999098, 55, 65, 70, 192
-0.999103, 53, 17, 68, 144
-0.999108, 423, 177, 438, 304
-0.999119, 311, 177, 326, 304
-0.999121, 61, 97, 76, 224
-0.999124, 325, 177, 340, 304
-0.999128, 303, 161, 318, 288
-0.999131, 317, 209, 332, 336
-0.999134, 43, 177, 58, 304
-0.999136, 389, 113, 404, 240
-0.999141, 227, 209, 242, 336
-0.999146, 457, 129, 488, 375
-0.999151, 405, 177, 420, 304
-0.999151, 469, 33, 500, 288
-0.999154, 91, 1, 106, 128
-0.999154, 211, 241, 226, 368
-0.999167, 135, 97, 150, 224
-0.999171, 259, 113, 274, 240
-0.999171, 137, 241, 152, 368
-0.999172, 413, 193, 428, 320
-0.999173, 399, 129, 414, 256
-0.99919, 249, 161, 264, 288
-0.999192, 235, 209, 250, 336
-0.999196, 1, 193, 16, 320
-0.9992, 127, 97, 142, 224
-0.999211, 295, 129, 310, 256
-0.999219, 219, 225, 234, 352
-0.999222, 377, 145, 392, 272
-0.99923, 181, 209, 196, 336
-0.999231, 195, 241, 210, 368
-0.999231, 265, 241, 280, 368
-0.999238, 189, 177, 204, 304
-0.999241, 207, 177, 222, 304
-0.999242, 443, 161, 458, 288
-0.999245, 473, 145, 488, 272
-0.999247, 147, 113, 162, 240
-0.999249, 265, 113, 280, 240
-0.999255, 109, 193, 124, 320
-0.999255, 87, 97, 102, 224
-0.999263, 57, 241, 72, 368
-0.999274, 93, 129, 108, 256
-0.999278, 383, 113, 398, 240
-0.999284, 141, 97, 156, 224
-0.99929, 437, 161, 452, 288
-0.999295, 117, 225, 132, 352
-0.999297, 297, 193, 312, 320
-0.999299, 79, 241, 94, 368
-0.999303, 99, 193, 114, 320
-0.999309, 251, 209, 266, 336
-0.99931, 127, 225, 142, 352
-0.999312, 55, 129, 70, 256
-0.999317, 367, 177, 382, 304
-0.99932, 391, 161, 406, 288
-0.999322, 271, 241, 286, 368
-0.999325, 63, 241, 78, 368
-0.999328, 9, 209, 24, 336
-0.999328, 273, 193, 288, 320
-0.999328, 155, 113, 170, 240
-0.999329, 377, 225, 392, 352
-0.999333, 243, 193, 258, 320
-0.999336, 289, 129, 304, 256
-0.999339, 245, 113, 260, 240
-0.99934, 271, 113, 286, 240
-0.999354, 347, 209, 362, 336
-0.999359, 113, 1, 144, 256
-0.99937, 115, 81, 130, 208
-0.99937, 327, 129, 342, 256
-0.999373, 51, 241, 66, 368
-0.999374, 37, 97, 52, 224
-0.999376, 449, 161, 464, 288
-0.999383, 341, 241, 356, 368
-0.999383, 421, 241, 436, 368
-0.999383, 353, 209, 368, 336
-0.999383, 279, 177, 294, 304
-0.999385, 397, 177, 412, 304
-0.999388, 37, 161, 52, 288
-0.999388, 135, 193, 150, 320
-0.999392, 415, 97, 430, 224
-0.999394, 17, 193, 32, 320
-0.999398, 253, 1, 284, 256
-0.999407, 457, 33, 488, 288
-0.999428, 305, 1, 432, 64
-0.999445, 257, 25, 500, 88
-0.999495, 369, 49, 432, 176
-0.99951, 17, 65, 48, 320
-0.999511, 97, 65, 352, 128
-0.999526, 381, 1, 412, 256
-0.999554, 361, 33, 392, 288
-0.999624, 237, 227, 252, 242
-0.999625, 91, 121, 106, 136
-0.999625, 125, 137, 140, 152
-0.999625, 73, 103, 88, 118
-0.999626, 141, 169, 156, 184
-0.999626, 409, 169, 424, 184
-0.999626, 285, 139, 300, 154
-0.999627, 405, 213, 420, 228
-0.999627, 391, 323, 406, 338
-0.999627, 419, 157, 434, 172
-0.999628, 305, 323, 320, 338
-0.999628, 129, 353, 144, 368
-0.999628, 257, 89, 500, 152
-0.999628, 115, 143, 130, 158
-0.999628, 139, 343, 154, 358
-0.999629, 151, 241, 166, 256
-0.99963, 313, 215, 328, 230
-0.99963, 121, 183, 136, 198
-0.99963, 405, 187, 420, 202
-0.99963, 313, 227, 328, 242
-0.999631, 213, 261, 228, 276
-0.999633, 285, 321, 300, 336
-0.999633, 213, 267, 228, 282
-0.999633, 197, 253, 212, 268
-0.999634, 59, 337, 74, 352
-0.999635, 319, 317, 334, 332
-0.999635, 303, 221, 318, 236
-0.999636, 159, 189, 174, 204
-0.999637, 161, 227, 176, 242
-0.999638, 73, 19, 88, 34
-0.999639, 203, 265, 218, 280
-0.999639, 161, 289, 176, 304
-0.999639, 403, 161, 418, 176
-0.99964, 295, 327, 310, 342
-0.99964, 165, 235, 180, 250
-0.99964, 195, 203, 210, 218
-0.99964, 417, 151, 432, 166
-0.99964, 141, 231, 156, 246
-0.99964, 259, 287, 274, 302
-0.99964, 1, 65, 32, 320
-0.999641, 201, 223, 216, 238
-0.999641, 397, 139, 412, 154
-0.999642, 139, 153, 154, 168
-0.999643, 191, 231, 206, 246
-0.999643, 145, 285, 160, 300
-0.999644, 91, 147, 106, 162
-0.999644, 403, 153, 418, 168
-0.999644, 127, 153, 142, 168
-0.999645, 133, 171, 148, 186
-0.999645, 265, 215, 280, 230
-0.999647, 427, 283, 442, 298
-0.999648, 309, 237, 324, 252
-0.999648, 311, 321, 326, 336
-0.999649, 315, 327, 330, 342
-0.99965, 135, 349, 150, 364
-0.999651, 119, 137, 134, 152
-0.999652, 431, 147, 446, 162
-0.999652, 405, 353, 420, 368
-0.999653, 423, 275, 438, 290
-0.999653, 143, 191, 158, 206
-0.999654, 409, 155, 424, 170
-0.999655, 401, 147, 416, 162
-0.999655, 191, 221, 206, 236
-0.999655, 89, 337, 104, 352
-0.999655, 319, 301, 334, 316
-0.999655, 227, 225, 242, 240
-0.999656, 123, 145, 138, 160
-0.999656, 421, 351, 436, 366
-0.999656, 265, 287, 280, 302
-0.999658, 203, 247, 218, 262
-0.99966, 135, 195, 150, 210
-0.999665, 133, 153, 148, 168
-0.999665, 83, 333, 98, 348
-0.999666, 41, 73, 56, 88
-0.999667, 195, 241, 210, 256
-0.999667, 1, 211, 16, 226
-0.999668, 281, 1, 312, 256
-0.999668, 461, 197, 476, 212
-0.999669, 219, 251, 234, 266
-0.999669, 161, 335, 176, 350
-0.999669, 183, 221, 198, 236
-0.999669, 139, 181, 154, 196
-0.99967, 151, 291, 166, 306
-0.99967, 325, 331, 340, 346
-0.999671, 151, 193, 166, 208
-0.999671, 149, 279, 164, 294
-0.999672, 257, 227, 272, 242
-0.999672, 319, 311, 334, 326
-0.999673, 167, 229, 182, 244
-0.999673, 149, 181, 164, 196
-0.999674, 197, 259, 212, 274
-0.999676, 285, 327, 300, 342
-0.999677, 225, 247, 240, 262
-0.999678, 79, 339, 94, 354
-0.99968, 485, 337, 500, 352
-0.99968, 149, 169, 164, 184
-0.999683, 129, 183, 144, 198
-0.999683, 217, 203, 232, 218
-0.999683, 279, 323, 294, 338
-0.999685, 219, 263, 234, 278
-0.999687, 65, 333, 80, 348
-0.999688, 279, 317, 294, 332
-0.999688, 113, 137, 128, 152
-0.999688, 467, 193, 482, 208
-0.99969, 323, 323, 338, 338
-0.999692, 213, 253, 228, 268
-0.999693, 159, 235, 174, 250
-0.999693, 405, 141, 420, 156
-0.9997, 295, 139, 310, 154
-0.999702, 411, 149, 426, 164
-0.999702, 141, 175, 156, 190
-0.999705, 307, 229, 322, 244
-0.999709, 413, 361, 428, 375
-0.999711, 145, 33, 176, 288
-0.999719, 149, 175, 164, 190
-0.999719, 133, 177, 148, 192
-0.999719, 409, 163, 424, 178
-0.999721, 211, 207, 226, 222
-0.999722, 257, 243, 272, 258
-0.999723, 257, 49, 500, 112
-0.999725, 217, 229, 232, 244
-0.999725, 145, 327, 160, 342
-0.999729, 73, 329, 88, 344
-0.999731, 203, 255, 218, 270
-0.999735, 151, 285, 166, 300
-0.999736, 345, 65, 408, 192
-0.999739, 149, 231, 164, 246
-0.999741, 253, 287, 268, 302
-0.999741, 413, 143, 428, 158
-0.999746, 103, 83, 118, 98
-0.999748, 421, 143, 436, 158
-0.999748, 139, 287, 154, 302
-0.999751, 411, 353, 426, 368
-0.999751, 203, 205, 218, 220
-0.999759, 195, 213, 210, 228
-0.999774, 257, 221, 272, 236
-0.999816, 169, 33, 200, 288
-0.999858, 317, 33, 348, 288
-0.999859, 305, 1, 432, 128
-0.999875, 121, 65, 184, 192
-0.999936, 129, 33, 192, 288
-0.999995, 157, 33, 188, 288
-1.00003, 329, 33, 360, 288
-1.00004, 125, 1, 156, 256
-1.00026, 233, 1, 264, 256
-1.00027, 269, 1, 300, 256
-1.00028, 241, 81, 368, 144
-1.00034, 197, 33, 228, 288
-1.00038, 1, 73, 500, 136
-1.00062, 345, 1, 376, 256
-1.00062, 357, 81, 388, 208
-1.00066, 129, 97, 384, 160
-1.00067, 313, 81, 344, 208
-1.0008, 225, 65, 288, 192
-1.00083, 1, 25, 500, 88
-1.00085, 17, 81, 48, 208
-1.00093, 221, 1, 252, 256
-1.00097, 337, 97, 368, 224
-1.00102, 273, 41, 400, 104
-1.00103, 161, 1, 416, 64
-1.00106, 97, 41, 352, 104
-1.00111, 97, 1, 224, 64
-1.00131, 241, 17, 368, 80
-1.00137, 181, 33, 212, 288
-1.00154, 113, 33, 240, 160
-1.00159, 209, 33, 240, 288
-1.00163, 429, 1, 460, 128
-1.00186, 105, 17, 168, 144
-1.00205, 193, 81, 320, 144
-1.00227, 217, 1, 280, 256
-1.00233, 157, 81, 188, 208
-1.00244, 1, 49, 500, 112
-1.00247, 409, 1, 440, 128
-1.00275, 169, 97, 200, 224
-1.00276, 161, 1, 288, 64
-1.00288, 113, 25, 240, 88
-1.0029, 225, 49, 352, 112
-1.00291, 177, 33, 304, 96
-1.00291, 129, 57, 256, 120
-1.00291, 177, 57, 304, 120
-1.00304, 145, 81, 272, 144
-1.00325, 337, 1, 400, 128
-1.00598, 161, 33, 288, 160
-1.00623, 241, 1, 368, 128
-1.00648, 145, 49, 208, 176
-1.00815, 313, 1, 376, 128
-1.01068, 169, 97, 232, 224
-1.01146, 289, 1, 352, 128
-1.01406, 233, 1, 296, 128
-1.01439, 169, 33, 232, 160
-1.01518, 209, 17, 272, 144
-1.01559, 145, 1, 208, 128
-1.01627, 265, 1, 328, 128
