1887
-0.475145, 1, 65, 500, 320
-0.546538, 1, 1, 500, 334
-0.638404, 257, 1, 500, 334
-0.647214, 65, 1, 320, 334
-0.689027, 161, 1, 416, 334
-0.701133, 129, 65, 384, 320
-0.724256, 257, 65, 500, 320
-0.779229, 33, 65, 288, 320
-0.877015, 1, 65, 128, 320
-0.884271, 209, 65, 336, 320
-0.892204, 1, 129, 500, 256
-0.900716, 161, 65, 288, 320
-0.9008, 1, 1, 128, 334
-0.905012, 257, 65, 384, 320
-0.907293, 305, 65, 432, 320
-0.909244, 49, 1, 176, 334
-0.909342, 1, 177, 500, 304
-0.911944, 97, 145, 352, 272
-0.914064, 305, 1, 432, 334
-0.914904, 145, 1, 272, 334
-0.915125, 225, 1, 352, 334
-0.915998, 1, 65, 500, 192
-0.920981, 353, 65, 480, 320
-0.921236, 97, 65, 224, 320
-0.928626, 97, 1, 224, 334
-0.929683, 369, 1, 496, 334
-0.930179, 257, 129, 500, 256
-0.93177, 49, 65, 176, 320
-0.932086, 265, 129, 328, 256
-0.936894, 177, 129, 304, 256
-0.940234, 1, 145, 256, 272
-0.94047, 97, 193, 352, 320
-0.942321, 225, 177, 480, 304
-0.943369, 129, 145, 256, 272
-0.94396, 1, 97, 128, 224
-0.944526, 217, 129, 280, 256
-0.944682, 81, 145, 208, 272
-0.945259, 161, 145, 224, 272
-0.945811, 225, 129, 352, 256
-0.946215, 129, 145, 192, 272
-0.947224, 1, 17, 500, 144
-0.948135, 89, 145, 152, 272
-0.948448, 241, 129, 304, 256
-0.950228, 65, 97, 320, 224
-0.95023, 33, 97, 96, 224
-0.951308, 193, 129, 256, 256
-0.95225, 273, 129, 400, 256
-0.952482, 241, 177, 368, 304
-0.953032, 241, 177, 304, 304
-0.954303, 289, 177, 352, 304
-0.955257, 1, 193, 256, 320
-0.956601, 297, 129, 360, 256
-0.957419, 273, 161, 336, 224
-0.957916, 1, 49, 64, 176
-0.958255, 65, 129, 128, 256
-0.958895, 33, 105, 96, 168
-0.959134, 265, 177, 328, 304
-0.959561, 401, 129, 464, 256
-0.959604, 33, 145, 160, 272
-0.959862, 193, 177, 320, 304
-0.961203, 257, 137, 320, 200
-0.961471, 321, 113, 448, 240
-0.961475, 105, 153, 168, 216
-0.963498, 153, 145, 216, 208
-0.964261, 281, 193, 344, 256
-0.964323, 257, 193, 320, 256
-0.964394, 177, 145, 240, 208
-0.965315, 129, 153, 192, 216
-0.966457, 129, 193, 192, 320
-0.967, 97, 97, 224, 224
-0.967145, 49, 193, 176, 320
-0.967176, 249, 161, 312, 224
-0.967338, 433, 113, 496, 240
-0.967417, 161, 97, 416, 224
-0.967464, 225, 137, 288, 200
-0.96763, 433, 193, 496, 320
-0.968673, 217, 193, 280, 320
-0.968891, 369, 113, 496, 240
-0.96952, 65, 145, 128, 208
-0.969749, 433, 233, 496, 296
-0.970139, 257, 81, 500, 208
-0.970249, 281, 137, 344, 200
-0.970462, 321, 161, 448, 288
-0.970651, 321, 129, 384, 256
-0.970799, 273, 129, 304, 256
-0.971093, 113, 193, 240, 320
-0.97123, 401, 121, 464, 184
-0.971619, 89, 193, 152, 320
-0.97163, 301, 129, 332, 256
-0.971803, 1, 49, 256, 176
-0.971999, 369, 209, 496, 334
-0.972151, 137, 177, 200, 240
-0.972191, 49, 97, 176, 224
-0.972433, 313, 193, 376, 320
-0.972503, 369, 193, 432, 320
-0.972593, 161, 145, 288, 208
-0.973277, 393, 193, 456, 320
-0.973295, 201, 145, 264, 208
-0.973622, 161, 153, 192, 216
-0.973969, 425, 113, 488, 176
-0.974068, 9, 81, 72, 144
-0.974092, 337, 193, 400, 320
-0.97413, 105, 177, 168, 240
-0.974159, 377, 113, 440, 240
-0.974199, 261, 129, 292, 256
-0.974559, 25, 65, 88, 320
-0.97468, 285, 129, 316, 256
-0.974844, 225, 161, 288, 224
-0.974865, 81, 161, 208, 224
-0.974969, 353, 113, 416, 240
-0.97512, 249, 129, 280, 256
-0.97541, 25, 49, 88, 176
-0.975417, 301, 161, 332, 224
-0.975452, 17, 17, 144, 144
-0.97546, 17, 33, 48, 160
-0.976306, 137, 145, 168, 272
-0.976388, 225, 137, 352, 200
-0.976421, 61, 105, 92, 168
-0.976584, 281, 137, 312, 200
-0.976629, 265, 65, 328, 320
-0.976663, 181, 145, 212, 272
-0.976686, 193, 81, 320, 208
-0.976983, 233, 193, 296, 256
-0.977059, 161, 145, 192, 272
-0.977217, 241, 65, 304, 320
-0.977296, 113, 201, 176, 264
-0.97749, 101, 145, 132, 272
-0.977527, 13, 41, 44, 104
-0.977567, 57, 81, 120, 208
-0.97779, 305, 129, 368, 192
-0.978004, 209, 201, 272, 264
-0.978081, 41, 129, 104, 192
-0.978217, 269, 185, 300, 248
-0.97837, 433, 209, 496, 272
-0.978403, 409, 217, 472, 280
-0.978766, 9, 97, 72, 224
-0.978773, 105, 97, 168, 224
-0.979001, 65, 97, 96, 224
-0.979144, 149, 145, 180, 272
-0.9792, 1, 49, 64, 112
-0.979204, 125, 145, 156, 272
-0.97937, 181, 145, 212, 208
-0.979438, 81, 177, 144, 240
-0.979481, 313, 177, 376, 240
-0.979641, 321, 209, 448, 334
-0.979685, 1, 1, 256, 128
-0.979707, 309, 193, 340, 256
-0.979731, 269, 177, 300, 304
-0.979815, 113, 145, 144, 272
-0.979914, 285, 161, 316, 224
-0.979991, 49, 65, 112, 320
-0.979995, 369, 161, 496, 288
-0.979998, 385, 217, 448, 280
-0.98019, 237, 145, 268, 208
-0.980275, 141, 153, 172, 216
-0.980298, 293, 137, 324, 200
-0.980456, 429, 121, 460, 184
-0.980462, 161, 97, 224, 224
-0.980471, 169, 169, 232, 232
-0.980476, 185, 177, 248, 304
-0.980794, 209, 161, 336, 224
-0.981084, 213, 129, 244, 256
-0.981244, 409, 129, 440, 256
-0.981296, 77, 129, 108, 256
-0.981521, 1, 33, 64, 288
-0.981562, 169, 201, 232, 264
-0.981593, 1, 113, 128, 176
-0.981602, 137, 201, 200, 264
-0.981681, 313, 177, 344, 304
-0.981682, 33, 57, 96, 120
-0.981719, 249, 137, 280, 200
-0.981772, 225, 129, 256, 256
-0.98178, 237, 129, 268, 256
-0.981896, 257, 177, 288, 304
-0.982032, 353, 217, 480, 280
-0.982088, 209, 193, 336, 256
-0.982205, 377, 129, 440, 192
-0.982267, 313, 201, 376, 264
-0.982339, 401, 65, 464, 320
-0.982345, 425, 129, 456, 256
-0.982372, 409, 129, 440, 192
-0.982391, 81, 201, 144, 264
-0.982408, 209, 65, 272, 320
-0.982413, 217, 145, 248, 208
-0.982425, 305, 65, 368, 320
-0.98254, 33, 145, 160, 208
-0.982607, 281, 201, 312, 264
-0.982689, 117, 153, 148, 216
-0.982895, 89, 145, 120, 272
-0.983026, 217, 81, 280, 208
-0.983079, 193, 145, 224, 208
-0.983096, 269, 161, 300, 224
-0.983102, 265, 217, 328, 280
-0.983103, 269, 137, 300, 200
-0.98321, 93, 153, 124, 216
-0.983302, 73, 121, 136, 184
-0.983412, 257, 161, 288, 224
-0.983445, 201, 121, 264, 184
-0.983457, 41, 97, 72, 224
-0.983524, 285, 177, 316, 304
-0.983536, 129, 169, 256, 232
-0.983552, 97, 129, 160, 192
-0.983563, 193, 145, 224, 272
-0.983585, 81, 185, 208, 248
-0.98359, 225, 225, 288, 288
-0.9836, 257, 81, 320, 208
-0.983633, 297, 177, 328, 304
-0.983663, 1, 209, 64, 334
-0.983866, 81, 65, 144, 192
-0.983916, 17, 57, 144, 120
-0.984015, 153, 193, 216, 320
-0.984038, 205, 145, 236, 208
-0.984069, 353, 121, 416, 184
-0.984088, 129, 129, 192, 192
-0.984146, 313, 129, 344, 256
-0.98444, 305, 129, 432, 192
-0.984493, 137, 97, 200, 224
-0.984569, 73, 129, 104, 192
-0.984653, 257, 201, 384, 264
-0.984743, 53, 97, 84, 224
-0.984794, 57, 193, 120, 320
-0.984838, 1, 1, 64, 334
-0.984867, 257, 193, 288, 256
-0.984883, 465, 225, 496, 288
-0.984977, 293, 193, 324, 256
-0.985026, 1, 41, 32, 104
-0.985055, 313, 153, 376, 216
-0.985056, 33, 209, 96, 334
-0.985067, 325, 129, 356, 256
-0.98519, 129, 153, 160, 216
-0.98521, 41, 105, 72, 168
-0.985224, 113, 137, 240, 200
-0.985262, 1, 193, 128, 320
-0.985383, 369, 121, 496, 184
-0.985467, 245, 201, 276, 264
-0.985486, 17, 233, 80, 296
-0.985617, 141, 177, 172, 240
-0.985691, 437, 113, 468, 240
-0.985711, 193, 169, 256, 232
-0.985729, 21, 81, 52, 144
-0.985829, 185, 225, 248, 288
-0.985851, 129, 209, 256, 272
-0.98601, 5, 33, 36, 160
-0.986013, 65, 121, 192, 184
-0.986021, 297, 81, 360, 208
-0.986033, 353, 233, 416, 296
-0.986041, 305, 177, 432, 240
-0.986051, 433, 257, 496, 320
-0.986063, 29, 81, 60, 208
-0.9861, 185, 65, 248, 320
-0.986254, 273, 81, 400, 208
-0.986503, 433, 65, 496, 320
-0.986557, 257, 161, 384, 224
-0.986647, 25, 33, 88, 96
-0.986676, 113, 65, 176, 320
-0.986813, 121, 193, 152, 320
-0.986845, 361, 65, 424, 320
-0.986888, 445, 225, 476, 288
-0.98689, 369, 65, 496, 192
-0.986912, 105, 153, 136, 216
-0.987009, 469, 113, 500, 240
-0.987015, 305, 137, 336, 200
-0.98704, 361, 209, 424, 272
-0.987099, 153, 177, 184, 240
-0.987123, 321, 169, 352, 232
-0.987168, 321, 225, 384, 288
-0.987188, 409, 81, 472, 208
-0.987275, 57, 201, 120, 264
-0.987379, 245, 177, 276, 304
-0.987511, 401, 241, 464, 304
-0.987573, 369, 241, 496, 304
-0.98763, 225, 225, 352, 288
-0.987696, 65, 225, 128, 288
-0.987769, 321, 65, 448, 192
-0.987844, 401, 185, 464, 248
-0.987872, 73, 89, 136, 152
-0.987883, 25, 1, 88, 128
-0.987977, 273, 225, 400, 288
-0.988046, 137, 65, 200, 320
-0.988076, 33, 81, 96, 144
-0.988122, 169, 121, 232, 184
-0.988267, 469, 113, 500, 176
-0.988317, 289, 217, 352, 280
-0.988415, 249, 141, 312, 172
-0.988437, 241, 113, 304, 176
-0.988464, 81, 209, 208, 272
-0.988547, 321, 193, 352, 256
-0.988568, 173, 169, 204, 232
-0.988602, 405, 193, 436, 320
-0.988666, 257, 217, 288, 280
-0.988741, 33, 193, 160, 256
-0.988766, 65, 49, 192, 176
-0.988781, 41, 241, 104, 304
-0.988897, 73, 65, 136, 320
-0.988905, 1, 89, 128, 152
-0.988972, 377, 105, 440, 168
-0.988986, 429, 217, 460, 280
-0.989092, 177, 241, 304, 304
-0.989124, 265, 161, 328, 192
-0.989151, 33, 217, 160, 280
-0.989198, 137, 157, 200, 188
-0.989214, 445, 121, 476, 184
-0.989233, 41, 145, 104, 272
-0.989318, 137, 193, 168, 320
-0.989359, 193, 81, 256, 208
-0.989425, 433, 65, 496, 192
-0.989486, 417, 217, 448, 280
-0.989563, 329, 129, 392, 192
-0.98968, 105, 165, 168, 196
-0.989853, 229, 209, 260, 272
-0.98986, 401, 145, 464, 208
-0.989893, 249, 197, 312, 228
-0.989932, 273, 197, 336, 228
-0.989958, 201, 149, 264, 180
-0.989982, 389, 161, 420, 288
-0.990016, 225, 145, 288, 176
-0.990029, 465, 209, 496, 334
-0.990164, 129, 177, 160, 240
-0.990194, 273, 149, 336, 180
-0.990207, 145, 81, 272, 208
-0.990222, 325, 177, 356, 304
-0.990236, 33, 105, 96, 136
-0.990251, 181, 97, 212, 224
-0.990262, 449, 113, 480, 240
-0.990291, 37, 65, 68, 128
-0.990295, 305, 201, 432, 264
-0.990352, 153, 193, 184, 320
-0.990423, 233, 157, 296, 188
-0.990428, 49, 1, 112, 334
-0.990482, 273, 185, 336, 216
-0.990482, 229, 121, 260, 184
-0.990491, 137, 225, 200, 288
-0.990516, 225, 249, 288, 312
-0.990565, 37, 33, 68, 160
-0.990586, 257, 1, 320, 334
-0.990595, 281, 173, 344, 204
-0.990606, 9, 105, 72, 168
-0.990614, 161, 153, 224, 184
-0.990639, 33, 169, 160, 232
-0.990649, 265, 241, 328, 304
-0.990722, 233, 193, 264, 320
-0.990739, 177, 121, 304, 184
-0.990749, 297, 197, 360, 228
-0.99075, 281, 113, 344, 176
-0.99076, 25, 57, 56, 120
-0.990776, 49, 137, 112, 168
-0.990819, 389, 113, 420, 240
-0.990883, 145, 169, 208, 200
-0.990901, 469, 161, 500, 288
-0.990939, 337, 201, 400, 264
-0.990982, 17, 33, 144, 96
-0.990996, 425, 145, 456, 208
-0.990999, 469, 257, 500, 320
-0.991004, 469, 201, 500, 264
-0.991035, 161, 33, 224, 288
-0.991044, 81, 157, 144, 188
-0.991047, 433, 229, 496, 260
-0.991064, 329, 65, 392, 320
-0.991083, 73, 105, 104, 168
-0.991086, 65, 153, 320, 216
-0.991104, 137, 201, 168, 264
-0.991179, 429, 193, 460, 320
-0.991192, 169, 165, 232, 196
-0.991216, 281, 1, 344, 334
-0.991227, 105, 177, 168, 208
-0.991245, 93, 185, 124, 248
-0.991245, 269, 209, 300, 272
-0.991291, 241, 169, 304, 200
-0.991332, 273, 137, 336, 168
-0.991341, 233, 1, 296, 334
-0.991392, 289, 161, 352, 192
-0.991393, 345, 193, 376, 320
-0.9914, 297, 149, 360, 180
-0.991401, 9, 97, 72, 128
-0.991406, 417, 193, 448, 320
-0.991445, 161, 129, 192, 192
-0.991452, 377, 241, 440, 304
-0.991494, 41, 125, 104, 156
-0.991498, 353, 193, 480, 256
-0.9915, 57, 49, 88, 176
-0.991511, 401, 1, 464, 334
-0.991518, 217, 169, 248, 232
-0.99152, 281, 209, 344, 240
-0.991538, 161, 97, 192, 224
-0.991546, 105, 153, 168, 184
-0.991559, 93, 97, 124, 224
-0.991573, 257, 209, 320, 240
-0.99159, 433, 245, 496, 276
-0.991649, 177, 217, 304, 280
-0.991685, 393, 141, 456, 172
-0.991735, 113, 205, 176, 236
-0.991757, 25, 61, 88, 92
-0.991794, 185, 169, 216, 232
-0.991828, 57, 149, 120, 180
-0.991834, 305, 153, 432, 216
-0.991839, 33, 89, 96, 120
-0.991839, 77, 81, 108, 208
-0.991861, 321, 241, 448, 304
-0.991872, 433, 217, 496, 248
-0.991873, 369, 113, 400, 240
-0.991874, 433, 129, 496, 160
-0.991882, 225, 189, 288, 220
-0.991882, 213, 177, 244, 304
-0.991894, 161, 145, 416, 208
-0.991902, 445, 209, 476, 334
-0.991916, 373, 193, 404, 320
-0.991934, 33, 209, 96, 272
-0.991936, 361, 193, 392, 320
-0.991936, 433, 1, 496, 334
-0.991937, 89, 197, 152, 228
-0.99195, 1, 85, 64, 116
-0.99195, 145, 197, 208, 228
-0.991953, 25, 1, 88, 334
-0.991961, 233, 209, 296, 240
-0.991976, 345, 229, 408, 260
-0.99198, 313, 185, 376, 216
-0.991994, 401, 125, 464, 156
-0.99202, 1, 45, 64, 76
-0.992048, 297, 137, 360, 168
-0.992052, 73, 233, 136, 264
-0.992097, 145, 185, 208, 216
-0.992111, 249, 185, 312, 216
-0.992129, 73, 121, 136, 152
-0.992134, 105, 193, 136, 320
-0.99215, 401, 221, 464, 252
-0.992153, 209, 209, 272, 240
-0.992169, 305, 233, 368, 264
-0.992171, 401, 241, 464, 272
-0.992187, 1, 57, 64, 88
-0.992188, 1, 25, 64, 88
-0.992208, 417, 105, 448, 168
-0.992217, 353, 145, 480, 208
-0.992219, 1, 145, 64, 272
-0.992222, 73, 1, 136, 334
-0.99225, 241, 225, 272, 288
-0.992252, 25, 73, 88, 104
-0.992255, 329, 217, 392, 248
-0.992263, 169, 205, 232, 236
-0.992276, 369, 141, 432, 172
-0.992279, 73, 217, 136, 248
-0.99229, 377, 125, 440, 156
-0.992308, 113, 177, 144, 240
-0.99231, 201, 137, 264, 168
-0.992316, 433, 117, 496, 148
-0.992338, 281, 141, 312, 172
-0.992366, 217, 201, 248, 264
-0.992384, 17, 49, 48, 80
-0.992395, 1, 185, 500, 248
-0.9924, 169, 189, 232, 220
-0.992419, 17, 233, 80, 264
-0.99243, 105, 249, 168, 280
-0.992434, 65, 197, 128, 228
-0.992438, 257, 237, 320, 268
-0.992448, 261, 141, 292, 172
-0.992462, 1, 1, 64, 128
-0.992463, 265, 201, 296, 232
-0.992464, 209, 161, 272, 192
-0.99247, 353, 145, 416, 208
-0.992486, 73, 109, 136, 140
-0.992488, 297, 165, 328, 196
-0.992494, 137, 157, 168, 188
-0.992504, 305, 209, 368, 240
-0.992522, 25, 49, 88, 80
-0.992528, 153, 201, 184, 264
-0.992533, 1, 73, 64, 104
-0.992539, 377, 245, 440, 276
-0.992545, 65, 89, 192, 152
-0.992557, 249, 145, 280, 176
-0.992559, 41, 237, 104, 268
-0.992564, 225, 113, 352, 176
-0.992566, 433, 257, 496, 288
-0.992571, 277, 157, 308, 188
-0.992578, 313, 161, 376, 192
-0.992592, 293, 145, 324, 176
-0.99261, 153, 157, 184, 188
-0.992628, 269, 189, 300, 220
-0.99263, 313, 245, 376, 276
-0.992633, 33, 121, 288, 184
-0.992636, 309, 197, 340, 228
-0.992636, 97, 1, 160, 334
-0.992653, 281, 229, 344, 260
-0.992656, 237, 149, 268, 180
-0.99266, 445, 201, 476, 264
-0.992666, 353, 129, 416, 160
-0.992668, 345, 113, 376, 240
-0.99267, 137, 129, 168, 192
-0.992673, 297, 197, 328, 228
-0.992684, 61, 105, 92, 136
-0.992692, 33, 241, 160, 304
-0.992698, 89, 141, 152, 172
-0.992698, 321, 105, 448, 168
-0.992701, 233, 237, 296, 268
-0.992703, 49, 217, 112, 248
-0.992704, 233, 225, 296, 256
-0.992705, 193, 197, 256, 228
-0.992726, 17, 257, 80, 320
-0.992728, 121, 189, 184, 220
-0.992731, 401, 209, 464, 240
-0.992736, 377, 217, 440, 248
-0.992745, 181, 153, 212, 184
-0.992749, 169, 153, 200, 184
-0.99275, 425, 125, 456, 156
-0.992764, 241, 129, 304, 160
-0.992772, 169, 177, 232, 208
-0.992772, 285, 201, 316, 232
-0.992776, 409, 253, 472, 284
-0.992788, 137, 209, 200, 240
-0.992791, 117, 161, 148, 192
-0.992791, 137, 145, 200, 176
-0.992806, 361, 177, 424, 240
-0.992823, 353, 241, 416, 272
-0.992824, 369, 229, 432, 260
-0.992829, 265, 249, 328, 280
-0.992834, 409, 133, 440, 164
-0.992852, 217, 145, 248, 176
-0.992854, 253, 197, 284, 228
-0.992858, 1, 45, 32, 76
-0.992876, 261, 153, 292, 184
-0.99288, 97, 157, 128, 188
-0.992889, 197, 149, 228, 180
-0.992901, 249, 157, 280, 188
-0.992905, 73, 137, 104, 168
-0.992916, 201, 229, 264, 260
-0.992916, 81, 249, 144, 280
-0.992919, 169, 217, 232, 248
-0.992928, 81, 153, 112, 216
-0.992944, 361, 205, 424, 236
-0.992944, 265, 165, 296, 196
-0.992945, 9, 109, 72, 140
-0.992947, 65, 169, 128, 200
-0.992948, 145, 169, 176, 200
-0.992957, 45, 109, 76, 140
-0.992958, 257, 129, 500, 192
-0.992961, 201, 245, 264, 276
-0.992964, 309, 209, 340, 240
-0.992965, 21, 85, 52, 116
-0.992972, 285, 169, 316, 200
-0.992984, 269, 177, 300, 208
-0.992987, 301, 185, 332, 216
-0.993, 73, 185, 136, 216
-0.993006, 321, 197, 384, 228
-0.993015, 289, 213, 320, 244
-0.993017, 281, 189, 312, 220
-0.993029, 137, 241, 200, 272
-0.993031, 105, 217, 168, 248
-0.993033, 329, 133, 392, 164
-0.993036, 309, 169, 340, 200
-0.993048, 241, 249, 304, 280
-0.993069, 1, 201, 64, 264
-0.993071, 85, 149, 116, 180
-0.993074, 469, 225, 500, 256
-0.993076, 65, 117, 96, 148
-0.993076, 33, 101, 64, 132
-0.993076, 305, 173, 368, 204
-0.993079, 217, 177, 280, 208
-0.993086, 433, 185, 496, 248
-0.993086, 321, 197, 352, 228
-0.99309, 141, 201, 172, 232
-0.993093, 305, 149, 336, 180
-0.993093, 49, 253, 112, 284
-0.993103, 249, 209, 280, 240
-0.993113, 305, 221, 368, 252
-0.993114, 401, 197, 464, 228
-0.993121, 133, 169, 164, 200
-0.993127, 161, 169, 192, 200
-0.993128, 33, 65, 64, 96
-0.993129, 289, 245, 352, 276
-0.993143, 261, 213, 292, 244
-0.993153, 353, 1, 416, 334
-0.993156, 393, 157, 456, 188
-0.99316, 49, 185, 112, 216
-0.993161, 177, 237, 240, 268
-0.993166, 17, 73, 48, 104
-0.993167, 177, 169, 208, 200
-0.993173, 25, 221, 88, 252
-0.993175, 437, 133, 468, 164
-0.993176, 193, 173, 256, 204
-0.993177, 177, 141, 240, 172
-0.993196, 421, 141, 452, 172
-0.993205, 161, 181, 192, 212
-0.99321, 353, 153, 416, 184
-0.993212, 97, 225, 160, 288
-0.993213, 93, 197, 124, 228
-0.993216, 129, 201, 160, 232
-0.993217, 161, 197, 192, 228
-0.993221, 425, 141, 488, 172
-0.993223, 469, 241, 500, 272
-0.993226, 5, 33, 36, 64
-0.993229, 189, 165, 220, 196
-0.993236, 125, 201, 156, 264
-0.99324, 249, 169, 280, 200
-0.993244, 333, 229, 364, 260
-0.993247, 453, 225, 484, 256
-0.993248, 145, 189, 176, 220
-0.993248, 117, 205, 148, 236
-0.993249, 257, 185, 288, 216
-0.993251, 33, 205, 96, 236
-0.993259, 1, 217, 64, 248
-0.993262, 433, 221, 464, 252
-0.993279, 17, 61, 48, 92
-0.99328, 345, 233, 376, 264
-0.993282, 153, 209, 184, 240
-0.993283, 97, 237, 160, 268
-0.99329, 293, 133, 324, 164
-0.993291, 25, 257, 88, 288
-0.993298, 313, 185, 344, 216
-0.993298, 81, 121, 112, 152
-0.993299, 337, 225, 368, 288
-0.993302, 209, 1, 272, 334
-0.993302, 113, 245, 144, 276
-0.993306, 177, 197, 208, 228
-0.993311, 237, 209, 268, 240
-0.993314, 57, 97, 120, 128
-0.993341, 437, 121, 468, 152
-0.993353, 257, 237, 288, 268
-0.993353, 21, 97, 52, 128
-0.993363, 117, 149, 148, 180
-0.993364, 305, 1, 368, 334
-0.993368, 417, 221, 448, 252
-0.993369, 213, 165, 244, 196
-0.99337, 469, 213, 500, 244
-0.993373, 197, 205, 228, 236
-0.993376, 237, 137, 268, 168
-0.993378, 249, 221, 280, 252
-0.993384, 201, 97, 232, 224
-0.993391, 41, 89, 72, 120
-0.993395, 377, 65, 440, 192
-0.993397, 305, 137, 336, 168
-0.993398, 345, 245, 376, 276
-0.993398, 397, 241, 428, 272
-0.993398, 269, 129, 300, 160
-0.993402, 161, 201, 416, 264
-0.993405, 425, 81, 456, 208
-0.993406, 237, 161, 268, 192
-0.993408, 441, 237, 472, 268
-0.993409, 221, 209, 252, 240
-0.993411, 273, 213, 304, 244
-0.993416, 169, 1, 232, 334
-0.993416, 317, 137, 348, 200
-0.993417, 133, 189, 164, 220
-0.99342, 469, 129, 500, 160
-0.993423, 97, 185, 128, 216
-0.993424, 109, 177, 140, 208
-0.993431, 425, 241, 456, 272
-0.993434, 409, 145, 440, 176
-0.993434, 405, 121, 436, 152
-0.993436, 245, 237, 276, 268
-0.993436, 129, 1, 192, 334
-0.993436, 1, 145, 500, 208
-0.993437, 5, 57, 36, 88
-0.993438, 325, 241, 356, 272
-0.993442, 161, 149, 288, 180
-0.993446, 289, 237, 320, 268
-0.993446, 465, 253, 496, 284
-0.99345, 445, 213, 476, 244
-0.993451, 353, 217, 384, 248
-0.993455, 249, 133, 280, 164
-0.993461, 377, 229, 408, 260
-0.993462, 425, 137, 488, 200
-0.993463, 269, 237, 300, 268
-0.993466, 133, 213, 164, 244
-0.993479, 281, 129, 312, 160
-0.993479, 129, 237, 160, 268
-0.993481, 397, 201, 428, 264
-0.993484, 93, 209, 124, 240
-0.99349, 61, 129, 92, 160
-0.993491, 17, 37, 48, 68
-0.993497, 105, 205, 136, 236
-0.993498, 225, 165, 256, 196
-0.993499, 209, 197, 240, 228
-0.9935, 165, 193, 196, 256
-0.993501, 313, 245, 344, 276
-0.993503, 441, 253, 472, 284
-0.993505, 33, 53, 64, 84
-0.993508, 469, 265, 500, 296
-0.993513, 53, 93, 84, 124
-0.993514, 145, 145, 176, 176
-0.993628, 205, 217, 236, 280
-0.993715, 53, 81, 84, 144
-0.993729, 1, 17, 32, 80
-0.993746, 85, 121, 116, 184
-0.993751, 293, 81, 324, 208
-0.993873, 177, 193, 208, 256
-0.993897, 217, 121, 248, 184
-0.993916, 401, 97, 464, 160
-0.993971, 269, 81, 300, 208
-0.99404, 297, 241, 360, 304
-0.994094, 37, 41, 68, 104
-0.994108, 409, 81, 440, 208
-0.994115, 257, 217, 500, 280
-0.994118, 377, 1, 440, 334
-0.994173, 49, 169, 112, 232
-0.994174, 65, 177, 320, 240
-0.994191, 241, 169, 272, 232
-0.994232, 209, 145, 336, 176
-0.994258, 349, 225, 380, 288
-0.994301, 129, 233, 256, 296
-0.994316, 97, 129, 128, 192
-0.994327, 29, 49, 44, 112
-0.994353, 193, 201, 224, 264
-0.994436, 457, 113, 488, 176
-0.994459, 229, 169, 260, 232
-0.994471, 201, 121, 232, 184
-0.994543, 313, 161, 328, 224
-0.994547, 445, 161, 476, 288
-0.994574, 33, 209, 288, 272
-0.994596, 241, 249, 368, 312
-0.994596, 229, 233, 260, 296
-0.994612, 5, 233, 36, 296
-0.994704, 73, 105, 88, 168
-0.994708, 161, 225, 224, 288
-0.994718, 205, 169, 236, 232
-0.994727, 81, 157, 208, 188
-0.994728, 469, 153, 500, 216
-0.99473, 109, 97, 140, 224
-0.994784, 77, 201, 108, 264
-0.994813, 291, 137, 306, 200
-0.994823, 161, 169, 416, 232
-0.994823, 333, 201, 364, 264
-0.994848, 293, 113, 324, 176
-0.99489, 285, 201, 300, 264
-0.994915, 377, 153, 440, 216
-0.994933, 281, 81, 312, 208
-0.994952, 301, 137, 316, 200
-0.994967, 37, 225, 68, 288
-0.994991, 33, 209, 64, 334
-0.995, 181, 145, 196, 208
-0.99502, 163, 153, 178, 216
-0.995022, 441, 97, 472, 160
-0.995045, 361, 217, 392, 280
-0.995048, 307, 137, 322, 200
-0.995074, 113, 201, 144, 264
-0.995106, 303, 161, 318, 224
-0.995108, 319, 193, 334, 256
-0.99515, 1, 265, 128, 328
-0.995192, 265, 113, 296, 176
-0.995199, 61, 129, 92, 192
-0.995208, 175, 153, 190, 216
-0.995244, 329, 1, 392, 334
-0.995244, 23, 41, 38, 104
-0.995247, 293, 169, 308, 232
-0.995249, 377, 241, 408, 304
-0.99526, 433, 89, 496, 152
-0.995304, 97, 173, 224, 204
-0.995319, 155, 153, 170, 216
-0.995338, 1, 105, 500, 168
-0.995343, 257, 81, 288, 208
-0.995374, 267, 193, 282, 256
-0.995384, 267, 169, 282, 232
-0.995387, 433, 241, 464, 304
-0.995392, 257, 241, 288, 304
-0.995414, 357, 129, 388, 256
-0.995419, 257, 177, 500, 240
-0.995438, 181, 121, 212, 184
-0.995445, 229, 145, 244, 208
-0.995451, 33, 73, 48, 136
-0.995452, 81, 113, 96, 176
-0.995483, 69, 209, 100, 334
-0.995503, 169, 153, 184, 216
-0.995509, 319, 169, 334, 232
-0.99554, 329, 249, 392, 312
-0.995565, 121, 129, 152, 192
-0.995572, 397, 129, 428, 192
-0.995601, 345, 129, 376, 192
-0.995615, 177, 165, 304, 196
-0.995634, 137, 97, 168, 224
-0.995637, 223, 145, 238, 208
-0.995637, 107, 153, 122, 216
-0.995652, 299, 201, 314, 264
-0.995654, 425, 161, 488, 224
-0.995667, 281, 225, 312, 288
-0.995673, 425, 193, 456, 256
-0.995681, 277, 185, 292, 248
-0.995705, 285, 137, 300, 200
-0.99571, 29, 105, 60, 168
-0.995721, 205, 193, 236, 256
-0.995735, 349, 201, 380, 264
-0.995748, 1, 65, 256, 128
-0.995764, 17, 41, 32, 104
-0.995791, 313, 185, 328, 248
-0.995797, 405, 105, 436, 168
-0.995803, 369, 97, 496, 160
-0.995831, 217, 145, 232, 208
-0.995835, 101, 153, 116, 216
-0.995846, 441, 113, 456, 176
-0.995865, 165, 193, 196, 320
-0.99587, 187, 145, 202, 208
-0.995871, 279, 161, 294, 224
-0.995878, 373, 209, 404, 272
-0.995886, 293, 201, 308, 264
-0.995895, 129, 161, 256, 192
-0.995896, 143, 153, 158, 216
-0.995908, 313, 81, 344, 208
-0.995908, 43, 97, 58, 160
-0.995927, 457, 65, 488, 192
-0.995934, 113, 153, 128, 216
-0.995955, 121, 97, 152, 224
-0.995957, 361, 129, 392, 192
-0.995962, 273, 105, 400, 168
-0.995966, 65, 97, 80, 160
-0.995968, 17, 149, 144, 180
-0.995972, 91, 145, 106, 208
-0.995975, 1, 41, 16, 104
-0.99598, 193, 145, 208, 208
-0.995983, 225, 161, 352, 192
-0.995992, 129, 113, 256, 176
-0.995994, 277, 137, 292, 200
-0.995999, 469, 17, 500, 144
-0.996003, 385, 121, 416, 184
-0.996017, 209, 197, 336, 228
-0.996024, 369, 265, 496, 328
-0.996063, 257, 145, 384, 176
-0.996075, 55, 105, 70, 168
-0.996081, 421, 129, 436, 192
-0.996096, 241, 209, 368, 240
-0.996102, 147, 177, 162, 240
-0.996123, 149, 129, 180, 192
-0.996124, 457, 161, 488, 288
-0.996152, 233, 81, 264, 208
-0.996156, 239, 137, 254, 200
-0.996158, 257, 201, 272, 264
-0.99616, 149, 97, 180, 224
-0.996183, 201, 249, 264, 312
-0.996211, 209, 145, 224, 208
-0.996211, 261, 137, 276, 200
-0.996211, 393, 209, 424, 334
-0.996213, 81, 185, 208, 216
-0.996218, 307, 185, 322, 248
-0.996242, 13, 17, 44, 80
-0.996249, 65, 205, 192, 236
-0.996251, 301, 217, 332, 280
-0.996254, 65, 249, 128, 312
-0.996255, 369, 169, 496, 232
-0.996277, 325, 177, 340, 240
-0.996286, 267, 137, 282, 200
-0.99629, 249, 145, 264, 208
-0.996291, 7, 41, 22, 104
-0.996297, 83, 137, 98, 200
-0.996297, 479, 225, 494, 288
-0.996323, 201, 145, 216, 208
-0.996341, 1, 137, 128, 168
-0.996345, 389, 225, 420, 288
-0.996345, 401, 233, 432, 296
-0.99636, 435, 113, 450, 176
-0.996364, 49, 105, 64, 168
-0.996374, 53, 177, 84, 304
-0.996386, 17, 129, 80, 192
-0.996417, 457, 201, 488, 264
-0.996451, 285, 161, 300, 224
-0.996455, 325, 233, 356, 296
-0.996476, 149, 153, 164, 216
-0.996487, 445, 65, 476, 192
-0.996508, 137, 153, 152, 216
-0.996508, 485, 225, 500, 288
-0.996511, 169, 257, 232, 320
-0.996514, 119, 153, 134, 216
-0.996524, 369, 221, 496, 252
-0.996527, 409, 177, 440, 240
-0.996542, 161, 233, 416, 296
-0.99655, 81, 141, 208, 172
-0.996567, 273, 161, 288, 224
-0.996611, 183, 169, 198, 232
-0.996624, 1, 125, 128, 156
-0.996675, 17, 69, 144, 100
-0.996676, 257, 197, 384, 228
-0.996683, 447, 225, 462, 288
-0.996703, 329, 81, 392, 208
-0.996704, 281, 113, 312, 176
-0.996726, 9, 209, 40, 334
-0.996728, 109, 129, 140, 192
-0.996734, 137, 177, 152, 240
-0.99674, 461, 225, 476, 288
-0.996749, 145, 265, 272, 328
-0.996759, 81, 233, 208, 296
-0.996776, 39, 65, 54, 128
-0.996784, 255, 129, 270, 192
-0.996786, 137, 249, 200, 312
-0.996802, 113, 197, 240, 228
-0.996814, 1, 217, 500, 280
-0.996852, 329, 137, 360, 200
-0.996864, 485, 257, 500, 320
-0.996874, 261, 161, 276, 224
-0.996908, 1, 109, 128, 140
-0.996913, 289, 65, 320, 320
-0.996925, 113, 249, 176, 312
-0.996926, 453, 225, 468, 288
-0.996945, 225, 177, 352, 208
-0.996962, 373, 121, 404, 184
-0.996963, 57, 65, 88, 320
-0.996975, 65, 121, 192, 152
-0.996987, 241, 201, 256, 264
-0.996998, 13, 1, 44, 256
-0.997002, 261, 65, 292, 320
-0.997009, 127, 161, 142, 224
-0.997031, 1, 241, 500, 304
-0.997034, 141, 201, 156, 264
-0.997043, 483, 121, 498, 184
-0.997051, 33, 233, 288, 296
-0.997071, 433, 217, 448, 280
-0.997099, 1, 209, 32, 272
-0.997107, 161, 205, 288, 236
-0.997114, 289, 133, 416, 164
-0.997114, 337, 241, 464, 272
-0.997117, 313, 129, 328, 192
-0.997124, 1, 9, 128, 72
-0.997134, 113, 213, 240, 244
-0.997141, 439, 217, 454, 280
-0.997145, 257, 241, 500, 304
-0.997158, 325, 201, 340, 264
-0.99716, 33, 97, 288, 160
-0.997167, 301, 65, 332, 320
-0.99718, 153, 177, 168, 240
-0.997184, 17, 85, 144, 116
-0.997184, 161, 193, 288, 224
-0.99719, 1, 177, 64, 240
-0.997205, 45, 65, 76, 320
-0.997206, 305, 189, 432, 220
-0.997211, 255, 153, 270, 216
-0.997212, 33, 161, 160, 192
-0.997213, 273, 65, 304, 320
-0.997214, 309, 209, 324, 272
-0.997218, 29, 65, 60, 320
-0.997226, 301, 161, 316, 192
-0.997228, 251, 201, 266, 264
-0.997231, 321, 229, 448, 260
-0.997237, 93, 193, 124, 320
-0.997241, 265, 217, 280, 280
-0.997246, 413, 121, 428, 184
-0.99726, 417, 217, 432, 280
-0.997299, 181, 193, 212, 320
-0.997303, 233, 201, 248, 264
-0.997307, 241, 133, 368, 164
-0.997314, 145, 181, 272, 212
-0.997316, 49, 265, 176, 328
-0.997354, 173, 177, 188, 240
-0.997354, 247, 225, 262, 288
-0.997359, 427, 113, 442, 176
-0.99736, 117, 177, 132, 240
-0.997365, 431, 137, 446, 200
-0.997368, 241, 229, 368, 260
-0.997388, 17, 57, 144, 88
-0.997388, 293, 141, 308, 172
-0.997394, 423, 217, 438, 280
-0.997405, 467, 217, 482, 280
-0.997423, 349, 217, 364, 280
-0.99745, 249, 65, 280, 320
-0.997469, 107, 177, 122, 240
-0.997472, 251, 149, 266, 180
-0.997476, 321, 217, 448, 248
-0.997477, 201, 193, 232, 320
-0.997478, 89, 249, 152, 312
-0.99749, 193, 233, 320, 264
-0.997491, 241, 225, 256, 288
-0.997491, 287, 141, 302, 172
-0.997493, 161, 217, 288, 248
-0.997516, 261, 141, 276, 172
-0.997518, 193, 133, 320, 164
-0.997521, 257, 233, 272, 296
-0.997523, 151, 157, 166, 188
-0.997532, 309, 165, 324, 196
-0.997536, 39, 41, 54, 104
-0.997538, 267, 197, 282, 228
-0.997541, 5, 45, 20, 76
-0.997547, 235, 161, 250, 224
-0.99755, 485, 153, 500, 216
-0.997555, 1, 1, 32, 256
-0.997555, 225, 273, 352, 334
-0.997565, 243, 161, 258, 224
-0.997574, 485, 25, 500, 88
-0.997579, 469, 65, 500, 192
-0.997584, 339, 201, 354, 264
-0.997587, 317, 197, 332, 228
-0.997588, 337, 125, 464, 156
-0.997603, 75, 129, 90, 192
-0.997604, 29, 25, 44, 88
-0.997612, 159, 177, 174, 240
-0.997623, 227, 201, 242, 264
-0.997641, 69, 65, 100, 320
-0.997651, 319, 137, 334, 200
-0.997655, 225, 169, 240, 232
-0.997666, 139, 157, 154, 188
-0.997669, 273, 197, 288, 228
-0.997677, 299, 141, 314, 172
-0.997685, 281, 189, 296, 220
-0.997686, 289, 201, 304, 232
-0.99769, 449, 113, 464, 176
-0.997696, 257, 153, 500, 216
-0.997699, 273, 169, 400, 200
-0.9977, 281, 141, 296, 172
-0.997704, 145, 157, 160, 188
-0.997706, 273, 209, 288, 272
-0.997709, 183, 153, 198, 184
-0.997718, 29, 53, 44, 84
-0.997725, 37, 97, 52, 160
-0.997725, 25, 153, 88, 216
-0.99773, 303, 201, 318, 232
-0.997735, 249, 121, 264, 184
-0.997754, 11, 17, 26, 80
-0.997761, 51, 81, 66, 144
-0.997764, 217, 65, 248, 320
-0.997771, 177, 245, 304, 276
-0.997786, 293, 169, 308, 200
-0.997796, 329, 105, 392, 168
-0.997799, 229, 121, 244, 184
-0.997799, 1, 41, 256, 104
-0.997806, 161, 157, 176, 188
-0.997809, 237, 65, 268, 320
-0.997812, 287, 153, 302, 184
-0.997838, 175, 129, 190, 192
-0.997845, 245, 149, 260, 180
-0.997846, 471, 129, 486, 192
-0.997849, 97, 129, 112, 192
-0.99785, 275, 149, 290, 180
-0.997851, 481, 201, 496, 264
-0.997857, 217, 81, 248, 208
-0.997865, 33, 229, 160, 260
-0.99787, 97, 257, 224, 320
-0.99787, 191, 185, 206, 248
-0.997872, 473, 225, 488, 288
-0.997873, 33, 85, 48, 116
-0.997874, 273, 157, 400, 188
-0.997877, 267, 157, 282, 188
-0.997884, 409, 65, 440, 320
-0.997886, 267, 141, 282, 172
-0.997895, 479, 265, 494, 328
-0.997896, 485, 1, 500, 64
-0.997899, 177, 157, 192, 188
-0.997905, 307, 149, 322, 180
-0.997909, 223, 121, 238, 184
-0.997913, 21, 41, 36, 72
-0.997921, 265, 209, 280, 240
-0.997927, 425, 65, 456, 320
-0.997936, 269, 185, 284, 216
-0.997937, 281, 201, 296, 232
-0.997952, 83, 133, 98, 164
-0.997984, 189, 153, 204, 184
-0.998003, 259, 205, 274, 236
-0.998003, 1, 153, 64, 216
-0.998004, 77, 113, 92, 144
-0.998011, 65, 109, 192, 140
-0.998027, 239, 153, 254, 184
-0.998043, 337, 169, 400, 232
-0.998046, 33, 185, 160, 216
-0.998048, 305, 145, 432, 176
-0.99805, 117, 161, 132, 192
-0.998051, 133, 157, 148, 188
-0.998052, 273, 165, 288, 196
-0.998053, 49, 173, 176, 204
-0.998058, 305, 265, 432, 328
-0.998061, 151, 173, 166, 204
-0.998061, 305, 105, 368, 168
-0.998068, 305, 205, 432, 236
-0.998069, 275, 177, 290, 208
-0.998075, 311, 181, 326, 212
-0.998081, 1, 173, 128, 204
-0.998086, 225, 105, 480, 168
-0.998087, 1, 41, 128, 72
-0.998093, 233, 145, 248, 176
-0.998099, 41, 101, 56, 132
-0.9981, 91, 145, 106, 176
-0.998101, 353, 137, 480, 168
-0.998103, 429, 125, 444, 156
-0.998105, 421, 133, 436, 164
-0.998116, 49, 241, 176, 272
-0.998121, 319, 169, 334, 200
-0.998122, 167, 157, 182, 188
-0.998127, 129, 121, 384, 184
-0.998129, 97, 153, 112, 184
-0.998129, 195, 153, 210, 184
-0.99813, 1, 81, 500, 144
-0.998132, 323, 197, 338, 228
-0.998138, 485, 277, 500, 308
-0.998139, 311, 201, 326, 232
-0.998145, 313, 65, 344, 320
-0.998145, 241, 241, 368, 272
-0.998149, 37, 65, 52, 96
-0.998152, 139, 205, 154, 236
-0.998158, 293, 157, 308, 188
-0.99817, 65, 217, 192, 248
-0.998171, 481, 225, 496, 256
-0.998179, 1, 97, 128, 128
-0.998184, 261, 153, 276, 184
-0.9982, 279, 165, 294, 196
-0.998203, 217, 145, 232, 176
-0.998206, 53, 109, 68, 140
-0.99821, 275, 137, 290, 168
-0.998219, 129, 241, 256, 272
-0.998224, 469, 65, 500, 320
-0.998238, 31, 73, 46, 104
-0.998239, 297, 201, 312, 232
-0.998247, 317, 185, 332, 216
-0.998251, 289, 241, 416, 272
-0.998251, 59, 105, 74, 136
-0.99826, 47, 105, 62, 136
-0.998272, 227, 145, 242, 176
-0.998279, 287, 189, 302, 220
-0.998284, 15, 41, 30, 72
-0.998284, 201, 149, 216, 180
-0.998289, 83, 121, 98, 152
-0.998291, 263, 169, 278, 200
-0.998303, 81, 193, 112, 320
-0.998305, 127, 161, 142, 192
-0.998308, 261, 219, 292, 234
-0.99831, 181, 177, 212, 192
-0.99831, 111, 161, 126, 192
-0.998313, 121, 167, 152, 182
-0.998313, 37, 61, 68, 76
-0.998313, 469, 23, 500, 38
-0.998314, 153, 211, 184, 226
-0.998314, 469, 221, 500, 236
-0.998314, 61, 121, 92, 136
-0.998315, 333, 231, 364, 246
-0.998316, 277, 243, 308, 258
-0.998317, 451, 225, 466, 256
-0.998318, 209, 149, 224, 180
-0.99832, 301, 159, 332, 174
-0.99832, 189, 215, 220, 230
-0.99832, 469, 245, 500, 260
-0.99832, 309, 149, 340, 164
-0.99832, 249, 197, 280, 212
-0.998322, 305, 183, 336, 198
-0.998323, 117, 211, 148, 226
-0.998323, 303, 173, 318, 204
-0.998324, 437, 131, 468, 146
-0.998324, 469, 163, 500, 178
-0.998324, 289, 157, 320, 172
-0.998325, 33, 67, 64, 82
-0.998326, 469, 237, 500, 252
-0.998327, 273, 185, 304, 200
-0.998328, 425, 123, 456, 138
-0.998329, 133, 211, 164, 226
-0.998329, 153, 203, 184, 218
-0.99833, 345, 229, 360, 260
-0.99833, 249, 241, 280, 256
-0.998331, 157, 165, 188, 180
-0.998333, 121, 173, 152, 188
-0.998334, 293, 151, 324, 166
-0.998335, 157, 173, 172, 204
-0.998336, 109, 249, 140, 264
-0.998336, 329, 203, 360, 218
-0.998337, 237, 239, 268, 254
-0.998338, 161, 183, 192, 198
-0.998341, 261, 185, 292, 200
-0.998341, 287, 165, 302, 196
-0.998341, 49, 101, 80, 116
-0.998341, 345, 231, 376, 246
-0.998342, 17, 197, 144, 228
-0.998343, 17, 65, 48, 80
-0.998345, 137, 177, 168, 192
-0.998345, 289, 139, 320, 154
-0.998346, 173, 169, 204, 184
-0.998348, 185, 167, 216, 182
-0.998349, 37, 91, 68, 106
-0.998349, 265, 241, 296, 256
-0.998349, 255, 137, 270, 168
-0.99835, 245, 165, 276, 180
-0.99835, 105, 161, 136, 176
-0.998351, 161, 177, 192, 192
-0.998351, 41, 109, 72, 124
-0.998355, 237, 159, 268, 174
-0.998356, 17, 77, 48, 92
-0.998356, 149, 177, 180, 192
-0.998357, 437, 65, 468, 320
-0.998357, 81, 125, 112, 140
-0.998357, 61, 131, 92, 146
-0.998358, 281, 193, 312, 208
-0.998358, 261, 139, 292, 154
-0.998361, 153, 159, 184, 174
-0.998362, 273, 201, 336, 216
-0.998362, 33, 73, 64, 88
-0.998363, 305, 177, 336, 192
-0.998365, 73, 143, 104, 158
-0.99837, 425, 143, 456, 158
-0.99837, 133, 165, 164, 180
-0.998371, 69, 101, 84, 132
-0.998372, 21, 89, 52, 104
-0.998372, 321, 195, 352, 210
-0.998373, 11, 53, 26, 84
-0.998373, 437, 137, 468, 152
-0.998373, 147, 189, 162, 220
-0.998374, 129, 245, 160, 260
-0.998381, 77, 149, 108, 164
-0.998381, 249, 209, 280, 224
-0.998381, 281, 153, 296, 184
-0.998382, 325, 65, 356, 320
-0.998383, 261, 167, 292, 182
-0.998383, 261, 151, 292, 166
-0.998383, 169, 155, 200, 170
-0.998383, 273, 151, 304, 166
-0.998384, 293, 181, 324, 196
-0.998384, 133, 205, 164, 220
-0.998384, 201, 149, 232, 164
-0.998385, 281, 173, 312, 188
-0.998389, 277, 159, 308, 174
-0.99839, 261, 213, 292, 228
-0.99839, 5, 41, 36, 56
-0.998391, 409, 143, 440, 158
-0.998392, 21, 97, 52, 112
-0.998392, 93, 155, 124, 170
-0.998394, 21, 47, 52, 62
-0.998395, 291, 213, 306, 244
-0.998396, 469, 227, 500, 242
-0.998398, 293, 197, 324, 212
-0.998399, 29, 103, 60, 118
-0.9984, 421, 137, 452, 152
-0.998401, 1, 53, 32, 68
-0.998402, 117, 161, 148, 176
-0.998411, 17, 59, 48, 74
-0.998412, 141, 157, 172, 172
-0.998413, 77, 129, 92, 160
-0.998413, 181, 153, 212, 168
-0.998414, 153, 171, 184, 186
-0.998414, 433, 1, 496, 64
-0.998417, 21, 209, 52, 334
-0.998417, 157, 65, 188, 320
-0.998417, 65, 115, 96, 130
-0.998421, 117, 245, 132, 276
-0.998421, 17, 83, 48, 98
-0.998425, 69, 137, 100, 152
-0.998425, 61, 107, 92, 122
-0.998426, 317, 201, 348, 216
-0.998426, 269, 191, 300, 206
-0.998427, 425, 131, 456, 146
-0.99843, 353, 149, 480, 180
-0.99843, 273, 209, 304, 224
-0.998433, 237, 147, 268, 162
-0.998436, 283, 177, 298, 208
-0.998438, 289, 209, 320, 224
-0.998438, 129, 159, 160, 174
-0.998438, 137, 171, 168, 186
-0.99844, 249, 151, 280, 166
-0.99844, 433, 221, 448, 252
-0.99844, 257, 203, 288, 218
-0.998441, 293, 185, 308, 216
-0.998442, 309, 195, 340, 210
-0.998444, 305, 171, 336, 186
-0.998444, 261, 145, 292, 160
-0.998444, 257, 161, 288, 176
-0.998446, 103, 157, 118, 188
-0.99845, 289, 163, 320, 178
-0.99845, 257, 163, 320, 178
-0.998453, 409, 137, 440, 152
-0.998457, 301, 209, 332, 224
-0.998465, 221, 147, 252, 162
-0.998467, 273, 179, 304, 194
-0.998467, 313, 207, 344, 222
-0.998469, 143, 169, 158, 200
-0.998473, 255, 161, 270, 192
-0.998475, 183, 173, 198, 204
-0.998475, 237, 153, 268, 168
-0.998476, 273, 141, 304, 156
-0.998476, 173, 197, 188, 228
-0.998477, 131, 209, 146, 240
-0.99848, 305, 137, 320, 168
-0.99848, 249, 143, 280, 158
-0.998486, 249, 201, 312, 216
-0.998489, 321, 177, 448, 208
-0.998492, 261, 197, 292, 212
-0.998492, 319, 209, 334, 240
-0.998493, 289, 145, 320, 160
-0.998494, 273, 175, 336, 190
-0.998497, 273, 165, 304, 180
-0.998504, 249, 143, 312, 158
-0.998505, 201, 149, 264, 164
-0.998506, 273, 195, 336, 210
-0.998508, 441, 217, 456, 248
-0.998509, 301, 165, 332, 180
-0.99851, 303, 213, 318, 244
-0.998515, 9, 47, 40, 62
-0.99852, 439, 125, 454, 156
-0.998521, 159, 197, 174, 228
-0.998523, 297, 201, 360, 216
-0.998523, 293, 173, 324, 188
-0.998524, 265, 169, 328, 184
-0.99853, 145, 201, 160, 232
-0.998535, 137, 157, 200, 172
-0.998537, 293, 203, 324, 218
-0.99855, 261, 193, 276, 224
-0.998551, 169, 169, 184, 200
-0.998551, 289, 167, 352, 182
-0.998552, 225, 145, 288, 160
-0.998553, 269, 203, 300, 218
-0.998554, 105, 163, 168, 178
-0.998555, 33, 111, 96, 126
-0.998555, 121, 171, 184, 186
-0.998555, 241, 151, 304, 166
-0.998557, 151, 201, 166, 232
-0.998558, 17, 53, 48, 68
-0.998565, 101, 193, 116, 224
-0.998574, 257, 209, 320, 224
-0.998576, 1, 57, 500, 120
-0.998578, 273, 209, 288, 240
-0.998582, 145, 171, 208, 186
-0.998583, 273, 181, 336, 196
-0.998587, 1, 53, 64, 68
-0.998587, 113, 177, 176, 192
-0.998588, 481, 245, 496, 276
-0.998589, 169, 153, 232, 168
-0.99859, 137, 65, 168, 320
-0.99859, 241, 169, 304, 184
-0.998592, 273, 151, 336, 166
-0.998592, 65, 155, 128, 170
-0.998593, 191, 165, 206, 196
-0.998594, 1, 241, 128, 272
-0.998595, 281, 201, 312, 216
-0.998595, 273, 157, 336, 172
-0.998596, 95, 193, 110, 224
-0.998598, 225, 161, 288, 176
-0.9986, 17, 217, 144, 248
-0.998604, 433, 229, 496, 244
-0.998607, 457, 229, 472, 260
-0.998608, 431, 141, 446, 172
-0.998608, 273, 189, 336, 204
-0.998608, 41, 135, 104, 150
-0.998611, 343, 217, 358, 248
-0.998614, 39, 89, 54, 120
-0.998615, 241, 195, 304, 210
-0.998616, 445, 229, 460, 260
-0.998619, 273, 145, 336, 160
-0.998622, 49, 141, 112, 156
-0.998624, 281, 207, 344, 222
-0.998624, 49, 149, 112, 164
-0.998625, 1, 99, 64, 114
-0.998625, 313, 153, 328, 184
-0.998627, 137, 177, 200, 192
-0.998627, 303, 129, 318, 256
-0.998629, 253, 209, 268, 240
-0.998629, 353, 205, 480, 236
-0.998629, 33, 105, 96, 120
-0.998629, 401, 139, 464, 154
-0.998629, 113, 157, 176, 172
-0.99863, 153, 189, 168, 220
-0.99863, 297, 173, 360, 188
-0.998632, 249, 179, 312, 194
-0.998632, 129, 165, 192, 180
-0.998634, 249, 157, 312, 172
-0.998635, 313, 195, 376, 210
-0.998635, 33, 117, 96, 132
-0.998636, 169, 167, 232, 182
-0.998639, 1, 93, 64, 108
-0.998639, 325, 209, 340, 240
-0.99864, 283, 129, 298, 160
-0.99864, 415, 137, 430, 168
-0.998641, 25, 77, 88, 92
-0.998643, 369, 141, 432, 156
-0.998644, 433, 221, 496, 236
-0.998644, 273, 237, 288, 268
-0.998645, 89, 157, 152, 172
-0.998646, 339, 229, 354, 260
-0.998647, 209, 155, 272, 170
-0.998648, 161, 177, 224, 192
-0.998648, 105, 249, 168, 264
-0.998652, 433, 237, 496, 252
-0.998653, 233, 207, 296, 222
-0.998654, 1, 85, 64, 100
-0.998655, 105, 209, 168, 224
-0.998655, 353, 253, 480, 284
-0.998655, 161, 183, 224, 198
-0.998655, 1, 59, 64, 74
-0.998655, 9, 105, 72, 120
-0.998656, 393, 131, 456, 146
-0.998656, 33, 91, 96, 106
-0.998656, 73, 215, 136, 230
-0.998656, 433, 135, 496, 150
-0.998658, 25, 61, 88, 76
-0.998659, 73, 119, 136, 134
-0.99866, 297, 147, 360, 162
-0.998661, 73, 125, 136, 140
-0.998662, 41, 125, 104, 140
-0.998663, 97, 151, 160, 166
-0.998663, 33, 99, 96, 114
-0.998664, 25, 67, 88, 82
-0.998664, 393, 145, 456, 160
-0.998665, 433, 245, 496, 260
-0.998667, 81, 163, 144, 178
-0.998668, 129, 209, 192, 224
-0.998668, 177, 215, 240, 230
-0.998668, 233, 241, 296, 256
-0.998669, 1, 47, 64, 62
-0.998669, 81, 249, 144, 264
-0.998675, 265, 243, 328, 258
-0.998675, 305, 207, 368, 222
-0.998675, 401, 221, 464, 236
-0.998677, 201, 143, 264, 158
-0.998677, 97, 169, 160, 184
-0.998679, 129, 229, 256, 260
-0.998682, 281, 139, 344, 154
-0.998682, 417, 127, 480, 142
-0.998683, 321, 161, 448, 192
-0.998684, 105, 183, 168, 198
-0.998684, 145, 137, 272, 168
-0.998686, 225, 201, 288, 216
-0.998687, 433, 251, 496, 266
-0.998687, 73, 113, 136, 128
-0.998688, 193, 165, 256, 180
-0.998688, 297, 179, 360, 194
-0.998689, 305, 201, 336, 216
-0.99869, 209, 211, 272, 226
-0.99869, 17, 233, 80, 248
-0.99869, 177, 147, 240, 162
-0.99869, 25, 53, 88, 68
-0.99869, 209, 239, 272, 254
-0.998691, 169, 209, 232, 224
-0.998691, 377, 125, 440, 140
-0.998693, 297, 159, 360, 174
-0.998694, 137, 199, 200, 214
-0.998697, 89, 197, 152, 212
-0.998697, 105, 243, 168, 258
-0.998699, 289, 213, 352, 228
-0.998699, 97, 189, 160, 204
-0.9987, 129, 247, 192, 262
-0.9987, 73, 131, 136, 146
-0.998701, 293, 129, 308, 256
-0.998702, 81, 141, 144, 156
-0.998702, 297, 243, 360, 258
-0.998703, 33, 85, 96, 100
-0.998703, 33, 227, 96, 242
-0.998704, 337, 233, 400, 248
-0.998704, 313, 189, 376, 204
-0.998704, 65, 205, 128, 220
-0.998706, 129, 185, 192, 200
-0.998706, 249, 189, 312, 204
-0.998706, 1, 79, 64, 94
-0.998706, 225, 181, 288, 196
-0.998707, 89, 203, 152, 218
-0.998707, 313, 165, 376, 180
-0.998707, 361, 227, 424, 242
-0.998709, 217, 167, 280, 182
-0.99871, 57, 227, 120, 242
-0.998711, 401, 241, 464, 256
-0.998711, 425, 121, 488, 136
-0.998711, 49, 97, 176, 128
-0.998711, 145, 217, 208, 232
-0.998711, 225, 139, 288, 154
-0.998717, 393, 65, 424, 320
-0.998746, 81, 65, 112, 320
-0.998749, 353, 65, 416, 192
-0.998777, 265, 129, 280, 256
-0.998784, 283, 129, 298, 256
-0.998798, 273, 129, 288, 256
-0.998799, 49, 253, 176, 284
-0.998805, 311, 129, 326, 256
-0.998829, 17, 81, 48, 208
-0.998854, 255, 129, 270, 256
-0.998854, 127, 145, 142, 272
-0.998864, 93, 65, 124, 320
-0.998866, 179, 145, 194, 272
-0.998873, 139, 145, 154, 272
-0.998883, 1, 257, 256, 320
-0.998887, 1, 257, 128, 288
-0.998893, 153, 145, 168, 272
-0.998895, 377, 65, 408, 320
-0.998913, 273, 253, 400, 284
-0.998924, 115, 145, 130, 272
-0.998925, 205, 65, 236, 320
-0.998928, 457, 65, 488, 320
-0.998931, 305, 265, 368, 328
-0.998941, 317, 129, 332, 256
-0.998943, 29, 33, 44, 160
-0.998954, 133, 145, 148, 272
-0.998956, 107, 145, 122, 272
-0.998957, 177, 65, 208, 320
-0.99896, 147, 145, 162, 272
-0.998962, 159, 145, 174, 272
-0.998965, 171, 145, 186, 272
-0.998969, 185, 145, 200, 272
-0.998983, 165, 145, 180, 272
-0.998985, 369, 265, 496, 296
-0.998987, 101, 145, 116, 272
-0.998991, 117, 65, 148, 320
-0.999001, 263, 177, 278, 304
-0.999015, 89, 129, 104, 256
-0.99902, 191, 145, 206, 272
-0.999021, 23, 33, 38, 160
-0.999031, 121, 145, 136, 272
-0.999037, 81, 229, 208, 260
-0.99904, 311, 177, 326, 304
-0.999046, 271, 177, 286, 304
-0.999053, 233, 129, 248, 256
-0.999064, 421, 129, 436, 256
-0.999068, 3, 33, 18, 160
-0.99908, 71, 97, 86, 224
-0.999083, 357, 65, 388, 320
-0.999089, 225, 129, 240, 256
-0.999091, 247, 129, 262, 256
-0.999102, 303, 193, 318, 320
-0.999103, 337, 65, 368, 320
-0.999107, 369, 161, 496, 192
-0.999108, 1, 33, 500, 96
-0.999109, 197, 145, 212, 272
-0.999113, 317, 177, 332, 304
-0.999117, 39, 81, 54, 208
-0.99913, 95, 145, 110, 272
-0.999152, 483, 113, 498, 240
-0.999153, 281, 177, 296, 304
-0.999158, 207, 129, 222, 256
-0.99916, 323, 129, 338, 256
-0.999162, 57, 97, 72, 224
-0.999167, 49, 97, 64, 224
-0.999188, 241, 129, 256, 256
-0.999197, 13, 49, 28, 176
-0.999204, 427, 129, 442, 256
-0.999207, 131, 193, 146, 320
-0.999218, 293, 193, 308, 320
-0.999221, 219, 129, 234, 256
-0.999222, 83, 129, 98, 256
-0.999223, 105, 65, 136, 320
-0.999229, 225, 253, 352, 284
-0.999231, 65, 97, 80, 224
-0.999244, 77, 97, 92, 224
-0.999247, 433, 129, 448, 256
-0.99925, 485, 1, 500, 128
-0.999262, 323, 193, 338, 320
-0.999282, 139, 193, 154, 320
-0.999282, 287, 193, 302, 320
-0.999283, 257, 193, 272, 320
-0.999294, 413, 129, 428, 256
-0.999301, 193, 33, 224, 288
-0.999305, 329, 129, 344, 256
-0.999308, 441, 129, 456, 256
-0.999327, 447, 113, 462, 240
-0.999328, 213, 129, 228, 256
-0.99933, 411, 193, 426, 320
-0.999342, 343, 209, 358, 334
-0.999349, 35, 33, 50, 160
-0.999364, 407, 129, 422, 256
-0.999367, 485, 209, 500, 334
-0.999372, 339, 161, 354, 288
-0.999381, 251, 177, 266, 304
-0.999384, 123, 193, 138, 320
-0.999405, 83, 81, 98, 208
-0.999409, 241, 177, 256, 304
-0.99941, 97, 253, 224, 284
-0.999423, 349, 193, 364, 320
-0.999425, 149, 193, 164, 320
-0.999426, 235, 193, 250, 320
-0.999427, 353, 113, 480, 144
-0.999444, 345, 129, 360, 256
-0.999449, 369, 293, 496, 324
-0.999449, 423, 193, 438, 320
-0.999455, 1, 29, 128, 60
-0.999459, 447, 209, 462, 334
-0.999468, 155, 193, 170, 320
-0.999474, 417, 193, 432, 320
-0.999478, 325, 81, 356, 208
-0.999479, 103, 97, 118, 224
-0.999485, 179, 97, 194, 224
-0.999485, 229, 177, 244, 304
-0.999486, 455, 113, 470, 240
-0.999493, 401, 113, 416, 240
-0.999493, 437, 193, 452, 320
-0.999493, 245, 81, 276, 208
-0.999496, 479, 193, 494, 320
-0.999504, 381, 193, 396, 320
-0.999508, 117, 193, 132, 320
-0.999509, 405, 193, 420, 320
-0.999509, 375, 113, 390, 240
-0.99951, 367, 193, 382, 320
-0.999511, 185, 97, 200, 224
-0.999513, 469, 129, 484, 256
-0.999517, 429, 193, 444, 320
-0.999517, 329, 193, 344, 320
-0.999521, 41, 17, 56, 144
-0.999525, 71, 49, 86, 176
-0.999526, 11, 1, 26, 128
-0.99953, 97, 97, 112, 224
-0.999531, 373, 193, 388, 320
-0.999533, 191, 97, 206, 224
-0.99954, 111, 193, 126, 320
-0.99954, 457, 209, 472, 334
-0.999542, 17, 43, 32, 58
-0.999542, 157, 157, 172, 172
-0.999543, 427, 129, 442, 144
-0.999543, 135, 245, 150, 260
-0.999544, 17, 1, 32, 128
-0.999545, 73, 107, 88, 122
-0.999545, 171, 157, 186, 172
-0.999545, 389, 65, 420, 192
-0.999546, 77, 129, 92, 144
-0.999546, 451, 229, 466, 244
-0.999546, 137, 169, 152, 184
-0.999547, 87, 143, 102, 158
-0.999547, 277, 187, 292, 202
-0.999549, 279, 209, 294, 224
-0.999549, 319, 185, 334, 200
-0.999549, 349, 227, 364, 242
-0.999549, 269, 147, 284, 162
-0.999549, 293, 155, 308, 170
-0.99955, 485, 21, 500, 36
-0.99955, 353, 193, 480, 224
-0.99955, 285, 195, 300, 210
-0.99955, 293, 149, 308, 164
-0.999551, 303, 81, 318, 208
-0.999552, 427, 137, 442, 152
-0.999552, 255, 165, 270, 180
-0.999553, 319, 171, 334, 186
-0.999555, 177, 173, 192, 188
-0.999556, 299, 159, 314, 174
-0.999557, 145, 247, 160, 262
-0.999557, 145, 201, 160, 216
-0.999557, 259, 199, 274, 214
-0.999558, 337, 209, 352, 334
-0.999558, 217, 147, 232, 162
-0.999559, 23, 53, 38, 68
-0.999559, 29, 77, 44, 92
-0.999561, 117, 161, 132, 176
-0.999562, 29, 63, 44, 78
-0.999562, 481, 227, 496, 242
-0.999563, 97, 293, 224, 324
-0.999564, 421, 143, 436, 158
-0.999564, 37, 99, 52, 114
-0.999564, 269, 189, 284, 204
-0.999565, 277, 151, 292, 166
-0.999565, 63, 107, 78, 122
-0.999565, 431, 123, 446, 138
-0.999565, 277, 161, 292, 176
-0.999565, 37, 71, 52, 86
-0.999565, 151, 157, 166, 172
-0.999565, 33, 81, 48, 208
-0.999565, 169, 193, 184, 320
-0.999566, 275, 145, 290, 160
-0.999566, 275, 167, 290, 182
-0.999566, 15, 57, 30, 72
-0.999566, 145, 207, 160, 222
-0.999567, 47, 49, 62, 176
-0.999568, 131, 161, 146, 176
-0.999569, 163, 169, 178, 184
-0.99957, 319, 207, 334, 222
-0.999571, 431, 81, 446, 208
-0.999571, 47, 109, 62, 124
-0.999572, 291, 209, 306, 224
-0.999573, 83, 125, 98, 140
-0.999573, 267, 169, 282, 184
-0.999573, 415, 137, 430, 152
-0.999574, 65, 49, 80, 176
-0.999576, 369, 113, 384, 240
-0.999577, 363, 113, 378, 240
-0.999577, 11, 43, 26, 58
-0.999578, 33, 89, 48, 104
-0.999578, 161, 193, 176, 320
-0.999579, 79, 115, 94, 130
-0.99958, 459, 161, 474, 288
-0.99958, 449, 161, 464, 288
-0.999581, 285, 209, 300, 224
-0.999582, 259, 151, 274, 166
-0.999582, 301, 179, 316, 194
-0.999582, 143, 157, 158, 172
-0.999582, 245, 145, 260, 160
-0.999582, 293, 161, 308, 176
-0.999583, 217, 177, 232, 304
-0.999584, 171, 97, 186, 224
-0.999584, 287, 81, 302, 208
-0.999585, 251, 159, 266, 174
-0.999585, 291, 181, 306, 196
-0.999585, 465, 209, 480, 334
-0.999586, 53, 111, 68, 126
-0.999586, 475, 113, 490, 240
-0.999586, 147, 169, 162, 184
-0.999587, 271, 161, 286, 176
-0.999588, 113, 97, 128, 224
-0.999588, 287, 151, 302, 166
-0.999589, 183, 153, 198, 168
-0.999589, 55, 49, 70, 176
-0.99959, 101, 155, 116, 170
-0.99959, 323, 201, 338, 216
-0.99959, 253, 145, 268, 160
-0.999592, 197, 97, 212, 224
-0.999592, 309, 161, 324, 176
-0.999593, 273, 181, 288, 196
-0.999594, 271, 207, 286, 222
-0.999594, 289, 143, 304, 158
-0.999596, 421, 137, 436, 152
-0.999596, 385, 113, 400, 240
-0.999596, 259, 209, 274, 224
-0.999597, 233, 147, 248, 162
-0.999598, 287, 161, 302, 176
-0.999598, 139, 205, 154, 220
-0.999601, 269, 141, 284, 156
-0.999604, 319, 179, 334, 194
-0.999604, 1, 269, 128, 300
-0.999605, 91, 149, 106, 164
-0.999605, 305, 145, 320, 160
-0.999605, 369, 277, 496, 308
-0.999606, 293, 167, 308, 182
-0.999607, 265, 213, 280, 228
-0.999608, 137, 159, 152, 174
-0.99961, 29, 53, 44, 68
-0.999613, 313, 179, 328, 194
-0.999615, 313, 209, 328, 224
-0.999617, 265, 161, 280, 176
-0.999617, 485, 279, 500, 294
-0.99962, 369, 177, 496, 208
-0.999621, 281, 181, 296, 196
-0.999622, 43, 103, 58, 118
-0.999625, 305, 209, 320, 224
-0.999626, 153, 171, 168, 186
-0.999627, 269, 195, 284, 210
-0.999629, 259, 143, 274, 158
-0.999629, 309, 173, 324, 188
-0.999631, 297, 141, 312, 156
-0.999631, 323, 195, 338, 210
-0.999633, 239, 147, 254, 162
-0.999633, 23, 47, 38, 62
-0.999634, 251, 151, 266, 166
-0.999634, 81, 135, 96, 150
-0.999634, 283, 141, 298, 156
-0.999635, 161, 257, 416, 320
-0.999635, 9, 53, 24, 68
-0.999638, 313, 195, 328, 210
-0.999639, 279, 193, 294, 208
-0.999646, 311, 167, 326, 182
-0.999646, 31, 83, 46, 98
-0.999649, 177, 265, 304, 296
-0.999649, 273, 121, 400, 152
-0.99965, 291, 175, 306, 190
-0.999652, 145, 285, 272, 316
-0.999654, 5, 47, 20, 62
-0.999654, 245, 151, 260, 166
-0.999654, 293, 201, 308, 216
-0.999657, 239, 155, 254, 170
-0.999658, 299, 209, 314, 224
-0.99966, 265, 207, 280, 222
-0.999663, 309, 201, 324, 216
-0.999674, 17, 49, 32, 64
-0.999679, 297, 173, 312, 188
-0.999685, 265, 201, 280, 216
-0.999685, 303, 171, 318, 186
-0.999686, 275, 201, 290, 216
-0.999689, 409, 265, 472, 328
-0.999722, 317, 201, 332, 216
-0.999734, 301, 165, 316, 180
-0.999748, 303, 203, 318, 218
-0.999755, 369, 305, 496, 334
-0.999769, 321, 269, 448, 300
-0.999776, 1, 289, 128, 320
-0.999786, 57, 65, 120, 128
-0.99979, 285, 201, 300, 216
-0.999792, 49, 281, 176, 312
-0.999799, 65, 145, 96, 272
-0.99984, 97, 273, 224, 304
-0.999922, 49, 305, 176, 334
-0.99995, 353, 97, 416, 160
-0.999957, 129, 305, 256, 334
-0.999989, 241, 281, 368, 312
-1.00003, 49, 293, 176, 324
-1.00009, 257, 265, 384, 296
-1.0001, 1, 301, 128, 332
-1.0001, 209, 293, 336, 324
-1.00013, 305, 293, 432, 324
-1.00015, 321, 281, 448, 312
-1.00016, 193, 281, 320, 312
-1.00018, 49, 265, 176, 296
-1.00027, 369, 265, 432, 328
-1.00029, 9, 161, 40, 288
-1.00031, 25, 177, 88, 240
-1.00033, 257, 293, 384, 324
-1.00034, 25, 161, 56, 288
-1.00035, 193, 305, 320, 334
-1.00039, 161, 121, 288, 152
-1.00044, 321, 81, 448, 144
-1.00045, 241, 305, 368, 334
-1.00045, 121, 273, 184, 334
-1.00047, 369, 33, 496, 96
-1.00048, 49, 45, 176, 76
-1.00049, 369, 13, 496, 44
-1.00055, 321, 305, 448, 334
-1.00056, 225, 121, 352, 152
-1.00059, 353, 101, 480, 132
-1.00061, 369, 61, 496, 92
-1.00062, 369, 41, 496, 72
-1.00064, 257, 273, 500, 334
-1.00067, 305, 109, 432, 140
-1.00072, 145, 1, 272, 32
-1.00072, 369, 1, 496, 32
-1.00076, 369, 29, 496, 60
-1.00077, 225, 5, 352, 36
-1.0008, 145, 17, 272, 48
-1.00083, 369, 73, 496, 104
-1.00083, 257, 109, 384, 140
-1.00084, 225, 17, 352, 48
-1.00087, 193, 89, 320, 120
-1.00088, 193, 29, 320, 60
-1.00088, 81, 65, 208, 96
-1.00088, 145, 97, 272, 128
-1.00089, 241, 65, 368, 96
-1.00089, 1, 17, 256, 80
-1.00097, 5, 113, 36, 240
-1.00099, 129, 97, 384, 160
-1.00101, 65, 65, 192, 128
-1.00102, 49, 273, 112, 334
-1.00116, 225, 81, 480, 144
-1.00117, 41, 161, 72, 288
-1.00117, 49, 33, 112, 160
-1.00121, 369, 57, 496, 120
-1.00124, 369, 9, 496, 72
-1.00124, 129, 49, 384, 176
-1.00127, 25, 9, 88, 72
-1.00138, 225, 33, 480, 96
-1.00138, 349, 65, 380, 192
-1.00142, 281, 265, 344, 328
-1.00159, 129, 25, 384, 88
-1.00162, 193, 57, 448, 120
-1.00164, 145, 1, 272, 64
-1.00166, 97, 1, 352, 64
-1.00167, 177, 25, 304, 88
-1.00171, 193, 1, 448, 64
-1.00172, 1, 265, 500, 328
-1.00181, 177, 97, 304, 160
-1.00181, 201, 273, 264, 334
-1.00187, 365, 65, 396, 192
-1.00198, 225, 25, 352, 88
-1.00203, 73, 33, 104, 160
-1.00204, 129, 65, 256, 128
-1.00205, 225, 1, 352, 64
-1.00209, 97, 49, 352, 112
-1.00209, 145, 273, 208, 334
-1.00215, 305, 57, 432, 120
-1.00218, 329, 273, 392, 334
-1.00229, 73, 273, 136, 334
-1.0023, 81, 41, 208, 104
-1.00239, 321, 25, 448, 88
-1.00239, 273, 33, 400, 96
-1.00246, 1, 9, 500, 72
-1.00249, 1, 1, 64, 64
-1.00251, 193, 73, 320, 136
-1.00254, 209, 49, 336, 112
-1.00255, 97, 273, 160, 334
-1.00257, 97, 73, 352, 136
-1.00259, 273, 1, 400, 64
-1.00266, 81, 17, 208, 80
-1.00274, 321, 1, 448, 64
-1.00275, 89, 49, 120, 176
-1.00285, 129, 25, 256, 88
-1.00288, 257, 57, 384, 120
-1.00303, 257, 33, 500, 160
-1.00307, 433, 57, 496, 120
-1.00321, 377, 65, 408, 192
-1.00331, 225, 273, 288, 334
-1.00335, 241, 81, 368, 144
-1.00352, 337, 65, 368, 192
-1.00366, 257, 273, 320, 334
-1.00406, 129, 89, 256, 152
-1.00417, 377, 81, 440, 144
-1.00469, 433, 1, 496, 128
-1.00557, 209, 97, 272, 160
-1.00559, 429, 33, 460, 160
-1.00572, 205, 49, 236, 176
-1.00575, 97, 105, 160, 168
-1.00603, 433, 25, 496, 88
-1.00626, 401, 33, 464, 160
-1.00668, 409, 73, 472, 136
-1.00682, 193, 1, 320, 128
-1.00699, 417, 33, 448, 160
-1.00699, 401, 33, 432, 160
-1.00739, 161, 1, 416, 128
-1.00819, 253, 1, 284, 128
-1.00819, 265, 1, 296, 128
-1.00819, 145, 1, 272, 128
-1.00825, 193, 49, 224, 176
-1.00826, 277, 1, 308, 128
-1.00839, 369, 17, 496, 144
-1.00846, 453, 17, 484, 144
-1.00849, 49, 1, 80, 128
-1.00853, 237, 1, 268, 128
-1.00888, 289, 1, 320, 128
-1.00894, 73, 17, 136, 144
-1.00908, 273, 33, 400, 160
-1.00926, 225, 1, 256, 128
-1.00932, 301, 1, 332, 128
-1.00939, 201, 1, 232, 128
-1.00943, 105, 17, 136, 144
-1.00951, 181, 49, 212, 176
-1.00953, 117, 17, 148, 144
-1.00953, 169, 17, 200, 144
-1.00956, 153, 17, 184, 144
-1.01083, 169, 49, 232, 176
-1.01169, 241, 1, 304, 128
-1.01175, 321, 1, 448, 128
-1.01182, 217, 1, 280, 128
-1.0119, 65, 1, 192, 128
-1.01289, 265, 1, 328, 128
-1.01387, 185, 1, 248, 128
-1.01407, 329, 33, 392, 160
-1.01422, 289, 1, 352, 128
-1.01465, 105, 17, 168, 144
-1.01471, 145, 17, 208, 144
-1.01604, 369, 1, 432, 128
