2029
-0.29855, 1, 193, 450, 448
-0.345109, 1, 1, 450, 480
-0.441231, 1, 97, 450, 352
-0.49338, 33, 161, 288, 416
-0.538661, 33, 1, 288, 480
-0.553221, 1, 1, 450, 256
-0.555799, 193, 225, 448, 480
-0.619928, 193, 1, 448, 480
-0.695081, 193, 129, 448, 384
-0.708211, 1, 65, 256, 320
-0.734649, 129, 33, 384, 288
-0.861915, 65, 129, 192, 384
-0.863155, 97, 1, 224, 480
-0.869926, 113, 161, 240, 416
-0.876103, 1, 273, 450, 400
-0.877143, 273, 225, 400, 480
-0.878131, 65, 1, 192, 256
-0.880822, 113, 33, 240, 288
-0.881133, 1, 177, 450, 304
-0.884985, 1, 225, 450, 352
-0.886471, 49, 1, 176, 480
-0.895837, 193, 129, 320, 384
-0.897787, 321, 161, 448, 416
-0.897862, 193, 225, 320, 480
-0.900279, 1, 161, 128, 416
-0.901817, 1, 321, 450, 448
-0.903405, 177, 1, 304, 480
-0.904538, 321, 1, 448, 480
-0.906446, 17, 65, 144, 320
-0.906653, 65, 225, 192, 480
-0.907919, 161, 33, 288, 288
-0.909725, 33, 225, 288, 352
-0.911708, 193, 257, 448, 384
-0.912784, 33, 177, 288, 304
-0.916155, 1, 65, 450, 192
-0.917822, 241, 129, 368, 384
-0.920879, 1, 1, 128, 480
-0.923014, 305, 1, 432, 256
-0.924519, 1, 129, 450, 256
-0.924942, 225, 33, 352, 288
-0.928242, 33, 289, 288, 416
-0.929134, 161, 177, 416, 304
-0.933017, 193, 337, 448, 464
-0.934584, 257, 1, 384, 480
-0.935642, 81, 145, 208, 272
-0.93869, 113, 129, 176, 256
-0.9389, 193, 321, 320, 448
-0.941536, 113, 65, 176, 192
-0.942768, 385, 337, 448, 464
-0.943498, 65, 129, 320, 256
-0.943521, 145, 145, 208, 272
-0.944542, 33, 177, 160, 304
-0.946773, 361, 353, 424, 480
-0.947146, 225, 289, 288, 416
-0.947457, 1, 1, 450, 128
-0.94872, 97, 97, 224, 224
-0.949959, 249, 321, 312, 448
-0.950038, 273, 305, 400, 432
-0.950041, 361, 289, 424, 416
-0.950153, 369, 225, 432, 352
-0.950221, 369, 345, 432, 408
-0.950445, 129, 81, 384, 208
-0.951156, 33, 337, 288, 464
-0.95119, 1, 81, 256, 208
-0.951734, 265, 337, 328, 400
-0.95182, 273, 353, 400, 480
-0.95221, 209, 273, 336, 400
-0.952553, 49, 177, 112, 304
-0.952721, 97, 49, 224, 176
-0.952846, 97, 193, 224, 320
-0.952853, 161, 145, 288, 272
-0.953871, 25, 241, 88, 368
-0.955162, 369, 377, 432, 440
-0.955208, 321, 337, 448, 464
-0.955278, 225, 337, 288, 464
-0.955931, 73, 177, 136, 304
-0.956254, 233, 345, 296, 408
-0.95712, 65, 185, 128, 248
-0.957221, 321, 209, 448, 336
-0.957476, 249, 273, 312, 400
-0.957522, 385, 289, 448, 416
-0.957984, 217, 241, 280, 368
-0.958351, 1, 257, 128, 384
-0.958527, 97, 33, 352, 160
-0.95856, 145, 161, 208, 224
-0.958602, 337, 241, 400, 368
-0.958772, 193, 17, 448, 144
-0.959615, 145, 97, 272, 224
-0.959869, 33, 97, 160, 224
-0.960177, 289, 345, 352, 408
-0.960884, 81, 113, 144, 240
-0.960974, 361, 225, 424, 288
-0.961462, 337, 337, 400, 464
-0.961952, 177, 241, 240, 368
-0.962267, 137, 97, 200, 224
-0.962682, 281, 353, 344, 480
-0.962731, 345, 337, 408, 400
-0.962918, 153, 193, 216, 320
-0.962992, 385, 321, 448, 384
-0.963112, 25, 193, 88, 320
-0.963377, 217, 265, 280, 328
-0.963606, 97, 177, 160, 304
-0.963832, 105, 177, 168, 240
-0.964028, 305, 65, 432, 192
-0.964197, 321, 257, 448, 384
-0.96421, 201, 337, 264, 464
-0.964239, 129, 241, 256, 368
-0.964469, 1, 177, 64, 304
-0.964513, 273, 241, 400, 368
-0.96479, 385, 401, 448, 464
-0.964947, 377, 289, 440, 352
-0.965015, 337, 225, 400, 288
-0.965111, 345, 369, 408, 432
-0.965463, 185, 289, 248, 416
-0.965594, 33, 257, 96, 320
-0.96576, 161, 129, 416, 256
-0.965908, 361, 257, 424, 320
-0.96592, 1, 225, 64, 352
-0.966045, 209, 193, 336, 320
-0.966273, 49, 225, 176, 352
-0.966707, 113, 137, 176, 200
-0.966956, 281, 289, 344, 416
-0.967179, 33, 225, 96, 288
-0.967198, 337, 289, 400, 416
-0.96742, 145, 49, 272, 176
-0.967561, 321, 17, 448, 144
-0.967641, 273, 329, 304, 392
-0.967663, 121, 177, 184, 304
-0.967897, 113, 89, 176, 152
-0.968144, 209, 337, 336, 400
-0.968365, 145, 289, 272, 416
-0.969212, 141, 113, 172, 240
-0.969245, 257, 193, 384, 320
-0.970026, 385, 233, 448, 296
-0.970843, 369, 193, 432, 448
-0.970943, 49, 49, 176, 176
-0.971261, 65, 177, 192, 240
-0.97143, 153, 49, 216, 176
-0.971479, 73, 225, 136, 352
-0.971539, 225, 97, 352, 224
-0.971584, 49, 241, 112, 368
-0.971605, 289, 145, 416, 272
-0.971923, 273, 345, 400, 408
-0.972034, 385, 337, 416, 464
-0.972259, 385, 265, 448, 328
-0.972279, 281, 17, 344, 144
-0.972296, 321, 249, 384, 312
-0.972302, 65, 161, 128, 416
-0.972326, 241, 321, 304, 384
-0.972405, 209, 353, 272, 416
-0.972497, 269, 353, 300, 416
-0.973197, 273, 321, 304, 448
-0.973454, 253, 345, 284, 408
-0.97354, 145, 353, 272, 480
-0.973629, 113, 65, 176, 320
-0.973759, 145, 193, 208, 256
-0.973836, 265, 377, 328, 440
-0.973847, 321, 193, 384, 320
-0.973919, 369, 177, 432, 304
-0.974012, 305, 353, 368, 480
-0.974327, 353, 281, 416, 344
-0.974345, 373, 353, 404, 416
-0.974425, 89, 33, 152, 288
-0.974455, 1, 233, 64, 296
-0.974509, 281, 177, 344, 304
-0.974556, 361, 313, 424, 376
-0.974703, 209, 49, 336, 176
-0.974857, 169, 161, 200, 224
-0.975024, 177, 361, 304, 424
-0.975075, 289, 337, 320, 400
-0.975097, 361, 81, 424, 208
-0.975159, 97, 201, 224, 264
-0.975163, 193, 1, 320, 128
-0.975198, 1, 49, 128, 176
-0.975364, 81, 105, 144, 168
-0.975441, 397, 281, 428, 344
-0.975464, 117, 129, 148, 256
-0.975583, 57, 233, 120, 296
-0.975697, 413, 353, 444, 416
-0.975937, 305, 49, 368, 176
-0.975957, 177, 241, 240, 304
-0.975997, 217, 289, 280, 352
-0.976028, 257, 33, 320, 160
-0.97611, 385, 209, 448, 272
-0.976198, 209, 241, 272, 304
-0.976318, 313, 225, 376, 288
-0.976405, 161, 145, 192, 272
-0.976494, 373, 337, 404, 464
-0.976512, 1, 305, 128, 432
-0.976584, 401, 385, 432, 448
-0.9766, 393, 289, 424, 416
-0.976696, 361, 409, 424, 472
-0.976712, 381, 241, 412, 368
-0.976797, 41, 201, 104, 264
-0.976918, 185, 185, 248, 248
-0.976919, 113, 17, 176, 144
-0.97704, 193, 177, 256, 304
-0.977063, 417, 385, 448, 448
-0.97715, 129, 129, 160, 256
-0.977218, 121, 113, 184, 176
-0.97722, 49, 273, 176, 400
-0.977408, 113, 1, 240, 128
-0.977412, 113, 65, 176, 128
-0.977472, 321, 353, 384, 416
-0.977715, 137, 65, 200, 320
-0.977814, 73, 185, 104, 248
-0.977892, 265, 73, 328, 136
-0.977947, 201, 217, 264, 280
-0.977982, 249, 273, 312, 336
-0.978035, 57, 233, 88, 296
-0.978084, 257, 17, 384, 144
-0.978115, 9, 257, 72, 320
-0.978125, 345, 193, 408, 320
-0.978137, 113, 169, 240, 232
-0.978196, 161, 193, 288, 320
-0.978238, 345, 193, 408, 448
-0.978245, 153, 385, 216, 448
-0.978262, 1, 209, 64, 272
-0.978288, 345, 233, 376, 296
-0.97832, 361, 337, 392, 400
-0.978327, 361, 201, 424, 264
-0.978335, 365, 273, 396, 400
-0.978396, 49, 321, 112, 448
-0.978507, 201, 329, 264, 392
-0.978526, 389, 305, 420, 368
-0.97864, 137, 137, 200, 200
-0.97866, 393, 337, 424, 400
-0.978808, 257, 209, 320, 336
-0.978871, 193, 265, 320, 328
-0.979011, 149, 161, 180, 224
-0.979169, 361, 337, 392, 464
-0.97928, 53, 209, 84, 336
-0.979299, 241, 377, 304, 440
-0.979358, 225, 225, 288, 480
-0.979435, 161, 217, 224, 280
-0.979501, 193, 1, 256, 128
-0.979522, 305, 257, 432, 320
-0.97953, 393, 241, 424, 368
-0.979539, 397, 257, 428, 320
-0.979609, 89, 65, 152, 192
-0.979621, 153, 97, 216, 160
-0.979742, 185, 369, 248, 432
-0.979747, 321, 345, 448, 408
-0.979768, 65, 321, 192, 448
-0.979771, 1, 33, 256, 160
-0.97979, 329, 201, 392, 264
-0.979902, 281, 49, 344, 112
-0.979949, 177, 289, 240, 352
-0.979954, 361, 1, 424, 128
-0.979984, 169, 145, 232, 272
-0.980069, 365, 217, 396, 280
-0.98007, 97, 73, 224, 136
-0.98008, 285, 337, 316, 464
-0.980141, 133, 65, 164, 192
-0.980144, 105, 113, 136, 240
-0.980169, 61, 209, 92, 272
-0.98017, 1, 193, 128, 256
-0.980255, 281, 97, 344, 224
-0.980259, 173, 145, 204, 272
-0.980321, 209, 289, 336, 352
-0.98042, 77, 177, 108, 304
-0.980638, 177, 265, 240, 328
-0.980689, 385, 49, 448, 176
-0.980694, 321, 225, 448, 288
-0.980698, 321, 377, 448, 440
-0.980729, 345, 257, 376, 320
-0.980868, 1, 273, 64, 400
-0.980983, 385, 369, 416, 432
-0.981039, 353, 241, 384, 368
-0.98106, 413, 273, 444, 400
-0.98107, 145, 57, 208, 120
-0.981072, 65, 1, 192, 128
-0.981075, 81, 137, 144, 200
-0.981116, 385, 1, 448, 128
-0.981215, 321, 193, 384, 448
-0.981233, 113, 177, 144, 240
-0.981277, 193, 129, 256, 256
-0.981277, 81, 209, 144, 272
-0.981302, 89, 401, 152, 464
-0.981352, 33, 281, 96, 344
-0.981373, 1, 217, 128, 280
-0.981374, 33, 305, 96, 368
-0.981409, 65, 137, 192, 200
-0.981612, 321, 281, 448, 344
-0.981616, 137, 169, 168, 232
-0.981622, 273, 369, 400, 432
-0.981673, 281, 185, 344, 248
-0.981716, 373, 329, 404, 392
-0.981727, 417, 241, 448, 304
-0.981769, 89, 1, 152, 128
-0.981792, 325, 241, 356, 304
-0.981809, 329, 273, 392, 336
-0.981811, 365, 377, 396, 440
-0.981857, 89, 193, 152, 448
-0.981926, 177, 225, 240, 480
-0.981935, 409, 297, 440, 360
-0.981945, 385, 217, 416, 280
-0.981953, 321, 401, 448, 464
-0.981966, 1, 353, 128, 480
-0.98198, 241, 41, 304, 104
-0.982033, 161, 169, 288, 232
-0.982041, 177, 137, 240, 200
-0.982067, 161, 97, 224, 224
-0.982079, 377, 65, 440, 128
-0.982081, 373, 265, 404, 328
-0.982081, 409, 321, 440, 448
-0.982082, 93, 185, 124, 248
-0.982113, 121, 393, 184, 456
-0.982131, 265, 249, 328, 312
-0.982258, 257, 177, 320, 240
-0.982287, 377, 289, 408, 416
-0.982306, 273, 313, 336, 376
-0.982324, 289, 305, 416, 368
-0.982325, 153, 97, 184, 224
-0.982377, 65, 177, 96, 304
-0.982411, 257, 249, 384, 312
-0.982428, 117, 137, 148, 200
-0.982457, 145, 161, 208, 416
-0.982489, 417, 209, 448, 336
-0.982528, 285, 169, 316, 232
-0.982543, 65, 49, 128, 176
-0.982562, 397, 361, 428, 424
-0.982739, 133, 137, 164, 200
-0.98281, 97, 97, 224, 160
-0.982812, 365, 225, 396, 352
-0.982874, 233, 1, 296, 128
-0.982876, 305, 65, 368, 128
-0.982935, 49, 129, 112, 256
-0.982948, 409, 273, 440, 336
-0.983002, 65, 161, 128, 224
-0.983091, 257, 281, 384, 344
-0.983101, 177, 353, 240, 480
-0.98319, 241, 145, 368, 272
-0.983233, 405, 233, 436, 296
-0.983234, 297, 249, 360, 312
-0.983254, 121, 65, 152, 192
-0.983272, 17, 97, 144, 160
-0.983322, 73, 225, 104, 352
-0.983327, 305, 129, 368, 256
-0.983335, 193, 49, 320, 112
-0.983371, 365, 241, 396, 304
-0.983468, 377, 1, 440, 480
-0.983472, 377, 241, 408, 304
-0.9835, 209, 313, 336, 376
-0.983516, 65, 257, 128, 320
-0.983522, 253, 337, 284, 464
-0.983576, 273, 377, 304, 440
-0.983627, 89, 57, 152, 120
-0.983725, 161, 321, 288, 384
-0.98373, 217, 65, 280, 128
-0.983826, 257, 273, 288, 400
-0.983837, 305, 33, 432, 96
-0.983866, 241, 265, 272, 328
-0.983965, 89, 177, 120, 304
-0.983993, 261, 1, 292, 128
-0.984005, 361, 41, 424, 104
-0.984087, 201, 241, 232, 368
-0.984131, 209, 305, 240, 432
-0.984199, 25, 193, 88, 448
-0.984216, 305, 289, 368, 416
-0.984233, 49, 209, 176, 272
-0.984235, 177, 193, 304, 256
-0.984237, 1, 313, 128, 376
-0.984315, 405, 225, 436, 352
-0.984426, 45, 225, 76, 288
-0.984471, 125, 169, 156, 232
-0.984498, 201, 193, 264, 448
-0.984503, 225, 377, 352, 440
-0.984507, 389, 393, 420, 456
-0.984533, 185, 41, 248, 104
-0.984546, 37, 225, 68, 352
-0.984564, 145, 97, 272, 160
-0.984599, 377, 297, 408, 360
-0.984646, 249, 297, 312, 360
-0.984722, 29, 233, 60, 296
-0.984723, 149, 129, 180, 192
-0.984729, 233, 49, 296, 176
-0.984783, 417, 217, 448, 280
-0.98482, 361, 129, 424, 256
-0.984861, 353, 65, 416, 128
-0.984975, 25, 241, 56, 368
-0.985012, 237, 329, 268, 392
-0.985048, 353, 97, 416, 352
-0.985049, 1, 265, 128, 328
-0.985058, 169, 73, 232, 136
-0.985078, 185, 209, 216, 336
-0.985102, 337, 145, 400, 272
-0.985102, 113, 1, 176, 480
-0.985131, 1, 241, 128, 304
-0.985139, 341, 193, 372, 320
-0.985149, 337, 209, 368, 272
-0.985166, 41, 177, 104, 240
-0.985249, 321, 329, 384, 392
-0.985301, 129, 137, 256, 200
-0.985348, 129, 257, 256, 320
-0.985391, 169, 161, 232, 224
-0.985446, 149, 161, 180, 288
-0.985501, 329, 225, 360, 352
-0.985528, 145, 73, 272, 136
-0.985565, 385, 1, 448, 64
-0.985579, 105, 177, 136, 304
-0.985591, 105, 113, 136, 176
-0.9856, 241, 73, 304, 136
-0.985663, 121, 161, 184, 416
-0.985733, 65, 289, 128, 352
-0.985755, 305, 153, 432, 216
-0.985763, 377, 33, 440, 288
-0.985848, 385, 265, 416, 328
-0.985935, 25, 289, 88, 416
-0.985983, 241, 353, 272, 416
-0.985998, 117, 97, 148, 160
-0.98607, 177, 217, 304, 280
-0.986091, 73, 273, 136, 400
-0.986125, 253, 273, 284, 336
-0.986142, 129, 41, 256, 104
-0.986147, 17, 113, 80, 240
-0.986177, 161, 185, 192, 248
-0.986246, 1, 89, 64, 152
-0.986249, 225, 257, 256, 384
-0.986278, 213, 257, 244, 320
-0.986283, 313, 241, 376, 368
-0.986329, 413, 321, 444, 384
-0.98634, 357, 265, 388, 328
-0.986367, 57, 257, 88, 320
-0.986369, 77, 225, 108, 288
-0.986388, 333, 265, 364, 328
-0.98642, 257, 313, 288, 376
-0.986447, 337, 393, 400, 456
-0.986475, 273, 185, 400, 248
-0.986543, 37, 257, 68, 320
-0.986555, 49, 233, 176, 296
-0.986563, 293, 289, 324, 416
-0.986582, 17, 1, 144, 128
-0.986586, 177, 313, 240, 376
-0.986634, 53, 257, 84, 384
-0.986675, 17, 73, 144, 136
-0.986722, 321, 297, 384, 360
-0.986735, 185, 65, 248, 192
-0.986742, 1, 233, 32, 296
-0.986757, 49, 401, 112, 464
-0.986761, 17, 289, 144, 352
-0.986794, 305, 113, 336, 240
-0.986814, 337, 81, 400, 208
-0.986836, 89, 33, 152, 96
-0.986861, 89, 337, 152, 464
-0.986881, 313, 225, 344, 288
-0.9869, 205, 369, 236, 432
-0.986934, 113, 385, 240, 448
-0.986941, 17, 185, 80, 248
-0.986979, 369, 401, 400, 464
-0.987003, 301, 337, 332, 400
-0.987022, 177, 201, 208, 264
-0.987052, 281, 241, 344, 368
-0.987065, 329, 57, 392, 120
-0.987114, 137, 1, 200, 480
-0.987115, 313, 49, 344, 176
-0.987118, 137, 1, 200, 128
-0.987161, 353, 145, 416, 208
-0.987166, 113, 233, 240, 296
-0.987211, 225, 337, 256, 464
-0.987311, 173, 65, 204, 192
-0.987333, 81, 81, 144, 144
-0.98734, 393, 193, 424, 320
-0.987376, 197, 241, 228, 304
-0.987395, 217, 193, 280, 320
-0.987396, 73, 1, 136, 480
-0.987401, 313, 249, 344, 312
-0.987424, 41, 337, 104, 400
-0.98753, 349, 345, 380, 408
-0.987602, 209, 153, 336, 216
-0.987628, 65, 313, 128, 376
-0.987685, 1, 209, 32, 336
-0.987731, 221, 329, 252, 392
-0.987747, 289, 65, 416, 128
-0.987766, 185, 225, 216, 288
-0.987786, 377, 145, 440, 208
-0.987798, 385, 65, 416, 192
-0.987907, 177, 393, 240, 456
-0.987927, 193, 241, 320, 304
-0.987935, 225, 177, 352, 240
-0.987988, 241, 65, 368, 128
-0.988021, 49, 257, 176, 320
-0.988058, 285, 361, 316, 424
-0.988061, 1, 305, 64, 368
-0.988104, 297, 161, 360, 224
-0.988114, 109, 73, 140, 136
-0.988135, 41, 41, 104, 104
-0.98814, 281, 289, 344, 352
-0.98828, 169, 129, 232, 384
-0.988282, 209, 353, 240, 480
-0.988282, 289, 193, 320, 256
-0.988292, 385, 65, 416, 128
-0.988303, 241, 113, 304, 240
-0.988308, 217, 41, 280, 104
-0.988371, 313, 97, 376, 352
-0.988493, 265, 41, 296, 104
-0.988499, 145, 281, 272, 344
-0.988534, 245, 289, 276, 416
-0.988545, 397, 209, 428, 272
-0.988591, 385, 369, 448, 400
-0.988662, 81, 49, 208, 112
-0.988697, 249, 337, 312, 368
-0.988724, 237, 337, 268, 464
-0.98873, 129, 409, 256, 472
-0.988797, 273, 401, 400, 464
-0.988802, 33, 241, 288, 304
-0.988868, 209, 1, 272, 64
-0.988926, 81, 129, 112, 256
-0.989049, 313, 345, 344, 408
-0.989106, 241, 97, 304, 160
-0.989164, 185, 1, 248, 64
-0.989166, 397, 337, 428, 464
-0.989169, 129, 105, 160, 168
-0.989212, 257, 369, 288, 432
-0.989225, 1, 169, 128, 232
-0.989225, 161, 361, 224, 424
-0.989267, 393, 1, 424, 128
-0.989285, 369, 353, 432, 384
-0.989299, 281, 161, 344, 416
-0.989318, 241, 33, 368, 96
-0.989341, 125, 65, 156, 128
-0.989354, 349, 289, 380, 416
-0.989359, 313, 1, 376, 128
-0.989374, 17, 265, 48, 328
-0.989381, 305, 273, 368, 336
-0.989391, 281, 357, 344, 388
-0.989392, 369, 289, 432, 320
-0.989415, 177, 385, 304, 448
-0.989438, 65, 281, 192, 344
-0.98948, 117, 33, 148, 96
-0.989482, 385, 25, 448, 88
-0.989501, 65, 189, 128, 220
-0.989516, 317, 209, 348, 336
-0.989532, 149, 185, 180, 248
-0.989539, 321, 145, 384, 208
-0.989545, 177, 33, 240, 288
-0.989552, 385, 305, 448, 336
-0.989554, 241, 153, 304, 216
-0.989603, 369, 229, 432, 260
-0.989618, 385, 41, 416, 104
-0.989624, 65, 385, 192, 448
-0.989625, 405, 417, 436, 480
-0.989631, 113, 33, 176, 96
-0.989638, 193, 73, 320, 136
-0.98964, 385, 185, 448, 248
-0.989652, 249, 353, 312, 384
-0.989655, 61, 185, 92, 248
-0.989676, 265, 369, 328, 400
-0.989686, 89, 377, 152, 440
-0.989699, 377, 193, 408, 320
-0.989703, 33, 97, 96, 160
-0.989714, 305, 185, 368, 248
-0.989727, 93, 97, 124, 224
-0.989731, 361, 377, 424, 408
-0.989734, 193, 297, 448, 360
-0.989766, 337, 365, 400, 396
-0.989782, 145, 193, 208, 224
-0.989864, 137, 165, 200, 196
-0.989865, 229, 257, 260, 320
-0.98987, 9, 113, 72, 176
-0.989882, 313, 33, 376, 96
-0.989928, 385, 405, 448, 436
-0.989946, 113, 173, 176, 204
-0.989954, 369, 265, 432, 296
-0.989958, 201, 281, 232, 344
-0.989989, 17, 49, 144, 112
-0.989994, 269, 273, 300, 400
-0.990001, 329, 245, 392, 276
-0.990017, 153, 321, 216, 448
-0.990067, 225, 357, 288, 388
-0.99007, 277, 49, 308, 112
-0.990083, 317, 289, 348, 416
-0.990088, 369, 253, 432, 284
-0.990095, 65, 33, 128, 288
-0.990097, 305, 177, 336, 240
-0.990098, 369, 317, 432, 348
-0.990099, 217, 145, 280, 208
-0.990099, 33, 257, 96, 288
-0.990101, 57, 281, 88, 344
-0.990138, 49, 321, 176, 384
-0.990139, 241, 161, 304, 288
-0.990153, 1, 161, 64, 416
-0.99017, 81, 409, 208, 472
-0.990186, 193, 273, 448, 336
-0.990196, 117, 177, 148, 304
-0.990221, 385, 341, 448, 372
-0.990226, 225, 353, 256, 416
-0.990242, 217, 281, 280, 312
-0.990265, 193, 185, 224, 248
-0.990265, 9, 261, 72, 292
-0.990267, 41, 221, 104, 252
-0.990277, 33, 177, 64, 304
-0.990295, 329, 285, 392, 316
-0.990311, 17, 193, 48, 320
-0.990315, 241, 33, 304, 288
-0.990328, 341, 241, 372, 368
-0.990331, 73, 257, 104, 320
-0.990339, 361, 365, 424, 396
-0.990357, 113, 121, 176, 152
-0.990386, 9, 289, 40, 416
-0.990391, 209, 269, 272, 300
-0.990397, 345, 353, 408, 384
-0.990452, 1, 233, 450, 296
-0.990461, 221, 281, 252, 344
-0.990472, 273, 337, 336, 368
-0.990474, 345, 225, 408, 256
-0.990482, 181, 161, 212, 224
-0.990484, 41, 49, 104, 176
-0.990492, 361, 289, 392, 352
-0.990494, 369, 241, 432, 272
-0.990511, 1, 177, 256, 240
-0.990521, 385, 417, 448, 448
-0.990522, 9, 245, 72, 276
-0.990543, 241, 373, 304, 404
-0.990556, 337, 417, 400, 480
-0.990563, 309, 65, 340, 128
-0.990586, 273, 1, 336, 256
-0.99059, 217, 233, 248, 296
-0.990596, 369, 217, 432, 248
-0.990603, 145, 49, 176, 176
-0.990604, 417, 409, 448, 472
-0.990606, 321, 273, 384, 304
-0.990607, 161, 233, 416, 296
-0.990627, 361, 89, 424, 152
-0.990633, 129, 193, 384, 256
-0.990636, 1, 361, 128, 424
-0.990636, 185, 65, 216, 192
-0.990637, 337, 261, 400, 292
-0.99065, 225, 337, 288, 368
-0.990652, 173, 73, 204, 136
-0.990676, 321, 229, 384, 260
-0.990693, 213, 241, 244, 368
-0.990699, 33, 245, 96, 276
-0.990747, 361, 337, 424, 368
-0.990768, 161, 137, 192, 200
-0.990769, 313, 273, 344, 336
-0.990803, 289, 369, 352, 400
-0.990804, 377, 393, 440, 424
-0.990806, 225, 325, 288, 356
-0.990816, 1, 337, 128, 400
-0.990824, 201, 97, 264, 352
-0.990829, 125, 1, 156, 128
-0.99083, 25, 305, 88, 336
-0.990845, 337, 297, 400, 328
-0.990861, 285, 177, 316, 304
-0.990878, 385, 129, 448, 256
-0.990881, 377, 277, 440, 308
-0.990912, 41, 209, 104, 240
-0.990918, 145, 181, 208, 212
-0.990932, 17, 1, 80, 128
-0.990939, 337, 341, 400, 372
-0.990978, 33, 217, 288, 280
-0.991031, 153, 393, 216, 424
-0.991032, 257, 225, 384, 288
-0.991033, 305, 285, 368, 316
-0.991038, 157, 105, 188, 168
-0.991051, 381, 17, 412, 144
-0.991062, 53, 161, 84, 288
-0.991066, 337, 289, 368, 416
-0.991086, 249, 325, 312, 356
-0.991097, 193, 353, 448, 416
-0.991148, 161, 161, 224, 192
-0.991148, 89, 181, 152, 212
-0.991162, 189, 49, 220, 112
-0.99117, 325, 217, 356, 280
-0.991171, 105, 109, 168, 140
-0.991181, 405, 57, 436, 120
-0.991191, 1, 201, 32, 264
-0.991202, 109, 49, 140, 176
-0.99122, 349, 201, 380, 264
-0.991227, 265, 281, 328, 312
-0.991239, 185, 205, 248, 236
-0.991248, 33, 265, 288, 328
-0.991249, 217, 369, 280, 400
-0.99125, 209, 293, 272, 324
-0.99127, 353, 385, 384, 448
-0.99127, 313, 353, 376, 384
-0.991273, 361, 405, 424, 436
-0.991303, 361, 301, 424, 332
-0.991305, 33, 269, 96, 300
-0.991307, 93, 105, 124, 168
-0.991335, 349, 353, 380, 480
-0.991336, 121, 193, 184, 224
-0.991336, 185, 73, 216, 136
-0.991339, 133, 177, 164, 304
-0.991346, 1, 225, 64, 256
-0.991383, 297, 257, 360, 288
-0.991384, 397, 65, 428, 192
-0.991384, 209, 65, 272, 192
-0.991404, 33, 233, 96, 264
-0.991424, 177, 409, 304, 472
-0.991441, 237, 241, 268, 368
-0.991452, 365, 177, 396, 304
-0.991453, 273, 49, 304, 176
-0.991467, 241, 273, 304, 304
-0.991486, 257, 225, 320, 480
-0.991495, 13, 241, 44, 368
-0.9915, 145, 205, 208, 236
-0.991504, 281, 181, 344, 212
-0.991511, 1, 201, 450, 264
-0.991513, 193, 217, 256, 248
-0.991548, 1, 257, 450, 320
-0.991577, 49, 345, 176, 408
-0.991578, 65, 217, 128, 248
-0.99158, 257, 129, 320, 384
-0.991584, 265, 381, 328, 412
-0.991587, 289, 33, 320, 160
-0.991589, 361, 417, 424, 448
-0.991606, 81, 125, 144, 156
-0.991629, 25, 321, 88, 352
-0.991637, 57, 253, 120, 284
-0.991642, 201, 249, 264, 280
-0.991649, 337, 213, 400, 244
-0.991653, 209, 329, 240, 392
-0.991658, 293, 113, 324, 240
-0.991666, 169, 185, 232, 216
-0.991669, 17, 193, 48, 256
-0.991681, 273, 57, 336, 88
-0.991685, 25, 337, 88, 464
-0.991706, 385, 381, 448, 412
-0.991728, 313, 369, 376, 400
-0.99173, 185, 1, 248, 480
-0.991736, 145, 121, 208, 152
-0.991747, 33, 281, 96, 312
-0.991762, 193, 129, 224, 256
-0.991762, 41, 65, 104, 320
-0.99177, 321, 201, 448, 264
-0.991782, 305, 241, 368, 272
-0.991798, 161, 1, 224, 480
-0.99182, 337, 377, 400, 408
-0.991834, 345, 273, 408, 304
-0.991841, 49, 301, 112, 332
-0.991849, 121, 141, 184, 172
-0.991851, 161, 245, 224, 276
-0.991894, 225, 129, 352, 192
-0.991908, 285, 73, 316, 136
-0.991923, 105, 97, 168, 128
-0.991937, 217, 305, 280, 336
-0.991937, 1, 65, 64, 192
-0.991944, 177, 385, 208, 448
-0.991949, 137, 81, 168, 144
-0.991967, 345, 1, 408, 480
-0.991969, 153, 225, 216, 256
-0.991971, 161, 85, 224, 116
-0.991979, 89, 209, 152, 240
-0.991985, 177, 269, 240, 300
-0.991989, 105, 85, 168, 116
-0.992001, 57, 241, 120, 272
-0.992004, 205, 305, 236, 368
-0.992012, 25, 197, 88, 228
-0.992026, 65, 173, 128, 204
-0.992052, 385, 329, 448, 360
-0.992057, 177, 293, 240, 324
-0.992066, 269, 369, 300, 400
-0.992076, 169, 173, 232, 204
-0.992081, 297, 69, 360, 100
-0.992089, 241, 285, 304, 316
-0.992122, 73, 273, 104, 400
-0.992123, 297, 273, 360, 304
-0.992129, 265, 269, 328, 300
-0.992133, 193, 373, 256, 404
-0.99216, 201, 237, 264, 268
-0.992161, 189, 385, 220, 448
-0.992176, 73, 109, 136, 140
-0.99218, 1, 205, 64, 236
-0.992181, 89, 405, 152, 436
-0.992194, 241, 57, 304, 88
-0.992206, 353, 145, 416, 176
-0.992214, 177, 281, 240, 312
-0.99225, 157, 385, 188, 448
-0.99226, 109, 1, 140, 128
-0.992268, 321, 89, 448, 152
-0.992275, 145, 109, 208, 140
-0.992284, 377, 153, 440, 184
-0.992296, 353, 393, 416, 424
-0.992296, 361, 77, 424, 108
-0.992309, 377, 357, 408, 388
-0.992309, 385, 25, 448, 56
-0.992312, 33, 297, 288, 360
-0.992318, 177, 305, 240, 336
-0.992323, 65, 201, 128, 232
-0.992324, 317, 353, 348, 480
-0.992333, 257, 101, 320, 132
-0.992336, 41, 185, 104, 216
-0.992339, 305, 161, 336, 288
-0.99234, 417, 361, 448, 392
-0.992343, 17, 233, 48, 296
-0.992349, 237, 305, 268, 368
-0.992357, 41, 349, 104, 380
-0.992386, 273, 337, 304, 368
-0.992392, 49, 201, 80, 264
-0.992396, 257, 353, 288, 384
-0.992409, 349, 241, 380, 272
-0.992411, 353, 193, 384, 320
-0.992414, 33, 329, 288, 392
-0.992417, 373, 233, 404, 264
-0.992433, 161, 33, 192, 160
-0.992434, 209, 1, 336, 64
-0.99244, 273, 1, 304, 128
-0.992443, 385, 229, 416, 260
-0.992455, 209, 1, 272, 480
-0.992467, 245, 269, 276, 300
-0.992471, 401, 397, 432, 428
-0.992519, 21, 289, 52, 416
-0.992526, 141, 173, 172, 204
-0.992536, 397, 229, 428, 260
-0.992568, 257, 341, 288, 372
-0.992583, 305, 289, 336, 416
-0.992593, 285, 181, 316, 212
-0.992599, 409, 229, 440, 260
-0.9926, 337, 253, 368, 284
-0.992601, 365, 337, 396, 368
-0.992609, 161, 161, 192, 192
-0.99263, 393, 305, 424, 336
-0.992638, 53, 249, 84, 280
-0.992638, 417, 265, 448, 296
-0.992642, 397, 261, 428, 292
-0.992655, 161, 189, 192, 220
-0.99266, 269, 357, 300, 388
-0.992662, 361, 229, 392, 260
-0.992671, 405, 285, 436, 316
-0.992687, 413, 309, 444, 340
-0.992687, 65, 217, 96, 248
-0.992692, 1, 409, 128, 472
-0.992692, 69, 185, 100, 216
-0.992693, 33, 257, 64, 288
-0.992707, 377, 249, 408, 280
-0.99271, 413, 321, 444, 352
-0.992715, 349, 269, 380, 300
-0.992718, 393, 365, 424, 396
-0.992719, 365, 361, 396, 392
-0.992732, 393, 241, 424, 272
-0.992737, 97, 161, 352, 224
-0.992756, 413, 241, 444, 272
-0.992761, 401, 385, 432, 416
-0.992764, 389, 145, 420, 272
-0.992766, 385, 409, 416, 440
-0.992766, 381, 313, 412, 344
-0.992774, 129, 17, 256, 80
-0.992776, 361, 253, 392, 284
-0.992778, 305, 9, 432, 72
-0.992788, 333, 225, 364, 256
-0.992796, 333, 281, 364, 312
-0.992804, 285, 353, 316, 384
-0.992809, 5, 161, 36, 288
-0.992824, 245, 361, 276, 392
-0.992837, 369, 377, 400, 408
-0.992839, 393, 317, 424, 348
-0.992847, 373, 289, 404, 320
-0.992852, 413, 373, 444, 404
-0.992855, 393, 345, 424, 376
-0.992865, 129, 125, 160, 156
-0.992868, 277, 193, 308, 256
-0.992868, 149, 193, 180, 224
-0.992872, 1, 245, 32, 276
-0.99289, 321, 269, 352, 300
-0.99289, 241, 349, 272, 380
-0.992895, 249, 281, 280, 312
-0.992896, 57, 237, 88, 268
-0.992897, 413, 385, 444, 416
-0.992898, 401, 417, 432, 448
-0.9929, 393, 293, 424, 324
-0.992913, 321, 237, 352, 268
-0.992914, 381, 301, 412, 332
-0.992915, 321, 257, 352, 288
-0.992915, 365, 401, 396, 432
-0.992916, 261, 57, 292, 88
-0.992933, 381, 381, 412, 412
-0.992936, 357, 373, 388, 404
-0.992939, 237, 281, 268, 312
-0.992939, 101, 185, 132, 216
-0.99294, 297, 181, 328, 212
-0.992955, 349, 257, 380, 288
-0.992958, 313, 353, 344, 384
-0.992958, 337, 269, 368, 300
-0.99296, 233, 269, 264, 300
-0.992963, 417, 409, 448, 440
-0.992966, 333, 237, 364, 268
-0.992966, 393, 217, 424, 248
-0.992967, 281, 69, 312, 100
-0.992974, 353, 281, 384, 312
-0.992978, 405, 273, 436, 304
-0.99298, 53, 261, 84, 292
-0.992981, 173, 173, 204, 204
-0.992985, 361, 265, 392, 296
-0.992992, 309, 289, 340, 320
-0.992996, 273, 185, 304, 216
-0.993004, 297, 345, 328, 376
-0.993006, 273, 325, 304, 356
-0.993007, 381, 217, 412, 248
-0.993018, 361, 301, 392, 332
-0.993019, 417, 217, 448, 248
-0.99303, 217, 269, 248, 300
-0.993034, 405, 349, 436, 380
-0.993035, 285, 341, 316, 372
-0.993037, 109, 93, 140, 124
-0.993039, 349, 229, 380, 260
-0.99304, 209, 193, 240, 320
-0.993041, 1, 177, 450, 240
-0.993043, 357, 349, 388, 380
-0.993052, 193, 369, 320, 400
-0.993053, 237, 337, 268, 368
-0.993055, 289, 193, 320, 224
-0.993058, 385, 261, 416, 292
-0.99306, 257, 1, 384, 64
-0.99306, 289, 377, 320, 408
-0.993063, 153, 173, 184, 204
-0.993065, 361, 217, 392, 248
-0.993071, 53, 213, 84, 244
-0.993071, 185, 233, 216, 264
-0.993073, 41, 241, 72, 272
-0.993074, 121, 177, 152, 208
-0.993078, 401, 329, 432, 360
-0.993081, 221, 281, 252, 312
-0.993082, 313, 69, 344, 100
-0.993085, 233, 361, 264, 392
-0.993088, 293, 365, 324, 396
-0.993091, 181, 85, 212, 116
-0.993091, 385, 397, 416, 428
-0.993099, 277, 49, 308, 80
-0.993104, 25, 245, 56, 276
-0.993107, 113, 205, 144, 236
-0.993108, 365, 389, 396, 420
-0.993108, 337, 17, 400, 144
-0.993111, 81, 221, 112, 252
-0.99312, 377, 333, 408, 364
-0.993123, 361, 241, 392, 272
-0.993128, 117, 125, 148, 156
-0.993134, 173, 205, 204, 236
-0.993135, 381, 73, 412, 104
-0.993137, 417, 277, 448, 308
-0.99314, 181, 221, 212, 252
-0.993141, 409, 253, 440, 284
-0.993143, 105, 121, 136, 152
-0.993146, 377, 345, 408, 376
-0.993148, 53, 353, 84, 384
-0.99315, 53, 305, 84, 336
-0.993252, 33, 1, 96, 480
-0.99336, 121, 353, 184, 480
-0.993363, 197, 353, 228, 480
-0.9934, 225, 201, 352, 264
-0.993401, 277, 329, 292, 392
-0.993407, 193, 321, 448, 384
-0.993429, 57, 305, 88, 432
-0.993429, 1, 281, 450, 344
-0.993477, 283, 345, 298, 408
-0.993478, 277, 353, 292, 416
-0.993519, 369, 49, 400, 176
-0.993619, 193, 25, 320, 88
-0.993626, 1, 1, 64, 480
-0.993642, 297, 353, 328, 480
-0.993689, 197, 177, 228, 304
-0.993707, 69, 129, 100, 256
-0.993743, 49, 25, 176, 88
-0.993747, 1, 337, 450, 400
-0.993874, 209, 337, 336, 368
-0.993886, 189, 17, 220, 144
-0.993887, 129, 345, 256, 408
-0.993945, 209, 105, 336, 168
-0.993954, 281, 273, 312, 400
-0.993999, 225, 417, 352, 480
-0.994008, 325, 161, 356, 288
-0.994035, 291, 329, 306, 392
-0.994054, 1, 305, 450, 368
-0.994068, 173, 193, 204, 320
-0.99409, 383, 337, 398, 400
-0.994104, 273, 361, 400, 392
-0.994129, 193, 377, 448, 440
-0.994173, 165, 161, 180, 224
-0.994179, 225, 349, 352, 380
-0.994187, 97, 49, 128, 176
-0.99421, 273, 1, 336, 480
-0.99423, 273, 129, 400, 192
-0.994369, 65, 73, 320, 136
-0.994407, 1, 113, 32, 240
-0.994408, 97, 173, 224, 204
-0.99441, 329, 353, 360, 480
-0.994424, 399, 281, 414, 344
-0.994461, 1, 385, 128, 448
-0.994488, 97, 201, 224, 232
-0.994617, 171, 153, 186, 216
-0.994668, 49, 185, 176, 216
-0.994682, 305, 1, 368, 480
-0.994695, 209, 281, 336, 312
-0.99474, 1, 377, 450, 440
-0.994767, 329, 17, 360, 144
-0.994782, 405, 17, 436, 144
-0.99479, 305, 229, 432, 260
-0.994815, 293, 353, 308, 416
-0.994842, 305, 289, 432, 320
-0.994865, 375, 361, 390, 424
-0.994905, 413, 265, 428, 328
-0.994911, 419, 361, 434, 424
-0.994942, 321, 177, 448, 240
-0.994957, 257, 265, 272, 328
-0.994957, 129, 137, 384, 200
-0.994959, 393, 313, 408, 376
-0.994989, 373, 337, 388, 400
-0.994994, 45, 305, 76, 432
-0.994996, 305, 277, 432, 308
-0.994996, 321, 349, 448, 380
-0.995, 283, 321, 298, 384
-0.995006, 1, 129, 256, 192
-0.995083, 1, 65, 32, 192
-0.995134, 33, 353, 288, 416
-0.99514, 273, 373, 400, 404
-0.99516, 265, 193, 296, 320
-0.995163, 17, 145, 144, 208
-0.99518, 273, 349, 400, 380
-0.99519, 271, 337, 286, 400
-0.995195, 415, 393, 430, 456
-0.995209, 173, 17, 204, 144
-0.995217, 405, 177, 436, 304
-0.995222, 411, 241, 426, 304
-0.995245, 81, 233, 96, 296
-0.995257, 1, 153, 256, 216
-0.995264, 365, 265, 380, 328
-0.99527, 389, 345, 404, 408
-0.995304, 33, 393, 288, 456
-0.995309, 97, 185, 224, 216
-0.995321, 1, 73, 450, 136
-0.995332, 381, 377, 396, 440
-0.995356, 249, 1, 312, 480
-0.995371, 387, 313, 402, 376
-0.995371, 159, 161, 174, 224
-0.995387, 409, 385, 424, 448
-0.995387, 65, 97, 320, 160
-0.995395, 257, 281, 384, 312
-0.995401, 245, 49, 276, 176
-0.995431, 393, 257, 408, 320
-0.995447, 97, 49, 352, 112
-0.99545, 273, 337, 400, 368
-0.995452, 399, 257, 414, 320
-0.995452, 407, 289, 422, 352
-0.995473, 425, 361, 440, 424
-0.995476, 367, 225, 382, 288
-0.995501, 225, 129, 288, 384
-0.995522, 355, 233, 370, 296
-0.995533, 177, 269, 304, 300
-0.995539, 109, 177, 124, 240
-0.995542, 425, 393, 440, 456
-0.995556, 151, 169, 166, 232
-0.995557, 81, 1, 208, 64
-0.995559, 261, 49, 292, 176
-0.995563, 97, 213, 224, 244
-0.995576, 373, 217, 388, 280
-0.995611, 133, 137, 148, 200
-0.995616, 1, 353, 64, 480
-0.995629, 389, 217, 404, 280
-0.995647, 119, 177, 134, 240
-0.99569, 141, 169, 156, 232
-0.995691, 209, 293, 336, 324
-0.995699, 71, 209, 86, 272
-0.995754, 283, 369, 298, 432
-0.995756, 417, 17, 448, 144
-0.995767, 179, 161, 194, 224
-0.995769, 329, 1, 392, 256
-0.995778, 79, 177, 94, 240
-0.995784, 335, 249, 350, 312
-0.995793, 361, 233, 376, 296
-0.995793, 299, 337, 314, 400
-0.995798, 407, 265, 422, 328
-0.9958, 411, 361, 426, 424
-0.995832, 97, 121, 224, 152
-0.99584, 321, 253, 448, 284
-0.995843, 347, 257, 362, 320
-0.995849, 139, 137, 154, 200
-0.995851, 257, 265, 384, 296
-0.995853, 321, 217, 448, 248
-0.995857, 297, 177, 312, 240
-0.99588, 213, 257, 228, 320
-0.995904, 1, 221, 128, 252
-0.995905, 419, 265, 434, 328
-0.995905, 73, 177, 88, 240
-0.995905, 419, 289, 434, 352
-0.995909, 1, 193, 128, 224
-0.995913, 379, 241, 394, 304
-0.995953, 357, 265, 372, 328
-0.995957, 421, 225, 436, 288
-0.995968, 145, 165, 272, 196
-0.995969, 393, 369, 408, 432
-0.996019, 149, 137, 164, 200
-0.996019, 51, 233, 66, 296
-0.99606, 165, 185, 180, 248
-0.996082, 371, 249, 386, 312
-0.996094, 303, 177, 318, 240
-0.996094, 1, 209, 128, 240
-0.996098, 1, 233, 128, 264
-0.9961, 399, 337, 414, 400
-0.996102, 329, 225, 344, 288
-0.996103, 161, 73, 416, 136
-0.996107, 273, 145, 304, 272
-0.996107, 113, 305, 240, 368
-0.996112, 391, 281, 406, 344
-0.996115, 263, 265, 278, 328
-0.99613, 341, 249, 356, 312
-0.996137, 33, 289, 64, 416
-0.99615, 193, 41, 448, 104
-0.996155, 127, 137, 142, 200
-0.996156, 321, 365, 448, 396
-0.996158, 353, 1, 416, 256
-0.996162, 85, 185, 100, 248
-0.996163, 1, 65, 64, 320
-0.996179, 413, 313, 428, 376
-0.996179, 367, 289, 382, 352
-0.996182, 49, 197, 176, 228
-0.996201, 121, 33, 152, 288
-0.996216, 341, 193, 372, 448
-0.996217, 367, 345, 382, 408
-0.996226, 49, 121, 176, 152
-0.996231, 321, 401, 448, 432
-0.996231, 379, 217, 394, 280
-0.996239, 97, 109, 224, 140
-0.99625, 301, 49, 332, 176
-0.996253, 367, 385, 382, 448
-0.996256, 291, 169, 306, 232
-0.996262, 373, 393, 388, 456
-0.996266, 433, 385, 448, 448
-0.996271, 377, 145, 408, 272
-0.996275, 185, 353, 216, 480
-0.996304, 425, 289, 440, 352
-0.996312, 17, 105, 144, 136
-0.996323, 377, 265, 392, 328
-0.996323, 387, 385, 402, 448
-0.996326, 321, 241, 448, 272
-0.996331, 321, 381, 448, 412
-0.99634, 81, 97, 208, 128
-0.99634, 433, 241, 448, 304
-0.996363, 277, 41, 292, 104
-0.996367, 241, 193, 272, 320
-0.996372, 257, 293, 384, 324
-0.996373, 95, 185, 110, 248
-0.996384, 297, 241, 328, 368
-0.996396, 407, 313, 422, 376
-0.996419, 431, 313, 446, 376
-0.99643, 399, 305, 414, 368
-0.996437, 435, 217, 450, 280
-0.996442, 265, 345, 280, 408
-0.996452, 125, 177, 140, 240
-0.996453, 121, 97, 136, 160
-0.996465, 339, 225, 354, 288
-0.996468, 161, 281, 288, 312
-0.996472, 1, 409, 450, 472
-0.996479, 411, 337, 426, 400
-0.996503, 97, 81, 224, 112
-0.996517, 251, 265, 266, 328
-0.996523, 171, 177, 186, 240
-0.996525, 379, 313, 394, 376
-0.996529, 17, 121, 144, 184
-0.996534, 133, 33, 164, 288
-0.996535, 1, 145, 450, 208
-0.996537, 103, 185, 118, 248
-0.996538, 275, 377, 290, 440
-0.996548, 1, 265, 128, 296
-0.996564, 321, 265, 448, 296
-0.996567, 413, 289, 428, 352
-0.996575, 283, 41, 298, 104
-0.996581, 69, 233, 84, 296
-0.996596, 75, 249, 90, 312
-0.9966, 65, 417, 320, 480
-0.996602, 49, 209, 176, 240
-0.996604, 361, 209, 376, 272
-0.996607, 1, 253, 128, 284
-0.996629, 109, 33, 140, 288
-0.996633, 229, 329, 244, 392
-0.996651, 321, 113, 448, 176
-0.996651, 257, 153, 384, 216
-0.996655, 251, 337, 266, 400
-0.996663, 273, 181, 400, 212
-0.996665, 145, 193, 272, 224
-0.996679, 155, 121, 170, 184
-0.99668, 257, 89, 384, 152
-0.996686, 419, 321, 434, 384
-0.996686, 377, 193, 408, 448
-0.996694, 135, 169, 150, 232
-0.996703, 211, 369, 226, 432
-0.996713, 81, 137, 208, 168
-0.996736, 177, 177, 304, 208
-0.996751, 223, 257, 238, 320
-0.996752, 1, 41, 450, 104
-0.996758, 61, 249, 76, 312
-0.996759, 189, 57, 204, 120
-0.99676, 357, 225, 388, 480
-0.996762, 427, 265, 442, 328
-0.996771, 177, 381, 304, 412
-0.996771, 401, 393, 416, 456
-0.996777, 161, 205, 288, 236
-0.996778, 217, 113, 280, 240
-0.996778, 427, 241, 442, 304
-0.99678, 259, 289, 274, 352
-0.996787, 321, 337, 448, 368
-0.996798, 177, 357, 304, 388
-0.996802, 185, 161, 200, 224
-0.996811, 43, 233, 58, 296
-0.996813, 189, 209, 204, 272
-0.996815, 315, 337, 330, 400
-0.996822, 257, 385, 384, 416
-0.996822, 399, 233, 414, 296
-0.996825, 195, 217, 210, 280
-0.996843, 161, 333, 288, 364
-0.996851, 49, 289, 176, 320
-0.996855, 65, 1, 128, 128
-0.996858, 289, 377, 304, 440
-0.996866, 129, 133, 256, 164
-0.996867, 87, 217, 102, 280
-0.996871, 309, 177, 324, 240
-0.996884, 351, 209, 366, 272
-0.996887, 429, 337, 444, 400
-0.996892, 51, 257, 66, 320
-0.996908, 241, 65, 368, 96
-0.996913, 177, 233, 304, 264
-0.996923, 97, 69, 224, 100
-0.996936, 321, 301, 448, 332
-0.99696, 209, 325, 336, 356
-0.996963, 209, 161, 336, 192
-0.996973, 161, 153, 288, 184
-0.997003, 113, 249, 240, 280
-0.997011, 193, 245, 320, 276
-0.997016, 1, 321, 128, 352
-0.997064, 397, 193, 428, 448
-0.997096, 257, 253, 384, 284
-0.99711, 413, 225, 444, 480
-0.997118, 321, 81, 448, 112
-0.997141, 289, 325, 416, 356
-0.997149, 305, 65, 432, 96
-0.997161, 193, 257, 320, 288
-0.997174, 145, 105, 272, 136
-0.997178, 113, 225, 240, 256
-0.99719, 177, 53, 304, 84
-0.997192, 145, 121, 272, 152
-0.997262, 257, 225, 384, 256
-0.997274, 257, 193, 384, 224
-0.997293, 387, 349, 402, 380
-0.997298, 145, 89, 272, 120
-0.997313, 275, 369, 290, 400
-0.997319, 153, 33, 184, 288
-0.997324, 161, 401, 416, 464
-0.997327, 305, 413, 432, 444
-0.99733, 17, 93, 144, 124
-0.997331, 275, 353, 290, 384
-0.99734, 209, 313, 336, 344
-0.99734, 17, 1, 144, 64
-0.997362, 161, 321, 288, 352
-0.997384, 49, 221, 176, 252
-0.997384, 285, 369, 300, 400
-0.997398, 1, 337, 128, 368
-0.997409, 305, 1, 368, 256
-0.997413, 261, 269, 276, 300
-0.997426, 177, 217, 304, 248
-0.997428, 165, 161, 180, 192
-0.997446, 373, 245, 388, 276
-0.99745, 289, 169, 416, 200
-0.997451, 177, 65, 304, 96
-0.997462, 177, 129, 304, 192
-0.99747, 381, 361, 396, 392
-0.99747, 225, 173, 352, 204
-0.997474, 429, 357, 444, 388
-0.997474, 365, 261, 380, 292
-0.997476, 1, 297, 128, 328
-0.997493, 145, 369, 272, 400
-0.997498, 399, 237, 414, 268
-0.997498, 77, 129, 108, 384
-0.997502, 49, 277, 176, 308
-0.997548, 409, 229, 424, 260
-0.99755, 391, 229, 406, 260
-0.997556, 97, 161, 224, 192
-0.997556, 129, 261, 256, 292
-0.997557, 49, 237, 176, 268
-0.997559, 49, 257, 176, 288
-0.99756, 407, 389, 422, 420
-0.997561, 277, 337, 292, 368
-0.997574, 161, 345, 288, 376
-0.997579, 297, 185, 312, 216
-0.997588, 1, 285, 128, 316
-0.997595, 113, 237, 240, 268
-0.997605, 281, 353, 296, 384
-0.997605, 161, 293, 288, 324
-0.997622, 197, 225, 228, 480
-0.997626, 49, 65, 176, 96
-0.997629, 337, 257, 352, 288
-0.997642, 49, 257, 64, 288
-0.997643, 373, 365, 388, 396
-0.997649, 329, 193, 360, 448
-0.997657, 321, 49, 448, 80
-0.997661, 305, 157, 432, 188
-0.997663, 159, 169, 174, 200
-0.997667, 407, 289, 422, 320
-0.99767, 383, 233, 398, 264
-0.997677, 347, 257, 362, 288
-0.997678, 433, 265, 448, 296
-0.997682, 403, 305, 418, 336
-0.997684, 321, 313, 448, 344
-0.997684, 433, 277, 448, 308
-0.997685, 387, 309, 402, 340
-0.997685, 293, 337, 308, 368
-0.997689, 365, 229, 380, 260
-0.997695, 411, 269, 426, 300
-0.997698, 145, 413, 272, 444
-0.997698, 419, 233, 434, 264
-0.997701, 287, 357, 302, 388
-0.997716, 409, 321, 424, 352
-0.997717, 417, 385, 432, 416
-0.99772, 185, 193, 216, 448
-0.997721, 69, 225, 100, 480
-0.997722, 393, 301, 408, 332
-0.99773, 357, 241, 372, 272
-0.997731, 1, 309, 128, 340
-0.997733, 97, 97, 128, 352
-0.997745, 373, 377, 388, 408
-0.997747, 287, 329, 302, 360
-0.997749, 321, 425, 448, 456
-0.997759, 165, 185, 180, 216
-0.997779, 269, 357, 284, 388
-0.997783, 1, 121, 450, 184
-0.997802, 417, 309, 432, 340
-0.997834, 161, 1, 224, 128
-0.997837, 257, 81, 384, 112
-0.997837, 221, 193, 252, 448
-0.997838, 171, 185, 186, 216
-0.997842, 57, 161, 88, 416
-0.997842, 129, 129, 160, 384
-0.997846, 49, 301, 176, 332
-0.997851, 295, 353, 310, 384
-0.997852, 361, 129, 392, 384
-0.997854, 367, 385, 382, 416
-0.99786, 303, 181, 318, 212
-0.997861, 1, 69, 128, 100
-0.997862, 171, 157, 186, 188
-0.997864, 371, 285, 386, 316
-0.99787, 49, 161, 176, 192
-0.997891, 161, 113, 416, 176
-0.997894, 419, 273, 434, 304
-0.997896, 225, 53, 352, 84
-0.997907, 387, 297, 402, 328
-0.997909, 349, 225, 364, 256
-0.997912, 343, 245, 358, 276
-0.997915, 287, 181, 302, 212
-0.997916, 373, 229, 388, 260
-0.99792, 159, 193, 174, 224
-0.997923, 401, 289, 416, 320
-0.997924, 165, 173, 180, 204
-0.997926, 315, 281, 330, 312
-0.997929, 129, 49, 256, 80
-0.997932, 49, 337, 176, 368
-0.997933, 411, 253, 426, 284
-0.997946, 389, 365, 404, 396
-0.997949, 65, 397, 192, 428
-0.997951, 405, 241, 420, 272
-0.997953, 419, 365, 434, 396
-0.997958, 389, 249, 404, 280
-0.997965, 309, 117, 324, 148
-0.997966, 375, 341, 390, 372
-0.997966, 193, 5, 320, 36
-0.997974, 305, 145, 432, 176
-0.997977, 209, 105, 336, 136
-0.997977, 305, 33, 432, 64
-0.997979, 273, 241, 400, 272
-0.997979, 153, 241, 216, 368
-0.997981, 389, 261, 404, 292
-0.997994, 405, 253, 420, 284
-0.997995, 193, 189, 320, 220
-0.997995, 435, 229, 450, 260
-0.997997, 371, 265, 386, 296
-0.997999, 427, 409, 442, 440
-0.998004, 173, 129, 204, 384
-0.998007, 363, 245, 378, 276
-0.998019, 165, 1, 196, 256
-0.998033, 337, 229, 352, 260
-0.998035, 321, 93, 448, 124
-0.99804, 53, 245, 68, 276
-0.998048, 329, 281, 344, 312
-0.998049, 417, 401, 432, 432
-0.99805, 157, 181, 172, 212
-0.998051, 285, 69, 300, 100
-0.998054, 411, 241, 426, 272
-0.998055, 329, 233, 344, 264
-0.998056, 145, 77, 272, 108
-0.998056, 255, 357, 270, 388
-0.998058, 153, 169, 168, 200
-0.998062, 397, 217, 412, 248
-0.998065, 233, 225, 264, 480
-0.998069, 419, 285, 434, 316
-0.998073, 251, 341, 266, 372
-0.998076, 341, 269, 356, 300
-0.998081, 251, 269, 266, 300
-0.998081, 247, 361, 262, 392
-0.998082, 425, 313, 440, 344
-0.998083, 377, 265, 392, 296
-0.998086, 387, 217, 402, 248
-0.998087, 425, 229, 440, 260
-0.998088, 1, 433, 128, 464
-0.998088, 145, 169, 160, 200
-0.998094, 411, 373, 426, 404
-0.998095, 181, 165, 196, 196
-0.998095, 129, 309, 256, 340
-0.998095, 377, 397, 392, 428
-0.998097, 77, 217, 92, 248
-0.998098, 381, 317, 396, 348
-0.998104, 49, 349, 176, 380
-0.998104, 415, 221, 430, 252
-0.998106, 265, 341, 280, 372
-0.998107, 251, 281, 266, 312
-0.998108, 383, 409, 398, 440
-0.998108, 209, 225, 240, 480
-0.998117, 383, 381, 398, 412
-0.998118, 279, 45, 294, 76
-0.998124, 399, 249, 414, 280
-0.998127, 193, 161, 448, 224
-0.998131, 365, 361, 380, 392
-0.998131, 279, 57, 294, 88
-0.998132, 395, 313, 410, 344
-0.998132, 417, 417, 432, 448
-0.998134, 1, 97, 450, 160
-0.998134, 413, 289, 428, 320
-0.998134, 17, 81, 144, 112
-0.998135, 415, 325, 430, 356
-0.998138, 355, 229, 370, 260
-0.998139, 281, 325, 296, 356
-0.998139, 129, 5, 256, 36
-0.99814, 81, 237, 96, 268
-0.998142, 31, 321, 46, 352
-0.998143, 363, 373, 378, 404
-0.998151, 225, 145, 352, 176
-0.998156, 49, 173, 176, 204
-0.998156, 193, 17, 448, 80
-0.998156, 381, 349, 396, 380
-0.998158, 85, 225, 100, 256
-0.998162, 73, 185, 88, 216
-0.998166, 429, 245, 444, 276
-0.998169, 249, 225, 280, 480
-0.998172, 397, 269, 412, 300
-0.998173, 119, 205, 134, 236
-0.998176, 399, 409, 414, 440
-0.998177, 243, 269, 258, 300
-0.998183, 149, 197, 164, 228
-0.998184, 319, 349, 334, 380
-0.998184, 435, 253, 450, 284
-0.998191, 223, 269, 238, 300
-0.998195, 303, 345, 318, 376
-0.998197, 117, 129, 148, 384
-0.9982, 209, 249, 224, 280
-0.998201, 145, 129, 176, 384
-0.998201, 379, 245, 394, 276
-0.998216, 1, 25, 128, 88
-0.998257, 337, 97, 368, 352
-0.998328, 97, 25, 352, 88
-0.998328, 1, 33, 256, 96
-0.998342, 217, 1, 280, 256
-0.998405, 57, 225, 88, 240
-0.998405, 373, 277, 404, 292
-0.998407, 53, 305, 84, 320
-0.998408, 357, 277, 388, 292
-0.998408, 173, 183, 204, 198
-0.998409, 173, 85, 204, 100
-0.998409, 397, 269, 428, 284
-0.998409, 417, 417, 448, 432
-0.99841, 289, 179, 320, 194
-0.99841, 393, 325, 424, 340
-0.99841, 325, 229, 356, 244
-0.998413, 249, 341, 312, 356
-0.998414, 361, 367, 392, 382
-0.998414, 393, 393, 424, 408
-0.998414, 417, 303, 448, 318
-0.998415, 365, 287, 396, 302
-0.998415, 393, 379, 424, 394
-0.998415, 109, 183, 140, 198
-0.998415, 61, 241, 92, 256
-0.998417, 237, 283, 268, 298
-0.998417, 381, 409, 412, 424
-0.998418, 253, 363, 284, 378
-0.998419, 349, 295, 380, 310
-0.99842, 117, 127, 148, 142
-0.998421, 57, 253, 88, 268
-0.998421, 321, 271, 352, 286
-0.998422, 321, 291, 352, 306
-0.998422, 381, 311, 412, 326
-0.998423, 313, 233, 344, 248
-0.998423, 269, 367, 300, 382
-0.998423, 409, 287, 440, 302
-0.998424, 401, 387, 432, 402
-0.998426, 401, 421, 432, 436
-0.998427, 377, 335, 408, 350
-0.998428, 397, 287, 428, 302
-0.998429, 393, 299, 424, 314
-0.998429, 393, 275, 424, 290
-0.998429, 241, 357, 272, 372
-0.99843, 389, 347, 420, 362
-0.998431, 329, 245, 360, 260
-0.998432, 377, 353, 408, 368
-0.998433, 105, 193, 136, 448
-0.998433, 409, 257, 440, 272
-0.998433, 273, 195, 304, 210
-0.998434, 301, 357, 332, 372
-0.998435, 385, 281, 416, 296
-0.998435, 281, 365, 312, 380
-0.998436, 45, 259, 76, 274
-0.998436, 257, 341, 288, 356
-0.998436, 281, 339, 312, 354
-0.998437, 385, 249, 416, 264
-0.998438, 413, 373, 444, 388
-0.998438, 405, 249, 436, 264
-0.99844, 249, 285, 280, 300
-0.99844, 401, 293, 432, 308
-0.998441, 357, 269, 388, 284
-0.998442, 157, 197, 188, 212
-0.998442, 133, 201, 164, 216
-0.998442, 121, 179, 152, 194
-0.998443, 413, 331, 444, 346
-0.998443, 381, 301, 412, 316
-0.998446, 153, 183, 184, 198
-0.998446, 345, 239, 376, 254
-0.998447, 269, 349, 300, 364
-0.998448, 145, 195, 208, 210
-0.998448, 157, 171, 188, 186
-0.99845, 417, 231, 448, 246
-0.99845, 241, 363, 272, 378
-0.99845, 377, 367, 408, 382
-0.998451, 373, 381, 404, 396
-0.998452, 361, 231, 392, 246
-0.998455, 345, 255, 376, 270
-0.998455, 361, 377, 392, 392
-0.998455, 369, 235, 432, 250
-0.998456, 393, 367, 424, 382
-0.998456, 33, 265, 64, 280
-0.998458, 57, 259, 88, 274
-0.998458, 281, 349, 312, 364
-0.998458, 377, 261, 408, 276
-0.998458, 417, 267, 448, 282
-0.998462, 69, 219, 100, 234
-0.998462, 269, 357, 300, 372
-0.998462, 265, 349, 328, 364
-0.99847, 129, 135, 160, 150
-0.99847, 413, 387, 444, 402
-0.998471, 369, 379, 432, 394
-0.998471, 285, 195, 316, 210
-0.998473, 289, 355, 320, 370
-0.998477, 381, 317, 412, 332
-0.998477, 365, 349, 396, 364
-0.998478, 373, 267, 404, 282
-0.99848, 285, 185, 316, 200
-0.99848, 137, 171, 200, 186
-0.998481, 417, 361, 448, 376
-0.998483, 309, 293, 340, 308
-0.998483, 393, 373, 424, 388
-0.998485, 409, 273, 440, 288
-0.998485, 401, 401, 432, 416
-0.998486, 385, 371, 448, 386
-0.998488, 413, 243, 444, 258
-0.998489, 273, 333, 304, 348
-0.998489, 257, 347, 288, 362
-0.998491, 349, 245, 380, 260
-0.998492, 33, 259, 96, 274
-0.998495, 361, 263, 392, 278
-0.998495, 413, 323, 444, 338
-0.998496, 345, 233, 408, 248
-0.998497, 385, 291, 448, 306
-0.998498, 273, 379, 304, 394
-0.998499, 257, 357, 288, 372
-0.9985, 417, 237, 448, 252
-0.998501, 53, 265, 84, 280
-0.998502, 373, 373, 404, 388
-0.998503, 297, 349, 328, 364
-0.998504, 117, 207, 148, 222
-0.998505, 121, 201, 184, 216
-0.998505, 393, 263, 424, 278
-0.998506, 341, 267, 372, 282
-0.998506, 333, 257, 364, 272
-0.998507, 345, 373, 408, 388
-0.998508, 73, 187, 104, 202
-0.998509, 401, 305, 432, 320
-0.998509, 329, 277, 360, 292
-0.998509, 269, 339, 300, 354
-0.99851, 329, 239, 392, 254
-0.998511, 265, 375, 328, 390
-0.998512, 65, 189, 128, 204
-0.998513, 329, 245, 392, 260
-0.998514, 145, 199, 176, 214
-0.998515, 357, 237, 388, 252
-0.998515, 157, 129, 188, 384
-0.998516, 377, 351, 440, 366
-0.998516, 249, 335, 312, 350
-0.998518, 325, 235, 356, 250
-0.998518, 361, 287, 424, 302
-0.998518, 361, 297, 424, 312
-0.998519, 393, 235, 424, 250
-0.99852, 373, 247, 404, 262
-0.998522, 9, 263, 72, 278
-0.998523, 385, 415, 416, 430
-0.998525, 353, 267, 416, 282
-0.998526, 361, 241, 424, 256
-0.998526, 361, 365, 424, 380
-0.998528, 337, 289, 400, 304
-0.998528, 337, 231, 368, 246
-0.998529, 365, 343, 396, 358
-0.998534, 385, 417, 448, 432
-0.998534, 321, 233, 384, 248
-0.998535, 113, 181, 176, 196
-0.998536, 281, 355, 344, 370
-0.998537, 413, 367, 444, 382
-0.998537, 113, 129, 176, 144
-0.998538, 161, 191, 192, 206
-0.998539, 393, 243, 424, 258
-0.998539, 385, 303, 448, 318
-0.998542, 377, 359, 408, 374
-0.998542, 377, 265, 440, 280
-0.998546, 225, 367, 288, 382
-0.998548, 377, 315, 440, 330
-0.99855, 373, 241, 404, 256
-0.99855, 209, 283, 272, 298
-0.998553, 265, 381, 328, 396
-0.998553, 41, 219, 104, 234
-0.998554, 141, 173, 172, 188
-0.998554, 345, 353, 408, 368
-0.998555, 225, 349, 288, 364
-0.998556, 225, 333, 288, 348
-0.998557, 377, 233, 408, 248
-0.998557, 249, 359, 312, 374
-0.998557, 33, 265, 96, 280
-0.998558, 145, 201, 208, 216
-0.998558, 321, 259, 384, 274
-0.998561, 1, 17, 450, 80
-0.998561, 153, 189, 216, 204
-0.998561, 153, 165, 216, 180
-0.998562, 225, 343, 288, 358
-0.998563, 165, 165, 196, 180
-0.998567, 1, 257, 64, 272
-0.998567, 345, 251, 408, 266
-0.998568, 241, 373, 304, 388
-0.998568, 377, 407, 440, 422
-0.998569, 281, 369, 344, 384
-0.998569, 385, 275, 448, 290
-0.998571, 41, 225, 104, 240
-0.998571, 33, 259, 64, 274
-0.998573, 361, 345, 424, 360
-0.998575, 405, 235, 436, 250
-0.998576, 41, 237, 104, 252
-0.998576, 185, 215, 248, 230
-0.998578, 377, 401, 440, 416
-0.998578, 289, 349, 352, 364
-0.998579, 289, 375, 352, 390
-0.99858, 369, 321, 432, 336
-0.99858, 385, 243, 448, 258
-0.998581, 209, 289, 272, 304
-0.998581, 361, 339, 424, 354
-0.998584, 329, 281, 392, 296
-0.998585, 385, 357, 448, 372
-0.998585, 113, 121, 176, 136
-0.998586, 329, 265, 392, 280
-0.998589, 105, 207, 168, 222
-0.998589, 385, 257, 448, 272
-0.998589, 377, 229, 440, 244
-0.998589, 361, 359, 424, 374
-0.998589, 385, 365, 448, 380
-0.99859, 377, 331, 440, 346
-0.998593, 33, 317, 96, 332
-0.998594, 385, 251, 448, 266
-0.998596, 105, 115, 168, 130
-0.998596, 41, 231, 104, 246
-0.998598, 361, 303, 424, 318
-0.998598, 185, 221, 248, 236
-0.998598, 113, 175, 176, 190
-0.998598, 81, 125, 144, 140
-0.998599, 113, 135, 176, 150
-0.998602, 369, 281, 432, 296
-0.998602, 321, 377, 384, 392
-0.998602, 385, 309, 448, 324
-0.998603, 329, 367, 392, 382
-0.998603, 153, 183, 216, 198
-0.998604, 385, 297, 448, 312
-0.998605, 289, 287, 352, 302
-0.998605, 337, 273, 400, 288
-0.998606, 369, 385, 432, 400
-0.998606, 321, 253, 384, 268
-0.998608, 361, 413, 424, 428
-0.998608, 145, 207, 208, 222
-0.998609, 305, 241, 368, 256
-0.998612, 81, 135, 144, 150
-0.998613, 321, 297, 384, 312
-0.998614, 313, 291, 376, 306
-0.998616, 33, 245, 96, 260
-0.998616, 345, 257, 408, 272
-0.998616, 317, 193, 348, 448
-0.998616, 33, 311, 96, 326
-0.998617, 249, 329, 312, 344
-0.998618, 25, 323, 88, 338
-0.998618, 345, 227, 408, 242
-0.99862, 225, 359, 288, 374
-0.99862, 209, 269, 272, 284
-0.998621, 241, 285, 304, 300
-0.998621, 321, 351, 384, 366
-0.998623, 89, 185, 152, 200
-0.998623, 265, 285, 328, 300
-0.998623, 241, 379, 304, 394
-0.998624, 1, 225, 64, 240
-0.998624, 305, 247, 368, 262
-0.998625, 273, 185, 336, 200
-0.998627, 381, 33, 412, 288
-0.998627, 217, 325, 280, 340
-0.998629, 161, 85, 224, 100
-0.99863, 361, 273, 424, 288
-0.99863, 329, 361, 392, 376
-0.99863, 129, 165, 192, 180
-0.99863, 25, 251, 88, 266
-0.998632, 225, 277, 288, 292
-0.998633, 273, 69, 336, 84
-0.998633, 289, 293, 352, 308
-0.998634, 361, 151, 424, 166
-0.998636, 361, 395, 424, 410
-0.998637, 65, 219, 128, 234
-0.998638, 249, 55, 312, 70
-0.998638, 289, 253, 352, 268
-0.998639, 353, 315, 416, 330
-0.998652, 269, 373, 300, 388
-0.998694, 85, 33, 116, 288
-0.9987, 233, 129, 264, 384
-0.998719, 155, 113, 170, 240
-0.998743, 147, 129, 162, 256
-0.998749, 65, 65, 96, 320
-0.998761, 405, 33, 436, 288
-0.998772, 285, 321, 300, 448
-0.998778, 205, 129, 236, 384
-0.9988, 383, 337, 398, 464
-0.998819, 389, 321, 404, 448
-0.998828, 435, 257, 450, 384
-0.998831, 127, 129, 142, 256
-0.998845, 121, 129, 136, 256
-0.998845, 261, 225, 292, 480
-0.998855, 317, 97, 348, 352
-0.998858, 277, 321, 292, 448
-0.998863, 383, 289, 398, 416
-0.998887, 135, 129, 150, 256
-0.998891, 81, 177, 96, 304
-0.998914, 395, 305, 410, 432
-0.998915, 177, 33, 208, 288
-0.998926, 165, 145, 180, 272
-0.998939, 141, 129, 156, 256
-0.998941, 373, 225, 388, 352
-0.998944, 387, 225, 402, 352
-0.998953, 393, 241, 408, 368
-0.998956, 71, 177, 86, 304
-0.998971, 429, 241, 444, 368
-0.999001, 291, 337, 306, 464
-0.999002, 115, 129, 130, 256
-0.999006, 89, 193, 120, 448
-0.999025, 377, 273, 392, 400
-0.999035, 377, 337, 392, 464
-0.99904, 393, 33, 424, 288
-0.999053, 97, 1, 128, 256
-0.999061, 285, 225, 316, 480
-0.999062, 435, 209, 450, 336
-0.999064, 417, 129, 448, 384
-0.999066, 1, 161, 32, 416
-0.999074, 427, 289, 442, 416
-0.999075, 363, 241, 378, 368
-0.999076, 371, 321, 386, 448
-0.999077, 399, 241, 414, 368
-0.99908, 137, 81, 152, 208
-0.99908, 147, 65, 162, 192
-0.999082, 173, 145, 188, 272
-0.999085, 77, 225, 92, 352
-0.999086, 401, 289, 416, 416
-0.999114, 193, 97, 224, 352
-0.999118, 19, 241, 34, 368
-0.99912, 413, 257, 428, 384
-0.999122, 55, 225, 70, 352
-0.999126, 271, 353, 286, 480
-0.999133, 131, 81, 146, 208
-0.999135, 45, 225, 76, 480
-0.999136, 339, 209, 354, 336
-0.999147, 87, 177, 102, 304
-0.999184, 65, 193, 80, 320
-0.999186, 309, 113, 324, 240
-0.99919, 245, 129, 276, 384
-0.999192, 45, 241, 60, 368
-0.999193, 379, 225, 394, 352
-0.999197, 227, 321, 242, 448
-0.999198, 191, 145, 206, 272
-0.999206, 107, 177, 122, 304
-0.999206, 415, 337, 430, 464
-0.999211, 349, 97, 380, 352
-0.999214, 435, 305, 450, 432
-0.999215, 221, 305, 236, 432
-0.999216, 405, 225, 420, 352
-0.99922, 401, 337, 416, 464
-0.999221, 153, 65, 168, 192
-0.999221, 395, 353, 410, 480
-0.999223, 185, 161, 200, 288
-0.999224, 93, 177, 108, 304
-0.999237, 263, 273, 278, 400
-0.999237, 179, 145, 194, 272
-0.999238, 407, 321, 422, 448
-0.999244, 371, 273, 386, 400
-0.999245, 121, 81, 136, 208
-0.999247, 109, 113, 124, 240
-0.999247, 429, 337, 444, 464
-0.999251, 297, 337, 312, 464
-0.999265, 277, 1, 292, 128
-0.999271, 325, 209, 340, 336
-0.999272, 21, 289, 36, 416
-0.999283, 161, 97, 176, 224
-0.999284, 189, 1, 220, 256
-0.999287, 199, 225, 214, 352
-0.999288, 113, 177, 128, 304
-0.999289, 265, 129, 296, 384
-0.999292, 159, 161, 174, 288
-0.999293, 365, 321, 380, 448
-0.999299, 31, 241, 46, 368
-0.999304, 173, 97, 188, 224
-0.999312, 421, 225, 436, 352
-0.999318, 271, 1, 286, 128
-0.999318, 229, 241, 244, 368
-0.99932, 303, 113, 318, 240
-0.999322, 99, 177, 114, 304
-0.999325, 293, 289, 308, 416
-0.999325, 421, 273, 436, 400
-0.99933, 399, 65, 414, 192
-0.999335, 167, 97, 182, 224
-0.999337, 189, 65, 204, 192
-0.999346, 125, 1, 140, 128
-0.999351, 395, 193, 410, 320
-0.999353, 329, 257, 344, 384
-0.999357, 209, 353, 224, 480
-0.999361, 411, 209, 426, 336
-0.999362, 357, 209, 372, 336
-0.999364, 287, 273, 302, 400
-0.999367, 217, 97, 248, 352
-0.999374, 27, 193, 42, 320
-0.99938, 271, 305, 286, 432
-0.999382, 313, 49, 328, 176
-0.999382, 303, 177, 318, 304
-0.999382, 193, 209, 208, 336
-0.999387, 223, 241, 238, 368
-0.999388, 209, 241, 224, 368
-0.99939, 119, 177, 134, 304
-0.99939, 345, 209, 360, 336
-0.999391, 297, 225, 328, 480
-0.999392, 367, 193, 382, 320
-0.999396, 215, 241, 230, 368
-0.999399, 233, 337, 248, 464
-0.9994, 265, 337, 280, 464
-0.99941, 99, 129, 114, 256
-0.999411, 1, 65, 32, 320
-0.999412, 407, 273, 422, 400
-0.999413, 39, 209, 54, 336
-0.999413, 153, 161, 168, 288
-0.999414, 391, 1, 406, 128
-0.999416, 435, 353, 450, 480
-0.999416, 71, 257, 86, 384
-0.999419, 53, 65, 84, 320
-0.999419, 277, 273, 292, 400
-0.999431, 3, 209, 18, 336
-0.999435, 421, 337, 436, 464
-0.999438, 299, 289, 314, 416
-0.99944, 277, 49, 292, 176
-0.999444, 283, 49, 298, 176
-0.999445, 249, 257, 264, 384
-0.999449, 383, 177, 398, 304
-0.999449, 25, 241, 40, 368
-0.999452, 59, 177, 74, 304
-0.999456, 215, 353, 230, 480
-0.999457, 65, 241, 80, 368
-0.999458, 351, 289, 366, 416
-0.999458, 255, 241, 270, 368
-0.999462, 197, 145, 212, 272
-0.999463, 49, 193, 64, 320
-0.999463, 57, 273, 72, 400
-0.999469, 131, 1, 146, 128
-0.999477, 417, 33, 448, 288
-0.999479, 361, 33, 392, 288
-0.99948, 305, 97, 336, 352
-0.999485, 97, 1, 352, 64
-0.999497, 273, 225, 304, 480
-0.999509, 13, 193, 44, 448
-0.999515, 233, 33, 264, 288
-0.999526, 1, 9, 256, 72
-0.999551, 245, 33, 276, 288
-0.999559, 281, 1, 312, 256
-0.999562, 265, 1, 296, 256
-0.999611, 291, 335, 306, 350
-0.999611, 409, 327, 424, 342
-0.999612, 127, 205, 142, 220
-0.999613, 421, 269, 436, 284
-0.999613, 357, 231, 372, 246
-0.999613, 365, 269, 380, 284
-0.999613, 383, 271, 398, 286
-0.999613, 279, 365, 294, 380
-0.999615, 283, 71, 298, 86
-0.999615, 355, 297, 370, 312
-0.999616, 355, 273, 370, 288
-0.999616, 411, 271, 426, 286
-0.999616, 399, 235, 414, 250
-0.999617, 335, 245, 350, 260
-0.999618, 251, 283, 266, 298
-0.999619, 387, 373, 402, 388
-0.999619, 261, 277, 276, 292
-0.99962, 383, 419, 398, 434
-0.99962, 331, 251, 346, 266
-0.999621, 191, 89, 206, 104
-0.999621, 183, 167, 198, 182
-0.999621, 405, 319, 420, 334
-0.999621, 287, 187, 302, 202
-0.999622, 389, 241, 404, 256
-0.999622, 367, 383, 382, 398
-0.999622, 279, 357, 294, 372
-0.999623, 117, 209, 132, 224
-0.999624, 325, 293, 340, 308
-0.999624, 419, 243, 434, 258
-0.999625, 379, 261, 394, 276
-0.999626, 145, 201, 160, 216
-0.999626, 347, 267, 362, 282
-0.999627, 417, 315, 432, 330
-0.999629, 417, 325, 432, 340
-0.999629, 409, 243, 424, 258
-0.999629, 343, 261, 358, 276
-0.999629, 291, 195, 306, 210
-0.99963, 425, 431, 440, 446
-0.999632, 395, 293, 410, 308
-0.999632, 337, 231, 352, 246
-0.999632, 265, 347, 280, 362
-0.999632, 285, 367, 300, 382
-0.999633, 151, 171, 166, 186
-0.999633, 417, 387, 432, 402
-0.999633, 351, 231, 366, 246
-0.999634, 305, 181, 320, 196
-0.999635, 297, 349, 312, 364
-0.999635, 365, 297, 380, 312
-0.999636, 429, 321, 444, 336
-0.999636, 43, 259, 58, 274
-0.999637, 395, 303, 410, 318
-0.999637, 377, 397, 392, 412
-0.999637, 75, 187, 90, 202
-0.999637, 435, 327, 450, 342
-0.999638, 399, 283, 414, 298
-0.999638, 329, 283, 344, 298
-0.999638, 351, 255, 366, 270
-0.999638, 395, 273, 410, 288
-0.999639, 339, 255, 354, 270
-0.999639, 347, 225, 362, 240
-0.99964, 371, 267, 386, 282
-0.999641, 27, 325, 42, 340
-0.999641, 371, 299, 386, 314
-0.999642, 297, 195, 312, 210
-0.999643, 285, 357, 300, 372
-0.999643, 337, 271, 352, 286
-0.999643, 307, 115, 322, 130
-0.999644, 25, 261, 40, 276
-0.999645, 375, 289, 390, 304
-0.999645, 359, 237, 374, 252
-0.999646, 277, 335, 292, 350
-0.999647, 397, 243, 412, 258
-0.999647, 367, 241, 382, 256
-0.999647, 431, 267, 446, 282
-0.999647, 335, 261, 350, 276
-0.999648, 427, 287, 442, 302
-0.999648, 381, 361, 396, 376
-0.999649, 365, 233, 380, 248
-0.999649, 387, 311, 402, 326
-0.99965, 285, 373, 300, 388
-0.99965, 293, 343, 308, 358
-0.99965, 165, 191, 180, 206
-0.999652, 167, 165, 182, 180
-0.999653, 407, 287, 422, 302
-0.999654, 435, 261, 450, 276
-0.999656, 285, 333, 300, 348
-0.999656, 373, 233, 388, 248
-0.999656, 411, 321, 426, 336
-0.999657, 155, 191, 170, 206
-0.999658, 433, 241, 448, 256
-0.999659, 407, 235, 422, 250
-0.999659, 393, 235, 408, 250
-0.999659, 413, 265, 428, 280
-0.99966, 393, 317, 408, 332
-0.999661, 399, 263, 414, 278
-0.999661, 157, 199, 172, 214
-0.999664, 401, 295, 416, 310
-0.999665, 425, 235, 440, 250
-0.999665, 375, 379, 390, 394
-0.999666, 327, 233, 342, 248
-0.999667, 435, 277, 450, 292
-0.99967, 373, 239, 388, 254
-0.999671, 379, 247, 394, 262
-0.999671, 423, 325, 438, 340
-0.999671, 159, 169, 174, 184
-0.999672, 151, 199, 166, 214
-0.999673, 373, 247, 388, 262
-0.999675, 377, 267, 392, 282
-0.999675, 275, 371, 290, 386
-0.99968, 387, 359, 402, 374
-0.99968, 145, 171, 160, 186
-0.999683, 415, 235, 430, 250
-0.999684, 435, 235, 450, 250
-0.999684, 387, 233, 402, 248
-0.999692, 379, 233, 394, 248
-0.999693, 121, 203, 136, 218
-0.999693, 173, 161, 188, 176
-0.999695, 371, 257, 386, 272
-0.999699, 389, 265, 404, 280
-0.999701, 365, 263, 380, 278
-0.999703, 49, 259, 64, 274
-0.999714, 387, 317, 402, 332
-0.999718, 345, 253, 360, 268
-0.999719, 273, 357, 288, 372
-0.999721, 407, 391, 422, 406
-0.999723, 217, 1, 248, 256
-0.999726, 165, 185, 180, 200
-0.999747, 305, 1, 336, 256
-0.999755, 289, 97, 320, 352
-0.999755, 383, 241, 398, 256
-0.999756, 387, 351, 402, 366
-0.999767, 171, 187, 186, 202
-0.999772, 429, 359, 444, 374
-0.999775, 33, 97, 64, 352
-0.999776, 325, 1, 356, 256
-0.999845, 205, 33, 236, 288
-0.999847, 293, 1, 324, 256
-0.999875, 345, 1, 376, 256
-0.9999, 117, 225, 148, 480
-0.999907, 25, 225, 56, 480
-1.00001, 277, 129, 308, 384
-1.00011, 173, 225, 204, 480
-1.00021, 21, 65, 52, 320
-1.00024, 37, 1, 68, 256
-1.00025, 153, 225, 184, 480
-1.00027, 129, 225, 160, 480
-1.00034, 141, 225, 172, 480
-1.00061, 41, 1, 104, 128
-1.00191, 129, 225, 192, 352
-1.00349, 113, 305, 176, 432
-1.00399, 97, 225, 160, 352
