1959
-0.397744, 1, 97, 500, 352
-0.44953, 1, 1, 256, 375
-0.480515, 1, 1, 500, 375
-0.485717, 1, 1, 500, 256
-0.523213, 1, 97, 256, 352
-0.523422, 97, 129, 352, 375
-0.525658, 129, 1, 384, 375
-0.526548, 225, 1, 480, 375
-0.70456, 193, 129, 448, 375
-0.716298, 97, 33, 352, 288
-0.761839, 1, 1, 256, 256
-0.805971, 257, 33, 500, 288
-0.826084, 81, 129, 208, 375
-0.848695, 145, 129, 272, 375
-0.857245, 17, 1, 144, 375
-0.858466, 17, 33, 144, 288
-0.859684, 209, 129, 336, 375
-0.860597, 33, 129, 160, 375
-0.861131, 1, 241, 500, 368
-0.87616, 257, 1, 384, 375
-0.876244, 1, 193, 500, 320
-0.876975, 113, 1, 240, 375
-0.87919, 65, 1, 192, 375
-0.884528, 257, 241, 500, 368
-0.886174, 161, 1, 288, 375
-0.886574, 65, 33, 192, 288
-0.891292, 1, 81, 500, 208
-0.895174, 97, 193, 352, 320
-0.895709, 145, 33, 272, 288
-0.896924, 1, 241, 256, 368
-0.900279, 321, 129, 448, 375
-0.90222, 97, 241, 352, 368
-0.903014, 273, 33, 400, 288
-0.904264, 1, 97, 256, 224
-0.905621, 369, 97, 496, 352
-0.907916, 209, 1, 336, 375
-0.910065, 1, 129, 500, 256
-0.910436, 337, 1, 464, 375
-0.912948, 257, 129, 384, 375
-0.915934, 97, 145, 352, 272
-0.919104, 9, 225, 72, 352
-0.921122, 1, 241, 128, 368
-0.922125, 41, 241, 104, 368
-0.923225, 97, 81, 352, 208
-0.925168, 225, 177, 480, 304
-0.925346, 177, 241, 304, 368
-0.92586, 97, 209, 224, 336
-0.925885, 1, 145, 256, 272
-0.929142, 113, 241, 176, 368
-0.929789, 353, 1, 480, 256
-0.930237, 65, 81, 192, 208
-0.931153, 65, 241, 128, 368
-0.93263, 89, 193, 152, 320
-0.933054, 289, 241, 416, 368
-0.934127, 121, 161, 184, 288
-0.934819, 17, 129, 144, 256
-0.93586, 49, 241, 176, 368
-0.936355, 129, 161, 256, 288
-0.936838, 105, 81, 168, 208
-0.937447, 265, 241, 328, 368
-0.937547, 137, 209, 200, 336
-0.938412, 49, 177, 176, 304
-0.93867, 225, 225, 352, 352
-0.938925, 225, 1, 352, 256
-0.939985, 89, 241, 152, 368
-0.939989, 1, 193, 256, 320
-0.940472, 161, 225, 224, 352
-0.940644, 1, 33, 500, 160
-0.941835, 305, 225, 368, 352
-0.941914, 129, 81, 192, 208
-0.942805, 57, 257, 120, 320
-0.942984, 33, 249, 96, 312
-0.945961, 65, 193, 128, 320
-0.946207, 257, 161, 384, 288
-0.946924, 81, 265, 144, 328
-0.947083, 257, 113, 500, 240
-0.94729, 9, 281, 72, 344
-0.947413, 81, 129, 208, 256
-0.947619, 305, 161, 432, 288
-0.947655, 145, 129, 208, 256
-0.947697, 177, 129, 304, 256
-0.947699, 57, 97, 120, 224
-0.948222, 17, 49, 144, 176
-0.949078, 41, 193, 104, 320
-0.949305, 1, 49, 256, 176
-0.949509, 193, 241, 256, 368
-0.949583, 113, 81, 240, 208
-0.949654, 233, 129, 296, 256
-0.94966, 305, 233, 368, 296
-0.950278, 257, 273, 320, 336
-0.950333, 1, 193, 128, 320
-0.950358, 241, 177, 304, 304
-0.950493, 209, 177, 336, 304
-0.950963, 185, 161, 248, 288
-0.951448, 25, 65, 88, 192
-0.952144, 33, 1, 160, 128
-0.952677, 17, 145, 80, 272
-0.953496, 217, 209, 280, 336
-0.953565, 241, 201, 304, 264
-0.953792, 1, 233, 64, 296
-0.954117, 257, 113, 384, 240
-0.954716, 313, 161, 376, 288
-0.954822, 113, 265, 176, 328
-0.954956, 81, 113, 144, 240
-0.955066, 281, 281, 344, 344
-0.955299, 353, 161, 416, 288
-0.955308, 153, 305, 216, 368
-0.955914, 321, 169, 384, 232
-0.955931, 49, 281, 112, 344
-0.956761, 129, 89, 192, 152
-0.958242, 137, 153, 200, 216
-0.958244, 129, 313, 192, 375
-0.958254, 257, 305, 320, 368
-0.958663, 233, 137, 296, 200
-0.959018, 153, 249, 216, 312
-0.95924, 49, 313, 112, 375
-0.959568, 241, 225, 304, 352
-0.959954, 89, 289, 152, 352
-0.960346, 1, 257, 64, 320
-0.960389, 153, 281, 216, 344
-0.960784, 369, 113, 496, 240
-0.960791, 9, 313, 72, 375
-0.960853, 209, 129, 272, 256
-0.961052, 97, 97, 160, 160
-0.961899, 57, 129, 120, 192
-0.961946, 113, 65, 176, 320
-0.962176, 161, 177, 224, 304
-0.962226, 25, 225, 56, 352
-0.96255, 177, 313, 240, 375
-0.962643, 393, 241, 456, 368
-0.96279, 65, 49, 128, 176
-0.962999, 105, 145, 168, 208
-0.963124, 1, 1, 256, 128
-0.963634, 281, 241, 344, 304
-0.963758, 145, 217, 208, 280
-0.963991, 281, 177, 344, 304
-0.964147, 105, 169, 168, 232
-0.964162, 161, 81, 288, 208
-0.964198, 53, 225, 84, 352
-0.96424, 233, 305, 296, 368
-0.964272, 101, 241, 132, 368
-0.964479, 105, 257, 136, 320
-0.964674, 169, 113, 232, 240
-0.964745, 129, 289, 192, 352
-0.964756, 137, 65, 200, 320
-0.964786, 337, 209, 464, 336
-0.964909, 97, 241, 160, 304
-0.965067, 185, 273, 248, 336
-0.965544, 73, 241, 104, 368
-0.965707, 37, 225, 68, 352
-0.965773, 9, 225, 40, 352
-0.965945, 129, 177, 192, 240
-0.966229, 89, 241, 120, 368
-0.966268, 305, 281, 368, 344
-0.966851, 417, 241, 480, 368
-0.966867, 33, 249, 160, 312
-0.96696, 201, 313, 264, 375
-0.966972, 177, 177, 240, 240
-0.967241, 89, 257, 120, 320
-0.967328, 233, 281, 296, 344
-0.967511, 257, 225, 320, 288
-0.967539, 17, 153, 80, 216
-0.96789, 97, 193, 128, 320
-0.96797, 225, 305, 352, 368
-0.968208, 45, 241, 76, 304
-0.968374, 89, 193, 152, 256
-0.968443, 401, 297, 464, 360
-0.968501, 77, 257, 108, 320
-0.968679, 217, 249, 280, 312
-0.968718, 13, 233, 44, 296
-0.96901, 309, 225, 340, 352
-0.969114, 41, 17, 104, 144
-0.969123, 233, 81, 296, 208
-0.969343, 121, 193, 152, 320
-0.969403, 329, 209, 392, 336
-0.969416, 129, 241, 192, 304
-0.969492, 25, 113, 88, 176
-0.969493, 81, 129, 144, 375
-0.96955, 97, 121, 160, 184
-0.969722, 29, 241, 60, 304
-0.969736, 281, 313, 344, 375
-0.970083, 65, 121, 192, 184
-0.970114, 161, 137, 224, 200
-0.970249, 129, 113, 192, 176
-0.970323, 129, 33, 384, 160
-0.970354, 153, 145, 184, 272
-0.970572, 173, 225, 204, 352
-0.970613, 97, 273, 224, 336
-0.970667, 393, 273, 456, 336
-0.970777, 353, 161, 480, 288
-0.970893, 257, 233, 384, 296
-0.971072, 65, 249, 96, 312
-0.97112, 97, 249, 224, 312
-0.971124, 65, 153, 128, 216
-0.971133, 257, 249, 320, 312
-0.971211, 177, 265, 304, 328
-0.971219, 193, 233, 256, 296
-0.971258, 1, 281, 128, 344
-0.971366, 241, 129, 304, 375
-0.971421, 289, 193, 352, 256
-0.971424, 425, 273, 488, 336
-0.971442, 305, 257, 368, 320
-0.971447, 257, 281, 384, 344
-0.971457, 97, 217, 160, 280
-0.971761, 273, 113, 336, 240
-0.971819, 81, 161, 208, 224
-0.971852, 321, 209, 384, 272
-0.971908, 169, 65, 232, 192
-0.971938, 361, 169, 424, 232
-0.972057, 145, 225, 176, 352
-0.972081, 1, 313, 32, 375
-0.972113, 21, 265, 52, 328
-0.972158, 377, 145, 440, 272
-0.972169, 293, 297, 324, 360
-0.972193, 121, 209, 184, 272
-0.972216, 241, 177, 304, 240
-0.972353, 157, 81, 188, 208
-0.972892, 113, 241, 144, 368
-0.973023, 273, 161, 336, 224
-0.973096, 57, 145, 120, 272
-0.973106, 433, 297, 496, 360
-0.973125, 5, 273, 36, 336
-0.97319, 217, 209, 280, 272
-0.973225, 305, 313, 368, 375
-0.973254, 433, 145, 496, 272
-0.973413, 201, 129, 264, 375
-0.973562, 25, 225, 88, 288
-0.9737, 1, 233, 32, 296
-0.973967, 273, 273, 304, 336
-0.974145, 81, 305, 208, 368
-0.974158, 65, 177, 128, 240
-0.97416, 177, 313, 304, 375
-0.974311, 313, 281, 344, 344
-0.97438, 145, 233, 272, 296
-0.974417, 109, 113, 140, 240
-0.974439, 173, 289, 204, 352
-0.974526, 209, 241, 336, 304
-0.974551, 385, 193, 448, 320
-0.974694, 125, 241, 156, 368
-0.974763, 177, 201, 240, 264
-0.974796, 1, 97, 64, 224
-0.974829, 321, 225, 352, 352
-0.974898, 37, 281, 68, 344
-0.97495, 157, 209, 188, 336
-0.974951, 1, 313, 128, 375
-0.97507, 81, 97, 208, 160
-0.97519, 257, 177, 384, 240
-0.975205, 217, 161, 280, 224
-0.975223, 57, 281, 88, 344
-0.975278, 409, 241, 440, 368
-0.97528, 73, 105, 136, 168
-0.975283, 337, 1, 464, 128
-0.975283, 169, 113, 232, 176
-0.975348, 17, 129, 80, 375
-0.975382, 297, 241, 328, 368
-0.975387, 97, 313, 160, 375
-0.975515, 109, 193, 140, 320
-0.975561, 165, 313, 196, 375
-0.975604, 145, 65, 176, 192
-0.975687, 129, 65, 192, 128
-0.975771, 145, 33, 272, 160
-0.975789, 1, 145, 128, 208
-0.975798, 49, 273, 176, 336
-0.976062, 137, 161, 168, 288
-0.976083, 409, 249, 472, 312
-0.976105, 129, 33, 192, 160
-0.976186, 177, 129, 240, 375
-0.976203, 57, 233, 120, 296
-0.976233, 185, 225, 216, 352
-0.976288, 17, 113, 144, 176
-0.976666, 289, 257, 416, 320
-0.976718, 89, 33, 152, 160
-0.976877, 193, 153, 320, 216
-0.976884, 1, 209, 64, 272
-0.976968, 433, 169, 496, 232
-0.976993, 25, 73, 88, 136
-0.977014, 209, 217, 336, 280
-0.977033, 345, 209, 408, 272
-0.97705, 353, 209, 416, 336
-0.977104, 41, 129, 104, 375
-0.977107, 81, 193, 112, 320
-0.977127, 97, 225, 224, 288
-0.977159, 121, 273, 152, 336
-0.977331, 157, 89, 188, 152
-0.977482, 73, 289, 104, 352
-0.977521, 189, 313, 220, 375
-0.977581, 149, 289, 180, 352
-0.977654, 257, 65, 500, 192
-0.977664, 333, 177, 364, 304
-0.977671, 177, 177, 304, 240
-0.977748, 205, 241, 236, 368
-0.977783, 81, 185, 208, 248
-0.977814, 121, 81, 152, 208
-0.977825, 17, 177, 48, 304
-0.977929, 169, 217, 200, 280
-0.978139, 397, 241, 428, 368
-0.978145, 89, 121, 120, 184
-0.978263, 113, 137, 240, 200
-0.978269, 185, 257, 216, 320
-0.978396, 273, 209, 400, 272
-0.978401, 129, 161, 256, 224
-0.978412, 305, 177, 432, 240
-0.978482, 289, 265, 320, 328
-0.978546, 81, 33, 208, 160
-0.978593, 169, 225, 232, 288
-0.978783, 101, 113, 132, 176
-0.978806, 145, 209, 272, 272
-0.978843, 177, 289, 304, 352
-0.978866, 257, 297, 288, 360
-0.978983, 277, 241, 308, 368
-0.979002, 245, 225, 276, 352
-0.979107, 49, 65, 80, 192
-0.979207, 145, 97, 272, 160
-0.979222, 89, 281, 120, 344
-0.979266, 137, 169, 168, 232
-0.979282, 281, 305, 312, 368
-0.979287, 33, 217, 160, 280
-0.979308, 233, 113, 296, 176
-0.9794, 313, 313, 344, 375
-0.979464, 1, 177, 32, 304
-0.979707, 101, 297, 132, 360
-0.979723, 425, 97, 488, 224
-0.979729, 121, 233, 152, 296
-0.979849, 33, 33, 96, 96
-0.979874, 153, 89, 216, 152
-0.980045, 49, 105, 112, 168
-0.980053, 65, 193, 96, 320
-0.980076, 301, 249, 332, 312
-0.980093, 241, 233, 272, 296
-0.980095, 145, 81, 176, 144
-0.980118, 345, 249, 408, 312
-0.980157, 409, 265, 440, 328
-0.980204, 217, 185, 280, 248
-0.98021, 261, 273, 292, 336
-0.980234, 245, 297, 276, 360
-0.980365, 133, 81, 164, 144
-0.980395, 153, 313, 184, 375
-0.980403, 133, 265, 164, 328
-0.980411, 397, 257, 428, 320
-0.980432, 33, 65, 64, 192
-0.980492, 125, 185, 156, 248
-0.980514, 25, 33, 88, 288
-0.980573, 113, 185, 144, 248
-0.980574, 369, 289, 496, 352
-0.980577, 161, 129, 288, 192
-0.980602, 337, 225, 368, 288
-0.980625, 109, 161, 140, 224
-0.980684, 41, 153, 104, 216
-0.980763, 305, 129, 368, 375
-0.980794, 337, 249, 464, 312
-0.980878, 125, 145, 156, 272
-0.980974, 129, 313, 256, 375
-0.980975, 181, 185, 212, 248
-0.981014, 201, 281, 232, 344
-0.981089, 45, 313, 76, 375
-0.981121, 61, 97, 92, 224
-0.981146, 65, 1, 128, 256
-0.981186, 29, 177, 60, 304
-0.981193, 469, 297, 500, 360
-0.981197, 93, 177, 124, 240
-0.981203, 265, 161, 296, 288
-0.981317, 313, 233, 344, 296
-0.981334, 89, 113, 120, 240
-0.981334, 261, 137, 292, 200
-0.981375, 209, 281, 272, 344
-0.981502, 117, 97, 148, 160
-0.981593, 13, 305, 44, 368
-0.981846, 385, 249, 448, 312
-0.981879, 169, 97, 200, 224
-0.981925, 333, 281, 364, 344
-0.981973, 233, 313, 264, 375
-0.981992, 193, 161, 224, 288
-0.982072, 17, 169, 144, 232
-0.982081, 161, 113, 192, 176
-0.9821, 385, 97, 448, 224
-0.982198, 353, 129, 416, 375
-0.982326, 257, 145, 384, 208
-0.982328, 113, 1, 176, 375
-0.982331, 133, 65, 164, 192
-0.982357, 145, 265, 176, 328
-0.982433, 121, 297, 152, 360
-0.982438, 345, 169, 376, 232
-0.982572, 105, 73, 168, 136
-0.982586, 157, 145, 188, 208
-0.982612, 305, 281, 432, 344
-0.982814, 225, 1, 480, 128
-0.982832, 261, 185, 292, 248
-0.982841, 257, 33, 384, 160
-0.982859, 161, 33, 224, 288
-0.982883, 229, 241, 260, 368
-0.982885, 401, 225, 464, 288
-0.98291, 41, 9, 104, 72
-0.982918, 65, 209, 128, 272
-0.982928, 9, 209, 40, 272
-0.982941, 265, 129, 328, 375
-0.982967, 133, 313, 164, 375
-0.983008, 201, 257, 232, 320
-0.983079, 245, 209, 276, 272
-0.983112, 233, 145, 264, 272
-0.983121, 161, 289, 192, 352
-0.983129, 145, 137, 176, 200
-0.983131, 337, 97, 400, 224
-0.983231, 417, 193, 448, 320
-0.983292, 305, 313, 432, 375
-0.983312, 369, 297, 432, 360
-0.983321, 141, 241, 172, 304
-0.98333, 209, 137, 272, 200
-0.983444, 209, 81, 272, 208
-0.983565, 425, 97, 488, 352
-0.983581, 73, 81, 136, 144
-0.98359, 57, 41, 120, 104
-0.983627, 113, 209, 144, 272
-0.983754, 325, 233, 356, 296
-0.983756, 369, 161, 496, 224
-0.983772, 93, 233, 124, 296
-0.983801, 321, 217, 448, 280
-0.983804, 129, 185, 256, 248
-0.983818, 29, 113, 60, 176
-0.983841, 425, 129, 488, 192
-0.983842, 229, 241, 260, 304
-0.983862, 161, 249, 192, 312
-0.983978, 377, 161, 408, 224
-0.983994, 249, 265, 280, 328
-0.984029, 1, 193, 128, 256
-0.984105, 45, 121, 76, 184
-0.98411, 177, 161, 208, 288
-0.984226, 269, 305, 300, 368
-0.984235, 189, 233, 220, 296
-0.98437, 273, 201, 304, 264
-0.984435, 377, 145, 408, 272
-0.984493, 409, 161, 472, 288
-0.984516, 17, 73, 144, 136
-0.984601, 17, 1, 80, 375
-0.984667, 89, 33, 152, 288
-0.984671, 65, 1, 128, 128
-0.984673, 413, 241, 444, 304
-0.984747, 1, 129, 64, 192
-0.984809, 289, 225, 320, 288
-0.984855, 9, 177, 72, 240
-0.984879, 345, 161, 376, 288
-0.984898, 25, 289, 56, 352
-0.984907, 429, 241, 460, 368
-0.984981, 73, 313, 136, 375
-0.984998, 257, 241, 288, 368
-0.985029, 201, 233, 232, 296
-0.985034, 241, 81, 304, 144
-0.985048, 33, 49, 160, 112
-0.985186, 397, 193, 428, 320
-0.985254, 385, 145, 448, 208
-0.985309, 329, 273, 392, 336
-0.985335, 321, 257, 352, 320
-0.985343, 101, 201, 132, 264
-0.985413, 217, 161, 248, 288
-0.98547, 337, 201, 368, 264
-0.985471, 357, 161, 388, 288
-0.985478, 445, 265, 476, 328
-0.98552, 405, 289, 436, 352
-0.985534, 1, 33, 64, 160
-0.985543, 245, 113, 276, 240
-0.985572, 469, 129, 500, 256
-0.985634, 357, 209, 388, 272
-0.985655, 277, 193, 308, 320
-0.985844, 153, 193, 216, 256
-0.985893, 449, 289, 480, 352
-0.985922, 61, 113, 92, 176
-0.985928, 353, 185, 480, 248
-0.985929, 41, 145, 72, 272
-0.985965, 141, 217, 172, 280
-0.986027, 169, 137, 200, 200
-0.986079, 325, 209, 356, 272
-0.986116, 257, 161, 288, 224
-0.986209, 93, 153, 124, 216
-0.986248, 25, 313, 56, 375
-0.98628, 305, 97, 432, 224
-0.986306, 321, 177, 352, 304
-0.986311, 469, 145, 500, 208
-0.986335, 33, 89, 64, 152
-0.986399, 17, 9, 144, 72
-0.986422, 125, 209, 156, 272
-0.986435, 57, 305, 88, 368
-0.986449, 281, 217, 344, 280
-0.986452, 41, 17, 72, 144
-0.986558, 261, 113, 292, 240
-0.986594, 401, 129, 464, 375
-0.986616, 161, 1, 224, 375
-0.986617, 177, 313, 208, 375
-0.986626, 333, 169, 364, 232
-0.986693, 325, 313, 356, 375
-0.986706, 61, 49, 92, 176
-0.986714, 289, 193, 320, 320
-0.986824, 397, 233, 428, 296
-0.986868, 81, 73, 208, 136
-0.986927, 233, 273, 264, 336
-0.98693, 189, 289, 220, 352
-0.986953, 45, 73, 76, 136
-0.986985, 137, 1, 200, 375
-0.987013, 377, 129, 440, 375
-0.98705, 353, 1, 416, 128
-0.987075, 257, 137, 320, 200
-0.987101, 185, 153, 248, 216
-0.987119, 105, 89, 136, 152
-0.987138, 105, 137, 136, 200
-0.987185, 169, 193, 200, 256
-0.987211, 457, 161, 488, 224
-0.987252, 357, 177, 388, 240
-0.987281, 209, 129, 336, 192
-0.987297, 81, 145, 112, 208
-0.987368, 97, 257, 352, 320
-0.987388, 209, 153, 240, 216
-0.987427, 209, 81, 336, 208
-0.98743, 97, 313, 352, 375
-0.987466, 165, 145, 196, 272
-0.98751, 21, 97, 52, 224
-0.987525, 381, 241, 412, 368
-0.987547, 109, 233, 140, 296
-0.987611, 281, 1, 344, 375
-0.987689, 169, 65, 232, 128
-0.987699, 157, 217, 188, 280
-0.987714, 273, 113, 336, 176
-0.987771, 129, 337, 192, 368
-0.98787, 41, 285, 104, 316
-0.987874, 245, 129, 276, 192
-0.987924, 41, 153, 72, 216
-0.987944, 233, 193, 264, 256
-0.98795, 433, 297, 464, 360
-0.987985, 329, 313, 392, 375
-0.987998, 49, 73, 112, 136
-0.988004, 225, 217, 256, 280
-0.988159, 205, 161, 236, 288
-0.988182, 213, 241, 244, 304
-0.988185, 145, 73, 272, 136
-0.988198, 57, 225, 88, 288
-0.988264, 353, 209, 384, 336
-0.988323, 233, 33, 296, 288
-0.988334, 73, 113, 104, 240
-0.988344, 65, 281, 128, 312
-0.98838, 129, 89, 192, 120
-0.988404, 137, 113, 168, 240
-0.988493, 17, 277, 80, 308
-0.988513, 305, 241, 368, 272
-0.988543, 73, 1, 136, 375
-0.988564, 257, 49, 320, 176
-0.988616, 449, 241, 480, 368
-0.988623, 65, 129, 320, 192
-0.988668, 1, 237, 64, 268
-0.988676, 105, 65, 136, 192
-0.988676, 217, 241, 248, 368
-0.988689, 193, 33, 320, 160
-0.988704, 369, 273, 432, 336
-0.98875, 337, 241, 368, 368
-0.988774, 241, 309, 304, 340
-0.988779, 85, 65, 116, 192
-0.988784, 97, 269, 160, 300
-0.988807, 369, 313, 496, 375
-0.988845, 89, 285, 152, 316
-0.988994, 249, 177, 280, 304
-0.989022, 33, 249, 96, 280
-0.989028, 377, 217, 440, 280
-0.989052, 33, 265, 96, 296
-0.989068, 57, 261, 120, 292
-0.989081, 153, 325, 216, 356
-0.989113, 1, 249, 256, 312
-0.989196, 241, 57, 304, 120
-0.989202, 41, 1, 104, 375
-0.989203, 265, 277, 328, 308
-0.989238, 257, 281, 500, 344
-0.989242, 65, 293, 128, 324
-0.989249, 9, 49, 72, 112
-0.98925, 321, 181, 384, 212
-0.989282, 65, 1, 128, 64
-0.989325, 9, 317, 72, 348
-0.989357, 53, 177, 84, 304
-0.989369, 233, 1, 296, 375
-0.989373, 25, 201, 88, 264
-0.989418, 369, 193, 432, 256
-0.989449, 1, 281, 256, 344
-0.98945, 225, 241, 480, 304
-0.989479, 193, 105, 320, 168
-0.989501, 121, 285, 184, 316
-0.989533, 97, 161, 160, 192
-0.989538, 273, 321, 336, 352
-0.98955, 89, 341, 152, 372
-0.989552, 193, 325, 256, 356
-0.989585, 121, 273, 184, 304
-0.989601, 233, 137, 296, 168
-0.989613, 353, 1, 416, 64
-0.989674, 105, 205, 168, 236
-0.989748, 281, 345, 344, 375
-0.989773, 153, 337, 216, 368
-0.989791, 297, 265, 360, 296
-0.989795, 1, 105, 256, 168
-0.989878, 281, 241, 344, 272
-0.989893, 305, 153, 432, 216
-0.989919, 121, 217, 184, 248
-0.98993, 241, 209, 304, 240
-0.989943, 1, 293, 64, 324
-0.989964, 1, 265, 64, 296
-0.989969, 129, 325, 192, 356
-0.989974, 49, 337, 112, 368
-0.989989, 9, 305, 72, 336
-0.989997, 57, 149, 120, 180
-0.990012, 9, 345, 72, 375
-0.990013, 105, 185, 168, 216
-0.990052, 389, 145, 420, 272
-0.990062, 393, 1, 456, 128
-0.990067, 153, 313, 216, 344
-0.990076, 457, 129, 488, 256
-0.990093, 129, 177, 192, 208
-0.990094, 129, 153, 384, 216
-0.990108, 369, 137, 496, 200
-0.990113, 49, 325, 112, 356
-0.990128, 97, 257, 160, 288
-0.990129, 41, 297, 104, 328
-0.990154, 305, 253, 368, 284
-0.990165, 201, 261, 264, 292
-0.990193, 209, 113, 272, 176
-0.990208, 161, 277, 224, 308
-0.990214, 361, 169, 424, 200
-0.99025, 273, 33, 336, 288
-0.990279, 257, 121, 384, 184
-0.990286, 25, 329, 88, 360
-0.990302, 241, 225, 304, 256
-0.990304, 425, 49, 488, 176
-0.990377, 89, 297, 152, 328
-0.990416, 305, 345, 368, 375
-0.99044, 153, 293, 216, 324
-0.99044, 305, 281, 368, 312
-0.990475, 337, 145, 400, 208
-0.990478, 265, 305, 328, 336
-0.990497, 113, 105, 176, 136
-0.990502, 241, 197, 304, 228
-0.990514, 241, 241, 304, 272
-0.990515, 145, 165, 208, 196
-0.990525, 313, 229, 376, 260
-0.990527, 105, 173, 168, 204
-0.990539, 89, 49, 152, 112
-0.990541, 81, 197, 144, 228
-0.99056, 129, 233, 384, 296
-0.990562, 129, 297, 192, 328
-0.990578, 309, 177, 340, 304
-0.99058, 161, 221, 224, 252
-0.990587, 57, 249, 120, 280
-0.990587, 153, 253, 216, 284
-0.990598, 241, 257, 304, 288
-0.990689, 129, 117, 192, 148
-0.99069, 257, 345, 320, 375
-0.990692, 393, 293, 456, 324
-0.990715, 137, 205, 200, 236
-0.990727, 81, 181, 144, 212
-0.99074, 181, 97, 212, 224
-0.990747, 305, 1, 368, 375
-0.990767, 281, 333, 344, 364
-0.990771, 417, 1, 480, 128
-0.990787, 121, 261, 184, 292
-0.990794, 1, 313, 500, 375
-0.9908, 393, 345, 456, 375
-0.990802, 1, 225, 500, 288
-0.990806, 89, 113, 152, 144
-0.99081, 385, 33, 448, 288
-0.990834, 433, 293, 496, 324
-0.990866, 305, 329, 368, 360
-0.99089, 257, 1, 320, 375
-0.990914, 65, 133, 128, 164
-0.990923, 201, 245, 264, 276
-0.990924, 105, 149, 168, 180
-0.990927, 241, 269, 304, 300
-0.99093, 217, 313, 280, 344
-0.990943, 185, 309, 248, 340
-0.990948, 257, 289, 320, 320
-0.990958, 321, 197, 384, 228
-0.990958, 233, 161, 296, 192
-0.990978, 9, 249, 72, 280
-0.990985, 49, 309, 112, 340
-0.991028, 217, 205, 280, 236
-0.991031, 409, 333, 472, 364
-0.991036, 201, 273, 264, 304
-0.991051, 137, 237, 200, 268
-0.991075, 161, 237, 224, 268
-0.991079, 313, 113, 376, 240
-0.991084, 281, 229, 344, 260
-0.991085, 129, 129, 192, 160
-0.991119, 281, 253, 344, 284
-0.99112, 25, 117, 88, 148
-0.99112, 185, 177, 248, 208
-0.991122, 57, 117, 120, 148
-0.991123, 153, 17, 216, 144
-0.991124, 289, 301, 352, 332
-0.991132, 129, 149, 192, 180
-0.991161, 313, 317, 376, 348
-0.991165, 433, 305, 496, 336
-0.991177, 1, 305, 256, 368
-0.991182, 177, 257, 240, 288
-0.991187, 89, 329, 152, 360
-0.991188, 65, 169, 128, 200
-0.991191, 257, 313, 500, 375
-0.991204, 81, 245, 144, 276
-0.991244, 345, 261, 408, 292
-0.991266, 393, 281, 456, 312
-0.991268, 177, 337, 240, 368
-0.991273, 249, 65, 280, 192
-0.991279, 193, 33, 256, 288
-0.99128, 233, 297, 296, 328
-0.991292, 129, 189, 192, 220
-0.991307, 17, 141, 80, 172
-0.991311, 157, 33, 188, 160
-0.991329, 1, 333, 64, 364
-0.991336, 89, 137, 152, 168
-0.991344, 305, 1, 432, 64
-0.991344, 17, 157, 80, 188
-0.991352, 129, 313, 192, 344
-0.991358, 281, 197, 344, 228
-0.991361, 89, 101, 152, 132
-0.991368, 433, 249, 496, 312
-0.99139, 33, 153, 288, 216
-0.991424, 281, 17, 344, 144
-0.99144, 193, 297, 256, 328
-0.991465, 161, 153, 224, 184
-0.991482, 265, 185, 328, 248
-0.991491, 217, 189, 280, 220
-0.991511, 217, 225, 280, 256
-0.991512, 409, 305, 472, 336
-0.991523, 89, 9, 152, 72
-0.991527, 233, 149, 296, 180
-0.991533, 1, 249, 500, 312
-0.991534, 25, 233, 88, 264
-0.991548, 273, 181, 336, 212
-0.991557, 369, 345, 432, 375
-0.991567, 217, 113, 248, 240
-0.991587, 73, 49, 104, 176
-0.991606, 217, 89, 280, 152
-0.991641, 417, 9, 480, 72
-0.991644, 1, 281, 500, 344
-0.991699, 369, 65, 496, 192
-0.99176, 97, 89, 352, 152
-0.991828, 469, 177, 500, 304
-0.991867, 129, 201, 384, 264
-0.991873, 201, 1, 264, 375
-0.991878, 97, 281, 352, 344
-0.991897, 21, 277, 52, 308
-0.991922, 277, 129, 308, 256
-0.992016, 105, 269, 136, 300
-0.992058, 109, 285, 140, 316
-0.992143, 45, 281, 76, 312
-0.992169, 33, 269, 64, 300
-0.992173, 57, 285, 88, 316
-0.992228, 9, 233, 40, 264
-0.992297, 21, 237, 52, 268
-0.992309, 337, 1, 400, 256
-0.992352, 253, 305, 284, 336
-0.992378, 89, 281, 120, 312
-0.992392, 85, 261, 116, 292
-0.992394, 313, 341, 344, 372
-0.992408, 41, 245, 72, 276
-0.992428, 61, 249, 92, 280
-0.992458, 93, 293, 124, 324
-0.992466, 181, 277, 212, 308
-0.992466, 21, 265, 52, 296
-0.992477, 301, 325, 332, 356
-0.992481, 285, 305, 316, 336
-0.992494, 193, 325, 224, 356
-0.992498, 121, 281, 152, 312
-0.992509, 141, 169, 172, 200
-0.992515, 101, 117, 132, 148
-0.992541, 1, 313, 32, 344
-0.992544, 133, 341, 164, 372
-0.992545, 1, 301, 32, 332
-0.99255, 397, 253, 428, 284
-0.992562, 109, 189, 140, 220
-0.992578, 111, 257, 126, 320
-0.992587, 33, 285, 64, 316
-0.9926, 117, 209, 148, 240
-0.992615, 313, 285, 344, 316
-0.992616, 321, 325, 352, 356
-0.992618, 409, 257, 440, 288
-0.992622, 177, 337, 208, 368
-0.992633, 69, 289, 100, 320
-0.992636, 161, 285, 192, 316
-0.992643, 157, 297, 188, 328
-0.992643, 317, 237, 348, 268
-0.992644, 49, 321, 80, 352
-0.992646, 469, 305, 500, 336
-0.992647, 105, 257, 136, 288
-0.992653, 173, 221, 204, 252
-0.992665, 77, 277, 108, 308
-0.992665, 17, 249, 48, 280
-0.992679, 241, 237, 272, 268
-0.992688, 433, 193, 496, 320
-0.9927, 1, 281, 32, 312
-0.992703, 165, 345, 196, 375
-0.992705, 409, 269, 440, 300
-0.99271, 269, 305, 300, 336
-0.992716, 121, 97, 152, 128
-0.992718, 45, 269, 76, 300
-0.99272, 97, 257, 224, 288
-0.99272, 425, 1, 488, 256
-0.992727, 133, 297, 164, 328
-0.992729, 1, 329, 32, 360
-0.992731, 9, 261, 40, 292
-0.992732, 261, 197, 292, 228
-0.992732, 265, 65, 296, 192
-0.992733, 113, 297, 144, 328
-0.992734, 157, 89, 188, 120
-0.992734, 149, 285, 180, 316
-0.992735, 165, 325, 196, 356
-0.992739, 353, 113, 384, 240
-0.99274, 29, 345, 60, 375
-0.992745, 125, 269, 156, 300
-0.992747, 309, 249, 340, 280
-0.992755, 65, 17, 192, 80
-0.992766, 73, 1, 104, 128
-0.992768, 61, 345, 92, 375
-0.992769, 369, 1, 496, 64
-0.992778, 333, 225, 364, 256
-0.992801, 145, 305, 176, 336
-0.992802, 157, 157, 188, 188
-0.992802, 301, 337, 332, 368
-0.992805, 409, 285, 440, 316
-0.992805, 89, 341, 120, 372
-0.992807, 93, 137, 124, 168
-0.992807, 13, 333, 44, 364
-0.992811, 13, 317, 44, 348
-0.992812, 45, 293, 76, 324
-0.992817, 345, 177, 376, 208
-0.992823, 237, 313, 268, 344
-0.992825, 73, 257, 104, 288
-0.992833, 173, 309, 204, 340
-0.992836, 225, 321, 256, 352
-0.992845, 153, 217, 184, 248
-0.992849, 65, 345, 192, 375
-0.99285, 265, 293, 296, 324
-0.992852, 57, 273, 88, 304
-0.992857, 157, 121, 188, 152
-0.992861, 377, 169, 408, 200
-0.992869, 209, 261, 240, 292
-0.992873, 5, 345, 36, 375
-0.992875, 229, 261, 260, 292
-0.992878, 81, 297, 112, 328
-0.992882, 1, 177, 256, 240
-0.992883, 41, 257, 72, 288
-0.992884, 273, 317, 304, 348
-0.992885, 165, 205, 196, 236
-0.992887, 169, 237, 200, 268
-0.992888, 133, 85, 164, 116
-0.992888, 321, 313, 352, 344
-0.992891, 397, 265, 428, 296
-0.992895, 117, 345, 148, 375
-0.992896, 73, 333, 104, 364
-0.992898, 265, 161, 296, 192
-0.992899, 369, 97, 400, 224
-0.992904, 1, 225, 256, 288
-0.992906, 337, 241, 368, 272
-0.99291, 45, 305, 76, 336
-0.99291, 29, 249, 60, 280
-0.992912, 189, 257, 220, 288
-0.992919, 91, 257, 106, 320
-0.992919, 109, 157, 140, 188
-0.992922, 137, 329, 168, 360
-0.992924, 97, 209, 128, 240
-0.992926, 121, 333, 152, 364
-0.992926, 329, 265, 360, 296
-0.992929, 121, 253, 152, 284
-0.992933, 177, 289, 208, 320
-0.992937, 89, 125, 120, 156
-0.992938, 257, 177, 500, 240
-0.99294, 93, 181, 124, 212
-0.992943, 289, 241, 320, 272
-0.992944, 265, 141, 296, 172
-0.992949, 253, 293, 284, 324
-0.992955, 57, 305, 88, 336
-0.992958, 181, 325, 212, 356
-0.992961, 33, 233, 64, 264
-0.992963, 137, 285, 168, 316
-0.99297, 289, 321, 320, 352
-0.992973, 297, 273, 328, 304
-0.992976, 109, 221, 140, 252
-0.99298, 41, 345, 72, 375
-0.99299, 153, 337, 184, 368
-0.992991, 157, 273, 188, 304
-0.992992, 241, 253, 272, 284
-0.992998, 89, 169, 120, 200
-0.992998, 357, 181, 388, 212
-0.993002, 161, 133, 192, 164
-0.993002, 165, 145, 196, 176
-0.993005, 89, 249, 120, 280
-0.993005, 273, 345, 304, 375
-0.993048, 97, 177, 352, 240
-0.993057, 29, 233, 44, 296
-0.993065, 3, 313, 18, 375
-0.99307, 117, 257, 132, 320
-0.993098, 97, 257, 112, 320
-0.993137, 25, 265, 40, 328
-0.993155, 345, 1, 408, 375
-0.993181, 1, 329, 128, 360
-0.993187, 241, 97, 368, 160
-0.993192, 225, 317, 352, 348
-0.993232, 17, 257, 144, 288
-0.993322, 17, 233, 32, 296
-0.993351, 103, 265, 118, 328
-0.993364, 37, 241, 52, 304
-0.993422, 257, 237, 384, 268
-0.993424, 81, 173, 208, 204
-0.99346, 105, 17, 136, 144
-0.993514, 75, 249, 90, 312
-0.993537, 43, 241, 58, 304
-0.9936, 61, 241, 76, 304
-0.993608, 177, 49, 208, 176
-0.993608, 97, 273, 224, 304
-0.993667, 85, 257, 100, 320
-0.993718, 225, 305, 352, 336
-0.993743, 1, 105, 500, 168
-0.993795, 297, 313, 312, 375
-0.993813, 49, 241, 64, 304
-0.993823, 233, 193, 264, 320
-0.99383, 49, 269, 176, 300
-0.99383, 97, 333, 224, 364
-0.993844, 257, 217, 500, 280
-0.993845, 61, 281, 76, 344
-0.993849, 55, 241, 70, 304
-0.99385, 121, 17, 152, 144
-0.993934, 233, 33, 296, 160
-0.993977, 171, 305, 186, 368
-0.993988, 65, 145, 192, 176
-0.994023, 23, 233, 38, 296
-0.99403, 7, 233, 22, 296
-0.994048, 1, 129, 500, 192
-0.994051, 17, 285, 144, 316
-0.994078, 353, 25, 480, 88
-0.994128, 417, 1, 480, 375
-0.994134, 241, 257, 368, 288
-0.994138, 305, 49, 432, 176
-0.99414, 1, 81, 256, 144
-0.994158, 257, 41, 384, 104
-0.994168, 113, 345, 240, 375
-0.994187, 67, 241, 82, 304
-0.994212, 177, 269, 304, 300
-0.994231, 33, 297, 160, 328
-0.994289, 161, 325, 288, 356
-0.994295, 81, 133, 208, 164
-0.994312, 209, 245, 336, 276
-0.994356, 193, 81, 320, 144
-0.994398, 177, 313, 304, 344
-0.994399, 1, 153, 128, 184
-0.994414, 65, 121, 192, 152
-0.994437, 55, 281, 70, 344
-0.99444, 305, 297, 320, 360
-0.994465, 9, 129, 40, 256
-0.994475, 65, 109, 192, 140
-0.994482, 1, 245, 128, 276
-0.994482, 465, 241, 496, 368
-0.994486, 81, 197, 208, 228
-0.994503, 81, 49, 208, 112
-0.994531, 295, 273, 310, 336
-0.994535, 17, 125, 144, 156
-0.994547, 97, 93, 224, 124
-0.994548, 97, 285, 224, 316
-0.994576, 85, 17, 116, 144
-0.994586, 101, 113, 116, 176
-0.994606, 161, 189, 288, 220
-0.99461, 1, 169, 500, 232
-0.99461, 1, 233, 16, 296
-0.994661, 67, 281, 82, 344
-0.994674, 129, 161, 256, 192
-0.994694, 257, 1, 384, 64
-0.99472, 65, 245, 192, 276
-0.994721, 17, 137, 144, 168
-0.994752, 123, 265, 138, 328
-0.994774, 177, 177, 304, 208
-0.994787, 47, 281, 62, 344
-0.994814, 329, 129, 392, 375
-0.994825, 289, 273, 304, 336
-0.994837, 257, 189, 384, 220
-0.994863, 397, 97, 428, 224
-0.994877, 233, 97, 264, 224
-0.99488, 1, 265, 16, 328
-0.994891, 413, 249, 428, 312
-0.994898, 161, 341, 288, 372
-0.994902, 291, 297, 306, 360
-0.994918, 257, 153, 500, 216
-0.994921, 1, 269, 128, 300
-0.994935, 183, 185, 198, 248
-0.994941, 177, 201, 192, 264
-0.994947, 145, 313, 160, 375
-0.99495, 161, 129, 416, 192
-0.994956, 111, 113, 126, 176
-0.994957, 369, 1, 432, 375
-0.994958, 1, 341, 128, 372
-0.994966, 315, 281, 330, 344
-0.994966, 257, 281, 384, 312
-0.994983, 289, 257, 416, 288
-0.995003, 37, 265, 52, 328
-0.995024, 157, 129, 188, 375
-0.995027, 33, 165, 160, 196
-0.995036, 195, 313, 210, 375
-0.995044, 249, 305, 264, 368
-0.995044, 331, 289, 346, 352
-0.995061, 169, 89, 184, 152
-0.995063, 145, 257, 272, 288
-0.99507, 55, 313, 70, 375
-0.995071, 129, 49, 256, 112
-0.995128, 13, 281, 28, 344
-0.995129, 337, 281, 352, 344
-0.995136, 257, 269, 384, 300
-0.995138, 1, 289, 16, 352
-0.99515, 257, 177, 384, 208
-0.995185, 369, 225, 496, 288
-0.995194, 81, 185, 208, 216
-0.995201, 31, 273, 46, 336
-0.995206, 81, 161, 208, 192
-0.995211, 241, 345, 368, 375
-0.995212, 257, 293, 384, 324
-0.995214, 129, 185, 144, 248
-0.995221, 139, 81, 154, 144
-0.995229, 329, 1, 392, 128
-0.995247, 129, 265, 144, 328
-0.995262, 177, 297, 304, 328
-0.99528, 179, 273, 194, 336
-0.995285, 271, 281, 286, 344
-0.995288, 243, 241, 258, 304
-0.995293, 165, 313, 180, 375
-0.995312, 477, 297, 492, 360
-0.995315, 101, 289, 116, 352
-0.995317, 305, 345, 432, 375
-0.995318, 1, 317, 128, 348
-0.995325, 325, 281, 340, 344
-0.995327, 105, 169, 120, 232
-0.995333, 145, 149, 272, 180
-0.995354, 97, 321, 224, 352
-0.995358, 305, 285, 432, 316
-0.995358, 117, 217, 132, 280
-0.995386, 197, 257, 212, 320
-0.995386, 21, 313, 36, 375
-0.995391, 145, 137, 272, 168
-0.995393, 167, 121, 182, 184
-0.995414, 119, 185, 134, 248
-0.995424, 33, 233, 160, 264
-0.995429, 329, 225, 344, 288
-0.995442, 21, 209, 36, 272
-0.995446, 81, 209, 208, 240
-0.995451, 343, 281, 358, 344
-0.995461, 205, 113, 236, 240
-0.995465, 7, 273, 22, 336
-0.995469, 177, 305, 192, 368
-0.995472, 109, 297, 124, 360
-0.995476, 273, 205, 400, 236
-0.995476, 91, 281, 106, 344
-0.995495, 305, 185, 432, 216
-0.995502, 61, 313, 76, 375
-0.995503, 241, 329, 368, 360
-0.995505, 313, 241, 328, 304
-0.995508, 17, 113, 144, 144
-0.995513, 145, 65, 176, 320
-0.995524, 203, 289, 218, 352
-0.995525, 19, 265, 34, 328
-0.995527, 209, 229, 336, 260
-0.995529, 159, 273, 174, 336
-0.995531, 193, 165, 320, 196
-0.995533, 161, 129, 176, 192
-0.995539, 33, 181, 160, 212
-0.995551, 133, 65, 164, 320
-0.995558, 163, 81, 178, 144
-0.99556, 305, 33, 368, 160
-0.995608, 145, 245, 272, 276
-0.995632, 303, 257, 318, 320
-0.995639, 153, 81, 168, 144
-0.995643, 97, 221, 224, 252
-0.995657, 73, 281, 88, 344
-0.995661, 257, 129, 500, 192
-0.995665, 139, 305, 154, 368
-0.995671, 137, 17, 168, 144
-0.99568, 241, 313, 256, 375
-0.995685, 253, 201, 268, 264
-0.995688, 49, 333, 176, 364
-0.99569, 115, 297, 130, 360
-0.995691, 1, 201, 500, 264
-0.995697, 145, 121, 272, 152
-0.995698, 273, 217, 400, 248
-0.995736, 257, 297, 272, 360
-0.995741, 161, 249, 176, 312
-0.995742, 173, 145, 188, 208
-0.995746, 49, 313, 176, 344
-0.995752, 369, 193, 400, 320
-0.995755, 283, 281, 298, 344
-0.995755, 193, 145, 320, 176
-0.995765, 145, 81, 160, 144
-0.995773, 83, 289, 98, 352
-0.995805, 337, 173, 464, 204
-0.995808, 193, 205, 320, 236
-0.99581, 113, 65, 144, 320
-0.995813, 285, 305, 300, 368
-0.995817, 193, 257, 320, 288
-0.995821, 251, 225, 266, 288
-0.995821, 203, 233, 218, 296
-0.995833, 305, 237, 432, 268
-0.995886, 319, 313, 334, 375
-0.995907, 455, 257, 470, 320
-0.995917, 141, 169, 156, 232
-0.99592, 321, 273, 448, 304
-0.995921, 173, 113, 188, 176
-0.995935, 305, 329, 432, 360
-0.995939, 145, 213, 272, 244
-0.995952, 411, 273, 426, 336
-0.99596, 183, 313, 198, 375
-0.995988, 165, 273, 180, 336
-0.995992, 333, 313, 348, 375
-0.995992, 353, 345, 480, 375
-0.996017, 123, 241, 138, 304
-0.996026, 51, 121, 66, 184
-0.996032, 265, 265, 280, 328
-0.996042, 9, 313, 24, 375
-0.99605, 277, 281, 292, 344
-0.996051, 273, 305, 400, 336
-0.996058, 129, 301, 256, 332
-0.99607, 337, 249, 464, 280
-0.996076, 353, 301, 480, 332
-0.996086, 209, 257, 224, 320
-0.9961, 319, 233, 334, 296
-0.996115, 193, 25, 320, 88
-0.996121, 331, 193, 346, 256
-0.996127, 121, 289, 136, 352
-0.996128, 97, 129, 128, 375
-0.996134, 229, 153, 244, 216
-0.996135, 125, 89, 140, 152
-0.996143, 479, 145, 494, 208
-0.996145, 391, 161, 406, 224
-0.996145, 419, 257, 434, 320
-0.996147, 167, 153, 182, 216
-0.996168, 49, 313, 64, 375
-0.996169, 111, 145, 126, 208
-0.996179, 193, 57, 320, 120
-0.996188, 209, 281, 336, 312
-0.996193, 123, 209, 138, 272
-0.996198, 327, 313, 342, 375
-0.996199, 155, 145, 170, 208
-0.996209, 469, 81, 500, 208
-0.99622, 135, 177, 150, 240
-0.996226, 369, 161, 496, 192
-0.996241, 191, 249, 206, 312
-0.996242, 367, 177, 382, 240
-0.996259, 257, 161, 384, 192
-0.996263, 89, 233, 104, 296
-0.996264, 279, 177, 294, 240
-0.996268, 185, 273, 200, 336
-0.996269, 337, 261, 464, 292
-0.996281, 209, 33, 272, 160
-0.996289, 147, 217, 162, 280
-0.996309, 1, 197, 128, 228
-0.996334, 369, 1, 400, 128
-0.99637, 173, 129, 204, 375
-0.996373, 145, 225, 272, 256
-0.996397, 305, 317, 432, 348
-0.9964, 157, 33, 188, 288
-0.996453, 21, 129, 52, 375
-0.996457, 209, 1, 336, 64
-0.996469, 353, 49, 480, 112
-0.996497, 225, 217, 352, 248
-0.996504, 81, 297, 208, 328
-0.996527, 33, 97, 160, 128
-0.996614, 129, 173, 256, 204
-0.996622, 1, 81, 500, 144
-0.996648, 113, 105, 240, 136
-0.996665, 129, 65, 384, 128
-0.996678, 25, 269, 40, 300
-0.996708, 353, 97, 480, 160
-0.99672, 41, 269, 56, 300
-0.996722, 305, 25, 432, 88
-0.996729, 1, 33, 256, 96
-0.996738, 257, 1, 320, 128
-0.996801, 433, 193, 464, 320
-0.996834, 233, 129, 264, 375
-0.99686, 193, 81, 224, 208
-0.996895, 341, 113, 372, 240
-0.996899, 277, 81, 308, 208
-0.996905, 17, 29, 144, 60
-0.996909, 319, 337, 334, 368
-0.996917, 65, 281, 80, 312
-0.996924, 17, 41, 144, 72
-0.996946, 321, 225, 448, 256
-0.996949, 105, 117, 120, 148
-0.996972, 161, 281, 288, 312
-0.996989, 193, 133, 320, 164
-0.996992, 353, 313, 480, 344
-0.997008, 33, 1, 288, 64
-0.997009, 413, 253, 428, 284
-0.997024, 33, 81, 160, 112
-0.997032, 45, 129, 76, 375
-0.997034, 337, 209, 464, 240
-0.997036, 27, 233, 42, 264
-0.997041, 17, 221, 144, 252
-0.997075, 257, 65, 384, 128
-0.997082, 353, 185, 480, 216
-0.997083, 321, 325, 336, 356
-0.997088, 111, 285, 126, 316
-0.997103, 261, 129, 292, 375
-0.997106, 105, 285, 120, 316
-0.997106, 47, 285, 62, 316
-0.997122, 21, 233, 36, 264
-0.997147, 33, 269, 48, 300
-0.997163, 1, 201, 256, 264
-0.997174, 57, 281, 72, 312
-0.997177, 369, 289, 496, 320
-0.997189, 257, 301, 272, 332
-0.997194, 29, 17, 60, 144
-0.997197, 17, 17, 144, 48
-0.997202, 121, 269, 136, 300
-0.997202, 257, 149, 384, 180
-0.997204, 97, 233, 224, 264
-0.997209, 113, 17, 240, 80
-0.99722, 245, 97, 276, 352
-0.997233, 9, 129, 40, 375
-0.997238, 315, 325, 330, 356
-0.997249, 337, 197, 464, 228
-0.997254, 105, 269, 120, 300
-0.99729, 297, 1, 360, 256
-0.997298, 391, 165, 406, 196
-0.997307, 209, 193, 336, 224
-0.997317, 313, 345, 328, 375
-0.997325, 69, 129, 100, 375
-0.99734, 97, 265, 112, 296
-0.997351, 161, 105, 288, 136
-0.997359, 13, 233, 28, 264
-0.997363, 333, 129, 364, 375
-0.997372, 33, 1, 160, 32
-0.997406, 145, 93, 272, 124
-0.997409, 115, 265, 130, 296
-0.997415, 99, 289, 114, 320
-0.997417, 321, 237, 336, 268
-0.997421, 1, 313, 16, 344
-0.997422, 217, 129, 248, 375
-0.997425, 1, 301, 16, 332
-0.997428, 1, 57, 256, 120
-0.997433, 117, 281, 132, 312
-0.997434, 33, 129, 64, 375
-0.997438, 479, 305, 494, 336
-0.997461, 85, 257, 100, 288
-0.997462, 51, 245, 66, 276
-0.997478, 93, 281, 108, 312
-0.997478, 195, 325, 210, 356
-0.997485, 141, 329, 156, 360
-0.997488, 469, 129, 500, 375
-0.997492, 283, 305, 298, 336
-0.997497, 33, 33, 64, 288
-0.997497, 57, 129, 88, 375
-0.997497, 137, 341, 152, 372
-0.997524, 179, 221, 194, 252
-0.997528, 181, 341, 196, 372
-0.997531, 55, 313, 70, 344
-0.997536, 243, 265, 258, 296
-0.997536, 7, 317, 22, 348
-0.997537, 329, 129, 360, 256
-0.997549, 127, 285, 142, 316
-0.997551, 305, 129, 432, 192
-0.997577, 91, 261, 106, 292
-0.997594, 353, 325, 480, 356
-0.997595, 389, 129, 420, 375
-0.99761, 333, 229, 348, 260
-0.997611, 169, 321, 184, 352
-0.997617, 169, 33, 200, 288
-0.997625, 409, 145, 440, 272
-0.99763, 131, 337, 146, 368
-0.997634, 17, 57, 144, 88
-0.997635, 145, 77, 272, 108
-0.997637, 429, 1, 460, 128
-0.997646, 115, 185, 130, 216
-0.99765, 327, 325, 342, 356
-0.997656, 289, 305, 304, 336
-0.997658, 145, 169, 160, 200
-0.997658, 327, 233, 342, 264
-0.997659, 205, 129, 236, 375
-0.997659, 161, 1, 288, 64
-0.997661, 1, 325, 16, 356
-0.997662, 51, 273, 66, 304
-0.997664, 3, 237, 18, 268
-0.997665, 41, 245, 56, 276
-0.997671, 179, 209, 194, 240
-0.997679, 63, 249, 78, 280
-0.997682, 13, 261, 28, 292
-0.997682, 71, 249, 86, 280
-0.997694, 93, 297, 108, 328
-0.997696, 71, 285, 86, 316
-0.997698, 65, 293, 80, 324
-0.997708, 173, 333, 188, 364
-0.997708, 193, 105, 448, 168
-0.99771, 257, 129, 384, 160
-0.997729, 413, 273, 428, 304
-0.997731, 81, 81, 208, 112
-0.997736, 313, 245, 328, 276
-0.99774, 163, 337, 178, 368
-0.997741, 61, 317, 76, 348
-0.997743, 309, 325, 324, 356
-0.997745, 171, 113, 186, 144
-0.997751, 165, 157, 180, 188
-0.997753, 93, 341, 108, 372
-0.997757, 61, 305, 76, 336
-0.997758, 33, 237, 48, 268
-0.997765, 85, 1, 116, 256
-0.997768, 129, 201, 256, 232
-0.997776, 57, 345, 72, 375
-0.997778, 57, 245, 72, 276
-0.997782, 299, 321, 314, 352
-0.997782, 369, 149, 496, 180
-0.997782, 165, 297, 180, 328
-0.997801, 77, 253, 92, 284
-0.99781, 249, 309, 264, 340
-0.997812, 183, 277, 198, 308
-0.997813, 457, 81, 488, 208
-0.997815, 267, 305, 282, 336
-0.997817, 237, 321, 252, 352
-0.997818, 19, 273, 34, 304
-0.997819, 87, 277, 102, 308
-0.997823, 119, 201, 134, 232
-0.997824, 49, 317, 64, 348
-0.997832, 397, 1, 428, 128
-0.997836, 25, 257, 40, 288
-0.997844, 101, 133, 116, 164
-0.997845, 111, 297, 126, 328
-0.997845, 119, 217, 134, 248
-0.997857, 327, 285, 342, 316
-0.997857, 295, 305, 310, 336
-0.997867, 121, 293, 136, 324
-0.997871, 265, 293, 280, 324
-0.997873, 457, 97, 488, 352
-0.997874, 171, 129, 186, 160
-0.997877, 331, 313, 346, 344
-0.99788, 53, 1, 84, 128
-0.997881, 385, 165, 400, 196
-0.997883, 79, 293, 94, 324
-0.997885, 35, 285, 50, 316
-0.997887, 155, 165, 170, 196
-0.997891, 81, 129, 112, 375
-0.997895, 163, 285, 178, 316
-0.997896, 99, 277, 114, 308
-0.997897, 199, 305, 214, 336
-0.997902, 275, 185, 290, 216
-0.997907, 321, 285, 336, 316
-0.99792, 41, 281, 56, 312
-0.997921, 185, 129, 216, 375
-0.997921, 171, 149, 186, 180
-0.997926, 273, 305, 288, 336
-0.997932, 241, 229, 256, 260
-0.997938, 125, 97, 140, 128
-0.997942, 55, 297, 70, 328
-0.997944, 55, 325, 70, 356
-0.997945, 35, 257, 50, 288
-0.997948, 189, 309, 204, 340
-0.997949, 99, 113, 114, 144
-0.997954, 105, 177, 120, 208
-0.99796, 171, 297, 186, 328
-0.997964, 287, 317, 302, 348
-0.997968, 331, 185, 346, 216
-0.99797, 27, 313, 42, 344
-0.99797, 19, 249, 34, 280
-0.997973, 143, 345, 158, 375
-0.997973, 105, 297, 120, 328
-0.997981, 197, 277, 212, 308
-0.997984, 187, 337, 202, 368
-0.997989, 185, 213, 200, 244
-0.997989, 341, 285, 356, 316
-0.997994, 203, 253, 218, 284
-0.997996, 109, 205, 124, 236
-0.997998, 157, 153, 172, 184
-0.998056, 393, 1, 456, 375
-0.998069, 1, 33, 64, 288
-0.998099, 33, 69, 160, 100
-0.998166, 73, 1, 104, 256
-0.998173, 369, 277, 496, 308
-0.998236, 113, 241, 128, 368
-0.99825, 1, 209, 128, 240
-0.998255, 27, 225, 42, 352
-0.998299, 315, 225, 330, 352
-0.998307, 95, 241, 110, 368
-0.998307, 337, 73, 464, 136
-0.998331, 257, 33, 288, 288
-0.998347, 337, 1, 464, 32
-0.998357, 357, 1, 388, 128
-0.99836, 377, 129, 408, 375
-0.998371, 51, 225, 66, 352
-0.998375, 25, 285, 88, 300
-0.998383, 89, 293, 152, 308
-0.998389, 445, 97, 476, 224
-0.998404, 45, 1, 76, 256
-0.99841, 1, 239, 64, 254
-0.99841, 41, 291, 104, 306
-0.99841, 289, 1, 416, 32
-0.998413, 17, 247, 80, 262
-0.998414, 233, 315, 296, 330
-0.998418, 377, 49, 440, 176
-0.998422, 81, 269, 144, 284
-0.998427, 65, 293, 128, 308
-0.998428, 45, 225, 60, 352
-0.998431, 305, 243, 368, 258
-0.998432, 333, 227, 364, 242
-0.998432, 89, 119, 120, 134
-0.998433, 397, 259, 428, 274
-0.998433, 69, 289, 100, 304
-0.998433, 321, 327, 352, 342
-0.998433, 73, 335, 104, 350
-0.998433, 1, 235, 32, 250
-0.998434, 119, 209, 134, 336
-0.998434, 97, 257, 128, 272
-0.998434, 409, 285, 440, 300
-0.998434, 157, 285, 188, 300
-0.998435, 109, 345, 140, 360
-0.998435, 333, 273, 364, 288
-0.998436, 53, 327, 84, 342
-0.998436, 465, 307, 496, 322
-0.998436, 73, 287, 136, 302
-0.998442, 121, 265, 152, 280
-0.998442, 161, 117, 192, 132
-0.998442, 65, 355, 96, 370
-0.998443, 153, 165, 184, 180
-0.998443, 309, 255, 340, 270
-0.998444, 337, 239, 368, 254
-0.998444, 229, 269, 260, 284
-0.998445, 9, 333, 40, 348
-0.998446, 133, 305, 164, 320
-0.998446, 93, 141, 124, 156
-0.998446, 117, 113, 148, 128
-0.998447, 105, 213, 136, 228
-0.998448, 165, 357, 196, 372
-0.998448, 57, 261, 120, 276
-0.998449, 41, 257, 72, 272
-0.998449, 185, 327, 248, 342
-0.99845, 173, 323, 204, 338
-0.99845, 109, 187, 140, 202
-0.998451, 83, 241, 98, 368
-0.998452, 125, 211, 156, 226
-0.998453, 153, 155, 184, 170
-0.998453, 1, 273, 64, 288
-0.998455, 5, 359, 36, 374
-0.998455, 103, 241, 118, 368
-0.998456, 141, 87, 172, 102
-0.998456, 81, 275, 144, 290
-0.998457, 81, 343, 144, 358
-0.998458, 125, 339, 156, 354
-0.998459, 93, 283, 124, 298
-0.998459, 313, 293, 344, 308
-0.998459, 241, 243, 272, 258
-0.998462, 209, 273, 240, 288
-0.998462, 261, 301, 292, 316
-0.998462, 129, 335, 192, 350
-0.998463, 273, 129, 304, 375
-0.998464, 153, 299, 216, 314
-0.998465, 285, 321, 316, 336
-0.998465, 289, 347, 320, 362
-0.998465, 321, 321, 352, 336
-0.998465, 121, 107, 152, 122
-0.998468, 81, 289, 112, 304
-0.998469, 405, 297, 436, 312
-0.998469, 137, 347, 200, 362
-0.998471, 97, 277, 128, 292
-0.998471, 405, 347, 436, 362
-0.998471, 393, 347, 424, 362
-0.998472, 25, 269, 88, 284
-0.998472, 129, 91, 192, 106
-0.998473, 9, 321, 40, 336
-0.998473, 157, 291, 188, 306
-0.998473, 145, 351, 176, 366
-0.998474, 277, 347, 308, 362
-0.998475, 169, 345, 200, 360
-0.998475, 65, 295, 96, 310
-0.998476, 97, 167, 160, 182
-0.998476, 45, 293, 76, 308
-0.998476, 121, 293, 152, 308
-0.998477, 313, 247, 344, 262
-0.998477, 297, 353, 328, 368
-0.998481, 129, 329, 192, 344
-0.998482, 65, 281, 128, 296
-0.998482, 121, 345, 152, 360
-0.998484, 345, 177, 376, 192
-0.998485, 9, 279, 72, 294
-0.998485, 41, 355, 104, 370
-0.998485, 67, 225, 82, 352
-0.998487, 309, 351, 340, 366
-0.998487, 121, 281, 184, 296
-0.998488, 321, 285, 352, 300
-0.998488, 41, 251, 104, 266
-0.998488, 89, 301, 120, 316
-0.998488, 409, 261, 440, 276
-0.998488, 93, 271, 124, 286
-0.998488, 153, 327, 216, 342
-0.998489, 57, 283, 88, 298
-0.99849, 105, 219, 168, 234
-0.998491, 113, 207, 144, 222
-0.998491, 409, 273, 440, 288
-0.998491, 45, 321, 76, 336
-0.998491, 389, 167, 420, 182
-0.998492, 377, 167, 408, 182
-0.998494, 89, 241, 104, 368
-0.998496, 41, 355, 72, 370
-0.998496, 61, 361, 92, 375
-0.998496, 105, 263, 136, 278
-0.998497, 121, 281, 152, 296
-0.998497, 145, 297, 176, 312
-0.9985, 469, 315, 500, 330
-0.9985, 281, 323, 344, 338
-0.998502, 125, 271, 156, 286
-0.998503, 25, 361, 88, 375
-0.998503, 97, 287, 160, 302
-0.998503, 73, 299, 136, 314
-0.998504, 121, 275, 184, 290
-0.998504, 173, 225, 204, 240
-0.998505, 321, 333, 352, 348
-0.998506, 257, 347, 320, 362
-0.998506, 97, 173, 160, 188
-0.998507, 57, 267, 120, 282
-0.998507, 297, 273, 360, 288
-0.998508, 33, 225, 48, 352
-0.998508, 21, 225, 36, 352
-0.998508, 305, 249, 368, 264
-0.998508, 97, 263, 160, 278
-0.998509, 317, 239, 348, 254
-0.998509, 113, 297, 176, 312
-0.99851, 305, 261, 368, 276
-0.998511, 305, 327, 336, 342
-0.998511, 65, 181, 128, 196
-0.998512, 25, 329, 88, 344
-0.998512, 329, 233, 360, 248
-0.998513, 301, 343, 332, 358
-0.998513, 353, 237, 480, 268
-0.998514, 137, 359, 168, 374
-0.998514, 117, 217, 148, 232
-0.998514, 281, 239, 344, 254
-0.998514, 193, 327, 224, 342
-0.998515, 1, 293, 64, 308
-0.998515, 1, 49, 500, 112
-0.998515, 133, 345, 164, 360
-0.998515, 25, 239, 56, 254
-0.998515, 141, 171, 172, 186
-0.998516, 41, 297, 104, 312
-0.99852, 45, 279, 76, 294
-0.99852, 77, 259, 108, 274
-0.998521, 9, 319, 72, 334
-0.998522, 101, 119, 132, 134
-0.998522, 273, 341, 336, 356
-0.998523, 241, 211, 304, 226
-0.998524, 257, 313, 288, 328
-0.998524, 265, 353, 328, 368
-0.998525, 121, 361, 184, 375
-0.998526, 121, 299, 152, 314
-0.998526, 29, 269, 60, 284
-0.998527, 257, 307, 320, 322
-0.998527, 153, 321, 216, 336
-0.998527, 105, 269, 168, 284
-0.998527, 261, 201, 292, 216
-0.998527, 161, 279, 224, 294
-0.998528, 153, 353, 216, 368
-0.99853, 137, 341, 200, 356
-0.99853, 153, 333, 216, 348
-0.99853, 105, 205, 168, 220
-0.99853, 113, 111, 176, 126
-0.99853, 201, 275, 264, 290
-0.998531, 121, 287, 184, 302
-0.998531, 409, 267, 440, 282
-0.998531, 9, 271, 40, 286
-0.998533, 57, 225, 72, 352
-0.998533, 49, 245, 80, 260
-0.998534, 93, 343, 124, 358
-0.998534, 33, 263, 96, 278
-0.998535, 39, 225, 54, 352
-0.998536, 81, 195, 144, 210
-0.998536, 145, 303, 176, 318
-0.998536, 33, 247, 64, 262
-0.998537, 1, 241, 32, 256
-0.998537, 97, 187, 160, 202
-0.998537, 105, 213, 168, 228
-0.998538, 109, 201, 140, 216
-0.99854, 241, 205, 304, 220
-0.998541, 109, 193, 140, 208
-0.998541, 305, 237, 368, 252
-0.998542, 57, 151, 120, 166
-0.998543, 245, 313, 276, 328
-0.998545, 33, 283, 64, 298
-0.998545, 353, 169, 416, 184
-0.998546, 33, 277, 96, 292
-0.998546, 157, 297, 188, 312
-0.998547, 9, 335, 72, 350
-0.998547, 9, 355, 72, 370
-0.998548, 41, 345, 104, 360
-0.998548, 397, 265, 428, 280
-0.998548, 233, 141, 296, 156
-0.998548, 297, 267, 360, 282
-0.998548, 1, 315, 32, 330
-0.998549, 201, 269, 264, 284
-0.99855, 57, 275, 120, 290
-0.99855, 305, 255, 368, 270
-0.998551, 321, 183, 384, 198
-0.998551, 297, 347, 360, 362
-0.998552, 233, 245, 296, 260
-0.998553, 97, 33, 128, 288
-0.998553, 53, 355, 84, 370
-0.998554, 257, 257, 320, 272
-0.998555, 393, 295, 456, 310
-0.998555, 81, 203, 144, 218
-0.998556, 113, 353, 176, 368
-0.998557, 97, 179, 160, 194
-0.998557, 1, 349, 64, 364
-0.998557, 361, 175, 424, 190
-0.998559, 241, 237, 304, 252
-0.998559, 21, 247, 52, 262
-0.99856, 129, 323, 192, 338
-0.99856, 281, 245, 344, 260
-0.998562, 233, 309, 296, 324
-0.998562, 105, 161, 168, 176
-0.998562, 145, 217, 208, 232
-0.998563, 161, 347, 224, 362
-0.998564, 137, 225, 200, 240
-0.998565, 9, 313, 72, 328
-0.998565, 1, 361, 64, 375
-0.998566, 89, 257, 152, 272
-0.998567, 129, 117, 192, 132
-0.998568, 89, 349, 152, 364
-0.998568, 105, 199, 168, 214
-0.998568, 49, 321, 112, 336
-0.998568, 49, 333, 112, 348
-0.998569, 113, 341, 176, 356
-0.998569, 121, 97, 184, 112
-0.998569, 265, 283, 328, 298
-0.99857, 201, 261, 264, 276
-0.99857, 57, 251, 88, 266
-0.99857, 65, 189, 128, 204
-0.998572, 313, 285, 376, 300
-0.998573, 297, 359, 360, 374
-0.998574, 11, 225, 26, 352
-0.998574, 1, 255, 64, 270
-0.998575, 85, 265, 116, 280
-0.998575, 161, 225, 224, 240
-0.998576, 129, 205, 192, 220
-0.998576, 121, 155, 184, 170
-0.998577, 401, 345, 464, 360
-0.998578, 129, 185, 192, 200
-0.998578, 257, 265, 320, 280
-0.998578, 129, 171, 192, 186
-0.99858, 305, 241, 320, 368
-0.99858, 257, 295, 320, 310
-0.99858, 233, 149, 296, 164
-0.99858, 137, 211, 200, 226
-0.998581, 257, 273, 320, 288
-0.998581, 33, 257, 96, 272
-0.998582, 89, 115, 152, 130
-0.998583, 41, 339, 104, 354
-0.998583, 105, 269, 136, 284
-0.998583, 21, 283, 52, 298
-0.998584, 313, 129, 344, 375
-0.998584, 49, 327, 112, 342
-0.998584, 401, 301, 464, 316
-0.998589, 109, 297, 140, 312
-0.99859, 93, 295, 124, 310
-0.998593, 73, 225, 88, 352
-0.998594, 29, 275, 60, 290
-0.9986, 113, 193, 128, 320
-0.998603, 133, 299, 164, 314
-0.998604, 257, 117, 384, 148
-0.998606, 105, 283, 136, 298
-0.998606, 57, 289, 88, 304
-0.998621, 1, 225, 16, 352
-0.998636, 241, 33, 368, 64
-0.998636, 171, 81, 186, 208
-0.998642, 65, 29, 192, 60
-0.998643, 361, 1, 424, 256
-0.998644, 13, 237, 44, 252
-0.998646, 45, 285, 76, 300
-0.998653, 17, 277, 48, 292
-0.998654, 109, 275, 140, 290
-0.998657, 253, 307, 284, 322
-0.998665, 105, 291, 136, 306
-0.998679, 417, 129, 448, 375
-0.998687, 173, 209, 188, 336
-0.998693, 321, 225, 336, 352
-0.998709, 233, 49, 264, 176
-0.998715, 1, 1, 500, 64
-0.998749, 285, 97, 316, 352
-0.998752, 415, 225, 430, 352
-0.99878, 25, 177, 40, 304
-0.998785, 327, 225, 342, 352
-0.998787, 257, 1, 500, 64
-0.998837, 125, 193, 140, 320
-0.998854, 91, 193, 106, 320
-0.998854, 185, 225, 200, 352
-0.998858, 147, 161, 162, 288
-0.99886, 171, 129, 186, 256
-0.998898, 19, 177, 34, 304
-0.998898, 139, 161, 154, 288
-0.9989, 109, 113, 124, 240
-0.998903, 305, 49, 432, 112
-0.998906, 409, 241, 424, 368
-0.998907, 157, 145, 172, 272
-0.998909, 165, 81, 180, 208
-0.998924, 151, 65, 166, 192
-0.998929, 299, 241, 314, 368
-0.998936, 437, 129, 468, 375
-0.99895, 99, 97, 114, 224
-0.998951, 225, 49, 480, 112
-0.998956, 155, 225, 170, 352
-0.998959, 483, 129, 498, 256
-0.998967, 205, 241, 220, 368
-0.998975, 333, 209, 348, 336
-0.998976, 165, 145, 180, 272
-0.99898, 149, 209, 164, 336
-0.998982, 369, 1, 400, 256
-0.998989, 61, 1, 92, 256
-0.99899, 157, 65, 172, 192
-0.998992, 253, 209, 268, 336
-0.998996, 237, 241, 252, 368
-0.998998, 179, 209, 194, 336
-0.999, 105, 193, 120, 320
-0.999001, 191, 241, 206, 368
-0.999002, 125, 241, 140, 368
-0.999017, 269, 17, 300, 144
-0.999018, 181, 33, 212, 288
-0.999019, 85, 193, 100, 320
-0.999023, 353, 129, 384, 375
-0.999023, 33, 177, 48, 304
-0.999032, 177, 97, 192, 224
-0.999036, 163, 241, 178, 368
-0.999037, 61, 65, 76, 192
-0.99904, 53, 65, 68, 192
-0.999047, 225, 25, 480, 88
-0.999048, 129, 81, 144, 208
-0.999053, 215, 225, 230, 352
-0.999053, 421, 97, 452, 224
-0.99906, 143, 241, 158, 368
-0.999068, 79, 193, 94, 320
-0.99908, 133, 161, 148, 288
-0.999081, 47, 65, 62, 192
-0.999085, 199, 225, 214, 352
-0.999093, 139, 81, 154, 208
-0.999096, 13, 177, 28, 304
-0.999122, 67, 97, 82, 224
-0.999122, 119, 97, 134, 224
-0.999129, 361, 161, 376, 288
-0.999141, 243, 241, 258, 368
-0.999161, 327, 177, 342, 304
-0.999165, 109, 65, 124, 192
-0.999166, 351, 161, 366, 288
-0.999166, 225, 73, 480, 136
-0.999174, 145, 65, 160, 192
-0.999175, 3, 177, 18, 304
-0.999178, 137, 241, 152, 368
-0.999181, 73, 97, 88, 224
-0.999181, 97, 193, 112, 320
-0.999187, 285, 193, 300, 320
-0.999197, 391, 145, 406, 272
-0.999199, 293, 241, 308, 368
-0.999199, 261, 241, 276, 368
-0.999225, 177, 161, 192, 288
-0.999236, 343, 161, 358, 288
-0.999243, 275, 113, 290, 240
-0.999247, 193, 161, 208, 288
-0.999255, 285, 241, 300, 368
-0.999258, 65, 177, 80, 304
-0.999262, 427, 225, 442, 352
-0.999263, 297, 129, 328, 375
-0.999268, 183, 161, 198, 288
-0.999269, 43, 145, 58, 272
-0.99927, 233, 161, 248, 288
-0.999278, 145, 113, 160, 240
-0.99928, 279, 193, 294, 320
-0.999286, 393, 241, 408, 368
-0.999288, 421, 209, 436, 336
-0.999292, 269, 241, 284, 368
-0.999295, 241, 129, 256, 256
-0.999295, 381, 1, 412, 128
-0.999297, 163, 193, 178, 320
-0.9993, 337, 161, 352, 288
-0.999301, 57, 177, 72, 304
-0.999305, 403, 241, 418, 368
-0.999305, 285, 129, 300, 256
-0.999306, 131, 241, 146, 368
-0.999307, 225, 177, 240, 304
-0.999307, 41, 97, 56, 224
-0.999308, 433, 241, 448, 368
-0.999316, 217, 161, 232, 288
-0.999318, 119, 161, 134, 288
-0.999327, 41, 33, 56, 160
-0.999346, 73, 177, 88, 304
-0.999346, 477, 145, 492, 272
-0.99935, 67, 49, 82, 176
-0.999351, 305, 97, 432, 160
-0.999352, 295, 193, 310, 320
-0.999353, 367, 145, 382, 272
-0.999355, 209, 161, 224, 288
-0.999355, 25, 129, 40, 256
-0.999355, 51, 113, 66, 240
-0.999357, 269, 129, 284, 256
-0.999362, 83, 97, 98, 224
-0.999371, 243, 177, 258, 304
-0.999372, 249, 1, 280, 128
-0.999374, 253, 113, 268, 240
-0.999377, 227, 129, 242, 256
-0.99938, 321, 177, 336, 304
-0.999381, 245, 1, 276, 256
-0.999382, 203, 161, 218, 288
-0.999386, 51, 177, 66, 304
-0.999391, 73, 49, 88, 176
-0.999391, 35, 65, 50, 192
-0.999419, 397, 33, 428, 288
-0.999515, 221, 33, 252, 288
-0.999517, 409, 17, 440, 144
-0.999561, 453, 1, 484, 256
-0.999595, 289, 145, 320, 272
-0.999607, 97, 25, 352, 88
-0.999611, 273, 33, 304, 288
-0.999617, 17, 241, 32, 256
-0.999618, 105, 261, 120, 276
-0.999619, 129, 287, 144, 302
-0.99962, 143, 353, 158, 368
-0.99962, 165, 159, 180, 174
-0.99962, 105, 125, 120, 140
-0.99962, 113, 283, 128, 298
-0.999621, 99, 129, 114, 144
-0.999621, 173, 115, 188, 130
-0.999622, 455, 265, 470, 280
-0.999622, 233, 325, 248, 340
-0.999623, 83, 259, 98, 274
-0.999623, 77, 255, 92, 270
-0.999623, 67, 291, 82, 306
-0.999624, 341, 285, 356, 300
-0.999625, 413, 273, 428, 288
-0.999626, 319, 287, 334, 302
-0.999627, 349, 279, 364, 294
-0.999628, 391, 175, 406, 190
-0.999629, 307, 353, 322, 368
-0.999629, 271, 199, 286, 214
-0.999629, 9, 239, 24, 254
-0.999631, 45, 249, 60, 264
-0.999631, 301, 347, 316, 362
-0.999632, 93, 299, 108, 314
-0.999632, 19, 249, 34, 264
-0.999633, 173, 153, 188, 168
-0.999634, 3, 243, 18, 258
-0.999635, 329, 187, 344, 202
-0.999636, 159, 297, 174, 312
-0.999637, 187, 217, 202, 232
-0.999638, 21, 33, 52, 288
-0.999638, 143, 339, 158, 354
-0.999641, 143, 347, 158, 362
-0.999641, 97, 341, 112, 356
-0.999642, 321, 345, 336, 360
-0.999643, 413, 259, 428, 274
-0.999643, 55, 325, 70, 340
-0.999643, 61, 291, 76, 306
-0.999645, 89, 263, 104, 278
-0.999645, 141, 329, 156, 344
-0.999645, 315, 337, 330, 352
-0.999645, 173, 333, 188, 348
-0.999646, 29, 277, 44, 292
-0.999647, 121, 269, 136, 284
-0.999647, 257, 309, 272, 324
-0.999648, 347, 271, 362, 286
-0.99965, 101, 135, 116, 150
-0.99965, 315, 247, 330, 262
-0.999651, 37, 265, 52, 280
-0.999651, 1, 301, 16, 316
-0.999651, 195, 327, 210, 342
-0.999653, 65, 279, 80, 294
-0.999654, 175, 121, 190, 136
-0.999654, 39, 273, 54, 288
-0.999655, 145, 297, 160, 312
-0.999656, 333, 231, 348, 246
-0.999656, 61, 321, 76, 336
-0.999657, 331, 323, 346, 338
-0.999657, 153, 303, 168, 318
-0.999658, 249, 313, 264, 328
-0.999658, 397, 169, 412, 184
-0.999658, 55, 319, 70, 334
-0.99966, 205, 33, 236, 288
-0.999661, 35, 241, 50, 256
-0.999661, 31, 283, 46, 298
-0.999662, 179, 223, 194, 238
-0.999664, 37, 247, 52, 262
-0.999664, 105, 281, 120, 296
-0.999665, 13, 273, 28, 288
-0.999666, 119, 217, 134, 232
-0.999666, 109, 183, 124, 198
-0.999667, 71, 251, 86, 266
-0.999667, 159, 167, 174, 182
-0.999668, 169, 327, 184, 342
-0.999668, 405, 347, 420, 362
-0.999671, 181, 345, 196, 360
-0.999672, 327, 329, 342, 344
-0.999672, 137, 337, 152, 352
-0.999675, 385, 169, 400, 184
-0.999676, 105, 271, 120, 286
-0.999677, 147, 171, 162, 186
-0.999677, 55, 279, 70, 294
-0.999677, 111, 299, 126, 314
-0.999681, 111, 277, 126, 292
-0.999681, 123, 295, 138, 310
-0.999682, 415, 253, 430, 268
-0.999682, 43, 285, 58, 300
-0.999682, 63, 249, 78, 264
-0.999682, 39, 279, 54, 294
-0.999683, 135, 299, 150, 314
-0.999683, 73, 291, 88, 306
-0.999683, 89, 257, 104, 272
-0.999685, 251, 307, 266, 322
-0.999687, 333, 33, 364, 288
-0.999688, 17, 235, 32, 250
-0.999689, 267, 305, 282, 320
-0.999689, 441, 1, 472, 256
-0.999691, 319, 327, 334, 342
-0.999692, 315, 343, 330, 358
-0.999693, 95, 263, 110, 278
-0.999693, 313, 351, 328, 366
-0.999694, 325, 285, 340, 300
-0.999697, 23, 279, 38, 294
-0.999698, 111, 267, 126, 282
-0.999699, 321, 335, 336, 350
-0.999699, 107, 287, 122, 302
-0.999701, 49, 283, 64, 298
-0.999702, 117, 299, 132, 314
-0.999704, 121, 281, 136, 296
-0.999706, 29, 243, 44, 258
-0.99971, 131, 343, 146, 358
-0.999711, 479, 307, 494, 322
-0.999712, 117, 289, 132, 304
-0.999713, 353, 1, 384, 256
-0.999718, 53, 245, 68, 260
-0.999719, 69, 285, 84, 300
-0.999723, 413, 265, 428, 280
-0.999731, 323, 239, 338, 254
-0.999734, 55, 285, 70, 300
-0.999734, 243, 267, 258, 282
-0.999743, 113, 189, 128, 204
-0.999751, 401, 129, 432, 375
-0.999754, 101, 295, 116, 310
-0.999759, 3, 315, 18, 330
-0.999762, 137, 345, 152, 360
-0.999766, 105, 119, 120, 134
-0.999767, 33, 271, 48, 286
-0.999768, 63, 285, 78, 300
-0.999771, 109, 293, 124, 308
-0.999773, 57, 355, 72, 370
-0.999776, 121, 275, 136, 290
-0.999776, 257, 303, 272, 318
-0.999801, 27, 237, 42, 252
-0.99981, 23, 273, 38, 288
-0.999827, 469, 33, 500, 288
-0.999868, 391, 167, 406, 182
-0.99987, 233, 33, 264, 288
-0.999874, 9, 33, 40, 288
-0.999906, 433, 145, 464, 272
-0.999948, 129, 1, 384, 64
-1.00003, 1, 25, 500, 88
-1.00003, 429, 1, 460, 256
-1.0001, 441, 17, 472, 144
-1.00011, 193, 33, 224, 288
-1.00013, 365, 97, 396, 352
-1.00015, 293, 1, 324, 256
-1.00017, 413, 1, 444, 256
-1.0002, 321, 1, 352, 256
-1.00027, 289, 65, 320, 192
-1.00028, 385, 1, 416, 256
-1.00054, 309, 1, 340, 256
-1.00116, 337, 49, 400, 176
-1.0014, 361, 97, 424, 224
-1.00209, 177, 17, 240, 144
-1.00235, 281, 65, 344, 192
-1.00399, 401, 49, 464, 176
