1895
-0.519907, 1, 1, 500, 333
-0.52586, 1, 1, 500, 256
-0.550496, 33, 1, 288, 333
-0.576174, 225, 1, 480, 333
-0.651865, 129, 1, 384, 333
-0.755033, 161, 1, 416, 256
-0.804401, 33, 33, 288, 288
-0.835855, 177, 1, 304, 333
-0.856221, 177, 1, 304, 256
-0.861884, 129, 65, 256, 320
-0.863652, 129, 1, 256, 333
-0.871777, 81, 1, 208, 333
-0.881248, 257, 1, 500, 256
-0.887999, 81, 1, 208, 256
-0.888307, 257, 1, 384, 256
-0.891813, 225, 1, 352, 333
-0.893167, 193, 1, 448, 128
-0.901245, 33, 1, 288, 128
-0.9081, 1, 1, 500, 128
-0.911128, 33, 1, 160, 333
-0.911913, 289, 1, 416, 333
-0.918087, 305, 1, 432, 256
-0.91976, 129, 17, 192, 144
-0.922145, 33, 33, 160, 288
-0.924659, 337, 1, 464, 333
-0.92506, 233, 1, 296, 128
-0.925144, 97, 1, 160, 128
-0.925263, 153, 33, 216, 160
-0.925928, 113, 1, 240, 128
-0.927221, 177, 33, 304, 160
-0.928843, 177, 33, 240, 160
-0.928919, 145, 177, 272, 304
-0.930677, 265, 49, 328, 176
-0.932909, 1, 49, 256, 176
-0.933264, 265, 1, 328, 128
-0.934337, 1, 49, 500, 176
-0.935651, 65, 17, 192, 144
-0.941501, 209, 17, 272, 144
-0.941795, 65, 1, 128, 128
-0.941887, 249, 73, 312, 136
-0.942511, 241, 49, 304, 176
-0.942892, 241, 1, 368, 128
-0.944797, 209, 209, 272, 333
-0.945916, 353, 1, 480, 256
-0.946545, 1, 193, 500, 320
-0.946924, 153, 73, 216, 136
-0.94713, 169, 193, 232, 320
-0.947463, 97, 49, 352, 176
-0.947702, 65, 177, 320, 304
-0.947817, 185, 57, 248, 120
-0.949029, 161, 209, 416, 333
-0.949041, 129, 81, 256, 208
-0.949146, 209, 225, 272, 288
-0.949201, 1, 97, 500, 224
-0.949938, 225, 81, 288, 144
-0.950152, 273, 73, 336, 136
-0.951654, 1, 17, 128, 144
-0.952379, 233, 209, 296, 333
-0.954009, 337, 1, 400, 128
-0.954116, 409, 1, 472, 128
-0.954455, 289, 1, 352, 128
-0.955548, 185, 1, 248, 64
-0.955766, 201, 65, 264, 192
-0.956237, 193, 49, 448, 176
-0.956448, 129, 49, 192, 112
-0.956632, 177, 81, 240, 144
-0.957016, 225, 209, 352, 333
-0.957669, 41, 1, 104, 128
-0.95782, 201, 81, 264, 144
-0.958136, 97, 49, 160, 176
-0.958146, 217, 17, 280, 80
-0.958189, 121, 25, 184, 88
-0.958557, 353, 1, 480, 128
-0.958891, 377, 1, 440, 128
-0.958958, 217, 41, 280, 104
-0.959437, 161, 49, 224, 112
-0.960162, 177, 81, 304, 208
-0.960179, 297, 73, 328, 136
-0.960992, 157, 17, 188, 144
-0.961297, 225, 49, 352, 176
-0.96212, 177, 81, 240, 208
-0.962253, 145, 1, 176, 128
-0.963331, 253, 73, 284, 136
-0.963349, 129, 65, 192, 192
-0.963381, 185, 17, 216, 144
-0.963617, 289, 33, 416, 160
-0.96364, 393, 17, 456, 80
-0.963852, 169, 65, 200, 128
-0.964306, 153, 81, 216, 208
-0.964461, 273, 49, 304, 176
-0.964541, 313, 1, 376, 128
-0.964553, 81, 65, 208, 192
-0.964565, 133, 1, 164, 128
-0.965051, 177, 65, 304, 128
-0.965064, 257, 1, 288, 128
-0.96514, 257, 97, 320, 160
-0.965252, 249, 49, 312, 112
-0.965789, 221, 81, 252, 144
-0.966084, 97, 9, 160, 72
-0.966402, 305, 33, 368, 96
-0.966541, 329, 49, 392, 112
-0.966593, 129, 225, 192, 288
-0.966677, 281, 1, 312, 128
-0.966798, 273, 73, 304, 136
-0.966967, 173, 1, 204, 128
-0.967075, 209, 73, 240, 136
-0.967222, 161, 17, 224, 80
-0.967274, 81, 33, 144, 96
-0.96761, 213, 41, 244, 104
-0.967638, 129, 97, 384, 224
-0.967807, 241, 233, 304, 296
-0.967873, 197, 65, 228, 128
-0.967878, 237, 33, 268, 160
-0.967956, 17, 1, 80, 64
-0.968166, 225, 17, 256, 80
-0.968253, 169, 241, 232, 304
-0.968422, 193, 145, 320, 272
-0.968607, 237, 73, 268, 136
-0.968654, 121, 209, 184, 333
-0.968675, 241, 201, 304, 264
-0.968758, 161, 217, 224, 280
-0.968764, 17, 17, 80, 144
-0.968858, 369, 25, 432, 88
-0.969171, 181, 73, 212, 136
-0.969228, 65, 209, 192, 333
-0.969614, 153, 49, 184, 112
-0.96998, 193, 41, 320, 104
-0.97011, 329, 17, 392, 80
-0.970394, 273, 49, 336, 112
-0.970519, 161, 65, 192, 192
-0.970609, 57, 41, 120, 104
-0.970695, 297, 73, 360, 136
-0.970845, 121, 1, 152, 128
-0.970855, 297, 49, 328, 176
-0.971047, 145, 225, 272, 288
-0.971087, 1, 145, 500, 272
-0.971131, 273, 9, 336, 72
-0.971298, 201, 249, 264, 312
-0.971299, 225, 33, 256, 160
-0.971529, 269, 1, 300, 128
-0.971657, 133, 17, 164, 80
-0.971668, 209, 161, 272, 288
-0.971716, 221, 209, 252, 333
-0.971742, 257, 25, 384, 88
-0.971813, 209, 1, 240, 128
-0.971893, 129, 1, 192, 64
-0.971949, 213, 49, 244, 176
-0.972187, 353, 33, 480, 96
-0.972347, 285, 73, 316, 136
-0.972387, 109, 1, 140, 128
-0.972535, 73, 1, 104, 128
-0.972556, 197, 33, 228, 160
-0.972557, 177, 89, 304, 152
-0.972955, 129, 73, 192, 136
-0.973021, 145, 41, 272, 104
-0.973039, 65, 49, 128, 176
-0.973063, 65, 9, 128, 72
-0.97334, 249, 49, 280, 176
-0.973437, 105, 57, 168, 120
-0.973465, 181, 49, 212, 112
-0.973483, 297, 65, 360, 192
-0.973618, 41, 49, 104, 176
-0.973625, 229, 233, 260, 296
-0.97377, 129, 73, 256, 136
-0.9738, 233, 105, 296, 168
-0.973947, 85, 1, 116, 128
-0.97403, 41, 9, 104, 72
-0.974032, 353, 49, 416, 112
-0.974065, 241, 9, 304, 72
-0.97412, 157, 73, 188, 136
-0.974205, 201, 41, 232, 104
-0.974374, 357, 41, 388, 104
-0.974393, 417, 33, 480, 96
-0.974718, 293, 1, 324, 128
-0.974769, 177, 9, 304, 72
-0.97485, 225, 257, 288, 320
-0.97499, 185, 33, 248, 96
-0.975197, 153, 97, 216, 160
-0.975322, 213, 1, 244, 64
-0.97543, 173, 65, 204, 192
-0.975519, 293, 49, 324, 112
-0.97553, 361, 1, 424, 64
-0.975689, 141, 225, 172, 288
-0.975735, 129, 249, 192, 312
-0.975794, 233, 41, 264, 104
-0.976045, 345, 49, 376, 112
-0.976123, 97, 1, 128, 128
-0.976355, 273, 73, 400, 136
-0.976375, 97, 25, 224, 88
-0.976736, 233, 209, 264, 333
-0.976821, 157, 225, 188, 288
-0.976988, 225, 65, 352, 128
-0.977098, 305, 1, 432, 64
-0.977113, 241, 65, 304, 320
-0.977134, 241, 97, 272, 160
-0.97715, 65, 49, 192, 112
-0.977152, 337, 49, 464, 176
-0.97722, 209, 201, 272, 264
-0.977255, 193, 145, 448, 272
-0.977457, 169, 41, 200, 104
-0.977506, 257, 193, 500, 320
-0.977596, 73, 41, 104, 104
-0.977695, 417, 1, 448, 128
-0.97772, 109, 41, 140, 104
-0.977726, 217, 233, 248, 296
-0.977768, 305, 1, 368, 64
-0.977787, 233, 97, 296, 224
-0.977967, 293, 97, 324, 160
-0.978272, 137, 49, 168, 176
-0.978325, 33, 65, 160, 192
-0.978539, 225, 97, 352, 224
-0.978556, 145, 249, 272, 312
-0.978579, 245, 49, 276, 112
-0.978818, 145, 209, 208, 333
-0.978848, 265, 1, 328, 256
-0.978888, 377, 49, 440, 112
-0.978965, 309, 33, 340, 96
-0.979027, 257, 33, 288, 96
-0.979045, 141, 41, 172, 104
-0.979049, 305, 25, 432, 88
-0.979054, 229, 209, 260, 272
-0.979083, 129, 1, 256, 64
-0.979127, 185, 65, 216, 192
-0.979333, 237, 1, 268, 64
-0.979357, 145, 201, 272, 264
-0.979392, 273, 49, 400, 112
-0.979484, 193, 241, 320, 304
-0.979491, 25, 1, 56, 64
-0.979564, 385, 25, 416, 88
-0.979641, 225, 89, 352, 152
-0.979658, 97, 161, 224, 288
-0.979674, 425, 1, 456, 64
-0.979677, 281, 105, 344, 168
-0.979678, 209, 1, 272, 333
-0.979801, 281, 97, 312, 160
-0.979809, 97, 233, 224, 296
-0.979974, 225, 1, 352, 64
-0.980033, 201, 273, 264, 333
-0.980065, 185, 201, 248, 264
-0.980085, 373, 17, 404, 80
-0.980094, 1, 1, 128, 64
-0.980205, 25, 33, 88, 96
-0.980256, 369, 1, 400, 128
-0.980444, 201, 105, 264, 168
-0.980483, 65, 1, 192, 64
-0.980648, 405, 9, 436, 72
-0.980663, 169, 89, 200, 152
-0.980872, 209, 217, 336, 280
-0.980896, 309, 1, 340, 128
-0.980921, 89, 9, 120, 72
-0.980926, 353, 49, 416, 176
-0.980969, 321, 25, 352, 88
-0.981023, 145, 65, 208, 320
-0.981064, 281, 33, 312, 96
-0.981088, 337, 1, 368, 64
-0.981181, 197, 89, 228, 152
-0.981189, 249, 233, 280, 296
-0.981263, 241, 161, 304, 288
-0.981264, 85, 41, 116, 104
-0.981272, 185, 1, 248, 333
-0.981301, 257, 97, 288, 160
-0.981306, 121, 17, 152, 80
-0.981319, 301, 1, 332, 64
-0.981377, 349, 1, 380, 128
-0.98138, 81, 73, 208, 136
-0.981461, 1, 89, 64, 152
-0.981465, 69, 17, 100, 80
-0.98153, 269, 49, 300, 112
-0.981611, 97, 41, 128, 104
-0.98162, 129, 201, 192, 264
-0.981673, 129, 97, 256, 160
-0.981687, 201, 1, 232, 64
-0.981706, 245, 209, 276, 333
-0.981765, 241, 209, 272, 272
-0.981859, 417, 9, 480, 72
-0.981931, 41, 1, 72, 64
-0.98196, 225, 81, 256, 208
-0.981976, 269, 97, 300, 160
-0.981997, 441, 25, 472, 88
-0.982174, 261, 65, 292, 192
-0.982257, 153, 249, 184, 312
-0.982303, 121, 1, 184, 256
-0.982473, 137, 1, 200, 333
-0.98248, 433, 49, 464, 112
-0.982647, 189, 1, 220, 64
-0.982855, 125, 41, 156, 104
-0.982917, 405, 1, 436, 128
-0.982919, 309, 73, 340, 136
-0.983006, 429, 17, 460, 144
-0.98304, 209, 257, 240, 320
-0.98311, 53, 17, 84, 80
-0.9832, 61, 1, 92, 128
-0.983263, 145, 17, 176, 80
-0.983276, 273, 97, 336, 224
-0.983314, 325, 1, 356, 64
-0.983393, 129, 97, 192, 160
-0.983493, 269, 9, 300, 72
-0.983547, 233, 265, 264, 328
-0.983606, 237, 81, 268, 208
-0.983734, 209, 209, 240, 333
-0.98393, 209, 97, 240, 160
-0.983998, 105, 1, 168, 333
-0.98432, 129, 177, 256, 240
-0.9844, 161, 17, 192, 80
-0.984465, 285, 49, 316, 176
-0.984672, 49, 1, 80, 128
-0.984753, 177, 105, 240, 168
-0.984762, 105, 225, 168, 288
-0.984773, 197, 193, 228, 320
-0.98479, 257, 209, 320, 333
-0.984805, 265, 209, 328, 272
-0.984832, 21, 17, 52, 144
-0.984839, 321, 49, 384, 176
-0.98491, 361, 17, 392, 80
-0.984968, 177, 177, 304, 240
-0.985103, 313, 1, 344, 64
-0.985138, 253, 9, 284, 72
-0.985146, 169, 65, 232, 320
-0.98534, 201, 81, 232, 208
-0.985396, 189, 25, 220, 88
-0.985397, 321, 57, 448, 120
-0.985466, 305, 97, 336, 160
-0.985513, 337, 1, 400, 256
-0.985658, 169, 225, 200, 288
-0.985732, 145, 89, 176, 152
-0.985775, 145, 209, 176, 333
-0.985797, 345, 25, 376, 88
-0.985813, 81, 113, 208, 240
-0.985816, 417, 1, 480, 256
-0.98598, 161, 1, 224, 333
-0.986226, 289, 9, 320, 72
-0.986289, 249, 257, 312, 320
-0.98638, 13, 1, 44, 64
-0.986438, 181, 97, 212, 160
-0.986445, 97, 49, 128, 176
-0.986461, 209, 65, 272, 320
-0.986602, 377, 49, 440, 176
-0.986634, 353, 9, 480, 72
-0.986688, 401, 1, 464, 333
-0.986707, 321, 73, 384, 136
-0.986709, 193, 265, 320, 328
-0.986758, 233, 1, 296, 333
-0.986882, 33, 1, 64, 128
-0.986948, 417, 25, 448, 88
-0.987015, 141, 65, 172, 128
-0.987026, 313, 1, 376, 256
-0.987055, 441, 1, 472, 128
-0.987057, 417, 57, 480, 120
-0.987074, 221, 265, 252, 328
-0.987125, 177, 265, 240, 328
-0.987134, 129, 241, 160, 304
-0.987153, 393, 73, 456, 136
-0.987328, 97, 193, 160, 320
-0.987378, 249, 257, 280, 320
-0.987496, 69, 49, 100, 176
-0.987528, 161, 85, 224, 116
-0.987538, 345, 49, 376, 176
-0.987588, 217, 161, 248, 288
-0.987615, 257, 73, 320, 104
-0.987687, 157, 193, 188, 320
-0.9877, 153, 37, 216, 68
-0.987708, 273, 85, 336, 116
-0.98776, 221, 105, 252, 168
-0.987773, 381, 1, 412, 128
-0.987801, 321, 17, 352, 144
-0.987843, 17, 41, 144, 104
-0.987879, 105, 17, 136, 80
-0.987938, 125, 49, 156, 176
-0.988025, 241, 241, 368, 304
-0.988025, 149, 81, 180, 208
-0.988092, 225, 97, 480, 224
-0.988093, 129, 161, 192, 288
-0.988094, 425, 73, 456, 136
-0.9881, 257, 97, 320, 128
-0.988137, 433, 1, 496, 128
-0.988148, 97, 37, 160, 68
-0.988166, 81, 209, 208, 272
-0.988216, 217, 85, 280, 116
-0.988232, 145, 129, 272, 256
-0.988265, 153, 49, 216, 80
-0.98831, 121, 37, 184, 68
-0.988311, 373, 41, 404, 104
-0.988451, 209, 241, 272, 272
-0.988499, 281, 193, 344, 320
-0.988574, 81, 25, 144, 56
-0.988615, 209, 113, 272, 240
-0.988637, 421, 65, 452, 192
-0.988709, 105, 17, 168, 48
-0.988722, 105, 201, 168, 264
-0.988728, 241, 21, 304, 52
-0.988738, 153, 69, 216, 100
-0.988744, 205, 145, 236, 272
-0.988753, 97, 49, 160, 80
-0.988757, 249, 85, 312, 116
-0.988797, 365, 65, 396, 128
-0.988854, 1, 97, 32, 160
-0.988888, 177, 153, 304, 216
-0.988889, 309, 49, 340, 176
-0.988906, 121, 65, 184, 96
-0.988914, 1, 65, 64, 128
-0.98892, 177, 65, 240, 96
-0.988922, 205, 233, 236, 296
-0.988987, 289, 209, 416, 333
-0.989033, 57, 45, 120, 76
-0.989073, 421, 49, 452, 112
-0.989084, 265, 29, 328, 60
-0.989113, 333, 41, 364, 104
-0.989123, 281, 209, 312, 272
-0.98915, 429, 25, 460, 88
-0.989236, 233, 73, 296, 104
-0.98924, 161, 97, 224, 128
-0.989249, 201, 25, 264, 56
-0.98925, 193, 89, 256, 120
-0.989275, 177, 49, 240, 80
-0.989304, 185, 5, 248, 36
-0.989318, 265, 61, 328, 92
-0.989343, 1, 1, 32, 64
-0.989351, 445, 1, 476, 64
-0.989367, 121, 49, 184, 80
-0.989404, 85, 49, 116, 176
-0.989477, 137, 85, 200, 116
-0.989485, 257, 5, 320, 36
-0.989495, 157, 201, 188, 264
-0.989588, 345, 53, 408, 84
-0.989613, 209, 229, 272, 260
-0.989631, 137, 25, 200, 56
-0.989642, 233, 97, 296, 128
-0.989687, 1, 49, 256, 112
-0.989706, 393, 21, 456, 52
-0.989724, 185, 145, 248, 272
-0.989798, 129, 225, 192, 256
-0.989824, 129, 153, 256, 216
-0.989852, 305, 33, 368, 64
-0.989914, 241, 41, 304, 72
-0.989955, 161, 25, 224, 56
-0.989966, 401, 37, 464, 68
-0.990001, 377, 33, 440, 64
-0.990013, 345, 37, 408, 68
-0.990026, 1, 17, 256, 80
-0.990035, 177, 37, 240, 68
-0.990087, 233, 9, 296, 40
-0.990154, 113, 5, 176, 36
-0.990155, 265, 41, 328, 72
-0.99016, 249, 97, 280, 224
-0.990162, 305, 53, 368, 84
-0.990164, 229, 161, 260, 288
-0.9902, 233, 217, 296, 248
-0.99021, 297, 73, 360, 104
-0.990211, 241, 177, 304, 240
-0.990239, 297, 13, 360, 44
-0.990264, 273, 97, 400, 160
-0.990271, 405, 49, 436, 112
-0.990305, 409, 9, 472, 40
-0.990311, 217, 41, 280, 72
-0.990333, 337, 1, 400, 333
-0.990361, 393, 1, 456, 256
-0.990365, 169, 245, 232, 276
-0.990377, 73, 5, 136, 36
-0.99039, 193, 17, 448, 80
-0.990429, 121, 237, 184, 268
-0.990489, 169, 257, 232, 288
-0.990495, 137, 97, 200, 128
-0.990496, 49, 17, 112, 48
-0.990504, 145, 5, 208, 36
-0.990548, 193, 77, 256, 108
-0.990551, 129, 65, 160, 128
-0.990561, 273, 109, 336, 140
-0.990576, 361, 1, 424, 32
-0.990599, 241, 257, 304, 288
-0.990603, 201, 253, 264, 284
-0.990641, 217, 209, 248, 272
-0.990648, 193, 113, 320, 176
-0.990696, 385, 1, 416, 64
-0.99072, 173, 17, 204, 80
-0.990723, 153, 265, 216, 328
-0.990757, 241, 53, 304, 84
-0.990779, 345, 25, 408, 56
-0.990796, 425, 33, 488, 64
-0.990821, 17, 209, 144, 333
-0.990849, 265, 1, 328, 333
-0.990875, 201, 265, 264, 296
-0.990889, 73, 57, 136, 88
-0.990908, 241, 245, 304, 276
-0.990927, 209, 1, 272, 32
-0.990935, 201, 101, 264, 132
-0.990953, 241, 229, 304, 260
-0.990979, 209, 217, 272, 248
-0.990989, 377, 45, 440, 76
-0.991031, 213, 97, 244, 224
-0.991082, 121, 249, 184, 280
-0.991105, 249, 205, 312, 236
-0.99111, 33, 129, 288, 256
-0.991115, 177, 193, 208, 320
-0.99112, 233, 109, 296, 140
-0.991139, 177, 113, 208, 240
-0.991167, 209, 65, 272, 96
-0.99118, 169, 225, 232, 256
-0.991182, 57, 33, 120, 64
-0.991188, 209, 13, 272, 44
-0.99132, 273, 17, 336, 48
-0.991331, 281, 97, 312, 224
-0.991343, 281, 1, 344, 32
-0.991379, 257, 217, 384, 280
-0.991389, 225, 269, 288, 300
-0.991404, 345, 65, 408, 96
-0.991414, 433, 45, 496, 76
-0.991416, 129, 89, 384, 152
-0.991432, 337, 1, 400, 32
-0.991468, 281, 97, 344, 128
-0.991482, 217, 53, 280, 84
-0.991539, 97, 61, 160, 92
-0.991541, 377, 49, 408, 176
-0.991552, 33, 45, 96, 76
-0.991555, 97, 257, 224, 320
-0.99157, 253, 209, 284, 272
-0.991595, 137, 265, 200, 296
-0.991595, 193, 41, 448, 104
-0.991596, 345, 73, 376, 136
-0.9916, 273, 81, 400, 208
-0.991643, 49, 1, 112, 32
-0.991667, 417, 21, 480, 52
-0.991672, 25, 17, 88, 48
-0.991678, 297, 85, 360, 116
-0.991681, 201, 89, 232, 120
-0.991684, 157, 97, 188, 160
-0.991692, 165, 77, 196, 108
-0.991697, 313, 1, 376, 333
-0.991701, 337, 13, 400, 44
-0.991704, 369, 17, 432, 48
-0.991714, 81, 1, 144, 333
-0.991749, 269, 177, 300, 304
-0.991752, 189, 85, 220, 116
-0.991754, 409, 61, 472, 92
-0.991759, 81, 57, 144, 120
-0.991786, 265, 93, 296, 124
-0.991798, 25, 5, 88, 36
-0.991824, 217, 205, 280, 236
-0.991831, 113, 93, 176, 124
-0.991835, 201, 193, 264, 224
-0.991837, 161, 109, 224, 140
-0.991857, 241, 93, 272, 124
-0.991859, 177, 89, 208, 120
-0.991928, 145, 201, 176, 264
-0.991929, 97, 1, 352, 64
-0.991938, 301, 93, 332, 124
-0.991961, 301, 81, 332, 112
-0.991971, 377, 57, 440, 88
-0.991972, 289, 93, 320, 124
-0.991972, 313, 273, 376, 333
-0.991983, 337, 1, 368, 128
-0.99199, 33, 29, 96, 60
-0.992015, 153, 85, 184, 116
-0.992022, 145, 245, 208, 276
-0.992027, 1, 65, 128, 128
-0.992029, 177, 213, 240, 244
-0.992034, 125, 41, 156, 72
-0.992037, 105, 49, 136, 80
-0.992054, 345, 49, 376, 80
-0.992056, 401, 49, 464, 176
-0.992061, 269, 201, 300, 264
-0.992066, 253, 97, 284, 128
-0.992067, 365, 57, 396, 88
-0.992068, 293, 65, 324, 96
-0.992069, 221, 85, 252, 116
-0.992073, 145, 93, 272, 124
-0.992074, 205, 201, 236, 264
-0.992074, 245, 81, 276, 112
-0.992079, 129, 213, 192, 244
-0.992083, 213, 41, 244, 72
-0.992095, 137, 25, 168, 56
-0.992106, 277, 93, 308, 124
-0.992107, 73, 209, 136, 333
-0.992112, 161, 61, 192, 92
-0.992121, 141, 53, 172, 84
-0.992133, 77, 45, 108, 76
-0.992156, 225, 97, 256, 128
-0.992157, 385, 49, 416, 112
-0.992158, 269, 69, 300, 100
-0.992169, 193, 89, 320, 120
-0.992169, 181, 65, 212, 96
-0.992176, 117, 25, 148, 56
-0.992177, 281, 53, 312, 84
-0.992179, 229, 17, 260, 48
-0.992197, 233, 81, 264, 112
-0.992207, 281, 81, 312, 112
-0.992209, 153, 41, 184, 72
-0.992229, 257, 217, 320, 248
-0.992233, 273, 205, 336, 236
-0.992235, 201, 41, 232, 72
-0.992255, 1, 5, 64, 36
-0.992259, 137, 37, 168, 68
-0.992262, 181, 45, 212, 76
-0.992262, 301, 53, 332, 84
-0.992263, 89, 37, 120, 68
-0.992264, 165, 25, 196, 56
-0.992265, 257, 81, 288, 112
-0.992281, 49, 241, 176, 304
-0.992284, 165, 257, 196, 320
-0.992285, 241, 161, 368, 288
-0.992309, 285, 193, 316, 320
-0.992322, 273, 41, 304, 72
-0.992336, 313, 73, 328, 136
-0.992337, 229, 217, 260, 248
-0.992347, 265, 261, 328, 292
-0.992351, 321, 73, 384, 104
-0.992352, 241, 17, 272, 48
-0.992357, 113, 37, 144, 68
-0.992363, 189, 97, 220, 128
-0.992379, 213, 97, 244, 128
-0.992385, 137, 5, 168, 36
-0.992398, 125, 53, 156, 84
-0.992402, 153, 213, 216, 244
-0.992412, 113, 81, 176, 112
-0.992415, 285, 41, 316, 72
-0.992418, 269, 81, 300, 112
-0.992428, 89, 5, 120, 36
-0.992443, 165, 37, 196, 68
-0.992449, 13, 73, 44, 136
-0.992449, 333, 49, 364, 176
-0.992451, 153, 17, 184, 48
-0.992452, 193, 65, 448, 128
-0.992452, 215, 41, 230, 104
-0.992462, 385, 77, 448, 108
-0.992469, 97, 37, 224, 68
-0.992484, 289, 25, 320, 56
-0.992486, 201, 277, 264, 308
-0.992488, 405, 21, 436, 52
-0.99249, 205, 5, 236, 36
-0.992493, 273, 1, 304, 32
-0.9925, 193, 53, 224, 84
-0.992505, 105, 21, 136, 52
-0.992506, 145, 65, 176, 96
-0.992507, 137, 233, 168, 264
-0.992513, 201, 101, 232, 132
-0.992514, 181, 17, 212, 48
-0.992514, 89, 49, 120, 80
-0.992514, 161, 97, 192, 128
-0.992516, 57, 41, 88, 104
-0.992518, 385, 29, 416, 60
-0.992526, 445, 29, 476, 60
-0.992527, 301, 41, 332, 72
-0.992535, 385, 1, 448, 32
-0.992547, 157, 225, 188, 256
-0.992549, 193, 25, 224, 56
-0.992551, 365, 37, 396, 68
-0.992558, 289, 105, 320, 136
-0.992561, 249, 37, 280, 68
-0.992562, 191, 73, 206, 136
-0.992564, 137, 109, 200, 140
-0.992567, 281, 65, 312, 96
-0.992568, 345, 61, 376, 92
-0.99257, 229, 29, 260, 60
-0.99257, 285, 9, 316, 40
-0.992572, 165, 49, 196, 80
-0.992579, 161, 65, 288, 96
-0.992579, 89, 25, 120, 56
-0.992589, 229, 5, 260, 36
-0.99259, 177, 77, 208, 108
-0.99259, 185, 65, 200, 128
-0.992593, 153, 145, 216, 272
-0.992598, 233, 257, 264, 288
-0.992605, 433, 1, 496, 32
-0.992607, 233, 45, 264, 76
-0.992608, 185, 5, 216, 36
-0.99261, 425, 5, 456, 36
-0.992611, 153, 29, 184, 60
-0.992612, 303, 73, 318, 136
-0.992617, 113, 265, 176, 296
-0.99262, 109, 49, 140, 176
-0.99262, 365, 49, 396, 176
-0.992621, 69, 33, 100, 64
-0.992624, 173, 101, 204, 132
-0.992625, 225, 65, 240, 128
-0.992631, 305, 21, 336, 52
-0.992631, 269, 21, 300, 52
-0.992633, 433, 41, 464, 72
-0.992637, 401, 185, 464, 248
-0.992642, 257, 49, 288, 80
-0.992647, 353, 37, 384, 68
-0.992655, 105, 249, 168, 312
-0.992655, 197, 69, 228, 100
-0.992665, 301, 105, 332, 136
-0.99267, 209, 261, 240, 292
-0.992671, 213, 53, 244, 84
-0.992673, 241, 105, 272, 136
-0.992679, 125, 13, 156, 44
-0.992679, 213, 17, 244, 48
-0.992683, 97, 65, 352, 128
-0.992685, 145, 273, 272, 333
-0.992686, 405, 1, 436, 32
-0.992688, 225, 229, 256, 260
-0.99269, 157, 253, 188, 284
-0.992691, 49, 5, 80, 36
-0.992692, 133, 209, 164, 333
-0.992699, 301, 1, 332, 32
-0.992701, 177, 197, 240, 228
-0.992705, 269, 57, 300, 88
-0.992707, 241, 217, 272, 248
-0.992708, 213, 65, 244, 96
-0.992708, 213, 29, 244, 60
-0.992711, 263, 73, 278, 136
-0.992715, 257, 25, 288, 56
-0.992722, 425, 1, 488, 333
-0.992722, 69, 17, 100, 48
-0.992729, 261, 9, 292, 40
-0.99273, 101, 37, 132, 68
-0.992731, 193, 113, 256, 144
-0.992732, 297, 109, 360, 140
-0.992734, 401, 33, 432, 64
-0.99275, 105, 217, 168, 248
-0.992755, 1, 1, 500, 64
-0.99276, 57, 17, 88, 48
-0.992766, 97, 229, 160, 260
-0.992774, 149, 97, 180, 128
-0.99278, 277, 105, 308, 136
-0.992782, 377, 53, 408, 84
-0.992792, 245, 69, 276, 100
-0.992794, 21, 1, 52, 32
-0.992795, 181, 29, 212, 60
-0.992795, 77, 1, 108, 32
-0.992811, 41, 57, 104, 88
-0.992816, 257, 69, 288, 100
-0.992817, 65, 45, 96, 76
-0.992826, 209, 77, 240, 108
-0.992831, 329, 33, 360, 64
-0.992839, 77, 57, 108, 88
-0.992854, 161, 269, 224, 300
-0.992858, 449, 41, 480, 72
-0.992859, 213, 241, 244, 272
-0.992862, 305, 65, 336, 96
-0.992904, 337, 209, 464, 333
-0.992908, 247, 81, 262, 144
-0.992966, 213, 65, 228, 128
-0.993001, 117, 65, 148, 128
-0.993021, 49, 161, 176, 288
-0.993028, 177, 45, 304, 76
-0.993031, 125, 209, 156, 272
-0.993032, 171, 65, 186, 128
-0.993055, 257, 193, 288, 320
-0.993056, 413, 81, 444, 144
-0.993068, 81, 1, 144, 256
-0.993115, 97, 25, 224, 56
-0.993116, 105, 81, 168, 144
-0.993119, 253, 73, 268, 136
-0.993127, 291, 81, 306, 144
-0.993138, 97, 41, 352, 104
-0.993162, 233, 81, 248, 144
-0.993194, 401, 217, 464, 280
-0.99322, 235, 17, 250, 80
-0.993264, 221, 233, 236, 296
-0.993272, 321, 81, 352, 144
-0.993295, 225, 17, 240, 80
-0.993299, 1, 97, 32, 224
-0.993301, 385, 153, 448, 216
-0.993306, 145, 237, 272, 268
-0.993307, 269, 73, 284, 136
-0.993311, 281, 73, 296, 136
-0.993321, 453, 1, 484, 128
-0.993343, 197, 73, 212, 136
-0.99338, 409, 49, 440, 176
-0.993433, 225, 41, 240, 104
-0.99344, 191, 49, 206, 112
-0.993462, 353, 41, 480, 72
-0.993495, 321, 29, 448, 60
-0.993532, 57, 1, 120, 333
-0.993533, 141, 249, 172, 312
-0.993534, 41, 1, 104, 256
-0.99356, 219, 81, 234, 144
-0.993575, 1, 25, 500, 88
-0.993585, 445, 49, 476, 112
-0.993601, 273, 241, 336, 304
-0.993627, 33, 209, 160, 272
-0.993633, 33, 57, 96, 120
-0.993637, 1, 73, 256, 136
-0.993667, 157, 73, 172, 136
-0.993701, 345, 209, 408, 333
-0.993711, 351, 41, 366, 104
-0.99379, 425, 185, 488, 248
-0.993791, 97, 233, 352, 296
-0.993809, 303, 41, 318, 104
-0.993837, 1, 17, 32, 144
-0.993858, 297, 73, 312, 136
-0.993861, 161, 253, 288, 284
-0.993877, 197, 257, 228, 320
-0.993914, 177, 17, 304, 48
-0.993929, 353, 73, 416, 136
-0.993934, 243, 1, 258, 64
-0.993936, 349, 1, 380, 64
-0.993951, 241, 33, 368, 64
-0.993956, 239, 81, 254, 144
-0.99397, 17, 25, 48, 88
-0.994015, 129, 77, 256, 108
-0.994061, 243, 233, 258, 296
-0.994062, 213, 89, 228, 152
-0.994063, 377, 1, 440, 333
-0.994144, 145, 5, 272, 36
-0.994145, 145, 225, 272, 256
-0.994158, 17, 129, 80, 256
-0.994158, 193, 217, 448, 280
-0.994168, 81, 97, 208, 160
-0.994178, 97, 65, 128, 128
-0.994182, 445, 25, 460, 88
-0.994194, 321, 13, 448, 44
-0.994207, 121, 193, 152, 320
-0.99421, 65, 49, 192, 80
-0.994273, 323, 1, 338, 64
-0.994278, 301, 97, 332, 224
-0.994289, 165, 57, 180, 120
-0.994295, 379, 17, 394, 80
-0.994303, 227, 89, 242, 152
-0.994309, 141, 1, 156, 64
-0.994411, 345, 249, 408, 312
-0.994421, 203, 81, 218, 144
-0.994433, 219, 1, 234, 64
-0.994442, 323, 25, 338, 88
-0.994443, 275, 73, 290, 136
-0.994447, 147, 1, 162, 64
-0.994455, 273, 45, 400, 76
-0.994498, 247, 57, 262, 120
-0.9945, 193, 29, 320, 60
-0.994537, 177, 73, 192, 136
-0.994545, 401, 209, 464, 333
-0.994548, 133, 17, 148, 80
-0.994589, 357, 41, 372, 104
-0.994618, 157, 49, 172, 112
-0.994622, 313, 97, 376, 160
-0.994641, 17, 97, 48, 224
-0.994659, 145, 33, 272, 64
-0.994701, 225, 193, 352, 256
-0.99471, 35, 1, 50, 64
-0.994718, 49, 17, 176, 48
-0.994723, 349, 1, 364, 64
-0.994729, 257, 49, 272, 112
-0.99477, 305, 1, 432, 32
-0.994786, 251, 209, 266, 272
-0.99479, 209, 1, 224, 64
-0.994791, 163, 89, 178, 152
-0.994799, 101, 41, 116, 104
-0.9948, 425, 1, 440, 64
-0.994856, 91, 1, 106, 64
-0.994866, 129, 41, 144, 104
-0.994868, 241, 265, 368, 328
-0.99487, 117, 33, 132, 96
-0.994876, 177, 77, 304, 108
-0.994883, 241, 21, 368, 52
-0.994921, 53, 1, 68, 64
-0.994961, 33, 1, 160, 32
-0.994984, 313, 49, 328, 112
-0.995013, 169, 89, 184, 152
-0.995019, 337, 217, 464, 280
-0.995029, 281, 265, 344, 328
-0.995032, 139, 25, 154, 88
-0.99504, 209, 65, 336, 96
-0.99505, 231, 57, 246, 120
-0.995056, 1, 113, 128, 176
-0.995076, 317, 25, 332, 88
-0.995083, 271, 97, 286, 160
-0.995088, 193, 101, 320, 132
-0.995094, 435, 33, 450, 96
-0.995097, 97, 201, 352, 264
-0.995103, 185, 89, 200, 152
-0.995106, 27, 1, 42, 64
-0.995123, 159, 225, 174, 288
-0.995134, 185, 41, 200, 104
-0.995152, 245, 209, 260, 272
-0.995161, 225, 45, 352, 76
-0.995167, 193, 241, 320, 272
-0.995193, 207, 41, 222, 104
-0.99521, 193, 1, 320, 32
-0.995212, 281, 185, 344, 248
-0.995233, 79, 17, 94, 80
-0.995236, 193, 1, 208, 64
-0.995238, 289, 1, 352, 256
-0.995241, 377, 41, 392, 104
-0.995253, 253, 17, 268, 80
-0.995261, 277, 41, 292, 104
-0.995286, 45, 1, 60, 64
-0.995333, 295, 33, 310, 96
-0.995345, 401, 25, 416, 88
-0.995363, 193, 145, 224, 272
-0.995371, 241, 93, 368, 124
-0.995386, 173, 225, 188, 288
-0.9954, 367, 41, 382, 104
-0.995414, 91, 25, 106, 88
-0.995432, 113, 49, 240, 80
-0.995441, 253, 233, 268, 296
-0.995451, 273, 193, 400, 256
-0.995454, 289, 273, 416, 333
-0.995461, 309, 25, 324, 88
-0.995473, 75, 41, 90, 104
-0.99548, 393, 1, 424, 128
-0.995498, 227, 233, 242, 296
-0.995502, 215, 241, 230, 304
-0.995527, 49, 37, 176, 68
-0.995531, 81, 5, 208, 36
-0.995541, 151, 41, 166, 104
-0.995564, 241, 5, 368, 36
-0.995571, 271, 41, 286, 104
-0.995573, 301, 97, 316, 160
-0.995605, 411, 1, 426, 64
-0.995607, 129, 105, 256, 136
-0.995628, 203, 1, 218, 64
-0.995628, 281, 97, 296, 160
-0.995638, 385, 49, 400, 112
-0.995653, 287, 201, 302, 264
-0.995662, 329, 1, 344, 64
-0.995665, 291, 105, 306, 168
-0.99568, 431, 1, 446, 64
-0.995702, 81, 77, 208, 108
-0.995703, 129, 257, 384, 320
-0.995718, 65, 17, 80, 80
-0.99572, 151, 89, 166, 152
-0.995721, 273, 57, 400, 88
-0.995721, 317, 1, 332, 64
-0.995732, 337, 53, 464, 84
-0.99576, 267, 9, 282, 72
-0.995764, 177, 33, 192, 96
-0.995783, 1, 25, 64, 88
-0.995784, 369, 241, 496, 304
-0.995821, 97, 1, 112, 64
-0.995825, 197, 49, 212, 112
-0.995852, 275, 9, 290, 72
-0.995857, 113, 257, 240, 288
-0.99586, 291, 57, 306, 120
-0.995862, 97, 241, 224, 272
-0.995866, 153, 185, 216, 248
-0.995893, 241, 105, 368, 136
-0.995909, 73, 17, 88, 80
-0.995922, 1, 25, 128, 56
-0.995923, 193, 225, 320, 256
-0.99593, 33, 1, 96, 333
-0.995931, 421, 25, 436, 88
-0.99594, 1, 57, 500, 120
-0.995944, 153, 1, 168, 64
-0.995951, 147, 225, 162, 288
-0.995952, 5, 81, 20, 144
-0.995956, 65, 65, 192, 96
-0.995957, 167, 225, 182, 288
-0.995975, 289, 209, 352, 272
-0.995986, 431, 65, 446, 128
-0.996011, 343, 41, 358, 104
-0.996023, 209, 253, 336, 284
-0.996023, 111, 41, 126, 104
-0.996044, 237, 233, 252, 296
-0.996049, 289, 1, 352, 333
-0.99606, 237, 57, 252, 120
-0.996063, 247, 257, 262, 320
-0.996067, 237, 105, 252, 168
-0.996131, 253, 105, 268, 168
-0.996134, 19, 1, 34, 64
-0.99614, 427, 41, 442, 104
-0.996145, 237, 209, 252, 272
-0.996194, 81, 185, 208, 248
-0.996195, 341, 1, 356, 64
-0.996201, 81, 153, 208, 216
-0.996217, 281, 17, 296, 80
-0.996242, 315, 105, 330, 168
-0.996253, 257, 69, 384, 100
-0.996259, 135, 49, 150, 112
-0.996266, 319, 81, 334, 144
-0.996273, 221, 105, 236, 168
-0.996295, 369, 209, 432, 333
-0.996299, 321, 81, 448, 144
-0.996332, 97, 93, 224, 124
-0.996338, 1, 265, 128, 328
-0.996342, 279, 93, 294, 124
-0.996379, 49, 265, 176, 328
-0.996405, 129, 45, 144, 76
-0.996412, 369, 21, 496, 52
-0.996443, 135, 45, 150, 76
-0.996453, 253, 85, 268, 116
-0.996454, 1, 97, 500, 160
-0.996457, 321, 241, 448, 304
-0.996457, 351, 53, 366, 84
-0.996464, 9, 113, 72, 176
-0.996466, 1, 233, 256, 296
-0.996473, 157, 45, 172, 76
-0.996491, 1, 33, 64, 288
-0.9965, 263, 93, 278, 124
-0.996512, 101, 45, 116, 76
-0.996524, 337, 265, 464, 328
-0.996555, 129, 129, 256, 192
-0.99656, 181, 81, 196, 112
-0.996568, 211, 89, 226, 120
-0.996586, 49, 209, 112, 333
-0.996616, 177, 173, 304, 204
-0.996629, 199, 93, 214, 124
-0.996631, 191, 85, 206, 116
-0.996635, 297, 85, 312, 116
-0.996637, 247, 97, 262, 128
-0.996638, 269, 1, 300, 256
-0.996654, 129, 173, 256, 204
-0.996656, 113, 61, 240, 92
-0.996657, 289, 93, 304, 124
-0.99666, 303, 93, 318, 124
-0.996663, 237, 85, 252, 116
-0.996669, 369, 97, 496, 224
-0.996705, 215, 41, 230, 72
-0.996719, 369, 57, 496, 120
-0.99672, 161, 265, 288, 296
-0.996728, 161, 33, 176, 64
-0.99674, 81, 37, 96, 68
-0.99674, 235, 17, 250, 48
-0.996757, 107, 45, 122, 76
-0.996767, 357, 53, 372, 84
-0.996786, 205, 85, 220, 116
-0.996792, 129, 273, 192, 333
-0.996794, 225, 89, 480, 152
-0.996797, 243, 17, 258, 48
-0.996816, 97, 229, 224, 260
-0.996821, 269, 73, 284, 104
-0.996835, 175, 73, 190, 104
-0.996845, 221, 81, 236, 112
-0.99685, 225, 41, 240, 72
-0.996854, 99, 1, 114, 32
-0.996856, 145, 213, 272, 244
-0.996862, 167, 77, 182, 108
-0.996883, 139, 17, 154, 48
-0.996893, 161, 65, 176, 96
-0.996893, 175, 85, 190, 116
-0.996894, 283, 81, 298, 112
-0.996911, 147, 5, 162, 36
-0.99692, 227, 97, 242, 128
-0.996923, 195, 45, 210, 76
-0.996925, 167, 65, 182, 96
-0.996938, 157, 77, 172, 108
-0.996943, 145, 185, 272, 216
-0.996944, 313, 69, 328, 100
-0.996956, 199, 81, 214, 112
-0.996959, 73, 45, 88, 76
-0.996971, 145, 197, 272, 228
-0.996981, 159, 89, 174, 120
-0.997017, 133, 25, 148, 56
-0.997017, 321, 13, 336, 44
-0.997032, 93, 5, 108, 36
-0.997036, 81, 209, 144, 272
-0.997044, 289, 1, 320, 256
-0.997049, 183, 93, 198, 124
-0.997062, 173, 33, 204, 288
-0.997071, 283, 61, 298, 92
-0.997073, 149, 25, 164, 56
-0.997085, 193, 5, 208, 36
-0.997087, 201, 177, 264, 240
-0.997089, 401, 29, 416, 60
-0.997089, 225, 241, 480, 304
-0.997094, 241, 241, 368, 272
-0.997095, 153, 1, 184, 256
-0.997095, 167, 53, 182, 84
-0.9971, 157, 17, 172, 48
-0.997112, 241, 161, 272, 288
-0.997113, 187, 45, 202, 76
-0.997123, 241, 5, 256, 36
-0.997125, 209, 265, 336, 296
-0.99714, 269, 93, 284, 124
-0.99714, 175, 97, 190, 128
-0.997154, 225, 153, 352, 216
-0.99716, 297, 9, 312, 40
-0.997162, 225, 193, 480, 256
-0.997168, 305, 49, 320, 80
-0.997168, 277, 45, 292, 76
-0.997172, 121, 17, 136, 48
-0.997177, 165, 21, 180, 52
-0.997187, 419, 25, 434, 56
-0.997192, 307, 65, 322, 96
-0.997194, 17, 53, 144, 84
-0.997194, 253, 97, 268, 128
-0.997199, 229, 17, 244, 48
-0.997202, 251, 25, 266, 56
-0.997206, 167, 101, 182, 132
-0.997211, 127, 17, 142, 48
-0.997218, 261, 81, 276, 112
-0.997219, 257, 33, 288, 288
-0.997237, 187, 65, 202, 96
-0.997249, 141, 5, 156, 36
-0.99725, 307, 21, 322, 52
-0.997251, 353, 65, 368, 96
-0.997251, 307, 81, 322, 112
-0.997252, 295, 97, 310, 128
-0.997265, 245, 85, 260, 116
-0.997266, 241, 217, 368, 248
-0.997274, 337, 273, 400, 333
-0.997275, 437, 37, 452, 68
-0.997279, 195, 33, 210, 64
-0.997281, 349, 41, 364, 72
-0.997282, 1, 13, 128, 44
-0.997284, 283, 49, 298, 80
-0.99729, 1, 37, 128, 68
-0.997293, 275, 1, 290, 32
-0.997294, 377, 53, 392, 84
-0.997296, 283, 1, 298, 32
-0.997298, 117, 45, 132, 76
-0.997312, 253, 37, 268, 68
-0.99732, 133, 57, 148, 88
-0.997321, 213, 1, 244, 256
-0.997329, 227, 69, 242, 100
-0.997335, 281, 21, 296, 52
-0.997339, 447, 33, 462, 64
-0.997342, 109, 33, 124, 64
-0.997347, 109, 17, 124, 48
-0.997353, 71, 17, 86, 48
-0.997356, 241, 81, 368, 112
-0.997358, 185, 17, 200, 48
-0.997358, 167, 37, 182, 68
-0.997364, 105, 57, 120, 88
-0.99737, 79, 25, 94, 56
-0.997373, 369, 9, 496, 40
-0.997374, 33, 105, 288, 168
-0.997375, 361, 33, 376, 64
-0.997378, 379, 17, 394, 48
-0.997388, 235, 29, 250, 60
-0.997389, 299, 25, 314, 56
-0.997392, 367, 49, 382, 80
-0.997392, 115, 17, 130, 48
-0.997396, 93, 25, 108, 56
-0.997398, 247, 37, 262, 68
-0.997399, 205, 5, 220, 36
-0.9974, 293, 29, 308, 60
-0.997403, 177, 21, 192, 52
-0.997408, 177, 161, 304, 192
-0.997408, 313, 93, 328, 124
-0.997412, 101, 193, 132, 320
-0.997413, 313, 81, 328, 112
-0.997416, 99, 17, 114, 48
-0.997417, 1, 129, 128, 256
-0.997419, 235, 5, 250, 36
-0.997421, 219, 53, 234, 84
-0.997427, 291, 9, 306, 40
-0.997427, 1, 201, 256, 264
-0.997431, 195, 17, 210, 48
-0.997455, 129, 161, 256, 192
-0.997459, 91, 37, 106, 68
-0.997459, 315, 57, 330, 88
-0.997459, 275, 61, 290, 92
-0.99746, 219, 93, 234, 124
-0.997468, 223, 1, 238, 32
-0.997471, 153, 5, 168, 36
-0.997472, 305, 249, 368, 312
-0.997475, 289, 73, 304, 104
-0.997477, 305, 105, 320, 136
-0.997477, 189, 33, 204, 64
-0.997489, 213, 101, 228, 132
-0.997495, 385, 53, 400, 84
-0.997496, 199, 5, 214, 36
-0.997498, 193, 205, 320, 236
-0.9975, 287, 21, 302, 52
-0.997502, 295, 53, 310, 84
-0.99756, 33, 257, 288, 320
-0.997561, 341, 1, 372, 256
-0.997568, 269, 129, 300, 256
-0.997571, 289, 81, 416, 112
-0.997588, 289, 93, 416, 124
-0.997601, 1, 81, 64, 208
-0.997669, 81, 105, 208, 136
-0.997685, 145, 161, 176, 288
-0.997685, 409, 241, 472, 304
-0.99777, 57, 49, 88, 176
-0.997826, 81, 217, 208, 248
-0.997828, 425, 217, 488, 280
-0.997868, 129, 113, 384, 176
-0.997955, 369, 1, 432, 256
-0.997961, 337, 65, 464, 96
-0.997981, 225, 265, 480, 328
-0.997992, 369, 81, 496, 144
-0.998088, 65, 253, 192, 284
-0.998103, 193, 185, 320, 216
-0.998104, 313, 1, 344, 256
-0.998182, 185, 1, 216, 256
-0.998184, 97, 185, 224, 216
-0.998212, 229, 65, 260, 320
-0.998223, 301, 65, 332, 320
-0.998231, 389, 49, 420, 176
-0.998239, 73, 241, 136, 304
-0.998254, 1, 69, 128, 100
-0.998263, 141, 1, 172, 256
-0.998275, 137, 1, 152, 128
-0.998288, 201, 1, 232, 256
-0.998288, 57, 65, 120, 128
-0.998306, 321, 193, 448, 256
-0.998325, 169, 17, 184, 144
-0.998347, 177, 113, 304, 144
-0.998358, 159, 1, 174, 128
-0.998361, 1, 169, 256, 232
-0.998363, 73, 1, 104, 256
-0.998365, 147, 1, 162, 128
-0.998366, 145, 101, 208, 116
-0.998373, 145, 87, 208, 102
-0.99838, 249, 79, 312, 94
-0.998381, 257, 87, 320, 102
-0.998383, 273, 81, 336, 96
-0.998384, 177, 83, 240, 98
-0.998391, 241, 229, 368, 260
-0.998392, 145, 81, 208, 96
-0.998393, 105, 19, 168, 34
-0.998393, 97, 177, 352, 240
-0.9984, 257, 73, 320, 88
-0.998407, 201, 19, 264, 34
-0.998408, 57, 51, 120, 66
-0.998416, 273, 93, 336, 108
-0.998417, 177, 91, 240, 106
-0.998422, 65, 205, 192, 236
-0.998422, 201, 85, 264, 100
-0.998424, 121, 39, 184, 54
-0.998427, 409, 15, 472, 30
-0.998427, 249, 103, 312, 118
-0.998428, 121, 65, 184, 80
-0.99843, 153, 53, 216, 68
-0.99843, 209, 239, 272, 254
-0.998431, 409, 39, 472, 54
-0.998431, 145, 93, 208, 108
-0.998433, 295, 1, 310, 128
-0.998436, 225, 21, 288, 36
-0.998439, 97, 51, 160, 66
-0.998442, 185, 59, 248, 74
-0.998449, 153, 39, 216, 54
-0.998452, 103, 1, 118, 128
-0.998455, 225, 83, 288, 98
-0.998456, 273, 105, 336, 120
-0.998459, 345, 55, 408, 70
-0.998462, 265, 5, 328, 20
-0.998462, 129, 49, 192, 64
-0.998464, 81, 19, 144, 34
-0.998465, 233, 97, 296, 112
-0.998468, 209, 245, 272, 260
-0.99847, 97, 39, 160, 54
-0.998476, 33, 225, 160, 256
-0.998476, 97, 57, 160, 72
-0.998478, 169, 101, 232, 116
-0.998478, 57, 45, 120, 60
-0.99848, 249, 23, 312, 38
-0.998482, 273, 67, 336, 82
-0.998483, 57, 57, 120, 72
-0.998487, 409, 7, 472, 22
-0.998487, 153, 59, 216, 74
-0.998489, 337, 49, 400, 64
-0.99849, 185, 51, 248, 66
-0.99849, 97, 1, 160, 16
-0.998491, 145, 19, 208, 34
-0.998491, 269, 1, 284, 128
-0.998492, 229, 33, 244, 160
-0.998493, 241, 121, 368, 184
-0.998495, 209, 257, 272, 272
-0.998497, 405, 35, 436, 50
-0.998497, 273, 53, 304, 68
-0.998498, 185, 17, 200, 144
-0.998499, 153, 65, 216, 80
-0.9985, 229, 219, 260, 234
-0.9985, 245, 1, 276, 16
-0.9985, 145, 19, 176, 34
-0.998502, 181, 57, 212, 72
-0.998503, 65, 39, 128, 54
-0.998503, 261, 21, 292, 36
-0.998505, 229, 59, 260, 74
-0.998505, 273, 99, 336, 114
-0.998505, 289, 111, 320, 126
-0.998508, 409, 7, 440, 22
-0.998509, 97, 45, 160, 60
-0.998509, 305, 23, 336, 38
-0.99851, 285, 25, 316, 40
-0.99851, 289, 79, 320, 94
-0.99851, 33, 1, 64, 16
-0.998511, 201, 101, 264, 116
-0.998512, 137, 43, 168, 58
-0.998513, 169, 107, 232, 122
-0.998513, 29, 21, 60, 36
-0.998513, 81, 1, 96, 128
-0.998514, 201, 83, 232, 98
-0.998515, 369, 1, 432, 16
-0.998516, 425, 11, 456, 26
-0.998516, 153, 75, 216, 90
-0.998517, 305, 65, 368, 80
-0.998518, 209, 251, 272, 266
-0.99852, 181, 21, 212, 36
-0.99852, 177, 87, 208, 102
-0.998521, 425, 39, 456, 54
-0.998521, 225, 231, 256, 246
-0.998523, 277, 1, 292, 128
-0.998523, 121, 55, 184, 70
-0.998524, 221, 91, 252, 106
-0.998525, 161, 259, 192, 274
-0.998525, 345, 31, 408, 46
-0.998525, 133, 241, 164, 256
-0.998526, 233, 41, 264, 56
-0.998526, 241, 39, 304, 54
-0.998526, 177, 21, 240, 36
-0.998526, 213, 55, 244, 70
-0.998527, 377, 35, 440, 50
-0.998528, 441, 45, 472, 60
-0.998529, 297, 25, 360, 40
-0.998529, 177, 1, 192, 128
-0.998529, 177, 263, 240, 278
-0.998529, 293, 51, 324, 66
-0.998529, 273, 31, 336, 46
-0.99853, 217, 269, 280, 284
-0.998531, 273, 111, 336, 126
-0.998531, 185, 1, 248, 16
-0.998532, 265, 57, 328, 72
-0.998532, 305, 45, 368, 60
-0.998532, 265, 43, 328, 58
-0.998533, 285, 57, 316, 72
-0.998533, 165, 67, 196, 82
-0.998534, 249, 109, 312, 124
-0.998534, 201, 61, 232, 76
-0.998534, 241, 255, 304, 270
-0.998534, 243, 17, 258, 144
-0.998534, 213, 21, 244, 36
-0.998534, 277, 79, 308, 94
-0.998534, 165, 41, 196, 56
-0.998535, 337, 61, 400, 76
-0.998535, 153, 45, 216, 60
-0.998535, 49, 21, 112, 36
-0.998536, 205, 109, 236, 124
-0.998537, 257, 43, 288, 58
-0.998537, 245, 65, 276, 320
-0.998538, 125, 63, 156, 78
-0.998538, 217, 221, 280, 236
-0.99854, 131, 1, 146, 128
-0.998541, 177, 39, 240, 54
-0.998542, 345, 45, 376, 60
-0.998543, 193, 1, 224, 16
-0.998545, 337, 1, 400, 16
-0.998545, 25, 21, 88, 36
-0.998546, 233, 91, 296, 106
-0.998546, 169, 255, 232, 270
-0.998547, 301, 57, 332, 72
-0.998547, 113, 39, 144, 54
-0.998548, 233, 91, 264, 106
-0.998548, 137, 229, 200, 244
-0.998549, 241, 3, 304, 18
-0.998549, 305, 59, 368, 74
-0.99855, 201, 91, 264, 106
-0.998551, 125, 57, 156, 72
-0.998551, 269, 3, 300, 18
-0.998552, 365, 67, 396, 82
-0.998552, 89, 1, 120, 16
-0.998552, 177, 77, 240, 92
-0.998552, 113, 19, 144, 34
-0.998553, 77, 55, 108, 70
-0.998554, 225, 1, 256, 16
-0.998554, 145, 1, 208, 16
-0.998554, 217, 1, 280, 16
-0.998555, 133, 51, 164, 66
-0.998555, 233, 263, 264, 278
-0.998556, 257, 205, 384, 236
-0.998557, 305, 71, 368, 86
-0.998558, 209, 263, 272, 278
-0.998559, 245, 39, 276, 54
-0.998559, 97, 63, 160, 78
-0.998559, 153, 37, 184, 52
-0.99856, 109, 1, 124, 128
-0.99856, 357, 49, 388, 64
-0.99856, 305, 37, 368, 52
-0.99856, 217, 233, 280, 248
-0.998561, 181, 49, 212, 64
-0.998564, 293, 65, 324, 80
-0.998564, 213, 47, 244, 62
-0.998564, 217, 227, 280, 242
-0.998566, 321, 29, 384, 44
-0.998566, 241, 261, 304, 276
-0.998567, 89, 43, 120, 58
-0.998569, 345, 39, 408, 54
-0.998569, 169, 243, 232, 258
-0.99857, 253, 81, 284, 96
-0.99857, 17, 1, 80, 16
-0.99857, 245, 87, 276, 102
-0.998571, 153, 45, 184, 60
-0.998572, 281, 73, 344, 88
-0.998572, 185, 65, 248, 80
-0.998573, 209, 39, 272, 54
-0.998574, 193, 43, 224, 58
-0.998574, 241, 21, 272, 36
-0.998575, 305, 51, 368, 66
-0.998577, 121, 29, 184, 44
-0.998578, 225, 77, 288, 92
-0.998578, 393, 33, 424, 48
-0.998579, 289, 89, 320, 104
-0.998579, 217, 107, 280, 122
-0.99858, 301, 79, 332, 94
-0.99858, 33, 51, 96, 66
-0.99858, 297, 81, 360, 96
-0.998582, 281, 45, 312, 60
-0.998582, 345, 7, 408, 22
-0.998583, 193, 53, 224, 68
-0.998583, 153, 57, 184, 72
-0.998583, 205, 1, 220, 128
-0.998585, 121, 95, 184, 110
-0.998585, 217, 45, 280, 60
-0.998586, 409, 21, 472, 36
-0.998587, 113, 53, 144, 68
-0.998587, 273, 25, 336, 40
-0.998588, 225, 215, 288, 230
-0.998588, 165, 53, 196, 68
-0.998589, 177, 71, 240, 86
-0.998589, 213, 61, 244, 76
-0.99859, 297, 87, 360, 102
-0.99859, 289, 1, 352, 16
-0.99859, 209, 57, 272, 72
-0.998591, 145, 107, 208, 122
-0.998592, 281, 1, 312, 16
-0.998592, 185, 45, 248, 60
-0.998592, 177, 231, 240, 246
-0.998593, 161, 277, 288, 308
-0.998593, 273, 69, 304, 84
-0.998595, 113, 61, 144, 76
-0.998596, 133, 17, 164, 32
-0.998597, 49, 89, 176, 120
-0.998597, 209, 101, 240, 116
-0.998597, 377, 57, 440, 72
-0.998597, 193, 107, 256, 122
-0.998598, 273, 49, 336, 64
-0.998598, 169, 249, 232, 264
-0.9986, 121, 71, 184, 86
-0.9986, 241, 67, 304, 82
-0.998601, 97, 269, 224, 300
-0.998604, 225, 51, 288, 66
-0.998604, 165, 61, 196, 76
-0.998606, 181, 65, 196, 192
-0.998607, 97, 1, 128, 256
-0.998609, 21, 1, 52, 16
-0.99861, 1, 241, 128, 304
-0.99861, 257, 89, 288, 104
-0.998612, 229, 19, 260, 34
-0.998612, 153, 83, 184, 98
-0.998613, 125, 43, 156, 58
-0.998614, 133, 37, 164, 52
-0.998614, 169, 81, 200, 96
-0.998614, 69, 43, 100, 58
-0.998615, 425, 1, 440, 128
-0.998615, 199, 17, 214, 144
-0.998615, 181, 105, 212, 120
-0.998616, 89, 51, 120, 66
-0.998616, 153, 51, 184, 66
-0.998616, 153, 93, 184, 108
-0.998617, 233, 85, 264, 100
-0.998618, 283, 1, 298, 128
-0.998619, 33, 185, 160, 248
-0.99862, 357, 61, 388, 76
-0.998621, 273, 59, 304, 74
-0.998626, 365, 55, 396, 70
-0.998627, 273, 85, 304, 100
-0.998627, 289, 73, 320, 88
-0.998628, 177, 99, 208, 114
-0.99863, 345, 65, 376, 80
-0.998632, 1, 101, 128, 132
-0.998634, 269, 105, 300, 120
-0.998634, 213, 41, 244, 56
-0.998641, 301, 85, 332, 100
-0.998644, 259, 1, 274, 128
-0.998644, 105, 47, 136, 62
-0.998646, 345, 59, 376, 74
-0.998646, 289, 105, 320, 120
-0.998646, 97, 57, 128, 72
-0.998647, 189, 85, 220, 100
-0.99865, 145, 65, 176, 80
-0.998655, 75, 1, 90, 128
-0.998656, 241, 209, 256, 333
-0.998662, 237, 97, 268, 112
-0.998665, 301, 95, 332, 110
-0.998675, 223, 1, 238, 128
-0.998675, 301, 105, 332, 120
-0.998677, 351, 1, 366, 128
-0.998679, 237, 1, 252, 128
-0.99868, 77, 49, 108, 64
-0.99868, 345, 51, 376, 66
-0.998681, 205, 89, 236, 104
-0.998681, 97, 273, 160, 333
-0.998684, 269, 99, 300, 114
-0.998687, 277, 91, 308, 106
-0.998687, 225, 99, 256, 114
-0.998687, 265, 77, 296, 92
-0.998693, 161, 101, 192, 116
-0.998695, 191, 17, 206, 144
-0.998703, 165, 87, 196, 102
-0.998704, 281, 99, 312, 114
-0.998705, 253, 103, 284, 118
-0.998705, 197, 103, 228, 118
-0.998708, 381, 1, 396, 128
-0.998708, 253, 97, 284, 112
-0.998709, 213, 49, 228, 176
-0.998712, 221, 85, 252, 100
-0.998712, 161, 75, 192, 90
-0.998717, 185, 93, 216, 108
-0.998718, 205, 95, 236, 110
-0.998721, 233, 105, 264, 120
-0.998725, 251, 33, 266, 160
-0.998728, 305, 209, 368, 333
-0.998744, 223, 209, 238, 333
-0.998745, 85, 1, 116, 256
-0.998746, 221, 105, 252, 120
-0.998746, 57, 201, 120, 264
-0.998748, 235, 209, 250, 333
-0.998756, 187, 65, 202, 192
-0.998762, 303, 33, 318, 160
-0.998772, 153, 1, 168, 128
-0.998775, 91, 1, 106, 128
-0.998782, 269, 65, 284, 192
-0.998786, 121, 1, 136, 128
-0.998791, 177, 149, 304, 180
-0.998795, 275, 49, 290, 176
-0.99882, 229, 209, 244, 333
-0.998868, 217, 177, 232, 304
-0.998882, 449, 1, 480, 256
-0.998886, 169, 65, 184, 192
-0.998897, 237, 65, 252, 192
-0.998907, 409, 1, 440, 256
-0.998916, 419, 1, 434, 128
-0.998922, 157, 49, 172, 176
-0.998926, 321, 1, 336, 128
-0.998937, 375, 1, 390, 128
-0.99894, 1, 257, 500, 320
-0.998947, 263, 65, 278, 192
-0.998949, 223, 81, 238, 208
-0.998956, 289, 1, 304, 128
-0.998957, 33, 237, 160, 268
-0.998963, 309, 49, 324, 176
-0.998973, 229, 81, 244, 208
-0.998977, 353, 1, 384, 256
-0.998991, 249, 209, 264, 333
-0.998992, 175, 65, 190, 192
-0.998997, 217, 1, 232, 128
-0.99901, 109, 1, 140, 256
-0.999013, 129, 149, 256, 180
-0.999016, 115, 1, 130, 128
-0.999031, 43, 1, 58, 128
-0.999032, 223, 161, 238, 288
-0.999035, 353, 97, 480, 128
-0.999042, 285, 49, 300, 176
-0.999043, 211, 177, 226, 304
-0.999054, 97, 1, 112, 128
-0.999086, 199, 65, 214, 192
-0.999093, 69, 1, 84, 128
-0.999095, 209, 277, 336, 308
-0.999101, 387, 1, 402, 128
-0.999102, 207, 49, 222, 176
-0.999111, 21, 1, 36, 128
-0.999125, 447, 1, 462, 128
-0.999129, 293, 49, 308, 176
-0.99913, 297, 177, 328, 304
-0.999131, 431, 1, 446, 128
-0.999133, 125, 1, 156, 256
-0.999134, 243, 65, 258, 192
-0.999136, 367, 17, 382, 144
-0.999139, 315, 49, 330, 176
-0.999145, 427, 65, 442, 192
-0.999149, 163, 65, 178, 192
-0.999151, 215, 97, 230, 224
-0.999155, 211, 1, 226, 128
-0.999167, 205, 97, 220, 224
-0.999168, 193, 81, 208, 208
-0.999171, 1, 89, 128, 152
-0.999175, 53, 1, 68, 128
-0.999183, 421, 1, 452, 256
-0.999189, 229, 161, 244, 288
-0.999197, 257, 49, 272, 176
-0.9992, 1, 133, 128, 164
-0.999202, 441, 1, 456, 128
-0.999203, 1, 137, 128, 200
-0.999207, 205, 161, 220, 288
-0.999208, 35, 1, 50, 128
-0.999218, 433, 49, 448, 176
-0.999223, 77, 49, 92, 176
-0.999224, 315, 1, 330, 128
-0.999227, 345, 49, 360, 176
-0.999227, 139, 49, 154, 176
-0.999231, 1, 113, 128, 144
-0.99924, 133, 49, 148, 176
-0.999247, 17, 97, 32, 224
-0.999249, 25, 81, 88, 144
-0.999263, 289, 105, 416, 136
-0.999266, 147, 49, 162, 176
-0.999267, 101, 49, 116, 176
-0.999268, 251, 81, 266, 208
-0.999304, 255, 209, 270, 333
-0.999309, 165, 193, 180, 320
-0.999311, 305, 205, 432, 236
-0.999313, 171, 209, 186, 333
-0.999314, 337, 217, 464, 248
-0.999315, 437, 65, 468, 192
-0.999316, 157, 97, 172, 224
-0.999318, 133, 161, 164, 288
-0.999324, 63, 1, 78, 128
-0.999327, 9, 1, 72, 333
-0.999329, 71, 49, 86, 176
-0.999331, 241, 161, 256, 288
-0.99936, 293, 97, 308, 224
-0.999362, 437, 1, 468, 256
-0.999367, 309, 1, 324, 128
-0.999367, 157, 209, 172, 333
-0.999372, 383, 49, 398, 176
-0.999372, 455, 1, 470, 128
-0.999381, 17, 249, 144, 280
-0.999382, 83, 49, 98, 176
-0.999389, 357, 33, 372, 160
-0.999407, 345, 225, 408, 288
-0.999411, 109, 49, 124, 176
-0.999413, 433, 161, 496, 224
-0.999422, 289, 193, 304, 320
-0.999433, 413, 1, 428, 128
-0.999435, 343, 1, 358, 128
-0.999435, 393, 17, 408, 144
-0.999436, 127, 49, 142, 176
-0.999438, 27, 1, 42, 128
-0.999457, 177, 209, 192, 333
-0.999459, 81, 165, 208, 196
-0.999459, 313, 97, 328, 224
-0.999464, 33, 265, 160, 296
-0.999469, 235, 161, 250, 288
-0.99947, 289, 145, 416, 272
-0.999474, 397, 1, 428, 256
-0.999478, 199, 161, 214, 288
-0.99948, 13, 49, 28, 176
-0.999483, 289, 217, 416, 248
-0.999506, 421, 49, 436, 176
-0.999507, 283, 209, 298, 333
-0.999517, 269, 113, 284, 240
-0.999524, 251, 161, 266, 288
-0.999527, 149, 209, 164, 333
-0.999531, 351, 49, 366, 176
-0.999537, 299, 81, 314, 208
-0.999545, 377, 49, 392, 176
-0.999556, 239, 113, 254, 240
-0.999558, 143, 193, 158, 320
-0.999567, 65, 193, 96, 320
-0.999567, 1, 81, 128, 112
-0.999583, 1, 145, 256, 208
-0.999588, 193, 133, 320, 164
-0.999636, 289, 273, 416, 304
-0.999642, 289, 249, 416, 280
-0.999644, 369, 1, 400, 256
-0.999671, 369, 237, 496, 268
-0.999677, 81, 281, 208, 312
-0.999681, 225, 117, 352, 148
-0.999696, 289, 301, 416, 332
-0.999703, 337, 293, 464, 324
-0.999714, 163, 43, 178, 58
-0.999716, 351, 71, 366, 86
-0.999716, 165, 51, 180, 66
-0.999716, 237, 91, 252, 106
-0.999717, 347, 47, 362, 62
-0.999717, 323, 1, 338, 16
-0.999717, 53, 21, 68, 36
-0.999717, 299, 25, 314, 40
-0.999718, 77, 39, 92, 54
-0.999719, 281, 23, 296, 38
-0.999719, 219, 95, 234, 110
-0.999719, 225, 113, 480, 176
-0.999719, 303, 63, 318, 78
-0.99972, 131, 19, 146, 34
-0.99972, 229, 99, 244, 114
-0.999721, 263, 87, 278, 102
-0.999722, 309, 85, 324, 100
-0.999723, 1, 201, 500, 264
-0.999724, 97, 145, 160, 272
-0.999724, 71, 21, 86, 36
-0.999724, 421, 37, 436, 52
-0.999725, 295, 97, 310, 112
-0.999726, 129, 57, 144, 72
-0.999726, 247, 39, 262, 54
-0.999727, 129, 63, 144, 78
-0.999727, 161, 65, 176, 80
-0.999727, 439, 51, 454, 66
-0.999727, 195, 37, 210, 52
-0.999727, 209, 95, 224, 110
-0.999729, 165, 57, 180, 72
-0.999729, 193, 51, 208, 66
-0.999729, 73, 45, 88, 60
-0.999729, 53, 1, 68, 16
-0.99973, 193, 21, 208, 36
-0.999731, 263, 21, 278, 36
-0.999731, 255, 21, 270, 36
-0.999731, 281, 3, 296, 18
-0.999731, 275, 91, 290, 106
-0.999732, 337, 261, 464, 292
-0.999732, 313, 73, 328, 88
-0.999732, 367, 51, 382, 66
-0.999733, 165, 37, 180, 52
-0.999733, 137, 51, 152, 66
-0.999733, 99, 55, 114, 70
-0.999735, 157, 19, 172, 34
-0.999736, 207, 101, 222, 116
-0.999736, 425, 7, 440, 22
-0.999738, 137, 43, 152, 58
-0.999738, 309, 67, 324, 82
-0.999738, 237, 105, 252, 120
-0.999739, 183, 83, 198, 98
-0.999739, 275, 3, 290, 18
-0.999739, 213, 89, 228, 104
-0.99974, 449, 19, 464, 34
-0.999741, 167, 69, 182, 84
-0.999741, 219, 101, 234, 116
-0.999741, 125, 19, 140, 34
-0.999743, 171, 75, 186, 90
-0.999743, 263, 103, 278, 118
-0.999744, 117, 19, 132, 34
-0.999745, 137, 19, 152, 34
-0.999746, 159, 37, 174, 52
-0.999746, 313, 105, 328, 120
-0.999746, 227, 19, 242, 34
-0.999747, 17, 213, 144, 244
-0.999747, 237, 99, 252, 114
-0.999748, 199, 85, 214, 100
-0.999749, 419, 15, 434, 30
-0.99975, 183, 21, 198, 36
-0.99975, 349, 65, 364, 80
-0.99975, 253, 91, 268, 106
-0.999751, 285, 67, 300, 82
-0.999752, 195, 1, 210, 16
-0.999755, 287, 107, 302, 122
-0.999756, 193, 99, 208, 114
-0.999756, 273, 169, 400, 232
-0.999756, 269, 97, 284, 112
-0.999756, 223, 87, 238, 102
-0.999756, 225, 41, 240, 56
-0.999758, 301, 95, 316, 110
-0.999758, 147, 19, 162, 34
-0.999759, 215, 45, 230, 60
-0.99976, 23, 1, 38, 16
-0.999763, 247, 95, 262, 110
-0.999765, 281, 91, 296, 106
-0.999766, 81, 45, 96, 60
-0.999766, 225, 289, 352, 320
-0.999767, 225, 51, 240, 66
-0.999768, 291, 91, 306, 106
-0.999768, 247, 105, 262, 120
-0.999768, 213, 105, 228, 120
-0.999769, 181, 99, 196, 114
-0.999769, 357, 61, 372, 76
-0.99977, 293, 103, 308, 118
-0.999772, 161, 101, 176, 116
-0.999772, 353, 205, 480, 236
-0.999772, 157, 93, 172, 108
-0.999772, 169, 103, 184, 118
-0.999774, 309, 209, 340, 333
-0.999774, 263, 93, 278, 108
-0.999775, 243, 19, 258, 34
-0.999777, 191, 93, 206, 108
-0.999777, 129, 49, 144, 64
-0.999778, 79, 51, 94, 66
-0.999778, 157, 47, 172, 62
-0.999779, 253, 39, 268, 54
-0.999779, 357, 53, 372, 68
-0.999781, 379, 1, 394, 16
-0.999781, 251, 85, 266, 100
-0.999783, 281, 85, 296, 100
-0.999784, 299, 105, 314, 120
-0.999785, 401, 33, 416, 48
-0.999787, 281, 77, 296, 92
-0.999787, 281, 99, 296, 114
-0.999787, 161, 77, 176, 92
-0.999788, 105, 51, 120, 66
-0.999791, 349, 57, 364, 72
-0.999791, 73, 51, 88, 66
-0.999791, 229, 105, 244, 120
-0.999793, 235, 85, 250, 100
-0.999793, 215, 59, 230, 74
-0.999794, 353, 47, 368, 62
-0.999795, 157, 83, 172, 98
-0.999795, 281, 105, 296, 120
-0.999796, 267, 77, 282, 92
-0.999796, 207, 87, 222, 102
-0.999797, 377, 55, 392, 70
-0.999797, 299, 87, 314, 102
-0.999797, 175, 99, 190, 114
-0.999797, 177, 77, 192, 92
-0.999797, 233, 19, 248, 34
-0.999798, 193, 87, 208, 102
-0.999801, 295, 1, 310, 16
-0.999803, 93, 1, 108, 16
-0.999807, 313, 79, 328, 94
-0.999807, 253, 101, 268, 116
-0.999814, 201, 93, 216, 108
-0.999817, 105, 59, 120, 74
-0.999817, 337, 81, 464, 112
-0.999817, 201, 105, 216, 120
-0.999844, 225, 169, 352, 200
-0.999877, 273, 193, 400, 224
-0.999877, 361, 145, 424, 208
-0.999899, 377, 257, 440, 320
-0.999903, 1, 277, 128, 308
-0.999904, 53, 193, 84, 320
-0.999916, 289, 229, 416, 260
-0.999928, 325, 1, 356, 256
-0.999945, 337, 249, 464, 280
-0.999945, 257, 169, 500, 232
-0.999985, 257, 261, 384, 292
-0.999988, 377, 217, 440, 280
-1, 1, 65, 32, 320
-1.00003, 425, 209, 488, 333
-1.00005, 29, 65, 60, 192
-1.00005, 313, 217, 376, 280
-1.00006, 65, 293, 192, 324
-1.00006, 369, 193, 496, 256
-1.00009, 17, 201, 144, 232
-1.0001, 129, 137, 256, 168
-1.0001, 461, 1, 492, 256
-1.00011, 57, 1, 88, 256
-1.00013, 241, 301, 368, 332
-1.00014, 1, 297, 128, 328
-1.00015, 353, 281, 480, 312
-1.00015, 369, 117, 496, 148
-1.00018, 289, 289, 416, 320
-1.0002, 225, 153, 352, 184
-1.00021, 273, 125, 400, 156
-1.00022, 401, 129, 464, 192
-1.00022, 321, 121, 448, 184
-1.00031, 353, 201, 416, 264
-1.00034, 353, 161, 480, 288
-1.0004, 361, 209, 392, 333
-1.00055, 429, 209, 460, 333
-1.00057, 13, 65, 44, 320
-1.00058, 369, 169, 496, 232
-1.00059, 1, 249, 64, 312
-1.00065, 385, 1, 416, 256
-1.00067, 41, 49, 72, 176
-1.00073, 417, 81, 480, 144
-1.00073, 1, 225, 500, 288
-1.00075, 389, 209, 420, 333
-1.00076, 129, 153, 384, 216
-1.00081, 85, 193, 116, 320
-1.00083, 313, 97, 344, 224
-1.00092, 37, 113, 68, 240
-1.00098, 157, 145, 188, 272
-1.00106, 81, 129, 208, 192
-1.0011, 369, 113, 496, 176
-1.0011, 33, 257, 96, 320
-1.00112, 45, 65, 76, 320
-1.00114, 29, 65, 60, 320
-1.00126, 225, 137, 480, 200
-1.00129, 425, 145, 456, 272
-1.00146, 33, 161, 160, 224
-1.00149, 281, 145, 312, 272
-1.00149, 385, 161, 448, 288
-1.00162, 49, 145, 112, 272
-1.00167, 377, 209, 408, 333
-1.00172, 1, 177, 500, 240
-1.00173, 405, 193, 436, 320
-1.00177, 73, 161, 136, 288
-1.00181, 73, 265, 136, 328
-1.00182, 321, 169, 448, 232
-1.00182, 321, 145, 448, 208
-1.00188, 409, 97, 440, 224
-1.00196, 9, 273, 72, 333
-1.00207, 449, 49, 480, 176
-1.00208, 361, 121, 424, 184
-1.0021, 129, 177, 192, 240
-1.00213, 61, 145, 92, 272
-1.00221, 1, 137, 500, 200
-1.00223, 369, 137, 496, 200
-1.00227, 385, 97, 448, 160
-1.00227, 49, 233, 112, 296
-1.00228, 417, 273, 480, 333
-1.00229, 265, 145, 328, 272
-1.00231, 137, 97, 168, 224
-1.00232, 349, 209, 380, 333
-1.00237, 33, 209, 96, 272
-1.00269, 41, 97, 104, 224
-1.00278, 417, 209, 448, 333
-1.00292, 1, 145, 32, 272
-1.00298, 129, 113, 192, 240
-1.00301, 377, 177, 440, 240
-1.00305, 81, 185, 144, 248
-1.00314, 41, 161, 72, 288
-1.00317, 289, 145, 352, 272
-1.00329, 121, 145, 152, 272
-1.0033, 437, 113, 468, 240
-1.00332, 265, 137, 328, 200
-1.00333, 333, 209, 364, 333
-1.00334, 17, 137, 80, 200
-1.00334, 361, 161, 424, 288
-1.00339, 321, 177, 352, 304
-1.00343, 313, 193, 376, 256
-1.00345, 273, 145, 400, 208
-1.00345, 105, 145, 136, 272
-1.00354, 25, 193, 88, 320
-1.00375, 57, 129, 120, 192
-1.00381, 257, 145, 288, 272
-1.00382, 441, 177, 472, 304
-1.00389, 41, 153, 104, 216
-1.00396, 409, 145, 440, 272
-1.00403, 425, 49, 488, 176
-1.00414, 309, 145, 340, 272
-1.00444, 321, 161, 384, 288
-1.00444, 89, 145, 120, 272
-1.00459, 41, 209, 72, 333
-1.00486, 377, 161, 408, 288
-1.00623, 1, 193, 64, 320
-1.00649, 401, 97, 464, 224
-1.00668, 425, 113, 488, 240
-1.00682, 433, 161, 496, 288
-1.00702, 409, 161, 472, 288
-1.00825, 321, 97, 448, 224
-1.00993, 369, 113, 432, 240
-1.01025, 105, 97, 168, 224
-1.0109, 345, 113, 408, 240
-1.01132, 321, 113, 384, 240
-1.0122, 73, 113, 136, 240
