1802
-0.560041, 33, 1, 288, 274
-0.588024, 1, 33, 500, 274
-0.592056, 1, 1, 500, 274
-0.696698, 1, 33, 256, 274
-0.701089, 129, 1, 384, 274
-0.731784, 225, 1, 480, 274
-0.825155, 97, 33, 352, 274
-0.880804, 97, 33, 224, 274
-0.890742, 1, 97, 500, 224
-0.893871, 129, 1, 256, 274
-0.897209, 1, 33, 128, 274
-0.897229, 193, 33, 448, 274
-0.90212, 49, 1, 176, 274
-0.90857, 1, 145, 500, 272
-0.911325, 1, 81, 256, 208
-0.912468, 1, 145, 256, 272
-0.916044, 97, 113, 352, 240
-0.918282, 177, 1, 304, 274
-0.921117, 49, 33, 176, 274
-0.921656, 225, 145, 480, 272
-0.923335, 241, 1, 368, 274
-0.926331, 193, 33, 320, 274
-0.926781, 1, 1, 128, 274
-0.930749, 33, 129, 96, 256
-0.930924, 193, 113, 320, 240
-0.931112, 17, 145, 144, 272
-0.936446, 145, 33, 272, 274
-0.940808, 289, 1, 416, 274
-0.942062, 65, 97, 192, 224
-0.942618, 1, 81, 128, 208
-0.943138, 209, 129, 272, 256
-0.94382, 1, 65, 64, 192
-0.945019, 241, 113, 304, 240
-0.945541, 25, 129, 88, 192
-0.945586, 241, 33, 368, 274
-0.947333, 65, 145, 192, 272
-0.94764, 145, 129, 272, 256
-0.947799, 57, 81, 120, 208
-0.948843, 41, 89, 104, 152
-0.949525, 1, 105, 64, 168
-0.949535, 1, 145, 64, 272
-0.95016, 353, 1, 480, 274
-0.95075, 57, 129, 120, 256
-0.950802, 25, 65, 88, 192
-0.950931, 241, 113, 368, 240
-0.951234, 113, 81, 240, 208
-0.951427, 49, 113, 112, 176
-0.952117, 89, 65, 152, 192
-0.952285, 377, 145, 440, 272
-0.952404, 321, 145, 448, 272
-0.953893, 193, 97, 448, 224
-0.954584, 1, 49, 500, 176
-0.954604, 185, 145, 248, 272
-0.954812, 1, 129, 64, 192
-0.954954, 297, 145, 360, 272
-0.955045, 265, 145, 328, 272
-0.956654, 97, 65, 352, 192
-0.957137, 337, 129, 400, 256
-0.957685, 9, 81, 72, 144
-0.957932, 289, 33, 416, 274
-0.959139, 65, 89, 128, 152
-0.960009, 161, 145, 224, 272
-0.960212, 1, 33, 256, 160
-0.96035, 129, 185, 192, 248
-0.960495, 1, 169, 64, 232
-0.961075, 169, 97, 232, 224
-0.961574, 81, 193, 144, 256
-0.961581, 25, 169, 88, 232
-0.962088, 273, 161, 336, 224
-0.962232, 57, 185, 120, 248
-0.962613, 73, 113, 136, 176
-0.963142, 241, 113, 304, 176
-0.96347, 1, 209, 64, 272
-0.96441, 369, 145, 496, 272
-0.965337, 145, 65, 208, 192
-0.965521, 401, 145, 464, 272
-0.966326, 217, 129, 280, 192
-0.966407, 65, 49, 192, 176
-0.966818, 377, 153, 440, 216
-0.967198, 89, 129, 152, 256
-0.967315, 17, 89, 144, 152
-0.967378, 65, 113, 96, 176
-0.96782, 1, 113, 128, 176
-0.968086, 177, 129, 240, 192
-0.968185, 201, 193, 264, 256
-0.96819, 105, 185, 168, 248
-0.968357, 65, 137, 128, 200
-0.968488, 329, 161, 392, 224
-0.968933, 37, 113, 68, 176
-0.968936, 193, 153, 256, 216
-0.968969, 169, 105, 232, 168
-0.969396, 297, 161, 360, 224
-0.969698, 17, 105, 48, 168
-0.969757, 241, 145, 304, 208
-0.970248, 353, 161, 416, 224
-0.970857, 21, 145, 52, 208
-0.970862, 49, 193, 176, 256
-0.970949, 425, 145, 488, 272
-0.971022, 121, 65, 184, 192
-0.97191, 97, 161, 160, 224
-0.972023, 129, 145, 192, 272
-0.972201, 21, 145, 52, 272
-0.972212, 17, 33, 144, 160
-0.972229, 241, 185, 304, 248
-0.972241, 169, 161, 232, 224
-0.972295, 69, 97, 100, 224
-0.972308, 57, 89, 88, 152
-0.972352, 65, 161, 128, 224
-0.972451, 329, 137, 392, 200
-0.972869, 1, 169, 32, 232
-0.972914, 81, 81, 112, 208
-0.972955, 145, 113, 208, 176
-0.972979, 353, 33, 480, 274
-0.973244, 69, 89, 100, 152
-0.973467, 25, 201, 88, 264
-0.973505, 153, 193, 216, 256
-0.973777, 97, 105, 160, 168
-0.973798, 217, 153, 280, 216
-0.973953, 145, 153, 208, 216
-0.974084, 113, 193, 240, 256
-0.974117, 77, 113, 108, 176
-0.974456, 1, 113, 32, 176
-0.97462, 17, 145, 144, 208
-0.974669, 37, 129, 68, 256
-0.974748, 113, 73, 176, 136
-0.974821, 49, 129, 80, 192
-0.974826, 401, 153, 464, 216
-0.974894, 153, 81, 216, 144
-0.975134, 177, 193, 240, 256
-0.975242, 89, 73, 152, 136
-0.975291, 265, 137, 328, 200
-0.975333, 37, 161, 68, 224
-0.975461, 57, 113, 88, 240
-0.975727, 65, 153, 96, 216
-0.975771, 81, 73, 208, 136
-0.975786, 1, 137, 32, 200
-0.975801, 33, 137, 64, 200
-0.975939, 201, 65, 264, 192
-0.97618, 17, 81, 48, 144
-0.97637, 1, 177, 128, 240
-0.976392, 321, 97, 448, 224
-0.976439, 321, 153, 448, 216
-0.976763, 1, 81, 32, 208
-0.976818, 193, 121, 320, 184
-0.97682, 37, 81, 68, 144
-0.976881, 5, 209, 36, 272
-0.976955, 81, 129, 112, 256
-0.976979, 241, 161, 368, 224
-0.976992, 229, 129, 260, 256
-0.977047, 249, 113, 280, 240
-0.977059, 97, 89, 128, 152
-0.977119, 5, 73, 36, 136
-0.977237, 193, 65, 320, 192
-0.977379, 65, 113, 192, 176
-0.977592, 17, 177, 48, 240
-0.977718, 17, 81, 48, 208
-0.977733, 49, 33, 112, 160
-0.977909, 377, 185, 440, 248
-0.977955, 361, 97, 424, 224
-0.97809, 145, 113, 272, 176
-0.978168, 273, 185, 336, 248
-0.978185, 309, 169, 340, 232
-0.978236, 109, 193, 140, 256
-0.978356, 1, 209, 128, 272
-0.978393, 9, 145, 40, 272
-0.978397, 29, 65, 60, 192
-0.978472, 353, 137, 416, 200
-0.978728, 177, 201, 304, 264
-0.978729, 213, 129, 244, 256
-0.978905, 81, 89, 112, 152
-0.97892, 121, 193, 152, 256
-0.979085, 53, 153, 84, 216
-0.979141, 65, 153, 192, 216
-0.979217, 273, 97, 336, 224
-0.979354, 69, 145, 100, 272
-0.979419, 289, 129, 352, 192
-0.979423, 269, 113, 300, 240
-0.979506, 105, 129, 168, 192
-0.97963, 321, 185, 384, 248
-0.980088, 425, 153, 488, 216
-0.980278, 341, 161, 372, 224
-0.980533, 341, 129, 372, 256
-0.980583, 353, 185, 416, 248
-0.980592, 405, 153, 436, 216
-0.980649, 161, 161, 288, 224
-0.980649, 285, 145, 316, 272
-0.980679, 277, 153, 308, 216
-0.980802, 321, 169, 352, 232
-0.98086, 121, 161, 184, 224
-0.980884, 113, 153, 240, 216
-0.980911, 205, 153, 236, 216
-0.981128, 129, 33, 192, 274
-0.981274, 97, 33, 160, 274
-0.981294, 17, 209, 48, 272
-0.981296, 65, 177, 96, 240
-0.981332, 213, 129, 244, 192
-0.981417, 57, 33, 120, 274
-0.981466, 89, 121, 120, 184
-0.981577, 401, 177, 464, 240
-0.981582, 105, 81, 136, 208
-0.981588, 265, 113, 296, 176
-0.981759, 357, 161, 388, 224
-0.981821, 45, 185, 76, 248
-0.981883, 165, 145, 196, 272
-0.981958, 193, 145, 224, 272
-0.982016, 385, 129, 416, 256
-0.982282, 121, 209, 184, 272
-0.982291, 193, 97, 224, 224
-0.982294, 409, 145, 440, 272
-0.982312, 385, 97, 448, 224
-0.98247, 377, 161, 408, 224
-0.982645, 397, 145, 428, 272
-0.982649, 193, 105, 256, 168
-0.982741, 193, 153, 224, 216
-0.982758, 289, 177, 416, 240
-0.982896, 49, 65, 80, 192
-0.9829, 217, 97, 280, 160
-0.982938, 297, 161, 328, 224
-0.983382, 173, 193, 204, 256
-0.983595, 121, 105, 184, 168
-0.983615, 297, 185, 360, 248
-0.983669, 329, 145, 360, 272
-0.983674, 1, 33, 64, 274
-0.983766, 177, 145, 208, 208
-0.983849, 57, 209, 120, 272
-0.983859, 241, 121, 368, 184
-0.98387, 93, 81, 124, 208
-0.984035, 369, 97, 496, 224
-0.984067, 225, 121, 256, 184
-0.984089, 297, 145, 328, 272
-0.984123, 221, 161, 252, 224
-0.984127, 241, 185, 368, 248
-0.984149, 177, 145, 208, 272
-0.984166, 113, 33, 240, 160
-0.984179, 237, 177, 268, 240
-0.984215, 393, 161, 424, 224
-0.984321, 77, 137, 108, 200
-0.984529, 369, 169, 496, 232
-0.984562, 189, 113, 220, 176
-0.984579, 105, 169, 136, 232
-0.984674, 377, 129, 440, 192
-0.984674, 177, 169, 208, 232
-0.984675, 1, 65, 128, 128
-0.984871, 225, 209, 288, 272
-0.984927, 133, 185, 164, 248
-0.984936, 257, 65, 384, 192
-0.985277, 109, 73, 140, 136
-0.985288, 421, 145, 452, 272
-0.985333, 309, 145, 340, 272
-0.985352, 193, 177, 224, 240
-0.985397, 281, 129, 312, 192
-0.985398, 57, 65, 120, 128
-0.985534, 97, 193, 128, 256
-0.985544, 425, 177, 488, 240
-0.985545, 357, 145, 388, 272
-0.985554, 25, 33, 88, 274
-0.985656, 201, 129, 232, 192
-0.985799, 417, 153, 448, 216
-0.986095, 141, 65, 172, 192
-0.986108, 117, 169, 148, 232
-0.986206, 209, 193, 240, 256
-0.986319, 265, 113, 328, 176
-0.986325, 241, 65, 304, 192
-0.986353, 33, 65, 96, 128
-0.986355, 297, 97, 360, 224
-0.986523, 177, 81, 240, 144
-0.986587, 169, 33, 232, 274
-0.986625, 157, 65, 188, 192
-0.986629, 369, 145, 496, 208
-0.986783, 265, 153, 296, 216
-0.986817, 165, 129, 196, 192
-0.986835, 253, 177, 284, 240
-0.98708, 81, 161, 112, 224
-0.987107, 369, 145, 400, 272
-0.987155, 289, 129, 416, 192
-0.987167, 93, 145, 124, 272
-0.987183, 33, 209, 64, 272
-0.987209, 25, 17, 88, 144
-0.987281, 181, 97, 212, 224
-0.987306, 93, 169, 124, 232
-0.987387, 145, 89, 272, 152
-0.987406, 433, 145, 464, 272
-0.98746, 461, 153, 492, 216
-0.987618, 85, 201, 116, 264
-0.987642, 277, 185, 308, 248
-0.98765, 65, 201, 96, 264
-0.987695, 201, 105, 232, 168
-0.987712, 341, 137, 372, 200
-0.987759, 169, 65, 200, 192
-0.987762, 149, 185, 180, 248
-0.987944, 181, 81, 212, 144
-0.987992, 221, 185, 252, 248
-0.988008, 461, 145, 492, 272
-0.988016, 81, 213, 144, 244
-0.988039, 253, 113, 284, 176
-0.988042, 121, 81, 152, 208
-0.988053, 17, 221, 80, 252
-0.988067, 153, 145, 184, 272
-0.988203, 193, 97, 320, 160
-0.988279, 361, 137, 392, 200
-0.988307, 41, 229, 104, 260
-0.988312, 177, 121, 208, 184
-0.988361, 65, 225, 128, 256
-0.98839, 353, 185, 384, 248
-0.988397, 449, 145, 480, 272
-0.988408, 49, 121, 112, 152
-0.988426, 41, 217, 104, 248
-0.988439, 113, 105, 144, 168
-0.98844, 389, 185, 420, 248
-0.988487, 161, 185, 192, 248
-0.988534, 121, 209, 184, 240
-0.988575, 1, 233, 64, 264
-0.988792, 429, 169, 460, 232
-0.988806, 29, 185, 60, 248
-0.988815, 33, 137, 96, 168
-0.988845, 89, 229, 152, 260
-0.988864, 113, 225, 176, 256
-0.988891, 193, 209, 224, 272
-0.988901, 121, 1, 184, 274
-0.988944, 157, 153, 188, 216
-0.988964, 377, 185, 408, 248
-0.988984, 141, 73, 172, 136
-0.988992, 233, 153, 264, 216
-0.988997, 101, 129, 132, 192
-0.989017, 377, 137, 408, 200
-0.989033, 321, 145, 352, 208
-0.989042, 253, 145, 284, 208
-0.989172, 1, 1, 500, 128
-0.989257, 9, 113, 72, 144
-0.989278, 25, 241, 88, 272
-0.989327, 89, 201, 152, 232
-0.989328, 121, 197, 184, 228
-0.989484, 177, 193, 240, 224
-0.989485, 9, 129, 72, 160
-0.989486, 365, 185, 396, 248
-0.989497, 9, 161, 72, 192
-0.989574, 53, 209, 84, 272
-0.989603, 17, 205, 80, 236
-0.98963, 145, 209, 208, 240
-0.98963, 1, 141, 64, 172
-0.98977, 233, 81, 264, 208
-0.989847, 89, 17, 152, 144
-0.989859, 65, 237, 128, 268
-0.989865, 49, 197, 112, 228
-0.989882, 233, 201, 264, 264
-0.989984, 49, 149, 112, 180
-0.990085, 125, 73, 156, 136
-0.990099, 425, 177, 488, 208
-0.990125, 169, 157, 232, 188
-0.990141, 1, 89, 256, 152
-0.990205, 65, 137, 128, 168
-0.990228, 25, 185, 88, 216
-0.99028, 1, 185, 64, 216
-0.990307, 441, 169, 472, 232
-0.990317, 145, 221, 208, 252
-0.990322, 153, 1, 216, 274
-0.990359, 153, 145, 216, 176
-0.990378, 401, 177, 464, 208
-0.990385, 89, 129, 152, 160
-0.990406, 65, 49, 96, 176
-0.990448, 401, 185, 432, 248
-0.990465, 1, 57, 64, 120
-0.990497, 213, 81, 244, 208
-0.990506, 193, 133, 256, 164
-0.990528, 57, 185, 120, 216
-0.990561, 417, 97, 480, 224
-0.990569, 49, 93, 112, 124
-0.990577, 1, 193, 256, 256
-0.990584, 153, 189, 216, 220
-0.990595, 25, 149, 88, 180
-0.990621, 97, 1, 160, 274
-0.990659, 141, 145, 172, 272
-0.990708, 209, 189, 272, 220
-0.99071, 185, 205, 248, 236
-0.990721, 33, 121, 288, 184
-0.99074, 177, 145, 240, 176
-0.990763, 265, 169, 328, 200
-0.990777, 49, 109, 112, 140
-0.990795, 33, 165, 96, 196
-0.990799, 137, 121, 200, 152
-0.990817, 249, 153, 312, 184
-0.990828, 217, 137, 280, 168
-0.990846, 241, 121, 304, 152
-0.990848, 177, 181, 240, 212
-0.990852, 177, 121, 240, 152
-0.990853, 105, 113, 168, 144
-0.990887, 105, 73, 168, 104
-0.990891, 333, 185, 364, 248
-0.990934, 169, 49, 232, 176
-0.990992, 141, 121, 172, 184
-0.990996, 289, 173, 352, 204
-0.990997, 113, 17, 176, 144
-0.991007, 217, 177, 280, 208
-0.991044, 241, 33, 304, 274
-0.991065, 329, 173, 392, 204
-0.991074, 73, 97, 136, 128
-0.99108, 369, 173, 432, 204
-0.991108, 25, 89, 88, 120
-0.991113, 201, 149, 264, 180
-0.991114, 133, 209, 164, 272
-0.99113, 33, 145, 288, 208
-0.991131, 161, 81, 192, 144
-0.991142, 329, 149, 392, 180
-0.991143, 89, 157, 152, 188
-0.991151, 265, 189, 328, 220
-0.99116, 413, 177, 444, 240
-0.99117, 225, 153, 480, 216
-0.991181, 241, 185, 304, 216
-0.991241, 289, 185, 320, 248
-0.991241, 201, 121, 264, 152
-0.991243, 73, 117, 136, 148
-0.99126, 225, 209, 352, 272
-0.991262, 241, 169, 304, 200
-0.991276, 33, 217, 160, 248
-0.991285, 161, 109, 224, 140
-0.991307, 9, 17, 40, 144
-0.991326, 209, 161, 272, 192
-0.991397, 129, 137, 192, 168
-0.991409, 345, 137, 408, 168
-0.991429, 201, 33, 264, 274
-0.991431, 65, 169, 128, 200
-0.99146, 145, 169, 208, 200
-0.991566, 345, 185, 408, 216
-0.991568, 313, 189, 376, 220
-0.991583, 169, 217, 232, 248
-0.991585, 137, 57, 200, 120
-0.991592, 97, 189, 160, 220
-0.9916, 401, 165, 464, 196
-0.991603, 369, 153, 432, 184
-0.991618, 369, 185, 432, 216
-0.991638, 237, 121, 268, 184
-0.991642, 113, 237, 176, 268
-0.991644, 217, 109, 280, 140
-0.991661, 365, 97, 396, 224
-0.991671, 345, 113, 408, 176
-0.991682, 169, 133, 232, 164
-0.991684, 1, 81, 64, 112
-0.991706, 185, 169, 248, 200
-0.991729, 137, 161, 168, 224
-0.991738, 289, 185, 352, 216
-0.991808, 249, 133, 312, 164
-0.991822, 273, 157, 336, 188
-0.991857, 9, 173, 72, 204
-0.991916, 89, 241, 152, 272
-0.991936, 145, 157, 208, 188
-0.991952, 129, 121, 384, 184
-0.991953, 209, 201, 272, 232
-0.991954, 9, 101, 72, 132
-0.991973, 193, 1, 256, 274
-0.991978, 249, 209, 312, 272
-0.991982, 105, 177, 168, 208
-0.992024, 193, 49, 448, 176
-0.992033, 137, 233, 200, 264
-0.992042, 193, 109, 256, 140
-0.99205, 21, 229, 52, 260
-0.992056, 57, 1, 120, 274
-0.992067, 265, 177, 296, 240
-0.992068, 129, 185, 192, 216
-0.992108, 85, 221, 116, 252
-0.992109, 53, 225, 84, 256
-0.992112, 97, 177, 352, 240
-0.992117, 157, 105, 188, 168
-0.992135, 33, 229, 160, 260
-0.99214, 5, 233, 36, 264
-0.992151, 81, 81, 144, 112
-0.992159, 161, 97, 224, 128
-0.992161, 33, 229, 64, 260
-0.992163, 225, 149, 288, 180
-0.992183, 273, 201, 336, 232
-0.99224, 113, 221, 144, 252
-0.992265, 113, 157, 176, 188
-0.99228, 113, 125, 176, 156
-0.992285, 369, 137, 432, 168
-0.992286, 129, 73, 192, 104
-0.992305, 69, 233, 100, 264
-0.992312, 41, 217, 72, 248
-0.992329, 101, 217, 132, 248
-0.992369, 393, 137, 424, 200
-0.992369, 193, 217, 256, 248
-0.99238, 1, 221, 32, 252
-0.992384, 73, 221, 104, 252
-0.992385, 97, 229, 128, 260
-0.992401, 125, 213, 156, 244
-0.992419, 329, 161, 392, 192
-0.992428, 137, 213, 168, 244
-0.99243, 137, 225, 168, 256
-0.992431, 105, 201, 136, 232
-0.992433, 1, 117, 128, 148
-0.992433, 425, 165, 488, 196
-0.992434, 57, 77, 120, 108
-0.992434, 1, 137, 32, 168
-0.992439, 233, 201, 296, 232
-0.992441, 289, 145, 352, 176
-0.992441, 37, 113, 68, 144
-0.992442, 25, 241, 56, 272
-0.992451, 29, 217, 60, 248
-0.992454, 281, 97, 312, 224
-0.992456, 137, 197, 168, 228
-0.992486, 153, 85, 216, 116
-0.992502, 37, 241, 68, 272
-0.992503, 205, 149, 236, 180
-0.992505, 273, 129, 336, 160
-0.992507, 65, 117, 96, 148
-0.992511, 125, 201, 156, 232
-0.992517, 57, 149, 88, 180
-0.992521, 37, 149, 68, 180
-0.992523, 13, 129, 44, 160
-0.992525, 137, 109, 200, 140
-0.992536, 85, 233, 116, 264
-0.992536, 217, 213, 280, 244
-0.992543, 61, 185, 92, 216
-0.992544, 81, 229, 208, 260
-0.992545, 321, 137, 384, 168
-0.992553, 41, 205, 72, 236
-0.992554, 153, 209, 184, 240
-0.992554, 233, 1, 296, 274
-0.992557, 37, 133, 68, 164
-0.992564, 65, 133, 96, 164
-0.992564, 69, 201, 100, 232
-0.992567, 93, 201, 124, 232
-0.992577, 53, 205, 84, 236
-0.992581, 1, 125, 32, 156
-0.992581, 5, 161, 36, 192
-0.992584, 21, 161, 52, 192
-0.992599, 21, 141, 52, 172
-0.992608, 125, 225, 156, 256
-0.992613, 45, 185, 76, 216
-0.992624, 49, 237, 80, 268
-0.992654, 21, 205, 52, 236
-0.992661, 205, 177, 236, 208
-0.992682, 165, 189, 196, 220
-0.992682, 305, 161, 368, 192
-0.992685, 1, 149, 32, 180
-0.992691, 57, 173, 88, 204
-0.992691, 9, 109, 40, 140
-0.992693, 201, 189, 232, 220
-0.9927, 253, 173, 284, 204
-0.992712, 425, 189, 488, 220
-0.992714, 181, 209, 212, 240
-0.992717, 393, 153, 456, 184
-0.992733, 105, 145, 168, 176
-0.992735, 273, 153, 304, 184
-0.992736, 185, 241, 248, 272
-0.992737, 13, 217, 44, 248
-0.992744, 49, 125, 80, 156
-0.992751, 81, 197, 112, 228
-0.992754, 25, 113, 56, 144
-0.992755, 165, 209, 196, 240
-0.99276, 81, 121, 112, 152
-0.992762, 33, 185, 64, 216
-0.992763, 97, 209, 352, 272
-0.992764, 85, 33, 116, 160
-0.992764, 33, 1, 96, 274
-0.992767, 13, 181, 44, 212
-0.992773, 89, 133, 120, 164
-0.992776, 257, 97, 384, 160
-0.992796, 97, 97, 128, 128
-0.992802, 165, 221, 196, 252
-0.992806, 1, 241, 128, 272
-0.992809, 189, 189, 220, 220
-0.992811, 189, 173, 220, 204
-0.992813, 201, 161, 232, 192
-0.992832, 441, 173, 472, 204
-0.992839, 45, 161, 76, 192
-0.992841, 113, 233, 144, 264
-0.992845, 177, 145, 208, 176
-0.992855, 457, 177, 488, 208
-0.992857, 149, 225, 180, 256
-0.992862, 221, 185, 252, 216
-0.992868, 49, 113, 80, 144
-0.992868, 81, 209, 208, 240
-0.992871, 401, 189, 464, 220
-0.992874, 77, 149, 108, 180
-0.992874, 81, 209, 112, 240
-0.992881, 77, 97, 108, 128
-0.992883, 177, 189, 208, 220
-0.992885, 193, 145, 224, 176
-0.992886, 161, 237, 224, 268
-0.992895, 429, 173, 460, 204
-0.992896, 25, 129, 56, 160
-0.9929, 149, 197, 180, 228
-0.992914, 225, 129, 480, 192
-0.992918, 9, 205, 40, 236
-0.992921, 225, 125, 256, 156
-0.992926, 253, 161, 284, 192
-0.992929, 109, 77, 140, 108
-0.992934, 269, 137, 300, 168
-0.992939, 205, 133, 236, 164
-0.99294, 205, 205, 236, 236
-0.992949, 1, 181, 32, 212
-0.992958, 137, 69, 168, 100
-0.992968, 213, 165, 244, 196
-0.992969, 1, 193, 32, 224
-0.992977, 205, 113, 236, 144
-0.992979, 81, 109, 112, 140
-0.99298, 73, 185, 104, 216
-0.992986, 33, 165, 64, 196
-0.99299, 93, 121, 124, 152
-0.993003, 389, 177, 420, 208
-0.993005, 53, 137, 84, 168
-0.993007, 285, 169, 316, 200
-0.993008, 221, 137, 252, 168
-0.993009, 101, 109, 132, 140
-0.993012, 373, 173, 404, 204
-0.993018, 105, 101, 168, 132
-0.99302, 413, 177, 444, 208
-0.993025, 125, 189, 156, 220
-0.993026, 241, 181, 272, 212
-0.993036, 221, 153, 252, 184
-0.993037, 189, 157, 220, 188
-0.993043, 353, 173, 384, 204
-0.993043, 281, 129, 312, 160
-0.99305, 149, 121, 180, 152
-0.993059, 401, 177, 432, 208
-0.993061, 321, 193, 352, 256
-0.993068, 241, 213, 304, 244
-0.993068, 297, 201, 360, 232
-0.99307, 373, 185, 404, 216
-0.993072, 101, 133, 132, 164
-0.993072, 161, 149, 192, 180
-0.993073, 341, 153, 372, 184
-0.993079, 265, 173, 296, 204
-0.993083, 65, 93, 96, 124
-0.993084, 193, 129, 224, 160
-0.993092, 1, 169, 256, 232
-0.993095, 101, 161, 132, 192
-0.9931, 285, 189, 316, 220
-0.99311, 77, 169, 108, 200
-0.993116, 161, 237, 192, 268
-0.99312, 201, 97, 264, 128
-0.993129, 253, 129, 284, 160
-0.993133, 333, 189, 364, 220
-0.993135, 97, 241, 128, 272
-0.993138, 17, 81, 48, 112
-0.993152, 297, 133, 360, 164
-0.993154, 249, 109, 312, 140
-0.9932, 1, 69, 64, 100
-0.993247, 1, 153, 500, 216
-0.993292, 425, 153, 488, 184
-0.993295, 1, 17, 64, 144
-0.993316, 337, 81, 400, 208
-0.993337, 33, 197, 160, 228
-0.993349, 289, 105, 352, 168
-0.993365, 11, 169, 26, 232
-0.993412, 289, 209, 352, 272
-0.993419, 37, 105, 52, 168
-0.993475, 337, 193, 464, 256
-0.993584, 69, 113, 84, 176
-0.993633, 25, 113, 40, 176
-0.993635, 129, 153, 384, 216
-0.993689, 47, 121, 62, 184
-0.99369, 113, 193, 240, 224
-0.993707, 37, 129, 52, 192
-0.993723, 31, 105, 46, 168
-0.993731, 293, 137, 324, 200
-0.993758, 83, 89, 98, 152
-0.993783, 97, 65, 128, 128
-0.993812, 429, 145, 460, 208
-0.993819, 29, 153, 44, 216
-0.993821, 93, 97, 108, 160
-0.993848, 113, 49, 176, 112
-0.993905, 105, 145, 136, 272
-0.993922, 59, 113, 74, 176
-0.993928, 63, 89, 78, 152
-0.99393, 113, 129, 144, 192
-0.993965, 81, 113, 96, 176
-0.993984, 85, 65, 116, 128
-0.993993, 129, 209, 256, 240
-0.994049, 19, 153, 34, 216
-0.994106, 17, 105, 32, 168
-0.99421, 453, 177, 484, 240
-0.994277, 241, 89, 304, 152
-0.994288, 73, 89, 88, 152
-0.99429, 49, 49, 176, 112
-0.994337, 257, 177, 500, 240
-0.994362, 11, 113, 26, 176
-0.994454, 409, 97, 440, 224
-0.994461, 1, 129, 128, 160
-0.99448, 65, 241, 192, 272
-0.994483, 19, 73, 34, 136
-0.994495, 19, 129, 34, 192
-0.9945, 129, 221, 256, 252
-0.994505, 29, 81, 44, 144
-0.994507, 5, 169, 20, 232
-0.994589, 213, 105, 244, 168
-0.994597, 337, 121, 464, 184
-0.994623, 3, 73, 18, 136
-0.994625, 5, 105, 20, 168
-0.994649, 7, 193, 22, 256
-0.994657, 57, 89, 72, 152
-0.994667, 1, 209, 16, 272
-0.994682, 127, 193, 142, 256
-0.994689, 245, 201, 276, 264
-0.994747, 43, 81, 58, 144
-0.994749, 345, 1, 408, 274
-0.994754, 1, 113, 500, 176
-0.99476, 19, 177, 34, 240
-0.994784, 113, 33, 144, 160
-0.994785, 65, 129, 192, 160
-0.994799, 1, 89, 128, 120
-0.994816, 87, 113, 102, 176
-0.994834, 25, 177, 40, 240
-0.994834, 1, 185, 500, 248
-0.99484, 31, 129, 46, 192
-0.994871, 125, 105, 156, 168
-0.994887, 1, 1, 64, 274
-0.994893, 13, 73, 28, 136
-0.99492, 281, 33, 344, 274
-0.994921, 297, 1, 360, 274
-0.994926, 297, 97, 328, 224
-0.994931, 51, 81, 66, 144
-0.994954, 97, 49, 224, 112
-0.994958, 1, 161, 128, 192
-0.99496, 217, 129, 232, 192
-0.994968, 31, 177, 46, 240
-0.99497, 129, 33, 160, 160
-0.994973, 75, 113, 90, 176
-0.994977, 241, 97, 272, 160
-0.994987, 59, 137, 74, 200
-0.995016, 1, 185, 128, 216
-0.995032, 51, 161, 66, 224
-0.99505, 285, 153, 300, 216
-0.995078, 139, 185, 154, 248
-0.995085, 67, 161, 82, 224
-0.995102, 177, 189, 304, 220
-0.995104, 81, 109, 208, 140
-0.995112, 321, 173, 448, 204
-0.995113, 1, 141, 128, 172
-0.995121, 277, 105, 308, 168
-0.995145, 41, 153, 56, 216
-0.995177, 13, 209, 28, 272
-0.995189, 133, 193, 148, 256
-0.995197, 53, 121, 68, 184
-0.9952, 49, 65, 80, 128
-0.995204, 65, 65, 96, 128
-0.995226, 273, 1, 336, 274
-0.995226, 21, 17, 52, 144
-0.995254, 227, 129, 242, 192
-0.995267, 121, 193, 136, 256
-0.995269, 97, 33, 128, 160
-0.995281, 13, 137, 28, 200
-0.995291, 35, 81, 50, 144
-0.995304, 345, 161, 360, 224
-0.995304, 337, 33, 400, 274
-0.995312, 273, 173, 400, 204
-0.995334, 381, 161, 396, 224
-0.995343, 19, 209, 34, 272
-0.995414, 395, 161, 410, 224
-0.995433, 145, 129, 272, 160
-0.995438, 145, 117, 272, 148
-0.99547, 319, 169, 334, 232
-0.99547, 81, 81, 208, 112
-0.995474, 193, 141, 320, 172
-0.995499, 75, 153, 90, 216
-0.99551, 335, 169, 350, 232
-0.995533, 65, 145, 192, 176
-0.995558, 273, 141, 400, 172
-0.995584, 111, 73, 126, 136
-0.995604, 103, 89, 118, 152
-0.995613, 465, 177, 496, 240
-0.995614, 275, 113, 290, 176
-0.995615, 285, 121, 300, 184
-0.995641, 25, 201, 40, 264
-0.995648, 113, 193, 128, 256
-0.995667, 35, 153, 50, 216
-0.995689, 107, 169, 122, 232
-0.995694, 193, 125, 320, 156
-0.995731, 49, 177, 176, 208
-0.995732, 145, 17, 208, 144
-0.995739, 313, 161, 328, 224
-0.995745, 261, 65, 292, 192
-0.995769, 107, 193, 122, 256
-0.995773, 397, 97, 428, 224
-0.995775, 129, 145, 160, 272
-0.995788, 423, 153, 438, 216
-0.99582, 209, 173, 336, 204
-0.995822, 59, 185, 74, 248
-0.995823, 407, 145, 422, 208
-0.99583, 211, 153, 226, 216
-0.995842, 359, 161, 374, 224
-0.995848, 369, 177, 496, 208
-0.995866, 145, 57, 272, 120
-0.995867, 291, 153, 306, 216
-0.995874, 1, 145, 16, 208
-0.995877, 307, 169, 322, 232
-0.995878, 177, 205, 304, 236
-0.995881, 227, 153, 242, 216
-0.995911, 219, 153, 234, 216
-0.995924, 1, 105, 128, 136
-0.995943, 129, 129, 160, 192
-0.995988, 291, 121, 306, 184
-0.995992, 161, 153, 288, 184
-0.996002, 409, 129, 472, 192
-0.99601, 177, 17, 304, 144
-0.996023, 289, 201, 416, 264
-0.996024, 81, 145, 96, 208
-0.996032, 353, 161, 368, 224
-0.996036, 97, 97, 352, 160
-0.99604, 129, 177, 256, 208
-0.996045, 145, 185, 160, 248
-0.996051, 371, 161, 386, 224
-0.996063, 1, 41, 128, 104
-0.996073, 183, 129, 198, 192
-0.996105, 97, 161, 224, 192
-0.996107, 67, 193, 82, 256
-0.996116, 445, 145, 476, 208
-0.996132, 179, 185, 194, 248
-0.996156, 113, 169, 128, 232
-0.996173, 267, 129, 282, 192
-0.996173, 401, 1, 464, 274
-0.996205, 49, 97, 176, 128
-0.996206, 35, 209, 50, 272
-0.996211, 305, 185, 432, 216
-0.99622, 113, 105, 128, 168
-0.996229, 253, 177, 268, 240
-0.99623, 387, 161, 402, 224
-0.996233, 325, 169, 340, 232
-0.996235, 273, 153, 400, 184
-0.996249, 67, 137, 82, 200
-0.996251, 195, 193, 210, 256
-0.996262, 129, 169, 144, 232
-0.99628, 401, 161, 416, 224
-0.996293, 161, 153, 176, 216
-0.996293, 99, 169, 114, 232
-0.996331, 413, 145, 428, 208
-0.996334, 241, 193, 368, 224
-0.996334, 145, 141, 272, 172
-0.996335, 321, 97, 352, 224
-0.996356, 235, 121, 250, 184
-0.996364, 99, 121, 114, 184
-0.996385, 301, 169, 316, 232
-0.996398, 155, 153, 170, 216
-0.996406, 73, 193, 88, 256
-0.996449, 113, 241, 240, 272
-0.99645, 179, 153, 194, 216
-0.996451, 59, 161, 74, 224
-0.996451, 265, 89, 328, 152
-0.996453, 277, 153, 292, 216
-0.996464, 365, 161, 380, 224
-0.996513, 193, 153, 208, 216
-0.996536, 119, 169, 134, 232
-0.996547, 321, 153, 448, 184
-0.996552, 97, 93, 224, 124
-0.996553, 157, 113, 172, 176
-0.99656, 45, 177, 60, 240
-0.996593, 149, 153, 164, 216
-0.996612, 105, 129, 120, 192
-0.996615, 239, 177, 254, 240
-0.99663, 173, 185, 188, 248
-0.996657, 117, 73, 132, 136
-0.996657, 7, 145, 22, 208
-0.996682, 87, 137, 102, 200
-0.996687, 429, 169, 444, 232
-0.996692, 101, 193, 116, 256
-0.996695, 271, 169, 286, 232
-0.996695, 247, 185, 262, 248
-0.996699, 193, 113, 320, 144
-0.996705, 89, 73, 104, 136
-0.996715, 379, 137, 394, 200
-0.99672, 23, 229, 38, 260
-0.996725, 413, 169, 428, 232
-0.996732, 189, 185, 204, 248
-0.996735, 93, 121, 108, 184
-0.996744, 97, 221, 112, 252
-0.996759, 261, 185, 276, 248
-0.996767, 465, 153, 480, 216
-0.996773, 193, 201, 448, 264
-0.996784, 15, 241, 30, 272
-0.996812, 43, 225, 58, 256
-0.996875, 9, 233, 24, 264
-0.996897, 7, 221, 22, 252
-0.996903, 73, 221, 88, 252
-0.996915, 321, 141, 448, 172
-0.99692, 225, 205, 352, 236
-0.996939, 33, 229, 48, 260
-0.996941, 65, 221, 80, 252
-0.996942, 209, 161, 336, 192
-0.996949, 61, 233, 76, 264
-0.996956, 45, 237, 60, 268
-0.996966, 53, 225, 68, 256
-0.996972, 75, 233, 90, 264
-0.996982, 79, 221, 94, 252
-0.996983, 33, 65, 288, 128
-0.996985, 105, 225, 120, 256
-0.996997, 15, 229, 30, 260
-0.997002, 91, 221, 106, 252
-0.997026, 1, 173, 128, 204
-0.997053, 177, 217, 304, 248
-0.997057, 129, 213, 144, 244
-0.997066, 69, 233, 84, 264
-0.99709, 225, 97, 256, 160
-0.997093, 97, 1, 352, 128
-0.997106, 1, 233, 16, 264
-0.997147, 113, 217, 128, 248
-0.997171, 145, 193, 160, 224
-0.997176, 369, 1, 432, 274
-0.997198, 59, 117, 74, 148
-0.997222, 81, 233, 96, 264
-0.997223, 321, 1, 384, 274
-0.997224, 225, 105, 480, 168
-0.997254, 23, 241, 38, 272
-0.997261, 85, 213, 100, 244
-0.997262, 213, 189, 228, 220
-0.997267, 51, 113, 66, 144
-0.997273, 39, 237, 54, 268
-0.997274, 177, 101, 304, 132
-0.997283, 161, 165, 288, 196
-0.997285, 1, 221, 16, 252
-0.997292, 135, 213, 150, 244
-0.997297, 157, 17, 188, 144
-0.997316, 69, 117, 84, 148
-0.997322, 107, 213, 122, 244
-0.997323, 123, 225, 138, 256
-0.997326, 369, 157, 496, 188
-0.997357, 59, 221, 74, 252
-0.997374, 129, 225, 144, 256
-0.997374, 151, 213, 166, 244
-0.997386, 465, 97, 496, 224
-0.997391, 201, 73, 264, 136
-0.997401, 249, 65, 280, 192
-0.99741, 97, 201, 112, 232
-0.99741, 49, 157, 176, 188
-0.997413, 13, 125, 28, 156
-0.997413, 5, 137, 20, 168
-0.997419, 43, 129, 58, 160
-0.997424, 37, 217, 52, 248
-0.997431, 47, 205, 62, 236
-0.99744, 97, 121, 112, 152
-0.997443, 139, 197, 154, 228
-0.997456, 141, 213, 156, 244
-0.997461, 141, 33, 172, 274
-0.997461, 123, 213, 138, 244
-0.997462, 59, 129, 74, 160
-0.997462, 117, 201, 132, 232
-0.997464, 55, 205, 70, 236
-0.997465, 105, 201, 120, 232
-0.997465, 17, 65, 144, 96
-0.997468, 51, 237, 66, 268
-0.997478, 29, 241, 44, 272
-0.997493, 33, 141, 48, 172
-0.997504, 309, 145, 340, 208
-0.997504, 33, 77, 160, 108
-0.997505, 97, 233, 112, 264
-0.997515, 131, 201, 146, 232
-0.997533, 273, 129, 400, 160
-0.997577, 205, 177, 220, 208
-0.997582, 3, 125, 18, 156
-0.997585, 135, 229, 150, 260
-0.997588, 33, 129, 48, 160
-0.997589, 129, 105, 256, 136
-0.997589, 13, 33, 44, 274
-0.997592, 91, 201, 106, 232
-0.997594, 41, 205, 56, 236
-0.997609, 157, 217, 172, 248
-0.997615, 15, 161, 30, 192
-0.997623, 123, 197, 138, 228
-0.997625, 49, 149, 64, 180
-0.997628, 353, 189, 480, 220
-0.99764, 19, 129, 34, 160
-0.997641, 81, 49, 144, 112
-0.997644, 87, 233, 102, 264
-0.997654, 159, 197, 174, 228
-0.997662, 21, 57, 52, 120
-0.997664, 145, 97, 176, 160
-0.997683, 75, 185, 90, 216
-0.997693, 61, 205, 76, 236
-0.997703, 43, 113, 58, 144
-0.997725, 21, 109, 36, 140
-0.997726, 27, 181, 42, 212
-0.997727, 215, 157, 230, 188
-0.997728, 105, 125, 120, 156
-0.997728, 217, 173, 232, 204
-0.997728, 107, 237, 122, 268
-0.997732, 39, 153, 54, 184
-0.99774, 453, 173, 468, 204
-0.997743, 143, 225, 158, 256
-0.997743, 117, 229, 132, 260
-0.997746, 443, 177, 458, 208
-0.997747, 163, 217, 178, 248
-0.997749, 79, 149, 94, 180
-0.99775, 27, 217, 42, 248
-0.997751, 111, 201, 126, 232
-0.997754, 9, 165, 24, 196
-0.997755, 83, 201, 98, 232
-0.997757, 121, 33, 152, 274
-0.997768, 65, 181, 80, 212
-0.997771, 257, 173, 272, 204
-0.997787, 101, 33, 132, 274
-0.997796, 1, 209, 500, 272
-0.9978, 55, 185, 70, 216
-0.997807, 49, 185, 64, 216
-0.997808, 151, 225, 166, 256
-0.997809, 43, 165, 58, 196
-0.997822, 1, 105, 16, 136
-0.997827, 179, 209, 194, 240
-0.997834, 35, 205, 50, 236
-0.997834, 37, 113, 52, 144
-0.997845, 89, 97, 104, 128
-0.997848, 205, 149, 220, 180
-0.997856, 193, 189, 208, 220
-0.997857, 25, 129, 40, 160
-0.99786, 219, 189, 234, 220
-0.997862, 151, 193, 166, 224
-0.997864, 1, 161, 16, 192
-0.997869, 21, 217, 36, 248
-0.997876, 33, 161, 48, 192
-0.997876, 15, 149, 30, 180
-0.997877, 13, 217, 28, 248
-0.997884, 1, 81, 500, 144
-0.997887, 75, 117, 90, 148
-0.99789, 215, 145, 230, 176
-0.997892, 27, 109, 42, 140
-0.997893, 101, 165, 116, 196
-0.997894, 67, 141, 82, 172
-0.997899, 167, 141, 182, 172
-0.997904, 285, 137, 300, 168
-0.99791, 75, 201, 90, 232
-0.99791, 187, 189, 202, 220
-0.997912, 169, 209, 184, 240
-0.997912, 461, 173, 476, 204
-0.997913, 225, 153, 240, 184
-0.997925, 433, 173, 448, 204
-0.997927, 91, 137, 106, 168
-0.997928, 89, 117, 104, 148
-0.997929, 211, 177, 226, 208
-0.997929, 61, 145, 76, 176
-0.997934, 13, 109, 28, 140
-0.997949, 113, 77, 128, 108
-0.99796, 231, 189, 246, 220
-0.998006, 193, 65, 320, 128
-0.998011, 97, 69, 224, 100
-0.998035, 77, 33, 108, 274
-0.99808, 1, 33, 32, 274
-0.998087, 421, 97, 452, 224
-0.998087, 161, 237, 288, 268
-0.998141, 241, 117, 368, 148
-0.998388, 181, 49, 212, 176
-0.998395, 213, 207, 244, 222
-0.998395, 341, 139, 372, 154
-0.998396, 1, 145, 32, 160
-0.998398, 249, 185, 280, 200
-0.998399, 49, 135, 80, 150
-0.998399, 213, 167, 244, 182
-0.9984, 109, 157, 140, 172
-0.998401, 85, 137, 116, 152
-0.998404, 205, 143, 236, 158
-0.998404, 53, 181, 84, 196
-0.998404, 189, 117, 220, 132
-0.998407, 117, 213, 148, 228
-0.998407, 153, 231, 184, 246
-0.998407, 109, 79, 140, 94
-0.998408, 49, 117, 80, 132
-0.998409, 21, 177, 52, 192
-0.998409, 41, 231, 72, 246
-0.99841, 177, 125, 208, 140
-0.99841, 273, 157, 304, 172
-0.99841, 189, 183, 220, 198
-0.99841, 281, 145, 312, 160
-0.998411, 37, 117, 68, 132
-0.998412, 269, 143, 300, 158
-0.998412, 177, 145, 208, 160
-0.998412, 177, 157, 208, 172
-0.998414, 21, 135, 52, 150
-0.998414, 221, 153, 252, 168
-0.998414, 169, 221, 200, 236
-0.998414, 137, 73, 168, 88
-0.998414, 73, 153, 104, 168
-0.998416, 61, 245, 92, 260
-0.998416, 221, 133, 252, 148
-0.998416, 185, 207, 216, 222
-0.998417, 21, 157, 52, 172
-0.998419, 37, 163, 68, 178
-0.998421, 117, 235, 148, 250
-0.998421, 125, 221, 156, 236
-0.998424, 197, 219, 228, 234
-0.998424, 185, 219, 216, 234
-0.998425, 213, 177, 244, 192
-0.998426, 137, 195, 168, 210
-0.998426, 33, 249, 64, 264
-0.998427, 65, 147, 96, 162
-0.998429, 37, 147, 68, 162
-0.998429, 89, 125, 120, 140
-0.998429, 29, 231, 60, 246
-0.99843, 249, 207, 280, 222
-0.998432, 193, 157, 224, 172
-0.998432, 101, 131, 132, 146
-0.998433, 193, 163, 224, 178
-0.998433, 269, 149, 300, 164
-0.998434, 9, 235, 40, 250
-0.998434, 77, 115, 108, 130
-0.998436, 233, 185, 264, 200
-0.998438, 93, 253, 124, 268
-0.998438, 157, 217, 188, 232
-0.998438, 45, 189, 76, 204
-0.998439, 181, 191, 212, 206
-0.99844, 133, 235, 164, 250
-0.998443, 257, 135, 288, 150
-0.998444, 213, 187, 244, 202
-0.998444, 121, 247, 152, 262
-0.998445, 73, 227, 104, 242
-0.998445, 193, 171, 224, 186
-0.998447, 133, 213, 164, 228
-0.998447, 9, 131, 40, 146
-0.998448, 105, 215, 136, 230
-0.998448, 201, 123, 232, 138
-0.998448, 137, 219, 168, 234
-0.998449, 33, 147, 96, 162
-0.998449, 245, 133, 276, 148
-0.99845, 93, 241, 124, 256
-0.99845, 225, 127, 256, 142
-0.998451, 185, 213, 216, 228
-0.998451, 105, 223, 136, 238
-0.998453, 65, 135, 96, 150
-0.998455, 169, 209, 200, 224
-0.998457, 41, 247, 104, 262
-0.998459, 197, 211, 228, 226
-0.998459, 25, 133, 88, 148
-0.998461, 193, 189, 224, 204
-0.998464, 53, 229, 84, 244
-0.998464, 173, 215, 204, 230
-0.998465, 41, 237, 104, 252
-0.998465, 93, 217, 124, 232
-0.998466, 185, 153, 248, 168
-0.998466, 17, 253, 48, 268
-0.998468, 53, 159, 84, 174
-0.998469, 149, 211, 180, 226
-0.99847, 213, 125, 244, 140
-0.998471, 225, 211, 256, 226
-0.998473, 209, 151, 240, 166
-0.998474, 193, 33, 224, 274
-0.998476, 65, 123, 128, 138
-0.998477, 1, 175, 32, 190
-0.998477, 33, 185, 64, 200
-0.998478, 17, 163, 48, 178
-0.998479, 41, 33, 72, 274
-0.99848, 37, 133, 68, 148
-0.998481, 237, 209, 268, 224
-0.998481, 93, 225, 124, 240
-0.998482, 57, 219, 120, 234
-0.998482, 161, 215, 224, 230
-0.998482, 1, 139, 32, 154
-0.998483, 1, 243, 64, 258
-0.998484, 201, 213, 264, 228
-0.998484, 49, 247, 80, 262
-0.998484, 1, 167, 32, 182
-0.998484, 53, 257, 84, 272
-0.998488, 9, 223, 72, 238
-0.998488, 201, 177, 232, 192
-0.998489, 105, 239, 136, 254
-0.998492, 205, 157, 236, 172
-0.998492, 41, 227, 104, 242
-0.998494, 53, 221, 84, 236
-0.998496, 121, 213, 184, 228
-0.998496, 1, 257, 32, 272
-0.998498, 17, 249, 80, 264
-0.998499, 193, 151, 224, 166
-0.998501, 33, 141, 96, 156
-0.998501, 81, 217, 112, 232
-0.998503, 57, 153, 88, 168
-0.998504, 253, 177, 284, 192
-0.998507, 73, 255, 104, 270
-0.998508, 73, 245, 104, 260
-0.998508, 369, 145, 496, 176
-0.998509, 209, 127, 272, 142
-0.998509, 33, 153, 96, 168
-0.998511, 57, 237, 88, 252
-0.998512, 65, 219, 96, 234
-0.998514, 65, 233, 128, 248
-0.998514, 209, 213, 240, 228
-0.998514, 5, 245, 36, 260
-0.998515, 161, 209, 224, 224
-0.998515, 157, 223, 188, 238
-0.998516, 41, 221, 72, 236
-0.998516, 113, 233, 176, 248
-0.998516, 89, 233, 120, 248
-0.998518, 65, 141, 96, 156
-0.998518, 193, 219, 256, 234
-0.99852, 9, 231, 72, 246
-0.998521, 129, 227, 160, 242
-0.998522, 49, 129, 80, 144
-0.998522, 9, 163, 72, 178
-0.998522, 29, 223, 60, 238
-0.998522, 101, 231, 132, 246
-0.998525, 9, 225, 40, 240
-0.998526, 137, 225, 200, 240
-0.998527, 121, 219, 184, 234
-0.998527, 89, 239, 152, 254
-0.998528, 89, 229, 152, 244
-0.998528, 97, 215, 160, 230
-0.998528, 65, 137, 128, 152
-0.998528, 65, 129, 128, 144
-0.998529, 177, 123, 240, 138
-0.99853, 145, 85, 272, 116
-0.998531, 249, 131, 312, 146
-0.998532, 1, 141, 64, 156
-0.998536, 69, 237, 100, 252
-0.998537, 233, 209, 296, 224
-0.998539, 65, 121, 96, 136
-0.998539, 25, 243, 56, 258
-0.998539, 145, 123, 208, 138
-0.998541, 141, 225, 172, 240
-0.998542, 37, 155, 68, 170
-0.998544, 169, 161, 232, 176
-0.998545, 97, 221, 160, 236
-0.998545, 169, 147, 232, 162
-0.998547, 49, 163, 112, 178
-0.998547, 209, 207, 272, 222
-0.998549, 113, 227, 176, 242
-0.998552, 161, 223, 224, 238
-0.998554, 33, 187, 96, 202
-0.998556, 249, 175, 312, 190
-0.998558, 209, 133, 272, 148
-0.998558, 33, 219, 96, 234
-0.998559, 161, 191, 224, 206
-0.998559, 9, 169, 72, 184
-0.998561, 65, 225, 128, 240
-0.998561, 61, 187, 92, 202
-0.998563, 185, 207, 248, 222
-0.998564, 45, 239, 76, 254
-0.998564, 117, 229, 148, 244
-0.998564, 113, 195, 176, 210
-0.998565, 21, 141, 52, 156
-0.998567, 425, 1, 488, 274
-0.998572, 89, 135, 152, 150
-0.998574, 249, 125, 312, 140
-0.998575, 1, 185, 64, 200
-0.998576, 137, 197, 200, 212
-0.998577, 65, 243, 128, 258
-0.998577, 9, 115, 72, 130
-0.998578, 193, 189, 256, 204
-0.99858, 9, 157, 72, 172
-0.998581, 73, 155, 136, 170
-0.998583, 177, 131, 240, 146
-0.998583, 17, 177, 80, 192
-0.998585, 9, 201, 72, 216
-0.998586, 1, 129, 64, 144
-0.998586, 169, 117, 232, 132
-0.998588, 233, 137, 296, 152
-0.998589, 105, 75, 168, 90
-0.998589, 1, 149, 64, 164
-0.998592, 289, 197, 416, 228
-0.998593, 41, 121, 104, 136
-0.998597, 57, 143, 120, 158
-0.998598, 65, 255, 128, 270
-0.998599, 209, 159, 272, 174
-0.9986, 97, 201, 160, 216
-0.9986, 57, 149, 120, 164
-0.998602, 409, 183, 472, 198
-0.998602, 145, 145, 208, 160
-0.998604, 33, 199, 96, 214
-0.998604, 217, 185, 280, 200
-0.998604, 249, 157, 312, 172
-0.998606, 49, 115, 112, 130
-0.998607, 329, 141, 392, 156
-0.998608, 41, 193, 104, 208
-0.998608, 113, 247, 176, 262
-0.998608, 65, 183, 128, 198
-0.998608, 161, 153, 224, 168
-0.99861, 89, 249, 152, 264
-0.99861, 209, 167, 272, 182
-0.99861, 233, 203, 296, 218
-0.998611, 41, 259, 104, 274
-0.998612, 89, 117, 152, 132
-0.998612, 201, 141, 264, 156
-0.998612, 137, 231, 200, 246
-0.998612, 249, 167, 312, 182
-0.998613, 1, 255, 64, 270
-0.998614, 9, 237, 72, 252
-0.998614, 225, 149, 288, 164
-0.998615, 89, 129, 152, 144
-0.998615, 57, 199, 120, 214
-0.998616, 25, 127, 88, 142
-0.998616, 369, 155, 432, 170
-0.998619, 185, 175, 248, 190
-0.99862, 129, 241, 192, 256
-0.99862, 225, 215, 288, 230
-0.99862, 265, 205, 328, 220
-0.998627, 129, 203, 192, 218
-0.998628, 1, 83, 64, 98
-0.998628, 153, 239, 216, 254
-0.99863, 169, 167, 232, 182
-0.99863, 201, 49, 232, 176
-0.998632, 65, 97, 128, 112
-0.998634, 25, 89, 88, 104
-0.998635, 433, 183, 496, 198
-0.998636, 329, 147, 392, 162
-0.998637, 65, 87, 128, 102
-0.998638, 145, 173, 208, 188
-0.998638, 289, 173, 352, 188
-0.998644, 297, 201, 360, 216
-0.998644, 73, 111, 136, 126
-0.998644, 241, 185, 304, 200
-0.998645, 137, 191, 200, 206
-0.998645, 185, 245, 248, 260
-0.998646, 41, 179, 104, 194
-0.998648, 377, 187, 440, 202
-0.998648, 89, 195, 152, 210
-0.998649, 89, 161, 152, 176
-0.998649, 73, 213, 136, 228
-0.99865, 129, 135, 192, 150
-0.99865, 353, 143, 416, 158
-0.99865, 145, 251, 208, 266
-0.998652, 433, 189, 496, 204
-0.998653, 209, 177, 272, 192
-0.998653, 61, 33, 92, 274
-0.998659, 25, 33, 56, 274
-0.998678, 169, 33, 200, 274
-0.998679, 441, 97, 472, 224
-0.998699, 33, 145, 48, 272
-0.998706, 43, 129, 58, 256
-0.998746, 89, 33, 120, 274
-0.998755, 75, 113, 90, 240
-0.998756, 25, 145, 40, 272
-0.998767, 83, 97, 98, 224
-0.998768, 217, 33, 248, 274
-0.998783, 1, 81, 16, 208
-0.998814, 19, 145, 34, 272
-0.998815, 63, 113, 78, 240
-0.998822, 69, 113, 84, 240
-0.998833, 75, 65, 90, 192
-0.998837, 9, 145, 24, 272
-0.998857, 37, 17, 68, 144
-0.998867, 237, 129, 252, 256
-0.998873, 7, 65, 22, 192
-0.998891, 253, 33, 284, 274
-0.998898, 243, 129, 258, 256
-0.99893, 33, 65, 48, 192
-0.998937, 57, 113, 72, 240
-0.998946, 19, 65, 34, 192
-0.998961, 69, 65, 84, 192
-0.998967, 93, 81, 108, 208
-0.998978, 13, 65, 28, 192
-0.998991, 43, 65, 58, 192
-0.998992, 83, 145, 98, 272
-0.998997, 291, 113, 306, 240
-0.999004, 93, 129, 108, 256
-0.99902, 353, 97, 384, 224
-0.999029, 341, 145, 356, 272
-0.999052, 181, 33, 212, 274
-0.99906, 277, 113, 292, 240
-0.999083, 259, 97, 274, 224
-0.999085, 389, 113, 404, 240
-0.999094, 205, 145, 220, 272
-0.999101, 161, 73, 416, 136
-0.999105, 425, 145, 440, 272
-0.999106, 269, 129, 284, 256
-0.999109, 285, 145, 300, 272
-0.999112, 347, 129, 362, 256
-0.999115, 397, 129, 412, 256
-0.999117, 99, 81, 114, 208
-0.999121, 313, 145, 328, 272
-0.999127, 307, 145, 322, 272
-0.999128, 205, 97, 220, 224
-0.999129, 253, 113, 268, 240
-0.999141, 3, 145, 18, 272
-0.999141, 107, 81, 122, 208
-0.999143, 61, 65, 76, 192
-0.999144, 321, 129, 448, 160
-0.999145, 27, 65, 42, 192
-0.999152, 409, 145, 424, 272
-0.999153, 167, 129, 182, 256
-0.999163, 49, 113, 64, 240
-0.999172, 213, 145, 228, 272
-0.99918, 457, 145, 472, 272
-0.999181, 151, 65, 166, 192
-0.999184, 191, 145, 206, 272
-0.999184, 417, 145, 432, 272
-0.999186, 355, 129, 370, 256
-0.999195, 231, 129, 246, 256
-0.999195, 199, 145, 214, 272
-0.999203, 99, 129, 114, 256
-0.999208, 161, 129, 176, 256
-0.999215, 221, 113, 236, 240
-0.999235, 381, 145, 396, 272
-0.99924, 145, 73, 272, 104
-0.999242, 403, 145, 418, 272
-0.999246, 297, 145, 312, 272
-0.999255, 211, 97, 226, 224
-0.999264, 363, 145, 378, 272
-0.999264, 199, 97, 214, 224
-0.999265, 431, 145, 446, 272
-0.999266, 185, 113, 200, 240
-0.999275, 157, 65, 172, 192
-0.999277, 451, 145, 466, 272
-0.999285, 463, 145, 478, 272
-0.999285, 439, 145, 454, 272
-0.999288, 319, 145, 334, 272
-0.9993, 53, 65, 68, 192
-0.999307, 153, 33, 184, 274
-0.999308, 205, 33, 236, 274
-0.99931, 327, 145, 342, 272
-0.999324, 193, 97, 208, 224
-0.999335, 165, 65, 180, 192
-0.999341, 123, 81, 138, 208
-0.999344, 481, 145, 496, 272
-0.999346, 135, 65, 150, 192
-0.999358, 333, 145, 348, 272
-0.99936, 87, 49, 102, 176
-0.999369, 285, 97, 300, 224
-0.999391, 233, 81, 248, 208
-0.999394, 469, 145, 484, 272
-0.999407, 263, 145, 278, 272
-0.999412, 117, 65, 132, 192
-0.999434, 175, 145, 190, 272
-0.999435, 171, 65, 186, 192
-0.999437, 81, 49, 96, 176
-0.999447, 233, 33, 264, 274
-0.999448, 209, 229, 336, 260
-0.999451, 475, 145, 490, 272
-0.999452, 277, 33, 308, 274
-0.999455, 145, 65, 160, 192
-0.999457, 17, 17, 32, 144
-0.999459, 141, 145, 156, 272
-0.999461, 247, 81, 262, 208
-0.999476, 369, 145, 384, 272
-0.99948, 11, 17, 26, 144
-0.999482, 105, 145, 120, 272
-0.999488, 445, 145, 460, 272
-0.999491, 375, 113, 390, 240
-0.9995, 185, 65, 200, 192
-0.999511, 23, 17, 38, 144
-0.999514, 1, 17, 16, 144
-0.999514, 155, 113, 170, 240
-0.999514, 129, 65, 144, 192
-0.999523, 29, 17, 44, 144
-0.999546, 145, 61, 272, 92
-0.999546, 177, 65, 192, 192
-0.99955, 227, 81, 242, 208
-0.999598, 365, 97, 380, 224
-0.999603, 297, 97, 312, 224
-0.99961, 219, 165, 234, 180
-0.99961, 415, 97, 430, 224
-0.99961, 19, 141, 34, 156
-0.99961, 11, 235, 26, 250
-0.99961, 101, 161, 116, 176
-0.999611, 179, 221, 194, 236
-0.999611, 205, 179, 220, 194
-0.999611, 59, 149, 74, 164
-0.999611, 199, 213, 214, 228
-0.999612, 1, 257, 16, 272
-0.999612, 39, 249, 54, 264
-0.999612, 71, 227, 86, 242
-0.999612, 107, 215, 122, 230
-0.999612, 271, 81, 286, 208
-0.999613, 129, 213, 144, 228
-0.999613, 63, 257, 78, 272
-0.999614, 65, 229, 80, 244
-0.999615, 125, 237, 140, 252
-0.999616, 229, 209, 244, 224
-0.999616, 21, 235, 36, 250
-0.999616, 3, 175, 18, 190
-0.999617, 87, 245, 102, 260
-0.999617, 171, 223, 186, 238
-0.999618, 97, 121, 112, 136
-0.999619, 211, 211, 226, 226
-0.999619, 103, 225, 118, 240
-0.999619, 403, 97, 418, 224
-0.999619, 231, 127, 246, 142
-0.999619, 43, 157, 58, 172
-0.999619, 67, 155, 82, 170
-0.999619, 65, 181, 80, 196
-0.99962, 97, 251, 112, 266
-0.99962, 79, 227, 94, 242
-0.99962, 101, 33, 116, 160
-0.999622, 89, 255, 104, 270
-0.999622, 245, 131, 260, 146
-0.999622, 169, 143, 184, 158
-0.999623, 135, 245, 150, 260
-0.999624, 75, 259, 90, 274
-0.999625, 115, 215, 130, 230
-0.999625, 113, 109, 128, 124
-0.999625, 155, 157, 170, 172
-0.999625, 57, 189, 72, 204
-0.999626, 19, 253, 34, 268
-0.999626, 195, 183, 210, 198
-0.999627, 203, 151, 218, 166
-0.999629, 257, 185, 272, 200
-0.999629, 63, 247, 78, 262
-0.999631, 53, 117, 68, 132
-0.999632, 145, 225, 160, 240
-0.999632, 41, 223, 56, 238
-0.999633, 47, 185, 62, 200
-0.999634, 205, 157, 220, 172
-0.999634, 89, 227, 104, 242
-0.999636, 101, 217, 116, 232
-0.999636, 59, 229, 74, 244
-0.999637, 241, 105, 368, 136
-0.999637, 197, 191, 212, 206
-0.999638, 107, 133, 122, 148
-0.999638, 225, 157, 240, 172
-0.999638, 45, 231, 60, 246
-0.999639, 239, 81, 254, 208
-0.999639, 29, 223, 44, 238
-0.999641, 157, 225, 172, 240
-0.999641, 13, 255, 28, 270
-0.999642, 37, 157, 52, 172
-0.999643, 185, 189, 200, 204
-0.999644, 215, 181, 230, 196
-0.999644, 17, 245, 32, 260
-0.999644, 23, 243, 38, 258
-0.999645, 71, 187, 86, 202
-0.999645, 105, 241, 120, 256
-0.999645, 219, 151, 234, 166
-0.999645, 111, 223, 126, 238
-0.999646, 1, 247, 16, 262
-0.999646, 61, 221, 76, 236
-0.999646, 205, 213, 220, 228
-0.999648, 217, 211, 232, 226
-0.999648, 93, 243, 108, 258
-0.999649, 97, 225, 112, 240
-0.99965, 43, 147, 58, 162
-0.999651, 89, 117, 104, 132
-0.999651, 35, 243, 50, 258
-0.999653, 81, 219, 96, 234
-0.999653, 59, 133, 74, 148
-0.999656, 217, 191, 232, 206
-0.999656, 165, 223, 180, 238
-0.999656, 67, 119, 82, 134
-0.999657, 9, 225, 24, 240
-0.999657, 209, 151, 224, 166
-0.99966, 3, 139, 18, 154
-0.999661, 95, 233, 110, 248
-0.999661, 213, 157, 228, 172
-0.999662, 65, 187, 80, 202
-0.999662, 81, 235, 96, 250
-0.999664, 11, 245, 26, 260
-0.999664, 69, 219, 84, 234
-0.999667, 87, 235, 102, 250
-0.99967, 21, 225, 36, 240
-0.999671, 15, 225, 30, 240
-0.999671, 53, 221, 68, 236
-0.999671, 225, 217, 352, 248
-0.999671, 93, 217, 108, 232
-0.999672, 147, 195, 162, 210
-0.999674, 1, 227, 16, 242
-0.999674, 47, 221, 62, 236
-0.999674, 151, 225, 166, 240
-0.999677, 59, 155, 74, 170
-0.999678, 129, 247, 144, 262
-0.999679, 33, 143, 48, 158
-0.999681, 121, 229, 136, 244
-0.999681, 409, 97, 424, 224
-0.999682, 87, 217, 102, 232
-0.999682, 65, 237, 80, 252
-0.999682, 255, 179, 270, 194
-0.999682, 337, 97, 352, 224
-0.999683, 295, 253, 310, 268
-0.999684, 7, 257, 22, 272
-0.999685, 75, 219, 90, 234
-0.999685, 139, 227, 154, 242
-0.999685, 47, 239, 62, 254
-0.999685, 101, 233, 116, 248
-0.999686, 123, 33, 138, 160
-0.999686, 59, 239, 74, 254
-0.999688, 383, 97, 398, 224
-0.999689, 107, 231, 122, 246
-0.999689, 115, 231, 130, 246
-0.99969, 273, 209, 400, 240
-0.99969, 209, 241, 336, 272
-0.999691, 71, 237, 86, 252
-0.999691, 129, 229, 144, 244
-0.999693, 59, 127, 74, 142
-0.999696, 35, 223, 50, 238
-0.999699, 147, 145, 162, 272
-0.9997, 35, 17, 50, 144
-0.999702, 105, 127, 120, 142
-0.999703, 111, 33, 126, 160
-0.999705, 265, 33, 296, 274
-0.999706, 303, 97, 318, 224
-0.999708, 49, 153, 64, 168
-0.99971, 79, 153, 94, 168
-0.99971, 53, 239, 68, 254
-0.999711, 41, 241, 56, 256
-0.999713, 195, 49, 210, 176
-0.999713, 225, 187, 240, 202
-0.999715, 433, 97, 448, 224
-0.999718, 29, 243, 44, 258
-0.999722, 59, 119, 74, 134
-0.999724, 193, 89, 320, 120
-0.99973, 111, 145, 126, 272
-0.999733, 161, 17, 176, 144
-0.999739, 425, 97, 440, 224
-0.999743, 205, 187, 220, 202
-0.999745, 117, 145, 132, 272
-0.999748, 219, 65, 234, 192
-0.999748, 265, 81, 280, 208
-0.999749, 69, 255, 84, 270
-0.999754, 93, 33, 108, 160
-0.999756, 127, 145, 142, 272
-0.999796, 161, 49, 224, 112
-0.999821, 145, 33, 272, 96
-0.999833, 289, 117, 416, 148
-0.999845, 365, 33, 396, 274
-0.999865, 141, 17, 172, 144
-0.999872, 389, 33, 420, 274
-0.999914, 117, 145, 148, 272
-0.999957, 257, 229, 384, 260
-1.00001, 369, 133, 496, 164
-1.00004, 289, 33, 320, 274
-1.00006, 369, 201, 496, 232
-1.00011, 193, 77, 320, 108
-1.00011, 257, 73, 384, 136
-1.00014, 129, 49, 384, 112
-1.00014, 273, 241, 400, 272
-1.00019, 345, 33, 376, 274
-1.00026, 353, 213, 480, 244
-1.00033, 325, 33, 356, 274
-1.00036, 277, 49, 308, 176
-1.00041, 353, 241, 480, 272
-1.00042, 369, 229, 496, 260
-1.00045, 65, 57, 192, 88
-1.00045, 257, 81, 500, 144
-1.00048, 1, 41, 256, 104
-1.00054, 409, 33, 440, 274
-1.00062, 377, 33, 408, 274
-1.00063, 305, 221, 432, 252
-1.00065, 353, 117, 480, 148
-1.00066, 1, 57, 500, 120
-1.00068, 385, 81, 416, 208
-1.00071, 241, 93, 368, 124
-1.00075, 301, 33, 332, 274
-1.00081, 309, 97, 340, 224
-1.00088, 457, 33, 488, 274
-1.00091, 65, 45, 192, 76
-1.00091, 113, 45, 240, 76
-1.00097, 377, 33, 440, 274
-1.00098, 289, 105, 416, 136
-1.001, 369, 105, 496, 136
-1.001, 321, 97, 448, 160
-1.001, 313, 33, 344, 274
-1.001, 429, 33, 460, 274
-1.00102, 313, 33, 376, 274
-1.00105, 241, 77, 368, 108
-1.00107, 129, 9, 256, 40
-1.00107, 321, 9, 448, 40
-1.00107, 369, 9, 496, 40
-1.00107, 177, 13, 304, 44
-1.00107, 225, 13, 352, 44
-1.00107, 33, 17, 160, 48
-1.00107, 273, 17, 400, 48
-1.00107, 81, 21, 208, 52
-1.00107, 129, 21, 256, 52
-1.00107, 321, 21, 448, 52
-1.00107, 369, 21, 496, 52
-1.00107, 177, 25, 304, 56
-1.00107, 225, 25, 352, 56
-1.00107, 33, 29, 160, 60
-1.00107, 273, 29, 400, 60
-1.00107, 81, 33, 208, 64
-1.00107, 129, 33, 256, 64
-1.00107, 321, 33, 448, 64
-1.00107, 369, 33, 496, 64
-1.00107, 177, 37, 304, 68
-1.00107, 225, 37, 352, 68
-1.00107, 17, 41, 144, 72
-1.00107, 273, 41, 400, 72
-1.00107, 321, 45, 448, 76
-1.00107, 369, 45, 496, 76
-1.00107, 177, 49, 304, 80
-1.00107, 225, 49, 352, 80
-1.00107, 273, 53, 400, 84
-1.00107, 321, 57, 448, 88
-1.00107, 369, 57, 496, 88
-1.00107, 225, 61, 352, 92
-1.00107, 273, 65, 400, 96
-1.00107, 321, 69, 448, 100
-1.00107, 369, 69, 496, 100
-1.00107, 321, 81, 448, 112
-1.00107, 369, 81, 496, 112
-1.00107, 321, 93, 448, 124
-1.00107, 369, 93, 496, 124
-1.00109, 57, 41, 120, 104
-1.0011, 341, 81, 372, 208
-1.00119, 369, 97, 496, 160
-1.00144, 441, 33, 472, 274
-1.00153, 65, 1, 192, 128
-1.0016, 469, 33, 500, 274
-1.00181, 169, 17, 200, 144
-1.002, 257, 57, 500, 120
-1.00204, 97, 17, 352, 80
-1.00212, 1, 9, 256, 72
-1.00212, 257, 9, 500, 72
-1.00212, 257, 33, 500, 96
-1.00221, 65, 17, 192, 80
-1.00235, 369, 105, 432, 168
-1.00244, 213, 33, 244, 160
-1.0025, 453, 97, 484, 224
-1.00277, 49, 17, 80, 144
-1.00283, 321, 65, 448, 128
-1.00283, 369, 65, 496, 128
-1.00284, 129, 9, 256, 72
-1.00288, 241, 49, 368, 112
-1.00291, 225, 1, 352, 64
-1.00291, 273, 1, 400, 64
-1.00291, 1, 9, 128, 72
-1.00291, 177, 9, 304, 72
-1.00291, 321, 17, 448, 80
-1.00291, 369, 17, 496, 80
-1.00291, 225, 25, 352, 88
-1.00291, 273, 25, 400, 88
-1.00291, 321, 41, 448, 104
-1.00291, 369, 41, 496, 104
-1.00292, 137, 33, 200, 96
-1.00296, 433, 209, 496, 272
-1.00327, 185, 49, 248, 112
-1.00367, 393, 105, 456, 168
-1.00373, 321, 209, 384, 272
-1.00376, 1, 33, 500, 96
-1.00387, 1, 1, 500, 64
-1.0042, 313, 97, 376, 160
-1.00438, 237, 33, 268, 160
-1.00452, 69, 1, 100, 128
-1.00488, 433, 129, 496, 192
-1.00511, 25, 41, 88, 104
-1.00518, 181, 1, 212, 128
-1.00523, 337, 89, 400, 152
-1.00536, 401, 33, 464, 274
-1.00585, 373, 49, 404, 176
-1.00589, 401, 201, 464, 264
-1.006, 97, 25, 160, 88
-1.00604, 425, 33, 488, 274
-1.00615, 1, 33, 64, 96
-1.00655, 257, 65, 320, 128
-1.00682, 261, 17, 292, 144
-1.00691, 273, 49, 336, 176
-1.00692, 193, 17, 256, 144
-1.00719, 357, 49, 388, 176
-1.00719, 361, 209, 424, 272
-1.00723, 225, 33, 256, 160
-1.00762, 197, 1, 228, 128
-1.00773, 329, 49, 360, 176
-1.00835, 397, 49, 428, 176
-1.0085, 369, 81, 432, 144
-1.00874, 289, 17, 320, 144
-1.00878, 121, 9, 184, 72
-1.00886, 321, 33, 448, 160
-1.00895, 417, 105, 480, 168
-1.00896, 169, 17, 232, 80
-1.00917, 233, 57, 296, 120
-1.0092, 65, 9, 128, 72
-1.00924, 313, 65, 376, 128
-1.00927, 381, 1, 412, 128
-1.00929, 241, 9, 304, 72
-1.00929, 385, 9, 448, 72
-1.00929, 409, 9, 472, 72
-1.00929, 433, 9, 496, 72
-1.00929, 41, 17, 104, 80
-1.00929, 265, 17, 328, 80
-1.00929, 313, 17, 376, 80
-1.00929, 337, 17, 400, 80
-1.00929, 361, 17, 424, 80
-1.00929, 217, 25, 280, 88
-1.00929, 289, 25, 352, 88
-1.00929, 241, 33, 304, 96
-1.00929, 385, 33, 448, 96
-1.00929, 409, 33, 472, 96
-1.00929, 433, 33, 496, 96
-1.00929, 265, 41, 328, 104
-1.00929, 313, 41, 376, 104
-1.00929, 337, 41, 400, 104
-1.00929, 361, 41, 424, 104
-1.00929, 289, 49, 352, 112
-1.00929, 385, 57, 448, 120
-1.00929, 409, 57, 472, 120
-1.00929, 433, 57, 496, 120
-1.00929, 345, 65, 408, 128
-1.00929, 409, 81, 472, 144
-1.00929, 433, 81, 496, 144
-1.00955, 453, 33, 484, 160
-1.00956, 341, 17, 372, 144
-1.00956, 329, 1, 360, 128
-1.00956, 361, 1, 392, 128
-1.00956, 405, 1, 436, 128
-1.00956, 417, 1, 448, 128
-1.00956, 313, 17, 344, 144
-1.00956, 429, 17, 460, 144
-1.00956, 441, 17, 472, 144
-1.00956, 469, 17, 500, 144
-1.00967, 277, 1, 308, 128
-1.00983, 249, 1, 280, 128
-1.00988, 241, 1, 368, 128
-1.00995, 301, 49, 332, 176
-1.01005, 369, 1, 496, 128
-1.0101, 393, 1, 424, 128
-1.01031, 369, 49, 496, 176
-1.01061, 301, 1, 332, 128
-1.01065, 409, 49, 440, 176
-1.01066, 169, 1, 232, 128
-1.01098, 297, 49, 360, 176
-1.01121, 217, 17, 280, 144
-1.01175, 361, 49, 424, 176
-1.01194, 193, 1, 448, 128
-1.01306, 385, 49, 448, 176
-1.01445, 433, 33, 496, 160
-1.01451, 273, 1, 336, 128
-1.01452, 361, 1, 424, 128
-1.01452, 385, 1, 448, 128
-1.01478, 305, 1, 368, 128
-1.01478, 329, 1, 392, 128
-1.01478, 409, 1, 472, 128
-1.01529, 249, 1, 312, 128
-1.02034, 409, 49, 472, 176
