1876
-0.209663, 1, 1, 500, 333
-0.317081, 65, 1, 320, 333
-0.445631, 161, 1, 416, 333
-0.454594, 1, 33, 500, 288
-0.466399, 257, 1, 500, 333
-0.537384, 65, 1, 320, 256
-0.668563, 161, 33, 416, 288
-0.7281, 257, 1, 500, 256
-0.842822, 193, 1, 320, 333
-0.843985, 289, 1, 416, 333
-0.84903, 241, 1, 368, 333
-0.849185, 241, 33, 368, 288
-0.8513, 97, 1, 224, 333
-0.86533, 193, 1, 320, 256
-0.866843, 145, 1, 272, 333
-0.867199, 369, 1, 496, 333
-0.872418, 289, 1, 416, 256
-0.87632, 1, 209, 500, 333
-0.877204, 49, 1, 176, 333
-0.88409, 145, 33, 272, 288
-0.886816, 17, 65, 144, 320
-0.887213, 65, 65, 192, 320
-0.889278, 353, 1, 480, 256
-0.889356, 1, 161, 500, 288
-0.902167, 1, 1, 128, 333
-0.907859, 1, 49, 500, 176
-0.908772, 97, 49, 352, 176
-0.91111, 65, 193, 320, 320
-0.917583, 225, 17, 480, 144
-0.924475, 1, 113, 500, 240
-0.926507, 225, 161, 480, 288
-0.928853, 193, 177, 320, 304
-0.928892, 161, 209, 416, 333
-0.931328, 97, 1, 352, 128
-0.933222, 241, 161, 304, 288
-0.934034, 273, 65, 336, 192
-0.935928, 65, 193, 192, 320
-0.936658, 273, 17, 400, 144
-0.937923, 1, 49, 256, 176
-0.938154, 257, 193, 384, 320
-0.938375, 233, 33, 296, 160
-0.938607, 33, 145, 288, 272
-0.939045, 97, 49, 224, 176
-0.93932, 81, 161, 144, 288
-0.939336, 193, 33, 320, 160
-0.939498, 241, 145, 368, 272
-0.939754, 273, 113, 336, 240
-0.940351, 1, 1, 500, 128
-0.941492, 273, 161, 336, 288
-0.941907, 105, 49, 168, 176
-0.942438, 257, 209, 500, 333
-0.942579, 281, 17, 344, 144
-0.943549, 241, 81, 368, 208
-0.943848, 305, 17, 368, 144
-0.943915, 353, 177, 480, 304
-0.944284, 145, 193, 272, 320
-0.944582, 217, 177, 280, 304
-0.944627, 417, 145, 480, 272
-0.945514, 313, 33, 376, 96
-0.945649, 321, 1, 448, 128
-0.945946, 97, 97, 352, 224
-0.946197, 241, 209, 304, 333
-0.946561, 233, 41, 296, 104
-0.946677, 113, 193, 176, 320
-0.947704, 241, 113, 304, 240
-0.948117, 289, 145, 416, 272
-0.94827, 169, 193, 232, 320
-0.950102, 225, 113, 480, 240
-0.951002, 305, 209, 368, 333
-0.951093, 137, 177, 200, 304
-0.951282, 1, 1, 256, 128
-0.951436, 17, 193, 144, 320
-0.951529, 273, 57, 336, 120
-0.951595, 193, 161, 256, 288
-0.951944, 257, 65, 500, 192
-0.952535, 265, 209, 328, 333
-0.95271, 89, 113, 152, 240
-0.953189, 273, 105, 336, 168
-0.953282, 273, 81, 336, 144
-0.95411, 273, 129, 336, 192
-0.95434, 241, 169, 304, 232
-0.954571, 57, 161, 120, 288
-0.954868, 89, 209, 152, 333
-0.955089, 209, 41, 272, 104
-0.955366, 273, 185, 336, 248
-0.956622, 409, 177, 472, 240
-0.956815, 177, 17, 240, 144
-0.956888, 65, 65, 128, 192
-0.957071, 329, 241, 392, 304
-0.957347, 193, 113, 320, 240
-0.957406, 273, 33, 336, 96
-0.957941, 273, 161, 336, 224
-0.95813, 105, 57, 168, 120
-0.958173, 401, 17, 464, 144
-0.95832, 233, 209, 296, 272
-0.958773, 401, 97, 464, 224
-0.959104, 193, 209, 256, 333
-0.959337, 137, 49, 200, 112
-0.959625, 145, 17, 272, 144
-0.959769, 305, 145, 368, 272
-0.959957, 89, 177, 152, 240
-0.959958, 305, 81, 368, 208
-0.960177, 33, 241, 96, 304
-0.960319, 129, 1, 192, 128
-0.960338, 257, 17, 320, 144
-0.960454, 89, 217, 152, 280
-0.96057, 17, 113, 144, 240
-0.96058, 201, 17, 264, 144
-0.960657, 329, 1, 392, 128
-0.960718, 393, 25, 456, 88
-0.961132, 289, 225, 352, 288
-0.961166, 65, 113, 192, 240
-0.96157, 345, 209, 408, 333
-0.961659, 201, 209, 264, 272
-0.961705, 401, 209, 464, 333
-0.961736, 185, 41, 248, 104
-0.962109, 9, 241, 72, 304
-0.962202, 433, 209, 496, 333
-0.962487, 153, 177, 216, 240
-0.962694, 57, 209, 120, 333
-0.96289, 113, 217, 176, 280
-0.963186, 289, 97, 416, 224
-0.963294, 81, 153, 144, 216
-0.963344, 241, 145, 304, 208
-0.963473, 169, 209, 232, 272
-0.964166, 425, 49, 488, 176
-0.964482, 129, 145, 384, 272
-0.964568, 385, 241, 448, 304
-0.964626, 289, 257, 352, 320
-0.964889, 241, 65, 304, 128
-0.9651, 97, 1, 224, 128
-0.965108, 377, 193, 440, 320
-0.965401, 369, 161, 432, 224
-0.965443, 161, 41, 224, 104
-0.96599, 9, 177, 72, 304
-0.966008, 273, 33, 336, 288
-0.966092, 89, 81, 152, 144
-0.966092, 241, 105, 304, 168
-0.966139, 153, 17, 216, 144
-0.966177, 337, 17, 400, 80
-0.96624, 233, 1, 296, 256
-0.966271, 177, 177, 240, 240
-0.96628, 305, 193, 432, 320
-0.966372, 369, 265, 432, 328
-0.96649, 129, 177, 192, 240
-0.966579, 305, 121, 368, 184
-0.966604, 377, 1, 440, 128
-0.966621, 1, 97, 256, 224
-0.9667, 145, 209, 208, 272
-0.966722, 65, 81, 128, 144
-0.966786, 321, 49, 448, 176
-0.96681, 369, 129, 496, 256
-0.966977, 193, 41, 320, 104
-0.96708, 49, 49, 176, 176
-0.967121, 217, 177, 280, 240
-0.96735, 401, 49, 464, 112
-0.967728, 353, 1, 416, 128
-0.967858, 17, 1, 144, 128
-0.9679, 249, 233, 312, 296
-0.967905, 385, 145, 448, 272
-0.967976, 409, 153, 472, 216
-0.967983, 269, 33, 300, 160
-0.968039, 317, 33, 348, 96
-0.968178, 433, 1, 496, 128
-0.968289, 65, 209, 128, 272
-0.968568, 313, 65, 376, 128
-0.968688, 265, 41, 296, 104
-0.968711, 89, 65, 152, 320
-0.968712, 433, 145, 496, 208
-0.968852, 273, 33, 400, 96
-0.968881, 89, 241, 152, 304
-0.969214, 305, 97, 368, 160
-0.969254, 305, 201, 368, 264
-0.969254, 425, 201, 488, 264
-0.969396, 401, 121, 464, 184
-0.969406, 169, 241, 232, 304
-0.969711, 33, 209, 96, 333
-0.96982, 65, 241, 128, 304
-0.969938, 401, 89, 464, 152
-0.970036, 401, 265, 464, 328
-0.970057, 273, 9, 336, 72
-0.970142, 305, 145, 368, 208
-0.970206, 65, 105, 128, 168
-0.970513, 425, 113, 488, 176
-0.970611, 337, 265, 400, 328
-0.970798, 129, 241, 192, 304
-0.970879, 433, 169, 496, 232
-0.970897, 313, 9, 376, 72
-0.97091, 313, 1, 344, 128
-0.971125, 433, 97, 496, 224
-0.971134, 93, 161, 124, 288
-0.971194, 89, 105, 152, 168
-0.971718, 241, 137, 368, 200
-0.971813, 233, 17, 296, 80
-0.97187, 257, 209, 320, 272
-0.971897, 49, 113, 112, 240
-0.972063, 289, 161, 416, 224
-0.972148, 305, 169, 368, 232
-0.972634, 337, 161, 400, 224
-0.972726, 353, 57, 416, 120
-0.972816, 321, 17, 448, 80
-0.972948, 333, 25, 364, 88
-0.97295, 1, 241, 128, 304
-0.973004, 209, 201, 336, 264
-0.973016, 385, 193, 448, 256
-0.97318, 209, 17, 272, 80
-0.973239, 269, 81, 300, 208
-0.973241, 145, 49, 176, 112
-0.973376, 145, 41, 272, 104
-0.973397, 269, 193, 300, 320
-0.97351, 161, 177, 288, 240
-0.973681, 105, 1, 168, 128
-0.973719, 433, 1, 496, 64
-0.973785, 209, 177, 336, 240
-0.973805, 361, 17, 424, 80
-0.973827, 93, 113, 124, 240
-0.973854, 369, 81, 496, 208
-0.973861, 65, 217, 192, 280
-0.97387, 429, 25, 460, 88
-0.973928, 361, 145, 424, 272
-0.974007, 429, 17, 460, 144
-0.974078, 213, 41, 244, 104
-0.974192, 129, 209, 256, 272
-0.974226, 65, 177, 128, 240
-0.974527, 113, 33, 176, 96
-0.974602, 225, 41, 256, 104
-0.974712, 253, 161, 284, 288
-0.974751, 137, 25, 200, 88
-0.974826, 417, 25, 480, 88
-0.974854, 269, 137, 300, 200
-0.974862, 241, 97, 368, 160
-0.974877, 425, 89, 488, 152
-0.974915, 225, 233, 288, 296
-0.975112, 409, 225, 472, 288
-0.975161, 97, 57, 224, 120
-0.975177, 369, 33, 496, 160
-0.975233, 57, 153, 120, 216
-0.975275, 93, 161, 124, 224
-0.975319, 269, 105, 300, 168
-0.975338, 353, 233, 416, 296
-0.975462, 329, 1, 360, 128
-0.975532, 65, 65, 128, 320
-0.975668, 269, 145, 300, 272
-0.975716, 249, 33, 280, 96
-0.975753, 329, 161, 392, 288
-0.975822, 353, 265, 480, 328
-0.975826, 237, 33, 268, 96
-0.975833, 193, 233, 256, 296
-0.975888, 401, 1, 464, 256
-0.975907, 157, 41, 188, 104
-0.975929, 25, 273, 88, 333
-0.975936, 97, 177, 224, 240
-0.976085, 101, 65, 132, 128
-0.976235, 93, 65, 124, 192
-0.976322, 93, 217, 124, 280
-0.976464, 273, 65, 400, 128
-0.976568, 145, 209, 176, 272
-0.976587, 129, 145, 256, 272
-0.976643, 265, 209, 296, 272
-0.976763, 241, 209, 272, 272
-0.976766, 433, 57, 496, 120
-0.976869, 209, 33, 272, 288
-0.976908, 265, 273, 328, 333
-0.976912, 301, 225, 332, 288
-0.976935, 305, 33, 368, 288
-0.976955, 329, 137, 392, 200
-0.977056, 153, 193, 184, 320
-0.977177, 377, 137, 440, 200
-0.977325, 141, 193, 172, 320
-0.977369, 209, 233, 336, 296
-0.977394, 229, 193, 260, 320
-0.977445, 125, 217, 156, 280
-0.977846, 241, 161, 272, 288
-0.977849, 257, 273, 384, 333
-0.977942, 93, 113, 124, 176
-0.97796, 269, 81, 300, 144
-0.978028, 353, 177, 480, 240
-0.978056, 317, 145, 348, 208
-0.978093, 385, 1, 448, 64
-0.978148, 169, 17, 232, 80
-0.978156, 133, 49, 164, 112
-0.978177, 105, 161, 136, 288
-0.978177, 201, 177, 232, 304
-0.978206, 113, 217, 144, 280
-0.978495, 253, 201, 284, 264
-0.978498, 65, 17, 128, 144
-0.97855, 249, 17, 280, 144
-0.978584, 209, 209, 240, 272
-0.978631, 113, 33, 144, 160
-0.978671, 89, 129, 152, 192
-0.978733, 281, 193, 312, 320
-0.978736, 265, 1, 328, 333
-0.97874, 169, 41, 200, 104
-0.978761, 233, 257, 296, 320
-0.978855, 269, 161, 300, 224
-0.978894, 289, 233, 416, 296
-0.978994, 213, 177, 244, 304
-0.979005, 189, 193, 220, 320
-0.979013, 161, 177, 192, 240
-0.979057, 353, 41, 480, 104
-0.979063, 121, 193, 152, 320
-0.979096, 417, 233, 448, 296
-0.979104, 277, 201, 308, 264
-0.979141, 229, 201, 260, 264
-0.979197, 425, 1, 488, 256
-0.979221, 317, 97, 348, 224
-0.97933, 97, 89, 128, 152
-0.979347, 317, 177, 348, 304
-0.979353, 317, 193, 348, 256
-0.97936, 49, 241, 176, 304
-0.97937, 433, 129, 464, 256
-0.979416, 353, 145, 480, 208
-0.979519, 97, 241, 224, 304
-0.97955, 209, 17, 336, 80
-0.979611, 201, 41, 232, 104
-0.979621, 73, 49, 136, 112
-0.979628, 301, 209, 332, 333
-0.979631, 29, 241, 60, 304
-0.979668, 13, 249, 44, 312
-0.979682, 417, 177, 448, 304
-0.979698, 257, 193, 384, 256
-0.979764, 381, 161, 412, 224
-0.979826, 209, 65, 336, 128
-0.979867, 81, 193, 112, 320
-0.97991, 417, 177, 448, 240
-0.979985, 377, 89, 440, 152
-0.980038, 337, 241, 464, 304
-0.980269, 33, 161, 96, 288
-0.98047, 217, 129, 280, 256
-0.980518, 189, 177, 220, 240
-0.980529, 105, 1, 168, 333
-0.980544, 233, 1, 296, 333
-0.980619, 165, 209, 196, 272
-0.980619, 177, 209, 208, 272
-0.980648, 453, 209, 484, 333
-0.980659, 165, 193, 196, 320
-0.980695, 177, 177, 208, 304
-0.980703, 313, 265, 376, 328
-0.980716, 17, 209, 144, 272
-0.980899, 57, 241, 88, 304
-0.980906, 49, 129, 112, 192
-0.980961, 249, 177, 280, 240
-0.980977, 321, 65, 448, 128
-0.981108, 129, 49, 192, 176
-0.981115, 369, 201, 496, 264
-0.981141, 1, 249, 32, 312
-0.981176, 229, 177, 260, 240
-0.981182, 93, 137, 124, 200
-0.9812, 289, 1, 352, 333
-0.981203, 109, 209, 140, 333
-0.981219, 181, 41, 212, 104
-0.981244, 321, 121, 448, 184
-0.981255, 69, 241, 100, 304
-0.98147, 285, 145, 316, 272
-0.981618, 157, 241, 188, 304
-0.981667, 333, 233, 364, 296
-0.981684, 93, 209, 124, 333
-0.981706, 193, 153, 320, 216
-0.981717, 417, 201, 448, 264
-0.981732, 193, 17, 224, 144
-0.981747, 181, 17, 212, 144
-0.981763, 321, 201, 448, 264
-0.981819, 49, 273, 112, 333
-0.981869, 329, 113, 392, 240
-0.981899, 349, 17, 380, 80
-0.9819, 137, 241, 168, 304
-0.981925, 173, 177, 204, 240
-0.981953, 257, 209, 288, 333
-0.981988, 317, 1, 348, 64
-0.982026, 221, 17, 252, 80
-0.98205, 425, 265, 488, 328
-0.98209, 113, 49, 144, 112
-0.9821, 329, 49, 392, 176
-0.982126, 201, 177, 232, 240
-0.98215, 305, 265, 432, 328
-0.982156, 377, 57, 440, 120
-0.982241, 277, 233, 308, 296
-0.982276, 41, 217, 104, 280
-0.98237, 145, 241, 272, 304
-0.982388, 105, 153, 168, 216
-0.982426, 453, 145, 484, 272
-0.982512, 313, 1, 376, 333
-0.982629, 45, 241, 76, 304
-0.982655, 205, 17, 236, 144
-0.982678, 317, 49, 348, 176
-0.982717, 469, 209, 500, 272
-0.982722, 81, 209, 112, 272
-0.982725, 217, 81, 280, 208
-0.982751, 197, 209, 228, 272
-0.982782, 329, 217, 392, 280
-0.982787, 1, 65, 128, 192
-0.982798, 217, 17, 248, 144
-0.982816, 377, 97, 440, 224
-0.982828, 137, 185, 168, 248
-0.982867, 433, 169, 464, 232
-0.982883, 317, 217, 348, 280
-0.982916, 9, 217, 72, 280
-0.982974, 377, 217, 440, 280
-0.983006, 405, 177, 436, 240
-0.983076, 437, 193, 468, 256
-0.983123, 377, 1, 440, 256
-0.983139, 121, 185, 152, 248
-0.983198, 65, 153, 192, 216
-0.983263, 465, 209, 496, 333
-0.983275, 145, 25, 176, 88
-0.983312, 217, 65, 280, 128
-0.983381, 417, 1, 480, 333
-0.983441, 453, 169, 484, 232
-0.983447, 433, 113, 464, 176
-0.983493, 381, 265, 412, 328
-0.983497, 449, 145, 480, 208
-0.983501, 329, 1, 392, 256
-0.98352, 149, 177, 180, 240
-0.983547, 97, 241, 128, 304
-0.983552, 437, 177, 468, 304
-0.983557, 389, 241, 420, 304
-0.983577, 129, 17, 256, 80
-0.983578, 233, 17, 264, 144
-0.983621, 285, 65, 316, 192
-0.983635, 433, 65, 464, 192
-0.983682, 109, 185, 140, 248
-0.983687, 185, 1, 248, 333
-0.983729, 197, 241, 228, 304
-0.983773, 281, 265, 312, 328
-0.983781, 317, 121, 348, 184
-0.983813, 469, 185, 500, 248
-0.983835, 285, 65, 316, 128
-0.98387, 185, 241, 216, 304
-0.983929, 185, 33, 248, 288
-0.983935, 49, 177, 176, 240
-0.983948, 1, 273, 64, 333
-0.983986, 113, 81, 144, 208
-0.984019, 313, 65, 344, 128
-0.984044, 41, 177, 104, 240
-0.98405, 405, 233, 436, 296
-0.984107, 109, 241, 140, 304
-0.984119, 361, 1, 392, 64
-0.984127, 213, 241, 244, 304
-0.984178, 193, 97, 320, 160
-0.984241, 213, 177, 244, 240
-0.98433, 81, 241, 112, 304
-0.984425, 161, 65, 288, 128
-0.984639, 317, 97, 348, 160
-0.984646, 169, 241, 200, 304
-0.984661, 393, 1, 456, 333
-0.984694, 353, 97, 480, 160
-0.98471, 401, 193, 432, 320
-0.98474, 369, 265, 400, 328
-0.984822, 17, 113, 144, 176
-0.984823, 241, 209, 272, 333
-0.984854, 429, 57, 460, 120
-0.984859, 301, 169, 332, 232
-0.984863, 217, 137, 280, 200
-0.984871, 433, 89, 464, 152
-0.984901, 361, 185, 424, 248
-0.984908, 209, 265, 272, 328
-0.98495, 225, 225, 256, 288
-0.984958, 465, 145, 496, 272
-0.984974, 161, 1, 224, 333
-0.985, 457, 209, 488, 272
-0.985002, 369, 161, 400, 224
-0.98502, 433, 137, 464, 200
-0.985024, 81, 1, 144, 333
-0.985078, 289, 225, 320, 288
-0.985125, 353, 1, 384, 128
-0.985179, 209, 1, 272, 333
-0.985227, 409, 17, 440, 80
-0.985236, 113, 1, 176, 256
-0.98528, 333, 161, 364, 224
-0.985282, 125, 241, 156, 304
-0.985325, 113, 73, 144, 136
-0.985331, 329, 1, 360, 64
-0.985374, 369, 209, 400, 333
-0.985392, 449, 81, 480, 208
-0.985423, 17, 145, 144, 208
-0.985472, 285, 137, 316, 200
-0.985554, 381, 209, 412, 333
-0.985559, 369, 121, 496, 184
-0.985567, 469, 145, 500, 208
-0.985584, 257, 1, 384, 64
-0.985586, 289, 89, 416, 152
-0.985661, 369, 65, 496, 128
-0.985721, 285, 113, 316, 176
-0.985731, 61, 209, 92, 333
-0.985744, 361, 33, 392, 96
-0.985773, 381, 1, 412, 64
-0.985877, 301, 161, 332, 288
-0.985945, 193, 257, 320, 320
-0.985986, 17, 65, 144, 128
-0.98599, 321, 265, 352, 328
-0.986015, 37, 209, 68, 333
-0.986023, 261, 17, 292, 80
-0.986028, 65, 113, 192, 176
-0.986039, 369, 17, 496, 80
-0.986051, 5, 193, 36, 320
-0.986108, 137, 1, 200, 333
-0.986124, 353, 209, 384, 333
-0.986168, 417, 129, 448, 256
-0.986224, 397, 265, 428, 328
-0.986228, 317, 169, 348, 232
-0.986274, 253, 225, 284, 288
-0.986305, 1, 273, 128, 333
-0.986334, 49, 57, 112, 120
-0.9864, 285, 89, 316, 152
-0.986414, 193, 129, 320, 192
-0.98645, 93, 185, 124, 248
-0.986467, 297, 1, 328, 128
-0.986618, 185, 265, 248, 328
-0.986708, 297, 65, 328, 192
-0.986719, 433, 241, 496, 304
-0.986738, 265, 233, 296, 296
-0.986753, 1, 177, 128, 240
-0.98678, 81, 25, 208, 88
-0.98684, 249, 57, 280, 120
-0.986995, 161, 65, 224, 128
-0.987024, 393, 161, 424, 224
-0.987215, 57, 273, 88, 333
-0.987227, 41, 33, 104, 288
-0.987285, 445, 1, 476, 128
-0.987297, 297, 57, 328, 120
-0.987302, 169, 145, 232, 272
-0.987324, 169, 17, 200, 144
-0.987356, 333, 49, 364, 176
-0.98738, 329, 113, 392, 176
-0.987453, 297, 81, 328, 144
-0.987573, 109, 145, 140, 208
-0.987618, 285, 169, 316, 232
-0.987676, 285, 17, 316, 144
-0.987714, 449, 121, 480, 184
-0.987804, 17, 33, 144, 96
-0.987838, 345, 1, 408, 333
-0.987936, 353, 137, 416, 200
-0.988016, 233, 41, 296, 72
-0.988024, 73, 273, 136, 333
-0.988158, 81, 1, 208, 64
-0.988267, 125, 49, 156, 176
-0.98828, 273, 53, 336, 84
-0.988354, 249, 65, 280, 192
-0.988401, 393, 25, 456, 56
-0.98848, 381, 161, 412, 288
-0.988504, 97, 57, 160, 88
-0.988518, 101, 1, 132, 128
-0.988547, 273, 69, 336, 100
-0.988552, 333, 209, 364, 333
-0.988646, 273, 89, 336, 120
-0.988681, 129, 53, 192, 84
-0.988694, 89, 25, 152, 88
-0.988749, 169, 49, 232, 80
-0.988795, 113, 145, 176, 272
-0.988846, 273, 105, 336, 136
-0.988856, 401, 181, 464, 212
-0.988878, 193, 45, 256, 76
-0.988933, 377, 49, 440, 176
-0.988933, 273, 165, 336, 196
-0.988947, 77, 145, 108, 272
-0.988976, 21, 177, 52, 304
-0.988992, 49, 273, 176, 333
-0.989028, 49, 209, 80, 333
-0.989034, 141, 1, 172, 128
-0.989057, 273, 117, 336, 148
-0.989064, 273, 185, 336, 216
-0.989111, 105, 1, 168, 64
-0.98913, 313, 33, 376, 64
-0.989151, 353, 209, 416, 272
-0.989166, 273, 145, 336, 176
-0.989203, 273, 129, 336, 160
-0.989214, 241, 173, 304, 204
-0.989262, 337, 293, 400, 324
-0.989297, 97, 69, 160, 100
-0.989317, 273, 41, 336, 72
-0.989338, 161, 265, 224, 328
-0.989384, 369, 1, 432, 333
-0.989424, 273, 197, 336, 228
-0.989475, 353, 25, 416, 56
-0.989499, 369, 161, 400, 288
-0.98954, 377, 113, 440, 176
-0.989542, 305, 53, 368, 84
-0.989568, 65, 177, 320, 240
-0.989571, 17, 89, 144, 152
-0.989592, 249, 233, 312, 264
-0.989632, 161, 41, 416, 104
-0.989637, 193, 113, 256, 240
-0.989766, 409, 193, 472, 224
-0.989871, 233, 57, 296, 88
-0.989921, 65, 209, 320, 272
-0.98996, 1, 277, 64, 308
-0.989969, 409, 205, 472, 236
-0.989989, 41, 65, 104, 192
-0.990006, 249, 285, 312, 316
-0.99003, 385, 257, 448, 288
-0.990046, 341, 1, 372, 128
-0.990052, 377, 181, 440, 212
-0.990086, 289, 225, 352, 256
-0.990094, 241, 161, 304, 192
-0.9901, 373, 1, 404, 128
-0.990107, 305, 93, 368, 124
-0.990119, 41, 1, 104, 333
-0.990127, 65, 101, 128, 132
-0.990129, 81, 173, 144, 204
-0.990161, 369, 169, 432, 200
-0.990169, 89, 185, 152, 216
-0.99018, 305, 77, 368, 108
-0.990186, 41, 241, 104, 272
-0.990208, 225, 233, 288, 264
-0.990213, 65, 57, 320, 120
-0.990266, 313, 65, 376, 96
-0.990272, 1, 241, 256, 304
-0.990304, 249, 113, 280, 240
-0.990317, 97, 265, 224, 328
-0.990364, 433, 213, 496, 244
-0.990388, 89, 85, 152, 116
-0.99039, 305, 105, 368, 136
-0.990393, 289, 265, 352, 296
-0.990396, 305, 149, 368, 180
-0.990399, 201, 237, 264, 268
-0.990414, 273, 281, 336, 312
-0.990422, 73, 97, 104, 224
-0.990434, 273, 29, 336, 60
-0.990471, 65, 81, 192, 144
-0.990486, 329, 21, 392, 52
-0.990516, 241, 113, 304, 144
-0.990524, 153, 181, 216, 212
-0.990532, 241, 129, 304, 160
-0.990537, 273, 213, 336, 244
-0.990566, 329, 281, 392, 312
-0.990575, 377, 193, 440, 224
-0.99059, 305, 121, 368, 152
-0.990592, 409, 169, 472, 200
-0.990592, 153, 33, 216, 288
-0.990607, 241, 85, 304, 116
-0.990639, 305, 21, 368, 52
-0.990646, 433, 101, 496, 132
-0.990659, 241, 101, 304, 132
-0.990678, 241, 69, 304, 100
-0.990684, 329, 257, 392, 288
-0.990685, 65, 113, 128, 144
-0.990699, 401, 37, 464, 68
-0.990703, 329, 193, 392, 256
-0.990704, 65, 153, 128, 184
-0.990705, 313, 293, 376, 324
-0.990712, 401, 49, 464, 80
-0.990714, 241, 149, 304, 180
-0.990715, 65, 281, 128, 312
-0.990766, 89, 97, 152, 128
-0.990792, 401, 77, 464, 108
-0.990799, 401, 133, 464, 164
-0.990806, 305, 209, 368, 240
-0.990824, 305, 137, 368, 168
-0.990826, 413, 17, 444, 144
-0.990828, 17, 241, 80, 272
-0.99083, 361, 301, 424, 332
-0.990834, 409, 1, 472, 64
-0.99084, 433, 149, 496, 180
-0.990846, 361, 289, 424, 320
-0.990848, 89, 109, 152, 140
-0.990863, 257, 265, 500, 328
-0.990872, 417, 25, 480, 56
-0.990881, 65, 89, 128, 120
-0.990882, 1, 41, 500, 104
-0.990906, 25, 281, 88, 312
-0.99091, 129, 241, 192, 272
-0.990916, 145, 285, 208, 316
-0.99092, 65, 241, 128, 272
-0.99095, 401, 121, 464, 152
-0.990952, 217, 213, 280, 244
-0.990962, 369, 269, 432, 300
-0.990963, 305, 165, 368, 196
-0.990977, 433, 201, 496, 232
-0.990998, 225, 289, 288, 320
-0.991013, 185, 181, 248, 212
-0.99106, 161, 241, 224, 272
-0.991093, 105, 237, 168, 268
-0.991102, 425, 181, 488, 212
-0.991105, 393, 93, 456, 124
-0.991107, 73, 73, 136, 104
-0.99111, 353, 13, 416, 44
-0.991111, 129, 1, 192, 64
-0.991122, 153, 197, 216, 228
-0.991127, 273, 293, 336, 324
-0.991139, 169, 285, 232, 316
-0.991155, 329, 157, 392, 188
-0.991157, 377, 13, 440, 44
-0.991164, 433, 161, 496, 192
-0.991182, 401, 105, 464, 136
-0.991183, 121, 285, 184, 316
-0.991198, 401, 65, 464, 96
-0.991224, 417, 89, 480, 120
-0.991235, 145, 129, 208, 256
-0.991246, 57, 165, 120, 196
-0.991288, 169, 153, 232, 216
-0.991302, 73, 61, 136, 92
-0.991312, 385, 1, 416, 128
-0.991314, 17, 1, 80, 333
-0.991314, 241, 217, 304, 248
-0.991315, 177, 229, 240, 260
-0.991325, 385, 213, 448, 244
-0.991329, 281, 249, 344, 280
-0.991364, 225, 217, 480, 280
-0.991378, 337, 1, 400, 32
-0.991384, 129, 181, 192, 212
-0.991386, 89, 281, 152, 312
-0.991399, 81, 17, 112, 144
-0.991401, 209, 57, 272, 88
-0.991409, 241, 201, 304, 232
-0.991416, 329, 169, 392, 200
-0.991426, 137, 65, 200, 96
-0.991432, 329, 93, 392, 124
-0.991442, 305, 181, 368, 212
-0.991444, 401, 149, 464, 180
-0.991448, 1, 201, 500, 264
-0.991452, 145, 265, 272, 328
-0.991457, 89, 145, 152, 176
-0.991458, 405, 145, 436, 272
-0.991521, 49, 197, 112, 228
-0.991554, 225, 193, 480, 256
-0.991646, 393, 145, 424, 272
-0.991663, 97, 233, 352, 296
-0.991677, 229, 145, 260, 272
-0.991783, 225, 169, 480, 232
-0.991873, 333, 145, 364, 272
-0.991881, 1, 49, 64, 176
-0.991963, 257, 33, 500, 96
-0.991987, 265, 41, 296, 72
-0.991997, 1, 241, 500, 304
-0.992116, 105, 57, 136, 88
-0.992178, 313, 33, 344, 64
-0.992188, 193, 45, 320, 76
-0.992201, 117, 57, 148, 88
-0.992209, 149, 53, 180, 84
-0.992215, 181, 49, 212, 80
-0.992239, 333, 25, 364, 56
-0.99225, 425, 25, 456, 56
-0.992252, 107, 57, 122, 120
-0.992287, 221, 45, 252, 76
-0.992291, 161, 53, 192, 84
-0.992294, 233, 45, 264, 76
-0.992296, 405, 181, 436, 212
-0.992302, 193, 49, 224, 80
-0.992317, 129, 57, 160, 88
-0.992322, 301, 113, 332, 240
-0.992375, 37, 161, 68, 288
-0.99241, 269, 157, 300, 188
-0.99244, 409, 25, 440, 56
-0.992448, 205, 49, 236, 80
-0.992455, 313, 45, 344, 76
-0.992479, 269, 117, 300, 148
-0.992505, 265, 233, 296, 264
-0.992511, 297, 229, 328, 260
-0.992511, 345, 29, 376, 60
-0.992514, 269, 129, 300, 160
-0.99252, 269, 105, 300, 136
-0.99252, 269, 145, 300, 176
-0.992521, 281, 281, 312, 312
-0.992527, 89, 173, 120, 204
-0.992531, 93, 125, 124, 156
-0.992544, 245, 45, 276, 76
-0.992555, 417, 201, 448, 232
-0.992565, 373, 25, 404, 56
-0.992575, 321, 25, 448, 56
-0.992576, 393, 21, 424, 52
-0.992579, 117, 69, 148, 100
-0.99259, 357, 289, 388, 320
-0.992595, 97, 85, 128, 116
-0.992601, 269, 169, 300, 200
-0.992601, 417, 181, 448, 212
-0.992608, 229, 237, 260, 268
-0.992624, 253, 233, 284, 264
-0.992628, 97, 109, 128, 140
-0.992636, 369, 289, 400, 320
-0.992637, 361, 25, 392, 56
-0.992638, 269, 89, 300, 120
-0.992642, 269, 281, 300, 312
-0.992644, 429, 37, 460, 68
-0.99265, 13, 277, 44, 308
-0.992674, 101, 73, 132, 104
-0.992675, 317, 217, 348, 248
-0.992679, 97, 97, 128, 128
-0.992695, 317, 165, 348, 196
-0.992696, 93, 137, 124, 168
-0.992699, 93, 149, 124, 180
-0.992701, 401, 193, 432, 224
-0.992707, 393, 257, 424, 288
-0.99271, 269, 77, 300, 108
-0.992722, 89, 161, 120, 192
-0.992723, 277, 233, 308, 264
-0.992735, 1, 277, 32, 308
-0.992743, 269, 65, 300, 96
-0.992748, 129, 1, 160, 128
-0.992761, 345, 289, 376, 320
-0.992762, 405, 257, 436, 288
-0.992787, 25, 277, 56, 308
-0.992789, 57, 241, 88, 272
-0.992795, 265, 213, 296, 244
-0.992798, 169, 181, 200, 212
-0.992799, 317, 21, 348, 52
-0.992806, 45, 241, 76, 272
-0.992806, 381, 165, 412, 196
-0.992809, 317, 189, 348, 220
-0.992812, 449, 149, 480, 180
-0.992818, 313, 57, 344, 88
-0.992821, 269, 53, 300, 84
-0.992824, 317, 177, 348, 208
-0.992825, 317, 137, 348, 168
-0.992828, 373, 301, 404, 332
-0.992832, 453, 213, 484, 244
-0.992841, 33, 241, 64, 272
-0.992851, 77, 241, 108, 272
-0.992855, 381, 13, 412, 44
-0.992857, 257, 289, 288, 320
-0.99286, 317, 153, 348, 184
-0.992867, 465, 213, 496, 244
-0.992883, 137, 237, 168, 268
-0.99289, 437, 201, 468, 232
-0.992891, 21, 245, 52, 276
-0.992892, 289, 165, 320, 196
-0.992894, 429, 181, 460, 212
-0.992901, 217, 237, 248, 268
-0.992901, 181, 181, 212, 212
-0.992907, 169, 241, 200, 272
-0.992909, 429, 49, 460, 80
-0.992916, 313, 69, 344, 100
-0.99292, 85, 281, 116, 312
-0.99292, 1, 253, 32, 284
-0.992923, 157, 241, 188, 272
-0.992926, 293, 273, 324, 304
-0.99293, 345, 17, 376, 48
-0.992931, 285, 85, 316, 116
-0.992931, 433, 109, 464, 140
-0.992935, 89, 241, 120, 272
-0.992937, 245, 213, 276, 244
-0.99294, 285, 69, 316, 100
-0.992942, 417, 257, 448, 288
-0.992943, 285, 53, 316, 84
-0.992944, 37, 277, 68, 308
-0.992949, 241, 233, 272, 264
-0.99295, 281, 253, 312, 284
-0.992953, 73, 281, 104, 312
-0.992963, 285, 117, 316, 148
-0.992963, 429, 65, 460, 96
-0.992966, 433, 137, 464, 168
-0.992967, 317, 201, 348, 232
-0.992969, 249, 57, 280, 88
-0.992969, 169, 285, 200, 316
-0.99297, 125, 237, 156, 268
-0.992978, 93, 61, 124, 92
-0.992979, 449, 161, 480, 192
-0.992979, 385, 177, 416, 208
-0.992979, 433, 149, 464, 180
-0.992982, 65, 161, 96, 288
-0.992982, 109, 241, 140, 272
-0.992982, 25, 1, 88, 128
-0.992984, 193, 233, 224, 264
-0.992986, 369, 165, 400, 196
-0.992986, 145, 65, 272, 192
-0.992988, 433, 125, 464, 156
-0.992989, 317, 85, 348, 116
-0.992992, 333, 41, 364, 72
-0.992994, 433, 97, 464, 128
-0.992995, 317, 125, 348, 156
-0.992995, 285, 101, 316, 132
-0.992997, 81, 109, 112, 140
-0.992998, 433, 169, 464, 200
-0.993196, 9, 65, 72, 320
-0.993203, 157, 17, 188, 144
-0.99326, 225, 241, 480, 304
-0.99348, 241, 41, 368, 72
-0.993484, 413, 65, 444, 192
-0.993492, 257, 113, 500, 176
-0.993499, 145, 49, 272, 80
-0.993539, 1, 177, 500, 240
-0.993702, 319, 33, 334, 96
-0.993767, 279, 209, 294, 272
-0.993811, 49, 161, 80, 288
-0.993846, 209, 57, 336, 88
-0.993861, 97, 53, 224, 84
-0.993893, 257, 73, 500, 136
-0.993901, 241, 137, 368, 168
-0.993912, 147, 49, 162, 112
-0.993968, 241, 85, 368, 116
-0.993985, 257, 277, 384, 308
-0.994006, 421, 177, 436, 240
-0.994019, 241, 161, 368, 192
-0.994038, 33, 33, 288, 96
-0.994097, 157, 49, 172, 112
-0.994177, 113, 153, 240, 216
-0.994179, 217, 41, 232, 104
-0.994179, 233, 41, 248, 104
-0.994207, 227, 41, 242, 104
-0.994217, 273, 289, 400, 320
-0.994222, 163, 49, 178, 112
-0.994254, 65, 185, 192, 216
-0.994262, 321, 301, 448, 332
-0.994279, 241, 149, 368, 180
-0.994292, 243, 41, 258, 104
-0.994309, 333, 17, 348, 80
-0.994313, 279, 41, 294, 104
-0.994315, 33, 153, 288, 216
-0.994326, 383, 161, 398, 224
-0.994365, 249, 41, 264, 104
-0.9944, 257, 53, 384, 84
-0.994404, 17, 241, 144, 272
-0.994404, 177, 181, 304, 212
-0.994433, 289, 37, 416, 68
-0.994444, 141, 49, 156, 112
-0.994446, 169, 49, 184, 112
-0.994455, 273, 173, 400, 204
-0.994479, 97, 89, 352, 152
-0.994498, 225, 229, 352, 260
-0.994521, 97, 121, 352, 184
-0.994534, 273, 73, 400, 104
-0.994558, 1, 265, 256, 328
-0.99459, 95, 217, 110, 280
-0.994659, 241, 109, 368, 140
-0.994673, 321, 181, 448, 212
-0.99468, 193, 145, 448, 208
-0.994681, 243, 209, 258, 272
-0.994683, 353, 1, 416, 256
-0.994709, 241, 121, 368, 152
-0.99472, 161, 273, 416, 333
-0.99476, 353, 197, 480, 228
-0.994783, 255, 41, 270, 104
-0.994797, 131, 217, 146, 280
-0.994855, 193, 285, 320, 316
-0.994857, 105, 217, 120, 280
-0.994875, 211, 41, 226, 104
-0.994881, 141, 217, 156, 280
-0.994903, 369, 25, 496, 56
-0.994903, 115, 217, 130, 280
-0.994907, 161, 17, 416, 80
-0.994912, 253, 209, 268, 272
-0.994922, 161, 61, 288, 92
-0.994935, 265, 1, 296, 256
-0.994945, 261, 33, 276, 96
-0.994969, 209, 201, 336, 232
-0.994972, 237, 209, 252, 272
-0.994973, 1, 281, 128, 312
-0.994984, 153, 209, 168, 272
-0.994987, 267, 201, 282, 264
-0.995015, 147, 209, 162, 272
-0.995018, 273, 209, 288, 272
-0.995019, 175, 41, 190, 104
-0.995029, 435, 25, 450, 88
-0.995035, 231, 209, 246, 272
-0.995053, 81, 65, 208, 96
-0.99507, 123, 217, 138, 280
-0.995087, 161, 65, 416, 128
-0.995105, 35, 241, 50, 304
-0.995108, 341, 17, 356, 80
-0.995114, 33, 9, 160, 72
-0.99515, 195, 209, 210, 272
-0.995155, 167, 209, 182, 272
-0.995166, 1, 257, 16, 320
-0.995167, 333, 97, 364, 224
-0.99517, 273, 41, 288, 104
-0.995171, 289, 89, 416, 120
-0.995171, 369, 181, 496, 212
-0.995188, 203, 209, 218, 272
-0.995212, 325, 33, 340, 96
-0.995219, 9, 97, 72, 224
-0.995233, 261, 209, 276, 272
-0.995234, 257, 193, 384, 224
-0.995237, 159, 209, 174, 272
-0.995265, 141, 145, 172, 272
-0.99529, 325, 9, 340, 72
-0.99532, 67, 241, 82, 304
-0.995339, 353, 61, 480, 92
-0.995344, 313, 225, 328, 288
-0.995345, 1, 1, 64, 128
-0.99535, 209, 213, 336, 244
-0.995355, 241, 97, 368, 128
-0.995367, 321, 13, 448, 44
-0.995387, 223, 209, 238, 272
-0.995388, 241, 25, 368, 56
-0.99539, 295, 233, 310, 296
-0.995391, 209, 209, 224, 272
-0.995391, 183, 177, 198, 240
-0.995408, 75, 241, 90, 304
-0.995412, 19, 249, 34, 312
-0.995417, 353, 269, 480, 300
-0.995417, 201, 177, 216, 240
-0.99542, 89, 209, 104, 272
-0.995437, 49, 285, 176, 316
-0.995453, 429, 185, 444, 248
-0.995461, 465, 65, 496, 192
-0.995463, 347, 17, 362, 80
-0.995467, 189, 177, 204, 240
-0.995467, 7, 257, 22, 320
-0.995485, 181, 41, 196, 104
-0.995487, 13, 249, 28, 312
-0.995488, 431, 233, 446, 296
-0.995506, 415, 177, 430, 240
-0.995517, 273, 301, 400, 332
-0.995522, 103, 89, 118, 152
-0.995528, 195, 177, 210, 240
-0.995541, 457, 209, 472, 272
-0.995572, 43, 241, 58, 304
-0.99558, 165, 241, 180, 304
-0.995589, 353, 165, 480, 196
-0.995597, 203, 241, 218, 304
-0.995604, 289, 233, 304, 296
-0.995608, 173, 209, 188, 272
-0.995631, 175, 177, 190, 240
-0.995633, 289, 261, 416, 292
-0.995633, 119, 49, 134, 112
-0.995648, 59, 241, 74, 304
-0.995654, 341, 233, 356, 296
-0.995657, 81, 241, 96, 304
-0.995662, 171, 241, 186, 304
-0.995662, 301, 225, 316, 288
-0.995675, 177, 237, 304, 268
-0.995681, 169, 25, 184, 88
-0.995681, 235, 177, 250, 240
-0.995681, 53, 241, 68, 304
-0.995682, 195, 241, 210, 304
-0.995689, 211, 177, 226, 240
-0.995691, 321, 137, 448, 168
-0.995694, 257, 177, 272, 240
-0.995696, 231, 17, 246, 80
-0.995705, 357, 17, 372, 80
-0.995705, 289, 113, 304, 176
-0.995713, 25, 249, 40, 312
-0.995718, 113, 285, 240, 316
-0.995723, 101, 113, 116, 176
-0.995727, 137, 49, 168, 176
-0.995732, 1, 65, 500, 128
-0.995744, 187, 41, 202, 104
-0.995752, 139, 185, 154, 248
-0.995761, 167, 177, 182, 240
-0.995762, 221, 177, 236, 240
-0.995767, 253, 17, 268, 80
-0.99577, 263, 177, 278, 240
-0.995777, 353, 89, 480, 120
-0.995782, 89, 241, 104, 304
-0.995786, 337, 289, 464, 320
-0.995788, 225, 297, 352, 328
-0.995795, 107, 241, 122, 304
-0.995808, 149, 25, 164, 88
-0.995829, 81, 241, 208, 272
-0.99584, 251, 177, 266, 240
-0.995854, 97, 65, 128, 320
-0.995857, 145, 185, 160, 248
-0.995866, 135, 49, 150, 112
-0.995869, 363, 17, 378, 80
-0.995869, 163, 25, 178, 88
-0.995873, 245, 177, 260, 240
-0.995877, 209, 73, 336, 104
-0.995878, 483, 185, 498, 248
-0.995879, 133, 185, 148, 248
-0.995888, 321, 221, 448, 252
-0.995909, 219, 17, 234, 80
-0.995911, 149, 241, 164, 304
-0.995915, 161, 177, 176, 240
-0.995919, 1, 153, 500, 216
-0.995921, 407, 233, 422, 296
-0.995921, 65, 173, 192, 204
-0.995929, 289, 161, 416, 192
-0.995931, 229, 177, 244, 240
-0.995939, 141, 241, 156, 304
-0.99594, 273, 229, 400, 260
-0.995946, 181, 209, 196, 272
-0.995947, 307, 225, 322, 288
-0.995958, 243, 17, 258, 80
-0.995958, 209, 241, 224, 304
-0.99596, 313, 185, 328, 248
-0.995961, 109, 185, 124, 248
-0.995963, 129, 241, 144, 304
-0.995967, 421, 233, 436, 296
-0.995968, 285, 193, 300, 256
-0.99597, 321, 149, 448, 180
-0.995982, 225, 17, 240, 80
-0.995988, 157, 25, 172, 88
-0.995991, 193, 41, 208, 104
-0.995994, 1, 273, 500, 333
-0.995994, 387, 265, 402, 328
-0.996009, 237, 17, 252, 80
-0.99601, 189, 209, 204, 272
-0.996013, 337, 257, 464, 288
-0.996013, 441, 25, 456, 88
-0.996046, 65, 1, 320, 64
-0.996094, 1, 17, 500, 80
-0.996142, 177, 33, 304, 64
-0.996159, 433, 1, 464, 256
-0.996177, 317, 1, 348, 256
-0.996184, 353, 77, 480, 108
-0.996194, 353, 37, 480, 68
-0.996203, 1, 121, 500, 184
-0.996214, 33, 61, 160, 92
-0.996269, 369, 301, 496, 332
-0.996281, 129, 241, 256, 272
-0.996286, 321, 241, 448, 272
-0.996295, 1, 269, 128, 300
-0.996349, 129, 145, 160, 272
-0.996357, 353, 49, 480, 80
-0.996376, 1, 197, 128, 228
-0.9964, 169, 65, 232, 192
-0.996407, 257, 213, 384, 244
-0.996421, 289, 125, 416, 156
-0.996423, 81, 197, 208, 228
-0.99645, 225, 177, 352, 208
-0.996479, 273, 241, 400, 272
-0.996492, 153, 145, 184, 272
-0.996511, 193, 165, 320, 196
-0.996549, 17, 109, 144, 140
-0.996616, 289, 1, 416, 32
-0.99662, 17, 169, 144, 200
-0.996639, 49, 273, 176, 304
-0.996654, 353, 121, 480, 152
-0.99667, 193, 85, 320, 116
-0.996688, 129, 181, 256, 212
-0.996689, 289, 105, 416, 136
-0.996696, 193, 97, 320, 128
-0.996725, 193, 273, 320, 304
-0.996726, 369, 153, 496, 184
-0.996751, 353, 109, 480, 140
-0.996762, 253, 65, 284, 320
-0.996765, 65, 161, 192, 192
-0.996796, 129, 201, 256, 232
-0.996798, 423, 181, 438, 212
-0.996805, 145, 225, 272, 256
-0.996821, 285, 65, 316, 320
-0.996857, 17, 121, 144, 152
-0.99686, 209, 129, 240, 256
-0.996878, 107, 61, 122, 92
-0.996901, 433, 25, 448, 56
-0.996917, 1, 81, 256, 144
-0.996945, 417, 181, 432, 212
-0.996957, 127, 57, 142, 88
-0.996988, 165, 145, 196, 272
-0.996991, 163, 53, 178, 84
-0.997005, 145, 213, 272, 244
-0.997011, 193, 117, 320, 148
-0.997013, 369, 141, 496, 172
-0.997027, 169, 53, 184, 84
-0.997027, 133, 57, 148, 88
-0.99703, 247, 45, 262, 76
-0.997031, 257, 9, 500, 72
-0.997037, 207, 49, 222, 80
-0.997043, 97, 273, 224, 304
-0.997052, 189, 145, 220, 272
-0.997058, 157, 53, 172, 84
-0.997074, 369, 209, 496, 240
-0.997088, 119, 57, 134, 88
-0.997091, 1, 97, 500, 160
-0.997103, 239, 45, 254, 76
-0.997119, 383, 165, 398, 196
-0.997135, 193, 129, 320, 160
-0.997139, 65, 141, 192, 172
-0.997146, 305, 61, 432, 92
-0.997148, 139, 57, 154, 88
-0.997159, 197, 49, 212, 80
-0.997171, 175, 53, 190, 84
-0.997175, 397, 1, 428, 128
-0.997175, 151, 53, 166, 84
-0.997175, 405, 181, 420, 212
-0.997177, 193, 145, 320, 176
-0.997181, 213, 49, 228, 80
-0.997197, 319, 33, 334, 64
-0.997205, 65, 113, 192, 144
-0.997205, 189, 49, 204, 80
-0.997229, 369, 225, 496, 256
-0.997237, 277, 41, 292, 72
-0.997243, 233, 45, 248, 76
-0.997249, 65, 1, 192, 32
-0.997263, 65, 129, 192, 160
-0.997271, 65, 229, 192, 260
-0.997275, 423, 25, 438, 56
-0.997282, 341, 29, 356, 60
-0.997291, 253, 45, 268, 76
-0.997297, 1, 181, 128, 212
-0.997302, 183, 49, 198, 80
-0.997312, 17, 133, 144, 164
-0.99732, 333, 29, 348, 60
-0.99732, 325, 33, 340, 64
-0.997337, 227, 45, 242, 76
-0.997351, 369, 5, 496, 36
-0.997381, 109, 65, 140, 320
-0.997383, 85, 65, 116, 320
-0.997398, 347, 29, 362, 60
-0.997427, 221, 45, 236, 76
-0.997431, 145, 53, 160, 84
-0.997445, 373, 289, 388, 320
-0.997451, 439, 25, 454, 56
-0.997452, 289, 233, 304, 264
-0.997453, 267, 233, 282, 264
-0.997461, 261, 41, 276, 72
-0.997481, 193, 249, 320, 280
-0.997519, 407, 21, 422, 52
-0.997526, 261, 233, 276, 264
-0.997534, 389, 25, 404, 56
-0.997538, 231, 237, 246, 268
-0.997539, 399, 21, 414, 52
-0.997541, 65, 209, 192, 240
-0.997561, 1, 277, 16, 308
-0.997562, 287, 277, 302, 308
-0.997579, 97, 41, 224, 72
-0.997587, 177, 297, 304, 328
-0.997587, 355, 29, 370, 60
-0.997588, 113, 57, 128, 88
-0.997599, 17, 145, 144, 176
-0.997612, 321, 209, 448, 240
-0.997617, 305, 193, 432, 224
-0.997624, 273, 13, 400, 44
-0.997626, 383, 25, 398, 56
-0.997629, 409, 257, 424, 288
-0.997641, 413, 21, 428, 52
-0.997642, 119, 69, 134, 100
-0.997644, 271, 41, 286, 72
-0.997645, 301, 229, 316, 260
-0.997646, 429, 181, 444, 212
-0.997654, 367, 285, 382, 316
-0.99766, 283, 233, 298, 264
-0.997676, 295, 269, 310, 300
-0.997679, 45, 241, 60, 272
-0.99768, 297, 65, 328, 320
-0.997689, 423, 201, 438, 232
-0.997689, 335, 17, 350, 48
-0.997695, 33, 73, 160, 104
-0.997699, 377, 25, 392, 56
-0.997705, 225, 1, 256, 256
-0.997716, 389, 13, 404, 44
-0.997719, 113, 1, 240, 32
-0.997719, 273, 285, 288, 316
-0.997722, 241, 257, 368, 288
-0.997737, 353, 161, 384, 288
-0.997757, 27, 277, 42, 308
-0.99776, 361, 25, 376, 56
-0.997776, 141, 237, 156, 268
-0.99778, 25, 49, 56, 176
-0.997788, 367, 25, 382, 56
-0.997792, 251, 233, 266, 264
-0.997794, 241, 1, 272, 256
-0.997801, 275, 233, 290, 264
-0.997803, 75, 241, 90, 272
-0.99781, 7, 277, 22, 308
-0.997814, 17, 229, 144, 260
-0.997815, 379, 289, 394, 320
-0.997818, 293, 281, 308, 312
-0.997821, 17, 157, 144, 188
-0.997834, 413, 197, 428, 228
-0.997836, 13, 277, 28, 308
-0.997842, 271, 217, 286, 248
-0.997845, 281, 281, 296, 312
-0.997847, 295, 229, 310, 260
-0.997847, 63, 241, 78, 272
-0.997847, 183, 181, 198, 212
-0.997855, 411, 181, 426, 212
-0.997871, 457, 213, 472, 244
-0.997871, 343, 17, 358, 48
-0.997873, 403, 257, 418, 288
-0.997876, 189, 181, 204, 212
-0.997882, 11, 253, 26, 284
-0.997896, 19, 277, 34, 308
-0.9979, 81, 241, 96, 272
-0.997902, 57, 241, 72, 272
-0.997903, 261, 213, 276, 244
-0.997906, 33, 277, 48, 308
-0.99791, 1, 257, 16, 288
-0.99791, 391, 257, 406, 288
-0.997914, 93, 241, 108, 272
-0.997925, 35, 245, 50, 276
-0.997932, 277, 213, 292, 244
-0.997934, 327, 21, 342, 52
-0.997955, 145, 273, 272, 304
-0.997962, 87, 241, 102, 272
-0.997964, 361, 289, 376, 320
-0.997964, 171, 181, 186, 212
-0.997967, 17, 209, 144, 240
-0.997972, 105, 241, 120, 272
-0.997984, 195, 181, 210, 212
-0.997987, 267, 289, 282, 320
-0.997988, 485, 213, 500, 244
-0.997994, 367, 297, 382, 328
-0.997998, 473, 209, 488, 240
-0.997999, 307, 229, 322, 260
-0.998, 241, 233, 256, 264
-0.998001, 89, 281, 104, 312
-0.998003, 313, 229, 328, 260
-0.998005, 397, 257, 412, 288
-0.99801, 69, 241, 84, 272
-0.998018, 415, 257, 430, 288
-0.99802, 429, 193, 444, 224
-0.998033, 17, 49, 144, 80
-0.998035, 381, 301, 396, 332
-0.99804, 423, 257, 438, 288
-0.998044, 203, 233, 218, 264
-0.998046, 1, 105, 256, 168
-0.998049, 193, 65, 256, 192
-0.998069, 117, 145, 148, 272
-0.998069, 395, 5, 410, 36
-0.998071, 333, 41, 348, 72
-0.998071, 289, 161, 304, 192
-0.998081, 29, 245, 44, 276
-0.998081, 349, 17, 364, 48
-0.998083, 183, 285, 198, 316
-0.998085, 51, 241, 66, 272
-0.998091, 17, 97, 144, 128
-0.998094, 95, 281, 110, 312
-0.998095, 17, 1, 144, 32
-0.998098, 369, 245, 496, 276
-0.9981, 289, 117, 304, 148
-0.998104, 225, 237, 240, 268
-0.998106, 83, 281, 98, 312
-0.998108, 65, 101, 192, 132
-0.998108, 417, 1, 448, 256
-0.998108, 463, 213, 478, 244
-0.99813, 449, 1, 480, 256
-0.998156, 225, 13, 352, 44
-0.998269, 305, 49, 432, 80
-0.998291, 129, 297, 256, 328
-0.998299, 113, 97, 176, 224
-0.998301, 69, 65, 100, 320
-0.99835, 105, 49, 120, 176
-0.998376, 213, 33, 244, 288
-0.998389, 393, 27, 456, 42
-0.9984, 273, 57, 336, 72
-0.998412, 273, 75, 336, 90
-0.998414, 241, 45, 304, 60
-0.99842, 273, 105, 336, 120
-0.998423, 273, 87, 336, 102
-0.998424, 273, 65, 336, 80
-0.998425, 273, 41, 336, 56
-0.998428, 273, 111, 336, 126
-0.99843, 273, 93, 336, 108
-0.998432, 449, 153, 480, 168
-0.998434, 89, 287, 120, 302
-0.998434, 429, 183, 460, 198
-0.998434, 273, 99, 336, 114
-0.998435, 141, 243, 172, 258
-0.998436, 317, 175, 348, 190
-0.998436, 273, 81, 336, 96
-0.998437, 273, 171, 336, 186
-0.998437, 333, 25, 364, 40
-0.998437, 225, 293, 256, 308
-0.998438, 393, 163, 424, 178
-0.998439, 317, 139, 348, 154
-0.998439, 429, 41, 460, 56
-0.998439, 273, 51, 336, 66
-0.998439, 429, 67, 460, 82
-0.99844, 285, 145, 316, 160
-0.99844, 433, 155, 464, 170
-0.99844, 317, 229, 348, 244
-0.998441, 285, 169, 316, 184
-0.998441, 333, 1, 364, 256
-0.998441, 189, 291, 220, 306
-0.998442, 313, 261, 344, 276
-0.998443, 433, 143, 464, 158
-0.998443, 437, 209, 468, 224
-0.998444, 317, 165, 348, 180
-0.998445, 421, 195, 452, 210
-0.998445, 93, 157, 124, 172
-0.998446, 317, 189, 348, 204
-0.998446, 273, 129, 336, 144
-0.998446, 273, 153, 336, 168
-0.998446, 1, 255, 32, 270
-0.998447, 241, 237, 272, 252
-0.998447, 241, 59, 304, 74
-0.998447, 117, 59, 148, 74
-0.998447, 61, 285, 92, 300
-0.998448, 273, 135, 336, 150
-0.998448, 1, 281, 32, 296
-0.998449, 317, 197, 348, 212
-0.99845, 317, 223, 348, 238
-0.998451, 313, 75, 344, 90
-0.998451, 273, 145, 336, 160
-0.998452, 133, 289, 164, 304
-0.998453, 453, 213, 484, 228
-0.998453, 317, 181, 348, 196
-0.998453, 237, 293, 268, 308
-0.998454, 169, 53, 200, 68
-0.998455, 401, 261, 432, 276
-0.998455, 265, 163, 328, 178
-0.998456, 273, 185, 336, 200
-0.998456, 253, 293, 284, 308
-0.998457, 13, 251, 44, 266
-0.998457, 409, 195, 472, 210
-0.998458, 313, 63, 344, 78
-0.998458, 93, 165, 124, 180
-0.998458, 45, 243, 76, 258
-0.998458, 385, 261, 448, 276
-0.998459, 393, 89, 424, 104
-0.998459, 317, 207, 348, 222
-0.998459, 393, 63, 424, 78
-0.998462, 41, 283, 72, 298
-0.998463, 273, 177, 336, 192
-0.998463, 449, 159, 480, 174
-0.998464, 261, 235, 292, 250
-0.998464, 193, 243, 224, 258
-0.998465, 13, 279, 44, 294
-0.998465, 97, 61, 160, 76
-0.998466, 57, 243, 88, 258
-0.998466, 313, 301, 376, 316
-0.998467, 453, 205, 484, 220
-0.998467, 273, 117, 336, 132
-0.998468, 241, 179, 304, 194
-0.998469, 93, 151, 124, 166
-0.99847, 273, 197, 336, 212
-0.99847, 273, 123, 336, 138
-0.998471, 301, 231, 332, 246
-0.998471, 249, 59, 280, 74
-0.998472, 93, 123, 124, 138
-0.998472, 317, 299, 348, 314
-0.998472, 329, 31, 392, 46
-0.998472, 381, 89, 412, 104
-0.998473, 273, 191, 336, 206
-0.998474, 305, 65, 368, 80
-0.998476, 353, 303, 416, 318
-0.998476, 241, 291, 304, 306
-0.998478, 313, 57, 344, 72
-0.998478, 117, 71, 148, 86
-0.998478, 373, 27, 404, 42
-0.998478, 269, 57, 300, 72
-0.998479, 97, 115, 128, 130
-0.99848, 313, 69, 344, 84
-0.998481, 269, 67, 300, 82
-0.998482, 329, 299, 360, 314
-0.998482, 101, 81, 132, 96
-0.998482, 297, 297, 328, 312
-0.998482, 369, 27, 432, 42
-0.998483, 285, 297, 316, 312
-0.998483, 377, 167, 408, 182
-0.998486, 361, 63, 424, 78
-0.998487, 305, 33, 368, 48
-0.998488, 269, 85, 300, 100
-0.998488, 97, 109, 128, 124
-0.998489, 273, 203, 336, 218
-0.99849, 269, 73, 300, 88
-0.99849, 365, 63, 396, 78
-0.998493, 305, 87, 368, 102
-0.998493, 377, 91, 440, 106
-0.998494, 25, 283, 56, 298
-0.998494, 129, 241, 160, 256
-0.998494, 9, 281, 72, 296
-0.998495, 269, 79, 300, 94
-0.998495, 97, 89, 128, 104
-0.998496, 269, 91, 300, 106
-0.998496, 313, 51, 344, 66
-0.998497, 89, 73, 152, 88
-0.998498, 265, 297, 328, 312
-0.998498, 97, 95, 128, 110
-0.998499, 305, 39, 368, 54
-0.998499, 269, 177, 300, 192
-0.9985, 89, 171, 120, 186
-0.9985, 413, 185, 444, 200
-0.998501, 9, 317, 40, 332
-0.998501, 305, 95, 368, 110
-0.998501, 33, 243, 64, 258
-0.998502, 433, 213, 496, 228
-0.998503, 97, 101, 128, 116
-0.998503, 305, 59, 368, 74
-0.998504, 353, 295, 384, 310
-0.998505, 469, 213, 500, 228
-0.998506, 101, 67, 132, 82
-0.998506, 401, 85, 464, 100
-0.998507, 297, 263, 360, 278
-0.998508, 93, 129, 124, 144
-0.998508, 269, 97, 300, 112
-0.998509, 81, 181, 144, 196
-0.99851, 269, 165, 300, 180
-0.99851, 397, 27, 428, 42
-0.998511, 329, 259, 392, 274
-0.998512, 93, 141, 124, 156
-0.998512, 269, 107, 300, 122
-0.998513, 401, 61, 464, 76
-0.998514, 345, 93, 408, 108
-0.998514, 217, 237, 280, 252
-0.998514, 393, 185, 456, 200
-0.998515, 241, 173, 304, 188
-0.998515, 269, 153, 300, 168
-0.998516, 269, 117, 300, 132
-0.998518, 101, 75, 132, 90
-0.998518, 305, 145, 368, 160
-0.998518, 385, 27, 416, 42
-0.998518, 265, 291, 296, 306
-0.998519, 41, 283, 104, 298
-0.998522, 81, 187, 144, 202
-0.998523, 269, 145, 300, 160
-0.998523, 305, 165, 368, 180
-0.998523, 229, 239, 260, 254
-0.998523, 365, 91, 396, 106
-0.998524, 289, 229, 352, 244
-0.998524, 217, 59, 280, 74
-0.998527, 249, 235, 312, 250
-0.998528, 369, 303, 400, 318
-0.998529, 185, 243, 248, 258
-0.998529, 269, 123, 300, 138
-0.99853, 33, 245, 96, 260
-0.99853, 361, 29, 392, 44
-0.998531, 269, 131, 300, 146
-0.998532, 65, 111, 128, 126
-0.998532, 353, 91, 384, 106
-0.998533, 401, 33, 464, 48
-0.998533, 81, 285, 144, 300
-0.998533, 345, 31, 376, 46
-0.998534, 273, 209, 336, 224
-0.998534, 329, 67, 392, 82
-0.998534, 57, 243, 120, 258
-0.998535, 305, 159, 368, 174
-0.998535, 429, 35, 460, 50
-0.998535, 305, 121, 368, 136
-0.998536, 377, 63, 408, 78
-0.998536, 349, 65, 380, 80
-0.998537, 305, 45, 368, 60
-0.998537, 93, 135, 124, 150
-0.998539, 121, 287, 184, 302
-0.99854, 269, 171, 300, 186
-0.99854, 337, 295, 400, 310
-0.998541, 73, 99, 136, 114
-0.998542, 269, 137, 300, 152
-0.998543, 409, 157, 472, 172
-0.998543, 305, 221, 368, 236
-0.998544, 409, 311, 472, 326
-0.998545, 241, 159, 304, 174
-0.998545, 305, 153, 368, 168
-0.998547, 89, 91, 152, 106
-0.998547, 393, 163, 456, 178
-0.998548, 305, 215, 368, 230
-0.998549, 121, 57, 184, 72
-0.99855, 389, 261, 420, 276
-0.998551, 409, 179, 472, 194
-0.998551, 65, 155, 128, 170
-0.998551, 89, 79, 152, 94
-0.998552, 73, 105, 136, 120
-0.998552, 89, 181, 120, 196
-0.998553, 289, 299, 352, 314
-0.998554, 161, 53, 224, 68
-0.998554, 333, 31, 364, 46
-0.998555, 409, 193, 440, 208
-0.998555, 401, 121, 464, 136
-0.998555, 305, 137, 368, 152
-0.998558, 241, 85, 304, 100
-0.998558, 241, 99, 304, 114
-0.998558, 241, 117, 304, 132
-0.998559, 241, 73, 304, 88
-0.998559, 169, 289, 232, 304
-0.998559, 349, 301, 380, 316
-0.998559, 417, 189, 480, 204
-0.998559, 241, 143, 304, 158
-0.99856, 269, 159, 300, 174
-0.99856, 401, 91, 464, 106
-0.998561, 185, 49, 248, 64
-0.998562, 241, 135, 304, 150
-0.998562, 409, 207, 472, 222
-0.998562, 113, 71, 176, 86
-0.998563, 89, 85, 152, 100
-0.998564, 305, 71, 368, 86
-0.998565, 465, 65, 496, 320
-0.998565, 305, 101, 368, 116
-0.998565, 305, 171, 368, 186
-0.998566, 241, 107, 304, 122
-0.998566, 433, 163, 496, 178
-0.998567, 105, 243, 168, 258
-0.998568, 241, 93, 304, 108
-0.998568, 409, 27, 440, 42
-0.998569, 65, 117, 128, 132
-0.998569, 161, 243, 224, 258
-0.998569, 313, 45, 344, 60
-0.99857, 217, 293, 280, 308
-0.99857, 241, 79, 304, 94
-0.99857, 65, 163, 128, 178
-0.99857, 433, 111, 496, 126
-0.998571, 241, 53, 304, 68
-0.998571, 241, 67, 304, 82
-0.998571, 241, 151, 304, 166
-0.998572, 305, 127, 368, 142
-0.998573, 241, 123, 304, 138
-0.998573, 145, 291, 208, 306
-0.998574, 129, 243, 192, 258
-0.998575, 105, 61, 136, 76
-0.998576, 241, 165, 304, 180
-0.998577, 305, 207, 368, 222
-0.998583, 277, 291, 308, 306
-0.998586, 265, 43, 296, 58
-0.998594, 401, 187, 432, 202
-0.998594, 321, 17, 336, 144
-0.998611, 425, 29, 456, 44
-0.998656, 279, 193, 294, 320
-0.998668, 335, 1, 350, 128
-0.998674, 313, 37, 344, 52
-0.998729, 277, 33, 292, 160
-0.998797, 29, 1, 60, 128
-0.998799, 263, 161, 278, 288
-0.998822, 273, 193, 288, 320
-0.998834, 93, 193, 108, 320
-0.998847, 159, 193, 174, 320
-0.998851, 271, 33, 286, 160
-0.998855, 435, 17, 450, 144
-0.998871, 389, 1, 420, 256
-0.998882, 151, 193, 166, 320
-0.998891, 247, 177, 262, 304
-0.998895, 201, 177, 216, 304
-0.998909, 109, 161, 124, 288
-0.99891, 237, 193, 252, 320
-0.998914, 117, 33, 132, 160
-0.998922, 329, 1, 344, 128
-0.998926, 287, 161, 302, 288
-0.998932, 137, 65, 168, 320
-0.998937, 165, 193, 180, 320
-0.998942, 261, 17, 276, 144
-0.998944, 145, 193, 160, 320
-0.998947, 135, 193, 150, 320
-0.998948, 97, 113, 112, 240
-0.998949, 195, 177, 210, 304
-0.998955, 221, 177, 236, 304
-0.998957, 215, 177, 230, 304
-0.998958, 257, 161, 272, 288
-0.998977, 231, 177, 246, 304
-0.998981, 123, 193, 138, 320
-0.998983, 201, 33, 232, 288
-0.998992, 103, 161, 118, 288
-0.998996, 209, 177, 224, 304
-0.998998, 1, 129, 256, 192
-0.998999, 285, 209, 300, 333
-0.999002, 115, 193, 130, 320
-0.999003, 423, 177, 438, 304
-0.999004, 57, 65, 88, 320
-0.999009, 37, 65, 68, 320
-0.999016, 169, 33, 200, 288
-0.999017, 87, 193, 102, 320
-0.999024, 183, 177, 198, 304
-0.999026, 201, 17, 216, 144
-0.999027, 129, 193, 144, 320
-0.999052, 187, 17, 202, 144
-0.999055, 455, 209, 470, 333
-0.999063, 177, 177, 192, 304
-0.999082, 157, 65, 188, 320
-0.999086, 111, 113, 126, 240
-0.999091, 207, 17, 222, 144
-0.999096, 381, 113, 412, 240
-0.999101, 255, 17, 270, 144
-0.999104, 189, 177, 204, 304
-0.999106, 105, 209, 120, 333
-0.999108, 417, 177, 432, 304
-0.99911, 315, 193, 330, 320
-0.99911, 193, 17, 208, 144
-0.999115, 223, 17, 238, 144
-0.999123, 217, 17, 232, 144
-0.999123, 189, 33, 220, 288
-0.999124, 133, 1, 148, 128
-0.999131, 247, 17, 262, 144
-0.999134, 299, 209, 314, 333
-0.999138, 429, 177, 444, 304
-0.999138, 237, 17, 252, 144
-0.99914, 171, 193, 186, 320
-0.999141, 231, 17, 246, 144
-0.999143, 293, 209, 308, 333
-0.999145, 181, 17, 196, 144
-0.999145, 461, 209, 476, 333
-0.999153, 265, 209, 280, 333
-0.999156, 289, 49, 304, 176
-0.999162, 111, 33, 126, 160
-0.999167, 481, 209, 496, 333
-0.999171, 127, 33, 142, 160
-0.999171, 99, 209, 114, 333
-0.9992, 269, 145, 284, 272
-0.999201, 313, 145, 328, 272
-0.999203, 429, 129, 444, 256
-0.999209, 455, 145, 470, 272
-0.999209, 441, 17, 456, 144
-0.999216, 289, 113, 304, 240
-0.999218, 467, 209, 482, 333
-0.999221, 45, 209, 60, 333
-0.999221, 305, 209, 320, 333
-0.999224, 361, 1, 392, 256
-0.999227, 373, 209, 388, 333
-0.999228, 279, 145, 294, 272
-0.99926, 467, 145, 482, 272
-0.999266, 461, 145, 476, 272
-0.999272, 475, 209, 490, 333
-0.999273, 367, 209, 382, 333
-0.999289, 377, 1, 408, 256
-0.999289, 341, 1, 356, 128
-0.999292, 383, 193, 398, 320
-0.999294, 451, 1, 466, 128
-0.999294, 63, 209, 78, 333
-0.999296, 259, 209, 274, 333
-0.999298, 9, 193, 24, 320
-0.999302, 395, 209, 410, 333
-0.99931, 311, 1, 326, 128
-0.999319, 253, 209, 268, 333
-0.999326, 363, 1, 378, 128
-0.999332, 349, 1, 364, 128
-0.999334, 287, 1, 302, 128
-0.99934, 175, 17, 190, 144
-0.99934, 311, 65, 326, 192
-0.999342, 99, 65, 114, 192
-0.999344, 381, 145, 396, 272
-0.999346, 125, 65, 156, 320
-0.999348, 473, 161, 488, 288
-0.999348, 79, 209, 94, 333
-0.99935, 359, 209, 374, 333
-0.999365, 407, 177, 422, 304
-0.999367, 263, 65, 278, 192
-0.999367, 387, 1, 402, 128
-0.999379, 51, 177, 66, 304
-0.999381, 91, 145, 106, 272
-0.999383, 335, 49, 350, 176
-0.999384, 117, 81, 132, 208
-0.999386, 69, 209, 84, 333
-0.999393, 35, 193, 50, 320
-0.999394, 369, 1, 384, 128
-0.999408, 455, 81, 470, 208
-0.999414, 425, 17, 440, 144
-0.999415, 15, 193, 30, 320
-0.999418, 401, 209, 416, 333
-0.999423, 133, 49, 148, 176
-0.999426, 237, 145, 252, 272
-0.999429, 57, 209, 72, 333
-0.999432, 139, 1, 154, 128
-0.999436, 3, 193, 18, 320
-0.999438, 417, 129, 432, 256
-0.999439, 483, 145, 498, 272
-0.99944, 95, 17, 110, 144
-0.999442, 321, 177, 336, 304
-0.999446, 263, 113, 278, 240
-0.999447, 279, 97, 294, 224
-0.999448, 293, 161, 308, 288
-0.999449, 29, 193, 44, 320
-0.999457, 347, 209, 362, 333
-0.999511, 17, 65, 48, 320
-0.99961, 307, 231, 322, 246
-0.99961, 325, 261, 340, 276
-0.99961, 117, 287, 132, 302
-0.99961, 15, 281, 30, 296
-0.999611, 65, 243, 80, 258
-0.999611, 127, 243, 142, 258
-0.999611, 53, 245, 68, 260
-0.999612, 141, 289, 156, 304
-0.999613, 339, 299, 354, 314
-0.999613, 261, 293, 276, 308
-0.999613, 53, 283, 68, 298
-0.999614, 379, 303, 394, 318
-0.999614, 151, 289, 166, 304
-0.999615, 245, 293, 260, 308
-0.999615, 233, 293, 248, 308
-0.999615, 81, 243, 96, 258
-0.999615, 293, 233, 308, 248
-0.999616, 1, 279, 16, 294
-0.999616, 21, 281, 36, 296
-0.999616, 313, 297, 328, 312
-0.999616, 11, 255, 26, 270
-0.999617, 465, 213, 480, 228
-0.999617, 127, 289, 142, 304
-0.999617, 41, 283, 56, 298
-0.999617, 289, 115, 304, 130
-0.999617, 267, 227, 282, 242
-0.999618, 333, 27, 348, 42
-0.999618, 19, 253, 34, 268
-0.999618, 389, 89, 404, 104
-0.999618, 431, 197, 446, 212
-0.999619, 371, 295, 386, 310
-0.999621, 251, 293, 266, 308
-0.999621, 7, 279, 22, 294
-0.999621, 291, 277, 306, 292
-0.999622, 403, 261, 418, 276
-0.999622, 271, 235, 286, 250
-0.999623, 411, 185, 426, 200
-0.999623, 25, 251, 40, 266
-0.999624, 457, 215, 472, 230
-0.999626, 95, 243, 110, 258
-0.999626, 247, 237, 262, 252
-0.999626, 35, 283, 50, 298
-0.999627, 447, 309, 462, 324
-0.999627, 29, 283, 44, 298
-0.999629, 321, 299, 336, 314
-0.999629, 181, 53, 196, 68
-0.99963, 485, 215, 500, 230
-0.99963, 237, 239, 252, 254
-0.99963, 429, 185, 444, 200
-0.99963, 1, 259, 16, 274
-0.999631, 333, 299, 348, 314
-0.999632, 383, 91, 398, 106
-0.999633, 289, 165, 304, 180
-0.999633, 407, 89, 422, 104
-0.999634, 267, 293, 282, 308
-0.999634, 351, 293, 366, 308
-0.999634, 353, 91, 368, 106
-0.999634, 239, 293, 254, 308
-0.999634, 345, 301, 360, 316
-0.999635, 395, 89, 410, 104
-0.999635, 457, 205, 472, 220
-0.999635, 417, 193, 432, 208
-0.999636, 475, 213, 490, 228
-0.999638, 359, 91, 374, 106
-0.999638, 257, 237, 272, 252
-0.999638, 201, 241, 216, 256
-0.999639, 363, 295, 378, 310
-0.999643, 327, 299, 342, 314
-0.999644, 331, 261, 346, 276
-0.999647, 409, 261, 424, 276
-0.999647, 353, 65, 368, 80
-0.999647, 59, 243, 74, 258
-0.999647, 107, 243, 122, 258
-0.999648, 289, 291, 304, 306
-0.999648, 405, 191, 420, 206
-0.999649, 381, 27, 396, 42
-0.999649, 375, 63, 390, 78
-0.99965, 427, 27, 442, 42
-0.99965, 373, 303, 388, 318
-0.999652, 301, 297, 316, 312
-0.999652, 387, 27, 402, 42
-0.999654, 21, 317, 36, 332
-0.999656, 385, 63, 400, 78
-0.999657, 307, 297, 322, 312
-0.999657, 295, 271, 310, 286
-0.999657, 409, 27, 424, 42
-0.999658, 27, 317, 42, 332
-0.999659, 313, 231, 328, 246
-0.999659, 375, 29, 390, 44
-0.99966, 41, 1, 72, 128
-0.999661, 411, 195, 426, 210
-0.999661, 393, 27, 408, 42
-0.999662, 273, 293, 288, 308
-0.999662, 359, 65, 374, 80
-0.999663, 35, 247, 50, 262
-0.999665, 399, 27, 414, 42
-0.999666, 231, 239, 246, 254
-0.999666, 119, 73, 134, 88
-0.999666, 417, 185, 432, 200
-0.999666, 365, 65, 380, 80
-0.999666, 365, 91, 380, 106
-0.999668, 357, 295, 372, 310
-0.99967, 391, 261, 406, 276
-0.99967, 363, 29, 378, 44
-0.999671, 355, 31, 370, 46
-0.999671, 343, 31, 358, 46
-0.999671, 391, 63, 406, 78
-0.999672, 377, 91, 392, 106
-0.999675, 415, 27, 430, 42
-0.999676, 363, 301, 378, 316
-0.999677, 109, 61, 124, 76
-0.999682, 371, 91, 386, 106
-0.999683, 369, 29, 384, 44
-0.999688, 325, 35, 340, 50
-0.99969, 141, 241, 156, 256
-0.999691, 279, 291, 294, 306
-0.999696, 383, 167, 398, 182
-0.999696, 439, 29, 454, 44
-0.999698, 423, 193, 438, 208
-0.999699, 351, 301, 366, 316
-0.999706, 45, 243, 60, 258
-0.999711, 335, 33, 350, 48
-0.999713, 357, 301, 372, 316
-0.999713, 433, 27, 448, 42
-0.999715, 423, 183, 438, 198
-0.999715, 405, 185, 420, 200
-0.999716, 349, 31, 364, 46
-0.999716, 381, 141, 396, 156
-0.999731, 405, 1, 436, 256
-0.999732, 421, 27, 436, 42
-0.999735, 277, 43, 292, 58
-0.999739, 319, 37, 334, 52
-1.00002, 177, 129, 208, 256
-1.00015, 17, 97, 48, 224
-1.00016, 349, 65, 380, 320
-1.00027, 1, 17, 32, 144
-1.00051, 5, 65, 36, 320
-1.00054, 113, 97, 240, 160
-1.00061, 461, 1, 492, 128
-1.00071, 361, 113, 392, 240
-1.00083, 181, 65, 212, 192
-1.00087, 345, 65, 376, 192
-1.00092, 393, 97, 424, 224
-1.00095, 53, 1, 84, 128
-1.00133, 37, 113, 68, 240
-1.00135, 49, 81, 80, 208
-1.00169, 201, 65, 232, 192
-1.00194, 353, 49, 416, 176
-1.0021, 37, 49, 68, 176
-1.00215, 61, 97, 92, 224
-1.00218, 17, 1, 48, 128
-1.00232, 221, 65, 252, 192
-1.00234, 353, 97, 416, 224
-1.00239, 145, 121, 272, 184
-1.0025, 5, 81, 36, 208
-1.00288, 237, 65, 268, 192
-1.00386, 169, 65, 200, 192
