1947
-0.285633, 1, 97, 500, 352
-0.300438, 1, 1, 500, 372
-0.313848, 65, 1, 320, 372
-0.44565, 225, 1, 480, 372
-0.465585, 1, 1, 500, 256
-0.467919, 225, 97, 480, 352
-0.488144, 33, 97, 288, 352
-0.562061, 65, 1, 320, 256
-0.687731, 129, 97, 384, 352
-0.706626, 161, 1, 416, 256
-0.821104, 33, 129, 160, 372
-0.844985, 193, 129, 320, 372
-0.845139, 161, 1, 288, 372
-0.847165, 113, 1, 240, 256
-0.851757, 257, 65, 384, 320
-0.853508, 209, 33, 336, 288
-0.855475, 129, 97, 256, 352
-0.859455, 1, 1, 128, 372
-0.861068, 209, 1, 336, 372
-0.861396, 1, 97, 500, 224
-0.861907, 321, 97, 448, 352
-0.862137, 113, 1, 240, 372
-0.862193, 81, 129, 208, 372
-0.86848, 49, 1, 176, 372
-0.868581, 33, 33, 160, 288
-0.869153, 1, 193, 500, 320
-0.877899, 1, 145, 500, 272
-0.880981, 257, 1, 384, 372
-0.887532, 1, 241, 500, 368
-0.894089, 1, 241, 256, 368
-0.895879, 65, 145, 320, 272
-0.899415, 369, 129, 496, 372
-0.902673, 33, 193, 288, 320
-0.90298, 33, 97, 288, 224
-0.903036, 161, 1, 288, 256
-0.903688, 97, 49, 352, 176
-0.905882, 129, 209, 384, 336
-0.906734, 225, 97, 480, 224
-0.906809, 321, 1, 448, 372
-0.908545, 225, 225, 480, 352
-0.915619, 225, 161, 480, 288
-0.916435, 33, 177, 160, 304
-0.923608, 49, 225, 176, 352
-0.924678, 33, 1, 288, 128
-0.927309, 57, 145, 120, 272
-0.927837, 193, 193, 320, 320
-0.928905, 33, 129, 160, 256
-0.93033, 41, 241, 104, 368
-0.930661, 425, 241, 488, 368
-0.931955, 1, 49, 500, 176
-0.932641, 129, 241, 192, 368
-0.932853, 177, 241, 304, 368
-0.933362, 97, 225, 224, 352
-0.933929, 201, 241, 264, 368
-0.934605, 89, 81, 152, 208
-0.935881, 97, 129, 160, 256
-0.936111, 369, 1, 496, 372
-0.936255, 265, 209, 328, 336
-0.936553, 1, 49, 256, 176
-0.936991, 193, 33, 320, 160
-0.937657, 105, 209, 168, 336
-0.938096, 1, 225, 128, 352
-0.9384, 257, 225, 384, 352
-0.938863, 233, 161, 296, 288
-0.939532, 17, 225, 80, 352
-0.939929, 225, 241, 288, 368
-0.940176, 65, 209, 128, 336
-0.941235, 209, 193, 272, 320
-0.941323, 225, 81, 352, 208
-0.941771, 65, 297, 128, 360
-0.943305, 369, 241, 496, 368
-0.943312, 97, 305, 160, 368
-0.943485, 129, 97, 384, 224
-0.943489, 65, 97, 128, 224
-0.943519, 33, 177, 96, 304
-0.944436, 81, 129, 208, 256
-0.944518, 33, 81, 160, 208
-0.944634, 217, 241, 280, 304
-0.944866, 17, 289, 80, 352
-0.945123, 337, 1, 464, 256
-0.946048, 89, 121, 152, 184
-0.946112, 433, 249, 496, 312
-0.946306, 265, 233, 328, 296
-0.946323, 41, 249, 104, 312
-0.946406, 41, 305, 104, 368
-0.946649, 425, 129, 488, 256
-0.94679, 49, 177, 112, 240
-0.947014, 177, 145, 304, 272
-0.947095, 1, 49, 64, 176
-0.947171, 113, 1, 240, 128
-0.947335, 193, 49, 448, 176
-0.947365, 209, 273, 272, 336
-0.947547, 129, 113, 256, 240
-0.948072, 433, 289, 496, 352
-0.948364, 401, 241, 464, 368
-0.948633, 113, 65, 240, 192
-0.948639, 225, 33, 288, 160
-0.948997, 65, 265, 128, 328
-0.949451, 65, 137, 128, 200
-0.950139, 177, 241, 240, 368
-0.950493, 41, 281, 104, 344
-0.950568, 145, 193, 272, 320
-0.950592, 97, 233, 160, 296
-0.950629, 73, 201, 136, 264
-0.950694, 297, 225, 360, 352
-0.950722, 89, 97, 152, 160
-0.951037, 153, 297, 216, 360
-0.951192, 89, 177, 152, 240
-0.95121, 257, 1, 500, 256
-0.951513, 193, 97, 256, 224
-0.951557, 169, 273, 232, 336
-0.95233, 193, 17, 256, 144
-0.952443, 49, 217, 112, 280
-0.952806, 89, 273, 152, 336
-0.952917, 209, 145, 272, 272
-0.952949, 193, 249, 256, 312
-0.953931, 409, 265, 472, 328
-0.953977, 249, 257, 312, 320
-0.954753, 129, 297, 192, 360
-0.954865, 297, 233, 360, 296
-0.954869, 1, 1, 500, 128
-0.954887, 385, 273, 448, 336
-0.955088, 129, 273, 192, 336
-0.955137, 369, 161, 496, 288
-0.955384, 337, 113, 464, 240
-0.956544, 177, 297, 240, 360
-0.956609, 97, 145, 160, 208
-0.956629, 1, 161, 64, 288
-0.956701, 73, 241, 136, 304
-0.956733, 65, 113, 128, 176
-0.956751, 81, 177, 208, 304
-0.956784, 33, 17, 160, 144
-0.957657, 225, 161, 288, 224
-0.9578, 417, 193, 480, 320
-0.958047, 409, 297, 472, 360
-0.958133, 289, 97, 416, 224
-0.958294, 377, 129, 440, 256
-0.958367, 393, 193, 456, 320
-0.958385, 417, 145, 480, 208
-0.958693, 25, 129, 88, 256
-0.959198, 289, 257, 352, 320
-0.959302, 153, 241, 216, 368
-0.959373, 89, 65, 152, 320
-0.95946, 233, 185, 296, 248
-0.959474, 129, 1, 384, 128
-0.959631, 257, 65, 320, 192
-0.959909, 1, 97, 64, 224
-0.960472, 409, 241, 472, 304
-0.960479, 41, 153, 104, 216
-0.960681, 1, 65, 64, 128
-0.961061, 97, 33, 160, 160
-0.961119, 9, 265, 72, 328
-0.961615, 193, 49, 256, 112
-0.961741, 209, 129, 272, 372
-0.961947, 273, 209, 336, 272
-0.962109, 25, 177, 88, 240
-0.96226, 209, 297, 272, 360
-0.962439, 97, 201, 160, 264
-0.96316, 65, 129, 128, 372
-0.96332, 1, 41, 64, 104
-0.963629, 321, 193, 448, 320
-0.963826, 313, 225, 344, 288
-0.96418, 337, 97, 400, 224
-0.964474, 121, 241, 184, 304
-0.964875, 433, 225, 496, 288
-0.964953, 45, 249, 76, 312
-0.965151, 449, 241, 480, 368
-0.965199, 305, 97, 368, 224
-0.965531, 185, 193, 248, 320
-0.965546, 169, 249, 232, 312
-0.965571, 1, 297, 32, 360
-0.965573, 469, 289, 500, 352
-0.965623, 45, 241, 76, 368
-0.965822, 1, 89, 64, 152
-0.96584, 81, 305, 208, 368
-0.965991, 241, 177, 368, 304
-0.96603, 49, 225, 176, 288
-0.966165, 101, 305, 132, 368
-0.966286, 249, 281, 312, 344
-0.966385, 161, 297, 192, 360
-0.966401, 129, 193, 192, 320
-0.966459, 17, 233, 80, 296
-0.966606, 241, 233, 304, 296
-0.966664, 33, 305, 160, 368
-0.966685, 1, 1, 64, 128
-0.966731, 241, 153, 272, 216
-0.966883, 201, 153, 264, 216
-0.966901, 25, 209, 88, 272
-0.966945, 217, 265, 248, 328
-0.966953, 301, 241, 332, 304
-0.967019, 121, 217, 184, 280
-0.967056, 121, 145, 184, 272
-0.967075, 209, 249, 336, 312
-0.967187, 169, 17, 232, 144
-0.967217, 101, 225, 132, 352
-0.967317, 105, 97, 136, 160
-0.967325, 225, 41, 288, 104
-0.967481, 225, 241, 256, 304
-0.967719, 205, 257, 236, 320
-0.967749, 265, 73, 328, 136
-0.967801, 65, 273, 96, 336
-0.967832, 33, 249, 160, 312
-0.96795, 469, 241, 500, 368
-0.967961, 89, 129, 120, 256
-0.967993, 193, 25, 256, 88
-0.968049, 209, 185, 272, 248
-0.968129, 273, 161, 336, 288
-0.968254, 185, 1, 248, 256
-0.968542, 33, 185, 160, 248
-0.968716, 261, 177, 292, 304
-0.968877, 161, 273, 288, 336
-0.968988, 233, 241, 264, 368
-0.96899, 385, 249, 448, 312
-0.96904, 113, 225, 144, 352
-0.969087, 77, 169, 108, 232
-0.969182, 361, 305, 424, 368
-0.969225, 77, 305, 108, 368
-0.969236, 201, 281, 232, 344
-0.969312, 89, 73, 152, 136
-0.969385, 241, 241, 272, 304
-0.969394, 425, 257, 456, 320
-0.969464, 61, 233, 92, 296
-0.969469, 145, 249, 208, 312
-0.969492, 193, 113, 256, 176
-0.969648, 345, 113, 408, 176
-0.969696, 109, 217, 140, 280
-0.969847, 225, 105, 288, 168
-0.96993, 133, 297, 164, 360
-0.969971, 57, 225, 88, 352
-0.970046, 81, 201, 112, 264
-0.970069, 77, 241, 108, 304
-0.970228, 361, 281, 424, 344
-0.970332, 113, 169, 176, 232
-0.970438, 445, 257, 476, 320
-0.970439, 57, 177, 88, 304
-0.9705, 1, 153, 64, 216
-0.97051, 441, 297, 472, 360
-0.970576, 25, 65, 88, 192
-0.970614, 1, 33, 32, 96
-0.970714, 1, 33, 64, 288
-0.970721, 233, 33, 296, 288
-0.970726, 469, 249, 500, 312
-0.970732, 97, 281, 224, 344
-0.970782, 233, 81, 296, 208
-0.970833, 13, 305, 44, 368
-0.970948, 125, 193, 156, 320
-0.970952, 153, 1, 216, 64
-0.970985, 41, 129, 104, 192
-0.970992, 33, 241, 64, 368
-0.971019, 121, 233, 152, 296
-0.971045, 425, 169, 488, 232
-0.971132, 89, 129, 120, 192
-0.971159, 169, 33, 232, 96
-0.971184, 97, 177, 128, 240
-0.971206, 153, 193, 216, 320
-0.971209, 453, 281, 484, 344
-0.971298, 117, 305, 148, 368
-0.97133, 321, 105, 384, 168
-0.971334, 113, 81, 176, 208
-0.971441, 1, 57, 32, 120
-0.971488, 281, 81, 344, 208
-0.971494, 1, 281, 128, 344
-0.971502, 109, 81, 140, 208
-0.97153, 161, 297, 288, 360
-0.971707, 33, 161, 160, 224
-0.971995, 161, 249, 288, 312
-0.972114, 321, 209, 384, 336
-0.972236, 65, 89, 128, 152
-0.972261, 369, 257, 496, 320
-0.972367, 201, 217, 264, 280
-0.972465, 85, 265, 116, 328
-0.972517, 257, 233, 384, 296
-0.972541, 429, 289, 460, 352
-0.972542, 73, 177, 104, 304
-0.972593, 141, 225, 172, 352
-0.972605, 369, 129, 432, 192
-0.972625, 97, 177, 128, 304
-0.972667, 225, 169, 256, 232
-0.972678, 97, 233, 128, 296
-0.972687, 181, 281, 212, 344
-0.972707, 177, 97, 304, 224
-0.972758, 97, 81, 128, 208
-0.972762, 33, 305, 64, 368
-0.972768, 209, 273, 336, 336
-0.972874, 53, 289, 84, 352
-0.972911, 33, 137, 160, 200
-0.972982, 253, 241, 284, 304
-0.97301, 233, 305, 296, 368
-0.973113, 57, 185, 88, 248
-0.973183, 77, 113, 108, 240
-0.973219, 409, 81, 472, 208
-0.973231, 121, 177, 152, 240
-0.97326, 237, 145, 268, 272
-0.973289, 221, 113, 252, 240
-0.973301, 377, 241, 440, 368
-0.973314, 105, 121, 136, 184
-0.973425, 437, 225, 468, 352
-0.973453, 117, 97, 148, 160
-0.973489, 233, 209, 296, 272
-0.973494, 85, 177, 116, 304
-0.973566, 401, 121, 464, 184
-0.973595, 313, 257, 376, 320
-0.973595, 121, 145, 152, 272
-0.973618, 221, 177, 252, 304
-0.973652, 457, 305, 488, 368
-0.973678, 9, 65, 40, 192
-0.973688, 309, 209, 340, 336
-0.973772, 33, 1, 96, 128
-0.973777, 369, 289, 496, 352
-0.973856, 225, 137, 288, 200
-0.973858, 65, 33, 128, 160
-0.973862, 81, 257, 208, 320
-0.973912, 245, 265, 276, 328
-0.973944, 125, 241, 156, 368
-0.973979, 89, 305, 120, 368
-0.974087, 281, 281, 344, 344
-0.974087, 213, 241, 244, 368
-0.974119, 45, 193, 76, 320
-0.974127, 9, 129, 72, 372
-0.974129, 121, 33, 184, 160
-0.974135, 209, 217, 336, 280
-0.974266, 81, 41, 144, 104
-0.974274, 1, 209, 128, 272
-0.974326, 273, 65, 336, 320
-0.974342, 201, 33, 232, 96
-0.974357, 177, 49, 304, 112
-0.974409, 253, 169, 284, 232
-0.974436, 297, 97, 360, 160
-0.974457, 249, 241, 280, 368
-0.974518, 65, 297, 96, 360
-0.974652, 385, 297, 448, 360
-0.974711, 317, 249, 348, 312
-0.974938, 425, 241, 456, 368
-0.974988, 201, 33, 232, 160
-0.974999, 113, 73, 144, 136
-0.975, 169, 225, 232, 288
-0.97503, 121, 137, 152, 200
-0.97504, 65, 209, 96, 272
-0.975041, 257, 281, 288, 344
-0.975042, 225, 129, 256, 192
-0.975104, 69, 241, 100, 368
-0.975108, 41, 129, 104, 372
-0.975135, 97, 209, 128, 272
-0.975142, 153, 273, 184, 336
-0.975143, 41, 273, 72, 336
-0.975144, 113, 97, 176, 352
-0.975164, 193, 193, 320, 256
-0.975175, 89, 241, 120, 368
-0.975192, 113, 97, 240, 160
-0.975207, 113, 233, 240, 296
-0.975274, 33, 113, 160, 176
-0.9753, 225, 1, 288, 372
-0.975334, 49, 225, 80, 288
-0.975343, 65, 153, 96, 216
-0.97537, 225, 89, 352, 152
-0.975372, 369, 129, 432, 372
-0.97549, 129, 129, 192, 192
-0.975609, 321, 241, 448, 368
-0.975623, 385, 217, 448, 280
-0.975737, 233, 129, 296, 372
-0.975917, 393, 145, 456, 208
-0.975937, 113, 105, 176, 168
-0.975952, 105, 281, 136, 344
-0.975997, 385, 177, 448, 240
-0.976029, 145, 297, 176, 360
-0.976159, 177, 169, 304, 232
-0.976188, 425, 129, 488, 372
-0.976321, 201, 241, 232, 368
-0.97642, 321, 233, 384, 296
-0.976458, 433, 233, 464, 296
-0.976478, 257, 257, 384, 320
-0.976483, 413, 273, 444, 336
-0.976673, 1, 113, 64, 176
-0.976705, 113, 9, 240, 72
-0.976714, 129, 209, 160, 272
-0.976796, 105, 129, 136, 256
-0.976835, 461, 137, 492, 200
-0.976891, 33, 249, 64, 312
-0.976904, 313, 97, 376, 352
-0.977174, 129, 257, 160, 320
-0.97718, 261, 241, 292, 368
-0.977226, 41, 105, 104, 168
-0.977235, 201, 1, 264, 64
-0.977265, 101, 153, 132, 216
-0.977301, 1, 177, 64, 240
-0.977353, 141, 273, 172, 336
-0.977377, 457, 249, 488, 312
-0.97746, 225, 129, 352, 256
-0.977569, 1, 89, 128, 152
-0.977601, 113, 81, 176, 144
-0.977604, 229, 265, 260, 328
-0.977715, 93, 97, 124, 160
-0.977742, 145, 137, 272, 200
-0.9778, 89, 1, 152, 372
-0.977817, 13, 81, 44, 144
-0.977819, 369, 65, 496, 192
-0.977887, 1, 1, 32, 64
-0.978051, 113, 33, 240, 96
-0.978098, 425, 201, 488, 264
-0.978118, 81, 9, 144, 72
-0.978139, 297, 273, 328, 336
-0.978227, 109, 193, 140, 256
-0.978237, 401, 145, 464, 272
-0.978245, 209, 33, 272, 288
-0.978306, 169, 273, 200, 336
-0.978312, 173, 305, 204, 368
-0.978335, 65, 129, 96, 256
-0.978385, 133, 233, 164, 296
-0.978407, 33, 65, 160, 128
-0.978461, 241, 65, 304, 128
-0.978522, 345, 225, 408, 352
-0.978535, 1, 97, 32, 160
-0.978538, 117, 281, 148, 344
-0.978593, 77, 145, 108, 208
-0.978618, 329, 281, 392, 344
-0.978662, 281, 225, 312, 288
-0.978704, 65, 33, 128, 288
-0.978708, 1, 209, 64, 272
-0.978745, 193, 257, 224, 320
-0.978754, 121, 193, 184, 256
-0.97879, 97, 193, 224, 256
-0.978872, 193, 89, 256, 152
-0.978976, 113, 169, 240, 232
-0.978992, 389, 273, 420, 336
-0.979039, 469, 129, 500, 256
-0.979072, 329, 305, 392, 368
-0.979114, 121, 33, 184, 96
-0.97918, 425, 193, 456, 320
-0.979284, 273, 97, 400, 160
-0.979432, 369, 137, 496, 200
-0.979449, 13, 241, 44, 368
-0.979484, 157, 241, 188, 368
-0.979508, 109, 177, 140, 304
-0.97964, 345, 97, 408, 352
-0.979795, 213, 233, 244, 296
-0.979842, 413, 249, 444, 312
-0.979913, 401, 145, 432, 208
-0.979916, 217, 105, 248, 168
-0.979948, 369, 233, 496, 296
-0.979996, 121, 97, 152, 224
-0.980018, 213, 9, 244, 72
-0.980025, 373, 281, 404, 344
-0.980031, 273, 33, 400, 160
-0.980082, 289, 281, 416, 344
-0.980148, 273, 185, 336, 248
-0.980188, 453, 129, 484, 256
-0.980234, 189, 305, 220, 368
-0.980272, 13, 25, 44, 88
-0.980301, 321, 249, 448, 312
-0.980302, 221, 49, 252, 176
-0.980381, 113, 73, 240, 136
-0.980399, 249, 161, 280, 288
-0.980402, 201, 1, 264, 372
-0.98043, 213, 1, 244, 128
-0.98048, 265, 257, 296, 320
-0.9806, 25, 49, 88, 112
-0.980656, 177, 241, 208, 368
-0.980662, 225, 289, 256, 352
-0.980663, 249, 17, 312, 144
-0.980888, 249, 41, 312, 104
-0.980925, 17, 1, 80, 64
-0.981004, 313, 49, 376, 176
-0.981035, 25, 49, 56, 112
-0.981092, 33, 193, 64, 320
-0.981231, 121, 57, 184, 120
-0.981237, 25, 1, 56, 128
-0.981302, 121, 9, 184, 72
-0.98136, 21, 273, 52, 336
-0.981379, 305, 209, 368, 272
-0.981447, 361, 257, 424, 320
-0.981492, 209, 193, 240, 320
-0.981496, 45, 201, 76, 264
-0.981542, 101, 257, 132, 320
-0.981561, 177, 97, 240, 352
-0.981572, 401, 281, 432, 344
-0.981603, 237, 33, 268, 160
-0.981642, 65, 65, 128, 128
-0.981661, 49, 89, 176, 152
-0.98168, 437, 161, 468, 288
-0.981681, 449, 137, 480, 200
-0.981735, 89, 153, 120, 216
-0.981751, 65, 1, 128, 372
-0.981844, 413, 161, 444, 288
-0.981952, 337, 209, 464, 272
-0.98199, 361, 297, 392, 360
-0.982071, 241, 97, 272, 224
-0.982109, 117, 33, 148, 160
-0.982115, 245, 305, 276, 368
-0.982161, 145, 249, 176, 312
-0.982208, 201, 305, 232, 368
-0.982213, 225, 169, 352, 232
-0.982237, 321, 121, 448, 184
-0.982244, 281, 209, 312, 336
-0.982562, 229, 97, 260, 160
-0.98259, 185, 145, 248, 272
-0.982597, 177, 73, 304, 136
-0.982639, 361, 81, 424, 208
-0.982639, 137, 97, 200, 224
-0.982693, 413, 297, 444, 360
-0.982699, 217, 73, 280, 136
-0.982711, 117, 257, 148, 320
-0.982731, 305, 281, 368, 344
-0.982738, 81, 137, 208, 200
-0.982823, 369, 153, 432, 216
-0.982833, 53, 161, 84, 224
-0.982926, 1, 1, 64, 372
-0.982958, 145, 209, 272, 272
-0.982964, 21, 1, 52, 64
-0.982982, 25, 33, 88, 288
-0.983031, 273, 17, 336, 144
-0.983072, 277, 249, 308, 312
-0.983095, 189, 25, 220, 88
-0.98312, 25, 81, 88, 144
-0.983126, 309, 273, 340, 336
-0.983178, 113, 1, 176, 256
-0.983186, 241, 177, 272, 240
-0.983196, 145, 1, 208, 128
-0.98322, 13, 105, 44, 168
-0.983227, 33, 41, 160, 104
-0.983295, 33, 9, 160, 72
-0.983355, 249, 1, 312, 372
-0.983402, 253, 41, 284, 104
-0.983413, 321, 145, 448, 208
-0.983415, 385, 129, 416, 192
-0.983443, 421, 145, 452, 208
-0.983464, 329, 241, 360, 304
-0.983485, 273, 65, 304, 128
-0.983523, 189, 241, 220, 368
-0.983663, 213, 289, 244, 352
-0.983677, 257, 305, 288, 368
-0.983689, 201, 9, 232, 72
-0.983733, 265, 233, 296, 296
-0.983775, 297, 177, 360, 304
-0.983831, 257, 305, 320, 368
-0.983862, 249, 161, 312, 224
-0.983877, 33, 25, 96, 88
-0.98388, 313, 73, 376, 136
-0.98389, 193, 145, 320, 208
-0.98394, 177, 1, 240, 372
-0.983942, 233, 193, 264, 320
-0.983989, 1, 17, 32, 144
-0.984008, 209, 209, 240, 272
-0.984072, 393, 129, 456, 372
-0.984108, 49, 281, 176, 344
-0.984185, 29, 113, 60, 240
-0.984208, 321, 225, 352, 352
-0.984215, 397, 129, 428, 256
-0.984239, 85, 65, 116, 192
-0.984258, 161, 73, 224, 136
-0.984281, 337, 257, 400, 320
-0.984339, 257, 33, 288, 160
-0.984559, 385, 81, 448, 208
-0.984588, 297, 209, 328, 336
-0.984626, 225, 1, 480, 128
-0.984746, 21, 49, 52, 176
-0.984881, 225, 1, 256, 128
-0.984884, 225, 65, 352, 128
-0.984885, 169, 81, 232, 208
-0.984997, 357, 97, 388, 224
-0.985005, 205, 97, 236, 224
-0.985207, 301, 81, 332, 208
-0.985207, 377, 113, 408, 240
-0.985213, 193, 113, 320, 176
-0.98522, 369, 169, 496, 232
-0.985667, 241, 297, 368, 360
-0.985716, 113, 1, 176, 372
-0.985745, 285, 65, 316, 192
-0.985786, 257, 209, 384, 272
-0.985912, 273, 1, 336, 372
-0.98605, 137, 177, 168, 304
-0.986074, 189, 17, 220, 144
-0.986126, 53, 129, 84, 256
-0.986152, 321, 305, 448, 368
-0.986241, 153, 129, 216, 372
-0.986379, 369, 105, 496, 168
-0.986465, 345, 97, 376, 224
-0.986522, 25, 1, 88, 372
-0.986561, 325, 97, 356, 224
-0.986588, 1, 241, 32, 368
-0.986643, 177, 25, 304, 88
-0.986755, 1, 113, 32, 240
-0.986854, 409, 225, 440, 352
-0.986928, 21, 193, 52, 320
-0.987237, 337, 49, 400, 176
-0.987316, 57, 325, 120, 356
-0.987353, 97, 337, 160, 368
-0.987405, 33, 341, 96, 372
-0.987439, 253, 97, 284, 224
-0.987473, 409, 113, 440, 240
-0.987633, 25, 329, 88, 360
-0.987654, 465, 177, 496, 304
-0.987656, 97, 313, 160, 344
-0.987677, 313, 97, 344, 224
-0.987741, 57, 305, 120, 336
-0.987783, 269, 65, 300, 192
-0.988029, 409, 281, 472, 312
-0.988036, 9, 341, 72, 372
-0.988069, 265, 249, 328, 280
-0.98808, 89, 249, 152, 280
-0.988139, 49, 189, 112, 220
-0.988221, 209, 257, 272, 288
-0.988255, 321, 1, 384, 372
-0.988299, 49, 205, 112, 236
-0.988355, 65, 273, 320, 336
-0.988387, 73, 165, 136, 196
-0.988414, 65, 241, 320, 304
-0.988431, 57, 229, 120, 260
-0.988477, 1, 305, 256, 368
-0.98848, 273, 233, 336, 264
-0.988491, 177, 277, 240, 308
-0.988491, 433, 309, 496, 340
-0.988524, 433, 293, 496, 324
-0.988555, 57, 337, 120, 368
-0.988589, 129, 1, 160, 128
-0.988644, 13, 1, 44, 128
-0.988644, 433, 337, 496, 368
-0.988646, 133, 129, 164, 256
-0.988653, 161, 1, 224, 256
-0.988667, 209, 277, 272, 308
-0.988685, 49, 177, 112, 208
-0.988724, 65, 153, 320, 216
-0.988726, 89, 137, 152, 168
-0.988742, 33, 273, 96, 304
-0.988746, 89, 125, 152, 156
-0.98877, 177, 1, 304, 64
-0.988787, 233, 249, 296, 280
-0.98881, 233, 277, 296, 308
-0.988834, 121, 313, 184, 344
-0.988834, 33, 261, 96, 292
-0.988903, 225, 177, 288, 208
-0.988905, 169, 297, 232, 328
-0.988925, 33, 113, 288, 176
-0.988932, 49, 293, 112, 324
-0.988933, 1, 329, 64, 360
-0.988942, 409, 337, 472, 368
-0.988947, 209, 289, 272, 320
-0.988961, 9, 297, 72, 328
-0.988964, 65, 185, 320, 248
-0.988977, 145, 305, 208, 336
-0.988979, 17, 313, 80, 344
-0.988991, 73, 269, 136, 300
-0.989001, 425, 265, 488, 296
-0.989004, 57, 257, 120, 288
-0.989014, 81, 301, 144, 332
-0.989033, 73, 181, 136, 212
-0.989062, 425, 249, 488, 280
-0.989063, 385, 297, 448, 328
-0.989082, 73, 149, 136, 180
-0.989094, 81, 193, 144, 224
-0.989097, 153, 285, 216, 316
-0.989099, 113, 269, 176, 300
-0.989144, 1, 73, 64, 104
-0.989159, 185, 265, 248, 296
-0.989188, 193, 113, 448, 176
-0.989216, 33, 209, 288, 272
-0.989266, 241, 33, 368, 96
-0.98929, 225, 165, 288, 196
-0.989294, 453, 81, 484, 208
-0.989298, 433, 113, 464, 240
-0.98931, 289, 245, 352, 276
-0.98932, 145, 145, 208, 272
-0.98933, 225, 225, 480, 288
-0.989339, 129, 325, 192, 356
-0.989357, 113, 297, 176, 328
-0.989369, 289, 265, 352, 296
-0.989383, 97, 105, 160, 136
-0.989384, 409, 165, 472, 196
-0.989397, 89, 237, 152, 268
-0.989397, 233, 261, 296, 292
-0.989406, 97, 33, 128, 160
-0.989451, 453, 193, 484, 320
-0.989454, 201, 245, 264, 276
-0.989463, 65, 217, 128, 248
-0.989464, 409, 293, 472, 324
-0.9895, 153, 329, 216, 360
-0.989503, 1, 57, 64, 88
-0.989505, 425, 321, 488, 352
-0.989519, 97, 181, 160, 212
-0.98958, 433, 281, 496, 312
-0.989588, 65, 133, 128, 164
-0.98959, 225, 189, 288, 220
-0.989613, 409, 305, 472, 336
-0.989673, 65, 281, 128, 312
-0.989675, 241, 237, 304, 268
-0.989686, 257, 285, 320, 316
-0.989699, 81, 325, 144, 356
-0.989704, 409, 153, 472, 184
-0.989747, 177, 337, 240, 368
-0.989766, 385, 285, 448, 316
-0.98979, 33, 249, 96, 280
-0.989819, 321, 169, 448, 232
-0.989837, 97, 149, 160, 180
-0.989856, 265, 273, 328, 304
-0.989864, 209, 145, 240, 272
-0.989923, 25, 193, 88, 224
-0.98994, 49, 165, 112, 196
-0.989941, 137, 341, 200, 372
-0.990018, 297, 233, 360, 264
-0.990022, 89, 93, 152, 124
-0.990028, 273, 185, 400, 248
-0.990038, 1, 201, 500, 264
-0.990039, 97, 161, 160, 192
-0.990057, 73, 113, 136, 144
-0.990073, 433, 81, 496, 208
-0.99008, 33, 237, 96, 268
-0.990096, 57, 245, 120, 276
-0.9901, 169, 309, 232, 340
-0.990127, 113, 257, 176, 288
-0.990132, 1, 85, 64, 116
-0.990133, 297, 1, 360, 372
-0.990135, 73, 205, 136, 236
-0.990154, 25, 285, 88, 316
-0.990185, 129, 209, 384, 272
-0.990207, 433, 145, 496, 176
-0.990208, 105, 325, 168, 356
-0.990247, 121, 281, 184, 312
-0.990268, 153, 193, 184, 320
-0.990305, 25, 181, 88, 212
-0.990326, 465, 81, 496, 208
-0.990338, 185, 1, 248, 32
-0.99035, 345, 313, 408, 344
-0.990353, 385, 341, 448, 372
-0.990358, 89, 221, 152, 252
-0.990361, 89, 281, 152, 312
-0.990362, 177, 1, 208, 128
-0.990365, 97, 205, 160, 236
-0.990368, 401, 269, 464, 300
-0.99038, 153, 269, 216, 300
-0.990411, 265, 261, 328, 292
-0.990418, 25, 209, 88, 240
-0.990452, 273, 221, 336, 252
-0.990477, 1, 41, 64, 72
-0.990486, 161, 273, 416, 336
-0.990504, 313, 249, 376, 280
-0.990505, 361, 341, 424, 372
-0.990512, 121, 241, 184, 272
-0.990513, 193, 53, 256, 84
-0.990515, 33, 221, 96, 252
-0.99053, 321, 49, 448, 176
-0.99056, 329, 109, 392, 140
-0.990561, 417, 177, 480, 208
-0.990563, 225, 249, 480, 312
-0.990569, 417, 1, 480, 372
-0.990577, 401, 253, 464, 284
-0.990611, 209, 153, 272, 184
-0.990614, 361, 281, 424, 312
-0.990627, 193, 41, 256, 72
-0.990633, 425, 233, 488, 264
-0.990652, 41, 153, 104, 184
-0.99066, 401, 317, 464, 348
-0.990715, 1, 97, 64, 128
-0.990724, 401, 137, 464, 168
-0.990729, 257, 73, 320, 104
-0.990747, 193, 177, 256, 208
-0.990772, 1, 241, 500, 304
-0.990884, 33, 89, 288, 152
-0.990891, 225, 169, 480, 232
-0.990984, 333, 209, 364, 336
-0.991, 1, 297, 500, 360
-0.991012, 133, 65, 164, 192
-0.991031, 421, 113, 452, 240
-0.991099, 225, 137, 480, 200
-0.991122, 33, 33, 288, 96
-0.99124, 197, 193, 228, 320
-0.991256, 97, 297, 352, 360
-0.991257, 257, 289, 500, 352
-0.991281, 297, 1, 360, 256
-0.991305, 269, 17, 300, 144
-0.991449, 241, 145, 368, 208
-0.991469, 225, 193, 480, 256
-0.991488, 97, 57, 352, 120
-0.991494, 409, 33, 472, 288
-0.991516, 377, 1, 440, 372
-0.991523, 1, 177, 500, 240
-0.991577, 49, 249, 176, 280
-0.991601, 1, 9, 256, 72
-0.991729, 289, 145, 416, 272
-0.99178, 5, 289, 20, 352
-0.991882, 105, 305, 120, 368
-0.991889, 101, 309, 132, 340
-0.991894, 61, 337, 92, 368
-0.991943, 281, 161, 312, 288
-0.99197, 465, 321, 496, 352
-0.991989, 1, 309, 32, 340
-0.991992, 465, 309, 496, 340
-0.991997, 233, 161, 264, 192
-0.992005, 109, 93, 140, 124
-0.992013, 5, 321, 36, 352
-0.992019, 213, 285, 244, 316
-0.992022, 49, 337, 80, 368
-0.992046, 449, 265, 480, 296
-0.992057, 205, 265, 236, 296
-0.992062, 449, 329, 480, 360
-0.992064, 289, 65, 416, 128
-0.992064, 161, 305, 192, 336
-0.992069, 1, 121, 500, 184
-0.992071, 17, 325, 48, 356
-0.992074, 165, 341, 196, 372
-0.99208, 37, 337, 68, 368
-0.992082, 309, 233, 340, 264
-0.992083, 437, 309, 468, 340
-0.992085, 225, 265, 256, 296
-0.992086, 125, 329, 156, 360
-0.992088, 301, 253, 332, 284
-0.992091, 245, 173, 276, 204
-0.992107, 433, 265, 464, 296
-0.992111, 105, 329, 136, 360
-0.992111, 253, 261, 284, 292
-0.992114, 81, 313, 112, 344
-0.992115, 81, 301, 112, 332
-0.99213, 77, 165, 108, 196
-0.992169, 37, 325, 68, 356
-0.992171, 141, 341, 172, 372
-0.992172, 17, 313, 48, 344
-0.992175, 233, 173, 264, 204
-0.992176, 197, 293, 228, 324
-0.992176, 61, 321, 92, 352
-0.992177, 1, 153, 500, 216
-0.992185, 125, 189, 156, 220
-0.992186, 125, 309, 156, 340
-0.992188, 89, 177, 120, 208
-0.99219, 117, 105, 148, 136
-0.992191, 113, 341, 144, 372
-0.992192, 113, 313, 144, 344
-0.992196, 177, 285, 208, 316
-0.992199, 453, 313, 484, 344
-0.992199, 5, 333, 36, 364
-0.992206, 145, 301, 176, 332
-0.992209, 105, 229, 136, 260
-0.992218, 425, 289, 456, 320
-0.992222, 437, 277, 468, 308
-0.992225, 9, 61, 40, 92
-0.992229, 65, 301, 96, 332
-0.992234, 229, 253, 260, 284
-0.992235, 57, 281, 88, 312
-0.992235, 173, 297, 204, 328
-0.992238, 193, 89, 448, 152
-0.992244, 65, 81, 96, 208
-0.992248, 197, 281, 228, 312
-0.99225, 109, 113, 124, 176
-0.992255, 413, 281, 444, 312
-0.992262, 5, 45, 36, 76
-0.992266, 313, 253, 344, 284
-0.992267, 157, 293, 188, 324
-0.992277, 93, 297, 124, 328
-0.99228, 93, 321, 124, 352
-0.99228, 77, 181, 108, 212
-0.992283, 49, 325, 80, 356
-0.992292, 129, 245, 160, 276
-0.992292, 105, 125, 136, 156
-0.9923, 121, 137, 152, 168
-0.992309, 409, 341, 440, 372
-0.99231, 81, 337, 112, 368
-0.992316, 41, 261, 72, 292
-0.99232, 453, 293, 484, 324
-0.992326, 397, 81, 428, 208
-0.992327, 109, 269, 140, 300
-0.992329, 241, 257, 272, 288
-0.992332, 117, 233, 148, 264
-0.992335, 449, 277, 480, 308
-0.992341, 433, 249, 464, 280
-0.992347, 45, 289, 76, 320
-0.992349, 121, 153, 152, 184
-0.992355, 89, 269, 120, 300
-0.992358, 81, 257, 112, 288
-0.99236, 57, 225, 88, 256
-0.992362, 425, 321, 456, 352
-0.992371, 465, 337, 496, 368
-0.992374, 45, 277, 76, 308
-0.992374, 141, 325, 172, 356
-0.992375, 77, 269, 108, 300
-0.99238, 233, 185, 264, 216
-0.992381, 465, 293, 496, 324
-0.992381, 97, 209, 128, 240
-0.992381, 25, 341, 56, 372
-0.992387, 165, 317, 196, 348
-0.992393, 53, 257, 84, 288
-0.992398, 11, 297, 26, 360
-0.992399, 301, 265, 332, 296
-0.992406, 33, 181, 160, 212
-0.992407, 229, 149, 260, 180
-0.992415, 73, 325, 104, 356
-0.992415, 469, 245, 500, 276
-0.992419, 209, 253, 240, 284
-0.99243, 113, 245, 144, 276
-0.992432, 125, 257, 156, 288
-0.992434, 405, 293, 436, 324
-0.992435, 201, 41, 232, 72
-0.992437, 469, 281, 500, 312
-0.99244, 89, 133, 120, 164
-0.992441, 61, 245, 92, 276
-0.992444, 197, 29, 228, 60
-0.992447, 101, 341, 132, 372
-0.992462, 125, 341, 156, 372
-0.992463, 241, 269, 272, 300
-0.992469, 81, 193, 112, 224
-0.992476, 225, 281, 256, 312
-0.992486, 53, 193, 84, 224
-0.992486, 81, 305, 208, 336
-0.992498, 69, 285, 100, 316
-0.9925, 221, 177, 252, 208
-0.992501, 9, 81, 40, 112
-0.992506, 97, 193, 128, 224
-0.992511, 437, 297, 468, 328
-0.992511, 81, 293, 208, 324
-0.992521, 257, 277, 288, 308
-0.992523, 457, 253, 488, 284
-0.992529, 157, 329, 188, 360
-0.992529, 469, 261, 500, 292
-0.99253, 49, 309, 80, 340
-0.992535, 121, 269, 152, 300
-0.992536, 65, 261, 96, 292
-0.992538, 1, 305, 128, 336
-0.992544, 57, 209, 88, 240
-0.992546, 185, 309, 216, 340
-0.992556, 101, 141, 132, 172
-0.992557, 105, 105, 136, 136
-0.992558, 253, 185, 284, 216
-0.992564, 61, 173, 92, 204
-0.992566, 141, 313, 172, 344
-0.992575, 425, 301, 456, 332
-0.992581, 261, 245, 292, 276
-0.992592, 1, 97, 500, 160
-0.992595, 7, 81, 22, 144
-0.992616, 1, 265, 500, 328
-0.992616, 307, 233, 322, 296
-0.992645, 127, 97, 142, 160
-0.99267, 321, 177, 352, 304
-0.992702, 117, 97, 132, 160
-0.992748, 237, 241, 252, 304
-0.99278, 467, 297, 482, 360
-0.992797, 33, 197, 160, 228
-0.992825, 17, 265, 144, 296
-0.99283, 99, 121, 114, 184
-0.99286, 47, 249, 62, 312
-0.992863, 209, 257, 336, 288
-0.992872, 81, 257, 96, 320
-0.992904, 49, 329, 176, 360
-0.992921, 49, 229, 176, 260
-0.992963, 315, 225, 330, 288
-0.993064, 313, 49, 344, 176
-0.993071, 13, 57, 28, 120
-0.993072, 121, 305, 136, 368
-0.993103, 231, 161, 246, 224
-0.993105, 219, 257, 234, 320
-0.993112, 349, 241, 380, 368
-0.993116, 239, 145, 254, 208
-0.99315, 257, 113, 320, 240
-0.99316, 99, 305, 114, 368
-0.993165, 55, 257, 70, 320
-0.993216, 111, 297, 126, 360
-0.993227, 81, 153, 96, 216
-0.993231, 145, 301, 272, 332
-0.993233, 21, 25, 36, 88
-0.993236, 81, 341, 208, 372
-0.993275, 1, 293, 128, 324
-0.993277, 255, 241, 270, 304
-0.993307, 15, 33, 30, 96
-0.993318, 337, 81, 464, 144
-0.993324, 111, 89, 126, 152
-0.993329, 33, 49, 64, 176
-0.993365, 77, 233, 92, 296
-0.993366, 431, 257, 446, 320
-0.993375, 33, 165, 160, 196
-0.993377, 255, 281, 270, 344
-0.993392, 1, 65, 16, 128
-0.993393, 49, 217, 176, 248
-0.993407, 209, 273, 224, 336
-0.993409, 127, 225, 142, 288
-0.993446, 95, 169, 110, 232
-0.993459, 321, 225, 336, 288
-0.993462, 1, 317, 128, 348
-0.993499, 249, 249, 264, 312
-0.993502, 89, 177, 104, 240
-0.993517, 91, 249, 106, 312
-0.993531, 477, 241, 492, 304
-0.993533, 121, 185, 136, 248
-0.993563, 261, 265, 276, 328
-0.993577, 233, 137, 248, 200
-0.993586, 225, 249, 240, 312
-0.993588, 327, 233, 342, 296
-0.993604, 369, 293, 496, 324
-0.993609, 209, 273, 336, 304
-0.99361, 103, 257, 118, 320
-0.993617, 243, 249, 258, 312
-0.993629, 83, 233, 98, 296
-0.99368, 99, 217, 114, 280
-0.993694, 227, 273, 242, 336
-0.993716, 377, 65, 408, 192
-0.993718, 345, 1, 408, 372
-0.993722, 455, 297, 470, 360
-0.993728, 87, 145, 102, 208
-0.993749, 33, 341, 160, 372
-0.99377, 203, 25, 218, 88
-0.993772, 129, 261, 256, 292
-0.993785, 321, 1, 384, 256
-0.993786, 145, 337, 272, 368
-0.993792, 65, 217, 80, 280
-0.993794, 69, 305, 84, 368
-0.993796, 145, 1, 208, 372
-0.993798, 139, 233, 154, 296
-0.993799, 325, 49, 356, 176
-0.993804, 75, 297, 90, 360
-0.993814, 41, 145, 72, 272
-0.993816, 17, 297, 32, 360
-0.993821, 177, 297, 192, 360
-0.993832, 133, 129, 148, 192
-0.993856, 65, 257, 80, 320
-0.993862, 247, 153, 262, 216
-0.993863, 155, 305, 170, 368
-0.993871, 231, 249, 246, 312
-0.993943, 267, 273, 282, 336
-0.993965, 93, 121, 108, 184
-0.993993, 469, 249, 484, 312
-0.994005, 113, 317, 240, 348
-0.994005, 193, 201, 320, 232
-0.994014, 55, 225, 70, 288
-0.994016, 57, 281, 72, 344
-0.994023, 105, 89, 120, 152
-0.994024, 241, 169, 256, 232
-0.994042, 163, 297, 178, 360
-0.994053, 149, 297, 164, 360
-0.994075, 241, 245, 368, 276
-0.99408, 469, 273, 484, 336
-0.994082, 373, 241, 404, 368
-0.994088, 81, 289, 96, 352
-0.99409, 447, 289, 462, 352
-0.994092, 313, 257, 328, 320
-0.994093, 137, 1, 200, 256
-0.994106, 479, 265, 494, 328
-0.994107, 485, 273, 500, 336
-0.99411, 353, 309, 480, 340
-0.994114, 305, 161, 336, 288
-0.99412, 161, 285, 288, 316
-0.994128, 1, 121, 16, 184
-0.994129, 219, 305, 234, 368
-0.994138, 97, 145, 112, 208
-0.994147, 125, 73, 140, 136
-0.99415, 421, 273, 436, 336
-0.994157, 171, 305, 186, 368
-0.994165, 73, 273, 88, 336
-0.994168, 21, 57, 36, 120
-0.994168, 47, 281, 62, 344
-0.99417, 217, 281, 232, 344
-0.994173, 111, 201, 126, 264
-0.99418, 177, 273, 192, 336
-0.994181, 119, 281, 134, 344
-0.994186, 81, 281, 208, 312
-0.9942, 121, 217, 136, 280
-0.994219, 17, 281, 144, 312
-0.99424, 89, 225, 104, 288
-0.994243, 115, 241, 130, 304
-0.994245, 145, 257, 160, 320
-0.994253, 129, 249, 256, 280
-0.994258, 117, 73, 132, 136
-0.994263, 301, 249, 316, 312
-0.994268, 33, 121, 160, 152
-0.99427, 125, 145, 140, 208
-0.994304, 437, 257, 452, 320
-0.994318, 473, 297, 488, 360
-0.994318, 241, 121, 368, 184
-0.994326, 445, 249, 460, 312
-0.994328, 105, 137, 120, 200
-0.994328, 261, 297, 276, 360
-0.994334, 73, 193, 88, 256
-0.994337, 353, 1, 416, 256
-0.994351, 1, 249, 128, 280
-0.994355, 107, 233, 122, 296
-0.99436, 99, 193, 114, 256
-0.994367, 1, 329, 128, 360
-0.994383, 91, 289, 106, 352
-0.994407, 227, 113, 242, 176
-0.994409, 461, 257, 476, 320
-0.994411, 33, 153, 160, 184
-0.994422, 321, 249, 336, 312
-0.994458, 461, 297, 476, 360
-0.994467, 133, 105, 148, 168
-0.994475, 1, 89, 16, 152
-0.994476, 65, 261, 192, 292
-0.994481, 195, 281, 210, 344
-0.994504, 47, 305, 62, 368
-0.994521, 83, 201, 98, 264
-0.994521, 71, 225, 86, 288
-0.994527, 93, 201, 108, 264
-0.994529, 115, 153, 130, 216
-0.99453, 7, 57, 22, 120
-0.994543, 113, 273, 128, 336
-0.994549, 441, 281, 456, 344
-0.994552, 131, 305, 146, 368
-0.994574, 157, 273, 172, 336
-0.994582, 107, 169, 122, 232
-0.994587, 241, 273, 256, 336
-0.994618, 259, 161, 274, 224
-0.994622, 121, 241, 136, 304
-0.994628, 141, 297, 156, 360
-0.994629, 369, 193, 432, 320
-0.994647, 185, 305, 200, 368
-0.994662, 353, 341, 480, 372
-0.99467, 149, 145, 180, 272
-0.994692, 49, 317, 176, 348
-0.994718, 297, 33, 328, 160
-0.994777, 225, 129, 256, 372
-0.994846, 385, 33, 448, 288
-0.994864, 1, 65, 256, 128
-0.994866, 33, 137, 160, 168
-0.994872, 1, 209, 128, 240
-0.994888, 97, 233, 224, 264
-0.994891, 41, 1, 72, 128
-0.994896, 1, 233, 128, 264
-0.994915, 241, 233, 368, 264
-0.99493, 205, 1, 236, 256
-0.994972, 33, 105, 160, 136
-0.994999, 265, 129, 296, 256
-0.995034, 13, 113, 44, 240
-0.99506, 369, 277, 496, 308
-0.995073, 337, 49, 368, 176
-0.995078, 109, 65, 140, 320
-0.995116, 129, 1, 384, 64
-0.995117, 289, 285, 416, 316
-0.995131, 69, 129, 100, 372
-0.995153, 113, 33, 240, 64
-0.995154, 121, 97, 152, 352
-0.995156, 193, 341, 320, 372
-0.995197, 161, 49, 288, 80
-0.995255, 193, 217, 320, 248
-0.995255, 177, 65, 304, 96
-0.995257, 185, 193, 216, 320
-0.995265, 177, 169, 304, 200
-0.995265, 129, 273, 256, 304
-0.995295, 353, 49, 384, 176
-0.995307, 369, 257, 496, 288
-0.995329, 145, 149, 272, 180
-0.995354, 281, 17, 312, 144
-0.995372, 353, 321, 480, 352
-0.995372, 241, 129, 272, 372
-0.995374, 289, 241, 416, 272
-0.99538, 145, 97, 176, 224
-0.995386, 193, 189, 320, 220
-0.995438, 97, 65, 128, 320
-0.995441, 209, 285, 336, 316
-0.995442, 177, 245, 304, 276
-0.995459, 45, 81, 76, 208
-0.995463, 1, 61, 128, 92
-0.995499, 165, 193, 196, 320
-0.995536, 273, 105, 400, 136
-0.995539, 81, 201, 208, 232
-0.99559, 33, 89, 160, 120
-0.995647, 113, 17, 240, 48
-0.995649, 97, 329, 224, 360
-0.995659, 9, 193, 40, 320
-0.995675, 97, 213, 224, 244
-0.995693, 257, 269, 384, 300
-0.995698, 397, 241, 428, 368
-0.995698, 113, 109, 240, 140
-0.995705, 129, 189, 256, 220
-0.995738, 81, 169, 208, 200
-0.99574, 321, 161, 384, 288
-0.995741, 85, 97, 116, 352
-0.995751, 209, 89, 336, 120
-0.99584, 81, 125, 208, 156
-0.995845, 1, 221, 128, 252
-0.99593, 33, 77, 160, 108
-0.995946, 221, 33, 252, 288
-0.99596, 193, 297, 320, 328
-0.995978, 193, 229, 320, 260
-0.995986, 369, 245, 496, 276
-0.996016, 145, 129, 272, 160
-0.996017, 353, 165, 480, 196
-0.996052, 353, 145, 480, 176
-0.99606, 113, 73, 240, 104
-0.996083, 113, 5, 240, 36
-0.996116, 369, 129, 496, 160
-0.996122, 257, 257, 384, 288
-0.996139, 225, 101, 352, 132
-0.996163, 253, 129, 284, 372
-0.996221, 213, 129, 244, 372
-0.996264, 129, 161, 256, 192
-0.996267, 113, 45, 240, 76
-0.996268, 321, 229, 448, 260
-0.996332, 113, 97, 240, 128
-0.996382, 53, 333, 68, 364
-0.996388, 1, 301, 16, 332
-0.996391, 253, 1, 284, 256
-0.996394, 209, 157, 336, 188
-0.99641, 129, 177, 256, 208
-0.996429, 33, 25, 160, 56
-0.99643, 7, 301, 22, 332
-0.996436, 101, 305, 116, 336
-0.996439, 33, 9, 160, 40
-0.996439, 5, 1, 36, 256
-0.996444, 81, 181, 208, 212
-0.99645, 133, 129, 164, 372
-0.996451, 17, 61, 32, 92
-0.996466, 105, 113, 120, 144
-0.99647, 17, 33, 32, 64
-0.996482, 193, 77, 320, 108
-0.996501, 211, 289, 226, 320
-0.996502, 145, 49, 208, 176
-0.996528, 1, 49, 128, 80
-0.996535, 289, 117, 416, 148
-0.996549, 193, 65, 448, 128
-0.996552, 161, 325, 288, 356
-0.996567, 241, 33, 272, 288
-0.996605, 221, 265, 236, 296
-0.996606, 113, 85, 240, 116
-0.996617, 231, 173, 246, 204
-0.996619, 305, 253, 320, 284
-0.996623, 243, 253, 258, 284
-0.996633, 177, 297, 192, 328
-0.996639, 81, 149, 208, 180
-0.996648, 17, 313, 32, 344
-0.99665, 91, 181, 106, 212
-0.996666, 85, 297, 100, 328
-0.996669, 93, 305, 108, 336
-0.996686, 257, 213, 384, 244
-0.996688, 57, 129, 88, 372
-0.996695, 317, 253, 332, 284
-0.996697, 127, 101, 142, 132
-0.996698, 103, 337, 118, 368
-0.99671, 337, 217, 464, 248
-0.996713, 305, 329, 432, 360
-0.996728, 273, 341, 400, 372
-0.996738, 483, 337, 498, 368
-0.996741, 121, 1, 152, 256
-0.996746, 225, 173, 352, 204
-0.996747, 161, 313, 288, 344
-0.996753, 109, 309, 124, 340
-0.99676, 305, 133, 432, 164
-0.996761, 217, 285, 232, 316
-0.996782, 369, 233, 496, 264
-0.996783, 97, 317, 112, 348
-0.996786, 479, 245, 494, 276
-0.996798, 113, 61, 240, 92
-0.996798, 7, 313, 22, 344
-0.996802, 103, 317, 118, 348
-0.996805, 203, 29, 218, 60
-0.996807, 133, 325, 148, 356
-0.996812, 289, 297, 416, 328
-0.996812, 321, 253, 448, 284
-0.996815, 65, 317, 80, 348
-0.996825, 233, 265, 248, 296
-0.996836, 231, 161, 246, 192
-0.996838, 239, 153, 254, 184
-0.996839, 129, 201, 256, 232
-0.996844, 91, 253, 106, 284
-0.996859, 9, 333, 24, 364
-0.99686, 467, 293, 482, 324
-0.996862, 113, 97, 128, 128
-0.996863, 247, 269, 262, 300
-0.996879, 265, 65, 296, 320
-0.996898, 49, 265, 64, 296
-0.996901, 65, 37, 192, 68
-0.996903, 475, 317, 490, 348
-0.996908, 77, 301, 92, 332
-0.996916, 241, 177, 256, 208
-0.996921, 259, 289, 274, 320
-0.996922, 131, 245, 146, 276
-0.99693, 75, 325, 90, 356
-0.996932, 451, 261, 466, 292
-0.996939, 113, 329, 128, 360
-0.996947, 223, 285, 238, 316
-0.996951, 485, 325, 500, 356
-0.99696, 55, 281, 70, 312
-0.996964, 143, 313, 158, 344
-0.996966, 311, 257, 326, 288
-0.996967, 99, 253, 114, 284
-0.996968, 337, 205, 464, 236
-0.996972, 71, 305, 86, 336
-0.996972, 91, 293, 106, 324
-0.996974, 133, 133, 148, 164
-0.996976, 69, 289, 84, 320
-0.996982, 47, 277, 62, 308
-0.996983, 169, 293, 184, 324
-0.99699, 157, 337, 172, 368
-0.996995, 1, 65, 16, 96
-0.996997, 11, 53, 26, 84
-0.997004, 43, 341, 58, 372
-0.997004, 81, 137, 208, 168
-0.997005, 117, 181, 132, 212
-0.997005, 137, 241, 152, 272
-0.997007, 121, 241, 136, 272
-0.997008, 435, 285, 450, 316
-0.997008, 417, 129, 448, 372
-0.997011, 249, 165, 264, 196
-0.997019, 177, 37, 304, 68
-0.997021, 459, 309, 474, 340
-0.997022, 329, 241, 344, 272
-0.997025, 233, 141, 248, 172
-0.997025, 475, 305, 490, 336
-0.997034, 65, 57, 192, 88
-0.99704, 93, 157, 108, 188
-0.997046, 211, 273, 226, 304
-0.997048, 453, 305, 468, 336
-0.997048, 33, 341, 48, 372
-0.997049, 81, 285, 96, 316
-0.997052, 443, 253, 458, 284
-0.997054, 227, 269, 242, 300
-0.997057, 123, 261, 138, 292
-0.997059, 113, 85, 128, 116
-0.997059, 235, 185, 250, 216
-0.99706, 91, 193, 106, 224
-0.997062, 85, 313, 100, 344
-0.997063, 137, 309, 152, 340
-0.997063, 61, 277, 76, 308
-0.997065, 13, 301, 28, 332
-0.997068, 11, 97, 26, 128
-0.997075, 47, 253, 62, 284
-0.997077, 257, 169, 272, 200
-0.99708, 161, 301, 176, 332
-0.997082, 99, 193, 114, 224
-0.997082, 225, 113, 352, 144
-0.997083, 443, 305, 458, 336
-0.997091, 73, 341, 88, 372
-0.9971, 317, 97, 348, 352
-0.997102, 337, 97, 368, 352
-0.997104, 59, 325, 74, 356
-0.997108, 109, 237, 124, 268
-0.997113, 89, 205, 104, 236
-0.997114, 23, 317, 38, 348
-0.997115, 223, 253, 238, 284
-0.997117, 131, 265, 146, 296
-0.997123, 301, 273, 316, 304
-0.997125, 201, 281, 216, 312
-0.997126, 469, 321, 484, 352
-0.99713, 97, 237, 112, 268
-0.997131, 83, 161, 98, 192
-0.997135, 99, 129, 114, 160
-0.997139, 61, 225, 76, 256
-0.997143, 77, 313, 92, 344
-0.997145, 253, 289, 268, 320
-0.997145, 117, 309, 132, 340
-0.997148, 443, 273, 458, 304
-0.997149, 229, 185, 244, 216
-0.997154, 1, 337, 16, 368
-0.997154, 93, 269, 108, 300
-0.997157, 427, 285, 442, 316
-0.997159, 65, 301, 80, 332
-0.997163, 89, 169, 104, 200
-0.997166, 81, 265, 96, 296
-0.99717, 67, 329, 82, 360
-0.997171, 193, 145, 320, 176
-0.997175, 337, 189, 464, 220
-0.997177, 257, 201, 384, 232
-0.997178, 5, 93, 20, 124
-0.997181, 115, 225, 130, 256
-0.997183, 123, 329, 138, 360
-0.997188, 171, 309, 186, 340
-0.997193, 11, 65, 26, 96
-0.997198, 129, 313, 144, 344
-0.997199, 313, 233, 328, 264
-0.997204, 1, 125, 16, 156
-0.997205, 155, 305, 170, 336
-0.997208, 59, 337, 74, 368
-0.99721, 177, 317, 192, 348
-0.997242, 453, 129, 484, 372
-0.997247, 465, 129, 496, 372
-0.997253, 225, 9, 352, 72
-0.99727, 257, 189, 384, 220
-0.997272, 129, 33, 384, 96
-0.997284, 145, 233, 272, 264
-0.997293, 193, 125, 320, 156
-0.997296, 193, 1, 224, 256
-0.997297, 397, 129, 428, 372
-0.997333, 241, 297, 368, 328
-0.997345, 277, 33, 308, 288
-0.997356, 257, 321, 384, 352
-0.997358, 21, 33, 52, 288
-0.997361, 257, 309, 384, 340
-0.997388, 305, 145, 432, 176
-0.997412, 345, 177, 408, 304
-0.997436, 433, 129, 464, 372
-0.997438, 321, 177, 448, 208
-0.997457, 45, 129, 76, 372
-0.997529, 357, 97, 388, 352
-0.997537, 1, 37, 128, 68
-0.997562, 377, 97, 408, 352
-0.997585, 145, 213, 272, 244
-0.997761, 81, 1, 112, 256
-0.997799, 305, 65, 336, 320
-0.997845, 1, 73, 500, 136
-0.997869, 1, 129, 32, 372
-0.997872, 289, 65, 320, 320
-0.997875, 257, 41, 500, 104
-0.998049, 1, 41, 500, 104
-0.998077, 25, 129, 56, 372
-0.998143, 145, 97, 176, 352
-0.998176, 33, 33, 64, 288
-0.998223, 201, 97, 232, 352
-0.998343, 25, 285, 88, 300
-0.998352, 33, 277, 96, 292
-0.998355, 225, 263, 288, 278
-0.99836, 137, 307, 200, 322
-0.998362, 425, 265, 488, 280
-0.998362, 97, 341, 160, 356
-0.998367, 97, 313, 160, 328
-0.998374, 57, 335, 120, 350
-0.998379, 65, 303, 128, 318
-0.99838, 9, 345, 72, 360
-0.998382, 49, 189, 112, 204
-0.998383, 57, 225, 72, 352
-0.998383, 33, 345, 96, 360
-0.998387, 409, 287, 472, 302
-0.998387, 169, 299, 232, 314
-0.998389, 49, 219, 112, 234
-0.99839, 137, 345, 200, 360
-0.998392, 57, 245, 120, 260
-0.998393, 161, 285, 224, 300
-0.998394, 41, 293, 104, 308
-0.998395, 17, 351, 80, 366
-0.998396, 433, 311, 496, 326
-0.998402, 17, 333, 80, 348
-0.998402, 121, 315, 184, 330
-0.998402, 65, 277, 128, 292
-0.998403, 233, 269, 296, 284
-0.998405, 73, 347, 136, 362
-0.998406, 49, 181, 112, 196
-0.998407, 97, 335, 160, 350
-0.998407, 433, 337, 496, 352
-0.998408, 65, 309, 128, 324
-0.998411, 73, 317, 136, 332
-0.998416, 233, 251, 296, 266
-0.998416, 161, 305, 224, 320
-0.998418, 89, 181, 152, 196
-0.998421, 97, 243, 160, 258
-0.998423, 273, 253, 336, 268
-0.998423, 265, 265, 328, 280
-0.998425, 201, 257, 264, 272
-0.998425, 193, 279, 256, 294
-0.998425, 385, 283, 448, 298
-0.998427, 49, 287, 112, 302
-0.998428, 49, 211, 112, 226
-0.998428, 121, 241, 136, 368
-0.998429, 89, 269, 152, 284
-0.99843, 49, 195, 112, 210
-0.998431, 153, 291, 216, 306
-0.998432, 25, 339, 88, 354
-0.998433, 433, 293, 496, 308
-0.998434, 401, 305, 464, 320
-0.998434, 265, 259, 328, 274
-0.998434, 161, 339, 224, 354
-0.998439, 233, 257, 296, 272
-0.99844, 417, 331, 480, 346
-0.99844, 33, 269, 96, 284
-0.99844, 57, 323, 120, 338
-0.998441, 273, 237, 336, 252
-0.998441, 409, 293, 472, 308
-0.998441, 161, 279, 224, 294
-0.998442, 57, 329, 120, 344
-0.998442, 417, 317, 480, 332
-0.998443, 49, 317, 112, 332
-0.998443, 9, 327, 72, 342
-0.998444, 425, 357, 488, 372
-0.998444, 57, 341, 120, 356
-0.998445, 97, 347, 160, 362
-0.998446, 89, 263, 152, 278
-0.998448, 73, 163, 136, 178
-0.998449, 425, 257, 488, 272
-0.998449, 409, 281, 472, 296
-0.99845, 57, 257, 120, 272
-0.99845, 225, 189, 288, 204
-0.99845, 25, 319, 88, 334
-0.99845, 81, 147, 144, 162
-0.998451, 137, 297, 200, 312
-0.998451, 201, 269, 264, 284
-0.998453, 97, 111, 160, 126
-0.998453, 425, 271, 488, 286
-0.998453, 65, 269, 128, 284
-0.998454, 89, 323, 152, 338
-0.998454, 129, 281, 192, 296
-0.998455, 233, 279, 296, 294
-0.998455, 137, 351, 200, 366
-0.998455, 393, 357, 456, 372
-0.998455, 81, 215, 144, 230
-0.998456, 65, 297, 128, 312
-0.998456, 433, 303, 496, 318
-0.998456, 33, 263, 96, 278
-0.998457, 49, 205, 112, 220
-0.998457, 321, 357, 384, 372
-0.998457, 65, 173, 128, 188
-0.998458, 433, 277, 496, 292
-0.99846, 209, 289, 272, 304
-0.99846, 89, 129, 152, 144
-0.99846, 265, 247, 328, 262
-0.99846, 89, 253, 152, 268
-0.998461, 9, 311, 72, 326
-0.998462, 89, 137, 152, 152
-0.998463, 89, 187, 152, 202
-0.998464, 57, 237, 120, 252
-0.998464, 425, 251, 488, 266
-0.998464, 225, 179, 288, 194
-0.998466, 369, 355, 432, 370
-0.998466, 289, 247, 352, 262
-0.998467, 57, 155, 120, 170
-0.998467, 57, 231, 120, 246
-0.998468, 193, 339, 256, 354
-0.998468, 473, 241, 488, 368
-0.998468, 73, 193, 136, 208
-0.998469, 1, 357, 64, 372
-0.99847, 201, 263, 264, 278
-0.998471, 89, 153, 152, 168
-0.998471, 193, 299, 256, 314
-0.998474, 89, 235, 152, 250
-0.998475, 145, 313, 208, 328
-0.998476, 193, 345, 256, 360
-0.998477, 433, 285, 496, 300
-0.998478, 409, 339, 472, 354
-0.998478, 73, 357, 136, 372
-0.998479, 97, 275, 160, 290
-0.998482, 105, 307, 168, 322
-0.998484, 121, 339, 184, 354
-0.998484, 249, 285, 312, 300
-0.998486, 185, 289, 248, 304
-0.998487, 51, 241, 66, 368
-0.998487, 89, 117, 152, 132
-0.998487, 201, 251, 264, 266
-0.998488, 409, 169, 472, 184
-0.998488, 113, 209, 128, 336
-0.99849, 97, 195, 160, 210
-0.998491, 409, 157, 472, 172
-0.998491, 105, 355, 168, 370
-0.998492, 81, 105, 144, 120
-0.998492, 89, 329, 152, 344
-0.998493, 385, 289, 448, 304
-0.998524, 457, 241, 472, 368
-0.998526, 127, 209, 142, 336
-0.998529, 141, 225, 156, 352
-0.99855, 95, 241, 110, 368
-0.99856, 99, 113, 114, 240
-0.998574, 461, 269, 492, 284
-0.998575, 97, 127, 128, 142
-0.998575, 109, 155, 140, 170
-0.998576, 413, 357, 444, 372
-0.998577, 29, 327, 60, 342
-0.998579, 181, 299, 212, 314
-0.99858, 113, 263, 144, 278
-0.99858, 249, 263, 280, 278
-0.998581, 133, 265, 164, 280
-0.998581, 61, 263, 92, 278
-0.998581, 25, 337, 56, 352
-0.998581, 57, 227, 88, 242
-0.998582, 121, 159, 152, 174
-0.998584, 125, 309, 156, 324
-0.998585, 233, 187, 264, 202
-0.998585, 185, 293, 216, 308
-0.998586, 77, 165, 108, 180
-0.998586, 221, 249, 252, 264
-0.998586, 81, 309, 112, 324
-0.998586, 221, 263, 252, 278
-0.998589, 449, 269, 480, 284
-0.998589, 75, 241, 90, 368
-0.998589, 113, 313, 144, 328
-0.998589, 465, 293, 496, 308
-0.99859, 119, 193, 134, 320
-0.99859, 9, 73, 40, 88
-0.998591, 117, 125, 148, 140
-0.998593, 405, 295, 436, 310
-0.998593, 113, 245, 144, 260
-0.998595, 161, 293, 192, 308
-0.998597, 1, 303, 32, 318
-0.998597, 45, 293, 76, 308
-0.998597, 125, 323, 156, 338
-0.998597, 89, 277, 120, 292
-0.998598, 1, 333, 32, 348
-0.998598, 125, 135, 156, 150
-0.998598, 61, 257, 92, 272
-0.998598, 449, 337, 480, 352
-0.998599, 225, 269, 256, 284
-0.998599, 101, 271, 132, 286
-0.998603, 69, 275, 100, 290
-0.998604, 69, 33, 100, 288
-0.998604, 73, 187, 104, 202
-0.998604, 437, 257, 468, 272
-0.998605, 89, 177, 120, 192
-0.998605, 309, 259, 340, 274
-0.998606, 429, 303, 460, 318
-0.998606, 233, 167, 264, 182
-0.998606, 125, 195, 156, 210
-0.998606, 1, 311, 32, 326
-0.998606, 65, 289, 96, 304
-0.998607, 237, 259, 268, 274
-0.998607, 9, 323, 40, 338
-0.998607, 1, 101, 32, 116
-0.998607, 105, 105, 136, 120
-0.998607, 185, 309, 216, 324
-0.998607, 101, 243, 132, 258
-0.998608, 51, 193, 66, 320
-0.998608, 465, 337, 496, 352
-0.998608, 37, 355, 68, 370
-0.998608, 93, 329, 124, 344
-0.998608, 45, 279, 76, 294
-0.998609, 61, 301, 92, 316
-0.99861, 117, 331, 148, 346
-0.99861, 409, 283, 440, 298
-0.998611, 141, 341, 172, 356
-0.998611, 341, 355, 372, 370
-0.998613, 77, 181, 108, 196
-0.998617, 125, 347, 156, 362
-0.998617, 85, 323, 116, 338
-0.998617, 233, 173, 264, 188
-0.998618, 73, 269, 104, 284
-0.998618, 157, 307, 188, 322
-0.998618, 221, 285, 252, 300
-0.998619, 17, 343, 48, 358
-0.998621, 17, 331, 48, 346
-0.998621, 141, 349, 172, 364
-0.998622, 45, 255, 76, 270
-0.998622, 157, 313, 188, 328
-0.998622, 133, 241, 148, 368
-0.998622, 61, 269, 92, 284
-0.998623, 465, 313, 496, 328
-0.998623, 305, 253, 336, 268
-0.998624, 421, 285, 452, 300
-0.998624, 29, 287, 60, 302
-0.998625, 37, 333, 68, 348
-0.998625, 65, 319, 96, 334
-0.998625, 453, 305, 484, 320
-0.998626, 1, 317, 32, 332
-0.998627, 449, 263, 480, 278
-0.99863, 205, 303, 236, 318
-0.998631, 109, 161, 124, 288
-0.998631, 429, 295, 460, 310
-0.998631, 45, 261, 76, 276
-0.998632, 221, 275, 252, 290
-0.998632, 125, 187, 156, 202
-0.998634, 105, 251, 136, 266
-0.998634, 259, 225, 274, 352
-0.998635, 1, 339, 32, 354
-0.998635, 453, 313, 484, 328
-0.998637, 309, 235, 340, 250
-0.998637, 53, 329, 84, 344
-0.998639, 81, 317, 112, 332
-0.99864, 165, 341, 196, 356
-0.99864, 89, 129, 104, 256
-0.998641, 5, 65, 36, 80
-0.998641, 165, 351, 196, 366
-0.998641, 73, 303, 104, 318
-0.998642, 169, 309, 200, 324
-0.998643, 99, 177, 114, 304
-0.998645, 485, 241, 500, 368
-0.998645, 105, 225, 120, 352
-0.998645, 209, 269, 240, 284
-0.998645, 97, 305, 128, 320
-0.998646, 145, 309, 176, 324
-0.998646, 53, 355, 84, 370
-0.998647, 461, 331, 492, 346
-0.998647, 109, 81, 124, 208
-0.998647, 429, 353, 460, 368
-0.998647, 173, 283, 204, 298
-0.99865, 153, 301, 184, 316
-0.998651, 57, 233, 88, 248
-0.998653, 147, 241, 162, 368
-0.998655, 469, 261, 500, 276
-0.998656, 53, 285, 84, 300
-0.998656, 201, 283, 232, 298
-0.998657, 67, 209, 82, 336
-0.998658, 229, 161, 260, 176
-0.998658, 237, 265, 268, 280
-0.998662, 61, 347, 92, 362
-0.998666, 77, 171, 108, 186
-0.998666, 45, 241, 60, 368
-0.998666, 221, 241, 236, 368
-0.998667, 125, 247, 156, 262
-0.99867, 105, 99, 136, 114
-0.998671, 105, 331, 136, 346
-0.998679, 121, 145, 136, 272
-0.998681, 125, 337, 156, 352
-0.998682, 315, 209, 330, 336
-0.998683, 105, 337, 136, 352
-0.998687, 125, 315, 156, 330
-0.998687, 89, 271, 120, 286
-0.998688, 37, 341, 68, 356
-0.998689, 201, 293, 232, 308
-0.998689, 205, 17, 220, 144
-0.998694, 309, 225, 324, 352
-0.998695, 465, 307, 496, 322
-0.998701, 133, 1, 164, 256
-0.998709, 127, 129, 142, 256
-0.998711, 105, 319, 136, 334
-0.998721, 49, 339, 80, 354
-0.998723, 463, 241, 478, 368
-0.998732, 273, 177, 288, 304
-0.998736, 85, 177, 100, 304
-0.99874, 117, 81, 132, 208
-0.998759, 101, 313, 132, 328
-0.998766, 233, 97, 248, 224
-0.998771, 133, 129, 148, 256
-0.998775, 449, 241, 464, 368
-0.998778, 233, 225, 248, 352
-0.998782, 209, 241, 224, 368
-0.998784, 15, 17, 30, 144
-0.998784, 189, 129, 220, 372
-0.998788, 89, 225, 104, 352
-0.99879, 75, 177, 90, 304
-0.998795, 243, 241, 258, 368
-0.998806, 215, 225, 230, 352
-0.998807, 27, 241, 42, 368
-0.998812, 429, 193, 444, 320
-0.998814, 81, 129, 96, 256
-0.998831, 129, 81, 144, 208
-0.998833, 249, 145, 264, 272
-0.998833, 137, 177, 152, 304
-0.998842, 241, 177, 256, 304
-0.998844, 21, 49, 36, 176
-0.998845, 13, 129, 44, 372
-0.998852, 227, 177, 242, 304
-0.998853, 325, 209, 340, 336
-0.998861, 265, 241, 280, 368
-0.998861, 443, 241, 458, 368
-0.998869, 429, 241, 444, 368
-0.99887, 165, 241, 180, 368
-0.998872, 259, 161, 274, 288
-0.998874, 61, 161, 76, 288
-0.998874, 123, 49, 138, 176
-0.998893, 479, 241, 494, 368
-0.998909, 93, 177, 108, 304
-0.998921, 249, 241, 264, 368
-0.998945, 477, 113, 492, 240
-0.998962, 435, 209, 450, 336
-0.998972, 265, 161, 280, 288
-0.998979, 153, 241, 168, 368
-0.998986, 9, 65, 24, 192
-0.99899, 203, 241, 218, 368
-0.998992, 223, 33, 238, 160
-0.998994, 239, 129, 254, 256
-0.998995, 217, 33, 232, 160
-0.999, 227, 225, 242, 352
-0.999, 303, 241, 318, 368
-0.999004, 115, 145, 130, 272
-0.999007, 469, 129, 484, 256
-0.999009, 1, 17, 500, 80
-0.999011, 143, 177, 158, 304
-0.999016, 129, 33, 144, 160
-0.999016, 181, 241, 196, 368
-0.999035, 217, 177, 232, 304
-0.999038, 231, 49, 246, 176
-0.999058, 275, 241, 290, 368
-0.99906, 211, 33, 226, 160
-0.999066, 21, 1, 36, 128
-0.999067, 227, 113, 242, 240
-0.999068, 45, 33, 76, 288
-0.999084, 37, 225, 52, 352
-0.999086, 69, 145, 84, 272
-0.999089, 75, 129, 90, 256
-0.99909, 457, 129, 472, 256
-0.999097, 429, 129, 444, 256
-0.999106, 199, 17, 214, 144
-0.999113, 485, 129, 500, 256
-0.999113, 15, 241, 30, 368
-0.999123, 277, 129, 308, 372
-0.999128, 233, 177, 248, 304
-0.999133, 463, 129, 478, 256
-0.999142, 81, 225, 96, 352
-0.999142, 3, 113, 18, 240
-0.999148, 135, 81, 150, 208
-0.999149, 239, 49, 254, 176
-0.999154, 3, 49, 18, 176
-0.99916, 85, 81, 100, 208
-0.99916, 423, 177, 438, 304
-0.99916, 407, 129, 422, 256
-0.99916, 103, 65, 118, 192
-0.999166, 93, 81, 108, 208
-0.999179, 259, 97, 274, 224
-0.99918, 171, 241, 186, 368
-0.99918, 187, 241, 202, 368
-0.999183, 247, 193, 262, 320
-0.999183, 221, 97, 236, 224
-0.999184, 9, 17, 24, 144
-0.999187, 413, 145, 428, 272
-0.999193, 245, 97, 260, 224
-0.999193, 159, 241, 174, 368
-0.9992, 45, 193, 60, 320
-0.999205, 229, 1, 244, 128
-0.999213, 15, 65, 30, 192
-0.999215, 317, 81, 332, 208
-0.999217, 281, 209, 296, 336
-0.999227, 423, 113, 438, 240
-0.999232, 253, 193, 268, 320
-0.999237, 317, 1, 348, 256
-0.99924, 141, 129, 156, 256
-0.99924, 5, 241, 20, 368
-0.999243, 325, 97, 340, 224
-0.999245, 393, 113, 408, 240
-0.999254, 347, 97, 362, 224
-0.999255, 349, 1, 380, 256
-0.999258, 267, 33, 282, 160
-0.999269, 373, 97, 388, 224
-0.999269, 339, 97, 354, 224
-0.999276, 57, 1, 88, 256
-0.999292, 409, 33, 440, 288
-0.999394, 329, 1, 360, 256
-0.999424, 181, 1, 212, 256
-0.999476, 397, 33, 428, 288
-0.999486, 157, 129, 188, 372
-0.99955, 361, 1, 392, 256
-0.999652, 145, 1, 176, 256
-0.999699, 177, 129, 208, 372
-0.999717, 377, 1, 408, 256
-0.999755, 115, 95, 130, 110
-0.999755, 45, 353, 60, 368
-0.999755, 109, 99, 124, 114
-0.999756, 33, 357, 48, 372
-0.999756, 63, 339, 78, 354
-0.999756, 483, 249, 498, 264
-0.999756, 479, 321, 494, 336
-0.999756, 311, 257, 326, 272
-0.999757, 207, 283, 222, 298
-0.999757, 177, 301, 192, 316
-0.999757, 467, 303, 482, 318
-0.999757, 461, 263, 476, 278
-0.999758, 47, 257, 62, 272
-0.999758, 11, 97, 26, 112
-0.999758, 217, 283, 232, 298
-0.999759, 433, 285, 448, 300
-0.999759, 229, 179, 244, 194
-0.999759, 127, 313, 142, 328
-0.999759, 23, 357, 38, 372
-0.999759, 9, 63, 24, 78
-0.999759, 85, 331, 100, 346
-0.999759, 467, 309, 482, 324
-0.999759, 235, 171, 250, 186
-0.99976, 19, 345, 34, 360
-0.99976, 99, 245, 114, 260
-0.99976, 433, 353, 448, 368
-0.99976, 481, 269, 496, 284
-0.999761, 61, 357, 76, 372
-0.999761, 453, 269, 468, 284
-0.999762, 477, 245, 492, 260
-0.999762, 17, 37, 32, 52
-0.999764, 119, 235, 134, 250
-0.999765, 125, 107, 140, 122
-0.999766, 205, 293, 220, 308
-0.999766, 123, 321, 138, 336
-0.999766, 133, 313, 148, 328
-0.999767, 113, 251, 128, 266
-0.999768, 103, 277, 118, 292
-0.999768, 85, 311, 100, 326
-0.999769, 461, 327, 476, 342
-0.999769, 49, 277, 64, 292
-0.999769, 477, 259, 492, 274
-0.99977, 229, 165, 244, 180
-0.99977, 107, 251, 122, 266
-0.999771, 43, 289, 58, 304
-0.999771, 195, 299, 210, 314
-0.999772, 485, 263, 500, 278
-0.999773, 143, 319, 158, 334
-0.999773, 17, 319, 32, 334
-0.999773, 51, 341, 66, 356
-0.999773, 163, 305, 178, 320
-0.999773, 11, 309, 26, 324
-0.999773, 421, 333, 436, 348
-0.999774, 137, 341, 152, 356
-0.999774, 1, 321, 16, 336
-0.999774, 233, 189, 248, 204
-0.999774, 357, 355, 372, 370
-0.999775, 99, 131, 114, 146
-0.999775, 175, 307, 190, 322
-0.999775, 221, 267, 236, 282
-0.999775, 237, 341, 252, 356
-0.999777, 57, 341, 72, 356
-0.999777, 103, 357, 118, 372
-0.999777, 97, 271, 112, 286
-0.999777, 99, 327, 114, 342
-0.999777, 121, 121, 136, 136
-0.999777, 9, 103, 24, 118
-0.999778, 231, 273, 246, 288
-0.999779, 111, 241, 126, 256
-0.999779, 457, 307, 472, 322
-0.999779, 477, 253, 492, 268
-0.999779, 243, 255, 258, 270
-0.999779, 1, 137, 16, 152
-0.99978, 19, 351, 34, 366
-0.999781, 69, 317, 84, 332
-0.999781, 97, 253, 112, 268
-0.999782, 213, 289, 228, 304
-0.999782, 125, 101, 140, 116
-0.999782, 83, 269, 98, 284
-0.999782, 221, 303, 236, 318
-0.999783, 129, 267, 144, 282
-0.999783, 59, 293, 74, 308
-0.999783, 127, 337, 142, 352
-0.999783, 167, 289, 182, 304
-0.999783, 5, 97, 20, 112
-0.999784, 149, 317, 164, 332
-0.999785, 85, 163, 100, 178
-0.999785, 479, 307, 494, 322
-0.999785, 15, 63, 30, 78
-0.999785, 131, 245, 146, 260
-0.999786, 93, 187, 108, 202
-0.999786, 123, 253, 138, 268
-0.999786, 241, 269, 256, 284
-0.999787, 231, 157, 246, 172
-0.99979, 469, 289, 484, 304
-0.99979, 51, 355, 66, 370
-0.99979, 123, 331, 138, 346
-0.999791, 125, 181, 140, 196
-0.999791, 111, 115, 126, 130
-0.999791, 61, 229, 76, 244
-0.999792, 9, 351, 24, 366
-0.999796, 1, 131, 16, 146
-0.999796, 319, 253, 334, 268
-0.999797, 79, 279, 94, 294
-0.999797, 303, 267, 318, 282
-0.999797, 107, 321, 122, 336
-0.999797, 169, 283, 184, 298
-0.999797, 95, 311, 110, 326
-0.999798, 199, 293, 214, 308
-0.999799, 107, 313, 122, 328
-0.9998, 105, 113, 120, 128
-0.999802, 39, 281, 54, 296
-0.999803, 121, 315, 136, 330
-0.999804, 51, 335, 66, 350
-0.999804, 433, 33, 464, 288
-0.999807, 51, 283, 66, 298
-0.999807, 13, 69, 28, 84
-0.999807, 107, 329, 122, 344
-0.999807, 1, 311, 16, 326
-0.999808, 103, 305, 118, 320
-0.99981, 457, 313, 472, 328
-0.999812, 3, 65, 18, 80
-0.999814, 121, 247, 136, 262
-0.999815, 257, 263, 272, 278
-0.999819, 101, 311, 116, 326
-0.999821, 453, 263, 468, 278
-0.999825, 101, 317, 116, 332
-0.999827, 89, 181, 104, 196
-0.999829, 57, 329, 72, 344
-0.999851, 113, 313, 128, 328
-0.999866, 5, 303, 20, 318
-0.999881, 453, 33, 484, 288
-0.999939, 469, 33, 500, 288
-0.999952, 289, 41, 416, 104
-1.00013, 165, 1, 196, 256
-1.00016, 433, 33, 496, 288
-1.00032, 225, 9, 480, 72
-1.00047, 421, 33, 452, 288
-1.00098, 369, 33, 432, 160
-1.0015, 273, 9, 400, 72
-1.0025, 337, 57, 464, 120
-1.00291, 369, 9, 496, 72
-1.00291, 321, 17, 448, 80
-1.00291, 369, 33, 496, 96
-1.00707, 305, 1, 368, 128
-1.01087, 321, 1, 448, 128
-1.01179, 369, 17, 496, 144
-1.01221, 393, 33, 456, 160
-1.01377, 425, 33, 488, 160
-1.01686, 345, 1, 408, 128
