1970
-0.432336, 1, 1, 500, 375
-0.437941, 1, 129, 500, 375
-0.511607, 1, 1, 500, 256
-0.585684, 257, 1, 500, 375
-0.595246, 65, 1, 320, 375
-0.657386, 225, 129, 480, 375
-0.709828, 65, 97, 320, 352
-0.801094, 161, 1, 416, 375
-0.816749, 257, 33, 500, 288
-0.831735, 1, 1, 256, 256
-0.842704, 97, 1, 352, 256
-0.878023, 369, 1, 496, 375
-0.887945, 1, 129, 128, 375
-0.889516, 369, 65, 496, 320
-0.89363, 1, 209, 500, 336
-0.901549, 289, 129, 416, 375
-0.903596, 49, 97, 176, 352
-0.905418, 177, 129, 304, 375
-0.90655, 65, 1, 192, 375
-0.909346, 1, 161, 500, 288
-0.91131, 305, 1, 432, 375
-0.91349, 129, 97, 256, 352
-0.914628, 97, 1, 224, 256
-0.916398, 161, 1, 288, 375
-0.918285, 225, 161, 480, 288
-0.918893, 113, 1, 240, 375
-0.919913, 321, 1, 448, 256
-0.92057, 241, 129, 368, 375
-0.923696, 1, 1, 128, 375
-0.927303, 241, 1, 368, 375
-0.927659, 369, 145, 496, 272
-0.928868, 1, 1, 128, 256
-0.932224, 1, 113, 500, 240
-0.934089, 257, 113, 500, 240
-0.936812, 193, 33, 320, 288
-0.937382, 1, 49, 500, 176
-0.941139, 273, 33, 400, 288
-0.942449, 145, 1, 272, 256
-0.945107, 225, 209, 480, 336
-0.94593, 49, 1, 176, 256
-0.947399, 33, 129, 288, 256
-0.948401, 33, 241, 288, 368
-0.948557, 385, 145, 448, 272
-0.948884, 417, 161, 480, 288
-0.949241, 1, 1, 500, 128
-0.949259, 129, 193, 384, 320
-0.949482, 369, 97, 496, 224
-0.951623, 17, 113, 80, 240
-0.952508, 289, 145, 416, 272
-0.955348, 433, 97, 496, 224
-0.957446, 1, 129, 128, 256
-0.958916, 33, 193, 288, 320
-0.96153, 129, 241, 384, 368
-0.961737, 409, 97, 472, 224
-0.961777, 233, 161, 296, 288
-0.961924, 433, 33, 496, 160
-0.963501, 337, 113, 400, 240
-0.96381, 129, 145, 384, 272
-0.963946, 369, 225, 496, 352
-0.964037, 177, 145, 304, 272
-0.964193, 257, 1, 500, 128
-0.965279, 377, 153, 440, 216
-0.965381, 241, 161, 368, 288
-0.966212, 321, 97, 448, 224
-0.967539, 121, 225, 184, 352
-0.968514, 377, 97, 440, 224
-0.968591, 33, 81, 288, 208
-0.968865, 49, 129, 176, 256
-0.969088, 113, 225, 240, 352
-0.969447, 257, 97, 384, 224
-0.969674, 1, 241, 128, 368
-0.96976, 273, 161, 336, 288
-0.9702, 257, 65, 500, 192
-0.970385, 193, 225, 320, 352
-0.970622, 369, 49, 496, 176
-0.97098, 433, 97, 496, 160
-0.970989, 305, 113, 368, 240
-0.971373, 345, 137, 408, 200
-0.971452, 17, 137, 80, 200
-0.971584, 385, 225, 448, 352
-0.971595, 1, 65, 128, 192
-0.971689, 249, 209, 312, 336
-0.971993, 161, 97, 416, 224
-0.972205, 321, 193, 448, 320
-0.972433, 345, 161, 408, 288
-0.972458, 33, 193, 160, 320
-0.972494, 241, 161, 304, 224
-0.972615, 201, 81, 264, 208
-0.973207, 65, 241, 192, 368
-0.973648, 369, 169, 496, 232
-0.973864, 97, 49, 224, 176
-0.974248, 89, 113, 152, 240
-0.974269, 425, 177, 488, 240
-0.974595, 113, 129, 240, 256
-0.974607, 353, 1, 480, 128
-0.974931, 57, 129, 120, 256
-0.975405, 1, 161, 64, 288
-0.975466, 401, 1, 464, 128
-0.975633, 345, 169, 408, 232
-0.975947, 201, 97, 264, 160
-0.976114, 17, 225, 80, 352
-0.976406, 121, 161, 184, 288
-0.976431, 1, 33, 256, 160
-0.976564, 193, 81, 320, 208
-0.977193, 417, 73, 480, 136
-0.977209, 97, 33, 352, 160
-0.977264, 145, 241, 208, 368
-0.977511, 369, 129, 432, 192
-0.977619, 385, 129, 448, 375
-0.977714, 273, 185, 336, 248
-0.977752, 89, 241, 152, 368
-0.977756, 153, 113, 216, 240
-0.977796, 321, 113, 384, 176
-0.977821, 241, 201, 304, 264
-0.977943, 369, 193, 496, 256
-0.978043, 417, 145, 480, 208
-0.978093, 9, 185, 72, 248
-0.978109, 121, 65, 184, 192
-0.978174, 9, 97, 72, 352
-0.978616, 89, 129, 152, 192
-0.978624, 465, 97, 496, 224
-0.978764, 121, 233, 184, 296
-0.979637, 273, 113, 336, 240
-0.979646, 417, 241, 480, 368
-0.979777, 49, 81, 176, 208
-0.980088, 57, 145, 120, 208
-0.980105, 369, 145, 496, 208
-0.980106, 121, 33, 184, 96
-0.980149, 17, 161, 80, 224
-0.980177, 9, 225, 72, 288
-0.980207, 469, 89, 500, 152
-0.980257, 385, 177, 448, 240
-0.980281, 433, 65, 496, 320
-0.980353, 353, 129, 416, 375
-0.980413, 289, 161, 416, 224
-0.98062, 369, 105, 496, 168
-0.980646, 409, 97, 472, 160
-0.9813, 361, 209, 424, 336
-0.981477, 209, 225, 272, 352
-0.981687, 49, 177, 112, 304
-0.981769, 225, 97, 288, 224
-0.981783, 297, 161, 360, 288
-0.981825, 409, 129, 472, 375
-0.982023, 377, 225, 440, 288
-0.982055, 1, 137, 128, 200
-0.982118, 145, 81, 272, 208
-0.982187, 321, 161, 384, 224
-0.982238, 409, 49, 472, 176
-0.982639, 17, 65, 80, 192
-0.982683, 201, 145, 264, 272
-0.982824, 1, 161, 128, 224
-0.982827, 273, 161, 336, 224
-0.983001, 437, 161, 468, 288
-0.983012, 217, 153, 280, 216
-0.983181, 433, 49, 496, 112
-0.983196, 97, 65, 160, 192
-0.983324, 417, 161, 448, 288
-0.983327, 161, 49, 224, 176
-0.983362, 121, 57, 184, 120
-0.983528, 57, 129, 120, 375
-0.983621, 401, 145, 432, 272
-0.983679, 433, 1, 496, 375
-0.983697, 225, 129, 288, 375
-0.983776, 121, 1, 184, 256
-0.983779, 261, 145, 292, 272
-0.983837, 305, 137, 368, 200
-0.983912, 33, 273, 96, 336
-0.984126, 153, 129, 216, 192
-0.98423, 321, 137, 448, 200
-0.984242, 449, 161, 480, 288
-0.984267, 249, 113, 312, 240
-0.98427, 361, 105, 424, 168
-0.984383, 369, 81, 496, 144
-0.984565, 113, 177, 240, 304
-0.984598, 129, 113, 192, 240
-0.984793, 193, 161, 320, 224
-0.984829, 177, 97, 240, 224
-0.984858, 217, 201, 280, 264
-0.984972, 113, 105, 176, 168
-0.984998, 257, 137, 384, 200
-0.985, 417, 249, 480, 312
-0.985081, 169, 241, 232, 368
-0.985158, 353, 65, 416, 192
-0.985201, 417, 217, 480, 280
-0.98523, 465, 121, 496, 184
-0.985377, 389, 145, 420, 272
-0.985431, 145, 129, 272, 192
-0.985541, 169, 97, 232, 160
-0.98555, 257, 241, 320, 304
-0.985643, 433, 121, 496, 184
-0.985782, 345, 1, 408, 256
-0.985954, 241, 209, 368, 336
-0.985962, 65, 257, 192, 320
-0.985965, 89, 289, 152, 352
-0.986027, 321, 105, 448, 168
-0.986043, 185, 137, 248, 200
-0.986074, 65, 137, 192, 200
-0.986144, 449, 177, 480, 240
-0.98616, 81, 281, 208, 344
-0.986236, 121, 201, 184, 264
-0.986242, 33, 233, 160, 296
-0.986501, 5, 97, 36, 224
-0.986502, 17, 113, 80, 176
-0.986504, 273, 185, 400, 248
-0.986544, 361, 1, 424, 128
-0.98656, 369, 217, 496, 280
-0.986585, 409, 1, 472, 256
-0.986618, 297, 177, 360, 240
-0.986626, 217, 121, 280, 184
-0.986629, 129, 281, 192, 344
-0.986756, 329, 97, 392, 352
-0.986785, 469, 33, 500, 160
-0.986872, 1, 281, 128, 344
-0.986961, 321, 113, 352, 240
-0.98708, 273, 137, 336, 200
-0.987127, 461, 161, 492, 288
-0.987164, 217, 273, 280, 336
-0.987168, 121, 305, 184, 368
-0.987248, 1, 185, 128, 248
-0.987288, 169, 313, 232, 375
-0.9873, 81, 97, 144, 352
-0.987335, 345, 193, 408, 256
-0.987396, 409, 9, 472, 72
-0.98741, 401, 137, 432, 200
-0.987414, 453, 97, 484, 224
-0.987453, 265, 201, 296, 264
-0.987489, 357, 113, 388, 240
-0.987494, 461, 145, 492, 208
-0.987517, 393, 257, 456, 320
-0.987621, 369, 1, 432, 256
-0.987692, 5, 201, 36, 264
-0.987711, 81, 265, 144, 328
-0.987741, 41, 241, 104, 368
-0.987764, 321, 161, 384, 288
-0.987786, 233, 233, 296, 296
-0.987803, 273, 129, 336, 375
-0.987905, 357, 145, 388, 208
-0.98795, 385, 201, 448, 264
-0.987974, 57, 297, 120, 360
-0.987993, 121, 17, 184, 144
-0.988064, 97, 49, 160, 112
-0.988067, 265, 193, 296, 320
-0.988161, 457, 33, 488, 160
-0.988243, 129, 305, 256, 368
-0.988298, 65, 241, 128, 368
-0.988346, 193, 193, 320, 256
-0.988365, 205, 97, 236, 160
-0.988465, 185, 129, 248, 375
-0.988468, 393, 129, 456, 192
-0.988506, 257, 161, 288, 224
-0.98851, 389, 161, 420, 224
-0.988574, 209, 177, 272, 240
-0.988581, 145, 89, 272, 152
-0.9886, 229, 97, 260, 224
-0.988639, 161, 241, 224, 304
-0.988667, 129, 265, 256, 328
-0.988692, 153, 241, 184, 368
-0.988803, 401, 97, 432, 224
-0.988835, 385, 193, 416, 320
-0.988892, 9, 49, 40, 176
-0.988914, 121, 257, 184, 320
-0.988917, 49, 217, 112, 280
-0.988919, 241, 161, 368, 224
-0.988939, 409, 97, 440, 160
-0.988949, 33, 209, 160, 272
-0.989057, 401, 1, 464, 375
-0.989204, 465, 177, 496, 240
-0.989242, 9, 249, 72, 312
-0.989266, 161, 97, 224, 352
-0.989279, 1, 105, 128, 168
-0.989281, 417, 97, 448, 224
-0.989291, 97, 105, 224, 168
-0.989301, 17, 17, 144, 144
-0.989326, 249, 177, 280, 304
-0.989356, 1, 65, 64, 128
-0.989372, 337, 113, 368, 240
-0.989376, 437, 177, 468, 240
-0.989407, 445, 33, 476, 160
-0.989434, 249, 201, 280, 264
-0.989508, 457, 89, 488, 152
-0.989523, 405, 225, 436, 352
-0.989539, 265, 209, 328, 272
-0.98957, 113, 169, 176, 232
-0.989615, 13, 177, 44, 304
-0.989679, 193, 113, 320, 176
-0.989852, 437, 97, 468, 224
-0.989893, 281, 193, 312, 320
-0.989904, 353, 9, 480, 72
-0.989927, 349, 105, 380, 168
-0.990009, 33, 305, 160, 368
-0.990023, 25, 121, 56, 184
-0.990023, 321, 217, 448, 280
-0.990047, 249, 129, 312, 375
-0.990049, 369, 241, 496, 304
-0.990055, 305, 129, 368, 375
-0.99007, 385, 105, 448, 168
-0.990142, 57, 177, 120, 240
-0.99016, 25, 113, 56, 240
-0.990196, 61, 145, 92, 272
-0.990232, 97, 41, 224, 104
-0.990232, 177, 233, 304, 296
-0.990244, 225, 177, 480, 240
-0.990249, 369, 57, 496, 120
-0.990256, 377, 281, 440, 344
-0.990274, 81, 305, 208, 368
-0.990288, 209, 265, 336, 328
-0.990327, 449, 153, 480, 216
-0.990337, 205, 81, 236, 208
-0.990544, 337, 1, 400, 128
-0.990651, 377, 169, 440, 200
-0.990657, 321, 49, 448, 176
-0.990716, 113, 1, 240, 128
-0.990717, 165, 241, 196, 368
-0.990735, 49, 161, 176, 224
-0.990769, 305, 161, 336, 288
-0.990777, 305, 1, 432, 128
-0.990793, 257, 113, 384, 176
-0.990798, 313, 153, 344, 216
-0.990822, 269, 169, 300, 232
-0.990887, 145, 313, 208, 375
-0.990927, 129, 129, 192, 192
-0.990957, 161, 193, 224, 320
-0.990978, 333, 105, 364, 168
-0.991009, 1, 257, 128, 320
-0.991035, 161, 273, 224, 336
-0.991043, 377, 1, 440, 375
-0.991106, 17, 133, 80, 164
-0.991109, 65, 153, 96, 216
-0.99113, 137, 161, 168, 288
-0.991135, 369, 169, 400, 232
-0.991153, 65, 81, 128, 208
-0.991184, 113, 241, 240, 304
-0.991185, 121, 129, 184, 375
-0.991194, 425, 81, 488, 112
-0.991207, 241, 153, 272, 216
-0.991213, 369, 265, 496, 328
-0.991224, 433, 17, 496, 80
-0.991262, 417, 101, 480, 132
-0.991263, 345, 169, 408, 200
-0.991278, 121, 1, 184, 375
-0.99131, 433, 181, 496, 212
-0.991316, 97, 313, 160, 375
-0.991341, 193, 297, 256, 360
-0.991377, 233, 161, 296, 192
-0.991401, 341, 137, 372, 200
-0.991446, 1, 193, 32, 320
-0.991472, 209, 93, 272, 124
-0.991479, 433, 117, 496, 148
-0.991485, 321, 113, 384, 144
-0.991491, 389, 97, 420, 224
-0.991502, 9, 105, 40, 168
-0.991522, 369, 157, 432, 188
-0.991527, 385, 9, 448, 72
-0.991564, 225, 89, 256, 152
-0.99157, 89, 105, 152, 168
-0.991578, 1, 89, 64, 152
-0.991595, 49, 241, 112, 304
-0.991604, 33, 129, 96, 375
-0.99162, 417, 165, 480, 196
-0.991655, 225, 1, 288, 375
-0.991685, 129, 209, 160, 336
-0.991704, 345, 157, 408, 188
-0.991712, 369, 137, 432, 168
-0.991721, 121, 81, 184, 144
-0.991734, 17, 185, 80, 216
-0.99176, 241, 201, 304, 232
-0.991762, 273, 169, 336, 200
-0.991776, 69, 289, 100, 352
-0.991804, 9, 1, 72, 375
-0.991811, 209, 105, 272, 136
-0.991827, 249, 189, 312, 220
-0.991843, 321, 125, 384, 156
-0.991865, 125, 297, 156, 360
-0.991878, 121, 41, 184, 72
-0.991879, 141, 169, 172, 232
-0.99188, 369, 113, 400, 240
-0.991888, 161, 65, 224, 128
-0.991896, 9, 137, 40, 200
-0.991905, 17, 169, 80, 200
-0.991906, 89, 133, 152, 164
-0.991907, 241, 177, 304, 208
-0.991924, 377, 181, 440, 212
-0.991924, 1, 81, 128, 144
-0.991937, 445, 81, 476, 144
-0.99194, 281, 189, 344, 220
-0.99195, 121, 257, 184, 288
-0.991969, 193, 289, 320, 352
-0.991973, 353, 1, 416, 375
-0.991974, 377, 137, 408, 200
-0.991984, 17, 297, 80, 360
-0.991991, 9, 201, 72, 232
-0.991996, 25, 145, 88, 176
-0.992001, 49, 113, 176, 176
-0.992011, 397, 113, 428, 176
-0.992017, 145, 153, 272, 216
-0.99203, 121, 245, 184, 276
-0.992034, 145, 41, 208, 104
-0.992042, 225, 201, 480, 264
-0.992043, 145, 177, 272, 240
-0.992054, 305, 177, 368, 208
-0.992057, 293, 161, 324, 288
-0.992064, 361, 125, 424, 156
-0.992072, 129, 313, 192, 344
-0.992096, 345, 137, 408, 168
-0.992097, 97, 65, 224, 128
-0.992101, 81, 297, 144, 328
-0.992141, 53, 193, 84, 320
-0.992151, 241, 281, 304, 344
-0.992162, 225, 89, 352, 152
-0.992169, 9, 225, 72, 256
-0.992174, 185, 101, 248, 132
-0.992187, 17, 49, 144, 112
-0.992209, 321, 81, 448, 144
-0.992228, 121, 233, 184, 264
-0.992231, 241, 213, 304, 244
-0.992281, 129, 269, 192, 300
-0.992316, 457, 65, 488, 128
-0.992341, 461, 209, 492, 336
-0.992342, 409, 153, 472, 184
-0.992354, 177, 313, 240, 344
-0.99236, 17, 157, 80, 188
-0.992367, 9, 237, 72, 268
-0.992377, 161, 129, 224, 160
-0.992385, 409, 181, 472, 212
-0.992388, 345, 181, 408, 212
-0.99241, 105, 81, 136, 208
-0.992422, 121, 57, 184, 88
-0.992463, 301, 169, 332, 232
-0.992506, 369, 1, 400, 128
-0.99251, 393, 101, 456, 132
-0.992517, 305, 161, 368, 192
-0.992535, 161, 1, 224, 256
-0.992578, 209, 157, 272, 188
-0.992587, 113, 169, 176, 200
-0.992588, 389, 193, 420, 256
-0.992599, 225, 281, 288, 312
-0.992619, 417, 169, 448, 232
-0.99263, 97, 217, 160, 280
-0.992638, 277, 201, 308, 264
-0.992645, 361, 109, 424, 140
-0.99265, 145, 325, 208, 356
-0.992651, 433, 249, 496, 280
-0.992655, 417, 233, 480, 264
-0.992658, 385, 213, 448, 244
-0.99266, 417, 209, 448, 336
-0.992661, 433, 193, 496, 224
-0.992666, 217, 265, 280, 296
-0.992668, 409, 141, 472, 172
-0.99267, 401, 261, 464, 292
-0.992671, 121, 121, 184, 152
-0.992671, 9, 257, 72, 288
-0.992671, 153, 269, 216, 300
-0.992688, 361, 81, 424, 144
-0.99269, 433, 1, 464, 128
-0.992696, 57, 145, 120, 176
-0.992708, 193, 117, 256, 148
-0.992714, 269, 233, 300, 296
-0.992715, 17, 273, 80, 304
-0.992716, 257, 217, 384, 280
-0.992727, 345, 193, 408, 224
-0.992728, 409, 13, 472, 44
-0.992749, 377, 193, 440, 224
-0.99276, 145, 33, 176, 96
-0.99276, 425, 33, 488, 64
-0.992765, 313, 137, 376, 168
-0.992775, 153, 253, 216, 284
-0.992779, 41, 285, 104, 316
-0.992788, 161, 209, 224, 272
-0.992789, 425, 205, 488, 236
-0.992791, 49, 113, 112, 176
-0.9928, 57, 313, 120, 344
-0.992804, 9, 121, 72, 152
-0.992806, 321, 89, 384, 152
-0.992812, 381, 169, 412, 200
-0.992815, 121, 205, 184, 236
-0.992819, 81, 285, 144, 316
-0.992842, 113, 157, 176, 188
-0.992851, 121, 193, 184, 224
-0.99286, 73, 1, 136, 375
-0.992877, 97, 177, 160, 304
-0.99288, 117, 113, 148, 240
-0.992887, 121, 221, 184, 252
-0.992889, 373, 161, 404, 288
-0.992906, 273, 201, 336, 232
-0.992909, 241, 241, 304, 272
-0.992912, 221, 93, 252, 124
-0.992913, 425, 217, 488, 248
-0.992916, 161, 297, 224, 328
-0.992922, 97, 1, 160, 256
-0.992933, 265, 157, 328, 188
-0.992935, 257, 261, 320, 292
-0.992938, 401, 245, 464, 276
-0.99294, 121, 285, 184, 316
-0.99295, 201, 1, 264, 375
-0.992973, 209, 249, 272, 312
-0.992979, 217, 197, 280, 228
-0.992987, 129, 145, 192, 176
-0.992989, 41, 301, 104, 332
-0.992998, 401, 89, 464, 120
-0.993026, 241, 225, 304, 256
-0.993031, 97, 309, 160, 340
-0.993041, 49, 125, 112, 156
-0.993042, 121, 73, 184, 104
-0.993052, 201, 145, 264, 176
-0.993055, 369, 233, 432, 264
-0.993067, 161, 237, 224, 268
-0.993071, 185, 89, 248, 120
-0.993084, 433, 69, 496, 100
-0.993085, 57, 157, 120, 188
-0.993088, 377, 293, 440, 324
-0.99309, 121, 297, 184, 328
-0.993091, 13, 121, 44, 152
-0.993092, 97, 329, 160, 360
-0.993103, 305, 149, 368, 180
-0.993113, 393, 113, 456, 144
-0.993119, 441, 181, 472, 212
-0.993124, 193, 97, 224, 160
-0.993132, 161, 269, 192, 300
-0.993134, 469, 125, 500, 156
-0.993136, 153, 253, 184, 284
-0.993138, 297, 121, 360, 152
-0.993139, 169, 117, 232, 148
-0.99314, 41, 221, 104, 252
-0.993148, 57, 181, 120, 212
-0.993156, 465, 97, 496, 128
-0.993158, 81, 145, 144, 176
-0.993159, 209, 97, 240, 128
-0.993188, 225, 241, 256, 368
-0.993188, 169, 257, 200, 288
-0.993189, 245, 157, 276, 188
-0.99319, 21, 65, 52, 192
-0.993195, 137, 161, 200, 192
-0.9932, 97, 57, 160, 88
-0.993201, 409, 101, 440, 132
-0.993202, 193, 273, 256, 336
-0.993208, 9, 105, 72, 136
-0.99321, 461, 177, 492, 208
-0.993211, 177, 141, 240, 172
-0.993213, 265, 213, 296, 244
-0.993216, 49, 253, 112, 284
-0.993216, 321, 101, 384, 132
-0.993217, 225, 241, 352, 304
-0.99322, 321, 113, 352, 176
-0.993221, 369, 289, 496, 352
-0.993231, 321, 177, 352, 208
-0.993232, 121, 65, 152, 192
-0.993233, 201, 297, 264, 328
-0.993234, 313, 165, 344, 196
-0.993236, 129, 225, 160, 288
-0.993241, 433, 129, 496, 160
-0.993242, 401, 153, 432, 184
-0.993246, 465, 85, 496, 116
-0.993247, 1, 81, 64, 112
-0.993254, 257, 161, 288, 192
-0.993255, 409, 241, 440, 304
-0.993255, 113, 181, 176, 212
-0.993256, 229, 105, 260, 136
-0.993257, 357, 161, 388, 192
-0.993264, 217, 253, 280, 284
-0.993268, 1, 205, 32, 236
-0.993268, 345, 213, 408, 244
-0.993268, 389, 181, 420, 212
-0.993269, 421, 93, 452, 124
-0.993271, 201, 309, 264, 340
-0.993271, 453, 105, 484, 136
-0.993273, 353, 117, 384, 148
-0.993275, 449, 169, 480, 200
-0.993276, 257, 273, 320, 304
-0.993281, 325, 113, 356, 144
-0.993284, 269, 201, 300, 232
-0.993293, 265, 189, 296, 220
-0.993304, 161, 81, 224, 112
-0.993317, 373, 185, 404, 216
-0.993323, 389, 209, 420, 240
-0.993324, 401, 165, 432, 196
-0.993325, 5, 137, 36, 168
-0.993333, 397, 137, 428, 168
-0.993348, 457, 29, 488, 60
-0.993349, 465, 113, 496, 144
-0.993352, 445, 85, 476, 116
-0.993353, 29, 125, 60, 156
-0.993361, 453, 17, 484, 80
-0.993361, 321, 193, 448, 256
-0.993368, 449, 193, 480, 224
-0.993376, 465, 73, 496, 104
-0.993384, 345, 105, 376, 136
-0.993388, 253, 197, 284, 228
-0.993389, 301, 173, 332, 204
-0.993404, 381, 157, 412, 188
-0.993412, 209, 73, 272, 136
-0.993413, 341, 129, 372, 160
-0.993416, 137, 113, 168, 240
-0.993418, 65, 153, 96, 184
-0.99342, 173, 245, 204, 276
-0.993427, 265, 237, 296, 268
-0.993432, 89, 137, 120, 168
-0.993434, 297, 185, 328, 216
-0.993435, 413, 253, 444, 284
-0.99344, 133, 33, 164, 96
-0.993441, 429, 181, 460, 212
-0.993443, 137, 173, 168, 204
-0.993451, 105, 129, 136, 160
-0.993453, 49, 185, 176, 248
-0.993453, 253, 209, 284, 240
-0.993455, 329, 125, 360, 156
-0.99346, 453, 117, 484, 148
-0.993463, 153, 141, 184, 172
-0.993468, 153, 241, 184, 272
-0.99347, 69, 289, 100, 320
-0.993475, 445, 25, 476, 56
-0.993477, 405, 113, 436, 144
-0.993479, 141, 153, 172, 184
-0.99348, 421, 169, 452, 200
-0.993485, 461, 149, 492, 180
-0.993485, 169, 129, 200, 160
-0.993485, 13, 109, 44, 140
-0.993485, 465, 189, 496, 220
-0.993492, 357, 149, 388, 180
-0.993497, 389, 125, 420, 156
-0.993499, 373, 137, 404, 168
-0.993504, 197, 137, 228, 168
-0.993507, 153, 41, 184, 72
-0.993507, 121, 305, 152, 336
-0.993508, 77, 145, 108, 176
-0.993509, 149, 265, 180, 296
-0.99351, 437, 169, 468, 200
-0.993511, 389, 197, 420, 228
-0.993511, 9, 149, 40, 180
-0.993512, 225, 225, 480, 288
-0.993514, 209, 125, 240, 156
-0.993523, 241, 193, 272, 224
-0.993523, 129, 233, 160, 264
-0.993524, 9, 221, 40, 252
-0.993526, 261, 173, 292, 204
-0.993528, 233, 93, 264, 124
-0.993528, 317, 161, 348, 288
-0.993533, 285, 189, 316, 220
-0.99354, 461, 241, 492, 272
-0.99354, 341, 141, 372, 172
-0.993544, 441, 105, 472, 136
-0.993549, 369, 149, 400, 180
-0.993553, 9, 169, 40, 200
-0.993559, 201, 109, 232, 140
-0.993563, 457, 17, 488, 48
-0.993564, 213, 109, 244, 140
-0.993566, 197, 97, 228, 128
-0.993566, 25, 137, 56, 168
-0.993566, 365, 173, 396, 204
-0.993566, 125, 41, 156, 72
-0.993568, 137, 189, 168, 220
-0.993569, 125, 245, 156, 276
-0.993569, 389, 105, 420, 136
-0.99357, 393, 73, 456, 136
-0.993575, 217, 97, 248, 224
-0.993577, 357, 129, 388, 160
-0.993577, 169, 325, 200, 356
-0.993577, 445, 157, 476, 188
-0.993581, 233, 153, 264, 184
-0.993583, 5, 181, 36, 212
-0.993584, 341, 173, 372, 204
-0.993585, 129, 281, 160, 312
-0.99359, 437, 13, 468, 44
-0.993591, 89, 297, 120, 328
-0.993594, 193, 121, 224, 152
-0.993594, 137, 37, 168, 68
-0.993595, 261, 225, 292, 256
-0.993597, 249, 225, 280, 256
-0.993598, 285, 209, 316, 240
-0.993599, 153, 153, 184, 184
-0.993601, 113, 45, 144, 76
-0.993601, 433, 85, 464, 116
-0.993602, 445, 73, 476, 104
-0.993603, 445, 253, 476, 284
-0.993603, 281, 173, 312, 204
-0.993603, 429, 105, 460, 136
-0.993603, 125, 265, 156, 296
-0.993604, 461, 221, 492, 252
-0.993606, 161, 57, 192, 88
-0.993611, 129, 221, 160, 252
-0.993613, 249, 281, 280, 312
-0.993616, 149, 57, 180, 88
-0.993617, 33, 229, 64, 260
-0.993634, 369, 177, 496, 208
-0.993654, 309, 113, 340, 240
-0.993666, 297, 113, 360, 176
-0.993672, 13, 73, 44, 136
-0.993692, 237, 145, 268, 272
-0.993727, 1, 177, 32, 240
-0.993778, 41, 113, 72, 240
-0.993818, 97, 1, 160, 375
-0.993831, 201, 129, 232, 256
-0.993846, 161, 1, 224, 375
-0.993876, 117, 241, 148, 368
-0.993878, 445, 241, 476, 368
-0.993915, 193, 137, 320, 200
-0.99394, 201, 33, 264, 288
-0.993941, 145, 153, 208, 216
-0.993966, 429, 81, 460, 144
-0.994077, 81, 241, 144, 304
-0.994167, 13, 289, 44, 352
-0.994218, 1, 225, 500, 288
-0.994236, 353, 33, 480, 96
-0.994237, 57, 273, 120, 336
-0.994238, 265, 1, 328, 375
-0.994272, 153, 297, 184, 360
-0.994273, 97, 217, 224, 280
-0.994285, 145, 209, 272, 272
-0.994314, 225, 113, 256, 176
-0.994334, 321, 1, 384, 375
-0.994361, 113, 257, 144, 320
-0.994387, 81, 137, 112, 200
-0.994399, 389, 225, 420, 288
-0.994409, 437, 9, 468, 72
-0.99441, 149, 193, 180, 320
-0.994411, 353, 9, 416, 72
-0.994442, 205, 121, 236, 184
-0.994578, 33, 129, 288, 192
-0.994602, 413, 1, 444, 128
-0.994648, 157, 129, 188, 192
-0.994672, 149, 233, 180, 296
-0.994679, 249, 129, 280, 256
-0.994722, 77, 129, 108, 256
-0.994726, 137, 105, 200, 168
-0.994734, 17, 185, 48, 248
-0.994737, 113, 113, 144, 176
-0.994743, 321, 177, 352, 240
-0.994763, 401, 217, 432, 280
-0.994776, 353, 217, 416, 280
-0.994777, 65, 249, 320, 312
-0.994809, 429, 225, 460, 352
-0.99482, 45, 137, 76, 200
-0.994825, 257, 153, 500, 216
-0.99483, 325, 145, 356, 208
-0.994874, 201, 33, 264, 160
-0.994902, 453, 113, 484, 176
-0.994911, 377, 193, 408, 256
-0.995033, 465, 225, 496, 288
-0.995043, 401, 161, 432, 224
-0.995045, 141, 145, 172, 208
-0.99506, 21, 97, 52, 160
-0.995106, 373, 65, 404, 192
-0.995113, 69, 241, 100, 368
-0.995119, 9, 273, 72, 336
-0.995137, 193, 81, 224, 208
-0.995183, 265, 33, 328, 288
-0.995196, 389, 137, 420, 200
-0.995201, 89, 281, 120, 344
-0.995216, 369, 165, 496, 196
-0.995232, 157, 41, 188, 104
-0.995244, 137, 193, 168, 256
-0.995248, 157, 65, 188, 192
-0.995248, 369, 205, 496, 236
-0.995251, 97, 129, 128, 192
-0.995251, 53, 217, 84, 280
-0.995273, 469, 57, 500, 120
-0.995296, 305, 33, 368, 288
-0.995301, 1, 249, 500, 312
-0.995311, 177, 313, 304, 375
-0.995346, 25, 1, 88, 256
-0.995355, 41, 81, 104, 208
-0.99536, 321, 241, 448, 304
-0.995362, 369, 109, 496, 140
-0.995366, 245, 233, 276, 296
-0.995414, 241, 177, 272, 240
-0.995423, 89, 241, 120, 368
-0.995428, 33, 273, 288, 336
-0.995465, 81, 81, 144, 144
-0.995472, 353, 289, 416, 352
-0.995478, 125, 265, 156, 328
-0.99552, 361, 121, 392, 184
-0.995555, 229, 161, 260, 224
-0.995559, 97, 217, 352, 280
-0.99558, 289, 177, 416, 208
-0.995615, 289, 185, 320, 248
-0.995642, 475, 89, 490, 152
-0.995653, 125, 57, 156, 120
-0.995655, 369, 189, 496, 220
-0.995656, 141, 241, 172, 368
-0.995662, 225, 129, 480, 192
-0.995665, 101, 97, 132, 160
-0.995675, 421, 137, 452, 200
-0.995682, 169, 257, 200, 320
-0.995682, 249, 273, 280, 336
-0.995692, 93, 113, 124, 240
-0.995703, 273, 145, 304, 272
-0.995739, 157, 113, 188, 240
-0.995739, 433, 153, 464, 216
-0.995749, 1, 201, 500, 264
-0.995758, 97, 193, 352, 256
-0.995808, 185, 249, 248, 312
-0.995846, 141, 49, 172, 176
-0.99585, 237, 209, 268, 336
-0.995888, 145, 65, 272, 128
-0.995909, 113, 49, 144, 112
-0.99593, 169, 121, 200, 184
-0.995941, 129, 17, 256, 80
-0.995956, 321, 273, 448, 336
-0.995958, 49, 1, 112, 375
-0.995958, 241, 49, 368, 176
-0.995961, 369, 217, 496, 248
-0.995961, 113, 297, 144, 360
-0.995986, 257, 89, 500, 152
-0.996006, 97, 161, 352, 224
-0.996038, 273, 209, 336, 336
-0.99604, 397, 1, 428, 128
-0.996043, 1, 241, 32, 368
-0.996091, 213, 73, 244, 136
-0.996106, 73, 193, 136, 320
-0.996108, 25, 81, 88, 144
-0.996117, 481, 89, 496, 152
-0.996119, 341, 169, 372, 232
-0.996123, 409, 49, 472, 112
-0.996129, 121, 137, 152, 200
-0.996153, 391, 161, 406, 224
-0.996185, 457, 201, 488, 264
-0.996252, 225, 33, 288, 288
-0.996254, 217, 297, 280, 360
-0.996258, 449, 249, 480, 312
-0.99626, 257, 265, 384, 328
-0.996286, 1, 145, 128, 176
-0.996307, 125, 161, 156, 288
-0.996318, 97, 193, 160, 256
-0.996367, 289, 165, 416, 196
-0.996388, 193, 121, 224, 184
-0.996448, 321, 297, 448, 360
-0.996451, 225, 249, 480, 312
-0.996454, 137, 177, 200, 240
-0.996455, 253, 241, 284, 368
-0.996478, 353, 65, 384, 192
-0.996493, 321, 241, 448, 368
-0.996526, 225, 97, 288, 160
-0.996531, 297, 1, 360, 375
-0.996535, 209, 97, 224, 160
-0.996546, 169, 313, 200, 375
-0.996553, 105, 241, 136, 368
-0.996596, 425, 257, 456, 320
-0.996614, 305, 1, 432, 64
-0.996624, 305, 65, 368, 192
-0.996635, 485, 121, 500, 184
-0.996666, 1, 169, 128, 200
-0.996689, 209, 145, 240, 208
-0.99672, 53, 273, 84, 336
-0.996724, 457, 169, 472, 232
-0.99675, 329, 161, 360, 288
-0.996756, 469, 81, 484, 144
-0.996781, 383, 185, 398, 248
-0.996784, 49, 17, 176, 80
-0.996804, 417, 217, 448, 280
-0.996809, 321, 57, 448, 120
-0.996824, 1, 129, 128, 160
-0.996825, 41, 193, 72, 320
-0.996825, 145, 41, 272, 104
-0.996831, 193, 289, 448, 352
-0.996844, 451, 177, 466, 240
-0.996847, 369, 93, 496, 124
-0.99685, 73, 49, 136, 112
-0.996851, 81, 309, 208, 340
-0.996852, 225, 265, 256, 328
-0.996865, 97, 25, 160, 88
-0.996868, 317, 153, 332, 216
-0.996872, 369, 149, 496, 180
-0.996893, 369, 121, 496, 152
-0.9969, 237, 105, 268, 168
-0.996917, 45, 241, 76, 368
-0.996949, 177, 241, 208, 368
-0.996974, 241, 289, 368, 352
-0.996989, 89, 161, 152, 224
-0.996994, 1, 281, 500, 344
-0.996996, 65, 141, 192, 172
-0.997005, 1, 169, 500, 232
-0.997008, 137, 113, 168, 176
-0.997017, 11, 201, 26, 264
-0.997029, 161, 105, 416, 168
-0.997049, 463, 169, 478, 232
-0.997063, 1, 157, 128, 188
-0.997076, 369, 9, 400, 72
-0.997089, 459, 17, 474, 80
-0.997089, 1, 145, 32, 272
-0.997102, 113, 137, 240, 168
-0.997129, 153, 17, 216, 80
-0.997149, 65, 269, 192, 300
-0.997149, 273, 161, 288, 224
-0.997155, 385, 49, 448, 176
-0.997159, 1, 185, 128, 216
-0.997159, 279, 193, 294, 256
-0.997173, 281, 161, 312, 224
-0.997196, 5, 201, 20, 264
-0.997199, 465, 65, 496, 320
-0.997204, 225, 165, 352, 196
-0.997209, 305, 113, 432, 144
-0.99722, 17, 201, 32, 264
-0.997222, 241, 97, 256, 160
-0.997229, 479, 121, 494, 184
-0.997233, 133, 297, 148, 360
-0.997244, 33, 221, 160, 252
-0.997253, 247, 153, 262, 216
-0.997263, 31, 121, 46, 184
-0.997267, 225, 145, 256, 272
-0.997279, 289, 193, 416, 224
-0.997285, 21, 161, 52, 224
-0.997296, 471, 121, 486, 184
-0.997306, 33, 233, 64, 296
-0.997315, 363, 113, 378, 176
-0.997326, 289, 153, 416, 184
-0.997331, 149, 273, 180, 336
-0.997347, 49, 89, 176, 152
-0.997354, 185, 225, 248, 288
-0.997381, 429, 225, 460, 288
-0.997384, 383, 161, 398, 224
-0.997387, 215, 105, 230, 168
-0.997393, 409, 113, 424, 176
-0.997403, 241, 81, 272, 208
-0.997407, 33, 233, 160, 264
-0.997408, 13, 225, 44, 352
-0.99742, 121, 81, 152, 144
-0.99743, 193, 193, 320, 224
-0.997432, 169, 241, 184, 304
-0.997441, 25, 313, 56, 375
-0.997445, 21, 113, 36, 176
-0.997451, 255, 193, 270, 256
-0.997463, 411, 137, 426, 200
-0.997466, 267, 201, 282, 264
-0.997472, 1, 105, 500, 168
-0.997476, 209, 305, 240, 368
-0.99748, 301, 145, 332, 208
-0.997495, 445, 169, 460, 232
-0.997503, 369, 81, 496, 112
-0.997508, 49, 33, 112, 288
-0.997509, 97, 297, 352, 360
-0.997517, 465, 145, 480, 208
-0.997522, 459, 81, 474, 144
-0.997523, 469, 177, 484, 240
-0.99755, 1, 217, 256, 280
-0.997551, 97, 193, 224, 256
-0.997552, 355, 137, 370, 200
-0.997556, 257, 65, 500, 128
-0.997563, 287, 209, 302, 272
-0.997565, 397, 265, 428, 328
-0.997567, 61, 177, 92, 240
-0.997572, 21, 145, 36, 208
-0.997577, 417, 73, 448, 136
-0.997585, 33, 253, 160, 284
-0.997598, 169, 193, 200, 320
-0.997599, 129, 317, 256, 348
-0.997604, 1, 25, 128, 88
-0.997605, 381, 1, 412, 128
-0.997607, 321, 129, 448, 160
-0.997614, 401, 129, 432, 375
-0.997617, 377, 305, 440, 368
-0.997617, 25, 161, 88, 288
-0.99762, 265, 153, 280, 216
-0.997624, 235, 89, 250, 152
-0.997627, 345, 105, 360, 168
-0.997639, 1, 265, 32, 328
-0.997644, 253, 153, 268, 216
-0.997687, 129, 269, 256, 300
-0.997687, 403, 113, 418, 176
-0.997693, 49, 153, 176, 184
-0.997707, 389, 49, 420, 176
-0.997715, 81, 281, 208, 312
-0.997725, 321, 101, 448, 132
-0.997725, 341, 161, 372, 288
-0.99773, 385, 113, 416, 176
-0.997733, 169, 257, 184, 288
-0.997738, 257, 9, 500, 72
-0.997754, 349, 129, 364, 192
-0.997757, 1, 57, 500, 120
-0.997759, 131, 257, 146, 320
-0.997762, 435, 177, 450, 240
-0.997779, 1, 57, 256, 120
-0.997783, 311, 161, 326, 224
-0.99779, 209, 225, 272, 288
-0.997794, 369, 313, 496, 375
-0.997796, 115, 89, 130, 152
-0.997799, 127, 289, 142, 352
-0.997822, 391, 193, 406, 256
-0.997828, 101, 289, 132, 352
-0.997836, 253, 137, 284, 200
-0.997838, 353, 13, 480, 44
-0.997844, 49, 321, 176, 352
-0.99785, 177, 165, 304, 196
-0.997852, 209, 65, 336, 128
-0.997867, 13, 177, 28, 240
-0.99787, 145, 97, 272, 128
-0.997871, 69, 153, 84, 216
-0.997871, 457, 145, 472, 208
-0.997873, 413, 129, 444, 375
-0.997875, 321, 141, 448, 172
-0.997879, 161, 1, 224, 128
-0.997901, 217, 49, 248, 176
-0.997904, 213, 241, 244, 368
-0.997904, 209, 177, 336, 208
-0.997906, 259, 161, 274, 224
-0.997907, 281, 217, 296, 280
-0.997916, 273, 209, 400, 240
-0.997916, 65, 297, 192, 328
-0.997918, 33, 105, 288, 168
-0.997921, 189, 225, 220, 352
-0.997923, 209, 261, 336, 292
-0.99793, 415, 97, 430, 160
-0.997937, 203, 105, 218, 168
-0.997944, 325, 169, 340, 232
-0.997945, 429, 129, 460, 375
-0.997946, 373, 137, 388, 200
-0.997946, 23, 193, 38, 256
-0.997948, 131, 225, 146, 288
-0.997949, 1, 197, 128, 228
-0.997949, 7, 97, 22, 160
-0.997951, 465, 113, 480, 176
-0.997962, 377, 161, 392, 224
-0.99797, 357, 105, 372, 168
-0.997973, 1, 289, 128, 320
-0.997973, 369, 229, 496, 260
-0.997976, 109, 33, 140, 160
-0.997982, 97, 125, 224, 156
-0.997994, 215, 81, 230, 144
-0.998001, 273, 89, 400, 152
-0.998004, 165, 57, 180, 120
-0.998024, 261, 193, 276, 256
-0.99804, 27, 97, 42, 160
-0.998042, 471, 145, 486, 208
-0.998046, 419, 241, 434, 304
-0.998058, 1, 57, 32, 120
-0.998058, 389, 129, 420, 375
-0.998068, 59, 137, 74, 200
-0.998075, 13, 233, 44, 296
-0.998076, 397, 137, 412, 200
-0.998082, 325, 113, 340, 176
-0.998089, 193, 221, 320, 252
-0.998089, 225, 137, 256, 200
-0.998092, 133, 33, 148, 96
-0.998098, 117, 121, 132, 184
-0.998099, 411, 233, 426, 296
-0.9981, 1, 297, 256, 360
-0.998101, 65, 265, 96, 328
-0.99811, 475, 177, 490, 240
-0.998112, 139, 289, 154, 352
-0.998116, 53, 233, 68, 296
-0.998123, 305, 25, 432, 88
-0.998129, 419, 161, 434, 224
-0.99813, 1, 273, 128, 304
-0.998132, 103, 129, 118, 192
-0.998133, 177, 241, 304, 272
-0.998133, 421, 89, 436, 152
-0.998138, 209, 121, 224, 184
-0.998139, 383, 137, 398, 200
-0.99814, 247, 185, 262, 248
-0.99814, 57, 129, 88, 375
-0.998144, 479, 153, 494, 216
-0.998144, 33, 209, 160, 240
-0.998145, 145, 297, 272, 328
-0.998145, 261, 129, 292, 375
-0.998149, 113, 225, 240, 256
-0.998149, 335, 105, 350, 168
-0.998153, 193, 205, 320, 236
-0.998155, 49, 165, 176, 196
-0.998156, 1, 137, 500, 200
-0.998165, 273, 209, 288, 272
-0.998168, 1, 97, 32, 352
-0.998176, 249, 137, 312, 200
-0.998183, 139, 193, 154, 256
-0.998191, 453, 65, 468, 128
-0.998195, 171, 41, 186, 104
-0.998197, 453, 97, 484, 352
-0.998203, 97, 237, 224, 268
-0.998205, 81, 145, 96, 208
-0.998216, 145, 149, 272, 180
-0.998217, 351, 105, 366, 168
-0.998227, 393, 169, 408, 200
-0.998228, 1, 177, 256, 240
-0.998232, 97, 45, 224, 76
-0.998241, 437, 81, 452, 144
-0.998244, 23, 121, 38, 152
-0.998245, 241, 153, 368, 184
-0.998249, 15, 97, 30, 160
-0.99825, 305, 169, 320, 232
-0.998253, 151, 33, 166, 96
-0.998259, 373, 143, 404, 158
-0.998259, 403, 137, 418, 200
-0.99826, 441, 87, 472, 102
-0.99826, 385, 187, 416, 202
-0.998261, 281, 191, 312, 206
-0.998261, 205, 141, 236, 156
-0.998262, 409, 259, 440, 274
-0.998262, 261, 173, 292, 188
-0.998262, 285, 207, 316, 222
-0.998262, 389, 211, 420, 226
-0.998263, 5, 121, 36, 136
-0.998263, 81, 149, 112, 164
-0.998263, 85, 143, 116, 158
-0.998263, 97, 325, 128, 340
-0.998263, 265, 225, 296, 240
-0.998264, 281, 181, 312, 196
-0.998264, 389, 137, 404, 200
-0.998264, 25, 125, 56, 140
-0.998264, 93, 137, 124, 152
-0.998264, 17, 119, 48, 134
-0.998264, 389, 107, 420, 122
-0.998265, 63, 169, 78, 232
-0.998265, 341, 175, 372, 190
-0.998265, 301, 181, 332, 196
-0.998266, 389, 175, 420, 190
-0.998267, 265, 239, 296, 254
-0.998267, 249, 199, 280, 214
-0.998267, 209, 133, 240, 148
-0.998267, 413, 95, 444, 110
-0.998268, 165, 257, 196, 272
-0.998268, 141, 161, 172, 176
-0.998268, 461, 109, 492, 124
-0.998268, 357, 175, 388, 190
-0.998268, 457, 123, 488, 138
-0.998269, 393, 241, 424, 368
-0.99827, 237, 193, 268, 208
-0.99827, 401, 141, 432, 156
-0.998271, 241, 159, 272, 174
-0.998271, 133, 155, 164, 170
-0.998271, 109, 97, 124, 160
-0.998271, 313, 185, 344, 200
-0.998272, 125, 267, 156, 282
-0.998272, 225, 119, 256, 134
-0.998273, 453, 97, 484, 112
-0.998273, 329, 127, 360, 142
-0.998273, 341, 141, 372, 156
-0.998274, 69, 155, 100, 170
-0.998274, 169, 129, 200, 144
-0.998274, 141, 179, 172, 194
-0.998275, 157, 33, 172, 96
-0.998275, 341, 109, 372, 124
-0.998276, 321, 171, 352, 186
-0.998276, 357, 1, 388, 128
-0.998276, 137, 171, 168, 186
-0.998277, 437, 177, 468, 192
-0.998278, 381, 163, 412, 178
-0.998278, 421, 177, 452, 192
-0.998278, 129, 231, 160, 246
-0.99828, 465, 115, 496, 130
-0.99828, 357, 163, 388, 178
-0.99828, 9, 147, 40, 162
-0.99828, 483, 57, 498, 120
-0.998281, 9, 153, 40, 168
-0.998281, 363, 145, 378, 208
-0.998281, 453, 117, 484, 132
-0.998281, 445, 105, 476, 120
-0.998281, 471, 217, 486, 280
-0.998282, 449, 171, 480, 186
-0.998283, 17, 309, 144, 340
-0.998285, 353, 147, 384, 162
-0.998285, 253, 205, 284, 220
-0.998285, 389, 197, 420, 212
-0.998288, 49, 129, 176, 160
-0.998288, 369, 185, 400, 200
-0.998288, 373, 193, 404, 208
-0.998289, 425, 99, 456, 114
-0.998292, 449, 197, 480, 212
-0.998293, 233, 113, 264, 128
-0.998293, 149, 247, 180, 262
-0.998293, 265, 197, 296, 212
-0.998293, 353, 131, 384, 146
-0.998294, 9, 175, 40, 190
-0.998296, 469, 121, 500, 136
-0.998297, 465, 189, 496, 204
-0.998298, 317, 185, 332, 248
-0.998298, 389, 219, 420, 234
-0.998299, 469, 91, 500, 106
-0.998299, 325, 121, 356, 136
-0.998299, 353, 123, 384, 138
-0.9983, 461, 103, 492, 118
-0.998302, 153, 263, 184, 278
-0.998302, 389, 205, 420, 220
-0.998302, 445, 27, 476, 42
-0.998303, 401, 155, 432, 170
-0.998303, 69, 291, 100, 306
-0.998303, 33, 131, 64, 146
-0.998303, 193, 137, 224, 152
-0.998303, 445, 1, 476, 256
-0.998304, 449, 9, 464, 72
-0.998304, 7, 177, 22, 240
-0.998305, 97, 49, 352, 112
-0.998305, 405, 107, 436, 122
-0.998306, 357, 169, 388, 184
-0.998307, 5, 141, 36, 156
-0.998308, 145, 33, 160, 96
-0.998308, 229, 107, 260, 122
-0.998308, 445, 81, 476, 96
-0.998308, 241, 161, 256, 224
-0.998309, 137, 149, 168, 164
-0.998309, 313, 165, 344, 180
-0.998311, 485, 153, 500, 216
-0.998312, 321, 229, 448, 260
-0.998312, 269, 219, 300, 234
-0.998313, 129, 281, 256, 312
-0.998314, 105, 131, 136, 146
-0.998314, 169, 251, 200, 266
-0.998314, 401, 167, 432, 182
-0.998314, 229, 95, 260, 110
-0.998314, 477, 225, 492, 288
-0.998315, 169, 265, 200, 280
-0.998316, 153, 275, 184, 290
-0.998316, 449, 177, 480, 192
-0.998316, 465, 97, 496, 112
-0.998316, 313, 179, 344, 194
-0.998316, 13, 127, 44, 142
-0.998316, 389, 169, 420, 184
-0.998317, 431, 81, 446, 144
-0.998319, 257, 211, 288, 226
-0.998319, 457, 31, 488, 46
-0.998322, 419, 217, 434, 280
-0.998323, 257, 141, 384, 172
-0.998323, 35, 97, 50, 160
-0.998323, 205, 105, 236, 120
-0.998331, 403, 225, 418, 288
-0.998332, 13, 133, 44, 148
-0.998333, 269, 203, 300, 218
-0.998334, 309, 173, 340, 188
-0.998335, 161, 253, 288, 284
-0.998336, 401, 161, 432, 176
-0.998336, 449, 191, 480, 206
-0.998338, 441, 129, 472, 375
-0.99834, 325, 179, 356, 194
-0.998341, 205, 97, 236, 112
-0.998342, 461, 181, 492, 196
-0.998343, 469, 127, 500, 142
-0.998344, 257, 217, 272, 280
-0.998347, 153, 253, 184, 268
-0.99835, 163, 241, 178, 304
-0.998352, 381, 181, 412, 196
-0.998352, 153, 269, 184, 284
-0.998353, 1, 89, 16, 152
-0.998354, 273, 209, 304, 224
-0.998355, 81, 289, 96, 352
-0.998356, 253, 161, 284, 176
-0.998358, 69, 129, 100, 375
-0.998359, 1, 81, 500, 144
-0.998359, 369, 249, 496, 280
-0.998359, 139, 33, 154, 96
-0.99836, 465, 85, 496, 100
-0.998363, 93, 137, 108, 200
-0.998363, 297, 187, 328, 202
-0.998364, 167, 269, 182, 300
-0.998364, 229, 101, 260, 116
-0.998366, 397, 201, 412, 264
-0.998367, 441, 183, 472, 198
-0.998367, 217, 93, 248, 108
-0.998369, 377, 169, 408, 184
-0.998372, 429, 177, 444, 240
-0.998372, 387, 169, 402, 200
-0.998374, 125, 265, 140, 328
-0.998386, 323, 145, 338, 208
-0.998387, 181, 113, 212, 240
-0.998387, 203, 129, 218, 192
-0.998391, 377, 175, 408, 190
-0.998395, 413, 101, 444, 116
-0.998395, 451, 153, 466, 216
-0.998409, 129, 137, 384, 200
-0.998411, 239, 97, 254, 128
-0.998414, 169, 49, 200, 176
-0.998415, 165, 271, 196, 286
-0.998426, 459, 185, 474, 216
-0.998435, 219, 89, 234, 120
-0.998441, 315, 169, 330, 200
-0.998445, 193, 33, 320, 160
-0.99845, 461, 25, 476, 56
-0.998452, 369, 137, 496, 168
-0.998453, 217, 103, 248, 118
-0.998455, 97, 89, 224, 120
-0.998461, 65, 97, 96, 224
-0.998465, 81, 57, 208, 88
-0.998467, 113, 257, 240, 288
-0.998469, 35, 125, 50, 156
-0.998471, 265, 265, 328, 328
-0.998477, 193, 281, 320, 312
-0.998479, 377, 129, 408, 375
-0.998488, 175, 253, 190, 284
-0.998492, 27, 133, 42, 164
-0.998492, 383, 189, 398, 220
-0.998494, 163, 253, 178, 284
-0.998526, 467, 177, 482, 208
-0.998527, 97, 1, 160, 128
-0.998531, 97, 161, 224, 224
-0.998544, 391, 181, 406, 212
-0.998546, 237, 109, 252, 140
-0.998549, 225, 101, 352, 132
-0.998549, 485, 85, 500, 116
-0.998552, 243, 109, 258, 140
-0.998554, 169, 41, 232, 104
-0.998558, 229, 93, 244, 124
-0.998561, 201, 129, 232, 375
-0.998564, 145, 149, 160, 180
-0.998564, 213, 93, 228, 124
-0.998568, 345, 171, 408, 186
-0.998568, 451, 181, 466, 212
-0.998568, 241, 97, 272, 352
-0.998581, 417, 97, 432, 128
-0.998582, 369, 25, 496, 56
-0.998584, 377, 169, 440, 184
-0.998588, 369, 175, 432, 190
-0.998596, 193, 103, 256, 118
-0.9986, 461, 173, 476, 204
-0.998615, 1, 117, 128, 148
-0.998616, 417, 93, 480, 108
-0.998617, 145, 177, 272, 208
-0.998618, 393, 33, 424, 288
-0.998619, 417, 181, 480, 196
-0.99862, 17, 139, 80, 154
-0.998621, 425, 107, 488, 122
-0.998623, 225, 161, 288, 176
-0.998624, 459, 37, 474, 68
-0.998627, 377, 163, 440, 178
-0.998627, 337, 177, 400, 192
-0.998627, 433, 85, 496, 100
-0.998628, 485, 125, 500, 156
-0.99863, 257, 121, 384, 152
-0.998631, 381, 169, 396, 200
-0.998636, 241, 199, 304, 214
-0.998637, 345, 163, 408, 178
-0.998638, 249, 205, 312, 220
-0.998638, 433, 123, 496, 138
-0.998639, 273, 187, 336, 202
-0.998642, 209, 95, 272, 110
-0.998642, 369, 141, 432, 156
-0.998645, 305, 165, 368, 180
-0.998646, 121, 243, 184, 258
-0.998647, 207, 97, 222, 128
-0.998649, 121, 269, 184, 284
-0.998649, 377, 181, 440, 196
-0.99865, 13, 129, 44, 375
-0.998651, 417, 173, 480, 188
-0.998651, 417, 99, 480, 114
-0.998651, 249, 211, 312, 226
-0.998654, 321, 115, 384, 130
-0.998654, 467, 97, 482, 128
-0.998656, 17, 187, 80, 202
-0.998657, 17, 197, 80, 212
-0.998657, 425, 93, 440, 124
-0.998659, 17, 181, 80, 196
-0.998659, 9, 133, 72, 148
-0.99866, 225, 129, 256, 375
-0.998661, 241, 193, 304, 208
-0.998661, 17, 157, 80, 172
-0.998662, 121, 251, 184, 266
-0.998662, 273, 167, 336, 182
-0.998663, 417, 165, 480, 180
-0.998664, 233, 173, 296, 188
-0.998664, 17, 145, 80, 160
-0.998666, 353, 157, 416, 172
-0.998666, 1, 153, 256, 216
-0.998666, 273, 175, 336, 190
-0.998667, 125, 1, 156, 256
-0.998668, 425, 117, 488, 132
-0.998669, 161, 135, 224, 150
-0.998669, 265, 205, 280, 236
-0.998671, 369, 281, 496, 312
-0.998671, 17, 151, 80, 166
-0.998671, 273, 181, 336, 196
-0.998671, 241, 185, 304, 200
-0.998672, 17, 175, 80, 190
-0.998672, 345, 135, 408, 150
-0.998674, 113, 263, 176, 278
-0.998674, 433, 187, 496, 202
-0.998674, 393, 175, 456, 190
-0.998675, 305, 181, 368, 196
-0.998675, 145, 189, 272, 220
-0.998678, 81, 297, 144, 312
-0.998678, 17, 167, 80, 182
-0.998678, 321, 127, 384, 142
-0.998678, 313, 159, 376, 174
-0.998679, 233, 167, 296, 182
-0.998681, 409, 159, 472, 174
-0.998683, 121, 233, 184, 248
-0.998684, 409, 153, 472, 168
-0.998684, 321, 217, 448, 248
-0.998685, 147, 161, 162, 192
-0.998685, 233, 179, 296, 194
-0.998686, 345, 129, 408, 144
-0.998687, 129, 275, 192, 290
-0.998687, 345, 143, 408, 158
-0.998688, 479, 85, 494, 116
-0.998689, 169, 97, 232, 112
-0.998689, 321, 121, 384, 136
-0.99869, 369, 135, 432, 150
-0.998691, 9, 237, 72, 252
-0.998692, 9, 203, 72, 218
-0.998693, 321, 133, 384, 148
-0.998693, 121, 41, 184, 56
-0.998693, 249, 217, 312, 232
-0.998693, 89, 137, 152, 152
-0.998693, 361, 115, 424, 130
-0.998694, 345, 123, 408, 138
-0.998694, 121, 59, 184, 74
-0.998695, 273, 193, 336, 208
-0.998695, 433, 129, 496, 144
-0.998695, 369, 147, 432, 162
-0.998696, 297, 171, 360, 186
-0.998697, 153, 271, 216, 286
-0.998697, 273, 165, 288, 196
-0.998699, 81, 303, 144, 318
-0.998699, 161, 251, 224, 266
-0.998702, 411, 105, 426, 136
-0.998703, 129, 257, 192, 272
-0.998703, 425, 31, 488, 46
-0.998704, 209, 109, 272, 124
-0.998704, 177, 319, 240, 334
-0.998705, 395, 157, 410, 188
-0.998705, 409, 247, 472, 262
-0.998705, 129, 321, 192, 336
-0.998706, 121, 79, 184, 94
-0.998707, 321, 141, 384, 156
-0.998708, 393, 99, 456, 114
-0.998709, 433, 193, 496, 208
-0.998709, 413, 49, 444, 176
-0.998709, 377, 157, 440, 172
-0.99871, 377, 187, 440, 202
-0.99871, 241, 223, 304, 238
-0.99871, 409, 147, 472, 162
-0.998711, 9, 251, 72, 266
-0.998712, 393, 209, 408, 240
-0.998712, 9, 227, 72, 242
-0.998712, 1, 127, 64, 142
-0.998713, 321, 171, 384, 186
-0.998713, 273, 159, 336, 174
-0.998713, 433, 79, 496, 94
-0.998713, 85, 129, 116, 375
-0.998713, 133, 229, 148, 260
-0.998714, 217, 281, 280, 296
-0.998714, 345, 193, 408, 208
-0.998714, 225, 211, 288, 226
-0.998716, 137, 329, 200, 344
-0.998716, 121, 209, 184, 224
-0.998716, 409, 13, 472, 28
-0.998717, 401, 105, 464, 120
-0.998717, 279, 205, 294, 236
-0.998718, 401, 253, 464, 268
-0.998718, 9, 245, 72, 260
-0.998718, 469, 85, 484, 116
-0.998718, 321, 109, 384, 124
-0.998719, 57, 153, 120, 168
-0.998719, 113, 129, 176, 144
-0.998719, 361, 1, 392, 256
-0.998719, 337, 183, 400, 198
-0.99872, 209, 115, 272, 130
-0.998721, 121, 215, 184, 230
-0.998721, 377, 193, 440, 208
-0.998722, 9, 257, 72, 272
-0.998722, 247, 157, 262, 188
-0.998722, 217, 101, 280, 116
-0.998724, 89, 313, 152, 328
-0.998724, 121, 201, 184, 216
-0.998724, 41, 303, 104, 318
-0.998724, 217, 273, 280, 288
-0.998725, 217, 199, 280, 214
-0.998725, 273, 207, 336, 222
-0.998725, 369, 261, 496, 292
-0.998725, 81, 143, 144, 158
-0.998725, 121, 301, 184, 316
-0.998725, 9, 267, 72, 282
-0.998726, 113, 171, 176, 186
-0.998728, 369, 293, 496, 324
-0.998734, 459, 85, 474, 116
-0.998739, 329, 113, 344, 144
-0.998748, 1, 81, 256, 144
-0.998749, 7, 205, 22, 236
-0.998753, 241, 189, 368, 220
-0.998754, 353, 1, 480, 32
-0.998757, 255, 197, 270, 228
-0.99876, 215, 105, 230, 136
-0.998764, 337, 109, 352, 140
-0.998766, 49, 185, 176, 216
-0.998776, 193, 129, 320, 160
-0.998785, 259, 157, 274, 188
-0.998789, 233, 73, 296, 136
-0.998794, 353, 69, 480, 100
-0.998795, 153, 17, 184, 144
-0.998795, 129, 245, 144, 276
-0.998795, 17, 77, 144, 108
-0.998795, 241, 241, 368, 272
-0.998797, 445, 177, 460, 208
-0.998801, 221, 101, 236, 132
-0.998816, 307, 177, 322, 208
-0.998817, 327, 177, 342, 208
-0.998818, 203, 121, 218, 152
-0.998821, 135, 297, 150, 328
-0.998823, 173, 269, 188, 300
-0.998825, 1, 221, 16, 252
-0.998827, 17, 201, 32, 232
-0.998838, 479, 121, 494, 152
-0.998843, 453, 29, 468, 60
-0.998847, 71, 157, 86, 188
-0.998858, 393, 197, 408, 228
-0.998859, 169, 45, 184, 76
-0.99886, 399, 129, 414, 160
-0.998864, 1, 305, 500, 368
-0.998866, 455, 169, 470, 200
-0.998875, 405, 105, 420, 136
-0.998875, 369, 149, 384, 180
-0.998881, 1, 321, 128, 352
-0.998884, 129, 293, 144, 324
-0.998884, 145, 125, 272, 156
-0.998887, 321, 177, 336, 208
-0.998891, 361, 145, 376, 176
-0.998891, 95, 137, 110, 168
-0.998895, 205, 137, 220, 168
-0.998897, 411, 137, 426, 168
-0.998899, 459, 105, 474, 136
-0.9989, 485, 65, 500, 192
-0.998901, 145, 329, 272, 360
-0.998905, 21, 137, 36, 168
-0.998907, 343, 109, 358, 140
-0.998907, 353, 49, 480, 80
-0.998909, 97, 77, 224, 108
-0.99891, 261, 193, 276, 224
-0.998912, 437, 181, 452, 212
-0.998913, 275, 221, 290, 252
-0.998917, 193, 309, 320, 340
-0.998919, 265, 161, 280, 192
-0.998922, 119, 125, 134, 156
-0.998924, 157, 145, 172, 176
-0.99893, 315, 189, 330, 220
-0.998931, 323, 125, 338, 156
-0.998933, 209, 109, 224, 140
-0.998933, 473, 117, 488, 148
-0.998935, 21, 149, 36, 180
-0.998938, 285, 113, 316, 240
-0.998939, 109, 97, 140, 352
-0.998944, 285, 225, 300, 256
-0.998945, 17, 93, 144, 124
-0.998945, 431, 89, 446, 120
-0.998947, 163, 57, 178, 88
-0.99895, 11, 133, 26, 164
-0.998957, 19, 173, 34, 204
-0.998958, 209, 293, 336, 324
-0.998959, 79, 149, 94, 180
-0.998961, 467, 109, 482, 140
-0.998963, 113, 109, 240, 140
-0.998965, 377, 181, 392, 212
-0.998965, 323, 157, 338, 188
-0.998966, 253, 157, 268, 188
-0.99897, 351, 129, 366, 160
-0.99897, 315, 157, 330, 188
-0.998972, 81, 333, 208, 364
-0.998979, 161, 265, 176, 296
-0.998979, 161, 41, 176, 72
-0.99898, 249, 185, 264, 216
-0.99898, 81, 285, 96, 316
-0.998984, 419, 245, 434, 276
-0.998985, 169, 245, 184, 276
-0.998991, 459, 13, 474, 44
-0.998992, 241, 225, 368, 256
-0.998993, 485, 73, 500, 104
-0.998994, 421, 149, 436, 180
-0.998995, 393, 145, 408, 272
-0.998998, 85, 145, 100, 176
-0.999003, 477, 65, 492, 192
-0.999004, 269, 237, 284, 268
-0.999005, 91, 297, 106, 328
-0.999005, 101, 133, 116, 164
-0.999006, 289, 209, 304, 240
-0.999007, 201, 225, 232, 352
-0.999008, 33, 97, 64, 352
-0.999009, 129, 305, 144, 336
-0.999012, 473, 97, 488, 128
-0.999014, 357, 97, 388, 352
-0.999017, 49, 197, 176, 228
-0.999018, 383, 157, 398, 188
-0.999021, 211, 141, 226, 172
-0.999022, 401, 161, 416, 192
-0.999023, 29, 117, 44, 148
-0.999025, 135, 309, 150, 340
-0.999026, 453, 73, 468, 104
-0.999031, 417, 165, 432, 196
-0.999033, 355, 109, 370, 140
-0.999034, 239, 169, 254, 200
-0.999037, 245, 97, 260, 128
-0.999039, 115, 89, 130, 120
-0.99904, 323, 141, 338, 172
-0.999044, 53, 249, 68, 280
-0.999046, 17, 65, 144, 96
-0.999053, 13, 33, 44, 288
-0.99906, 321, 205, 448, 236
-0.999071, 213, 129, 244, 375
-0.999081, 209, 141, 336, 172
-0.999086, 485, 113, 500, 240
-0.999088, 213, 145, 244, 272
-0.9991, 17, 53, 144, 84
-0.999104, 145, 1, 176, 256
-0.999111, 321, 241, 448, 272
-0.99912, 353, 37, 480, 68
-0.999129, 113, 213, 240, 244
-0.999145, 193, 113, 320, 144
-0.999174, 479, 113, 494, 240
-0.999179, 97, 81, 352, 144
-0.999186, 381, 33, 412, 288
-0.999199, 193, 89, 320, 120
-0.999213, 471, 97, 486, 224
-0.999234, 129, 25, 384, 88
-0.999239, 429, 161, 444, 288
-0.99924, 451, 161, 466, 288
-0.999244, 433, 49, 464, 176
-0.999244, 273, 57, 400, 120
-0.999267, 189, 129, 220, 375
-0.999268, 439, 161, 454, 288
-0.999274, 275, 145, 290, 272
-0.999282, 423, 161, 438, 288
-0.999283, 145, 45, 272, 76
-0.999283, 289, 297, 416, 328
-0.999286, 1, 33, 256, 96
-0.999297, 457, 161, 472, 288
-0.999298, 17, 113, 32, 240
-0.999299, 329, 1, 392, 64
-0.999304, 17, 105, 144, 136
-0.999306, 167, 241, 182, 368
-0.99931, 225, 313, 352, 375
-0.99931, 273, 129, 304, 375
-0.999313, 313, 129, 344, 375
-0.999331, 325, 97, 356, 352
-0.999331, 1, 333, 128, 364
-0.999333, 387, 145, 402, 272
-0.999334, 445, 161, 460, 288
-0.999336, 157, 1, 188, 256
-0.999337, 321, 89, 448, 120
-0.999339, 409, 33, 440, 288
-0.999342, 185, 161, 248, 224
-0.999346, 55, 193, 70, 320
-0.999348, 257, 145, 272, 272
-0.999349, 145, 201, 272, 232
-0.999349, 321, 253, 448, 284
-0.999352, 27, 113, 42, 240
-0.99936, 399, 209, 414, 336
-0.999361, 413, 129, 428, 256
-0.999366, 97, 97, 128, 352
-0.99937, 33, 49, 64, 176
-0.999372, 323, 113, 338, 240
-0.999372, 25, 65, 40, 192
-0.999377, 341, 97, 372, 352
-0.999377, 433, 1, 464, 256
-0.99938, 133, 129, 164, 375
-0.999383, 193, 153, 320, 184
-0.999383, 265, 145, 280, 272
-0.999386, 465, 97, 480, 224
-0.999388, 471, 161, 486, 288
-0.999403, 363, 97, 378, 224
-0.999403, 241, 277, 368, 308
-0.999404, 113, 1, 144, 256
-0.999405, 209, 81, 224, 208
-0.999406, 317, 113, 332, 240
-0.999406, 93, 65, 124, 192
-0.999407, 463, 145, 478, 272
-0.999426, 285, 193, 300, 320
-0.999426, 399, 129, 414, 256
-0.999428, 345, 113, 360, 240
-0.999429, 129, 241, 144, 368
-0.99943, 471, 33, 486, 160
-0.999432, 165, 97, 196, 352
-0.999434, 437, 81, 452, 208
-0.999436, 273, 1, 400, 32
-0.999437, 351, 113, 366, 240
-0.999438, 409, 209, 424, 336
-0.999438, 33, 41, 160, 72
-0.999443, 413, 81, 428, 208
-0.999443, 481, 17, 496, 144
-0.999445, 393, 209, 408, 336
-0.999446, 279, 193, 294, 320
-0.999447, 301, 129, 332, 375
-0.999453, 477, 161, 492, 288
-0.999457, 265, 193, 280, 320
-0.99947, 451, 97, 466, 224
-0.99947, 5, 193, 20, 320
-0.999472, 417, 209, 432, 336
-0.999474, 1, 221, 16, 236
-0.999475, 237, 97, 252, 224
-0.999475, 113, 131, 128, 146
-0.999475, 171, 53, 186, 68
-0.999476, 417, 97, 432, 112
-0.999476, 155, 159, 170, 174
-0.999477, 19, 135, 34, 150
-0.999477, 89, 295, 104, 310
-0.999477, 145, 129, 176, 375
-0.999477, 13, 237, 28, 252
-0.999478, 407, 129, 422, 256
-0.999479, 289, 211, 304, 226
-0.999479, 25, 141, 40, 156
-0.999479, 257, 187, 272, 202
-0.999479, 353, 175, 368, 190
-0.99948, 15, 49, 30, 176
-0.99948, 129, 261, 144, 276
-0.99948, 77, 153, 92, 168
-0.99948, 131, 243, 146, 258
-0.999481, 21, 177, 36, 304
-0.999481, 261, 203, 276, 218
-0.999481, 369, 155, 384, 170
-0.999481, 461, 95, 476, 110
-0.999481, 255, 159, 270, 174
-0.999481, 409, 289, 472, 352
-0.999482, 215, 135, 230, 150
-0.999482, 35, 133, 50, 148
-0.999482, 469, 85, 484, 100
-0.999483, 479, 89, 494, 104
-0.999483, 207, 109, 222, 124
-0.999483, 21, 123, 36, 138
-0.999484, 21, 115, 36, 130
-0.999484, 461, 195, 476, 210
-0.999484, 279, 209, 294, 224
-0.999484, 287, 199, 302, 214
-0.999484, 317, 193, 332, 208
-0.999485, 253, 213, 268, 228
-0.999485, 329, 115, 344, 130
-0.999485, 409, 101, 424, 116
-0.999485, 181, 65, 212, 192
-0.999485, 461, 81, 476, 96
-0.999486, 159, 245, 174, 260
-0.999487, 11, 113, 26, 240
-0.999487, 137, 305, 152, 320
-0.999487, 175, 263, 190, 278
-0.999488, 441, 179, 456, 194
-0.999488, 71, 157, 86, 172
-0.999488, 321, 173, 336, 188
-0.999488, 83, 149, 98, 164
-0.999489, 467, 179, 482, 194
-0.999489, 105, 135, 120, 150
-0.999489, 171, 275, 186, 290
-0.999489, 237, 105, 252, 120
-0.99949, 217, 105, 232, 120
-0.99949, 21, 149, 36, 164
-0.99949, 239, 119, 254, 134
-0.99949, 131, 235, 146, 250
-0.999491, 173, 251, 188, 266
-0.999491, 391, 219, 406, 234
-0.999491, 115, 91, 130, 106
-0.999493, 311, 169, 326, 184
-0.999493, 285, 129, 316, 375
-0.999493, 97, 139, 112, 154
-0.999493, 31, 139, 46, 154
-0.999494, 485, 129, 500, 144
-0.999494, 205, 135, 220, 150
-0.999494, 207, 103, 222, 118
-0.999495, 427, 99, 442, 114
-0.999496, 89, 145, 104, 160
-0.999497, 329, 97, 344, 224
-0.999497, 281, 219, 296, 234
-0.999498, 255, 199, 270, 214
-0.999498, 237, 111, 252, 126
-0.999498, 459, 49, 474, 64
-0.999498, 213, 1, 244, 256
-0.999499, 465, 193, 480, 320
-0.999499, 243, 103, 258, 118
-0.999499, 249, 185, 264, 200
-0.999499, 119, 129, 134, 144
-0.9995, 417, 103, 432, 118
-0.9995, 383, 165, 398, 180
-0.9995, 453, 81, 468, 96
-0.999501, 339, 113, 354, 240
-0.999501, 27, 121, 42, 136
-0.999502, 425, 93, 440, 108
-0.999502, 399, 173, 414, 188
-0.999502, 447, 181, 462, 196
-0.999503, 273, 165, 288, 180
-0.999503, 261, 161, 276, 176
-0.999504, 405, 113, 420, 128
-0.999504, 367, 147, 382, 162
-0.999505, 393, 197, 408, 212
-0.999505, 467, 99, 482, 114
-0.999506, 337, 65, 368, 192
-0.999506, 307, 183, 322, 198
-0.999506, 393, 163, 408, 178
-0.999507, 315, 175, 330, 190
-0.999508, 485, 87, 500, 102
-0.999509, 431, 97, 446, 224
-0.999509, 225, 101, 240, 116
-0.999509, 263, 209, 278, 224
-0.999511, 161, 251, 176, 266
-0.999514, 65, 145, 80, 272
-0.999514, 459, 189, 474, 204
-0.999514, 233, 93, 248, 108
-0.999514, 289, 281, 416, 312
-0.999515, 267, 163, 282, 178
-0.999515, 461, 177, 476, 192
-0.999515, 135, 241, 150, 368
-0.999517, 249, 157, 264, 172
-0.999517, 443, 97, 458, 224
-0.999517, 361, 151, 376, 166
-0.999518, 175, 241, 190, 368
-0.999518, 259, 193, 274, 320
-0.999519, 11, 135, 26, 150
-0.99952, 223, 93, 238, 108
-0.99952, 11, 193, 26, 320
-0.999521, 399, 165, 414, 180
-0.999521, 207, 141, 222, 156
-0.999522, 167, 263, 182, 278
-0.999523, 383, 177, 398, 192
-0.999523, 311, 161, 326, 288
-0.999524, 327, 179, 342, 194
-0.999524, 243, 113, 258, 128
-0.999525, 485, 177, 500, 304
-0.999525, 145, 165, 160, 180
-0.999527, 161, 269, 176, 284
-0.999527, 217, 93, 232, 108
-0.999528, 319, 161, 334, 288
-0.999528, 147, 151, 162, 166
-0.999528, 393, 207, 408, 222
-0.999528, 1, 345, 128, 375
-0.999528, 251, 145, 266, 272
-0.999529, 35, 127, 50, 142
-0.999529, 129, 161, 256, 192
-0.99953, 411, 107, 426, 122
-0.99953, 271, 193, 286, 320
-0.99953, 459, 33, 474, 160
-0.999532, 165, 275, 180, 290
-0.999532, 7, 65, 22, 192
-0.999533, 357, 97, 372, 224
-0.999533, 317, 165, 332, 180
-0.999534, 131, 299, 146, 314
-0.999535, 245, 97, 260, 224
-0.999535, 173, 269, 188, 284
-0.999535, 379, 185, 394, 200
-0.999536, 465, 17, 480, 144
-0.999537, 453, 183, 468, 198
-0.999537, 383, 191, 398, 206
-0.999538, 369, 1, 384, 128
-0.999543, 419, 81, 434, 208
-0.999548, 249, 191, 264, 206
-0.999548, 317, 183, 332, 198
-0.999552, 25, 135, 40, 150
-0.999553, 33, 193, 96, 256
-0.999553, 211, 97, 226, 112
-0.999555, 33, 113, 48, 240
-0.999559, 453, 17, 468, 144
-0.999559, 139, 161, 154, 288
-0.99956, 393, 175, 408, 190
-0.99956, 389, 183, 404, 198
-0.999563, 1, 65, 16, 192
-0.999563, 203, 113, 218, 240
-0.999564, 123, 241, 138, 368
-0.999564, 461, 27, 476, 42
-0.999564, 161, 241, 176, 368
-0.999565, 23, 129, 38, 144
-0.999566, 143, 241, 158, 368
-0.999566, 231, 101, 246, 116
-0.999569, 133, 193, 148, 320
-0.99957, 239, 97, 254, 112
-0.999572, 189, 33, 220, 288
-0.999573, 459, 97, 474, 224
-0.999575, 353, 305, 480, 336
-0.99958, 215, 97, 230, 224
-0.999584, 127, 65, 142, 192
-0.999584, 113, 33, 240, 64
-0.999584, 167, 251, 182, 266
-0.999584, 387, 193, 402, 320
-0.999585, 407, 81, 422, 208
-0.999585, 371, 113, 386, 240
-0.999588, 231, 97, 246, 224
-0.99959, 169, 257, 184, 272
-0.999591, 383, 171, 398, 186
-0.999593, 419, 1, 434, 128
-0.999595, 233, 241, 248, 368
-0.999596, 159, 177, 174, 304
-0.999596, 423, 225, 438, 352
-0.999597, 421, 33, 452, 288
-0.999601, 381, 1, 396, 128
-0.999601, 305, 13, 432, 44
-0.999606, 253, 209, 268, 336
-0.999608, 381, 145, 396, 272
-0.999608, 121, 49, 136, 176
-0.999611, 161, 185, 224, 248
-0.999611, 445, 1, 460, 128
-0.999612, 459, 225, 474, 352
-0.999613, 111, 81, 126, 208
-0.999613, 349, 1, 380, 256
-0.999617, 167, 269, 182, 284
-0.999617, 167, 65, 182, 192
-0.99962, 447, 241, 462, 368
-0.999624, 425, 97, 440, 224
-0.999626, 453, 241, 468, 368
-0.999626, 305, 161, 320, 288
-0.999631, 49, 117, 176, 148
-0.999632, 257, 261, 384, 292
-0.999635, 35, 65, 50, 192
-0.99964, 129, 129, 144, 256
-0.999643, 391, 169, 406, 184
-0.999645, 439, 241, 454, 368
-0.999647, 105, 113, 120, 240
-0.999649, 409, 1, 424, 128
-0.99965, 5, 145, 20, 272
-0.99965, 245, 145, 260, 272
-0.999653, 291, 177, 306, 304
-0.999653, 83, 129, 98, 256
-0.999655, 327, 161, 342, 288
-0.999657, 227, 241, 242, 368
-0.999658, 115, 33, 130, 160
-0.999662, 155, 129, 170, 256
-0.99967, 15, 241, 30, 368
-0.99967, 429, 241, 444, 368
-0.999671, 59, 129, 74, 256
-0.999671, 475, 209, 490, 336
-0.999676, 387, 97, 402, 224
-0.999678, 285, 145, 300, 272
-0.999679, 203, 65, 218, 192
-0.999682, 243, 241, 258, 368
-0.999682, 71, 145, 86, 272
-0.999683, 99, 113, 114, 240
-0.999691, 209, 129, 224, 256
-0.999722, 45, 129, 76, 375
-0.999727, 273, 241, 400, 304
-0.999751, 145, 85, 272, 116
-0.999753, 369, 257, 432, 320
-0.999754, 1, 1, 32, 256
-0.999768, 121, 9, 184, 72
-0.999788, 257, 41, 500, 104
-0.999829, 1, 1, 500, 64
-0.999874, 225, 33, 256, 288
-0.999891, 129, 17, 160, 144
-0.999907, 177, 129, 208, 375
-0.99992, 297, 97, 328, 224
-0.999963, 1, 1, 64, 256
-1.00001, 201, 33, 232, 288
-1.00002, 121, 129, 152, 375
-1.00011, 97, 1, 128, 256
-1.00012, 169, 113, 200, 240
-1.00013, 261, 33, 292, 288
-1.00015, 65, 33, 96, 288
-1.00016, 277, 33, 308, 288
-1.00017, 313, 33, 344, 288
-1.00018, 77, 1, 108, 256
-1.00018, 293, 33, 324, 288
-1.00022, 269, 241, 300, 368
-1.00023, 241, 1, 272, 256
-1.00023, 25, 1, 56, 256
-1.00023, 177, 1, 208, 256
-1.00024, 65, 1, 192, 128
-1.00025, 257, 313, 500, 375
-1.0003, 337, 1, 368, 256
-1.00031, 53, 97, 84, 224
-1.00038, 325, 1, 356, 256
-1.00042, 25, 161, 56, 288
-1.00045, 45, 33, 76, 288
-1.00052, 161, 1, 416, 64
-1.00055, 329, 65, 392, 192
-1.00057, 1, 33, 500, 96
-1.00063, 65, 1, 320, 64
-1.00067, 77, 81, 108, 208
-1.00076, 361, 161, 392, 288
-1.00097, 205, 33, 236, 160
-1.001, 33, 241, 64, 368
-1.00101, 257, 1, 384, 64
-1.00103, 193, 41, 320, 104
-1.00109, 185, 193, 248, 320
-1.00114, 57, 241, 88, 368
-1.00128, 177, 9, 304, 72
-1.00128, 141, 1, 172, 128
-1.00135, 253, 81, 284, 208
-1.00141, 113, 193, 144, 320
-1.00141, 65, 33, 128, 160
-1.00145, 325, 65, 356, 192
-1.00152, 257, 33, 384, 96
-1.00158, 273, 313, 400, 375
-1.00164, 73, 1, 136, 256
-1.00173, 105, 129, 136, 256
-1.0021, 9, 1, 72, 128
-1.00217, 401, 49, 432, 176
-1.00219, 1, 1, 32, 128
-1.00226, 233, 49, 296, 176
-1.00325, 1, 1, 128, 64
-1.00379, 177, 145, 240, 272
-1.00644, 273, 65, 336, 192
-1.0067, 257, 1, 384, 128
-1.00702, 41, 33, 104, 160
-1.00749, 225, 1, 288, 128
-1.00863, 337, 241, 400, 368
-1.00922, 297, 225, 360, 352
-1.0118, 313, 17, 376, 144
-1.01181, 281, 17, 344, 144
-1.01243, 257, 17, 320, 144
