1973
-0.471046, 1, 65, 500, 320
-0.480081, 1, 1, 500, 375
-0.542001, 1, 1, 256, 375
-0.566875, 225, 1, 480, 375
-0.572165, 129, 129, 384, 375
-0.595665, 97, 1, 352, 375
-0.696025, 225, 97, 480, 352
-0.731623, 1, 97, 256, 352
-0.752039, 129, 33, 384, 288
-0.75838, 225, 1, 480, 256
-0.761599, 1, 1, 256, 256
-0.842754, 241, 97, 368, 352
-0.848731, 193, 129, 320, 375
-0.881015, 241, 1, 368, 375
-0.88226, 145, 129, 272, 375
-0.884191, 289, 129, 416, 375
-0.887608, 161, 1, 288, 375
-0.891831, 1, 177, 500, 304
-0.898912, 321, 1, 448, 375
-0.900914, 321, 1, 448, 256
-0.903079, 33, 1, 160, 375
-0.9034, 97, 177, 352, 304
-0.906468, 33, 129, 160, 375
-0.908496, 161, 129, 416, 256
-0.911144, 273, 1, 400, 256
-0.911303, 97, 225, 352, 352
-0.911559, 1, 129, 500, 256
-0.911644, 1, 225, 500, 352
-0.913665, 113, 1, 240, 375
-0.917324, 161, 33, 288, 288
-0.91851, 209, 1, 336, 256
-0.920473, 1, 1, 500, 128
-0.921761, 1, 1, 128, 256
-0.922458, 1, 65, 500, 192
-0.922507, 337, 97, 464, 352
-0.924071, 289, 129, 352, 256
-0.924175, 1, 209, 256, 336
-0.925091, 193, 177, 448, 304
-0.925639, 81, 129, 208, 375
-0.925707, 209, 161, 336, 288
-0.927026, 241, 113, 304, 240
-0.930425, 257, 129, 384, 256
-0.930553, 249, 161, 312, 288
-0.932428, 369, 1, 496, 375
-0.934736, 209, 177, 272, 304
-0.938881, 97, 209, 224, 336
-0.94019, 209, 129, 272, 256
-0.941073, 113, 1, 240, 256
-0.942846, 369, 1, 496, 256
-0.942915, 281, 177, 344, 304
-0.943358, 169, 209, 232, 336
-0.943365, 249, 241, 312, 368
-0.944298, 257, 81, 500, 208
-0.944886, 265, 113, 328, 240
-0.944891, 193, 209, 320, 336
-0.944912, 209, 113, 336, 240
-0.94503, 225, 225, 288, 352
-0.945215, 305, 177, 368, 304
-0.945585, 1, 97, 256, 224
-0.946712, 225, 225, 480, 352
-0.947066, 161, 161, 288, 288
-0.947928, 161, 193, 224, 256
-0.948065, 129, 209, 192, 336
-0.949287, 241, 241, 368, 368
-0.94946, 289, 225, 352, 352
-0.949479, 289, 193, 416, 320
-0.949589, 313, 113, 376, 240
-0.950563, 145, 241, 272, 368
-0.950636, 241, 121, 304, 184
-0.950649, 289, 193, 352, 256
-0.950659, 33, 241, 160, 368
-0.950751, 49, 33, 176, 288
-0.951137, 1, 97, 64, 224
-0.951285, 169, 161, 232, 288
-0.951441, 329, 177, 392, 304
-0.951631, 273, 113, 336, 176
-0.951807, 201, 225, 264, 352
-0.951969, 265, 225, 328, 288
-0.952349, 281, 145, 344, 208
-0.952447, 1, 145, 256, 272
-0.952591, 209, 297, 272, 360
-0.952882, 129, 81, 384, 208
-0.952939, 241, 145, 304, 208
-0.953371, 201, 161, 264, 224
-0.953426, 249, 249, 312, 312
-0.954779, 289, 81, 416, 208
-0.955404, 257, 129, 500, 256
-0.956516, 249, 169, 312, 232
-0.956537, 201, 185, 264, 248
-0.957546, 9, 177, 72, 304
-0.957808, 305, 169, 368, 232
-0.958426, 209, 209, 272, 272
-0.95852, 17, 177, 144, 304
-0.958703, 1, 225, 64, 352
-0.959018, 297, 121, 360, 184
-0.959419, 289, 81, 352, 208
-0.959651, 249, 193, 312, 256
-0.960471, 233, 273, 296, 336
-0.961014, 209, 233, 272, 296
-0.96111, 273, 169, 336, 232
-0.96116, 129, 313, 192, 375
-0.961544, 105, 241, 168, 368
-0.961862, 129, 217, 192, 280
-0.962741, 257, 33, 500, 160
-0.962984, 169, 225, 232, 288
-0.96308, 209, 65, 336, 192
-0.963137, 265, 65, 328, 192
-0.96318, 169, 273, 232, 336
-0.963581, 1, 49, 256, 176
-0.963879, 25, 225, 88, 352
-0.964349, 161, 113, 288, 240
-0.965285, 297, 129, 360, 375
-0.965585, 329, 185, 392, 248
-0.965609, 137, 193, 200, 256
-0.965805, 129, 33, 384, 160
-0.96593, 241, 129, 304, 375
-0.96625, 273, 97, 336, 352
-0.967477, 289, 241, 352, 304
-0.967572, 1, 65, 128, 192
-0.967593, 177, 249, 240, 312
-0.967751, 49, 241, 112, 368
-0.968395, 233, 305, 296, 368
-0.968611, 1, 137, 64, 200
-0.969071, 161, 185, 288, 248
-0.969081, 9, 177, 72, 240
-0.969205, 273, 265, 336, 328
-0.969376, 329, 161, 360, 288
-0.96938, 241, 185, 368, 248
-0.969426, 81, 313, 144, 375
-0.969522, 153, 297, 216, 360
-0.969729, 105, 313, 168, 375
-0.969853, 225, 185, 288, 248
-0.9699, 225, 153, 352, 216
-0.969977, 313, 65, 376, 192
-0.970108, 321, 145, 448, 272
-0.970122, 193, 257, 320, 320
-0.970309, 17, 201, 80, 264
-0.97032, 297, 145, 328, 272
-0.970528, 113, 265, 176, 328
-0.970785, 145, 297, 272, 360
-0.97112, 1, 49, 64, 176
-0.971129, 137, 161, 200, 288
-0.971136, 185, 305, 248, 368
-0.971454, 105, 289, 168, 352
-0.971504, 321, 17, 448, 144
-0.971617, 1, 129, 128, 256
-0.971759, 305, 217, 368, 280
-0.971838, 217, 121, 280, 184
-0.97193, 237, 129, 268, 192
-0.972123, 25, 241, 88, 304
-0.97213, 249, 97, 280, 224
-0.972421, 285, 153, 316, 216
-0.97245, 209, 257, 272, 320
-0.972506, 261, 113, 292, 240
-0.972639, 329, 177, 360, 240
-0.972769, 277, 129, 308, 256
-0.973002, 249, 113, 280, 176
-0.973027, 305, 113, 336, 176
-0.973074, 209, 129, 336, 192
-0.973131, 217, 81, 280, 208
-0.973153, 157, 193, 188, 256
-0.973245, 209, 129, 272, 375
-0.973452, 41, 305, 104, 368
-0.973485, 265, 257, 296, 320
-0.973492, 177, 169, 240, 232
-0.973555, 33, 281, 96, 344
-0.973595, 225, 209, 352, 272
-0.973648, 173, 193, 204, 256
-0.973653, 1, 17, 128, 144
-0.97366, 317, 129, 348, 256
-0.973661, 177, 161, 304, 224
-0.973662, 33, 177, 96, 304
-0.973746, 297, 17, 360, 144
-0.973826, 313, 193, 344, 256
-0.973838, 309, 177, 340, 304
-0.973885, 1, 113, 64, 176
-0.97393, 229, 153, 260, 216
-0.973988, 113, 161, 240, 288
-0.974426, 269, 121, 300, 184
-0.974553, 289, 97, 320, 224
-0.974634, 289, 129, 320, 192
-0.974852, 385, 1, 448, 128
-0.97497, 297, 209, 328, 272
-0.975034, 185, 193, 216, 256
-0.975147, 313, 97, 376, 160
-0.975187, 9, 273, 72, 336
-0.975419, 277, 177, 308, 304
-0.975452, 241, 97, 304, 160
-0.975524, 241, 65, 304, 192
-0.97557, 301, 97, 332, 224
-0.975575, 345, 129, 408, 256
-0.975578, 297, 193, 328, 320
-0.975924, 281, 89, 344, 152
-0.976079, 233, 297, 264, 360
-0.9762, 129, 209, 256, 272
-0.976316, 265, 225, 296, 352
-0.97646, 185, 177, 216, 304
-0.97659, 1, 1, 256, 128
-0.976723, 249, 177, 280, 240
-0.976843, 221, 289, 252, 352
-0.976884, 117, 241, 148, 368
-0.976943, 1, 233, 64, 296
-0.977122, 9, 297, 72, 360
-0.977233, 289, 185, 416, 248
-0.977624, 205, 225, 236, 352
-0.977824, 337, 81, 400, 208
-0.977973, 129, 65, 256, 192
-0.97801, 297, 33, 360, 288
-0.97808, 273, 153, 400, 216
-0.978158, 329, 161, 392, 224
-0.97819, 277, 249, 308, 312
-0.978276, 97, 281, 224, 344
-0.978284, 305, 145, 368, 208
-0.978322, 341, 177, 372, 304
-0.978377, 141, 313, 172, 375
-0.978379, 369, 97, 432, 224
-0.978434, 229, 113, 260, 240
-0.978435, 17, 289, 144, 352
-0.978458, 241, 161, 272, 288
-0.978554, 17, 97, 80, 352
-0.978576, 65, 145, 192, 272
-0.978716, 145, 273, 272, 336
-0.978952, 241, 233, 368, 296
-0.979064, 201, 169, 232, 232
-0.979139, 241, 105, 368, 168
-0.979172, 237, 105, 268, 168
-0.979277, 25, 129, 88, 256
-0.979417, 321, 97, 384, 352
-0.979484, 281, 225, 312, 352
-0.979486, 193, 233, 320, 296
-0.979514, 301, 145, 332, 208
-0.979538, 205, 177, 236, 304
-0.97956, 225, 177, 256, 240
-0.979681, 81, 305, 208, 368
-0.979716, 209, 281, 336, 344
-0.979767, 217, 153, 248, 216
-0.97982, 81, 257, 208, 320
-0.979942, 353, 161, 416, 224
-0.979945, 33, 225, 64, 352
-0.980098, 241, 153, 272, 216
-0.980117, 273, 33, 400, 160
-0.980283, 153, 169, 216, 232
-0.980304, 1, 81, 32, 208
-0.980312, 341, 177, 372, 240
-0.980322, 233, 217, 296, 280
-0.980338, 169, 209, 200, 336
-0.980354, 201, 193, 232, 256
-0.980454, 185, 129, 248, 375
-0.980461, 237, 177, 268, 240
-0.980485, 65, 281, 128, 344
-0.98064, 289, 129, 416, 192
-0.980653, 329, 113, 360, 240
-0.980682, 1, 1, 64, 256
-0.980698, 377, 49, 440, 176
-0.98085, 301, 169, 332, 232
-0.98087, 161, 217, 192, 280
-0.980885, 265, 161, 296, 288
-0.980948, 193, 305, 320, 368
-0.980971, 37, 281, 68, 344
-0.981007, 285, 177, 316, 240
-0.981059, 177, 209, 304, 272
-0.981255, 141, 209, 172, 336
-0.981261, 245, 281, 276, 344
-0.981282, 217, 313, 248, 375
-0.981289, 201, 265, 232, 328
-0.981289, 245, 241, 276, 368
-0.981344, 257, 233, 288, 296
-0.981347, 309, 241, 340, 304
-0.981367, 297, 65, 360, 128
-0.981421, 253, 257, 284, 320
-0.981485, 205, 217, 236, 280
-0.98154, 193, 81, 256, 208
-0.981547, 317, 129, 348, 192
-0.981598, 113, 233, 240, 296
-0.981694, 153, 297, 184, 360
-0.981727, 17, 313, 144, 375
-0.981762, 289, 105, 320, 168
-0.981799, 337, 33, 400, 160
-0.98191, 209, 97, 272, 160
-0.981947, 21, 161, 52, 288
-0.981972, 81, 241, 144, 368
-0.982047, 145, 201, 176, 264
-0.982064, 217, 241, 248, 368
-0.982101, 17, 257, 144, 320
-0.982113, 257, 289, 320, 352
-0.982289, 97, 185, 224, 248
-0.982299, 1, 113, 32, 176
-0.982445, 261, 185, 292, 248
-0.98248, 369, 121, 432, 184
-0.982513, 113, 257, 144, 320
-0.982517, 121, 241, 184, 304
-0.982591, 113, 185, 176, 248
-0.982599, 209, 17, 336, 144
-0.982689, 321, 121, 384, 184
-0.982763, 241, 201, 272, 264
-0.982907, 17, 193, 48, 256
-0.982921, 273, 169, 304, 232
-0.982946, 65, 1, 192, 128
-0.982998, 37, 257, 68, 320
-0.98304, 393, 1, 456, 64
-0.983049, 273, 209, 400, 272
-0.983107, 257, 257, 384, 320
-0.983186, 165, 281, 196, 344
-0.983234, 253, 161, 284, 288
-0.983295, 33, 225, 160, 288
-0.983296, 145, 273, 208, 336
-0.983372, 201, 33, 264, 288
-0.983477, 253, 313, 284, 375
-0.983499, 1, 89, 64, 152
-0.983558, 277, 281, 308, 344
-0.983583, 297, 1, 360, 375
-0.983609, 105, 193, 168, 320
-0.983615, 129, 313, 160, 375
-0.983632, 25, 225, 56, 288
-0.983681, 337, 97, 464, 224
-0.983693, 161, 129, 224, 375
-0.983786, 353, 185, 384, 248
-0.983864, 129, 161, 256, 224
-0.983988, 273, 193, 304, 256
-0.983994, 281, 225, 312, 288
-0.984048, 297, 41, 360, 104
-0.984048, 9, 129, 40, 256
-0.984049, 297, 257, 328, 320
-0.984139, 257, 145, 288, 208
-0.984141, 321, 209, 352, 336
-0.984281, 289, 105, 416, 168
-0.984294, 249, 33, 312, 288
-0.9843, 217, 161, 248, 288
-0.984311, 9, 161, 40, 224
-0.984327, 341, 201, 372, 264
-0.984344, 65, 241, 128, 304
-0.984366, 1, 57, 64, 120
-0.984371, 5, 137, 36, 200
-0.984387, 345, 137, 408, 200
-0.984415, 53, 225, 84, 352
-0.984582, 189, 169, 220, 232
-0.984719, 21, 225, 52, 352
-0.984775, 329, 209, 392, 272
-0.984814, 313, 81, 344, 208
-0.984832, 257, 281, 384, 344
-0.984843, 289, 233, 416, 296
-0.984878, 309, 225, 340, 352
-0.984929, 49, 201, 176, 264
-0.98493, 329, 217, 360, 280
-0.985112, 33, 129, 64, 256
-0.985155, 41, 313, 72, 375
-0.985383, 33, 169, 64, 232
-0.985422, 413, 33, 444, 160
-0.985535, 9, 177, 40, 304
-0.985548, 5, 1, 36, 128
-0.985579, 385, 97, 448, 160
-0.985597, 393, 25, 456, 88
-0.98569, 385, 57, 448, 120
-0.985707, 225, 129, 256, 192
-0.98574, 345, 129, 376, 256
-0.985835, 133, 217, 164, 280
-0.9859, 213, 185, 244, 248
-0.985906, 193, 225, 224, 352
-0.98592, 313, 153, 344, 216
-0.986022, 153, 209, 184, 336
-0.986031, 57, 305, 88, 368
-0.986034, 137, 129, 200, 375
-0.986077, 297, 233, 328, 296
-0.986106, 209, 289, 240, 352
-0.986125, 173, 217, 204, 280
-0.986147, 273, 1, 336, 256
-0.986167, 273, 81, 304, 208
-0.986212, 21, 81, 52, 208
-0.986217, 105, 145, 168, 272
-0.986282, 301, 49, 332, 176
-0.98636, 213, 265, 244, 328
-0.986367, 205, 241, 236, 304
-0.986387, 329, 1, 392, 256
-0.986432, 401, 65, 464, 192
-0.986462, 41, 201, 72, 264
-0.986477, 45, 225, 76, 288
-0.986483, 265, 1, 328, 375
-0.986496, 21, 113, 52, 176
-0.986549, 289, 241, 416, 368
-0.986609, 101, 305, 132, 368
-0.986632, 217, 225, 248, 288
-0.986933, 161, 161, 192, 288
-0.986989, 1, 1, 64, 375
-0.987055, 293, 241, 324, 368
-0.987087, 129, 17, 256, 144
-0.987189, 229, 161, 260, 288
-0.987244, 129, 209, 160, 336
-0.987246, 45, 177, 76, 304
-0.987283, 337, 169, 464, 232
-0.987283, 193, 233, 224, 296
-0.987315, 117, 289, 148, 352
-0.987339, 1, 169, 128, 232
-0.987341, 193, 105, 320, 168
-0.987414, 1, 1, 64, 128
-0.987451, 329, 73, 392, 136
-0.987477, 341, 153, 372, 216
-0.987635, 321, 89, 352, 152
-0.987689, 417, 17, 480, 144
-0.987715, 205, 145, 236, 208
-0.98782, 81, 17, 144, 144
-0.987832, 25, 153, 88, 216
-0.987849, 305, 81, 432, 144
-0.987898, 229, 241, 260, 368
-0.987909, 265, 297, 296, 360
-0.987913, 17, 89, 48, 152
-0.987915, 53, 257, 84, 320
-0.987949, 117, 313, 148, 375
-0.98797, 269, 145, 300, 208
-0.987987, 57, 281, 88, 344
-0.988006, 29, 145, 60, 208
-0.988077, 357, 161, 388, 288
-0.988111, 33, 33, 96, 160
-0.988157, 269, 97, 300, 160
-0.988172, 297, 17, 360, 80
-0.988271, 161, 185, 416, 248
-0.988336, 241, 81, 368, 144
-0.988343, 241, 121, 304, 152
-0.988479, 321, 209, 448, 272
-0.988494, 113, 113, 240, 240
-0.988496, 369, 49, 496, 176
-0.988528, 345, 129, 408, 375
-0.988537, 393, 1, 424, 128
-0.988543, 265, 129, 328, 160
-0.988588, 1, 89, 128, 152
-0.988611, 297, 201, 360, 232
-0.988632, 241, 305, 368, 368
-0.988669, 313, 217, 344, 280
-0.98871, 89, 265, 152, 328
-0.988726, 321, 33, 448, 96
-0.988854, 209, 1, 272, 375
-0.988872, 245, 225, 276, 288
-0.988882, 1, 201, 128, 264
-0.988907, 233, 273, 264, 336
-0.98892, 285, 201, 316, 264
-0.988931, 201, 181, 264, 212
-0.988963, 145, 209, 208, 240
-0.988997, 229, 201, 260, 264
-0.988997, 1, 57, 128, 120
-0.9891, 217, 305, 280, 336
-0.989124, 97, 225, 352, 288
-0.989139, 337, 97, 400, 160
-0.989179, 193, 129, 256, 192
-0.989187, 313, 185, 376, 216
-0.989249, 65, 49, 192, 176
-0.989271, 273, 117, 336, 148
-0.989309, 377, 1, 440, 256
-0.989336, 241, 149, 304, 180
-0.989355, 189, 273, 220, 336
-0.989356, 161, 161, 416, 224
-0.989358, 225, 33, 288, 288
-0.989381, 201, 193, 264, 224
-0.989394, 73, 193, 136, 320
-0.989418, 313, 225, 376, 352
-0.989454, 389, 81, 420, 208
-0.989456, 353, 185, 416, 248
-0.989482, 161, 197, 224, 228
-0.989507, 269, 217, 300, 280
-0.989528, 97, 329, 160, 360
-0.989544, 241, 1, 304, 375
-0.989559, 289, 213, 352, 244
-0.989563, 145, 345, 208, 375
-0.989594, 241, 133, 304, 164
-0.989598, 273, 169, 336, 200
-0.989609, 177, 221, 240, 252
-0.989621, 1, 33, 64, 96
-0.989644, 201, 169, 264, 200
-0.989647, 149, 161, 180, 288
-0.989651, 249, 265, 312, 296
-0.989653, 181, 225, 212, 352
-0.989657, 205, 313, 236, 375
-0.98967, 1, 89, 32, 152
-0.989693, 289, 49, 320, 176
-0.989724, 185, 205, 248, 236
-0.989734, 241, 201, 304, 232
-0.989737, 1, 113, 128, 176
-0.989766, 149, 225, 180, 288
-0.989813, 9, 49, 40, 112
-0.989825, 201, 157, 264, 188
-0.989852, 177, 169, 208, 232
-0.989856, 265, 237, 328, 268
-0.989867, 249, 253, 312, 284
-0.989874, 65, 297, 320, 360
-0.989905, 241, 181, 304, 212
-0.989929, 209, 293, 272, 324
-0.989936, 209, 237, 272, 268
-0.989947, 305, 89, 336, 152
-0.989954, 161, 137, 288, 200
-0.990011, 201, 129, 232, 256
-0.990015, 105, 345, 168, 375
-0.990133, 281, 149, 344, 180
-0.99014, 81, 345, 144, 375
-0.990148, 17, 137, 144, 200
-0.990159, 65, 273, 320, 336
-0.990162, 281, 181, 344, 212
-0.990173, 377, 153, 440, 216
-0.990174, 25, 249, 56, 312
-0.990178, 25, 297, 56, 360
-0.990185, 217, 205, 280, 236
-0.990213, 241, 169, 304, 200
-0.990235, 329, 137, 360, 200
-0.990241, 405, 81, 436, 208
-0.990254, 289, 81, 320, 144
-0.99027, 257, 89, 288, 152
-0.990285, 337, 1, 400, 375
-0.990289, 297, 121, 360, 152
-0.990364, 193, 329, 256, 360
-0.990392, 201, 217, 264, 248
-0.990407, 185, 341, 248, 372
-0.99042, 337, 113, 464, 176
-0.990425, 161, 289, 224, 320
-0.990442, 65, 1, 128, 64
-0.990452, 233, 277, 296, 308
-0.99046, 337, 41, 400, 104
-0.990493, 265, 209, 328, 240
-0.990504, 121, 329, 184, 360
-0.990505, 265, 197, 328, 228
-0.990548, 177, 185, 240, 216
-0.990559, 33, 73, 96, 136
-0.990571, 241, 109, 304, 140
-0.990572, 129, 225, 192, 256
-0.99059, 97, 249, 352, 312
-0.990592, 49, 177, 176, 240
-0.990593, 217, 133, 280, 164
-0.990594, 153, 229, 216, 260
-0.990616, 145, 97, 272, 160
-0.990633, 177, 237, 240, 268
-0.990696, 353, 161, 384, 224
-0.990733, 1, 141, 64, 172
-0.990742, 217, 117, 280, 148
-0.990763, 297, 225, 360, 256
-0.990765, 297, 133, 360, 164
-0.990765, 321, 173, 384, 204
-0.990769, 201, 317, 264, 348
-0.990778, 105, 217, 168, 280
-0.990811, 185, 301, 248, 332
-0.990816, 9, 185, 72, 216
-0.990839, 265, 17, 328, 144
-0.990841, 21, 273, 52, 336
-0.990842, 321, 197, 384, 228
-0.990865, 33, 317, 96, 348
-0.990872, 273, 265, 336, 296
-0.990891, 169, 273, 232, 304
-0.990899, 49, 177, 112, 240
-0.990925, 137, 193, 200, 224
-0.990953, 49, 129, 112, 256
-0.990959, 113, 313, 176, 344
-0.990982, 17, 221, 80, 252
-0.990988, 97, 241, 160, 304
-0.99101, 41, 217, 104, 280
-0.991017, 105, 293, 168, 324
-0.991038, 225, 253, 288, 284
-0.991047, 177, 173, 240, 204
-0.991155, 257, 209, 288, 272
-0.991156, 393, 121, 456, 184
-0.991203, 113, 129, 176, 375
-0.991213, 1, 153, 64, 184
-0.99122, 181, 241, 212, 304
-0.991229, 325, 65, 356, 192
-0.991246, 17, 209, 80, 240
-0.991253, 137, 313, 200, 344
-0.991266, 225, 317, 288, 348
-0.991275, 273, 225, 336, 256
-0.991282, 25, 253, 88, 284
-0.991284, 41, 81, 104, 208
-0.991286, 9, 173, 72, 204
-0.991289, 17, 301, 80, 332
-0.991299, 169, 249, 232, 280
-0.991331, 297, 169, 360, 200
-0.991427, 73, 333, 136, 364
-0.991456, 17, 33, 48, 160
-0.991464, 201, 249, 264, 280
-0.991468, 225, 217, 288, 248
-0.991473, 265, 105, 328, 136
-0.991475, 185, 285, 248, 316
-0.991476, 233, 293, 296, 324
-0.991493, 33, 285, 96, 316
-0.9915, 1, 129, 64, 160
-0.991501, 257, 277, 320, 308
-0.991513, 73, 321, 136, 352
-0.99152, 185, 313, 216, 375
-0.991539, 297, 109, 360, 140
-0.991547, 321, 57, 448, 120
-0.99156, 185, 129, 216, 256
-0.991562, 17, 233, 80, 264
-0.991567, 25, 265, 88, 296
-0.991568, 9, 281, 72, 312
-0.991574, 329, 113, 360, 176
-0.991592, 145, 177, 176, 240
-0.991597, 145, 33, 208, 288
-0.991626, 289, 241, 352, 272
-0.99163, 105, 265, 168, 296
-0.991635, 9, 197, 72, 228
-0.991638, 65, 273, 128, 304
-0.991643, 405, 113, 436, 176
-0.991654, 1, 245, 64, 276
-0.991655, 121, 209, 184, 240
-0.991684, 25, 25, 88, 88
-0.99169, 393, 113, 456, 240
-0.991698, 113, 281, 176, 312
-0.991715, 49, 329, 112, 360
-0.99173, 329, 221, 392, 252
-0.991764, 217, 145, 280, 176
-0.991776, 1, 9, 128, 72
-0.991789, 5, 25, 36, 88
-0.991792, 389, 97, 420, 160
-0.991796, 145, 301, 208, 332
-0.991847, 337, 185, 400, 216
-0.991853, 57, 345, 120, 375
-0.991885, 145, 241, 208, 304
-0.991886, 345, 201, 408, 232
-0.991894, 273, 253, 336, 284
-0.991912, 73, 285, 136, 316
-0.991918, 217, 329, 280, 360
-0.991936, 177, 261, 240, 292
-0.991938, 257, 313, 320, 344
-0.991958, 89, 309, 152, 340
-0.991968, 153, 333, 216, 364
-0.992035, 249, 221, 312, 252
-0.992045, 177, 265, 208, 328
-0.99207, 153, 177, 216, 208
-0.992071, 413, 65, 444, 128
-0.99209, 1, 193, 32, 256
-0.992091, 321, 209, 384, 240
-0.992092, 41, 305, 104, 336
-0.992094, 85, 313, 116, 375
-0.992106, 1, 345, 64, 375
-0.992127, 249, 117, 280, 148
-0.992159, 229, 169, 260, 200
-0.992191, 1, 105, 64, 136
-0.992216, 337, 9, 400, 72
-0.992217, 5, 217, 36, 280
-0.99222, 217, 105, 280, 136
-0.99222, 209, 265, 272, 296
-0.992222, 129, 325, 160, 356
-0.992224, 337, 185, 368, 216
-0.992226, 269, 129, 300, 160
-0.992229, 117, 337, 148, 368
-0.992234, 89, 193, 152, 256
-0.992234, 289, 97, 352, 128
-0.992235, 241, 249, 272, 312
-0.992247, 369, 1, 432, 375
-0.992248, 329, 161, 392, 192
-0.992253, 217, 173, 248, 204
-0.992254, 201, 169, 232, 200
-0.992254, 321, 121, 384, 152
-0.99227, 217, 293, 248, 324
-0.992283, 121, 253, 184, 284
-0.992298, 1, 317, 64, 348
-0.992302, 393, 45, 456, 76
-0.992308, 321, 233, 384, 264
-0.992309, 169, 313, 200, 375
-0.992312, 1, 329, 64, 360
-0.99232, 345, 173, 408, 204
-0.992327, 237, 133, 268, 164
-0.99233, 297, 261, 360, 292
-0.992331, 385, 117, 448, 148
-0.992339, 289, 137, 320, 168
-0.992345, 165, 209, 196, 240
-0.992388, 305, 121, 336, 152
-0.992409, 285, 117, 316, 148
-0.992431, 165, 345, 196, 375
-0.992436, 141, 313, 172, 344
-0.992449, 193, 137, 448, 200
-0.992461, 221, 157, 252, 188
-0.992465, 153, 209, 184, 240
-0.992469, 209, 157, 240, 188
-0.992473, 73, 25, 136, 88
-0.992481, 177, 209, 208, 240
-0.992494, 1, 193, 500, 256
-0.992494, 33, 177, 64, 304
-0.992498, 185, 197, 216, 228
-0.992513, 297, 201, 328, 232
-0.99253, 289, 153, 320, 184
-0.992541, 101, 333, 132, 364
-0.992545, 257, 129, 288, 160
-0.992547, 261, 249, 292, 280
-0.992557, 325, 173, 356, 204
-0.992568, 281, 261, 312, 292
-0.99257, 233, 157, 264, 188
-0.992589, 1, 233, 256, 296
-0.992595, 237, 309, 268, 340
-0.992597, 309, 189, 340, 220
-0.992602, 201, 185, 232, 216
-0.992619, 185, 221, 216, 252
-0.992627, 249, 193, 280, 224
-0.992653, 249, 181, 280, 212
-0.992654, 329, 197, 360, 228
-0.992655, 41, 113, 104, 176
-0.992674, 241, 145, 272, 176
-0.992681, 261, 117, 292, 148
-0.992703, 309, 217, 340, 248
-0.992723, 141, 217, 172, 248
-0.992741, 289, 165, 320, 196
-0.992748, 245, 205, 276, 236
-0.992753, 153, 301, 184, 332
-0.992753, 173, 197, 204, 228
-0.992753, 241, 169, 272, 200
-0.992759, 293, 213, 324, 244
-0.992792, 321, 185, 352, 216
-0.992797, 233, 297, 264, 328
-0.992807, 273, 117, 304, 148
-0.992821, 165, 289, 196, 320
-0.992831, 1, 209, 256, 272
-0.992835, 41, 301, 72, 332
-0.992838, 273, 177, 304, 208
-0.992842, 305, 133, 336, 164
-0.992845, 105, 345, 136, 375
-0.992857, 289, 185, 320, 216
-0.992873, 205, 225, 236, 256
-0.992874, 225, 137, 256, 168
-0.99288, 89, 341, 120, 372
-0.99288, 189, 173, 220, 204
-0.992885, 161, 193, 192, 224
-0.99289, 237, 121, 268, 152
-0.992894, 177, 341, 208, 372
-0.992894, 229, 181, 260, 212
-0.992896, 309, 201, 340, 232
-0.992898, 301, 153, 332, 184
-0.9929, 149, 197, 180, 228
-0.992902, 189, 185, 220, 216
-0.992903, 341, 173, 372, 204
-0.992912, 73, 49, 136, 112
-0.992913, 321, 9, 448, 72
-0.992913, 37, 285, 68, 316
-0.992915, 165, 221, 196, 252
-0.992917, 217, 313, 248, 344
-0.992926, 197, 205, 228, 236
-0.992929, 113, 269, 144, 300
-0.992929, 45, 321, 76, 352
-0.992934, 89, 1, 152, 375
-0.992939, 205, 237, 236, 268
-0.992941, 49, 1, 112, 375
-0.992961, 13, 185, 44, 216
-0.992962, 317, 137, 348, 168
-0.992962, 269, 261, 300, 292
-0.992963, 277, 197, 308, 228
-0.992964, 33, 269, 64, 300
-0.992965, 9, 169, 40, 200
-0.992971, 273, 141, 304, 172
-0.992972, 169, 145, 232, 208
-0.992978, 117, 321, 148, 352
-0.99298, 25, 233, 56, 264
-0.992982, 1, 125, 32, 156
-0.992984, 221, 233, 252, 264
-0.992987, 241, 333, 272, 364
-0.992992, 17, 201, 48, 232
-0.992996, 301, 169, 332, 200
-0.992997, 29, 253, 60, 284
-0.992998, 5, 145, 36, 176
-0.993001, 361, 49, 424, 112
-0.993005, 205, 297, 236, 328
-0.993013, 21, 217, 52, 248
-0.993014, 353, 193, 384, 224
-0.993014, 293, 225, 324, 256
-0.99302, 293, 269, 324, 300
-0.99302, 265, 277, 296, 308
-0.993025, 357, 113, 388, 240
-0.993029, 245, 105, 276, 136
-0.993031, 249, 321, 280, 352
-0.993034, 249, 253, 280, 284
-0.99305, 261, 309, 292, 340
-0.993055, 213, 185, 244, 216
-0.993064, 281, 281, 312, 312
-0.993065, 233, 213, 264, 244
-0.993066, 317, 117, 348, 148
-0.99307, 201, 249, 232, 280
-0.993072, 5, 157, 36, 188
-0.993079, 321, 233, 352, 264
-0.993085, 65, 185, 320, 248
-0.993086, 217, 113, 248, 240
-0.993089, 297, 237, 328, 268
-0.993092, 57, 313, 88, 344
-0.993093, 341, 213, 372, 244
-0.993099, 321, 209, 352, 240
-0.993112, 193, 345, 224, 375
-0.993116, 105, 321, 136, 352
-0.993116, 269, 165, 300, 196
-0.99312, 229, 201, 260, 232
-0.993121, 153, 221, 184, 252
-0.993122, 253, 145, 284, 176
-0.993123, 225, 325, 256, 356
-0.993128, 261, 185, 292, 216
-0.993137, 137, 345, 168, 375
-0.993138, 121, 257, 152, 288
-0.993143, 117, 309, 148, 340
-0.993154, 49, 25, 176, 88
-0.993154, 181, 273, 212, 304
-0.993158, 257, 265, 288, 296
-0.993162, 281, 217, 312, 248
-0.993166, 261, 197, 292, 228
-0.993168, 1, 113, 32, 144
-0.993169, 217, 217, 248, 248
-0.993169, 1, 33, 128, 96
-0.993169, 341, 81, 372, 208
-0.993187, 149, 333, 180, 364
-0.99319, 401, 1, 464, 375
-0.993211, 145, 113, 208, 240
-0.993258, 417, 33, 480, 96
-0.993274, 113, 1, 176, 128
-0.993331, 129, 161, 192, 224
-0.993338, 25, 1, 88, 375
-0.993363, 361, 97, 424, 160
-0.993376, 257, 313, 320, 375
-0.993391, 49, 153, 112, 216
-0.993396, 161, 1, 224, 375
-0.9934, 171, 193, 186, 256
-0.99341, 341, 33, 372, 160
-0.993443, 257, 193, 384, 224
-0.993447, 369, 113, 400, 240
-0.993458, 129, 217, 256, 248
-0.993469, 417, 1, 480, 64
-0.993473, 129, 41, 256, 104
-0.993502, 337, 145, 464, 208
-0.993508, 185, 1, 248, 375
-0.993616, 49, 1, 176, 64
-0.993616, 97, 241, 128, 368
-0.99362, 161, 281, 416, 344
-0.993645, 369, 145, 432, 272
-0.993694, 273, 41, 400, 104
-0.99374, 225, 121, 352, 152
-0.993742, 193, 217, 448, 280
-0.993746, 241, 129, 256, 192
-0.99378, 353, 33, 416, 288
-0.99379, 133, 161, 164, 288
-0.99379, 209, 213, 336, 244
-0.993802, 291, 137, 306, 200
-0.993808, 409, 73, 472, 136
-0.993865, 401, 1, 464, 256
-0.993911, 65, 161, 320, 224
-0.993919, 33, 49, 96, 112
-0.993964, 217, 33, 280, 160
-0.993991, 113, 1, 176, 375
-0.994025, 369, 145, 496, 272
-0.994041, 347, 177, 362, 240
-0.994051, 193, 81, 320, 144
-0.994104, 177, 201, 304, 232
-0.994109, 249, 137, 264, 200
-0.994136, 177, 185, 304, 216
-0.994137, 251, 169, 266, 232
-0.994165, 257, 73, 320, 136
-0.994172, 145, 293, 272, 324
-0.994201, 361, 1, 424, 64
-0.994207, 129, 309, 256, 340
-0.994211, 65, 57, 192, 120
-0.994212, 251, 105, 266, 168
-0.994232, 215, 161, 230, 224
-0.99424, 257, 177, 384, 208
-0.994255, 281, 257, 296, 320
-0.994259, 145, 73, 272, 136
-0.994285, 315, 113, 330, 176
-0.994292, 193, 241, 448, 304
-0.994293, 165, 185, 180, 248
-0.994299, 1, 217, 500, 280
-0.994312, 233, 153, 248, 216
-0.994324, 113, 137, 240, 200
-0.994324, 137, 1, 200, 375
-0.994349, 225, 113, 480, 176
-0.994359, 1, 169, 500, 232
-0.99436, 305, 121, 320, 184
-0.994384, 181, 193, 196, 256
-0.994384, 209, 153, 336, 184
-0.994395, 221, 65, 252, 192
-0.994426, 209, 173, 336, 204
-0.994429, 193, 57, 320, 120
-0.994444, 9, 225, 40, 352
-0.994461, 313, 241, 376, 304
-0.994462, 129, 205, 256, 236
-0.994477, 273, 9, 400, 72
-0.99449, 41, 1, 104, 256
-0.994585, 129, 345, 256, 375
-0.994585, 259, 113, 274, 176
-0.994601, 241, 161, 256, 224
-0.994653, 193, 33, 256, 160
-0.994657, 205, 177, 220, 240
-0.994696, 159, 193, 174, 256
-0.99473, 289, 249, 304, 312
-0.994744, 129, 113, 384, 176
-0.994753, 369, 33, 496, 96
-0.994757, 361, 1, 424, 128
-0.99476, 257, 89, 500, 152
-0.994777, 193, 265, 320, 296
-0.9948, 257, 205, 384, 236
-0.994831, 269, 241, 284, 304
-0.994843, 209, 225, 336, 256
-0.994845, 369, 89, 496, 152
-0.994868, 1, 265, 500, 328
-0.994926, 261, 65, 292, 192
-0.99493, 65, 153, 192, 216
-0.994978, 247, 297, 262, 360
-0.994995, 281, 121, 296, 184
-0.994995, 257, 193, 500, 256
-0.994999, 243, 185, 258, 248
-0.995014, 319, 209, 334, 272
-0.995022, 369, 1, 496, 128
-0.995035, 241, 305, 256, 368
-0.995079, 303, 201, 318, 264
-0.995095, 227, 153, 242, 216
-0.995097, 129, 17, 256, 80
-0.99512, 97, 333, 224, 364
-0.99516, 209, 25, 336, 88
-0.99517, 309, 193, 324, 256
-0.995172, 225, 137, 352, 168
-0.995174, 81, 345, 208, 375
-0.995183, 193, 185, 208, 248
-0.995193, 333, 193, 348, 256
-0.995205, 265, 113, 280, 176
-0.995214, 129, 193, 256, 224
-0.995219, 97, 285, 224, 316
-0.99524, 409, 97, 472, 160
-0.99524, 273, 217, 400, 248
-0.99525, 339, 185, 354, 248
-0.995287, 81, 273, 208, 304
-0.995295, 297, 177, 312, 240
-0.995335, 325, 201, 340, 264
-0.995355, 299, 137, 314, 200
-0.995362, 51, 281, 66, 344
-0.995371, 17, 289, 144, 320
-0.995388, 353, 177, 368, 240
-0.99539, 177, 305, 304, 336
-0.995411, 161, 313, 416, 375
-0.995418, 193, 253, 320, 284
-0.995426, 97, 261, 224, 292
-0.995439, 231, 281, 246, 344
-0.995466, 267, 177, 282, 240
-0.995486, 17, 301, 144, 332
-0.99549, 177, 33, 240, 96
-0.995497, 165, 209, 180, 272
-0.995507, 1, 345, 128, 375
-0.995514, 39, 225, 54, 288
-0.995527, 161, 169, 288, 200
-0.995547, 309, 97, 340, 352
-0.995548, 213, 209, 228, 272
-0.99555, 81, 205, 208, 236
-0.995555, 117, 265, 132, 328
-0.995617, 221, 169, 236, 232
-0.995632, 295, 113, 310, 176
-0.99564, 273, 113, 288, 176
-0.995654, 321, 129, 352, 375
-0.99566, 33, 209, 48, 272
-0.995668, 1, 297, 500, 360
-0.995672, 215, 297, 230, 360
-0.995674, 169, 113, 232, 240
-0.995679, 49, 313, 176, 344
-0.995686, 307, 145, 322, 208
-0.995687, 43, 249, 58, 312
-0.995709, 199, 185, 214, 248
-0.995709, 217, 73, 280, 136
-0.995709, 425, 1, 456, 128
-0.995713, 313, 217, 328, 280
-0.995716, 273, 161, 400, 192
-0.995725, 1, 137, 256, 200
-0.995739, 225, 281, 240, 344
-0.995746, 193, 293, 320, 324
-0.995756, 1, 89, 256, 152
-0.995793, 1, 241, 500, 304
-0.995797, 21, 153, 36, 216
-0.995799, 221, 145, 236, 208
-0.995808, 25, 1, 88, 64
-0.995812, 369, 57, 496, 120
-0.995821, 139, 313, 154, 375
-0.995828, 175, 217, 190, 280
-0.995834, 321, 113, 336, 176
-0.995838, 153, 193, 168, 256
-0.995845, 187, 193, 202, 256
-0.995852, 253, 297, 268, 360
-0.995871, 113, 229, 240, 260
-0.995879, 241, 237, 368, 268
-0.995879, 257, 185, 272, 248
-0.995881, 333, 169, 348, 232
-0.995885, 151, 305, 166, 368
-0.995899, 275, 249, 290, 312
-0.995915, 259, 249, 274, 312
-0.995917, 17, 273, 144, 304
-0.995929, 145, 333, 272, 364
-0.995931, 313, 33, 344, 160
-0.995961, 55, 305, 70, 368
-0.995963, 287, 161, 302, 224
-0.995966, 49, 81, 176, 144
-0.995968, 97, 297, 224, 328
-0.995974, 285, 129, 316, 375
-0.995975, 185, 81, 248, 144
-0.995979, 29, 185, 44, 248
-0.995995, 173, 161, 204, 288
-0.995998, 315, 177, 330, 240
-0.996001, 145, 313, 160, 375
-0.996008, 105, 33, 168, 288
-0.996019, 117, 177, 148, 304
-0.996038, 199, 209, 214, 272
-0.996043, 81, 1, 112, 128
-0.99605, 297, 265, 360, 328
-0.996059, 289, 185, 304, 248
-0.996089, 157, 297, 172, 360
-0.996089, 169, 33, 232, 288
-0.996103, 325, 177, 340, 240
-0.996125, 213, 265, 228, 328
-0.996128, 177, 317, 304, 348
-0.996137, 317, 241, 332, 304
-0.996161, 185, 57, 248, 120
-0.996168, 9, 97, 24, 160
-0.996173, 81, 217, 208, 248
-0.996178, 295, 265, 310, 328
-0.996184, 249, 97, 280, 352
-0.996188, 113, 313, 128, 375
-0.9962, 259, 209, 274, 272
-0.996214, 305, 189, 432, 220
-0.996222, 305, 169, 320, 232
-0.996231, 129, 89, 384, 152
-0.996245, 205, 273, 220, 336
-0.99625, 233, 129, 248, 192
-0.996255, 331, 225, 346, 288
-0.996256, 1, 1, 500, 64
-0.996262, 145, 277, 272, 308
-0.996267, 337, 217, 352, 280
-0.996267, 129, 245, 256, 276
-0.996268, 165, 289, 180, 352
-0.996271, 261, 305, 276, 368
-0.996276, 349, 201, 364, 264
-0.996277, 15, 129, 30, 192
-0.996282, 343, 209, 358, 272
-0.996283, 33, 241, 160, 272
-0.996321, 265, 129, 296, 375
-0.99633, 243, 105, 258, 168
-0.996331, 299, 233, 314, 296
-0.996332, 257, 281, 500, 344
-0.996341, 285, 281, 300, 344
-0.996347, 301, 257, 316, 320
-0.996354, 225, 277, 352, 308
-0.996355, 129, 321, 256, 352
-0.996362, 225, 109, 352, 140
-0.996362, 57, 97, 120, 352
-0.996363, 1, 57, 16, 120
-0.996376, 255, 145, 270, 208
-0.996397, 325, 17, 356, 144
-0.996397, 359, 185, 374, 248
-0.996401, 249, 193, 264, 256
-0.996412, 273, 113, 400, 144
-0.996416, 235, 305, 250, 368
-0.996464, 209, 153, 224, 216
-0.996479, 325, 233, 340, 296
-0.996531, 339, 161, 354, 224
-0.996534, 281, 169, 296, 232
-0.996534, 289, 113, 304, 176
-0.99654, 307, 225, 322, 288
-0.996556, 1, 261, 128, 292
-0.996571, 297, 209, 312, 272
-0.996573, 313, 145, 328, 208
-0.996605, 389, 129, 420, 256
-0.99661, 33, 329, 160, 360
-0.996618, 81, 1, 144, 256
-0.996628, 257, 257, 384, 288
-0.996631, 203, 153, 218, 216
-0.996637, 133, 313, 148, 375
-0.996654, 225, 217, 240, 280
-0.996657, 65, 113, 192, 176
-0.996658, 369, 25, 432, 88
-0.996662, 265, 137, 280, 200
-0.996667, 209, 1, 336, 64
-0.996674, 1, 113, 256, 176
-0.996681, 209, 305, 224, 368
-0.996696, 207, 201, 222, 264
-0.996697, 193, 65, 448, 128
-0.996698, 333, 97, 364, 352
-0.996706, 33, 229, 160, 260
-0.996714, 253, 257, 268, 320
-0.996718, 225, 313, 352, 344
-0.996721, 175, 281, 190, 344
-0.996735, 1, 105, 500, 168
-0.996738, 207, 233, 222, 296
-0.996741, 289, 145, 416, 176
-0.996764, 237, 65, 268, 192
-0.996769, 33, 213, 160, 244
-0.996769, 121, 305, 136, 368
-0.996774, 219, 249, 234, 312
-0.996786, 113, 173, 240, 204
-0.996833, 359, 161, 374, 224
-0.996841, 227, 177, 242, 240
-0.996859, 261, 281, 276, 344
-0.996872, 229, 305, 244, 368
-0.996875, 197, 161, 212, 224
-0.996881, 273, 125, 400, 156
-0.996887, 45, 281, 60, 344
-0.996896, 257, 169, 500, 232
-0.996899, 237, 129, 268, 375
-0.996902, 149, 217, 164, 280
-0.996907, 177, 133, 304, 164
-0.996925, 1, 65, 32, 320
-0.99693, 183, 217, 198, 280
-0.996934, 297, 97, 328, 352
-0.996937, 65, 241, 96, 368
-0.996943, 81, 65, 144, 192
-0.996947, 109, 289, 124, 352
-0.996948, 215, 185, 230, 248
-0.996963, 171, 209, 186, 240
-0.996973, 89, 129, 152, 375
-0.996978, 291, 217, 306, 280
-0.996988, 231, 165, 246, 196
-0.997005, 65, 97, 192, 224
-0.997038, 177, 117, 304, 148
-0.997045, 109, 1, 140, 128
-0.997071, 225, 97, 352, 128
-0.997087, 381, 33, 412, 160
-0.99709, 223, 173, 238, 204
-0.997094, 105, 161, 168, 224
-0.99711, 201, 169, 216, 200
-0.997128, 81, 193, 208, 224
-0.997134, 243, 165, 258, 196
-0.99714, 81, 217, 144, 280
-0.997141, 275, 125, 290, 156
-0.997149, 33, 97, 64, 352
-0.997152, 215, 169, 230, 200
-0.997154, 241, 301, 368, 332
-0.997168, 321, 209, 448, 240
-0.997205, 321, 101, 448, 132
-0.99721, 263, 121, 278, 152
-0.997214, 385, 97, 448, 352
-0.997242, 307, 153, 322, 184
-0.997248, 247, 129, 262, 160
-0.99727, 273, 269, 400, 300
-0.997284, 241, 133, 256, 164
-0.997286, 289, 229, 416, 260
-0.99729, 177, 345, 304, 375
-0.997291, 417, 81, 448, 208
-0.997297, 301, 205, 316, 236
-0.9973, 225, 97, 256, 352
-0.997304, 207, 173, 222, 204
-0.997312, 283, 133, 298, 164
-0.997317, 113, 81, 176, 144
-0.997338, 369, 1, 496, 64
-0.997342, 97, 1, 160, 64
-0.997344, 233, 153, 248, 184
-0.997354, 291, 121, 306, 152
-0.997355, 237, 165, 252, 196
-0.997361, 73, 73, 136, 136
-0.997365, 315, 117, 330, 148
-0.997369, 13, 129, 44, 375
-0.997375, 131, 329, 146, 360
-0.997405, 161, 17, 224, 144
-0.997415, 319, 189, 334, 220
-0.997419, 81, 249, 208, 280
-0.997425, 119, 333, 134, 364
-0.997425, 309, 201, 324, 232
-0.997428, 269, 125, 284, 156
-0.997434, 97, 89, 224, 152
-0.997452, 17, 153, 144, 184
-0.997453, 1, 65, 128, 96
-0.997457, 161, 229, 288, 260
-0.997477, 437, 1, 468, 128
-0.997483, 253, 173, 268, 204
-0.997497, 33, 33, 288, 96
-0.997508, 139, 321, 154, 352
-0.997514, 159, 209, 174, 240
-0.997522, 243, 181, 258, 212
-0.997528, 193, 329, 320, 360
-0.997533, 223, 157, 238, 188
-0.997557, 291, 149, 306, 180
-0.997564, 305, 177, 432, 208
-0.997566, 425, 65, 488, 192
-0.997575, 313, 149, 328, 180
-0.997578, 239, 153, 254, 184
-0.997588, 155, 305, 170, 336
-0.997603, 253, 129, 268, 160
-0.997604, 179, 209, 194, 240
-0.997612, 301, 141, 316, 172
-0.997622, 147, 313, 162, 344
-0.99763, 179, 197, 194, 228
-0.997639, 97, 33, 160, 96
-0.997642, 329, 177, 344, 208
-0.997642, 425, 1, 488, 256
-0.997645, 125, 333, 140, 364
-0.997647, 1, 77, 128, 108
-0.997655, 195, 177, 210, 208
-0.99766, 17, 33, 48, 288
-0.997667, 163, 297, 178, 328
-0.997667, 145, 157, 272, 188
-0.997677, 295, 137, 310, 168
-0.997684, 227, 285, 242, 316
-0.997699, 251, 109, 266, 140
-0.997702, 147, 205, 162, 236
-0.997702, 249, 197, 264, 228
-0.997705, 217, 297, 232, 328
-0.99771, 319, 201, 334, 232
-0.997712, 207, 161, 222, 192
-0.997717, 301, 113, 316, 144
-0.99772, 171, 193, 186, 224
-0.997725, 289, 133, 304, 164
-0.997727, 57, 1, 120, 128
-0.99773, 199, 193, 214, 224
-0.997731, 165, 213, 180, 244
-0.997732, 153, 209, 168, 240
-0.997732, 337, 169, 352, 200
-0.997739, 233, 177, 248, 208
-0.997756, 257, 117, 272, 148
-0.997757, 409, 1, 440, 256
-0.997757, 269, 245, 284, 276
-0.997764, 187, 197, 202, 228
-0.997765, 315, 213, 330, 244
-0.997768, 261, 249, 276, 280
-0.997789, 269, 113, 284, 144
-0.997801, 309, 221, 324, 252
-0.997809, 145, 265, 272, 296
-0.99782, 193, 129, 224, 375
-0.99783, 295, 213, 310, 244
-0.997833, 201, 181, 216, 212
-0.997835, 1, 201, 128, 232
-0.997841, 115, 345, 130, 375
-0.997853, 113, 329, 128, 360
-0.997853, 325, 201, 340, 232
-0.997856, 359, 193, 374, 224
-0.997858, 1, 109, 128, 140
-0.997859, 429, 49, 460, 176
-0.997862, 331, 193, 346, 224
-0.997864, 291, 161, 306, 192
-0.99787, 273, 261, 288, 292
-0.997871, 299, 157, 314, 188
-0.997872, 147, 217, 162, 248
-0.997875, 307, 125, 322, 156
-0.997876, 185, 213, 200, 244
-0.997881, 247, 149, 262, 180
-0.997882, 353, 181, 480, 212
-0.997883, 265, 313, 280, 344
-0.997893, 321, 113, 448, 144
-0.997894, 267, 185, 282, 216
-0.9979, 273, 101, 400, 132
-0.997907, 121, 345, 136, 375
-0.997909, 263, 133, 278, 164
-0.997914, 207, 185, 222, 216
-0.997917, 97, 137, 352, 200
-0.997921, 301, 1, 332, 256
-0.997921, 1, 25, 500, 88
-0.997925, 53, 321, 68, 352
-0.997926, 235, 297, 250, 328
-0.997928, 249, 161, 264, 192
-0.99793, 209, 129, 240, 375
-0.997951, 249, 333, 264, 364
-0.997963, 115, 269, 130, 300
-0.99797, 205, 201, 220, 232
-0.997971, 303, 265, 318, 296
-0.997973, 241, 117, 256, 148
-0.997979, 289, 241, 416, 272
-0.997979, 339, 185, 354, 216
-0.997981, 1, 145, 500, 208
-0.997981, 169, 293, 184, 324
-0.997982, 173, 341, 188, 372
-0.997984, 121, 49, 184, 176
-0.997986, 337, 37, 464, 68
-0.997989, 175, 221, 190, 252
-0.997998, 259, 321, 274, 352
-0.997999, 17, 165, 144, 196
-0.998, 297, 273, 312, 304
-0.998002, 165, 197, 180, 228
-0.998016, 223, 297, 238, 328
-0.998016, 341, 217, 356, 248
-0.998018, 233, 137, 248, 168
-0.998018, 249, 49, 280, 176
-0.998022, 335, 225, 350, 256
-0.998022, 287, 285, 302, 316
-0.998027, 225, 41, 480, 104
-0.998027, 351, 205, 366, 236
-0.998028, 231, 309, 246, 340
-0.998033, 257, 1, 500, 64
-0.998035, 347, 185, 362, 216
-0.998037, 1, 81, 500, 144
-0.998038, 213, 189, 228, 220
-0.99805, 317, 137, 332, 168
-0.998055, 325, 189, 340, 220
-0.998056, 273, 89, 400, 120
-0.998058, 285, 33, 316, 288
-0.998067, 323, 241, 338, 272
-0.998071, 191, 209, 206, 240
-0.998078, 243, 205, 258, 236
-0.998079, 325, 121, 340, 152
-0.99808, 59, 313, 74, 344
-0.998084, 321, 77, 448, 108
-0.998085, 329, 233, 344, 264
-0.998086, 225, 229, 240, 260
-0.998094, 287, 173, 302, 204
-0.998099, 175, 285, 190, 316
-0.998104, 281, 261, 296, 292
-0.998111, 1, 65, 256, 128
-0.998112, 1, 89, 128, 120
-0.998112, 343, 169, 358, 200
-0.99812, 389, 1, 420, 256
-0.998124, 229, 297, 244, 328
-0.998131, 337, 193, 464, 320
-0.998135, 307, 137, 322, 168
-0.998139, 291, 265, 306, 296
-0.99814, 107, 345, 122, 375
-0.998145, 101, 337, 116, 368
-0.998148, 197, 217, 212, 248
-0.998149, 275, 249, 290, 280
-0.99815, 303, 221, 318, 252
-0.99815, 321, 89, 448, 120
-0.998153, 251, 185, 266, 216
-0.998153, 49, 261, 176, 292
-0.998155, 185, 345, 200, 375
-0.998195, 425, 1, 488, 375
-0.99821, 241, 289, 368, 320
-0.998211, 49, 181, 176, 212
-0.998243, 17, 141, 144, 172
-0.998245, 225, 341, 352, 372
-0.998246, 1, 57, 500, 120
-0.998261, 321, 33, 352, 288
-0.998283, 241, 325, 368, 356
-0.998302, 337, 61, 464, 92
-0.998337, 1, 317, 128, 348
-0.99834, 177, 241, 304, 272
-0.998353, 265, 9, 328, 72
-0.998375, 1, 189, 128, 220
-0.99838, 1, 29, 128, 60
-0.998383, 337, 1, 368, 256
-0.998387, 241, 129, 304, 144
-0.998396, 201, 163, 264, 178
-0.998397, 201, 211, 232, 226
-0.998397, 201, 251, 232, 266
-0.998398, 329, 205, 360, 220
-0.998398, 257, 117, 288, 132
-0.998399, 153, 129, 184, 375
-0.9984, 269, 33, 300, 288
-0.998402, 185, 351, 216, 366
-0.998403, 145, 105, 272, 136
-0.998403, 217, 221, 248, 236
-0.998403, 217, 245, 248, 260
-0.998404, 157, 229, 188, 244
-0.998404, 297, 163, 328, 178
-0.998404, 337, 183, 368, 198
-0.998404, 41, 305, 72, 320
-0.998405, 313, 129, 344, 144
-0.998406, 113, 285, 144, 300
-0.998407, 305, 115, 336, 130
-0.998408, 113, 351, 144, 366
-0.998409, 221, 227, 252, 242
-0.998409, 237, 175, 268, 190
-0.998409, 277, 187, 308, 202
-0.99841, 45, 325, 76, 340
-0.998412, 169, 289, 200, 304
-0.998413, 317, 205, 348, 220
-0.998414, 89, 355, 120, 370
-0.998415, 313, 211, 344, 226
-0.998415, 141, 219, 172, 234
-0.998417, 337, 129, 464, 160
-0.998419, 333, 199, 364, 214
-0.998419, 41, 311, 72, 326
-0.99842, 233, 117, 264, 132
-0.99842, 269, 117, 300, 132
-0.99842, 189, 225, 220, 240
-0.998422, 125, 341, 156, 356
-0.998424, 253, 183, 284, 198
-0.998424, 101, 355, 132, 370
-0.998424, 269, 197, 300, 212
-0.998425, 213, 175, 244, 190
-0.998425, 229, 133, 260, 148
-0.998425, 169, 193, 200, 208
-0.998426, 277, 265, 308, 280
-0.998427, 189, 213, 220, 228
-0.998429, 305, 149, 336, 164
-0.998429, 273, 145, 304, 160
-0.998429, 265, 135, 328, 150
-0.99843, 285, 177, 316, 192
-0.99843, 233, 307, 264, 322
-0.998431, 293, 115, 324, 130
-0.998433, 313, 141, 344, 156
-0.998433, 1, 177, 128, 208
-0.998435, 201, 169, 264, 184
-0.998438, 325, 189, 356, 204
-0.998438, 217, 187, 248, 202
-0.998439, 177, 361, 208, 375
-0.99844, 265, 129, 328, 144
-0.99844, 205, 245, 236, 260
-0.998441, 185, 191, 216, 206
-0.998442, 325, 177, 356, 192
-0.998445, 165, 295, 196, 310
-0.998446, 213, 307, 244, 322
-0.998446, 89, 349, 120, 364
-0.998452, 157, 195, 188, 210
-0.998452, 241, 123, 304, 138
-0.998453, 241, 145, 272, 160
-0.998454, 153, 205, 184, 220
-0.998458, 225, 309, 288, 324
-0.998459, 113, 345, 144, 360
-0.998459, 145, 215, 208, 230
-0.99846, 305, 201, 368, 216
-0.99846, 177, 225, 208, 240
-0.99846, 221, 155, 252, 170
-0.998461, 313, 189, 376, 204
-0.998462, 217, 167, 248, 182
-0.998463, 289, 221, 320, 236
-0.998464, 301, 127, 332, 142
-0.998465, 157, 361, 188, 375
-0.998468, 97, 341, 128, 356
-0.998471, 157, 303, 188, 318
-0.998473, 245, 111, 276, 126
-0.998474, 289, 133, 320, 148
-0.998474, 281, 123, 344, 138
-0.998474, 117, 335, 148, 350
-0.998477, 285, 121, 316, 136
-0.998479, 205, 237, 236, 252
-0.99848, 145, 225, 176, 240
-0.99848, 193, 219, 224, 234
-0.998481, 201, 189, 264, 204
-0.998481, 305, 155, 336, 170
-0.998482, 249, 193, 280, 208
-0.998482, 233, 135, 296, 150
-0.998482, 297, 209, 360, 224
-0.998483, 33, 9, 288, 72
-0.998484, 201, 181, 264, 196
-0.998484, 165, 353, 196, 368
-0.998484, 157, 221, 188, 236
-0.998485, 153, 221, 216, 236
-0.998488, 129, 335, 160, 350
-0.998489, 225, 291, 256, 306
-0.99849, 185, 221, 248, 236
-0.998495, 233, 181, 264, 196
-0.998496, 149, 311, 180, 326
-0.998496, 153, 361, 216, 375
-0.998497, 133, 327, 164, 342
-0.998498, 241, 167, 304, 182
-0.998499, 173, 219, 204, 234
-0.998499, 177, 227, 240, 242
-0.998499, 289, 149, 320, 164
-0.9985, 269, 125, 300, 140
-0.998501, 201, 187, 232, 202
-0.998502, 189, 203, 220, 218
-0.998504, 265, 267, 328, 282
-0.998505, 153, 353, 216, 368
-0.998505, 241, 141, 304, 156
-0.998506, 141, 319, 172, 334
-0.998506, 237, 169, 268, 184
-0.998506, 209, 205, 272, 220
-0.998506, 161, 199, 224, 214
-0.998507, 169, 213, 200, 228
-0.998507, 137, 345, 200, 360
-0.998507, 285, 161, 316, 176
-0.998509, 201, 175, 264, 190
-0.99851, 297, 221, 360, 236
-0.99851, 321, 183, 352, 198
-0.99851, 161, 193, 224, 208
-0.99851, 177, 1, 240, 64
-0.998512, 305, 135, 336, 150
-0.998512, 169, 347, 200, 362
-0.998513, 281, 171, 344, 186
-0.998515, 105, 333, 136, 348
-0.998516, 249, 139, 280, 154
-0.998517, 177, 215, 240, 230
-0.998518, 181, 129, 212, 375
-0.998519, 45, 129, 76, 375
-0.998519, 241, 193, 304, 208
-0.998521, 285, 139, 316, 154
-0.998521, 229, 163, 260, 178
-0.998521, 205, 167, 236, 182
-0.998522, 289, 231, 352, 246
-0.998522, 153, 215, 184, 230
-0.998523, 161, 347, 224, 362
-0.998524, 273, 155, 336, 170
-0.998525, 129, 41, 384, 104
-0.998527, 321, 49, 448, 80
-0.998528, 241, 175, 304, 190
-0.998529, 241, 207, 304, 222
-0.998531, 217, 301, 248, 316
-0.998533, 273, 141, 336, 156
-0.998533, 241, 161, 304, 176
-0.998534, 177, 361, 240, 375
-0.998534, 233, 199, 296, 214
-0.998535, 173, 207, 204, 222
-0.998535, 225, 173, 256, 188
-0.998535, 313, 193, 344, 208
-0.998535, 281, 165, 344, 180
-0.998537, 169, 199, 200, 214
-0.998537, 241, 131, 272, 146
-0.998539, 209, 211, 272, 226
-0.99854, 241, 181, 304, 196
-0.99854, 245, 199, 276, 214
-0.998541, 289, 171, 320, 186
-0.998541, 289, 215, 352, 230
-0.998542, 129, 225, 192, 240
-0.998542, 337, 165, 464, 196
-0.998544, 305, 195, 368, 210
-0.998545, 249, 253, 312, 268
-0.998545, 281, 191, 344, 206
-0.998546, 341, 189, 372, 204
-0.998547, 209, 247, 272, 262
-0.998547, 213, 161, 244, 176
-0.998547, 185, 197, 216, 212
-0.998548, 257, 199, 320, 214
-0.998548, 257, 257, 288, 272
-0.998548, 237, 139, 268, 154
-0.998549, 289, 155, 320, 170
-0.998549, 201, 199, 264, 214
-0.99855, 265, 117, 328, 132
-0.998551, 117, 329, 148, 344
-0.998551, 217, 315, 280, 330
-0.998552, 201, 301, 264, 316
-0.998553, 273, 177, 336, 192
-0.998553, 217, 321, 280, 336
-0.998553, 177, 237, 240, 252
-0.998553, 105, 333, 168, 348
-0.998553, 313, 183, 376, 198
-0.998554, 289, 131, 352, 146
-0.998562, 249, 277, 312, 292
-0.998562, 121, 339, 184, 354
-0.998563, 137, 205, 200, 220
-0.998563, 113, 327, 176, 342
-0.998563, 161, 205, 224, 220
-0.998565, 273, 137, 304, 152
-0.998565, 253, 133, 284, 148
-0.998566, 177, 355, 240, 370
-0.998566, 233, 215, 296, 230
-0.998566, 217, 121, 280, 136
-0.998568, 261, 251, 292, 266
-0.998568, 241, 151, 304, 166
-0.998571, 281, 149, 344, 164
-0.998571, 345, 161, 360, 288
-0.998573, 205, 181, 236, 196
-0.998574, 305, 121, 336, 136
-0.998575, 137, 199, 200, 214
-0.998576, 153, 227, 216, 242
-0.998577, 177, 169, 240, 184
-0.998577, 245, 207, 276, 222
-0.998578, 129, 355, 192, 370
-0.998578, 233, 259, 296, 274
-0.998578, 257, 261, 320, 276
-0.99858, 241, 113, 304, 128
-0.99858, 217, 181, 248, 196
-0.99858, 201, 329, 264, 344
-0.99858, 193, 157, 256, 172
-0.998581, 265, 245, 328, 260
-0.998582, 209, 295, 272, 310
-0.998583, 177, 187, 240, 202
-0.998584, 193, 307, 256, 322
-0.998586, 273, 209, 336, 224
-0.998586, 89, 345, 152, 360
-0.998588, 233, 187, 296, 202
-0.998589, 161, 297, 224, 312
-0.99859, 33, 323, 96, 338
-0.99859, 229, 187, 260, 202
-0.99859, 217, 141, 280, 156
-0.998591, 9, 189, 72, 204
-0.998591, 201, 233, 264, 248
-0.998591, 225, 303, 288, 318
-0.998591, 305, 25, 432, 56
-0.998592, 129, 69, 256, 100
-0.998593, 289, 127, 320, 142
-0.998593, 301, 207, 332, 222
-0.998594, 17, 225, 80, 240
-0.998594, 113, 349, 176, 364
-0.998596, 1, 151, 64, 166
-0.998597, 81, 351, 144, 366
-0.998599, 253, 123, 284, 138
-0.998599, 201, 173, 232, 188
-0.998599, 169, 287, 232, 302
-0.9986, 305, 201, 336, 216
-0.9986, 289, 183, 352, 198
-0.9986, 257, 219, 320, 234
-0.9986, 177, 245, 240, 260
-0.998601, 97, 339, 160, 354
-0.998602, 281, 201, 344, 216
-0.998602, 209, 217, 272, 232
-0.998604, 113, 299, 176, 314
-0.998604, 177, 181, 240, 196
-0.998604, 305, 123, 368, 138
-0.998604, 105, 307, 168, 322
-0.998605, 261, 139, 292, 154
-0.998605, 81, 333, 144, 348
-0.998607, 281, 239, 344, 254
-0.998607, 265, 183, 328, 198
-0.998608, 297, 155, 360, 170
-0.998608, 1, 145, 64, 160
-0.998608, 105, 359, 168, 374
-0.998609, 17, 215, 80, 230
-0.99861, 105, 317, 168, 332
-0.99861, 9, 179, 72, 194
-0.998612, 217, 241, 280, 256
-0.998612, 1, 139, 64, 154
-0.998614, 129, 321, 192, 336
-0.998614, 177, 251, 240, 266
-0.998614, 25, 249, 88, 264
-0.998614, 129, 231, 192, 246
-0.998615, 297, 139, 360, 154
-0.998616, 185, 207, 248, 222
-0.998617, 25, 255, 88, 270
-0.998619, 329, 195, 392, 210
-0.998619, 145, 307, 208, 322
-0.998619, 185, 345, 248, 360
-0.998621, 73, 327, 136, 342
-0.998623, 331, 161, 346, 288
-0.998639, 293, 215, 324, 230
-0.998646, 353, 25, 480, 56
-0.998648, 269, 131, 300, 146
-0.998668, 1, 1, 128, 32
-0.998704, 225, 85, 352, 116
-0.998728, 1, 13, 128, 44
-0.998745, 249, 113, 264, 240
-0.998747, 237, 33, 268, 288
-0.998768, 357, 65, 388, 320
-0.998771, 263, 113, 278, 240
-0.998774, 165, 129, 196, 375
-0.998786, 129, 49, 256, 80
-0.998793, 45, 241, 60, 368
-0.998794, 325, 145, 340, 272
-0.998796, 273, 49, 400, 80
-0.9988, 311, 145, 326, 272
-0.998805, 345, 129, 376, 375
-0.998812, 319, 177, 334, 304
-0.998819, 253, 161, 268, 288
-0.998821, 49, 61, 176, 92
-0.998822, 339, 161, 354, 288
-0.998826, 237, 129, 252, 256
-0.998831, 1, 129, 128, 160
-0.998841, 293, 225, 308, 352
-0.998854, 301, 193, 316, 320
-0.998857, 141, 129, 172, 375
-0.998869, 65, 33, 192, 64
-0.998871, 211, 177, 226, 304
-0.998885, 243, 113, 258, 240
-0.99889, 209, 33, 240, 288
-0.998898, 1, 53, 128, 84
-0.9989, 299, 145, 314, 272
-0.998903, 289, 113, 304, 240
-0.998906, 97, 65, 352, 128
-0.998907, 37, 209, 52, 336
-0.998915, 129, 1, 384, 64
-0.998919, 279, 113, 294, 240
-0.998922, 307, 193, 322, 320
-0.998922, 145, 93, 272, 124
-0.998922, 317, 113, 332, 240
-0.998935, 209, 73, 336, 104
-0.99896, 305, 13, 432, 44
-0.998964, 245, 161, 260, 288
-0.998965, 369, 65, 400, 192
-0.998968, 353, 9, 480, 40
-0.99897, 295, 97, 310, 224
-0.998971, 305, 97, 320, 224
-0.998983, 29, 177, 44, 304
-0.998984, 269, 129, 284, 256
-0.998989, 49, 21, 176, 52
-0.99899, 15, 113, 30, 240
-0.998992, 351, 161, 366, 288
-0.999002, 203, 161, 218, 288
-0.999011, 217, 225, 232, 352
-0.999013, 255, 97, 270, 224
-0.999017, 283, 225, 298, 352
-0.999021, 325, 193, 340, 320
-0.999021, 85, 49, 116, 176
-0.999022, 291, 177, 306, 304
-0.999023, 21, 145, 36, 272
-0.999026, 97, 153, 224, 184
-0.999027, 425, 1, 456, 256
-0.999036, 339, 113, 354, 240
-0.999036, 283, 161, 298, 288
-0.999041, 1, 49, 16, 176
-0.999043, 333, 113, 348, 240
-0.999047, 273, 225, 288, 352
-0.999048, 183, 193, 198, 320
-0.999051, 259, 161, 274, 288
-0.999061, 9, 81, 24, 208
-0.999062, 175, 177, 190, 304
-0.999062, 311, 97, 326, 224
-0.999065, 157, 209, 172, 336
-0.999066, 49, 49, 176, 80
-0.999066, 273, 37, 400, 68
-0.999073, 65, 81, 192, 112
-0.999091, 129, 25, 256, 56
-0.999093, 1, 41, 128, 72
-0.999099, 145, 145, 272, 176
-0.999106, 259, 241, 274, 368
-0.999113, 273, 77, 400, 108
-0.999122, 277, 177, 292, 304
-0.999142, 197, 161, 212, 288
-0.99915, 305, 145, 320, 272
-0.999159, 335, 209, 350, 336
-0.999164, 207, 225, 222, 352
-0.999169, 401, 129, 432, 256
-0.99918, 249, 1, 280, 256
-0.99918, 189, 177, 204, 304
-0.99919, 231, 129, 246, 256
-0.999199, 323, 97, 338, 224
-0.999201, 319, 225, 334, 352
-0.999203, 413, 65, 428, 192
-0.999208, 307, 49, 322, 176
-0.999211, 313, 193, 328, 320
-0.999213, 51, 241, 66, 368
-0.999229, 267, 225, 282, 352
-0.999244, 151, 209, 166, 336
-0.999247, 267, 177, 282, 304
-0.999251, 165, 209, 180, 336
-0.999255, 225, 145, 240, 272
-0.999256, 119, 241, 134, 368
-0.999259, 317, 65, 332, 192
-0.999263, 105, 49, 136, 176
-0.999276, 421, 1, 436, 128
-0.999277, 125, 241, 140, 368
-0.999279, 301, 1, 332, 128
-0.999292, 201, 209, 216, 336
-0.999294, 149, 113, 180, 240
-0.999306, 141, 209, 156, 336
-0.999307, 301, 49, 316, 176
-0.999311, 251, 241, 266, 368
-0.999318, 349, 113, 364, 240
-0.999323, 97, 1, 128, 128
-0.999327, 57, 193, 72, 320
-0.999338, 63, 225, 78, 352
-0.999338, 359, 129, 374, 256
-0.999347, 243, 241, 258, 368
-0.999364, 269, 81, 284, 208
-0.999367, 121, 129, 152, 375
-0.999373, 419, 49, 434, 176
-0.999383, 51, 177, 66, 304
-0.999387, 217, 161, 232, 288
-0.999392, 257, 305, 500, 368
-0.999395, 225, 1, 256, 256
-0.999397, 5, 145, 20, 272
-0.9994, 171, 225, 186, 352
-0.999404, 307, 241, 322, 368
-0.999408, 27, 129, 42, 256
-0.999414, 341, 209, 356, 336
-0.999418, 21, 209, 36, 336
-0.99942, 13, 177, 28, 304
-0.999423, 149, 161, 164, 288
-0.999429, 131, 241, 146, 368
-0.999433, 167, 161, 182, 288
-0.999438, 129, 1, 160, 128
-0.999439, 29, 241, 44, 368
-0.999443, 429, 1, 444, 128
-0.999445, 45, 145, 60, 272
-0.999446, 407, 65, 422, 192
-0.999446, 223, 225, 238, 352
-0.999446, 299, 241, 314, 368
-0.999469, 239, 177, 254, 304
-0.999476, 413, 17, 428, 144
-0.999478, 289, 65, 304, 192
-0.999481, 385, 97, 400, 224
-0.999482, 37, 97, 52, 224
-0.99949, 357, 177, 372, 304
-0.999492, 261, 65, 276, 192
-0.999495, 397, 1, 412, 128
-0.999497, 177, 241, 192, 368
-0.999499, 211, 129, 226, 256
-0.999509, 21, 97, 36, 224
-0.999511, 7, 33, 22, 160
-0.999512, 181, 145, 196, 272
-0.999512, 157, 145, 172, 272
-0.999514, 295, 49, 310, 176
-0.999516, 29, 65, 44, 192
-0.99952, 377, 33, 408, 288
-0.99952, 325, 49, 340, 176
-0.999523, 121, 97, 184, 224
-0.999526, 43, 193, 58, 320
-0.999529, 35, 161, 50, 288
-0.999533, 231, 81, 246, 208
-0.999536, 407, 113, 422, 240
-0.999541, 237, 241, 252, 368
-0.999543, 391, 49, 406, 176
-0.99955, 231, 241, 246, 368
-0.999555, 405, 1, 420, 128
-0.999556, 313, 241, 328, 368
-0.999558, 181, 33, 212, 288
-0.999563, 143, 161, 158, 288
-0.999569, 253, 49, 268, 176
-0.999569, 15, 65, 30, 192
-0.99957, 201, 113, 216, 240
-0.999576, 399, 49, 414, 176
-0.999591, 23, 49, 38, 176
-0.9996, 305, 257, 432, 320
-0.999604, 285, 1, 316, 128
-0.999616, 295, 219, 310, 234
-0.999616, 277, 139, 292, 154
-0.999617, 265, 183, 280, 198
-0.999617, 321, 201, 336, 216
-0.999617, 313, 211, 328, 226
-0.999617, 119, 349, 134, 364
-0.999618, 147, 203, 162, 218
-0.999618, 205, 203, 220, 218
-0.99962, 147, 209, 162, 224
-0.99962, 323, 189, 338, 204
-0.99962, 293, 139, 308, 154
-0.999621, 185, 355, 200, 370
-0.999622, 251, 107, 266, 122
-0.999622, 159, 195, 174, 210
-0.999623, 331, 195, 346, 210
-0.999624, 111, 355, 126, 370
-0.999625, 149, 319, 164, 334
-0.999625, 237, 177, 252, 192
-0.999626, 311, 201, 326, 216
-0.999626, 283, 129, 298, 144
-0.999626, 323, 133, 338, 148
-0.999626, 307, 217, 322, 232
-0.999627, 115, 333, 130, 348
-0.999627, 229, 289, 244, 304
-0.999628, 325, 195, 340, 210
-0.999628, 323, 141, 338, 156
-0.999628, 223, 243, 238, 258
-0.999629, 339, 175, 354, 190
-0.999629, 145, 219, 160, 234
-0.999629, 167, 295, 182, 310
-0.99963, 125, 343, 140, 358
-0.999631, 143, 325, 158, 340
-0.999631, 117, 49, 148, 176
-0.999632, 177, 343, 192, 358
-0.999632, 221, 169, 236, 184
-0.999633, 161, 221, 176, 236
-0.999633, 207, 209, 222, 224
-0.999635, 179, 191, 194, 206
-0.999635, 305, 225, 320, 240
-0.999636, 235, 157, 250, 172
-0.999636, 251, 171, 266, 186
-0.999636, 269, 203, 284, 218
-0.999637, 253, 187, 268, 202
-0.999637, 305, 159, 320, 174
-0.999637, 305, 169, 320, 184
-0.999638, 181, 207, 196, 222
-0.999638, 305, 125, 320, 140
-0.999639, 199, 197, 214, 212
-0.999639, 189, 217, 204, 232
-0.99964, 217, 299, 232, 314
-0.999641, 337, 189, 352, 204
-0.999643, 261, 253, 276, 268
-0.999643, 297, 213, 312, 228
-0.999645, 223, 187, 238, 202
-0.999645, 99, 359, 114, 374
-0.999645, 239, 169, 254, 184
-0.999646, 247, 131, 262, 146
-0.999648, 169, 203, 184, 218
-0.99965, 313, 217, 328, 232
-0.99965, 237, 183, 252, 198
-0.999651, 181, 361, 196, 375
-0.999651, 207, 175, 222, 190
-0.999652, 131, 335, 146, 350
-0.999652, 137, 329, 152, 344
-0.999653, 285, 135, 300, 150
-0.999654, 179, 221, 194, 236
-0.999654, 163, 205, 178, 220
-0.999654, 319, 211, 334, 226
-0.999655, 305, 207, 320, 222
-0.999655, 307, 147, 322, 162
-0.999658, 55, 325, 70, 340
-0.999658, 255, 113, 270, 128
-0.999661, 161, 301, 176, 316
-0.999661, 291, 127, 306, 142
-0.999661, 175, 207, 190, 222
-0.999662, 289, 155, 304, 170
-0.999662, 243, 161, 258, 176
-0.999662, 165, 33, 196, 288
-0.999664, 271, 119, 286, 134
-0.999666, 189, 195, 204, 210
-0.999667, 269, 249, 284, 264
-0.999669, 153, 199, 168, 214
-0.99967, 211, 163, 226, 178
-0.99967, 327, 201, 342, 216
-0.999671, 315, 149, 330, 164
-0.999671, 239, 141, 254, 156
-0.999671, 155, 307, 170, 322
-0.999671, 227, 175, 242, 190
-0.999675, 137, 323, 152, 338
-0.999676, 105, 353, 120, 368
-0.999678, 315, 121, 330, 136
-0.999678, 205, 187, 220, 202
-0.999678, 253, 137, 268, 152
-0.999679, 175, 199, 190, 214
-0.99968, 203, 181, 218, 196
-0.99968, 143, 319, 158, 334
-0.999682, 243, 175, 258, 190
-0.999684, 201, 167, 216, 182
-0.999685, 149, 313, 164, 328
-0.999688, 307, 153, 322, 168
-0.999689, 221, 163, 236, 178
-0.99969, 251, 179, 266, 194
-0.99969, 119, 341, 134, 356
-0.99969, 229, 161, 244, 176
-0.999691, 245, 139, 260, 154
-0.999694, 263, 131, 278, 146
-0.999694, 191, 205, 206, 220
-0.999696, 271, 139, 286, 154
-0.999697, 111, 349, 126, 364
-0.999698, 263, 141, 278, 156
-0.999701, 131, 329, 146, 344
-0.999703, 183, 199, 198, 214
-0.999704, 201, 175, 216, 190
-0.999707, 141, 1, 172, 128
-0.999707, 171, 219, 186, 234
-0.999708, 393, 97, 424, 352
-0.999716, 291, 169, 306, 184
-0.999717, 269, 133, 284, 148
-0.99972, 241, 133, 256, 148
-0.999723, 257, 119, 272, 134
-0.999723, 217, 175, 232, 190
-0.999725, 265, 121, 280, 136
-0.999728, 277, 127, 292, 142
-0.999729, 197, 213, 212, 228
-0.999731, 227, 169, 242, 184
-0.999733, 153, 33, 184, 288
-0.999737, 217, 181, 232, 196
-0.99974, 243, 185, 258, 200
-0.999741, 227, 181, 242, 196
-0.999743, 211, 169, 226, 184
-0.999743, 233, 171, 248, 186
-0.999744, 125, 335, 140, 350
-0.999744, 169, 213, 184, 228
-0.999749, 245, 167, 260, 182
-0.99976, 235, 163, 250, 178
-0.999781, 405, 97, 436, 352
-0.999833, 137, 1, 200, 128
-0.999883, 137, 33, 168, 288
-0.999936, 89, 1, 120, 256
-1.00002, 381, 129, 412, 375
-1.00002, 197, 33, 228, 288
-1.00019, 417, 97, 448, 352
-1.00022, 369, 161, 400, 288
-1.00029, 369, 129, 400, 375
-1.00033, 101, 97, 132, 352
-1.00033, 101, 1, 132, 256
-1.00034, 117, 33, 148, 288
-1.00034, 437, 1, 468, 256
-1.00035, 33, 1, 64, 256
-1.00039, 209, 49, 240, 176
-1.00047, 57, 129, 88, 256
-1.00047, 73, 97, 104, 352
-1.00048, 57, 1, 88, 256
-1.0005, 57, 129, 88, 375
-1.0005, 41, 49, 72, 176
-1.00062, 57, 1, 88, 128
-1.00063, 77, 1, 108, 256
-1.00069, 81, 145, 144, 272
-1.00078, 45, 33, 76, 288
-1.0008, 413, 129, 444, 256
-1.00093, 101, 193, 132, 320
-1.00098, 429, 97, 460, 352
-1.00101, 89, 97, 120, 352
-1.00101, 169, 113, 200, 240
-1.00122, 209, 1, 240, 128
-1.00134, 165, 17, 196, 144
-1.00134, 429, 97, 460, 224
-1.00155, 33, 1, 64, 128
-1.00159, 137, 49, 168, 176
-1.00166, 153, 49, 184, 176
-1.00166, 333, 225, 364, 352
-1.00172, 453, 1, 484, 256
-1.00176, 465, 1, 496, 256
-1.00183, 229, 17, 260, 144
-1.00184, 445, 97, 476, 352
-1.00184, 457, 129, 488, 375
-1.00184, 469, 129, 500, 375
-1.0019, 337, 313, 464, 375
-1.00202, 69, 193, 100, 320
-1.00217, 337, 289, 464, 352
-1.00232, 121, 129, 152, 256
-1.00234, 65, 49, 96, 176
-1.00252, 289, 313, 416, 375
-1.00256, 93, 97, 124, 224
-1.00268, 353, 257, 480, 320
-1.00284, 77, 241, 108, 368
-1.00288, 369, 225, 496, 288
-1.00303, 369, 17, 400, 144
-1.0032, 197, 1, 228, 128
-1.00327, 193, 81, 224, 208
-1.00331, 153, 1, 184, 128
-1.00337, 177, 1, 208, 128
-1.00339, 69, 1, 100, 128
-1.00341, 109, 97, 140, 224
-1.00344, 409, 97, 472, 352
-1.00354, 273, 33, 304, 160
-1.0039, 417, 113, 480, 240
-1.00428, 369, 201, 496, 264
-1.00654, 145, 65, 208, 192
-1.00724, 169, 65, 232, 192
-1.00844, 241, 17, 304, 144
-1.00849, 337, 241, 464, 368
-1.01088, 353, 193, 416, 320
-1.01192, 393, 161, 456, 288
-1.01216, 433, 129, 496, 375
-1.01465, 345, 241, 408, 368
-1.01478, 433, 193, 496, 320
-1.01478, 385, 241, 448, 368
-1.01478, 409, 241, 472, 368
-1.01478, 433, 241, 496, 368
