1950
-0.117591, 1, 1, 500, 375
-0.207908, 1, 65, 500, 320
-0.287959, 33, 1, 288, 375
-0.334211, 193, 1, 448, 375
-0.416246, 33, 33, 288, 288
-0.45354, 225, 65, 480, 320
-0.522765, 129, 65, 384, 320
-0.598649, 1, 129, 256, 375
-0.830499, 305, 97, 432, 352
-0.830882, 1, 1, 128, 375
-0.832117, 289, 1, 416, 375
-0.832482, 65, 1, 192, 375
-0.836926, 81, 65, 208, 320
-0.837498, 1, 33, 500, 160
-0.840028, 1, 65, 128, 320
-0.84057, 257, 65, 384, 320
-0.840892, 305, 1, 432, 256
-0.843877, 1, 81, 500, 208
-0.848311, 161, 1, 288, 256
-0.848558, 353, 97, 480, 352
-0.85169, 241, 1, 368, 375
-0.852874, 369, 1, 496, 375
-0.853867, 193, 1, 320, 375
-0.853918, 193, 97, 320, 352
-0.866177, 1, 129, 500, 256
-0.866495, 113, 1, 240, 375
-0.870423, 1, 177, 500, 304
-0.870482, 209, 1, 336, 256
-0.872718, 145, 97, 272, 352
-0.880508, 369, 1, 496, 256
-0.885042, 257, 97, 500, 224
-0.885655, 1, 49, 256, 176
-0.900053, 97, 97, 352, 224
-0.906697, 257, 17, 500, 144
-0.906854, 257, 193, 500, 320
-0.907448, 65, 1, 320, 128
-0.908757, 257, 145, 500, 272
-0.908908, 1, 241, 500, 368
-0.913636, 161, 33, 416, 160
-0.914592, 65, 161, 320, 288
-0.919395, 33, 49, 160, 176
-0.921722, 273, 97, 400, 224
-0.92297, 321, 81, 448, 208
-0.923763, 25, 33, 88, 160
-0.924528, 393, 1, 456, 128
-0.925733, 193, 49, 320, 176
-0.925827, 161, 145, 416, 272
-0.925879, 1, 97, 256, 224
-0.927066, 353, 65, 416, 192
-0.927185, 305, 161, 432, 288
-0.927807, 193, 113, 320, 240
-0.927951, 193, 241, 448, 368
-0.92798, 305, 97, 368, 224
-0.931598, 65, 49, 128, 176
-0.932716, 281, 97, 344, 224
-0.932942, 1, 97, 128, 224
-0.934043, 161, 193, 416, 320
-0.934932, 49, 1, 112, 128
-0.935098, 313, 193, 376, 320
-0.935799, 369, 97, 496, 224
-0.935855, 257, 161, 384, 288
-0.936198, 353, 225, 480, 352
-0.936418, 1, 209, 256, 336
-0.936838, 321, 145, 384, 272
-0.936982, 273, 161, 336, 288
-0.937108, 417, 17, 480, 144
-0.937143, 329, 81, 392, 208
-0.937153, 97, 1, 160, 128
-0.937497, 337, 33, 464, 160
-0.937862, 385, 97, 448, 224
-0.938023, 81, 65, 208, 192
-0.938553, 273, 209, 400, 336
-0.938564, 289, 209, 352, 336
-0.938771, 257, 1, 384, 128
-0.939089, 241, 49, 304, 176
-0.939341, 353, 17, 416, 144
-0.940889, 353, 145, 480, 272
-0.941018, 241, 129, 304, 256
-0.941783, 393, 49, 456, 176
-0.941888, 1, 49, 64, 176
-0.942247, 145, 97, 272, 224
-0.942341, 313, 113, 376, 176
-0.942684, 33, 1, 160, 128
-0.942728, 337, 241, 400, 368
-0.943038, 241, 49, 368, 176
-0.943124, 409, 113, 472, 240
-0.944687, 97, 65, 160, 192
-0.944904, 225, 1, 288, 128
-0.944931, 17, 225, 144, 352
-0.945093, 33, 81, 96, 208
-0.945317, 1, 1, 64, 128
-0.945422, 121, 49, 184, 176
-0.946111, 209, 161, 336, 288
-0.946146, 193, 1, 320, 128
-0.94645, 289, 121, 352, 184
-0.946642, 217, 49, 280, 176
-0.947172, 345, 145, 408, 272
-0.947364, 145, 49, 272, 176
-0.94769, 393, 113, 456, 176
-0.947732, 81, 193, 208, 320
-0.948056, 161, 81, 224, 208
-0.948448, 361, 241, 424, 368
-0.948952, 81, 1, 208, 128
-0.949148, 297, 145, 360, 272
-0.94934, 313, 89, 376, 152
-0.949714, 433, 113, 496, 240
-0.949782, 353, 41, 416, 104
-0.949866, 329, 17, 392, 144
-0.950344, 337, 193, 400, 320
-0.950466, 281, 1, 344, 128
-0.950549, 393, 17, 456, 80
-0.95063, 17, 89, 80, 152
-0.950809, 273, 49, 336, 176
-0.950921, 193, 97, 256, 224
-0.950967, 1, 97, 64, 224
-0.951114, 81, 113, 208, 240
-0.951457, 225, 209, 352, 336
-0.951495, 313, 201, 376, 264
-0.951821, 369, 161, 432, 288
-0.951916, 345, 289, 408, 352
-0.952348, 425, 65, 488, 192
-0.952432, 361, 89, 424, 152
-0.952478, 313, 145, 376, 208
-0.952556, 321, 265, 384, 328
-0.952703, 385, 41, 448, 104
-0.952836, 145, 177, 272, 304
-0.95333, 305, 49, 368, 176
-0.953353, 289, 97, 352, 160
-0.953363, 313, 241, 376, 368
-0.953406, 25, 57, 88, 120
-0.954315, 417, 121, 480, 184
-0.954334, 353, 65, 416, 128
-0.954438, 305, 233, 368, 296
-0.954685, 281, 209, 344, 272
-0.954886, 249, 177, 312, 304
-0.954963, 193, 33, 256, 160
-0.955021, 49, 225, 112, 352
-0.955803, 289, 73, 352, 136
-0.955959, 41, 1, 104, 64
-0.956012, 353, 121, 416, 184
-0.956064, 73, 1, 136, 128
-0.956274, 385, 241, 448, 368
-0.956304, 17, 25, 80, 88
-0.957004, 81, 33, 144, 96
-0.957029, 105, 33, 168, 96
-0.957125, 81, 1, 144, 64
-0.957345, 217, 113, 280, 240
-0.957787, 417, 9, 480, 72
-0.957928, 97, 113, 160, 240
-0.958089, 57, 113, 120, 240
-0.95823, 33, 113, 96, 176
-0.958458, 57, 33, 120, 96
-0.9586, 257, 201, 320, 264
-0.958696, 161, 89, 224, 152
-0.958742, 73, 193, 136, 320
-0.958747, 1, 225, 64, 352
-0.958825, 265, 121, 328, 184
-0.958877, 1, 177, 128, 304
-0.958882, 129, 57, 192, 120
-0.95919, 225, 17, 288, 80
-0.959438, 201, 105, 264, 168
-0.959727, 369, 313, 432, 375
-0.959861, 105, 57, 168, 120
-0.959994, 329, 65, 392, 128
-0.960207, 337, 89, 400, 152
-0.96038, 329, 225, 392, 288
-0.960431, 289, 257, 352, 320
-0.960874, 369, 1, 432, 256
-0.961079, 417, 97, 480, 160
-0.961167, 1, 1, 64, 64
-0.961171, 121, 1, 184, 128
-0.9614, 1, 57, 64, 120
-0.961528, 345, 193, 408, 256
-0.961553, 265, 97, 328, 160
-0.961567, 97, 161, 160, 288
-0.961728, 129, 97, 192, 224
-0.961834, 393, 137, 456, 200
-0.962124, 289, 153, 352, 216
-0.96221, 145, 1, 272, 128
-0.962211, 73, 241, 136, 368
-0.96226, 57, 57, 120, 120
-0.962439, 385, 65, 448, 128
-0.962467, 361, 9, 424, 72
-0.962624, 145, 33, 208, 160
-0.962651, 81, 65, 144, 128
-0.962934, 257, 233, 320, 296
-0.9631, 345, 265, 408, 328
-0.963135, 209, 177, 272, 304
-0.963153, 393, 89, 456, 152
-0.963165, 25, 225, 88, 352
-0.963253, 361, 217, 424, 280
-0.963337, 281, 1, 344, 64
-0.963443, 401, 193, 464, 320
-0.963445, 425, 121, 456, 184
-0.963514, 329, 1, 392, 256
-0.963807, 9, 233, 72, 296
-0.963861, 241, 33, 304, 288
-0.964189, 249, 225, 312, 352
-0.964256, 65, 1, 128, 256
-0.964578, 329, 169, 392, 232
-0.964583, 249, 1, 312, 128
-0.964654, 289, 81, 416, 144
-0.964676, 417, 145, 480, 208
-0.964719, 225, 121, 288, 184
-0.96502, 153, 161, 216, 288
-0.965059, 369, 193, 432, 256
-0.965093, 257, 41, 320, 104
-0.965136, 217, 201, 280, 264
-0.965169, 105, 9, 168, 72
-0.965226, 289, 185, 352, 248
-0.965239, 305, 1, 368, 128
-0.965247, 425, 41, 488, 104
-0.965549, 113, 241, 176, 368
-0.965598, 393, 1, 456, 256
-0.965701, 305, 49, 368, 112
-0.965927, 305, 97, 368, 352
-0.965968, 385, 225, 448, 288
-0.966322, 353, 129, 416, 375
-0.966387, 49, 89, 112, 152
-0.966516, 17, 65, 144, 128
-0.966576, 321, 1, 384, 64
-0.966762, 33, 233, 96, 296
-0.966942, 1, 113, 64, 176
-0.967185, 33, 1, 96, 256
-0.967285, 97, 297, 160, 360
-0.967288, 65, 241, 192, 368
-0.967299, 305, 105, 432, 168
-0.9676, 257, 1, 320, 64
-0.967613, 329, 41, 392, 104
-0.967616, 401, 105, 432, 168
-0.9678, 425, 161, 488, 288
-0.967805, 9, 177, 72, 304
-0.967837, 281, 233, 344, 296
-0.967859, 257, 177, 320, 240
-0.968044, 265, 65, 328, 128
-0.968146, 393, 97, 456, 352
-0.968344, 381, 289, 412, 352
-0.968413, 257, 105, 384, 168
-0.968596, 309, 73, 340, 136
-0.968754, 97, 97, 160, 352
-0.968849, 233, 225, 296, 288
-0.969055, 41, 97, 104, 352
-0.969083, 425, 241, 488, 368
-0.96909, 37, 57, 68, 120
-0.969151, 337, 145, 400, 208
-0.96916, 117, 1, 148, 128
-0.969215, 337, 81, 368, 208
-0.969226, 97, 241, 352, 368
-0.969254, 361, 145, 424, 208
-0.969349, 353, 265, 384, 328
-0.969468, 337, 129, 464, 192
-0.969524, 57, 137, 120, 200
-0.969539, 353, 105, 480, 168
-0.969656, 137, 289, 200, 352
-0.969753, 325, 113, 356, 176
-0.969784, 413, 113, 444, 176
-0.96984, 257, 1, 288, 128
-0.969872, 281, 97, 344, 352
-0.969925, 97, 177, 160, 240
-0.969989, 69, 49, 100, 176
-0.97011, 257, 145, 320, 208
-0.970204, 305, 113, 336, 176
-0.970207, 1, 41, 128, 104
-0.970268, 1, 65, 64, 320
-0.970278, 161, 225, 224, 352
-0.970318, 33, 33, 64, 160
-0.970337, 201, 25, 264, 88
-0.970339, 217, 1, 280, 256
-0.970438, 81, 105, 144, 168
-0.970477, 97, 1, 160, 256
-0.970536, 365, 273, 396, 336
-0.970589, 233, 65, 296, 128
-0.970611, 389, 49, 420, 176
-0.970666, 289, 289, 416, 352
-0.970731, 417, 1, 480, 256
-0.970842, 257, 217, 384, 280
-0.97097, 25, 89, 56, 152
-0.971028, 161, 225, 288, 352
-0.971053, 113, 273, 176, 336
-0.971133, 225, 73, 352, 136
-0.971176, 409, 65, 472, 128
-0.971205, 321, 289, 384, 352
-0.971371, 105, 33, 136, 96
-0.971382, 285, 113, 316, 240
-0.971416, 329, 129, 392, 375
-0.971437, 81, 225, 144, 288
-0.971456, 401, 1, 432, 128
-0.971584, 85, 49, 116, 176
-0.971597, 241, 193, 368, 256
-0.971601, 393, 305, 424, 368
-0.971616, 137, 89, 200, 152
-0.971662, 81, 65, 208, 128
-0.971736, 321, 193, 448, 256
-0.971793, 305, 217, 432, 280
-0.971823, 393, 201, 456, 264
-0.971826, 325, 145, 356, 272
-0.971882, 317, 193, 348, 320
-0.971978, 337, 73, 464, 136
-0.972006, 65, 41, 192, 104
-0.972012, 57, 241, 120, 304
-0.972022, 289, 265, 416, 328
-0.972203, 281, 1, 344, 256
-0.972418, 273, 49, 304, 176
-0.972491, 369, 257, 432, 320
-0.972519, 373, 225, 404, 352
-0.972546, 333, 89, 364, 152
-0.972651, 193, 97, 256, 352
-0.972695, 337, 217, 368, 280
-0.972709, 305, 217, 336, 280
-0.972806, 57, 113, 120, 176
-0.972817, 1, 129, 128, 192
-0.972876, 121, 1, 184, 256
-0.972891, 341, 113, 372, 176
-0.972904, 353, 225, 384, 352
-0.972948, 57, 209, 120, 272
-0.972952, 97, 129, 160, 192
-0.972977, 89, 41, 120, 104
-0.972983, 65, 313, 128, 375
-0.973099, 41, 89, 72, 152
-0.973156, 305, 177, 336, 304
-0.973177, 393, 313, 456, 375
-0.973205, 169, 17, 232, 144
-0.973284, 373, 33, 404, 160
-0.973303, 241, 97, 304, 160
-0.973356, 441, 137, 472, 200
-0.973364, 273, 137, 400, 200
-0.973399, 65, 97, 128, 352
-0.973434, 233, 41, 296, 104
-0.973492, 425, 313, 488, 375
-0.973561, 305, 1, 368, 256
-0.973641, 161, 1, 224, 256
-0.973664, 361, 65, 392, 192
-0.973746, 77, 33, 108, 96
-0.973816, 249, 49, 280, 176
-0.973871, 309, 129, 340, 256
-0.973903, 145, 105, 272, 168
-0.97391, 433, 1, 464, 128
-0.973963, 45, 33, 76, 160
-0.973979, 337, 273, 464, 336
-0.974019, 29, 17, 60, 80
-0.974034, 369, 57, 400, 120
-0.974046, 289, 137, 320, 200
-0.974059, 49, 113, 80, 176
-0.974087, 309, 81, 340, 208
-0.974096, 285, 113, 316, 176
-0.974163, 209, 1, 336, 64
-0.974223, 137, 265, 200, 328
-0.974224, 389, 49, 420, 112
-0.974233, 337, 1, 464, 64
-0.974278, 345, 137, 376, 200
-0.974307, 321, 89, 352, 152
-0.974309, 321, 193, 352, 256
-0.974324, 201, 1, 264, 64
-0.97436, 369, 169, 432, 232
-0.974386, 401, 17, 432, 80
-0.974413, 257, 241, 384, 304
-0.974475, 49, 17, 176, 80
-0.974531, 209, 57, 272, 120
-0.974569, 161, 1, 224, 64
-0.974607, 113, 241, 240, 368
-0.974638, 25, 129, 88, 256
-0.974703, 421, 97, 452, 224
-0.974735, 413, 33, 444, 160
-0.974781, 145, 41, 272, 104
-0.974862, 25, 65, 56, 128
-0.974878, 129, 145, 192, 272
-0.974927, 289, 57, 416, 120
-0.974948, 185, 177, 248, 304
-0.975025, 329, 65, 360, 128
-0.97509, 373, 33, 404, 96
-0.975101, 193, 193, 256, 256
-0.97519, 337, 265, 368, 328
-0.975225, 389, 105, 420, 168
-0.975241, 325, 97, 356, 224
-0.975255, 105, 81, 168, 144
-0.975276, 89, 201, 152, 264
-0.975284, 17, 89, 144, 152
-0.975296, 305, 169, 432, 232
-0.975391, 61, 1, 92, 64
-0.97542, 361, 81, 392, 144
-0.975477, 309, 193, 340, 256
-0.975498, 369, 289, 432, 352
-0.9755, 273, 129, 304, 256
-0.975543, 145, 185, 208, 248
-0.975549, 57, 49, 88, 176
-0.975675, 401, 97, 432, 224
-0.975727, 21, 65, 52, 192
-0.975736, 337, 297, 464, 360
-0.975746, 333, 225, 364, 352
-0.975784, 437, 105, 468, 168
-0.975805, 129, 33, 192, 96
-0.97584, 409, 225, 472, 288
-0.97588, 297, 129, 328, 256
-0.975927, 137, 241, 200, 368
-0.975965, 321, 233, 352, 296
-0.976026, 357, 145, 388, 272
-0.97612, 257, 113, 288, 240
-0.976137, 109, 65, 140, 128
-0.976248, 345, 73, 376, 136
-0.976324, 405, 313, 436, 375
-0.976354, 209, 121, 336, 184
-0.976367, 193, 89, 224, 152
-0.976378, 441, 113, 472, 240
-0.976382, 337, 33, 368, 160
-0.976384, 349, 65, 380, 192
-0.976393, 305, 241, 432, 304
-0.976416, 105, 49, 136, 176
-0.976512, 241, 1, 272, 64
-0.976541, 365, 297, 396, 360
-0.976558, 385, 241, 416, 368
-0.976662, 377, 81, 408, 208
-0.976688, 297, 185, 328, 248
-0.9767, 353, 249, 480, 312
-0.976711, 153, 113, 216, 176
-0.976748, 113, 1, 144, 64
-0.976771, 249, 129, 312, 375
-0.976797, 425, 97, 456, 160
-0.976834, 41, 1, 104, 375
-0.976899, 261, 49, 292, 176
-0.976985, 281, 33, 344, 96
-0.977107, 97, 89, 224, 152
-0.977138, 249, 25, 280, 88
-0.977143, 21, 17, 52, 144
-0.977197, 121, 145, 184, 208
-0.977285, 257, 161, 384, 224
-0.977341, 429, 33, 460, 96
-0.977363, 1, 1, 64, 375
-0.977404, 297, 281, 360, 344
-0.977421, 401, 81, 432, 144
-0.97743, 17, 209, 48, 336
-0.97744, 129, 9, 256, 72
-0.977508, 141, 57, 172, 120
-0.977518, 389, 73, 420, 136
-0.977527, 65, 25, 96, 88
-0.977537, 429, 9, 460, 72
-0.97756, 389, 97, 420, 224
-0.977608, 393, 281, 456, 344
-0.977656, 237, 49, 268, 176
-0.977673, 321, 257, 352, 320
-0.977715, 345, 1, 408, 375
-0.977729, 413, 81, 444, 144
-0.977732, 137, 313, 200, 375
-0.977769, 273, 105, 304, 168
-0.97781, 353, 1, 384, 128
-0.977844, 81, 121, 208, 184
-0.977889, 129, 33, 160, 96
-0.977896, 269, 1, 300, 64
-0.977933, 413, 9, 444, 72
-0.977973, 129, 97, 192, 352
-0.97801, 121, 113, 184, 176
-0.978012, 305, 25, 368, 88
-0.978013, 105, 1, 136, 128
-0.978043, 309, 137, 340, 200
-0.97807, 257, 1, 384, 64
-0.978076, 369, 161, 496, 224
-0.978118, 257, 129, 288, 192
-0.978189, 41, 9, 72, 72
-0.978214, 269, 1, 300, 128
-0.97829, 161, 49, 224, 112
-0.978308, 193, 81, 224, 208
-0.978327, 373, 137, 404, 200
-0.978353, 209, 97, 336, 160
-0.978376, 225, 33, 352, 96
-0.97839, 169, 97, 232, 352
-0.978393, 65, 1, 128, 375
-0.978395, 217, 97, 280, 352
-0.978403, 177, 65, 304, 128
-0.978448, 273, 1, 336, 375
-0.978451, 61, 225, 92, 352
-0.978523, 401, 49, 432, 176
-0.97853, 449, 1, 480, 64
-0.978534, 333, 241, 364, 304
-0.97859, 245, 1, 276, 128
-0.978636, 361, 129, 392, 192
-0.978643, 89, 17, 120, 80
-0.978663, 353, 225, 480, 288
-0.978733, 345, 161, 376, 288
-0.978799, 9, 81, 40, 208
-0.978839, 325, 33, 356, 160
-0.978868, 321, 137, 352, 200
-0.978905, 373, 201, 404, 264
-0.978925, 433, 273, 496, 336
-0.978958, 245, 121, 276, 184
-0.978959, 229, 1, 260, 64
-0.978982, 369, 41, 496, 104
-0.97899, 121, 193, 184, 320
-0.979021, 373, 81, 404, 144
-0.97903, 305, 241, 336, 304
-0.979031, 405, 57, 436, 120
-0.979049, 381, 313, 412, 375
-0.97905, 133, 65, 164, 192
-0.979075, 153, 57, 184, 120
-0.979145, 285, 65, 316, 192
-0.979172, 1, 233, 128, 296
-0.979173, 389, 1, 420, 128
-0.979231, 445, 65, 476, 192
-0.979275, 345, 241, 376, 304
-0.979299, 357, 177, 388, 240
-0.979312, 169, 65, 200, 192
-0.979331, 241, 265, 368, 328
-0.979359, 361, 105, 392, 168
-0.979376, 453, 113, 484, 240
-0.979379, 417, 97, 480, 352
-0.979406, 425, 49, 456, 176
-0.979448, 273, 137, 304, 200
-0.979462, 353, 41, 384, 104
-0.979508, 205, 97, 236, 160
-0.97967, 337, 193, 368, 256
-0.979692, 161, 273, 224, 336
-0.979717, 1, 137, 64, 200
-0.979776, 353, 289, 384, 352
-0.979809, 345, 313, 408, 375
-0.979847, 25, 41, 56, 104
-0.979937, 89, 105, 120, 168
-0.979958, 413, 137, 444, 200
-0.979969, 89, 1, 152, 375
-0.98006, 181, 81, 212, 208
-0.980069, 49, 49, 80, 112
-0.980159, 217, 105, 248, 168
-0.980163, 65, 97, 96, 160
-0.980229, 65, 217, 192, 280
-0.980248, 89, 1, 120, 128
-0.980262, 209, 169, 336, 232
-0.980304, 269, 33, 300, 96
-0.980314, 293, 209, 324, 272
-0.980343, 29, 225, 60, 352
-0.980376, 177, 193, 304, 256
-0.98038, 321, 1, 384, 375
-0.980385, 369, 1, 400, 64
-0.980403, 93, 65, 124, 128
-0.980488, 293, 65, 324, 128
-0.980488, 221, 49, 252, 176
-0.980534, 293, 177, 324, 304
-0.980586, 261, 193, 292, 256
-0.98067, 101, 1, 132, 64
-0.980717, 29, 233, 60, 296
-0.980749, 293, 89, 324, 152
-0.980753, 333, 137, 364, 200
-0.980793, 57, 1, 88, 128
-0.980807, 5, 225, 36, 352
-0.980865, 117, 41, 148, 104
-0.980882, 161, 81, 192, 144
-0.980889, 145, 33, 176, 160
-0.980891, 289, 25, 416, 88
-0.980949, 81, 241, 112, 304
-0.980974, 353, 17, 384, 80
-0.98101, 81, 185, 208, 248
-0.981018, 361, 241, 392, 304
-0.981021, 417, 41, 448, 104
-0.981033, 401, 129, 432, 192
-0.981042, 37, 113, 68, 176
-0.981059, 233, 113, 264, 176
-0.981071, 53, 25, 84, 88
-0.981136, 449, 113, 480, 176
-0.981189, 45, 81, 76, 208
-0.981287, 357, 217, 388, 280
-0.981336, 265, 65, 296, 128
-0.981346, 233, 25, 264, 88
-0.981373, 209, 225, 336, 288
-0.98139, 385, 129, 416, 192
-0.981524, 121, 49, 152, 176
-0.981565, 213, 97, 244, 224
-0.981618, 233, 97, 264, 224
-0.981765, 245, 209, 276, 272
-0.981773, 297, 1, 360, 375
-0.981797, 157, 97, 188, 224
-0.981851, 49, 225, 80, 352
-0.981864, 245, 113, 276, 240
-0.981944, 193, 225, 256, 352
-0.981956, 93, 145, 124, 272
-0.981962, 413, 201, 444, 264
-0.982069, 313, 49, 344, 112
-0.982096, 61, 49, 92, 112
-0.982096, 109, 129, 140, 256
-0.982135, 73, 225, 104, 352
-0.982174, 81, 145, 208, 208
-0.982212, 77, 1, 108, 128
-0.982225, 277, 201, 308, 264
-0.982256, 13, 225, 44, 288
-0.982272, 389, 145, 420, 272
-0.982407, 233, 1, 296, 375
-0.98247, 369, 1, 432, 375
-0.982473, 125, 65, 156, 128
-0.982511, 293, 241, 324, 304
-0.982534, 33, 177, 96, 304
-0.982538, 373, 225, 404, 288
-0.982542, 429, 145, 460, 208
-0.982578, 61, 249, 92, 312
-0.982584, 317, 241, 348, 368
-0.982592, 77, 113, 108, 240
-0.982699, 369, 161, 400, 288
-0.982717, 1, 1, 128, 64
-0.982746, 293, 1, 324, 128
-0.982753, 397, 241, 428, 368
-0.982759, 369, 201, 496, 264
-0.982769, 129, 193, 256, 256
-0.982842, 305, 1, 336, 128
-0.982915, 89, 97, 120, 224
-0.983218, 209, 145, 336, 208
-0.983231, 185, 1, 248, 256
-0.983231, 1, 153, 128, 216
-0.983393, 209, 1, 272, 375
-0.983532, 229, 1, 260, 128
-0.983599, 9, 161, 40, 288
-0.983601, 425, 145, 456, 272
-0.983603, 117, 209, 148, 336
-0.983685, 57, 97, 88, 224
-0.983752, 157, 49, 188, 176
-0.983759, 465, 97, 496, 224
-0.983988, 305, 225, 336, 352
-0.984241, 297, 81, 328, 208
-0.984253, 89, 241, 120, 368
-0.984294, 81, 313, 208, 375
-0.984368, 197, 33, 228, 160
-0.984509, 401, 161, 432, 288
-0.984526, 289, 313, 416, 375
-0.984584, 129, 1, 160, 128
-0.984605, 145, 81, 176, 208
-0.98463, 85, 193, 116, 320
-0.984652, 449, 1, 480, 128
-0.984864, 277, 177, 308, 304
-0.985072, 17, 201, 144, 264
-0.985136, 261, 177, 292, 304
-0.985158, 121, 1, 184, 375
-0.985509, 153, 1, 216, 375
-0.985866, 449, 161, 480, 288
-0.98588, 161, 217, 288, 280
-0.9859, 217, 225, 280, 352
-0.98619, 9, 17, 40, 144
-0.986229, 413, 145, 444, 272
-0.986335, 209, 49, 240, 176
-0.986526, 409, 241, 440, 368
-0.986528, 393, 1, 456, 375
-0.986534, 65, 241, 192, 304
-0.986578, 105, 225, 136, 352
-0.986655, 129, 65, 256, 128
-0.986713, 177, 129, 208, 256
-0.986796, 129, 129, 160, 256
-0.986922, 193, 129, 224, 256
-0.987017, 385, 193, 416, 320
-0.987069, 461, 49, 492, 176
-0.98714, 161, 177, 192, 304
-0.987156, 1, 89, 256, 152
-0.987176, 1, 97, 500, 160
-0.987251, 145, 241, 176, 368
-0.98732, 33, 81, 64, 208
-0.987413, 425, 1, 488, 375
-0.987442, 1, 257, 128, 320
-0.98753, 161, 129, 288, 192
-0.987593, 225, 89, 480, 152
-0.987628, 185, 1, 248, 375
-0.987692, 1, 313, 128, 375
-0.987759, 193, 249, 320, 312
-0.987878, 1, 41, 500, 104
-0.987903, 105, 177, 136, 304
-0.988023, 237, 193, 268, 320
-0.988132, 21, 161, 52, 288
-0.98819, 305, 213, 368, 244
-0.988192, 17, 97, 80, 128
-0.98828, 393, 121, 456, 152
-0.988387, 313, 113, 376, 144
-0.988396, 281, 125, 344, 156
-0.988456, 1, 65, 256, 128
-0.988493, 17, 45, 80, 76
-0.988506, 385, 41, 448, 72
-0.988525, 1, 193, 500, 256
-0.98853, 345, 293, 408, 324
-0.988542, 429, 193, 460, 320
-0.988544, 145, 193, 176, 320
-0.988549, 361, 309, 424, 340
-0.988581, 81, 289, 208, 352
-0.988671, 113, 233, 240, 296
-0.988697, 313, 257, 376, 288
-0.988735, 409, 133, 472, 164
-0.988771, 313, 153, 376, 184
-0.988808, 49, 57, 112, 88
-0.988846, 297, 137, 360, 168
-0.98885, 321, 269, 384, 300
-0.988907, 129, 65, 384, 128
-0.988917, 33, 1, 96, 32
-0.988951, 377, 29, 440, 60
-0.988955, 89, 53, 152, 84
-0.988976, 257, 133, 320, 164
-0.988977, 217, 1, 248, 128
-0.98899, 353, 45, 416, 76
-0.989042, 205, 177, 236, 304
-0.989131, 33, 33, 96, 64
-0.989154, 161, 169, 288, 232
-0.989157, 65, 33, 320, 96
-0.989199, 393, 101, 456, 132
-0.989239, 353, 69, 416, 100
-0.989264, 25, 57, 88, 88
-0.989271, 261, 225, 292, 352
-0.989301, 353, 97, 416, 128
-0.989309, 369, 321, 432, 352
-0.989311, 337, 281, 400, 312
-0.98932, 129, 57, 192, 88
-0.98932, 281, 85, 344, 116
-0.989321, 385, 81, 448, 112
-0.989352, 337, 125, 400, 156
-0.989375, 377, 57, 440, 88
-0.98938, 169, 97, 232, 128
-0.989381, 281, 1, 312, 128
-0.989408, 73, 1, 136, 32
-0.98943, 17, 85, 80, 116
-0.989433, 329, 85, 392, 116
-0.98945, 129, 193, 160, 320
-0.989453, 369, 109, 432, 140
-0.989462, 281, 217, 344, 248
-0.989489, 273, 145, 336, 176
-0.989508, 353, 13, 416, 44
-0.989512, 417, 101, 480, 132
-0.989543, 377, 1, 440, 32
-0.989546, 57, 45, 120, 76
-0.989546, 289, 257, 352, 288
-0.989548, 89, 13, 152, 44
-0.989552, 25, 117, 88, 148
-0.989563, 369, 125, 432, 156
-0.989567, 33, 21, 96, 52
-0.989608, 409, 41, 472, 72
-0.989633, 1, 13, 64, 44
-0.989635, 65, 113, 320, 176
-0.989637, 185, 109, 248, 140
-0.98965, 257, 121, 500, 184
-0.989656, 385, 137, 448, 168
-0.989699, 401, 21, 464, 52
-0.989704, 273, 229, 336, 260
-0.989747, 297, 201, 360, 232
-0.989748, 417, 117, 480, 148
-0.989765, 97, 93, 160, 124
-0.989775, 257, 217, 500, 280
-0.989826, 129, 89, 384, 152
-0.98983, 81, 65, 144, 96
-0.989867, 281, 73, 344, 104
-0.989878, 281, 189, 344, 220
-0.98988, 241, 33, 304, 64
-0.989899, 313, 225, 376, 256
-0.989908, 257, 205, 320, 236
-0.989908, 273, 1, 336, 32
-0.989944, 1, 1, 64, 32
-0.989954, 113, 1, 176, 32
-0.989955, 241, 289, 368, 352
-0.989963, 297, 97, 360, 128
-0.989965, 217, 25, 280, 56
-0.989972, 337, 145, 400, 176
-0.989978, 417, 1, 480, 32
-0.989985, 305, 245, 368, 276
-0.990003, 377, 333, 440, 364
-0.990007, 161, 273, 288, 336
-0.99004, 313, 69, 376, 100
-0.99004, 81, 41, 144, 72
-0.990049, 345, 33, 408, 64
-0.990061, 81, 209, 144, 240
-0.990076, 377, 69, 440, 100
-0.990087, 353, 81, 416, 112
-0.990102, 1, 233, 64, 264
-0.990112, 233, 125, 296, 156
-0.99012, 329, 209, 392, 240
-0.990123, 329, 13, 392, 44
-0.990128, 145, 89, 208, 120
-0.990129, 97, 1, 352, 64
-0.990135, 409, 149, 472, 180
-0.990151, 345, 57, 408, 88
-0.990162, 33, 289, 160, 352
-0.990179, 321, 1, 384, 32
-0.990182, 257, 217, 320, 248
-0.990186, 57, 113, 120, 144
-0.990204, 41, 133, 104, 164
-0.990207, 393, 313, 456, 344
-0.990208, 217, 45, 280, 76
-0.990216, 57, 101, 120, 132
-0.990227, 265, 241, 328, 272
-0.990253, 401, 57, 464, 88
-0.990255, 313, 125, 376, 156
-0.990258, 105, 69, 168, 100
-0.990271, 209, 117, 272, 148
-0.990283, 273, 97, 336, 128
-0.990309, 289, 109, 352, 140
-0.990311, 129, 193, 384, 256
-0.990317, 321, 293, 384, 324
-0.990343, 97, 181, 160, 212
-0.990352, 65, 89, 128, 120
-0.990352, 225, 25, 480, 88
-0.990356, 249, 5, 312, 36
-0.990363, 257, 161, 500, 224
-0.990375, 1, 121, 500, 184
-0.990375, 1, 73, 500, 136
-0.990396, 57, 17, 120, 48
-0.99041, 241, 17, 304, 48
-0.990416, 25, 237, 88, 268
-0.99042, 321, 29, 384, 60
-0.990422, 121, 45, 184, 76
-0.990434, 273, 61, 336, 92
-0.990479, 337, 169, 400, 200
-0.99048, 313, 281, 376, 312
-0.990488, 1, 57, 64, 88
-0.990503, 161, 113, 416, 176
-0.990513, 377, 17, 440, 48
-0.990515, 97, 301, 160, 332
-0.990531, 393, 221, 456, 252
-0.990541, 337, 225, 400, 256
-0.990563, 385, 345, 448, 375
-0.990564, 337, 305, 400, 336
-0.990597, 337, 257, 400, 288
-0.990634, 313, 53, 376, 84
-0.990636, 417, 73, 480, 104
-0.990638, 337, 113, 400, 144
-0.990643, 257, 113, 320, 144
-0.99065, 297, 269, 360, 300
-0.990651, 57, 245, 120, 276
-0.990659, 281, 17, 344, 48
-0.990674, 361, 161, 424, 192
-0.990677, 57, 33, 120, 64
-0.990685, 1, 25, 64, 56
-0.990688, 217, 13, 280, 44
-0.990769, 1, 1, 500, 64
-0.990868, 17, 177, 144, 240
-0.991045, 225, 65, 480, 128
-0.991221, 113, 265, 240, 328
-0.991225, 257, 185, 500, 248
-0.991381, 225, 1, 480, 64
-0.991753, 257, 241, 500, 304
-0.991986, 357, 293, 388, 324
-0.992075, 1, 217, 500, 280
-0.992083, 421, 337, 452, 368
-0.992085, 401, 329, 432, 360
-0.992105, 49, 265, 176, 328
-0.99215, 405, 33, 436, 64
-0.992153, 317, 213, 348, 244
-0.992187, 433, 133, 464, 164
-0.9922, 309, 77, 340, 108
-0.992203, 345, 149, 376, 180
-0.992205, 161, 297, 288, 360
-0.992208, 65, 169, 320, 232
-0.99221, 409, 129, 440, 160
-0.992234, 345, 281, 376, 312
-0.992256, 297, 213, 328, 244
-0.99226, 377, 301, 408, 332
-0.992263, 321, 137, 352, 168
-0.992265, 409, 113, 440, 144
-0.99227, 289, 133, 320, 164
-0.992274, 389, 57, 420, 88
-0.992279, 37, 113, 68, 144
-0.992282, 329, 93, 360, 124
-0.992288, 93, 45, 124, 76
-0.992291, 305, 125, 336, 156
-0.992291, 25, 1, 56, 32
-0.992305, 421, 137, 452, 168
-0.992308, 373, 289, 404, 320
-0.992309, 25, 93, 56, 124
-0.992318, 65, 49, 192, 80
-0.99233, 29, 45, 60, 76
-0.992332, 337, 133, 368, 164
-0.992337, 417, 33, 448, 64
-0.99234, 401, 101, 432, 132
-0.992341, 333, 73, 364, 104
-0.992342, 341, 109, 372, 140
-0.992354, 393, 81, 424, 112
-0.992362, 373, 37, 404, 68
-0.992364, 17, 65, 144, 96
-0.992376, 1, 153, 500, 216
-0.992379, 437, 149, 468, 180
-0.992385, 161, 225, 416, 288
-0.992401, 73, 45, 104, 76
-0.992401, 329, 265, 360, 296
-0.992404, 325, 113, 356, 144
-0.992406, 309, 141, 340, 172
-0.992409, 357, 281, 388, 312
-0.992409, 397, 117, 428, 148
-0.992413, 257, 221, 384, 252
-0.992422, 421, 121, 452, 152
-0.992423, 409, 45, 440, 76
-0.992427, 413, 57, 444, 88
-0.992428, 393, 317, 424, 348
-0.992429, 397, 45, 428, 76
-0.992437, 377, 49, 408, 80
-0.992453, 49, 117, 80, 148
-0.992461, 421, 21, 452, 52
-0.99248, 421, 45, 452, 76
-0.992483, 405, 69, 436, 100
-0.992484, 37, 61, 68, 92
-0.992485, 377, 313, 408, 344
-0.9925, 333, 145, 364, 176
-0.992502, 113, 13, 144, 44
-0.992503, 413, 9, 444, 40
-0.992504, 189, 93, 220, 124
-0.992504, 161, 137, 416, 200
-0.992508, 389, 101, 420, 132
-0.992511, 125, 57, 156, 88
-0.992513, 277, 1, 308, 32
-0.992516, 13, 229, 44, 260
-0.992517, 333, 277, 364, 308
-0.992518, 41, 49, 72, 80
-0.992521, 337, 129, 464, 160
-0.992525, 253, 225, 284, 256
-0.992526, 289, 121, 320, 152
-0.992526, 397, 1, 428, 32
-0.99253, 377, 93, 408, 124
-0.992533, 317, 193, 348, 224
-0.992536, 149, 45, 180, 76
-0.99254, 1, 237, 32, 268
-0.992541, 345, 269, 376, 300
-0.992543, 313, 89, 344, 120
-0.992549, 309, 105, 340, 136
-0.992552, 305, 225, 336, 256
-0.992555, 369, 73, 400, 104
-0.992557, 61, 25, 92, 56
-0.992563, 81, 17, 112, 48
-0.992564, 329, 221, 360, 252
-0.992567, 105, 49, 136, 80
-0.992571, 357, 269, 388, 300
-0.992573, 273, 137, 304, 168
-0.992578, 365, 305, 396, 336
-0.992581, 365, 49, 396, 80
-0.992582, 357, 1, 388, 32
-0.992587, 289, 89, 416, 120
-0.992592, 41, 85, 72, 116
-0.992595, 397, 133, 428, 164
-0.992595, 381, 69, 412, 100
-0.992596, 93, 57, 124, 88
-0.992597, 413, 97, 444, 128
-0.992598, 405, 341, 436, 372
-0.992599, 385, 117, 416, 148
-0.9926, 225, 41, 256, 72
-0.992602, 357, 33, 388, 64
-0.992606, 89, 1, 120, 32
-0.992606, 345, 257, 376, 288
-0.992607, 105, 69, 136, 100
-0.99261, 113, 37, 144, 68
-0.99261, 201, 97, 232, 128
-0.992612, 349, 161, 380, 192
-0.992614, 433, 41, 464, 72
-0.992614, 29, 237, 60, 268
-0.992614, 329, 205, 360, 236
-0.992615, 361, 133, 392, 164
-0.992622, 217, 113, 248, 144
-0.992623, 341, 85, 372, 116
-0.992636, 341, 225, 372, 256
-0.992637, 37, 13, 68, 44
-0.992644, 277, 229, 308, 260
-0.992645, 241, 121, 272, 152
-0.992649, 41, 237, 72, 268
-0.992652, 133, 45, 164, 76
-0.992661, 69, 5, 100, 36
-0.992663, 413, 325, 444, 356
-0.992675, 1, 177, 32, 208
-0.992678, 409, 21, 440, 52
-0.992682, 337, 41, 368, 72
-0.992684, 305, 201, 336, 232
-0.992687, 257, 13, 288, 44
-0.992688, 377, 133, 408, 164
-0.99269, 265, 225, 296, 256
-0.992693, 317, 261, 348, 292
-0.992696, 297, 257, 328, 288
-0.9927, 265, 65, 296, 96
-0.9927, 301, 245, 332, 276
-0.992703, 245, 25, 276, 56
-0.992705, 117, 1, 148, 32
-0.992706, 141, 57, 172, 88
-0.992707, 321, 153, 352, 184
-0.992713, 445, 133, 476, 164
-0.992717, 65, 57, 96, 88
-0.992719, 405, 81, 436, 112
-0.99272, 49, 97, 80, 128
-0.992726, 65, 137, 320, 200
-0.992999, 273, 125, 400, 156
-0.993018, 1, 93, 128, 124
-0.993055, 1, 1, 256, 64
-0.99309, 161, 265, 416, 328
-0.993138, 417, 105, 432, 168
-0.993199, 33, 217, 288, 280
-0.993235, 29, 89, 44, 152
-0.993246, 329, 113, 344, 176
-0.993255, 353, 141, 480, 172
-0.99327, 397, 49, 412, 112
-0.993326, 313, 113, 328, 176
-0.993348, 435, 121, 450, 184
-0.993351, 337, 117, 464, 148
-0.993358, 325, 73, 340, 136
-0.993369, 273, 141, 400, 172
-0.993437, 117, 25, 132, 88
-0.993495, 425, 121, 440, 184
-0.993564, 319, 121, 334, 184
-0.993565, 257, 265, 500, 328
-0.99361, 17, 53, 144, 84
-0.993619, 91, 17, 106, 80
-0.993637, 39, 57, 54, 120
-0.993674, 399, 305, 414, 368
-0.993703, 305, 225, 432, 256
-0.993726, 117, 1, 132, 64
-0.99375, 319, 209, 334, 272
-0.993766, 307, 121, 322, 184
-0.993771, 101, 41, 116, 104
-0.99383, 405, 97, 420, 160
-0.993861, 107, 41, 122, 104
-0.993895, 337, 105, 464, 136
-0.993901, 369, 77, 496, 108
-0.993905, 31, 25, 46, 88
-0.993912, 375, 273, 390, 336
-0.993915, 443, 121, 458, 184
-0.993922, 369, 65, 496, 96
-0.993932, 225, 129, 352, 160
-0.99394, 367, 265, 382, 328
-0.99394, 393, 297, 408, 360
-0.99395, 305, 77, 432, 108
-0.993952, 113, 93, 240, 124
-0.993954, 305, 213, 432, 244
-0.993955, 385, 289, 400, 352
-0.993966, 409, 313, 424, 375
-0.993971, 341, 113, 356, 176
-0.99398, 289, 201, 416, 232
-0.993998, 323, 233, 338, 296
-0.994023, 399, 89, 414, 152
-0.99403, 241, 205, 368, 236
-0.994059, 33, 65, 48, 128
-0.994063, 337, 81, 352, 144
-0.994064, 145, 109, 272, 140
-0.994082, 337, 297, 464, 328
-0.994085, 241, 105, 368, 136
-0.994105, 29, 1, 44, 64
-0.99413, 61, 17, 76, 80
-0.994134, 85, 17, 100, 80
-0.994139, 453, 129, 468, 192
-0.994144, 317, 65, 332, 128
-0.994155, 161, 161, 416, 224
-0.994159, 369, 57, 384, 120
-0.994165, 321, 29, 448, 60
-0.994184, 55, 49, 70, 112
-0.994185, 311, 185, 326, 248
-0.994191, 43, 105, 58, 168
-0.994232, 1, 241, 500, 304
-0.994259, 321, 45, 448, 76
-0.994283, 437, 9, 452, 72
-0.994317, 337, 281, 464, 312
-0.994341, 123, 33, 138, 96
-0.994342, 33, 193, 288, 256
-0.994343, 353, 217, 368, 280
-0.994392, 127, 9, 142, 72
-0.994392, 355, 257, 370, 320
-0.994396, 321, 17, 448, 48
-0.994399, 135, 33, 150, 96
-0.994407, 331, 193, 346, 256
-0.994426, 341, 193, 356, 256
-0.994433, 95, 41, 110, 104
-0.994434, 209, 313, 336, 375
-0.994474, 241, 1, 368, 32
-0.994494, 289, 153, 416, 184
-0.994511, 431, 97, 446, 160
-0.994512, 361, 265, 376, 328
-0.994516, 59, 97, 74, 160
-0.994534, 353, 105, 368, 168
-0.994537, 289, 181, 416, 212
-0.994541, 313, 145, 328, 208
-0.994542, 49, 93, 176, 124
-0.994546, 405, 73, 420, 136
-0.994551, 369, 29, 496, 60
-0.994553, 53, 89, 68, 152
-0.99457, 273, 165, 400, 196
-0.994578, 309, 225, 324, 288
-0.994584, 81, 1, 112, 256
-0.994589, 193, 117, 320, 148
-0.994617, 413, 81, 428, 144
-0.994622, 359, 225, 374, 288
-0.994632, 289, 113, 416, 144
-0.994639, 303, 145, 318, 208
-0.994665, 359, 137, 374, 200
-0.99467, 247, 1, 262, 64
-0.99469, 337, 153, 464, 184
-0.994694, 411, 105, 426, 168
-0.994697, 229, 17, 244, 80
-0.994701, 129, 29, 256, 60
-0.994704, 343, 81, 358, 144
-0.994705, 65, 313, 320, 375
-0.994706, 273, 277, 400, 308
-0.994706, 337, 137, 352, 200
-0.994717, 323, 185, 338, 248
-0.994726, 289, 289, 416, 320
-0.99474, 209, 93, 336, 124
-0.994741, 391, 49, 406, 112
-0.994747, 455, 1, 470, 64
-0.994753, 325, 97, 356, 352
-0.994758, 49, 57, 64, 120
-0.994784, 337, 317, 464, 348
-0.994802, 369, 1, 384, 64
-0.994815, 353, 1, 480, 32
-0.994823, 81, 309, 208, 340
-0.994832, 429, 17, 444, 80
-0.994851, 419, 17, 434, 80
-0.994853, 225, 37, 352, 68
-0.994853, 273, 265, 400, 296
-0.994854, 349, 257, 364, 320
-0.994857, 65, 37, 192, 68
-0.994877, 289, 301, 416, 332
-0.994879, 449, 1, 464, 64
-0.994881, 351, 81, 366, 144
-0.994887, 375, 49, 390, 112
-0.994892, 117, 49, 132, 112
-0.994895, 103, 65, 118, 128
-0.994911, 241, 193, 368, 224
-0.994912, 321, 65, 448, 96
-0.994934, 297, 113, 312, 176
-0.994939, 157, 41, 172, 104
-0.994942, 79, 33, 94, 96
-0.994945, 17, 105, 144, 136
-0.994948, 363, 73, 378, 136
-0.994954, 273, 129, 288, 192
-0.994958, 145, 45, 272, 76
-0.994963, 375, 297, 390, 360
-0.994964, 17, 77, 144, 108
-0.994967, 125, 57, 140, 120
-0.994971, 273, 49, 400, 80
-0.994975, 145, 61, 272, 92
-0.994978, 33, 1, 160, 32
-0.994981, 325, 209, 340, 272
-0.994996, 285, 137, 300, 200
-0.995003, 347, 105, 362, 168
-0.995004, 363, 1, 378, 64
-0.995004, 321, 257, 336, 320
-0.99501, 193, 9, 320, 40
-0.995023, 389, 89, 404, 152
-0.995024, 403, 25, 418, 88
-0.995028, 87, 41, 102, 104
-0.99503, 351, 137, 366, 200
-0.995035, 337, 333, 464, 364
-0.995044, 415, 313, 430, 375
-0.995046, 129, 33, 144, 96
-0.995048, 241, 249, 368, 280
-0.995057, 355, 281, 370, 344
-0.995065, 427, 41, 442, 104
-0.995069, 273, 237, 400, 268
-0.99507, 1, 137, 128, 168
-0.99507, 81, 81, 208, 112
-0.99508, 257, 297, 500, 360
-0.995089, 241, 77, 368, 108
-0.995092, 343, 265, 358, 328
-0.995095, 67, 1, 82, 64
-0.995101, 331, 73, 346, 136
-0.995109, 317, 185, 332, 248
-0.995115, 269, 33, 284, 96
-0.995118, 353, 169, 480, 200
-0.99512, 107, 17, 122, 80
-0.99512, 323, 97, 338, 160
-0.995125, 311, 73, 326, 136
-0.995127, 317, 233, 332, 296
-0.995132, 261, 121, 276, 184
-0.995145, 209, 25, 336, 56
-0.995145, 347, 217, 362, 280
-0.995147, 109, 65, 124, 128
-0.995156, 329, 241, 344, 304
-0.995172, 369, 221, 496, 252
-0.995176, 17, 37, 144, 68
-0.995183, 435, 41, 450, 104
-0.995188, 65, 69, 192, 100
-0.995203, 409, 1, 424, 64
-0.995214, 243, 33, 258, 96
-0.995217, 45, 233, 60, 296
-0.995218, 367, 289, 382, 352
-0.995219, 367, 161, 382, 224
-0.995222, 151, 49, 166, 112
-0.995225, 377, 137, 392, 200
-0.995228, 337, 89, 464, 120
-0.995235, 5, 145, 20, 208
-0.995251, 339, 217, 354, 280
-0.995256, 445, 97, 460, 160
-0.995259, 459, 137, 474, 200
-0.995261, 145, 121, 272, 152
-0.995266, 383, 81, 398, 144
-0.995283, 197, 89, 212, 152
-0.995286, 25, 225, 40, 288
-0.995293, 423, 89, 438, 152
-0.995304, 303, 209, 318, 272
-0.995307, 335, 257, 350, 320
-0.995352, 329, 1, 360, 256
-0.995357, 81, 185, 208, 216
-0.995366, 273, 21, 400, 52
-0.995381, 65, 21, 192, 52
-0.995431, 17, 117, 144, 148
-0.995442, 1, 241, 256, 304
-0.995453, 65, 133, 192, 164
-0.995456, 289, 101, 416, 132
-0.995485, 265, 33, 296, 288
-0.9955, 129, 289, 384, 352
-0.995512, 81, 209, 208, 240
-0.995517, 369, 49, 496, 80
-0.995533, 365, 1, 396, 256
-0.995543, 273, 65, 400, 96
-0.99555, 97, 1, 224, 32
-0.995553, 1, 225, 128, 256
-0.995588, 321, 265, 448, 296
-0.995681, 73, 97, 104, 352
-0.995725, 81, 297, 208, 328
-0.995742, 353, 1, 384, 256
-0.995755, 225, 149, 352, 180
-0.995769, 193, 213, 320, 244
-0.995788, 1, 245, 128, 276
-0.995799, 273, 37, 400, 68
-0.995821, 209, 225, 336, 256
-0.995821, 81, 105, 208, 136
-0.995821, 25, 1, 56, 256
-0.995835, 17, 25, 144, 56
-0.995861, 313, 97, 344, 352
-0.995879, 377, 1, 408, 256
-0.995879, 109, 1, 140, 256
-0.995897, 225, 61, 352, 92
-0.995908, 17, 305, 144, 336
-0.995921, 177, 137, 304, 168
-0.995938, 97, 1, 128, 256
-0.995947, 341, 1, 372, 256
-0.995975, 341, 97, 372, 352
-0.995977, 193, 201, 320, 232
-0.995985, 369, 17, 496, 48
-0.995995, 305, 1, 432, 32
-0.99602, 49, 65, 80, 320
-0.996024, 193, 77, 320, 108
-0.996037, 353, 233, 480, 264
-0.99604, 65, 233, 192, 264
-0.996048, 113, 17, 240, 48
-0.996065, 85, 97, 116, 352
-0.996072, 193, 49, 320, 80
-0.996072, 421, 1, 452, 256
-0.996085, 361, 129, 392, 375
-0.996151, 225, 237, 352, 268
-0.996162, 61, 97, 92, 352
-0.996174, 1, 297, 500, 360
-0.996175, 193, 1, 224, 256
-0.996176, 81, 285, 208, 316
-0.99618, 337, 193, 464, 224
-0.996201, 1, 181, 128, 212
-0.996205, 245, 33, 276, 288
-0.996225, 289, 249, 416, 280
-0.996228, 209, 181, 336, 212
-0.996238, 69, 1, 100, 256
-0.996284, 369, 181, 496, 212
-0.996319, 337, 253, 464, 284
-0.996342, 281, 65, 312, 320
-0.996392, 389, 65, 420, 320
-0.996437, 225, 269, 352, 300
-0.996485, 81, 221, 208, 252
-0.996499, 305, 1, 336, 256
-0.996539, 1, 65, 32, 320
-0.996555, 301, 97, 332, 352
-0.996571, 97, 97, 128, 352
-0.996586, 229, 1, 260, 256
-0.996592, 377, 129, 408, 375
-0.996592, 33, 265, 288, 328
-0.9966, 233, 97, 264, 352
-0.996631, 401, 65, 432, 320
-0.996646, 369, 269, 496, 300
-0.996648, 65, 121, 192, 152
-0.99665, 145, 221, 272, 252
-0.996653, 37, 97, 68, 352
-0.996656, 221, 97, 252, 352
-0.996669, 33, 317, 160, 348
-0.996671, 17, 13, 144, 44
-0.996706, 89, 45, 104, 76
-0.996719, 225, 165, 352, 196
-0.996723, 353, 209, 480, 240
-0.99676, 205, 97, 236, 352
-0.996767, 181, 1, 212, 256
-0.996776, 145, 193, 272, 224
-0.996788, 1, 149, 128, 180
-0.996789, 145, 273, 272, 304
-0.996802, 225, 281, 352, 312
-0.996805, 193, 257, 320, 288
-0.996807, 145, 5, 272, 36
-0.996847, 161, 97, 288, 128
-0.996849, 431, 341, 446, 372
-0.99686, 95, 41, 110, 72
-0.996881, 441, 129, 456, 160
-0.996885, 29, 25, 44, 56
-0.996904, 1, 169, 128, 200
-0.996905, 81, 329, 208, 360
-0.996929, 377, 285, 392, 316
-0.996946, 417, 325, 432, 356
-0.99696, 425, 97, 456, 352
-0.997008, 121, 33, 152, 288
-0.997014, 335, 93, 350, 124
-0.997029, 289, 321, 416, 352
-0.997029, 317, 1, 348, 256
-0.997043, 423, 337, 438, 368
-0.997047, 371, 281, 386, 312
-0.99706, 321, 217, 336, 248
-0.99706, 81, 149, 208, 180
-0.997068, 421, 25, 436, 56
-0.997082, 29, 5, 44, 36
-0.997083, 421, 129, 436, 160
-0.997094, 161, 65, 192, 320
-0.997098, 25, 97, 56, 352
-0.997099, 353, 145, 368, 176
-0.997106, 81, 197, 208, 228
-0.997113, 313, 213, 328, 244
-0.997119, 427, 29, 442, 60
-0.997125, 13, 65, 44, 320
-0.997127, 33, 45, 48, 76
-0.997132, 383, 289, 398, 320
-0.997136, 435, 129, 450, 160
-0.997143, 37, 1, 68, 256
-0.997146, 125, 57, 140, 88
-0.997146, 303, 133, 318, 164
-0.99715, 405, 313, 420, 344
-0.997153, 407, 101, 422, 132
-0.997158, 133, 33, 164, 288
-0.99716, 445, 1, 476, 256
-0.997163, 447, 141, 462, 172
-0.997163, 397, 61, 412, 92
-0.997172, 391, 45, 406, 76
-0.997176, 327, 217, 342, 248
-0.997192, 345, 41, 360, 72
-0.997198, 379, 33, 394, 64
-0.997201, 403, 121, 418, 152
-0.997204, 141, 57, 156, 88
-0.997207, 411, 17, 426, 48
-0.997207, 1, 273, 500, 336
-0.997216, 33, 289, 288, 352
-0.997241, 31, 93, 46, 124
-0.997247, 403, 81, 418, 112
-0.997252, 453, 145, 468, 176
-0.997254, 367, 293, 382, 324
-0.997254, 359, 145, 374, 176
-0.997259, 33, 77, 48, 108
-0.997262, 361, 289, 376, 320
-0.997262, 389, 81, 404, 112
-0.997266, 91, 57, 106, 88
-0.997266, 33, 57, 48, 88
-0.997273, 131, 53, 146, 84
-0.997277, 385, 69, 400, 100
-0.997289, 59, 121, 74, 152
-0.997291, 369, 73, 384, 104
-0.997292, 355, 133, 370, 164
-0.997292, 319, 137, 334, 168
-0.997298, 93, 1, 108, 32
-0.997298, 397, 45, 412, 76
-0.997302, 437, 97, 468, 352
-0.997303, 325, 105, 340, 136
-0.99731, 81, 37, 96, 68
-0.997321, 403, 53, 418, 84
-0.997321, 389, 297, 404, 328
-0.997324, 139, 1, 154, 32
-0.99734, 407, 65, 422, 96
-0.99734, 377, 301, 392, 332
-0.997342, 101, 45, 116, 76
-0.997345, 397, 305, 412, 336
-0.99735, 401, 101, 416, 132
-0.997353, 431, 117, 446, 148
-0.997355, 395, 81, 410, 112
-0.997363, 329, 93, 344, 124
-0.997376, 55, 49, 70, 80
-0.997376, 433, 33, 448, 64
-0.997393, 417, 61, 432, 92
-0.997399, 331, 77, 346, 108
-0.997407, 433, 1, 464, 256
-0.997408, 397, 121, 412, 152
-0.997411, 435, 141, 450, 172
-0.997416, 107, 49, 122, 80
-0.99743, 115, 1, 130, 32
-0.997432, 329, 117, 344, 148
-0.997438, 25, 233, 40, 264
-0.997439, 421, 113, 436, 144
-0.997442, 441, 141, 456, 172
-0.997446, 373, 13, 388, 44
-0.99745, 109, 97, 140, 352
-0.997451, 193, 97, 224, 352
-0.997459, 373, 41, 388, 72
-0.997465, 87, 17, 102, 48
-0.997471, 345, 73, 360, 104
-0.997471, 385, 37, 400, 68
-0.997475, 367, 161, 382, 192
-0.997477, 413, 129, 444, 375
-0.997478, 213, 1, 244, 256
-0.997481, 307, 205, 322, 236
-0.997487, 117, 25, 132, 56
-0.99749, 355, 113, 370, 144
-0.99749, 413, 117, 428, 148
-0.997494, 53, 117, 68, 148
-0.9975, 119, 49, 134, 80
-0.9975, 349, 157, 364, 188
-0.997502, 415, 29, 430, 60
-0.997505, 427, 137, 442, 168
-0.997507, 297, 241, 312, 272
-0.997508, 309, 141, 324, 172
-0.99751, 423, 45, 438, 76
-0.997516, 363, 273, 378, 304
-0.997516, 41, 113, 56, 144
-0.997517, 411, 321, 426, 352
-0.997527, 321, 81, 336, 112
-0.997535, 77, 53, 92, 84
-0.997539, 57, 37, 72, 68
-0.997542, 145, 1, 176, 256
-0.997554, 417, 337, 432, 368
-0.99756, 405, 29, 420, 60
-0.997561, 319, 205, 334, 236
-0.997562, 373, 1, 388, 32
-0.997563, 345, 145, 360, 176
-0.997568, 99, 57, 114, 88
-0.99757, 437, 105, 452, 136
-0.997578, 213, 101, 228, 132
-0.99758, 307, 109, 322, 140
-0.997584, 61, 25, 76, 56
-0.997586, 429, 49, 444, 80
-0.997586, 355, 285, 370, 316
-0.997593, 111, 69, 126, 100
-0.997598, 257, 125, 272, 156
-0.997598, 349, 133, 364, 164
-0.997605, 417, 5, 432, 36
-0.997606, 317, 69, 332, 100
-0.997609, 269, 129, 300, 375
-0.997611, 375, 77, 390, 108
-0.997612, 391, 69, 406, 100
-0.997612, 191, 89, 206, 120
-0.997612, 311, 77, 326, 108
-0.997613, 453, 133, 468, 164
-0.997617, 117, 37, 132, 68
-0.997618, 447, 129, 462, 160
-0.997619, 177, 97, 208, 352
-0.99762, 363, 1, 378, 32
-0.997621, 139, 45, 154, 76
-0.997623, 295, 133, 310, 164
-0.997628, 341, 109, 356, 140
-0.997629, 325, 137, 340, 168
-0.99763, 329, 265, 344, 296
-0.997702, 245, 129, 276, 375
-0.997898, 161, 313, 416, 375
-0.997923, 145, 97, 176, 352
-0.998064, 257, 129, 288, 375
-0.99807, 457, 97, 488, 352
-0.998074, 125, 129, 156, 375
-0.9981, 293, 1, 324, 256
-0.9984, 49, 59, 112, 74
-0.998401, 297, 85, 360, 100
-0.998411, 305, 147, 368, 162
-0.998412, 385, 45, 448, 60
-0.99842, 437, 1, 452, 128
-0.998421, 17, 103, 80, 118
-0.998427, 305, 221, 368, 236
-0.998428, 393, 131, 456, 146
-0.99843, 361, 77, 424, 92
-0.998436, 409, 139, 472, 154
-0.998436, 321, 269, 384, 284
-0.998438, 89, 15, 152, 30
-0.998439, 385, 39, 448, 54
-0.998444, 33, 51, 96, 66
-0.998448, 33, 5, 96, 20
-0.99845, 1, 1, 64, 16
-0.998451, 17, 57, 80, 72
-0.998451, 345, 47, 408, 62
-0.998452, 297, 113, 360, 128
-0.998453, 345, 295, 408, 310
-0.998457, 385, 51, 448, 66
-0.998459, 321, 275, 384, 290
-0.99846, 361, 313, 424, 328
-0.998461, 369, 133, 432, 148
-0.998465, 417, 39, 480, 54
-0.998465, 353, 123, 416, 138
-0.998466, 17, 35, 80, 50
-0.998466, 297, 255, 360, 270
-0.998468, 281, 77, 344, 92
-0.998469, 385, 115, 448, 130
-0.998469, 409, 113, 472, 128
-0.99847, 329, 131, 392, 146
-0.99847, 25, 115, 88, 130
-0.99847, 73, 3, 136, 18
-0.99847, 129, 57, 192, 72
-0.998471, 409, 145, 472, 160
-0.998471, 329, 285, 392, 300
-0.998472, 377, 71, 440, 86
-0.998472, 289, 141, 352, 156
-0.998473, 385, 57, 448, 72
-0.998473, 17, 241, 80, 256
-0.998474, 353, 305, 416, 320
-0.998474, 393, 33, 456, 48
-0.998475, 369, 319, 432, 334
-0.998475, 401, 25, 464, 40
-0.998476, 17, 97, 80, 112
-0.998477, 25, 135, 88, 150
-0.998478, 17, 63, 80, 78
-0.998479, 89, 59, 152, 74
-0.99848, 313, 123, 376, 138
-0.998481, 41, 49, 56, 176
-0.998481, 321, 155, 384, 170
-0.998482, 313, 263, 376, 278
-0.998485, 289, 125, 352, 140
-0.998487, 161, 97, 224, 112
-0.998489, 385, 121, 448, 136
-0.998489, 337, 87, 400, 102
-0.998489, 73, 53, 136, 68
-0.998492, 305, 215, 368, 230
-0.998492, 353, 113, 416, 128
-0.998493, 49, 11, 112, 26
-0.998494, 393, 79, 456, 94
-0.998494, 361, 59, 424, 74
-0.998494, 385, 107, 448, 122
-0.998495, 321, 109, 384, 124
-0.998495, 241, 33, 304, 48
-0.998496, 233, 19, 296, 34
-0.998496, 417, 11, 480, 26
-0.998497, 193, 115, 256, 130
-0.998497, 257, 145, 320, 160
-0.998497, 409, 45, 472, 60
-0.998497, 321, 37, 384, 52
-0.998497, 25, 99, 56, 114
-0.998498, 21, 25, 52, 40
-0.998498, 89, 67, 152, 82
-0.998498, 345, 123, 376, 138
-0.998498, 405, 345, 436, 360
-0.998498, 385, 19, 448, 34
-0.998499, 353, 81, 384, 96
-0.998499, 281, 91, 344, 106
-0.998499, 441, 131, 472, 146
-0.998499, 261, 239, 292, 254
-0.9985, 395, 17, 410, 144
-0.9985, 469, 97, 500, 352
-0.9985, 49, 107, 80, 122
-0.9985, 385, 63, 448, 78
-0.9985, 397, 45, 428, 60
-0.9985, 17, 91, 80, 106
-0.998501, 305, 131, 336, 146
-0.998501, 345, 155, 376, 170
-0.998501, 329, 215, 360, 230
-0.998501, 245, 125, 276, 140
-0.998502, 417, 133, 480, 148
-0.998502, 329, 271, 360, 286
-0.998502, 1, 235, 64, 250
-0.998502, 241, 75, 304, 90
-0.998503, 385, 43, 416, 58
-0.998503, 429, 27, 460, 42
-0.998503, 345, 267, 376, 282
-0.998503, 329, 77, 360, 92
-0.998503, 369, 83, 432, 98
-0.998503, 417, 329, 448, 344
-0.998505, 393, 87, 456, 102
-0.998506, 405, 59, 436, 74
-0.998506, 93, 61, 124, 76
-0.998506, 217, 27, 280, 42
-0.998507, 321, 109, 352, 124
-0.998507, 305, 209, 368, 224
-0.998507, 269, 27, 300, 42
-0.998507, 417, 13, 448, 28
-0.998507, 417, 1, 448, 16
-0.998507, 205, 39, 236, 54
-0.998507, 377, 59, 408, 74
-0.998508, 65, 33, 128, 48
-0.998508, 289, 263, 352, 278
-0.998508, 369, 1, 432, 16
-0.998509, 337, 51, 368, 66
-0.998509, 429, 21, 460, 36
-0.998509, 33, 41, 96, 56
-0.99851, 393, 85, 424, 100
-0.99851, 81, 59, 112, 74
-0.99851, 389, 313, 420, 328
-0.998511, 89, 11, 120, 26
-0.998511, 341, 225, 372, 240
-0.998511, 369, 33, 432, 48
-0.998511, 369, 35, 400, 50
-0.998511, 397, 321, 428, 336
-0.998511, 297, 275, 360, 290
-0.998512, 409, 63, 472, 78
-0.998512, 417, 33, 480, 48
-0.998512, 25, 45, 56, 60
-0.998512, 41, 109, 104, 124
-0.998513, 69, 57, 100, 72
-0.998513, 377, 135, 408, 150
-0.998513, 81, 213, 144, 228
-0.998514, 57, 27, 88, 42
-0.998515, 273, 135, 336, 150
-0.998515, 1, 7, 64, 22
-0.998515, 333, 281, 364, 296
-0.998515, 329, 147, 392, 162
-0.998515, 417, 47, 448, 62
-0.998515, 329, 85, 360, 100
-0.998516, 73, 9, 136, 24
-0.998516, 341, 131, 372, 146
-0.998516, 401, 95, 432, 110
-0.998516, 297, 269, 360, 284
-0.998517, 105, 5, 168, 20
-0.998517, 257, 21, 288, 36
-0.998518, 405, 333, 436, 348
-0.998518, 393, 93, 456, 108
-0.998518, 129, 59, 160, 74
-0.998518, 113, 65, 176, 80
-0.998518, 57, 103, 120, 118
-0.998518, 409, 107, 472, 122
-0.998518, 273, 151, 336, 166
-0.998519, 321, 117, 352, 132
-0.998519, 237, 9, 268, 24
-0.998519, 281, 211, 344, 226
-0.998519, 361, 13, 424, 28
-0.99852, 281, 239, 312, 254
-0.99852, 37, 65, 68, 80
-0.99852, 369, 327, 432, 342
-0.99852, 25, 105, 56, 120
-0.998521, 365, 307, 396, 322
-0.998521, 345, 53, 408, 68
-0.998521, 257, 219, 320, 234
-0.998521, 297, 107, 360, 122
-0.998522, 25, 23, 88, 38
-0.998522, 265, 227, 328, 242
-0.998522, 189, 99, 220, 114
-0.998523, 409, 3, 472, 18
-0.998523, 17, 15, 80, 30
-0.998523, 37, 115, 68, 130
-0.998523, 25, 121, 88, 136
-0.998524, 337, 81, 400, 96
-0.998524, 385, 139, 448, 154
-0.998524, 257, 245, 320, 260
-0.998525, 417, 61, 448, 76
-0.998525, 405, 39, 436, 54
-0.998526, 117, 65, 148, 80
-0.998526, 141, 51, 172, 66
-0.998526, 397, 105, 428, 120
-0.998526, 217, 127, 280, 142
-0.998527, 429, 357, 460, 372
-0.998528, 113, 11, 144, 26
-0.998528, 257, 15, 288, 30
-0.998528, 313, 75, 376, 90
-0.998528, 273, 69, 336, 84
-0.998529, 417, 19, 480, 34
-0.998529, 317, 267, 348, 282
-0.998529, 113, 51, 176, 66
-0.998529, 417, 151, 480, 166
-0.99853, 385, 313, 448, 328
-0.99853, 97, 303, 160, 318
-0.99853, 309, 145, 340, 160
-0.998531, 25, 13, 56, 28
-0.998532, 97, 69, 128, 84
-0.998533, 425, 121, 488, 136
-0.998534, 365, 11, 396, 26
-0.998534, 249, 203, 312, 218
-0.998534, 209, 9, 272, 24
-0.998535, 105, 101, 168, 116
-0.998535, 25, 1, 56, 16
-0.998535, 285, 91, 316, 106
-0.998535, 265, 71, 296, 86
-0.998536, 141, 57, 172, 72
-0.998536, 31, 49, 46, 176
-0.998536, 281, 237, 344, 252
-0.998536, 401, 327, 432, 342
-0.998536, 429, 151, 460, 166
-0.998537, 421, 349, 452, 364
-0.998538, 345, 289, 376, 304
-0.998539, 45, 239, 76, 254
-0.99854, 457, 1, 488, 256
-0.99854, 441, 151, 472, 166
-0.99854, 37, 47, 68, 62
-0.998541, 25, 59, 56, 74
-0.998543, 53, 135, 84, 150
-0.998544, 21, 237, 52, 252
-0.998544, 93, 45, 124, 60
-0.998545, 389, 59, 420, 74
-0.998547, 361, 283, 392, 298
-0.998547, 321, 177, 336, 304
-0.99855, 381, 307, 412, 322
-0.99855, 441, 137, 472, 152
-0.998553, 333, 109, 364, 124
-0.998555, 309, 87, 340, 102
-0.998558, 221, 47, 252, 62
-0.998558, 401, 33, 432, 48
-0.998559, 417, 127, 448, 142
-0.998559, 77, 51, 108, 66
-0.99856, 309, 109, 340, 124
-0.998564, 421, 33, 452, 48
-0.998564, 373, 47, 404, 62
-0.998565, 39, 1, 54, 128
-0.998571, 189, 93, 220, 108
-0.998572, 329, 151, 360, 166
-0.998573, 361, 129, 392, 144
-0.998573, 421, 143, 452, 158
-0.998578, 397, 133, 428, 148
-0.998579, 373, 41, 404, 56
-0.998581, 309, 81, 340, 96
-0.998581, 405, 79, 436, 94
-0.998583, 397, 111, 428, 126
-0.998584, 365, 289, 396, 304
-0.998585, 413, 119, 444, 134
-0.998585, 353, 295, 384, 310
-0.998585, 309, 211, 340, 226
-0.998586, 395, 65, 410, 192
-0.998587, 369, 79, 400, 94
-0.998588, 73, 49, 88, 176
-0.998589, 377, 301, 408, 316
-0.998589, 429, 135, 460, 150
-0.998589, 329, 97, 344, 224
-0.99859, 409, 21, 440, 36
-0.998591, 51, 33, 66, 160
-0.998593, 417, 343, 448, 358
-0.998595, 369, 65, 400, 80
-0.998596, 67, 1, 82, 128
-0.998598, 389, 75, 420, 90
-0.998602, 289, 137, 320, 152
-0.998602, 393, 65, 424, 80
-0.998603, 369, 295, 400, 310
-0.998603, 361, 301, 392, 316
-0.998609, 341, 147, 372, 162
-0.998611, 397, 53, 428, 68
-0.998617, 33, 1, 48, 128
-0.998621, 441, 145, 472, 160
-0.998624, 313, 219, 344, 234
-0.998637, 25, 7, 56, 22
-0.998641, 277, 49, 292, 176
-0.998641, 429, 129, 460, 144
-0.998642, 367, 65, 382, 192
-0.998642, 413, 27, 444, 42
-0.998643, 125, 1, 140, 128
-0.998652, 413, 137, 444, 152
-0.998654, 385, 49, 416, 64
-0.998664, 95, 49, 110, 176
-0.998678, 307, 129, 322, 256
-0.998678, 57, 33, 72, 160
-0.99868, 385, 17, 400, 144
-0.998692, 333, 145, 348, 272
-0.998697, 389, 65, 404, 192
-0.998722, 1, 97, 16, 224
-0.998726, 311, 177, 326, 304
-0.99873, 351, 65, 366, 192
-0.99873, 105, 49, 120, 176
-0.998749, 419, 1, 434, 128
-0.998753, 339, 113, 354, 240
-0.998758, 81, 49, 96, 176
-0.99876, 327, 209, 342, 336
-0.998761, 117, 1, 132, 128
-0.998761, 301, 129, 316, 256
-0.998763, 267, 33, 282, 160
-0.998764, 337, 65, 352, 192
-0.998771, 67, 49, 82, 176
-0.998776, 323, 129, 338, 256
-0.998778, 361, 65, 376, 192
-0.998782, 111, 49, 126, 176
-0.998782, 401, 33, 416, 160
-0.998783, 345, 65, 360, 192
-0.998784, 275, 1, 290, 128
-0.998785, 427, 17, 442, 144
-0.998791, 297, 65, 312, 192
-0.998794, 287, 81, 302, 208
-0.998799, 87, 49, 102, 176
-0.998806, 365, 225, 380, 352
-0.998836, 387, 241, 402, 368
-0.998839, 415, 97, 430, 224
-0.998842, 243, 33, 258, 160
-0.998847, 437, 97, 452, 224
-0.998861, 469, 1, 500, 256
-0.998862, 379, 225, 394, 352
-0.998863, 397, 241, 412, 368
-0.998863, 459, 113, 474, 240
-0.998864, 131, 1, 146, 128
-0.99887, 45, 1, 60, 128
-0.99887, 335, 1, 350, 128
-0.998874, 25, 209, 40, 336
-0.998878, 401, 97, 416, 224
-0.998881, 443, 1, 458, 128
-0.998888, 251, 49, 266, 176
-0.998889, 355, 17, 370, 144
-0.99889, 371, 241, 386, 368
-0.998898, 465, 113, 480, 240
-0.9989, 281, 1, 296, 128
-0.9989, 343, 241, 358, 368
-0.998904, 139, 1, 154, 128
-0.998908, 61, 81, 76, 208
-0.99891, 261, 49, 276, 176
-0.998913, 443, 113, 458, 240
-0.998916, 347, 193, 362, 320
-0.998916, 109, 1, 124, 128
-0.998917, 373, 81, 388, 208
-0.998917, 271, 113, 286, 240
-0.998919, 135, 49, 150, 176
-0.99892, 357, 113, 372, 240
-0.998924, 293, 113, 308, 240
-0.998925, 281, 129, 296, 256
-0.998926, 117, 49, 132, 176
-0.998937, 101, 1, 116, 128
-0.998939, 287, 129, 302, 256
-0.998942, 79, 225, 94, 352
-0.998943, 305, 81, 320, 208
-0.998943, 55, 225, 70, 352
-0.998944, 429, 97, 444, 224
-0.998946, 407, 1, 422, 128
-0.998954, 125, 49, 140, 176
-0.998961, 65, 225, 80, 352
-0.998962, 363, 129, 378, 256
-0.998964, 305, 177, 320, 304
-0.998968, 189, 81, 204, 208
-0.998974, 355, 209, 370, 336
-0.998974, 313, 97, 328, 224
-0.998977, 375, 161, 390, 288
-0.998979, 163, 65, 178, 192
-0.99898, 259, 1, 274, 128
-0.99898, 385, 193, 400, 320
-0.99898, 453, 113, 468, 240
-0.998989, 315, 225, 330, 352
-0.99899, 169, 81, 184, 208
-0.998991, 435, 49, 450, 176
-0.998993, 443, 65, 458, 192
-0.998994, 259, 113, 274, 240
-0.999008, 321, 225, 336, 352
-0.999009, 339, 193, 354, 320
-0.999013, 407, 81, 422, 208
-0.999016, 207, 81, 222, 208
-0.999016, 331, 49, 346, 176
-0.999019, 377, 17, 392, 144
-0.999023, 369, 145, 384, 272
-0.999024, 237, 33, 252, 160
-0.999029, 323, 81, 338, 208
-0.999033, 333, 193, 348, 320
-0.999034, 413, 1, 428, 128
-0.999037, 237, 97, 252, 224
-0.999038, 347, 145, 362, 272
-0.999039, 385, 145, 400, 272
-0.999042, 371, 17, 386, 144
-0.999045, 423, 97, 438, 224
-0.999051, 13, 225, 28, 352
-0.999052, 25, 49, 40, 176
-0.999052, 195, 97, 210, 224
-0.999053, 463, 65, 478, 192
-0.999053, 1, 209, 16, 336
-0.999059, 83, 1, 98, 128
-0.999062, 253, 1, 268, 128
-0.999073, 265, 113, 280, 240
-0.999075, 325, 17, 340, 144
-0.999078, 177, 65, 192, 192
-0.999079, 91, 1, 106, 128
-0.999081, 217, 33, 232, 160
-0.999085, 245, 113, 260, 240
-0.999674, 231, 43, 246, 58
-0.999675, 419, 343, 434, 358
-0.999675, 323, 111, 338, 126
-0.999675, 55, 55, 70, 70
-0.999675, 419, 333, 434, 348
-0.999675, 53, 239, 68, 254
-0.999676, 393, 75, 408, 90
-0.999676, 425, 341, 440, 356
-0.999677, 379, 305, 394, 320
-0.999677, 123, 291, 138, 306
-0.999678, 395, 55, 410, 70
-0.999678, 437, 121, 452, 136
-0.999678, 399, 65, 414, 80
-0.999678, 101, 45, 116, 60
-0.999678, 45, 237, 60, 252
-0.999678, 419, 17, 434, 32
-0.999679, 439, 147, 454, 162
-0.99968, 377, 287, 392, 302
-0.99968, 443, 133, 458, 148
-0.99968, 435, 31, 450, 46
-0.99968, 83, 31, 98, 46
-0.99968, 459, 119, 474, 134
-0.99968, 299, 175, 314, 190
-0.99968, 395, 87, 410, 102
-0.999681, 35, 11, 50, 26
-0.999681, 113, 39, 128, 54
-0.999682, 385, 75, 400, 90
-0.999682, 347, 283, 362, 298
-0.999682, 331, 77, 346, 92
-0.999682, 39, 243, 54, 258
-0.999684, 485, 199, 500, 214
-0.999684, 309, 213, 324, 228
-0.999685, 433, 129, 448, 144
-0.999686, 419, 45, 434, 60
-0.999686, 301, 137, 316, 152
-0.999686, 415, 105, 430, 120
-0.999686, 335, 271, 350, 286
-0.999686, 427, 21, 442, 36
-0.999686, 29, 33, 44, 48
-0.999687, 385, 295, 400, 310
-0.999687, 209, 101, 224, 116
-0.999687, 365, 167, 380, 182
-0.999688, 121, 41, 136, 56
-0.999688, 33, 53, 48, 68
-0.999688, 119, 67, 134, 82
-0.999688, 399, 101, 414, 116
-0.999688, 117, 49, 132, 64
-0.999689, 375, 11, 390, 26
-0.999689, 29, 15, 44, 30
-0.99969, 35, 1, 50, 16
-0.999691, 345, 75, 360, 90
-0.999691, 385, 37, 400, 52
-0.999691, 433, 349, 448, 364
-0.999691, 403, 115, 418, 130
-0.999692, 65, 9, 80, 24
-0.999693, 221, 49, 236, 64
-0.999693, 375, 79, 390, 94
-0.999693, 405, 85, 420, 100
-0.999694, 75, 53, 90, 68
-0.999694, 115, 31, 130, 46
-0.999695, 153, 59, 168, 74
-0.999695, 23, 233, 38, 248
-0.999695, 401, 93, 416, 108
-0.999697, 343, 277, 358, 292
-0.999697, 301, 247, 316, 262
-0.999698, 135, 59, 150, 74
-0.999699, 335, 85, 350, 100
-0.999699, 17, 237, 32, 252
-0.9997, 431, 341, 446, 356
-0.999701, 341, 151, 356, 166
-0.999702, 415, 27, 430, 42
-0.999704, 313, 145, 328, 160
-0.999704, 29, 27, 44, 42
-0.999705, 379, 45, 394, 60
-0.999706, 413, 21, 428, 36
-0.999707, 429, 35, 444, 50
-0.999707, 343, 47, 358, 62
-0.999707, 423, 349, 438, 364
-0.999708, 411, 79, 426, 94
-0.999708, 367, 13, 382, 28
-0.99971, 327, 155, 342, 170
-0.99971, 433, 143, 448, 158
-0.999712, 381, 11, 396, 26
-0.999712, 323, 81, 338, 96
-0.999712, 321, 219, 336, 234
-0.999713, 429, 57, 444, 72
-0.999714, 369, 295, 384, 310
-0.999715, 431, 121, 446, 136
-0.999716, 415, 33, 430, 48
-0.999719, 201, 95, 216, 110
-0.99972, 333, 107, 348, 122
-0.99972, 455, 137, 470, 152
-0.999721, 125, 69, 140, 84
-0.999722, 403, 79, 418, 94
-0.999724, 1, 235, 16, 250
-0.999725, 31, 95, 46, 110
-0.999725, 417, 327, 432, 342
-0.999726, 385, 81, 400, 96
-0.999727, 375, 299, 390, 314
-0.999727, 39, 235, 54, 250
-0.999728, 313, 77, 328, 92
-0.99973, 409, 111, 424, 126
-0.99973, 441, 37, 456, 52
-0.999731, 29, 9, 44, 24
-0.999733, 389, 49, 404, 64
-0.999733, 443, 141, 458, 156
-0.999733, 195, 93, 210, 108
-0.999734, 33, 61, 48, 76
-0.999734, 89, 11, 104, 26
-0.999736, 81, 51, 96, 66
-0.999736, 387, 69, 402, 84
-0.999737, 405, 103, 420, 118
-0.999737, 421, 137, 436, 152
-0.999739, 89, 49, 104, 64
-0.99974, 409, 71, 424, 86
-0.99974, 97, 59, 112, 74
-0.999741, 453, 147, 468, 162
-0.999746, 315, 217, 330, 232
-0.999747, 421, 27, 436, 42
-0.999747, 317, 211, 332, 226
-0.999749, 95, 43, 110, 58
-0.999749, 405, 131, 420, 146
-0.999751, 411, 133, 426, 148
-0.999755, 65, 1, 80, 16
-0.999755, 91, 57, 106, 72
-0.999758, 417, 61, 432, 76
-0.999758, 93, 3, 108, 18
-0.999767, 31, 43, 46, 58
-0.999783, 351, 147, 366, 162
-0.999784, 397, 49, 412, 64
