1959
-0.212086, 1, 1, 500, 375
-0.312553, 257, 1, 500, 375
-0.313102, 1, 1, 500, 256
-0.364995, 161, 1, 416, 375
-0.368132, 1, 97, 500, 352
-0.404727, 1, 1, 256, 375
-0.503564, 129, 33, 384, 288
-0.51037, 257, 1, 500, 256
-0.516567, 1, 97, 256, 352
-0.603101, 225, 97, 480, 352
-0.626016, 129, 129, 384, 375
-0.648291, 33, 1, 288, 256
-0.806925, 321, 1, 448, 375
-0.832087, 241, 65, 368, 320
-0.832919, 257, 1, 384, 375
-0.833211, 369, 1, 496, 375
-0.834319, 209, 1, 336, 375
-0.836657, 97, 129, 224, 375
-0.845109, 177, 1, 304, 256
-0.847041, 321, 1, 448, 256
-0.851677, 1, 129, 128, 375
-0.852234, 1, 1, 128, 375
-0.860336, 369, 1, 496, 256
-0.862144, 1, 129, 500, 256
-0.864292, 97, 1, 224, 375
-0.865603, 337, 97, 464, 352
-0.865713, 177, 129, 304, 375
-0.867445, 49, 1, 176, 375
-0.867873, 161, 1, 288, 375
-0.869167, 129, 33, 256, 288
-0.870963, 49, 65, 176, 320
-0.876583, 1, 33, 128, 288
-0.880374, 1, 33, 500, 160
-0.880695, 1, 81, 500, 208
-0.889986, 1, 129, 256, 256
-0.896041, 65, 81, 320, 208
-0.896933, 225, 49, 480, 176
-0.899303, 1, 209, 500, 336
-0.903682, 161, 97, 416, 224
-0.905392, 289, 97, 416, 352
-0.91005, 257, 1, 500, 128
-0.914721, 161, 145, 416, 272
-0.916535, 161, 193, 416, 320
-0.918966, 177, 81, 304, 208
-0.925234, 241, 113, 368, 240
-0.926513, 257, 97, 500, 224
-0.928156, 33, 209, 288, 336
-0.929655, 161, 1, 416, 128
-0.929658, 305, 49, 368, 176
-0.930441, 257, 33, 384, 160
-0.930704, 305, 49, 432, 176
-0.930784, 49, 113, 176, 240
-0.931302, 329, 49, 392, 176
-0.931524, 281, 49, 344, 176
-0.931724, 129, 97, 256, 224
-0.93175, 193, 81, 256, 208
-0.932275, 257, 241, 500, 368
-0.932634, 153, 113, 216, 240
-0.934255, 113, 145, 240, 272
-0.934506, 1, 33, 256, 160
-0.936601, 65, 65, 192, 192
-0.937558, 65, 97, 128, 224
-0.937577, 337, 97, 464, 224
-0.937948, 321, 161, 448, 288
-0.938417, 337, 1, 464, 128
-0.939028, 345, 1, 408, 128
-0.940573, 233, 49, 296, 176
-0.941729, 209, 33, 336, 160
-0.942527, 313, 1, 376, 128
-0.942814, 257, 49, 320, 176
-0.942851, 97, 129, 160, 256
-0.943717, 177, 145, 240, 272
-0.943962, 57, 129, 120, 192
-0.944333, 369, 33, 432, 160
-0.94447, 41, 129, 104, 256
-0.944652, 433, 177, 496, 304
-0.944699, 1, 129, 128, 256
-0.945175, 369, 145, 496, 272
-0.945245, 241, 113, 304, 240
-0.945931, 257, 145, 500, 272
-0.945989, 257, 193, 500, 320
-0.946308, 1, 65, 128, 192
-0.946437, 177, 161, 304, 288
-0.946612, 65, 241, 128, 368
-0.947316, 41, 241, 104, 368
-0.947655, 297, 97, 360, 224
-0.947764, 417, 113, 480, 240
-0.948065, 369, 225, 496, 352
-0.948571, 185, 193, 248, 320
-0.94883, 289, 1, 352, 128
-0.94897, 217, 97, 280, 224
-0.948975, 353, 49, 480, 176
-0.949514, 129, 65, 192, 192
-0.949742, 281, 97, 344, 160
-0.950053, 161, 241, 416, 368
-0.950303, 113, 49, 240, 176
-0.950631, 73, 49, 136, 176
-0.951116, 97, 81, 160, 208
-0.951598, 305, 209, 432, 336
-0.951602, 161, 209, 288, 336
-0.951688, 153, 145, 216, 208
-0.951716, 41, 81, 104, 208
-0.952392, 57, 97, 120, 160
-0.952973, 249, 89, 312, 152
-0.953328, 145, 161, 208, 288
-0.953524, 329, 193, 392, 320
-0.953692, 393, 33, 456, 160
-0.953934, 289, 65, 352, 128
-0.95424, 169, 65, 232, 192
-0.954606, 417, 1, 480, 128
-0.954735, 417, 225, 480, 352
-0.954789, 97, 145, 160, 208
-0.954937, 153, 121, 216, 184
-0.955008, 361, 41, 424, 104
-0.955108, 385, 97, 448, 224
-0.955369, 121, 129, 184, 256
-0.955987, 433, 177, 496, 240
-0.956622, 257, 193, 384, 320
-0.956818, 1, 81, 64, 208
-0.957344, 305, 89, 368, 152
-0.957357, 369, 113, 432, 176
-0.957394, 273, 113, 336, 240
-0.957667, 425, 49, 488, 176
-0.95769, 305, 209, 368, 336
-0.95781, 273, 121, 336, 184
-0.957821, 281, 41, 344, 104
-0.958294, 209, 177, 272, 304
-0.958583, 65, 161, 192, 288
-0.958614, 33, 241, 160, 368
-0.958797, 289, 97, 416, 224
-0.959153, 185, 209, 248, 272
-0.959425, 329, 65, 392, 128
-0.959646, 1, 177, 128, 304
-0.959675, 433, 201, 496, 264
-0.959677, 17, 161, 80, 224
-0.959713, 65, 145, 128, 272
-0.959962, 281, 1, 344, 256
-0.960004, 337, 97, 400, 224
-0.960041, 401, 121, 464, 184
-0.960167, 185, 105, 248, 168
-0.960196, 345, 1, 408, 64
-0.960242, 409, 161, 472, 288
-0.960597, 17, 145, 80, 272
-0.960725, 161, 33, 288, 160
-0.961246, 321, 41, 384, 104
-0.961299, 385, 153, 448, 216
-0.96202, 249, 129, 312, 192
-0.96227, 409, 193, 472, 256
-0.962421, 361, 113, 424, 240
-0.96248, 193, 81, 256, 144
-0.962485, 417, 145, 480, 208
-0.96255, 241, 65, 304, 128
-0.962635, 65, 257, 128, 320
-0.962639, 121, 145, 184, 208
-0.963867, 177, 241, 240, 368
-0.964094, 193, 185, 256, 248
-0.96411, 97, 209, 224, 336
-0.964169, 297, 129, 360, 192
-0.964245, 361, 145, 424, 208
-0.964261, 41, 153, 104, 216
-0.964484, 385, 73, 448, 136
-0.964566, 361, 73, 424, 136
-0.964567, 393, 241, 456, 368
-0.964888, 409, 169, 472, 232
-0.964898, 225, 97, 288, 160
-0.96502, 337, 241, 400, 368
-0.965596, 65, 193, 128, 320
-0.965696, 65, 297, 128, 360
-0.965766, 257, 241, 384, 368
-0.965966, 17, 17, 144, 144
-0.965997, 329, 145, 392, 272
-0.966181, 377, 193, 440, 320
-0.966311, 177, 249, 240, 312
-0.966621, 225, 121, 288, 184
-0.966646, 193, 33, 256, 160
-0.967, 345, 177, 408, 240
-0.967022, 329, 113, 392, 176
-0.967234, 217, 65, 280, 128
-0.967275, 417, 233, 480, 296
-0.967348, 161, 105, 288, 168
-0.967398, 57, 73, 120, 136
-0.967486, 321, 257, 384, 320
-0.967589, 233, 1, 296, 256
-0.967761, 265, 65, 328, 128
-0.967791, 385, 145, 448, 272
-0.967981, 425, 1, 488, 256
-0.968083, 193, 81, 320, 144
-0.968168, 33, 73, 96, 136
-0.968185, 81, 121, 144, 184
-0.968314, 25, 33, 88, 160
-0.968463, 33, 145, 160, 208
-0.968478, 321, 1, 384, 256
-0.968511, 33, 129, 96, 192
-0.968591, 321, 17, 384, 80
-0.968687, 145, 129, 208, 375
-0.968691, 57, 97, 88, 160
-0.968722, 33, 97, 96, 160
-0.969173, 225, 129, 352, 192
-0.969209, 329, 49, 360, 176
-0.969303, 173, 121, 204, 184
-0.969454, 289, 97, 352, 352
-0.969492, 321, 201, 384, 264
-0.969721, 257, 41, 320, 104
-0.969847, 257, 1, 320, 256
-0.97016, 193, 145, 256, 208
-0.970209, 233, 65, 264, 192
-0.970221, 145, 177, 208, 240
-0.970385, 305, 145, 368, 272
-0.97043, 25, 129, 88, 375
-0.970435, 33, 281, 96, 344
-0.970494, 401, 33, 464, 288
-0.970566, 97, 145, 224, 208
-0.97066, 401, 97, 464, 160
-0.970935, 369, 1, 432, 64
-0.971037, 257, 65, 384, 128
-0.971134, 185, 65, 248, 320
-0.971339, 353, 193, 416, 320
-0.971479, 193, 193, 224, 320
-0.971587, 97, 65, 160, 320
-0.971587, 341, 257, 372, 320
-0.971678, 329, 89, 392, 152
-0.971787, 293, 97, 324, 160
-0.971912, 345, 1, 408, 256
-0.972024, 409, 25, 472, 88
-0.972071, 105, 241, 168, 368
-0.972174, 277, 105, 308, 168
-0.972378, 453, 169, 484, 232
-0.972409, 65, 129, 128, 375
-0.972459, 257, 65, 288, 192
-0.97255, 305, 89, 432, 152
-0.972602, 465, 177, 496, 240
-0.97272, 385, 41, 448, 104
-0.972932, 153, 225, 216, 352
-0.972958, 1, 81, 64, 144
-0.972993, 349, 33, 380, 160
-0.973002, 305, 49, 336, 176
-0.973023, 73, 105, 104, 168
-0.973112, 81, 73, 144, 136
-0.973196, 289, 1, 416, 64
-0.973239, 49, 121, 176, 184
-0.973272, 149, 145, 180, 208
-0.973333, 69, 97, 100, 224
-0.973424, 1, 17, 64, 144
-0.97345, 205, 177, 236, 240
-0.973451, 221, 97, 252, 224
-0.973496, 181, 97, 212, 224
-0.973498, 389, 105, 420, 168
-0.973511, 241, 41, 368, 104
-0.9737, 61, 121, 92, 184
-0.97379, 233, 153, 296, 216
-0.973866, 1, 177, 128, 240
-0.973876, 161, 217, 224, 280
-0.973886, 209, 225, 272, 288
-0.973938, 277, 49, 308, 112
-0.974168, 385, 257, 448, 320
-0.974191, 169, 169, 232, 232
-0.974213, 297, 241, 360, 304
-0.974278, 337, 145, 464, 208
-0.974411, 289, 33, 416, 96
-0.974431, 401, 113, 432, 176
-0.97463, 233, 81, 264, 144
-0.974646, 293, 49, 324, 176
-0.974688, 433, 97, 496, 352
-0.97473, 385, 217, 448, 280
-0.974756, 145, 129, 272, 192
-0.974838, 273, 113, 400, 176
-0.974848, 85, 97, 116, 160
-0.974853, 377, 1, 440, 256
-0.975096, 85, 121, 116, 184
-0.975118, 209, 225, 272, 352
-0.975167, 337, 177, 464, 240
-0.975176, 321, 113, 448, 176
-0.975188, 281, 209, 344, 336
-0.97521, 101, 129, 132, 256
-0.975225, 149, 129, 180, 256
-0.975418, 225, 129, 288, 375
-0.975455, 297, 65, 328, 128
-0.975495, 169, 65, 232, 128
-0.975522, 245, 97, 276, 224
-0.975599, 225, 105, 352, 168
-0.975604, 305, 57, 432, 120
-0.975754, 281, 49, 312, 176
-0.975976, 193, 57, 320, 120
-0.97603, 297, 17, 360, 80
-0.976061, 249, 1, 312, 128
-0.976068, 65, 153, 128, 216
-0.976197, 325, 89, 356, 152
-0.976295, 265, 97, 328, 352
-0.976299, 237, 121, 268, 184
-0.976361, 377, 1, 440, 375
-0.976438, 453, 209, 484, 272
-0.976479, 25, 257, 88, 320
-0.976561, 1, 265, 128, 328
-0.976588, 317, 49, 348, 176
-0.9766, 169, 113, 200, 240
-0.976612, 233, 113, 264, 240
-0.976629, 1, 97, 64, 352
-0.97664, 337, 1, 400, 375
-0.976652, 337, 137, 400, 200
-0.976662, 81, 65, 112, 192
-0.976804, 93, 145, 124, 208
-0.97689, 121, 33, 184, 288
-0.976911, 181, 145, 212, 272
-0.976945, 369, 121, 496, 184
-0.976975, 133, 129, 164, 256
-0.976979, 305, 209, 432, 272
-0.977028, 453, 129, 484, 256
-0.977051, 137, 217, 200, 280
-0.97714, 129, 121, 192, 184
-0.97715, 65, 233, 128, 296
-0.977204, 309, 113, 340, 176
-0.977218, 333, 161, 364, 288
-0.977231, 1, 185, 64, 248
-0.977308, 437, 113, 468, 240
-0.977336, 97, 121, 128, 184
-0.977339, 161, 33, 224, 288
-0.977376, 341, 81, 372, 208
-0.977409, 337, 241, 464, 304
-0.97741, 205, 161, 236, 288
-0.977422, 257, 265, 384, 328
-0.977491, 353, 33, 480, 96
-0.977515, 333, 121, 364, 184
-0.977574, 401, 1, 464, 375
-0.977628, 209, 1, 272, 256
-0.977636, 41, 305, 104, 368
-0.977661, 145, 153, 272, 216
-0.977687, 97, 169, 224, 232
-0.977745, 265, 121, 296, 184
-0.977803, 57, 185, 120, 248
-0.977858, 189, 105, 220, 168
-0.977947, 313, 153, 376, 216
-0.977964, 57, 241, 88, 368
-0.978068, 377, 177, 440, 240
-0.978093, 221, 177, 252, 304
-0.978147, 249, 121, 280, 184
-0.978149, 45, 129, 76, 192
-0.97815, 1, 97, 128, 160
-0.978188, 377, 1, 408, 64
-0.978222, 345, 233, 408, 296
-0.978257, 185, 265, 216, 328
-0.97826, 233, 161, 296, 288
-0.978263, 409, 129, 472, 375
-0.978275, 377, 33, 408, 96
-0.978277, 73, 129, 104, 192
-0.978307, 409, 257, 472, 320
-0.978315, 189, 225, 220, 288
-0.978315, 369, 17, 400, 144
-0.978362, 65, 81, 192, 144
-0.978368, 201, 65, 232, 192
-0.97837, 113, 1, 240, 128
-0.978406, 121, 129, 184, 375
-0.978433, 437, 233, 468, 296
-0.978468, 369, 73, 400, 136
-0.978477, 177, 273, 240, 336
-0.97848, 413, 113, 444, 176
-0.978558, 269, 49, 300, 176
-0.978624, 313, 129, 376, 375
-0.978653, 105, 73, 168, 136
-0.978669, 345, 177, 376, 304
-0.978688, 69, 249, 100, 312
-0.978699, 33, 289, 160, 352
-0.978785, 17, 57, 144, 120
-0.978785, 341, 241, 372, 368
-0.978798, 81, 273, 208, 336
-0.978878, 333, 217, 364, 280
-0.97892, 321, 209, 352, 336
-0.978921, 97, 105, 224, 168
-0.978938, 389, 73, 420, 136
-0.978975, 345, 57, 376, 120
-0.978999, 289, 33, 320, 96
-0.979007, 193, 201, 224, 264
-0.979039, 105, 273, 168, 336
-0.97907, 41, 33, 104, 288
-0.979088, 93, 81, 124, 208
-0.979119, 193, 57, 256, 120
-0.979122, 257, 81, 288, 144
-0.97914, 177, 193, 304, 256
-0.979191, 161, 297, 224, 360
-0.979204, 217, 81, 248, 144
-0.979238, 69, 241, 100, 368
-0.979244, 193, 145, 224, 272
-0.979285, 369, 201, 496, 264
-0.979369, 69, 81, 100, 144
-0.979381, 65, 17, 192, 144
-0.979437, 357, 49, 388, 112
-0.979513, 129, 145, 160, 208
-0.979515, 1, 1, 64, 256
-0.979555, 257, 1, 320, 375
-0.979556, 353, 273, 416, 336
-0.979586, 417, 49, 480, 112
-0.979643, 417, 145, 448, 208
-0.979645, 325, 65, 356, 128
-0.979655, 409, 73, 440, 136
-0.979703, 305, 265, 432, 328
-0.979729, 417, 97, 448, 224
-0.979757, 345, 121, 376, 184
-0.979809, 201, 249, 264, 312
-0.979827, 441, 185, 472, 248
-0.979833, 425, 121, 488, 184
-0.979846, 425, 121, 456, 184
-0.97988, 469, 145, 500, 272
-0.979954, 257, 57, 288, 120
-0.979966, 105, 81, 136, 208
-0.980033, 305, 1, 368, 375
-0.980078, 297, 217, 360, 280
-0.980084, 89, 297, 152, 360
-0.980135, 145, 217, 272, 280
-0.980156, 369, 1, 496, 64
-0.980229, 425, 81, 488, 144
-0.980301, 369, 241, 432, 368
-0.980306, 121, 129, 152, 256
-0.98032, 453, 145, 484, 208
-0.980331, 425, 1, 488, 64
-0.98035, 105, 145, 136, 208
-0.980368, 45, 81, 76, 208
-0.980374, 57, 65, 88, 192
-0.980415, 433, 1, 496, 375
-0.980418, 181, 145, 212, 208
-0.980499, 353, 73, 480, 136
-0.980531, 309, 113, 340, 240
-0.980558, 361, 65, 392, 192
-0.980565, 269, 97, 300, 224
-0.980661, 97, 33, 160, 160
-0.980667, 385, 49, 416, 176
-0.980671, 193, 1, 256, 375
-0.980676, 425, 249, 456, 312
-0.980681, 161, 137, 192, 200
-0.980756, 345, 129, 376, 256
-0.980774, 397, 41, 428, 104
-0.980803, 345, 145, 376, 208
-0.980819, 445, 193, 476, 320
-0.980829, 81, 49, 144, 112
-0.980853, 81, 97, 144, 160
-0.980881, 45, 145, 76, 272
-0.980883, 161, 241, 288, 304
-0.980896, 345, 209, 408, 272
-0.980945, 85, 145, 116, 272
-0.981002, 245, 81, 276, 144
-0.981006, 257, 241, 384, 304
-0.981131, 309, 1, 340, 128
-0.981146, 369, 97, 496, 160
-0.981272, 189, 169, 220, 232
-0.981281, 81, 217, 208, 280
-0.981303, 145, 81, 272, 144
-0.981306, 149, 81, 180, 208
-0.981368, 429, 161, 460, 288
-0.981387, 397, 113, 428, 240
-0.981389, 65, 33, 128, 288
-0.981398, 225, 177, 288, 240
-0.981462, 325, 97, 356, 224
-0.981465, 245, 49, 276, 176
-0.981466, 457, 177, 488, 304
-0.981488, 129, 193, 256, 256
-0.981498, 17, 241, 80, 368
-0.981574, 405, 145, 436, 208
-0.98162, 9, 105, 72, 168
-0.981685, 169, 1, 232, 128
-0.981685, 49, 33, 112, 160
-0.981816, 385, 129, 448, 375
-0.981847, 365, 25, 396, 88
-0.98196, 433, 1, 464, 128
-0.982, 277, 81, 308, 144
-0.982002, 33, 81, 64, 208
-0.982016, 309, 41, 340, 104
-0.982039, 133, 81, 164, 208
-0.982049, 1, 121, 128, 184
-0.982067, 89, 193, 152, 320
-0.982075, 281, 1, 344, 375
-0.982077, 1, 193, 64, 320
-0.982086, 313, 65, 344, 128
-0.982148, 45, 153, 76, 216
-0.982238, 321, 177, 384, 240
-0.982267, 249, 145, 280, 208
-0.982277, 321, 241, 352, 304
-0.982316, 45, 105, 76, 168
-0.98234, 177, 97, 208, 160
-0.982343, 1, 185, 32, 248
-0.982346, 33, 49, 96, 112
-0.982399, 105, 121, 168, 184
-0.982589, 313, 89, 344, 152
-0.982663, 225, 57, 256, 120
-0.982755, 145, 249, 208, 312
-0.982774, 249, 241, 312, 368
-0.982787, 37, 81, 68, 144
-0.982803, 337, 97, 400, 352
-0.982826, 377, 105, 408, 168
-0.982839, 285, 129, 316, 192
-0.982918, 193, 153, 320, 216
-0.982982, 409, 49, 440, 176
-0.983059, 73, 209, 136, 272
-0.983083, 29, 161, 60, 224
-0.983108, 437, 129, 468, 192
-0.983113, 221, 49, 252, 176
-0.983138, 41, 193, 104, 320
-0.983153, 9, 137, 72, 200
-0.983163, 233, 1, 296, 375
-0.983164, 205, 225, 236, 352
-0.983223, 433, 161, 464, 224
-0.983257, 25, 1, 88, 375
-0.983283, 465, 1, 496, 128
-0.98329, 365, 1, 396, 64
-0.983293, 369, 265, 496, 328
-0.983357, 73, 193, 104, 320
-0.983381, 465, 201, 496, 264
-0.983387, 209, 209, 336, 336
-0.983409, 117, 65, 148, 192
-0.983455, 81, 193, 208, 256
-0.983525, 217, 1, 280, 128
-0.983527, 57, 113, 88, 240
-0.983534, 217, 201, 280, 264
-0.983545, 341, 193, 372, 256
-0.983555, 49, 169, 176, 232
-0.983559, 433, 25, 496, 88
-0.983584, 53, 265, 84, 328
-0.983611, 333, 41, 364, 104
-0.983638, 417, 177, 448, 304
-0.983698, 205, 241, 236, 304
-0.983761, 445, 1, 476, 128
-0.983791, 257, 113, 288, 240
-0.983796, 257, 217, 384, 280
-0.983816, 393, 145, 424, 208
-0.98388, 145, 57, 272, 120
-0.983894, 245, 145, 276, 272
-0.983905, 197, 65, 228, 128
-0.983982, 353, 25, 384, 88
-0.984018, 117, 145, 148, 208
-0.984043, 237, 161, 268, 224
-0.984087, 185, 241, 216, 368
-0.98413, 169, 65, 200, 192
-0.9842, 433, 225, 464, 352
-0.98421, 321, 233, 384, 296
-0.98421, 1, 1, 64, 375
-0.984212, 73, 297, 104, 360
-0.984249, 233, 161, 264, 288
-0.984304, 89, 281, 120, 344
-0.984344, 97, 201, 160, 264
-0.984349, 397, 33, 428, 160
-0.984405, 337, 81, 368, 144
-0.984409, 1, 41, 64, 104
-0.984512, 1, 161, 32, 288
-0.984569, 85, 169, 116, 232
-0.984625, 361, 129, 424, 375
-0.984654, 121, 169, 184, 232
-0.984674, 241, 153, 368, 216
-0.984765, 105, 81, 136, 144
-0.984771, 65, 1, 128, 375
-0.984793, 297, 265, 360, 328
-0.984793, 381, 1, 412, 128
-0.984886, 17, 161, 48, 288
-0.984894, 289, 137, 416, 200
-0.984909, 449, 49, 480, 176
-0.984998, 17, 169, 48, 232
-0.985054, 85, 73, 116, 136
-0.985128, 389, 1, 420, 64
-0.98514, 421, 225, 452, 352
-0.985146, 233, 41, 296, 104
-0.985147, 49, 249, 176, 312
-0.985151, 105, 1, 168, 375
-0.985175, 349, 81, 380, 144
-0.985183, 9, 297, 72, 360
-0.985234, 329, 265, 360, 328
-0.985254, 353, 177, 384, 240
-0.985259, 145, 73, 208, 136
-0.985336, 385, 97, 416, 224
-0.985337, 409, 177, 440, 240
-0.985411, 33, 201, 96, 264
-0.985423, 297, 129, 328, 192
-0.985426, 81, 177, 144, 240
-0.985454, 89, 241, 152, 304
-0.985486, 333, 145, 364, 208
-0.985572, 97, 305, 224, 368
-0.985608, 169, 1, 232, 375
-0.985629, 461, 49, 492, 176
-0.985656, 193, 145, 224, 208
-0.985714, 377, 281, 440, 344
-0.985779, 193, 265, 320, 328
-0.98579, 429, 49, 460, 176
-0.985802, 57, 49, 120, 112
-0.985839, 281, 113, 312, 240
-0.985928, 337, 1, 368, 128
-0.98596, 193, 217, 320, 280
-0.985963, 245, 57, 276, 120
-0.985985, 193, 33, 320, 96
-0.986016, 465, 153, 496, 216
-0.986063, 213, 153, 244, 216
-0.986148, 209, 113, 240, 240
-0.986153, 53, 73, 84, 136
-0.986178, 401, 281, 464, 344
-0.986195, 273, 17, 336, 80
-0.986196, 33, 313, 160, 375
-0.986199, 321, 217, 352, 280
-0.986365, 33, 145, 64, 272
-0.986385, 321, 1, 352, 128
-0.986438, 113, 241, 240, 304
-0.986491, 221, 185, 252, 248
-0.986527, 357, 209, 388, 336
-0.986539, 225, 177, 352, 240
-0.986551, 353, 1, 384, 64
-0.986561, 153, 273, 216, 336
-0.986589, 265, 273, 328, 336
-0.98663, 357, 153, 388, 216
-0.986682, 61, 289, 92, 352
-0.986691, 65, 105, 320, 168
-0.986742, 401, 161, 432, 288
-0.986757, 365, 113, 396, 240
-0.986804, 453, 1, 484, 64
-0.98683, 261, 145, 292, 208
-0.98695, 89, 241, 120, 368
-0.986957, 297, 113, 328, 240
-0.987042, 345, 233, 376, 296
-0.987051, 417, 225, 448, 288
-0.987061, 321, 113, 352, 176
-0.98711, 373, 65, 404, 192
-0.987273, 413, 265, 444, 328
-0.987288, 21, 97, 52, 224
-0.98746, 389, 193, 420, 320
-0.987592, 221, 217, 252, 280
-0.987594, 41, 289, 72, 352
-0.987661, 373, 273, 404, 336
-0.987671, 393, 201, 424, 264
-0.987705, 145, 1, 208, 375
-0.987879, 429, 193, 460, 256
-0.987907, 1, 145, 256, 208
-0.987935, 1, 65, 32, 192
-0.987958, 341, 169, 372, 232
-0.987964, 161, 129, 416, 192
-0.988031, 297, 1, 328, 128
-0.988056, 469, 97, 500, 224
-0.9881, 185, 105, 248, 136
-0.988323, 225, 105, 480, 168
-0.988351, 281, 109, 344, 140
-0.98837, 189, 49, 220, 176
-0.988524, 209, 17, 240, 144
-0.98857, 97, 57, 224, 120
-0.988571, 417, 1, 448, 128
-0.988629, 121, 177, 184, 304
-0.988702, 57, 93, 120, 124
-0.988707, 49, 129, 112, 160
-0.988741, 5, 113, 36, 240
-0.988741, 57, 141, 120, 172
-0.988747, 169, 161, 200, 288
-0.988763, 1, 201, 128, 264
-0.988789, 193, 81, 448, 144
-0.988806, 289, 185, 416, 248
-0.988828, 145, 145, 208, 176
-0.989007, 145, 17, 208, 144
-0.989009, 233, 17, 264, 144
-0.989032, 241, 17, 368, 80
-0.98905, 73, 145, 104, 272
-0.989067, 57, 161, 88, 288
-0.98909, 357, 161, 388, 288
-0.989133, 425, 173, 488, 204
-0.98915, 209, 89, 272, 120
-0.989172, 345, 73, 408, 104
-0.989185, 97, 149, 160, 180
-0.989226, 241, 81, 304, 112
-0.989292, 305, 121, 368, 152
-0.989311, 469, 193, 500, 320
-0.989375, 161, 289, 288, 352
-0.989376, 233, 105, 296, 136
-0.989413, 45, 241, 76, 368
-0.98942, 173, 225, 204, 352
-0.989432, 281, 73, 344, 104
-0.989452, 321, 145, 352, 272
-0.989482, 285, 1, 316, 128
-0.989497, 161, 169, 224, 200
-0.989602, 345, 113, 408, 144
-0.989614, 177, 221, 240, 252
-0.98964, 65, 105, 128, 136
-0.989691, 289, 133, 352, 164
-0.989697, 305, 101, 368, 132
-0.989724, 377, 93, 440, 124
-0.989799, 377, 77, 440, 108
-0.989807, 57, 153, 120, 184
-0.989815, 329, 261, 392, 292
-0.989826, 201, 189, 264, 220
-0.989851, 401, 177, 464, 208
-0.989868, 65, 117, 128, 148
-0.989878, 385, 109, 448, 140
-0.990012, 321, 61, 384, 92
-0.990031, 249, 93, 312, 124
-0.990044, 25, 169, 88, 200
-0.990066, 433, 185, 496, 216
-0.99008, 265, 133, 328, 164
-0.990081, 81, 85, 144, 116
-0.990099, 281, 161, 344, 288
-0.990111, 33, 289, 96, 320
-0.990126, 401, 157, 464, 188
-0.990152, 17, 225, 144, 288
-0.990161, 377, 121, 440, 152
-0.990208, 281, 45, 344, 76
-0.99021, 193, 9, 320, 72
-0.990213, 233, 125, 296, 156
-0.990251, 121, 149, 184, 180
-0.990272, 153, 157, 216, 188
-0.990276, 281, 89, 344, 120
-0.990279, 5, 1, 36, 128
-0.990283, 233, 69, 296, 100
-0.990301, 273, 121, 336, 152
-0.990302, 353, 85, 416, 116
-0.990323, 33, 81, 288, 144
-0.990324, 209, 101, 272, 132
-0.990329, 193, 153, 256, 184
-0.990338, 193, 201, 256, 232
-0.990344, 313, 225, 376, 256
-0.990356, 417, 197, 480, 228
-0.990367, 57, 81, 120, 112
-0.990371, 361, 145, 424, 176
-0.990377, 25, 101, 88, 132
-0.990384, 305, 89, 368, 120
-0.990413, 345, 61, 408, 92
-0.990422, 161, 129, 224, 160
-0.990436, 305, 289, 432, 352
-0.990438, 369, 65, 432, 96
-0.990448, 401, 209, 432, 336
-0.99045, 345, 29, 408, 60
-0.990511, 33, 81, 96, 112
-0.990538, 369, 241, 400, 368
-0.990554, 177, 241, 240, 272
-0.990588, 321, 77, 384, 108
-0.990663, 225, 41, 480, 104
-0.990666, 345, 1, 408, 32
-0.990671, 81, 133, 144, 164
-0.990682, 305, 49, 368, 80
-0.990697, 433, 233, 496, 264
-0.990702, 361, 49, 424, 80
-0.990714, 177, 253, 240, 284
-0.990722, 161, 153, 416, 216
-0.990731, 221, 1, 252, 128
-0.990733, 369, 289, 496, 352
-0.990755, 305, 245, 368, 276
-0.990755, 377, 181, 440, 212
-0.990757, 65, 265, 128, 296
-0.990768, 249, 145, 312, 176
-0.990771, 185, 177, 248, 208
-0.990772, 409, 249, 472, 280
-0.990794, 425, 153, 488, 184
-0.990816, 393, 193, 456, 224
-0.990838, 321, 273, 384, 304
-0.990849, 169, 117, 232, 148
-0.990864, 265, 61, 328, 92
-0.99088, 65, 277, 128, 308
-0.990889, 185, 93, 248, 124
-0.99091, 297, 61, 360, 92
-0.990927, 193, 117, 256, 148
-0.990962, 129, 241, 192, 368
-0.990969, 337, 249, 400, 280
-0.990987, 337, 101, 400, 132
-0.990994, 41, 301, 104, 332
-0.991021, 145, 265, 272, 328
-0.991025, 65, 289, 128, 320
-0.991032, 337, 45, 400, 76
-0.991033, 385, 145, 448, 176
-0.991043, 65, 301, 128, 332
-0.991045, 409, 137, 472, 168
-0.991049, 433, 245, 496, 276
-0.991066, 1, 145, 500, 208
-0.991088, 377, 157, 440, 188
-0.991092, 297, 33, 360, 64
-0.991095, 401, 125, 464, 156
-0.991095, 313, 213, 376, 244
-0.991097, 209, 73, 272, 104
-0.991112, 69, 49, 100, 176
-0.991122, 329, 145, 392, 176
-0.991137, 41, 117, 104, 148
-0.991145, 29, 241, 60, 368
-0.991162, 57, 173, 120, 204
-0.991169, 33, 157, 96, 188
-0.991178, 329, 125, 392, 156
-0.991187, 73, 317, 136, 348
-0.991201, 369, 37, 432, 68
-0.991203, 97, 101, 160, 132
-0.991206, 201, 165, 264, 196
-0.991221, 417, 261, 480, 292
-0.991239, 377, 269, 440, 300
-0.991253, 145, 33, 272, 96
-0.991256, 401, 73, 464, 104
-0.991265, 209, 233, 272, 264
-0.99127, 97, 165, 160, 196
-0.991281, 417, 89, 480, 120
-0.991302, 17, 181, 80, 212
-0.99132, 353, 189, 416, 220
-0.991334, 417, 209, 480, 240
-0.991343, 145, 225, 208, 256
-0.991343, 177, 265, 240, 296
-0.991355, 257, 49, 320, 80
-0.991356, 145, 113, 208, 144
-0.991371, 321, 25, 384, 56
-0.991395, 313, 5, 376, 36
-0.991402, 137, 133, 200, 164
-0.991425, 377, 169, 440, 200
-0.991425, 409, 221, 472, 252
-0.99147, 289, 265, 352, 296
-0.991473, 289, 161, 416, 224
-0.991486, 273, 1, 304, 128
-0.991503, 393, 33, 456, 64
-0.991506, 81, 69, 144, 100
-0.991512, 1, 193, 64, 224
-0.991524, 353, 281, 416, 312
-0.991526, 209, 177, 272, 208
-0.99153, 377, 245, 440, 276
-0.991554, 257, 17, 288, 144
-0.991688, 33, 33, 160, 96
-0.991799, 129, 57, 384, 120
-0.991984, 129, 217, 384, 280
-0.992005, 341, 261, 372, 292
-0.992018, 209, 241, 336, 304
-0.992051, 385, 109, 416, 140
-0.992116, 1, 73, 500, 136
-0.992125, 217, 89, 248, 120
-0.992137, 257, 289, 384, 352
-0.992219, 193, 241, 448, 304
-0.992221, 457, 173, 488, 204
-0.992234, 449, 193, 480, 224
-0.992246, 85, 193, 116, 320
-0.992253, 1, 41, 500, 104
-0.992296, 1, 169, 500, 232
-0.992306, 161, 193, 416, 256
-0.992314, 217, 225, 248, 352
-0.992323, 409, 105, 440, 136
-0.992336, 293, 105, 324, 136
-0.992351, 229, 89, 260, 120
-0.992381, 321, 105, 352, 136
-0.992385, 57, 125, 88, 156
-0.992388, 45, 161, 76, 192
-0.992407, 85, 89, 116, 120
-0.99242, 89, 129, 120, 160
-0.992431, 469, 185, 500, 216
-0.992435, 309, 93, 340, 124
-0.992445, 409, 149, 440, 180
-0.992457, 1, 265, 256, 328
-0.99246, 173, 117, 204, 148
-0.992464, 349, 77, 380, 108
-0.992477, 1, 57, 256, 120
-0.992489, 273, 77, 304, 108
-0.9925, 169, 133, 200, 164
-0.992512, 85, 117, 116, 148
-0.99252, 257, 129, 500, 192
-0.992526, 153, 149, 184, 180
-0.992539, 1, 97, 500, 160
-0.992545, 205, 189, 236, 220
-0.992547, 129, 149, 160, 180
-0.992553, 189, 109, 220, 140
-0.992556, 53, 93, 84, 124
-0.992565, 73, 105, 104, 136
-0.992572, 309, 129, 340, 160
-0.992572, 273, 89, 304, 120
-0.992582, 213, 101, 244, 132
-0.992587, 253, 69, 284, 100
-0.992589, 49, 281, 80, 312
-0.992594, 433, 173, 464, 204
-0.992601, 369, 69, 400, 100
-0.992601, 397, 109, 428, 140
-0.992624, 257, 17, 500, 80
-0.992633, 177, 105, 208, 136
-0.992646, 69, 261, 100, 292
-0.992648, 329, 81, 360, 112
-0.992653, 53, 109, 84, 140
-0.992656, 421, 169, 452, 200
-0.992656, 333, 121, 364, 152
-0.992658, 253, 149, 284, 180
-0.992666, 397, 93, 428, 124
-0.992671, 209, 101, 336, 132
-0.992678, 345, 169, 376, 200
-0.99268, 193, 173, 224, 204
-0.992681, 409, 173, 440, 204
-0.992682, 465, 205, 496, 236
-0.992683, 357, 65, 388, 96
-0.992688, 29, 169, 60, 200
-0.992694, 293, 133, 324, 164
-0.992706, 181, 157, 212, 188
-0.992709, 269, 141, 300, 172
-0.992717, 289, 41, 320, 72
-0.992717, 241, 81, 272, 112
-0.992718, 85, 141, 116, 172
-0.992722, 393, 77, 424, 108
-0.992723, 237, 101, 268, 132
-0.992725, 97, 97, 128, 128
-0.992725, 189, 241, 220, 272
-0.992735, 253, 81, 284, 112
-0.992743, 337, 69, 368, 100
-0.992743, 1, 193, 500, 256
-0.992752, 329, 249, 360, 280
-0.992759, 177, 145, 208, 176
-0.992761, 321, 69, 352, 100
-0.992763, 101, 85, 132, 116
-0.992764, 65, 137, 96, 168
-0.992765, 265, 125, 296, 156
-0.992766, 77, 129, 108, 160
-0.992766, 345, 117, 376, 148
-0.992771, 65, 81, 96, 112
-0.992777, 69, 117, 100, 148
-0.992778, 101, 149, 132, 180
-0.992784, 201, 201, 232, 232
-0.992788, 281, 137, 312, 168
-0.992811, 369, 81, 400, 112
-0.992816, 345, 153, 376, 184
-0.992819, 309, 117, 340, 148
-0.99282, 185, 281, 216, 312
-0.992822, 333, 149, 364, 180
-0.992825, 205, 89, 236, 120
-0.992825, 229, 77, 260, 108
-0.992827, 429, 185, 460, 216
-0.992834, 453, 217, 484, 248
-0.992837, 337, 57, 368, 88
-0.992839, 369, 29, 400, 60
-0.992841, 469, 161, 500, 192
-0.992841, 197, 1, 228, 128
-0.992842, 289, 93, 320, 124
-0.992846, 421, 157, 452, 188
-0.992851, 353, 41, 384, 72
-0.992855, 329, 93, 360, 124
-0.992859, 421, 253, 452, 284
-0.992861, 381, 73, 412, 104
-0.992868, 253, 133, 284, 164
-0.992873, 409, 77, 440, 108
-0.992877, 49, 149, 176, 180
-0.992889, 421, 121, 452, 152
-0.99289, 377, 121, 408, 152
-0.992891, 201, 105, 232, 136
-0.992893, 453, 205, 484, 236
-0.992899, 409, 93, 440, 124
-0.992899, 469, 173, 500, 204
-0.9929, 185, 261, 216, 292
-0.992902, 393, 121, 424, 152
-0.992903, 393, 145, 424, 176
-0.992905, 73, 93, 104, 124
-0.992907, 321, 217, 352, 248
-0.992909, 345, 201, 376, 232
-0.99291, 361, 101, 392, 132
-0.992911, 445, 233, 476, 264
-0.992914, 141, 149, 172, 180
-0.992918, 369, 57, 400, 88
-0.992922, 377, 93, 408, 124
-0.992923, 17, 181, 48, 212
-0.992927, 101, 137, 132, 168
-0.99293, 85, 105, 116, 136
-0.992933, 273, 61, 304, 92
-0.992937, 345, 249, 376, 280
-0.99294, 333, 213, 364, 244
-0.99294, 113, 149, 144, 180
-0.992941, 321, 117, 352, 148
-0.992943, 33, 241, 288, 304
-0.99295, 281, 109, 312, 140
-0.992952, 277, 121, 308, 152
-0.992954, 289, 69, 320, 100
-0.992972, 397, 41, 428, 72
-0.992972, 333, 137, 364, 168
-0.992976, 361, 1, 392, 32
-0.992978, 413, 185, 444, 216
-0.992985, 341, 89, 372, 120
-0.992986, 349, 105, 380, 136
-0.992987, 41, 89, 72, 120
-0.992987, 345, 181, 376, 212
-0.993023, 1, 169, 256, 232
-0.993092, 305, 85, 432, 116
-0.993121, 193, 85, 320, 116
-0.993154, 145, 313, 272, 375
-0.993239, 105, 33, 136, 160
-0.993297, 109, 241, 140, 368
-0.993302, 305, 113, 432, 144
-0.99332, 225, 117, 352, 148
-0.993322, 33, 217, 288, 280
-0.99333, 305, 97, 432, 128
-0.993387, 161, 1, 416, 64
-0.99341, 177, 113, 304, 144
-0.993414, 241, 137, 368, 168
-0.993431, 1, 17, 500, 80
-0.993475, 187, 105, 202, 168
-0.993489, 17, 17, 48, 144
-0.993511, 247, 81, 262, 144
-0.993519, 327, 65, 342, 128
-0.993539, 1, 121, 500, 184
-0.993642, 225, 217, 480, 280
-0.993668, 97, 145, 224, 176
-0.993673, 141, 177, 172, 304
-0.993801, 67, 97, 82, 160
-0.993803, 381, 241, 412, 368
-0.993841, 273, 73, 400, 104
-0.99399, 129, 33, 384, 96
-0.994003, 321, 145, 448, 176
-0.994007, 257, 153, 500, 216
-0.994015, 1, 97, 128, 128
-0.994019, 177, 129, 304, 160
-0.99402, 61, 105, 76, 168
-0.994065, 321, 65, 448, 96
-0.994074, 251, 121, 266, 184
-0.994119, 321, 257, 448, 288
-0.994132, 97, 145, 112, 208
-0.994136, 457, 185, 472, 248
-0.994163, 257, 105, 384, 136
-0.994176, 259, 129, 274, 192
-0.994181, 351, 249, 366, 312
-0.994233, 145, 149, 272, 180
-0.994268, 101, 121, 116, 184
-0.994269, 145, 173, 272, 204
-0.994275, 77, 105, 92, 168
-0.99431, 291, 105, 306, 168
-0.994329, 59, 129, 74, 192
-0.99434, 205, 169, 220, 232
-0.99435, 241, 85, 368, 116
-0.994395, 113, 161, 240, 192
-0.994402, 189, 265, 204, 328
-0.994408, 73, 1, 136, 128
-0.994435, 151, 145, 166, 208
-0.99444, 17, 169, 144, 200
-0.994457, 97, 265, 352, 328
-0.994459, 465, 169, 480, 232
-0.99447, 257, 265, 500, 328
-0.994474, 281, 113, 296, 176
-0.994504, 33, 129, 160, 160
-0.99451, 195, 105, 210, 168
-0.994518, 413, 113, 428, 176
-0.994539, 241, 149, 368, 180
-0.994584, 189, 129, 204, 192
-0.994588, 339, 249, 354, 312
-0.994602, 345, 121, 360, 184
-0.994626, 471, 177, 486, 240
-0.994634, 239, 89, 254, 152
-0.994658, 53, 121, 68, 184
-0.994664, 271, 121, 286, 184
-0.994667, 289, 5, 416, 36
-0.994679, 313, 105, 328, 168
-0.994684, 337, 185, 464, 216
-0.99471, 107, 145, 122, 208
-0.994732, 179, 113, 194, 176
-0.994739, 289, 25, 416, 56
-0.99475, 389, 1, 404, 64
-0.994778, 225, 69, 352, 100
-0.994799, 345, 257, 360, 320
-0.994802, 371, 49, 386, 112
-0.994803, 321, 97, 336, 160
-0.99482, 1, 109, 128, 140
-0.994923, 1, 273, 500, 336
-0.994931, 33, 33, 288, 96
-0.994952, 1, 181, 128, 212
-0.994978, 145, 217, 272, 248
-0.994998, 293, 1, 324, 256
-0.995043, 97, 33, 224, 96
-0.995071, 163, 137, 178, 200
-0.995073, 297, 105, 312, 168
-0.995075, 141, 145, 156, 208
-0.995101, 1, 217, 500, 280
-0.995107, 87, 105, 102, 168
-0.995109, 145, 101, 272, 132
-0.995123, 71, 257, 86, 320
-0.995184, 307, 105, 322, 168
-0.995188, 33, 85, 160, 116
-0.99519, 305, 133, 432, 164
-0.995201, 1, 289, 256, 352
-0.995207, 161, 161, 288, 192
-0.995214, 17, 297, 144, 328
-0.995215, 157, 145, 172, 208
-0.995218, 91, 169, 106, 232
-0.995222, 97, 105, 224, 136
-0.99523, 273, 269, 400, 300
-0.995231, 33, 273, 160, 304
-0.995247, 337, 173, 464, 204
-0.995272, 279, 49, 294, 112
-0.995272, 369, 153, 496, 184
-0.99528, 91, 129, 106, 192
-0.995287, 301, 33, 316, 96
-0.99529, 383, 41, 398, 104
-0.99529, 257, 45, 384, 76
-0.995291, 215, 233, 230, 296
-0.995293, 387, 113, 402, 176
-0.995296, 421, 153, 436, 216
-0.995303, 375, 73, 390, 136
-0.995303, 67, 121, 82, 184
-0.995305, 299, 65, 314, 128
-0.995316, 369, 313, 496, 375
-0.995327, 369, 73, 496, 104
-0.995331, 427, 145, 442, 208
-0.995335, 253, 97, 268, 160
-0.995338, 457, 209, 472, 272
-0.995339, 409, 145, 424, 208
-0.995346, 427, 113, 442, 176
-0.995346, 193, 313, 320, 375
-0.995353, 193, 217, 208, 280
-0.995369, 199, 169, 214, 232
-0.995374, 265, 121, 280, 184
-0.99538, 349, 57, 364, 120
-0.995411, 245, 121, 260, 184
-0.995435, 191, 241, 206, 304
-0.99544, 321, 33, 352, 288
-0.995446, 223, 65, 238, 128
-0.995449, 321, 209, 448, 240
-0.995451, 77, 81, 92, 144
-0.995453, 209, 193, 224, 256
-0.995456, 339, 57, 354, 120
-0.995467, 233, 81, 248, 144
-0.995467, 399, 97, 414, 160
-0.995472, 377, 1, 392, 64
-0.995472, 199, 201, 214, 264
-0.995473, 351, 161, 366, 224
-0.995483, 321, 53, 448, 84
-0.99549, 305, 1, 336, 256
-0.995501, 451, 193, 466, 256
-0.995501, 461, 145, 476, 208
-0.995521, 427, 249, 442, 312
-0.995539, 87, 81, 102, 144
-0.99554, 51, 97, 66, 160
-0.995543, 447, 225, 462, 288
-0.995552, 211, 169, 226, 232
-0.995553, 351, 185, 366, 248
-0.995554, 333, 65, 348, 128
-0.995556, 399, 41, 414, 104
-0.995557, 81, 221, 208, 252
-0.995558, 347, 81, 362, 144
-0.995559, 169, 129, 200, 375
-0.995571, 385, 81, 400, 144
-0.995581, 335, 89, 350, 152
-0.99559, 173, 121, 188, 184
-0.995611, 405, 73, 420, 136
-0.995623, 405, 113, 420, 176
-0.995635, 479, 161, 494, 224
-0.99564, 97, 169, 112, 232
-0.995646, 315, 65, 330, 128
-0.995646, 191, 81, 206, 144
-0.995649, 437, 241, 452, 304
-0.995653, 337, 121, 352, 184
-0.995657, 381, 113, 396, 176
-0.99566, 333, 241, 348, 304
-0.995679, 453, 1, 484, 256
-0.995681, 341, 81, 356, 144
-0.995692, 397, 73, 412, 136
-0.995692, 1, 285, 128, 316
-0.995694, 359, 65, 374, 128
-0.995696, 85, 129, 100, 192
-0.995708, 257, 193, 500, 256
-0.995714, 1, 141, 128, 172
-0.995716, 1, 1, 128, 64
-0.995717, 463, 201, 478, 264
-0.995717, 395, 1, 410, 64
-0.995726, 189, 97, 220, 352
-0.995729, 241, 57, 368, 88
-0.995732, 43, 161, 58, 224
-0.99574, 369, 197, 496, 228
-0.995749, 345, 225, 360, 288
-0.995752, 195, 145, 210, 208
-0.995755, 239, 121, 254, 184
-0.995758, 319, 121, 334, 184
-0.995763, 161, 241, 288, 272
-0.995785, 177, 197, 304, 228
-0.995798, 59, 153, 74, 216
-0.995804, 419, 113, 434, 176
-0.995809, 345, 1, 376, 256
-0.995812, 353, 125, 480, 156
-0.995839, 383, 1, 398, 64
-0.995842, 129, 73, 256, 104
-0.995847, 291, 129, 306, 192
-0.995852, 333, 33, 364, 288
-0.995854, 327, 89, 342, 152
-0.99586, 107, 121, 122, 184
-0.995868, 67, 65, 82, 128
-0.99587, 369, 21, 496, 52
-0.995892, 393, 105, 408, 168
-0.995906, 433, 153, 448, 216
-0.995907, 181, 137, 196, 200
-0.995909, 485, 185, 500, 248
-0.995916, 17, 69, 144, 100
-0.995951, 351, 225, 366, 288
-0.995953, 343, 153, 358, 216
-0.995957, 59, 81, 74, 144
-0.995957, 455, 161, 470, 224
-0.995957, 97, 173, 224, 204
-0.99596, 369, 97, 496, 128
-0.995964, 393, 49, 408, 112
-0.99597, 345, 185, 360, 248
-0.995972, 65, 117, 192, 148
-0.995977, 1, 241, 500, 304
-0.995979, 369, 45, 496, 76
-0.995979, 73, 129, 104, 375
-0.996, 281, 1, 312, 256
-0.996002, 99, 81, 114, 144
-0.996015, 435, 121, 450, 184
-0.996018, 299, 129, 314, 192
-0.996041, 467, 1, 482, 64
-0.996046, 209, 289, 336, 352
-0.996051, 289, 41, 304, 104
-0.99608, 81, 133, 208, 164
-0.996087, 33, 193, 288, 256
-0.99611, 369, 249, 496, 280
-0.996117, 321, 157, 448, 188
-0.996134, 193, 149, 320, 180
-0.996134, 113, 233, 240, 264
-0.996188, 257, 289, 500, 352
-0.996199, 321, 197, 448, 228
-0.996219, 113, 1, 240, 64
-0.996239, 305, 221, 432, 252
-0.996264, 161, 229, 288, 260
-0.99627, 65, 289, 192, 320
-0.996272, 5, 65, 36, 320
-0.996278, 177, 69, 304, 100
-0.996284, 105, 65, 136, 320
-0.996287, 65, 309, 192, 340
-0.996293, 257, 1, 288, 256
-0.996318, 93, 65, 124, 320
-0.996318, 129, 197, 256, 228
-0.996357, 1, 157, 128, 188
-0.996362, 369, 209, 496, 240
-0.996384, 201, 65, 232, 320
-0.996398, 237, 1, 268, 256
-0.996404, 225, 161, 352, 192
-0.996405, 465, 1, 496, 256
-0.996414, 193, 57, 320, 88
-0.996421, 49, 261, 176, 292
-0.996438, 1, 193, 128, 224
-0.996452, 325, 129, 356, 375
-0.996474, 81, 277, 208, 308
-0.996479, 433, 1, 464, 256
-0.996479, 369, 233, 496, 264
-0.99648, 353, 113, 480, 144
-0.996482, 241, 249, 368, 280
-0.996508, 459, 197, 474, 228
-0.996512, 353, 1, 480, 32
-0.996556, 65, 161, 192, 192
-0.996558, 321, 237, 448, 268
-0.996569, 133, 65, 164, 320
-0.996576, 97, 185, 224, 216
-0.996579, 49, 101, 176, 132
-0.996581, 369, 141, 496, 172
-0.996629, 353, 269, 480, 300
-0.996645, 129, 89, 256, 120
-0.996656, 17, 309, 144, 340
-0.996664, 369, 61, 496, 92
-0.996733, 257, 193, 320, 320
-0.996739, 305, 281, 432, 312
-0.996752, 305, 37, 432, 68
-0.99676, 17, 65, 48, 320
-0.996798, 353, 85, 480, 116
-0.996798, 257, 313, 384, 375
-0.996803, 49, 209, 176, 240
-0.996808, 417, 97, 448, 352
-0.996809, 97, 297, 352, 360
-0.996819, 269, 1, 300, 256
-0.996833, 369, 33, 496, 64
-0.996852, 217, 33, 248, 288
-0.996893, 221, 89, 236, 120
-0.996894, 129, 117, 256, 148
-0.99693, 117, 65, 148, 320
-0.996943, 309, 97, 340, 352
-0.996948, 153, 129, 184, 375
-0.996969, 193, 177, 320, 208
-0.99698, 241, 237, 368, 268
-0.996981, 149, 33, 180, 288
-0.997008, 399, 105, 414, 136
-0.997023, 49, 129, 80, 375
-0.997026, 1, 297, 500, 360
-0.99703, 49, 321, 176, 352
-0.99704, 191, 105, 206, 136
-0.997045, 1, 313, 256, 375
-0.997047, 437, 97, 468, 352
-0.997054, 385, 1, 416, 256
-0.997073, 229, 129, 260, 375
-0.997079, 397, 1, 428, 256
-0.99708, 349, 253, 364, 284
-0.997082, 341, 129, 372, 375
-0.997111, 353, 221, 480, 252
-0.997121, 1, 1, 256, 64
-0.997122, 357, 1, 388, 256
-0.997133, 165, 33, 196, 288
-0.997136, 461, 209, 476, 240
-0.997144, 81, 77, 208, 108
-0.997151, 369, 1, 400, 256
-0.997158, 387, 109, 402, 140
-0.997163, 65, 61, 192, 92
-0.99718, 227, 85, 242, 116
-0.997182, 417, 1, 448, 256
-0.9972, 233, 89, 248, 120
-0.997214, 87, 129, 102, 160
-0.997231, 29, 129, 60, 375
-0.997263, 451, 185, 466, 216
-0.997277, 185, 113, 200, 144
-0.997278, 277, 97, 308, 352
-0.997321, 319, 101, 334, 132
-0.997321, 49, 181, 176, 212
-0.997326, 81, 249, 208, 280
-0.997332, 297, 97, 328, 352
-0.997338, 345, 73, 360, 104
-0.997341, 249, 81, 264, 112
-0.997354, 191, 145, 206, 176
-0.997363, 61, 65, 92, 320
-0.997364, 275, 125, 290, 156
-0.997368, 375, 81, 390, 112
-0.997372, 55, 145, 70, 176
-0.997375, 253, 129, 284, 375
-0.997378, 99, 85, 114, 116
-0.99738, 427, 261, 442, 292
-0.997384, 369, 281, 496, 312
-0.997402, 161, 253, 288, 284
-0.997405, 461, 97, 492, 352
-0.997409, 323, 113, 338, 144
-0.997411, 295, 97, 310, 128
-0.997413, 185, 133, 200, 164
-0.997428, 65, 93, 80, 124
-0.997434, 467, 201, 482, 232
-0.997436, 419, 145, 434, 176
-0.997442, 265, 129, 296, 375
-0.997443, 97, 209, 224, 240
-0.997448, 99, 117, 114, 148
-0.997453, 97, 177, 112, 208
-0.997469, 105, 149, 120, 180
-0.997469, 343, 257, 358, 288
-0.997471, 341, 269, 356, 300
-0.997472, 209, 209, 336, 240
-0.997473, 347, 117, 362, 148
-0.997487, 177, 33, 208, 288
-0.997493, 143, 149, 158, 180
-0.997502, 81, 33, 112, 288
-0.997506, 101, 133, 116, 164
-0.997521, 425, 173, 440, 204
-0.99753, 65, 113, 80, 144
-0.997533, 225, 225, 352, 256
-0.997546, 409, 97, 424, 128
-0.997556, 311, 109, 326, 140
-0.997567, 105, 97, 120, 128
-0.997574, 453, 197, 468, 228
-0.997584, 95, 129, 110, 160
-0.997585, 209, 193, 224, 224
-0.997589, 75, 117, 90, 148
-0.997594, 455, 221, 470, 252
-0.9976, 209, 45, 336, 76
-0.99762, 193, 273, 320, 304
-0.99762, 419, 173, 434, 204
-0.997622, 201, 109, 216, 140
-0.997626, 335, 149, 350, 180
-0.997631, 327, 89, 342, 120
-0.997633, 449, 233, 464, 264
-0.997645, 411, 109, 426, 140
-0.997646, 257, 177, 384, 208
-0.997648, 1, 205, 128, 236
-0.997653, 457, 185, 472, 216
-0.997665, 263, 133, 278, 164
-0.997671, 333, 85, 348, 116
-0.997674, 373, 65, 388, 96
-0.997678, 449, 97, 480, 352
-0.997679, 229, 109, 244, 140
-0.997679, 145, 185, 272, 216
-0.997683, 201, 205, 216, 236
-0.997685, 477, 173, 492, 204
-0.997686, 425, 149, 440, 180
-0.997688, 433, 253, 448, 284
-0.997702, 93, 89, 108, 120
-0.997711, 59, 161, 74, 192
-0.997715, 57, 89, 72, 120
-0.997719, 269, 129, 284, 160
-0.99772, 287, 89, 302, 120
-0.997736, 53, 161, 68, 192
-0.997739, 317, 121, 332, 152
-0.99774, 189, 273, 204, 304
-0.997752, 243, 85, 258, 116
-0.997758, 81, 89, 208, 120
-0.997759, 47, 165, 62, 196
-0.99776, 29, 33, 60, 288
-0.997763, 177, 117, 192, 148
-0.997775, 367, 77, 382, 108
-0.997776, 383, 73, 398, 104
-0.997777, 421, 89, 436, 120
-0.997779, 415, 161, 430, 192
-0.99778, 285, 137, 300, 168
-0.997784, 395, 201, 410, 232
-0.997786, 149, 149, 164, 180
-0.997788, 469, 181, 484, 212
-0.997792, 241, 129, 272, 375
-0.997792, 405, 113, 420, 144
-0.997792, 99, 97, 114, 128
-0.997794, 41, 169, 56, 200
-0.997799, 1, 321, 128, 352
-0.997807, 393, 105, 408, 136
-0.997815, 301, 101, 316, 132
-0.997816, 239, 101, 254, 132
-0.997816, 273, 81, 288, 112
-0.997818, 335, 277, 350, 308
-0.997819, 295, 133, 310, 164
-0.997822, 349, 85, 364, 116
-0.997822, 425, 101, 440, 132
-0.997823, 289, 77, 304, 108
-0.997832, 89, 141, 104, 172
-0.997833, 369, 93, 384, 124
-0.997837, 205, 173, 220, 204
-0.997841, 329, 69, 344, 100
-0.997849, 189, 1, 220, 256
-0.99785, 255, 81, 270, 112
-0.997852, 155, 149, 170, 180
-0.997861, 227, 97, 242, 128
-0.997867, 95, 149, 110, 180
-0.997868, 29, 177, 44, 208
-0.997879, 277, 141, 292, 172
-0.997883, 129, 61, 256, 92
-0.997886, 57, 129, 72, 160
-0.99789, 303, 37, 318, 68
-0.99789, 35, 173, 50, 204
-0.99789, 439, 245, 454, 276
-0.997893, 1, 261, 128, 292
-0.997896, 195, 213, 210, 244
-0.997897, 349, 161, 364, 192
-0.997897, 257, 281, 384, 312
-0.997897, 353, 177, 368, 208
-0.9979, 177, 33, 304, 64
-0.997902, 217, 129, 248, 375
-0.997906, 383, 121, 398, 152
-0.997907, 453, 209, 468, 240
-0.99791, 429, 161, 444, 192
-0.99791, 397, 117, 412, 148
-0.997912, 415, 97, 430, 128
-0.997914, 95, 189, 110, 220
-0.997916, 211, 177, 226, 208
-0.997918, 105, 85, 120, 116
-0.997918, 43, 297, 58, 328
-0.997925, 219, 189, 234, 220
-0.997935, 269, 145, 284, 176
-0.997935, 369, 293, 496, 324
-0.997938, 311, 129, 326, 160
-0.997942, 81, 129, 96, 160
-0.997942, 401, 81, 416, 112
-0.997947, 77, 81, 92, 112
-0.997948, 325, 101, 340, 132
-0.997954, 347, 241, 362, 272
-0.997965, 137, 149, 152, 180
-0.997967, 471, 169, 486, 200
-0.997968, 49, 237, 176, 268
-0.997971, 373, 29, 388, 60
-0.997972, 413, 149, 428, 180
-0.997978, 281, 85, 296, 116
-0.998003, 257, 293, 384, 324
-0.998009, 225, 1, 352, 32
-0.998032, 97, 261, 224, 292
-0.998034, 273, 197, 400, 228
-0.998046, 113, 305, 240, 336
-0.998082, 1, 225, 128, 256
-0.998085, 361, 97, 392, 352
-0.998314, 49, 33, 80, 288
-0.998391, 185, 109, 248, 124
-0.998397, 397, 97, 428, 352
-0.998426, 229, 85, 260, 100
-0.998427, 333, 277, 364, 292
-0.998428, 85, 83, 116, 98
-0.998428, 289, 113, 320, 128
-0.998428, 437, 195, 468, 210
-0.998429, 193, 207, 224, 222
-0.998429, 49, 281, 80, 296
-0.998429, 453, 223, 484, 238
-0.998429, 337, 75, 368, 90
-0.99843, 241, 89, 272, 104
-0.99843, 253, 123, 284, 138
-0.998431, 361, 33, 392, 48
-0.998432, 469, 187, 500, 202
-0.998432, 265, 147, 296, 162
-0.998432, 301, 113, 332, 128
-0.998433, 57, 101, 88, 116
-0.998433, 237, 125, 268, 140
-0.998434, 409, 117, 440, 132
-0.998435, 129, 151, 160, 166
-0.998435, 29, 297, 60, 312
-0.998435, 405, 173, 436, 188
-0.998435, 289, 101, 320, 116
-0.998436, 413, 261, 444, 276
-0.998436, 173, 165, 204, 180
-0.998436, 329, 109, 360, 124
-0.998438, 417, 153, 448, 168
-0.998439, 177, 111, 208, 126
-0.998439, 61, 111, 92, 126
-0.99844, 49, 133, 112, 148
-0.998441, 353, 1, 384, 16
-0.998441, 193, 221, 224, 236
-0.998442, 53, 95, 84, 110
-0.998442, 393, 145, 424, 160
-0.998443, 161, 147, 192, 162
-0.998445, 233, 101, 264, 116
-0.998445, 141, 151, 172, 166
-0.998446, 373, 85, 404, 100
-0.998447, 429, 255, 460, 270
-0.998447, 373, 7, 404, 22
-0.998447, 365, 27, 396, 42
-0.998449, 241, 81, 304, 96
-0.99845, 417, 177, 480, 192
-0.99845, 353, 155, 384, 170
-0.998451, 469, 207, 500, 222
-0.998451, 253, 75, 284, 90
-0.998451, 377, 115, 440, 130
-0.998452, 33, 173, 64, 188
-0.998452, 209, 89, 272, 104
-0.998453, 449, 191, 480, 206
-0.998454, 429, 173, 460, 188
-0.998454, 185, 255, 216, 270
-0.998455, 297, 133, 328, 148
-0.998457, 97, 149, 128, 164
-0.998457, 85, 109, 116, 124
-0.998457, 381, 73, 412, 88
-0.998458, 285, 137, 316, 152
-0.998458, 441, 205, 472, 220
-0.998459, 405, 109, 436, 124
-0.998459, 185, 263, 216, 278
-0.99846, 281, 103, 344, 118
-0.99846, 57, 145, 120, 160
-0.998461, 41, 127, 104, 142
-0.998461, 181, 153, 212, 168
-0.998461, 417, 165, 448, 180
-0.998462, 369, 147, 400, 162
-0.998462, 217, 97, 248, 112
-0.998463, 413, 185, 444, 200
-0.998464, 341, 89, 372, 104
-0.998465, 377, 121, 408, 136
-0.998465, 273, 115, 336, 130
-0.998465, 45, 105, 76, 120
-0.998466, 281, 137, 344, 152
-0.998466, 73, 103, 104, 118
-0.998468, 345, 173, 376, 188
-0.998469, 65, 123, 128, 138
-0.998469, 49, 165, 80, 180
-0.998469, 49, 287, 80, 302
-0.998469, 209, 103, 272, 118
-0.99847, 333, 251, 364, 266
-0.99847, 321, 123, 352, 138
-0.99847, 69, 261, 100, 276
-0.998474, 333, 153, 364, 168
-0.998475, 417, 123, 448, 138
-0.998475, 389, 81, 420, 96
-0.998475, 365, 69, 396, 84
-0.998477, 405, 157, 436, 172
-0.998478, 49, 139, 112, 154
-0.99848, 185, 115, 248, 130
-0.99848, 369, 79, 400, 94
-0.998481, 349, 75, 380, 90
-0.998481, 405, 179, 436, 194
-0.998481, 453, 177, 484, 192
-0.998482, 353, 115, 416, 130
-0.998482, 185, 209, 248, 224
-0.998483, 345, 77, 408, 92
-0.998484, 361, 147, 424, 162
-0.998484, 241, 83, 272, 98
-0.998486, 153, 147, 216, 162
-0.998488, 209, 191, 240, 206
-0.998489, 305, 117, 368, 132
-0.998489, 173, 129, 204, 144
-0.99849, 197, 213, 228, 228
-0.998492, 65, 101, 128, 116
-0.998492, 417, 177, 448, 192
-0.998493, 305, 111, 368, 126
-0.998494, 461, 213, 492, 228
-0.998495, 293, 43, 324, 58
-0.998495, 201, 105, 232, 120
-0.998497, 345, 179, 376, 194
-0.998497, 309, 131, 340, 146
-0.998497, 313, 123, 376, 138
-0.998497, 281, 109, 344, 124
-0.998497, 273, 123, 336, 138
-0.998501, 177, 225, 240, 240
-0.998502, 53, 137, 84, 152
-0.998502, 229, 91, 260, 106
-0.998503, 25, 173, 88, 188
-0.998503, 57, 157, 120, 172
-0.998503, 273, 89, 304, 104
-0.998503, 233, 115, 296, 130
-0.998504, 309, 101, 340, 116
-0.998504, 65, 117, 128, 132
-0.998504, 313, 93, 376, 108
-0.998505, 177, 159, 208, 174
-0.998505, 337, 83, 368, 98
-0.998506, 65, 135, 96, 150
-0.998506, 341, 121, 372, 136
-0.998509, 377, 81, 440, 96
-0.998509, 469, 173, 500, 188
-0.99851, 321, 115, 352, 130
-0.998511, 393, 125, 456, 140
-0.998511, 353, 35, 416, 50
-0.998512, 345, 259, 376, 274
-0.998513, 433, 185, 496, 200
-0.998514, 289, 93, 352, 108
-0.998515, 177, 231, 240, 246
-0.998516, 345, 7, 408, 22
-0.998517, 169, 137, 200, 152
-0.998517, 329, 83, 392, 98
-0.998518, 193, 121, 256, 136
-0.998519, 65, 91, 128, 106
-0.998521, 161, 173, 224, 188
-0.998524, 273, 83, 304, 98
-0.998524, 345, 121, 408, 136
-0.998525, 81, 115, 112, 130
-0.998526, 97, 149, 160, 164
-0.998527, 321, 71, 384, 86
-0.998527, 145, 163, 208, 178
-0.998527, 353, 89, 416, 104
-0.998528, 397, 117, 428, 132
-0.998529, 209, 197, 240, 212
-0.99853, 41, 95, 104, 110
-0.998533, 417, 171, 480, 186
-0.998534, 145, 153, 208, 168
-0.998534, 89, 99, 120, 114
-0.998535, 409, 99, 440, 114
-0.998535, 401, 183, 464, 198
-0.998536, 329, 153, 392, 168
-0.998536, 417, 255, 480, 270
-0.998536, 409, 189, 472, 204
-0.998537, 181, 117, 212, 132
-0.998538, 65, 107, 128, 122
-0.99854, 177, 241, 240, 256
-0.99854, 201, 191, 264, 206
-0.99854, 289, 131, 352, 146
-0.998541, 173, 123, 204, 138
-0.998541, 57, 151, 120, 166
-0.998541, 377, 109, 440, 124
-0.998541, 205, 203, 236, 218
-0.998542, 453, 171, 484, 186
-0.998542, 193, 201, 256, 216
-0.998542, 353, 83, 416, 98
-0.998543, 249, 129, 312, 144
-0.998543, 41, 105, 104, 120
-0.998544, 241, 87, 304, 102
-0.998544, 17, 179, 80, 194
-0.998546, 309, 107, 340, 122
-0.998548, 321, 65, 384, 80
-0.998548, 209, 97, 272, 112
-0.998549, 417, 195, 480, 210
-0.99855, 313, 231, 376, 246
-0.99855, 281, 47, 344, 62
-0.99855, 145, 225, 208, 240
-0.998551, 377, 99, 440, 114
-0.998551, 321, 89, 352, 104
-0.998551, 337, 271, 368, 286
-0.998552, 161, 125, 224, 140
-0.998554, 33, 297, 96, 312
-0.998555, 77, 141, 108, 156
-0.998555, 65, 289, 128, 304
-0.998555, 185, 219, 248, 234
-0.998555, 361, 71, 424, 86
-0.998555, 385, 149, 448, 164
-0.998556, 249, 95, 312, 110
-0.998556, 213, 109, 244, 124
-0.998556, 245, 81, 260, 208
-0.998557, 41, 167, 104, 182
-0.998557, 185, 103, 248, 118
-0.998558, 417, 203, 480, 218
-0.998558, 153, 141, 216, 156
-0.99856, 65, 125, 96, 140
-0.998561, 257, 145, 320, 160
-0.998562, 313, 9, 376, 24
-0.998562, 177, 247, 240, 262
-0.998562, 313, 129, 376, 144
-0.998562, 169, 181, 232, 196
-0.998563, 17, 109, 80, 124
-0.998563, 449, 197, 480, 212
-0.998564, 321, 273, 384, 288
-0.998566, 57, 85, 120, 100
-0.998569, 73, 109, 104, 124
-0.998571, 193, 175, 256, 190
-0.998572, 209, 109, 272, 124
-0.998572, 193, 165, 256, 180
-0.998574, 201, 183, 264, 198
-0.998574, 313, 17, 376, 32
-0.998574, 57, 265, 120, 280
-0.998575, 337, 43, 400, 58
-0.998575, 57, 175, 120, 190
-0.998575, 329, 145, 392, 160
-0.998575, 377, 179, 440, 194
-0.998576, 331, 49, 346, 176
-0.998576, 433, 241, 496, 256
-0.998576, 121, 149, 184, 164
-0.998577, 345, 25, 408, 40
-0.998577, 177, 253, 240, 268
-0.998578, 293, 107, 324, 122
-0.998578, 433, 247, 496, 262
-0.998578, 81, 85, 144, 100
-0.99858, 329, 261, 392, 276
-0.99858, 313, 37, 376, 52
-0.998581, 361, 41, 424, 56
-0.998582, 73, 131, 136, 146
-0.998582, 273, 87, 336, 102
-0.998582, 297, 67, 360, 82
-0.998583, 281, 41, 344, 56
-0.998583, 153, 119, 216, 134
-0.998584, 305, 313, 432, 375
-0.998584, 377, 185, 440, 200
-0.998584, 405, 149, 436, 164
-0.998585, 313, 225, 376, 240
-0.998585, 85, 131, 116, 146
-0.998585, 313, 3, 376, 18
-0.998585, 249, 101, 312, 116
-0.998586, 337, 195, 400, 210
-0.998587, 53, 129, 84, 144
-0.998587, 377, 259, 440, 274
-0.998588, 409, 263, 472, 278
-0.998589, 213, 103, 244, 118
-0.998589, 73, 301, 136, 316
-0.998589, 313, 25, 376, 40
-0.998589, 97, 155, 160, 170
-0.998591, 145, 219, 208, 234
-0.998592, 453, 205, 484, 220
-0.998592, 233, 121, 296, 136
-0.998592, 273, 53, 336, 68
-0.998597, 189, 109, 220, 124
-0.998598, 217, 89, 248, 104
-0.9986, 389, 109, 420, 124
-0.998628, 253, 81, 284, 96
-0.998634, 341, 265, 372, 280
-0.998646, 191, 209, 206, 336
-0.99868, 255, 97, 270, 224
-0.998694, 385, 115, 416, 130
-0.998695, 345, 161, 360, 288
-0.998695, 237, 65, 252, 192
-0.998725, 257, 313, 500, 375
-0.998757, 321, 49, 336, 176
-0.99878, 197, 193, 212, 320
-0.998785, 191, 97, 206, 224
-0.998785, 197, 145, 212, 272
-0.99879, 171, 113, 186, 240
-0.998803, 341, 49, 356, 176
-0.998803, 283, 49, 298, 176
-0.998804, 463, 129, 478, 256
-0.998814, 347, 97, 362, 224
-0.998814, 311, 49, 326, 176
-0.99886, 339, 129, 354, 256
-0.99886, 225, 97, 240, 224
-0.998862, 261, 65, 276, 192
-0.998863, 349, 225, 364, 352
-0.998864, 273, 65, 288, 192
-0.998873, 231, 65, 246, 192
-0.998875, 377, 33, 392, 160
-0.998877, 239, 113, 254, 240
-0.998882, 303, 33, 318, 160
-0.99889, 181, 65, 196, 192
-0.998903, 455, 177, 470, 304
-0.998905, 103, 97, 118, 224
-0.998908, 153, 129, 168, 256
-0.998933, 73, 241, 88, 368
-0.998935, 377, 97, 408, 352
-0.998942, 97, 97, 112, 224
-0.998946, 161, 129, 176, 256
-0.998952, 207, 193, 222, 320
-0.998953, 177, 113, 192, 240
-0.998955, 367, 33, 382, 160
-0.998957, 293, 49, 308, 176
-0.998961, 143, 129, 158, 256
-0.998964, 357, 1, 372, 128
-0.998971, 279, 97, 294, 224
-0.998988, 267, 65, 282, 192
-0.99899, 353, 113, 368, 240
-0.998997, 109, 65, 124, 192
-0.999004, 69, 65, 84, 192
-0.999005, 449, 129, 464, 256
-0.999012, 247, 129, 262, 256
-0.999013, 337, 193, 352, 320
-0.999019, 233, 113, 248, 240
-0.99902, 217, 161, 232, 288
-0.999022, 325, 97, 340, 224
-0.999028, 385, 1, 400, 128
-0.999031, 457, 129, 472, 256
-0.999036, 347, 49, 362, 176
-0.999043, 197, 65, 212, 192
-0.999047, 359, 49, 374, 176
-0.999054, 73, 113, 88, 240
-0.999061, 81, 241, 96, 368
-0.999064, 343, 209, 358, 336
-0.999071, 207, 145, 222, 272
-0.999072, 109, 129, 124, 256
-0.999078, 435, 97, 450, 224
-0.999079, 245, 33, 260, 160
-0.999081, 77, 49, 92, 176
-0.999082, 229, 177, 244, 304
-0.999082, 389, 49, 404, 176
-0.999085, 427, 97, 442, 224
-0.999086, 353, 49, 368, 176
-0.999087, 469, 145, 484, 272
-0.999088, 441, 177, 456, 304
-0.999089, 57, 81, 72, 208
-0.99909, 133, 65, 148, 192
-0.999092, 137, 129, 152, 256
-0.999095, 351, 177, 366, 304
-0.999095, 169, 65, 184, 192
-0.999096, 399, 33, 414, 160
-0.999097, 219, 209, 234, 336
-0.999098, 373, 81, 388, 208
-0.999098, 67, 241, 82, 368
-0.999101, 129, 129, 144, 256
-0.999101, 117, 129, 132, 256
-0.99911, 115, 65, 130, 192
-0.999113, 149, 81, 164, 208
-0.999115, 251, 49, 266, 176
-0.999119, 47, 81, 62, 208
-0.999121, 79, 113, 94, 240
-0.999121, 321, 1, 336, 128
-0.999126, 91, 97, 106, 224
-0.99913, 29, 161, 44, 288
-0.999134, 191, 161, 206, 288
-0.999142, 405, 113, 420, 240
-0.999147, 123, 113, 138, 240
-0.999153, 43, 145, 58, 272
-0.999155, 449, 1, 464, 128
-0.999156, 463, 193, 478, 320
-0.999158, 203, 65, 218, 192
-0.999158, 333, 129, 348, 256
-0.999165, 465, 1, 480, 128
-0.999166, 73, 193, 88, 320
-0.999166, 185, 129, 200, 256
-0.999173, 261, 113, 276, 240
-0.999176, 139, 81, 154, 208
-0.999178, 97, 145, 112, 272
-0.999182, 219, 65, 234, 192
-0.999183, 175, 65, 190, 192
-0.999183, 161, 81, 176, 208
-0.999184, 285, 97, 300, 224
-0.999189, 309, 113, 324, 240
-0.999191, 431, 161, 446, 288
-0.999192, 443, 97, 458, 224
-0.999194, 127, 65, 142, 192
-0.999196, 253, 145, 268, 272
-0.999197, 319, 113, 334, 240
-0.999201, 23, 161, 38, 288
-0.999203, 411, 49, 426, 176
-0.999207, 331, 209, 346, 336
-0.999208, 461, 49, 476, 176
-0.99921, 121, 65, 136, 192
-0.999212, 405, 49, 420, 176
-0.999215, 67, 113, 82, 240
-0.999221, 83, 65, 98, 192
-0.999222, 435, 1, 450, 128
-0.999223, 273, 113, 288, 240
-0.999224, 237, 161, 252, 288
-0.999226, 359, 177, 374, 304
-0.999226, 39, 81, 54, 208
-0.999229, 225, 33, 240, 160
-0.99924, 89, 145, 104, 272
-0.999249, 395, 97, 410, 224
-0.999249, 155, 81, 170, 208
-0.999253, 475, 161, 490, 288
-0.999255, 445, 49, 460, 176
-0.999437, 49, 9, 176, 72
-0.999626, 383, 73, 398, 88
-0.999626, 317, 99, 332, 114
-0.999626, 407, 115, 422, 130
-0.999627, 419, 189, 434, 204
-0.999628, 239, 91, 254, 106
-0.999628, 345, 123, 360, 138
-0.999628, 353, 111, 368, 126
-0.999629, 195, 223, 210, 238
-0.999629, 345, 265, 360, 280
-0.99963, 289, 91, 304, 106
-0.99963, 101, 125, 116, 140
-0.99963, 421, 171, 436, 186
-0.99963, 71, 129, 86, 144
-0.99963, 409, 157, 424, 172
-0.999631, 207, 201, 222, 216
-0.999631, 417, 153, 432, 168
-0.999631, 451, 207, 466, 222
-0.999632, 303, 41, 318, 56
-0.999632, 97, 173, 112, 188
-0.999632, 423, 99, 438, 114
-0.999633, 403, 205, 418, 220
-0.999633, 429, 123, 444, 138
-0.999633, 363, 151, 378, 166
-0.999634, 185, 129, 200, 144
-0.999635, 103, 193, 118, 208
-0.999637, 49, 131, 64, 146
-0.999638, 375, 89, 390, 104
-0.999638, 405, 145, 420, 160
-0.999638, 245, 125, 260, 140
-0.999639, 51, 137, 66, 152
-0.99964, 411, 109, 426, 124
-0.99964, 219, 95, 234, 110
-0.999641, 383, 113, 398, 128
-0.999641, 409, 99, 424, 114
-0.999642, 103, 89, 118, 104
-0.999642, 273, 87, 288, 102
-0.999642, 185, 137, 200, 152
-0.999644, 415, 173, 430, 188
-0.999644, 75, 117, 90, 132
-0.999644, 97, 83, 112, 98
-0.999644, 205, 207, 220, 222
-0.999645, 93, 131, 108, 146
-0.999645, 275, 143, 290, 158
-0.999646, 97, 115, 112, 130
-0.999646, 201, 109, 216, 124
-0.999646, 385, 85, 400, 100
-0.999646, 435, 253, 450, 268
-0.999646, 215, 191, 230, 206
-0.999648, 189, 271, 204, 286
-0.999648, 43, 297, 58, 312
-0.999648, 373, 69, 388, 84
-0.999649, 339, 157, 354, 172
-0.999649, 145, 151, 160, 166
-0.99965, 241, 85, 256, 100
-0.999651, 69, 113, 84, 128
-0.999651, 333, 273, 348, 288
-0.999651, 471, 207, 486, 222
-0.999651, 209, 195, 224, 210
-0.999651, 179, 159, 194, 174
-0.999652, 73, 107, 88, 122
-0.999652, 191, 113, 206, 128
-0.999654, 77, 137, 92, 152
-0.999654, 325, 89, 340, 104
-0.999656, 91, 89, 106, 104
-0.999657, 473, 171, 488, 186
-0.999658, 285, 139, 300, 154
-0.99966, 335, 279, 350, 294
-0.99966, 255, 81, 270, 96
-0.999662, 95, 191, 110, 206
-0.999663, 311, 109, 326, 124
-0.999664, 321, 105, 336, 120
-0.999664, 465, 203, 480, 218
-0.999666, 227, 109, 242, 124
-0.999666, 73, 123, 88, 138
-0.999667, 209, 105, 224, 120
-0.999668, 339, 265, 354, 280
-0.999668, 227, 87, 242, 102
-0.999668, 199, 213, 214, 228
-0.999672, 303, 105, 318, 120
-0.999672, 369, 77, 384, 92
-0.999672, 93, 109, 108, 124
-0.999672, 427, 265, 442, 280
-0.999676, 457, 191, 472, 206
-0.999677, 459, 219, 474, 234
-0.999678, 451, 201, 466, 216
-0.999679, 249, 81, 264, 96
-0.99968, 339, 273, 354, 288
-0.999681, 215, 103, 230, 118
-0.999681, 351, 265, 366, 280
-0.999682, 271, 81, 286, 96
-0.999683, 227, 97, 242, 112
-0.999684, 451, 233, 466, 248
-0.999684, 369, 95, 384, 110
-0.999686, 83, 135, 98, 150
-0.999686, 317, 111, 332, 126
-0.999688, 279, 85, 294, 100
-0.999688, 349, 251, 364, 266
-0.999689, 233, 91, 248, 106
-0.999689, 347, 259, 362, 274
-0.999689, 395, 117, 410, 132
-0.99969, 221, 101, 236, 116
-0.999694, 335, 87, 350, 102
-0.999695, 347, 117, 362, 132
-0.999696, 59, 161, 74, 176
-0.9997, 57, 129, 72, 144
-0.999701, 457, 197, 472, 212
-0.999702, 295, 101, 310, 116
-0.999705, 97, 179, 112, 194
-0.999705, 457, 225, 472, 240
-0.999707, 425, 183, 440, 198
-0.999709, 65, 125, 80, 140
-0.99971, 295, 107, 310, 122
-0.999712, 345, 83, 360, 98
-0.99972, 429, 257, 444, 272
-0.999728, 375, 81, 390, 96
-0.999732, 221, 89, 236, 104
-0.999732, 335, 151, 350, 166
-0.999737, 465, 209, 480, 224
-0.99974, 87, 141, 102, 156
-0.99974, 385, 119, 400, 134
-0.999743, 465, 215, 480, 230
-0.999756, 395, 109, 410, 124
-0.999758, 457, 213, 472, 228
-0.999768, 195, 107, 210, 122
-0.999773, 421, 177, 436, 192
-0.999782, 403, 109, 418, 124
-0.999783, 459, 203, 474, 218
-0.999786, 389, 113, 404, 128
-0.999796, 401, 115, 416, 130
-0.999815, 451, 195, 466, 210
-1.00062, 121, 17, 184, 144
