1973
-0.577694, 1, 1, 500, 256
-0.63468, 1, 97, 500, 352
-0.636489, 1, 1, 500, 375
-0.719268, 257, 1, 500, 375
-0.76248, 129, 1, 384, 375
-0.77475, 1, 1, 256, 375
-0.855675, 1, 65, 256, 320
-0.874794, 97, 1, 352, 256
-0.880895, 257, 1, 500, 256
-0.889558, 97, 97, 352, 352
-0.918285, 17, 65, 144, 320
-0.923827, 369, 1, 496, 375
-0.926479, 241, 1, 368, 375
-0.931783, 161, 1, 288, 375
-0.93701, 369, 1, 496, 256
-0.93836, 65, 65, 192, 320
-0.938483, 321, 1, 448, 375
-0.939798, 49, 1, 176, 375
-0.942964, 1, 1, 128, 375
-0.943009, 177, 1, 304, 256
-0.943019, 97, 1, 224, 375
-0.944284, 193, 97, 320, 352
-0.945083, 113, 1, 240, 256
-0.94755, 1, 1, 500, 128
-0.947818, 321, 1, 448, 256
-0.949825, 113, 97, 240, 352
-0.951065, 1, 97, 500, 224
-0.955052, 241, 1, 368, 256
-0.957496, 1, 49, 500, 176
-0.962811, 1, 145, 500, 272
-0.963522, 1, 241, 500, 368
-0.964429, 1, 129, 256, 256
-0.964503, 33, 49, 288, 176
-0.964911, 241, 97, 368, 352
-0.96533, 321, 1, 448, 128
-0.965861, 193, 129, 448, 375
-0.966253, 161, 241, 416, 368
-0.969454, 305, 129, 432, 375
-0.969799, 33, 1, 288, 128
-0.971086, 193, 1, 448, 128
-0.971113, 97, 97, 352, 224
-0.972498, 377, 1, 440, 128
-0.972953, 33, 97, 160, 224
-0.973354, 57, 81, 120, 144
-0.97366, 73, 81, 136, 208
-0.974505, 1, 193, 500, 320
-0.974803, 161, 145, 416, 272
-0.976477, 257, 241, 500, 368
-0.976844, 1, 193, 256, 320
-0.976897, 81, 73, 144, 136
-0.977684, 161, 193, 416, 320
-0.97859, 369, 129, 496, 375
-0.978696, 417, 1, 480, 128
-0.978724, 33, 81, 96, 144
-0.978814, 17, 145, 80, 208
-0.978997, 41, 129, 104, 256
-0.979116, 17, 33, 144, 160
-0.979534, 49, 153, 112, 216
-0.979611, 73, 49, 136, 112
-0.980049, 17, 113, 80, 240
-0.980451, 193, 241, 256, 368
-0.98078, 401, 1, 464, 64
-0.980929, 369, 1, 496, 128
-0.980939, 1, 241, 256, 368
-0.980985, 113, 129, 240, 256
-0.980987, 353, 1, 416, 64
-0.981051, 113, 1, 240, 128
-0.981051, 17, 145, 144, 272
-0.981058, 129, 49, 384, 176
-0.981314, 177, 129, 304, 256
-0.98141, 33, 57, 96, 120
-0.981834, 89, 33, 152, 160
-0.982026, 17, 177, 80, 240
-0.98225, 177, 225, 304, 352
-0.98232, 81, 65, 208, 192
-0.982431, 225, 129, 288, 256
-0.982478, 321, 1, 448, 64
-0.982815, 193, 177, 320, 304
-0.982898, 353, 1, 416, 128
-0.98333, 73, 105, 136, 168
-0.983405, 377, 1, 440, 64
-0.983466, 9, 113, 72, 176
-0.983466, 41, 129, 104, 192
-0.983619, 57, 33, 120, 160
-0.984147, 233, 305, 296, 368
-0.984372, 201, 113, 264, 240
-0.984898, 225, 225, 352, 352
-0.985507, 193, 281, 256, 344
-0.98573, 49, 81, 112, 208
-0.985914, 369, 1, 496, 64
-0.986011, 409, 25, 472, 88
-0.98605, 113, 177, 240, 304
-0.986201, 25, 177, 88, 304
-0.986349, 381, 1, 412, 64
-0.986572, 385, 1, 448, 256
-0.986683, 17, 81, 144, 144
-0.986807, 369, 49, 496, 176
-0.986871, 385, 25, 448, 88
-0.986965, 225, 129, 352, 256
-0.98705, 225, 129, 288, 192
-0.987165, 45, 177, 76, 240
-0.987179, 401, 313, 464, 375
-0.987426, 101, 73, 132, 136
-0.987653, 41, 177, 104, 240
-0.987667, 385, 1, 416, 128
-0.987894, 17, 169, 144, 232
-0.987963, 321, 25, 448, 88
-0.987985, 17, 1, 80, 128
-0.988081, 65, 129, 128, 256
-0.988199, 33, 105, 160, 168
-0.988286, 49, 105, 112, 168
-0.988339, 105, 65, 168, 128
-0.988403, 97, 81, 160, 208
-0.988599, 65, 65, 128, 320
-0.988652, 257, 113, 500, 240
-0.988658, 225, 49, 480, 176
-0.988871, 193, 257, 256, 320
-0.988909, 17, 145, 144, 208
-0.989051, 1, 161, 64, 288
-0.989078, 73, 153, 136, 216
-0.989078, 129, 49, 256, 176
-0.98916, 369, 241, 496, 368
-0.989285, 81, 129, 144, 192
-0.989296, 289, 241, 416, 368
-0.989404, 25, 65, 88, 192
-0.989472, 193, 49, 320, 176
-0.989506, 161, 313, 288, 375
-0.989638, 193, 9, 256, 72
-0.989871, 177, 1, 304, 128
-0.989904, 177, 153, 304, 216
-0.990123, 97, 169, 160, 232
-0.990205, 305, 297, 432, 360
-0.990226, 13, 169, 44, 232
-0.990309, 225, 193, 288, 320
-0.990316, 241, 313, 368, 375
-0.990327, 57, 145, 88, 208
-0.990361, 1, 41, 128, 104
-0.99042, 33, 145, 64, 208
-0.990458, 65, 73, 192, 136
-0.990466, 89, 73, 120, 136
-0.990511, 73, 73, 104, 136
-0.99061, 249, 129, 312, 256
-0.990613, 1, 137, 32, 200
-0.990667, 209, 305, 272, 368
-0.990694, 257, 177, 500, 304
-0.990714, 113, 57, 144, 120
-0.990783, 393, 17, 424, 80
-0.990787, 89, 41, 120, 104
-0.990821, 57, 77, 120, 108
-0.990871, 177, 129, 304, 192
-0.990874, 201, 113, 264, 176
-0.990981, 305, 1, 368, 128
-0.991076, 225, 289, 352, 352
-0.991102, 89, 129, 152, 256
-0.991148, 385, 1, 448, 32
-0.991213, 113, 193, 240, 256
-0.99125, 33, 77, 96, 108
-0.9913, 49, 93, 112, 124
-0.991384, 97, 97, 160, 160
-0.991406, 385, 13, 448, 44
-0.991409, 217, 281, 280, 344
-0.991438, 105, 33, 136, 160
-0.991473, 241, 33, 368, 160
-0.99148, 393, 1, 456, 375
-0.991499, 9, 73, 72, 136
-0.991567, 201, 137, 264, 200
-0.991628, 361, 313, 424, 375
-0.991634, 89, 93, 152, 124
-0.991661, 129, 241, 256, 368
-0.991672, 81, 81, 144, 112
-0.991687, 33, 1, 96, 64
-0.99169, 397, 1, 428, 128
-0.991712, 185, 169, 248, 232
-0.99175, 425, 49, 488, 176
-0.991753, 1, 65, 64, 320
-0.99176, 41, 33, 104, 96
-0.991808, 409, 49, 472, 112
-0.991864, 345, 1, 408, 32
-0.991876, 193, 65, 256, 192
-0.991928, 225, 241, 288, 368
-0.991945, 81, 145, 144, 176
-0.991946, 369, 297, 496, 360
-0.991958, 65, 133, 128, 164
-0.991994, 81, 69, 144, 100
-0.99207, 393, 25, 456, 56
-0.992109, 25, 177, 88, 208
-0.992117, 177, 289, 304, 352
-0.992124, 393, 241, 456, 368
-0.992128, 201, 1, 264, 128
-0.992148, 57, 65, 120, 96
-0.99217, 257, 129, 320, 192
-0.992215, 1, 113, 32, 240
-0.992216, 225, 161, 288, 224
-0.992223, 361, 25, 424, 88
-0.992247, 85, 65, 116, 192
-0.992304, 65, 1, 192, 128
-0.992348, 193, 193, 320, 256
-0.992355, 257, 241, 320, 368
-0.992373, 129, 169, 256, 232
-0.992392, 65, 105, 128, 136
-0.992393, 13, 145, 44, 272
-0.992402, 409, 41, 472, 72
-0.992406, 217, 149, 280, 180
-0.992452, 17, 165, 80, 196
-0.992453, 89, 105, 152, 136
-0.992482, 33, 65, 96, 96
-0.992496, 49, 165, 112, 196
-0.992499, 41, 137, 104, 168
-0.992515, 65, 145, 192, 272
-0.992518, 361, 13, 424, 44
-0.992557, 41, 153, 104, 184
-0.992593, 1, 77, 64, 108
-0.992598, 193, 241, 320, 304
-0.992625, 369, 345, 432, 375
-0.992633, 273, 1, 336, 375
-0.992653, 65, 121, 128, 152
-0.992656, 201, 161, 264, 288
-0.992661, 193, 289, 256, 320
-0.992661, 49, 49, 176, 112
-0.99269, 225, 265, 352, 328
-0.992708, 217, 305, 280, 336
-0.992727, 89, 105, 120, 168
-0.992727, 1, 181, 64, 212
-0.992737, 105, 193, 168, 224
-0.992755, 33, 1, 160, 64
-0.992763, 401, 289, 464, 352
-0.992773, 233, 317, 296, 348
-0.99281, 241, 137, 368, 200
-0.992817, 25, 89, 88, 120
-0.99283, 17, 113, 80, 144
-0.992862, 9, 1, 72, 64
-0.992908, 17, 145, 80, 176
-0.992917, 193, 217, 320, 280
-0.992924, 265, 305, 328, 368
-0.992932, 401, 329, 464, 360
-0.992937, 105, 193, 168, 256
-0.992938, 25, 189, 88, 220
-0.992938, 81, 57, 144, 88
-0.992945, 401, 341, 464, 372
-0.992952, 1, 65, 64, 96
-0.992979, 89, 45, 152, 76
-0.992981, 105, 145, 168, 176
-0.992988, 57, 81, 88, 144
-0.992988, 225, 137, 288, 168
-0.992994, 49, 177, 112, 208
-0.992998, 433, 305, 496, 368
-0.993003, 41, 169, 72, 200
-0.993036, 73, 81, 104, 112
-0.993037, 89, 65, 152, 320
-0.99304, 57, 53, 120, 84
-0.993052, 361, 25, 424, 56
-0.993054, 417, 1, 480, 32
-0.993057, 265, 341, 328, 372
-0.993061, 93, 85, 124, 116
-0.993069, 89, 129, 152, 160
-0.993106, 105, 73, 168, 104
-0.993112, 1, 49, 64, 112
-0.993114, 233, 341, 296, 372
-0.993114, 409, 53, 472, 84
-0.993127, 193, 137, 256, 168
-0.993135, 233, 329, 296, 360
-0.993147, 369, 333, 432, 364
-0.993148, 225, 161, 288, 192
-0.993161, 377, 5, 408, 36
-0.993162, 385, 37, 448, 68
-0.993174, 101, 49, 132, 112
-0.993187, 53, 77, 84, 108
-0.993187, 89, 109, 120, 140
-0.99319, 185, 161, 248, 192
-0.993208, 249, 153, 312, 216
-0.993218, 1, 125, 64, 156
-0.99323, 25, 97, 56, 224
-0.99326, 185, 149, 248, 180
-0.993261, 105, 73, 136, 104
-0.993262, 393, 317, 456, 348
-0.993267, 89, 117, 152, 148
-0.99327, 417, 17, 448, 80
-0.993272, 17, 193, 144, 320
-0.993278, 25, 101, 88, 132
-0.993284, 89, 73, 120, 104
-0.993287, 369, 25, 496, 88
-0.993294, 121, 133, 184, 164
-0.993299, 425, 13, 488, 44
-0.993301, 405, 1, 436, 64
-0.99332, 1, 65, 64, 192
-0.993322, 193, 277, 256, 308
-0.993336, 81, 93, 112, 124
-0.993337, 49, 181, 80, 212
-0.993342, 69, 149, 100, 180
-0.993348, 257, 305, 320, 336
-0.993351, 385, 17, 416, 48
-0.993354, 37, 81, 68, 112
-0.993356, 265, 149, 328, 180
-0.993357, 109, 145, 140, 176
-0.993362, 193, 317, 256, 348
-0.993367, 69, 69, 100, 100
-0.993369, 289, 1, 352, 64
-0.993378, 397, 1, 428, 32
-0.99338, 97, 181, 160, 212
-0.993382, 81, 201, 144, 232
-0.993383, 185, 173, 248, 204
-0.993387, 73, 49, 104, 112
-0.993393, 53, 89, 84, 120
-0.993397, 1, 129, 32, 160
-0.993405, 201, 125, 264, 156
-0.993406, 185, 185, 248, 216
-0.993416, 233, 293, 296, 324
-0.993417, 105, 89, 136, 120
-0.993421, 53, 169, 84, 200
-0.993423, 225, 277, 288, 308
-0.993427, 361, 309, 424, 340
-0.993437, 129, 181, 192, 212
-0.993437, 193, 301, 256, 332
-0.993445, 117, 65, 148, 96
-0.993448, 193, 9, 256, 40
-0.993449, 73, 157, 136, 188
-0.99345, 193, 329, 256, 360
-0.993454, 129, 189, 160, 220
-0.993464, 65, 93, 96, 124
-0.993466, 225, 173, 288, 204
-0.993468, 409, 17, 440, 48
-0.993474, 281, 1, 344, 128
-0.993475, 57, 153, 88, 184
-0.993482, 129, 193, 192, 224
-0.993483, 113, 9, 240, 72
-0.993492, 425, 25, 488, 56
-0.993499, 117, 45, 148, 76
-0.993499, 193, 265, 256, 296
-0.9935, 117, 93, 148, 124
-0.993501, 21, 113, 52, 144
-0.993502, 209, 113, 272, 144
-0.993502, 29, 173, 60, 204
-0.993505, 25, 161, 56, 192
-0.993509, 89, 33, 152, 64
-0.993511, 57, 137, 88, 168
-0.993517, 101, 109, 132, 140
-0.993519, 97, 61, 128, 92
-0.993521, 73, 121, 104, 152
-0.993524, 37, 185, 68, 216
-0.993526, 225, 81, 288, 208
-0.993526, 129, 129, 256, 192
-0.993529, 417, 33, 448, 64
-0.99353, 433, 21, 464, 52
-0.993534, 249, 161, 312, 192
-0.993534, 41, 205, 104, 236
-0.993539, 33, 37, 96, 68
-0.993541, 193, 345, 256, 375
-0.993546, 265, 329, 328, 360
-0.993548, 41, 113, 104, 144
-0.993556, 41, 125, 104, 156
-0.993558, 217, 281, 248, 312
-0.99356, 97, 49, 128, 80
-0.993561, 105, 61, 168, 92
-0.993567, 237, 297, 268, 328
-0.993569, 33, 97, 64, 128
-0.99357, 421, 45, 452, 76
-0.993575, 33, 193, 160, 256
-0.993576, 1, 157, 32, 188
-0.993582, 369, 321, 432, 352
-0.993584, 77, 109, 108, 140
-0.993587, 97, 133, 128, 164
-0.993595, 65, 37, 128, 68
-0.993595, 1, 93, 64, 124
-0.993597, 409, 321, 440, 352
-0.993597, 85, 137, 116, 168
-0.9936, 73, 57, 104, 88
-0.993604, 269, 345, 300, 375
-0.993605, 93, 97, 124, 128
-0.993609, 45, 145, 76, 176
-0.993609, 393, 29, 424, 60
-0.993612, 193, 37, 256, 68
-0.993612, 53, 65, 84, 96
-0.993613, 69, 137, 100, 168
-0.993614, 193, 197, 256, 228
-0.993617, 53, 193, 84, 224
-0.993623, 433, 1, 464, 32
-0.993627, 9, 213, 72, 244
-0.993627, 129, 201, 160, 232
-0.993629, 421, 345, 452, 375
-0.99363, 13, 169, 44, 200
-0.99363, 241, 309, 272, 340
-0.99363, 85, 121, 116, 152
-0.993633, 209, 133, 240, 164
-0.993637, 1, 49, 64, 80
-0.993638, 113, 189, 144, 220
-0.993639, 305, 273, 432, 336
-0.993639, 121, 145, 152, 176
-0.99364, 213, 145, 244, 176
-0.993642, 117, 81, 148, 112
-0.993642, 9, 117, 40, 148
-0.993642, 245, 141, 276, 172
-0.993646, 397, 341, 428, 372
-0.993646, 1, 201, 32, 232
-0.993651, 441, 37, 472, 68
-0.993655, 109, 125, 140, 156
-0.993656, 397, 13, 428, 44
-0.993656, 161, 149, 224, 180
-0.993659, 9, 201, 72, 232
-0.99366, 125, 133, 156, 164
-0.993661, 97, 121, 128, 152
-0.993662, 1, 73, 32, 104
-0.993664, 113, 157, 176, 188
-0.993669, 41, 69, 72, 100
-0.993671, 97, 149, 128, 180
-0.993673, 217, 269, 248, 300
-0.993674, 225, 265, 288, 296
-0.993679, 49, 101, 80, 132
-0.99368, 385, 49, 448, 80
-0.99368, 417, 1, 448, 32
-0.993686, 1, 145, 32, 176
-0.993686, 201, 53, 232, 84
-0.993687, 13, 201, 44, 232
-0.993688, 129, 177, 160, 208
-0.993688, 229, 145, 260, 176
-0.99369, 365, 1, 396, 32
-0.993692, 37, 157, 68, 188
-0.993692, 113, 65, 240, 128
-0.993696, 261, 157, 292, 188
-0.993698, 229, 125, 260, 156
-0.993699, 81, 25, 144, 88
-0.993699, 197, 133, 228, 164
-0.993702, 201, 37, 232, 68
-0.993702, 229, 285, 260, 316
-0.993703, 209, 97, 272, 128
-0.993707, 213, 185, 244, 216
-0.993707, 69, 197, 100, 228
-0.993708, 337, 341, 400, 372
-0.993708, 33, 1, 96, 32
-0.99371, 1, 169, 32, 200
-0.993711, 85, 33, 116, 64
-0.993714, 61, 105, 92, 136
-0.993715, 425, 57, 456, 88
-0.993717, 101, 37, 132, 68
-0.993728, 17, 189, 48, 220
-0.993729, 45, 37, 76, 68
-0.993729, 105, 97, 136, 160
-0.993735, 85, 57, 116, 88
-0.993736, 257, 141, 288, 172
-0.993736, 121, 105, 152, 136
-0.993737, 61, 181, 92, 212
-0.993738, 21, 125, 52, 156
-0.993739, 1, 17, 64, 48
-0.993742, 185, 249, 248, 280
-0.993744, 73, 37, 104, 68
-0.993744, 249, 153, 280, 184
-0.993744, 425, 333, 488, 364
-0.993745, 233, 193, 264, 224
-0.993746, 257, 137, 320, 168
-0.993748, 25, 77, 56, 108
-0.99375, 113, 173, 144, 204
-0.99375, 213, 157, 244, 188
-0.993752, 253, 313, 284, 344
-0.993753, 401, 45, 432, 76
-0.993757, 433, 321, 496, 352
-0.993758, 285, 33, 316, 64
-0.993759, 245, 129, 276, 160
-0.99376, 125, 161, 156, 192
-0.99376, 273, 157, 304, 188
-0.993761, 201, 129, 264, 375
-0.993761, 209, 17, 336, 80
-0.993763, 305, 313, 368, 344
-0.993765, 49, 21, 112, 52
-0.993765, 193, 21, 256, 52
-0.993765, 417, 65, 480, 96
-0.993766, 213, 173, 244, 204
-0.993767, 21, 101, 52, 132
-0.993768, 205, 1, 236, 32
-0.993768, 209, 249, 240, 280
-0.993768, 21, 137, 52, 168
-0.993771, 281, 33, 344, 64
-0.993771, 113, 205, 176, 236
-0.993773, 129, 77, 160, 108
-0.993775, 265, 317, 328, 348
-0.993775, 69, 49, 100, 176
-0.993776, 189, 57, 220, 88
-0.993778, 225, 249, 288, 280
-0.993779, 209, 73, 240, 104
-0.993779, 85, 153, 116, 184
-0.993781, 49, 189, 112, 220
-0.993783, 217, 117, 248, 148
-0.993783, 225, 201, 288, 232
-0.993784, 197, 121, 228, 152
-0.99379, 225, 125, 288, 156
-0.993794, 305, 5, 368, 36
-0.993796, 81, 169, 144, 200
-0.993802, 297, 301, 360, 332
-0.993808, 177, 129, 240, 192
-0.993818, 33, 169, 64, 232
-0.993906, 65, 153, 192, 216
-0.993926, 201, 193, 264, 256
-0.993934, 233, 257, 296, 320
-0.993942, 369, 273, 496, 336
-0.993968, 37, 113, 68, 240
-0.993982, 113, 41, 240, 104
-0.993984, 45, 137, 76, 200
-0.993984, 273, 1, 400, 64
-0.993997, 401, 49, 464, 176
-0.994066, 65, 129, 192, 192
-0.994086, 201, 1, 264, 256
-0.994143, 57, 113, 88, 240
-0.994151, 249, 281, 312, 344
-0.99417, 113, 89, 240, 152
-0.994201, 113, 145, 176, 208
-0.994231, 433, 17, 464, 144
-0.994256, 73, 97, 104, 224
-0.99426, 233, 1, 296, 375
-0.994351, 237, 289, 268, 352
-0.994408, 433, 65, 496, 128
-0.994426, 17, 105, 48, 168
-0.99444, 25, 33, 88, 288
-0.99447, 177, 113, 240, 240
-0.9945, 177, 105, 304, 168
-0.994528, 193, 41, 320, 104
-0.994531, 225, 129, 288, 375
-0.994576, 177, 265, 304, 328
-0.994606, 225, 161, 352, 224
-0.994636, 217, 241, 248, 368
-0.994668, 385, 49, 448, 112
-0.994703, 201, 49, 232, 176
-0.994703, 117, 89, 148, 152
-0.994801, 41, 161, 72, 288
-0.994833, 33, 1, 96, 375
-0.994841, 169, 1, 232, 128
-0.994895, 45, 1, 76, 128
-0.99491, 97, 81, 128, 208
-0.994925, 113, 313, 240, 375
-0.99494, 65, 193, 192, 320
-0.994955, 361, 289, 424, 352
-0.994971, 73, 153, 104, 216
-0.994997, 49, 25, 176, 88
-0.995044, 225, 105, 288, 168
-0.995108, 369, 1, 432, 375
-0.995184, 421, 1, 452, 128
-0.995203, 133, 193, 164, 256
-0.995258, 233, 113, 264, 240
-0.99528, 217, 273, 248, 336
-0.995323, 353, 49, 480, 112
-0.995338, 161, 313, 416, 375
-0.99535, 169, 65, 232, 192
-0.995354, 417, 1, 480, 375
-0.995412, 241, 177, 368, 304
-0.995433, 57, 177, 88, 240
-0.995569, 417, 1, 480, 256
-0.995628, 193, 1, 256, 375
-0.99564, 241, 41, 368, 104
-0.995648, 69, 129, 100, 192
-0.995657, 169, 57, 232, 120
-0.995683, 89, 1, 152, 375
-0.995719, 57, 1, 120, 375
-0.995722, 225, 209, 288, 272
-0.995737, 21, 145, 52, 208
-0.995739, 41, 73, 72, 136
-0.995746, 113, 129, 176, 256
-0.995802, 57, 57, 88, 120
-0.995833, 177, 193, 240, 320
-0.99584, 193, 33, 256, 96
-0.99584, 201, 217, 264, 280
-0.995861, 161, 313, 224, 375
-0.995863, 205, 1, 236, 128
-0.995902, 113, 233, 240, 296
-0.995904, 113, 41, 176, 104
-0.995913, 305, 249, 432, 312
-0.995943, 161, 289, 416, 352
-0.995944, 53, 49, 84, 176
-0.995955, 29, 97, 60, 160
-0.995989, 85, 17, 116, 144
-0.995995, 113, 273, 240, 336
-0.996007, 253, 313, 284, 375
-0.996015, 433, 41, 496, 104
-0.996081, 253, 129, 284, 192
-0.99609, 89, 1, 152, 64
-0.996101, 297, 1, 360, 375
-0.996125, 225, 113, 352, 176
-0.996139, 245, 113, 276, 240
-0.996154, 321, 313, 384, 375
-0.996181, 121, 65, 152, 192
-0.996183, 289, 265, 352, 328
-0.996282, 433, 1, 464, 64
-0.996347, 65, 57, 320, 120
-0.996355, 121, 81, 184, 208
-0.996362, 185, 305, 248, 368
-0.996373, 213, 137, 244, 200
-0.99638, 9, 25, 72, 88
-0.996388, 305, 193, 432, 320
-0.996391, 193, 65, 320, 128
-0.99643, 105, 177, 168, 304
-0.996436, 77, 105, 108, 168
-0.996439, 73, 193, 136, 256
-0.996464, 257, 1, 500, 64
-0.996466, 51, 169, 66, 232
-0.996479, 193, 89, 256, 152
-0.996493, 241, 81, 368, 208
-0.996508, 57, 121, 88, 184
-0.996549, 241, 185, 368, 248
-0.996568, 169, 1, 232, 375
-0.996603, 289, 41, 352, 104
-0.996608, 17, 77, 144, 108
-0.996617, 257, 305, 500, 368
-0.996629, 1, 217, 128, 280
-0.996641, 113, 169, 144, 232
-0.99668, 161, 1, 288, 64
-0.996708, 257, 233, 384, 296
-0.996728, 29, 73, 60, 136
-0.996766, 83, 73, 98, 136
-0.996778, 105, 121, 136, 184
-0.99683, 321, 5, 448, 36
-0.996858, 361, 1, 424, 256
-0.996897, 1, 201, 64, 264
-0.996908, 389, 1, 404, 64
-0.996929, 5, 65, 36, 128
-0.996945, 85, 17, 116, 80
-0.996949, 213, 113, 244, 240
-0.996954, 405, 41, 436, 104
-0.996955, 161, 265, 416, 328
-0.996968, 109, 81, 124, 144
-0.996971, 73, 81, 88, 144
-0.99698, 257, 281, 500, 344
-0.997, 51, 137, 66, 200
-0.997009, 99, 73, 114, 136
-0.997011, 257, 209, 384, 272
-0.997015, 201, 113, 232, 240
-0.997038, 369, 73, 496, 136
-0.997069, 265, 49, 328, 176
-0.997074, 169, 241, 232, 368
-0.99709, 397, 9, 412, 72
-0.997104, 169, 81, 232, 144
-0.997107, 305, 289, 368, 352
-0.997112, 369, 9, 496, 40
-0.997125, 433, 1, 496, 64
-0.997129, 33, 81, 288, 144
-0.997146, 229, 113, 260, 176
-0.997153, 383, 1, 398, 64
-0.997165, 17, 193, 48, 256
-0.997171, 117, 1, 148, 128
-0.997183, 21, 161, 36, 224
-0.997218, 113, 121, 176, 184
-0.997219, 1, 169, 256, 232
-0.997225, 313, 1, 376, 64
-0.997236, 9, 1, 72, 375
-0.997242, 233, 145, 264, 208
-0.997249, 97, 121, 352, 184
-0.99727, 57, 177, 120, 304
-0.997282, 25, 145, 56, 272
-0.997283, 17, 89, 144, 120
-0.997293, 225, 233, 288, 296
-0.997297, 41, 33, 72, 96
-0.9973, 437, 25, 468, 88
-0.997302, 113, 145, 144, 208
-0.997304, 425, 41, 456, 104
-0.997333, 217, 249, 248, 312
-0.997382, 393, 265, 456, 328
-0.997383, 45, 1, 76, 64
-0.997393, 241, 121, 272, 184
-0.997404, 225, 185, 288, 248
-0.997405, 337, 21, 464, 52
-0.997407, 97, 161, 352, 224
-0.99741, 129, 193, 192, 256
-0.997412, 189, 49, 220, 176
-0.997429, 209, 65, 272, 128
-0.997434, 193, 25, 448, 88
-0.997456, 119, 73, 134, 136
-0.997462, 1, 33, 256, 96
-0.997486, 125, 65, 156, 128
-0.997522, 17, 105, 144, 136
-0.997522, 121, 1, 184, 128
-0.997532, 409, 305, 440, 368
-0.997551, 273, 1, 336, 256
-0.997579, 17, 165, 144, 196
-0.997611, 249, 105, 312, 168
-0.997642, 63, 73, 78, 136
-0.997642, 61, 145, 76, 208
-0.997652, 17, 149, 144, 180
-0.997654, 45, 105, 76, 168
-0.997657, 25, 201, 88, 264
-0.997679, 87, 49, 102, 112
-0.997688, 407, 1, 422, 64
-0.997707, 51, 169, 66, 200
-0.997709, 43, 145, 58, 208
-0.997735, 93, 73, 108, 136
-0.997745, 73, 57, 88, 120
-0.997753, 129, 73, 192, 136
-0.997778, 213, 177, 244, 304
-0.997791, 93, 49, 108, 112
-0.997793, 53, 161, 84, 288
-0.997805, 193, 317, 320, 348
-0.997807, 117, 33, 148, 96
-0.997809, 1, 161, 32, 224
-0.997823, 137, 129, 200, 256
-0.997831, 65, 297, 192, 360
-0.997834, 65, 149, 192, 180
-0.99784, 233, 209, 264, 336
-0.997843, 57, 177, 72, 240
-0.997849, 1, 193, 256, 256
-0.997863, 403, 25, 418, 88
-0.99787, 177, 141, 304, 172
-0.997874, 201, 121, 232, 184
-0.997884, 49, 217, 176, 280
-0.997893, 69, 145, 100, 272
-0.997913, 321, 345, 448, 375
-0.997915, 45, 169, 60, 232
-0.997923, 19, 121, 34, 184
-0.997934, 273, 129, 400, 256
-0.997941, 1, 129, 128, 160
-0.997964, 233, 1, 296, 64
-0.997973, 65, 69, 192, 100
-0.997978, 1, 129, 256, 192
-0.997984, 177, 157, 304, 188
-0.997985, 57, 73, 72, 136
-0.997986, 1, 189, 128, 220
-0.997989, 1, 313, 128, 375
-0.997991, 81, 49, 96, 112
-0.998031, 305, 317, 432, 348
-0.998034, 1, 161, 32, 288
-0.998039, 273, 345, 400, 375
-0.998054, 99, 41, 114, 104
-0.99807, 97, 185, 352, 248
-0.998071, 109, 105, 124, 168
-0.998082, 125, 57, 140, 120
-0.998084, 177, 341, 304, 372
-0.998094, 177, 329, 304, 360
-0.998106, 393, 1, 424, 256
-0.998107, 231, 273, 246, 336
-0.998124, 265, 25, 328, 88
-0.998127, 49, 133, 176, 164
-0.998129, 225, 337, 352, 368
-0.998135, 1, 65, 128, 96
-0.998139, 17, 177, 144, 208
-0.99815, 11, 129, 26, 192
-0.998157, 369, 249, 496, 312
-0.99816, 273, 161, 400, 224
-0.998164, 65, 81, 192, 112
-0.998164, 5, 129, 20, 192
-0.998166, 125, 129, 156, 192
-0.998173, 69, 1, 100, 128
-0.998174, 161, 305, 288, 336
-0.998175, 41, 65, 72, 192
-0.998187, 49, 1, 64, 64
-0.99819, 241, 305, 368, 336
-0.998209, 63, 81, 78, 112
-0.99821, 15, 153, 30, 216
-0.998214, 201, 17, 232, 80
-0.998214, 133, 177, 164, 304
-0.998222, 49, 163, 80, 178
-0.998222, 73, 67, 104, 82
-0.998222, 113, 45, 240, 76
-0.998224, 433, 1, 464, 16
-0.998224, 69, 131, 100, 146
-0.998224, 21, 125, 52, 140
-0.998224, 433, 15, 464, 30
-0.998224, 13, 203, 44, 218
-0.998225, 117, 65, 148, 80
-0.998225, 409, 1, 440, 16
-0.998225, 205, 133, 236, 148
-0.998225, 213, 149, 244, 164
-0.998226, 417, 351, 448, 366
-0.998226, 129, 161, 160, 224
-0.998226, 73, 81, 88, 112
-0.998226, 57, 69, 88, 84
-0.998226, 49, 215, 80, 230
-0.998227, 1, 81, 32, 96
-0.998227, 269, 349, 300, 364
-0.998227, 85, 45, 116, 60
-0.998228, 45, 99, 76, 114
-0.998228, 261, 355, 292, 370
-0.998228, 289, 137, 416, 200
-0.998228, 47, 73, 62, 136
-0.998228, 217, 279, 248, 294
-0.998229, 105, 95, 136, 110
-0.998229, 77, 121, 108, 136
-0.998229, 89, 131, 120, 146
-0.998231, 101, 205, 132, 220
-0.998231, 93, 57, 124, 72
-0.998232, 265, 155, 296, 170
-0.998233, 117, 49, 148, 64
-0.998233, 109, 125, 140, 140
-0.998234, 73, 159, 104, 174
-0.998234, 105, 69, 136, 84
-0.998234, 201, 55, 232, 70
-0.998234, 405, 327, 436, 342
-0.998235, 97, 149, 128, 164
-0.998236, 389, 29, 420, 44
-0.998236, 33, 213, 64, 228
-0.998236, 421, 321, 452, 336
-0.998237, 29, 187, 60, 202
-0.998238, 229, 299, 260, 314
-0.998238, 73, 107, 104, 122
-0.998239, 417, 41, 448, 56
-0.99824, 405, 29, 436, 44
-0.998241, 241, 311, 272, 326
-0.998241, 437, 45, 468, 60
-0.998241, 133, 197, 164, 212
-0.998242, 421, 55, 452, 70
-0.998243, 105, 143, 136, 158
-0.998243, 9, 175, 40, 190
-0.998244, 33, 103, 64, 118
-0.998245, 237, 305, 268, 320
-0.998246, 5, 125, 36, 140
-0.998247, 121, 99, 152, 114
-0.998247, 53, 81, 68, 112
-0.998247, 53, 191, 84, 206
-0.998247, 113, 87, 144, 102
-0.998249, 125, 141, 156, 156
-0.998249, 61, 169, 92, 184
-0.998251, 89, 123, 120, 138
-0.998252, 61, 97, 92, 112
-0.998253, 27, 161, 42, 224
-0.998253, 401, 23, 432, 38
-0.998254, 21, 119, 52, 134
-0.998255, 53, 141, 84, 156
-0.998255, 433, 21, 464, 36
-0.998255, 25, 81, 56, 96
-0.998255, 93, 117, 124, 132
-0.998255, 93, 95, 124, 110
-0.998257, 113, 197, 240, 228
-0.998258, 217, 285, 248, 300
-0.998259, 101, 105, 116, 168
-0.99826, 5, 137, 36, 152
-0.998261, 105, 107, 136, 122
-0.998261, 117, 161, 148, 288
-0.998261, 61, 155, 92, 170
-0.998262, 117, 81, 148, 96
-0.998263, 33, 49, 160, 80
-0.998263, 241, 325, 368, 356
-0.998263, 281, 361, 312, 375
-0.998265, 125, 203, 156, 218
-0.998265, 117, 71, 148, 86
-0.998265, 121, 147, 152, 162
-0.998266, 5, 75, 36, 90
-0.998266, 385, 23, 416, 38
-0.998266, 69, 139, 100, 154
-0.998267, 369, 1, 400, 16
-0.998268, 25, 113, 56, 128
-0.998272, 161, 1, 416, 64
-0.998275, 277, 355, 308, 370
-0.998277, 433, 27, 464, 42
-0.998278, 49, 93, 80, 108
-0.998278, 393, 5, 424, 20
-0.998278, 1, 161, 32, 176
-0.99828, 193, 49, 224, 112
-0.998281, 113, 57, 144, 72
-0.998283, 95, 109, 110, 140
-0.998284, 33, 87, 64, 102
-0.998286, 53, 179, 84, 194
-0.998286, 91, 105, 106, 168
-0.998288, 77, 147, 108, 162
-0.998288, 29, 165, 60, 180
-0.998288, 269, 361, 300, 375
-0.99829, 49, 147, 80, 162
-0.998291, 85, 113, 116, 240
-0.998291, 377, 7, 408, 22
-0.998292, 93, 103, 124, 118
-0.998292, 129, 129, 144, 192
-0.998292, 401, 17, 432, 32
-0.998293, 447, 33, 462, 96
-0.998293, 45, 75, 76, 90
-0.998294, 93, 51, 124, 66
-0.998295, 105, 49, 136, 64
-0.998295, 113, 57, 128, 120
-0.998296, 93, 73, 124, 88
-0.998298, 81, 91, 112, 106
-0.998298, 1, 105, 256, 168
-0.9983, 69, 73, 100, 88
-0.9983, 73, 101, 104, 116
-0.998301, 45, 87, 76, 102
-0.998301, 117, 93, 148, 108
-0.998302, 263, 313, 278, 375
-0.998302, 397, 11, 428, 26
-0.998303, 381, 17, 412, 32
-0.998303, 119, 97, 134, 160
-0.998305, 61, 147, 92, 162
-0.998307, 101, 1, 132, 64
-0.998307, 41, 169, 72, 184
-0.998308, 1, 131, 32, 146
-0.99831, 105, 81, 136, 96
-0.998312, 1, 113, 32, 176
-0.998313, 57, 75, 88, 90
-0.998314, 29, 181, 60, 196
-0.998317, 81, 73, 112, 88
-0.998317, 57, 185, 88, 200
-0.998319, 21, 171, 52, 186
-0.998322, 85, 111, 116, 126
-0.998322, 73, 153, 104, 168
-0.998323, 101, 87, 132, 102
-0.998323, 105, 75, 136, 90
-0.998328, 161, 289, 224, 352
-0.998332, 1, 169, 32, 184
-0.998334, 61, 85, 92, 100
-0.998336, 41, 181, 72, 196
-0.99834, 41, 189, 72, 204
-0.998346, 65, 49, 80, 112
-0.998348, 85, 85, 116, 100
-0.998349, 109, 149, 140, 164
-0.998359, 71, 121, 86, 184
-0.99836, 123, 145, 138, 208
-0.998361, 257, 137, 272, 200
-0.998361, 69, 91, 100, 106
-0.998362, 337, 241, 400, 368
-0.998367, 37, 81, 68, 96
-0.998371, 127, 89, 142, 152
-0.998371, 321, 33, 448, 64
-0.998392, 49, 81, 80, 96
-0.998393, 57, 9, 120, 72
-0.998394, 41, 175, 72, 190
-0.998396, 73, 25, 104, 88
-0.998396, 121, 97, 184, 160
-0.998398, 1, 145, 500, 208
-0.998407, 65, 93, 192, 124
-0.998408, 41, 81, 56, 144
-0.998409, 69, 79, 100, 94
-0.998414, 177, 233, 240, 296
-0.998416, 83, 81, 98, 112
-0.998426, 81, 105, 208, 136
-0.99843, 73, 85, 104, 100
-0.998431, 65, 313, 320, 375
-0.998433, 409, 33, 424, 96
-0.998437, 1, 65, 32, 192
-0.998438, 89, 79, 120, 94
-0.998441, 85, 121, 100, 184
-0.998445, 57, 69, 72, 100
-0.99845, 305, 333, 432, 364
-0.998451, 321, 305, 448, 336
-0.998456, 369, 345, 496, 375
-0.998462, 79, 113, 94, 176
-0.998464, 69, 69, 84, 100
-0.998467, 161, 33, 224, 96
-0.998473, 225, 293, 352, 324
-0.998474, 13, 97, 44, 224
-0.998477, 133, 65, 148, 128
-0.99848, 193, 185, 320, 216
-0.99848, 177, 169, 304, 200
-0.99848, 121, 33, 136, 96
-0.998482, 79, 145, 94, 208
-0.998484, 143, 185, 158, 248
-0.998485, 409, 33, 440, 160
-0.998487, 251, 121, 266, 184
-0.998488, 225, 89, 352, 152
-0.998491, 5, 57, 20, 120
-0.998495, 397, 17, 412, 48
-0.998505, 103, 77, 118, 108
-0.998507, 47, 81, 62, 112
-0.99851, 425, 281, 488, 344
-0.998515, 297, 1, 360, 256
-0.998518, 1, 201, 128, 232
-0.998524, 129, 185, 256, 216
-0.998528, 193, 205, 320, 236
-0.998532, 193, 221, 320, 252
-0.998536, 135, 185, 150, 248
-0.998543, 217, 1, 248, 128
-0.998545, 429, 1, 444, 64
-0.998545, 101, 113, 116, 144
-0.998546, 63, 69, 78, 100
-0.99855, 93, 17, 108, 80
-0.998555, 213, 65, 244, 192
-0.998564, 105, 41, 120, 104
-0.998569, 269, 129, 284, 192
-0.998571, 57, 79, 120, 94
-0.998573, 389, 5, 404, 36
-0.998579, 33, 81, 96, 96
-0.998581, 203, 57, 218, 120
-0.998587, 55, 49, 70, 112
-0.998588, 385, 15, 448, 30
-0.998592, 225, 145, 352, 176
-0.998596, 37, 177, 52, 240
-0.998606, 385, 9, 448, 24
-0.998607, 73, 85, 136, 100
-0.998609, 453, 49, 468, 112
-0.998615, 239, 289, 254, 352
-0.998616, 369, 309, 496, 340
-0.99862, 137, 161, 152, 224
-0.998623, 289, 17, 416, 48
-0.998627, 49, 87, 112, 102
-0.99863, 377, 1, 440, 16
-0.998631, 169, 1, 232, 64
-0.998634, 213, 169, 244, 232
-0.998636, 177, 125, 304, 156
-0.998636, 81, 149, 144, 164
-0.998642, 57, 101, 120, 116
-0.998643, 49, 95, 112, 110
-0.998646, 415, 41, 430, 104
-0.998647, 25, 87, 88, 102
-0.998648, 57, 73, 120, 88
-0.998652, 89, 101, 152, 116
-0.998655, 91, 81, 106, 112
-0.99866, 17, 175, 80, 190
-0.99866, 1, 79, 64, 94
-0.998661, 89, 95, 152, 110
-0.998661, 193, 257, 320, 288
-0.998663, 1, 117, 128, 148
-0.998664, 385, 21, 448, 36
-0.998664, 75, 145, 90, 176
-0.998668, 41, 181, 104, 196
-0.998676, 393, 27, 456, 42
-0.998676, 345, 3, 408, 18
-0.998678, 209, 97, 240, 160
-0.998678, 193, 137, 448, 200
-0.998683, 161, 241, 416, 304
-0.998684, 81, 79, 144, 94
-0.998685, 17, 181, 80, 196
-0.998688, 345, 9, 408, 24
-0.998688, 41, 155, 104, 170
-0.998688, 97, 25, 352, 88
-0.998689, 169, 105, 232, 168
-0.99869, 129, 145, 256, 176
-0.998692, 33, 75, 96, 90
-0.998692, 409, 43, 472, 58
-0.998696, 33, 147, 96, 162
-0.998698, 1, 1, 256, 64
-0.9987, 409, 49, 472, 64
-0.998701, 97, 71, 160, 86
-0.998704, 49, 107, 112, 122
-0.998704, 225, 159, 288, 174
-0.998705, 393, 33, 456, 48
-0.998705, 233, 359, 296, 374
-0.998705, 89, 107, 152, 122
-0.998708, 1, 73, 64, 88
-0.998708, 217, 153, 280, 168
-0.998709, 121, 145, 184, 160
-0.998709, 51, 113, 66, 176
-0.99871, 383, 1, 398, 32
-0.998711, 353, 15, 416, 30
-0.998711, 41, 175, 104, 190
-0.998712, 17, 167, 80, 182
-0.998713, 233, 193, 264, 256
-0.998714, 65, 131, 128, 146
-0.998715, 25, 187, 88, 202
-0.998716, 409, 55, 472, 70
-0.998717, 217, 311, 280, 326
-0.998719, 417, 13, 480, 28
-0.99872, 33, 101, 96, 116
-0.998721, 89, 57, 152, 72
-0.998721, 97, 85, 160, 100
-0.998722, 401, 1, 464, 16
-0.998722, 257, 129, 288, 256
-0.998723, 81, 141, 144, 156
-0.998724, 41, 141, 104, 156
-0.998724, 55, 1, 70, 64
-0.998725, 369, 343, 432, 358
-0.998726, 353, 21, 416, 36
-0.998726, 113, 151, 176, 166
-0.998727, 65, 157, 128, 172
-0.998727, 81, 49, 144, 64
-0.998728, 193, 293, 256, 308
-0.99873, 65, 123, 128, 138
-0.99873, 361, 27, 424, 42
-0.99873, 393, 331, 456, 346
-0.99873, 97, 199, 160, 214
-0.998732, 401, 341, 464, 356
-0.998734, 233, 317, 296, 332
-0.998734, 233, 325, 296, 340
-0.998735, 257, 351, 320, 366
-0.998735, 1, 139, 64, 154
-0.998735, 65, 67, 128, 82
-0.998736, 361, 337, 424, 352
-0.998736, 385, 39, 448, 54
-0.998737, 369, 349, 432, 364
-0.998737, 263, 137, 278, 200
-0.998737, 201, 305, 264, 320
-0.998737, 97, 205, 160, 220
-0.998739, 29, 137, 44, 200
-0.99874, 25, 93, 88, 108
-0.99874, 81, 163, 144, 178
-0.998741, 145, 317, 272, 348
-0.998741, 225, 351, 288, 366
-0.998741, 233, 341, 296, 356
-0.998741, 65, 57, 128, 72
-0.998741, 193, 283, 256, 298
-0.998742, 401, 349, 464, 364
-0.998743, 95, 93, 110, 124
-0.998743, 185, 159, 248, 174
-0.998743, 401, 323, 464, 338
-0.998744, 9, 113, 72, 128
-0.998744, 17, 133, 80, 148
-0.998744, 193, 299, 256, 314
-0.998745, 57, 169, 120, 184
-0.998745, 89, 157, 152, 172
-0.998745, 25, 69, 88, 84
-0.998746, 1, 187, 64, 202
-0.998746, 361, 355, 424, 370
-0.998747, 89, 127, 152, 142
-0.998747, 233, 305, 296, 320
-0.998747, 257, 317, 320, 332
-0.998748, 265, 157, 328, 172
-0.998748, 185, 165, 248, 180
-0.998749, 233, 335, 296, 350
-0.99875, 353, 333, 480, 364
-0.99875, 57, 51, 120, 66
-0.99875, 281, 361, 344, 375
-0.998751, 193, 145, 256, 160
-0.998752, 225, 165, 288, 180
-0.998752, 417, 21, 480, 36
-0.998752, 185, 153, 248, 168
-0.998752, 225, 147, 288, 162
-0.998753, 233, 297, 296, 312
-0.998753, 17, 161, 80, 176
-0.998753, 89, 133, 152, 148
-0.998753, 257, 345, 320, 360
-0.998753, 57, 187, 120, 202
-0.998753, 417, 7, 480, 22
-0.998753, 257, 359, 320, 374
-0.998754, 433, 325, 496, 340
-0.998754, 17, 213, 80, 228
-0.998756, 409, 357, 472, 372
-0.998756, 177, 97, 240, 352
-0.998756, 369, 33, 432, 48
-0.998756, 65, 203, 128, 218
-0.998756, 41, 131, 104, 146
-0.998757, 185, 173, 248, 188
-0.998757, 185, 187, 248, 202
-0.998758, 193, 325, 256, 340
-0.998759, 409, 63, 472, 78
-0.998759, 185, 179, 248, 194
-0.99876, 9, 99, 72, 114
-0.99876, 361, 331, 424, 346
-0.99876, 33, 113, 96, 128
-0.99876, 65, 215, 128, 230
-0.998761, 9, 145, 72, 160
-0.998761, 109, 109, 124, 140
-0.998761, 89, 65, 152, 80
-0.998762, 25, 107, 88, 122
-0.998762, 193, 315, 256, 330
-0.998762, 225, 181, 288, 196
-0.998763, 305, 317, 368, 332
-0.998766, 25, 97, 40, 160
-0.998768, 87, 25, 102, 88
-0.99877, 1, 17, 500, 80
-0.99877, 15, 125, 30, 156
-0.998773, 305, 285, 432, 316
-0.998778, 97, 73, 112, 104
-0.998779, 119, 145, 134, 176
-0.99878, 273, 113, 400, 176
-0.998782, 109, 81, 124, 112
-0.998788, 15, 201, 30, 264
-0.99879, 81, 153, 96, 184
-0.998792, 405, 9, 420, 40
-0.998794, 415, 17, 430, 80
-0.998795, 41, 81, 56, 112
-0.998796, 257, 113, 272, 176
-0.998797, 369, 293, 496, 324
-0.998803, 217, 137, 232, 200
-0.998804, 333, 1, 364, 128
-0.998806, 119, 121, 134, 184
-0.998807, 305, 225, 432, 288
-0.998813, 87, 69, 102, 100
-0.998814, 49, 121, 176, 152
-0.998821, 97, 13, 224, 44
-0.998823, 1, 241, 128, 304
-0.998824, 113, 149, 128, 180
-0.998825, 51, 69, 66, 100
-0.998827, 49, 193, 176, 224
-0.998827, 177, 245, 304, 276
-0.998828, 193, 45, 320, 76
-0.998828, 63, 169, 78, 200
-0.99883, 89, 109, 104, 140
-0.998833, 409, 313, 424, 375
-0.998834, 65, 161, 192, 192
-0.998836, 113, 93, 240, 124
-0.998836, 211, 41, 226, 104
-0.998836, 35, 73, 50, 136
-0.99884, 75, 69, 90, 100
-0.998847, 43, 173, 58, 204
-0.998848, 9, 105, 24, 168
-0.998848, 33, 29, 160, 60
-0.998849, 241, 1, 304, 256
-0.99885, 69, 93, 84, 124
-0.998852, 97, 209, 352, 272
-0.998856, 403, 25, 418, 56
-0.998857, 111, 65, 126, 96
-0.998862, 1, 217, 128, 248
-0.998864, 129, 97, 160, 160
-0.998865, 113, 33, 240, 64
-0.998865, 23, 165, 38, 196
-0.998867, 399, 1, 414, 32
-0.998869, 9, 129, 24, 160
-0.998882, 443, 57, 458, 120
-0.998884, 441, 9, 456, 72
-0.998887, 53, 189, 68, 220
-0.998888, 1, 57, 500, 120
-0.998888, 29, 193, 44, 256
-0.998894, 161, 49, 416, 112
-0.998894, 1, 153, 16, 216
-0.998895, 209, 49, 240, 112
-0.998899, 57, 105, 72, 168
-0.998903, 65, 289, 320, 352
-0.998904, 447, 49, 462, 80
-0.998909, 103, 1, 118, 64
-0.998909, 57, 173, 72, 204
-0.998916, 109, 97, 124, 128
-0.998917, 117, 69, 132, 100
-0.99892, 113, 1, 176, 375
-0.998925, 1, 33, 32, 288
-0.998928, 137, 169, 200, 232
-0.998928, 113, 161, 240, 192
-0.998929, 125, 145, 140, 176
-0.99893, 369, 321, 496, 352
-0.998931, 369, 1, 400, 64
-0.998936, 121, 53, 136, 84
-0.998939, 193, 233, 320, 264
-0.99894, 81, 69, 96, 100
-0.998942, 129, 193, 144, 224
-0.998942, 125, 113, 156, 240
-0.998945, 77, 93, 92, 124
-0.998948, 73, 145, 88, 208
-0.998949, 101, 101, 116, 132
-0.998952, 203, 25, 218, 88
-0.998953, 89, 33, 120, 288
-0.998955, 119, 133, 134, 164
-0.998957, 65, 137, 80, 168
-0.998957, 91, 121, 106, 152
-0.998963, 207, 1, 222, 64
-0.99897, 177, 273, 304, 304
-0.998973, 215, 9, 230, 72
-0.998975, 45, 105, 60, 168
-0.998979, 141, 193, 156, 224
-0.99898, 97, 1, 224, 32
-0.99898, 241, 157, 368, 188
-0.998985, 135, 89, 150, 152
-0.998995, 75, 157, 90, 188
-0.998995, 207, 113, 222, 176
-0.998995, 225, 185, 240, 248
-0.999, 269, 313, 284, 375
-0.999, 21, 49, 52, 176
-0.999001, 87, 145, 102, 176
-0.999002, 113, 209, 240, 240
-0.999006, 193, 33, 320, 64
-0.999008, 121, 93, 136, 124
-0.999012, 275, 337, 290, 368
-0.999012, 227, 249, 242, 312
-0.999015, 447, 37, 462, 68
-0.999017, 113, 81, 240, 112
-0.999018, 45, 69, 60, 100
-0.99902, 21, 121, 36, 152
-0.999024, 211, 89, 226, 152
-0.999025, 5, 177, 20, 240
-0.999025, 51, 193, 66, 256
-0.999027, 45, 185, 60, 216
-0.999027, 63, 97, 78, 160
-0.999027, 7, 69, 22, 100
-0.999027, 225, 281, 352, 312
-0.999031, 235, 145, 250, 208
-0.999033, 1, 17, 16, 80
-0.999035, 135, 189, 150, 220
-0.999036, 105, 1, 136, 256
-0.999037, 117, 169, 132, 232
-0.999038, 55, 93, 70, 124
-0.999039, 275, 305, 290, 368
-0.999039, 49, 33, 64, 96
-0.99904, 233, 285, 248, 316
-0.999042, 131, 33, 146, 96
-0.999043, 177, 293, 304, 324
-0.999043, 257, 257, 500, 320
-0.999046, 239, 257, 254, 320
-0.99905, 73, 133, 88, 164
-0.999052, 129, 173, 256, 204
-0.999056, 435, 17, 450, 80
-0.999056, 129, 185, 144, 248
-0.999064, 455, 9, 470, 72
-0.999067, 423, 1, 438, 64
-0.999067, 161, 153, 224, 216
-0.999068, 113, 193, 128, 256
-0.99907, 353, 49, 480, 80
-0.99907, 131, 205, 146, 236
-0.999073, 21, 193, 52, 320
-0.999074, 409, 73, 472, 136
-0.999076, 133, 177, 148, 208
-0.999076, 63, 93, 78, 124
-0.999078, 129, 133, 256, 164
-0.999081, 87, 97, 102, 128
-0.999082, 85, 129, 116, 192
-0.999084, 113, 33, 128, 96
-0.999086, 227, 153, 242, 216
-0.999086, 13, 113, 28, 144
-0.999088, 131, 45, 146, 76
-0.999089, 409, 325, 424, 356
-0.999097, 15, 177, 30, 240
-0.999102, 133, 85, 148, 116
-0.999104, 85, 145, 100, 208
-0.999104, 43, 1, 58, 64
-0.999107, 113, 333, 240, 364
-0.999109, 3, 125, 18, 156
-0.99911, 267, 289, 282, 352
-0.999111, 99, 125, 114, 156
-0.999114, 17, 1, 144, 32
-0.999116, 369, 281, 496, 312
-0.999119, 41, 49, 56, 112
-0.999122, 13, 201, 28, 232
-0.999122, 111, 53, 126, 84
-0.99913, 193, 113, 320, 144
-0.999136, 407, 37, 422, 68
-0.999137, 65, 205, 192, 236
-0.999138, 273, 193, 336, 256
-0.999139, 125, 69, 140, 100
-0.99914, 235, 193, 250, 256
-0.999141, 441, 25, 456, 56
-0.999144, 21, 209, 36, 272
-0.999144, 449, 73, 464, 136
-0.999147, 49, 93, 64, 124
-0.999149, 115, 145, 130, 208
-0.99915, 69, 153, 84, 184
-0.99915, 369, 97, 496, 160
-0.999152, 15, 97, 30, 160
-0.999152, 115, 93, 130, 124
-0.999155, 103, 65, 118, 96
-0.999158, 37, 145, 52, 208
-0.999159, 43, 201, 58, 264
-0.99916, 453, 57, 468, 88
-0.99916, 15, 213, 30, 244
-0.999164, 113, 57, 240, 88
-0.999164, 83, 117, 98, 148
-0.99917, 93, 45, 108, 76
-0.999171, 233, 129, 264, 375
-0.999172, 125, 205, 140, 236
-0.999175, 1, 141, 16, 172
-0.999175, 413, 241, 444, 368
-0.999176, 143, 181, 158, 212
-0.999177, 225, 113, 480, 176
-0.99918, 411, 21, 426, 52
-0.999182, 257, 241, 320, 304
-0.999185, 321, 1, 384, 375
-0.999191, 61, 185, 76, 216
-0.999192, 109, 133, 124, 164
-0.999193, 101, 89, 116, 120
-0.999195, 81, 141, 96, 172
-0.999197, 27, 109, 42, 140
-0.999199, 227, 269, 242, 300
-0.999202, 305, 273, 432, 304
-0.999203, 79, 129, 94, 160
-0.999203, 409, 341, 424, 372
-0.999205, 221, 133, 236, 164
-0.999205, 275, 153, 290, 184
-0.999207, 17, 97, 48, 352
-0.99921, 281, 341, 296, 372
-0.999211, 211, 125, 226, 156
-0.999211, 239, 293, 254, 324
-0.999212, 131, 133, 146, 164
-0.999213, 127, 93, 142, 124
-0.999215, 241, 265, 368, 296
-0.999216, 125, 81, 140, 112
-0.999221, 87, 133, 102, 164
-0.999222, 177, 13, 304, 44
-0.999226, 441, 37, 456, 68
-0.999227, 67, 193, 82, 224
-0.999228, 267, 157, 282, 188
-0.999232, 125, 41, 140, 72
-0.999233, 207, 53, 222, 84
-0.999235, 33, 17, 160, 48
-0.999238, 113, 345, 240, 375
-0.999244, 203, 37, 218, 68
-0.99925, 257, 141, 272, 172
-0.999256, 117, 105, 132, 136
-0.999258, 93, 57, 108, 88
-0.999259, 47, 141, 62, 172
-0.999259, 413, 45, 428, 76
-0.999261, 135, 73, 150, 104
-0.999263, 433, 17, 448, 48
-0.999263, 241, 13, 368, 44
-0.999265, 269, 345, 284, 375
-0.999267, 453, 37, 468, 68
-0.999267, 177, 1, 304, 32
-0.999269, 17, 169, 32, 200
-0.999269, 1, 77, 16, 108
-0.999273, 51, 157, 66, 188
-0.999273, 43, 105, 58, 136
-0.999282, 209, 97, 240, 352
-0.999283, 397, 1, 412, 128
-0.999285, 193, 101, 320, 132
-0.999287, 193, 161, 448, 224
-0.999294, 97, 117, 224, 148
-0.999312, 49, 241, 176, 304
-0.999312, 265, 137, 296, 200
-0.999319, 1, 97, 500, 160
-0.999333, 65, 181, 192, 212
-0.99934, 369, 33, 496, 64
-0.999342, 177, 201, 240, 264
-0.999346, 177, 1, 240, 256
-0.999349, 33, 129, 96, 375
-0.999352, 305, 45, 432, 76
-0.999355, 225, 133, 352, 164
-0.999355, 1, 257, 256, 320
-0.999355, 225, 169, 352, 200
-0.999366, 273, 1, 400, 32
-0.999387, 69, 1, 100, 256
-0.999393, 113, 301, 240, 332
-0.999398, 257, 185, 500, 248
-0.999399, 5, 129, 36, 375
-0.9994, 1, 289, 128, 352
-0.999419, 445, 1, 476, 128
-0.999424, 129, 97, 384, 160
-0.999432, 241, 25, 368, 56
-0.999439, 145, 225, 272, 256
-0.999441, 317, 1, 348, 128
-0.999445, 161, 73, 416, 136
-0.999455, 95, 121, 110, 136
-0.999455, 273, 353, 288, 368
-0.999456, 409, 323, 424, 338
-0.999456, 117, 79, 132, 94
-0.999456, 69, 217, 84, 232
-0.999456, 103, 113, 118, 128
-0.999456, 125, 85, 140, 100
-0.999457, 15, 135, 30, 150
-0.999458, 133, 205, 148, 220
-0.999458, 69, 141, 84, 156
-0.999458, 45, 75, 60, 90
-0.999459, 119, 85, 134, 100
-0.99946, 43, 93, 58, 108
-0.99946, 45, 167, 60, 182
-0.999461, 73, 73, 88, 88
-0.999461, 13, 203, 28, 218
-0.999461, 35, 179, 50, 194
-0.999461, 67, 155, 82, 170
-0.999463, 57, 191, 72, 206
-0.999463, 89, 121, 104, 136
-0.999463, 447, 51, 462, 66
-0.999464, 41, 181, 56, 196
-0.999464, 99, 71, 114, 86
-0.999464, 141, 205, 156, 220
-0.999464, 231, 283, 246, 298
-0.999465, 129, 99, 144, 114
-0.999465, 93, 49, 108, 64
-0.999465, 61, 173, 76, 188
-0.999466, 109, 195, 124, 210
-0.999467, 131, 143, 146, 158
-0.999467, 127, 203, 142, 218
-0.999468, 121, 57, 136, 72
-0.999468, 85, 101, 100, 116
-0.999468, 3, 131, 18, 146
-0.999468, 101, 121, 116, 136
-0.999468, 21, 127, 36, 142
-0.999469, 77, 143, 92, 158
-0.99947, 281, 355, 296, 370
-0.99947, 29, 209, 60, 272
-0.99947, 47, 185, 62, 200
-0.99947, 61, 141, 76, 156
-0.99947, 119, 153, 134, 168
-0.999471, 217, 1, 248, 256
-0.999471, 125, 49, 140, 64
-0.999471, 43, 175, 58, 190
-0.999471, 111, 115, 126, 130
-0.999473, 111, 97, 126, 112
-0.999474, 65, 147, 80, 162
-0.999474, 397, 7, 412, 22
-0.999474, 135, 99, 150, 114
-0.999475, 57, 85, 72, 100
-0.999475, 101, 103, 116, 118
-0.999475, 135, 199, 150, 214
-0.999477, 391, 1, 406, 128
-0.999478, 5, 73, 20, 88
-0.999479, 119, 141, 134, 156
-0.999481, 91, 95, 106, 110
-0.999481, 3, 139, 18, 154
-0.999481, 169, 257, 232, 320
-0.999481, 83, 73, 98, 88
-0.999483, 129, 91, 144, 106
-0.999483, 111, 77, 126, 92
-0.999483, 13, 123, 28, 138
-0.999484, 11, 75, 26, 90
-0.999484, 115, 49, 130, 64
-0.999484, 111, 57, 126, 72
-0.999484, 65, 91, 80, 106
-0.999484, 97, 91, 112, 106
-0.999484, 51, 167, 66, 182
-0.999485, 93, 73, 108, 88
-0.999486, 405, 19, 420, 34
-0.999486, 119, 71, 134, 86
-0.999486, 113, 253, 240, 284
-0.999486, 23, 175, 38, 190
-0.999487, 91, 111, 106, 126
-0.999487, 111, 87, 126, 102
-0.999488, 113, 147, 128, 162
-0.999488, 95, 101, 110, 116
-0.999488, 103, 51, 118, 66
-0.999488, 83, 151, 98, 166
-0.999489, 5, 79, 20, 94
-0.99949, 109, 47, 124, 62
-0.99949, 21, 145, 36, 272
-0.999492, 79, 157, 94, 172
-0.999492, 39, 79, 54, 94
-0.999494, 15, 129, 30, 144
-0.999494, 51, 191, 66, 206
-0.999495, 397, 23, 412, 38
-0.999497, 389, 1, 404, 16
-0.999498, 9, 135, 24, 150
-0.9995, 73, 157, 88, 172
-0.999501, 283, 361, 298, 375
-0.999501, 9, 129, 24, 144
-0.999502, 401, 13, 416, 28
-0.999502, 107, 107, 122, 122
-0.999503, 79, 91, 94, 106
-0.999503, 337, 265, 400, 328
-0.999503, 67, 71, 82, 86
-0.999504, 39, 87, 54, 102
-0.999505, 381, 1, 396, 16
-0.999505, 15, 169, 30, 184
-0.999505, 387, 7, 402, 22
-0.999505, 193, 57, 320, 88
-0.999508, 61, 179, 76, 194
-0.999509, 273, 359, 288, 374
-0.999511, 393, 17, 408, 32
-0.999511, 241, 121, 368, 152
-0.999511, 121, 93, 136, 108
-0.999513, 109, 71, 124, 86
-0.999514, 1, 229, 128, 260
-0.999516, 403, 17, 418, 144
-0.999517, 71, 147, 86, 162
-0.99952, 71, 97, 86, 112
-0.999521, 113, 237, 240, 268
-0.999521, 51, 75, 66, 90
-0.999523, 61, 73, 76, 88
-0.999524, 51, 87, 66, 102
-0.999524, 153, 129, 216, 192
-0.999526, 99, 85, 114, 100
-0.999528, 105, 81, 120, 96
-0.999529, 125, 149, 140, 164
-0.999532, 73, 91, 88, 106
-0.999533, 61, 185, 76, 200
-0.999535, 63, 85, 78, 100
-0.999535, 1, 225, 256, 288
-0.999536, 1, 241, 128, 368
-0.999536, 9, 113, 24, 240
-0.999537, 97, 111, 112, 126
-0.999539, 197, 1, 228, 256
-0.999539, 113, 69, 240, 100
-0.999541, 45, 87, 60, 102
-0.999543, 99, 65, 114, 192
-0.999544, 53, 181, 68, 196
-0.999551, 77, 149, 92, 164
-0.999553, 77, 79, 92, 94
-0.999556, 241, 189, 368, 220
-0.999559, 21, 167, 36, 182
-0.999559, 51, 113, 66, 240
-0.999561, 1, 185, 32, 248
-0.999563, 91, 85, 106, 100
-0.999565, 257, 233, 500, 296
-0.999574, 107, 33, 122, 160
-0.999577, 69, 79, 84, 94
-0.999578, 119, 147, 134, 162
-0.999582, 45, 81, 60, 96
-0.999582, 73, 81, 88, 208
-0.999589, 217, 305, 248, 368
-0.99959, 99, 77, 114, 92
-0.999593, 405, 1, 436, 256
-0.999594, 121, 33, 136, 160
-0.999594, 93, 79, 108, 94
-0.999594, 73, 85, 88, 100
-0.999594, 63, 79, 78, 94
-0.999595, 353, 61, 480, 92
-0.999595, 45, 113, 60, 240
-0.999596, 51, 173, 66, 188
-0.999597, 89, 65, 104, 192
-0.999597, 83, 79, 98, 94
-0.9996, 369, 269, 496, 300
-0.999602, 257, 45, 384, 76
-0.999602, 83, 85, 98, 100
-0.999602, 15, 113, 30, 240
-0.999607, 51, 81, 66, 96
-0.999608, 57, 79, 72, 94
-0.999608, 203, 49, 218, 176
-0.999608, 33, 1, 64, 64
-0.999608, 433, 1, 448, 128
-0.999614, 29, 65, 60, 320
-0.999621, 49, 201, 112, 264
-0.999629, 51, 161, 66, 288
-0.999632, 63, 129, 78, 256
-0.999634, 3, 113, 18, 240
-0.999635, 305, 261, 432, 292
-0.999639, 225, 245, 352, 276
-0.999642, 113, 289, 240, 320
-0.999646, 257, 209, 384, 240
-0.999647, 445, 1, 460, 128
-0.999647, 427, 1, 442, 128
-0.999649, 209, 33, 224, 160
-0.999653, 83, 49, 98, 176
-0.999654, 235, 129, 250, 256
-0.999655, 49, 217, 176, 248
-0.999666, 115, 33, 130, 160
-0.999667, 67, 49, 82, 176
-0.999671, 113, 265, 240, 296
-0.999674, 193, 85, 320, 116
-0.999689, 231, 241, 246, 368
-0.999689, 409, 1, 424, 128
-0.999691, 13, 1, 44, 256
-0.999692, 281, 129, 344, 192
-0.999694, 65, 265, 192, 328
-0.999695, 5, 89, 36, 152
-0.999697, 249, 113, 264, 240
-0.999699, 73, 129, 88, 256
-0.999699, 21, 97, 36, 224
-0.9997, 117, 81, 132, 208
-0.999701, 27, 145, 42, 272
-0.999706, 125, 81, 140, 208
-0.999706, 81, 113, 96, 240
-0.999706, 193, 69, 320, 100
-0.999706, 289, 185, 416, 248
-0.999707, 109, 81, 140, 208
-0.999708, 57, 113, 72, 240
-0.999709, 203, 97, 218, 224
-0.99971, 337, 289, 400, 352
-0.999712, 121, 129, 152, 375
-0.999713, 99, 17, 114, 144
-0.999715, 15, 161, 30, 288
-0.99972, 145, 1, 208, 375
-0.999723, 267, 113, 282, 240
-0.999727, 49, 1, 64, 128
-0.999732, 137, 161, 152, 288
-0.999733, 93, 1, 108, 128
-0.999734, 215, 1, 230, 128
-0.999737, 127, 1, 142, 128
-0.999738, 121, 145, 136, 272
-0.999746, 225, 177, 240, 304
-0.999747, 49, 237, 176, 268
-0.999749, 111, 81, 126, 208
-0.999756, 369, 265, 432, 328
-0.999759, 61, 65, 76, 192
-0.999759, 67, 1, 82, 128
-0.999762, 255, 113, 270, 240
-0.999765, 45, 161, 60, 288
-0.999766, 415, 33, 430, 160
-0.999766, 43, 65, 58, 192
-0.999767, 39, 113, 54, 240
-0.999767, 385, 1, 400, 128
-0.999772, 369, 121, 496, 184
-0.999774, 73, 97, 104, 352
-0.999774, 57, 161, 72, 288
-0.999775, 455, 17, 470, 144
-0.999776, 219, 129, 234, 256
-0.999777, 1, 121, 500, 184
-0.99978, 201, 1, 216, 128
-0.99978, 97, 113, 112, 240
-0.999782, 77, 33, 92, 160
-0.999784, 421, 1, 436, 128
-0.999787, 257, 209, 500, 272
-0.999787, 229, 129, 244, 256
-0.999789, 447, 49, 462, 176
-0.999792, 1, 1, 16, 128
-0.999793, 131, 129, 146, 256
-0.999795, 27, 97, 42, 224
-0.999796, 261, 113, 276, 240
-0.999797, 59, 1, 74, 128
-0.999801, 237, 209, 252, 336
-0.999802, 131, 81, 146, 208
-0.999804, 105, 81, 120, 208
-0.999806, 417, 1, 448, 256
-0.999807, 5, 177, 20, 304
-0.999807, 87, 113, 102, 240
-0.999808, 1, 249, 128, 280
-0.999808, 209, 81, 224, 208
-0.999813, 225, 1, 352, 32
-0.999815, 137, 97, 152, 224
-0.999817, 219, 81, 234, 208
-0.999819, 33, 113, 48, 240
-0.999822, 243, 97, 258, 224
-0.999824, 221, 225, 236, 352
-0.999831, 231, 193, 246, 320
-0.999832, 145, 113, 272, 144
-0.999834, 253, 105, 284, 168
-0.999834, 273, 305, 304, 368
-0.999834, 421, 49, 436, 176
-0.999837, 439, 1, 454, 128
-0.999839, 45, 1, 76, 256
-0.99984, 321, 1, 336, 128
-0.99984, 51, 49, 66, 176
-0.99984, 309, 17, 340, 80
-0.999842, 291, 33, 306, 160
-0.999846, 243, 241, 258, 368
-0.999847, 229, 81, 244, 208
-0.999847, 339, 1, 354, 128
-0.99985, 127, 177, 142, 304
-0.99985, 143, 161, 158, 288
-0.999854, 257, 65, 272, 192
-0.999854, 29, 193, 44, 320
-0.999855, 39, 161, 54, 288
-0.99986, 37, 49, 52, 176
-0.999862, 223, 1, 238, 128
-0.999863, 485, 81, 500, 208
-0.999863, 7, 65, 22, 192
-0.999864, 133, 1, 148, 128
-0.999867, 1, 49, 16, 176
-0.999869, 13, 65, 28, 192
-0.99987, 345, 1, 360, 128
-0.999871, 419, 241, 434, 368
-0.999882, 211, 193, 226, 320
-0.999883, 197, 49, 212, 176
-0.999884, 299, 33, 314, 160
-0.999884, 213, 129, 228, 256
-0.999885, 333, 1, 348, 128
-0.999885, 67, 177, 82, 304
-0.999886, 87, 1, 102, 128
-0.999887, 233, 1, 248, 128
-0.999887, 479, 97, 494, 224
-0.999888, 229, 1, 260, 256
-0.999888, 235, 81, 250, 208
-0.99989, 43, 1, 58, 128
-0.999892, 259, 241, 274, 368
-0.999893, 241, 233, 368, 264
-0.999896, 429, 49, 444, 176
-0.9999, 201, 193, 216, 320
-0.9999, 369, 73, 496, 104
-0.999902, 97, 225, 224, 256
-0.999902, 353, 1, 368, 128
-0.999904, 15, 1, 30, 128
-0.999905, 241, 65, 368, 128
-0.999905, 209, 241, 224, 368
-0.999905, 439, 49, 454, 176
-0.999907, 327, 1, 342, 128
-0.999909, 21, 193, 36, 320
-0.999909, 289, 113, 304, 240
-0.999912, 229, 65, 260, 192
-0.999912, 253, 241, 284, 368
-0.999912, 143, 113, 158, 240
-0.999913, 273, 113, 288, 240
-0.999914, 297, 113, 312, 240
-0.999915, 285, 1, 300, 128
-0.999915, 115, 145, 130, 272
-0.999917, 267, 65, 282, 192
-0.999919, 253, 161, 284, 224
-0.999928, 241, 221, 368, 252
-0.999934, 273, 145, 400, 176
-0.999936, 253, 1, 284, 256
-0.999949, 233, 25, 296, 88
-0.999951, 281, 1, 312, 256
-0.999959, 57, 1, 88, 256
-0.999959, 281, 193, 344, 320
-0.99996, 49, 241, 176, 368
-0.999971, 121, 1, 152, 256
-0.999972, 17, 265, 144, 328
-0.999979, 253, 65, 284, 192
-0.999979, 433, 1, 464, 256
-0.999985, 101, 25, 132, 88
-0.999996, 281, 33, 312, 160
-1, 53, 97, 84, 352
-1.00001, 5, 1, 36, 128
-1.00001, 313, 25, 376, 88
-1.00005, 297, 241, 360, 368
-1.00009, 121, 201, 152, 264
-1.00009, 105, 97, 136, 352
-1.0001, 197, 97, 228, 352
-1.0001, 133, 97, 164, 352
-1.0001, 297, 1, 328, 256
-1.0001, 201, 73, 232, 136
-1.00011, 273, 169, 336, 232
-1.00011, 185, 1, 216, 256
-1.00011, 257, 49, 500, 112
-1.00012, 281, 129, 312, 192
-1.00013, 245, 97, 276, 352
-1.00016, 221, 1, 252, 64
-1.00016, 329, 1, 392, 128
-1.00018, 381, 1, 412, 256
-1.00019, 273, 97, 336, 224
-1.00019, 317, 1, 348, 256
-1.0002, 249, 177, 312, 240
-1.00021, 221, 129, 252, 375
-1.00021, 297, 313, 360, 375
-1.00022, 389, 305, 420, 368
-1.00024, 265, 1, 296, 256
-1.00025, 193, 1, 224, 128
-1.00031, 241, 1, 272, 256
-1.00031, 297, 33, 328, 160
-1.00032, 233, 169, 264, 232
-1.00035, 81, 177, 144, 304
-1.00036, 445, 1, 476, 256
-1.00036, 369, 241, 432, 368
-1.00037, 369, 225, 496, 288
-1.00037, 321, 73, 448, 136
-1.00038, 281, 241, 344, 304
-1.00038, 369, 193, 496, 256
-1.00039, 1, 185, 500, 248
-1.00039, 257, 97, 288, 352
-1.00039, 41, 129, 72, 375
-1.00041, 1, 209, 32, 272
-1.00042, 353, 161, 480, 224
-1.00044, 1, 225, 500, 288
-1.00044, 1, 281, 500, 344
-1.00044, 213, 193, 244, 256
-1.00044, 253, 281, 284, 344
-1.00048, 269, 129, 300, 375
-1.0005, 229, 265, 260, 328
-1.00051, 85, 129, 116, 375
-1.00053, 329, 1, 360, 256
-1.00053, 289, 25, 320, 88
-1.00053, 437, 49, 468, 112
-1.00055, 57, 9, 88, 72
-1.00056, 213, 217, 244, 280
-1.00059, 433, 121, 496, 184
-1.00063, 113, 1, 176, 64
-1.00064, 133, 1, 164, 256
-1.00064, 249, 129, 312, 375
-1.00066, 141, 169, 172, 232
-1.00068, 285, 97, 316, 352
-1.00068, 137, 129, 168, 256
-1.0007, 465, 129, 496, 375
-1.00071, 1, 209, 64, 336
-1.00071, 185, 129, 216, 375
-1.00075, 197, 225, 228, 352
-1.00075, 13, 41, 44, 104
-1.00081, 57, 1, 88, 128
-1.00082, 465, 1, 496, 256
-1.00083, 421, 49, 452, 176
-1.00085, 433, 97, 496, 224
-1.00085, 33, 1, 64, 128
-1.00086, 305, 49, 432, 112
-1.00087, 289, 113, 320, 240
-1.00088, 149, 129, 180, 375
-1.00089, 257, 89, 500, 152
-1.0009, 301, 97, 332, 352
-1.0009, 277, 113, 308, 240
-1.00092, 241, 65, 272, 192
-1.00092, 341, 1, 372, 256
-1.00092, 113, 129, 176, 375
-1.00094, 433, 97, 464, 352
-1.00095, 461, 49, 492, 176
-1.00097, 449, 33, 480, 96
-1.00097, 273, 89, 400, 152
-1.00098, 289, 81, 416, 208
-1.00099, 409, 129, 440, 375
-1.00103, 249, 217, 312, 280
-1.00105, 265, 49, 328, 112
-1.00107, 145, 1, 176, 256
-1.00108, 421, 313, 452, 375
-1.00109, 453, 129, 484, 375
-1.0011, 1, 305, 500, 368
-1.00112, 173, 1, 204, 256
-1.00112, 9, 225, 72, 288
-1.00114, 1, 249, 500, 312
-1.00117, 165, 129, 196, 375
-1.00117, 61, 33, 92, 96
-1.00118, 313, 129, 344, 375
-1.00119, 421, 97, 452, 352
-1.00119, 73, 233, 136, 296
-1.00119, 33, 241, 96, 304
-1.00119, 389, 129, 420, 375
-1.0012, 213, 25, 244, 88
-1.0012, 121, 33, 184, 288
-1.00122, 233, 161, 264, 288
-1.00123, 329, 97, 360, 352
-1.00123, 373, 1, 404, 128
-1.00125, 265, 161, 296, 224
-1.00126, 373, 129, 404, 375
-1.00127, 321, 105, 448, 168
-1.00128, 105, 217, 168, 280
-1.00129, 105, 145, 136, 272
-1.0013, 161, 1, 192, 256
-1.00134, 445, 1, 476, 64
-1.00137, 341, 129, 372, 375
-1.00137, 425, 97, 488, 160
-1.00138, 249, 193, 312, 320
-1.0014, 337, 1, 368, 64
-1.00142, 357, 129, 388, 375
-1.00142, 161, 177, 224, 240
-1.00145, 41, 209, 72, 272
-1.00147, 233, 241, 264, 304
-1.0015, 353, 1, 384, 256
-1.00151, 73, 1, 104, 64
-1.00151, 281, 217, 344, 280
-1.00151, 33, 121, 64, 184
-1.00152, 269, 241, 300, 368
-1.00153, 73, 177, 104, 240
-1.00156, 257, 1, 320, 64
-1.00156, 1, 41, 32, 104
-1.00156, 365, 1, 396, 256
-1.00159, 197, 297, 228, 360
-1.00161, 25, 49, 56, 112
-1.00162, 469, 97, 500, 224
-1.00163, 57, 201, 88, 264
-1.00165, 265, 65, 296, 192
-1.00166, 197, 169, 228, 232
-1.00168, 321, 1, 352, 64
-1.0017, 133, 65, 164, 192
-1.00172, 85, 153, 116, 216
-1.00176, 241, 97, 272, 160
-1.00183, 17, 73, 48, 136
-1.00184, 197, 161, 228, 288
-1.00189, 205, 273, 236, 336
-1.00194, 121, 1, 152, 64
-1.00198, 401, 273, 432, 336
-1.002, 17, 1, 48, 128
-1.002, 433, 241, 496, 368
-1.00203, 229, 217, 260, 280
-1.00205, 461, 65, 492, 128
-1.00207, 225, 1, 288, 128
-1.00209, 345, 1, 376, 128
-1.00209, 241, 265, 272, 328
-1.00209, 189, 25, 220, 88
-1.00217, 189, 97, 220, 224
-1.00221, 129, 177, 192, 304
-1.00231, 185, 209, 216, 336
-1.00235, 229, 1, 260, 128
-1.00247, 289, 49, 352, 176
-1.00253, 149, 129, 180, 256
-1.00256, 273, 145, 336, 272
-1.00263, 69, 193, 100, 320
-1.00263, 369, 177, 496, 304
-1.00265, 433, 241, 464, 368
-1.00267, 153, 33, 216, 288
-1.00269, 309, 193, 340, 320
-1.00271, 181, 1, 212, 128
-1.00272, 401, 241, 432, 368
-1.00278, 153, 177, 216, 304
-1.00279, 281, 97, 344, 352
-1.00284, 9, 225, 40, 352
-1.00284, 145, 129, 208, 375
-1.00292, 389, 241, 420, 368
-1.00293, 345, 1, 408, 375
-1.00293, 369, 97, 496, 224
-1.00293, 93, 177, 124, 304
-1.00295, 257, 1, 320, 128
-1.00298, 309, 49, 340, 176
-1.00307, 181, 145, 212, 272
-1.00309, 81, 177, 112, 304
-1.00309, 445, 49, 476, 176
-1.00319, 377, 49, 440, 176
-1.0032, 129, 1, 160, 128
-1.00334, 25, 225, 88, 352
-1.00337, 69, 241, 100, 368
-1.00347, 433, 129, 496, 375
-1.00348, 457, 1, 488, 128
-1.00356, 281, 241, 312, 368
-1.0037, 37, 209, 68, 336
-1.0037, 245, 193, 276, 320
-1.00372, 297, 193, 328, 320
-1.00379, 301, 129, 332, 256
-1.00382, 309, 241, 340, 368
-1.00382, 329, 241, 360, 368
-1.00392, 321, 1, 384, 256
-1.00397, 57, 209, 88, 336
-1.00406, 469, 145, 500, 272
-1.00412, 353, 241, 384, 368
-1.00416, 65, 241, 128, 368
-1.0042, 281, 193, 312, 320
-1.00422, 265, 177, 296, 304
-1.00436, 469, 225, 500, 352
-1.00438, 297, 113, 360, 240
-1.00446, 81, 225, 112, 352
-1.00452, 433, 65, 464, 192
-1.00454, 261, 1, 292, 128
-1.00465, 325, 49, 356, 176
-1.00466, 245, 17, 276, 144
-1.0047, 369, 193, 432, 320
-1.00471, 401, 129, 464, 375
-1.00478, 373, 225, 404, 352
-1.00483, 457, 97, 488, 224
-1.00484, 341, 225, 372, 352
-1.00486, 329, 193, 392, 320
-1.00491, 357, 1, 388, 128
-1.00501, 297, 241, 328, 368
-1.00506, 445, 241, 476, 368
-1.0051, 433, 193, 464, 320
-1.00511, 105, 193, 136, 320
-1.00522, 457, 241, 488, 368
-1.00523, 145, 193, 176, 320
-1.00523, 361, 129, 424, 375
-1.00523, 321, 49, 384, 176
-1.0053, 405, 193, 436, 320
-1.00545, 121, 209, 152, 336
-1.00546, 145, 81, 176, 208
-1.00558, 145, 241, 208, 368
-1.00559, 317, 113, 348, 240
-1.00574, 145, 1, 208, 128
-1.00587, 321, 129, 448, 256
-1.00607, 305, 97, 368, 352
-1.00652, 401, 193, 464, 320
-1.00664, 337, 129, 400, 375
-1.0072, 305, 193, 368, 320
-1.00726, 145, 49, 208, 176
-1.00779, 433, 177, 496, 304
-1.00831, 121, 225, 184, 352
-1.00847, 89, 225, 152, 352
-1.00935, 385, 145, 448, 272
-1.01048, 337, 145, 400, 272
-1.01098, 409, 97, 472, 224
-1.01139, 321, 97, 384, 224
-1.01139, 361, 113, 424, 240
-1.01163, 345, 65, 408, 192
-1.01282, 409, 145, 472, 272
-1.01348, 385, 97, 448, 224
