1981
-0.349644, 1, 129, 500, 374
-0.364148, 1, 1, 500, 374
-0.455417, 1, 33, 500, 288
-0.504085, 257, 1, 500, 374
-0.584302, 1, 129, 256, 374
-0.636617, 129, 129, 384, 374
-0.646639, 129, 1, 384, 374
-0.658088, 33, 1, 288, 374
-0.658554, 257, 97, 500, 352
-0.717146, 257, 1, 500, 256
-0.822945, 129, 33, 384, 288
-0.840557, 97, 129, 224, 374
-0.844194, 1, 145, 500, 272
-0.85637, 225, 129, 352, 374
-0.860832, 1, 33, 256, 288
-0.868056, 145, 129, 272, 374
-0.880345, 1, 193, 500, 320
-0.880376, 17, 129, 144, 374
-0.888728, 257, 1, 384, 374
-0.892988, 305, 1, 432, 374
-0.895171, 33, 129, 288, 256
-0.900892, 369, 129, 496, 374
-0.901836, 305, 97, 432, 352
-0.911114, 1, 97, 500, 224
-0.911674, 65, 193, 320, 320
-0.911748, 193, 145, 448, 272
-0.912414, 81, 1, 208, 374
-0.916199, 209, 1, 336, 374
-0.917879, 353, 1, 480, 374
-0.922721, 209, 145, 336, 272
-0.922957, 97, 33, 224, 288
-0.923229, 161, 1, 288, 374
-0.923252, 305, 1, 432, 256
-0.925615, 161, 193, 416, 320
-0.928735, 225, 33, 352, 288
-0.929751, 33, 1, 160, 374
-0.930577, 81, 129, 208, 256
-0.934828, 145, 193, 272, 320
-0.935008, 145, 145, 272, 272
-0.935851, 257, 97, 500, 224
-0.936159, 49, 33, 176, 288
-0.936521, 145, 33, 272, 288
-0.9368, 177, 161, 240, 288
-0.939407, 1, 241, 500, 368
-0.941926, 257, 193, 500, 320
-0.94239, 177, 209, 240, 336
-0.943118, 209, 193, 336, 320
-0.94434, 1, 177, 128, 304
-0.944487, 153, 145, 216, 272
-0.946005, 89, 129, 152, 256
-0.946512, 217, 145, 280, 272
-0.946521, 273, 225, 400, 352
-0.947935, 257, 49, 500, 176
-0.948494, 337, 193, 464, 320
-0.949141, 353, 1, 480, 256
-0.949913, 153, 193, 216, 320
-0.950401, 65, 209, 192, 336
-0.951181, 1, 49, 500, 176
-0.951779, 65, 145, 128, 272
-0.951845, 177, 169, 240, 232
-0.951907, 129, 209, 192, 336
-0.951968, 273, 225, 336, 352
-0.952038, 201, 193, 264, 320
-0.953864, 41, 145, 104, 272
-0.95444, 129, 201, 192, 264
-0.955646, 193, 241, 448, 368
-0.955839, 33, 129, 160, 256
-0.955873, 113, 129, 176, 256
-0.955956, 337, 145, 464, 272
-0.956831, 289, 177, 416, 304
-0.956888, 433, 81, 496, 208
-0.958002, 81, 201, 144, 264
-0.958154, 305, 193, 368, 320
-0.959465, 105, 209, 168, 272
-0.95947, 273, 249, 336, 312
-0.959949, 161, 97, 416, 224
-0.960113, 217, 153, 280, 216
-0.960128, 105, 225, 168, 352
-0.960312, 225, 241, 352, 368
-0.961194, 89, 177, 152, 304
-0.961302, 161, 193, 224, 256
-0.962568, 417, 145, 480, 272
-0.962808, 265, 145, 328, 272
-0.962855, 385, 209, 448, 272
-0.963624, 193, 145, 256, 208
-0.964344, 233, 177, 296, 240
-0.964429, 337, 225, 400, 352
-0.965085, 393, 145, 456, 272
-0.965304, 1, 33, 128, 288
-0.965535, 185, 113, 248, 240
-0.965612, 97, 241, 352, 368
-0.966121, 1, 193, 64, 320
-0.966617, 385, 193, 448, 320
-0.967486, 49, 161, 112, 224
-0.967989, 73, 225, 136, 352
-0.968032, 257, 129, 384, 256
-0.96805, 417, 193, 480, 320
-0.968079, 193, 193, 256, 256
-0.968693, 129, 193, 256, 256
-0.968731, 225, 193, 288, 320
-0.969243, 161, 129, 224, 374
-0.969774, 113, 129, 176, 374
-0.969777, 393, 137, 456, 200
-0.969885, 297, 249, 360, 312
-0.97073, 1, 241, 256, 368
-0.970942, 369, 145, 432, 272
-0.970958, 353, 241, 416, 304
-0.971091, 25, 177, 88, 240
-0.971137, 161, 169, 288, 232
-0.971456, 249, 193, 312, 320
-0.97177, 385, 185, 448, 248
-0.971783, 209, 97, 336, 224
-0.972166, 81, 201, 208, 264
-0.972219, 417, 217, 480, 280
-0.972272, 177, 225, 240, 288
-0.972299, 321, 97, 448, 224
-0.972359, 57, 193, 120, 256
-0.972372, 137, 129, 200, 374
-0.972438, 213, 145, 244, 272
-0.972523, 377, 233, 440, 296
-0.972583, 129, 97, 256, 224
-0.972612, 265, 153, 328, 216
-0.972664, 157, 201, 188, 264
-0.972753, 33, 81, 288, 208
-0.972826, 293, 233, 324, 296
-0.973276, 425, 161, 488, 224
-0.973344, 153, 145, 216, 208
-0.973352, 113, 241, 240, 368
-0.973422, 265, 225, 328, 288
-0.973444, 201, 217, 264, 280
-0.973525, 129, 49, 384, 176
-0.973835, 129, 201, 160, 264
-0.973898, 385, 97, 448, 224
-0.974143, 217, 129, 280, 374
-0.974429, 1, 1, 500, 128
-0.974435, 101, 201, 132, 264
-0.974452, 141, 201, 172, 264
-0.974498, 433, 97, 496, 160
-0.974712, 293, 209, 324, 336
-0.974721, 273, 281, 336, 344
-0.974827, 417, 97, 480, 352
-0.974831, 189, 145, 220, 272
-0.974888, 153, 209, 184, 336
-0.974911, 273, 225, 400, 288
-0.975029, 297, 145, 360, 272
-0.975112, 197, 209, 228, 336
-0.975301, 313, 217, 376, 280
-0.975622, 209, 209, 240, 336
-0.975749, 89, 193, 120, 256
-0.975823, 177, 145, 208, 272
-0.975828, 113, 201, 144, 264
-0.975933, 169, 201, 200, 264
-0.975961, 225, 201, 256, 264
-0.97605, 201, 161, 232, 288
-0.97606, 225, 153, 256, 216
-0.976243, 1, 201, 128, 264
-0.976249, 305, 241, 368, 368
-0.976386, 425, 121, 488, 184
-0.976452, 353, 217, 480, 280
-0.97655, 393, 161, 456, 224
-0.976568, 101, 129, 132, 256
-0.976624, 197, 161, 228, 224
-0.976627, 361, 201, 424, 264
-0.976664, 225, 153, 352, 216
-0.976704, 17, 225, 144, 352
-0.976745, 81, 145, 112, 272
-0.976863, 361, 193, 424, 320
-0.976864, 161, 289, 224, 352
-0.976886, 153, 241, 216, 368
-0.976932, 181, 185, 212, 248
-0.976969, 185, 129, 248, 374
-0.976972, 177, 145, 304, 208
-0.976996, 153, 225, 216, 288
-0.977251, 369, 97, 496, 224
-0.977313, 73, 225, 136, 288
-0.977333, 225, 129, 256, 256
-0.977431, 193, 217, 320, 280
-0.977787, 225, 193, 352, 256
-0.977877, 161, 241, 288, 368
-0.978007, 185, 209, 216, 336
-0.978109, 297, 281, 360, 344
-0.978224, 73, 145, 136, 208
-0.978256, 409, 97, 472, 224
-0.978286, 241, 145, 304, 272
-0.978307, 129, 225, 192, 288
-0.97832, 265, 129, 328, 374
-0.978358, 65, 129, 128, 374
-0.978365, 393, 105, 456, 168
-0.978579, 165, 145, 196, 272
-0.978631, 225, 201, 288, 264
-0.978664, 141, 209, 172, 336
-0.978683, 49, 209, 112, 336
-0.978809, 105, 185, 168, 248
-0.979139, 89, 129, 152, 374
-0.979191, 305, 1, 432, 128
-0.979422, 257, 1, 500, 128
-0.979434, 373, 233, 404, 296
-0.979483, 225, 193, 256, 320
-0.979491, 165, 193, 196, 320
-0.979491, 137, 297, 200, 360
-0.979645, 337, 209, 400, 272
-0.979768, 417, 185, 480, 248
-0.979847, 433, 113, 464, 240
-0.979878, 121, 209, 152, 336
-0.979939, 305, 249, 336, 312
-0.979988, 137, 145, 168, 272
-0.980294, 217, 177, 248, 240
-0.980425, 337, 241, 464, 368
-0.980444, 185, 289, 248, 352
-0.980664, 93, 177, 124, 304
-0.980688, 105, 297, 168, 360
-0.980703, 209, 241, 272, 368
-0.980711, 225, 249, 352, 312
-0.98096, 149, 145, 180, 272
-0.980962, 293, 257, 324, 320
-0.981025, 209, 145, 240, 208
-0.981058, 81, 145, 208, 208
-0.981066, 305, 225, 336, 352
-0.98107, 337, 193, 464, 256
-0.981148, 113, 137, 176, 200
-0.981272, 145, 217, 272, 280
-0.981299, 245, 153, 276, 216
-0.981359, 289, 249, 416, 312
-0.981414, 69, 145, 100, 272
-0.981568, 49, 97, 112, 224
-0.981748, 41, 129, 104, 374
-0.981777, 241, 129, 304, 374
-0.981879, 97, 233, 160, 296
-0.981935, 121, 145, 152, 272
-0.982002, 413, 129, 444, 256
-0.98222, 289, 129, 352, 374
-0.982368, 413, 177, 444, 240
-0.982389, 129, 145, 256, 208
-0.982399, 337, 241, 464, 304
-0.982525, 217, 97, 280, 224
-0.982558, 1, 281, 64, 344
-0.982685, 337, 153, 464, 216
-0.982694, 321, 265, 384, 328
-0.982808, 57, 297, 120, 360
-0.982909, 393, 129, 456, 374
-0.982968, 145, 97, 208, 224
-0.982975, 465, 89, 496, 152
-0.983143, 77, 193, 108, 256
-0.983143, 353, 49, 480, 176
-0.983163, 289, 217, 352, 280
-0.983201, 241, 281, 304, 344
-0.983259, 249, 249, 312, 312
-0.98332, 97, 297, 224, 360
-0.983479, 9, 201, 72, 264
-0.983529, 445, 97, 476, 224
-0.983557, 49, 217, 112, 280
-0.983611, 229, 177, 260, 240
-0.98363, 241, 153, 304, 216
-0.983686, 177, 193, 304, 256
-0.984004, 65, 81, 192, 208
-0.984139, 413, 137, 444, 200
-0.984149, 241, 281, 368, 344
-0.984249, 437, 113, 468, 176
-0.984308, 25, 289, 88, 352
-0.984342, 49, 169, 176, 232
-0.984426, 397, 209, 428, 272
-0.984478, 161, 1, 416, 128
-0.98451, 177, 145, 208, 208
-0.984595, 153, 169, 216, 232
-0.984641, 273, 201, 400, 264
-0.984664, 161, 289, 288, 352
-0.984706, 421, 209, 452, 272
-0.984743, 421, 177, 452, 304
-0.984746, 49, 225, 176, 288
-0.984752, 329, 241, 392, 304
-0.984756, 465, 81, 496, 208
-0.984793, 433, 249, 496, 312
-0.984836, 409, 241, 472, 304
-0.984982, 109, 225, 140, 352
-0.984999, 257, 81, 384, 208
-0.985052, 1, 177, 128, 240
-0.985092, 281, 241, 312, 304
-0.985172, 329, 177, 392, 304
-0.985176, 209, 281, 272, 344
-0.985398, 401, 49, 464, 176
-0.985414, 57, 145, 88, 272
-0.98548, 241, 177, 272, 240
-0.985632, 237, 145, 268, 272
-0.98586, 301, 145, 332, 272
-0.985935, 109, 177, 140, 304
-0.985961, 197, 225, 228, 288
-0.985991, 81, 177, 144, 240
-0.98605, 169, 225, 200, 288
-0.986094, 249, 201, 312, 264
-0.986151, 369, 129, 432, 374
-0.986188, 305, 49, 432, 176
-0.986208, 209, 225, 240, 288
-0.986234, 197, 137, 228, 200
-0.98624, 81, 297, 144, 360
-0.986462, 305, 225, 336, 288
-0.9868, 73, 153, 104, 216
-0.986898, 53, 169, 84, 232
-0.986925, 277, 145, 308, 272
-0.986949, 201, 113, 232, 240
-0.987012, 261, 153, 292, 216
-0.987016, 305, 281, 336, 344
-0.987065, 393, 145, 424, 208
-0.987075, 373, 209, 404, 272
-0.987127, 433, 241, 496, 368
-0.987223, 273, 97, 336, 224
-0.98724, 433, 1, 496, 374
-0.987252, 281, 225, 312, 352
-0.9873, 357, 241, 388, 304
-0.987407, 137, 225, 168, 288
-0.987419, 97, 225, 224, 288
-0.987553, 65, 193, 320, 256
-0.987574, 97, 225, 128, 288
-0.987582, 449, 105, 480, 168
-0.987622, 369, 137, 432, 200
-0.987651, 13, 193, 44, 320
-0.987727, 41, 177, 72, 240
-0.987766, 397, 145, 428, 272
-0.987847, 277, 153, 308, 216
-0.987859, 129, 169, 192, 232
-0.987914, 357, 225, 388, 352
-0.98797, 289, 129, 416, 192
-0.988017, 425, 137, 456, 200
-0.988128, 113, 169, 240, 232
-0.988153, 233, 225, 296, 288
-0.988185, 433, 161, 464, 288
-0.988199, 181, 225, 212, 288
-0.988208, 241, 1, 368, 128
-0.988223, 289, 145, 320, 272
-0.988317, 289, 161, 352, 224
-0.988352, 213, 201, 244, 264
-0.988422, 33, 145, 160, 208
-0.98844, 297, 193, 360, 256
-0.988524, 81, 209, 112, 336
-0.988561, 369, 113, 496, 176
-0.988583, 249, 145, 280, 272
-0.988605, 369, 225, 400, 352
-0.98864, 345, 193, 376, 320
-0.988671, 353, 209, 384, 272
-0.988694, 97, 225, 128, 352
-0.988874, 409, 209, 440, 336
-0.988937, 17, 297, 144, 360
-0.988995, 337, 241, 368, 368
-0.989036, 237, 217, 268, 280
-0.989123, 125, 225, 156, 288
-0.989134, 157, 233, 188, 296
-0.989136, 369, 161, 432, 224
-0.989281, 237, 209, 268, 336
-0.989288, 1, 185, 500, 248
-0.989343, 429, 185, 460, 248
-0.98939, 225, 129, 352, 192
-0.9894, 409, 225, 440, 288
-0.989403, 185, 185, 248, 216
-0.989702, 25, 193, 88, 320
-0.989749, 121, 273, 184, 336
-0.989805, 469, 241, 500, 304
-0.989814, 1, 209, 32, 336
-0.98984, 149, 297, 180, 360
-0.989849, 97, 121, 224, 184
-0.989896, 65, 273, 192, 336
-0.989936, 265, 241, 328, 272
-0.989946, 73, 201, 136, 232
-0.989956, 161, 265, 224, 328
-0.989982, 297, 97, 360, 224
-0.990002, 289, 1, 352, 374
-0.990045, 313, 129, 376, 374
-0.990088, 177, 265, 304, 328
-0.99012, 73, 273, 136, 336
-0.990121, 273, 161, 400, 224
-0.990137, 217, 129, 280, 192
-0.990141, 305, 1, 432, 64
-0.990166, 345, 265, 408, 328
-0.990169, 193, 193, 224, 256
-0.99017, 193, 289, 224, 352
-0.990175, 393, 193, 424, 320
-0.990178, 433, 161, 464, 224
-0.990202, 193, 173, 256, 204
-0.990208, 177, 33, 240, 288
-0.990262, 317, 249, 348, 312
-0.990296, 97, 33, 160, 288
-0.990299, 273, 285, 336, 316
-0.990324, 1, 145, 500, 208
-0.99041, 201, 217, 264, 248
-0.990499, 273, 253, 336, 284
-0.990524, 289, 273, 416, 336
-0.990555, 385, 233, 448, 264
-0.990577, 225, 257, 288, 320
-0.990578, 109, 225, 140, 288
-0.99059, 289, 237, 352, 268
-0.990644, 177, 289, 208, 352
-0.990656, 225, 193, 288, 224
-0.990658, 425, 113, 456, 176
-0.990713, 225, 185, 480, 248
-0.990722, 97, 209, 160, 240
-0.990745, 185, 265, 248, 328
-0.990783, 225, 181, 288, 212
-0.990787, 249, 241, 312, 368
-0.990789, 393, 141, 456, 172
-0.99093, 385, 205, 448, 236
-0.990931, 17, 273, 144, 336
-0.990978, 217, 161, 280, 192
-0.990999, 81, 217, 112, 280
-0.99103, 1, 65, 128, 192
-0.991051, 177, 197, 240, 228
-0.991053, 297, 285, 360, 316
-0.991066, 317, 209, 348, 336
-0.991075, 57, 289, 88, 352
-0.991092, 169, 169, 232, 200
-0.991095, 33, 145, 288, 208
-0.991111, 293, 281, 324, 344
-0.991166, 137, 33, 200, 288
-0.991197, 65, 225, 128, 256
-0.991203, 41, 185, 104, 216
-0.991229, 425, 161, 488, 192
-0.991233, 173, 241, 204, 368
-0.991267, 49, 273, 112, 336
-0.991271, 177, 229, 240, 260
-0.991277, 305, 137, 368, 200
-0.991286, 193, 149, 256, 180
-0.991288, 161, 121, 224, 184
-0.991291, 137, 297, 168, 360
-0.991299, 97, 233, 160, 264
-0.991315, 25, 193, 56, 320
-0.99132, 393, 153, 456, 184
-0.991352, 17, 129, 80, 374
-0.991359, 361, 237, 424, 268
-0.991368, 393, 129, 456, 160
-0.991376, 1, 209, 500, 272
-0.991378, 97, 305, 160, 336
-0.991382, 221, 225, 252, 288
-0.991383, 249, 1, 312, 374
-0.991401, 73, 65, 136, 192
-0.991403, 385, 189, 448, 220
-0.991426, 305, 25, 432, 88
-0.99143, 441, 137, 472, 200
-0.991437, 137, 193, 200, 224
-0.991446, 201, 229, 264, 260
-0.991452, 385, 221, 448, 252
-0.991461, 409, 217, 472, 248
-0.991466, 249, 153, 312, 184
-0.991483, 89, 145, 152, 176
-0.991496, 29, 193, 60, 256
-0.991498, 137, 209, 200, 240
-0.991502, 433, 237, 496, 268
-0.991534, 129, 233, 192, 264
-0.99156, 25, 205, 88, 236
-0.991562, 385, 169, 448, 200
-0.991574, 333, 193, 364, 320
-0.991588, 1, 225, 64, 288
-0.991616, 313, 1, 376, 374
-0.99162, 65, 153, 128, 184
-0.991622, 385, 201, 416, 264
-0.991633, 193, 209, 448, 272
-0.991634, 97, 273, 160, 336
-0.991653, 345, 209, 408, 240
-0.991665, 153, 233, 216, 264
-0.991665, 193, 161, 256, 192
-0.99167, 417, 201, 480, 232
-0.991683, 153, 297, 216, 328
-0.991714, 29, 289, 60, 352
-0.991717, 177, 293, 240, 324
-0.99174, 321, 277, 384, 308
-0.991743, 41, 301, 104, 332
-0.991757, 73, 33, 136, 288
-0.991762, 385, 33, 448, 288
-0.991766, 297, 261, 360, 292
-0.991769, 465, 225, 496, 352
-0.991803, 129, 301, 192, 332
-0.99181, 257, 129, 320, 192
-0.991827, 81, 121, 144, 184
-0.991848, 265, 229, 328, 260
-0.991848, 297, 249, 360, 280
-0.991882, 425, 189, 488, 220
-0.991909, 285, 209, 316, 272
-0.991927, 273, 281, 304, 344
-0.991927, 33, 169, 288, 232
-0.991931, 293, 237, 324, 268
-0.991933, 113, 221, 176, 252
-0.991935, 85, 145, 116, 208
-0.991951, 353, 81, 480, 144
-0.99196, 73, 213, 136, 244
-0.991973, 321, 241, 384, 272
-0.992016, 409, 201, 440, 264
-0.992016, 165, 289, 196, 352
-0.992018, 385, 233, 416, 296
-0.992021, 249, 281, 312, 312
-0.992033, 425, 125, 488, 156
-0.992039, 301, 161, 332, 224
-0.992052, 225, 225, 288, 256
-0.992069, 433, 257, 496, 288
-0.992093, 425, 177, 488, 208
-0.992095, 113, 137, 144, 200
-0.992096, 257, 145, 500, 208
-0.992098, 425, 137, 488, 168
-0.992098, 25, 265, 88, 328
-0.992105, 353, 249, 416, 280
-0.992119, 433, 97, 496, 128
-0.992121, 161, 185, 224, 216
-0.992124, 113, 297, 144, 360
-0.992129, 433, 109, 496, 140
-0.992155, 257, 177, 288, 240
-0.992168, 409, 229, 472, 260
-0.992184, 273, 165, 336, 196
-0.992202, 249, 177, 312, 208
-0.992205, 105, 193, 168, 224
-0.992209, 393, 113, 456, 144
-0.992212, 113, 145, 176, 176
-0.992218, 305, 221, 368, 252
-0.992219, 341, 265, 372, 328
-0.992229, 49, 209, 112, 240
-0.99223, 153, 149, 216, 180
-0.992246, 397, 121, 428, 184
-0.992262, 265, 129, 296, 256
-0.992275, 281, 273, 344, 304
-0.992288, 357, 177, 388, 304
-0.992289, 153, 221, 216, 252
-0.992294, 361, 225, 424, 256
-0.992324, 353, 97, 416, 224
-0.992354, 65, 305, 128, 336
-0.99236, 321, 289, 384, 320
-0.992365, 57, 165, 120, 196
-0.992383, 1, 241, 64, 368
-0.992386, 69, 209, 100, 336
-0.992406, 125, 137, 156, 200
-0.992418, 425, 149, 488, 180
-0.99242, 201, 165, 232, 196
-0.992427, 205, 289, 236, 352
-0.99243, 409, 241, 472, 272
-0.992438, 409, 1, 472, 374
-0.992481, 433, 73, 496, 136
-0.9925, 1, 289, 64, 320
-0.992513, 69, 297, 100, 360
-0.992528, 201, 289, 264, 320
-0.992546, 177, 121, 304, 184
-0.992548, 233, 205, 296, 236
-0.992554, 329, 221, 392, 252
-0.992565, 345, 129, 408, 374
-0.992568, 201, 197, 264, 228
-0.992598, 185, 189, 216, 220
-0.992608, 165, 177, 196, 240
-0.992618, 249, 217, 312, 248
-0.992633, 461, 217, 492, 280
-0.992636, 269, 193, 300, 320
-0.992645, 225, 217, 256, 248
-0.99265, 261, 281, 292, 344
-0.992651, 385, 1, 448, 374
-0.992687, 225, 181, 256, 212
-0.992689, 361, 193, 424, 224
-0.992709, 305, 245, 336, 276
-0.992711, 289, 281, 320, 312
-0.992718, 281, 241, 312, 272
-0.992745, 161, 153, 416, 216
-0.992747, 369, 149, 432, 180
-0.992761, 209, 177, 240, 208
-0.992763, 25, 241, 88, 368
-0.992767, 185, 177, 216, 208
-0.992772, 97, 145, 128, 208
-0.992773, 225, 285, 288, 316
-0.992774, 49, 197, 112, 228
-0.992793, 301, 285, 332, 316
-0.992798, 373, 237, 404, 268
-0.992814, 177, 217, 240, 248
-0.992816, 85, 197, 116, 228
-0.992841, 369, 137, 432, 168
-0.992842, 105, 65, 168, 192
-0.992849, 237, 197, 268, 228
-0.992852, 465, 97, 496, 128
-0.992859, 249, 189, 312, 220
-0.992863, 421, 81, 452, 208
-0.992871, 401, 101, 464, 132
-0.992909, 73, 205, 104, 236
-0.992919, 225, 141, 288, 172
-0.99292, 225, 1, 288, 374
-0.992926, 213, 149, 244, 180
-0.992942, 421, 225, 452, 256
-0.99295, 401, 229, 432, 260
-0.992951, 241, 161, 272, 192
-0.992953, 237, 289, 268, 352
-0.992954, 77, 97, 108, 224
-0.992961, 17, 193, 80, 224
-0.992972, 257, 173, 288, 204
-0.992974, 101, 205, 132, 236
-0.992976, 241, 245, 304, 276
-0.992978, 225, 241, 256, 368
-0.992982, 413, 177, 444, 208
-0.992984, 413, 161, 444, 192
-0.992989, 81, 293, 144, 324
-0.99299, 105, 293, 168, 324
-0.992998, 201, 229, 232, 260
-0.993001, 165, 193, 196, 224
-0.993002, 321, 205, 384, 236
-0.99301, 297, 149, 360, 180
-0.99302, 65, 217, 320, 280
-0.993029, 41, 221, 104, 252
-0.993031, 185, 137, 248, 168
-0.993035, 289, 73, 416, 136
-0.993038, 65, 201, 96, 264
-0.993043, 113, 209, 144, 240
-0.993043, 449, 109, 480, 140
-0.993043, 293, 249, 324, 280
-0.993044, 137, 181, 200, 212
-0.993056, 413, 209, 444, 240
-0.993068, 137, 209, 168, 240
-0.993075, 213, 229, 244, 260
-0.993079, 397, 149, 428, 180
-0.993079, 125, 297, 156, 360
-0.993079, 129, 289, 192, 320
-0.993082, 337, 265, 400, 296
-0.993084, 81, 189, 144, 220
-0.993085, 245, 177, 276, 208
-0.993085, 289, 225, 320, 256
-0.993087, 417, 149, 448, 180
-0.993092, 225, 165, 256, 196
-0.993094, 385, 245, 448, 276
-0.993094, 313, 289, 344, 320
-0.993098, 97, 229, 128, 260
-0.993104, 1, 217, 64, 248
-0.99311, 329, 281, 360, 312
-0.993114, 437, 117, 468, 148
-0.993116, 177, 177, 304, 208
-0.993118, 469, 249, 500, 280
-0.993124, 273, 177, 336, 208
-0.993135, 169, 205, 200, 236
-0.993138, 197, 181, 228, 212
-0.993138, 361, 241, 424, 368
-0.993139, 413, 189, 444, 220
-0.993142, 145, 301, 176, 332
-0.993154, 125, 209, 156, 240
-0.993156, 81, 153, 112, 184
-0.993159, 129, 233, 160, 264
-0.99316, 69, 161, 100, 192
-0.993161, 169, 229, 200, 260
-0.993163, 25, 289, 88, 320
-0.993167, 157, 233, 188, 264
-0.99317, 153, 285, 216, 316
-0.993182, 189, 165, 220, 196
-0.993185, 305, 105, 432, 168
-0.993189, 305, 257, 336, 288
-0.993199, 57, 297, 88, 328
-0.993202, 249, 269, 312, 300
-0.993202, 189, 229, 220, 260
-0.993208, 105, 113, 168, 176
-0.993217, 233, 229, 264, 260
-0.993221, 85, 225, 116, 256
-0.993229, 305, 225, 320, 288
-0.993237, 305, 233, 336, 264
-0.993239, 101, 297, 132, 360
-0.993242, 189, 149, 220, 180
-0.993247, 349, 205, 380, 236
-0.993252, 57, 169, 88, 200
-0.993254, 93, 149, 124, 180
-0.993264, 157, 209, 188, 240
-0.993264, 441, 133, 472, 164
-0.993265, 425, 117, 456, 148
-0.993272, 145, 197, 176, 228
-0.993273, 117, 233, 148, 264
-0.993275, 1, 345, 64, 374
-0.993277, 393, 217, 424, 248
-0.993278, 437, 153, 468, 184
-0.993286, 137, 137, 168, 200
-0.993289, 277, 281, 308, 312
-0.993291, 105, 145, 136, 176
-0.993292, 449, 121, 480, 152
-0.993292, 249, 189, 280, 220
-0.993295, 141, 233, 172, 264
-0.993299, 105, 133, 168, 164
-0.993307, 57, 209, 88, 240
-0.993308, 409, 253, 472, 284
-0.99331, 393, 205, 424, 236
-0.993311, 341, 269, 372, 300
-0.993312, 313, 273, 344, 304
-0.993312, 33, 193, 64, 224
-0.993313, 281, 253, 312, 284
-0.993318, 137, 137, 200, 168
-0.993318, 197, 293, 228, 324
-0.99332, 121, 197, 152, 228
-0.99332, 341, 281, 372, 312
-0.993322, 1, 225, 128, 288
-0.993324, 393, 97, 424, 224
-0.993325, 221, 205, 252, 236
-0.993325, 117, 221, 148, 252
-0.993329, 145, 169, 208, 200
-0.993329, 357, 217, 388, 248
-0.993329, 429, 209, 460, 240
-0.993331, 425, 133, 456, 164
-0.993334, 125, 305, 156, 336
-0.993336, 33, 169, 96, 200
-0.993339, 301, 165, 332, 196
-0.993345, 133, 197, 164, 228
-0.993345, 85, 209, 116, 240
-0.993348, 181, 293, 212, 324
-0.993348, 1, 205, 64, 236
-0.993349, 269, 153, 300, 184
-0.993354, 377, 225, 408, 256
-0.993355, 29, 293, 60, 324
-0.993357, 169, 293, 200, 324
-0.993359, 25, 153, 88, 184
-0.993364, 311, 241, 326, 304
-0.993369, 113, 305, 144, 336
-0.993371, 317, 249, 348, 280
-0.993372, 257, 153, 288, 184
-0.993376, 433, 105, 464, 136
-0.993376, 33, 1, 96, 374
-0.993385, 73, 221, 104, 252
-0.993385, 309, 221, 340, 252
-0.993386, 201, 145, 232, 176
-0.993387, 117, 145, 148, 176
-0.993387, 393, 165, 424, 196
-0.993388, 101, 301, 132, 332
-0.993391, 41, 181, 72, 212
-0.993392, 321, 193, 384, 224
-0.993393, 157, 305, 188, 336
-0.993394, 237, 217, 268, 248
-0.993394, 377, 205, 408, 236
-0.993396, 273, 153, 336, 184
-0.9934, 409, 89, 472, 120
-0.993401, 209, 217, 240, 248
-0.993402, 265, 177, 328, 240
-0.993403, 405, 133, 436, 164
-0.993408, 329, 253, 392, 284
-0.993408, 77, 305, 108, 336
-0.993409, 393, 193, 424, 224
-0.993415, 433, 165, 464, 196
-0.993416, 457, 241, 488, 272
-0.993417, 369, 249, 400, 280
-0.993419, 193, 1, 256, 374
-0.99342, 393, 181, 424, 212
-0.993423, 201, 277, 264, 308
-0.993425, 301, 273, 332, 304
-0.993425, 177, 149, 208, 180
-0.993427, 401, 81, 464, 144
-0.99343, 17, 201, 48, 264
-0.993432, 429, 193, 460, 224
-0.993436, 13, 285, 44, 316
-0.993441, 261, 185, 292, 216
-0.993444, 13, 281, 44, 344
-0.99345, 225, 153, 256, 184
-0.993461, 105, 193, 136, 224
-0.993468, 289, 153, 320, 216
-0.993473, 145, 221, 176, 252
-0.993473, 1, 121, 128, 184
-0.993474, 233, 285, 264, 316
-0.993476, 433, 177, 464, 208
-0.993561, 409, 241, 472, 368
-0.993585, 377, 177, 408, 304
-0.993603, 393, 169, 424, 232
-0.993626, 257, 89, 500, 152
-0.993647, 17, 145, 80, 272
-0.993657, 129, 289, 384, 352
-0.993688, 257, 121, 500, 184
-0.993708, 73, 1, 136, 374
-0.99372, 189, 97, 220, 224
-0.993762, 273, 233, 400, 264
-0.993798, 313, 145, 344, 272
-0.993798, 143, 201, 158, 264
-0.993817, 217, 289, 248, 352
-0.993822, 353, 1, 416, 374
-0.993823, 185, 121, 248, 184
-0.993837, 249, 281, 280, 344
-0.993859, 461, 177, 492, 304
-0.993879, 353, 113, 416, 176
-0.993894, 225, 1, 352, 64
-0.993984, 129, 265, 256, 328
-0.994048, 89, 97, 120, 224
-0.994069, 171, 201, 186, 264
-0.994073, 169, 97, 200, 224
-0.994109, 145, 201, 272, 232
-0.99416, 165, 145, 196, 208
-0.994181, 353, 265, 384, 328
-0.994181, 329, 273, 360, 336
-0.994185, 239, 177, 254, 240
-0.994185, 111, 201, 126, 264
-0.994218, 95, 193, 110, 256
-0.994237, 445, 49, 476, 176
-0.994238, 213, 97, 244, 224
-0.994247, 257, 193, 288, 320
-0.994277, 345, 177, 408, 240
-0.994294, 137, 121, 200, 184
-0.994347, 155, 201, 170, 264
-0.994385, 5, 217, 36, 280
-0.994385, 123, 209, 138, 272
-0.994421, 137, 201, 152, 264
-0.99444, 257, 233, 500, 296
-0.994453, 129, 1, 192, 374
-0.994475, 289, 49, 416, 112
-0.994502, 129, 201, 144, 264
-0.994504, 329, 289, 392, 352
-0.994547, 45, 161, 76, 288
-0.994551, 65, 205, 192, 236
-0.994576, 149, 201, 164, 264
-0.994583, 269, 177, 300, 240
-0.994591, 269, 249, 300, 312
-0.994627, 385, 121, 416, 184
-0.994633, 161, 189, 288, 220
-0.994637, 299, 249, 314, 312
-0.994651, 117, 201, 132, 264
-0.994662, 241, 97, 304, 224
-0.994724, 235, 209, 250, 272
-0.994751, 299, 225, 314, 288
-0.99476, 161, 201, 176, 264
-0.994825, 113, 97, 144, 224
-0.994851, 1, 217, 128, 248
-0.994855, 105, 201, 120, 264
-0.994858, 337, 209, 464, 240
-0.994893, 177, 201, 192, 264
-0.994958, 1, 257, 64, 320
-0.994997, 205, 145, 220, 208
-0.995054, 425, 1, 488, 256
-0.995089, 213, 145, 228, 208
-0.995092, 305, 33, 368, 288
-0.995138, 233, 153, 248, 216
-0.995171, 317, 249, 332, 312
-0.995178, 1, 281, 500, 344
-0.995191, 193, 225, 320, 256
-0.995208, 225, 105, 352, 168
-0.995215, 337, 265, 464, 328
-0.995258, 281, 121, 344, 184
-0.995277, 149, 137, 180, 200
-0.995281, 1, 121, 500, 184
-0.995288, 17, 201, 144, 232
-0.995335, 317, 273, 348, 336
-0.995374, 305, 249, 320, 312
-0.995395, 225, 165, 352, 196
-0.995452, 375, 233, 390, 296
-0.995465, 293, 233, 308, 296
-0.995467, 145, 213, 272, 244
-0.995495, 89, 193, 104, 256
-0.995513, 191, 185, 206, 248
-0.995514, 199, 153, 214, 216
-0.995534, 169, 1, 232, 374
-0.995541, 85, 305, 116, 368
-0.995546, 209, 49, 336, 176
-0.995584, 257, 65, 500, 128
-0.995593, 229, 265, 260, 328
-0.995652, 223, 145, 238, 208
-0.995668, 453, 81, 484, 144
-0.995671, 241, 285, 368, 316
-0.995717, 177, 165, 304, 196
-0.99572, 185, 185, 200, 248
-0.995721, 241, 201, 256, 264
-0.995742, 313, 145, 344, 208
-0.995742, 421, 233, 452, 296
-0.995799, 239, 153, 254, 216
-0.995802, 191, 145, 206, 208
-0.995825, 161, 233, 416, 296
-0.995828, 97, 189, 224, 220
-0.995829, 457, 257, 488, 320
-0.995858, 177, 153, 304, 184
-0.995863, 241, 25, 368, 88
-0.995874, 129, 49, 256, 176
-0.995895, 81, 145, 208, 176
-0.995908, 273, 245, 400, 276
-0.99594, 231, 185, 246, 248
-0.995941, 145, 97, 176, 224
-0.995951, 1, 297, 256, 360
-0.995977, 49, 113, 176, 176
-0.996, 1, 1, 64, 374
-0.996036, 173, 129, 204, 374
-0.996046, 407, 145, 422, 208
-0.996047, 305, 41, 368, 104
-0.996072, 161, 129, 416, 192
-0.996106, 225, 273, 480, 336
-0.996111, 17, 137, 80, 200
-0.996112, 1, 265, 256, 328
-0.996114, 101, 177, 132, 240
-0.996136, 337, 197, 464, 228
-0.996137, 225, 177, 240, 240
-0.996149, 253, 241, 284, 368
-0.996173, 321, 185, 384, 248
-0.996212, 229, 209, 244, 272
-0.996213, 237, 97, 268, 224
-0.996239, 341, 201, 372, 264
-0.996245, 97, 217, 224, 248
-0.996262, 177, 65, 240, 192
-0.996268, 145, 229, 272, 260
-0.99628, 45, 289, 76, 352
-0.996313, 83, 201, 98, 264
-0.996318, 369, 257, 400, 320
-0.996321, 481, 241, 496, 304
-0.996327, 425, 217, 440, 280
-0.996328, 117, 129, 148, 374
-0.996335, 193, 129, 224, 374
-0.996338, 381, 225, 396, 288
-0.996338, 249, 153, 264, 216
-0.996345, 337, 237, 464, 268
-0.996352, 225, 49, 352, 112
-0.996353, 209, 193, 336, 224
-0.996357, 273, 217, 304, 280
-0.996363, 445, 249, 476, 312
-0.996367, 441, 81, 472, 144
-0.996408, 265, 153, 280, 216
-0.996414, 447, 113, 462, 176
-0.996433, 353, 221, 480, 252
-0.996444, 161, 293, 288, 324
-0.996444, 225, 73, 352, 136
-0.996462, 377, 177, 408, 240
-0.996483, 149, 273, 180, 336
-0.996503, 225, 181, 352, 212
-0.996509, 181, 225, 196, 288
-0.996516, 97, 1, 160, 374
-0.996517, 301, 137, 332, 200
-0.996525, 199, 225, 214, 288
-0.996529, 41, 129, 104, 192
-0.996541, 245, 177, 260, 240
-0.996552, 475, 89, 490, 152
-0.996559, 133, 129, 164, 374
-0.996566, 219, 169, 234, 232
-0.996568, 425, 33, 488, 160
-0.99657, 219, 225, 234, 288
-0.996597, 49, 229, 176, 260
-0.9966, 205, 129, 236, 374
-0.996601, 441, 129, 456, 192
-0.996606, 429, 129, 444, 192
-0.996613, 65, 97, 96, 224
-0.996628, 313, 81, 344, 208
-0.996635, 405, 185, 420, 248
-0.996637, 175, 225, 190, 288
-0.996637, 1, 249, 128, 312
-0.996638, 157, 129, 188, 374
-0.996639, 435, 153, 450, 216
-0.996647, 205, 225, 220, 288
-0.996657, 387, 233, 402, 296
-0.996659, 157, 97, 188, 224
-0.996674, 213, 225, 228, 288
-0.996674, 125, 97, 156, 224
-0.996682, 289, 221, 416, 252
-0.996685, 311, 217, 326, 280
-0.996736, 209, 245, 336, 276
-0.996744, 185, 145, 200, 208
-0.996764, 147, 225, 162, 288
-0.996772, 145, 129, 176, 374
-0.996772, 337, 185, 464, 216
-0.996798, 177, 241, 304, 304
-0.996802, 399, 153, 414, 216
-0.996807, 313, 1, 376, 64
-0.996812, 209, 121, 240, 184
-0.996812, 271, 153, 286, 216
-0.996823, 109, 225, 124, 288
-0.996829, 329, 129, 392, 256
-0.996841, 113, 297, 240, 328
-0.996844, 303, 229, 318, 260
-0.996869, 441, 217, 472, 280
-0.996869, 225, 209, 352, 240
-0.996879, 399, 129, 414, 192
-0.996885, 415, 161, 430, 224
-0.9969, 33, 33, 96, 288
-0.99691, 433, 65, 464, 192
-0.996912, 375, 209, 390, 272
-0.996918, 85, 153, 100, 216
-0.996933, 293, 257, 308, 320
-0.996937, 193, 225, 208, 288
-0.996937, 369, 233, 384, 296
-0.996937, 453, 113, 468, 176
-0.996946, 381, 97, 412, 224
-0.996947, 353, 289, 480, 352
-0.996948, 433, 185, 448, 248
-0.996967, 129, 173, 256, 204
-0.996972, 337, 249, 464, 280
-0.996975, 1, 233, 500, 296
-0.996976, 141, 225, 156, 288
-0.996977, 197, 185, 212, 248
-0.996978, 305, 17, 368, 144
-0.996979, 433, 97, 464, 352
-0.996983, 311, 265, 326, 328
-0.99699, 161, 105, 416, 168
-0.997001, 305, 129, 336, 374
-0.997004, 17, 189, 144, 220
-0.997007, 101, 129, 132, 374
-0.997011, 97, 233, 224, 264
-0.997021, 163, 233, 178, 296
-0.997025, 169, 225, 184, 288
-0.997034, 133, 225, 148, 288
-0.997037, 187, 225, 202, 288
-0.997043, 153, 233, 168, 296
-0.99705, 129, 149, 256, 180
-0.997055, 63, 169, 78, 232
-0.997074, 469, 89, 484, 152
-0.997089, 353, 117, 480, 148
-0.997094, 281, 1, 344, 256
-0.997095, 77, 193, 92, 256
-0.997125, 1, 161, 64, 224
-0.997151, 179, 177, 194, 240
-0.997151, 319, 281, 334, 344
-0.997154, 415, 225, 430, 288
-0.997158, 103, 225, 118, 288
-0.997159, 461, 89, 476, 152
-0.997163, 353, 149, 480, 180
-0.997171, 435, 113, 450, 176
-0.997171, 297, 237, 312, 268
-0.997174, 73, 161, 88, 224
-0.997191, 209, 33, 272, 288
-0.997193, 445, 97, 476, 352
-0.997193, 221, 129, 252, 374
-0.997194, 51, 177, 66, 240
-0.997214, 225, 153, 352, 184
-0.997226, 433, 209, 448, 272
-0.997236, 311, 245, 326, 276
-0.99724, 233, 33, 296, 288
-0.997246, 91, 153, 106, 216
-0.997286, 193, 281, 320, 312
-0.997287, 65, 301, 192, 332
-0.997288, 305, 281, 320, 344
-0.997292, 425, 193, 440, 256
-0.997293, 367, 209, 382, 272
-0.997293, 305, 81, 368, 144
-0.997293, 273, 273, 400, 304
-0.997295, 389, 209, 404, 272
-0.997305, 115, 225, 130, 288
-0.997325, 207, 193, 222, 256
-0.997329, 121, 233, 136, 296
-0.997353, 57, 169, 72, 232
-0.99736, 173, 289, 188, 352
-0.997363, 273, 177, 288, 240
-0.997372, 89, 217, 104, 280
-0.997379, 163, 297, 178, 360
-0.997379, 415, 185, 430, 248
-0.997384, 287, 241, 302, 304
-0.997396, 213, 169, 228, 232
-0.997397, 237, 129, 268, 374
-0.997402, 425, 153, 440, 216
-0.997413, 291, 209, 306, 272
-0.997424, 241, 225, 256, 288
-0.997425, 127, 233, 142, 296
-0.99743, 179, 289, 194, 352
-0.997452, 57, 209, 88, 336
-0.997455, 195, 289, 210, 352
-0.997469, 223, 201, 238, 264
-0.997472, 465, 33, 496, 160
-0.997488, 349, 265, 364, 328
-0.997499, 337, 165, 464, 196
-0.9975, 83, 177, 98, 240
-0.997514, 293, 129, 324, 374
-0.997515, 421, 129, 452, 374
-0.997523, 441, 209, 472, 336
-0.997524, 323, 257, 338, 320
-0.997536, 205, 169, 220, 232
-0.997544, 457, 65, 488, 320
-0.99756, 421, 225, 452, 352
-0.997569, 451, 89, 466, 152
-0.99757, 237, 217, 252, 248
-0.997572, 471, 217, 486, 280
-0.997573, 301, 97, 332, 224
-0.997576, 275, 281, 290, 344
-0.99758, 99, 145, 114, 208
-0.997585, 147, 297, 162, 360
-0.997589, 277, 129, 308, 374
-0.997589, 205, 289, 220, 352
-0.997591, 281, 281, 296, 344
-0.997595, 157, 297, 172, 360
-0.997596, 399, 201, 414, 264
-0.997602, 17, 293, 144, 324
-0.997611, 1, 97, 500, 160
-0.997631, 369, 137, 496, 168
-0.99764, 197, 177, 212, 208
-0.997641, 291, 241, 306, 272
-0.997663, 129, 257, 384, 320
-0.997679, 305, 149, 432, 180
-0.997679, 451, 117, 466, 148
-0.997691, 69, 129, 100, 374
-0.997712, 49, 217, 176, 248
-0.997732, 481, 249, 496, 280
-0.997732, 225, 81, 256, 208
-0.997801, 305, 241, 320, 272
-0.997802, 239, 181, 254, 212
-0.997803, 369, 93, 496, 124
-0.997866, 469, 65, 500, 320
-0.9979, 457, 109, 472, 140
-0.997906, 423, 229, 438, 260
-0.997908, 243, 221, 258, 252
-0.997928, 225, 141, 352, 172
-0.99793, 301, 281, 316, 312
-0.997932, 203, 165, 218, 196
-0.997936, 189, 185, 204, 216
-0.997941, 317, 249, 332, 280
-0.997959, 265, 129, 296, 374
-0.997976, 305, 133, 432, 164
-0.997977, 65, 157, 192, 188
-0.997978, 315, 285, 330, 316
-0.997993, 89, 129, 120, 374
-0.997993, 289, 285, 416, 316
-0.998051, 317, 17, 348, 144
-0.998056, 241, 197, 256, 228
-0.998061, 369, 313, 496, 374
-0.998064, 409, 149, 424, 180
-0.998066, 257, 193, 384, 224
-0.998078, 213, 169, 228, 200
-0.998078, 223, 177, 238, 208
-0.99808, 17, 313, 80, 374
-0.998089, 179, 189, 194, 220
-0.998092, 93, 197, 108, 228
-0.99812, 311, 233, 326, 264
-0.998123, 289, 297, 416, 360
-0.998126, 305, 9, 432, 40
-0.998127, 241, 257, 368, 288
-0.998129, 257, 33, 320, 288
-0.998135, 45, 113, 76, 240
-0.998147, 197, 165, 212, 196
-0.99817, 79, 205, 94, 236
-0.998196, 439, 113, 454, 144
-0.99821, 245, 185, 260, 216
-0.998212, 33, 169, 160, 200
-0.998213, 253, 129, 284, 374
-0.998216, 323, 285, 338, 316
-0.998222, 369, 57, 496, 120
-0.998225, 257, 41, 500, 104
-0.998238, 309, 285, 324, 316
-0.99824, 33, 121, 288, 184
-0.998247, 215, 229, 230, 260
-0.998248, 445, 125, 460, 156
-0.99825, 229, 181, 244, 212
-0.998252, 57, 129, 88, 374
-0.998256, 285, 241, 300, 272
-0.998274, 161, 73, 416, 136
-0.998294, 317, 129, 348, 374
-0.998294, 471, 97, 486, 128
-0.998296, 305, 21, 432, 52
-0.998297, 265, 241, 296, 368
-0.998302, 217, 205, 248, 220
-0.998304, 401, 157, 432, 172
-0.998304, 295, 281, 310, 312
-0.998304, 433, 165, 464, 180
-0.998304, 429, 203, 460, 218
-0.998306, 373, 237, 388, 268
-0.998306, 101, 201, 132, 216
-0.998307, 73, 203, 104, 218
-0.998307, 57, 215, 88, 230
-0.998308, 203, 181, 218, 212
-0.998309, 437, 157, 468, 172
-0.998309, 157, 303, 188, 318
-0.99831, 209, 171, 240, 186
-0.99831, 329, 285, 344, 316
-0.998311, 113, 227, 144, 242
-0.998311, 181, 177, 212, 192
-0.998312, 181, 201, 212, 216
-0.998312, 133, 301, 164, 316
-0.998313, 357, 205, 388, 220
-0.998313, 57, 297, 88, 312
-0.998314, 377, 205, 408, 220
-0.998314, 121, 233, 152, 248
-0.998315, 333, 285, 364, 300
-0.998315, 197, 187, 228, 202
-0.998316, 125, 209, 140, 240
-0.998319, 461, 105, 492, 120
-0.998319, 185, 233, 216, 248
-0.99832, 73, 161, 104, 176
-0.998321, 145, 231, 176, 246
-0.998322, 437, 117, 468, 132
-0.998325, 441, 111, 472, 126
-0.998325, 393, 201, 424, 216
-0.998325, 277, 281, 308, 296
-0.998327, 173, 191, 204, 206
-0.998328, 117, 203, 148, 218
-0.998328, 301, 279, 332, 294
-0.998328, 369, 251, 400, 266
-0.99833, 129, 307, 160, 322
-0.998331, 73, 209, 104, 224
-0.998333, 281, 237, 312, 252
-0.998333, 393, 209, 424, 224
-0.998336, 213, 147, 244, 162
-0.998338, 405, 169, 420, 200
-0.998338, 417, 155, 448, 170
-0.998339, 221, 211, 252, 226
-0.998342, 353, 105, 480, 136
-0.998343, 153, 203, 184, 218
-0.998343, 413, 209, 444, 224
-0.998343, 191, 169, 206, 200
-0.998343, 373, 233, 404, 248
-0.998344, 463, 101, 478, 132
-0.998344, 245, 183, 276, 198
-0.998344, 461, 257, 492, 272
-0.998344, 221, 167, 252, 182
-0.998344, 401, 223, 432, 238
-0.998345, 349, 211, 380, 226
-0.998346, 113, 145, 144, 160
-0.998347, 429, 127, 460, 142
-0.998349, 233, 229, 264, 244
-0.998349, 113, 209, 144, 224
-0.99835, 105, 233, 136, 248
-0.99835, 85, 205, 116, 220
-0.99835, 157, 209, 188, 224
-0.99835, 305, 259, 336, 274
-0.998351, 231, 213, 246, 244
-0.998351, 81, 155, 112, 170
-0.998354, 65, 289, 192, 320
-0.998355, 401, 233, 432, 248
-0.998355, 157, 235, 188, 250
-0.998357, 309, 291, 340, 306
-0.998357, 237, 161, 268, 176
-0.998359, 449, 117, 480, 132
-0.998359, 233, 197, 248, 228
-0.998359, 413, 195, 444, 210
-0.99836, 441, 135, 472, 150
-0.99836, 261, 185, 292, 200
-0.998362, 413, 161, 444, 176
-0.998363, 345, 291, 376, 306
-0.998363, 209, 229, 240, 244
-0.998364, 145, 303, 176, 318
-0.998364, 257, 173, 288, 188
-0.998366, 93, 151, 124, 166
-0.998366, 413, 201, 444, 216
-0.998367, 413, 189, 444, 204
-0.998368, 445, 125, 476, 140
-0.998368, 225, 217, 256, 232
-0.998368, 313, 285, 344, 300
-0.998368, 229, 189, 260, 204
-0.99837, 197, 231, 228, 246
-0.99837, 225, 177, 256, 192
-0.99837, 397, 151, 428, 166
-0.99837, 209, 183, 240, 198
-0.99837, 417, 149, 448, 164
-0.998371, 133, 233, 164, 248
-0.998371, 413, 219, 444, 234
-0.998373, 81, 225, 112, 240
-0.998374, 309, 237, 340, 252
-0.998376, 425, 133, 456, 148
-0.998376, 245, 177, 276, 192
-0.99838, 209, 229, 224, 260
-0.998381, 129, 209, 160, 224
-0.998381, 101, 207, 132, 222
-0.998381, 179, 201, 194, 232
-0.998382, 305, 231, 336, 246
-0.998383, 277, 249, 308, 264
-0.998383, 113, 209, 128, 240
-0.998384, 421, 229, 452, 244
-0.998385, 465, 251, 496, 266
-0.998388, 313, 253, 344, 268
-0.998389, 381, 247, 412, 262
-0.99839, 413, 167, 444, 182
-0.998393, 261, 179, 292, 194
-0.998394, 293, 229, 324, 244
-0.998394, 413, 177, 444, 192
-0.998395, 401, 239, 432, 254
-0.998395, 401, 149, 416, 180
-0.998397, 169, 231, 200, 246
-0.998397, 281, 243, 312, 258
-0.998399, 93, 229, 124, 244
-0.9984, 413, 183, 444, 198
-0.998401, 169, 233, 184, 264
-0.998401, 143, 205, 158, 236
-0.998402, 361, 239, 392, 254
-0.998404, 249, 189, 280, 204
-0.998405, 169, 205, 200, 220
-0.998406, 221, 229, 236, 260
-0.998407, 233, 199, 264, 214
-0.998407, 205, 149, 220, 180
-0.998408, 165, 197, 196, 212
-0.99841, 435, 125, 450, 156
-0.998412, 141, 207, 172, 222
-0.998414, 305, 113, 368, 176
-0.998417, 263, 157, 278, 188
-0.998418, 411, 221, 426, 252
-0.998418, 119, 213, 134, 244
-0.998419, 385, 241, 416, 256
-0.998422, 333, 291, 364, 306
-0.998423, 409, 81, 440, 208
-0.998424, 379, 233, 394, 264
-0.998435, 193, 181, 224, 196
-0.998437, 321, 291, 352, 306
-0.998437, 301, 253, 332, 268
-0.998438, 289, 253, 320, 268
-0.998441, 107, 229, 122, 260
-0.998446, 229, 223, 260, 238
-0.998447, 197, 149, 212, 180
-0.998449, 227, 229, 242, 260
-0.998451, 185, 189, 216, 204
-0.998454, 369, 245, 400, 260
-0.998456, 85, 199, 116, 214
-0.998457, 133, 233, 148, 264
-0.998459, 231, 165, 246, 196
-0.998459, 299, 253, 314, 284
-0.998462, 209, 177, 240, 192
-0.998463, 99, 201, 114, 232
-0.998464, 17, 305, 144, 336
-0.998468, 469, 99, 500, 114
-0.998468, 203, 229, 218, 260
-0.998469, 257, 17, 500, 80
-0.998472, 155, 205, 170, 236
-0.998473, 301, 285, 332, 300
-0.998474, 131, 209, 146, 240
-0.998476, 335, 281, 350, 312
-0.998478, 273, 243, 336, 258
-0.998478, 405, 189, 420, 220
-0.99848, 229, 183, 260, 198
-0.998482, 113, 233, 128, 264
-0.998486, 289, 283, 320, 298
-0.99849, 161, 49, 416, 112
-0.99849, 263, 169, 278, 200
-0.998501, 273, 285, 336, 300
-0.998502, 175, 229, 190, 260
-0.998505, 139, 233, 154, 264
-0.998505, 321, 273, 448, 304
-0.998511, 273, 251, 336, 266
-0.99852, 185, 229, 200, 260
-0.998523, 197, 167, 228, 182
-0.998525, 353, 241, 416, 256
-0.998527, 95, 225, 110, 256
-0.998528, 273, 181, 288, 212
-0.998531, 151, 301, 166, 332
-0.998533, 305, 257, 320, 288
-0.998533, 349, 265, 364, 296
-0.998533, 177, 191, 240, 206
-0.998533, 201, 181, 264, 196
-0.998534, 193, 233, 208, 264
-0.998534, 301, 247, 332, 262
-0.998537, 129, 137, 256, 168
-0.998545, 137, 209, 152, 240
-0.998548, 305, 121, 432, 152
-0.998553, 377, 237, 440, 252
-0.998554, 185, 171, 248, 186
-0.998555, 475, 249, 490, 280
-0.998555, 289, 281, 304, 312
-0.998561, 105, 209, 120, 240
-0.998561, 483, 237, 498, 268
-0.998561, 431, 137, 446, 168
-0.998563, 289, 105, 416, 136
-0.998564, 377, 231, 440, 246
-0.998564, 177, 185, 240, 200
-0.998566, 65, 205, 128, 220
-0.998567, 405, 205, 420, 236
-0.998567, 201, 225, 264, 240
-0.99857, 393, 141, 456, 156
-0.99857, 293, 235, 324, 250
-0.998571, 399, 137, 414, 168
-0.998572, 373, 239, 404, 254
-0.998572, 225, 217, 240, 248
-0.998572, 417, 229, 432, 260
-0.998574, 101, 229, 116, 260
-0.998576, 233, 183, 296, 198
-0.998578, 201, 187, 264, 202
-0.99858, 305, 283, 368, 298
-0.998581, 177, 177, 240, 192
-0.998582, 447, 105, 462, 136
-0.998583, 305, 291, 368, 306
-0.998584, 177, 199, 240, 214
-0.998585, 145, 229, 160, 260
-0.998586, 361, 247, 424, 262
-0.998587, 157, 233, 172, 264
-0.998591, 149, 209, 164, 240
-0.998594, 385, 205, 448, 220
-0.998594, 125, 233, 140, 264
-0.998595, 385, 215, 448, 230
-0.998598, 85, 205, 100, 236
-0.998599, 241, 5, 368, 36
-0.998599, 163, 233, 178, 264
-0.9986, 435, 169, 450, 200
-0.9986, 289, 235, 352, 250
-0.998602, 65, 227, 128, 242
-0.998602, 393, 129, 424, 374
-0.998604, 265, 237, 328, 252
-0.998605, 307, 273, 322, 304
-0.998606, 241, 189, 304, 204
-0.998609, 415, 149, 430, 180
-0.99861, 225, 195, 288, 210
-0.99861, 437, 153, 452, 184
-0.998611, 425, 167, 488, 182
-0.998611, 443, 137, 458, 168
-0.998611, 381, 225, 412, 352
-0.998613, 171, 205, 186, 236
-0.998614, 217, 175, 280, 190
-0.998615, 163, 197, 178, 228
-0.998615, 73, 209, 88, 240
-0.998616, 185, 197, 200, 228
-0.998618, 105, 233, 168, 248
-0.998618, 137, 303, 200, 318
-0.998619, 249, 157, 312, 172
-0.99862, 393, 153, 456, 168
-0.998621, 385, 221, 448, 236
-0.998621, 97, 147, 160, 162
-0.998622, 297, 249, 360, 264
-0.998622, 385, 191, 448, 206
-0.998623, 185, 149, 248, 164
-0.998623, 201, 219, 264, 234
-0.998623, 137, 197, 200, 212
-0.998624, 161, 233, 224, 248
-0.998624, 393, 159, 456, 174
-0.998624, 119, 233, 134, 264
-0.998625, 401, 237, 464, 252
-0.998627, 425, 161, 488, 176
-0.998627, 211, 149, 226, 180
-0.998628, 307, 209, 322, 336
-0.998628, 417, 201, 480, 216
-0.998629, 97, 305, 160, 320
-0.998629, 273, 173, 400, 204
-0.998629, 137, 207, 200, 222
-0.998629, 281, 257, 344, 272
-0.99863, 397, 121, 412, 152
-0.998631, 1, 137, 128, 168
-0.998631, 393, 165, 456, 180
-0.998631, 137, 233, 200, 248
-0.998632, 217, 145, 232, 272
-0.998633, 385, 171, 448, 186
-0.998633, 409, 227, 472, 242
-0.998634, 385, 179, 448, 194
-0.998634, 225, 201, 288, 216
-0.998635, 193, 231, 256, 246
-0.998635, 417, 219, 480, 234
-0.998635, 209, 161, 272, 176
-0.998636, 305, 33, 432, 64
-0.998637, 143, 297, 158, 328
-0.998637, 385, 199, 448, 214
-0.998639, 249, 247, 312, 262
-0.998639, 385, 243, 448, 258
-0.99864, 385, 185, 448, 200
-0.998641, 417, 193, 480, 208
-0.998643, 393, 135, 456, 150
-0.998643, 293, 241, 324, 256
-0.998645, 281, 291, 344, 306
-0.998647, 81, 199, 144, 214
-0.998648, 265, 231, 328, 246
-0.998649, 433, 99, 496, 114
-0.998649, 393, 147, 456, 162
-0.998651, 185, 165, 248, 180
-0.998653, 337, 211, 400, 226
-0.998654, 393, 129, 456, 144
-0.998654, 177, 205, 240, 220
-0.998655, 225, 149, 240, 180
-0.998657, 313, 255, 376, 270
-0.99866, 33, 197, 96, 212
-0.998662, 105, 209, 168, 224
-0.998663, 137, 297, 200, 312
-0.998663, 405, 217, 420, 248
-0.998663, 49, 221, 112, 236
-0.998663, 105, 227, 168, 242
-0.998664, 57, 199, 120, 214
-0.998664, 305, 241, 368, 256
-0.998664, 425, 207, 488, 222
-0.998664, 195, 189, 210, 220
-0.998666, 17, 209, 80, 224
-0.998666, 329, 291, 392, 306
-0.998666, 153, 177, 216, 192
-0.998666, 65, 313, 192, 344
-0.998667, 409, 97, 440, 352
-0.998667, 193, 213, 256, 228
-0.998668, 329, 241, 392, 256
-0.998668, 65, 169, 80, 200
-0.998669, 361, 215, 424, 230
-0.99867, 433, 243, 496, 258
-0.998671, 433, 137, 496, 152
-0.998672, 81, 153, 144, 168
-0.998672, 417, 213, 480, 228
-0.998672, 169, 295, 232, 310
-0.998673, 321, 247, 384, 262
-0.998673, 225, 209, 288, 224
-0.998673, 341, 281, 356, 312
-0.998674, 425, 175, 488, 190
-0.998675, 433, 249, 496, 264
-0.998675, 41, 303, 104, 318
-0.998675, 417, 187, 480, 202
-0.998675, 249, 281, 312, 296
-0.998676, 423, 217, 438, 248
-0.998677, 223, 145, 238, 272
-0.998677, 41, 293, 56, 324
-0.998679, 433, 259, 496, 274
-0.998679, 313, 261, 328, 292
-0.99868, 401, 123, 464, 138
-0.99868, 105, 203, 168, 218
-0.99868, 25, 203, 88, 218
-0.99868, 41, 191, 104, 206
-0.998681, 217, 231, 280, 246
-0.998682, 361, 209, 424, 224
-0.998683, 241, 177, 304, 192
-0.998684, 65, 211, 128, 226
-0.998684, 217, 169, 280, 184
-0.998684, 249, 287, 312, 302
-0.998685, 161, 227, 224, 242
-0.998685, 191, 145, 206, 272
-0.998686, 145, 191, 208, 206
-0.998687, 425, 181, 488, 196
-0.998688, 385, 233, 400, 264
-0.998689, 241, 233, 256, 264
-0.99869, 25, 295, 88, 310
-0.99869, 33, 215, 96, 230
-0.998691, 121, 145, 184, 160
-0.998692, 59, 173, 74, 204
-0.998692, 353, 231, 416, 246
-0.998693, 297, 277, 360, 292
-0.998694, 81, 233, 144, 248
-0.998695, 433, 123, 496, 138
-0.998696, 71, 165, 86, 196
-0.998696, 345, 223, 408, 238
-0.998696, 453, 225, 484, 352
-0.998697, 289, 229, 352, 244
-0.998698, 425, 155, 488, 170
-0.998699, 233, 219, 296, 234
-0.998699, 425, 143, 488, 158
-0.9987, 249, 225, 312, 240
-0.998703, 105, 299, 168, 314
-0.998704, 415, 169, 430, 200
-0.998704, 329, 235, 392, 250
-0.998704, 129, 49, 192, 176
-0.998705, 97, 221, 160, 236
-0.998706, 473, 85, 488, 116
-0.998706, 417, 113, 480, 128
-0.998708, 273, 205, 400, 236
-0.99871, 87, 153, 102, 184
-0.998711, 151, 229, 166, 260
-0.998712, 87, 193, 102, 224
-0.998714, 273, 161, 400, 192
-0.998714, 321, 161, 384, 224
-0.998724, 353, 289, 416, 352
-0.998728, 95, 145, 110, 272
-0.998738, 289, 93, 416, 124
-0.998739, 33, 129, 64, 374
-0.998746, 301, 209, 316, 336
-0.998771, 241, 221, 368, 252
-0.998775, 101, 81, 132, 208
-0.99878, 101, 129, 116, 256
-0.998781, 17, 281, 144, 312
-0.998781, 1, 229, 128, 260
-0.998783, 1, 157, 128, 188
-0.998799, 129, 161, 256, 192
-0.998807, 219, 209, 234, 336
-0.99882, 207, 193, 222, 320
-0.998832, 201, 193, 216, 320
-0.998835, 159, 209, 174, 336
-0.998836, 89, 145, 104, 272
-0.998838, 273, 49, 336, 112
-0.998849, 193, 209, 208, 336
-0.998853, 213, 209, 228, 336
-0.998855, 1, 73, 500, 136
-0.998861, 369, 345, 496, 374
-0.998865, 185, 177, 200, 304
-0.998899, 153, 193, 168, 320
-0.998903, 83, 145, 98, 272
-0.998907, 165, 177, 180, 304
-0.998914, 201, 145, 216, 272
-0.998918, 145, 281, 272, 312
-0.998923, 117, 33, 148, 288
-0.998929, 211, 145, 226, 272
-0.998944, 183, 129, 198, 256
-0.99895, 45, 129, 76, 374
-0.998961, 113, 309, 240, 340
-0.998967, 1, 269, 128, 300
-0.998969, 225, 209, 240, 336
-0.99897, 229, 129, 244, 256
-0.998992, 159, 145, 174, 272
-0.998993, 313, 225, 328, 352
-0.998998, 165, 225, 180, 352
-0.999002, 81, 177, 208, 208
-0.999011, 175, 209, 190, 336
-0.999012, 153, 145, 168, 272
-0.999015, 289, 77, 416, 108
-0.999016, 187, 225, 202, 352
-0.999022, 241, 17, 368, 48
-0.999024, 305, 45, 432, 76
-0.999029, 133, 209, 148, 336
-0.999029, 329, 129, 360, 374
-0.999031, 147, 209, 162, 336
-0.999035, 177, 145, 192, 272
-0.999046, 273, 25, 336, 88
-0.999048, 125, 209, 140, 336
-0.999052, 177, 141, 304, 172
-0.999059, 107, 129, 122, 256
-0.999059, 147, 145, 162, 272
-0.999061, 101, 177, 116, 304
-0.999061, 125, 145, 140, 272
-0.999061, 133, 145, 148, 272
-0.999062, 161, 25, 416, 88
-0.999062, 17, 345, 144, 374
-0.999063, 139, 145, 154, 272
-0.999067, 171, 145, 186, 272
-0.999072, 289, 65, 416, 96
-0.999091, 89, 33, 120, 288
-0.999092, 141, 209, 156, 336
-0.999092, 273, 1, 336, 64
-0.9991, 289, 257, 416, 288
-0.999101, 105, 33, 136, 288
-0.999105, 181, 225, 196, 352
-0.999107, 1, 257, 500, 320
-0.999114, 77, 145, 92, 272
-0.999117, 115, 129, 130, 256
-0.999122, 295, 225, 310, 352
-0.999131, 273, 297, 400, 328
-0.999133, 165, 129, 180, 256
-0.999135, 119, 209, 134, 336
-0.999141, 369, 81, 496, 112
-0.999142, 401, 129, 416, 256
-0.999143, 449, 161, 480, 288
-0.999152, 231, 193, 246, 320
-0.999154, 307, 145, 322, 272
-0.999159, 441, 113, 456, 240
-0.999165, 431, 161, 446, 288
-0.999184, 235, 145, 250, 272
-0.999186, 413, 145, 428, 272
-0.999211, 209, 129, 336, 160
-0.999216, 313, 161, 328, 288
-0.999219, 425, 193, 440, 320
-0.999221, 81, 133, 208, 164
-0.999225, 169, 33, 200, 288
-0.999225, 453, 97, 468, 224
-0.999231, 71, 145, 86, 272
-0.999231, 239, 193, 254, 320
-0.999233, 107, 177, 122, 304
-0.999238, 469, 81, 484, 208
-0.999247, 447, 97, 462, 224
-0.999252, 225, 269, 352, 300
-0.999261, 113, 225, 128, 352
-0.999261, 153, 33, 184, 288
-0.999266, 105, 161, 168, 224
-0.999269, 313, 1, 344, 256
-0.999271, 95, 209, 110, 336
-0.999272, 113, 177, 128, 304
-0.999279, 301, 145, 316, 272
-0.99929, 407, 129, 422, 256
-0.999305, 441, 1, 472, 256
-0.999305, 381, 129, 412, 374
-0.999309, 425, 129, 440, 256
-0.999314, 129, 33, 160, 288
-0.99933, 141, 33, 172, 288
-0.99933, 407, 177, 422, 304
-0.999331, 373, 225, 388, 352
-0.999331, 361, 193, 376, 320
-0.999346, 459, 97, 474, 224
-0.999346, 295, 145, 310, 272
-0.999353, 19, 193, 34, 320
-0.999354, 29, 241, 60, 368
-0.999354, 435, 113, 450, 240
-0.999354, 73, 33, 104, 288
-0.999356, 475, 81, 490, 208
-0.999364, 351, 241, 366, 368
-0.999373, 421, 33, 452, 288
-0.999378, 11, 209, 26, 336
-0.999379, 177, 269, 304, 300
-0.999397, 481, 81, 496, 208
-0.999403, 89, 193, 104, 320
-0.999405, 153, 241, 168, 368
-0.999411, 185, 33, 216, 288
-0.999419, 319, 225, 334, 352
-0.999425, 353, 1, 480, 128
-0.999427, 9, 129, 40, 374
-0.999429, 107, 225, 122, 352
-0.99943, 419, 145, 434, 272
-0.999436, 27, 193, 42, 320
-0.99944, 251, 145, 266, 272
-0.999441, 337, 289, 464, 320
-0.999445, 225, 29, 352, 60
-0.999449, 481, 225, 496, 352
-0.999449, 83, 209, 98, 336
-0.999463, 249, 97, 280, 224
-0.999465, 245, 193, 260, 320
-0.999468, 381, 49, 412, 176
-0.999471, 321, 345, 448, 374
-0.999474, 5, 209, 20, 336
-0.999475, 289, 225, 304, 352
-0.999476, 91, 97, 106, 224
-0.999485, 367, 209, 382, 336
-0.999488, 271, 129, 286, 256
-0.99949, 65, 145, 80, 272
-0.999494, 101, 225, 116, 352
-0.999498, 223, 97, 238, 224
-0.999499, 355, 193, 370, 320
-0.999502, 225, 33, 256, 288
-0.999502, 33, 193, 48, 320
-0.999502, 289, 145, 304, 272
-0.999513, 349, 177, 364, 304
-0.999515, 229, 205, 244, 220
-0.999515, 101, 151, 116, 166
-0.999516, 435, 179, 450, 194
-0.999516, 445, 111, 460, 126
-0.999516, 423, 221, 438, 236
-0.999516, 419, 193, 434, 320
-0.999517, 157, 237, 172, 252
-0.999517, 439, 151, 454, 166
-0.999517, 485, 243, 500, 258
-0.999517, 401, 177, 416, 304
-0.999517, 185, 199, 200, 214
-0.999518, 105, 201, 120, 216
-0.999518, 345, 241, 360, 368
-0.999518, 193, 233, 208, 248
-0.999519, 287, 249, 302, 264
-0.999519, 175, 233, 190, 248
-0.999519, 307, 241, 322, 256
-0.99952, 153, 301, 168, 316
-0.99952, 451, 115, 466, 130
-0.99952, 243, 197, 258, 212
-0.99952, 389, 247, 404, 262
-0.999521, 63, 173, 78, 188
-0.999521, 225, 49, 352, 80
-0.999522, 437, 161, 452, 288
-0.999524, 405, 179, 420, 194
-0.999524, 121, 203, 136, 218
-0.999524, 217, 173, 232, 188
-0.999524, 147, 207, 162, 222
-0.999525, 275, 185, 290, 200
-0.999525, 353, 285, 368, 300
-0.999526, 353, 129, 384, 374
-0.999526, 243, 189, 258, 204
-0.999527, 313, 243, 328, 258
-0.999528, 169, 233, 184, 248
-0.999528, 405, 191, 420, 206
-0.999528, 85, 157, 100, 172
-0.999528, 145, 241, 272, 272
-0.999529, 203, 231, 218, 246
-0.99953, 413, 231, 428, 246
-0.99953, 211, 231, 226, 246
-0.999531, 189, 185, 204, 200
-0.999531, 407, 223, 422, 238
-0.999531, 377, 233, 392, 248
-0.999532, 121, 211, 136, 226
-0.999532, 237, 157, 252, 172
-0.999532, 137, 233, 152, 248
-0.999532, 73, 209, 88, 224
-0.999533, 309, 231, 324, 246
-0.999533, 75, 163, 90, 178
-0.999533, 405, 167, 420, 182
-0.999533, 249, 187, 264, 202
-0.999533, 179, 191, 194, 206
-0.999534, 163, 235, 178, 250
-0.999534, 317, 283, 332, 298
-0.999534, 161, 205, 176, 220
-0.999535, 133, 209, 148, 224
-0.999536, 405, 185, 420, 200
-0.999536, 307, 255, 322, 270
-0.999537, 95, 225, 110, 240
-0.999538, 263, 169, 278, 184
-0.999538, 443, 117, 458, 132
-0.999539, 99, 201, 114, 216
-0.99954, 209, 33, 240, 288
-0.99954, 213, 167, 228, 182
-0.99954, 197, 167, 212, 182
-0.999541, 249, 227, 264, 242
-0.999541, 173, 207, 188, 222
-0.999542, 355, 291, 370, 306
-0.999542, 403, 207, 418, 222
-0.999542, 223, 229, 238, 244
-0.999543, 461, 105, 476, 120
-0.999543, 281, 145, 296, 272
-0.999543, 403, 151, 418, 166
-0.999545, 203, 165, 218, 180
-0.999546, 295, 235, 310, 250
-0.999546, 473, 255, 488, 270
-0.999546, 403, 197, 418, 212
-0.999546, 217, 229, 232, 244
-0.999547, 147, 233, 162, 248
-0.999547, 437, 127, 452, 142
-0.999547, 471, 193, 486, 320
-0.999548, 413, 225, 428, 240
-0.99955, 113, 233, 128, 248
-0.999551, 223, 179, 238, 194
-0.999551, 77, 209, 92, 336
-0.999552, 243, 145, 258, 272
-0.999553, 101, 229, 116, 244
-0.999554, 293, 251, 308, 266
-0.999555, 379, 209, 394, 336
-0.999558, 217, 97, 232, 224
-0.999558, 235, 181, 250, 196
-0.999559, 233, 211, 248, 226
-0.999559, 457, 117, 472, 132
-0.999559, 477, 97, 492, 112
-0.999559, 225, 101, 352, 132
-0.99956, 237, 199, 252, 214
-0.99956, 195, 185, 210, 200
-0.999563, 405, 173, 420, 188
-0.999564, 447, 133, 462, 148
-0.999564, 301, 253, 316, 268
-0.999567, 291, 281, 306, 296
-0.999567, 347, 291, 362, 306
-0.999569, 155, 207, 170, 222
-0.999569, 265, 145, 280, 272
-0.999569, 207, 183, 222, 198
-0.999569, 181, 205, 196, 220
-0.999569, 107, 231, 122, 246
-0.999569, 231, 241, 246, 368
-0.99957, 127, 209, 142, 224
-0.99957, 411, 151, 426, 166
-0.999572, 323, 1, 338, 128
-0.999573, 113, 207, 128, 222
-0.999576, 141, 207, 156, 222
-0.999576, 185, 191, 200, 206
-0.999577, 317, 255, 332, 270
-0.999579, 317, 289, 332, 304
-0.99958, 341, 291, 356, 306
-0.999582, 225, 77, 352, 108
-0.999583, 471, 97, 486, 112
-0.999584, 477, 177, 492, 304
-0.999584, 319, 145, 334, 272
-0.999585, 241, 183, 256, 198
-0.999585, 313, 237, 328, 252
-0.999587, 341, 193, 356, 320
-0.999588, 383, 245, 398, 260
-0.999588, 237, 217, 252, 232
-0.999588, 271, 193, 286, 320
-0.999589, 179, 197, 194, 212
-0.99959, 281, 225, 296, 352
-0.999592, 17, 317, 144, 348
-0.999592, 331, 291, 346, 306
-0.999592, 323, 289, 338, 304
-0.999593, 237, 241, 252, 368
-0.999595, 195, 179, 210, 194
-0.999596, 297, 281, 312, 296
-0.999596, 335, 193, 350, 320
-0.999597, 373, 247, 388, 262
-0.999601, 225, 61, 352, 92
-0.999601, 55, 161, 70, 288
-0.999602, 21, 129, 52, 374
-0.999603, 395, 113, 410, 240
-0.999605, 307, 247, 322, 262
-0.999606, 393, 193, 408, 320
-0.999606, 341, 129, 372, 374
-0.999609, 85, 97, 100, 224
-0.99961, 225, 89, 352, 120
-0.99961, 441, 65, 456, 192
-0.999611, 393, 241, 408, 256
-0.999611, 195, 97, 210, 224
-0.999613, 325, 1, 356, 256
-0.999613, 457, 111, 472, 126
-0.999614, 243, 225, 258, 240
-0.999616, 451, 121, 466, 136
-0.999621, 301, 237, 316, 252
-0.999621, 449, 127, 464, 142
-0.999622, 189, 97, 204, 224
-0.999622, 311, 285, 326, 300
-0.999624, 93, 197, 108, 212
-0.999626, 413, 209, 428, 336
-0.999628, 277, 97, 308, 224
-0.999629, 243, 241, 258, 368
-0.999633, 353, 49, 416, 176
-0.999636, 287, 243, 302, 258
-0.999636, 225, 117, 352, 148
-0.999638, 201, 181, 216, 196
-0.999641, 303, 283, 318, 298
-0.999646, 423, 229, 438, 244
-0.999647, 371, 241, 386, 256
-0.999656, 387, 239, 402, 254
-0.999659, 293, 241, 308, 256
-0.999672, 377, 239, 392, 254
-0.9997, 481, 249, 496, 264
-0.999701, 313, 249, 328, 264
-0.999724, 197, 33, 228, 288
-0.99973, 97, 277, 224, 308
-0.999738, 273, 73, 336, 136
-0.999741, 33, 241, 288, 304
-0.999744, 161, 1, 416, 64
-0.999766, 161, 305, 288, 336
-0.999769, 337, 261, 464, 292
-0.999805, 303, 231, 318, 246
-0.999839, 117, 49, 148, 176
-0.999864, 33, 125, 160, 156
-0.99991, 281, 49, 344, 176
-0.999931, 53, 33, 84, 288
-0.999961, 369, 97, 400, 352
-0.99997, 285, 33, 316, 288
-0.999983, 225, 297, 352, 328
-0.999998, 257, 313, 500, 374
-0.999999, 129, 125, 256, 156
-1.00004, 381, 33, 412, 288
-1.00008, 241, 305, 368, 368
-1.00009, 33, 113, 64, 240
-1.0001, 65, 345, 192, 374
-1.0001, 237, 33, 268, 288
-1.00012, 21, 129, 52, 256
-1.00014, 337, 329, 464, 360
-1.00016, 361, 33, 424, 288
-1.00016, 301, 1, 332, 256
-1.00018, 1, 257, 128, 288
-1.0002, 393, 33, 424, 288
-1.0002, 33, 33, 288, 160
-1.00022, 1, 313, 500, 374
-1.00023, 353, 301, 480, 332
-1.00023, 1, 333, 128, 364
-1.00024, 257, 345, 384, 374
-1.00024, 289, 333, 416, 364
-1.00024, 409, 1, 440, 256
-1.00026, 41, 33, 72, 288
-1.00026, 1, 245, 128, 276
-1.00027, 353, 69, 480, 100
-1.00027, 369, 277, 496, 308
-1.00029, 353, 313, 480, 344
-1.00029, 369, 265, 432, 328
-1.00033, 45, 225, 76, 352
-1.00035, 289, 97, 320, 224
-1.00035, 253, 33, 284, 288
-1.00036, 49, 241, 176, 272
-1.00038, 97, 245, 224, 276
-1.00039, 257, 129, 384, 160
-1.00039, 273, 313, 400, 344
-1.0004, 353, 9, 480, 72
-1.0004, 113, 321, 240, 352
-1.00041, 353, 17, 480, 48
-1.00041, 369, 57, 432, 120
-1.00041, 1, 73, 128, 136
-1.00042, 353, 33, 480, 96
-1.00043, 133, 49, 164, 176
-1.00047, 353, 5, 480, 36
-1.00048, 345, 25, 408, 88
-1.0005, 13, 241, 44, 368
-1.00066, 29, 33, 60, 288
-1.00069, 273, 33, 304, 288
-1.0007, 353, 89, 416, 152
-1.0007, 345, 145, 376, 272
-1.00072, 17, 33, 48, 288
-1.00077, 1, 81, 256, 144
-1.00084, 385, 241, 448, 368
-1.00094, 369, 1, 400, 256
-1.00098, 97, 313, 352, 374
-1.00099, 49, 81, 176, 144
-1.00108, 337, 1, 368, 256
-1.00117, 369, 25, 432, 88
-1.00125, 1, 33, 32, 288
-1.00129, 145, 49, 176, 176
-1.0013, 273, 1, 336, 128
-1.00131, 1, 57, 256, 120
-1.00134, 349, 1, 380, 256
-1.00138, 369, 1, 432, 64
-1.00138, 321, 81, 384, 208
-1.00139, 1, 97, 128, 160
-1.00146, 57, 105, 120, 168
-1.00147, 393, 289, 456, 352
-1.0015, 161, 313, 288, 374
-1.00158, 49, 57, 176, 120
-1.00159, 1, 17, 500, 80
-1.00159, 1, 49, 500, 112
-1.00161, 1, 33, 256, 96
-1.00172, 1, 1, 256, 64
-1.00173, 81, 249, 208, 312
-1.00176, 329, 1, 360, 128
-1.0018, 129, 97, 256, 160
-1.0018, 9, 145, 40, 272
-1.00186, 25, 97, 88, 224
-1.00188, 345, 49, 408, 112
-1.00189, 325, 97, 356, 224
-1.0019, 261, 81, 292, 208
-1.00191, 345, 1, 408, 64
-1.00191, 1, 49, 128, 112
-1.00195, 273, 97, 336, 160
-1.00199, 113, 73, 240, 136
-1.00207, 157, 49, 188, 176
-1.00222, 409, 57, 472, 120
-1.00239, 369, 129, 400, 256
-1.00245, 345, 145, 408, 208
-1.00251, 9, 33, 72, 288
-1.00252, 329, 1, 392, 256
-1.00258, 1, 25, 128, 88
-1.00258, 381, 1, 412, 128
-1.00258, 201, 241, 264, 304
-1.00258, 393, 49, 424, 176
-1.0026, 333, 145, 364, 272
-1.00264, 417, 281, 480, 344
-1.00267, 65, 33, 192, 96
-1.00268, 161, 73, 288, 136
-1.00271, 301, 49, 332, 176
-1.00274, 161, 49, 288, 112
-1.00283, 113, 33, 240, 96
-1.00288, 177, 25, 304, 88
-1.00291, 33, 1, 160, 64
-1.00291, 177, 1, 304, 64
-1.00291, 81, 9, 208, 72
-1.00291, 129, 9, 256, 72
-1.00299, 89, 49, 120, 176
-1.00302, 369, 1, 432, 128
-1.00324, 329, 313, 392, 374
-1.00325, 369, 49, 400, 176
-1.00329, 393, 241, 424, 368
-1.00335, 153, 49, 216, 176
-1.00354, 329, 1, 392, 128
-1.00355, 177, 97, 304, 160
-1.00367, 49, 33, 176, 160
-1.00388, 301, 1, 332, 128
-1.00392, 357, 129, 388, 256
-1.00402, 469, 129, 500, 256
-1.00461, 181, 49, 212, 176
-1.00472, 337, 97, 368, 224
-1.00478, 169, 49, 200, 176
-1.00508, 1, 97, 64, 224
-1.00533, 49, 49, 112, 176
-1.00569, 377, 49, 440, 176
-1.00692, 1, 1, 128, 128
-1.00813, 113, 1, 240, 128
-1.0092, 193, 1, 320, 128
-1.01124, 1, 33, 64, 160
-1.01163, 25, 17, 88, 144
-1.01166, 97, 1, 160, 128
-1.01201, 57, 1, 120, 128
-1.01208, 121, 1, 184, 128
-1.01228, 233, 49, 296, 176
-1.01235, 209, 49, 272, 176
-1.01236, 393, 1, 456, 128
-1.01273, 153, 1, 216, 128
-1.014, 193, 1, 256, 128
-1.01471, 249, 1, 312, 128
-1.01478, 225, 1, 288, 128
-1.01588, 257, 49, 320, 176
