2122
-0.217971, 1, 1, 500, 497
-0.308031, 1, 193, 500, 448
-0.396166, 1, 1, 500, 256
-0.399766, 1, 97, 500, 352
-0.412157, 33, 1, 288, 497
-0.417733, 129, 1, 384, 497
-0.447519, 257, 1, 500, 497
-0.511539, 161, 161, 416, 416
-0.530274, 1, 65, 256, 320
-0.567649, 257, 161, 500, 416
-0.586159, 65, 225, 320, 480
-0.617098, 161, 1, 416, 256
-0.622333, 257, 257, 500, 497
-0.654808, 257, 1, 500, 256
-0.799454, 161, 257, 416, 497
-0.840705, 65, 1, 192, 497
-0.846441, 161, 193, 288, 448
-0.849637, 113, 1, 240, 497
-0.852772, 161, 1, 288, 497
-0.855718, 49, 193, 176, 448
-0.861995, 1, 241, 500, 368
-0.863371, 353, 257, 480, 497
-0.863688, 1, 129, 128, 384
-0.86469, 97, 1, 224, 256
-0.866155, 353, 161, 480, 416
-0.866525, 273, 161, 400, 416
-0.86697, 353, 1, 480, 497
-0.871316, 81, 97, 208, 352
-0.872194, 33, 33, 160, 288
-0.874251, 1, 177, 500, 304
-0.875511, 225, 1, 352, 497
-0.881298, 113, 193, 240, 448
-0.882194, 17, 1, 144, 497
-0.882709, 273, 1, 400, 256
-0.882784, 209, 225, 336, 480
-0.883865, 225, 161, 480, 288
-0.885458, 353, 33, 480, 288
-0.885529, 273, 1, 400, 497
-0.886657, 177, 65, 304, 320
-0.892128, 1, 113, 500, 240
-0.893054, 225, 1, 352, 256
-0.894775, 1, 289, 500, 416
-0.896115, 305, 257, 432, 497
-0.898051, 129, 97, 256, 352
-0.900271, 1, 337, 500, 464
-0.902051, 129, 353, 384, 480
-0.902776, 1, 257, 128, 497
-0.904521, 33, 193, 288, 320
-0.904745, 129, 177, 384, 304
-0.906602, 257, 321, 500, 448
-0.914625, 1, 1, 500, 128
-0.914797, 33, 113, 288, 240
-0.916777, 257, 1, 500, 128
-0.917663, 225, 97, 352, 352
-0.918108, 433, 353, 496, 480
-0.920687, 1, 65, 500, 192
-0.923786, 257, 257, 384, 497
-0.92572, 225, 209, 480, 336
-0.927113, 145, 353, 272, 480
-0.927865, 33, 353, 288, 480
-0.928882, 129, 241, 384, 368
-0.929884, 49, 177, 112, 304
-0.930028, 161, 177, 288, 304
-0.930622, 49, 209, 176, 336
-0.931042, 273, 177, 400, 304
-0.931516, 1, 177, 128, 304
-0.932128, 193, 113, 448, 240
-0.932269, 1, 273, 256, 400
-0.932972, 65, 369, 192, 496
-0.932996, 345, 145, 408, 272
-0.933339, 433, 209, 496, 336
-0.93394, 153, 353, 216, 480
-0.935252, 353, 193, 480, 320
-0.935368, 313, 161, 376, 288
-0.935529, 385, 177, 448, 304
-0.93757, 177, 161, 240, 288
-0.938511, 257, 273, 500, 400
-0.938763, 161, 33, 416, 160
-0.939871, 353, 289, 480, 416
-0.941403, 113, 177, 240, 304
-0.941975, 369, 337, 496, 464
-0.942177, 1, 1, 256, 128
-0.942426, 209, 161, 336, 288
-0.942502, 81, 193, 144, 320
-0.942959, 25, 161, 88, 288
-0.944466, 409, 177, 472, 304
-0.944771, 201, 193, 264, 320
-0.945119, 65, 289, 192, 416
-0.945208, 353, 241, 480, 368
-0.945362, 425, 393, 488, 456
-0.945833, 49, 257, 112, 384
-0.946111, 321, 177, 384, 240
-0.946231, 49, 97, 176, 224
-0.94654, 433, 161, 496, 288
-0.947263, 337, 129, 464, 256
-0.947433, 433, 289, 496, 416
-0.947523, 273, 321, 400, 448
-0.947715, 337, 1, 464, 128
-0.947753, 249, 177, 312, 304
-0.947996, 425, 361, 488, 424
-0.948044, 177, 225, 240, 352
-0.948792, 161, 225, 288, 352
-0.950337, 225, 177, 288, 304
-0.950445, 177, 177, 240, 240
-0.951525, 401, 321, 464, 448
-0.951546, 193, 353, 320, 480
-0.951846, 129, 33, 256, 160
-0.952545, 65, 49, 320, 176
-0.952845, 401, 1, 464, 128
-0.953358, 433, 17, 496, 144
-0.95362, 145, 305, 272, 432
-0.954068, 345, 161, 408, 224
-0.954301, 377, 129, 440, 256
-0.954349, 97, 225, 224, 352
-0.95449, 393, 241, 456, 368
-0.954576, 145, 273, 208, 400
-0.954842, 49, 129, 112, 256
-0.954861, 1, 129, 128, 256
-0.955001, 425, 337, 488, 400
-0.955076, 89, 209, 152, 272
-0.9552, 65, 193, 128, 256
-0.955248, 33, 49, 160, 176
-0.955726, 1, 177, 64, 304
-0.955972, 433, 209, 496, 272
-0.956132, 249, 353, 312, 480
-0.956487, 321, 113, 384, 240
-0.956503, 273, 129, 400, 256
-0.956819, 1, 337, 128, 464
-0.957016, 97, 289, 352, 416
-0.95703, 345, 97, 408, 224
-0.957067, 369, 1, 432, 128
-0.957071, 369, 185, 432, 248
-0.95717, 273, 161, 336, 288
-0.957536, 121, 369, 184, 496
-0.957655, 361, 273, 424, 400
-0.957901, 1, 225, 128, 352
-0.95807, 49, 161, 176, 288
-0.958164, 105, 209, 168, 336
-0.958569, 97, 97, 224, 224
-0.958724, 289, 1, 416, 128
-0.958894, 97, 353, 160, 480
-0.958973, 393, 369, 456, 496
-0.959076, 25, 177, 88, 240
-0.959129, 369, 161, 432, 224
-0.959306, 209, 209, 336, 336
-0.95937, 257, 369, 500, 496
-0.959517, 345, 193, 408, 320
-0.959617, 241, 169, 304, 232
-0.959631, 345, 185, 408, 248
-0.959713, 433, 1, 496, 64
-0.959738, 161, 129, 288, 256
-0.959816, 153, 361, 216, 424
-0.960118, 273, 321, 336, 448
-0.960163, 113, 49, 176, 176
-0.960257, 49, 217, 112, 280
-0.960349, 177, 353, 240, 480
-0.960515, 201, 353, 264, 480
-0.96056, 409, 177, 472, 240
-0.960698, 353, 297, 416, 360
-0.960709, 177, 201, 240, 264
-0.960827, 273, 185, 336, 248
-0.960858, 81, 289, 144, 416
-0.960923, 401, 337, 464, 400
-0.960993, 169, 289, 232, 416
-0.961241, 305, 273, 432, 400
-0.961406, 113, 305, 176, 432
-0.96145, 25, 209, 88, 336
-0.961616, 209, 17, 336, 144
-0.96164, 201, 145, 264, 272
-0.96167, 425, 433, 488, 496
-0.961673, 145, 81, 272, 208
-0.962053, 121, 433, 184, 496
-0.962806, 49, 1, 176, 128
-0.962916, 409, 129, 472, 256
-0.963032, 257, 49, 500, 176
-0.963171, 417, 225, 480, 480
-0.963412, 1, 225, 64, 352
-0.963732, 225, 353, 288, 480
-0.964032, 49, 161, 112, 416
-0.964115, 225, 113, 352, 240
-0.96431, 345, 1, 408, 128
-0.964318, 81, 241, 144, 368
-0.964331, 289, 113, 352, 240
-0.964427, 433, 185, 496, 248
-0.964585, 433, 313, 496, 376
-0.964805, 345, 129, 408, 192
-0.96481, 153, 177, 216, 304
-0.964933, 401, 401, 464, 464
-0.964991, 401, 201, 464, 264
-0.965022, 17, 113, 80, 240
-0.965055, 201, 153, 264, 216
-0.965111, 49, 337, 112, 464
-0.965146, 321, 241, 384, 368
-0.965274, 281, 337, 344, 400
-0.965327, 433, 25, 496, 88
-0.965782, 49, 257, 112, 320
-0.96588, 377, 321, 440, 448
-0.966106, 273, 225, 400, 352
-0.966129, 25, 201, 88, 264
-0.966191, 1, 273, 128, 400
-0.966327, 469, 377, 500, 440
-0.966367, 89, 233, 152, 296
-0.966472, 401, 17, 464, 80
-0.966538, 121, 1, 184, 128
-0.966573, 433, 233, 496, 296
-0.967222, 137, 97, 200, 224
-0.967334, 177, 113, 240, 240
-0.967368, 297, 177, 360, 240
-0.967483, 297, 321, 360, 448
-0.967668, 345, 161, 408, 416
-0.967807, 121, 409, 184, 472
-0.967844, 1, 185, 64, 248
-0.967961, 369, 225, 432, 352
-0.967968, 137, 193, 200, 256
-0.968023, 441, 337, 472, 464
-0.968036, 321, 425, 384, 488
-0.968045, 313, 1, 376, 128
-0.968318, 81, 97, 144, 224
-0.968381, 469, 353, 500, 480
-0.968758, 185, 161, 216, 288
-0.969015, 429, 337, 460, 464
-0.969133, 357, 177, 388, 240
-0.969151, 457, 337, 488, 464
-0.969171, 217, 177, 280, 240
-0.96934, 233, 129, 296, 256
-0.969542, 9, 225, 72, 288
-0.969609, 353, 185, 480, 248
-0.969631, 241, 193, 304, 256
-0.96965, 401, 425, 464, 488
-0.969698, 321, 153, 384, 216
-0.969828, 289, 177, 416, 240
-0.969991, 1, 185, 128, 248
-0.970013, 457, 345, 488, 408
-0.970049, 393, 193, 456, 448
-0.970077, 145, 33, 208, 160
-0.970114, 185, 177, 216, 240
-0.970135, 273, 161, 336, 224
-0.970475, 177, 193, 240, 448
-0.97052, 145, 225, 208, 352
-0.970602, 113, 9, 176, 72
-0.970629, 401, 289, 464, 352
-0.970644, 81, 217, 208, 280
-0.970666, 1, 217, 128, 280
-0.970763, 121, 385, 184, 448
-0.970766, 25, 9, 88, 72
-0.970905, 337, 401, 400, 464
-0.970934, 193, 273, 320, 400
-0.971199, 369, 33, 432, 96
-0.971211, 361, 1, 424, 256
-0.97122, 113, 345, 176, 408
-0.971305, 113, 113, 176, 176
-0.971452, 337, 169, 368, 232
-0.971684, 441, 337, 472, 400
-0.971741, 81, 49, 208, 176
-0.971787, 49, 337, 112, 400
-0.971823, 113, 49, 176, 112
-0.971941, 225, 225, 288, 352
-0.972071, 321, 321, 384, 448
-0.972084, 177, 241, 240, 304
-0.972115, 201, 193, 264, 448
-0.972178, 49, 161, 112, 224
-0.972333, 77, 177, 108, 304
-0.972374, 193, 65, 320, 192
-0.972391, 337, 81, 464, 208
-0.972395, 41, 281, 104, 344
-0.972417, 349, 161, 380, 288
-0.972419, 177, 49, 240, 176
-0.972422, 433, 161, 496, 224
-0.972559, 289, 1, 352, 128
-0.972584, 153, 337, 216, 400
-0.972928, 353, 209, 480, 272
-0.972963, 177, 153, 240, 216
-0.973016, 1, 145, 64, 208
-0.97303, 57, 9, 120, 72
-0.973049, 329, 161, 360, 288
-0.973224, 53, 161, 84, 288
-0.973333, 25, 1, 88, 128
-0.973379, 369, 209, 432, 272
-0.97348, 469, 425, 500, 488
-0.973488, 129, 1, 192, 256
-0.973497, 153, 257, 216, 497
-0.973511, 165, 353, 196, 480
-0.973533, 305, 1, 368, 256
-0.973552, 89, 9, 152, 72
-0.973583, 81, 257, 144, 320
-0.973603, 433, 273, 496, 336
-0.973643, 145, 361, 272, 424
-0.973651, 77, 193, 108, 256
-0.973719, 369, 81, 432, 208
-0.973741, 305, 161, 368, 416
-0.973814, 445, 177, 476, 304
-0.973834, 65, 401, 192, 464
-0.973883, 153, 265, 216, 328
-0.97411, 373, 185, 404, 248
-0.974134, 305, 49, 368, 176
-0.974143, 381, 161, 412, 288
-0.974444, 81, 49, 144, 176
-0.974448, 225, 305, 288, 432
-0.974509, 1, 121, 64, 184
-0.974519, 313, 201, 376, 264
-0.974605, 401, 313, 464, 376
-0.974668, 1, 1, 128, 128
-0.974688, 469, 353, 500, 416
-0.974725, 433, 129, 496, 384
-0.974781, 409, 153, 472, 216
-0.974884, 89, 393, 152, 456
-0.974887, 49, 305, 112, 368
-0.97491, 313, 321, 376, 384
-0.974923, 161, 185, 288, 248
-0.974968, 217, 209, 280, 272
-0.975023, 297, 409, 360, 472
-0.975073, 361, 177, 392, 304
-0.975075, 353, 305, 480, 368
-0.975137, 377, 209, 408, 336
-0.975144, 225, 193, 288, 448
-0.975257, 193, 65, 256, 320
-0.975258, 113, 217, 176, 280
-0.975279, 1, 193, 32, 256
-0.975298, 321, 121, 384, 184
-0.975326, 337, 1, 400, 256
-0.975384, 289, 201, 416, 264
-0.975449, 265, 1, 328, 128
-0.975558, 433, 161, 464, 288
-0.975578, 177, 361, 240, 424
-0.975631, 409, 49, 472, 176
-0.975659, 385, 33, 448, 288
-0.975677, 101, 209, 132, 272
-0.975692, 217, 49, 280, 176
-0.975699, 449, 401, 480, 464
-0.975805, 137, 217, 200, 280
-0.975833, 1, 1, 64, 64
-0.976073, 369, 161, 400, 224
-0.976115, 145, 97, 208, 160
-0.976176, 153, 417, 216, 480
-0.976201, 401, 377, 464, 440
-0.976232, 353, 281, 480, 344
-0.976246, 201, 361, 264, 424
-0.97626, 185, 65, 248, 128
-0.976412, 281, 65, 344, 320
-0.976489, 437, 361, 468, 424
-0.976545, 353, 161, 480, 224
-0.976606, 17, 49, 80, 176
-0.976618, 201, 97, 264, 224
-0.976641, 105, 97, 168, 224
-0.976716, 89, 177, 120, 304
-0.976753, 241, 361, 304, 424
-0.976797, 249, 161, 280, 288
-0.976803, 149, 369, 180, 496
-0.976807, 105, 1, 168, 256
-0.976842, 121, 209, 152, 272
-0.976844, 17, 1, 80, 256
-0.976846, 225, 185, 352, 248
-0.976912, 369, 193, 432, 448
-0.977075, 369, 337, 496, 400
-0.97711, 409, 41, 472, 104
-0.977126, 1, 177, 32, 304
-0.977137, 65, 377, 192, 440
-0.977231, 49, 169, 80, 232
-0.977236, 81, 305, 144, 368
-0.977264, 289, 209, 352, 336
-0.977271, 345, 17, 408, 80
-0.977359, 233, 145, 296, 208
-0.977379, 89, 105, 152, 168
-0.977384, 429, 385, 460, 448
-0.977395, 349, 113, 380, 240
-0.977455, 297, 257, 360, 384
-0.977561, 145, 9, 208, 72
-0.977564, 469, 401, 500, 464
-0.977592, 89, 201, 120, 264
-0.977596, 305, 97, 368, 160
-0.977622, 261, 161, 292, 288
-0.977661, 89, 361, 152, 424
-0.977779, 49, 193, 176, 256
-0.977803, 417, 1, 480, 256
-0.977817, 193, 305, 256, 432
-0.977843, 41, 49, 104, 176
-0.977849, 121, 81, 184, 144
-0.977939, 349, 153, 380, 216
-0.977952, 205, 193, 236, 320
-0.97801, 345, 209, 408, 272
-0.978018, 217, 193, 248, 320
-0.978043, 69, 129, 100, 256
-0.978096, 237, 161, 268, 288
-0.978112, 25, 161, 88, 416
-0.978137, 73, 145, 136, 272
-0.978152, 437, 289, 468, 416
-0.978164, 193, 161, 320, 224
-0.978171, 161, 209, 288, 272
-0.97819, 65, 177, 96, 304
-0.978236, 133, 321, 164, 448
-0.978249, 377, 281, 408, 344
-0.978271, 313, 185, 344, 248
-0.978283, 413, 177, 444, 304
-0.978338, 353, 401, 384, 464
-0.978374, 1, 193, 64, 448
-0.97839, 377, 1, 440, 64
-0.978451, 161, 1, 224, 256
-0.978462, 437, 409, 468, 472
-0.978487, 1, 1, 64, 128
-0.978517, 289, 337, 320, 400
-0.978525, 129, 33, 256, 96
-0.97858, 413, 185, 444, 248
-0.978593, 1, 97, 64, 160
-0.978596, 469, 1, 500, 64
-0.978655, 25, 153, 88, 216
-0.978656, 369, 401, 496, 464
-0.978659, 433, 185, 464, 248
-0.978676, 297, 153, 360, 216
-0.978688, 29, 193, 60, 256
-0.978698, 273, 81, 400, 208
-0.978713, 73, 337, 136, 464
-0.978729, 369, 433, 496, 496
-0.978812, 321, 137, 448, 200
-0.978913, 281, 209, 344, 272
-0.978918, 249, 225, 312, 352
-0.97892, 33, 297, 160, 360
-0.978952, 65, 49, 192, 112
-0.97898, 113, 193, 240, 256
-0.979098, 201, 153, 232, 216
-0.979115, 397, 193, 428, 320
-0.979119, 297, 433, 360, 496
-0.979283, 81, 433, 208, 496
-0.979334, 425, 209, 456, 336
-0.979415, 449, 209, 480, 272
-0.97943, 325, 177, 356, 240
-0.979441, 317, 161, 348, 288
-0.979442, 445, 185, 476, 248
-0.979477, 233, 185, 264, 248
-0.979511, 73, 97, 136, 352
-0.979523, 305, 313, 432, 376
-0.979532, 249, 289, 312, 416
-0.979569, 265, 113, 328, 240
-0.979574, 145, 33, 208, 96
-0.979616, 185, 337, 248, 400
-0.979659, 249, 225, 312, 480
-0.97971, 185, 1, 248, 497
-0.979717, 89, 417, 152, 480
-0.979746, 433, 113, 496, 240
-0.979749, 433, 65, 496, 192
-0.979771, 41, 1, 104, 256
-0.979773, 81, 257, 144, 497
-0.9798, 145, 289, 208, 352
-0.979817, 253, 169, 284, 232
-0.979863, 149, 409, 180, 472
-0.979874, 377, 57, 440, 120
-0.979906, 241, 153, 368, 216
-0.979926, 433, 57, 496, 120
-0.979929, 129, 321, 192, 384
-0.979983, 209, 177, 240, 240
-0.98008, 137, 97, 200, 352
-0.980088, 361, 113, 392, 240
-0.980095, 429, 337, 460, 400
-0.980174, 425, 425, 456, 488
-0.980186, 1, 97, 64, 352
-0.980194, 345, 257, 408, 497
-0.98021, 469, 17, 500, 144
-0.980271, 429, 209, 460, 272
-0.980276, 65, 1, 128, 128
-0.980311, 65, 345, 192, 408
-0.980332, 169, 1, 232, 128
-0.980392, 65, 9, 192, 72
-0.980394, 257, 337, 320, 400
-0.980414, 393, 265, 456, 328
-0.980432, 265, 153, 296, 216
-0.980477, 125, 33, 156, 160
-0.980521, 469, 185, 500, 248
-0.980538, 185, 25, 248, 88
-0.980568, 1, 433, 64, 496
-0.980588, 233, 1, 296, 256
-0.98059, 393, 193, 424, 256
-0.980591, 241, 273, 368, 400
-0.98064, 17, 9, 144, 72
-0.980652, 65, 185, 96, 248
-0.980802, 413, 1, 444, 128
-0.980805, 17, 57, 80, 120
-0.980818, 157, 361, 188, 424
-0.980819, 377, 257, 408, 384
-0.980838, 353, 241, 480, 304
-0.980847, 457, 193, 488, 320
-0.980911, 73, 217, 104, 280
-0.981021, 449, 369, 480, 432
-0.981039, 161, 241, 288, 304
-0.98104, 81, 161, 208, 224
-0.981067, 145, 385, 208, 448
-0.981132, 89, 337, 152, 400
-0.981195, 209, 57, 272, 120
-0.981268, 121, 257, 184, 497
-0.981291, 41, 33, 104, 96
-0.981294, 93, 225, 124, 352
-0.981294, 337, 137, 368, 200
-0.981305, 381, 161, 412, 224
-0.981311, 181, 289, 212, 416
-0.981337, 365, 137, 396, 200
-0.981428, 377, 417, 440, 480
-0.981451, 433, 1, 464, 64
-0.981466, 81, 281, 144, 344
-0.981479, 277, 161, 308, 288
-0.981485, 33, 257, 160, 320
-0.981488, 305, 73, 368, 136
-0.981497, 1, 1, 32, 64
-0.981517, 257, 329, 384, 392
-0.981552, 73, 1, 136, 256
-0.981559, 401, 225, 464, 288
-0.981582, 89, 185, 152, 248
-0.981598, 97, 97, 160, 352
-0.981627, 265, 25, 328, 88
-0.981632, 65, 137, 128, 200
-0.981633, 221, 209, 252, 272
-0.981649, 65, 321, 192, 384
-0.981673, 369, 1, 496, 64
-0.981686, 125, 209, 156, 336
-0.981824, 153, 1, 216, 497
-0.981856, 181, 353, 212, 480
-0.981896, 417, 337, 448, 400
-0.981992, 185, 225, 216, 352
-0.982035, 57, 257, 120, 497
-0.982061, 301, 193, 332, 256
-0.982072, 81, 241, 208, 304
-0.982088, 413, 321, 444, 448
-0.982105, 409, 1, 472, 497
-0.982153, 233, 97, 296, 352
-0.982213, 145, 153, 272, 216
-0.982227, 337, 113, 368, 240
-0.982254, 169, 273, 200, 400
-0.982257, 65, 113, 192, 176
-0.982403, 433, 25, 464, 88
-0.982426, 209, 201, 240, 264
-0.982433, 433, 17, 464, 144
-0.98251, 305, 177, 336, 304
-0.982526, 469, 145, 500, 272
-0.982611, 145, 73, 272, 136
-0.982678, 273, 193, 336, 448
-0.982725, 1, 273, 64, 400
-0.982769, 249, 209, 280, 336
-0.982789, 193, 361, 320, 424
-0.982796, 193, 353, 224, 480
-0.982805, 417, 209, 448, 272
-0.98281, 257, 1, 320, 256
-0.98282, 121, 49, 152, 112
-0.982849, 433, 1, 496, 497
-0.982855, 113, 9, 240, 72
-0.98289, 129, 1, 192, 497
-0.982902, 189, 201, 220, 264
-0.982907, 397, 1, 428, 128
-0.982935, 281, 337, 312, 464
-0.983053, 449, 17, 480, 144
-0.983076, 49, 137, 176, 200
-0.98318, 1, 217, 32, 280
-0.983182, 13, 185, 44, 248
-0.983189, 33, 193, 64, 320
-0.98322, 237, 209, 268, 272
-0.983364, 437, 313, 468, 376
-0.9834, 437, 433, 468, 496
-0.983437, 13, 177, 44, 304
-0.983524, 281, 169, 312, 232
-0.983542, 17, 73, 144, 136
-0.983576, 457, 185, 488, 248
-0.98359, 1, 129, 32, 256
-0.98361, 205, 353, 236, 480
-0.983661, 29, 145, 60, 272
-0.983668, 1, 225, 32, 352
-0.983675, 125, 9, 156, 72
-0.983679, 225, 1, 288, 128
-0.983691, 97, 73, 224, 136
-0.983729, 361, 201, 392, 264
-0.983735, 49, 113, 80, 240
-0.983747, 445, 225, 476, 352
-0.983765, 69, 9, 100, 72
-0.983837, 289, 193, 320, 256
-0.983843, 321, 425, 448, 488
-0.983901, 97, 1, 160, 128
-0.983933, 41, 1, 104, 497
-0.983943, 169, 97, 232, 352
-0.98396, 177, 321, 304, 384
-0.98402, 25, 257, 88, 384
-0.984032, 381, 1, 412, 128
-0.984036, 205, 145, 236, 272
-0.984042, 229, 353, 260, 480
-0.984048, 57, 257, 88, 384
-0.984076, 405, 209, 436, 272
-0.98408, 201, 241, 264, 368
-0.98409, 425, 257, 456, 384
-0.984129, 133, 361, 164, 424
-0.984134, 209, 25, 336, 88
-0.984207, 449, 1, 480, 64
-0.984238, 457, 289, 488, 416
-0.984249, 217, 353, 248, 480
-0.984288, 97, 145, 160, 272
-0.984297, 53, 193, 84, 256
-0.984304, 185, 257, 216, 320
-0.98432, 145, 425, 272, 488
-0.984339, 113, 193, 144, 320
-0.984374, 345, 369, 408, 496
-0.984395, 113, 337, 240, 400
-0.984422, 17, 97, 144, 160
-0.984428, 417, 401, 448, 464
-0.984439, 245, 353, 276, 480
-0.984445, 73, 257, 104, 384
-0.984452, 293, 321, 324, 448
-0.984475, 1, 369, 64, 496
-0.984487, 73, 1, 136, 497
-0.984539, 469, 65, 500, 192
-0.984593, 445, 241, 476, 304
-0.984655, 113, 113, 240, 176
-0.984714, 365, 225, 396, 352
-0.984748, 1, 161, 128, 224
-0.984754, 1, 337, 128, 400
-0.984773, 305, 321, 336, 448
-0.984842, 445, 265, 476, 328
-0.984906, 17, 33, 144, 96
-0.984965, 269, 353, 300, 480
-0.984972, 141, 385, 172, 448
-0.984976, 113, 257, 176, 384
-0.984985, 193, 137, 320, 200
-0.985093, 121, 113, 152, 176
-0.985112, 201, 1, 264, 128
-0.985134, 369, 369, 496, 432
-0.985209, 137, 9, 168, 72
-0.985217, 397, 25, 428, 88
-0.985281, 457, 433, 488, 496
-0.985309, 57, 9, 88, 72
-0.985328, 209, 1, 272, 497
-0.985333, 221, 185, 252, 248
-0.985353, 149, 433, 180, 496
-0.985419, 109, 49, 140, 176
-0.985493, 257, 353, 288, 480
-0.985533, 113, 233, 144, 296
-0.985592, 413, 17, 444, 80
-0.985678, 413, 161, 444, 224
-0.9857, 217, 65, 248, 128
-0.985723, 249, 193, 280, 256
-0.985884, 209, 49, 336, 112
-0.985904, 217, 145, 248, 272
-0.986031, 381, 17, 412, 80
-0.986061, 25, 305, 88, 432
-0.986074, 365, 297, 396, 360
-0.986127, 361, 1, 392, 128
-0.986133, 325, 153, 356, 216
-0.986135, 97, 281, 224, 344
-0.986148, 265, 113, 296, 240
-0.986151, 265, 185, 296, 248
-0.986159, 129, 161, 192, 288
-0.986174, 385, 1, 448, 497
-0.986185, 297, 257, 360, 497
-0.98622, 393, 145, 424, 272
-0.986221, 353, 241, 384, 368
-0.986292, 105, 9, 136, 72
-0.98631, 229, 161, 260, 224
-0.986346, 321, 401, 448, 464
-0.98636, 217, 65, 248, 192
-0.986429, 293, 177, 324, 304
-0.986448, 169, 329, 200, 392
-0.986449, 469, 161, 500, 224
-0.986461, 145, 401, 272, 464
-0.986497, 161, 265, 288, 328
-0.986516, 297, 369, 360, 496
-0.986531, 257, 129, 384, 192
-0.986558, 321, 257, 384, 497
-0.986593, 13, 217, 44, 280
-0.986611, 325, 1, 356, 128
-0.986632, 169, 353, 200, 416
-0.98667, 1, 1, 64, 497
-0.986672, 85, 9, 116, 72
-0.986675, 353, 129, 384, 192
-0.986728, 141, 49, 172, 112
-0.986791, 241, 161, 272, 224
-0.986817, 121, 73, 152, 136
-0.986835, 133, 113, 164, 176
-0.986847, 209, 209, 336, 272
-0.986852, 37, 1, 68, 64
-0.986912, 313, 57, 344, 120
-0.986926, 421, 129, 452, 256
-0.986929, 257, 17, 384, 80
-0.986937, 69, 153, 100, 216
-0.986985, 97, 1, 160, 497
-0.987047, 445, 129, 476, 256
-0.987075, 341, 425, 372, 488
-0.987087, 137, 49, 168, 176
-0.987097, 1, 121, 128, 184
-0.987113, 265, 65, 328, 192
-0.987142, 353, 305, 384, 432
-0.987163, 25, 1, 56, 64
-0.987175, 73, 337, 104, 400
-0.987206, 373, 209, 404, 272
-0.987206, 133, 217, 164, 280
-0.987302, 169, 209, 200, 336
-0.987311, 321, 25, 448, 88
-0.98732, 185, 233, 216, 296
-0.987339, 1, 121, 32, 184
-0.987364, 53, 209, 84, 336
-0.987368, 273, 1, 336, 497
-0.987371, 389, 297, 420, 360
-0.987393, 73, 313, 104, 376
-0.987414, 77, 305, 108, 432
-0.987446, 393, 241, 424, 368
-0.987495, 181, 361, 212, 424
-0.987496, 41, 217, 72, 280
-0.987502, 1, 169, 32, 232
-0.987572, 77, 353, 108, 480
-0.987595, 457, 145, 488, 272
-0.987623, 149, 337, 180, 400
-0.987628, 369, 25, 496, 88
-0.987633, 141, 1, 172, 128
-0.987671, 25, 217, 56, 280
-0.987706, 321, 113, 448, 176
-0.987729, 161, 9, 288, 72
-0.987749, 45, 17, 76, 144
-0.987749, 213, 17, 244, 144
-0.987754, 229, 209, 260, 336
-0.987758, 269, 361, 300, 424
-0.987759, 89, 225, 120, 288
-0.987803, 165, 425, 196, 488
-0.987904, 305, 289, 432, 352
-0.987914, 337, 321, 368, 448
-0.987915, 325, 113, 356, 240
-0.987929, 425, 313, 456, 376
-0.987937, 405, 241, 436, 368
-0.987991, 301, 1, 332, 128
-0.988018, 345, 49, 408, 176
-0.988053, 93, 305, 124, 432
-0.988126, 425, 405, 488, 436
-0.988226, 161, 17, 192, 144
-0.988247, 341, 1, 372, 128
-0.988345, 369, 369, 432, 496
-0.988404, 273, 425, 400, 488
-0.988412, 389, 289, 420, 416
-0.988457, 317, 321, 348, 448
-0.988477, 469, 193, 500, 320
-0.988534, 249, 1, 312, 497
-0.988575, 97, 217, 160, 248
-0.988606, 145, 273, 176, 400
-0.988632, 321, 177, 384, 208
-0.98865, 257, 321, 500, 384
-0.988688, 193, 273, 224, 400
-0.988715, 341, 241, 372, 368
-0.988719, 181, 97, 212, 224
-0.988724, 261, 209, 292, 336
-0.988755, 273, 273, 336, 400
-0.988844, 433, 337, 496, 368
-0.988893, 369, 201, 432, 232
-0.988937, 13, 113, 44, 240
-0.988982, 365, 273, 396, 400
-0.98899, 409, 97, 472, 352
-0.988995, 29, 1, 60, 128
-0.98907, 433, 357, 496, 388
-0.989147, 345, 185, 408, 216
-0.989219, 321, 1, 384, 497
-0.989251, 409, 129, 440, 256
-0.989258, 177, 181, 240, 212
-0.989307, 1, 401, 128, 464
-0.989326, 33, 153, 288, 216
-0.989403, 425, 417, 488, 448
-0.98947, 1, 81, 32, 208
-0.989517, 425, 393, 488, 424
-0.989522, 1, 1, 32, 128
-0.989523, 65, 213, 128, 244
-0.989578, 385, 189, 448, 220
-0.989602, 241, 81, 304, 208
-0.989614, 425, 189, 488, 220
-0.989628, 33, 257, 96, 497
-0.989702, 1, 321, 64, 448
-0.989706, 1, 1, 64, 32
-0.98972, 49, 189, 112, 220
-0.989732, 345, 169, 408, 200
-0.989747, 241, 181, 304, 212
-0.989758, 177, 213, 240, 244
-0.98976, 257, 169, 500, 232
-0.98977, 425, 369, 488, 400
-0.989807, 273, 209, 304, 336
-0.989836, 361, 301, 424, 332
-0.989847, 33, 205, 96, 236
-0.989885, 161, 177, 416, 240
-0.989889, 401, 413, 464, 444
-0.98994, 33, 209, 288, 272
-0.989975, 369, 165, 432, 196
-0.989989, 261, 305, 292, 432
-0.989994, 177, 201, 240, 232
-0.99, 433, 213, 496, 244
-0.990009, 353, 49, 480, 112
-0.990016, 197, 81, 228, 208
-0.990019, 433, 1, 496, 32
-0.990055, 49, 261, 112, 292
-0.990061, 65, 201, 128, 232
-0.990065, 361, 1, 424, 497
-0.990065, 65, 225, 128, 256
-0.990068, 153, 365, 216, 396
-0.990122, 13, 225, 44, 352
-0.99013, 249, 217, 312, 248
-0.990131, 81, 97, 112, 224
-0.990153, 265, 181, 328, 212
-0.990157, 149, 65, 180, 192
-0.990159, 345, 157, 408, 188
-0.990169, 345, 321, 408, 448
-0.99017, 297, 129, 328, 256
-0.990188, 433, 233, 496, 264
-0.99019, 385, 29, 448, 60
-0.9902, 89, 229, 152, 260
-0.9902, 409, 209, 472, 240
-0.990205, 225, 217, 288, 248
-0.990205, 305, 1, 432, 64
-0.990226, 425, 429, 488, 460
-0.990236, 305, 189, 368, 220
-0.99024, 433, 441, 496, 472
-0.990258, 257, 369, 384, 496
-0.990262, 121, 441, 184, 472
-0.990267, 385, 177, 448, 208
-0.990282, 409, 345, 472, 376
-0.990333, 121, 405, 184, 436
-0.990343, 129, 361, 384, 424
-0.990355, 41, 1, 104, 32
-0.990375, 377, 1, 440, 32
-0.990396, 417, 457, 480, 488
-0.990414, 129, 305, 256, 368
-0.99043, 113, 53, 176, 84
-0.990453, 177, 229, 240, 260
-0.990477, 337, 457, 400, 488
-0.990478, 401, 425, 464, 456
-0.990481, 233, 161, 296, 192
-0.9905, 121, 417, 184, 448
-0.990512, 337, 197, 400, 228
-0.990517, 201, 181, 264, 212
-0.990523, 201, 221, 264, 252
-0.990527, 137, 217, 200, 248
-0.990529, 425, 381, 488, 412
-0.990543, 217, 201, 280, 232
-0.990556, 1, 193, 500, 256
-0.990574, 401, 317, 464, 348
-0.990577, 305, 225, 432, 288
-0.990585, 121, 357, 184, 388
-0.990599, 25, 169, 88, 200
-0.9906, 369, 457, 432, 488
-0.990635, 353, 313, 416, 344
-0.99068, 169, 1, 232, 32
-0.990699, 281, 337, 344, 368
-0.990699, 145, 101, 208, 132
-0.990707, 1, 205, 64, 236
-0.99071, 369, 73, 496, 136
-0.99071, 257, 97, 320, 352
-0.990749, 273, 401, 400, 464
-0.990749, 369, 41, 432, 72
-0.990749, 401, 393, 464, 424
-0.990759, 1, 221, 64, 252
-0.990761, 25, 193, 88, 224
-0.990771, 129, 1, 192, 32
-0.990774, 25, 217, 88, 248
-0.990795, 209, 1, 272, 32
-0.990803, 153, 461, 216, 492
-0.990829, 25, 181, 88, 212
-0.990839, 89, 1, 152, 32
-0.990854, 113, 149, 176, 180
-0.990859, 337, 417, 400, 448
-0.990861, 121, 369, 184, 400
-0.990887, 97, 137, 224, 200
-0.990889, 273, 193, 336, 224
-0.990893, 1, 321, 500, 384
-0.990898, 113, 97, 176, 128
-0.990899, 193, 113, 320, 176
-0.990909, 313, 425, 376, 456
-0.990914, 65, 1, 128, 32
-0.990919, 241, 353, 368, 416
-0.990934, 121, 429, 184, 460
-0.990944, 1, 193, 64, 224
-0.990948, 297, 177, 360, 208
-0.990959, 241, 1, 304, 32
-0.990966, 297, 445, 360, 476
-0.990974, 33, 177, 288, 240
-0.990986, 433, 29, 496, 60
-0.990988, 209, 153, 272, 184
-0.991002, 89, 205, 152, 236
-0.991007, 409, 177, 472, 208
-0.99101, 433, 245, 496, 276
-0.991014, 49, 349, 112, 380
-0.991015, 153, 353, 216, 384
-0.991022, 313, 325, 376, 356
-0.991024, 265, 1, 328, 32
-0.991069, 273, 213, 336, 244
-0.991082, 193, 169, 256, 200
-0.991089, 433, 301, 496, 332
-0.991095, 393, 305, 456, 336
-0.991107, 433, 325, 496, 356
-0.991114, 113, 385, 176, 416
-0.991117, 369, 213, 432, 244
-0.99114, 1, 425, 128, 488
-0.99115, 297, 1, 360, 497
-0.991196, 433, 289, 496, 320
-0.991198, 329, 1, 392, 32
-0.991205, 377, 421, 440, 452
-0.991214, 249, 193, 312, 224
-0.991217, 137, 205, 200, 236
-0.991218, 121, 41, 184, 72
-0.991225, 345, 129, 408, 160
-0.991229, 433, 265, 496, 296
-0.991232, 297, 1, 360, 32
-0.991251, 121, 453, 184, 484
-0.991265, 1, 125, 64, 156
-0.991266, 233, 229, 296, 260
-0.99127, 329, 209, 392, 240
-0.991271, 273, 169, 336, 200
-0.991273, 137, 229, 200, 260
-0.991303, 193, 73, 320, 136
-0.991304, 401, 1, 464, 32
-0.991304, 89, 241, 152, 272
-0.991318, 433, 277, 496, 308
-0.991341, 89, 109, 152, 140
-0.991343, 305, 201, 368, 232
-0.991343, 393, 457, 456, 488
-0.991355, 41, 329, 104, 360
-0.991367, 393, 333, 456, 364
-0.9915, 209, 233, 336, 296
-0.991501, 369, 137, 496, 200
-0.991614, 321, 89, 448, 152
-0.991708, 305, 265, 432, 328
-0.991724, 209, 1, 336, 64
-0.991733, 1, 257, 256, 320
-0.991872, 1, 233, 256, 296
-0.992042, 241, 289, 368, 352
-0.992127, 457, 357, 488, 388
-0.99214, 1, 297, 500, 360
-0.99219, 1, 1, 32, 32
-0.992207, 441, 337, 472, 368
-0.99221, 429, 409, 460, 440
-0.992229, 273, 65, 400, 128
-0.992242, 361, 185, 392, 216
-0.992256, 345, 173, 376, 204
-0.992259, 437, 357, 468, 388
-0.992275, 469, 389, 500, 420
-0.992278, 1, 161, 500, 224
-0.992297, 185, 181, 216, 212
-0.992314, 257, 209, 500, 272
-0.992329, 457, 345, 488, 376
-0.992338, 381, 201, 412, 232
-0.992343, 33, 17, 288, 80
-0.992412, 129, 401, 384, 464
-0.992426, 321, 337, 448, 464
-0.99245, 1, 241, 500, 304
-0.992471, 429, 429, 460, 460
-0.992474, 257, 213, 288, 244
-0.992489, 1, 193, 32, 224
-0.992499, 469, 377, 500, 408
-0.992504, 317, 181, 348, 212
-0.992512, 193, 145, 448, 208
-0.992522, 381, 189, 412, 220
-0.99253, 69, 185, 100, 216
-0.992546, 429, 345, 460, 376
-0.992564, 437, 397, 468, 428
-0.992564, 377, 289, 408, 320
-0.992566, 225, 25, 480, 88
-0.99257, 369, 169, 400, 200
-0.992572, 121, 217, 152, 248
-0.992578, 437, 377, 468, 408
-0.992579, 329, 177, 360, 208
-0.992584, 1, 209, 32, 240
-0.9926, 469, 1, 500, 32
-0.992606, 361, 205, 392, 236
-0.992607, 457, 385, 488, 416
-0.992609, 97, 225, 128, 256
-0.992613, 469, 433, 500, 464
-0.992616, 449, 209, 480, 240
-0.992621, 129, 41, 160, 72
-0.992624, 125, 53, 156, 84
-0.992626, 237, 213, 268, 244
-0.992641, 261, 161, 292, 192
-0.992653, 449, 397, 480, 428
-0.992664, 109, 217, 140, 248
-0.992671, 25, 1, 56, 32
-0.992678, 257, 433, 500, 496
-0.992689, 245, 173, 276, 204
-0.99269, 349, 409, 380, 440
-0.992694, 149, 449, 180, 480
-0.992698, 337, 161, 368, 192
-0.992699, 429, 189, 460, 220
-0.992711, 137, 397, 168, 428
-0.992713, 289, 341, 320, 372
-0.992718, 149, 413, 180, 444
-0.992719, 217, 201, 248, 232
-0.992721, 437, 209, 468, 240
-0.992721, 381, 173, 412, 204
-0.99273, 365, 157, 396, 188
-0.992731, 469, 193, 500, 224
-0.992738, 449, 189, 480, 220
-0.99274, 165, 365, 196, 396
-0.992744, 37, 1, 68, 32
-0.992749, 81, 193, 112, 224
-0.992767, 417, 413, 448, 444
-0.992771, 469, 401, 500, 432
-0.992776, 433, 441, 464, 472
-0.992781, 1, 281, 256, 344
-0.992788, 97, 209, 128, 240
-0.992792, 469, 421, 500, 452
-0.992795, 77, 217, 108, 248
-0.992798, 49, 173, 80, 204
-0.992802, 445, 433, 476, 464
-0.992808, 469, 465, 500, 496
-0.992818, 269, 177, 300, 208
-0.992823, 257, 225, 288, 256
-0.992824, 409, 1, 440, 32
-0.992828, 29, 217, 60, 248
-0.992834, 1, 409, 256, 472
-0.992837, 237, 201, 268, 232
-0.992849, 397, 201, 428, 232
-0.99285, 213, 149, 244, 180
-0.992851, 397, 29, 428, 60
-0.992854, 469, 349, 500, 380
-0.992856, 313, 193, 344, 224
-0.992857, 433, 1, 464, 32
-0.992861, 161, 1, 192, 32
-0.992864, 413, 21, 444, 52
-0.992865, 133, 225, 164, 256
-0.992865, 213, 213, 244, 244
-0.992867, 401, 457, 432, 488
-0.992867, 81, 205, 112, 236
-0.992868, 221, 1, 252, 32
-0.992869, 449, 373, 480, 404
-0.99287, 1, 221, 32, 252
-0.992876, 153, 377, 184, 408
-0.99288, 393, 189, 424, 220
-0.992885, 53, 1, 84, 32
-0.992886, 241, 1, 272, 32
-0.992888, 413, 201, 444, 232
-0.99289, 129, 433, 384, 496
-0.992894, 181, 1, 212, 32
-0.992895, 13, 213, 44, 244
-0.9929, 129, 1, 160, 32
-0.992901, 149, 1, 180, 32
-0.992905, 349, 161, 380, 192
-0.992907, 425, 397, 456, 428
-0.992916, 189, 213, 220, 244
-0.992916, 409, 181, 440, 212
-0.992917, 209, 1, 240, 32
-0.992919, 217, 189, 248, 220
-0.99292, 257, 1, 288, 32
-0.992926, 201, 169, 232, 200
-0.99293, 101, 1, 132, 32
-0.99293, 117, 1, 148, 32
-0.992933, 69, 1, 100, 32
-0.992936, 53, 209, 84, 240
-0.99294, 417, 425, 448, 456
-0.992943, 85, 1, 116, 32
-0.992946, 13, 1, 44, 32
-0.99295, 277, 213, 308, 244
-0.992951, 121, 101, 152, 132
-0.992952, 193, 1, 224, 32
-0.992957, 357, 129, 388, 160
-0.99296, 165, 465, 196, 496
-0.99296, 273, 1, 304, 32
-0.99296, 233, 181, 264, 212
-0.992963, 449, 233, 480, 264
-0.992963, 445, 421, 476, 452
-0.99297, 257, 345, 500, 408
-0.99297, 185, 193, 216, 224
-0.99297, 417, 341, 448, 372
-0.992974, 389, 465, 420, 496
-0.992975, 149, 153, 180, 184
-0.992976, 137, 53, 168, 84
-0.992978, 357, 141, 388, 172
-0.992978, 469, 181, 500, 212
-0.992981, 285, 1, 316, 32
-0.992982, 341, 185, 372, 216
-0.992983, 237, 225, 268, 256
-0.992984, 413, 213, 444, 244
-0.992984, 185, 269, 216, 300
-0.993002, 49, 217, 176, 248
-0.993042, 353, 193, 480, 224
-0.99307, 369, 105, 496, 168
-0.993077, 321, 377, 448, 440
-0.99311, 33, 105, 288, 168
-0.993126, 129, 201, 384, 264
-0.993162, 273, 105, 400, 168
-0.993278, 367, 177, 382, 240
-0.993375, 305, 185, 432, 216
-0.993383, 1, 433, 256, 496
-0.993425, 65, 321, 320, 384
-0.99343, 1, 361, 128, 424
-0.993589, 321, 369, 384, 496
-0.993598, 381, 161, 396, 224
-0.993653, 225, 401, 352, 464
-0.993731, 161, 217, 288, 248
-0.993748, 1, 193, 128, 224
-0.993833, 1, 265, 500, 328
-0.993834, 289, 201, 416, 232
-0.993836, 1, 17, 500, 80
-0.993843, 485, 377, 500, 440
-0.993876, 383, 185, 398, 248
-0.993879, 337, 313, 464, 344
-0.993903, 453, 337, 468, 400
-0.993951, 353, 301, 480, 332
-0.993951, 1, 49, 256, 112
-0.993957, 471, 353, 486, 416
-0.99398, 1, 217, 500, 280
-0.994007, 161, 233, 416, 296
-0.994012, 33, 361, 288, 424
-0.994078, 65, 377, 192, 408
-0.994094, 373, 177, 388, 240
-0.994096, 369, 465, 496, 496
-0.994102, 257, 401, 500, 464
-0.994117, 441, 417, 456, 480
-0.994174, 445, 337, 460, 400
-0.994192, 353, 433, 480, 464
-0.994197, 145, 365, 272, 396
-0.994204, 433, 401, 448, 464
-0.994237, 1, 409, 500, 472
-0.994239, 33, 129, 288, 192
-0.994264, 97, 65, 352, 128
-0.994283, 361, 169, 376, 232
-0.994284, 359, 137, 374, 200
-0.99432, 353, 209, 480, 240
-0.994329, 113, 221, 240, 252
-0.994332, 129, 25, 384, 88
-0.994344, 65, 405, 192, 436
-0.994416, 177, 289, 304, 352
-0.994433, 99, 201, 114, 264
-0.994434, 477, 385, 492, 448
-0.994457, 161, 185, 288, 216
-0.994466, 353, 289, 480, 320
-0.994482, 153, 393, 168, 456
-0.994504, 65, 389, 192, 420
-0.99452, 161, 369, 176, 432
-0.994566, 33, 1, 160, 32
-0.99457, 81, 237, 208, 268
-0.994616, 477, 345, 492, 408
-0.994622, 387, 161, 402, 224
-0.994632, 351, 169, 366, 232
-0.994648, 485, 401, 500, 464
-0.99466, 461, 337, 476, 400
-0.994673, 257, 273, 500, 336
-0.994681, 319, 185, 334, 248
-0.994707, 461, 361, 476, 424
-0.994765, 223, 177, 238, 240
-0.994765, 257, 1, 500, 64
-0.994767, 49, 153, 176, 184
-0.994781, 121, 209, 136, 272
-0.994782, 471, 385, 486, 448
-0.99479, 133, 209, 148, 272
-0.994795, 257, 297, 500, 360
-0.994829, 77, 185, 92, 248
-0.994849, 273, 173, 400, 204
-0.994858, 387, 273, 402, 336
-0.994859, 273, 213, 400, 244
-0.99488, 93, 193, 108, 256
-0.994884, 255, 169, 270, 232
-0.994894, 225, 181, 352, 212
-0.994914, 1, 345, 500, 408
-0.994923, 485, 1, 500, 64
-0.994925, 1, 221, 128, 252
-0.99494, 113, 57, 240, 88
-0.994944, 321, 173, 448, 204
-0.994953, 321, 325, 448, 356
-0.994954, 1, 177, 16, 240
-0.994987, 435, 185, 450, 248
-0.995008, 65, 417, 192, 448
-0.995055, 81, 441, 208, 472
-0.995057, 161, 205, 288, 236
-0.995058, 33, 205, 160, 236
-0.995058, 321, 1, 448, 32
-0.995059, 109, 209, 124, 272
-0.995063, 177, 229, 304, 260
-0.995101, 369, 345, 496, 376
-0.99512, 325, 177, 340, 240
-0.995135, 273, 153, 288, 216
-0.995142, 187, 177, 202, 240
-0.995149, 159, 409, 174, 472
-0.995167, 33, 385, 288, 448
-0.995186, 1, 201, 16, 264
-0.995188, 321, 465, 448, 496
-0.995201, 257, 49, 500, 112
-0.995207, 293, 337, 308, 400
-0.995213, 257, 225, 384, 288
-0.995214, 445, 225, 476, 480
-0.995219, 459, 185, 474, 248
-0.995219, 363, 401, 378, 464
-0.995227, 183, 265, 198, 328
-0.995228, 353, 277, 480, 308
-0.995229, 439, 393, 454, 456
-0.995232, 83, 185, 98, 248
-0.99524, 209, 217, 336, 248
-0.995252, 127, 209, 142, 272
-0.995279, 439, 345, 454, 408
-0.995293, 321, 153, 448, 184
-0.995316, 453, 361, 468, 424
-0.995324, 441, 209, 456, 272
-0.995329, 311, 193, 326, 256
-0.995346, 161, 1, 416, 64
-0.995359, 369, 421, 496, 452
-0.995359, 273, 41, 400, 104
-0.995365, 415, 177, 430, 240
-0.995365, 273, 377, 400, 440
-0.995366, 81, 429, 208, 460
-0.99537, 113, 153, 240, 184
-0.995395, 65, 49, 192, 80
-0.995402, 465, 193, 480, 256
-0.995407, 115, 209, 130, 272
-0.995417, 345, 169, 360, 232
-0.995442, 441, 185, 456, 248
-0.995445, 407, 193, 422, 256
-0.995469, 161, 289, 416, 352
-0.995488, 81, 453, 208, 484
-0.995493, 305, 449, 432, 480
-0.995494, 29, 209, 44, 272
-0.995505, 485, 433, 500, 496
-0.995524, 1, 225, 16, 288
-0.995528, 113, 45, 240, 76
-0.995533, 1, 1, 16, 64
-0.995536, 451, 401, 466, 464
-0.99554, 145, 1, 272, 32
-0.995542, 257, 465, 384, 496
-0.995548, 225, 193, 352, 224
-0.995549, 353, 221, 480, 252
-0.995552, 225, 169, 352, 200
-0.995569, 225, 121, 480, 184
-0.995602, 1, 113, 500, 176
-0.995609, 451, 209, 466, 272
-0.995627, 431, 337, 446, 400
-0.995629, 161, 337, 416, 400
-0.995634, 449, 177, 464, 240
-0.995634, 485, 353, 500, 416
-0.99564, 377, 201, 392, 264
-0.995664, 129, 257, 384, 320
-0.995679, 125, 49, 140, 112
-0.995708, 81, 189, 208, 220
-0.99571, 139, 209, 154, 272
-0.995714, 435, 425, 450, 488
-0.995718, 97, 1, 224, 32
-0.995723, 25, 369, 88, 496
-0.995738, 473, 433, 488, 496
-0.99574, 369, 409, 496, 440
-0.995758, 429, 425, 444, 488
-0.995762, 129, 97, 384, 160
-0.995776, 371, 201, 386, 264
-0.995777, 217, 169, 232, 232
-0.995788, 331, 177, 346, 240
-0.995792, 61, 9, 76, 72
-0.995796, 71, 177, 86, 240
-0.99582, 479, 1, 494, 64
-0.995822, 283, 177, 298, 240
-0.995829, 81, 205, 208, 236
-0.995831, 9, 193, 24, 256
-0.995832, 459, 209, 474, 272
-0.995848, 17, 105, 144, 136
-0.995854, 33, 261, 160, 292
-0.995869, 369, 445, 496, 476
-0.995881, 219, 145, 234, 208
-0.995888, 19, 185, 34, 248
-0.995891, 257, 249, 500, 312
-0.995895, 427, 185, 442, 248
-0.995899, 225, 1, 352, 32
-0.995899, 1, 433, 500, 496
-0.9959, 473, 1, 488, 64
-0.995901, 33, 329, 160, 360
-0.995908, 33, 305, 160, 336
-0.995922, 455, 1, 470, 64
-0.995963, 65, 365, 192, 396
-0.995974, 129, 97, 256, 128
-0.995976, 351, 145, 366, 208
-0.995979, 133, 1, 164, 256
-0.995981, 445, 361, 460, 424
-0.996009, 1, 385, 500, 448
-0.996031, 449, 1, 464, 64
-0.996031, 401, 193, 416, 256
-0.996033, 53, 161, 84, 416
-0.996041, 257, 89, 500, 152
-0.996053, 61, 161, 76, 224
-0.996057, 1, 81, 256, 144
-0.996058, 415, 201, 430, 264
-0.996075, 451, 241, 466, 304
-0.996079, 391, 193, 406, 256
-0.996085, 421, 177, 436, 240
-0.996088, 289, 169, 304, 232
-0.996097, 339, 169, 354, 232
-0.996128, 467, 1, 482, 64
-0.996139, 225, 201, 240, 264
-0.99614, 229, 177, 244, 240
-0.99614, 273, 161, 400, 192
-0.99614, 401, 305, 416, 368
-0.996144, 195, 177, 210, 240
-0.996147, 447, 313, 462, 376
-0.996148, 223, 65, 238, 128
-0.996149, 261, 161, 276, 224
-0.99615, 321, 417, 448, 448
-0.99615, 153, 369, 168, 432
-0.99615, 161, 245, 288, 276
-0.996157, 77, 9, 92, 72
-0.99616, 369, 393, 384, 456
-0.996163, 1, 181, 128, 212
-0.996163, 189, 257, 204, 320
-0.996167, 71, 145, 86, 208
-0.996168, 369, 173, 496, 204
-0.996168, 249, 169, 264, 232
-0.996171, 369, 129, 400, 384
-0.996174, 81, 349, 208, 380
-0.996174, 433, 225, 464, 480
-0.996186, 217, 201, 232, 264
-0.996194, 71, 9, 86, 72
-0.996194, 65, 61, 192, 92
-0.996197, 353, 129, 384, 384
-0.996202, 129, 113, 144, 176
-0.996207, 89, 217, 104, 280
-0.996215, 233, 209, 248, 272
-0.996224, 127, 9, 142, 72
-0.996229, 321, 141, 448, 172
-0.996235, 83, 209, 98, 272
-0.996238, 135, 113, 150, 176
-0.996244, 45, 193, 60, 256
-0.99625, 461, 1, 476, 64
-0.996253, 427, 401, 442, 464
-0.996259, 33, 273, 160, 304
-0.996261, 177, 173, 304, 204
-0.996278, 99, 225, 114, 288
-0.99628, 123, 73, 138, 136
-0.996281, 273, 1, 400, 32
-0.996295, 369, 397, 496, 428
-0.996299, 1, 121, 16, 184
-0.996325, 145, 461, 272, 492
-0.996328, 267, 153, 282, 216
-0.996341, 161, 53, 288, 84
-0.996345, 181, 193, 212, 448
-0.996348, 431, 209, 446, 272
-0.99635, 409, 17, 424, 80
-0.996356, 119, 9, 134, 72
-0.996357, 437, 1, 452, 64
-0.996384, 369, 333, 496, 364
-0.99639, 129, 233, 256, 264
-0.996396, 469, 65, 500, 320
-0.99641, 33, 33, 160, 64
-0.996416, 457, 225, 488, 480
-0.996418, 369, 1, 496, 32
-0.996428, 369, 357, 496, 388
-0.996435, 177, 349, 304, 380
-0.996436, 381, 161, 412, 416
-0.996441, 81, 249, 208, 280
-0.99646, 49, 93, 176, 124
-0.996467, 113, 33, 240, 64
-0.996474, 145, 425, 272, 456
-0.996491, 273, 337, 400, 368
-0.996513, 353, 265, 480, 296
-0.996528, 33, 317, 160, 348
-0.996541, 33, 293, 160, 324
-0.996553, 365, 1, 396, 256
-0.996587, 81, 289, 208, 320
-0.99659, 201, 193, 232, 448
-0.996599, 193, 361, 320, 392
-0.996612, 337, 21, 464, 52
-0.996621, 129, 69, 256, 100
-0.996642, 81, 113, 208, 144
-0.996652, 145, 441, 272, 472
-0.996672, 225, 229, 352, 260
-0.99668, 1, 245, 128, 276
-0.996686, 81, 465, 208, 496
-0.996703, 49, 169, 176, 200
-0.996744, 1, 93, 128, 124
-0.996748, 145, 413, 272, 444
-0.99675, 233, 193, 264, 448
-0.996767, 225, 57, 352, 88
-0.996783, 441, 421, 456, 452
-0.996785, 65, 81, 192, 112
-0.996796, 113, 141, 240, 172
-0.996798, 337, 1, 368, 256
-0.996834, 193, 149, 320, 180
-0.99684, 189, 97, 220, 352
-0.99685, 257, 377, 500, 440
-0.996857, 65, 161, 96, 416
-0.996857, 49, 141, 176, 172
-0.996861, 1, 137, 500, 200
-0.996861, 81, 261, 208, 292
-0.996867, 209, 205, 336, 236
-0.996867, 113, 85, 240, 116
-0.996876, 1, 129, 32, 384
-0.996881, 45, 1, 76, 256
-0.996895, 273, 129, 400, 160
-0.996899, 121, 1, 152, 256
-0.99691, 401, 1, 432, 256
-0.996919, 353, 253, 480, 284
-0.99693, 245, 193, 276, 448
-0.996933, 33, 233, 160, 264
-0.996938, 65, 21, 192, 52
-0.996983, 321, 337, 448, 400
-0.99699, 273, 325, 400, 356
-0.997, 145, 401, 272, 432
-0.997046, 213, 65, 244, 320
-0.997054, 1, 341, 128, 372
-0.997061, 321, 1, 352, 256
-0.997063, 193, 41, 320, 72
-0.997074, 447, 345, 462, 376
-0.997084, 139, 217, 154, 248
-0.997086, 129, 109, 256, 140
-0.997087, 1, 209, 16, 240
-0.997093, 217, 193, 248, 448
-0.9971, 129, 377, 256, 408
-0.997111, 341, 161, 372, 416
-0.997114, 193, 137, 320, 168
-0.997133, 209, 265, 336, 328
-0.997175, 161, 285, 288, 316
-0.997176, 385, 1, 416, 256
-0.997177, 177, 161, 304, 192
-0.997178, 161, 257, 192, 497
-0.99718, 77, 97, 108, 352
-0.997194, 433, 409, 448, 440
-0.997197, 201, 65, 232, 320
-0.997202, 161, 29, 288, 60
-0.997206, 353, 1, 384, 256
-0.997208, 353, 237, 480, 268
-0.997214, 1, 1, 16, 32
-0.997219, 1, 225, 32, 480
-0.997229, 161, 17, 288, 48
-0.997229, 485, 385, 500, 416
-0.997251, 421, 161, 452, 416
-0.997261, 469, 225, 500, 480
-0.997263, 441, 345, 456, 376
-0.99728, 151, 397, 166, 428
-0.997288, 369, 369, 496, 400
-0.997289, 457, 337, 472, 368
-0.997291, 129, 389, 256, 420
-0.9973, 129, 121, 384, 184
-0.997303, 257, 349, 384, 380
-0.997325, 469, 345, 484, 376
-0.997328, 293, 1, 324, 256
-0.997347, 351, 173, 366, 204
-0.997365, 1, 89, 500, 152
-0.997369, 445, 129, 476, 384
-0.997374, 157, 381, 172, 412
-0.997382, 137, 257, 168, 497
-0.997384, 475, 349, 490, 380
-0.997395, 103, 209, 118, 240
-0.997401, 317, 161, 348, 416
-0.997401, 329, 161, 360, 416
-0.997407, 367, 185, 382, 216
-0.997412, 1, 49, 500, 112
-0.997418, 261, 193, 292, 448
-0.997425, 451, 357, 466, 388
-0.997427, 439, 409, 454, 440
-0.997443, 485, 465, 500, 496
-0.997463, 1, 197, 16, 228
-0.997464, 57, 1, 88, 256
-0.997486, 485, 421, 500, 452
-0.997488, 443, 357, 458, 388
-0.997498, 373, 205, 388, 236
-0.997499, 375, 189, 390, 220
-0.997503, 229, 65, 260, 320
-0.997507, 433, 429, 448, 460
-0.997513, 441, 441, 456, 472
-0.997514, 165, 1, 196, 256
-0.997514, 9, 193, 24, 224
-0.997525, 33, 193, 64, 448
-0.99753, 463, 345, 478, 376
-0.997532, 461, 189, 476, 220
-0.997533, 393, 161, 424, 416
-0.997535, 109, 213, 124, 244
-0.997537, 317, 189, 332, 220
-0.997538, 385, 281, 400, 312
-0.997543, 381, 193, 396, 224
-0.997544, 187, 181, 202, 212
-0.99755, 183, 289, 198, 320
-0.997555, 281, 1, 312, 256
-0.997557, 257, 213, 272, 244
-0.997565, 273, 161, 288, 192
-0.997576, 365, 257, 396, 497
-0.997576, 383, 181, 398, 212
-0.997591, 481, 353, 496, 384
-0.997599, 41, 1, 56, 32
-0.997601, 305, 65, 336, 320
-0.997602, 1, 225, 16, 256
-0.99762, 485, 405, 500, 436
-0.997624, 471, 385, 486, 416
-0.997634, 357, 169, 372, 200
-0.997652, 485, 1, 500, 32
-0.99766, 381, 169, 396, 200
-0.997661, 451, 377, 466, 408
-0.997671, 17, 129, 48, 384
-0.997678, 293, 225, 324, 480
-0.997687, 113, 97, 144, 352
-0.997688, 461, 357, 476, 388
-0.997698, 255, 169, 270, 200
-0.997702, 481, 373, 496, 404
-0.997731, 305, 161, 336, 416
-0.99774, 337, 173, 352, 204
-0.997741, 405, 161, 436, 416
-0.997755, 435, 345, 450, 376
-0.997756, 273, 225, 304, 480
-0.997756, 427, 413, 442, 444
-0.99776, 343, 173, 358, 204
-0.99778, 423, 1, 438, 32
-0.997784, 189, 1, 220, 256
-0.997788, 451, 209, 466, 240
-0.997792, 195, 177, 210, 208
-0.997794, 133, 217, 148, 248
-0.997795, 451, 397, 466, 428
-0.997796, 361, 181, 376, 212
-0.997799, 391, 205, 406, 236
-0.997801, 359, 153, 374, 184
-0.997802, 449, 1, 480, 256
-0.997802, 461, 213, 476, 244
-0.997811, 359, 133, 374, 164
-0.997812, 161, 417, 176, 448
-0.997813, 273, 225, 288, 256
-0.997817, 241, 97, 272, 352
-0.997817, 383, 205, 398, 236
-0.99782, 293, 341, 308, 372
-0.997821, 215, 213, 230, 244
-0.997824, 263, 213, 278, 244
-0.997839, 397, 201, 412, 232
-0.997843, 145, 1, 176, 256
-0.997843, 271, 213, 286, 244
-0.997849, 283, 177, 298, 208
-0.997856, 327, 181, 342, 212
-0.997869, 269, 1, 300, 256
-0.997871, 209, 433, 336, 496
-0.997883, 391, 189, 406, 220
-0.997886, 167, 365, 182, 396
-0.99789, 97, 205, 112, 236
-0.997892, 433, 213, 448, 244
-0.997892, 209, 213, 224, 244
-0.997896, 99, 225, 114, 256
-0.997903, 219, 189, 234, 220
-0.997904, 19, 1, 34, 32
-0.997904, 387, 161, 402, 192
-0.997906, 433, 1, 448, 32
-0.997907, 353, 257, 384, 497
-0.997907, 51, 1, 66, 32
-0.997916, 73, 257, 104, 497
-0.997923, 1, 1, 32, 256
-0.997924, 71, 185, 86, 216
-0.997926, 69, 1, 100, 256
-0.997928, 153, 149, 168, 180
-0.997934, 125, 53, 140, 84
-0.997936, 119, 217, 134, 248
-0.997937, 159, 149, 174, 180
-0.99794, 33, 65, 64, 320
-0.997941, 167, 1, 182, 32
-0.997942, 461, 389, 476, 420
-0.997943, 93, 97, 124, 352
-0.997946, 31, 217, 46, 248
-0.997952, 125, 97, 156, 352
-0.997953, 245, 1, 260, 32
-0.997954, 365, 413, 380, 444
-0.997956, 127, 225, 142, 256
-0.997957, 173, 1, 188, 32
-0.997968, 181, 1, 196, 32
-0.99797, 31, 1, 46, 32
-0.997974, 441, 397, 456, 428
-0.997975, 151, 1, 166, 32
-0.997977, 57, 1, 72, 32
-0.997978, 253, 1, 284, 256
-0.997978, 263, 161, 278, 192
-0.99798, 137, 1, 152, 32
-0.997982, 239, 1, 254, 32
-0.997982, 215, 201, 230, 232
-0.997984, 159, 1, 174, 32
-0.997984, 231, 1, 246, 32
-0.997987, 15, 193, 30, 224
-0.997988, 125, 149, 140, 180
-0.997991, 253, 1, 268, 32
-0.997991, 263, 201, 278, 232
-0.997996, 477, 389, 492, 420
-0.998001, 469, 357, 484, 388
-0.998008, 339, 325, 354, 356
-0.998009, 273, 1, 288, 32
-0.998011, 149, 45, 164, 76
-0.998011, 277, 181, 292, 212
-0.998011, 421, 257, 452, 497
-0.998012, 125, 193, 156, 448
-0.998012, 67, 1, 82, 32
-0.998013, 267, 1, 282, 32
-0.998014, 125, 1, 140, 32
-0.998014, 225, 201, 240, 232
-0.998017, 1, 185, 16, 216
-0.998019, 143, 1, 158, 32
-0.998024, 155, 49, 170, 80
-0.998024, 449, 441, 464, 472
-0.998026, 169, 461, 184, 492
-0.998031, 131, 45, 146, 76
-0.998032, 251, 213, 266, 244
-0.998037, 195, 1, 210, 32
-0.998061, 93, 1, 124, 256
-0.998098, 149, 257, 180, 497
-0.998126, 257, 265, 384, 328
-0.998141, 53, 257, 84, 497
-0.998183, 177, 1, 208, 256
-0.998206, 433, 1, 464, 256
-0.998209, 421, 1, 452, 256
-0.998218, 93, 225, 124, 480
-0.998236, 433, 129, 464, 384
-0.99829, 161, 313, 416, 376
-0.998317, 141, 97, 172, 352
-0.998326, 113, 193, 144, 448
-0.99833, 337, 257, 368, 497
-0.998344, 433, 347, 496, 362
-0.998367, 105, 1, 136, 256
-0.99839, 269, 97, 300, 352
-0.998406, 321, 179, 384, 194
-0.998406, 81, 1, 112, 256
-0.998429, 233, 171, 264, 186
-0.998429, 153, 383, 184, 398
-0.99843, 269, 481, 300, 496
-0.998431, 433, 457, 464, 472
-0.998431, 469, 469, 500, 484
-0.998431, 101, 111, 132, 126
-0.998432, 429, 1, 460, 16
-0.998432, 449, 443, 480, 458
-0.998433, 345, 165, 376, 180
-0.998433, 201, 199, 232, 214
-0.998434, 413, 27, 444, 42
-0.998435, 439, 337, 454, 464
-0.998435, 457, 205, 488, 220
-0.998435, 357, 129, 388, 144
-0.998435, 209, 227, 240, 242
-0.998436, 353, 403, 384, 418
-0.998437, 417, 423, 448, 438
-0.998437, 245, 225, 276, 240
-0.998438, 185, 193, 216, 208
-0.998439, 469, 195, 500, 210
-0.998439, 285, 481, 316, 496
-0.998439, 469, 207, 500, 222
-0.99844, 165, 367, 196, 382
-0.99844, 369, 199, 400, 214
-0.99844, 469, 189, 500, 204
-0.99844, 297, 481, 328, 496
-0.998441, 149, 361, 180, 376
-0.998441, 349, 185, 380, 200
-0.998442, 469, 433, 500, 448
-0.998442, 357, 149, 388, 164
-0.998443, 257, 481, 288, 496
-0.998444, 417, 413, 448, 428
-0.998444, 185, 187, 216, 202
-0.998444, 457, 211, 488, 226
-0.998445, 237, 197, 268, 212
-0.998445, 149, 451, 180, 466
-0.998446, 137, 399, 168, 414
-0.998446, 333, 175, 364, 190
-0.998447, 337, 329, 368, 344
-0.998447, 469, 461, 500, 476
-0.998447, 469, 379, 500, 394
-0.99845, 429, 215, 460, 230
-0.99845, 1, 225, 32, 240
-0.99845, 133, 45, 164, 60
-0.99845, 353, 409, 384, 424
-0.99845, 429, 191, 460, 206
-0.998451, 365, 159, 396, 174
-0.998453, 449, 385, 480, 400
-0.998453, 57, 347, 88, 362
-0.998453, 145, 413, 176, 428
-0.998453, 365, 171, 396, 186
-0.998454, 469, 475, 500, 490
-0.998454, 217, 201, 248, 216
-0.998455, 397, 201, 428, 216
-0.998456, 425, 425, 488, 440
-0.998456, 201, 221, 264, 236
-0.998457, 125, 217, 156, 232
-0.998457, 369, 201, 432, 216
-0.998458, 289, 343, 320, 358
-0.998458, 425, 431, 488, 446
-0.998459, 5, 213, 36, 228
-0.99846, 1, 199, 32, 214
-0.99846, 365, 165, 396, 180
-0.99846, 249, 213, 280, 228
-0.99846, 409, 215, 472, 230
-0.998461, 217, 193, 248, 208
-0.998462, 361, 181, 392, 196
-0.998463, 361, 207, 392, 222
-0.998463, 121, 53, 152, 68
-0.998464, 345, 157, 376, 172
-0.998465, 29, 219, 60, 234
-0.998466, 317, 189, 348, 204
-0.998467, 189, 221, 220, 236
-0.998468, 149, 419, 180, 434
-0.998469, 9, 219, 40, 234
-0.998471, 81, 221, 112, 236
-0.998472, 97, 217, 160, 232
-0.998473, 177, 219, 240, 234
-0.998473, 425, 409, 488, 424
-0.998474, 249, 175, 280, 190
-0.998476, 1, 193, 32, 208
-0.998476, 257, 167, 288, 182
-0.998478, 129, 153, 160, 168
-0.998479, 269, 219, 300, 234
-0.998479, 65, 189, 96, 204
-0.998479, 209, 213, 240, 228
-0.998479, 433, 341, 496, 356
-0.998481, 117, 231, 148, 246
-0.998481, 393, 417, 456, 432
-0.998481, 369, 209, 432, 224
-0.998482, 425, 191, 488, 206
-0.998482, 177, 195, 240, 210
-0.998484, 369, 469, 400, 484
-0.998484, 89, 233, 152, 248
-0.998486, 445, 273, 476, 288
-0.998488, 445, 207, 476, 222
-0.998488, 345, 173, 376, 188
-0.998489, 361, 215, 392, 230
-0.998489, 377, 297, 408, 312
-0.998491, 345, 181, 408, 196
-0.998491, 177, 225, 240, 240
-0.998491, 441, 213, 472, 228
-0.998492, 425, 359, 488, 374
-0.998492, 425, 375, 488, 390
-0.998493, 425, 403, 488, 418
-0.998494, 97, 231, 128, 246
-0.998495, 113, 153, 176, 168
-0.998496, 73, 227, 136, 242
-0.998496, 297, 481, 360, 496
-0.998497, 437, 377, 468, 392
-0.9985, 425, 419, 488, 434
-0.9985, 385, 187, 448, 202
-0.998501, 153, 481, 216, 496
-0.998501, 469, 1, 500, 16
-0.998501, 113, 107, 176, 122
-0.998501, 329, 481, 360, 496
-0.998504, 445, 437, 476, 452
-0.998505, 425, 397, 488, 412
-0.998505, 401, 461, 432, 476
-0.998506, 129, 223, 160, 238
-0.998506, 177, 183, 240, 198
-0.998507, 457, 367, 488, 382
-0.998509, 261, 225, 292, 240
-0.99851, 345, 173, 408, 188
-0.99851, 429, 437, 460, 452
-0.99851, 105, 223, 168, 238
-0.99851, 257, 221, 320, 236
-0.99851, 221, 219, 252, 234
-0.998511, 65, 209, 128, 224
-0.998513, 329, 189, 392, 204
-0.998514, 233, 221, 296, 236
-0.998515, 461, 359, 492, 374
-0.998515, 373, 181, 404, 196
-0.998515, 253, 97, 284, 352
-0.998516, 381, 201, 412, 216
-0.998518, 429, 431, 460, 446
-0.998518, 457, 395, 488, 410
-0.998518, 385, 423, 448, 438
-0.998519, 449, 403, 480, 418
-0.99852, 429, 409, 460, 424
-0.998522, 441, 341, 472, 356
-0.998522, 121, 373, 184, 388
-0.998522, 381, 209, 412, 224
-0.998523, 385, 193, 448, 208
-0.998523, 433, 441, 496, 456
-0.998524, 217, 227, 280, 242
-0.998525, 425, 367, 488, 382
-0.998527, 161, 367, 224, 382
-0.998527, 469, 439, 500, 454
-0.998528, 121, 419, 184, 434
-0.998528, 305, 191, 368, 206
-0.998529, 165, 481, 196, 496
-0.99853, 361, 307, 424, 322
-0.998531, 121, 363, 184, 378
-0.998531, 217, 215, 280, 230
-0.998531, 9, 225, 72, 240
-0.998532, 25, 171, 88, 186
-0.998532, 177, 211, 240, 226
-0.998533, 469, 399, 500, 414
-0.998534, 209, 219, 240, 234
-0.998535, 137, 231, 200, 246
-0.998535, 345, 161, 408, 176
-0.998536, 273, 193, 336, 208
-0.998537, 49, 223, 112, 238
-0.998538, 469, 481, 500, 496
-0.998538, 89, 239, 152, 254
-0.998538, 325, 181, 356, 196
-0.998538, 1, 207, 64, 222
-0.998539, 433, 235, 496, 250
-0.99854, 433, 215, 496, 230
-0.99854, 49, 265, 112, 280
-0.99854, 345, 419, 408, 434
-0.998541, 113, 153, 144, 168
-0.998542, 273, 183, 336, 198
-0.998542, 121, 413, 184, 428
-0.998543, 369, 181, 432, 196
-0.998544, 401, 327, 464, 342
-0.998545, 57, 203, 120, 218
-0.998546, 401, 411, 464, 426
-0.998546, 361, 313, 424, 328
-0.998547, 49, 191, 112, 206
-0.998547, 425, 209, 488, 224
-0.998547, 65, 215, 128, 230
-0.998548, 437, 367, 468, 382
-0.998549, 113, 45, 176, 60
-0.998552, 385, 37, 448, 52
-0.998552, 377, 467, 440, 482
-0.998553, 353, 193, 416, 208
-0.998554, 425, 353, 488, 368
-0.998554, 17, 201, 80, 216
-0.998556, 201, 199, 264, 214
-0.998557, 401, 405, 464, 420
-0.998557, 381, 191, 412, 206
-0.998557, 177, 189, 240, 204
-0.998557, 137, 225, 200, 240
-0.998557, 369, 215, 432, 230
-0.998557, 169, 97, 200, 352
-0.998558, 437, 399, 468, 414
-0.998558, 177, 231, 240, 246
-0.998558, 1, 3, 32, 18
-0.998558, 417, 465, 480, 480
-0.998559, 57, 197, 120, 212
-0.998559, 401, 431, 464, 446
-0.998559, 29, 225, 60, 240
-0.99856, 461, 349, 492, 364
-0.99856, 329, 425, 392, 440
-0.99856, 201, 191, 264, 206
-0.998561, 345, 481, 408, 496
-0.998562, 49, 349, 112, 364
-0.998565, 425, 1, 488, 16
-0.998565, 369, 159, 432, 174
-0.998565, 337, 475, 400, 490
-0.998566, 1, 1, 64, 16
-0.998567, 185, 181, 216, 196
-0.998567, 81, 113, 144, 128
-0.998569, 273, 481, 336, 496
-0.998569, 361, 187, 424, 202
-0.99857, 429, 423, 460, 438
-0.99857, 401, 321, 464, 336
-0.99857, 353, 319, 416, 334
-0.99857, 385, 161, 400, 288
-0.998571, 393, 341, 456, 356
-0.998571, 121, 425, 184, 440
-0.998571, 177, 201, 240, 216
-0.998571, 241, 219, 272, 234
-0.998572, 25, 207, 88, 222
-0.998572, 113, 53, 176, 68
-0.998573, 241, 189, 304, 204
-0.998574, 1, 205, 32, 220
-0.998575, 345, 201, 408, 216
-0.998576, 121, 451, 184, 466
-0.998577, 113, 385, 176, 400
-0.998577, 409, 333, 472, 348
-0.998577, 381, 257, 412, 497
-0.998577, 429, 417, 460, 432
-0.998577, 49, 233, 112, 248
-0.998578, 41, 185, 104, 200
-0.998578, 321, 481, 384, 496
-0.998578, 483, 369, 498, 496
-0.998578, 321, 419, 384, 434
-0.998579, 177, 241, 240, 256
-0.998579, 433, 241, 496, 256
-0.998579, 329, 207, 392, 222
-0.998579, 281, 177, 344, 192
-0.99858, 233, 481, 296, 496
-0.99858, 225, 197, 288, 212
-0.99858, 433, 29, 496, 44
-0.998581, 469, 393, 500, 408
-0.998581, 33, 1, 96, 16
-0.998582, 385, 1, 448, 16
-0.998582, 137, 215, 200, 230
-0.998583, 425, 381, 488, 396
-0.998584, 129, 457, 192, 472
-0.998584, 113, 233, 176, 248
-0.998584, 49, 341, 112, 356
-0.998585, 433, 255, 496, 270
-0.998585, 441, 347, 472, 362
-0.998586, 353, 461, 416, 476
-0.998586, 469, 385, 500, 400
-0.998586, 321, 463, 384, 478
-0.998592, 477, 337, 492, 464
-0.998594, 345, 179, 376, 194
-0.998598, 441, 357, 472, 372
-0.998604, 257, 219, 288, 234
-0.998605, 361, 187, 392, 202
-0.998613, 241, 1, 272, 256
-0.998613, 469, 337, 484, 464
-0.998618, 281, 97, 312, 352
-0.998668, 445, 337, 460, 464
-0.998678, 355, 113, 370, 240
-0.998699, 321, 257, 352, 497
-0.998723, 409, 257, 440, 497
-0.99873, 459, 337, 474, 464
-0.998738, 433, 337, 448, 464
-0.99875, 305, 257, 336, 497
-0.998757, 351, 161, 366, 288
-0.99878, 253, 161, 268, 288
-0.998781, 191, 161, 206, 288
-0.998783, 393, 257, 424, 497
-0.998791, 451, 337, 466, 464
-0.998794, 293, 97, 324, 352
-0.998796, 89, 177, 104, 304
-0.998797, 375, 209, 390, 336
-0.998801, 345, 161, 360, 288
-0.998806, 183, 273, 198, 400
-0.998823, 21, 33, 52, 288
-0.998828, 361, 129, 376, 256
-0.998842, 435, 177, 450, 304
-0.998848, 457, 129, 488, 384
-0.998849, 69, 193, 84, 320
-0.998855, 159, 369, 174, 496
-0.998859, 221, 161, 236, 288
-0.998897, 387, 209, 402, 336
-0.99891, 441, 177, 456, 304
-0.998912, 339, 161, 354, 288
-0.998914, 75, 177, 90, 304
-0.998921, 393, 209, 408, 336
-0.998922, 83, 177, 98, 304
-0.998927, 1, 193, 16, 320
-0.998935, 319, 177, 334, 304
-0.998937, 485, 17, 500, 144
-0.998938, 325, 161, 340, 288
-0.998938, 461, 161, 476, 288
-0.998941, 265, 161, 280, 288
-0.998942, 165, 353, 180, 480
-0.998943, 381, 209, 396, 336
-0.998953, 333, 161, 348, 288
-0.998959, 449, 273, 464, 400
-0.998962, 259, 177, 274, 304
-0.998972, 215, 161, 230, 288
-0.998982, 447, 161, 462, 288
-0.998983, 153, 353, 168, 480
-0.999, 95, 177, 110, 304
-0.999006, 247, 161, 262, 288
-0.999006, 71, 129, 86, 256
-0.99901, 231, 177, 246, 304
-0.999011, 413, 177, 428, 304
-0.999019, 191, 289, 206, 416
-0.999022, 185, 225, 200, 352
-0.999042, 407, 177, 422, 304
-0.999043, 403, 1, 418, 128
-0.999044, 345, 113, 360, 240
-0.999049, 209, 161, 224, 288
-0.999051, 61, 177, 76, 304
-0.999053, 447, 209, 462, 336
-0.999057, 17, 177, 32, 304
-0.999057, 225, 209, 240, 336
-0.999062, 189, 353, 204, 480
-0.999063, 377, 161, 392, 288
-0.999064, 441, 289, 456, 416
-0.999068, 363, 177, 378, 304
-0.999068, 427, 321, 442, 448
-0.999069, 293, 337, 308, 464
-0.99907, 419, 1, 434, 128
-0.99908, 123, 49, 138, 176
-0.999084, 101, 177, 116, 304
-0.999084, 1, 129, 16, 256
-0.999087, 391, 1, 406, 128
-0.999095, 197, 161, 212, 288
-0.9991, 241, 353, 256, 480
-0.999101, 199, 353, 214, 480
-0.999112, 453, 177, 468, 304
-0.999113, 471, 17, 486, 144
-0.999125, 273, 177, 288, 304
-0.999125, 171, 353, 186, 480
-0.999127, 13, 225, 44, 480
-0.999129, 479, 17, 494, 144
-0.999133, 183, 353, 198, 480
-0.999134, 429, 177, 444, 304
-0.999136, 235, 353, 250, 480
-0.99914, 401, 177, 416, 304
-0.999142, 223, 353, 238, 480
-0.999151, 311, 177, 326, 304
-0.999155, 241, 161, 256, 288
-0.999158, 371, 161, 386, 288
-0.999159, 125, 193, 140, 320
-0.99916, 385, 257, 400, 384
-0.999161, 247, 353, 262, 480
-0.999164, 409, 1, 424, 128
-0.999166, 205, 353, 220, 480
-0.999168, 339, 113, 354, 240
-0.999168, 465, 17, 480, 144
-0.99917, 211, 353, 226, 480
-0.999175, 269, 353, 284, 480
-0.999176, 461, 209, 476, 336
-0.999177, 391, 161, 406, 288
-0.999178, 55, 161, 70, 288
-0.99918, 229, 353, 244, 480
-0.999185, 421, 321, 436, 448
-0.999186, 255, 353, 270, 480
-0.999187, 483, 321, 498, 448
-0.999188, 217, 353, 232, 480
-0.999189, 9, 177, 24, 304
-0.999194, 77, 129, 92, 256
-0.999194, 305, 321, 320, 448
-0.999195, 293, 161, 308, 288
-0.999196, 261, 353, 276, 480
-0.999202, 275, 353, 290, 480
-0.999204, 109, 193, 124, 320
-0.999205, 419, 177, 434, 304
-0.999207, 457, 17, 472, 144
-0.999207, 65, 129, 80, 256
-0.999208, 447, 17, 462, 144
-0.999211, 469, 177, 484, 304
-0.999212, 285, 161, 300, 288
-0.999212, 177, 273, 192, 400
-0.999214, 131, 209, 146, 336
-0.999219, 469, 289, 484, 416
-0.999222, 219, 209, 234, 336
-0.999228, 49, 193, 64, 320
-0.999229, 47, 1, 62, 128
-0.999231, 55, 257, 70, 384
-0.999236, 385, 1, 400, 128
-0.999237, 439, 225, 454, 352
-0.999242, 311, 321, 326, 448
-0.999243, 273, 369, 336, 496
-0.999247, 33, 193, 48, 320
-0.999249, 397, 1, 412, 128
-0.999249, 285, 113, 300, 240
-0.999252, 357, 177, 372, 304
-0.999254, 365, 241, 380, 368
-0.999255, 299, 321, 314, 448
-0.999619, 359, 159, 374, 174
-0.999619, 287, 175, 302, 190
-0.99962, 365, 403, 380, 418
-0.99962, 363, 179, 378, 194
-0.99962, 399, 191, 414, 206
-0.99962, 101, 227, 116, 242
-0.999621, 259, 481, 274, 496
-0.999621, 61, 347, 76, 362
-0.999622, 307, 481, 322, 496
-0.999623, 249, 481, 264, 496
-0.999623, 479, 385, 494, 400
-0.999623, 209, 227, 224, 242
-0.999623, 471, 349, 486, 364
-0.999624, 441, 441, 456, 456
-0.999624, 183, 285, 198, 300
-0.999624, 357, 173, 372, 188
-0.999624, 249, 219, 264, 234
-0.999625, 1, 191, 16, 206
-0.999625, 1, 199, 16, 214
-0.999625, 385, 179, 400, 194
-0.999625, 263, 171, 278, 186
-0.999626, 251, 167, 266, 182
-0.999626, 189, 289, 204, 304
-0.999626, 151, 407, 166, 422
-0.999627, 391, 197, 406, 212
-0.999627, 385, 173, 400, 188
-0.999628, 169, 367, 184, 382
-0.999628, 371, 207, 386, 222
-0.999628, 361, 185, 376, 200
-0.999628, 485, 381, 500, 396
-0.999629, 345, 179, 360, 194
-0.999631, 279, 219, 294, 234
-0.999632, 31, 225, 46, 240
-0.999634, 477, 359, 492, 374
-0.999634, 463, 191, 478, 206
-0.999634, 385, 161, 400, 176
-0.999635, 359, 147, 374, 162
-0.999636, 127, 237, 142, 252
-0.999636, 291, 345, 306, 360
-0.999637, 485, 465, 500, 480
-0.999637, 325, 183, 340, 198
-0.999637, 399, 203, 414, 218
-0.999637, 351, 175, 366, 190
-0.999638, 351, 181, 366, 196
-0.999638, 223, 219, 238, 234
-0.999638, 345, 481, 360, 496
-0.999638, 451, 377, 466, 392
-0.999638, 453, 367, 468, 382
-0.999639, 7, 223, 22, 238
-0.999639, 463, 399, 478, 414
-0.999643, 243, 217, 258, 232
-0.999643, 145, 153, 160, 168
-0.999643, 269, 159, 284, 174
-0.999644, 157, 151, 172, 166
-0.999645, 433, 407, 448, 422
-0.999646, 37, 219, 52, 234
-0.999646, 151, 153, 166, 168
-0.999646, 433, 435, 448, 450
-0.999646, 135, 153, 150, 168
-0.999646, 485, 393, 500, 408
-0.999646, 263, 165, 278, 180
-0.999647, 19, 205, 34, 220
-0.999648, 485, 405, 500, 420
-0.99965, 153, 97, 184, 352
-0.999651, 391, 191, 406, 206
-0.999652, 471, 387, 486, 402
-0.999652, 439, 417, 454, 432
-0.999653, 359, 153, 374, 168
-0.999653, 455, 357, 470, 372
-0.999653, 381, 469, 396, 484
-0.999654, 123, 153, 138, 168
-0.999655, 339, 179, 354, 194
-0.999655, 359, 139, 374, 154
-0.999655, 451, 399, 466, 414
-0.999656, 365, 471, 380, 486
-0.999657, 443, 435, 458, 450
-0.999658, 439, 409, 454, 424
-0.999659, 319, 189, 334, 204
-0.99966, 485, 3, 500, 18
-0.99966, 339, 329, 354, 344
-0.99966, 233, 221, 248, 236
-0.99966, 385, 287, 400, 302
-0.99966, 187, 181, 202, 196
-0.999661, 447, 441, 462, 456
-0.999662, 433, 345, 448, 360
-0.999663, 1, 225, 16, 240
-0.999665, 209, 219, 224, 234
-0.999665, 457, 339, 472, 354
-0.999666, 381, 185, 396, 200
-0.999668, 117, 153, 132, 168
-0.999668, 255, 173, 270, 188
-0.999669, 331, 181, 346, 196
-0.999669, 129, 153, 144, 168
-0.99967, 485, 423, 500, 438
-0.999672, 433, 421, 448, 436
-0.999673, 257, 167, 272, 182
-0.999674, 371, 471, 386, 486
-0.999677, 141, 221, 156, 236
-0.999678, 429, 429, 444, 444
-0.999679, 373, 213, 388, 228
-0.99968, 443, 357, 458, 372
-0.999681, 381, 203, 396, 218
-0.999681, 9, 205, 24, 220
-0.999688, 183, 291, 198, 306
-0.999688, 461, 207, 476, 222
-0.999689, 1, 3, 16, 18
-0.99969, 219, 193, 234, 208
-0.99969, 429, 415, 444, 430
-0.999691, 255, 223, 270, 238
-0.999694, 157, 383, 172, 398
-0.999699, 215, 221, 230, 236
-0.999699, 267, 219, 282, 234
-0.999701, 1, 219, 16, 234
-0.999701, 357, 179, 372, 194
-0.999703, 477, 351, 492, 366
-0.999705, 253, 213, 268, 228
-0.999706, 151, 399, 166, 414
-0.999709, 443, 347, 458, 362
-0.999712, 213, 213, 228, 228
-0.999713, 439, 423, 454, 438
-0.999719, 485, 471, 500, 486
-0.999721, 169, 481, 184, 496
-0.999722, 1, 205, 16, 220
-0.999723, 485, 481, 500, 496
-0.999727, 273, 219, 288, 234
-0.999737, 485, 387, 500, 402
-0.999738, 471, 393, 486, 408
-0.999748, 367, 185, 382, 200
-0.999752, 261, 219, 276, 234
-0.999764, 439, 429, 454, 444
-0.999771, 1, 211, 16, 226
