1878
-0.34459, 1, 1, 500, 333
-0.355739, 1, 1, 500, 256
-0.524992, 97, 1, 352, 333
-0.563483, 193, 1, 448, 333
-0.601066, 1, 1, 256, 333
-0.616569, 65, 65, 320, 320
-0.678458, 161, 65, 416, 320
-0.828117, 257, 1, 500, 256
-0.85986, 129, 33, 256, 288
-0.870834, 177, 1, 304, 256
-0.872087, 129, 1, 256, 333
-0.877162, 65, 1, 192, 333
-0.879661, 65, 65, 192, 320
-0.882092, 225, 1, 352, 333
-0.885932, 177, 1, 304, 333
-0.88701, 1, 49, 500, 176
-0.891862, 225, 65, 352, 320
-0.898953, 1, 1, 500, 128
-0.907482, 161, 97, 416, 224
-0.908554, 273, 65, 400, 320
-0.908675, 1, 129, 500, 256
-0.909036, 305, 1, 432, 333
-0.909227, 17, 1, 144, 333
-0.910816, 33, 81, 288, 208
-0.914825, 129, 145, 384, 272
-0.916577, 1, 193, 500, 320
-0.917485, 129, 49, 384, 176
-0.917928, 17, 1, 144, 256
-0.918267, 337, 65, 464, 320
-0.922559, 129, 65, 256, 192
-0.924791, 353, 1, 480, 333
-0.926308, 33, 129, 288, 256
-0.928288, 33, 17, 288, 144
-0.928386, 193, 97, 256, 224
-0.929266, 233, 97, 296, 224
-0.93008, 209, 49, 272, 176
-0.931804, 129, 113, 256, 240
-0.933713, 209, 113, 336, 240
-0.934127, 153, 49, 216, 176
-0.936157, 121, 129, 184, 256
-0.936254, 209, 33, 336, 160
-0.936697, 257, 97, 384, 224
-0.936964, 225, 193, 480, 320
-0.938755, 249, 49, 312, 176
-0.938839, 33, 177, 288, 304
-0.941236, 177, 161, 304, 288
-0.941508, 49, 113, 176, 240
-0.943332, 129, 49, 192, 176
-0.943979, 193, 1, 448, 128
-0.944295, 81, 49, 208, 176
-0.944447, 209, 89, 272, 152
-0.944995, 145, 129, 208, 256
-0.945801, 225, 161, 352, 288
-0.946045, 97, 97, 160, 224
-0.946529, 225, 49, 480, 176
-0.948158, 273, 49, 336, 176
-0.948352, 225, 145, 480, 272
-0.948483, 177, 49, 240, 176
-0.948582, 257, 97, 500, 224
-0.949348, 169, 97, 232, 224
-0.949603, 217, 65, 280, 128
-0.949927, 81, 49, 144, 176
-0.950419, 289, 97, 352, 224
-0.950506, 233, 89, 296, 152
-0.950926, 129, 193, 384, 320
-0.951137, 257, 97, 320, 224
-0.951487, 209, 145, 272, 272
-0.951991, 97, 145, 160, 272
-0.952152, 169, 145, 232, 272
-0.952315, 305, 177, 432, 304
-0.952477, 129, 193, 256, 320
-0.95272, 169, 73, 232, 136
-0.953261, 81, 161, 208, 288
-0.953906, 129, 65, 192, 128
-0.954007, 273, 161, 336, 288
-0.956097, 257, 49, 384, 176
-0.956109, 129, 17, 256, 144
-0.956393, 193, 113, 256, 176
-0.95693, 257, 209, 384, 333
-0.956986, 193, 65, 256, 128
-0.957219, 233, 177, 296, 304
-0.958974, 153, 97, 216, 160
-0.959239, 305, 177, 368, 304
-0.959308, 33, 65, 160, 192
-0.959531, 73, 129, 136, 256
-0.959725, 209, 153, 272, 216
-0.960138, 233, 121, 296, 184
-0.960532, 129, 137, 192, 200
-0.960905, 105, 49, 168, 176
-0.961059, 273, 201, 336, 264
-0.961413, 273, 65, 336, 128
-0.962015, 209, 209, 336, 333
-0.962204, 129, 177, 192, 304
-0.96229, 313, 97, 376, 224
-0.962372, 337, 113, 400, 240
-0.962556, 49, 113, 112, 240
-0.96256, 129, 89, 192, 152
-0.963191, 273, 161, 336, 224
-0.963253, 241, 65, 304, 128
-0.963445, 89, 137, 152, 200
-0.963523, 169, 177, 232, 240
-0.963563, 49, 1, 176, 128
-0.963819, 33, 177, 160, 304
-0.963977, 241, 185, 304, 248
-0.964574, 297, 33, 360, 160
-0.964614, 169, 129, 232, 192
-0.96475, 305, 129, 432, 256
-0.965146, 249, 225, 312, 288
-0.96558, 257, 89, 320, 152
-0.9657, 73, 177, 136, 240
-0.966008, 73, 65, 136, 128
-0.966072, 313, 185, 376, 248
-0.966226, 153, 209, 216, 333
-0.966317, 353, 177, 416, 304
-0.96665, 193, 1, 256, 128
-0.966695, 329, 161, 392, 288
-0.967335, 273, 225, 336, 288
-0.967475, 201, 1, 264, 256
-0.967657, 1, 113, 128, 240
-0.967667, 129, 1, 192, 128
-0.968482, 97, 177, 160, 240
-0.96876, 305, 97, 368, 160
-0.968917, 105, 105, 168, 168
-0.969196, 145, 161, 208, 224
-0.96941, 169, 1, 232, 128
-0.969421, 201, 193, 264, 256
-0.969446, 193, 33, 256, 96
-0.96964, 137, 49, 168, 176
-0.969683, 257, 1, 384, 128
-0.969706, 329, 161, 392, 224
-0.969956, 281, 89, 344, 152
-0.970407, 129, 113, 192, 176
-0.970475, 297, 161, 360, 224
-0.970477, 137, 1, 200, 256
-0.970509, 337, 49, 400, 176
-0.970664, 153, 49, 216, 112
-0.97102, 33, 97, 96, 160
-0.97105, 49, 121, 112, 184
-0.971071, 241, 97, 272, 224
-0.971278, 205, 49, 236, 176
-0.971498, 185, 129, 216, 256
-0.971535, 265, 209, 328, 333
-0.971616, 169, 65, 232, 320
-0.971731, 141, 129, 172, 256
-0.971799, 181, 33, 212, 160
-0.971818, 209, 65, 336, 128
-0.971964, 225, 1, 288, 128
-0.971965, 129, 73, 256, 136
-0.972049, 105, 65, 168, 128
-0.97211, 137, 65, 168, 128
-0.972168, 81, 89, 144, 152
-0.972254, 225, 89, 256, 152
-0.972309, 361, 193, 424, 256
-0.972406, 225, 49, 256, 176
-0.972455, 137, 137, 168, 200
-0.972524, 337, 49, 464, 176
-0.972608, 225, 65, 256, 128
-0.972622, 229, 97, 260, 224
-0.972692, 257, 113, 320, 176
-0.97271, 241, 161, 304, 224
-0.972715, 145, 193, 208, 256
-0.972814, 137, 97, 168, 160
-0.973165, 113, 65, 176, 320
-0.973345, 205, 73, 236, 136
-0.973371, 169, 153, 232, 216
-0.973409, 345, 225, 408, 288
-0.973476, 257, 65, 288, 192
-0.97352, 65, 153, 128, 216
-0.973523, 313, 217, 376, 280
-0.973611, 177, 97, 304, 160
-0.973699, 129, 121, 256, 184
-0.97412, 185, 193, 248, 320
-0.974198, 233, 33, 296, 96
-0.974468, 121, 145, 152, 272
-0.974521, 97, 1, 160, 128
-0.974558, 257, 97, 288, 160
-0.974711, 241, 73, 272, 136
-0.974745, 241, 1, 304, 256
-0.974885, 257, 1, 320, 128
-0.974945, 81, 113, 144, 176
-0.97498, 353, 177, 480, 304
-0.975212, 177, 201, 240, 264
-0.97526, 49, 129, 176, 192
-0.975286, 257, 113, 384, 176
-0.975538, 81, 65, 144, 320
-0.975575, 65, 105, 192, 168
-0.975654, 281, 113, 344, 176
-0.9758, 385, 225, 448, 288
-0.976047, 329, 121, 392, 184
-0.976209, 113, 137, 144, 200
-0.976216, 113, 161, 144, 224
-0.976299, 297, 161, 328, 288
-0.976352, 257, 65, 288, 128
-0.97645, 49, 73, 176, 136
-0.976469, 185, 129, 216, 192
-0.976503, 181, 65, 212, 128
-0.976535, 237, 145, 268, 208
-0.976845, 81, 209, 208, 333
-0.976851, 73, 177, 136, 304
-0.976927, 121, 161, 184, 224
-0.976994, 113, 177, 240, 240
-0.977036, 241, 121, 272, 184
-0.977111, 129, 97, 160, 224
-0.977195, 129, 97, 256, 160
-0.977218, 297, 65, 360, 128
-0.977271, 49, 177, 112, 240
-0.977366, 257, 177, 384, 240
-0.977467, 185, 177, 216, 240
-0.977491, 277, 97, 308, 224
-0.977611, 177, 161, 304, 224
-0.977655, 125, 137, 156, 200
-0.977791, 277, 49, 308, 176
-0.977949, 89, 201, 152, 264
-0.977985, 177, 273, 240, 333
-0.978058, 117, 97, 148, 224
-0.97807, 129, 41, 192, 104
-0.978189, 49, 65, 112, 128
-0.97821, 1, 17, 128, 144
-0.978288, 257, 57, 384, 120
-0.978313, 105, 129, 136, 256
-0.978322, 305, 121, 368, 184
-0.978338, 305, 97, 336, 224
-0.978523, 81, 153, 208, 216
-0.97855, 401, 193, 464, 256
-0.978659, 301, 201, 332, 264
-0.978725, 281, 201, 312, 264
-0.978758, 181, 89, 212, 152
-0.978828, 317, 161, 348, 288
-0.978875, 237, 145, 268, 272
-0.978965, 257, 25, 320, 88
-0.979013, 173, 161, 204, 288
-0.979082, 257, 89, 384, 152
-0.979114, 401, 209, 464, 333
-0.979138, 217, 249, 280, 312
-0.979497, 129, 153, 256, 216
-0.979538, 33, 153, 96, 216
-0.979592, 273, 249, 336, 312
-0.979736, 305, 185, 432, 248
-0.980037, 277, 177, 308, 304
-0.980115, 33, 65, 96, 192
-0.980216, 237, 49, 268, 176
-0.98026, 321, 241, 384, 304
-0.980319, 353, 129, 480, 256
-0.980375, 97, 41, 160, 104
-0.980403, 321, 65, 384, 128
-0.980411, 193, 185, 320, 248
-0.980435, 173, 169, 204, 232
-0.980454, 225, 233, 352, 296
-0.980517, 325, 65, 356, 192
-0.980557, 137, 161, 168, 224
-0.98062, 177, 33, 304, 96
-0.980645, 161, 33, 192, 160
-0.980774, 349, 153, 380, 216
-0.980798, 49, 1, 112, 128
-0.980824, 277, 169, 308, 232
-0.980841, 149, 73, 180, 136
-0.980879, 257, 201, 384, 264
-0.980887, 273, 105, 304, 168
-0.980906, 57, 97, 120, 160
-0.980936, 293, 97, 324, 224
-0.980996, 337, 193, 400, 256
-0.981042, 93, 145, 124, 208
-0.981059, 93, 177, 124, 240
-0.981119, 305, 97, 336, 160
-0.981173, 273, 233, 400, 296
-0.981229, 257, 113, 288, 240
-0.981232, 325, 161, 356, 224
-0.981234, 229, 113, 260, 176
-0.98127, 305, 161, 432, 224
-0.981277, 153, 257, 216, 320
-0.981282, 161, 81, 192, 208
-0.981297, 81, 49, 208, 112
-0.981299, 345, 73, 408, 136
-0.981344, 65, 121, 96, 184
-0.981358, 349, 113, 380, 240
-0.981407, 149, 65, 180, 192
-0.981444, 177, 137, 304, 200
-0.981476, 65, 201, 128, 264
-0.981516, 257, 121, 288, 184
-0.981628, 241, 33, 272, 96
-0.98171, 305, 49, 336, 176
-0.981777, 125, 161, 156, 224
-0.981779, 213, 97, 244, 224
-0.981823, 257, 153, 384, 216
-0.981858, 73, 113, 104, 240
-0.981883, 281, 65, 344, 320
-0.981951, 49, 177, 176, 240
-0.982036, 325, 81, 356, 144
-0.98214, 257, 177, 288, 304
-0.982246, 305, 225, 336, 288
-0.982261, 97, 209, 160, 333
-0.98237, 149, 105, 180, 168
-0.982401, 361, 121, 392, 184
-0.982586, 277, 81, 308, 144
-0.982709, 133, 177, 164, 304
-0.982744, 329, 209, 392, 333
-0.98278, 221, 33, 252, 96
-0.98278, 345, 257, 408, 320
-0.982884, 233, 1, 296, 333
-0.982944, 245, 241, 276, 304
-0.982976, 33, 153, 160, 216
-0.983021, 361, 129, 424, 256
-0.983077, 321, 265, 384, 328
-0.983108, 201, 97, 232, 160
-0.983171, 377, 177, 440, 304
-0.983193, 161, 177, 192, 304
-0.983194, 121, 193, 184, 256
-0.983246, 349, 161, 380, 288
-0.983263, 157, 129, 188, 256
-0.983266, 49, 65, 112, 320
-0.983273, 117, 113, 148, 176
-0.983353, 57, 49, 120, 176
-0.983357, 85, 97, 116, 224
-0.983427, 173, 193, 204, 256
-0.983445, 245, 97, 276, 160
-0.983473, 121, 185, 152, 248
-0.983478, 149, 129, 180, 192
-0.983536, 257, 193, 288, 256
-0.983566, 257, 17, 288, 144
-0.983604, 129, 49, 256, 112
-0.983629, 173, 113, 204, 240
-0.983644, 209, 209, 272, 333
-0.98367, 177, 1, 240, 333
-0.983702, 305, 161, 336, 224
-0.983744, 337, 217, 464, 280
-0.983746, 153, 25, 216, 88
-0.983756, 277, 225, 308, 288
-0.983757, 17, 105, 144, 168
-0.983983, 337, 97, 400, 160
-0.983984, 161, 65, 192, 128
-0.984001, 25, 129, 88, 192
-0.984044, 121, 1, 184, 333
-0.984063, 81, 201, 208, 264
-0.984112, 225, 225, 288, 288
-0.984212, 353, 129, 416, 192
-0.984216, 125, 49, 156, 176
-0.98433, 349, 217, 380, 280
-0.984433, 81, 137, 112, 200
-0.984486, 337, 153, 368, 216
-0.984511, 273, 257, 400, 320
-0.984515, 225, 161, 256, 224
-0.984573, 329, 145, 360, 272
-0.984637, 49, 25, 176, 88
-0.984778, 293, 225, 324, 288
-0.98483, 285, 113, 316, 176
-0.984843, 305, 65, 432, 128
-0.984941, 1, 129, 128, 192
-0.984976, 409, 225, 472, 288
-0.985005, 361, 113, 392, 240
-0.985029, 321, 1, 448, 128
-0.985047, 297, 257, 360, 320
-0.985104, 185, 81, 216, 208
-0.985133, 369, 249, 432, 312
-0.985171, 201, 49, 232, 112
-0.985201, 113, 49, 144, 176
-0.985232, 305, 65, 368, 320
-0.985294, 193, 209, 320, 272
-0.985306, 229, 193, 260, 320
-0.985314, 61, 89, 92, 152
-0.985341, 349, 49, 380, 176
-0.985453, 329, 185, 360, 248
-0.985461, 201, 273, 264, 333
-0.985571, 1, 65, 128, 128
-0.985635, 201, 1, 232, 128
-0.985654, 161, 161, 192, 224
-0.985676, 225, 145, 256, 272
-0.985676, 293, 209, 324, 333
-0.985758, 65, 153, 96, 216
-0.985795, 145, 209, 272, 272
-0.985833, 209, 257, 336, 320
-0.98589, 265, 225, 296, 288
-0.985895, 169, 129, 200, 192
-0.98594, 225, 25, 352, 88
-0.985998, 269, 201, 300, 264
-0.986012, 73, 1, 136, 128
-0.986016, 73, 41, 136, 104
-0.986046, 117, 65, 148, 128
-0.986068, 161, 105, 192, 168
-0.986081, 105, 185, 136, 248
-0.986084, 201, 1, 264, 333
-0.986086, 1, 177, 128, 240
-0.986306, 201, 97, 232, 224
-0.986321, 353, 193, 480, 256
-0.986387, 85, 49, 116, 176
-0.986448, 49, 161, 112, 288
-0.986522, 161, 249, 288, 312
-0.986548, 149, 17, 180, 144
-0.986599, 293, 33, 324, 160
-0.986625, 241, 1, 272, 128
-0.986628, 277, 57, 308, 120
-0.986634, 349, 121, 380, 184
-0.986679, 129, 265, 192, 328
-0.98679, 425, 185, 488, 248
-0.986812, 197, 185, 228, 248
-0.986856, 309, 209, 340, 333
-0.986929, 233, 249, 264, 312
-0.986947, 433, 209, 496, 272
-0.987026, 157, 193, 188, 256
-0.987065, 217, 9, 280, 72
-0.98707, 149, 177, 180, 304
-0.987104, 353, 193, 384, 256
-0.987123, 77, 113, 108, 176
-0.98719, 341, 185, 372, 248
-0.987211, 377, 193, 408, 256
-0.987243, 257, 41, 288, 104
-0.98738, 25, 73, 88, 136
-0.987386, 237, 201, 268, 264
-0.987451, 257, 169, 288, 232
-0.987484, 401, 161, 464, 288
-0.98749, 185, 153, 216, 216
-0.987557, 337, 137, 464, 200
-0.987593, 249, 249, 312, 312
-0.987613, 85, 161, 116, 288
-0.987618, 293, 169, 324, 232
-0.987628, 97, 273, 160, 333
-0.987664, 309, 73, 340, 136
-0.987719, 129, 25, 256, 88
-0.987747, 133, 185, 164, 248
-0.98775, 221, 1, 252, 128
-0.987807, 81, 177, 112, 240
-0.987828, 241, 193, 272, 320
-0.987935, 337, 97, 368, 224
-0.987976, 153, 1, 216, 333
-0.988026, 193, 241, 256, 304
-0.988029, 353, 161, 416, 224
-0.988041, 433, 177, 496, 304
-0.98807, 377, 193, 408, 320
-0.988119, 209, 85, 272, 116
-0.988139, 213, 105, 244, 168
-0.988155, 93, 121, 124, 184
-0.988168, 217, 193, 248, 256
-0.988214, 237, 169, 268, 232
-0.988239, 97, 1, 160, 333
-0.988242, 361, 65, 424, 192
-0.988279, 313, 41, 376, 104
-0.98829, 317, 113, 348, 240
-0.988333, 225, 97, 288, 128
-0.98835, 401, 193, 432, 256
-0.988358, 313, 193, 344, 256
-0.988381, 289, 81, 320, 144
-0.988385, 225, 273, 288, 333
-0.98839, 193, 97, 256, 128
-0.988431, 177, 209, 208, 333
-0.988469, 361, 177, 392, 304
-0.988518, 149, 49, 180, 112
-0.988519, 193, 65, 256, 96
-0.988533, 265, 137, 328, 200
-0.988573, 257, 145, 288, 208
-0.988578, 33, 89, 288, 152
-0.988581, 233, 77, 296, 108
-0.988594, 81, 65, 112, 128
-0.988607, 49, 41, 112, 104
-0.988645, 349, 209, 380, 333
-0.988658, 201, 113, 264, 144
-0.988707, 433, 233, 496, 296
-0.988714, 305, 89, 432, 152
-0.988737, 49, 1, 176, 64
-0.988758, 133, 33, 164, 96
-0.988759, 265, 1, 328, 333
-0.988768, 329, 209, 360, 333
-0.988798, 117, 33, 148, 96
-0.988811, 65, 65, 96, 192
-0.988871, 345, 65, 408, 320
-0.988879, 249, 105, 312, 136
-0.988913, 225, 137, 256, 200
-0.988955, 353, 257, 384, 320
-0.988982, 33, 201, 160, 264
-0.98907, 129, 69, 192, 100
-0.989121, 189, 177, 220, 304
-0.989286, 153, 69, 216, 100
-0.989312, 169, 93, 232, 124
-0.989357, 293, 249, 324, 312
-0.98938, 169, 81, 232, 112
-0.989387, 177, 189, 240, 220
-0.989423, 133, 1, 164, 128
-0.989456, 65, 65, 96, 128
-0.989484, 169, 105, 232, 136
-0.989547, 217, 65, 280, 96
-0.98955, 229, 225, 260, 288
-0.989571, 129, 89, 192, 120
-0.989587, 337, 121, 368, 184
-0.989597, 281, 25, 344, 88
-0.989615, 225, 109, 288, 140
-0.989677, 321, 241, 448, 304
-0.989691, 25, 113, 88, 240
-0.989732, 129, 165, 192, 196
-0.989735, 101, 177, 132, 304
-0.989739, 233, 121, 296, 152
-0.989741, 273, 65, 336, 96
-0.989747, 277, 265, 308, 328
-0.989796, 117, 89, 148, 152
-0.989832, 249, 65, 312, 96
-0.989841, 297, 101, 360, 132
-0.989842, 353, 169, 480, 232
-0.989855, 129, 101, 192, 132
-0.98987, 409, 249, 472, 312
-0.989874, 225, 189, 288, 220
-0.989891, 153, 117, 216, 148
-0.989917, 337, 1, 400, 128
-0.98994, 249, 93, 312, 124
-0.989987, 89, 133, 152, 164
-0.990011, 209, 153, 272, 184
-0.990034, 89, 165, 152, 196
-0.990035, 177, 33, 208, 96
-0.990044, 93, 201, 124, 264
-0.990048, 153, 185, 216, 216
-0.990063, 193, 125, 256, 156
-0.99007, 49, 1, 112, 64
-0.990106, 61, 113, 92, 240
-0.990114, 129, 113, 192, 144
-0.990161, 201, 189, 264, 220
-0.990189, 89, 145, 152, 176
-0.99024, 153, 233, 216, 296
-0.990246, 273, 85, 336, 116
-0.990256, 417, 209, 448, 333
-0.990309, 273, 221, 336, 252
-0.990329, 393, 217, 424, 280
-0.990329, 177, 249, 208, 312
-0.990356, 329, 57, 360, 120
-0.990361, 137, 141, 200, 172
-0.990378, 97, 177, 160, 208
-0.990383, 33, 65, 288, 128
-0.99039, 65, 1, 128, 333
-0.990506, 201, 217, 264, 280
-0.990519, 81, 65, 144, 96
-0.990542, 193, 65, 448, 128
-0.990547, 1, 33, 128, 96
-0.990557, 397, 209, 428, 333
-0.990586, 97, 1, 224, 64
-0.990604, 161, 273, 288, 333
-0.99062, 129, 193, 192, 224
-0.990625, 113, 137, 176, 168
-0.990646, 161, 33, 192, 96
-0.990658, 177, 173, 240, 204
-0.990671, 337, 225, 368, 288
-0.990675, 153, 129, 216, 160
-0.990691, 153, 57, 216, 88
-0.990712, 217, 165, 280, 196
-0.990717, 265, 197, 328, 228
-0.990735, 89, 97, 152, 128
-0.990737, 209, 25, 240, 88
-0.990749, 193, 53, 256, 84
-0.990751, 161, 201, 224, 232
-0.990763, 369, 273, 432, 333
-0.990798, 257, 117, 320, 148
-0.990802, 129, 125, 192, 156
-0.990809, 105, 249, 168, 312
-0.990839, 273, 181, 336, 212
-0.990859, 73, 89, 104, 152
-0.990908, 241, 225, 304, 256
-0.990909, 161, 113, 416, 176
-0.990919, 185, 201, 248, 232
-0.990939, 297, 73, 360, 104
-0.990967, 233, 201, 296, 232
-0.991017, 361, 209, 424, 240
-0.991028, 365, 193, 396, 256
-0.991088, 373, 129, 404, 192
-0.991089, 201, 161, 232, 224
-0.99109, 249, 185, 312, 216
-0.991099, 97, 177, 352, 240
-0.991107, 241, 237, 304, 268
-0.99111, 273, 233, 336, 264
-0.991113, 273, 165, 336, 196
-0.991114, 1, 177, 256, 240
-0.991117, 273, 257, 336, 288
-0.991142, 313, 217, 376, 248
-0.991142, 169, 157, 232, 188
-0.991144, 137, 153, 200, 184
-0.991145, 49, 125, 112, 156
-0.991148, 189, 33, 220, 96
-0.991156, 113, 273, 240, 333
-0.99117, 209, 141, 272, 172
-0.991174, 297, 165, 360, 196
-0.991205, 249, 249, 312, 280
-0.991209, 89, 117, 152, 148
-0.991209, 233, 141, 296, 172
-0.991214, 313, 181, 376, 212
-0.991217, 153, 169, 216, 200
-0.991219, 305, 245, 368, 276
-0.991232, 321, 117, 384, 148
-0.991237, 361, 233, 392, 296
-0.991241, 297, 89, 360, 120
-0.991265, 329, 241, 392, 272
-0.991271, 305, 41, 432, 104
-0.991279, 233, 53, 296, 84
-0.991279, 305, 1, 368, 333
-0.991302, 281, 113, 344, 144
-0.991312, 33, 153, 288, 216
-0.991317, 81, 81, 144, 112
-0.991324, 313, 193, 376, 224
-0.991327, 85, 89, 116, 152
-0.991334, 413, 193, 444, 256
-0.991369, 345, 225, 408, 256
-0.991374, 249, 169, 312, 200
-0.99138, 329, 149, 392, 180
-0.991395, 233, 153, 296, 184
-0.991411, 129, 57, 192, 88
-0.991413, 53, 153, 84, 216
-0.99142, 129, 181, 192, 212
-0.99143, 57, 165, 120, 196
-0.991459, 353, 73, 480, 136
-0.991473, 33, 121, 288, 184
-0.991475, 329, 249, 360, 312
-0.99148, 217, 249, 248, 312
-0.991481, 73, 177, 136, 208
-0.991484, 41, 101, 104, 132
-0.99152, 209, 201, 272, 232
-0.991529, 433, 209, 464, 333
-0.991535, 337, 113, 464, 176
-0.991535, 273, 273, 336, 333
-0.99154, 105, 69, 168, 100
-0.991542, 113, 217, 176, 280
-0.991543, 317, 217, 348, 280
-0.991554, 105, 81, 168, 112
-0.991557, 269, 25, 300, 88
-0.991559, 41, 69, 104, 100
-0.991568, 417, 225, 448, 288
-0.99157, 321, 229, 384, 260
-0.99157, 201, 177, 264, 208
-0.991573, 49, 141, 112, 172
-0.991574, 213, 161, 244, 288
-0.991595, 361, 145, 392, 208
-0.991598, 321, 69, 384, 100
-0.991598, 273, 101, 336, 132
-0.991607, 145, 185, 176, 248
-0.991608, 225, 253, 288, 284
-0.99161, 385, 245, 448, 276
-0.991615, 25, 177, 88, 304
-0.991618, 81, 201, 144, 232
-0.991643, 193, 265, 256, 296
-0.991647, 313, 257, 376, 288
-0.991664, 273, 245, 336, 276
-0.991667, 41, 89, 104, 120
-0.991704, 113, 17, 176, 80
-0.991714, 1, 65, 500, 128
-0.991767, 25, 49, 88, 112
-0.991767, 401, 205, 464, 236
-0.99182, 73, 9, 136, 72
-0.991851, 329, 161, 392, 192
-0.991856, 337, 1, 400, 333
-0.991857, 321, 105, 384, 136
-0.991917, 385, 221, 448, 252
-0.991919, 321, 85, 384, 116
-0.991947, 257, 69, 288, 100
-0.991957, 345, 197, 408, 228
-0.991982, 273, 269, 336, 300
-0.992008, 113, 149, 176, 180
-0.992012, 241, 85, 272, 116
-0.992028, 185, 145, 248, 176
-0.992031, 137, 209, 200, 240
-0.99206, 161, 33, 224, 64
-0.99208, 273, 209, 336, 240
-0.992082, 185, 253, 248, 284
-0.992092, 337, 173, 400, 204
-0.992092, 241, 213, 304, 244
-0.992097, 397, 161, 428, 288
-0.992102, 353, 237, 416, 268
-0.992106, 385, 233, 448, 264
-0.992119, 345, 261, 408, 292
-0.992136, 65, 105, 128, 136
-0.992148, 41, 201, 104, 264
-0.99215, 193, 29, 256, 60
-0.992156, 313, 285, 376, 316
-0.992162, 113, 205, 176, 236
-0.992163, 137, 125, 168, 156
-0.992168, 297, 233, 360, 264
-0.992195, 345, 125, 408, 156
-0.9922, 41, 113, 104, 144
-0.992201, 225, 93, 256, 124
-0.992252, 129, 201, 384, 264
-0.99226, 225, 65, 256, 96
-0.992263, 181, 181, 212, 212
-0.992302, 133, 89, 164, 120
-0.992315, 225, 105, 256, 136
-0.99235, 277, 113, 308, 144
-0.992358, 137, 69, 168, 100
-0.992361, 117, 161, 148, 192
-0.992364, 137, 113, 168, 144
-0.992366, 297, 225, 328, 256
-0.99238, 257, 105, 288, 136
-0.992391, 137, 101, 168, 132
-0.992427, 241, 101, 272, 132
-0.992444, 201, 77, 232, 108
-0.992445, 309, 105, 340, 136
-0.992449, 181, 65, 212, 96
-0.992451, 241, 73, 272, 104
-0.992457, 117, 141, 148, 172
-0.992465, 237, 149, 268, 180
-0.992477, 113, 249, 240, 312
-0.992482, 117, 1, 148, 128
-0.992493, 141, 137, 172, 168
-0.992507, 129, 149, 160, 180
-0.992585, 193, 89, 448, 152
-0.992587, 129, 137, 160, 168
-0.992589, 185, 193, 216, 224
-0.992597, 201, 65, 232, 96
-0.99261, 237, 137, 268, 168
-0.992618, 161, 69, 192, 100
-0.992633, 257, 93, 288, 124
-0.992637, 225, 117, 256, 148
-0.992645, 201, 93, 232, 124
-0.992656, 385, 49, 448, 176
-0.992659, 349, 221, 380, 252
-0.992671, 137, 169, 168, 200
-0.992677, 293, 237, 324, 268
-0.992695, 329, 177, 360, 208
-0.992702, 281, 225, 312, 256
-0.992706, 309, 221, 340, 252
-0.99271, 273, 1, 304, 128
-0.992713, 241, 125, 272, 156
-0.992713, 225, 81, 256, 112
-0.992716, 181, 109, 212, 140
-0.992732, 257, 117, 288, 148
-0.992732, 181, 77, 212, 108
-0.992744, 297, 105, 328, 136
-0.992752, 241, 189, 272, 220
-0.992758, 165, 193, 196, 224
-0.992786, 425, 161, 456, 288
-0.992789, 117, 125, 148, 156
-0.99279, 341, 153, 372, 184
-0.992795, 445, 209, 476, 333
-0.992795, 149, 69, 180, 100
-0.992797, 105, 169, 136, 200
-0.9928, 73, 125, 104, 156
-0.992806, 121, 181, 152, 212
-0.992811, 205, 105, 236, 136
-0.992813, 325, 165, 356, 196
-0.992823, 149, 101, 180, 132
-0.992824, 257, 193, 288, 224
-0.992824, 229, 193, 260, 224
-0.992828, 349, 241, 380, 272
-0.99283, 129, 137, 384, 200
-0.992839, 185, 133, 216, 164
-0.99284, 257, 81, 288, 112
-0.992842, 365, 125, 396, 156
-0.992845, 181, 97, 212, 128
-0.992848, 105, 145, 136, 176
-0.992854, 73, 161, 104, 288
-0.992855, 273, 101, 304, 132
-0.992859, 305, 117, 336, 148
-0.992862, 273, 77, 304, 108
-0.992864, 309, 233, 340, 264
-0.99288, 401, 213, 432, 244
-0.992889, 277, 65, 308, 96
-0.992894, 149, 85, 180, 116
-0.992905, 241, 61, 272, 92
-0.992914, 213, 89, 244, 120
-0.992917, 241, 113, 272, 144
-0.992931, 297, 253, 328, 284
-0.992937, 273, 89, 304, 120
-0.99294, 149, 117, 180, 148
-0.992941, 253, 237, 284, 268
-0.992943, 241, 237, 272, 268
-0.992956, 357, 141, 388, 172
-0.992961, 329, 73, 360, 104
-0.992965, 173, 161, 204, 192
-0.992967, 85, 133, 116, 164
-0.992977, 221, 53, 252, 84
-0.992979, 85, 109, 116, 140
-0.99298, 257, 193, 500, 256
-0.992986, 161, 181, 192, 212
-0.992988, 321, 105, 352, 136
-0.992993, 241, 253, 272, 284
-0.993003, 177, 253, 208, 284
-0.993007, 213, 189, 244, 220
-0.993017, 213, 69, 244, 100
-0.993022, 397, 241, 428, 272
-0.993031, 201, 117, 232, 148
-0.993032, 277, 249, 308, 280
-0.993035, 309, 201, 340, 232
-0.993036, 261, 249, 292, 280
-0.993036, 293, 213, 324, 244
-0.99304, 257, 57, 288, 88
-0.993041, 309, 77, 340, 108
-0.993042, 161, 97, 192, 128
-0.993045, 285, 101, 316, 132
-0.993047, 153, 197, 184, 228
-0.993048, 309, 245, 340, 276
-0.993049, 349, 121, 380, 152
-0.993049, 93, 145, 124, 176
-0.993054, 257, 165, 288, 196
-0.993056, 65, 97, 96, 128
-0.993057, 309, 93, 340, 124
-0.993061, 201, 181, 232, 212
-0.993066, 161, 121, 192, 152
-0.993069, 269, 197, 300, 228
-0.993069, 93, 161, 124, 192
-0.993073, 185, 169, 216, 200
-0.993075, 237, 161, 268, 192
-0.993078, 221, 157, 252, 188
-0.993079, 161, 169, 192, 200
-0.993079, 141, 185, 172, 216
-0.993082, 185, 121, 216, 152
-0.993086, 257, 181, 288, 212
-0.993089, 201, 53, 232, 84
-0.993089, 305, 65, 336, 96
-0.99309, 105, 133, 136, 164
-0.99309, 93, 177, 124, 208
-0.993095, 65, 77, 96, 108
-0.993096, 117, 113, 148, 144
-0.993096, 161, 109, 192, 140
-0.993096, 125, 69, 156, 100
-0.9931, 289, 117, 320, 148
-0.993104, 317, 189, 348, 220
-0.993104, 233, 225, 264, 256
-0.993112, 161, 81, 192, 112
-0.993194, 385, 65, 448, 320
-0.993221, 97, 33, 352, 96
-0.993224, 161, 225, 416, 288
-0.993256, 1, 9, 128, 72
-0.993289, 377, 1, 440, 333
-0.993291, 177, 9, 240, 72
-0.993291, 385, 169, 448, 232
-0.993297, 373, 129, 404, 256
-0.993314, 361, 65, 392, 192
-0.993348, 65, 225, 128, 288
-0.993405, 81, 225, 208, 288
-0.993416, 345, 49, 408, 112
-0.993425, 461, 209, 492, 333
-0.993451, 177, 9, 304, 72
-0.993508, 249, 273, 312, 333
-0.993526, 369, 1, 496, 128
-0.993533, 225, 1, 352, 64
-0.993569, 225, 77, 352, 108
-0.9936, 369, 249, 496, 312
-0.993605, 129, 73, 256, 104
-0.993616, 195, 177, 210, 240
-0.993651, 41, 1, 104, 333
-0.993715, 127, 137, 142, 200
-0.993735, 225, 161, 480, 224
-0.993908, 369, 49, 432, 112
-0.993915, 209, 89, 336, 120
-0.993973, 177, 69, 304, 100
-0.994009, 1, 1, 500, 64
-0.994015, 9, 105, 72, 168
-0.99403, 117, 161, 132, 224
-0.994048, 1, 25, 500, 88
-0.994107, 153, 65, 168, 128
-0.994159, 1, 89, 500, 152
-0.994167, 65, 109, 192, 140
-0.994192, 133, 145, 148, 208
-0.994213, 321, 17, 352, 144
-0.994358, 393, 273, 456, 333
-0.994382, 209, 109, 336, 140
-0.994504, 33, 201, 288, 264
-0.994506, 97, 121, 224, 152
-0.994515, 225, 65, 352, 96
-0.994542, 121, 209, 152, 333
-0.994555, 129, 85, 256, 116
-0.994579, 117, 137, 132, 200
-0.994603, 151, 137, 166, 200
-0.994619, 257, 225, 500, 288
-0.99463, 25, 177, 88, 240
-0.994647, 81, 73, 208, 104
-0.994648, 129, 101, 256, 132
-0.994683, 41, 81, 72, 208
-0.994745, 409, 161, 440, 288
-0.994747, 287, 201, 302, 264
-0.994789, 313, 97, 328, 160
-0.994792, 187, 129, 202, 192
-0.994827, 289, 17, 416, 80
-0.994835, 161, 117, 288, 148
-0.994863, 113, 193, 240, 224
-0.994896, 49, 133, 176, 164
-0.994909, 245, 113, 260, 176
-0.994942, 251, 65, 266, 128
-0.994954, 111, 137, 126, 200
-0.994964, 123, 161, 138, 224
-0.994992, 81, 97, 208, 128
-0.995016, 129, 149, 256, 180
-0.995019, 187, 169, 202, 232
-0.99506, 161, 189, 288, 220
-0.995075, 209, 121, 336, 152
-0.995091, 153, 97, 168, 160
-0.995098, 189, 193, 204, 256
-0.995101, 377, 105, 440, 168
-0.995104, 89, 225, 152, 288
-0.995108, 97, 81, 128, 208
-0.995143, 193, 41, 448, 104
-0.995148, 337, 273, 464, 333
-0.995195, 279, 65, 294, 128
-0.995197, 223, 81, 238, 144
-0.995225, 133, 121, 148, 184
-0.995241, 445, 161, 476, 288
-0.995279, 33, 273, 160, 333
-0.995289, 257, 89, 384, 120
-0.99529, 319, 201, 334, 264
-0.995299, 81, 173, 208, 204
-0.995309, 33, 225, 160, 288
-0.995317, 83, 121, 98, 184
-0.995323, 235, 65, 250, 128
-0.995323, 307, 201, 322, 264
-0.995344, 313, 209, 328, 272
-0.995351, 285, 225, 300, 288
-0.995357, 287, 105, 302, 168
-0.995361, 181, 153, 196, 216
-0.995369, 297, 201, 312, 264
-0.995372, 249, 1, 312, 64
-0.99539, 209, 201, 336, 232
-0.995411, 281, 201, 296, 264
-0.995423, 49, 85, 176, 116
-0.995433, 201, 193, 232, 320
-0.995438, 45, 129, 76, 256
-0.995453, 273, 249, 400, 280
-0.995476, 297, 225, 312, 288
-0.995488, 1, 33, 256, 96
-0.995497, 109, 177, 124, 240
-0.995497, 257, 177, 384, 208
-0.995506, 33, 1, 288, 64
-0.995506, 277, 89, 292, 152
-0.995519, 57, 161, 88, 288
-0.995521, 99, 177, 114, 240
-0.995523, 217, 65, 232, 128
-0.995529, 251, 161, 266, 224
-0.995532, 281, 169, 296, 232
-0.995533, 347, 153, 362, 216
-0.995544, 177, 161, 304, 192
-0.995549, 129, 161, 256, 192
-0.995551, 253, 89, 268, 152
-0.99556, 225, 241, 352, 272
-0.995565, 141, 137, 156, 200
-0.995572, 247, 89, 262, 152
-0.995576, 137, 1, 200, 64
-0.995592, 25, 33, 88, 288
-0.995593, 139, 65, 154, 128
-0.995606, 161, 249, 416, 312
-0.995619, 273, 125, 400, 156
-0.995621, 129, 133, 256, 164
-0.995658, 291, 225, 306, 288
-0.995666, 289, 193, 416, 224
-0.995701, 367, 121, 382, 184
-0.995706, 255, 241, 270, 304
-0.99571, 337, 169, 352, 232
-0.995714, 257, 105, 384, 136
-0.995721, 181, 129, 196, 192
-0.995726, 255, 121, 270, 184
-0.995732, 77, 1, 108, 128
-0.995743, 1, 209, 500, 272
-0.99575, 65, 153, 192, 184
-0.99576, 137, 33, 168, 288
-0.995765, 65, 265, 128, 328
-0.995779, 49, 121, 176, 152
-0.99578, 257, 137, 500, 200
-0.995812, 201, 177, 216, 240
-0.995845, 231, 153, 246, 216
-0.995853, 257, 257, 500, 320
-0.99586, 225, 1, 256, 256
-0.995878, 369, 49, 496, 112
-0.995882, 273, 229, 400, 260
-0.99589, 65, 265, 320, 328
-0.995894, 177, 57, 304, 88
-0.995906, 245, 49, 260, 112
-0.995911, 77, 89, 92, 152
-0.995921, 195, 129, 210, 192
-0.995921, 351, 225, 366, 288
-0.995922, 145, 113, 160, 176
-0.995957, 319, 161, 334, 224
-0.995982, 97, 33, 128, 160
-0.995986, 133, 177, 148, 240
-0.996049, 113, 61, 240, 92
-0.996049, 49, 61, 176, 92
-0.996054, 83, 153, 98, 216
-0.996072, 159, 177, 174, 240
-0.996073, 241, 141, 368, 172
-0.996138, 235, 233, 250, 296
-0.996147, 209, 189, 336, 220
-0.996162, 33, 165, 160, 196
-0.996173, 65, 241, 320, 304
-0.996177, 225, 257, 352, 288
-0.996215, 25, 17, 88, 144
-0.996224, 303, 225, 318, 288
-0.996229, 361, 217, 376, 280
-0.996232, 241, 137, 256, 200
-0.996237, 129, 209, 256, 240
-0.996241, 261, 65, 276, 128
-0.99625, 129, 65, 144, 128
-0.996265, 305, 181, 432, 212
-0.996268, 177, 133, 304, 164
-0.996268, 195, 65, 210, 128
-0.996273, 257, 213, 384, 244
-0.996274, 315, 233, 330, 296
-0.996297, 217, 209, 248, 333
-0.996308, 229, 81, 244, 144
-0.996313, 231, 41, 246, 104
-0.996316, 1, 113, 500, 176
-0.996316, 33, 97, 160, 128
-0.99633, 83, 97, 98, 160
-0.996337, 359, 113, 374, 176
-0.99634, 355, 193, 370, 256
-0.99636, 153, 177, 168, 240
-0.996361, 195, 89, 210, 152
-0.996365, 105, 153, 120, 216
-0.996396, 369, 193, 384, 256
-0.996402, 249, 137, 264, 200
-0.996404, 253, 33, 268, 96
-0.996415, 323, 225, 338, 288
-0.996432, 177, 177, 304, 208
-0.996439, 1, 125, 128, 156
-0.996446, 337, 49, 368, 176
-0.996451, 225, 105, 240, 168
-0.996462, 277, 225, 292, 288
-0.996475, 415, 217, 430, 280
-0.996477, 181, 177, 196, 240
-0.996478, 117, 65, 148, 320
-0.99649, 275, 201, 290, 264
-0.996506, 129, 97, 144, 160
-0.996513, 65, 201, 192, 232
-0.996518, 141, 161, 156, 224
-0.996524, 205, 73, 220, 136
-0.996528, 269, 65, 284, 128
-0.996532, 313, 169, 328, 232
-0.996536, 295, 113, 310, 176
-0.996537, 77, 153, 92, 216
-0.996558, 89, 89, 104, 152
-0.996561, 129, 173, 256, 204
-0.996565, 225, 33, 240, 96
-0.99657, 277, 121, 292, 184
-0.996575, 1, 169, 500, 232
-0.996576, 257, 161, 384, 192
-0.996597, 287, 177, 302, 240
-0.996597, 257, 113, 500, 176
-0.996604, 337, 1, 464, 64
-0.996619, 305, 77, 432, 108
-0.996621, 229, 249, 244, 312
-0.996622, 423, 193, 438, 256
-0.996628, 89, 129, 104, 192
-0.996646, 123, 185, 138, 248
-0.996647, 307, 249, 322, 312
-0.996652, 201, 1, 232, 256
-0.99666, 53, 49, 84, 176
-0.99666, 319, 97, 334, 160
-0.996665, 71, 89, 86, 152
-0.996674, 361, 193, 376, 256
-0.996678, 33, 181, 160, 212
-0.996678, 403, 193, 418, 256
-0.996682, 349, 121, 364, 184
-0.996686, 225, 9, 480, 72
-0.996698, 367, 233, 382, 296
-0.996709, 273, 261, 400, 292
-0.996709, 305, 113, 320, 176
-0.996723, 297, 169, 312, 232
-0.996728, 89, 153, 104, 216
-0.996732, 161, 1, 192, 256
-0.996734, 261, 33, 276, 96
-0.996741, 77, 121, 92, 184
-0.996745, 177, 257, 304, 288
-0.996751, 205, 201, 220, 264
-0.996754, 209, 221, 336, 252
-0.99676, 413, 193, 428, 256
-0.996772, 305, 1, 336, 128
-0.996775, 355, 153, 370, 216
-0.99678, 123, 161, 138, 192
-0.996785, 353, 241, 480, 272
-0.996787, 385, 1, 448, 128
-0.996802, 197, 209, 212, 272
-0.996806, 185, 65, 216, 320
-0.996807, 293, 249, 308, 312
-0.996821, 243, 25, 258, 88
-0.996821, 361, 137, 376, 200
-0.996833, 319, 65, 334, 128
-0.996834, 49, 209, 112, 333
-0.996837, 301, 249, 316, 312
-0.996839, 349, 81, 364, 144
-0.996852, 223, 57, 238, 120
-0.996853, 1, 85, 128, 116
-0.996857, 161, 153, 176, 216
-0.996865, 247, 249, 262, 312
-0.99687, 257, 1, 288, 256
-0.996879, 377, 121, 392, 184
-0.996883, 159, 129, 174, 192
-0.996885, 243, 193, 258, 256
-0.996911, 79, 65, 94, 128
-0.996917, 237, 1, 268, 256
-0.996926, 173, 193, 188, 256
-0.996934, 93, 177, 108, 240
-0.996936, 177, 245, 304, 276
-0.996969, 313, 101, 328, 132
-0.996976, 401, 1, 464, 333
-0.997023, 133, 145, 148, 176
-0.997025, 305, 61, 432, 92
-0.997064, 361, 17, 424, 144
-0.997082, 353, 217, 480, 248
-0.997103, 257, 273, 384, 304
-0.997105, 129, 265, 256, 296
-0.997141, 131, 133, 146, 164
-0.997146, 17, 149, 144, 180
-0.997188, 249, 77, 264, 108
-0.997194, 17, 297, 144, 328
-0.997206, 131, 161, 146, 192
-0.997215, 305, 217, 432, 248
-0.997264, 337, 141, 464, 172
-0.997265, 33, 73, 160, 104
-0.997278, 225, 53, 352, 84
-0.997289, 1, 109, 128, 140
-0.997307, 311, 225, 326, 256
-0.997308, 209, 273, 336, 304
-0.997309, 287, 109, 302, 140
-0.997324, 293, 229, 308, 260
-0.997333, 321, 229, 448, 260
-0.997336, 303, 225, 318, 256
-0.997341, 247, 125, 262, 156
-0.997354, 65, 17, 96, 144
-0.997359, 337, 197, 464, 228
-0.997379, 65, 249, 192, 312
-0.997395, 321, 153, 448, 184
-0.997411, 353, 253, 480, 284
-0.997493, 257, 289, 384, 320
-0.997502, 105, 65, 136, 320
-0.997516, 81, 33, 112, 288
-0.997517, 129, 1, 384, 64
-0.997519, 85, 125, 100, 156
-0.997534, 177, 149, 304, 180
-0.997538, 377, 49, 408, 176
-0.997543, 125, 141, 140, 172
-0.997545, 113, 169, 128, 200
-0.997558, 33, 129, 64, 256
-0.99756, 161, 273, 416, 333
-0.997561, 195, 181, 210, 212
-0.997567, 151, 65, 166, 96
-0.997567, 225, 85, 240, 116
-0.99757, 321, 169, 448, 200
-0.997582, 187, 181, 202, 212
-0.997593, 65, 213, 192, 244
-0.997596, 201, 145, 232, 272
-0.997606, 425, 1, 488, 333
-0.997619, 153, 101, 168, 132
-0.997628, 131, 173, 146, 204
-0.997631, 251, 65, 266, 96
-0.997639, 17, 193, 144, 224
-0.997644, 319, 217, 334, 248
-0.997651, 153, 117, 168, 148
-0.997653, 305, 89, 432, 120
-0.99766, 245, 137, 260, 168
-0.997672, 149, 65, 180, 320
-0.997677, 181, 157, 196, 188
-0.997689, 177, 193, 192, 224
-0.99769, 249, 153, 264, 184
-0.997693, 139, 133, 154, 164
-0.997704, 177, 33, 304, 64
-0.997717, 351, 225, 366, 256
-0.997743, 385, 129, 416, 256
-0.997748, 339, 161, 354, 192
-0.997748, 225, 189, 240, 220
-0.997758, 97, 33, 224, 64
-0.997762, 153, 89, 168, 120
-0.997767, 49, 25, 176, 56
-0.997772, 281, 221, 296, 252
-0.997775, 357, 229, 372, 260
-0.997784, 261, 69, 276, 100
-0.997788, 277, 65, 308, 320
-0.997808, 193, 289, 320, 320
-0.997809, 221, 69, 236, 100
-0.997819, 273, 301, 400, 332
-0.997824, 369, 221, 384, 252
-0.997828, 225, 25, 352, 56
-0.997835, 233, 153, 248, 184
-0.997841, 255, 125, 270, 156
-0.997848, 1, 61, 128, 92
-0.997858, 361, 217, 376, 248
-0.997859, 173, 65, 204, 320
-0.99786, 197, 193, 212, 224
-0.997866, 287, 245, 302, 276
-0.997878, 153, 137, 168, 168
-0.997901, 255, 237, 270, 268
-0.997903, 297, 65, 328, 320
-0.997905, 93, 33, 124, 288
-0.997906, 241, 69, 256, 100
-0.997912, 233, 197, 248, 228
-0.997915, 337, 129, 464, 160
-0.997917, 367, 125, 382, 156
-0.997929, 187, 133, 202, 164
-0.997935, 303, 237, 318, 268
-0.997936, 17, 205, 144, 236
-0.997942, 223, 97, 238, 128
-0.997943, 189, 201, 204, 232
-0.997944, 139, 161, 154, 192
-0.997947, 277, 89, 292, 120
-0.997951, 379, 125, 394, 156
-0.997959, 349, 241, 364, 272
-0.997972, 277, 101, 292, 132
-0.997973, 337, 177, 352, 208
-0.997975, 263, 197, 278, 228
-0.997975, 141, 145, 156, 176
-0.997977, 311, 213, 326, 244
-0.997978, 171, 193, 186, 224
-0.997979, 9, 1, 72, 333
-0.997982, 155, 185, 170, 216
-0.997983, 319, 233, 334, 264
-0.997993, 129, 277, 256, 308
-0.998005, 129, 49, 256, 80
-0.998009, 187, 161, 202, 192
-0.998013, 279, 65, 294, 96
-0.998013, 281, 237, 296, 268
-0.998014, 151, 77, 166, 108
-0.998025, 239, 141, 254, 172
-0.998026, 43, 289, 58, 320
-0.998027, 113, 253, 240, 284
-0.998031, 397, 221, 412, 252
-0.998033, 145, 125, 160, 156
-0.998035, 271, 197, 286, 228
-0.998039, 319, 89, 334, 120
-0.998041, 269, 69, 284, 100
-0.998042, 227, 161, 242, 192
-0.998045, 139, 69, 154, 100
-0.998045, 223, 113, 238, 144
-0.998047, 277, 77, 292, 108
-0.998053, 117, 145, 132, 176
-0.998055, 363, 241, 378, 272
-0.998056, 255, 77, 270, 108
-0.998057, 287, 233, 302, 264
-0.998069, 311, 245, 326, 276
-0.998074, 367, 137, 382, 168
-0.998076, 363, 229, 378, 260
-0.998089, 177, 233, 304, 264
-0.998098, 337, 109, 464, 140
-0.9981, 117, 157, 132, 188
-0.998103, 129, 93, 144, 124
-0.998111, 405, 221, 420, 252
-0.998121, 349, 65, 380, 320
-0.998122, 287, 221, 302, 252
-0.998129, 277, 121, 292, 152
-0.998131, 131, 121, 146, 152
-0.998137, 195, 65, 210, 96
-0.998139, 345, 157, 360, 188
-0.99814, 83, 149, 98, 180
-0.998141, 227, 65, 242, 96
-0.998144, 213, 1, 244, 256
-0.998147, 253, 89, 268, 120
-0.99815, 253, 253, 268, 284
-0.998153, 315, 257, 330, 288
-0.998156, 241, 193, 256, 224
-0.998157, 293, 113, 308, 144
-0.99816, 323, 109, 338, 140
-0.998168, 117, 133, 132, 164
-0.998179, 319, 245, 334, 276
-0.998185, 293, 249, 308, 280
-0.998186, 369, 237, 384, 268
-0.998187, 183, 201, 198, 232
-0.998191, 93, 137, 108, 168
-0.998191, 107, 165, 122, 196
-0.998195, 301, 273, 316, 304
-0.998208, 305, 253, 320, 284
-0.998208, 413, 221, 428, 252
-0.998224, 303, 113, 318, 144
-0.998225, 203, 201, 218, 232
-0.998226, 359, 121, 374, 152
-0.998232, 205, 73, 220, 104
-0.998237, 195, 133, 210, 164
-0.99825, 1, 137, 128, 168
-0.998253, 253, 113, 268, 144
-0.998254, 465, 161, 496, 288
-0.998254, 161, 65, 176, 96
-0.998257, 319, 121, 334, 152
-0.998261, 305, 213, 320, 244
-0.998263, 191, 249, 206, 280
-0.998267, 181, 181, 196, 212
-0.998273, 83, 161, 98, 192
-0.998275, 123, 181, 138, 212
-0.998278, 357, 241, 372, 272
-0.998281, 195, 117, 210, 148
-0.998285, 253, 181, 268, 212
-0.998285, 315, 201, 330, 232
-0.998287, 281, 249, 296, 280
-0.99829, 89, 105, 104, 136
-0.998336, 49, 13, 176, 44
-0.998339, 161, 221, 288, 252
-0.998348, 225, 97, 288, 112
-0.998359, 289, 137, 416, 168
-0.998363, 325, 1, 356, 256
-0.99837, 225, 103, 288, 118
-0.99837, 209, 89, 272, 104
-0.998373, 69, 65, 100, 320
-0.998378, 233, 91, 296, 106
-0.998381, 161, 17, 288, 48
-0.998386, 193, 95, 256, 110
-0.998391, 129, 301, 256, 332
-0.9984, 33, 277, 160, 308
-0.998406, 193, 301, 320, 332
-0.998408, 201, 119, 264, 134
-0.998409, 225, 115, 288, 130
-0.998411, 201, 107, 264, 122
-0.998412, 193, 69, 256, 84
-0.998413, 193, 101, 256, 116
-0.998421, 241, 71, 272, 86
-0.998423, 121, 177, 152, 192
-0.998424, 281, 251, 312, 266
-0.998424, 337, 193, 368, 208
-0.998427, 361, 141, 392, 156
-0.998427, 225, 109, 288, 124
-0.998427, 137, 71, 200, 86
-0.998428, 293, 239, 324, 254
-0.998428, 33, 293, 64, 308
-0.998428, 41, 311, 72, 326
-0.998428, 149, 139, 180, 154
-0.998428, 165, 195, 196, 210
-0.998429, 109, 163, 140, 178
-0.998429, 221, 251, 252, 266
-0.998429, 149, 93, 180, 108
-0.99843, 201, 113, 264, 128
-0.99843, 201, 63, 232, 78
-0.99843, 277, 265, 308, 280
-0.998433, 225, 83, 256, 98
-0.998433, 269, 197, 300, 212
-0.998435, 113, 139, 176, 154
-0.998435, 149, 75, 180, 90
-0.998435, 141, 173, 172, 188
-0.998436, 149, 99, 180, 114
-0.998436, 161, 65, 192, 80
-0.998437, 285, 121, 316, 136
-0.998437, 217, 65, 280, 80
-0.998438, 409, 65, 472, 320
-0.998439, 149, 105, 180, 120
-0.99844, 213, 101, 244, 116
-0.998442, 317, 193, 348, 208
-0.998442, 249, 111, 312, 126
-0.998443, 273, 89, 336, 104
-0.998444, 301, 247, 332, 262
-0.998445, 149, 115, 180, 130
-0.998445, 225, 71, 288, 86
-0.998445, 293, 257, 324, 272
-0.998445, 325, 165, 356, 180
-0.998446, 133, 179, 164, 194
-0.998446, 117, 183, 148, 198
-0.998446, 185, 117, 216, 132
-0.998446, 309, 229, 340, 244
-0.998447, 305, 83, 336, 98
-0.998447, 329, 117, 360, 132
-0.998448, 181, 83, 212, 98
-0.99845, 181, 201, 212, 216
-0.99845, 249, 119, 312, 134
-0.998451, 229, 127, 260, 142
-0.998453, 181, 105, 212, 120
-0.998459, 277, 83, 308, 98
-0.99846, 181, 111, 212, 126
-0.99846, 241, 127, 272, 142
-0.99846, 169, 93, 232, 108
-0.99846, 193, 125, 256, 140
-0.99846, 269, 253, 300, 268
-0.99846, 149, 133, 180, 148
-0.998462, 241, 119, 272, 134
-0.998463, 325, 177, 356, 192
-0.998464, 89, 169, 152, 184
-0.998464, 129, 289, 256, 320
-0.998464, 185, 135, 216, 150
-0.998466, 289, 245, 320, 260
-0.998467, 93, 167, 124, 182
-0.998467, 169, 105, 232, 120
-0.998468, 149, 69, 180, 84
-0.998469, 181, 91, 212, 106
-0.998469, 169, 83, 232, 98
-0.998471, 201, 115, 232, 130
-0.998471, 241, 79, 272, 94
-0.998471, 297, 111, 328, 126
-0.998471, 213, 203, 244, 218
-0.998473, 181, 77, 212, 92
-0.998474, 273, 89, 304, 104
-0.998474, 133, 165, 164, 180
-0.998475, 233, 199, 296, 214
-0.998477, 241, 79, 304, 94
-0.998477, 81, 135, 112, 150
-0.998477, 169, 111, 232, 126
-0.998478, 229, 257, 260, 272
-0.998478, 201, 89, 232, 104
-0.998479, 153, 125, 216, 140
-0.998479, 169, 99, 232, 114
-0.998479, 101, 179, 132, 194
-0.998479, 129, 149, 160, 164
-0.99848, 153, 77, 216, 92
-0.998482, 181, 97, 212, 112
-0.998482, 281, 229, 312, 244
-0.998482, 121, 157, 152, 172
-0.998484, 285, 109, 316, 124
-0.998484, 201, 83, 232, 98
-0.998486, 89, 137, 152, 152
-0.998488, 201, 95, 232, 110
-0.998491, 201, 109, 232, 124
-0.998491, 153, 131, 216, 146
-0.998493, 169, 119, 232, 134
-0.998493, 297, 109, 360, 124
-0.998493, 169, 69, 232, 84
-0.998494, 193, 83, 256, 98
-0.998494, 257, 87, 288, 102
-0.998494, 309, 221, 340, 236
-0.998497, 201, 69, 232, 84
-0.998499, 93, 139, 124, 154
-0.998499, 201, 101, 232, 116
-0.9985, 185, 183, 216, 198
-0.9985, 89, 145, 152, 160
-0.998501, 257, 105, 320, 120
-0.998503, 177, 189, 240, 204
-0.998505, 129, 95, 192, 110
-0.998506, 193, 205, 224, 220
-0.998506, 129, 109, 192, 124
-0.998508, 129, 103, 192, 118
-0.998508, 225, 121, 288, 136
-0.998508, 49, 1, 176, 32
-0.998509, 237, 145, 268, 160
-0.99851, 297, 115, 360, 130
-0.998511, 273, 223, 336, 238
-0.998511, 273, 117, 304, 132
-0.998512, 137, 121, 168, 136
-0.998513, 201, 203, 264, 218
-0.998514, 257, 199, 288, 214
-0.998514, 137, 79, 168, 94
-0.998514, 161, 71, 192, 86
-0.998514, 129, 85, 192, 100
-0.998514, 185, 123, 216, 138
-0.998514, 33, 37, 160, 68
-0.998516, 129, 115, 192, 130
-0.998517, 117, 147, 148, 162
-0.998519, 129, 77, 192, 92
-0.99852, 233, 85, 296, 100
-0.998522, 201, 195, 264, 210
-0.998523, 281, 223, 312, 238
-0.998523, 245, 199, 276, 214
-0.998523, 241, 225, 304, 240
-0.998525, 161, 199, 224, 214
-0.998525, 193, 131, 256, 146
-0.998525, 129, 167, 192, 182
-0.998529, 273, 83, 336, 98
-0.998529, 65, 139, 128, 154
-0.998531, 237, 137, 268, 152
-0.998532, 97, 181, 160, 196
-0.998533, 369, 185, 496, 216
-0.998533, 257, 101, 288, 116
-0.998535, 133, 87, 164, 102
-0.998536, 193, 75, 256, 90
-0.998536, 249, 99, 312, 114
-0.998537, 181, 193, 212, 208
-0.998537, 293, 225, 324, 240
-0.998538, 229, 199, 260, 214
-0.998538, 257, 93, 288, 108
-0.998539, 137, 143, 168, 158
-0.99854, 225, 113, 256, 128
-0.998541, 297, 103, 360, 118
-0.998542, 161, 205, 224, 220
-0.998543, 89, 101, 152, 116
-0.998543, 133, 115, 164, 130
-0.998543, 181, 69, 212, 84
-0.998545, 241, 65, 304, 80
-0.998547, 81, 49, 208, 80
-0.998547, 241, 113, 272, 128
-0.998548, 209, 155, 272, 170
-0.998549, 281, 249, 344, 264
-0.998549, 249, 71, 312, 86
-0.998549, 273, 255, 336, 270
-0.998549, 129, 123, 192, 138
-0.998549, 129, 65, 192, 80
-0.998552, 209, 163, 272, 178
-0.998552, 193, 63, 256, 78
-0.998553, 113, 71, 176, 86
-0.998554, 177, 183, 240, 198
-0.998555, 257, 79, 288, 94
-0.998556, 241, 107, 272, 122
-0.998556, 257, 197, 320, 212
-0.998559, 137, 161, 200, 176
-0.998559, 225, 119, 256, 134
-0.998559, 297, 79, 360, 94
-0.99856, 73, 163, 136, 178
-0.998561, 233, 193, 296, 208
-0.998561, 233, 127, 296, 142
-0.998562, 281, 121, 344, 136
-0.998563, 273, 73, 336, 88
-0.998565, 133, 99, 164, 114
-0.998565, 137, 141, 200, 156
-0.998567, 241, 97, 272, 112
-0.998568, 257, 107, 288, 122
-0.998568, 89, 69, 152, 84
-0.998569, 137, 71, 168, 86
-0.99857, 113, 133, 176, 148
-0.998571, 309, 103, 340, 118
-0.998571, 225, 67, 256, 82
-0.998572, 169, 165, 232, 180
-0.998573, 233, 253, 296, 268
-0.998574, 177, 177, 240, 192
-0.998574, 273, 67, 336, 82
-0.998574, 133, 109, 164, 124
-0.998574, 309, 111, 340, 126
-0.998575, 81, 301, 208, 332
-0.998576, 297, 193, 360, 208
-0.998576, 129, 179, 192, 194
-0.998576, 321, 119, 384, 134
-0.998576, 109, 141, 140, 156
-0.998577, 133, 93, 164, 108
-0.998578, 261, 119, 292, 134
-0.998578, 89, 129, 152, 144
-0.99858, 233, 137, 296, 152
-0.998582, 237, 153, 268, 168
-0.998583, 185, 259, 248, 274
-0.998583, 121, 171, 152, 186
-0.998584, 81, 95, 144, 110
-0.998587, 97, 79, 160, 94
-0.998588, 297, 97, 360, 112
-0.998588, 209, 147, 272, 162
-0.99859, 121, 163, 152, 178
-0.998592, 241, 63, 272, 78
-0.998593, 329, 191, 392, 206
-0.998594, 261, 113, 292, 128
-0.998594, 361, 215, 424, 230
-0.998595, 121, 137, 152, 152
-0.998595, 321, 217, 384, 232
-0.998596, 233, 187, 296, 202
-0.998596, 153, 189, 216, 204
-0.998596, 97, 89, 160, 104
-0.998598, 225, 107, 256, 122
-0.9986, 89, 123, 152, 138
-0.998601, 129, 173, 192, 188
-0.998603, 313, 65, 344, 320
-0.998604, 97, 157, 160, 172
-0.998604, 97, 21, 224, 52
-0.998605, 257, 71, 288, 86
-0.998606, 209, 139, 272, 154
-0.998606, 169, 159, 232, 174
-0.998607, 169, 137, 232, 152
-0.998607, 209, 169, 272, 184
-0.998608, 233, 153, 296, 168
-0.998608, 169, 63, 232, 78
-0.998608, 201, 189, 264, 204
-0.998609, 73, 179, 136, 194
-0.99861, 297, 89, 360, 104
-0.99861, 257, 203, 320, 218
-0.99861, 225, 101, 256, 116
-0.998611, 105, 95, 168, 110
-0.998611, 273, 99, 336, 114
-0.998612, 129, 193, 192, 208
-0.998613, 241, 247, 304, 262
-0.998613, 25, 315, 88, 330
-0.998613, 73, 107, 136, 122
-0.998613, 273, 231, 336, 246
-0.998613, 313, 245, 376, 260
-0.998614, 241, 231, 304, 246
-0.998615, 241, 259, 304, 274
-0.998615, 345, 229, 408, 244
-0.998616, 305, 119, 336, 134
-0.998616, 305, 223, 368, 238
-0.998617, 285, 115, 316, 130
-0.998619, 137, 129, 168, 144
-0.998619, 133, 137, 164, 152
-0.998619, 53, 1, 84, 128
-0.99862, 187, 129, 202, 256
-0.998621, 245, 97, 260, 224
-0.998621, 221, 89, 252, 104
-0.998643, 241, 89, 272, 104
-0.998644, 273, 111, 304, 126
-0.998647, 221, 95, 252, 110
-0.998698, 33, 49, 160, 80
-0.998699, 193, 129, 208, 256
-0.998766, 153, 129, 168, 256
-0.998767, 153, 65, 168, 192
-0.998791, 299, 97, 314, 224
-0.998792, 17, 249, 144, 312
-0.998814, 251, 49, 266, 176
-0.998815, 353, 25, 480, 88
-0.998819, 45, 177, 76, 304
-0.998824, 81, 281, 208, 312
-0.99883, 353, 65, 480, 96
-0.998833, 131, 97, 146, 224
-0.998843, 125, 129, 140, 256
-0.998852, 319, 161, 334, 288
-0.998855, 277, 97, 292, 224
-0.998862, 273, 21, 400, 52
-0.998878, 305, 285, 432, 316
-0.998891, 141, 49, 156, 176
-0.998891, 1, 25, 128, 56
-0.998897, 177, 45, 304, 76
-0.998898, 17, 217, 144, 248
-0.998906, 253, 97, 268, 224
-0.998916, 361, 33, 392, 288
-0.998916, 225, 97, 240, 224
-0.99894, 385, 97, 448, 224
-0.998951, 181, 113, 196, 240
-0.998963, 409, 49, 472, 176
-0.998971, 251, 145, 266, 272
-0.998976, 1, 137, 500, 200
-0.99898, 321, 269, 448, 300
-0.998996, 131, 145, 146, 272
-0.999023, 147, 129, 162, 256
-0.999024, 231, 97, 246, 224
-0.999028, 347, 113, 362, 240
-0.999038, 223, 49, 238, 176
-0.99905, 293, 113, 308, 240
-0.999053, 137, 145, 152, 272
-0.999053, 303, 177, 318, 304
-0.999063, 237, 145, 252, 272
-0.999063, 361, 177, 376, 304
-0.999065, 233, 49, 248, 176
-0.999072, 281, 161, 296, 288
-0.999081, 33, 265, 160, 296
-0.999083, 321, 97, 336, 224
-0.999083, 283, 97, 298, 224
-0.999089, 279, 33, 294, 160
-0.999091, 81, 269, 208, 300
-0.999092, 195, 209, 210, 333
-0.999097, 153, 17, 168, 144
-0.999098, 351, 161, 366, 288
-0.999099, 289, 49, 416, 80
-0.999106, 209, 13, 336, 44
-0.999113, 185, 49, 200, 176
-0.999114, 119, 145, 134, 272
-0.999116, 367, 177, 382, 304
-0.999122, 181, 161, 196, 288
-0.999132, 259, 97, 274, 224
-0.999132, 307, 97, 322, 224
-0.999133, 293, 209, 308, 333
-0.999139, 315, 97, 330, 224
-0.999142, 83, 97, 98, 224
-0.999148, 205, 49, 220, 176
-0.999156, 109, 129, 124, 256
-0.999161, 287, 161, 302, 288
-0.999161, 169, 177, 184, 304
-0.999163, 193, 33, 208, 160
-0.999167, 113, 225, 240, 256
-0.999169, 161, 97, 176, 224
-0.999182, 369, 229, 496, 260
-0.999185, 199, 113, 214, 240
-0.999191, 313, 209, 328, 333
-0.999194, 159, 177, 174, 304
-0.999199, 311, 161, 326, 288
-0.999201, 113, 241, 240, 272
-0.999205, 89, 129, 104, 256
-0.999214, 285, 33, 300, 160
-0.999215, 341, 145, 356, 272
-0.999218, 325, 161, 340, 288
-0.999221, 1, 13, 128, 44
-0.99923, 363, 113, 378, 240
-0.999231, 129, 49, 144, 176
-0.999234, 225, 161, 240, 288
-0.999236, 301, 33, 316, 160
-0.999247, 353, 113, 368, 240
-0.999248, 291, 33, 306, 160
-0.999251, 153, 177, 168, 304
-0.999253, 175, 177, 190, 304
-0.999257, 263, 49, 278, 176
-0.999273, 331, 161, 346, 288
-0.999276, 289, 9, 416, 40
-0.999277, 307, 33, 322, 160
-0.999281, 83, 145, 98, 272
-0.999287, 297, 161, 312, 288
-0.999292, 255, 193, 270, 320
-0.999299, 217, 65, 232, 192
-0.999303, 257, 49, 272, 176
-0.999305, 239, 49, 254, 176
-0.99931, 317, 33, 332, 160
-0.99932, 271, 97, 286, 224
-0.999325, 177, 65, 192, 192
-0.999327, 163, 33, 178, 160
-0.999328, 77, 81, 92, 208
-0.99933, 223, 1, 238, 128
-0.999341, 245, 49, 260, 176
-0.999342, 147, 81, 162, 208
-0.999348, 199, 65, 214, 192
-0.999351, 181, 209, 196, 333
-0.999351, 271, 49, 286, 176
-0.999351, 231, 145, 246, 272
-0.999355, 351, 49, 366, 176
-0.999357, 239, 97, 254, 224
-0.999359, 193, 81, 208, 208
-0.999369, 353, 209, 368, 333
-0.999375, 141, 97, 156, 224
-0.999376, 143, 177, 158, 304
-0.999377, 187, 177, 202, 304
-0.999378, 171, 129, 186, 256
-0.999387, 423, 177, 438, 304
-0.999387, 375, 129, 390, 256
-0.999391, 101, 161, 116, 288
-0.999394, 91, 81, 106, 208
-0.999399, 213, 1, 228, 128
-0.999399, 327, 81, 342, 208
-0.999404, 341, 97, 356, 224
-0.99941, 231, 193, 246, 320
-0.999425, 225, 1, 352, 32
-0.999428, 243, 177, 258, 304
-0.999431, 277, 209, 292, 333
-0.999437, 343, 193, 358, 320
-0.999437, 433, 129, 496, 256
-0.99944, 77, 129, 92, 256
-0.99944, 381, 145, 396, 272
-0.999445, 117, 97, 132, 224
-0.999445, 205, 1, 220, 128
-0.999446, 49, 65, 80, 320
-0.999451, 249, 209, 264, 333
-0.999454, 1, 1, 128, 32
-0.99946, 433, 209, 448, 333
-0.999468, 231, 1, 246, 128
-0.999471, 201, 177, 216, 304
-0.999472, 95, 129, 110, 256
-0.999474, 137, 1, 152, 128
-0.999477, 377, 193, 392, 320
-0.999478, 373, 65, 404, 320
-0.999479, 417, 177, 432, 304
-0.999483, 87, 33, 102, 160
-0.999488, 253, 1, 268, 128
-0.999489, 261, 177, 276, 304
-0.999494, 403, 177, 418, 304
-0.999494, 173, 17, 188, 144
-0.999504, 371, 65, 386, 192
-0.999504, 125, 177, 140, 304
-0.999508, 349, 1, 380, 128
-0.999512, 237, 193, 252, 320
-0.999513, 271, 177, 286, 304
-0.999514, 397, 177, 412, 304
-0.999518, 287, 209, 302, 333
-0.999519, 323, 33, 338, 160
-0.999519, 369, 129, 384, 256
-0.99958, 393, 65, 424, 320
-0.999605, 319, 227, 334, 242
-0.999605, 245, 129, 260, 144
-0.999606, 239, 69, 254, 84
-0.999606, 247, 63, 262, 78
-0.999606, 141, 149, 156, 164
-0.999606, 277, 65, 292, 80
-0.999607, 287, 117, 302, 132
-0.999607, 61, 313, 76, 328
-0.999607, 219, 67, 234, 82
-0.999607, 107, 179, 122, 194
-0.999607, 235, 255, 250, 270
-0.999608, 231, 249, 246, 264
-0.999608, 247, 251, 262, 266
-0.999608, 359, 121, 374, 136
-0.999608, 323, 113, 338, 128
-0.999608, 359, 217, 374, 232
-0.999609, 75, 91, 90, 106
-0.99961, 285, 253, 300, 268
-0.99961, 295, 117, 310, 132
-0.999611, 15, 313, 30, 328
-0.999611, 223, 119, 238, 134
-0.999611, 275, 199, 290, 214
-0.999612, 191, 197, 206, 212
-0.999612, 369, 249, 384, 264
-0.999613, 53, 313, 68, 328
-0.999613, 257, 201, 272, 216
-0.999613, 281, 247, 296, 262
-0.999615, 9, 317, 24, 332
-0.999615, 287, 241, 302, 256
-0.999615, 243, 257, 258, 272
-0.999615, 303, 247, 318, 262
-0.999617, 313, 241, 328, 256
-0.999617, 87, 165, 102, 180
-0.999617, 249, 227, 264, 242
-0.999618, 355, 151, 370, 166
-0.999619, 285, 231, 300, 246
-0.999619, 151, 85, 166, 100
-0.999619, 301, 115, 316, 130
-0.99962, 253, 71, 268, 86
-0.99962, 319, 125, 334, 140
-0.99962, 337, 173, 352, 188
-0.999622, 339, 195, 354, 210
-0.999622, 247, 79, 262, 94
-0.999623, 133, 179, 148, 194
-0.999623, 145, 139, 160, 154
-0.999626, 255, 237, 270, 252
-0.999627, 277, 105, 292, 120
-0.999628, 253, 87, 268, 102
-0.999628, 341, 161, 356, 176
-0.99963, 151, 77, 166, 92
-0.99963, 183, 189, 198, 204
-0.999633, 131, 159, 146, 174
-0.999633, 225, 101, 240, 116
-0.999633, 197, 197, 212, 212
-0.999633, 187, 135, 202, 150
-0.999634, 93, 141, 108, 156
-0.999635, 311, 247, 326, 262
-0.999636, 179, 195, 194, 210
-0.999636, 255, 243, 270, 258
-0.999636, 237, 193, 252, 208
-0.999636, 153, 93, 168, 108
-0.999636, 279, 83, 294, 98
-0.999637, 309, 119, 324, 134
-0.999638, 223, 111, 238, 126
-0.999638, 113, 175, 128, 190
-0.99964, 293, 231, 308, 246
-0.99964, 121, 147, 136, 162
-0.999641, 313, 109, 328, 124
-0.999641, 317, 263, 332, 278
-0.999642, 319, 219, 334, 234
-0.999642, 107, 139, 122, 154
-0.999642, 239, 153, 254, 168
-0.999642, 201, 205, 216, 220
-0.999643, 329, 195, 344, 210
-0.999644, 217, 205, 232, 220
-0.999644, 319, 119, 334, 134
-0.999645, 123, 155, 138, 170
-0.999645, 153, 115, 168, 130
-0.999646, 85, 131, 100, 146
-0.999647, 1, 161, 64, 288
-0.999647, 337, 33, 368, 288
-0.999648, 235, 63, 250, 78
-0.999649, 295, 225, 310, 240
-0.999651, 153, 109, 168, 124
-0.999652, 197, 185, 212, 200
-0.999653, 293, 249, 308, 264
-0.999654, 253, 253, 268, 268
-0.999655, 277, 89, 292, 104
-0.999657, 247, 85, 262, 100
-0.999658, 287, 247, 302, 262
-0.999658, 231, 159, 246, 174
-0.999659, 47, 311, 62, 326
-0.999661, 153, 99, 168, 114
-0.999662, 269, 201, 284, 216
-0.999662, 283, 223, 298, 238
-0.999665, 153, 133, 168, 148
-0.999666, 131, 153, 146, 168
-0.999668, 249, 159, 264, 174
-0.999668, 251, 129, 266, 144
-0.99967, 153, 121, 168, 136
-0.999671, 225, 95, 240, 110
-0.999673, 301, 121, 316, 136
-0.999673, 241, 203, 256, 218
-0.999676, 153, 127, 168, 142
-0.999676, 137, 137, 152, 152
-0.999677, 311, 225, 326, 240
-0.999678, 263, 201, 278, 216
-0.999679, 263, 69, 278, 84
-0.99968, 117, 163, 132, 178
-0.999682, 181, 161, 196, 176
-0.999682, 227, 203, 242, 218
-0.999684, 131, 173, 146, 188
-0.999685, 123, 169, 138, 184
-0.999685, 303, 227, 318, 242
-0.999688, 277, 111, 292, 126
-0.99969, 189, 191, 204, 206
-0.999692, 151, 139, 166, 154
-0.999693, 123, 161, 138, 176
-0.999696, 207, 205, 222, 220
-0.999696, 131, 137, 146, 152
-0.999697, 249, 153, 264, 168
-0.9997, 117, 141, 132, 156
-0.999702, 225, 89, 240, 104
-0.999707, 133, 165, 148, 180
-0.999711, 287, 111, 302, 126
-0.999712, 253, 81, 268, 96
-0.999713, 151, 69, 166, 84
-0.999716, 233, 199, 248, 214
-0.999722, 315, 103, 330, 118
-0.999729, 245, 137, 260, 152
-0.999753, 131, 147, 146, 162
-0.999754, 85, 209, 116, 333
-0.999777, 123, 141, 138, 156
-1.00006, 29, 33, 60, 288
-1.00014, 409, 33, 440, 288
-1.00019, 433, 65, 464, 320
-1.00021, 449, 33, 480, 288
-1.00022, 29, 49, 60, 176
-1.00022, 389, 49, 420, 176
-1.00028, 421, 65, 452, 320
-1.0004, 465, 65, 496, 320
-1.00041, 1, 257, 500, 320
-1.00044, 333, 1, 364, 128
-1.00052, 433, 33, 496, 288
-1.00058, 409, 1, 472, 128
-1.00059, 73, 209, 104, 333
-1.00068, 369, 1, 400, 128
-1.00071, 393, 1, 424, 128
-1.00083, 17, 33, 48, 288
-1.00089, 409, 49, 440, 176
-1.00095, 41, 17, 72, 144
-1.00128, 5, 1, 36, 256
-1.00151, 21, 145, 52, 272
-1.00172, 433, 49, 496, 176
-1.00177, 421, 49, 452, 176
-1.00196, 413, 1, 444, 128
-1.002, 1, 233, 500, 296
-1.00211, 1, 113, 64, 240
-1.00213, 21, 97, 52, 224
-1.00226, 381, 1, 412, 128
-1.00233, 1, 209, 64, 333
-1.00252, 33, 177, 64, 304
-1.00256, 9, 65, 72, 192
-1.00256, 61, 209, 92, 333
-1.00279, 1, 33, 64, 288
-1.0028, 433, 33, 464, 160
-1.00355, 453, 49, 484, 176
-1.00392, 17, 49, 48, 176
-1.00436, 465, 33, 496, 160
-1.00462, 409, 97, 472, 224
-1.00471, 21, 209, 52, 333
-1.00503, 433, 1, 496, 128
-1.01022, 1, 17, 64, 144
