1970
-0.365475, 1, 129, 500, 375
-0.558503, 97, 1, 352, 375
-0.58018, 1, 1, 500, 375
-0.610279, 225, 1, 480, 375
-0.622693, 1, 33, 500, 288
-0.628882, 65, 129, 320, 375
-0.692279, 193, 129, 448, 375
-0.753208, 129, 33, 384, 288
-0.794889, 1, 1, 256, 375
-0.820046, 225, 33, 480, 288
-0.857972, 97, 129, 224, 375
-0.873093, 193, 129, 320, 375
-0.877288, 1, 241, 500, 368
-0.890089, 241, 97, 368, 352
-0.891409, 1, 145, 500, 272
-0.892081, 193, 1, 320, 375
-0.897399, 1, 193, 500, 320
-0.899065, 113, 1, 240, 375
-0.903979, 33, 241, 288, 368
-0.905299, 145, 129, 272, 375
-0.905434, 321, 1, 448, 375
-0.911536, 129, 241, 384, 368
-0.912083, 257, 1, 384, 375
-0.91312, 289, 129, 416, 375
-0.916883, 113, 33, 240, 288
-0.917204, 1, 97, 500, 224
-0.918404, 65, 193, 320, 320
-0.919401, 161, 33, 288, 288
-0.91982, 337, 129, 464, 375
-0.920735, 1, 1, 128, 375
-0.923385, 49, 129, 176, 375
-0.923731, 33, 33, 288, 288
-0.923812, 321, 33, 448, 288
-0.925033, 225, 241, 480, 368
-0.927154, 193, 193, 448, 320
-0.927554, 161, 241, 288, 368
-0.932158, 257, 1, 384, 256
-0.933427, 97, 129, 352, 256
-0.935494, 81, 225, 208, 352
-0.936277, 97, 145, 224, 272
-0.936863, 65, 1, 192, 375
-0.93915, 169, 241, 232, 368
-0.940316, 201, 241, 264, 368
-0.940681, 369, 1, 496, 375
-0.941444, 1, 65, 128, 320
-0.943796, 225, 241, 352, 368
-0.945162, 97, 81, 352, 208
-0.948879, 193, 129, 448, 256
-0.948895, 273, 241, 400, 368
-0.949314, 1, 97, 256, 224
-0.950765, 97, 97, 224, 224
-0.951063, 225, 241, 288, 368
-0.951868, 169, 193, 232, 320
-0.952325, 17, 113, 144, 240
-0.953024, 161, 129, 288, 256
-0.954712, 49, 1, 176, 256
-0.95493, 113, 129, 176, 256
-0.955308, 169, 249, 232, 312
-0.955761, 329, 209, 392, 336
-0.956564, 17, 241, 144, 368
-0.956611, 257, 81, 500, 208
-0.956981, 337, 241, 464, 368
-0.958138, 89, 225, 152, 352
-0.958537, 273, 241, 336, 368
-0.958668, 145, 241, 208, 368
-0.958686, 161, 97, 224, 224
-0.958819, 129, 281, 192, 344
-0.959266, 241, 113, 368, 240
-0.959301, 177, 65, 304, 192
-0.959576, 129, 193, 256, 320
-0.959874, 249, 241, 312, 368
-0.960656, 9, 297, 72, 360
-0.960853, 209, 1, 336, 256
-0.96118, 169, 145, 232, 272
-0.961584, 113, 145, 176, 208
-0.961609, 89, 297, 152, 360
-0.961952, 273, 193, 400, 320
-0.96292, 1, 49, 500, 176
-0.963142, 57, 313, 120, 375
-0.963276, 265, 273, 328, 336
-0.963622, 321, 97, 448, 224
-0.963953, 353, 241, 416, 368
-0.964744, 345, 257, 408, 320
-0.964749, 297, 241, 360, 368
-0.964979, 121, 313, 184, 375
-0.965337, 161, 161, 224, 224
-0.965968, 201, 265, 264, 328
-0.966276, 161, 281, 224, 344
-0.966664, 65, 241, 128, 368
-0.966667, 273, 297, 336, 360
-0.967, 305, 265, 368, 328
-0.967118, 265, 249, 328, 312
-0.967187, 313, 161, 376, 288
-0.967313, 185, 121, 248, 184
-0.967454, 169, 225, 232, 288
-0.96764, 225, 281, 288, 344
-0.967907, 201, 289, 264, 352
-0.968138, 337, 145, 464, 272
-0.968267, 129, 81, 192, 208
-0.968341, 265, 97, 328, 224
-0.968392, 257, 33, 500, 160
-0.968423, 201, 129, 264, 256
-0.968556, 225, 313, 288, 375
-0.9697, 289, 145, 416, 272
-0.969817, 193, 193, 320, 320
-0.969935, 65, 281, 128, 344
-0.970527, 33, 313, 160, 375
-0.971081, 153, 137, 216, 200
-0.971087, 217, 65, 280, 192
-0.97114, 129, 281, 256, 344
-0.971257, 137, 145, 200, 272
-0.971387, 369, 33, 496, 288
-0.971521, 97, 161, 224, 224
-0.97153, 337, 193, 464, 320
-0.971628, 1, 129, 64, 256
-0.971842, 297, 289, 360, 352
-0.971864, 25, 241, 88, 368
-0.972113, 161, 105, 224, 168
-0.972263, 1, 145, 256, 272
-0.973215, 137, 193, 200, 320
-0.97346, 321, 49, 448, 176
-0.973555, 185, 81, 248, 208
-0.973629, 249, 297, 312, 360
-0.973687, 41, 281, 104, 344
-0.97379, 201, 241, 232, 368
-0.973919, 81, 289, 208, 352
-0.97408, 169, 201, 232, 264
-0.974267, 33, 313, 96, 375
-0.974269, 1, 121, 64, 184
-0.974486, 73, 289, 104, 352
-0.974621, 369, 97, 496, 224
-0.974718, 1, 289, 128, 352
-0.97485, 105, 129, 168, 375
-0.974866, 289, 97, 352, 224
-0.974944, 161, 33, 416, 160
-0.975152, 185, 97, 248, 160
-0.97522, 241, 257, 304, 320
-0.975227, 137, 257, 200, 320
-0.975511, 225, 289, 352, 352
-0.975686, 265, 129, 328, 192
-0.975716, 117, 297, 148, 360
-0.975926, 89, 249, 152, 312
-0.975969, 177, 129, 240, 375
-0.976, 353, 145, 416, 272
-0.976214, 177, 289, 304, 352
-0.976236, 89, 177, 152, 304
-0.976263, 213, 241, 244, 368
-0.976289, 65, 97, 128, 224
-0.976315, 225, 105, 288, 168
-0.976362, 49, 65, 176, 192
-0.976474, 161, 249, 288, 312
-0.976721, 193, 145, 256, 208
-0.976757, 141, 281, 172, 344
-0.976772, 393, 241, 456, 368
-0.976885, 81, 233, 208, 296
-0.976912, 321, 97, 384, 224
-0.976971, 209, 313, 336, 375
-0.976996, 289, 145, 352, 208
-0.977136, 177, 241, 208, 368
-0.977183, 89, 273, 152, 336
-0.977196, 17, 137, 144, 200
-0.977286, 321, 233, 384, 296
-0.977453, 33, 121, 96, 184
-0.977526, 201, 129, 264, 375
-0.977682, 105, 81, 168, 208
-0.977747, 321, 289, 384, 352
-0.97775, 113, 241, 176, 368
-0.977785, 193, 177, 256, 240
-0.977959, 81, 193, 208, 256
-0.977992, 289, 257, 416, 320
-0.978041, 113, 313, 240, 375
-0.978172, 97, 137, 224, 200
-0.978195, 369, 193, 432, 320
-0.978356, 17, 297, 48, 360
-0.978419, 81, 257, 208, 320
-0.978452, 233, 241, 264, 368
-0.978543, 253, 241, 284, 368
-0.978594, 129, 289, 160, 352
-0.978698, 209, 257, 336, 320
-0.978731, 241, 113, 304, 240
-0.978816, 165, 241, 196, 368
-0.978847, 321, 137, 384, 200
-0.97894, 201, 73, 264, 136
-0.97894, 1, 1, 500, 128
-0.979095, 73, 113, 136, 176
-0.979217, 113, 113, 240, 176
-0.979258, 153, 129, 216, 375
-0.979377, 1, 145, 64, 208
-0.979548, 97, 49, 224, 176
-0.979595, 165, 281, 196, 344
-0.979665, 193, 193, 256, 320
-0.979702, 25, 113, 88, 240
-0.979864, 353, 225, 416, 288
-0.980018, 61, 297, 92, 360
-0.980019, 289, 145, 352, 272
-0.980067, 357, 225, 388, 352
-0.980097, 365, 249, 396, 312
-0.980177, 305, 177, 368, 240
-0.980234, 225, 145, 288, 208
-0.980384, 129, 169, 192, 232
-0.980573, 273, 289, 400, 352
-0.980577, 273, 65, 400, 192
-0.980588, 237, 281, 268, 344
-0.980648, 189, 225, 220, 352
-0.980831, 33, 265, 160, 328
-0.981032, 181, 145, 212, 272
-0.981065, 145, 137, 272, 200
-0.981198, 129, 65, 192, 320
-0.981346, 425, 225, 488, 352
-0.981395, 393, 249, 456, 312
-0.981534, 201, 313, 264, 375
-0.981539, 257, 289, 288, 352
-0.981794, 137, 209, 200, 272
-0.981941, 341, 193, 372, 320
-0.981957, 273, 273, 304, 336
-0.982088, 201, 105, 232, 168
-0.982126, 265, 241, 296, 368
-0.982137, 353, 281, 416, 344
-0.982156, 177, 105, 304, 168
-0.982191, 153, 281, 184, 344
-0.982195, 177, 313, 240, 375
-0.98223, 193, 201, 256, 264
-0.982246, 5, 313, 36, 375
-0.982274, 161, 177, 192, 304
-0.982298, 93, 225, 124, 352
-0.982348, 105, 185, 168, 248
-0.982494, 17, 113, 144, 176
-0.982532, 209, 265, 240, 328
-0.98274, 305, 145, 432, 208
-0.982759, 97, 209, 160, 272
-0.98277, 121, 121, 184, 184
-0.982803, 105, 305, 136, 368
-0.982837, 141, 305, 172, 368
-0.982907, 285, 249, 316, 312
-0.982989, 409, 97, 472, 224
-0.983171, 117, 129, 148, 256
-0.983265, 173, 161, 204, 224
-0.983326, 321, 1, 448, 128
-0.983341, 289, 129, 352, 375
-0.983371, 93, 305, 124, 368
-0.983439, 273, 193, 336, 320
-0.983452, 241, 137, 368, 200
-0.983531, 121, 137, 152, 200
-0.983536, 189, 97, 220, 160
-0.983603, 205, 313, 236, 375
-0.983622, 193, 129, 320, 192
-0.983694, 257, 97, 320, 352
-0.983704, 33, 313, 64, 375
-0.983725, 145, 161, 272, 224
-0.983737, 225, 313, 256, 375
-0.983748, 145, 313, 208, 375
-0.983756, 353, 249, 384, 312
-0.984033, 81, 137, 144, 200
-0.984058, 205, 289, 236, 352
-0.984059, 17, 121, 48, 184
-0.984087, 197, 81, 228, 208
-0.984206, 1, 49, 256, 176
-0.984236, 277, 241, 308, 368
-0.984252, 153, 81, 216, 144
-0.984273, 265, 105, 328, 168
-0.984348, 353, 241, 480, 304
-0.984394, 305, 313, 368, 375
-0.984421, 189, 121, 220, 184
-0.984465, 313, 113, 376, 176
-0.984554, 153, 169, 184, 232
-0.984563, 193, 241, 256, 304
-0.984647, 225, 273, 256, 336
-0.984726, 181, 209, 212, 272
-0.984765, 321, 289, 448, 352
-0.98508, 257, 313, 384, 375
-0.985112, 321, 169, 448, 232
-0.985139, 177, 257, 208, 320
-0.985365, 345, 169, 408, 232
-0.985534, 137, 233, 200, 296
-0.985537, 65, 257, 128, 320
-0.985575, 93, 265, 124, 328
-0.985616, 1, 161, 128, 288
-0.985641, 233, 193, 296, 320
-0.985683, 433, 97, 496, 224
-0.985714, 181, 185, 212, 248
-0.98577, 337, 289, 368, 352
-0.985922, 197, 249, 228, 312
-0.986111, 29, 289, 60, 352
-0.986129, 173, 97, 204, 224
-0.986144, 369, 257, 432, 320
-0.986173, 305, 49, 368, 176
-0.986182, 1, 65, 64, 192
-0.986227, 317, 153, 348, 216
-0.986301, 89, 129, 152, 256
-0.986417, 349, 225, 380, 288
-0.986424, 81, 241, 112, 368
-0.986482, 177, 281, 208, 344
-0.986497, 409, 297, 472, 360
-0.986634, 305, 289, 336, 352
-0.986669, 161, 185, 288, 248
-0.986725, 177, 81, 304, 144
-0.986792, 325, 97, 356, 224
-0.98684, 225, 65, 352, 192
-0.986922, 285, 281, 316, 344
-0.987038, 289, 233, 416, 296
-0.987063, 153, 225, 184, 352
-0.987085, 233, 97, 296, 352
-0.987091, 97, 89, 224, 152
-0.987105, 261, 313, 292, 375
-0.987116, 189, 281, 220, 344
-0.987124, 13, 113, 44, 240
-0.987149, 321, 265, 352, 328
-0.987162, 329, 161, 360, 288
-0.987287, 337, 265, 464, 328
-0.987349, 317, 241, 348, 368
-0.98736, 377, 249, 408, 312
-0.987418, 161, 313, 288, 375
-0.987448, 297, 241, 360, 304
-0.987455, 273, 297, 304, 360
-0.987491, 129, 97, 192, 160
-0.987534, 129, 313, 160, 375
-0.987549, 369, 241, 400, 368
-0.987605, 305, 121, 432, 184
-0.987627, 333, 265, 364, 328
-0.987662, 257, 265, 288, 328
-0.987668, 257, 17, 384, 144
-0.987754, 313, 129, 376, 375
-0.987757, 153, 81, 184, 208
-0.987838, 33, 281, 288, 344
-0.987856, 185, 233, 216, 296
-0.987913, 301, 257, 332, 320
-0.987918, 89, 89, 152, 152
-0.987921, 333, 177, 364, 240
-0.987977, 273, 249, 304, 312
-0.988101, 169, 137, 200, 200
-0.98812, 161, 193, 192, 256
-0.988168, 9, 145, 40, 208
-0.988175, 377, 225, 440, 288
-0.988196, 45, 305, 76, 368
-0.988277, 101, 177, 132, 304
-0.988286, 433, 281, 496, 344
-0.988366, 241, 233, 304, 296
-0.988549, 165, 249, 196, 312
-0.988576, 201, 129, 232, 256
-0.988644, 285, 313, 316, 375
-0.988689, 161, 225, 288, 288
-0.988757, 241, 313, 272, 375
-0.988781, 241, 161, 368, 224
-0.988785, 25, 145, 88, 208
-0.9888, 385, 97, 448, 224
-0.988827, 1, 113, 32, 240
-0.988833, 193, 1, 256, 375
-0.988943, 37, 129, 68, 192
-0.98901, 377, 281, 440, 344
-0.989065, 213, 113, 244, 176
-0.989074, 257, 113, 384, 176
-0.989086, 89, 301, 152, 332
-0.989093, 41, 97, 104, 160
-0.989099, 289, 225, 320, 352
-0.989126, 129, 97, 160, 224
-0.98918, 133, 145, 164, 208
-0.989261, 193, 33, 256, 288
-0.989289, 169, 33, 232, 288
-0.989289, 337, 113, 368, 240
-0.989327, 121, 1, 184, 375
-0.989398, 25, 297, 88, 328
-0.989506, 161, 165, 224, 196
-0.98953, 193, 161, 320, 224
-0.989535, 77, 313, 108, 375
-0.989541, 65, 113, 192, 176
-0.989541, 129, 289, 192, 320
-0.989544, 217, 137, 248, 200
-0.98959, 345, 201, 408, 264
-0.989618, 193, 249, 448, 312
-0.989636, 1, 241, 128, 304
-0.989708, 169, 1, 232, 375
-0.989751, 345, 97, 408, 224
-0.989782, 81, 265, 112, 328
-0.989786, 241, 65, 304, 192
-0.989812, 169, 253, 232, 284
-0.989873, 153, 257, 184, 320
-0.989904, 1, 65, 128, 192
-0.989908, 273, 97, 304, 224
-0.989931, 185, 97, 216, 224
-0.989991, 17, 345, 80, 375
-0.989997, 121, 313, 184, 344
-0.990007, 321, 313, 448, 375
-0.990028, 5, 121, 36, 184
-0.990036, 17, 273, 80, 336
-0.990071, 265, 277, 328, 308
-0.990113, 129, 73, 192, 136
-0.99012, 273, 257, 336, 288
-0.990122, 313, 209, 376, 272
-0.990127, 353, 137, 480, 200
-0.990135, 161, 277, 224, 308
-0.990205, 129, 281, 384, 344
-0.990213, 305, 297, 368, 328
-0.990281, 389, 233, 420, 296
-0.990288, 65, 289, 128, 320
-0.990298, 49, 305, 112, 336
-0.99031, 177, 121, 240, 152
-0.990318, 149, 145, 180, 272
-0.990354, 321, 73, 448, 136
-0.990396, 105, 201, 136, 264
-0.990423, 17, 193, 144, 256
-0.990442, 329, 313, 392, 375
-0.990457, 305, 193, 432, 256
-0.990458, 209, 233, 336, 296
-0.990458, 201, 185, 232, 248
-0.990478, 1, 333, 64, 364
-0.990482, 305, 241, 336, 368
-0.990522, 225, 321, 288, 352
-0.990526, 17, 161, 144, 224
-0.990569, 25, 241, 56, 368
-0.990593, 9, 125, 72, 156
-0.990614, 209, 273, 272, 304
-0.990635, 337, 253, 400, 284
-0.990659, 197, 145, 228, 208
-0.990673, 201, 321, 264, 352
-0.990708, 105, 145, 168, 176
-0.990741, 113, 161, 176, 192
-0.99075, 65, 317, 128, 348
-0.990765, 265, 301, 328, 332
-0.990771, 349, 297, 380, 360
-0.990781, 41, 117, 104, 148
-0.990803, 321, 1, 384, 375
-0.990818, 177, 73, 240, 136
-0.990824, 433, 313, 496, 375
-0.990837, 169, 241, 232, 272
-0.990864, 201, 193, 232, 320
-0.990873, 89, 321, 152, 352
-0.990873, 329, 241, 360, 368
-0.990915, 33, 249, 288, 312
-0.990927, 393, 193, 456, 320
-0.99095, 361, 177, 392, 304
-0.990981, 1, 301, 64, 332
-0.991018, 1, 145, 64, 176
-0.991023, 233, 273, 296, 304
-0.991028, 313, 253, 376, 284
-0.991056, 97, 121, 128, 184
-0.99106, 169, 221, 232, 252
-0.991063, 217, 1, 280, 375
-0.991069, 341, 201, 372, 264
-0.991079, 65, 193, 128, 320
-0.991109, 17, 321, 80, 352
-0.991114, 169, 205, 232, 236
-0.991164, 297, 313, 328, 375
-0.991168, 273, 313, 336, 344
-0.991179, 153, 321, 216, 352
-0.991194, 409, 241, 440, 368
-0.991203, 145, 1, 208, 375
-0.991243, 249, 81, 280, 208
-0.991253, 361, 225, 392, 288
-0.991257, 137, 277, 200, 308
-0.991266, 321, 49, 448, 112
-0.991279, 185, 333, 248, 364
-0.991293, 113, 301, 176, 332
-0.991298, 153, 177, 216, 208
-0.99131, 261, 113, 292, 240
-0.991336, 257, 273, 500, 336
-0.991338, 265, 133, 328, 164
-0.991348, 185, 141, 248, 172
-0.991359, 153, 193, 216, 224
-0.991387, 305, 265, 368, 296
-0.99139, 33, 225, 288, 288
-0.991393, 337, 217, 464, 280
-0.991398, 73, 125, 136, 156
-0.991404, 225, 289, 288, 320
-0.991416, 89, 281, 152, 312
-0.991434, 369, 297, 496, 360
-0.991442, 177, 265, 240, 296
-0.99145, 409, 49, 472, 176
-0.991452, 361, 249, 424, 280
-0.991475, 313, 141, 376, 172
-0.991476, 177, 105, 240, 136
-0.991491, 321, 9, 448, 72
-0.991495, 341, 241, 372, 368
-0.991514, 221, 249, 252, 312
-0.991524, 193, 181, 256, 212
-0.991547, 249, 317, 312, 348
-0.991568, 97, 333, 160, 364
-0.991578, 273, 225, 336, 288
-0.991594, 221, 65, 252, 192
-0.991595, 73, 169, 136, 232
-0.991605, 225, 125, 288, 156
-0.991613, 425, 241, 488, 304
-0.991618, 1, 305, 256, 368
-0.991618, 217, 1, 280, 256
-0.991641, 329, 241, 392, 272
-0.991655, 297, 309, 360, 340
-0.991675, 369, 113, 496, 176
-0.99171, 173, 193, 204, 320
-0.991745, 129, 325, 192, 356
-0.991749, 65, 209, 128, 272
-0.991751, 241, 73, 368, 136
-0.991758, 33, 137, 96, 168
-0.991774, 25, 333, 88, 364
-0.991812, 25, 145, 56, 208
-0.991831, 97, 97, 128, 224
-0.991831, 317, 145, 348, 272
-0.991855, 241, 301, 304, 332
-0.991861, 145, 153, 208, 184
-0.991861, 137, 133, 200, 164
-0.991862, 337, 265, 400, 296
-0.991865, 417, 293, 480, 324
-0.991875, 337, 137, 368, 200
-0.991876, 65, 345, 128, 375
-0.991879, 265, 289, 328, 320
-0.991888, 225, 145, 288, 176
-0.991901, 161, 309, 224, 340
-0.991908, 117, 161, 148, 224
-0.991917, 201, 289, 264, 320
-0.99193, 113, 173, 176, 204
-0.991951, 177, 321, 240, 352
-0.991957, 349, 145, 380, 272
-0.991958, 153, 313, 184, 375
-0.991959, 81, 129, 144, 375
-0.991963, 97, 313, 352, 375
-0.991985, 429, 289, 460, 352
-0.992001, 321, 309, 384, 340
-0.992004, 265, 129, 296, 192
-0.992009, 57, 233, 120, 296
-0.992028, 393, 145, 456, 272
-0.992043, 125, 265, 156, 328
-0.992048, 153, 289, 216, 320
-0.992054, 129, 177, 384, 240
-0.99206, 97, 221, 160, 252
-0.992068, 117, 81, 148, 208
-0.992085, 201, 109, 264, 140
-0.992101, 193, 221, 256, 252
-0.992102, 289, 281, 352, 312
-0.99213, 209, 65, 240, 192
-0.992138, 249, 257, 312, 288
-0.992143, 105, 201, 168, 232
-0.992153, 281, 153, 344, 184
-0.992158, 345, 277, 408, 308
-0.992174, 89, 249, 152, 280
-0.992174, 305, 325, 368, 356
-0.992175, 217, 241, 280, 304
-0.992176, 377, 281, 440, 312
-0.992184, 97, 225, 128, 288
-0.992201, 137, 233, 200, 264
-0.992209, 153, 101, 216, 132
-0.992229, 297, 173, 360, 204
-0.99223, 305, 97, 336, 224
-0.992231, 209, 309, 272, 340
-0.992233, 137, 261, 200, 292
-0.99224, 233, 145, 264, 208
-0.992244, 249, 117, 312, 148
-0.992251, 113, 133, 176, 164
-0.992256, 257, 185, 384, 248
-0.992258, 41, 285, 104, 316
-0.992275, 237, 249, 268, 312
-0.992275, 325, 289, 356, 352
-0.992283, 185, 309, 248, 340
-0.992291, 193, 209, 256, 240
-0.992302, 329, 169, 392, 200
-0.992312, 129, 193, 192, 224
-0.992318, 305, 185, 368, 216
-0.992328, 205, 81, 236, 144
-0.99233, 177, 289, 240, 320
-0.992335, 329, 293, 392, 324
-0.992364, 401, 129, 464, 375
-0.992379, 321, 157, 384, 188
-0.992383, 1, 333, 32, 364
-0.992388, 353, 229, 416, 260
-0.992398, 289, 113, 352, 176
-0.992423, 385, 305, 448, 368
-0.992425, 25, 297, 56, 328
-0.992436, 65, 329, 128, 360
-0.992447, 417, 297, 448, 360
-0.992449, 69, 301, 100, 332
-0.992453, 337, 181, 400, 212
-0.992457, 249, 113, 280, 176
-0.992472, 177, 193, 240, 224
-0.992478, 201, 89, 264, 120
-0.992485, 289, 245, 352, 276
-0.992486, 81, 113, 144, 144
-0.992494, 273, 117, 336, 148
-0.992497, 165, 217, 196, 280
-0.992502, 193, 233, 256, 264
-0.992511, 137, 205, 200, 236
-0.992521, 177, 313, 208, 375
-0.992528, 81, 261, 144, 292
-0.992531, 137, 221, 200, 252
-0.992541, 89, 233, 152, 264
-0.992554, 109, 309, 140, 340
-0.992562, 153, 49, 216, 176
-0.99258, 105, 189, 168, 220
-0.992582, 193, 169, 256, 200
-0.992585, 129, 293, 160, 324
-0.992586, 121, 113, 152, 176
-0.992586, 137, 249, 200, 280
-0.992588, 33, 345, 64, 375
-0.992591, 49, 265, 112, 296
-0.992594, 361, 261, 424, 292
-0.992596, 193, 313, 224, 375
-0.992599, 17, 145, 48, 176
-0.992602, 73, 49, 136, 176
-0.992604, 209, 325, 240, 356
-0.992618, 193, 157, 256, 188
-0.99262, 25, 149, 88, 180
-0.992635, 225, 333, 288, 364
-0.992638, 273, 325, 336, 356
-0.992642, 25, 65, 88, 192
-0.992643, 225, 113, 288, 144
-0.992643, 313, 281, 376, 312
-0.992658, 141, 289, 172, 320
-0.992658, 385, 253, 448, 284
-0.992659, 73, 153, 136, 184
-0.992664, 133, 113, 164, 176
-0.992666, 161, 89, 224, 120
-0.992677, 361, 249, 392, 280
-0.99268, 169, 161, 200, 192
-0.992682, 305, 33, 368, 288
-0.992685, 1, 157, 64, 188
-0.99269, 81, 141, 144, 172
-0.992692, 117, 297, 148, 328
-0.992698, 141, 241, 172, 368
-0.992714, 73, 289, 104, 320
-0.992722, 229, 321, 260, 352
-0.992726, 281, 305, 312, 336
-0.992726, 401, 113, 464, 176
-0.992731, 225, 81, 288, 144
-0.992743, 221, 333, 252, 364
-0.992748, 373, 257, 404, 288
-0.992761, 181, 201, 212, 232
-0.99277, 113, 329, 144, 360
-0.992784, 1, 281, 500, 344
-0.992794, 217, 273, 248, 304
-0.9928, 249, 273, 280, 304
-0.9928, 285, 253, 316, 284
-0.992801, 81, 301, 112, 332
-0.992804, 17, 337, 48, 368
-0.992806, 109, 345, 140, 375
-0.99281, 13, 301, 44, 332
-0.992837, 213, 113, 244, 240
-0.992842, 177, 277, 208, 308
-0.992851, 333, 313, 364, 375
-0.992853, 269, 277, 300, 308
-0.992862, 121, 141, 152, 172
-0.992863, 141, 81, 172, 208
-0.992869, 349, 249, 380, 280
-0.992884, 197, 105, 228, 136
-0.992895, 161, 273, 192, 304
-0.992899, 181, 229, 212, 260
-0.992901, 301, 261, 332, 292
-0.992908, 65, 145, 128, 272
-0.99292, 29, 129, 60, 160
-0.992925, 181, 213, 212, 244
-0.992927, 153, 173, 184, 204
-0.992936, 29, 113, 60, 240
-0.992948, 97, 113, 160, 176
-0.992961, 141, 313, 172, 344
-0.992964, 217, 137, 248, 168
-0.992978, 269, 297, 300, 328
-0.99298, 209, 341, 240, 372
-0.992984, 165, 285, 196, 316
-0.992987, 49, 305, 80, 336
-0.992991, 361, 129, 424, 375
-0.992996, 197, 333, 228, 364
-0.992997, 201, 125, 232, 156
-0.993015, 97, 309, 128, 340
-0.993023, 289, 1, 352, 375
-0.993027, 185, 145, 216, 176
-0.99304, 73, 313, 104, 344
-0.993041, 9, 133, 40, 164
-0.993044, 129, 313, 160, 344
-0.993045, 305, 293, 336, 324
-0.993048, 401, 137, 464, 200
-0.993048, 185, 241, 216, 272
-0.993069, 93, 321, 124, 352
-0.993077, 337, 289, 368, 320
-0.993089, 5, 121, 36, 152
-0.993092, 153, 293, 184, 324
-0.993095, 261, 317, 292, 348
-0.993095, 353, 273, 384, 336
-0.993096, 357, 237, 388, 268
-0.993101, 433, 113, 496, 176
-0.993101, 49, 341, 80, 372
-0.993103, 237, 273, 268, 304
-0.993114, 153, 129, 184, 192
-0.993115, 249, 1, 312, 375
-0.993118, 49, 289, 80, 320
-0.993122, 281, 265, 312, 296
-0.993122, 269, 265, 300, 296
-0.993123, 33, 301, 160, 332
-0.993124, 281, 277, 312, 308
-0.993129, 425, 293, 456, 324
-0.993136, 181, 189, 212, 220
-0.993139, 129, 329, 160, 360
-0.993141, 209, 313, 240, 344
-0.993142, 5, 321, 36, 352
-0.993152, 29, 117, 60, 148
-0.993153, 133, 149, 164, 180
-0.993159, 197, 281, 228, 312
-0.99316, 185, 325, 216, 356
-0.99317, 185, 161, 216, 224
-0.993172, 317, 265, 348, 296
-0.993176, 381, 277, 412, 308
-0.993178, 321, 253, 352, 284
-0.99318, 321, 289, 352, 320
-0.993182, 193, 305, 448, 368
-0.993189, 317, 277, 348, 308
-0.993189, 297, 305, 328, 336
-0.993199, 89, 121, 120, 152
-0.9932, 153, 157, 184, 188
-0.993201, 61, 313, 92, 344
-0.993202, 1, 145, 32, 176
-0.993203, 313, 153, 344, 184
-0.993204, 337, 249, 368, 280
-0.993207, 161, 205, 192, 236
-0.993207, 377, 273, 408, 336
-0.993211, 101, 225, 132, 256
-0.993213, 17, 325, 48, 356
-0.993219, 201, 217, 232, 248
-0.99322, 185, 101, 216, 132
-0.993222, 97, 237, 128, 268
-0.993225, 273, 133, 304, 164
-0.993226, 93, 293, 124, 324
-0.993227, 325, 141, 356, 172
-0.993234, 301, 273, 332, 304
-0.993234, 253, 289, 284, 320
-0.993238, 205, 269, 236, 300
-0.993238, 329, 325, 360, 356
-0.99324, 77, 121, 108, 152
-0.99324, 49, 89, 176, 152
-0.993243, 177, 265, 208, 296
-0.993246, 41, 125, 72, 156
-0.993253, 185, 121, 216, 152
-0.993254, 369, 49, 496, 176
-0.993258, 373, 245, 404, 276
-0.993262, 321, 169, 352, 200
-0.993267, 345, 237, 376, 268
-0.993284, 437, 289, 468, 320
-0.993286, 105, 213, 136, 244
-0.993294, 393, 273, 424, 304
-0.993294, 257, 305, 288, 336
-0.993296, 289, 293, 320, 324
-0.9933, 113, 257, 176, 320
-0.9933, 17, 165, 48, 196
-0.9933, 65, 113, 96, 144
-0.993301, 197, 321, 228, 352
-0.993303, 229, 145, 260, 176
-0.993309, 77, 277, 108, 308
-0.993316, 329, 185, 360, 216
-0.993316, 17, 121, 48, 152
-0.993317, 277, 117, 308, 148
-0.99332, 1, 157, 32, 188
-0.993323, 213, 289, 244, 320
-0.993331, 389, 261, 420, 292
-0.993333, 181, 161, 212, 192
-0.993334, 109, 201, 140, 232
-0.993336, 249, 317, 280, 348
-0.993338, 93, 257, 124, 288
-0.993339, 165, 305, 196, 336
-0.993342, 157, 321, 188, 352
-0.993346, 161, 193, 192, 224
-0.993351, 237, 309, 268, 340
-0.993355, 357, 261, 388, 292
-0.993356, 129, 137, 384, 200
-0.993368, 1, 113, 256, 176
-0.993414, 105, 33, 168, 288
-0.993437, 233, 65, 264, 192
-0.993444, 381, 193, 412, 320
-0.993447, 345, 1, 408, 375
-0.993483, 305, 137, 336, 200
-0.993526, 33, 201, 288, 264
-0.99353, 353, 121, 416, 184
-0.993545, 321, 97, 448, 160
-0.993573, 1, 217, 128, 280
-0.993615, 49, 273, 80, 336
-0.993634, 17, 97, 80, 160
-0.993647, 77, 113, 108, 176
-0.993657, 277, 113, 308, 176
-0.993669, 1, 257, 500, 320
-0.993676, 193, 209, 448, 272
-0.993698, 469, 241, 500, 368
-0.993722, 1, 233, 500, 296
-0.99379, 437, 225, 468, 352
-0.993816, 177, 89, 208, 152
-0.993843, 265, 49, 328, 176
-0.993846, 257, 209, 384, 272
-0.993863, 97, 169, 224, 200
-0.993918, 97, 1, 160, 375
-0.993966, 153, 81, 184, 144
-0.993992, 1, 169, 500, 232
-0.994028, 245, 145, 276, 208
-0.994169, 97, 157, 224, 188
-0.994183, 1, 305, 500, 368
-0.994229, 65, 105, 96, 168
-0.994261, 113, 273, 144, 336
-0.994271, 1, 209, 500, 272
-0.994275, 389, 257, 420, 320
-0.994306, 289, 253, 416, 284
-0.99432, 209, 277, 336, 308
-0.99436, 161, 129, 192, 256
-0.994361, 65, 1, 128, 375
-0.994366, 441, 289, 472, 352
-0.994368, 53, 105, 84, 168
-0.994373, 349, 97, 380, 224
-0.994376, 165, 313, 196, 375
-0.9944, 33, 177, 288, 240
-0.994421, 137, 289, 152, 352
-0.994426, 349, 161, 380, 224
-0.99443, 113, 289, 240, 320
-0.99446, 345, 145, 408, 208
-0.994468, 97, 181, 224, 212
-0.99447, 385, 49, 448, 176
-0.994479, 249, 153, 312, 216
-0.994508, 129, 65, 256, 128
-0.994512, 321, 241, 352, 304
-0.994518, 49, 177, 176, 304
-0.994519, 147, 281, 162, 344
-0.994526, 81, 193, 208, 224
-0.994543, 217, 73, 248, 136
-0.994576, 213, 193, 244, 320
-0.994599, 193, 289, 320, 320
-0.994668, 393, 225, 424, 352
-0.99469, 1, 137, 500, 200
-0.994745, 1, 137, 256, 200
-0.994756, 129, 297, 144, 360
-0.994777, 257, 281, 384, 312
-0.994794, 421, 241, 452, 368
-0.994808, 161, 273, 288, 304
-0.994816, 81, 313, 208, 344
-0.994821, 1, 241, 64, 368
-0.994829, 285, 97, 316, 224
-0.994865, 289, 265, 416, 296
-0.9949, 17, 289, 144, 320
-0.994912, 233, 129, 264, 256
-0.994917, 155, 281, 170, 344
-0.994925, 225, 113, 256, 176
-0.994942, 1, 313, 128, 344
-0.994959, 81, 237, 208, 268
-0.994981, 77, 289, 92, 352
-0.994991, 169, 113, 200, 176
-0.995078, 209, 241, 240, 304
-0.99508, 129, 241, 160, 368
-0.9951, 1, 325, 128, 356
-0.995124, 81, 273, 208, 304
-0.995126, 15, 305, 30, 368
-0.995128, 225, 313, 352, 344
-0.995169, 421, 97, 452, 224
-0.995201, 465, 97, 496, 224
-0.995246, 81, 205, 208, 236
-0.99525, 137, 145, 168, 272
-0.995261, 241, 301, 368, 332
-0.995278, 33, 345, 160, 375
-0.995281, 177, 257, 192, 320
-0.995291, 337, 97, 400, 352
-0.995292, 89, 89, 120, 152
-0.995312, 437, 97, 468, 224
-0.995424, 201, 209, 232, 272
-0.995429, 161, 289, 176, 352
-0.995461, 401, 1, 464, 375
-0.995462, 105, 65, 168, 128
-0.995505, 97, 113, 352, 176
-0.995508, 21, 169, 52, 232
-0.995514, 305, 145, 432, 176
-0.995543, 171, 281, 186, 344
-0.995553, 177, 281, 192, 344
-0.995554, 203, 97, 218, 160
-0.99556, 145, 145, 272, 176
-0.995567, 273, 297, 288, 360
-0.995576, 33, 137, 160, 168
-0.995597, 97, 145, 224, 176
-0.995618, 193, 33, 256, 160
-0.995622, 289, 297, 416, 328
-0.995634, 81, 225, 208, 256
-0.995641, 381, 241, 412, 368
-0.995648, 239, 281, 254, 344
-0.995648, 453, 97, 484, 224
-0.995667, 345, 49, 408, 176
-0.995702, 333, 241, 364, 304
-0.99572, 29, 137, 44, 200
-0.995747, 377, 105, 440, 168
-0.995747, 65, 289, 192, 320
-0.995754, 209, 257, 336, 288
-0.995757, 359, 225, 374, 288
-0.995761, 81, 249, 208, 280
-0.995766, 265, 273, 280, 336
-0.99577, 33, 105, 64, 168
-0.995775, 41, 257, 104, 320
-0.995805, 241, 49, 368, 112
-0.995812, 325, 113, 356, 176
-0.995837, 25, 1, 88, 375
-0.995839, 225, 133, 352, 164
-0.995859, 209, 257, 224, 320
-0.995864, 71, 289, 86, 352
-0.995868, 283, 273, 298, 336
-0.995868, 27, 297, 42, 360
-0.995887, 275, 273, 290, 336
-0.995895, 1, 89, 128, 152
-0.995924, 113, 81, 144, 144
-0.995934, 365, 241, 380, 304
-0.995987, 81, 301, 208, 332
-0.99602, 145, 173, 272, 204
-0.996055, 209, 105, 224, 168
-0.996087, 223, 289, 238, 352
-0.996112, 305, 157, 432, 188
-0.996127, 257, 105, 500, 168
-0.996128, 121, 297, 136, 360
-0.996131, 225, 73, 480, 136
-0.996139, 161, 257, 288, 288
-0.996168, 285, 249, 300, 312
-0.996171, 1, 125, 128, 156
-0.99618, 229, 265, 244, 328
-0.996184, 123, 137, 138, 200
-0.996202, 265, 193, 296, 320
-0.996208, 99, 225, 114, 288
-0.996229, 97, 89, 352, 152
-0.996231, 255, 289, 270, 352
-0.996232, 21, 297, 36, 360
-0.99624, 95, 273, 110, 336
-0.99624, 17, 149, 144, 180
-0.996241, 183, 249, 198, 312
-0.996244, 381, 249, 396, 312
-0.996255, 197, 97, 212, 160
-0.996265, 145, 157, 272, 188
-0.996267, 129, 321, 256, 352
-0.996274, 85, 281, 100, 344
-0.996278, 81, 261, 208, 292
-0.996295, 369, 161, 496, 224
-0.996302, 247, 273, 262, 336
-0.996303, 221, 265, 236, 328
-0.996305, 153, 57, 216, 120
-0.996307, 113, 133, 240, 164
-0.996311, 317, 273, 332, 336
-0.996318, 369, 249, 496, 280
-0.996321, 433, 129, 496, 375
-0.996331, 113, 333, 240, 364
-0.996332, 353, 193, 480, 256
-0.996335, 433, 145, 496, 208
-0.996336, 175, 193, 190, 256
-0.996365, 355, 201, 370, 264
-0.996367, 143, 305, 158, 368
-0.99637, 17, 161, 48, 288
-0.996373, 225, 149, 352, 180
-0.996375, 321, 285, 448, 316
-0.99638, 107, 305, 122, 368
-0.996383, 203, 241, 218, 304
-0.996388, 105, 209, 120, 272
-0.996396, 81, 65, 208, 128
-0.996406, 45, 305, 60, 368
-0.996414, 337, 65, 368, 192
-0.996425, 265, 1, 328, 256
-0.996428, 191, 137, 206, 200
-0.996435, 215, 313, 230, 375
-0.99646, 321, 169, 448, 200
-0.996461, 145, 305, 272, 336
-0.99648, 215, 289, 230, 352
-0.996506, 217, 113, 232, 176
-0.996514, 137, 313, 152, 375
-0.996569, 321, 237, 448, 268
-0.996576, 203, 121, 218, 184
-0.99658, 113, 305, 128, 368
-0.996594, 145, 185, 272, 216
-0.996595, 229, 313, 244, 375
-0.99661, 369, 1, 432, 375
-0.99664, 203, 281, 218, 344
-0.996653, 185, 49, 216, 176
-0.996662, 193, 245, 320, 276
-0.996666, 351, 265, 366, 328
-0.996673, 267, 297, 282, 360
-0.996677, 229, 289, 244, 352
-0.99669, 221, 313, 236, 375
-0.996692, 9, 305, 24, 368
-0.99672, 329, 161, 344, 224
-0.996733, 361, 305, 424, 368
-0.996742, 371, 249, 386, 312
-0.996781, 317, 193, 348, 320
-0.99679, 279, 249, 294, 312
-0.996792, 321, 181, 448, 212
-0.996795, 177, 317, 304, 348
-0.9968, 273, 241, 400, 272
-0.996801, 261, 65, 292, 192
-0.996809, 305, 297, 320, 360
-0.99681, 185, 281, 200, 344
-0.996811, 129, 49, 160, 176
-0.996812, 33, 305, 48, 368
-0.996824, 293, 249, 308, 312
-0.996825, 291, 289, 306, 352
-0.996826, 21, 121, 36, 184
-0.996833, 311, 273, 326, 336
-0.996837, 351, 289, 366, 352
-0.996838, 185, 129, 216, 375
-0.996841, 169, 161, 184, 224
-0.996862, 259, 265, 274, 328
-0.996872, 281, 305, 296, 368
-0.996873, 13, 121, 28, 184
-0.996877, 111, 193, 126, 256
-0.996893, 49, 129, 112, 375
-0.996918, 67, 313, 82, 375
-0.99692, 149, 305, 164, 368
-0.996927, 441, 289, 456, 352
-0.996944, 345, 185, 360, 248
-0.996948, 49, 241, 80, 368
-0.996964, 305, 133, 432, 164
-0.996968, 405, 97, 436, 224
-0.996986, 345, 265, 360, 328
-0.996989, 409, 73, 472, 136
-0.996995, 5, 121, 20, 184
-0.996997, 209, 289, 224, 352
-0.997008, 73, 33, 136, 288
-0.997031, 163, 161, 178, 224
-0.997031, 177, 217, 192, 280
-0.997033, 401, 273, 464, 336
-0.997033, 215, 257, 230, 320
-0.997034, 225, 137, 480, 200
-0.997042, 161, 197, 288, 228
-0.99705, 39, 289, 54, 352
-0.997065, 207, 313, 222, 375
-0.997082, 305, 73, 368, 136
-0.99709, 359, 249, 374, 312
-0.997095, 387, 249, 402, 312
-0.997098, 297, 313, 312, 375
-0.997099, 433, 49, 496, 176
-0.997102, 241, 165, 368, 196
-0.997108, 147, 145, 162, 208
-0.997111, 335, 169, 350, 232
-0.997119, 261, 297, 276, 360
-0.99712, 177, 133, 304, 164
-0.997124, 51, 313, 66, 375
-0.997145, 193, 113, 320, 144
-0.997155, 97, 113, 224, 144
-0.99716, 257, 1, 384, 64
-0.997173, 209, 129, 240, 375
-0.997181, 323, 153, 338, 216
-0.9972, 253, 265, 268, 328
-0.997205, 223, 333, 238, 364
-0.997217, 197, 281, 212, 344
-0.997222, 161, 97, 288, 128
-0.997225, 157, 313, 172, 375
-0.997231, 311, 249, 326, 312
-0.99724, 93, 305, 108, 368
-0.997264, 69, 241, 100, 368
-0.99727, 225, 49, 480, 112
-0.997272, 19, 145, 34, 208
-0.997273, 303, 249, 318, 312
-0.99728, 225, 325, 352, 356
-0.997293, 369, 145, 432, 208
-0.997298, 177, 57, 304, 120
-0.997298, 323, 257, 338, 320
-0.997298, 185, 137, 200, 200
-0.99731, 101, 313, 116, 375
-0.997329, 193, 161, 208, 224
-0.997331, 197, 121, 212, 184
-0.997331, 39, 145, 54, 208
-0.997334, 33, 161, 160, 192
-0.997338, 209, 337, 336, 368
-0.997355, 75, 293, 90, 324
-0.997358, 49, 333, 176, 364
-0.99736, 169, 249, 184, 312
-0.997363, 343, 289, 358, 352
-0.997393, 117, 169, 132, 232
-0.997412, 271, 137, 286, 200
-0.997416, 73, 313, 88, 375
-0.997419, 303, 273, 318, 336
-0.997425, 249, 129, 280, 256
-0.997425, 95, 249, 110, 312
-0.997472, 243, 313, 258, 375
-0.997473, 169, 185, 184, 248
-0.997478, 11, 145, 26, 208
-0.997478, 433, 289, 448, 352
-0.997494, 321, 193, 448, 224
-0.997497, 105, 225, 136, 352
-0.997499, 33, 113, 160, 144
-0.997502, 257, 25, 384, 88
-0.997506, 179, 153, 194, 216
-0.997512, 257, 117, 384, 148
-0.997515, 217, 137, 232, 200
-0.997517, 333, 137, 348, 200
-0.99752, 105, 129, 136, 375
-0.997524, 277, 129, 292, 192
-0.997525, 371, 225, 386, 288
-0.997526, 287, 313, 302, 375
-0.99753, 255, 313, 270, 375
-0.997548, 325, 297, 340, 360
-0.997551, 153, 65, 184, 320
-0.997552, 129, 297, 144, 328
-0.997554, 57, 313, 72, 375
-0.997558, 65, 73, 128, 136
-0.997566, 237, 249, 252, 312
-0.997572, 133, 329, 148, 360
-0.997574, 161, 225, 288, 256
-0.997581, 193, 301, 320, 332
-0.997583, 273, 277, 288, 308
-0.997584, 161, 213, 288, 244
-0.997665, 273, 313, 400, 344
-0.997681, 139, 293, 154, 324
-0.997692, 145, 17, 272, 144
-0.997699, 457, 225, 488, 352
-0.997706, 225, 169, 480, 232
-0.997724, 1, 65, 32, 192
-0.997734, 365, 249, 380, 280
-0.997746, 33, 277, 160, 308
-0.997747, 171, 165, 186, 196
-0.997754, 213, 325, 228, 356
-0.997776, 125, 345, 140, 375
-0.997794, 21, 301, 36, 332
-0.997799, 69, 97, 100, 224
-0.997812, 1, 89, 256, 152
-0.997818, 1, 333, 16, 364
-0.997819, 281, 305, 296, 336
-0.997825, 417, 49, 448, 176
-0.997844, 353, 145, 480, 176
-0.997844, 35, 345, 50, 375
-0.997852, 67, 301, 82, 332
-0.997856, 237, 193, 268, 320
-0.997871, 281, 265, 296, 296
-0.997871, 19, 333, 34, 364
-0.997873, 111, 309, 126, 340
-0.997875, 379, 253, 394, 284
-0.997891, 321, 105, 448, 136
-0.997892, 179, 281, 194, 312
-0.997894, 27, 341, 42, 372
-0.997911, 37, 293, 52, 324
-0.997918, 157, 289, 172, 320
-0.997925, 161, 85, 288, 116
-0.997926, 273, 177, 400, 208
-0.997929, 13, 333, 28, 364
-0.99793, 15, 305, 30, 336
-0.997932, 145, 289, 160, 320
-0.997933, 1, 245, 128, 276
-0.997942, 83, 301, 98, 332
-0.99795, 133, 313, 148, 344
-0.997959, 1, 261, 128, 292
-0.997967, 193, 181, 320, 212
-0.997978, 361, 237, 376, 268
-0.997979, 261, 273, 276, 304
-0.997985, 305, 49, 368, 112
-0.997987, 313, 277, 328, 308
-0.997989, 123, 329, 138, 360
-0.998006, 17, 213, 144, 244
-0.998007, 267, 277, 282, 308
-0.998007, 81, 345, 208, 375
-0.998009, 317, 129, 348, 375
-0.998011, 25, 129, 88, 375
-0.998014, 287, 253, 302, 284
-0.998016, 17, 193, 144, 224
-0.99802, 123, 141, 138, 172
-0.998021, 319, 277, 334, 308
-0.998027, 353, 273, 480, 304
-0.998028, 431, 297, 446, 328
-0.99803, 105, 33, 168, 160
-0.998031, 133, 341, 148, 372
-0.998035, 127, 317, 142, 348
-0.998043, 369, 261, 496, 292
-0.998045, 393, 177, 424, 304
-0.998049, 129, 345, 256, 375
-0.998049, 303, 305, 318, 336
-0.99805, 373, 249, 388, 280
-0.998062, 241, 1, 304, 256
-0.998065, 31, 145, 46, 176
-0.998066, 231, 321, 246, 352
-0.998076, 73, 309, 88, 340
-0.998081, 151, 285, 166, 316
-0.998082, 179, 269, 194, 300
-0.998082, 121, 129, 152, 375
-0.998091, 221, 321, 236, 352
-0.998097, 197, 129, 228, 375
-0.998099, 31, 293, 46, 324
-0.998101, 165, 129, 196, 375
-0.998101, 85, 285, 100, 316
-0.998109, 201, 321, 216, 352
-0.998112, 171, 277, 186, 308
-0.998114, 401, 209, 464, 272
-0.998118, 43, 297, 58, 328
-0.998122, 81, 101, 208, 132
-0.998123, 275, 297, 290, 328
-0.998126, 7, 329, 22, 360
-0.998127, 207, 105, 222, 136
-0.998133, 163, 169, 178, 200
-0.998134, 1, 113, 500, 176
-0.998135, 293, 305, 308, 336
-0.998136, 225, 57, 288, 120
-0.998148, 359, 249, 374, 280
-0.998152, 287, 297, 302, 328
-0.998158, 313, 261, 328, 292
-0.998167, 345, 73, 408, 136
-0.998171, 305, 205, 432, 236
-0.998181, 353, 133, 480, 164
-0.99819, 129, 245, 256, 276
-0.998198, 117, 305, 132, 336
-0.998205, 179, 153, 194, 184
-0.998205, 337, 65, 368, 320
-0.998208, 171, 289, 186, 320
-0.99821, 231, 333, 246, 364
-0.998217, 151, 309, 166, 340
-0.99822, 113, 177, 144, 304
-0.998226, 49, 125, 64, 156
-0.998227, 207, 325, 222, 356
-0.998232, 255, 273, 270, 304
-0.998233, 19, 121, 34, 152
-0.998235, 321, 33, 448, 64
-0.998247, 213, 281, 228, 312
-0.99825, 81, 81, 208, 112
-0.998252, 115, 345, 130, 375
-0.998258, 269, 97, 300, 352
-0.99826, 273, 329, 400, 360
-0.998263, 29, 125, 44, 156
-0.998263, 105, 325, 120, 356
-0.998264, 105, 309, 120, 340
-0.998264, 321, 265, 336, 296
-0.998265, 369, 237, 496, 268
-0.998276, 123, 297, 138, 328
-0.998277, 321, 57, 448, 88
-0.998278, 217, 117, 232, 148
-0.998281, 385, 257, 400, 288
-0.998282, 437, 289, 452, 320
-0.998288, 337, 297, 464, 328
-0.998289, 217, 337, 232, 368
-0.99829, 321, 69, 448, 100
-0.998298, 193, 169, 320, 200
-0.998299, 321, 317, 448, 348
-0.998299, 321, 45, 448, 76
-0.998303, 59, 345, 74, 375
-0.998305, 321, 1, 448, 32
-0.998305, 13, 321, 28, 352
-0.998313, 201, 101, 216, 132
-0.998316, 393, 277, 408, 308
-0.998317, 241, 97, 368, 128
-0.998318, 321, 13, 448, 44
-0.998319, 223, 133, 238, 164
-0.998323, 1, 81, 500, 144
-0.998328, 369, 73, 432, 136
-0.998343, 93, 319, 124, 334
-0.998343, 185, 251, 216, 266
-0.998344, 221, 331, 252, 346
-0.998344, 377, 277, 408, 292
-0.998345, 45, 123, 76, 138
-0.998345, 105, 223, 136, 238
-0.998346, 341, 259, 372, 274
-0.998346, 293, 299, 324, 314
-0.998347, 389, 277, 420, 292
-0.998348, 249, 277, 280, 292
-0.998348, 229, 349, 260, 364
-0.998348, 13, 299, 44, 314
-0.998349, 209, 285, 240, 300
-0.99835, 101, 237, 132, 252
-0.998351, 93, 325, 124, 340
-0.998351, 41, 361, 72, 375
-0.998351, 45, 309, 60, 340
-0.998351, 351, 249, 366, 280
-0.998353, 261, 277, 292, 292
-0.998353, 237, 151, 268, 166
-0.998353, 249, 291, 280, 306
-0.998354, 37, 339, 68, 354
-0.998355, 177, 273, 208, 288
-0.998355, 125, 339, 156, 354
-0.998355, 345, 241, 376, 256
-0.998356, 101, 231, 132, 246
-0.998357, 91, 121, 106, 152
-0.998357, 227, 345, 242, 375
-0.998357, 161, 207, 192, 222
-0.998357, 85, 123, 116, 138
-0.998358, 321, 331, 352, 346
-0.998358, 53, 311, 84, 326
-0.998359, 81, 301, 112, 316
-0.998359, 185, 145, 216, 160
-0.99836, 321, 81, 448, 112
-0.998362, 357, 259, 388, 274
-0.998363, 109, 333, 140, 348
-0.998363, 1, 159, 32, 174
-0.998363, 17, 157, 48, 172
-0.998364, 41, 193, 104, 320
-0.998365, 41, 345, 56, 375
-0.998365, 357, 247, 388, 262
-0.998366, 345, 323, 376, 338
-0.998366, 49, 347, 80, 362
-0.998366, 321, 293, 352, 308
-0.998367, 197, 287, 228, 302
-0.998367, 185, 121, 216, 136
-0.998367, 5, 141, 20, 172
-0.998368, 341, 303, 372, 318
-0.998369, 265, 287, 296, 302
-0.998369, 337, 291, 368, 306
-0.99837, 205, 345, 236, 360
-0.998372, 433, 297, 464, 312
-0.998372, 217, 141, 248, 156
-0.998374, 297, 273, 328, 288
-0.998374, 281, 315, 312, 330
-0.998376, 181, 109, 212, 124
-0.998376, 169, 185, 184, 216
-0.998377, 125, 307, 156, 322
-0.998377, 137, 65, 168, 320
-0.998378, 307, 261, 322, 292
-0.998378, 421, 305, 452, 320
-0.99838, 219, 269, 234, 300
-0.998383, 241, 321, 272, 336
-0.998384, 301, 305, 332, 320
-0.998384, 29, 129, 60, 144
-0.998384, 175, 205, 190, 236
-0.998386, 333, 253, 364, 268
-0.998387, 185, 237, 216, 252
-0.998392, 113, 301, 144, 316
-0.998393, 9, 137, 40, 152
-0.998394, 181, 219, 212, 234
-0.998395, 157, 293, 188, 308
-0.998395, 333, 327, 364, 342
-0.998395, 309, 293, 324, 324
-0.998397, 153, 163, 184, 178
-0.998397, 73, 289, 104, 304
-0.998397, 187, 145, 202, 176
-0.998397, 185, 245, 216, 260
-0.998398, 209, 339, 240, 354
-0.998398, 39, 149, 54, 180
-0.998399, 153, 173, 184, 188
-0.9984, 197, 325, 228, 340
-0.998401, 21, 145, 52, 160
-0.998402, 113, 339, 144, 354
-0.998402, 133, 293, 164, 308
-0.998402, 19, 133, 34, 164
-0.998403, 1, 225, 128, 256
-0.998404, 229, 273, 244, 304
-0.998404, 197, 105, 228, 120
-0.998405, 45, 299, 76, 314
-0.998407, 433, 289, 464, 304
-0.998407, 181, 201, 212, 216
-0.998408, 273, 277, 304, 292
-0.998408, 321, 261, 352, 276
-0.998408, 33, 355, 64, 370
-0.998408, 33, 123, 64, 138
-0.998409, 117, 357, 148, 372
-0.998409, 205, 285, 220, 316
-0.998409, 109, 347, 140, 362
-0.998411, 53, 355, 84, 370
-0.998411, 169, 289, 200, 304
-0.998413, 125, 299, 156, 314
-0.998413, 281, 303, 312, 318
-0.998414, 369, 263, 400, 278
-0.998415, 301, 261, 332, 276
-0.99842, 177, 325, 208, 340
-0.998422, 201, 115, 232, 130
-0.998422, 321, 345, 448, 375
-0.998423, 165, 169, 196, 184
-0.998426, 101, 237, 116, 268
-0.998426, 17, 173, 144, 204
-0.998428, 17, 301, 80, 316
-0.998429, 105, 313, 136, 328
-0.99843, 93, 311, 124, 326
-0.998431, 337, 225, 464, 256
-0.998432, 181, 231, 212, 246
-0.998432, 337, 297, 368, 312
-0.998433, 177, 279, 208, 294
-0.998435, 257, 189, 384, 220
-0.998436, 77, 317, 108, 332
-0.998437, 181, 207, 212, 222
-0.998439, 347, 189, 362, 220
-0.998439, 345, 247, 376, 262
-0.998441, 279, 277, 294, 308
-0.998446, 29, 305, 60, 320
-0.998446, 369, 169, 432, 232
-0.998446, 221, 337, 252, 352
-0.998447, 121, 145, 152, 160
-0.998448, 49, 305, 80, 320
-0.998449, 181, 225, 212, 240
-0.99845, 249, 273, 264, 304
-0.99845, 321, 93, 448, 124
-0.99845, 253, 319, 284, 334
-0.998454, 65, 311, 96, 326
-0.998455, 81, 307, 112, 322
-0.998456, 293, 253, 308, 284
-0.998457, 195, 325, 210, 356
-0.99846, 173, 163, 204, 178
-0.99846, 137, 313, 168, 328
-0.998461, 275, 265, 290, 296
-0.998463, 65, 125, 192, 156
-0.998463, 113, 307, 144, 322
-0.998466, 181, 213, 212, 228
-0.998466, 157, 283, 188, 298
-0.99847, 285, 257, 316, 272
-0.998472, 281, 309, 312, 324
-0.998473, 373, 253, 404, 268
-0.998475, 189, 331, 220, 346
-0.998476, 287, 309, 302, 340
-0.998478, 197, 337, 228, 352
-0.998479, 229, 325, 260, 340
-0.998483, 147, 153, 162, 184
-0.998484, 25, 353, 88, 368
-0.998488, 137, 291, 200, 306
-0.998491, 11, 141, 26, 172
-0.998493, 29, 349, 60, 364
-0.998493, 361, 253, 392, 268
-0.998496, 323, 153, 338, 184
-0.998497, 303, 293, 318, 324
-0.998499, 217, 345, 248, 360
-0.9985, 109, 213, 124, 244
-0.9985, 199, 281, 214, 312
-0.998502, 21, 341, 52, 356
-0.998503, 1, 343, 32, 358
-0.998504, 17, 305, 48, 320
-0.998504, 281, 117, 296, 148
-0.998505, 275, 317, 290, 348
-0.998505, 35, 125, 50, 156
-0.998506, 269, 317, 284, 348
-0.998508, 211, 125, 226, 156
-0.998509, 65, 301, 128, 316
-0.998515, 235, 273, 250, 304
-0.998516, 121, 329, 152, 344
-0.998518, 161, 173, 224, 188
-0.998518, 89, 309, 152, 324
-0.998527, 143, 313, 158, 344
-0.998528, 225, 321, 288, 336
-0.998529, 105, 225, 120, 256
-0.998531, 329, 251, 392, 266
-0.998531, 269, 297, 284, 328
-0.998532, 159, 317, 174, 348
-0.998532, 129, 65, 384, 128
-0.998533, 443, 285, 458, 316
-0.998534, 117, 329, 132, 360
-0.998535, 161, 333, 288, 364
-0.998537, 329, 161, 344, 192
-0.998538, 25, 329, 40, 360
-0.998538, 209, 333, 240, 348
-0.99854, 297, 299, 360, 314
-0.998541, 69, 301, 100, 316
-0.998546, 153, 167, 216, 182
-0.998547, 169, 255, 232, 270
-0.998547, 17, 347, 80, 362
-0.998549, 73, 295, 104, 310
-0.99855, 163, 293, 178, 324
-0.998551, 185, 327, 248, 342
-0.998553, 273, 261, 336, 276
-0.998555, 145, 289, 176, 304
-0.998556, 89, 331, 152, 346
-0.998557, 121, 317, 184, 332
-0.998558, 161, 283, 224, 298
-0.998558, 169, 261, 232, 276
-0.998563, 5, 335, 36, 350
-0.998563, 113, 167, 176, 182
-0.998563, 33, 361, 96, 375
-0.998565, 105, 147, 168, 162
-0.998569, 41, 311, 104, 326
-0.99857, 249, 129, 280, 375
-0.998573, 313, 145, 376, 160
-0.998576, 169, 267, 232, 282
-0.998577, 41, 303, 104, 318
-0.998578, 25, 299, 56, 314
-0.998578, 217, 291, 280, 306
-0.998579, 65, 313, 128, 328
-0.998579, 161, 179, 224, 194
-0.99858, 313, 257, 376, 272
-0.998581, 229, 65, 260, 320
-0.998581, 313, 265, 376, 280
-0.998582, 177, 125, 240, 140
-0.998583, 169, 249, 232, 264
-0.998585, 337, 257, 400, 272
-0.998585, 273, 269, 336, 284
-0.998586, 169, 231, 232, 246
-0.998588, 169, 225, 232, 240
-0.998589, 1, 307, 64, 322
-0.998589, 49, 125, 112, 140
-0.998589, 297, 309, 360, 324
-0.99859, 9, 133, 72, 148
-0.99859, 265, 303, 328, 318
-0.998591, 265, 283, 328, 298
-0.998592, 1, 147, 64, 162
-0.998595, 1, 341, 64, 356
-0.998597, 169, 207, 232, 222
-0.998597, 113, 173, 176, 188
-0.998598, 301, 97, 332, 352
-0.998599, 265, 311, 328, 326
-0.998599, 25, 295, 88, 310
-0.998602, 113, 153, 176, 168
-0.998602, 169, 217, 232, 232
-0.998603, 297, 293, 360, 308
-0.998604, 153, 197, 216, 212
-0.998604, 241, 277, 304, 292
-0.998606, 177, 243, 240, 258
-0.998609, 161, 289, 224, 304
-0.99861, 153, 327, 216, 342
-0.998612, 121, 297, 184, 312
-0.998612, 161, 187, 224, 202
-0.998615, 97, 315, 160, 330
-0.998615, 65, 319, 128, 334
-0.998616, 185, 333, 248, 348
-0.998618, 177, 237, 240, 252
-0.998618, 1, 335, 64, 350
-0.99862, 185, 143, 248, 158
-0.99862, 89, 299, 152, 314
-0.998621, 169, 107, 232, 122
-0.998621, 145, 161, 208, 176
-0.998624, 113, 303, 176, 318
-0.998628, 129, 323, 192, 338
-0.998629, 113, 161, 176, 176
-0.998629, 89, 291, 152, 306
-0.99863, 145, 121, 272, 152
-0.998631, 265, 317, 328, 332
-0.998632, 193, 181, 256, 196
-0.998633, 281, 255, 344, 270
-0.998634, 185, 339, 248, 354
-0.998635, 345, 263, 408, 278
-0.998636, 369, 249, 432, 264
-0.998637, 193, 107, 256, 122
-0.998638, 65, 355, 128, 370
-0.998638, 209, 327, 240, 342
-0.998639, 193, 115, 256, 130
-0.998639, 137, 285, 200, 300
-0.99864, 81, 361, 144, 375
-0.99864, 25, 123, 88, 138
-0.998641, 9, 169, 72, 232
-0.998642, 25, 341, 88, 356
-0.998643, 161, 99, 224, 114
-0.998645, 217, 277, 280, 292
-0.998645, 65, 295, 128, 310
-0.998646, 273, 277, 336, 292
-0.998647, 169, 117, 232, 132
-0.998648, 137, 143, 200, 158
-0.99865, 97, 225, 160, 240
-0.99865, 313, 327, 376, 342
-0.99865, 209, 341, 272, 356
-0.998651, 265, 145, 328, 160
-0.998652, 89, 325, 152, 340
-0.998653, 369, 257, 432, 272
-0.998653, 121, 311, 184, 326
-0.998653, 185, 347, 248, 362
-0.998653, 57, 361, 120, 375
-0.998654, 193, 101, 256, 116
-0.998654, 265, 295, 328, 310
-0.998654, 97, 337, 160, 352
-0.998656, 177, 273, 240, 288
-0.998656, 193, 223, 256, 238
-0.998657, 233, 151, 296, 166
-0.998657, 273, 151, 336, 166
-0.998657, 105, 201, 168, 216
-0.998658, 81, 123, 144, 138
-0.99866, 313, 153, 376, 168
-0.998661, 329, 301, 392, 316
-0.998662, 65, 307, 128, 322
-0.998662, 1, 139, 64, 154
-0.998664, 201, 149, 264, 164
-0.998664, 177, 201, 240, 216
-0.998664, 9, 157, 72, 172
-0.998666, 257, 289, 320, 304
-0.998667, 41, 317, 104, 332
-0.998668, 153, 239, 216, 254
-0.998668, 137, 277, 200, 292
-0.998668, 9, 325, 72, 340
-0.998669, 337, 269, 400, 284
-0.99867, 289, 97, 320, 352
-0.99867, 57, 349, 120, 364
-0.99867, 121, 333, 184, 348
-0.99867, 97, 219, 160, 234
-0.99867, 65, 327, 128, 342
-0.998671, 193, 187, 256, 202
-0.998671, 241, 299, 304, 314
-0.998671, 321, 165, 384, 180
-0.998671, 113, 179, 176, 194
-0.998672, 329, 177, 392, 192
-0.998678, 337, 9, 400, 72
-0.998686, 369, 117, 496, 148
-0.9987, 369, 73, 496, 136
-0.998705, 225, 1, 480, 64
-0.998716, 273, 341, 400, 372
-0.998764, 209, 17, 336, 144
-0.998768, 201, 225, 216, 352
-0.99877, 353, 157, 480, 188
-0.998771, 73, 193, 104, 320
-0.998804, 257, 25, 500, 88
-0.998816, 241, 85, 368, 116
-0.998837, 13, 65, 44, 192
-0.998875, 177, 241, 192, 368
-0.998877, 261, 241, 276, 368
-0.9989, 225, 241, 240, 368
-0.998913, 183, 241, 198, 368
-0.998917, 215, 241, 230, 368
-0.998919, 175, 193, 190, 320
-0.998924, 321, 333, 448, 364
-0.998925, 345, 97, 408, 160
-0.998931, 13, 241, 44, 368
-0.998946, 361, 209, 376, 336
-0.998948, 255, 241, 270, 368
-0.998962, 207, 241, 222, 368
-0.998965, 231, 241, 246, 368
-0.99897, 241, 241, 256, 368
-0.998982, 353, 129, 384, 375
-0.998987, 85, 145, 116, 272
-0.998996, 95, 241, 110, 368
-0.999003, 145, 109, 272, 140
-0.999008, 249, 81, 312, 144
-0.999014, 271, 241, 286, 368
-0.999018, 257, 205, 384, 236
-0.999026, 85, 65, 116, 192
-0.999043, 247, 241, 262, 368
-0.999046, 401, 41, 464, 104
-0.999052, 321, 117, 448, 148
-0.999052, 369, 329, 496, 360
-0.999063, 277, 241, 292, 368
-0.999065, 353, 193, 368, 320
-0.999074, 249, 33, 280, 288
-0.999086, 257, 229, 384, 260
-0.999093, 241, 73, 368, 104
-0.999123, 171, 241, 186, 368
-0.999124, 283, 241, 298, 368
-0.99913, 401, 49, 432, 176
-0.999136, 369, 345, 496, 375
-0.99914, 203, 81, 218, 208
-0.999148, 257, 217, 384, 248
-0.99916, 345, 41, 408, 104
-0.999176, 145, 73, 272, 104
-0.999182, 121, 129, 136, 256
-0.999211, 305, 1, 368, 128
-0.999229, 165, 241, 180, 368
-0.99924, 101, 209, 116, 336
-0.999254, 105, 49, 136, 176
-0.999268, 347, 177, 362, 304
-0.99927, 31, 113, 46, 240
-0.999275, 37, 241, 68, 368
-0.999282, 367, 225, 382, 352
-0.999294, 111, 177, 126, 304
-0.999296, 337, 161, 352, 288
-0.999296, 197, 33, 228, 288
-0.999299, 329, 97, 344, 224
-0.999306, 113, 41, 240, 104
-0.999314, 25, 129, 56, 375
-0.999314, 281, 169, 344, 232
-0.999334, 195, 241, 210, 368
-0.999335, 7, 113, 22, 240
-0.999338, 113, 33, 144, 288
-0.999344, 179, 97, 194, 224
-0.999346, 165, 49, 196, 176
-0.999349, 339, 113, 354, 240
-0.999349, 205, 145, 220, 272
-0.999349, 189, 241, 204, 368
-0.999351, 1, 113, 16, 240
-0.999364, 369, 285, 496, 316
-0.999365, 413, 129, 444, 375
-0.999372, 25, 113, 40, 240
-0.999373, 331, 241, 346, 368
-0.999374, 289, 225, 304, 352
-0.999378, 173, 145, 188, 272
-0.99939, 193, 73, 320, 104
-0.999391, 379, 241, 394, 368
-0.999391, 353, 129, 368, 256
-0.999392, 197, 97, 212, 224
-0.999394, 159, 225, 174, 352
-0.999396, 19, 113, 34, 240
-0.999407, 33, 89, 160, 120
-0.999409, 189, 81, 204, 208
-0.99941, 361, 145, 376, 272
-0.999411, 373, 225, 388, 352
-0.999413, 347, 113, 362, 240
-0.999418, 167, 145, 182, 272
-0.999423, 81, 129, 112, 375
-0.999426, 353, 241, 368, 368
-0.999427, 213, 65, 228, 192
-0.999429, 317, 241, 332, 368
-0.99943, 369, 1, 496, 64
-0.99943, 369, 25, 496, 88
-0.999438, 305, 25, 368, 88
-0.999445, 209, 201, 336, 264
-0.999447, 145, 129, 160, 256
-0.999455, 181, 193, 196, 320
-0.999457, 153, 225, 168, 352
-0.999457, 485, 241, 500, 368
-0.999458, 219, 113, 234, 240
-0.99946, 223, 65, 238, 192
-0.999462, 195, 177, 210, 304
-0.999463, 177, 33, 208, 288
-0.999464, 281, 97, 296, 224
-0.99947, 83, 225, 98, 352
-0.999481, 157, 81, 172, 208
-0.999488, 309, 225, 324, 352
-0.999493, 37, 129, 52, 256
-0.999497, 249, 193, 280, 320
-0.9995, 123, 81, 138, 208
-0.999501, 129, 81, 144, 208
-0.999509, 185, 145, 200, 272
-0.999509, 115, 129, 130, 256
-0.999517, 345, 241, 360, 368
-0.999522, 275, 113, 290, 240
-0.999522, 431, 241, 446, 368
-0.999522, 331, 161, 346, 288
-0.999522, 13, 113, 28, 240
-0.999526, 135, 97, 150, 224
-0.999527, 439, 225, 454, 352
-0.99953, 317, 97, 332, 224
-0.999533, 133, 241, 148, 368
-0.999535, 265, 129, 280, 256
-0.999536, 401, 129, 432, 375
-0.99954, 211, 193, 226, 320
-0.999541, 167, 81, 182, 208
-0.999546, 233, 65, 248, 192
-0.999553, 29, 241, 44, 368
-0.999554, 133, 355, 148, 370
-0.999555, 241, 149, 256, 164
-0.999555, 123, 339, 138, 354
-0.999556, 19, 135, 34, 150
-0.999556, 121, 303, 136, 318
-0.999556, 235, 145, 250, 160
-0.999558, 113, 355, 128, 370
-0.999559, 127, 307, 142, 322
-0.999559, 371, 259, 386, 274
-0.99956, 337, 329, 352, 344
-0.99956, 305, 305, 320, 320
-0.99956, 313, 283, 328, 298
-0.999561, 211, 117, 226, 132
-0.999561, 143, 81, 158, 208
-0.999561, 103, 313, 118, 328
-0.999562, 97, 319, 112, 334
-0.999562, 271, 319, 286, 334
-0.999562, 431, 303, 446, 318
-0.999563, 321, 271, 336, 286
-0.999563, 293, 311, 308, 326
-0.999563, 273, 299, 288, 314
-0.999563, 147, 225, 162, 352
-0.999564, 285, 261, 300, 276
-0.999564, 111, 361, 126, 375
-0.999564, 307, 261, 322, 276
-0.999564, 301, 241, 316, 368
-0.999565, 215, 343, 230, 358
-0.999565, 89, 241, 104, 368
-0.999567, 21, 307, 36, 322
-0.999567, 325, 241, 340, 368
-0.999567, 171, 293, 186, 308
-0.999567, 41, 349, 56, 364
-0.999567, 39, 123, 54, 138
-0.999568, 173, 81, 188, 208
-0.999568, 355, 261, 370, 276
-0.999568, 125, 329, 140, 344
-0.999569, 273, 279, 288, 294
-0.99957, 199, 323, 214, 338
-0.99957, 271, 287, 286, 302
-0.99957, 163, 293, 178, 308
-0.999571, 179, 275, 194, 290
-0.999571, 223, 137, 238, 152
-0.999571, 45, 307, 60, 322
-0.999571, 247, 81, 262, 208
-0.999572, 117, 361, 132, 375
-0.999572, 343, 325, 358, 340
-0.999572, 277, 311, 292, 326
-0.999573, 371, 177, 386, 304
-0.999573, 169, 163, 184, 178
-0.999574, 47, 123, 62, 138
-0.999574, 355, 247, 370, 262
-0.999575, 157, 289, 172, 304
-0.999575, 423, 305, 438, 320
-0.999575, 173, 207, 188, 222
-0.999579, 83, 287, 98, 302
-0.999579, 297, 303, 312, 318
-0.99958, 113, 349, 128, 364
-0.999582, 389, 285, 404, 300
-0.999583, 257, 97, 272, 224
-0.999583, 189, 325, 204, 340
-0.999584, 179, 145, 194, 272
-0.999584, 313, 263, 328, 278
-0.999584, 225, 113, 240, 240
-0.999585, 207, 327, 222, 342
-0.999585, 127, 129, 142, 256
-0.999585, 319, 277, 334, 292
-0.999585, 331, 329, 346, 344
-0.999588, 281, 277, 296, 292
-0.999588, 419, 241, 434, 368
-0.999588, 385, 225, 400, 352
-0.999589, 75, 301, 90, 316
-0.999591, 151, 145, 166, 272
-0.999592, 11, 137, 26, 152
-0.999593, 389, 277, 404, 292
-0.999593, 445, 289, 460, 304
-0.999594, 49, 353, 64, 368
-0.999594, 85, 299, 100, 314
-0.999594, 395, 279, 410, 294
-0.999594, 125, 33, 156, 288
-0.999595, 91, 123, 106, 138
-0.999595, 353, 299, 368, 314
-0.999595, 59, 351, 74, 366
-0.999595, 303, 299, 318, 314
-0.999597, 115, 65, 130, 192
-0.999597, 269, 65, 284, 192
-0.999599, 11, 341, 26, 356
-0.9996, 233, 325, 248, 340
-0.9996, 425, 241, 440, 368
-0.999601, 291, 303, 306, 318
-0.999603, 285, 301, 300, 316
-0.999603, 373, 253, 388, 268
-0.999604, 109, 129, 124, 256
-0.999604, 485, 97, 500, 224
-0.999605, 439, 293, 454, 308
-0.999605, 299, 309, 314, 324
-0.999605, 325, 331, 340, 346
-0.999607, 285, 309, 300, 324
-0.999607, 143, 291, 158, 306
-0.999608, 365, 251, 380, 266
-0.999609, 409, 193, 440, 320
-0.999609, 85, 293, 100, 308
-0.99961, 33, 147, 48, 162
-0.99961, 407, 241, 422, 368
-0.99961, 479, 97, 494, 224
-0.999611, 177, 291, 192, 306
-0.999611, 357, 241, 372, 256
-0.999612, 191, 129, 206, 256
-0.999613, 69, 301, 84, 316
-0.999613, 15, 309, 30, 324
-0.999614, 133, 339, 148, 354
-0.999615, 205, 335, 220, 350
-0.999616, 115, 307, 130, 322
-0.999616, 125, 349, 140, 364
-0.999616, 287, 255, 302, 270
-0.999616, 121, 143, 136, 158
-0.999617, 159, 171, 174, 186
-0.999617, 129, 299, 144, 314
-0.999617, 295, 97, 310, 224
-0.999618, 227, 339, 242, 354
-0.99962, 217, 33, 248, 288
-0.99962, 213, 285, 228, 300
-0.999621, 251, 129, 266, 256
-0.999621, 213, 327, 228, 342
-0.999623, 39, 297, 54, 312
-0.999624, 1, 337, 16, 352
-0.999625, 203, 103, 218, 118
-0.999625, 73, 311, 88, 326
-0.999626, 151, 81, 166, 208
-0.999628, 75, 241, 90, 368
-0.999629, 349, 245, 364, 260
-0.99963, 137, 295, 152, 310
-0.999631, 15, 333, 30, 348
-0.999631, 337, 241, 352, 368
-0.999632, 225, 325, 240, 340
-0.999632, 229, 349, 244, 364
-0.999632, 211, 337, 226, 352
-0.999635, 7, 335, 22, 350
-0.999635, 29, 343, 44, 358
-0.999635, 325, 145, 340, 272
-0.999636, 169, 287, 184, 302
-0.999637, 169, 169, 184, 184
-0.999639, 447, 97, 462, 224
-0.999639, 455, 97, 470, 224
-0.99964, 435, 97, 450, 224
-0.999641, 169, 193, 184, 320
-0.999642, 433, 129, 464, 375
-0.999642, 127, 361, 142, 375
-0.999643, 19, 301, 34, 316
-0.999645, 303, 97, 318, 224
-0.999646, 179, 285, 194, 300
-0.999646, 151, 311, 166, 326
-0.999648, 151, 289, 166, 304
-0.999648, 179, 159, 194, 174
-0.999649, 187, 193, 202, 320
-0.999652, 465, 97, 480, 224
-0.999652, 471, 97, 486, 224
-0.999652, 287, 97, 302, 224
-0.999652, 323, 97, 338, 224
-0.999654, 263, 81, 278, 208
-0.999655, 221, 331, 236, 346
-0.999655, 83, 309, 98, 324
-0.999657, 431, 297, 446, 312
-0.999657, 31, 297, 46, 312
-0.999658, 441, 97, 456, 224
-0.999662, 309, 97, 324, 224
-0.999663, 33, 65, 288, 128
-0.999663, 25, 299, 40, 314
-0.999664, 223, 347, 238, 362
-0.999664, 429, 97, 444, 224
-0.999664, 109, 309, 124, 324
-0.99967, 295, 225, 310, 352
-0.999674, 421, 97, 436, 224
-0.999679, 227, 331, 242, 346
-0.999681, 75, 295, 90, 310
-0.999682, 23, 337, 38, 352
-0.999684, 103, 145, 118, 272
-0.999685, 29, 161, 44, 288
-0.999687, 131, 331, 146, 346
-0.999691, 379, 255, 394, 270
-0.9997, 127, 355, 142, 370
-0.999705, 201, 329, 216, 344
-0.999712, 329, 1, 392, 256
-0.999724, 469, 129, 500, 375
-0.999724, 221, 341, 236, 356
-0.999753, 93, 97, 124, 352
-0.999754, 161, 25, 416, 88
-0.999769, 277, 49, 308, 176
-0.999775, 453, 129, 484, 375
-0.99982, 361, 129, 392, 256
-0.999878, 13, 129, 44, 375
-0.9999, 165, 33, 196, 288
-0.999913, 1, 65, 128, 128
-0.999917, 385, 129, 416, 375
-0.99993, 305, 145, 336, 272
-0.999969, 269, 1, 300, 256
-0.999976, 365, 97, 396, 352
-1.00002, 1, 1, 64, 375
-1.00004, 369, 49, 496, 112
-1.00008, 225, 193, 256, 320
-1.00012, 349, 49, 380, 176
-1.00012, 281, 1, 312, 256
-1.00016, 33, 33, 64, 288
-1.00018, 333, 17, 364, 144
-1.00019, 317, 33, 348, 288
-1.00023, 9, 33, 40, 288
-1.00023, 129, 33, 192, 160
-1.00025, 349, 33, 380, 288
-1.00029, 297, 1, 328, 256
-1.0004, 401, 1, 464, 256
-1.0004, 409, 33, 440, 288
-1.00044, 41, 81, 72, 208
-1.00047, 441, 49, 472, 176
-1.00052, 129, 1, 384, 64
-1.00053, 101, 1, 132, 256
-1.00061, 37, 129, 68, 375
-1.00067, 1, 129, 32, 375
-1.00071, 345, 1, 408, 128
-1.00077, 65, 41, 320, 104
-1.00077, 397, 1, 428, 256
-1.00079, 465, 49, 496, 176
-1.00083, 369, 1, 432, 128
-1.00086, 421, 1, 452, 256
-1.00087, 393, 97, 424, 224
-1.00091, 61, 129, 92, 375
-1.00092, 117, 225, 148, 352
-1.00097, 425, 1, 488, 375
-1.00107, 21, 1, 52, 256
-1.00111, 453, 33, 484, 288
-1.00121, 433, 1, 464, 256
-1.00122, 49, 17, 176, 144
-1.00123, 33, 1, 288, 128
-1.00126, 469, 1, 500, 256
-1.00128, 285, 177, 316, 304
-1.00128, 89, 1, 120, 256
-1.0013, 453, 49, 484, 176
-1.00133, 49, 1, 80, 256
-1.00133, 429, 49, 460, 176
-1.00134, 49, 129, 80, 375
-1.00134, 385, 33, 416, 288
-1.00138, 65, 41, 192, 104
-1.00142, 1, 129, 64, 375
-1.00149, 149, 33, 180, 160
-1.00151, 361, 1, 392, 256
-1.00158, 197, 33, 228, 160
-1.00161, 57, 97, 88, 224
-1.00168, 65, 1, 96, 256
-1.00168, 293, 49, 324, 176
-1.0017, 17, 41, 144, 104
-1.00174, 1, 241, 32, 368
-1.00177, 77, 33, 108, 288
-1.00179, 321, 49, 352, 176
-1.0018, 373, 1, 404, 256
-1.00182, 305, 193, 336, 320
-1.00187, 141, 193, 172, 320
-1.00188, 1, 49, 500, 112
-1.00189, 65, 49, 96, 176
-1.002, 381, 145, 412, 272
-1.00209, 413, 145, 444, 272
-1.0021, 177, 33, 304, 96
-1.00212, 33, 17, 288, 80
-1.00216, 353, 1, 384, 128
-1.0022, 361, 33, 424, 288
-1.00222, 29, 65, 60, 192
-1.00262, 401, 1, 464, 128
-1.00268, 425, 177, 488, 304
-1.00283, 193, 9, 320, 72
-1.00288, 65, 17, 192, 80
-1.00291, 17, 9, 144, 72
-1.00303, 129, 1, 256, 64
-1.00303, 1, 25, 500, 88
-1.00324, 1, 1, 500, 64
-1.00361, 241, 17, 304, 144
-1.0037, 369, 1, 496, 128
-1.00433, 161, 1, 224, 128
-1.00502, 33, 1, 96, 256
-1.0051, 97, 1, 224, 128
-1.00517, 217, 17, 280, 144
-1.00518, 1, 1, 64, 256
-1.00531, 433, 1, 496, 256
-1.00632, 49, 49, 112, 176
-1.0069, 113, 193, 176, 320
-1.01, 1, 17, 128, 144
-1.01139, 1, 177, 64, 304
-1.01194, 73, 1, 136, 128
-1.01375, 265, 1, 328, 128
-1.01445, 41, 1, 104, 128
-1.01479, 1, 17, 64, 144
-1.01485, 265, 145, 328, 272
-1.01544, 425, 1, 488, 128
