1723
-0.556066, 1, 1, 400, 256
-0.584831, 1, 1, 400, 300
-0.592012, 1, 1, 256, 300
-0.62206, 97, 1, 352, 300
-0.744449, 33, 33, 288, 288
-0.805459, 129, 1, 384, 256
-0.876869, 129, 33, 256, 288
-0.881933, 81, 1, 208, 256
-0.882962, 129, 1, 256, 300
-0.883794, 81, 1, 208, 300
-0.890048, 193, 1, 320, 300
-0.893384, 209, 1, 336, 256
-0.914496, 1, 177, 400, 300
-0.915914, 33, 1, 160, 300
-0.919998, 129, 177, 256, 300
-0.921269, 273, 1, 400, 300
-0.923393, 33, 1, 160, 256
-0.925181, 161, 177, 224, 300
-0.926873, 1, 129, 400, 256
-0.933535, 1, 177, 256, 300
-0.936909, 1, 129, 256, 256
-0.938695, 273, 1, 400, 256
-0.940608, 1, 33, 400, 160
-0.941368, 65, 145, 192, 272
-0.942351, 33, 81, 288, 208
-0.948539, 137, 161, 200, 288
-0.94872, 97, 177, 352, 300
-0.950133, 97, 33, 352, 160
-0.95055, 209, 177, 272, 300
-0.950695, 129, 81, 256, 208
-0.950807, 1, 17, 256, 144
-0.951427, 161, 217, 224, 280
-0.951945, 145, 129, 272, 256
-0.953621, 161, 193, 224, 256
-0.954777, 185, 161, 248, 288
-0.955327, 1, 81, 400, 208
-0.957114, 97, 129, 352, 256
-0.958411, 113, 145, 176, 272
-0.959383, 193, 145, 320, 272
-0.960205, 33, 161, 96, 288
-0.961044, 209, 17, 336, 144
-0.96205, 201, 113, 264, 240
-0.962053, 153, 169, 216, 232
-0.962628, 209, 225, 272, 288
-0.963108, 273, 1, 400, 128
-0.96377, 81, 17, 208, 144
-0.964196, 129, 217, 256, 280
-0.964495, 169, 241, 232, 300
-0.964773, 161, 129, 224, 256
-0.965257, 65, 97, 192, 224
-0.965376, 305, 1, 368, 128
-0.965615, 129, 177, 192, 240
-0.966221, 105, 17, 168, 144
-0.966277, 105, 97, 168, 224
-0.966463, 1, 1, 128, 128
-0.9665, 17, 177, 144, 300
-0.967542, 129, 241, 192, 300
-0.968327, 177, 49, 240, 176
-0.969133, 193, 201, 256, 264
-0.969363, 217, 17, 280, 144
-0.969592, 145, 33, 272, 160
-0.969702, 153, 65, 216, 192
-0.969946, 1, 129, 128, 256
-0.970212, 145, 241, 272, 300
-0.970257, 49, 1, 112, 128
-0.970747, 177, 161, 240, 224
-0.970818, 97, 185, 224, 248
-0.971013, 121, 201, 184, 264
-0.971189, 149, 161, 180, 288
-0.972195, 185, 73, 248, 136
-0.972267, 73, 81, 136, 208
-0.972447, 153, 233, 184, 296
-0.972847, 141, 233, 172, 296
-0.973165, 305, 1, 368, 64
-0.973359, 241, 177, 368, 300
-0.973511, 9, 129, 72, 256
-0.974158, 17, 177, 80, 240
-0.974485, 165, 177, 196, 300
-0.974609, 337, 33, 400, 160
-0.975068, 113, 1, 176, 256
-0.975295, 201, 113, 264, 176
-0.97558, 105, 161, 168, 224
-0.975599, 145, 169, 272, 232
-0.975676, 41, 193, 104, 256
-0.975774, 233, 177, 296, 300
-0.975893, 225, 9, 288, 72
-0.976245, 49, 113, 112, 240
-0.976597, 97, 161, 224, 224
-0.976665, 281, 33, 344, 160
-0.976864, 337, 41, 400, 104
-0.97705, 65, 241, 192, 300
-0.977059, 153, 209, 184, 272
-0.977075, 213, 217, 244, 280
-0.977305, 177, 201, 304, 264
-0.977495, 145, 145, 208, 208
-0.977504, 209, 65, 336, 192
-0.977735, 153, 49, 216, 112
-0.977883, 201, 161, 264, 224
-0.978411, 217, 185, 280, 248
-0.978415, 65, 209, 192, 272
-0.97863, 161, 169, 192, 232
-0.978687, 81, 177, 144, 300
-0.978928, 221, 241, 252, 300
-0.979039, 33, 217, 96, 280
-0.979092, 177, 49, 240, 112
-0.979353, 129, 73, 256, 136
-0.979432, 9, 209, 72, 272
-0.979553, 73, 1, 136, 128
-0.979599, 57, 1, 120, 64
-0.979859, 17, 81, 144, 208
-0.980117, 9, 177, 72, 300
-0.980245, 129, 97, 192, 224
-0.980351, 193, 1, 256, 256
-0.980456, 73, 105, 136, 168
-0.980593, 153, 17, 216, 144
-0.980717, 233, 233, 296, 296
-0.980787, 337, 73, 400, 136
-0.980864, 57, 177, 120, 300
-0.980968, 193, 137, 256, 200
-0.981046, 81, 129, 144, 256
-0.981071, 17, 1, 144, 64
-0.981203, 137, 145, 168, 272
-0.981218, 217, 177, 248, 300
-0.981373, 201, 233, 232, 296
-0.981445, 201, 193, 232, 256
-0.981465, 49, 153, 176, 216
-0.981509, 129, 81, 384, 208
-0.981794, 173, 193, 204, 256
-0.981843, 241, 17, 304, 144
-0.982066, 113, 25, 176, 88
-0.982083, 81, 33, 208, 96
-0.982232, 161, 145, 288, 208
-0.98236, 1, 193, 128, 256
-0.982502, 105, 233, 168, 296
-0.982537, 105, 1, 168, 64
-0.982681, 197, 137, 228, 200
-0.982691, 153, 73, 216, 136
-0.982797, 305, 49, 368, 176
-0.98294, 129, 17, 192, 144
-0.983035, 193, 1, 256, 128
-0.98335, 197, 129, 228, 256
-0.983375, 233, 1, 264, 64
-0.983612, 281, 41, 344, 104
-0.983689, 149, 161, 180, 224
-0.983721, 193, 241, 320, 300
-0.98401, 41, 161, 104, 224
-0.984037, 73, 145, 104, 272
-0.984131, 189, 161, 220, 224
-0.984285, 1, 241, 64, 300
-0.984317, 237, 177, 268, 300
-0.984348, 193, 33, 320, 96
-0.984438, 201, 65, 232, 128
-0.984544, 273, 49, 400, 176
-0.984605, 137, 1, 200, 256
-0.984687, 25, 241, 88, 300
-0.984715, 9, 153, 72, 216
-0.984782, 177, 177, 208, 300
-0.984818, 193, 1, 256, 300
-0.985072, 33, 1, 96, 64
-0.985168, 41, 145, 72, 272
-0.985193, 201, 65, 264, 192
-0.985215, 257, 1, 384, 64
-0.985305, 257, 225, 320, 288
-0.985365, 241, 33, 304, 96
-0.98539, 73, 177, 136, 240
-0.985401, 49, 137, 112, 200
-0.985427, 105, 1, 168, 300
-0.985476, 49, 177, 176, 240
-0.98552, 265, 177, 328, 300
-0.98569, 137, 25, 200, 88
-0.985723, 201, 25, 264, 88
-0.985751, 305, 33, 368, 96
-0.986076, 89, 1, 152, 256
-0.986178, 165, 241, 196, 300
-0.986227, 129, 49, 256, 112
-0.986231, 225, 217, 256, 280
-0.986265, 149, 185, 180, 248
-0.986417, 65, 1, 192, 64
-0.986429, 53, 177, 84, 300
-0.986495, 309, 1, 340, 128
-0.986522, 33, 217, 64, 280
-0.986526, 161, 121, 224, 184
-0.986538, 241, 1, 304, 256
-0.986546, 257, 25, 384, 88
-0.986696, 225, 129, 288, 256
-0.986735, 281, 65, 344, 128
-0.986788, 197, 177, 228, 300
-0.98679, 241, 233, 368, 296
-0.986792, 197, 65, 228, 192
-0.986836, 97, 209, 160, 272
-0.986889, 113, 97, 176, 160
-0.987024, 249, 177, 280, 300
-0.987068, 113, 129, 176, 192
-0.987203, 209, 1, 336, 64
-0.987209, 1, 169, 128, 232
-0.987224, 193, 169, 320, 232
-0.987267, 9, 1, 72, 128
-0.987275, 81, 137, 144, 200
-0.987414, 209, 49, 272, 112
-0.987418, 133, 97, 164, 224
-0.987564, 9, 1, 72, 64
-0.987575, 161, 9, 288, 72
-0.987594, 73, 169, 104, 232
-0.987594, 189, 217, 220, 280
-0.987666, 185, 113, 216, 240
-0.987687, 41, 177, 72, 240
-0.987766, 233, 209, 296, 272
-0.987796, 193, 57, 320, 120
-0.987867, 129, 97, 256, 160
-0.987874, 137, 161, 168, 224
-0.987986, 189, 41, 220, 104
-0.987993, 281, 17, 344, 80
-0.988004, 165, 217, 196, 280
-0.988119, 65, 97, 192, 160
-0.988142, 61, 113, 92, 240
-0.988185, 145, 1, 208, 300
-0.988207, 113, 121, 240, 184
-0.988244, 49, 121, 176, 184
-0.988296, 237, 225, 268, 288
-0.988319, 17, 217, 144, 280
-0.988427, 213, 97, 244, 160
-0.98851, 161, 217, 224, 248
-0.988552, 145, 169, 208, 200
-0.988568, 229, 1, 260, 128
-0.98871, 81, 1, 144, 64
-0.988803, 73, 201, 136, 264
-0.98885, 221, 97, 252, 224
-0.988873, 13, 177, 44, 300
-0.988914, 145, 25, 176, 88
-0.989048, 1, 161, 32, 288
-0.989056, 189, 185, 220, 248
-0.98907, 65, 1, 128, 256
-0.989108, 117, 113, 148, 240
-0.989152, 329, 1, 392, 256
-0.989169, 249, 233, 280, 296
-0.989222, 13, 233, 44, 296
-0.98929, 161, 229, 224, 260
-0.989329, 161, 33, 224, 288
-0.989363, 153, 181, 216, 212
-0.989475, 161, 129, 192, 256
-0.9895, 217, 257, 280, 288
-0.989502, 161, 193, 224, 224
-0.989525, 61, 193, 92, 256
-0.989565, 185, 49, 216, 176
-0.989666, 241, 1, 304, 300
-0.989683, 357, 41, 388, 104
-0.989771, 57, 225, 120, 288
-0.989823, 137, 233, 200, 264
-0.989867, 297, 33, 328, 96
-0.989915, 81, 1, 112, 64
-0.98996, 201, 225, 264, 256
-0.990083, 41, 145, 72, 208
-0.990168, 93, 81, 124, 208
-0.990194, 357, 33, 388, 160
-0.990245, 209, 97, 240, 224
-0.990299, 201, 237, 264, 268
-0.990327, 313, 65, 376, 128
-0.990345, 93, 1, 124, 128
-0.990375, 177, 153, 208, 216
-0.990416, 17, 97, 144, 160
-0.990435, 1, 65, 64, 192
-0.990448, 169, 205, 232, 236
-0.990478, 201, 113, 232, 176
-0.990516, 1, 177, 32, 240
-0.990549, 81, 1, 144, 300
-0.990555, 25, 161, 56, 288
-0.990602, 209, 33, 240, 160
-0.99069, 141, 17, 172, 144
-0.990717, 89, 25, 152, 88
-0.990786, 193, 205, 256, 236
-0.99082, 129, 205, 192, 236
-0.990822, 129, 221, 192, 252
-0.990838, 113, 181, 176, 212
-0.990853, 209, 81, 336, 144
-0.990917, 1, 241, 128, 300
-0.990932, 245, 1, 276, 64
-0.99094, 273, 57, 400, 120
-0.990948, 169, 253, 232, 284
-0.990953, 105, 1, 136, 64
-0.990967, 117, 17, 148, 144
-0.990975, 25, 177, 56, 240
-0.990997, 113, 237, 176, 268
-0.991013, 53, 1, 84, 128
-0.991018, 1, 241, 256, 300
-0.99106, 245, 1, 276, 128
-0.991063, 1, 201, 256, 264
-0.991071, 313, 1, 344, 64
-0.991071, 137, 269, 200, 300
-0.991081, 49, 113, 112, 176
-0.991086, 169, 269, 232, 300
-0.991113, 161, 241, 224, 272
-0.991131, 209, 33, 240, 96
-0.991144, 113, 161, 176, 192
-0.991152, 177, 49, 208, 112
-0.991162, 65, 137, 96, 200
-0.991197, 213, 73, 244, 136
-0.991217, 201, 1, 264, 64
-0.991237, 177, 65, 240, 96
-0.991247, 17, 181, 80, 212
-0.991266, 197, 17, 228, 144
-0.991277, 241, 193, 368, 256
-0.991299, 9, 201, 40, 264
-0.991305, 121, 257, 184, 288
-0.991324, 81, 57, 208, 120
-0.991361, 29, 241, 60, 300
-0.991397, 217, 25, 280, 56
-0.991448, 193, 249, 256, 280
-0.991456, 177, 161, 240, 192
-0.991473, 33, 197, 96, 228
-0.991487, 85, 185, 116, 248
-0.991492, 1, 145, 128, 208
-0.991512, 121, 193, 184, 224
-0.991524, 305, 5, 368, 36
-0.991544, 85, 161, 116, 288
-0.991547, 241, 265, 304, 296
-0.99159, 185, 177, 248, 208
-0.991609, 129, 225, 160, 288
-0.991672, 201, 121, 264, 152
-0.991684, 1, 265, 64, 296
-0.991715, 153, 69, 216, 100
-0.99174, 145, 81, 176, 208
-0.991778, 153, 153, 216, 184
-0.99178, 177, 97, 240, 160
-0.991782, 57, 1, 120, 32
-0.991788, 185, 193, 248, 224
-0.991802, 337, 1, 400, 300
-0.991829, 121, 29, 184, 60
-0.991829, 189, 73, 220, 136
-0.991845, 33, 213, 96, 244
-0.991846, 25, 253, 88, 284
-0.991852, 217, 185, 248, 248
-0.991854, 201, 145, 264, 176
-0.991877, 217, 1, 280, 300
-0.991916, 209, 153, 240, 216
-0.991919, 305, 29, 368, 60
-0.991928, 33, 1, 96, 32
-0.991996, 49, 185, 112, 216
-0.992002, 193, 105, 256, 136
-0.992018, 45, 201, 76, 264
-0.992027, 97, 225, 352, 288
-0.992042, 105, 33, 136, 160
-0.99205, 113, 9, 240, 72
-0.992089, 153, 57, 216, 88
-0.992102, 1, 201, 64, 232
-0.992111, 1, 213, 64, 244
-0.992119, 217, 9, 280, 40
-0.992127, 73, 197, 136, 228
-0.992149, 329, 1, 360, 128
-0.992153, 193, 45, 256, 76
-0.992155, 201, 133, 264, 164
-0.992177, 265, 41, 328, 72
-0.992187, 193, 269, 256, 300
-0.992188, 65, 1, 96, 64
-0.992193, 321, 41, 384, 72
-0.992198, 129, 237, 256, 268
-0.9922, 257, 1, 320, 64
-0.99221, 153, 165, 184, 196
-0.992224, 201, 157, 264, 188
-0.992224, 225, 245, 288, 276
-0.992246, 217, 213, 280, 244
-0.992258, 149, 233, 180, 264
-0.992264, 9, 1, 72, 256
-0.992269, 225, 225, 288, 256
-0.992288, 41, 173, 104, 204
-0.992302, 177, 77, 240, 108
-0.992364, 73, 101, 136, 132
-0.99243, 113, 1, 176, 32
-0.992463, 25, 269, 88, 300
-0.992466, 209, 181, 272, 212
-0.99248, 233, 153, 264, 216
-0.992525, 169, 1, 232, 300
-0.992545, 9, 165, 72, 196
-0.992562, 33, 145, 96, 176
-0.992565, 137, 245, 200, 276
-0.992581, 225, 161, 288, 224
-0.992584, 221, 249, 252, 280
-0.992587, 89, 81, 152, 144
-0.992591, 177, 89, 240, 120
-0.992596, 241, 41, 304, 72
-0.992614, 337, 77, 400, 108
-0.992617, 161, 177, 192, 208
-0.992628, 65, 17, 128, 48
-0.992634, 113, 73, 176, 136
-0.992645, 33, 241, 96, 272
-0.99266, 217, 193, 280, 224
-0.99267, 265, 21, 328, 52
-0.992678, 41, 161, 104, 192
-0.992684, 65, 1, 96, 128
-0.992703, 201, 69, 264, 100
-0.992719, 337, 93, 400, 124
-0.992723, 97, 17, 160, 48
-0.992727, 213, 237, 244, 268
-0.992727, 153, 221, 184, 252
-0.992728, 105, 221, 168, 252
-0.992733, 155, 233, 170, 296
-0.992738, 105, 149, 168, 180
-0.992745, 97, 33, 160, 64
-0.992786, 217, 57, 280, 88
-0.992799, 169, 193, 200, 224
-0.992805, 217, 37, 280, 68
-0.992809, 73, 185, 136, 216
-0.992853, 217, 269, 280, 300
-0.992854, 73, 141, 136, 172
-0.992856, 237, 245, 268, 276
-0.99286, 113, 93, 176, 124
-0.992863, 297, 17, 360, 48
-0.992869, 265, 257, 328, 288
-0.992876, 265, 1, 328, 300
-0.992886, 281, 77, 344, 108
-0.99289, 205, 225, 236, 256
-0.992896, 137, 233, 168, 264
-0.992908, 205, 249, 236, 280
-0.992913, 1, 225, 64, 256
-0.992914, 129, 225, 256, 256
-0.992927, 145, 85, 208, 116
-0.992933, 289, 17, 320, 144
-0.992944, 237, 9, 268, 40
-0.992944, 65, 1, 96, 32
-0.992945, 9, 1, 72, 32
-0.992949, 49, 1, 80, 64
-0.992963, 33, 225, 96, 256
-0.992967, 161, 241, 192, 272
-0.992969, 73, 153, 136, 184
-0.99297, 201, 69, 232, 100
-0.992987, 81, 1, 144, 32
-0.992995, 45, 177, 76, 208
-0.99302, 253, 265, 284, 296
-0.993021, 281, 61, 344, 92
-0.993024, 157, 265, 188, 296
-0.993025, 205, 213, 236, 244
-0.993039, 113, 105, 176, 136
-0.993042, 225, 221, 256, 252
-0.993043, 81, 213, 144, 244
-0.993047, 49, 133, 112, 164
-0.993063, 1, 253, 64, 284
-0.993064, 145, 249, 176, 280
-0.993083, 185, 177, 216, 208
-0.993088, 217, 73, 280, 136
-0.993097, 317, 1, 348, 32
-0.993104, 145, 185, 176, 216
-0.993106, 57, 217, 120, 248
-0.993107, 149, 209, 180, 240
-0.99311, 197, 197, 228, 228
-0.993112, 141, 165, 172, 196
-0.993116, 161, 37, 224, 68
-0.993118, 169, 225, 200, 256
-0.993122, 169, 121, 232, 152
-0.993132, 193, 237, 224, 268
-0.993132, 161, 261, 288, 292
-0.993144, 249, 245, 312, 276
-0.993145, 241, 261, 272, 292
-0.993147, 297, 269, 360, 300
-0.993149, 25, 217, 56, 248
-0.993152, 337, 81, 400, 208
-0.993152, 297, 41, 360, 72
-0.993157, 241, 25, 304, 56
-0.99316, 193, 225, 224, 256
-0.99317, 177, 165, 208, 196
-0.993172, 9, 269, 40, 300
-0.993176, 225, 237, 256, 268
-0.993177, 169, 269, 200, 300
-0.993177, 305, 85, 368, 116
-0.993184, 229, 21, 260, 52
-0.993188, 193, 141, 224, 172
-0.993201, 217, 101, 248, 132
-0.993201, 149, 197, 180, 228
-0.993203, 173, 205, 204, 236
-0.993208, 97, 201, 352, 264
-0.993208, 57, 185, 88, 216
-0.993209, 177, 105, 304, 168
-0.99321, 1, 237, 64, 268
-0.993214, 45, 197, 76, 228
-0.993215, 73, 177, 104, 208
-0.993215, 265, 269, 296, 300
-0.993219, 145, 29, 176, 60
-0.993223, 201, 121, 232, 152
-0.993224, 193, 161, 224, 192
-0.993225, 329, 65, 392, 96
-0.993235, 237, 233, 268, 264
-0.993238, 133, 245, 164, 276
-0.993253, 161, 141, 224, 172
-0.993255, 257, 225, 320, 256
-0.993256, 149, 137, 180, 200
-0.993258, 225, 169, 288, 200
-0.993265, 137, 97, 200, 128
-0.993267, 129, 161, 160, 192
-0.993287, 145, 261, 176, 292
-0.993288, 81, 189, 112, 220
-0.993296, 25, 185, 56, 216
-0.993299, 261, 241, 292, 300
-0.993301, 249, 249, 280, 280
-0.993305, 241, 21, 272, 52
-0.993305, 197, 269, 228, 300
-0.993307, 233, 129, 264, 256
-0.993311, 221, 41, 252, 104
-0.993315, 29, 241, 60, 272
-0.993315, 133, 177, 164, 208
-0.993316, 57, 237, 120, 268
-0.993316, 41, 165, 72, 196
-0.99332, 221, 261, 252, 292
-0.993322, 201, 81, 264, 112
-0.993324, 185, 57, 216, 88
-0.993325, 13, 205, 44, 236
-0.993334, 185, 73, 216, 104
-0.993336, 125, 225, 156, 256
-0.99334, 297, 41, 328, 72
-0.993342, 309, 13, 340, 44
-0.993343, 129, 17, 160, 144
-0.993347, 61, 197, 92, 228
-0.993357, 181, 217, 212, 248
-0.993364, 65, 173, 128, 204
-0.993364, 37, 149, 68, 180
-0.993365, 365, 49, 396, 80
-0.993368, 149, 153, 180, 184
-0.993374, 237, 213, 268, 244
-0.993383, 37, 217, 68, 248
-0.993384, 25, 201, 56, 232
-0.993385, 1, 13, 64, 44
-0.993392, 17, 257, 48, 288
-0.993403, 305, 53, 368, 84
-0.993405, 337, 53, 400, 84
-0.993405, 241, 209, 304, 240
-0.993411, 89, 89, 152, 120
-0.993416, 105, 1, 136, 32
-0.99342, 257, 5, 320, 36
-0.993421, 73, 193, 104, 256
-0.993429, 233, 169, 264, 200
-0.993434, 217, 37, 248, 68
-0.993434, 65, 253, 128, 284
-0.993437, 217, 209, 248, 240
-0.993438, 81, 5, 112, 36
-0.993441, 181, 269, 212, 300
-0.993441, 249, 229, 280, 260
-0.993441, 185, 189, 216, 220
-0.993443, 201, 81, 232, 112
-0.993443, 165, 65, 196, 96
-0.993445, 217, 113, 248, 144
-0.993448, 25, 165, 56, 196
-0.993457, 329, 1, 360, 32
-0.993459, 205, 157, 236, 188
-0.99346, 145, 257, 208, 288
-0.993461, 13, 225, 44, 256
-0.993461, 1, 177, 32, 208
-0.993463, 69, 209, 100, 240
-0.993466, 201, 109, 232, 140
-0.993471, 61, 129, 92, 160
-0.993472, 33, 265, 64, 296
-0.993481, 221, 65, 252, 96
-0.993481, 225, 157, 288, 188
-0.993486, 1, 85, 64, 116
-0.993492, 97, 97, 128, 128
-0.993494, 33, 253, 64, 284
-0.993497, 145, 249, 272, 280
-0.993502, 73, 29, 136, 60
-0.993507, 73, 149, 104, 180
-0.993509, 133, 149, 164, 180
-0.993518, 89, 201, 120, 232
-0.993519, 93, 177, 124, 208
-0.99352, 221, 197, 252, 228
-0.993522, 197, 49, 228, 80
-0.993523, 141, 221, 172, 252
-0.993526, 53, 169, 84, 232
-0.993527, 217, 137, 280, 200
-0.993529, 161, 53, 192, 84
-0.993531, 229, 157, 260, 188
-0.993537, 277, 45, 308, 76
-0.993544, 133, 33, 164, 64
-0.993551, 221, 81, 252, 112
-0.993552, 25, 229, 56, 260
-0.993554, 281, 265, 312, 296
-0.993556, 49, 249, 80, 280
-0.993556, 357, 89, 388, 120
-0.993558, 105, 17, 136, 48
-0.99356, 21, 269, 52, 300
-0.993562, 205, 145, 236, 176
-0.993565, 333, 33, 364, 64
-0.993567, 45, 5, 76, 36
-0.993569, 193, 213, 224, 244
-0.993572, 65, 165, 96, 196
-0.993575, 305, 1, 336, 32
-0.993578, 325, 1, 356, 64
-0.993579, 153, 73, 184, 104
-0.993581, 321, 21, 352, 52
-0.993582, 117, 89, 148, 120
-0.993585, 285, 69, 316, 100
-0.99359, 105, 37, 136, 68
-0.993591, 65, 221, 96, 252
-0.993599, 13, 241, 44, 272
-0.993745, 81, 1, 112, 128
-0.993747, 149, 233, 164, 296
-0.993775, 145, 213, 272, 244
-0.993791, 167, 241, 182, 300
-0.993853, 33, 25, 160, 88
-0.993863, 163, 201, 178, 264
-0.99387, 1, 177, 256, 240
-0.993885, 33, 1, 96, 256
-0.993931, 161, 25, 224, 88
-0.993964, 1, 1, 64, 300
-0.993984, 161, 241, 176, 300
-0.994007, 33, 105, 288, 168
-0.994014, 145, 1, 176, 64
-0.99404, 329, 33, 360, 96
-0.994047, 105, 81, 136, 208
-0.994168, 33, 1, 96, 300
-0.994201, 97, 189, 224, 220
-0.994209, 129, 169, 256, 200
-0.994225, 265, 1, 328, 256
-0.994226, 157, 161, 172, 224
-0.994275, 165, 33, 196, 96
-0.994327, 265, 41, 296, 104
-0.994342, 237, 201, 268, 264
-0.994352, 313, 1, 376, 300
-0.994358, 217, 1, 280, 256
-0.994386, 281, 193, 344, 256
-0.994448, 329, 9, 392, 72
-0.994473, 77, 217, 108, 280
-0.994477, 1, 129, 256, 192
-0.994491, 241, 185, 304, 248
-0.994492, 101, 97, 132, 160
-0.994512, 21, 209, 52, 272
-0.994546, 221, 121, 252, 184
-0.994592, 145, 185, 272, 216
-0.994614, 145, 201, 272, 232
-0.994656, 189, 113, 220, 176
-0.994658, 285, 41, 316, 104
-0.994663, 97, 73, 352, 136
-0.994695, 285, 65, 316, 128
-0.994716, 57, 113, 88, 176
-0.994736, 337, 97, 400, 160
-0.994779, 321, 225, 384, 288
-0.994789, 257, 65, 320, 128
-0.99479, 33, 73, 160, 136
-0.994824, 97, 177, 352, 240
-0.994882, 249, 25, 280, 88
-0.994903, 57, 1, 120, 300
-0.994927, 215, 225, 230, 288
-0.994978, 93, 9, 124, 72
-0.994998, 117, 113, 148, 176
-0.99511, 65, 213, 192, 244
-0.995119, 209, 145, 336, 208
-0.99512, 57, 217, 88, 280
-0.995123, 173, 129, 204, 256
-0.995173, 225, 241, 240, 300
-0.995199, 97, 145, 128, 272
-0.995237, 201, 89, 232, 152
-0.995264, 281, 81, 344, 208
-0.995351, 171, 177, 186, 240
-0.995353, 65, 201, 192, 232
-0.995374, 1, 65, 256, 128
-0.995394, 177, 225, 304, 256
-0.9954, 157, 57, 188, 120
-0.995415, 241, 65, 304, 192
-0.995418, 65, 1, 320, 64
-0.99544, 289, 1, 352, 300
-0.995458, 223, 217, 238, 280
-0.995484, 73, 97, 104, 224
-0.995517, 237, 49, 268, 176
-0.995534, 237, 177, 268, 240
-0.99562, 369, 49, 400, 176
-0.995631, 65, 237, 192, 268
-0.995637, 89, 153, 120, 216
-0.995687, 137, 185, 168, 248
-0.995716, 273, 81, 400, 144
-0.995725, 165, 169, 180, 232
-0.995732, 97, 153, 352, 216
-0.995744, 137, 97, 200, 160
-0.995752, 297, 241, 360, 300
-0.995783, 157, 193, 172, 256
-0.995786, 189, 241, 220, 300
-0.995811, 65, 249, 192, 280
-0.995826, 221, 17, 252, 80
-0.995897, 209, 241, 224, 300
-0.99595, 21, 113, 52, 240
-0.995951, 105, 33, 136, 96
-0.995963, 81, 173, 208, 204
-0.995969, 169, 217, 184, 280
-0.995991, 237, 233, 252, 296
-0.995992, 1, 177, 400, 240
-0.995996, 209, 269, 336, 300
-0.996002, 173, 81, 204, 208
-0.99601, 231, 225, 246, 288
-0.996011, 341, 17, 372, 144
-0.996038, 199, 137, 214, 200
-0.996081, 309, 57, 340, 120
-0.996088, 65, 225, 192, 256
-0.996156, 45, 241, 76, 300
-0.996156, 153, 17, 184, 144
-0.996161, 1, 241, 400, 300
-0.996168, 225, 121, 352, 184
-0.996191, 133, 25, 164, 88
-0.996216, 81, 97, 112, 160
-0.996245, 151, 161, 166, 224
-0.996257, 301, 49, 332, 176
-0.996301, 209, 201, 224, 264
-0.996304, 265, 33, 296, 160
-0.996319, 129, 81, 256, 112
-0.99633, 1, 41, 256, 104
-0.996366, 345, 41, 376, 104
-0.996373, 1, 121, 128, 184
-0.996382, 253, 241, 268, 300
-0.996401, 1, 153, 256, 216
-0.996404, 49, 157, 176, 188
-0.996423, 177, 165, 304, 196
-0.996429, 129, 157, 256, 188
-0.996443, 199, 217, 214, 280
-0.996446, 41, 49, 104, 176
-0.996454, 25, 121, 88, 184
-0.996456, 337, 1, 352, 64
-0.996474, 193, 237, 320, 268
-0.996486, 129, 97, 160, 160
-0.996509, 329, 49, 360, 176
-0.996514, 97, 185, 128, 248
-0.996527, 143, 225, 158, 288
-0.996534, 243, 233, 258, 296
-0.996547, 221, 49, 252, 176
-0.996547, 37, 97, 68, 224
-0.996551, 193, 161, 208, 224
-0.996583, 205, 121, 220, 184
-0.996596, 341, 65, 372, 128
-0.996607, 247, 1, 262, 64
-0.996612, 261, 177, 292, 300
-0.996639, 113, 269, 240, 300
-0.996641, 197, 185, 212, 248
-0.996671, 65, 25, 128, 88
-0.996672, 1, 217, 400, 280
-0.996672, 1, 189, 128, 220
-0.99669, 161, 145, 192, 208
-0.996724, 217, 65, 232, 128
-0.996751, 25, 97, 88, 160
-0.996804, 259, 241, 274, 300
-0.996806, 1, 205, 128, 236
-0.99681, 173, 241, 188, 300
-0.996818, 87, 177, 102, 240
-0.996818, 129, 93, 256, 124
-0.996825, 129, 69, 256, 100
-0.996867, 129, 33, 384, 96
-0.996875, 357, 81, 388, 144
-0.996878, 129, 1, 192, 64
-0.996885, 33, 217, 48, 280
-0.996888, 281, 97, 344, 160
-0.996905, 17, 1, 144, 32
-0.99692, 191, 49, 206, 112
-0.996942, 149, 209, 164, 272
-0.996962, 81, 33, 208, 64
-0.996965, 63, 185, 78, 248
-0.996968, 225, 21, 352, 52
-0.996968, 97, 129, 352, 192
-0.996973, 203, 193, 218, 256
-0.996976, 125, 153, 156, 216
-0.99698, 193, 249, 320, 280
-0.99698, 315, 1, 330, 64
-0.996986, 205, 65, 220, 128
-0.996995, 193, 213, 320, 244
-0.997014, 81, 233, 144, 296
-0.99704, 49, 185, 176, 216
-0.997048, 151, 185, 166, 248
-0.997074, 173, 73, 204, 136
-0.997079, 65, 261, 192, 292
-0.997079, 83, 153, 98, 216
-0.997091, 155, 161, 170, 192
-0.997107, 77, 137, 92, 200
-0.997109, 257, 33, 384, 64
-0.997111, 201, 41, 216, 104
-0.997111, 277, 17, 308, 144
-0.997115, 81, 129, 112, 192
-0.997123, 241, 9, 368, 40
-0.997132, 313, 89, 376, 152
-0.997139, 187, 193, 202, 256
-0.997156, 25, 153, 56, 216
-0.997158, 149, 233, 164, 264
-0.997168, 193, 197, 320, 228
-0.997177, 337, 1, 368, 64
-0.997211, 369, 65, 400, 128
-0.99722, 241, 1, 256, 64
-0.99726, 211, 41, 226, 104
-0.997272, 199, 161, 214, 224
-0.997282, 113, 1, 128, 64
-0.997284, 65, 1, 192, 32
-0.997295, 211, 105, 226, 168
-0.997319, 17, 145, 144, 176
-0.997333, 211, 129, 226, 192
-0.997337, 141, 81, 172, 144
-0.997345, 255, 9, 270, 72
-0.997353, 145, 161, 160, 224
-0.99737, 35, 241, 50, 300
-0.997374, 211, 65, 226, 128
-0.997376, 145, 49, 272, 80
-0.997379, 129, 49, 192, 112
-0.997393, 223, 33, 238, 96
-0.997395, 165, 1, 196, 128
-0.997457, 141, 1, 172, 256
-0.997469, 187, 169, 202, 232
-0.997478, 165, 221, 180, 252
-0.99749, 65, 81, 128, 144
-0.997506, 233, 9, 248, 72
-0.997511, 113, 161, 144, 288
-0.997519, 193, 209, 208, 272
-0.997522, 27, 241, 42, 300
-0.997524, 155, 233, 170, 264
-0.997526, 39, 209, 54, 272
-0.997527, 81, 1, 96, 64
-0.997533, 257, 261, 384, 292
-0.997543, 163, 261, 178, 292
-0.997544, 165, 241, 180, 272
-0.99755, 215, 201, 230, 264
-0.997555, 241, 169, 368, 232
-0.997563, 57, 241, 88, 300
-0.997584, 49, 145, 64, 208
-0.997585, 379, 65, 394, 128
-0.997594, 1, 177, 16, 240
-0.997594, 217, 41, 232, 104
-0.997606, 93, 193, 108, 256
-0.997606, 121, 1, 152, 256
-0.997611, 193, 41, 320, 72
-0.997617, 17, 13, 144, 44
-0.997618, 57, 177, 72, 240
-0.997627, 69, 193, 84, 256
-0.997632, 145, 21, 272, 52
-0.997633, 77, 201, 92, 264
-0.997643, 181, 185, 196, 248
-0.997658, 215, 253, 230, 284
-0.997671, 175, 201, 190, 264
-0.997675, 301, 1, 332, 64
-0.997677, 89, 209, 120, 272
-0.997679, 1, 169, 128, 200
-0.997681, 15, 177, 30, 240
-0.997685, 229, 253, 244, 284
-0.997706, 49, 97, 176, 128
-0.997707, 205, 145, 220, 208
-0.997721, 265, 241, 280, 300
-0.997728, 1, 221, 128, 252
-0.997747, 151, 249, 166, 280
-0.997748, 203, 241, 218, 300
-0.99776, 177, 73, 304, 104
-0.997763, 199, 65, 214, 128
-0.997767, 41, 1, 72, 128
-0.997784, 193, 181, 320, 212
-0.997793, 27, 193, 42, 256
-0.9978, 159, 193, 174, 224
-0.997802, 169, 269, 184, 300
-0.997808, 97, 105, 224, 136
-0.99781, 1, 113, 400, 176
-0.997822, 107, 1, 122, 64
-0.997824, 289, 49, 304, 112
-0.99783, 37, 1, 68, 64
-0.997834, 61, 1, 76, 64
-0.997834, 187, 73, 202, 136
-0.997846, 233, 105, 296, 168
-0.997859, 241, 249, 368, 280
-0.997862, 239, 241, 254, 272
-0.99787, 185, 49, 200, 112
-0.997871, 329, 201, 392, 264
-0.997876, 209, 93, 336, 124
-0.997889, 75, 1, 90, 64
-0.997893, 113, 161, 144, 224
-0.997902, 9, 241, 24, 300
-0.997903, 143, 237, 158, 268
-0.997908, 49, 109, 176, 140
-0.997911, 241, 137, 304, 200
-0.997921, 253, 217, 268, 280
-0.997927, 205, 33, 236, 288
-0.997929, 215, 229, 230, 260
-0.997931, 155, 25, 170, 88
-0.997934, 221, 89, 236, 152
-0.997937, 375, 41, 390, 104
-0.997939, 93, 169, 108, 232
-0.99795, 89, 217, 104, 280
-0.997957, 151, 1, 166, 64
-0.997969, 157, 253, 172, 284
-0.997987, 161, 169, 176, 200
-0.997987, 17, 49, 144, 112
-0.997988, 105, 1, 136, 256
-0.997994, 241, 129, 368, 256
-0.997995, 163, 145, 178, 208
-0.997998, 193, 61, 320, 92
-0.998, 385, 65, 400, 128
-0.998009, 123, 113, 138, 176
-0.998024, 313, 49, 344, 176
-0.998026, 271, 233, 286, 296
-0.99805, 129, 97, 384, 160
-0.99807, 13, 177, 44, 240
-0.998072, 151, 181, 166, 212
-0.998076, 223, 245, 238, 276
-0.99808, 199, 221, 214, 252
-0.99809, 153, 1, 216, 64
-0.998091, 231, 185, 246, 248
-0.998102, 299, 41, 314, 104
-0.998108, 261, 17, 276, 80
-0.998111, 7, 177, 22, 240
-0.998112, 205, 237, 220, 268
-0.998113, 19, 209, 34, 272
-0.99812, 217, 1, 248, 256
-0.998126, 55, 1, 70, 64
-0.998129, 233, 105, 248, 168
-0.998132, 203, 97, 218, 160
-0.998134, 73, 113, 88, 176
-0.998143, 211, 153, 226, 216
-0.998143, 237, 209, 252, 272
-0.998144, 67, 1, 82, 64
-0.99815, 309, 33, 324, 96
-0.998158, 21, 233, 36, 296
-0.998166, 1, 73, 400, 136
-0.99818, 229, 241, 244, 272
-0.998187, 351, 41, 366, 104
-0.998189, 179, 65, 194, 128
-0.998192, 43, 177, 58, 240
-0.998196, 273, 45, 400, 76
-0.998198, 51, 169, 66, 232
-0.998206, 27, 217, 42, 280
-0.998207, 83, 209, 98, 272
-0.998208, 113, 141, 240, 172
-0.998222, 223, 257, 238, 288
-0.998225, 45, 201, 60, 264
-0.99823, 193, 129, 208, 192
-0.998234, 137, 209, 152, 272
-0.998241, 97, 57, 224, 88
-0.998245, 309, 25, 340, 88
-0.998248, 143, 161, 158, 192
-0.998253, 225, 225, 352, 256
-0.998263, 83, 233, 98, 296
-0.998276, 249, 185, 280, 248
-0.998278, 81, 13, 208, 44
-0.998279, 253, 245, 268, 276
-0.998282, 1, 273, 32, 288
-0.998284, 197, 49, 228, 64
-0.998284, 129, 227, 160, 242
-0.998285, 153, 257, 184, 272
-0.998287, 57, 197, 88, 212
-0.998287, 117, 105, 132, 168
-0.998288, 221, 119, 252, 134
-0.998288, 133, 35, 164, 50
-0.998289, 163, 209, 178, 240
-0.998289, 13, 223, 44, 238
-0.99829, 49, 1, 64, 64
-0.998291, 93, 193, 124, 208
-0.998291, 149, 159, 180, 174
-0.998292, 81, 11, 112, 26
-0.998292, 245, 235, 276, 250
-0.998293, 93, 99, 124, 114
-0.998293, 37, 219, 68, 234
-0.998293, 249, 257, 280, 272
-0.998294, 45, 185, 76, 200
-0.998295, 69, 183, 100, 198
-0.998295, 25, 189, 56, 204
-0.998295, 169, 265, 200, 280
-0.998295, 33, 283, 64, 298
-0.998296, 217, 273, 248, 288
-0.998296, 157, 279, 188, 294
-0.998296, 149, 169, 164, 200
-0.998296, 189, 165, 220, 180
-0.998298, 13, 215, 44, 230
-0.998299, 193, 73, 208, 136
-0.998299, 201, 133, 232, 148
-0.998299, 193, 141, 224, 156
-0.9983, 201, 117, 232, 132
-0.9983, 225, 229, 256, 244
-0.998301, 149, 183, 180, 198
-0.998301, 25, 197, 56, 212
-0.998302, 145, 249, 176, 264
-0.998302, 245, 243, 276, 258
-0.998303, 185, 77, 216, 92
-0.998304, 205, 261, 236, 276
-0.998304, 81, 215, 112, 230
-0.998306, 69, 219, 100, 234
-0.998307, 241, 23, 272, 38
-0.998307, 201, 123, 232, 138
-0.998308, 217, 113, 248, 128
-0.998308, 43, 145, 58, 208
-0.998309, 181, 217, 212, 232
-0.998309, 205, 161, 236, 176
-0.998311, 321, 57, 336, 120
-0.998311, 25, 203, 56, 218
-0.998313, 173, 169, 204, 184
-0.998313, 81, 177, 96, 240
-0.998314, 25, 213, 56, 228
-0.998315, 261, 269, 292, 284
-0.998315, 189, 197, 204, 228
-0.998317, 95, 1, 110, 64
-0.998317, 41, 193, 72, 208
-0.998318, 297, 41, 328, 56
-0.998321, 113, 117, 240, 148
-0.998321, 221, 265, 252, 280
-0.998321, 133, 233, 164, 248
-0.998323, 217, 107, 248, 122
-0.998323, 155, 137, 170, 200
-0.998325, 157, 247, 188, 262
-0.998325, 229, 23, 260, 38
-0.998329, 309, 9, 324, 72
-0.99833, 169, 275, 200, 290
-0.998333, 247, 249, 262, 280
-0.998335, 57, 1, 88, 16
-0.998336, 177, 69, 208, 84
-0.998338, 189, 231, 220, 246
-0.998339, 205, 219, 236, 234
-0.99834, 201, 213, 232, 228
-0.99834, 209, 285, 240, 300
-0.99834, 181, 183, 212, 198
-0.998341, 309, 15, 340, 30
-0.998341, 173, 225, 204, 240
-0.998341, 277, 281, 308, 296
-0.998344, 197, 207, 228, 222
-0.998344, 177, 175, 208, 190
-0.998344, 161, 71, 192, 86
-0.998346, 185, 189, 216, 204
-0.998347, 149, 203, 180, 218
-0.998348, 133, 179, 164, 194
-0.998349, 45, 199, 76, 214
-0.998349, 185, 223, 216, 238
-0.998349, 53, 191, 84, 206
-0.998352, 169, 211, 200, 226
-0.998352, 133, 169, 164, 184
-0.998356, 203, 141, 218, 172
-0.998357, 235, 253, 250, 284
-0.998357, 193, 199, 224, 214
-0.998358, 83, 129, 98, 192
-0.998358, 141, 191, 172, 206
-0.998359, 169, 199, 200, 214
-0.99836, 35, 217, 50, 248
-0.998365, 61, 181, 76, 212
-0.998365, 137, 185, 168, 200
-0.998365, 9, 285, 40, 300
-0.998365, 157, 177, 172, 300
-0.998366, 161, 145, 288, 176
-0.998368, 317, 1, 332, 32
-0.998372, 25, 221, 56, 236
-0.998372, 193, 247, 224, 262
-0.998372, 149, 213, 180, 228
-0.998375, 13, 279, 44, 294
-0.998375, 145, 31, 176, 46
-0.998375, 71, 1, 86, 32
-0.998376, 189, 237, 220, 252
-0.998376, 225, 243, 256, 258
-0.998377, 237, 251, 268, 266
-0.998377, 221, 223, 252, 238
-0.998379, 41, 179, 72, 194
-0.998379, 145, 197, 176, 212
-0.99838, 209, 225, 224, 256
-0.998383, 13, 271, 44, 286
-0.998387, 165, 235, 196, 250
-0.998389, 289, 285, 320, 300
-0.998389, 197, 279, 228, 294
-0.99839, 153, 223, 184, 238
-0.998391, 201, 225, 232, 240
-0.998391, 133, 163, 164, 178
-0.998392, 237, 11, 268, 26
-0.998392, 129, 241, 160, 256
-0.998392, 117, 33, 148, 96
-0.998393, 69, 3, 100, 18
-0.998393, 197, 285, 228, 300
-0.998394, 265, 275, 296, 290
-0.998395, 237, 261, 268, 276
-0.998399, 169, 219, 200, 234
-0.9984, 201, 71, 232, 86
-0.9984, 49, 133, 176, 164
-0.998401, 173, 229, 188, 260
-0.998401, 225, 251, 256, 266
-0.998405, 153, 33, 184, 288
-0.998406, 169, 205, 200, 220
-0.998407, 149, 263, 180, 278
-0.99841, 141, 255, 172, 270
-0.998412, 317, 1, 348, 16
-0.998412, 179, 185, 194, 216
-0.998413, 133, 247, 164, 262
-0.998415, 165, 193, 196, 208
-0.998419, 201, 253, 232, 268
-0.998423, 157, 273, 188, 288
-0.998424, 145, 171, 208, 186
-0.998425, 213, 255, 244, 270
-0.998426, 145, 129, 272, 160
-0.998427, 1, 279, 32, 294
-0.998431, 169, 281, 200, 296
-0.998432, 79, 1, 94, 32
-0.998435, 161, 231, 224, 246
-0.998438, 249, 265, 280, 280
-0.998439, 145, 105, 272, 136
-0.998439, 161, 223, 224, 238
-0.998439, 229, 225, 244, 256
-0.998448, 49, 121, 176, 152
-0.99846, 161, 185, 192, 200
-0.998466, 209, 237, 240, 252
-0.998467, 137, 235, 200, 250
-0.998468, 149, 241, 180, 256
-0.99847, 261, 253, 276, 284
-0.998474, 115, 1, 130, 32
-0.998482, 161, 217, 224, 232
-0.998482, 81, 69, 208, 100
-0.998484, 217, 261, 280, 276
-0.998487, 11, 269, 26, 300
-0.998488, 153, 185, 216, 200
-0.998489, 205, 231, 236, 246
-0.998495, 153, 197, 216, 212
-0.998498, 145, 179, 208, 194
-0.998501, 269, 269, 284, 300
-0.998507, 137, 241, 200, 256
-0.998509, 201, 243, 264, 258
-0.99851, 213, 247, 244, 262
-0.998515, 153, 191, 216, 206
-0.998515, 77, 137, 92, 168
-0.998515, 153, 229, 184, 244
-0.998515, 153, 177, 184, 192
-0.998516, 169, 285, 232, 300
-0.998517, 55, 181, 70, 212
-0.998522, 259, 265, 274, 296
-0.998522, 149, 165, 180, 180
-0.998524, 191, 177, 206, 208
-0.998526, 161, 203, 224, 218
-0.998528, 169, 239, 232, 254
-0.998528, 173, 177, 188, 208
-0.998529, 151, 221, 166, 252
-0.998534, 151, 177, 166, 300
-0.998538, 209, 251, 272, 266
-0.998544, 223, 217, 238, 248
-0.998545, 181, 283, 212, 298
-0.998545, 225, 257, 256, 272
-0.998546, 1, 249, 128, 280
-0.998549, 201, 237, 264, 252
-0.998552, 211, 109, 226, 140
-0.99856, 35, 245, 50, 276
-0.998562, 201, 229, 264, 244
-0.998563, 211, 241, 226, 272
-0.998564, 169, 271, 232, 286
-0.998564, 161, 211, 224, 226
-0.998566, 159, 25, 174, 56
-0.998572, 183, 269, 198, 300
-0.998573, 193, 221, 256, 236
-0.998574, 217, 267, 280, 282
-0.998576, 215, 69, 230, 100
-0.998576, 187, 73, 202, 104
-0.998578, 129, 211, 192, 226
-0.998584, 129, 217, 192, 232
-0.998584, 369, 41, 400, 104
-0.998586, 129, 229, 192, 244
-0.998587, 129, 33, 256, 64
-0.998591, 113, 191, 176, 206
-0.998592, 145, 165, 208, 180
-0.998594, 169, 189, 184, 220
-0.998594, 177, 277, 240, 292
-0.998595, 43, 177, 58, 208
-0.998595, 113, 239, 176, 254
-0.998597, 185, 251, 248, 266
-0.998597, 105, 177, 168, 192
-0.998599, 241, 253, 256, 284
-0.9986, 149, 171, 180, 186
-0.998602, 81, 217, 96, 248
-0.998603, 129, 223, 192, 238
-0.998603, 129, 271, 192, 286
-0.998605, 177, 71, 240, 86
-0.998606, 145, 9, 272, 40
-0.998607, 167, 177, 182, 208
-0.998608, 221, 233, 236, 264
-0.998609, 121, 33, 184, 48
-0.998609, 153, 71, 216, 86
-0.998609, 203, 121, 218, 152
-0.99861, 193, 213, 256, 228
-0.99861, 121, 261, 184, 276
-0.998612, 105, 245, 168, 260
-0.998614, 105, 161, 168, 176
-0.998614, 193, 257, 256, 272
-0.998614, 145, 281, 208, 296
-0.998616, 113, 253, 176, 268
-0.998616, 193, 207, 256, 222
-0.998618, 241, 193, 368, 224
-0.998619, 105, 233, 168, 248
-0.99862, 179, 65, 194, 96
-0.998622, 1, 275, 64, 290
-0.998625, 169, 265, 232, 280
-0.998625, 113, 183, 176, 198
-0.998629, 121, 169, 184, 184
-0.998629, 251, 261, 266, 292
-0.99863, 241, 275, 304, 290
-0.99863, 129, 205, 192, 220
-0.998632, 67, 189, 82, 220
-0.998634, 251, 9, 266, 40
-0.998635, 187, 57, 202, 88
-0.998636, 247, 237, 262, 268
-0.998637, 165, 177, 180, 300
-0.998638, 193, 285, 256, 300
-0.998638, 237, 9, 252, 40
-0.99864, 217, 223, 280, 238
-0.99864, 65, 1, 128, 16
-0.998641, 185, 195, 248, 210
-0.998641, 121, 199, 184, 214
-0.998642, 177, 77, 240, 92
-0.998642, 35, 269, 50, 300
-0.998642, 17, 183, 80, 198
-0.998647, 33, 199, 96, 214
-0.998647, 1, 269, 128, 300
-0.998647, 41, 1, 104, 16
-0.998649, 201, 121, 264, 136
-0.998653, 237, 229, 252, 260
-0.998653, 185, 201, 248, 216
-0.998653, 273, 77, 400, 108
-0.998654, 17, 189, 80, 204
-0.998654, 201, 159, 264, 174
-0.998654, 153, 77, 216, 92
-0.998655, 265, 285, 328, 300
-0.998657, 17, 233, 144, 264
-0.998657, 185, 165, 248, 180
-0.998659, 1, 205, 64, 220
-0.998659, 331, 1, 346, 32
-0.998659, 217, 23, 280, 38
-0.99866, 305, 15, 368, 30
-0.99866, 305, 37, 368, 52
-0.998662, 33, 7, 96, 22
-0.998662, 17, 25, 144, 56
-0.998662, 275, 269, 290, 300
-0.998665, 17, 215, 80, 230
-0.998665, 97, 27, 160, 42
-0.998665, 321, 43, 384, 58
-0.998666, 113, 137, 144, 200
-0.998666, 25, 257, 88, 272
-0.998668, 177, 65, 240, 80
-0.998669, 41, 179, 104, 194
-0.998671, 177, 245, 240, 260
-0.998673, 233, 251, 296, 266
-0.998674, 201, 127, 264, 142
-0.998675, 305, 9, 368, 24
-0.998676, 321, 57, 352, 120
-0.998677, 17, 177, 80, 192
-0.998677, 145, 159, 208, 174
-0.998677, 113, 1, 176, 16
-0.998679, 145, 247, 208, 262
-0.998679, 41, 193, 104, 208
-0.998679, 195, 209, 210, 240
-0.99868, 33, 221, 96, 236
-0.998681, 1, 269, 64, 284
-0.998682, 65, 193, 128, 208
-0.998682, 185, 177, 248, 192
-0.998682, 305, 3, 368, 18
-0.998682, 193, 111, 256, 126
-0.998682, 57, 187, 120, 202
-0.998682, 33, 205, 96, 220
-0.998683, 217, 37, 280, 52
-0.998683, 25, 273, 88, 288
-0.998683, 73, 101, 136, 116
-0.998684, 201, 153, 264, 168
-0.998684, 233, 217, 296, 232
-0.998684, 225, 245, 288, 260
-0.998685, 153, 65, 216, 80
-0.998686, 1, 281, 64, 296
-0.998686, 217, 209, 232, 240
-0.998687, 175, 269, 190, 300
-0.998687, 177, 189, 240, 204
-0.998689, 241, 267, 304, 282
-0.998689, 357, 1, 388, 256
-0.99869, 305, 21, 368, 36
-0.99869, 193, 183, 256, 198
-0.99869, 145, 235, 176, 250
-0.99869, 225, 29, 288, 44
-0.998691, 217, 211, 280, 226
-0.998691, 193, 133, 256, 148
-0.998692, 73, 201, 136, 216
-0.998692, 281, 41, 344, 56
-0.998693, 97, 37, 160, 52
-0.998693, 161, 253, 224, 268
-0.998694, 185, 171, 248, 186
-0.998694, 337, 71, 400, 86
-0.998696, 25, 251, 88, 266
-0.998698, 199, 69, 214, 100
-0.998699, 201, 279, 264, 294
-0.9987, 33, 157, 96, 172
-0.9987, 265, 267, 328, 282
-0.998701, 41, 211, 104, 226
-0.998702, 73, 155, 136, 170
-0.998702, 153, 259, 216, 274
-0.998704, 225, 11, 288, 26
-0.998704, 201, 143, 264, 158
-0.998705, 337, 101, 400, 116
-0.998706, 297, 281, 360, 296
-0.998707, 329, 81, 392, 96
-0.998707, 9, 221, 72, 236
-0.998707, 249, 257, 312, 272
-0.998708, 1, 157, 128, 188
-0.998709, 221, 269, 236, 300
-0.998709, 257, 233, 272, 264
-0.998717, 47, 197, 62, 228
-0.998721, 29, 221, 44, 252
-0.998724, 71, 125, 86, 156
-0.998729, 1, 33, 400, 96
-0.998729, 27, 205, 42, 236
-0.998729, 125, 201, 156, 264
-0.99873, 81, 85, 208, 116
-0.998737, 377, 49, 392, 80
-0.998739, 161, 181, 176, 212
-0.99875, 139, 225, 154, 256
-0.998751, 243, 5, 258, 36
-0.998756, 1, 1, 32, 256
-0.998758, 205, 65, 220, 96
-0.99876, 1, 153, 400, 216
-0.998775, 51, 169, 66, 200
-0.998775, 27, 265, 42, 296
-0.998775, 267, 257, 282, 288
-0.998778, 197, 189, 212, 220
-0.99878, 207, 213, 222, 244
-0.998782, 83, 153, 98, 184
-0.998787, 257, 17, 272, 48
-0.998789, 337, 5, 352, 36
-0.998791, 197, 141, 212, 172
-0.99881, 1, 269, 16, 300
-0.998821, 167, 165, 182, 196
-0.998833, 17, 173, 32, 204
-0.998835, 17, 1, 48, 64
-0.998836, 65, 145, 192, 176
-0.998842, 85, 165, 100, 196
-0.998843, 31, 233, 46, 264
-0.998843, 201, 161, 216, 192
-0.998844, 221, 97, 236, 128
-0.998849, 173, 201, 188, 232
-0.99885, 93, 1, 124, 256
-0.998853, 47, 145, 62, 176
-0.998862, 195, 161, 210, 192
-0.998864, 185, 173, 200, 204
-0.998864, 195, 269, 210, 300
-0.998866, 233, 21, 248, 52
-0.998866, 225, 65, 256, 128
-0.998869, 227, 101, 242, 132
-0.998871, 181, 33, 212, 288
-0.998874, 75, 201, 90, 232
-0.998886, 193, 73, 208, 104
-0.998887, 97, 129, 224, 160
-0.998888, 313, 13, 328, 44
-0.998892, 377, 73, 392, 104
-0.998893, 209, 141, 224, 172
-0.998896, 145, 249, 160, 280
-0.998903, 241, 213, 368, 244
-0.998917, 147, 149, 162, 180
-0.998918, 85, 205, 100, 236
-0.998919, 289, 57, 304, 88
-0.998921, 65, 1, 80, 32
-0.998932, 91, 169, 106, 200
-0.998937, 97, 189, 112, 220
-0.998938, 189, 209, 204, 240
-0.998939, 49, 185, 64, 216
-0.99894, 41, 265, 56, 296
-0.998946, 171, 241, 186, 272
-0.998949, 197, 129, 212, 160
-0.998996, 1, 81, 64, 144
-0.998996, 345, 65, 376, 192
-0.999042, 117, 65, 148, 192
-0.999047, 273, 61, 400, 92
-0.999055, 225, 81, 352, 112
-0.999055, 325, 81, 356, 144
-0.999065, 199, 145, 214, 272
-0.999094, 225, 97, 256, 160
-0.999103, 297, 73, 328, 136
-0.999106, 157, 129, 172, 256
-0.99912, 171, 161, 186, 288
-0.999124, 229, 33, 260, 288
-0.999132, 193, 33, 224, 288
-0.999143, 231, 177, 246, 300
-0.999176, 209, 149, 336, 180
-0.99919, 73, 241, 104, 300
-0.999224, 17, 85, 144, 116
-0.999235, 289, 1, 320, 256
-0.999241, 207, 177, 222, 300
-0.999246, 249, 177, 264, 300
-0.999247, 83, 145, 98, 272
-0.999254, 221, 161, 236, 288
-0.999271, 177, 117, 304, 148
-0.999271, 249, 129, 312, 256
-0.999289, 225, 125, 352, 156
-0.999289, 61, 1, 92, 256
-0.99929, 97, 45, 224, 76
-0.999302, 269, 1, 300, 256
-0.999303, 273, 241, 304, 300
-0.999308, 289, 1, 352, 256
-0.999326, 1, 133, 128, 164
-0.999327, 233, 1, 248, 128
-0.999339, 193, 145, 208, 272
-0.99934, 107, 1, 122, 128
-0.999343, 169, 33, 200, 288
-0.999346, 77, 129, 92, 256
-0.999355, 237, 177, 252, 300
-0.999355, 69, 97, 100, 160
-0.999361, 273, 89, 400, 120
-0.999363, 241, 181, 368, 212
-0.99937, 163, 129, 178, 256
-0.999372, 69, 177, 84, 300
-0.999379, 193, 49, 208, 176
-0.99938, 1, 9, 400, 72
-0.999385, 253, 1, 268, 128
-0.999389, 241, 237, 368, 268
-0.999394, 21, 1, 52, 256
-0.999394, 145, 145, 160, 272
-0.999394, 177, 177, 192, 300
-0.999406, 199, 65, 214, 192
-0.999407, 211, 113, 226, 240
-0.999413, 47, 129, 62, 256
-0.999425, 147, 97, 162, 224
-0.999428, 209, 65, 224, 192
-0.999429, 67, 1, 82, 128
-0.999435, 273, 21, 400, 52
-0.999438, 193, 105, 320, 136
-0.999442, 215, 177, 230, 300
-0.999446, 155, 1, 170, 128
-0.999454, 311, 1, 326, 128
-0.999454, 345, 1, 376, 256
-0.999457, 249, 161, 312, 224
-0.999458, 55, 145, 70, 272
-0.99946, 215, 65, 230, 192
-0.999464, 17, 177, 32, 300
-0.999467, 89, 161, 104, 288
-0.999469, 255, 177, 270, 300
-0.999469, 1, 117, 128, 148
-0.999469, 227, 17, 242, 144
-0.99947, 119, 97, 134, 224
-0.999472, 205, 113, 220, 240
-0.999477, 145, 17, 160, 144
-0.999485, 1, 1, 32, 128
-0.999493, 99, 1, 114, 128
-0.999495, 127, 113, 142, 240
-0.999495, 377, 33, 392, 160
-0.999497, 39, 215, 54, 230
-0.999498, 77, 7, 92, 22
-0.999498, 257, 1, 288, 256
-0.999498, 129, 211, 144, 226
-0.999498, 231, 241, 246, 256
-0.999498, 205, 137, 220, 152
-0.999498, 211, 113, 226, 128
-0.999498, 273, 225, 400, 256
-0.999499, 31, 273, 46, 288
-0.9995, 213, 259, 228, 274
-0.9995, 301, 285, 316, 300
-0.999501, 55, 181, 70, 196
-0.999502, 331, 1, 346, 16
-0.999502, 93, 187, 108, 202
-0.999502, 225, 137, 352, 168
-0.999503, 25, 217, 40, 232
-0.999503, 255, 243, 270, 258
-0.999503, 277, 273, 292, 288
-0.999503, 61, 1, 76, 128
-0.999504, 149, 239, 164, 254
-0.999504, 221, 277, 236, 292
-0.999504, 49, 175, 64, 190
-0.999504, 189, 277, 204, 292
-0.999505, 249, 243, 264, 258
-0.999506, 313, 15, 328, 30
-0.999506, 225, 101, 240, 116
-0.999508, 191, 77, 206, 92
-0.999508, 35, 259, 50, 274
-0.99951, 141, 209, 172, 272
-0.99951, 261, 177, 276, 300
-0.99951, 257, 233, 272, 248
-0.999511, 25, 283, 40, 298
-0.999511, 7, 269, 22, 284
-0.999511, 133, 97, 148, 224
-0.999512, 199, 141, 214, 156
-0.999513, 317, 3, 332, 18
-0.999514, 35, 161, 50, 288
-0.999514, 223, 271, 238, 286
-0.999515, 221, 33, 236, 160
-0.999516, 31, 285, 46, 300
-0.999516, 47, 197, 62, 212
-0.999517, 31, 279, 46, 294
-0.999517, 175, 225, 190, 240
-0.999519, 119, 1, 134, 16
-0.99952, 245, 253, 260, 268
-0.999521, 237, 243, 252, 258
-0.999522, 5, 177, 20, 300
-0.999523, 37, 271, 52, 286
-0.999523, 85, 213, 100, 228
-0.999523, 67, 1, 82, 16
-0.999524, 181, 275, 196, 290
-0.999524, 165, 191, 180, 206
-0.999525, 177, 69, 192, 84
-0.999525, 55, 191, 70, 206
-0.999526, 73, 1, 104, 256
-0.999527, 249, 263, 264, 278
-0.999527, 213, 233, 228, 248
-0.999528, 171, 205, 186, 220
-0.99953, 243, 261, 258, 276
-0.99953, 191, 211, 206, 226
-0.999531, 67, 191, 82, 206
-0.999532, 169, 197, 184, 212
-0.999533, 201, 285, 216, 300
-0.999533, 165, 219, 180, 234
-0.999533, 225, 161, 352, 192
-0.999533, 1, 271, 16, 286
-0.999533, 173, 281, 188, 296
-0.999534, 29, 223, 44, 238
-0.999534, 295, 285, 310, 300
-0.999535, 249, 209, 280, 272
-0.999536, 255, 265, 270, 280
-0.999536, 185, 199, 200, 214
-0.999536, 301, 33, 316, 160
-0.999538, 187, 33, 202, 160
-0.999539, 61, 185, 76, 200
-0.99954, 181, 191, 196, 206
-0.999541, 243, 243, 258, 258
-0.999541, 207, 221, 222, 236
-0.999542, 269, 267, 284, 282
-0.999542, 225, 261, 240, 276
-0.999542, 145, 175, 160, 190
-0.999544, 183, 75, 198, 90
-0.999546, 159, 29, 174, 44
-0.999547, 165, 225, 180, 240
-0.99955, 197, 219, 212, 234
-0.99955, 15, 275, 30, 290
-0.99955, 287, 281, 302, 296
-0.999552, 155, 159, 170, 174
-0.999552, 211, 285, 226, 300
-0.999552, 173, 219, 188, 234
-0.999554, 175, 235, 190, 250
-0.999554, 55, 1, 70, 128
-0.999555, 63, 177, 78, 300
-0.999557, 215, 243, 230, 258
-0.999557, 161, 207, 176, 222
-0.999559, 271, 273, 286, 288
-0.999559, 383, 49, 398, 176
-0.99956, 221, 81, 236, 208
-0.99956, 81, 1, 96, 16
-0.999561, 119, 17, 134, 144
-0.999562, 243, 161, 258, 288
-0.999562, 35, 221, 50, 236
-0.999564, 73, 1, 88, 128
-0.999564, 175, 181, 190, 196
-0.999566, 233, 249, 248, 264
-0.999566, 75, 1, 90, 16
-0.999567, 281, 279, 296, 294
-0.999567, 137, 17, 152, 144
-0.999571, 1, 277, 16, 292
-0.999572, 199, 225, 214, 240
-0.999573, 261, 267, 276, 282
-0.999574, 233, 255, 248, 270
-0.999574, 187, 205, 202, 220
-0.999574, 153, 81, 168, 208
-0.999574, 145, 165, 160, 180
-0.999575, 247, 1, 262, 128
-0.999576, 229, 97, 244, 224
-0.999576, 317, 1, 332, 128
-0.999579, 163, 213, 178, 228
-0.999579, 167, 243, 182, 258
-0.999579, 133, 1, 164, 64
-0.999579, 169, 175, 184, 190
-0.999581, 113, 33, 128, 160
-0.999582, 141, 81, 156, 208
-0.999583, 7, 281, 22, 296
-0.999583, 239, 251, 254, 266
-0.999584, 351, 33, 366, 160
-0.999585, 157, 179, 172, 194
-0.999585, 259, 1, 274, 128
-0.999585, 155, 193, 170, 208
-0.999586, 159, 257, 174, 272
-0.999586, 201, 231, 216, 246
-0.999587, 213, 253, 228, 268
-0.999589, 125, 17, 140, 144
-0.99959, 43, 177, 58, 300
-0.999591, 205, 241, 220, 256
-0.999592, 169, 237, 184, 252
-0.999594, 161, 185, 176, 200
-0.999596, 161, 239, 176, 254
-0.999597, 109, 81, 124, 208
-0.999599, 199, 17, 214, 144
-0.999603, 75, 177, 90, 300
-0.999604, 147, 181, 162, 196
-0.999604, 141, 241, 156, 256
-0.999606, 121, 73, 152, 136
-0.999607, 245, 1, 276, 256
-0.999608, 207, 247, 222, 262
-0.999609, 185, 177, 200, 300
-0.999611, 163, 169, 178, 184
-0.999612, 155, 233, 170, 248
-0.999613, 83, 97, 98, 224
-0.999613, 167, 269, 182, 284
-0.999615, 159, 199, 174, 214
-0.999615, 225, 249, 240, 264
-0.999617, 291, 17, 306, 144
-0.999617, 169, 113, 184, 240
-0.999619, 1, 101, 128, 132
-0.999619, 323, 1, 338, 128
-0.99962, 11, 177, 26, 300
-0.999623, 181, 129, 196, 256
-0.999624, 219, 259, 234, 274
-0.999627, 215, 17, 230, 144
-0.999627, 33, 37, 160, 68
-0.99963, 71, 129, 86, 256
-0.99963, 89, 1, 104, 128
-0.99963, 339, 1, 354, 128
-0.999631, 209, 227, 224, 242
-0.999633, 171, 275, 186, 290
-0.999634, 151, 187, 166, 202
-0.999634, 209, 17, 224, 144
-0.999636, 301, 1, 332, 256
-0.999636, 23, 177, 38, 300
-0.999637, 239, 113, 254, 240
-0.999643, 131, 17, 146, 144
-0.999645, 187, 129, 202, 256
-0.999647, 189, 283, 204, 298
-0.999648, 41, 129, 56, 256
-0.999653, 241, 1, 256, 128
-0.999653, 179, 281, 194, 296
-0.999653, 9, 275, 24, 290
-0.999655, 45, 1, 76, 256
-0.999656, 139, 161, 154, 288
-0.999657, 195, 285, 210, 300
-0.999658, 147, 247, 162, 262
-0.999658, 161, 17, 176, 144
-0.999661, 161, 263, 176, 278
-0.999663, 117, 145, 132, 272
-0.999665, 219, 251, 234, 266
-0.999666, 95, 129, 110, 256
-0.999672, 153, 253, 168, 268
-0.999673, 285, 33, 300, 160
-0.999673, 61, 129, 76, 256
-0.999674, 227, 255, 242, 270
-0.99968, 153, 173, 168, 188
-0.999681, 89, 113, 104, 240
-0.999683, 267, 177, 282, 300
-0.999687, 13, 1, 28, 128
-0.999689, 307, 49, 322, 176
-0.999691, 187, 81, 202, 208
-0.999692, 371, 33, 386, 160
-0.999694, 29, 161, 44, 288
-0.999697, 3, 17, 18, 144
-0.999707, 165, 231, 180, 246
-0.999709, 155, 165, 170, 180
-0.999716, 345, 17, 360, 144
-0.999716, 161, 81, 176, 208
-0.999717, 83, 1, 98, 128
-0.999718, 361, 33, 376, 160
-0.999739, 95, 177, 110, 300
-0.999741, 305, 201, 368, 264
-0.999743, 47, 81, 62, 208
-0.999747, 103, 81, 118, 208
-0.999751, 279, 17, 294, 144
-0.999751, 33, 33, 64, 288
-0.999757, 3, 129, 18, 256
-0.999761, 313, 49, 328, 176
-0.999765, 15, 129, 30, 256
-0.999767, 193, 97, 208, 224
-0.999772, 125, 65, 140, 192
-0.999773, 273, 33, 288, 160
-0.999777, 49, 1, 64, 128
-0.999779, 149, 233, 164, 248
-0.999782, 125, 161, 156, 288
-0.999786, 95, 81, 110, 208
-0.999788, 181, 33, 196, 160
-0.999789, 265, 33, 280, 160
-0.999793, 111, 145, 126, 272
-0.999794, 333, 33, 348, 160
-0.999818, 377, 81, 392, 208
-0.99982, 243, 49, 258, 176
-0.999821, 273, 101, 400, 132
-0.999823, 233, 49, 248, 176
-0.999832, 1, 81, 16, 208
-0.999835, 77, 81, 92, 208
-0.999837, 385, 97, 400, 224
-0.999874, 1, 49, 128, 80
-0.999919, 281, 65, 312, 192
-0.999931, 329, 1, 360, 256
-1.00003, 49, 97, 80, 224
-1.00005, 17, 73, 144, 104
-1.00008, 369, 33, 400, 288
-1.00012, 17, 61, 144, 92
-1.00013, 193, 9, 320, 40
-1.00015, 177, 1, 240, 64
-1.00016, 49, 49, 176, 80
-1.00016, 273, 105, 400, 168
-1.0002, 313, 33, 344, 288
-1.00021, 5, 113, 36, 240
-1.00059, 33, 73, 96, 136
-1.0006, 13, 1, 44, 128
-1.00061, 9, 57, 72, 120
-1.00062, 257, 89, 320, 152
-1.00079, 273, 169, 400, 200
-1.00093, 273, 177, 304, 300
-1.00095, 77, 49, 108, 176
-1.00103, 1, 129, 64, 192
-1.00103, 257, 113, 384, 144
-1.00107, 273, 125, 400, 156
-1.00107, 273, 137, 400, 168
-1.00107, 257, 149, 384, 180
-1.00117, 157, 81, 188, 208
-1.0012, 105, 49, 168, 112
-1.00167, 29, 1, 60, 128
-1.0018, 309, 97, 340, 224
-1.00181, 45, 49, 76, 176
-1.00186, 289, 177, 352, 300
-1.00195, 41, 41, 104, 104
-1.00204, 273, 145, 400, 208
-1.00227, 329, 177, 360, 300
-1.00233, 369, 97, 400, 224
-1.0025, 357, 81, 388, 208
-1.00252, 185, 1, 216, 128
-1.00262, 249, 97, 280, 224
-1.00269, 329, 177, 392, 240
-1.00282, 61, 65, 92, 192
-1.00294, 1, 25, 64, 88
-1.00298, 1, 105, 64, 168
-1.00304, 297, 97, 328, 224
-1.00313, 285, 177, 316, 300
-1.00318, 321, 161, 384, 288
-1.00319, 305, 97, 368, 224
-1.00327, 97, 185, 160, 248
-1.00332, 137, 121, 200, 184
-1.00334, 25, 65, 56, 192
-1.00347, 1, 65, 32, 192
-1.00354, 321, 97, 352, 224
-1.00357, 305, 177, 336, 300
-1.00426, 289, 169, 352, 232
-1.00438, 369, 177, 400, 300
-1.00442, 369, 1, 400, 128
-1.00459, 13, 49, 44, 176
-1.00471, 281, 217, 344, 280
-1.00475, 357, 177, 388, 300
-1.0051, 65, 57, 128, 120
-1.00521, 269, 129, 300, 256
-1.00524, 333, 97, 364, 224
-1.00594, 317, 161, 348, 288
-1.00599, 345, 161, 376, 288
-1.00623, 285, 129, 316, 256
-1.00682, 249, 49, 280, 176
-1.00709, 269, 81, 300, 208
-1.00721, 313, 113, 376, 176
-1.00739, 329, 153, 392, 216
-1.00779, 357, 129, 388, 256
-1.00814, 345, 113, 376, 240
-1.0085, 297, 145, 360, 208
-1.0086, 281, 129, 344, 256
-1.00864, 337, 129, 400, 192
-1.00924, 289, 121, 352, 184
-1.00954, 265, 121, 328, 184
-1.00993, 273, 145, 336, 208
