1948
-0.30265, 1, 129, 500, 375
-0.436469, 1, 1, 500, 375
-0.453381, 1, 1, 500, 256
-0.458445, 1, 1, 256, 375
-0.530621, 129, 1, 384, 375
-0.532387, 257, 1, 500, 375
-0.571364, 161, 129, 416, 375
-0.659115, 257, 65, 500, 320
-0.665745, 33, 97, 288, 352
-0.678363, 161, 1, 416, 256
-0.684608, 1, 1, 256, 256
-0.844805, 289, 65, 416, 320
-0.847422, 17, 1, 144, 375
-0.849966, 65, 65, 192, 320
-0.868077, 337, 1, 464, 375
-0.869908, 337, 65, 464, 320
-0.870667, 17, 1, 144, 256
-0.871005, 273, 1, 400, 375
-0.871869, 1, 97, 500, 224
-0.873711, 113, 97, 240, 352
-0.882864, 241, 97, 368, 352
-0.883752, 1, 177, 500, 304
-0.88525, 177, 65, 304, 320
-0.89057, 81, 1, 208, 375
-0.892772, 161, 1, 288, 375
-0.893554, 1, 49, 500, 176
-0.896129, 209, 1, 336, 375
-0.899004, 17, 97, 144, 352
-0.904276, 129, 97, 384, 224
-0.905334, 241, 1, 368, 256
-0.908936, 1, 225, 500, 352
-0.91111, 1, 81, 256, 208
-0.915569, 257, 97, 500, 224
-0.917056, 41, 1, 104, 128
-0.919953, 113, 1, 240, 256
-0.921025, 65, 225, 320, 352
-0.927511, 41, 49, 104, 176
-0.928048, 1, 49, 128, 176
-0.929721, 65, 81, 192, 208
-0.930945, 161, 145, 416, 272
-0.931344, 17, 1, 144, 128
-0.93384, 257, 97, 384, 224
-0.934015, 305, 97, 368, 224
-0.934483, 321, 97, 448, 224
-0.934702, 129, 49, 384, 176
-0.935756, 1, 1, 256, 128
-0.937713, 369, 97, 496, 224
-0.937779, 161, 225, 416, 352
-0.939878, 257, 49, 500, 176
-0.939998, 257, 209, 500, 336
-0.940978, 265, 97, 328, 224
-0.941171, 161, 225, 288, 352
-0.942335, 1, 1, 500, 128
-0.94235, 361, 97, 424, 224
-0.943229, 17, 49, 80, 176
-0.943848, 145, 97, 208, 224
-0.94423, 33, 129, 288, 256
-0.945163, 273, 145, 400, 272
-0.945238, 73, 81, 136, 208
-0.946038, 257, 145, 500, 272
-0.946078, 113, 97, 240, 224
-0.946507, 65, 177, 320, 304
-0.946899, 65, 33, 192, 160
-0.946953, 209, 97, 336, 224
-0.946983, 97, 81, 160, 208
-0.94701, 41, 17, 104, 80
-0.947774, 121, 81, 184, 208
-0.947813, 401, 97, 464, 224
-0.948044, 321, 145, 384, 272
-0.9481, 113, 225, 240, 352
-0.948324, 297, 97, 360, 160
-0.949131, 265, 145, 328, 272
-0.949906, 329, 97, 392, 224
-0.949924, 425, 97, 488, 224
-0.950352, 41, 57, 104, 120
-0.950568, 369, 49, 496, 176
-0.951041, 417, 105, 480, 168
-0.952714, 17, 1, 80, 128
-0.953771, 241, 177, 304, 304
-0.954198, 297, 145, 360, 272
-0.954989, 73, 1, 136, 128
-0.955117, 177, 225, 240, 352
-0.955142, 49, 225, 176, 352
-0.955163, 145, 145, 272, 272
-0.955572, 145, 209, 208, 336
-0.955804, 193, 177, 320, 304
-0.956657, 169, 145, 232, 272
-0.957321, 1, 225, 128, 352
-0.957386, 297, 241, 360, 304
-0.957497, 337, 105, 400, 168
-0.957671, 113, 225, 176, 352
-0.958307, 321, 49, 448, 176
-0.958321, 321, 145, 448, 272
-0.958449, 409, 129, 472, 192
-0.958581, 225, 225, 288, 352
-0.959017, 217, 177, 280, 304
-0.959423, 65, 129, 192, 256
-0.959582, 401, 49, 464, 176
-0.959765, 1, 81, 64, 144
-0.959909, 65, 177, 192, 304
-0.959927, 377, 105, 440, 168
-0.959958, 17, 97, 144, 224
-0.960455, 257, 209, 384, 336
-0.960666, 209, 225, 336, 352
-0.961366, 161, 81, 288, 208
-0.96138, 425, 49, 488, 176
-0.961581, 377, 49, 440, 176
-0.961702, 201, 225, 264, 352
-0.962084, 137, 97, 200, 160
-0.962106, 281, 193, 344, 320
-0.962166, 273, 249, 336, 312
-0.962648, 305, 153, 368, 216
-0.962717, 1, 241, 64, 368
-0.963002, 273, 97, 336, 160
-0.963282, 169, 81, 232, 208
-0.963599, 33, 225, 96, 352
-0.964023, 273, 49, 400, 176
-0.96421, 273, 177, 336, 240
-0.964295, 41, 81, 104, 144
-0.964322, 145, 145, 208, 272
-0.964478, 193, 145, 256, 272
-0.964509, 241, 97, 304, 224
-0.964604, 233, 305, 296, 368
-0.964609, 257, 241, 320, 368
-0.964734, 273, 281, 336, 344
-0.965446, 241, 177, 304, 240
-0.965775, 121, 129, 184, 256
-0.965834, 377, 145, 440, 272
-0.966008, 233, 241, 296, 304
-0.966218, 305, 121, 368, 184
-0.966351, 9, 105, 72, 168
-0.966377, 201, 97, 264, 224
-0.966397, 337, 193, 464, 320
-0.966683, 49, 97, 112, 224
-0.966795, 345, 49, 408, 176
-0.967322, 121, 177, 184, 304
-0.968365, 209, 49, 336, 176
-0.968428, 265, 153, 328, 216
-0.968621, 257, 305, 320, 368
-0.96868, 305, 177, 368, 240
-0.968705, 57, 225, 120, 352
-0.968725, 81, 233, 144, 296
-0.968771, 297, 49, 360, 176
-0.96883, 225, 1, 480, 128
-0.969128, 153, 121, 216, 184
-0.969158, 65, 49, 96, 176
-0.969205, 369, 241, 496, 368
-0.969449, 153, 201, 216, 264
-0.969489, 57, 233, 120, 296
-0.969524, 305, 209, 368, 336
-0.969693, 121, 65, 184, 320
-0.969731, 377, 137, 440, 200
-0.969913, 89, 289, 152, 352
-0.969927, 49, 1, 80, 128
-0.969953, 57, 257, 120, 320
-0.970102, 17, 17, 80, 80
-0.970112, 97, 129, 160, 256
-0.970209, 61, 1, 92, 128
-0.970303, 321, 49, 384, 176
-0.970306, 273, 121, 336, 184
-0.970367, 249, 97, 312, 160
-0.970377, 169, 313, 232, 375
-0.970466, 337, 65, 400, 320
-0.970574, 321, 241, 384, 304
-0.970685, 289, 201, 352, 264
-0.970778, 393, 241, 456, 304
-0.970899, 97, 1, 352, 128
-0.971126, 445, 105, 476, 168
-0.971197, 73, 65, 136, 320
-0.971243, 433, 137, 496, 200
-0.971434, 129, 289, 192, 352
-0.971661, 305, 65, 368, 320
-0.971717, 321, 105, 448, 168
-0.971759, 425, 257, 488, 320
-0.971876, 333, 97, 364, 224
-0.971914, 161, 33, 288, 160
-0.971953, 145, 49, 208, 176
-0.971953, 17, 49, 80, 112
-0.972094, 273, 97, 400, 160
-0.972132, 73, 129, 136, 256
-0.972404, 349, 97, 380, 224
-0.97241, 105, 33, 168, 160
-0.97246, 105, 233, 168, 296
-0.972572, 41, 1, 104, 256
-0.972586, 281, 65, 344, 320
-0.972587, 9, 305, 72, 368
-0.972599, 113, 97, 176, 160
-0.972667, 45, 49, 76, 176
-0.972672, 145, 65, 208, 320
-0.972695, 233, 273, 296, 336
-0.972746, 313, 97, 344, 224
-0.972937, 65, 289, 128, 352
-0.972988, 89, 209, 152, 336
-0.973176, 369, 145, 496, 272
-0.973223, 113, 49, 240, 176
-0.973246, 425, 105, 456, 168
-0.973369, 185, 233, 248, 296
-0.973446, 281, 241, 344, 368
-0.97349, 193, 313, 256, 375
-0.973709, 369, 241, 432, 304
-0.973711, 77, 49, 108, 176
-0.973812, 121, 313, 184, 375
-0.973959, 81, 265, 144, 328
-0.97402, 361, 97, 424, 352
-0.974073, 1, 89, 128, 152
-0.974173, 209, 241, 272, 304
-0.974214, 225, 121, 352, 184
-0.974223, 329, 153, 392, 216
-0.974408, 81, 105, 144, 168
-0.974423, 49, 17, 80, 80
-0.97443, 289, 305, 352, 368
-0.974585, 297, 97, 328, 160
-0.974656, 153, 81, 184, 208
-0.974757, 313, 97, 344, 160
-0.974826, 345, 161, 408, 288
-0.974912, 369, 1, 496, 128
-0.974922, 73, 73, 136, 136
-0.974943, 265, 49, 328, 176
-0.975061, 301, 97, 332, 224
-0.975109, 61, 17, 92, 80
-0.975231, 73, 1, 104, 128
-0.975364, 257, 241, 384, 304
-0.975477, 433, 241, 496, 368
-0.975554, 25, 97, 88, 224
-0.975555, 253, 177, 284, 240
-0.975694, 65, 17, 128, 80
-0.975792, 425, 145, 488, 272
-0.975818, 145, 313, 208, 375
-0.975825, 457, 81, 488, 208
-0.975996, 65, 97, 192, 160
-0.976015, 193, 97, 256, 160
-0.976087, 129, 233, 192, 296
-0.976153, 17, 17, 144, 80
-0.976173, 33, 249, 96, 312
-0.976204, 369, 113, 496, 176
-0.976276, 17, 65, 144, 128
-0.976361, 97, 65, 160, 320
-0.976369, 457, 105, 488, 168
-0.976457, 253, 161, 284, 288
-0.976462, 301, 145, 332, 272
-0.9766, 33, 297, 96, 360
-0.976714, 433, 305, 496, 368
-0.976804, 297, 265, 360, 328
-0.976843, 401, 105, 432, 168
-0.976851, 369, 193, 432, 320
-0.976873, 209, 249, 336, 312
-0.97701, 65, 289, 192, 352
-0.977028, 325, 97, 356, 160
-0.977178, 129, 129, 192, 192
-0.977193, 165, 97, 196, 224
-0.977197, 161, 233, 224, 296
-0.977233, 329, 129, 392, 192
-0.977329, 353, 137, 416, 200
-0.977347, 33, 105, 96, 168
-0.977391, 417, 233, 480, 296
-0.977403, 65, 233, 192, 296
-0.977419, 141, 81, 172, 208
-0.977507, 169, 97, 232, 352
-0.97753, 393, 193, 456, 320
-0.977568, 177, 129, 240, 192
-0.97758, 165, 225, 196, 352
-0.9777, 321, 81, 384, 144
-0.977819, 29, 81, 60, 144
-0.977958, 261, 241, 292, 304
-0.978007, 185, 289, 248, 352
-0.978016, 129, 81, 160, 208
-0.978125, 169, 33, 232, 160
-0.978154, 425, 81, 488, 144
-0.978158, 241, 153, 304, 216
-0.97818, 381, 97, 412, 224
-0.978222, 321, 241, 448, 368
-0.97826, 153, 289, 216, 352
-0.978274, 293, 249, 324, 312
-0.978367, 225, 97, 352, 160
-0.978412, 273, 121, 400, 184
-0.978453, 281, 97, 312, 224
-0.978489, 409, 313, 472, 375
-0.978527, 193, 305, 320, 368
-0.978542, 45, 49, 76, 112
-0.978711, 345, 241, 408, 304
-0.978724, 89, 81, 120, 208
-0.978729, 217, 153, 280, 216
-0.97891, 57, 313, 120, 375
-0.978937, 433, 97, 464, 224
-0.978989, 1, 145, 128, 272
-0.979011, 209, 273, 272, 336
-0.979048, 413, 97, 444, 224
-0.979157, 17, 1, 80, 256
-0.979174, 325, 145, 356, 272
-0.979193, 33, 225, 96, 288
-0.979198, 117, 81, 148, 208
-0.979268, 105, 257, 168, 320
-0.979271, 169, 97, 232, 160
-0.979286, 209, 193, 272, 256
-0.979307, 65, 57, 96, 120
-0.979314, 313, 289, 376, 352
-0.979317, 417, 1, 480, 128
-0.979326, 241, 49, 304, 176
-0.979347, 409, 241, 472, 368
-0.97936, 161, 129, 288, 192
-0.97938, 305, 241, 336, 304
-0.979393, 369, 241, 496, 304
-0.979405, 17, 281, 144, 344
-0.979514, 177, 97, 304, 160
-0.979517, 401, 65, 464, 320
-0.979538, 305, 241, 432, 304
-0.97955, 285, 97, 316, 160
-0.979697, 273, 265, 304, 328
-0.979702, 425, 97, 488, 352
-0.979703, 329, 137, 360, 200
-0.979732, 393, 217, 456, 280
-0.979735, 329, 177, 392, 240
-0.979758, 241, 305, 368, 368
-0.97977, 193, 49, 256, 176
-0.9798, 445, 97, 476, 224
-0.979848, 361, 1, 424, 256
-0.979859, 401, 161, 464, 224
-0.979896, 161, 161, 224, 224
-0.979912, 257, 153, 384, 216
-0.979942, 85, 1, 116, 128
-0.979957, 433, 281, 496, 344
-0.979991, 381, 105, 412, 168
-0.980133, 257, 225, 320, 288
-0.980136, 237, 177, 268, 304
-0.980215, 413, 105, 444, 168
-0.980244, 273, 1, 400, 128
-0.980327, 269, 297, 300, 360
-0.980334, 301, 177, 332, 240
-0.980406, 129, 209, 192, 272
-0.980413, 33, 49, 64, 176
-0.980433, 97, 129, 224, 192
-0.980507, 273, 241, 304, 304
-0.980561, 457, 129, 488, 192
-0.98057, 201, 121, 264, 184
-0.980631, 41, 81, 72, 144
-0.980659, 321, 265, 384, 328
-0.980674, 409, 281, 472, 344
-0.980693, 49, 97, 112, 352
-0.980704, 401, 97, 432, 224
-0.980732, 129, 233, 256, 296
-0.980841, 425, 129, 456, 192
-0.980878, 9, 249, 72, 312
-0.980913, 345, 105, 376, 168
-0.980971, 57, 105, 120, 168
-0.980992, 321, 137, 448, 200
-0.981032, 33, 273, 96, 336
-0.98105, 1, 89, 32, 152
-0.981059, 317, 121, 348, 184
-0.98109, 113, 105, 240, 168
-0.981092, 73, 209, 136, 272
-0.981127, 105, 81, 136, 208
-0.98116, 469, 105, 500, 168
-0.981191, 369, 297, 432, 360
-0.981201, 241, 281, 368, 344
-0.981288, 113, 297, 240, 360
-0.981304, 269, 241, 300, 368
-0.981354, 469, 97, 500, 224
-0.981356, 85, 233, 116, 296
-0.981425, 297, 129, 328, 192
-0.981447, 273, 73, 336, 136
-0.981495, 317, 241, 348, 304
-0.981516, 169, 201, 200, 264
-0.981518, 265, 201, 328, 264
-0.981518, 37, 1, 68, 128
-0.981521, 249, 65, 312, 320
-0.981524, 49, 257, 176, 320
-0.981531, 265, 161, 296, 288
-0.981649, 377, 161, 440, 224
-0.981654, 137, 225, 168, 352
-0.981676, 313, 145, 344, 272
-0.981686, 369, 97, 400, 224
-0.981703, 401, 145, 464, 272
-0.981775, 177, 225, 208, 352
-0.981787, 281, 177, 312, 304
-0.981849, 9, 281, 72, 344
-0.981871, 361, 201, 424, 264
-0.981945, 105, 137, 168, 200
-0.98199, 385, 241, 448, 368
-0.98202, 97, 313, 160, 375
-0.982072, 445, 137, 476, 200
-0.982074, 73, 17, 104, 80
-0.982138, 193, 273, 320, 336
-0.982139, 105, 193, 168, 256
-0.982165, 153, 97, 184, 160
-0.982176, 145, 161, 272, 224
-0.982185, 129, 265, 192, 328
-0.982195, 165, 145, 196, 272
-0.982209, 17, 233, 144, 296
-0.982296, 337, 145, 368, 272
-0.982427, 193, 65, 256, 320
-0.982434, 1, 257, 128, 320
-0.982436, 73, 49, 136, 112
-0.982482, 273, 177, 400, 240
-0.982521, 165, 97, 196, 160
-0.982631, 357, 145, 388, 272
-0.982725, 401, 49, 432, 176
-0.982739, 329, 225, 392, 352
-0.982828, 97, 241, 128, 304
-0.982878, 17, 41, 144, 104
-0.982923, 113, 1, 240, 128
-0.982926, 385, 1, 448, 128
-0.982938, 377, 81, 440, 144
-0.98294, 289, 289, 320, 352
-0.982942, 1, 313, 128, 375
-0.982973, 37, 17, 68, 80
-0.982979, 193, 145, 224, 272
-0.983043, 73, 233, 104, 296
-0.983048, 81, 257, 112, 320
-0.983049, 385, 273, 448, 336
-0.983086, 181, 81, 212, 208
-0.983113, 305, 1, 368, 375
-0.983127, 17, 113, 144, 176
-0.98313, 129, 177, 192, 240
-0.983137, 25, 97, 88, 352
-0.983142, 37, 241, 68, 368
-0.983155, 437, 49, 468, 176
-0.983203, 109, 241, 140, 304
-0.983278, 289, 265, 416, 328
-0.983278, 289, 289, 416, 352
-0.983295, 245, 225, 276, 352
-0.983297, 417, 193, 480, 320
-0.983301, 265, 177, 296, 240
-0.983407, 177, 193, 240, 256
-0.983414, 305, 153, 336, 216
-0.983423, 217, 217, 280, 280
-0.983445, 249, 121, 312, 184
-0.983481, 81, 209, 208, 272
-0.983491, 177, 185, 304, 248
-0.983536, 13, 89, 44, 152
-0.983538, 257, 305, 288, 368
-0.983552, 257, 225, 288, 352
-0.983554, 385, 49, 416, 176
-0.983566, 313, 217, 376, 280
-0.983646, 249, 241, 280, 304
-0.983654, 49, 313, 176, 375
-0.983766, 413, 49, 444, 176
-0.983772, 149, 225, 180, 352
-0.983834, 1, 225, 64, 288
-0.983884, 385, 193, 448, 256
-0.983943, 1, 129, 64, 192
-0.983952, 221, 225, 252, 352
-0.983955, 261, 273, 292, 336
-0.984034, 333, 241, 364, 304
-0.984055, 413, 129, 444, 192
-0.984084, 133, 289, 164, 352
-0.98411, 317, 145, 348, 208
-0.984133, 369, 137, 496, 200
-0.984148, 369, 265, 496, 328
-0.984268, 65, 65, 192, 128
-0.984351, 345, 265, 408, 328
-0.984356, 1, 97, 64, 224
-0.984495, 65, 17, 192, 80
-0.984635, 233, 225, 264, 352
-0.984668, 237, 241, 268, 304
-0.984711, 369, 89, 496, 152
-0.984776, 157, 201, 188, 264
-0.984815, 25, 241, 56, 368
-0.984864, 49, 241, 80, 368
-0.984898, 33, 1, 96, 375
-0.984899, 129, 265, 256, 328
-0.984904, 113, 289, 144, 352
-0.984911, 293, 209, 324, 336
-0.984913, 209, 225, 336, 288
-0.984932, 97, 73, 160, 136
-0.984951, 361, 241, 424, 368
-0.984979, 461, 81, 492, 144
-0.98505, 153, 161, 184, 288
-0.985072, 349, 241, 380, 304
-0.985103, 181, 121, 212, 184
-0.985129, 209, 145, 240, 272
-0.985246, 181, 313, 212, 375
-0.985271, 137, 97, 168, 160
-0.985302, 61, 233, 92, 296
-0.985353, 177, 145, 208, 272
-0.985428, 441, 257, 472, 320
-0.985453, 369, 289, 496, 352
-0.985494, 269, 97, 300, 224
-0.985496, 321, 1, 448, 128
-0.985503, 469, 49, 500, 176
-0.985517, 225, 177, 352, 240
-0.985569, 345, 313, 408, 375
-0.985598, 417, 249, 448, 312
-0.985614, 321, 81, 448, 144
-0.985625, 53, 89, 84, 152
-0.985644, 457, 257, 488, 320
-0.985696, 193, 225, 224, 352
-0.985824, 41, 105, 72, 168
-0.985827, 321, 209, 448, 272
-0.985878, 121, 241, 152, 304
-0.985908, 209, 153, 336, 216
-0.985963, 429, 241, 460, 304
-0.986029, 137, 153, 200, 216
-0.986038, 145, 1, 208, 128
-0.986108, 213, 233, 244, 296
-0.986127, 217, 313, 248, 375
-0.986133, 65, 81, 96, 144
-0.986183, 273, 97, 304, 160
-0.986215, 129, 209, 256, 272
-0.986216, 273, 153, 304, 216
-0.986282, 169, 313, 200, 375
-0.9863, 265, 1, 328, 375
-0.986308, 25, 1, 56, 128
-0.986313, 209, 225, 240, 352
-0.98634, 281, 121, 312, 184
-0.98635, 401, 145, 432, 272
-0.986368, 225, 145, 256, 272
-0.986415, 321, 313, 384, 375
-0.986441, 29, 105, 60, 168
-0.986452, 281, 177, 312, 240
-0.986475, 33, 129, 96, 192
-0.986508, 225, 113, 288, 176
-0.986512, 65, 97, 96, 224
-0.986517, 345, 153, 376, 216
-0.986568, 313, 209, 344, 272
-0.986606, 133, 313, 164, 375
-0.986616, 401, 241, 432, 304
-0.986617, 321, 161, 448, 224
-0.986623, 345, 289, 408, 352
-0.986662, 1, 129, 64, 375
-0.986712, 57, 1, 120, 375
-0.986718, 237, 177, 268, 240
-0.98676, 313, 209, 344, 336
-0.986767, 101, 265, 132, 328
-0.986783, 69, 257, 100, 320
-0.986804, 145, 289, 176, 352
-0.986982, 165, 33, 196, 160
-0.987021, 313, 177, 344, 240
-0.987021, 393, 1, 456, 375
-0.987061, 133, 129, 164, 256
-0.987136, 85, 289, 116, 352
-0.987143, 345, 1, 408, 128
-0.987146, 449, 33, 480, 160
-0.987146, 161, 289, 192, 352
-0.987156, 225, 233, 256, 296
-0.987161, 165, 129, 196, 192
-0.987202, 297, 49, 328, 176
-0.987246, 425, 1, 488, 375
-0.987381, 13, 305, 44, 368
-0.987383, 225, 201, 352, 264
-0.987413, 249, 153, 280, 216
-0.987495, 121, 1, 184, 375
-0.987541, 253, 113, 284, 240
-0.987543, 337, 1, 400, 375
-0.987556, 469, 257, 500, 320
-0.987559, 209, 81, 240, 208
-0.987621, 389, 241, 420, 304
-0.987623, 241, 201, 272, 264
-0.987625, 189, 289, 220, 352
-0.987675, 369, 161, 496, 224
-0.987678, 125, 97, 156, 160
-0.987687, 49, 145, 176, 208
-0.987716, 193, 313, 224, 375
-0.987728, 185, 97, 216, 160
-0.987731, 65, 41, 192, 104
-0.987764, 425, 49, 456, 176
-0.987786, 133, 233, 164, 296
-0.987797, 205, 313, 236, 375
-0.987824, 153, 33, 184, 160
-0.987843, 245, 313, 276, 375
-0.98785, 77, 97, 108, 224
-0.987852, 53, 97, 84, 224
-0.987853, 181, 201, 212, 264
-0.987892, 101, 129, 132, 256
-0.987936, 381, 129, 412, 192
-0.987937, 121, 225, 152, 352
-0.98796, 249, 181, 312, 212
-0.987972, 321, 313, 448, 375
-0.987984, 73, 289, 104, 352
-0.988029, 61, 225, 92, 352
-0.988051, 77, 89, 108, 152
-0.988063, 325, 177, 356, 240
-0.988144, 193, 65, 224, 192
-0.988168, 313, 305, 344, 368
-0.988226, 373, 49, 404, 176
-0.988228, 281, 313, 312, 375
-0.98823, 369, 313, 496, 375
-0.98824, 369, 1, 432, 375
-0.988274, 369, 105, 400, 168
-0.988276, 145, 313, 176, 375
-0.988292, 413, 145, 444, 272
-0.988337, 145, 1, 208, 375
-0.988441, 365, 241, 396, 304
-0.988491, 201, 233, 232, 296
-0.988501, 413, 313, 444, 375
-0.988512, 109, 225, 140, 352
-0.988546, 9, 1, 72, 375
-0.988552, 369, 65, 496, 128
-0.988557, 81, 57, 112, 120
-0.988576, 325, 49, 356, 176
-0.988594, 377, 241, 408, 304
-0.988608, 233, 97, 264, 224
-0.988724, 33, 17, 96, 48
-0.988735, 233, 313, 264, 375
-0.988751, 33, 45, 96, 76
-0.988771, 453, 305, 484, 368
-0.988796, 401, 129, 432, 192
-0.9889, 161, 97, 416, 160
-0.988909, 97, 33, 128, 160
-0.98892, 433, 313, 464, 375
-0.988926, 137, 33, 168, 160
-0.988949, 17, 209, 144, 272
-0.988992, 117, 265, 148, 328
-0.988996, 41, 57, 104, 88
-0.989094, 13, 281, 44, 344
-0.989106, 165, 177, 196, 240
-0.989131, 241, 273, 272, 336
-0.989151, 281, 105, 344, 136
-0.989194, 425, 1, 488, 256
-0.989422, 1, 105, 500, 168
-0.989432, 57, 305, 88, 368
-0.989437, 417, 121, 480, 152
-0.98944, 57, 257, 88, 320
-0.989454, 261, 153, 292, 216
-0.989459, 273, 73, 400, 136
-0.989482, 13, 225, 44, 352
-0.98951, 265, 249, 328, 280
-0.989548, 117, 129, 148, 256
-0.989561, 349, 49, 380, 176
-0.989596, 297, 177, 360, 208
-0.989608, 409, 109, 472, 140
-0.989612, 93, 225, 124, 352
-0.98963, 1, 97, 256, 160
-0.98965, 409, 133, 472, 164
-0.989661, 209, 185, 272, 216
-0.98967, 129, 185, 256, 248
-0.98967, 81, 1, 144, 375
-0.989709, 81, 185, 208, 248
-0.989785, 297, 121, 360, 152
-0.989798, 1, 193, 64, 320
-0.989802, 281, 241, 312, 368
-0.989841, 233, 245, 296, 276
-0.989848, 209, 1, 336, 128
-0.989852, 25, 177, 88, 304
-0.989891, 273, 173, 336, 204
-0.989927, 353, 293, 416, 324
-0.989935, 185, 193, 248, 224
-0.989941, 321, 185, 448, 248
-0.98999, 217, 317, 280, 348
-0.989997, 369, 145, 400, 272
-0.990017, 257, 105, 320, 136
-0.990053, 257, 105, 500, 168
-0.990055, 313, 105, 376, 136
-0.990059, 33, 33, 96, 64
-0.990059, 385, 141, 448, 172
-0.990173, 345, 305, 408, 336
-0.990174, 33, 309, 96, 340
-0.990182, 1, 265, 500, 328
-0.9902, 385, 109, 448, 140
-0.990206, 305, 145, 368, 176
-0.990216, 329, 293, 392, 324
-0.990226, 413, 193, 444, 320
-0.990227, 73, 97, 136, 128
-0.990264, 281, 49, 312, 176
-0.990277, 113, 81, 240, 144
-0.990311, 1, 137, 128, 200
-0.990333, 1, 65, 32, 192
-0.990359, 209, 73, 336, 136
-0.990398, 241, 193, 304, 224
-0.9904, 377, 305, 440, 336
-0.990408, 401, 305, 464, 336
-0.990409, 1, 241, 500, 304
-0.990412, 297, 293, 360, 324
-0.990429, 389, 145, 420, 272
-0.990443, 57, 313, 120, 344
-0.99045, 161, 121, 416, 184
-0.990454, 73, 241, 136, 272
-0.990466, 241, 1, 304, 375
-0.990469, 297, 249, 360, 280
-0.990479, 425, 145, 488, 176
-0.990485, 41, 97, 72, 224
-0.99049, 225, 65, 288, 320
-0.990513, 137, 241, 200, 272
-0.990518, 377, 293, 440, 324
-0.990523, 337, 105, 400, 136
-0.99053, 169, 1, 232, 256
-0.990533, 297, 261, 360, 292
-0.990538, 385, 129, 448, 160
-0.990538, 433, 297, 496, 328
-0.990539, 433, 109, 496, 140
-0.9906, 185, 245, 248, 276
-0.990609, 273, 261, 336, 292
-0.990615, 377, 253, 440, 284
-0.990621, 161, 141, 224, 172
-0.990636, 161, 245, 224, 276
-0.990722, 273, 193, 336, 224
-0.990737, 273, 281, 336, 312
-0.99074, 217, 257, 280, 288
-0.990743, 321, 1, 384, 128
-0.990745, 9, 269, 72, 300
-0.990754, 337, 137, 400, 168
-0.99076, 353, 249, 416, 280
-0.990794, 369, 217, 496, 280
-0.990803, 105, 273, 168, 304
-0.990804, 201, 305, 264, 336
-0.990808, 249, 297, 312, 328
-0.990817, 217, 49, 280, 176
-0.99082, 193, 317, 256, 348
-0.990822, 225, 241, 480, 304
-0.990827, 401, 293, 464, 324
-0.990828, 41, 85, 104, 116
-0.990839, 33, 233, 288, 296
-0.990839, 117, 33, 148, 160
-0.990856, 57, 41, 120, 72
-0.990864, 161, 73, 288, 136
-0.99088, 273, 141, 336, 172
-0.990908, 65, 177, 128, 304
-0.990918, 9, 305, 72, 336
-0.990934, 161, 317, 224, 348
-0.990963, 321, 249, 384, 280
-0.990997, 105, 253, 168, 284
-0.990999, 141, 177, 172, 304
-0.991003, 129, 101, 192, 132
-0.991013, 321, 321, 384, 352
-0.991027, 337, 117, 400, 148
-0.991031, 17, 249, 80, 280
-0.991032, 9, 37, 72, 68
-0.991038, 273, 309, 336, 340
-0.991047, 105, 313, 168, 344
-0.991055, 97, 241, 160, 272
-0.991078, 361, 49, 392, 176
-0.99108, 49, 261, 112, 292
-0.991097, 161, 201, 224, 232
-0.991111, 249, 309, 312, 340
-0.991121, 73, 85, 136, 116
-0.991123, 81, 253, 144, 284
-0.991125, 401, 253, 464, 284
-0.991133, 9, 317, 72, 348
-0.991134, 145, 121, 208, 152
-0.99114, 313, 49, 344, 176
-0.991145, 57, 21, 120, 52
-0.991163, 465, 241, 496, 368
-0.991186, 217, 289, 280, 320
-0.991188, 41, 1, 104, 32
-0.991191, 49, 97, 112, 128
-0.991193, 177, 305, 240, 336
-0.991196, 137, 265, 200, 296
-0.991197, 193, 257, 256, 288
-0.991203, 297, 321, 360, 352
-0.991208, 425, 253, 488, 284
-0.991219, 393, 325, 456, 356
-0.99122, 137, 285, 200, 316
-0.991241, 233, 269, 296, 300
-0.991266, 361, 145, 424, 176
-0.991274, 9, 25, 72, 56
-0.991282, 305, 305, 368, 336
-0.99129, 89, 129, 120, 256
-0.991291, 49, 281, 112, 312
-0.991302, 385, 265, 448, 296
-0.991304, 169, 257, 232, 288
-0.991307, 433, 133, 496, 164
-0.991312, 209, 245, 272, 276
-0.991319, 57, 301, 120, 332
-0.991321, 217, 197, 280, 228
-0.991322, 41, 237, 104, 268
-0.991343, 169, 285, 232, 316
-0.991343, 129, 313, 192, 344
-0.991367, 81, 273, 144, 304
-0.991375, 169, 101, 232, 132
-0.991377, 97, 97, 160, 128
-0.991379, 73, 241, 104, 368
-0.991387, 1, 93, 64, 124
-0.991395, 9, 289, 72, 320
-0.991399, 13, 65, 44, 192
-0.991404, 433, 309, 496, 340
-0.991409, 105, 301, 168, 332
-0.991409, 409, 265, 472, 296
-0.991415, 241, 257, 304, 288
-0.991418, 81, 309, 144, 340
-0.991429, 361, 265, 424, 296
-0.991435, 273, 321, 336, 352
-0.991439, 297, 281, 360, 312
-0.99145, 257, 137, 500, 200
-0.991452, 177, 25, 304, 88
-0.991462, 201, 277, 264, 308
-0.991465, 125, 177, 156, 304
-0.991482, 33, 289, 288, 352
-0.991489, 129, 253, 192, 284
-0.991492, 321, 181, 384, 212
-0.991499, 121, 133, 184, 164
-0.991508, 353, 325, 416, 356
-0.991525, 337, 157, 400, 188
-0.991534, 25, 97, 88, 128
-0.991535, 361, 205, 424, 236
-0.991536, 41, 73, 104, 104
-0.991547, 433, 265, 496, 296
-0.99155, 153, 305, 216, 336
-0.991575, 65, 265, 320, 328
-0.991575, 169, 1, 232, 375
-0.991638, 1, 225, 32, 352
-0.991753, 453, 241, 484, 368
-0.991769, 113, 25, 240, 88
-0.99187, 209, 1, 272, 375
-0.991922, 177, 33, 208, 160
-0.992124, 129, 241, 384, 304
-0.992137, 293, 105, 324, 136
-0.99217, 437, 109, 468, 140
-0.992232, 261, 181, 292, 212
-0.992273, 257, 273, 500, 336
-0.992274, 45, 17, 76, 48
-0.99231, 161, 153, 416, 216
-0.992349, 313, 105, 344, 136
-0.992408, 273, 181, 304, 212
-0.992432, 417, 129, 448, 160
-0.992456, 129, 305, 384, 368
-0.992468, 45, 45, 76, 76
-0.992471, 273, 217, 400, 280
-0.99251, 301, 177, 332, 208
-0.992516, 429, 121, 460, 152
-0.992523, 249, 193, 280, 224
-0.992524, 65, 17, 96, 48
-0.992527, 281, 249, 312, 280
-0.992584, 241, 181, 272, 212
-0.992588, 281, 105, 312, 136
-0.992592, 441, 121, 472, 152
-0.992597, 293, 261, 324, 292
-0.992601, 57, 29, 88, 60
-0.992605, 45, 33, 76, 64
-0.992606, 405, 109, 436, 140
-0.992622, 369, 293, 400, 324
-0.99263, 293, 249, 324, 280
-0.992633, 297, 189, 328, 220
-0.992634, 381, 293, 412, 324
-0.992637, 425, 109, 456, 140
-0.99267, 337, 49, 368, 176
-0.992679, 289, 121, 320, 152
-0.992683, 65, 45, 96, 76
-0.992688, 233, 309, 264, 340
-0.992695, 397, 305, 428, 336
-0.992695, 357, 293, 388, 324
-0.992704, 429, 145, 460, 272
-0.992711, 305, 249, 336, 280
-0.992729, 453, 109, 484, 140
-0.992729, 445, 137, 476, 168
-0.992729, 269, 245, 300, 276
-0.99273, 385, 249, 416, 280
-0.992734, 45, 57, 76, 88
-0.992743, 401, 253, 432, 284
-0.992743, 325, 105, 356, 136
-0.992744, 421, 141, 452, 172
-0.992745, 385, 305, 416, 336
-0.992747, 273, 269, 304, 300
-0.992751, 301, 117, 332, 148
-0.992754, 325, 121, 356, 152
-0.992756, 433, 133, 464, 164
-0.992762, 345, 105, 376, 136
-0.992768, 209, 245, 240, 276
-0.992772, 41, 309, 72, 340
-0.992775, 373, 305, 404, 336
-0.992776, 421, 293, 452, 324
-0.99278, 93, 241, 124, 272
-0.992783, 405, 293, 436, 324
-0.992787, 469, 1, 500, 128
-0.992789, 33, 17, 64, 48
-0.99279, 393, 293, 424, 324
-0.992792, 285, 177, 316, 208
-0.992792, 325, 145, 356, 176
-0.992792, 409, 305, 440, 336
-0.992796, 289, 289, 320, 320
-0.992796, 221, 245, 252, 276
-0.992797, 317, 181, 348, 212
-0.992804, 81, 93, 112, 124
-0.992812, 65, 57, 96, 88
-0.992815, 465, 113, 496, 144
-0.992816, 1, 289, 500, 352
-0.992819, 165, 201, 196, 232
-0.992825, 413, 253, 444, 284
-0.992829, 357, 305, 388, 336
-0.992835, 437, 149, 468, 180
-0.992837, 425, 193, 456, 320
-0.99284, 345, 293, 376, 324
-0.992847, 229, 189, 260, 220
-0.992849, 229, 257, 260, 288
-0.992852, 33, 269, 64, 300
-0.992852, 105, 241, 136, 272
-0.992854, 289, 313, 320, 344
-0.99286, 81, 241, 112, 272
-0.992864, 269, 101, 300, 132
-0.992869, 117, 241, 148, 272
-0.992871, 245, 309, 276, 340
-0.992877, 221, 317, 252, 348
-0.992883, 181, 245, 212, 276
-0.992886, 249, 245, 280, 276
-0.9929, 61, 309, 92, 340
-0.992901, 425, 305, 456, 336
-0.992906, 373, 249, 404, 280
-0.992915, 29, 313, 60, 344
-0.992918, 21, 269, 52, 300
-0.992918, 1, 129, 500, 192
-0.992919, 197, 245, 228, 276
-0.992922, 297, 141, 328, 172
-0.992923, 373, 145, 404, 176
-0.992924, 93, 97, 124, 128
-0.992928, 457, 145, 488, 176
-0.992932, 457, 133, 488, 164
-0.992932, 469, 297, 500, 328
-0.992939, 85, 313, 116, 344
-0.992947, 317, 249, 348, 280
-0.992949, 257, 257, 288, 288
-0.992958, 389, 261, 420, 292
-0.992966, 109, 97, 140, 128
-0.992967, 333, 293, 364, 324
-0.992971, 313, 145, 344, 176
-0.992971, 269, 49, 300, 176
-0.992974, 213, 305, 244, 336
-0.992975, 169, 245, 200, 276
-0.992975, 69, 97, 100, 128
-0.992978, 285, 189, 316, 220
-0.992981, 357, 105, 388, 136
-0.992985, 329, 249, 360, 280
-0.992985, 177, 317, 208, 348
-0.992988, 201, 317, 232, 348
-0.992998, 33, 297, 64, 328
-0.993, 97, 313, 128, 344
-0.993003, 445, 297, 476, 328
-0.993003, 125, 273, 156, 304
-0.993009, 313, 117, 344, 148
-0.993009, 157, 101, 188, 132
-0.993012, 233, 245, 264, 276
-0.993016, 257, 309, 288, 340
-0.993016, 17, 309, 48, 340
-0.99302, 129, 253, 160, 284
-0.993021, 109, 253, 140, 284
-0.993024, 45, 277, 76, 308
-0.993026, 421, 325, 452, 356
-0.993031, 137, 237, 168, 268
-0.993034, 357, 249, 388, 280
-0.993034, 277, 117, 308, 148
-0.993035, 261, 193, 292, 224
-0.993035, 409, 193, 440, 224
-0.993038, 401, 265, 432, 296
-0.993038, 425, 253, 456, 284
-0.993041, 1, 237, 32, 268
-0.993042, 65, 269, 96, 300
-0.993047, 113, 273, 144, 304
-0.993051, 345, 305, 376, 336
-0.99319, 217, 1, 280, 128
-0.993244, 29, 97, 60, 224
-0.993253, 273, 105, 400, 136
-0.993258, 97, 153, 224, 216
-0.993281, 257, 1, 320, 128
-0.993303, 225, 25, 352, 88
-0.993418, 221, 65, 252, 192
-0.993466, 1, 121, 256, 184
-0.993524, 113, 1, 240, 64
-0.993587, 465, 105, 480, 168
-0.993605, 321, 109, 448, 140
-0.993607, 401, 193, 432, 320
-0.993642, 77, 17, 92, 80
-0.993671, 1, 17, 256, 80
-0.993682, 193, 1, 320, 64
-0.993697, 301, 97, 316, 160
-0.993709, 307, 97, 322, 160
-0.993723, 51, 17, 66, 80
-0.993755, 33, 313, 288, 375
-0.993775, 257, 33, 288, 160
-0.993809, 257, 161, 500, 224
-0.993809, 459, 105, 474, 168
-0.99381, 17, 21, 144, 52
-0.993828, 397, 1, 428, 128
-0.993831, 273, 17, 400, 80
-0.993841, 321, 17, 448, 80
-0.993858, 1, 65, 256, 128
-0.993861, 313, 97, 328, 160
-0.99393, 337, 305, 464, 336
-0.993973, 225, 297, 480, 360
-0.993989, 1, 313, 500, 375
-0.994007, 1, 201, 500, 264
-0.994042, 245, 65, 276, 192
-0.994099, 437, 241, 468, 368
-0.994127, 325, 97, 340, 160
-0.994167, 193, 185, 448, 248
-0.99417, 289, 249, 416, 280
-0.994213, 289, 293, 416, 324
-0.994256, 319, 97, 334, 160
-0.994258, 209, 245, 336, 276
-0.99428, 427, 105, 442, 168
-0.994325, 295, 97, 310, 160
-0.994331, 435, 105, 450, 168
-0.994373, 289, 305, 416, 336
-0.994385, 337, 97, 352, 160
-0.994428, 161, 273, 416, 336
-0.994478, 447, 105, 462, 168
-0.994523, 113, 177, 144, 304
-0.994538, 461, 145, 492, 272
-0.994547, 369, 149, 496, 180
-0.994559, 257, 261, 384, 292
-0.994621, 49, 253, 176, 284
-0.994632, 337, 225, 368, 352
-0.99466, 331, 105, 346, 168
-0.994668, 421, 105, 436, 168
-0.994669, 113, 241, 240, 272
-0.994683, 241, 117, 368, 148
-0.994697, 225, 105, 352, 136
-0.994701, 373, 193, 404, 320
-0.994702, 321, 133, 448, 164
-0.994706, 41, 81, 56, 144
-0.994761, 57, 17, 72, 80
-0.994767, 209, 289, 336, 320
-0.994779, 315, 177, 330, 240
-0.994781, 209, 257, 336, 288
-0.994816, 77, 57, 92, 120
-0.994832, 65, 201, 320, 264
-0.994834, 337, 293, 464, 324
-0.994835, 49, 313, 176, 344
-0.994851, 253, 177, 268, 240
-0.994858, 341, 137, 356, 200
-0.994859, 423, 129, 438, 192
-0.99486, 65, 97, 192, 128
-0.994892, 67, 17, 82, 80
-0.994896, 17, 53, 144, 84
-0.9949, 161, 317, 288, 348
-0.994921, 145, 257, 272, 288
-0.994927, 453, 105, 468, 168
-0.994939, 97, 177, 352, 240
-0.994939, 285, 241, 300, 304
-0.994946, 209, 317, 336, 348
-0.994962, 1, 89, 16, 152
-0.994964, 471, 105, 486, 168
-0.994981, 47, 49, 62, 112
-0.994995, 17, 281, 144, 312
-0.995001, 369, 265, 496, 296
-0.99501, 17, 237, 144, 268
-0.995039, 161, 245, 288, 276
-0.99504, 265, 177, 280, 240
-0.995082, 257, 145, 384, 176
-0.995087, 65, 241, 192, 272
-0.995117, 177, 269, 304, 300
-0.995118, 1, 309, 128, 340
-0.995134, 369, 1, 496, 64
-0.995151, 241, 301, 368, 332
-0.995156, 281, 1, 344, 128
-0.995168, 441, 105, 456, 168
-0.995203, 1, 145, 256, 208
-0.99521, 287, 97, 302, 160
-0.99521, 1, 145, 64, 272
-0.995216, 309, 241, 324, 304
-0.995253, 463, 129, 478, 192
-0.995262, 145, 137, 272, 168
-0.995263, 7, 89, 22, 152
-0.995263, 275, 297, 290, 360
-0.995276, 289, 273, 416, 304
-0.995306, 113, 285, 240, 316
-0.99531, 161, 297, 288, 328
-0.995314, 177, 101, 304, 132
-0.995318, 435, 129, 450, 192
-0.995318, 65, 269, 192, 300
-0.995332, 183, 201, 198, 264
-0.995354, 273, 185, 400, 216
-0.995363, 45, 17, 60, 80
-0.995367, 381, 105, 396, 168
-0.995375, 353, 325, 480, 356
-0.995379, 65, 133, 192, 164
-0.99538, 47, 81, 62, 144
-0.995402, 347, 121, 362, 184
-0.995438, 369, 185, 496, 248
-0.995446, 33, 41, 160, 72
-0.995463, 353, 253, 480, 284
-0.99549, 1, 93, 128, 124
-0.99551, 275, 241, 290, 304
-0.995524, 193, 189, 320, 220
-0.995537, 321, 153, 336, 216
-0.995541, 369, 41, 496, 104
-0.995541, 241, 129, 368, 160
-0.995556, 315, 241, 330, 304
-0.995569, 477, 105, 492, 168
-0.995586, 87, 233, 102, 296
-0.995589, 97, 313, 224, 344
-0.995595, 417, 137, 432, 200
-0.995602, 97, 241, 112, 304
-0.995627, 97, 121, 224, 152
-0.995641, 299, 241, 314, 304
-0.995681, 259, 241, 274, 304
-0.995686, 469, 137, 484, 200
-0.99571, 167, 97, 182, 160
-0.995712, 305, 121, 320, 184
-0.995712, 313, 121, 328, 184
-0.995717, 17, 81, 144, 112
-0.995743, 369, 109, 496, 140
-0.995757, 407, 105, 422, 168
-0.995772, 35, 81, 50, 144
-0.995777, 257, 81, 500, 144
-0.995779, 413, 105, 428, 168
-0.99578, 395, 105, 410, 168
-0.99579, 225, 217, 480, 280
-0.995793, 285, 265, 300, 328
-0.995797, 321, 57, 448, 120
-0.995802, 369, 137, 496, 168
-0.995807, 429, 129, 444, 192
-0.995812, 305, 145, 432, 176
-0.995812, 347, 97, 362, 160
-0.995828, 269, 297, 284, 360
-0.995832, 53, 81, 68, 144
-0.995839, 449, 129, 464, 192
-0.995857, 323, 241, 338, 304
-0.995859, 1, 261, 128, 292
-0.995862, 441, 129, 456, 192
-0.995876, 97, 73, 352, 136
-0.995878, 97, 253, 224, 284
-0.995891, 253, 241, 268, 304
-0.995905, 467, 81, 482, 144
-0.995913, 281, 297, 296, 360
-0.995917, 321, 121, 448, 152
-0.99593, 81, 241, 96, 304
-0.995936, 17, 89, 32, 152
-0.995943, 173, 97, 188, 160
-0.995949, 139, 289, 154, 352
-0.99595, 389, 105, 404, 168
-0.995955, 189, 201, 204, 264
-0.995963, 49, 301, 176, 332
-0.995972, 113, 301, 240, 332
-0.995977, 271, 169, 286, 232
-0.995999, 457, 137, 472, 200
-0.996005, 269, 241, 284, 304
-0.996022, 83, 17, 98, 80
-0.99604, 103, 241, 118, 304
-0.996064, 289, 321, 416, 352
-0.996072, 275, 273, 290, 336
-0.996077, 323, 121, 338, 184
-0.996082, 339, 241, 354, 304
-0.996086, 261, 153, 276, 216
-0.996087, 329, 241, 344, 304
-0.996088, 163, 201, 178, 264
-0.996092, 133, 289, 148, 352
-0.9961, 1, 297, 128, 328
-0.996103, 29, 81, 44, 144
-0.996103, 75, 233, 90, 296
-0.996104, 153, 97, 168, 160
-0.996104, 295, 121, 310, 184
-0.996158, 145, 97, 160, 160
-0.996164, 353, 65, 384, 320
-0.996168, 125, 241, 140, 304
-0.996177, 145, 289, 160, 352
-0.99619, 159, 97, 174, 160
-0.996206, 305, 169, 320, 232
-0.996209, 209, 141, 336, 172
-0.996215, 149, 65, 180, 320
-0.996216, 23, 89, 38, 152
-0.996231, 91, 257, 106, 320
-0.996234, 59, 89, 74, 152
-0.996235, 311, 153, 326, 216
-0.996246, 473, 257, 488, 320
-0.996255, 347, 241, 362, 304
-0.996256, 17, 9, 144, 40
-0.996265, 305, 157, 432, 188
-0.996265, 109, 241, 124, 304
-0.996265, 183, 313, 198, 375
-0.996273, 241, 173, 368, 204
-0.996275, 97, 149, 224, 180
-0.996277, 69, 233, 84, 296
-0.996279, 305, 261, 432, 292
-0.99629, 169, 201, 184, 264
-0.996305, 459, 257, 474, 320
-0.996325, 179, 97, 194, 160
-0.996331, 139, 97, 154, 160
-0.996338, 355, 241, 370, 304
-0.996338, 225, 273, 352, 304
-0.996339, 309, 65, 340, 320
-0.996359, 247, 241, 262, 304
-0.996364, 69, 1, 100, 256
-0.996379, 157, 217, 172, 280
-0.99638, 335, 145, 350, 208
-0.99638, 453, 249, 468, 312
-0.996384, 65, 29, 192, 60
-0.996385, 51, 105, 66, 168
-0.996398, 347, 153, 362, 216
-0.996405, 137, 65, 168, 320
-0.996408, 263, 297, 278, 360
-0.996417, 423, 241, 438, 304
-0.996418, 293, 241, 308, 304
-0.996418, 1, 249, 128, 280
-0.996427, 401, 105, 416, 168
-0.996432, 185, 121, 200, 184
-0.996434, 65, 285, 192, 316
-0.996435, 371, 97, 386, 160
-0.996436, 293, 177, 308, 240
-0.996451, 173, 65, 204, 320
-0.996457, 239, 313, 254, 375
-0.996462, 161, 65, 192, 320
-0.996468, 467, 257, 482, 320
-0.996477, 353, 153, 368, 216
-0.996485, 115, 233, 130, 296
-0.996486, 443, 249, 458, 312
-0.996493, 139, 241, 154, 304
-0.996495, 1, 141, 128, 172
-0.996511, 113, 57, 240, 120
-0.99652, 365, 65, 396, 320
-0.996531, 1, 41, 256, 104
-0.996544, 113, 273, 240, 304
-0.996551, 109, 65, 140, 320
-0.996582, 81, 65, 112, 320
-0.996624, 125, 65, 156, 320
-0.996665, 341, 65, 372, 320
-0.996702, 369, 121, 496, 152
-0.996703, 381, 65, 412, 320
-0.996713, 369, 277, 496, 308
-0.996755, 193, 121, 320, 152
-0.996766, 301, 105, 316, 136
-0.996786, 353, 97, 480, 128
-0.996795, 273, 41, 400, 104
-0.996797, 161, 285, 288, 316
-0.996806, 369, 337, 496, 368
-0.99681, 315, 105, 330, 136
-0.996849, 65, 13, 192, 44
-0.996882, 41, 1, 72, 256
-0.996908, 309, 105, 324, 136
-0.996919, 65, 221, 192, 252
-0.99697, 97, 65, 128, 320
-0.996971, 145, 113, 272, 144
-0.997001, 301, 117, 316, 148
-0.997011, 257, 93, 384, 124
-0.997014, 33, 117, 160, 148
-0.997019, 225, 329, 352, 360
-0.997023, 369, 241, 496, 272
-0.997033, 49, 17, 64, 48
-0.997042, 295, 105, 310, 136
-0.997077, 61, 17, 76, 48
-0.997094, 185, 97, 216, 352
-0.997109, 281, 97, 312, 352
-0.997119, 321, 105, 336, 136
-0.997122, 55, 41, 70, 72
-0.997127, 1, 81, 500, 144
-0.997136, 393, 97, 424, 352
-0.997136, 17, 65, 144, 96
-0.997137, 431, 121, 446, 152
-0.997137, 297, 65, 328, 320
-0.997145, 425, 129, 440, 160
-0.99717, 17, 325, 144, 356
-0.997174, 321, 65, 352, 320
-0.997178, 327, 105, 342, 136
-0.997186, 289, 105, 304, 136
-0.997196, 441, 109, 456, 140
-0.997207, 321, 205, 448, 236
-0.99722, 177, 153, 304, 184
-0.997227, 49, 45, 64, 76
-0.997244, 97, 109, 224, 140
-0.997264, 65, 85, 192, 116
-0.997271, 265, 189, 280, 220
-0.997283, 59, 29, 74, 60
-0.997297, 255, 185, 270, 216
-0.997319, 145, 201, 272, 232
-0.997332, 289, 237, 416, 268
-0.997355, 335, 109, 350, 140
-0.997364, 249, 185, 264, 216
-0.997385, 435, 109, 450, 140
-0.997392, 145, 329, 272, 360
-0.997396, 17, 129, 144, 160
-0.997453, 453, 109, 468, 140
-0.997457, 255, 197, 270, 228
-0.997457, 285, 249, 300, 280
-0.997471, 289, 333, 416, 364
-0.997474, 1, 105, 128, 136
-0.997474, 247, 309, 262, 340
-0.997479, 49, 33, 64, 64
-0.997482, 275, 177, 290, 208
-0.997486, 71, 17, 86, 48
-0.997507, 409, 65, 440, 320
-0.997508, 193, 1, 256, 128
-0.997522, 267, 177, 282, 208
-0.997538, 241, 197, 368, 228
-0.997539, 379, 293, 394, 324
-0.997548, 281, 101, 296, 132
-0.997559, 447, 109, 462, 140
-0.997559, 459, 129, 474, 160
-0.997564, 429, 109, 444, 140
-0.997564, 453, 65, 484, 320
-0.997573, 269, 97, 300, 352
-0.997586, 53, 65, 84, 320
-0.997597, 291, 117, 306, 148
-0.997606, 193, 201, 320, 232
-0.997609, 77, 17, 92, 48
-0.997612, 437, 141, 452, 172
-0.997624, 81, 209, 208, 240
-0.997625, 55, 17, 70, 48
-0.997629, 225, 17, 480, 80
-0.997639, 385, 293, 400, 324
-0.99764, 311, 121, 326, 152
-0.997643, 305, 249, 320, 280
-0.997644, 301, 193, 316, 224
-0.99766, 403, 305, 418, 336
-0.997664, 369, 293, 384, 324
-0.997671, 419, 129, 434, 160
-0.997687, 65, 53, 192, 84
-0.99769, 411, 305, 426, 336
-0.997694, 321, 185, 336, 216
-0.997695, 77, 37, 92, 68
-0.9977, 341, 121, 356, 152
-0.997719, 459, 109, 474, 140
-0.997722, 321, 193, 448, 224
-0.997731, 305, 181, 320, 212
-0.997732, 393, 293, 408, 324
-0.997735, 443, 141, 458, 172
-0.997738, 61, 45, 76, 76
-0.997738, 397, 305, 412, 336
-0.997738, 413, 253, 428, 284
-0.997741, 295, 249, 310, 280
-0.997743, 129, 181, 256, 212
-0.997751, 35, 309, 50, 340
-0.997756, 405, 253, 420, 284
-0.997757, 285, 1, 316, 256
-0.997764, 391, 305, 406, 336
-0.997773, 275, 249, 290, 280
-0.997776, 399, 293, 414, 324
-0.997779, 107, 241, 122, 272
-0.997782, 363, 293, 378, 324
-0.997788, 409, 293, 424, 324
-0.997796, 385, 305, 400, 336
-0.9978, 423, 109, 438, 140
-0.997801, 1, 153, 500, 216
-0.997807, 385, 249, 400, 280
-0.997808, 377, 305, 392, 336
-0.997812, 241, 189, 256, 220
-0.997818, 395, 249, 410, 280
-0.997821, 145, 125, 272, 156
-0.997823, 437, 121, 452, 152
-0.997824, 311, 249, 326, 280
-0.997825, 347, 105, 362, 136
-0.997826, 241, 309, 256, 340
-0.997829, 67, 45, 82, 76
-0.997837, 467, 137, 482, 168
-0.997839, 227, 245, 242, 276
-0.99784, 145, 89, 272, 120
-0.997845, 129, 25, 384, 88
-0.997846, 81, 41, 208, 72
-0.997849, 469, 65, 500, 320
-0.997855, 115, 241, 130, 272
-0.99786, 433, 293, 448, 324
-0.997863, 253, 309, 268, 340
-0.997863, 261, 177, 276, 208
-0.997865, 321, 117, 336, 148
-0.997868, 49, 145, 176, 176
-0.99787, 451, 145, 466, 176
-0.997873, 47, 57, 62, 88
-0.99788, 417, 293, 432, 324
-0.997886, 77, 57, 92, 88
-0.997888, 417, 305, 432, 336
-0.997888, 465, 113, 480, 144
-0.997895, 207, 245, 222, 276
-0.997903, 123, 241, 138, 272
-0.997906, 93, 97, 108, 128
-0.997909, 357, 293, 372, 324
-0.997913, 431, 133, 446, 164
-0.997914, 283, 113, 298, 144
-0.997914, 311, 181, 326, 212
-0.997917, 439, 293, 454, 324
-0.997925, 341, 109, 356, 140
-0.997925, 371, 305, 386, 336
-0.997928, 281, 185, 296, 216
-0.997933, 379, 249, 394, 280
-0.997933, 235, 245, 250, 276
-0.997937, 293, 181, 308, 212
-0.997939, 213, 245, 228, 276
-0.997941, 97, 241, 112, 272
-0.997942, 25, 33, 56, 288
-0.997943, 269, 245, 284, 276
-0.997945, 221, 245, 236, 276
-0.99795, 39, 269, 54, 300
-0.997952, 225, 341, 352, 372
-0.997954, 419, 253, 434, 284
-0.997954, 453, 121, 468, 152
-0.997955, 163, 205, 178, 236
-0.997961, 101, 313, 116, 344
-0.997961, 423, 293, 438, 324
-0.997966, 319, 249, 334, 280
-0.997967, 367, 105, 382, 136
-0.997969, 249, 197, 264, 228
-0.997976, 45, 309, 60, 340
-0.997979, 439, 305, 454, 336
-0.997987, 377, 145, 392, 176
-0.997995, 301, 133, 316, 164
-0.997995, 413, 201, 428, 232
-0.997996, 295, 193, 310, 224
-0.998005, 95, 313, 110, 344
-0.998006, 85, 93, 100, 124
-0.998007, 185, 245, 200, 276
-0.998008, 299, 181, 314, 212
-0.998012, 65, 29, 80, 60
-0.998013, 161, 233, 288, 264
-0.998014, 275, 261, 290, 292
-0.998016, 433, 65, 464, 320
-0.998017, 307, 133, 322, 164
-0.998026, 351, 293, 366, 324
-0.998037, 1, 177, 500, 240
-0.998039, 253, 65, 284, 320
-0.998047, 81, 325, 208, 356
-0.998048, 369, 193, 496, 224
-0.998058, 393, 1, 424, 256
-0.998068, 33, 169, 160, 232
-0.998074, 193, 177, 320, 208
-0.9981, 69, 97, 100, 352
-0.998174, 113, 29, 240, 60
-0.998178, 337, 229, 464, 260
-0.998195, 1, 225, 128, 256
-0.998204, 421, 65, 452, 320
-0.998223, 177, 341, 304, 372
-0.99823, 229, 65, 260, 320
-0.998232, 257, 157, 384, 188
-0.998269, 1, 169, 256, 232
-0.998316, 81, 197, 208, 228
-0.99835, 9, 33, 40, 288
-0.998383, 197, 65, 228, 320
-0.998389, 241, 233, 368, 264
-0.99839, 113, 229, 240, 260
-0.998397, 369, 53, 496, 84
-0.9984, 33, 21, 96, 36
-0.998409, 77, 1, 92, 128
-0.998414, 65, 73, 192, 104
-0.998417, 33, 49, 96, 64
-0.998428, 65, 1, 192, 32
-0.998432, 257, 313, 320, 328
-0.998434, 409, 137, 472, 152
-0.998434, 61, 143, 92, 158
-0.998435, 77, 49, 92, 176
-0.998435, 73, 319, 104, 334
-0.998436, 41, 59, 104, 74
-0.998439, 25, 141, 56, 156
-0.998439, 49, 311, 80, 326
-0.99844, 401, 149, 432, 164
-0.99844, 289, 319, 320, 334
-0.99844, 21, 133, 52, 148
-0.998441, 49, 1, 64, 128
-0.998441, 153, 137, 184, 152
-0.998441, 377, 305, 408, 320
-0.998441, 13, 141, 44, 156
-0.998442, 117, 145, 148, 160
-0.998442, 173, 129, 204, 144
-0.998443, 349, 307, 380, 322
-0.998443, 257, 191, 320, 206
-0.998443, 273, 265, 304, 280
-0.998445, 85, 315, 116, 330
-0.998445, 165, 139, 196, 154
-0.998445, 429, 151, 460, 166
-0.998445, 313, 301, 344, 316
-0.998445, 437, 135, 468, 150
-0.998446, 241, 199, 304, 214
-0.998447, 105, 101, 136, 116
-0.998449, 445, 151, 476, 166
-0.998449, 117, 101, 148, 116
-0.998449, 65, 59, 96, 74
-0.998449, 317, 181, 348, 196
-0.998449, 141, 101, 172, 116
-0.99845, 421, 111, 452, 126
-0.99845, 277, 119, 308, 134
-0.99845, 181, 141, 212, 156
-0.998451, 329, 113, 360, 128
-0.998452, 165, 317, 196, 332
-0.998453, 273, 175, 304, 190
-0.998453, 73, 313, 104, 328
-0.998453, 301, 179, 332, 194
-0.998453, 285, 193, 316, 208
-0.998453, 297, 311, 360, 326
-0.998456, 29, 317, 60, 332
-0.998456, 337, 307, 368, 322
-0.998457, 321, 149, 352, 164
-0.998457, 213, 319, 244, 334
-0.998457, 425, 305, 456, 320
-0.998457, 381, 135, 412, 150
-0.998457, 237, 317, 268, 332
-0.998457, 45, 59, 76, 74
-0.998457, 401, 151, 464, 166
-0.998457, 441, 125, 472, 140
-0.998457, 193, 321, 224, 336
-0.998458, 293, 201, 324, 216
-0.998458, 417, 149, 448, 164
-0.998459, 329, 125, 360, 140
-0.998459, 361, 155, 424, 170
-0.99846, 113, 315, 144, 330
-0.99846, 49, 99, 80, 114
-0.99846, 205, 195, 236, 210
-0.998461, 325, 119, 356, 134
-0.998461, 313, 113, 344, 128
-0.998461, 57, 319, 120, 334
-0.998461, 89, 99, 120, 114
-0.998461, 257, 181, 320, 196
-0.998462, 425, 125, 456, 140
-0.998462, 361, 155, 392, 170
-0.998462, 33, 317, 96, 332
-0.998463, 309, 309, 340, 324
-0.998468, 293, 105, 324, 120
-0.998468, 65, 49, 96, 64
-0.998468, 253, 179, 284, 194
-0.998469, 37, 97, 68, 112
-0.998469, 165, 119, 196, 134
-0.99847, 289, 309, 320, 324
-0.99847, 449, 159, 480, 174
-0.99847, 357, 107, 388, 122
-0.99847, 225, 29, 352, 60
-0.998471, 269, 105, 300, 120
-0.998471, 129, 101, 160, 116
-0.998471, 153, 317, 184, 332
-0.998471, 1, 309, 32, 324
-0.998471, 381, 145, 412, 160
-0.998473, 409, 157, 440, 172
-0.998474, 217, 317, 280, 332
-0.998474, 393, 157, 456, 172
-0.998475, 161, 147, 192, 162
-0.998475, 457, 115, 488, 130
-0.998476, 457, 137, 488, 152
-0.998476, 305, 189, 336, 204
-0.998476, 305, 315, 336, 330
-0.998476, 161, 145, 224, 160
-0.998477, 381, 127, 412, 142
-0.998477, 409, 307, 472, 322
-0.998478, 269, 313, 300, 328
-0.998479, 425, 143, 456, 158
-0.99848, 389, 305, 420, 320
-0.99848, 297, 107, 360, 122
-0.998481, 41, 27, 72, 42
-0.998481, 453, 143, 484, 158
-0.998481, 413, 305, 444, 320
-0.998482, 65, 99, 96, 114
-0.998482, 1, 97, 32, 112
-0.998483, 25, 311, 56, 326
-0.998483, 421, 135, 452, 150
-0.998483, 341, 107, 372, 122
-0.998484, 393, 111, 456, 126
-0.998485, 253, 315, 284, 330
-0.998485, 189, 147, 220, 162
-0.998486, 397, 155, 428, 170
-0.998486, 437, 141, 468, 156
-0.998487, 209, 193, 272, 208
-0.998488, 433, 309, 496, 324
-0.998488, 469, 309, 500, 324
-0.998489, 289, 261, 320, 276
-0.99849, 57, 99, 120, 114
-0.99849, 177, 135, 208, 150
-0.998491, 29, 129, 60, 375
-0.998492, 233, 191, 296, 206
-0.998492, 169, 209, 200, 224
-0.998492, 45, 33, 76, 48
-0.998493, 61, 317, 92, 332
-0.998495, 297, 129, 360, 144
-0.998497, 273, 105, 336, 120
-0.998497, 153, 209, 216, 224
-0.998497, 297, 123, 328, 138
-0.998497, 313, 121, 344, 136
-0.998498, 153, 137, 216, 152
-0.998499, 381, 111, 412, 126
-0.9985, 369, 135, 432, 150
-0.998503, 385, 305, 448, 320
-0.998503, 293, 115, 324, 130
-0.998503, 65, 21, 96, 36
-0.998504, 17, 97, 80, 112
-0.998505, 457, 309, 488, 324
-0.998506, 277, 199, 308, 214
-0.998506, 373, 151, 404, 166
-0.998506, 185, 199, 216, 214
-0.998506, 401, 305, 432, 320
-0.998508, 9, 139, 72, 154
-0.998508, 177, 319, 208, 334
-0.99851, 305, 93, 432, 124
-0.998511, 337, 137, 400, 152
-0.998512, 13, 97, 44, 112
-0.998512, 33, 43, 96, 58
-0.998512, 17, 311, 80, 326
-0.998512, 437, 307, 468, 322
-0.998513, 433, 113, 464, 128
-0.998515, 9, 317, 72, 332
-0.998515, 77, 99, 108, 114
-0.998515, 113, 101, 176, 116
-0.998516, 369, 129, 432, 144
-0.998518, 337, 107, 400, 122
-0.998518, 425, 159, 488, 174
-0.998518, 185, 319, 248, 334
-0.998519, 57, 141, 120, 156
-0.998521, 169, 203, 200, 218
-0.998522, 305, 303, 368, 318
-0.998522, 233, 183, 296, 198
-0.998522, 393, 129, 456, 144
-0.998523, 313, 107, 344, 122
-0.998525, 233, 191, 264, 206
-0.998525, 445, 113, 476, 128
-0.998526, 129, 317, 192, 332
-0.998527, 121, 143, 184, 158
-0.99853, 273, 197, 336, 212
-0.998532, 41, 317, 72, 332
-0.998532, 325, 107, 356, 122
-0.998532, 45, 49, 76, 64
-0.998535, 281, 119, 344, 134
-0.998536, 25, 97, 56, 112
-0.998536, 45, 21, 76, 36
-0.998537, 57, 29, 88, 44
-0.998538, 393, 143, 456, 158
-0.998538, 369, 149, 432, 164
-0.998539, 433, 113, 496, 128
-0.998539, 57, 313, 120, 328
-0.99854, 329, 309, 392, 324
-0.99854, 89, 315, 152, 330
-0.99854, 337, 129, 400, 144
-0.99854, 153, 317, 216, 332
-0.998542, 329, 303, 392, 318
-0.998544, 361, 305, 424, 320
-0.998544, 261, 191, 292, 206
-0.998546, 137, 121, 200, 136
-0.998547, 281, 105, 312, 120
-0.998547, 273, 305, 336, 320
-0.998548, 9, 131, 72, 146
-0.998549, 33, 37, 96, 52
-0.99855, 129, 137, 192, 152
-0.998551, 201, 199, 264, 214
-0.998552, 89, 101, 152, 116
-0.998552, 153, 131, 216, 146
-0.998553, 89, 321, 152, 336
-0.998553, 41, 261, 104, 276
-0.998555, 89, 137, 152, 152
-0.998556, 437, 119, 468, 134
-0.998557, 33, 27, 96, 42
-0.998558, 265, 181, 296, 196
-0.998558, 425, 151, 488, 166
-0.998559, 385, 155, 416, 170
-0.998561, 89, 143, 152, 158
-0.998562, 41, 89, 104, 104
-0.998562, 25, 115, 88, 130
-0.998562, 33, 133, 96, 148
-0.998563, 89, 263, 152, 278
-0.998565, 1, 113, 64, 128
-0.998566, 417, 131, 480, 146
-0.998566, 1, 107, 64, 122
-0.998567, 409, 123, 472, 138
-0.998568, 369, 141, 432, 156
-0.998569, 337, 155, 400, 170
-0.99857, 137, 265, 200, 280
-0.998571, 305, 181, 368, 196
-0.998571, 177, 197, 240, 212
-0.998573, 161, 151, 224, 166
-0.998574, 57, 41, 120, 56
-0.998574, 273, 263, 336, 278
-0.998575, 369, 111, 432, 126
-0.998576, 33, 141, 96, 156
-0.998577, 265, 175, 328, 190
-0.998579, 329, 143, 392, 158
-0.99858, 273, 113, 336, 128
-0.998581, 17, 261, 80, 276
-0.998581, 249, 105, 312, 120
-0.998582, 9, 289, 72, 304
-0.998583, 137, 323, 200, 338
-0.998583, 433, 141, 496, 156
-0.998583, 177, 267, 240, 282
-0.998584, 145, 295, 208, 310
-0.998584, 65, 263, 128, 278
-0.998584, 193, 297, 256, 312
-0.998584, 97, 293, 160, 308
-0.998584, 233, 299, 296, 314
-0.998584, 113, 265, 176, 280
-0.998584, 249, 269, 312, 284
-0.998585, 57, 133, 120, 148
-0.998586, 433, 301, 496, 316
-0.998586, 337, 121, 400, 136
-0.998586, 297, 273, 360, 288
-0.998587, 313, 149, 376, 164
-0.998588, 311, 97, 326, 224
-0.998588, 137, 103, 200, 118
-0.998588, 305, 157, 368, 172
-0.99859, 9, 125, 72, 140
-0.998592, 57, 291, 120, 306
-0.998592, 225, 261, 288, 276
-0.998593, 297, 135, 360, 150
-0.998594, 273, 147, 336, 162
-0.998595, 361, 311, 424, 326
-0.998595, 217, 269, 280, 284
-0.998595, 137, 113, 200, 128
-0.998596, 245, 185, 276, 200
-0.998597, 273, 293, 336, 308
-0.998597, 113, 129, 176, 144
-0.998598, 321, 49, 448, 80
-0.998599, 297, 195, 328, 210
-0.9986, 1, 91, 64, 106
-0.9986, 345, 297, 408, 312
-0.9986, 201, 153, 264, 168
-0.9986, 305, 121, 368, 136
-0.9986, 297, 265, 360, 280
-0.998602, 425, 277, 488, 292
-0.998602, 297, 295, 360, 310
-0.998605, 253, 197, 284, 212
-0.998607, 353, 161, 480, 192
-0.998622, 337, 13, 464, 44
-0.998637, 321, 97, 336, 224
-0.998648, 55, 1, 70, 128
-0.998649, 67, 49, 82, 176
-0.998662, 97, 337, 224, 368
-0.998666, 41, 97, 72, 352
-0.998676, 61, 49, 76, 176
-0.99868, 47, 49, 62, 176
-0.998683, 83, 49, 98, 176
-0.998685, 145, 169, 272, 200
-0.998689, 349, 97, 364, 224
-0.998702, 71, 1, 86, 128
-0.998706, 343, 97, 358, 224
-0.998719, 337, 97, 352, 224
-0.998736, 257, 57, 500, 120
-0.998738, 251, 177, 266, 304
-0.998741, 185, 1, 216, 256
-0.998746, 61, 1, 76, 128
-0.998746, 327, 97, 342, 224
-0.998754, 169, 81, 184, 208
-0.998759, 55, 49, 70, 176
-0.998773, 87, 1, 102, 128
-0.998819, 365, 97, 380, 224
-0.998853, 467, 81, 482, 208
-0.998866, 301, 97, 316, 224
-0.99887, 155, 81, 170, 208
-0.998875, 97, 1, 352, 64
-0.998884, 161, 81, 176, 208
-0.998898, 355, 97, 370, 224
-0.998921, 407, 97, 422, 224
-0.99893, 315, 145, 330, 272
-0.998935, 141, 81, 156, 208
-0.998936, 43, 1, 58, 128
-0.998941, 133, 81, 148, 208
-0.998941, 265, 1, 296, 256
-0.998941, 93, 81, 108, 208
-0.998942, 175, 81, 190, 208
-0.998947, 167, 225, 182, 352
-0.998948, 177, 225, 192, 352
-0.99895, 431, 97, 446, 224
-0.998963, 147, 81, 162, 208
-0.998966, 377, 97, 392, 224
-0.998985, 99, 81, 114, 208
-0.998986, 419, 97, 434, 224
-0.998989, 457, 97, 472, 224
-0.998994, 425, 97, 440, 224
-0.998999, 183, 193, 198, 320
-0.999, 293, 97, 308, 224
-0.999, 111, 81, 126, 208
-0.999001, 285, 225, 300, 352
-0.999001, 445, 81, 460, 208
-0.999012, 303, 145, 318, 272
-0.999013, 123, 81, 138, 208
-0.999025, 399, 97, 414, 224
-0.999029, 437, 97, 452, 224
-0.999032, 327, 145, 342, 272
-0.999034, 117, 81, 132, 208
-0.999036, 213, 97, 244, 352
-0.999038, 245, 161, 260, 288
-0.999048, 105, 81, 120, 208
-0.999048, 179, 145, 194, 272
-0.999058, 9, 129, 40, 375
-0.999066, 473, 97, 488, 224
-0.999071, 47, 241, 62, 368
-0.999072, 293, 177, 308, 304
-0.999076, 267, 177, 282, 304
-0.99908, 393, 97, 408, 224
-0.999081, 393, 49, 408, 176
-0.999085, 413, 97, 428, 224
-0.999089, 481, 97, 496, 224
-0.9991, 153, 225, 168, 352
-0.999113, 277, 161, 292, 288
-0.999115, 347, 145, 362, 272
-0.999117, 451, 97, 466, 224
-0.999131, 321, 145, 336, 272
-0.999133, 187, 81, 202, 208
-0.999134, 181, 97, 196, 224
-0.999134, 39, 241, 54, 368
-0.999136, 41, 49, 56, 176
-0.999142, 371, 97, 386, 224
-0.99915, 53, 241, 68, 368
-0.999157, 399, 49, 414, 176
-0.999158, 337, 145, 352, 272
-0.999159, 245, 225, 260, 352
-0.999164, 235, 225, 250, 352
-0.999165, 287, 177, 302, 304
-0.999169, 461, 49, 476, 176
-0.999172, 405, 49, 420, 176
-0.999173, 413, 49, 428, 176
-0.999182, 167, 145, 182, 272
-0.999185, 387, 97, 402, 224
-0.999186, 215, 145, 230, 272
-0.999191, 437, 49, 452, 176
-0.999191, 275, 97, 290, 224
-0.999195, 147, 225, 162, 352
-0.999205, 253, 225, 268, 352
-0.999207, 205, 145, 220, 272
-0.999207, 159, 193, 174, 320
-0.99921, 229, 225, 244, 352
-0.99921, 369, 145, 384, 272
-0.999211, 473, 49, 488, 176
-0.999215, 261, 225, 276, 352
-0.999216, 353, 145, 368, 272
-0.999217, 359, 145, 374, 272
-0.999217, 33, 241, 48, 368
-0.999222, 275, 225, 290, 352
-0.999224, 257, 145, 272, 272
-0.999226, 315, 209, 330, 336
-0.999228, 427, 49, 442, 176
-0.999233, 189, 225, 204, 352
-0.999236, 387, 49, 402, 176
-0.999239, 223, 225, 238, 352
-0.999244, 161, 241, 176, 368
-0.999245, 453, 49, 468, 176
-0.999246, 215, 225, 230, 352
-0.999247, 281, 97, 296, 224
-0.999248, 163, 33, 178, 160
-0.999249, 309, 145, 324, 272
-0.99925, 195, 225, 210, 352
-0.999254, 287, 81, 302, 208
-0.999265, 269, 225, 284, 352
-0.999268, 173, 145, 188, 272
-0.999272, 191, 145, 206, 272
-0.999277, 419, 49, 434, 176
-0.999283, 59, 241, 74, 368
-0.999291, 479, 49, 494, 176
-0.999294, 299, 49, 314, 176
-0.999296, 203, 81, 218, 208
-0.999296, 139, 225, 154, 352
-0.999297, 209, 225, 224, 352
-0.9993, 69, 97, 84, 224
-0.999304, 185, 145, 200, 272
-0.999311, 157, 33, 172, 160
-0.999321, 59, 97, 74, 224
-0.999323, 425, 145, 440, 272
-0.999323, 309, 193, 324, 320
-0.999329, 225, 49, 352, 112
-0.999329, 241, 1, 272, 256
-0.999411, 241, 97, 272, 352
-0.999549, 1, 17, 500, 80
-0.999597, 213, 1, 244, 256
-0.999629, 55, 317, 70, 332
-0.99963, 5, 97, 20, 112
-0.999631, 67, 51, 82, 66
-0.999631, 71, 29, 86, 44
-0.999631, 97, 99, 112, 114
-0.999631, 179, 121, 194, 136
-0.999631, 413, 155, 428, 170
-0.999632, 425, 145, 440, 160
-0.999633, 381, 111, 396, 126
-0.999633, 411, 207, 426, 222
-0.999634, 77, 59, 92, 74
-0.999634, 63, 21, 78, 36
-0.999634, 309, 315, 324, 330
-0.999634, 261, 313, 276, 328
-0.999635, 317, 125, 332, 140
-0.999635, 397, 305, 412, 320
-0.999635, 183, 139, 198, 154
-0.999635, 453, 113, 468, 128
-0.999635, 457, 157, 472, 172
-0.999636, 181, 317, 196, 332
-0.999636, 451, 159, 466, 174
-0.999636, 63, 99, 78, 114
-0.999637, 435, 113, 450, 128
-0.999637, 445, 307, 460, 322
-0.999637, 429, 123, 444, 138
-0.999639, 273, 199, 288, 214
-0.99964, 87, 313, 102, 328
-0.99964, 49, 37, 64, 52
-0.99964, 461, 307, 476, 322
-0.999641, 449, 135, 464, 150
-0.999641, 451, 119, 466, 134
-0.999641, 59, 49, 74, 64
-0.999642, 459, 129, 474, 144
-0.999643, 115, 315, 130, 330
-0.999643, 323, 119, 338, 134
-0.999644, 41, 97, 56, 112
-0.999644, 191, 135, 206, 150
-0.999644, 405, 305, 420, 320
-0.999645, 249, 205, 264, 220
-0.999645, 295, 119, 310, 134
-0.999645, 169, 317, 184, 332
-0.999646, 299, 127, 314, 142
-0.999646, 69, 99, 84, 114
-0.999646, 23, 313, 38, 328
-0.999646, 175, 317, 190, 332
-0.999646, 255, 193, 270, 208
-0.999647, 449, 151, 464, 166
-0.999647, 285, 103, 300, 118
-0.999647, 377, 139, 392, 154
-0.999647, 91, 99, 106, 114
-0.999647, 417, 139, 432, 154
-0.999648, 143, 101, 158, 116
-0.999648, 175, 143, 190, 158
-0.999648, 313, 309, 328, 324
-0.999649, 381, 145, 396, 160
-0.99965, 393, 151, 408, 166
-0.999651, 13, 97, 28, 112
-0.999652, 337, 149, 352, 164
-0.999652, 189, 319, 204, 334
-0.999652, 419, 305, 434, 320
-0.999652, 397, 111, 412, 126
-0.999653, 271, 185, 286, 200
-0.999653, 471, 309, 486, 324
-0.999654, 419, 149, 434, 164
-0.999655, 411, 305, 426, 320
-0.999655, 441, 113, 456, 128
-0.999656, 77, 31, 92, 46
-0.999656, 479, 309, 494, 324
-0.999659, 49, 21, 64, 36
-0.99966, 459, 135, 474, 150
-0.999661, 65, 29, 80, 44
-0.999661, 297, 197, 312, 212
-0.999661, 485, 309, 500, 324
-0.999662, 169, 145, 184, 160
-0.999663, 55, 43, 70, 58
-0.999663, 79, 99, 94, 114
-0.999663, 435, 119, 450, 134
-0.999664, 347, 107, 362, 122
-0.999665, 49, 43, 64, 58
-0.999665, 297, 105, 312, 120
-0.999665, 301, 111, 316, 126
-0.999667, 387, 155, 402, 170
-0.999667, 267, 177, 282, 192
-0.999668, 461, 113, 476, 128
-0.999668, 179, 203, 194, 218
-0.999669, 341, 125, 356, 140
-0.999671, 329, 119, 344, 134
-0.999671, 19, 97, 34, 112
-0.999672, 377, 153, 392, 168
-0.999673, 315, 197, 330, 212
-0.999673, 85, 99, 100, 114
-0.999674, 35, 97, 50, 112
-0.999675, 309, 119, 324, 134
-0.999676, 455, 307, 470, 322
-0.999677, 465, 135, 480, 150
-0.999678, 311, 107, 326, 122
-0.999679, 251, 187, 266, 202
-0.99968, 343, 113, 358, 128
-0.999684, 249, 199, 264, 214
-0.999687, 287, 117, 302, 132
-0.99969, 59, 29, 74, 44
-0.99969, 25, 97, 40, 112
-0.999691, 455, 141, 470, 156
-0.999692, 161, 209, 176, 224
-0.999692, 281, 109, 296, 124
-0.999693, 447, 113, 462, 128
-0.999693, 427, 129, 442, 144
-0.999695, 317, 119, 332, 134
-0.999695, 291, 111, 306, 126
-0.9997, 77, 21, 92, 36
-0.999705, 465, 141, 480, 156
-0.999705, 309, 113, 324, 128
-0.999705, 337, 119, 352, 134
-0.999706, 327, 113, 342, 128
-0.999708, 275, 179, 290, 194
-0.999709, 49, 49, 64, 64
-0.999709, 321, 107, 336, 122
-0.99972, 337, 107, 352, 122
-0.999722, 291, 105, 306, 120
-0.999724, 1, 49, 500, 112
-0.999728, 421, 133, 436, 148
-0.999731, 303, 195, 318, 210
-0.999734, 261, 181, 276, 196
-0.999737, 335, 113, 350, 128
-0.999741, 301, 117, 316, 132
-0.999749, 265, 189, 280, 204
-0.99975, 255, 199, 270, 214
-0.999755, 423, 139, 438, 154
-0.999755, 319, 113, 334, 128
-0.999759, 329, 107, 344, 122
-0.999787, 261, 195, 276, 210
-1.00064, 161, 49, 416, 112
-1.00128, 161, 49, 288, 112
