1968
-0.385348, 1, 1, 375, 500
-0.394359, 1, 129, 375, 384
-0.440055, 65, 1, 320, 500
-0.497502, 1, 225, 375, 480
-0.531362, 65, 97, 320, 352
-0.544617, 1, 33, 375, 288
-0.701758, 1, 193, 256, 448
-0.767491, 33, 1, 288, 256
-0.798332, 129, 193, 375, 448
-0.82429, 129, 1, 375, 256
-0.857275, 145, 33, 272, 288
-0.860423, 97, 1, 224, 500
-0.860433, 65, 161, 192, 416
-0.868506, 145, 1, 272, 500
-0.881082, 17, 225, 144, 480
-0.885943, 129, 129, 256, 384
-0.887447, 193, 1, 320, 500
-0.890274, 65, 257, 192, 500
-0.891919, 1, 161, 375, 288
-0.892423, 225, 65, 352, 320
-0.89244, 193, 161, 320, 416
-0.895441, 65, 129, 320, 256
-0.90248, 33, 1, 160, 500
-0.904485, 1, 225, 375, 352
-0.905373, 1, 113, 375, 240
-0.908528, 17, 129, 144, 384
-0.909159, 81, 65, 208, 320
-0.911221, 241, 1, 368, 500
-0.911382, 1, 273, 375, 400
-0.914342, 241, 161, 368, 416
-0.920372, 33, 33, 160, 288
-0.926777, 65, 177, 320, 304
-0.928373, 113, 225, 240, 480
-0.934681, 177, 257, 304, 500
-0.934944, 129, 81, 375, 208
-0.936167, 145, 65, 272, 192
-0.937267, 33, 305, 288, 432
-0.938202, 81, 161, 144, 288
-0.940216, 113, 113, 240, 240
-0.940234, 65, 225, 320, 352
-0.940838, 65, 129, 192, 256
-0.941145, 65, 177, 192, 304
-0.944813, 105, 145, 168, 272
-0.945264, 1, 321, 375, 448
-0.945272, 1, 369, 375, 496
-0.945881, 17, 177, 144, 304
-0.946072, 33, 81, 288, 208
-0.946871, 65, 321, 192, 448
-0.94808, 1, 65, 375, 192
-0.951352, 185, 81, 248, 208
-0.95237, 81, 185, 144, 248
-0.952836, 209, 129, 272, 256
-0.953331, 145, 161, 272, 288
-0.953802, 129, 113, 192, 240
-0.953878, 161, 113, 288, 240
-0.954298, 81, 225, 144, 352
-0.954951, 153, 113, 216, 240
-0.955801, 73, 305, 136, 432
-0.956192, 97, 353, 160, 480
-0.956318, 57, 209, 120, 336
-0.956608, 65, 241, 192, 368
-0.957422, 209, 97, 336, 224
-0.958236, 81, 161, 144, 224
-0.958646, 33, 17, 288, 144
-0.960054, 17, 321, 144, 448
-0.960601, 17, 273, 144, 400
-0.960727, 209, 49, 272, 176
-0.96128, 161, 49, 224, 176
-0.961947, 225, 177, 288, 304
-0.963376, 17, 225, 144, 352
-0.963801, 33, 353, 288, 480
-0.965328, 233, 97, 296, 224
-0.965811, 137, 129, 200, 192
-0.966207, 129, 273, 375, 400
-0.966672, 81, 217, 144, 280
-0.966763, 113, 305, 240, 432
-0.966763, 241, 257, 368, 500
-0.966972, 49, 161, 112, 288
-0.966988, 129, 33, 375, 160
-0.967793, 193, 177, 320, 304
-0.967905, 73, 225, 136, 480
-0.968004, 49, 369, 176, 496
-0.968075, 249, 177, 312, 304
-0.968082, 73, 345, 136, 408
-0.968232, 113, 193, 176, 320
-0.968342, 201, 145, 264, 208
-0.968367, 121, 321, 184, 448
-0.969003, 113, 153, 176, 216
-0.9693, 41, 185, 104, 248
-0.969548, 1, 17, 375, 144
-0.969638, 73, 353, 136, 480
-0.96976, 33, 273, 96, 400
-0.969993, 89, 161, 120, 288
-0.970934, 161, 17, 288, 144
-0.970955, 105, 377, 168, 440
-0.971469, 241, 145, 368, 272
-0.971758, 101, 161, 132, 288
-0.971769, 81, 369, 144, 432
-0.971838, 193, 41, 256, 104
-0.971916, 233, 121, 296, 184
-0.971928, 97, 17, 224, 144
-0.971947, 129, 353, 256, 480
-0.971966, 57, 209, 120, 272
-0.972044, 97, 305, 160, 432
-0.972607, 65, 185, 192, 248
-0.972658, 97, 65, 224, 192
-0.97268, 209, 65, 272, 128
-0.972778, 185, 33, 248, 160
-0.972992, 185, 113, 248, 176
-0.973088, 81, 297, 144, 360
-0.97352, 225, 177, 288, 240
-0.973754, 105, 129, 168, 384
-0.973819, 113, 145, 144, 272
-0.973851, 185, 145, 248, 272
-0.974321, 85, 185, 116, 248
-0.974488, 81, 209, 112, 336
-0.9745, 233, 129, 264, 256
-0.974519, 145, 97, 272, 160
-0.974652, 257, 129, 320, 256
-0.974829, 257, 185, 320, 248
-0.97498, 105, 217, 168, 280
-0.975008, 129, 337, 375, 464
-0.975015, 57, 369, 120, 432
-0.975028, 105, 185, 168, 248
-0.975719, 89, 241, 152, 304
-0.975797, 17, 193, 144, 256
-0.975801, 225, 49, 352, 176
-0.975843, 101, 193, 132, 256
-0.976055, 169, 89, 232, 152
-0.976193, 41, 321, 104, 448
-0.976572, 121, 337, 184, 400
-0.976605, 133, 129, 164, 256
-0.976663, 225, 137, 256, 200
-0.976672, 49, 161, 112, 416
-0.976912, 113, 129, 240, 192
-0.977042, 177, 241, 304, 368
-0.977115, 145, 289, 208, 416
-0.977155, 81, 321, 144, 384
-0.97719, 209, 97, 272, 160
-0.97744, 217, 97, 280, 352
-0.977495, 161, 73, 288, 136
-0.97753, 49, 81, 176, 208
-0.977773, 161, 161, 224, 288
-0.977845, 17, 129, 144, 256
-0.977889, 129, 185, 192, 248
-0.978009, 201, 1, 264, 256
-0.978037, 81, 129, 144, 384
-0.978118, 41, 337, 104, 400
-0.978169, 49, 329, 176, 392
-0.978242, 137, 65, 200, 192
-0.978415, 85, 217, 116, 280
-0.978532, 161, 129, 224, 192
-0.978653, 225, 201, 288, 264
-0.978898, 241, 193, 368, 320
-0.978975, 161, 97, 224, 352
-0.979082, 137, 105, 200, 168
-0.979082, 249, 153, 312, 216
-0.979182, 65, 161, 192, 224
-0.979233, 109, 161, 140, 224
-0.979273, 225, 1, 352, 128
-0.979296, 57, 257, 120, 384
-0.979321, 249, 97, 312, 160
-0.97937, 209, 233, 272, 296
-0.979549, 97, 345, 160, 408
-0.979699, 185, 49, 216, 176
-0.979702, 129, 257, 256, 384
-0.979783, 49, 369, 176, 432
-0.9798, 57, 233, 120, 296
-0.979858, 201, 225, 264, 352
-0.979933, 145, 129, 176, 256
-0.97997, 57, 265, 120, 328
-0.980164, 137, 313, 200, 376
-0.980289, 113, 209, 240, 336
-0.980351, 221, 145, 252, 272
-0.980404, 177, 289, 304, 416
-0.980449, 137, 361, 200, 424
-0.980712, 305, 161, 368, 288
-0.980714, 209, 121, 272, 184
-0.980847, 153, 353, 216, 480
-0.980969, 129, 337, 160, 464
-0.980996, 57, 161, 120, 224
-0.981048, 241, 65, 304, 320
-0.981056, 237, 121, 268, 184
-0.981102, 17, 169, 144, 232
-0.981301, 97, 345, 224, 408
-0.98133, 129, 97, 192, 352
-0.981386, 185, 305, 248, 432
-0.981458, 77, 305, 108, 432
-0.981469, 93, 225, 124, 352
-0.98147, 145, 169, 272, 232
-0.981566, 17, 217, 144, 280
-0.981599, 177, 65, 240, 128
-0.981703, 177, 1, 240, 256
-0.981728, 97, 369, 224, 432
-0.981881, 229, 65, 260, 192
-0.981961, 225, 145, 352, 208
-0.98202, 129, 209, 192, 272
-0.982094, 249, 209, 312, 272
-0.982152, 173, 65, 204, 192
-0.982159, 33, 361, 96, 424
-0.982159, 65, 217, 192, 280
-0.982184, 177, 361, 240, 424
-0.982247, 97, 81, 160, 208
-0.9823, 205, 97, 236, 224
-0.982332, 97, 169, 128, 232
-0.982365, 1, 369, 128, 496
-0.982399, 233, 49, 296, 176
-0.982409, 161, 121, 288, 184
-0.982451, 169, 105, 200, 168
-0.982611, 85, 161, 116, 224
-0.982648, 313, 113, 375, 240
-0.982824, 97, 225, 160, 480
-0.982826, 209, 1, 272, 128
-0.982829, 81, 249, 208, 312
-0.982888, 281, 161, 344, 288
-0.983021, 117, 369, 148, 432
-0.983066, 225, 121, 352, 184
-0.98323, 245, 177, 276, 304
-0.983334, 73, 113, 136, 240
-0.983345, 245, 113, 276, 240
-0.983371, 121, 369, 184, 496
-0.98346, 89, 265, 152, 328
-0.983497, 137, 177, 200, 304
-0.983744, 69, 193, 100, 320
-0.983758, 125, 145, 156, 208
-0.983777, 117, 193, 148, 256
-0.983796, 85, 369, 116, 432
-0.983804, 201, 257, 264, 320
-0.983896, 153, 1, 216, 256
-0.983914, 233, 161, 264, 224
-0.984069, 117, 329, 148, 392
-0.984112, 169, 41, 232, 104
-0.984371, 97, 217, 128, 280
-0.984569, 173, 129, 204, 192
-0.98458, 169, 273, 232, 336
-0.984618, 177, 81, 208, 144
-0.984715, 153, 1, 216, 128
-0.984732, 145, 129, 176, 192
-0.984808, 217, 65, 248, 192
-0.984811, 157, 113, 188, 240
-0.984817, 113, 193, 144, 320
-0.984818, 73, 393, 136, 456
-0.984841, 241, 169, 368, 232
-0.984904, 253, 185, 284, 248
-0.98501, 129, 321, 160, 384
-0.985025, 145, 49, 272, 112
-0.985081, 281, 113, 344, 240
-0.985089, 145, 1, 208, 500
-0.98513, 49, 369, 112, 496
-0.985151, 265, 185, 296, 248
-0.985269, 93, 353, 124, 480
-0.985381, 41, 257, 104, 500
-0.98539, 217, 41, 280, 104
-0.985395, 129, 289, 192, 352
-0.985398, 49, 113, 112, 240
-0.985411, 209, 1, 272, 500
-0.985493, 193, 169, 320, 232
-0.985496, 81, 89, 208, 152
-0.985552, 225, 89, 352, 152
-0.985554, 65, 297, 192, 360
-0.985559, 113, 129, 176, 192
-0.985562, 201, 169, 264, 232
-0.985577, 1, 329, 128, 392
-0.985648, 241, 73, 304, 136
-0.985745, 213, 209, 244, 336
-0.985747, 117, 321, 148, 448
-0.98582, 1, 249, 128, 312
-0.985872, 161, 153, 224, 216
-0.986051, 225, 145, 288, 208
-0.986075, 73, 193, 104, 256
-0.986098, 161, 145, 288, 208
-0.986167, 209, 209, 336, 272
-0.986326, 213, 145, 244, 208
-0.986413, 65, 273, 192, 336
-0.986477, 113, 209, 240, 272
-0.986489, 1, 361, 128, 424
-0.986493, 77, 337, 108, 400
-0.986552, 257, 177, 288, 304
-0.986562, 177, 353, 240, 480
-0.986733, 121, 1, 184, 500
-0.986739, 97, 321, 224, 384
-0.986765, 33, 161, 96, 224
-0.986784, 17, 305, 144, 368
-0.986784, 273, 209, 336, 336
-0.986814, 1, 273, 128, 336
-0.986843, 289, 177, 352, 240
-0.987043, 145, 49, 208, 112
-0.987058, 129, 201, 160, 264
-0.987094, 137, 177, 168, 240
-0.987221, 33, 113, 160, 176
-0.987225, 241, 161, 304, 416
-0.987248, 105, 241, 168, 368
-0.987297, 177, 129, 208, 256
-0.987576, 193, 97, 224, 224
-0.98764, 241, 1, 304, 128
-0.987675, 105, 385, 136, 448
-0.987704, 233, 65, 264, 128
-0.987814, 77, 145, 108, 272
-0.987839, 97, 1, 160, 500
-0.987849, 197, 33, 228, 160
-0.987905, 89, 305, 120, 432
-0.987974, 105, 353, 136, 480
-0.987979, 73, 369, 104, 432
-0.98802, 181, 57, 212, 120
-0.988028, 289, 161, 352, 416
-0.988057, 77, 353, 108, 480
-0.988057, 169, 249, 232, 312
-0.988064, 17, 337, 80, 400
-0.988076, 161, 193, 288, 256
-0.988216, 137, 401, 200, 464
-0.988243, 33, 1, 160, 128
-0.988264, 217, 233, 248, 296
-0.988336, 145, 201, 176, 264
-0.988375, 65, 137, 192, 200
-0.988413, 49, 393, 176, 456
-0.988426, 209, 145, 240, 272
-0.988452, 129, 249, 256, 312
-0.988602, 161, 385, 224, 448
-0.988649, 153, 193, 216, 256
-0.988652, 169, 1, 232, 500
-0.988716, 177, 249, 304, 312
-0.988762, 113, 217, 144, 280
-0.988763, 113, 401, 176, 464
-0.988906, 81, 197, 144, 228
-0.988912, 145, 377, 272, 440
-0.988942, 185, 225, 248, 288
-0.98902, 225, 41, 256, 104
-0.989025, 313, 137, 375, 200
-0.989058, 129, 257, 192, 500
-0.98906, 193, 97, 256, 352
-0.989078, 193, 281, 256, 344
-0.989222, 233, 1, 296, 500
-0.989257, 265, 161, 328, 416
-0.989348, 269, 145, 300, 272
-0.989373, 241, 65, 272, 192
-0.989386, 73, 137, 136, 200
-0.989386, 129, 353, 160, 416
-0.989408, 33, 313, 96, 376
-0.989412, 65, 273, 96, 400
-0.989414, 177, 17, 240, 80
-0.989478, 225, 225, 288, 352
-0.989512, 177, 369, 304, 496
-0.989516, 113, 289, 240, 352
-0.98954, 201, 41, 232, 104
-0.989547, 97, 361, 128, 424
-0.989556, 137, 289, 168, 416
-0.989612, 133, 177, 164, 304
-0.989625, 185, 337, 248, 400
-0.989628, 121, 257, 184, 320
-0.989635, 249, 209, 280, 272
-0.989647, 97, 49, 224, 112
-0.989734, 217, 113, 248, 176
-0.989739, 97, 105, 160, 168
-0.98974, 81, 221, 144, 252
-0.989755, 225, 65, 352, 128
-0.989803, 81, 33, 144, 288
-0.989844, 281, 161, 312, 288
-0.989913, 1, 81, 128, 208
-0.989927, 65, 153, 320, 216
-0.98994, 145, 401, 176, 464
-0.989953, 169, 297, 232, 360
-0.989961, 81, 257, 112, 384
-0.989985, 205, 257, 236, 384
-0.989999, 49, 65, 112, 320
-0.990067, 241, 41, 304, 104
-0.99007, 1, 145, 128, 208
-0.990074, 81, 185, 144, 216
-0.990074, 225, 41, 352, 104
-0.990091, 233, 17, 264, 144
-0.990128, 81, 209, 144, 240
-0.990128, 85, 241, 116, 304
-0.990219, 249, 113, 280, 176
-0.990221, 157, 121, 188, 184
-0.990232, 257, 129, 288, 256
-0.990239, 137, 133, 200, 164
-0.990262, 105, 305, 136, 432
-0.990372, 85, 297, 116, 360
-0.990378, 281, 65, 344, 320
-0.990405, 25, 177, 88, 304
-0.99042, 241, 185, 272, 248
-0.99044, 177, 257, 240, 384
-0.990451, 201, 165, 264, 196
-0.990465, 73, 377, 136, 408
-0.990469, 201, 225, 264, 480
-0.990488, 225, 305, 352, 432
-0.990524, 129, 73, 192, 136
-0.990539, 101, 113, 132, 240
-0.990589, 225, 241, 352, 368
-0.990605, 81, 233, 144, 264
-0.990624, 161, 337, 224, 400
-0.990628, 73, 1, 136, 500
-0.990632, 113, 313, 176, 376
-0.990676, 145, 25, 272, 88
-0.990683, 73, 217, 104, 280
-0.99069, 81, 173, 144, 204
-0.990699, 65, 177, 320, 240
-0.990705, 193, 153, 256, 184
-0.990782, 121, 213, 184, 244
-0.990821, 65, 337, 96, 464
-0.990847, 97, 393, 224, 456
-0.990915, 257, 201, 320, 232
-0.990922, 105, 393, 168, 424
-0.990948, 97, 361, 160, 392
-0.990955, 121, 341, 184, 372
-0.990966, 57, 225, 120, 256
-0.991015, 81, 329, 144, 360
-0.991035, 185, 133, 248, 164
-0.991054, 41, 189, 104, 220
-0.991063, 217, 17, 248, 144
-0.991071, 161, 49, 192, 176
-0.991081, 81, 341, 144, 372
-0.991092, 185, 145, 216, 208
-0.991102, 185, 105, 216, 168
-0.991102, 313, 65, 375, 320
-0.991119, 201, 129, 232, 192
-0.991147, 197, 161, 228, 288
-0.99117, 177, 273, 304, 336
-0.991196, 233, 177, 264, 304
-0.991203, 121, 189, 184, 220
-0.991211, 161, 337, 288, 400
-0.991216, 185, 321, 216, 448
-0.991226, 241, 125, 304, 156
-0.991244, 41, 1, 104, 500
-0.99126, 209, 9, 272, 72
-0.991284, 153, 225, 216, 352
-0.991302, 241, 185, 304, 216
-0.991335, 137, 381, 200, 412
-0.991335, 57, 213, 120, 244
-0.991343, 105, 229, 168, 260
-0.991388, 205, 169, 236, 232
-0.991398, 41, 201, 104, 232
-0.991403, 289, 153, 352, 216
-0.991432, 233, 137, 296, 168
-0.991473, 213, 41, 244, 104
-0.991484, 273, 209, 336, 272
-0.991502, 121, 145, 184, 176
-0.991512, 81, 317, 144, 348
-0.991513, 121, 353, 184, 384
-0.991514, 277, 177, 308, 240
-0.991515, 121, 369, 184, 400
-0.991525, 113, 1, 176, 256
-0.991534, 209, 101, 272, 132
-0.991536, 113, 157, 176, 188
-0.991558, 209, 113, 272, 144
-0.991559, 193, 61, 256, 92
-0.991588, 57, 177, 120, 208
-0.991588, 249, 153, 280, 216
-0.99162, 257, 213, 320, 244
-0.991621, 193, 45, 256, 76
-0.991632, 217, 185, 280, 216
-0.99165, 249, 113, 312, 144
-0.991666, 9, 361, 72, 424
-0.991699, 97, 377, 160, 408
-0.99171, 233, 201, 296, 232
-0.991719, 217, 153, 280, 184
-0.991728, 121, 97, 152, 224
-0.991728, 121, 329, 184, 360
-0.991731, 297, 97, 360, 160
-0.991747, 241, 165, 304, 196
-0.99177, 209, 73, 272, 104
-0.991779, 249, 89, 280, 152
-0.991796, 209, 129, 272, 160
-0.991796, 209, 141, 272, 172
-0.991798, 41, 369, 104, 400
-0.991826, 97, 145, 128, 208
-0.991827, 33, 357, 96, 388
-0.991829, 209, 237, 272, 268
-0.991853, 65, 201, 320, 264
-0.991853, 121, 201, 184, 232
-0.991858, 169, 121, 232, 152
-0.991863, 65, 345, 96, 408
-0.991874, 89, 249, 152, 280
-0.991876, 1, 225, 64, 352
-0.991899, 17, 257, 80, 500
-0.9919, 217, 217, 280, 248
-0.991908, 237, 41, 268, 104
-0.991956, 73, 365, 136, 396
-0.991956, 41, 289, 104, 352
-0.991971, 169, 93, 232, 124
-0.992008, 57, 273, 120, 304
-0.99201, 257, 1, 320, 500
-0.992016, 181, 337, 212, 400
-0.992024, 233, 97, 296, 128
-0.992057, 345, 129, 375, 256
-0.992065, 81, 261, 144, 292
-0.992096, 153, 53, 216, 84
-0.992125, 177, 377, 240, 408
-0.992137, 89, 161, 152, 192
-0.992159, 257, 49, 320, 176
-0.992183, 301, 145, 332, 272
-0.992186, 193, 65, 224, 128
-0.992204, 209, 85, 272, 116
-0.992205, 117, 369, 148, 496
-0.992248, 65, 129, 320, 192
-0.99225, 289, 177, 320, 240
-0.992264, 33, 345, 96, 376
-0.992303, 145, 1, 272, 64
-0.992308, 265, 209, 296, 272
-0.992328, 153, 145, 216, 176
-0.992344, 81, 189, 112, 220
-0.992356, 153, 197, 216, 228
-0.992363, 85, 221, 116, 252
-0.992368, 145, 121, 208, 152
-0.992373, 33, 333, 96, 364
-0.992397, 77, 265, 108, 328
-0.992426, 241, 153, 304, 184
-0.992428, 169, 81, 232, 112
-0.992429, 73, 353, 136, 384
-0.992477, 193, 285, 256, 316
-0.992478, 73, 393, 136, 424
-0.992487, 177, 165, 240, 196
-0.992495, 201, 261, 264, 292
-0.992518, 57, 237, 120, 268
-0.99254, 129, 377, 160, 440
-0.992556, 177, 257, 240, 500
-0.992557, 161, 69, 224, 100
-0.992562, 153, 17, 216, 80
-0.992567, 49, 165, 112, 196
-0.992571, 33, 177, 96, 208
-0.992581, 117, 385, 148, 416
-0.992591, 81, 273, 144, 304
-0.992599, 113, 405, 176, 436
-0.9926, 225, 153, 256, 184
-0.992607, 73, 409, 136, 440
-0.992609, 57, 261, 120, 292
-0.992618, 81, 305, 144, 336
-0.992619, 221, 65, 252, 128
-0.992627, 145, 213, 208, 244
-0.992635, 249, 81, 312, 112
-0.992637, 145, 321, 208, 352
-0.992639, 129, 105, 375, 168
-0.992639, 93, 173, 124, 204
-0.992655, 137, 393, 200, 424
-0.992673, 161, 133, 224, 164
-0.992685, 217, 45, 280, 76
-0.992688, 101, 229, 132, 260
-0.992715, 233, 137, 264, 168
-0.992717, 33, 213, 96, 244
-0.992718, 185, 237, 248, 268
-0.992722, 105, 193, 136, 224
-0.992738, 177, 105, 240, 136
-0.992747, 57, 285, 120, 316
-0.99276, 185, 201, 248, 264
-0.992768, 137, 405, 200, 436
-0.992774, 93, 393, 124, 456
-0.99279, 85, 209, 116, 240
-0.992796, 97, 145, 160, 176
-0.992809, 169, 129, 200, 160
-0.992826, 177, 225, 240, 256
-0.992833, 169, 285, 232, 316
-0.992836, 117, 365, 148, 396
-0.992837, 157, 193, 188, 256
-0.992837, 189, 281, 220, 344
-0.992848, 137, 109, 200, 140
-0.992853, 193, 273, 256, 304
-0.99286, 281, 209, 344, 240
-0.992862, 133, 141, 164, 172
-0.992865, 177, 389, 240, 420
-0.992874, 153, 301, 216, 332
-0.992884, 149, 133, 180, 164
-0.992888, 49, 381, 112, 412
-0.992893, 129, 341, 160, 372
-0.992897, 81, 233, 112, 264
-0.992905, 209, 197, 272, 228
-0.992911, 17, 369, 80, 400
-0.992918, 129, 353, 160, 384
-0.992945, 253, 181, 284, 212
-0.992948, 169, 41, 232, 72
-0.992951, 117, 213, 148, 244
-0.99297, 73, 149, 136, 180
-0.992971, 153, 157, 216, 188
-0.992979, 81, 177, 112, 208
-0.992985, 97, 213, 128, 244
-0.992989, 161, 401, 224, 432
-0.993, 117, 341, 148, 372
-0.993014, 233, 173, 264, 204
-0.993015, 129, 329, 160, 360
-0.993027, 265, 181, 328, 212
-0.993028, 97, 377, 128, 408
-0.993029, 157, 97, 188, 160
-0.99303, 145, 369, 208, 400
-0.993031, 117, 353, 148, 384
-0.993031, 133, 217, 164, 248
-0.993037, 73, 365, 104, 396
-0.993046, 121, 149, 152, 180
-0.99305, 249, 117, 280, 148
-0.993053, 249, 69, 312, 100
-0.993055, 105, 173, 168, 204
-0.993056, 145, 213, 176, 244
-0.993062, 113, 225, 144, 256
-0.993066, 269, 209, 300, 336
-0.993067, 245, 129, 276, 160
-0.993078, 129, 373, 160, 404
-0.99308, 153, 333, 216, 364
-0.993088, 129, 205, 160, 236
-0.99309, 277, 205, 308, 236
-0.993092, 229, 113, 260, 144
-0.993093, 161, 265, 224, 296
-0.993095, 265, 209, 296, 240
-0.993097, 109, 397, 140, 428
-0.993099, 1, 161, 375, 224
-0.9931, 181, 361, 212, 424
-0.993102, 105, 165, 136, 196
-0.993103, 81, 293, 144, 324
-0.993108, 173, 93, 204, 124
-0.993112, 57, 333, 120, 364
-0.993113, 245, 213, 276, 244
-0.993117, 185, 337, 248, 368
-0.993117, 117, 197, 148, 228
-0.993123, 161, 313, 288, 376
-0.993132, 177, 361, 240, 392
-0.993136, 257, 197, 288, 228
-0.99314, 69, 213, 100, 244
-0.993143, 97, 129, 160, 160
-0.993147, 221, 233, 252, 264
-0.993162, 117, 161, 148, 192
-0.993164, 9, 353, 72, 384
-0.993168, 281, 197, 344, 228
-0.993171, 49, 393, 112, 424
-0.993171, 237, 101, 268, 132
-0.993172, 85, 377, 116, 408
-0.993189, 141, 201, 172, 232
-0.993191, 213, 153, 244, 184
-0.993191, 129, 309, 192, 340
-0.993194, 137, 69, 200, 100
-0.9932, 57, 249, 120, 280
-0.993201, 177, 141, 208, 172
-0.993204, 145, 409, 176, 440
-0.993206, 269, 193, 300, 224
-0.993207, 333, 113, 364, 240
-0.993208, 233, 229, 296, 260
-0.993212, 73, 201, 104, 232
-0.993221, 173, 117, 204, 148
-0.993222, 117, 329, 148, 360
-0.993223, 93, 197, 124, 228
-0.993224, 221, 141, 252, 172
-0.993245, 189, 125, 220, 156
-0.993252, 201, 149, 232, 180
-0.993258, 181, 53, 212, 84
-0.993271, 245, 201, 276, 232
-0.993272, 217, 129, 248, 160
-0.993273, 85, 325, 116, 356
-0.993278, 89, 113, 120, 240
-0.993281, 89, 261, 120, 292
-0.993285, 25, 349, 56, 380
-0.993294, 25, 161, 88, 416
-0.993301, 57, 313, 120, 376
-0.993305, 17, 273, 80, 336
-0.993305, 197, 285, 228, 316
-0.993311, 161, 117, 192, 148
-0.993311, 97, 241, 128, 272
-0.993312, 217, 97, 248, 128
-0.993313, 221, 209, 252, 272
-0.993314, 161, 197, 192, 228
-0.993314, 101, 257, 132, 288
-0.993325, 241, 149, 272, 180
-0.993334, 65, 233, 320, 296
-0.993342, 205, 105, 236, 136
-0.993348, 237, 73, 268, 104
-0.993352, 173, 17, 204, 144
-0.993353, 237, 185, 268, 216
-0.993353, 257, 221, 288, 252
-0.993354, 73, 377, 104, 408
-0.993354, 233, 125, 264, 156
-0.993356, 265, 181, 296, 212
-0.993358, 129, 385, 160, 416
-0.993361, 197, 41, 228, 72
-0.993361, 181, 373, 212, 404
-0.993363, 165, 377, 196, 440
-0.993363, 61, 197, 92, 228
-0.993367, 105, 365, 136, 396
-0.993368, 213, 165, 244, 196
-0.993373, 85, 313, 116, 344
-0.993377, 77, 341, 108, 372
-0.993382, 185, 289, 216, 320
-0.993383, 193, 137, 224, 168
-0.993386, 289, 213, 320, 244
-0.993391, 105, 181, 136, 212
-0.993392, 253, 169, 284, 200
-0.993397, 257, 273, 320, 336
-0.993415, 85, 273, 116, 304
-0.993419, 221, 61, 252, 92
-0.993434, 205, 133, 236, 164
-0.993435, 205, 273, 236, 304
-0.993436, 137, 317, 168, 348
-0.993438, 281, 193, 312, 224
-0.993438, 249, 101, 280, 132
-0.99344, 61, 145, 92, 272
-0.99344, 97, 397, 128, 428
-0.993443, 153, 305, 184, 336
-0.993455, 313, 161, 375, 224
-0.993456, 61, 373, 92, 404
-0.993459, 185, 85, 216, 116
-0.993459, 173, 81, 204, 112
-0.993459, 277, 217, 308, 248
-0.993462, 129, 185, 160, 216
-0.993463, 173, 65, 204, 96
-0.993466, 205, 241, 236, 304
-0.993472, 217, 245, 248, 276
-0.993472, 237, 161, 268, 192
-0.993473, 185, 273, 216, 304
-0.993474, 101, 337, 132, 400
-0.993478, 61, 369, 92, 432
-0.993482, 193, 97, 224, 128
-0.993482, 61, 177, 92, 208
-0.993487, 301, 153, 332, 216
-0.99349, 77, 353, 108, 384
-0.993493, 209, 45, 240, 76
-0.993494, 65, 389, 96, 420
-0.993495, 69, 325, 100, 356
-0.993498, 97, 409, 128, 440
-0.993498, 189, 153, 220, 184
-0.993498, 145, 185, 176, 216
-0.9935, 193, 165, 224, 196
-0.993501, 85, 389, 116, 420
-0.993502, 225, 217, 256, 248
-0.993505, 201, 241, 232, 272
-0.993505, 117, 297, 148, 360
-0.993509, 253, 85, 284, 116
-0.993509, 141, 329, 172, 360
-0.993518, 229, 45, 260, 76
-0.993519, 105, 353, 136, 384
-0.99352, 93, 185, 124, 216
-0.993522, 157, 209, 188, 240
-0.993549, 25, 337, 56, 400
-0.99358, 9, 17, 72, 80
-0.993649, 33, 321, 288, 384
-0.993655, 65, 1, 192, 64
-0.993667, 153, 225, 216, 480
-0.993688, 149, 337, 180, 464
-0.993719, 49, 97, 112, 160
-0.993766, 125, 169, 156, 232
-0.993792, 97, 241, 128, 304
-0.993814, 87, 177, 102, 240
-0.993818, 253, 65, 284, 192
-0.993837, 133, 81, 164, 208
-0.993868, 209, 353, 336, 416
-0.993885, 277, 201, 308, 264
-0.993923, 1, 249, 64, 312
-0.993924, 33, 97, 288, 160
-0.993925, 173, 337, 204, 464
-0.993947, 225, 281, 352, 344
-0.993969, 273, 81, 336, 144
-0.993988, 17, 337, 80, 464
-0.993992, 9, 1, 72, 128
-0.993993, 225, 17, 352, 80
-0.994009, 165, 65, 196, 128
-0.994019, 137, 297, 168, 360
-0.994037, 49, 393, 112, 456
-0.994071, 61, 161, 92, 224
-0.994134, 165, 169, 196, 232
-0.994188, 233, 17, 296, 80
-0.994225, 289, 1, 352, 500
-0.994242, 229, 97, 260, 160
-0.994287, 173, 297, 204, 360
-0.994365, 185, 273, 216, 400
-0.994372, 33, 257, 288, 320
-0.994379, 305, 273, 368, 400
-0.99439, 201, 377, 264, 440
-0.994428, 313, 161, 375, 416
-0.994429, 65, 197, 192, 228
-0.994434, 1, 393, 128, 456
-0.994485, 239, 137, 254, 200
-0.994488, 129, 137, 256, 168
-0.994529, 1, 185, 375, 248
-0.994565, 313, 1, 375, 500
-0.994602, 97, 25, 224, 88
-0.994633, 193, 305, 256, 368
-0.994639, 313, 65, 375, 192
-0.994643, 133, 113, 164, 176
-0.994694, 97, 217, 112, 280
-0.994705, 201, 265, 232, 328
-0.994763, 49, 137, 112, 200
-0.994799, 321, 113, 352, 240
-0.994802, 233, 289, 296, 416
-0.994803, 117, 273, 148, 400
-0.994841, 273, 121, 336, 184
-0.994846, 149, 193, 180, 320
-0.994849, 105, 289, 168, 352
-0.994895, 261, 161, 292, 224
-0.994909, 129, 225, 160, 288
-0.994954, 313, 153, 344, 216
-0.994961, 241, 353, 368, 480
-0.994993, 189, 33, 220, 96
-0.995042, 161, 105, 288, 136
-0.995064, 49, 341, 176, 372
-0.995079, 65, 209, 192, 240
-0.995092, 105, 193, 120, 256
-0.995093, 289, 113, 320, 240
-0.995108, 145, 125, 272, 156
-0.995115, 73, 169, 104, 232
-0.99514, 131, 321, 146, 384
-0.995143, 161, 93, 288, 124
-0.995146, 277, 153, 308, 216
-0.995159, 9, 97, 72, 224
-0.995183, 33, 89, 160, 152
-0.99519, 233, 233, 296, 296
-0.995193, 33, 353, 288, 416
-0.995193, 113, 149, 240, 180
-0.995208, 179, 89, 194, 152
-0.995275, 65, 281, 96, 344
-0.995281, 161, 217, 288, 280
-0.99529, 121, 193, 136, 256
-0.995326, 185, 1, 216, 128
-0.995357, 1, 137, 375, 200
-0.995366, 65, 185, 192, 216
-0.995401, 123, 153, 138, 216
-0.995416, 97, 273, 128, 336
-0.99542, 9, 273, 72, 400
-0.99542, 111, 161, 126, 224
-0.995423, 1, 161, 64, 416
-0.995425, 209, 337, 272, 464
-0.995444, 91, 201, 106, 264
-0.995472, 25, 249, 88, 312
-0.995476, 245, 17, 276, 144
-0.995487, 49, 365, 176, 396
-0.995488, 97, 381, 224, 412
-0.995504, 129, 73, 375, 136
-0.995508, 33, 25, 160, 88
-0.995512, 41, 257, 72, 384
-0.995512, 161, 305, 192, 432
-0.995525, 145, 81, 176, 208
-0.995538, 129, 225, 160, 352
-0.99554, 79, 193, 94, 256
-0.995557, 345, 153, 375, 216
-0.995559, 17, 233, 144, 264
-0.995614, 225, 393, 288, 456
-0.995615, 145, 369, 176, 432
-0.995619, 201, 209, 232, 272
-0.995632, 9, 41, 72, 104
-0.995636, 81, 225, 208, 256
-0.995637, 17, 221, 144, 252
-0.995644, 109, 129, 140, 192
-0.995645, 129, 145, 144, 208
-0.995657, 17, 197, 144, 228
-0.995667, 125, 353, 140, 416
-0.995672, 33, 73, 288, 136
-0.995677, 245, 129, 260, 192
-0.995689, 115, 377, 130, 440
-0.995692, 241, 225, 272, 352
-0.995725, 237, 209, 268, 272
-0.995733, 81, 225, 112, 480
-0.99576, 289, 201, 320, 264
-0.995784, 97, 169, 112, 232
-0.995789, 247, 169, 262, 232
-0.995814, 33, 225, 96, 352
-0.995823, 145, 265, 208, 328
-0.995826, 229, 185, 260, 248
-0.995833, 113, 185, 128, 248
-0.99586, 79, 337, 94, 400
-0.995865, 33, 297, 288, 360
-0.995874, 17, 209, 144, 240
-0.995894, 33, 209, 96, 272
-0.995894, 233, 137, 248, 200
-0.995914, 173, 289, 204, 416
-0.995918, 1, 273, 375, 336
-0.995954, 33, 65, 160, 128
-0.995956, 141, 137, 156, 200
-0.995958, 97, 369, 224, 400
-0.995979, 173, 33, 204, 96
-0.995988, 145, 105, 176, 168
-0.995989, 125, 217, 140, 280
-0.995995, 1, 1, 128, 64
-0.995997, 105, 169, 120, 232
-0.996015, 161, 225, 224, 288
-0.996037, 49, 353, 176, 384
-0.99604, 157, 401, 188, 464
-0.996043, 313, 161, 344, 288
-0.996043, 161, 81, 288, 112
-0.996049, 257, 185, 272, 248
-0.996055, 41, 177, 72, 304
-0.996063, 117, 161, 132, 224
-0.996071, 89, 225, 104, 288
-0.996097, 99, 193, 114, 256
-0.996103, 249, 225, 312, 352
-0.996111, 9, 1, 72, 500
-0.996143, 285, 209, 316, 336
-0.996162, 345, 81, 375, 208
-0.996168, 17, 185, 144, 216
-0.996171, 49, 329, 176, 360
-0.996177, 181, 113, 196, 176
-0.996204, 57, 321, 88, 384
-0.996215, 129, 241, 192, 368
-0.996274, 161, 401, 288, 464
-0.996303, 131, 369, 146, 432
-0.99631, 65, 173, 192, 204
-0.996312, 1, 261, 128, 292
-0.996335, 271, 185, 286, 248
-0.996351, 177, 145, 304, 176
-0.996371, 193, 321, 224, 384
-0.996393, 49, 73, 112, 136
-0.996395, 97, 357, 224, 388
-0.996406, 81, 257, 208, 288
-0.996417, 129, 193, 144, 256
-0.996462, 135, 137, 150, 200
-0.996467, 49, 377, 176, 408
-0.996486, 297, 273, 360, 336
-0.996499, 149, 129, 164, 192
-0.9965, 29, 257, 60, 384
-0.9965, 183, 57, 198, 120
-0.996537, 33, 377, 288, 440
-0.99655, 161, 193, 176, 256
-0.99656, 169, 321, 200, 384
-0.996568, 9, 1, 72, 256
-0.996591, 85, 369, 100, 432
-0.996601, 131, 345, 146, 408
-0.996603, 177, 209, 240, 336
-0.996626, 49, 17, 112, 144
-0.99664, 111, 217, 126, 280
-0.996653, 153, 297, 184, 360
-0.996677, 1, 241, 375, 304
-0.996681, 129, 129, 160, 384
-0.996681, 93, 225, 124, 480
-0.99671, 145, 69, 272, 100
-0.996711, 221, 225, 236, 288
-0.996724, 173, 105, 188, 168
-0.99674, 239, 161, 254, 224
-0.99674, 121, 377, 136, 440
-0.996751, 97, 161, 224, 192
-0.996774, 237, 41, 252, 104
-0.996782, 233, 257, 296, 320
-0.996786, 249, 65, 280, 128
-0.996803, 105, 225, 120, 288
-0.996808, 101, 129, 132, 384
-0.996819, 253, 105, 268, 168
-0.996833, 209, 133, 336, 164
-0.996834, 97, 329, 224, 360
-0.996835, 53, 273, 84, 400
-0.99684, 333, 161, 364, 288
-0.996857, 97, 345, 224, 376
-0.996874, 293, 177, 308, 240
-0.996879, 177, 65, 192, 128
-0.996882, 9, 49, 72, 176
-0.996898, 185, 257, 216, 320
-0.996901, 117, 129, 148, 384
-0.996904, 197, 305, 228, 432
-0.996907, 153, 177, 168, 240
-0.996912, 105, 241, 136, 368
-0.996914, 333, 129, 364, 192
-0.996915, 119, 353, 134, 416
-0.996942, 81, 109, 208, 140
-0.996948, 81, 245, 208, 276
-0.996949, 185, 209, 216, 336
-0.996952, 97, 1, 160, 128
-0.996958, 85, 129, 116, 384
-0.996962, 1, 297, 375, 360
-0.996968, 159, 129, 174, 192
-0.996969, 85, 321, 100, 384
-0.996974, 205, 265, 220, 328
-0.996974, 283, 185, 298, 248
-0.996975, 225, 93, 352, 124
-0.996982, 185, 89, 200, 152
-0.996991, 293, 129, 324, 192
-0.997002, 161, 201, 288, 232
-0.997004, 105, 369, 120, 432
-0.997021, 17, 185, 80, 248
-0.997033, 1, 361, 128, 392
-0.997042, 243, 41, 258, 104
-0.997042, 97, 1, 160, 64
-0.997045, 1, 105, 375, 168
-0.997062, 77, 361, 92, 424
-0.997062, 91, 369, 106, 432
-0.997063, 213, 17, 244, 80
-0.997069, 65, 273, 192, 304
-0.997078, 119, 217, 134, 280
-0.997086, 223, 145, 238, 208
-0.997106, 263, 185, 278, 248
-0.997107, 225, 117, 352, 148
-0.997107, 141, 209, 156, 272
-0.997109, 225, 81, 352, 112
-0.99711, 69, 193, 100, 448
-0.997126, 189, 137, 204, 200
-0.997173, 145, 97, 176, 352
-0.997176, 145, 45, 272, 76
-0.997184, 89, 221, 104, 252
-0.99719, 213, 249, 228, 312
-0.997204, 135, 201, 150, 264
-0.997206, 161, 181, 288, 212
-0.997211, 1, 277, 128, 308
-0.997213, 305, 177, 336, 240
-0.997221, 65, 313, 192, 344
-0.997221, 137, 233, 200, 296
-0.997224, 1, 217, 375, 280
-0.997235, 145, 165, 272, 196
-0.997236, 251, 193, 266, 256
-0.997239, 85, 153, 100, 216
-0.997243, 83, 217, 98, 280
-0.997248, 107, 393, 122, 456
-0.997253, 1, 349, 128, 380
-0.997254, 65, 417, 192, 480
-0.997263, 33, 153, 160, 184
-0.997277, 187, 345, 202, 408
-0.997284, 229, 225, 260, 352
-0.99729, 245, 97, 276, 352
-0.997292, 97, 89, 224, 120
-0.997298, 121, 329, 136, 392
-0.997302, 117, 257, 148, 320
-0.997313, 277, 177, 292, 240
-0.997314, 223, 33, 238, 96
-0.997318, 1, 417, 128, 480
-0.997321, 17, 245, 144, 276
-0.997322, 137, 321, 152, 384
-0.997324, 99, 369, 114, 432
-0.997334, 65, 301, 192, 332
-0.997337, 225, 161, 352, 192
-0.997354, 33, 41, 288, 104
-0.99736, 231, 41, 246, 104
-0.997364, 9, 153, 72, 216
-0.997372, 265, 209, 280, 272
-0.997373, 129, 17, 192, 144
-0.997373, 225, 129, 256, 384
-0.997383, 209, 209, 336, 240
-0.997388, 145, 57, 272, 88
-0.997389, 239, 105, 254, 168
-0.997397, 131, 353, 146, 384
-0.9974, 225, 181, 352, 212
-0.997417, 49, 389, 176, 420
-0.997419, 139, 361, 154, 424
-0.997423, 201, 209, 232, 336
-0.997424, 165, 129, 180, 192
-0.997424, 17, 173, 144, 204
-0.997426, 141, 177, 156, 240
-0.997427, 37, 97, 68, 224
-0.997431, 105, 145, 120, 208
-0.997433, 85, 189, 100, 220
-0.997442, 101, 225, 116, 256
-0.997444, 241, 137, 256, 168
-0.997445, 259, 209, 274, 272
-0.997477, 253, 225, 284, 352
-0.997478, 9, 81, 72, 144
-0.99748, 313, 73, 375, 136
-0.997491, 113, 345, 128, 408
-0.997507, 333, 169, 364, 232
-0.997526, 131, 341, 146, 372
-0.99753, 95, 217, 110, 248
-0.99753, 197, 153, 212, 216
-0.997531, 79, 385, 94, 448
-0.997542, 165, 65, 196, 320
-0.997544, 145, 393, 272, 424
-0.997545, 81, 137, 208, 168
-0.997547, 241, 193, 368, 224
-0.997548, 131, 225, 146, 288
-0.997551, 201, 289, 232, 352
-0.997553, 139, 297, 154, 360
-0.99756, 97, 393, 224, 424
-0.997569, 41, 273, 72, 336
-0.997572, 147, 209, 162, 272
-0.997575, 193, 65, 224, 320
-0.997577, 161, 401, 176, 464
-0.997577, 249, 65, 264, 128
-0.997584, 199, 49, 214, 112
-0.997586, 1, 337, 375, 400
-0.997586, 133, 401, 164, 464
-0.997597, 109, 225, 140, 480
-0.9976, 149, 393, 164, 456
-0.997608, 125, 297, 140, 360
-0.997621, 49, 33, 112, 96
-0.997622, 25, 337, 56, 464
-0.997627, 205, 65, 236, 128
-0.997635, 113, 201, 240, 232
-0.997637, 141, 321, 172, 384
-0.997642, 193, 169, 224, 232
-0.997645, 33, 133, 160, 164
-0.997651, 189, 113, 204, 176
-0.997652, 235, 145, 250, 176
-0.997653, 233, 113, 248, 176
-0.997657, 241, 249, 368, 312
-0.99766, 1, 329, 128, 360
-0.997662, 191, 49, 206, 112
-0.997677, 207, 169, 222, 232
-0.997678, 227, 121, 242, 184
-0.997678, 197, 105, 228, 168
-0.99768, 215, 129, 230, 192
-0.997686, 345, 177, 375, 304
-0.997699, 215, 161, 230, 224
-0.9977, 225, 305, 352, 368
-0.997712, 225, 105, 352, 136
-0.997715, 215, 33, 230, 96
-0.997722, 95, 145, 110, 208
-0.997733, 169, 353, 200, 416
-0.997735, 131, 209, 146, 240
-0.997745, 133, 257, 164, 500
-0.997748, 161, 369, 192, 496
-0.997754, 81, 401, 112, 464
-0.997757, 1, 17, 256, 80
-0.99776, 129, 297, 375, 360
-0.997763, 65, 285, 192, 316
-0.997766, 17, 317, 144, 348
-0.997767, 209, 409, 336, 472
-0.99777, 225, 57, 240, 120
-0.997772, 121, 121, 152, 184
-0.997773, 227, 209, 242, 272
-0.997776, 91, 305, 106, 368
-0.997781, 195, 281, 210, 344
-0.997792, 225, 69, 352, 100
-0.997799, 251, 145, 266, 208
-0.997807, 225, 145, 352, 176
-0.997818, 273, 257, 336, 384
-0.997828, 289, 425, 352, 488
-0.99784, 111, 225, 126, 256
-0.99784, 183, 137, 198, 200
-0.99784, 161, 381, 288, 412
-0.997843, 49, 121, 176, 152
-0.997845, 241, 377, 368, 440
-0.997851, 215, 201, 230, 264
-0.997856, 177, 281, 304, 312
-0.99788, 121, 385, 136, 416
-0.997881, 121, 217, 136, 248
-0.997897, 255, 81, 270, 144
-0.997902, 213, 65, 244, 320
-0.997919, 261, 81, 292, 144
-0.997922, 257, 161, 272, 224
-0.997924, 127, 369, 142, 400
-0.997924, 235, 157, 250, 188
-0.997928, 71, 353, 86, 416
-0.997933, 247, 169, 262, 200
-0.997935, 161, 213, 288, 244
-0.997944, 163, 305, 178, 368
-0.99795, 131, 149, 146, 180
-0.997952, 355, 145, 370, 208
-0.997961, 179, 93, 194, 124
-0.997963, 1, 373, 128, 404
-0.997968, 193, 329, 208, 392
-0.997974, 315, 153, 330, 216
-0.997976, 167, 177, 182, 240
-0.997979, 205, 33, 220, 96
-0.99799, 229, 1, 260, 256
-0.997992, 155, 105, 170, 168
-0.997994, 97, 173, 112, 204
-0.997996, 91, 177, 106, 208
-0.997998, 209, 137, 224, 200
-0.997999, 135, 177, 150, 240
-0.998001, 239, 65, 254, 128
-0.998004, 147, 185, 162, 248
-0.998005, 241, 433, 368, 496
-0.998009, 155, 201, 170, 264
-0.99801, 301, 97, 332, 224
-0.998012, 83, 213, 98, 244
-0.998013, 91, 249, 106, 312
-0.998013, 159, 209, 174, 240
-0.998018, 133, 113, 148, 176
-0.998029, 127, 221, 142, 252
-0.998034, 49, 401, 176, 432
-0.998034, 181, 361, 196, 424
-0.998059, 89, 233, 104, 264
-0.998059, 155, 401, 170, 464
-0.998071, 175, 129, 190, 192
-0.998081, 113, 189, 240, 220
-0.998082, 225, 229, 240, 260
-0.9981, 125, 201, 140, 232
-0.998106, 115, 381, 130, 412
-0.998109, 145, 25, 272, 56
-0.99811, 209, 273, 272, 400
-0.998117, 121, 361, 136, 392
-0.998122, 129, 353, 375, 416
-0.998122, 241, 161, 256, 192
-0.998145, 297, 209, 360, 336
-0.998146, 229, 145, 244, 176
-0.998146, 129, 381, 144, 412
-0.998156, 131, 329, 146, 360
-0.998158, 137, 145, 152, 176
-0.998175, 99, 201, 114, 232
-0.998175, 133, 365, 148, 396
-0.998187, 247, 129, 262, 160
-0.998205, 97, 73, 224, 104
-0.998219, 129, 329, 375, 392
-0.998223, 283, 197, 298, 228
-0.998229, 251, 117, 266, 148
-0.998231, 95, 233, 110, 264
-0.998235, 255, 185, 270, 216
-0.998237, 105, 173, 120, 204
-0.998242, 77, 373, 92, 404
-0.998243, 73, 97, 104, 224
-0.998248, 129, 225, 256, 256
-0.998267, 179, 121, 194, 152
-0.99827, 137, 213, 152, 244
-0.998272, 121, 373, 136, 404
-0.998275, 89, 209, 104, 240
-0.998279, 143, 137, 158, 168
-0.99828, 241, 113, 256, 144
-0.998283, 107, 189, 122, 220
-0.998285, 289, 297, 352, 360
-0.998294, 121, 229, 136, 260
-0.998302, 97, 121, 224, 152
-0.998303, 151, 137, 166, 168
-0.998305, 125, 157, 140, 188
-0.998311, 265, 221, 296, 236
-0.998312, 181, 377, 212, 392
-0.998313, 189, 287, 220, 302
-0.998314, 189, 139, 220, 154
-0.998314, 65, 209, 96, 224
-0.998314, 57, 385, 88, 400
-0.998315, 253, 177, 284, 192
-0.998315, 197, 99, 228, 114
-0.998316, 177, 107, 208, 122
-0.998316, 205, 167, 236, 182
-0.998318, 141, 187, 172, 202
-0.998319, 85, 383, 116, 398
-0.998319, 65, 201, 96, 216
-0.998319, 93, 199, 124, 214
-0.998319, 25, 355, 56, 370
-0.998321, 149, 193, 180, 208
-0.998321, 169, 139, 200, 154
-0.998321, 89, 411, 120, 426
-0.998321, 89, 323, 120, 338
-0.998322, 153, 217, 184, 232
-0.998324, 241, 153, 272, 168
-0.998324, 189, 133, 220, 148
-0.998325, 109, 167, 140, 182
-0.998325, 273, 209, 304, 224
-0.998326, 165, 205, 180, 236
-0.998327, 265, 201, 296, 216
-0.998327, 285, 217, 316, 232
-0.998327, 105, 403, 136, 418
-0.998327, 173, 101, 204, 116
-0.998328, 217, 243, 248, 258
-0.998328, 161, 405, 192, 420
-0.99833, 89, 263, 120, 278
-0.99833, 213, 161, 244, 416
-0.998334, 177, 269, 304, 300
-0.998335, 109, 189, 140, 204
-0.998335, 109, 201, 140, 216
-0.998336, 245, 209, 276, 224
-0.998336, 73, 363, 104, 378
-0.998338, 245, 129, 276, 144
-0.998338, 109, 397, 124, 428
-0.998338, 245, 201, 276, 216
-0.998338, 101, 223, 132, 238
-0.998338, 229, 115, 260, 130
-0.998339, 89, 321, 104, 352
-0.998339, 229, 129, 260, 144
-0.99834, 129, 373, 160, 388
-0.99834, 81, 343, 112, 358
-0.998341, 129, 353, 160, 368
-0.998342, 121, 191, 152, 206
-0.998343, 69, 229, 100, 244
-0.998344, 73, 369, 104, 384
-0.998344, 249, 117, 280, 132
-0.998344, 97, 241, 128, 256
-0.998345, 205, 157, 236, 172
-0.998348, 233, 175, 264, 190
-0.998349, 137, 359, 168, 374
-0.99835, 253, 183, 284, 198
-0.998352, 249, 123, 280, 138
-0.998352, 105, 389, 136, 404
-0.998352, 253, 215, 284, 230
-0.998354, 237, 103, 268, 118
-0.998355, 145, 409, 176, 424
-0.998356, 101, 409, 132, 424
-0.998356, 117, 213, 148, 228
-0.998358, 261, 197, 276, 228
-0.998359, 85, 217, 116, 232
-0.998359, 225, 167, 256, 182
-0.99836, 213, 151, 244, 166
-0.998361, 1, 401, 375, 464
-0.998362, 141, 209, 172, 224
-0.998362, 129, 387, 160, 402
-0.998362, 129, 365, 160, 380
-0.998363, 1, 293, 128, 324
-0.998363, 173, 95, 204, 110
-0.998365, 93, 235, 124, 250
-0.998367, 237, 181, 268, 196
-0.998367, 137, 141, 168, 156
-0.998367, 225, 135, 256, 150
-0.998368, 173, 145, 204, 160
-0.998369, 285, 211, 316, 226
-0.99837, 221, 237, 252, 252
-0.99837, 97, 205, 128, 220
-0.998371, 137, 337, 168, 352
-0.998371, 261, 195, 292, 210
-0.998372, 73, 381, 104, 396
-0.998373, 217, 103, 248, 118
-0.998375, 129, 331, 160, 346
-0.998375, 97, 171, 128, 186
-0.998375, 225, 289, 352, 320
-0.998376, 129, 41, 375, 104
-0.998377, 245, 135, 276, 150
-0.998378, 213, 141, 244, 156
-0.998378, 117, 339, 148, 354
-0.998379, 269, 215, 300, 230
-0.998379, 125, 159, 156, 174
-0.998379, 129, 381, 160, 396
-0.99838, 253, 189, 284, 204
-0.998381, 201, 105, 232, 120
-0.998383, 113, 221, 144, 236
-0.998385, 169, 133, 200, 148
-0.998385, 161, 369, 288, 400
-0.998385, 73, 215, 104, 230
-0.998385, 117, 333, 148, 348
-0.998387, 121, 165, 152, 180
-0.998387, 133, 151, 164, 166
-0.998388, 89, 377, 120, 392
-0.99839, 177, 1, 208, 256
-0.998392, 113, 395, 144, 410
-0.998398, 245, 149, 260, 180
-0.998399, 257, 209, 288, 224
-0.9984, 117, 347, 148, 362
-0.998402, 205, 273, 220, 304
-0.998403, 117, 367, 148, 382
-0.998404, 117, 227, 148, 242
-0.998405, 233, 141, 264, 156
-0.998407, 109, 233, 140, 248
-0.998408, 149, 137, 180, 152
-0.998408, 129, 343, 160, 358
-0.998409, 261, 97, 292, 352
-0.998409, 117, 373, 148, 388
-0.998411, 279, 209, 294, 240
-0.998413, 117, 353, 148, 368
-0.998414, 109, 361, 140, 376
-0.998414, 137, 161, 200, 224
-0.998415, 157, 211, 188, 226
-0.998417, 261, 217, 276, 248
-0.998419, 129, 221, 160, 236
-0.998421, 73, 375, 104, 390
-0.998429, 1, 369, 375, 432
-0.998435, 129, 261, 256, 292
-0.998435, 93, 177, 124, 192
-0.998435, 223, 153, 238, 184
-0.998436, 237, 109, 268, 124
-0.998438, 85, 211, 116, 226
-0.99844, 81, 235, 112, 250
-0.99844, 117, 389, 148, 404
-0.998441, 225, 155, 256, 170
-0.998441, 153, 405, 168, 436
-0.998442, 81, 199, 112, 214
-0.998442, 125, 359, 156, 374
-0.998444, 109, 381, 140, 396
-0.998449, 81, 81, 144, 144
-0.998451, 129, 213, 160, 228
-0.998455, 183, 133, 198, 164
-0.998455, 187, 373, 202, 404
-0.998457, 87, 377, 102, 408
-0.998458, 145, 293, 272, 324
-0.998458, 81, 227, 144, 242
-0.998462, 233, 147, 264, 162
-0.998463, 109, 377, 124, 408
-0.998468, 85, 187, 116, 202
-0.998468, 117, 1, 148, 128
-0.998469, 119, 197, 134, 228
-0.998472, 141, 217, 172, 232
-0.998473, 193, 237, 320, 268
-0.998474, 225, 161, 256, 176
-0.998477, 105, 195, 136, 210
-0.998478, 289, 205, 304, 236
-0.998478, 113, 213, 240, 244
-0.998485, 81, 197, 144, 212
-0.998485, 113, 193, 128, 224
-0.998496, 159, 189, 174, 220
-0.998505, 81, 205, 112, 220
-0.998508, 167, 193, 182, 224
-0.998509, 81, 203, 144, 218
-0.998509, 81, 213, 144, 228
-0.998511, 129, 317, 256, 348
-0.998512, 137, 329, 152, 360
-0.998513, 121, 349, 136, 380
-0.998514, 225, 57, 352, 88
-0.998515, 129, 241, 256, 272
-0.998516, 201, 225, 232, 480
-0.998518, 81, 221, 144, 236
-0.99852, 189, 145, 204, 176
-0.998524, 81, 223, 112, 238
-0.998526, 83, 225, 98, 256
-0.998529, 251, 201, 266, 232
-0.998529, 81, 193, 112, 208
-0.998531, 103, 213, 118, 244
-0.998533, 77, 389, 92, 420
-0.998534, 65, 17, 192, 48
-0.998536, 119, 161, 134, 192
-0.998536, 161, 257, 192, 384
-0.998536, 57, 257, 88, 500
-0.998537, 81, 341, 96, 372
-0.998537, 177, 257, 304, 288
-0.998542, 73, 233, 136, 248
-0.998543, 81, 185, 144, 200
-0.998545, 81, 379, 144, 394
-0.998548, 145, 257, 176, 500
-0.998549, 245, 101, 260, 132
-0.998555, 159, 133, 174, 164
-0.998557, 145, 137, 208, 152
-0.998557, 269, 205, 284, 236
-0.99856, 193, 153, 256, 168
-0.998561, 137, 353, 152, 384
-0.998563, 201, 165, 264, 180
-0.998568, 73, 191, 136, 206
-0.998569, 219, 241, 234, 272
-0.998571, 257, 209, 320, 224
-0.998573, 97, 229, 128, 244
-0.998573, 65, 413, 192, 444
-0.998574, 127, 189, 142, 220
-0.998574, 151, 213, 166, 244
-0.998576, 177, 97, 208, 352
-0.998576, 143, 217, 158, 248
-0.998578, 193, 159, 256, 174
-0.998579, 201, 171, 264, 186
-0.99858, 85, 229, 116, 244
-0.99858, 111, 173, 126, 204
-0.998581, 145, 1, 272, 32
-0.998582, 81, 339, 144, 354
-0.998586, 115, 393, 130, 424
-0.998586, 195, 153, 210, 184
-0.998588, 25, 409, 88, 472
-0.998591, 165, 133, 180, 164
-0.998591, 121, 359, 184, 374
-0.998591, 1, 81, 375, 144
-0.998593, 81, 333, 144, 348
-0.998595, 229, 157, 244, 188
-0.998596, 209, 101, 272, 116
-0.998598, 105, 229, 168, 244
-0.998601, 49, 179, 112, 194
-0.998602, 75, 197, 90, 228
-0.998603, 41, 191, 104, 206
-0.998604, 121, 343, 184, 358
-0.998605, 185, 141, 248, 156
-0.998606, 225, 147, 288, 162
-0.998606, 159, 409, 174, 440
-0.998606, 137, 143, 200, 158
-0.998607, 81, 325, 144, 340
-0.998607, 209, 111, 272, 126
-0.998607, 185, 147, 248, 162
-0.998608, 81, 345, 144, 360
-0.998609, 129, 377, 375, 440
-0.99861, 249, 203, 312, 218
-0.99861, 217, 153, 280, 168
-0.998612, 247, 181, 262, 212
-0.998612, 209, 181, 272, 196
-0.998616, 137, 381, 200, 396
-0.998617, 77, 361, 92, 392
-0.998617, 149, 289, 180, 416
-0.998618, 41, 215, 104, 230
-0.998618, 105, 223, 168, 238
-0.998621, 97, 363, 160, 378
-0.998621, 121, 333, 184, 348
-0.998621, 139, 365, 154, 396
-0.998622, 41, 229, 104, 244
-0.998623, 161, 333, 288, 364
-0.998623, 121, 195, 184, 210
-0.998623, 129, 149, 192, 164
-0.998623, 57, 197, 120, 212
-0.998624, 241, 191, 304, 206
-0.998625, 121, 217, 184, 232
-0.998628, 213, 257, 228, 288
-0.998628, 257, 215, 320, 230
-0.998629, 81, 389, 144, 404
-0.998629, 241, 119, 304, 134
-0.998629, 241, 183, 304, 198
-0.998629, 169, 103, 232, 118
-0.99863, 81, 179, 144, 194
-0.99863, 109, 237, 124, 268
-0.998632, 249, 197, 312, 212
-0.998634, 105, 235, 168, 250
-0.998634, 113, 211, 176, 226
-0.998635, 241, 173, 304, 188
-0.998635, 41, 203, 104, 218
-0.998635, 93, 161, 108, 288
-0.998636, 113, 391, 176, 406
-0.998636, 241, 127, 304, 142
-0.998636, 121, 159, 184, 174
-0.998636, 279, 181, 294, 212
-0.998637, 137, 373, 200, 388
-0.998637, 89, 243, 152, 258
-0.998638, 65, 369, 128, 384
-0.998642, 193, 47, 256, 62
-0.998643, 209, 139, 272, 154
-0.998644, 83, 201, 98, 232
-0.998646, 97, 401, 160, 416
-0.998647, 33, 365, 96, 380
-0.998648, 209, 95, 272, 110
-0.998648, 1, 401, 256, 464
-0.99865, 169, 97, 232, 112
-0.998651, 191, 53, 206, 84
-0.998653, 73, 357, 136, 372
-0.998653, 189, 121, 204, 152
-0.998654, 89, 255, 152, 270
-0.998654, 201, 131, 264, 146
-0.998654, 225, 211, 288, 226
-0.998654, 41, 209, 104, 224
-0.998655, 89, 249, 152, 264
-0.998655, 81, 173, 144, 188
-0.998655, 89, 269, 152, 284
-0.998655, 199, 285, 214, 316
-0.998655, 97, 167, 160, 182
-0.998656, 153, 131, 216, 146
-0.998656, 329, 161, 360, 416
-0.998656, 129, 203, 192, 218
-0.998657, 33, 351, 96, 366
-0.998657, 33, 359, 96, 374
-0.998658, 193, 65, 256, 80
-0.998661, 41, 185, 104, 200
-0.998661, 105, 375, 168, 390
-0.998662, 41, 373, 104, 388
-0.998662, 57, 223, 120, 238
-0.998662, 177, 77, 192, 108
-0.998663, 225, 217, 288, 232
-0.998664, 105, 383, 168, 398
-0.998664, 169, 381, 232, 396
-0.998664, 241, 133, 304, 148
-0.998665, 49, 235, 112, 250
-0.998667, 89, 261, 152, 276
-0.998667, 233, 105, 296, 120
-0.998667, 97, 351, 160, 366
-0.998667, 137, 387, 200, 402
-0.998668, 121, 353, 184, 368
-0.998668, 217, 161, 232, 192
-0.998669, 41, 161, 72, 416
-0.99867, 217, 205, 280, 220
-0.99867, 209, 237, 272, 252
-0.99867, 73, 363, 136, 378
-0.998672, 121, 189, 184, 204
-0.998675, 201, 125, 264, 140
-0.998676, 57, 279, 120, 294
-0.998676, 169, 109, 232, 124
-0.998677, 145, 13, 272, 44
-0.998677, 217, 119, 280, 134
-0.998678, 73, 351, 136, 366
-0.998679, 233, 139, 296, 154
-0.99868, 177, 389, 240, 404
-0.99868, 137, 393, 200, 408
-0.998681, 121, 411, 184, 426
-0.998683, 49, 171, 112, 186
-0.998683, 267, 185, 282, 216
-0.998683, 81, 275, 144, 290
-0.998683, 33, 197, 96, 212
-0.998684, 225, 231, 288, 246
-0.998684, 257, 221, 320, 236
-0.998684, 49, 381, 112, 396
-0.998684, 177, 129, 240, 144
-0.998685, 217, 159, 280, 174
-0.998686, 73, 395, 136, 410
-0.998686, 209, 89, 272, 104
-0.998687, 121, 325, 184, 340
-0.998687, 81, 319, 144, 334
-0.998688, 97, 407, 160, 422
-0.998688, 81, 307, 144, 322
-0.998688, 121, 365, 184, 380
-0.998688, 145, 215, 208, 230
-0.998691, 145, 405, 272, 436
-0.998691, 97, 369, 160, 384
-0.998692, 81, 313, 144, 328
-0.998692, 177, 381, 192, 412
-0.998693, 97, 159, 160, 174
-0.998693, 225, 199, 288, 214
-0.998693, 249, 113, 312, 128
-0.998696, 169, 55, 232, 70
-0.998699, 229, 133, 244, 164
-0.9987, 133, 33, 164, 288
-0.998704, 77, 213, 92, 244
-0.998706, 133, 225, 148, 256
-0.998707, 295, 205, 310, 236
-0.998709, 137, 377, 152, 408
-0.998714, 115, 213, 130, 244
-0.998714, 137, 341, 152, 372
-0.998714, 185, 57, 200, 88
-0.998715, 101, 189, 116, 220
-0.998716, 93, 377, 108, 408
-0.998718, 257, 249, 320, 312
-0.998718, 209, 353, 272, 416
-0.99872, 161, 177, 192, 304
-0.998726, 121, 225, 152, 480
-0.998727, 261, 185, 276, 216
-0.99873, 193, 45, 320, 76
-0.998732, 235, 129, 250, 160
-0.998734, 277, 197, 292, 228
-0.998734, 183, 77, 198, 108
-0.998737, 87, 161, 102, 288
-0.99874, 281, 161, 312, 416
-0.998741, 187, 357, 202, 388
-0.998748, 95, 189, 110, 220
-0.998749, 265, 417, 328, 480
-0.99875, 267, 221, 282, 252
-0.99875, 313, 161, 344, 416
-0.99875, 177, 317, 304, 348
-0.998752, 105, 161, 120, 288
-0.998762, 151, 201, 166, 232
-0.998769, 129, 281, 256, 312
-0.998775, 255, 213, 270, 244
-0.998779, 175, 109, 190, 140
-0.998783, 87, 333, 102, 364
-0.998784, 189, 161, 220, 416
-0.998784, 121, 181, 136, 212
-0.998786, 113, 417, 240, 480
-0.998814, 97, 53, 224, 84
-0.998835, 217, 305, 280, 368
-0.998836, 1, 389, 128, 420
-0.998836, 313, 289, 344, 416
-0.998846, 97, 37, 224, 68
-0.998862, 99, 161, 114, 288
-0.998862, 161, 345, 288, 376
-0.998869, 345, 65, 375, 320
-0.998872, 249, 193, 280, 448
-0.998887, 293, 161, 324, 416
-0.998895, 127, 145, 142, 272
-0.9989, 225, 221, 352, 252
-0.998907, 97, 33, 128, 288
-0.99892, 1, 29, 128, 60
-0.998925, 93, 225, 108, 352
-0.998936, 117, 145, 132, 272
-0.998962, 49, 93, 176, 124
-0.99897, 345, 33, 375, 160
-0.998978, 97, 401, 352, 464
-0.998982, 145, 129, 160, 256
-0.99899, 135, 129, 150, 256
-0.998996, 151, 129, 166, 256
-0.999014, 189, 257, 220, 500
-0.999015, 85, 209, 100, 336
-0.999017, 177, 65, 192, 192
-0.999017, 1, 305, 128, 336
-0.99903, 65, 5, 192, 36
-0.999031, 131, 321, 146, 448
-0.999041, 153, 1, 184, 256
-0.999049, 241, 1, 272, 256
-0.999053, 81, 321, 96, 448
-0.999056, 1, 409, 128, 440
-0.999057, 249, 145, 264, 272
-0.999058, 41, 257, 72, 500
-0.99907, 111, 161, 126, 288
-0.999071, 225, 25, 352, 56
-0.999078, 187, 49, 202, 176
-0.999081, 225, 277, 352, 308
-0.999096, 161, 1, 192, 128
-0.999101, 289, 65, 352, 192
-0.999103, 261, 193, 292, 448
-0.999105, 243, 129, 258, 256
-0.99913, 73, 97, 104, 352
-0.999136, 237, 129, 252, 256
-0.999139, 161, 357, 288, 388
-0.99914, 241, 329, 368, 392
-0.999155, 33, 105, 160, 136
-0.999159, 345, 161, 375, 416
-0.999161, 159, 113, 174, 240
-0.999164, 257, 177, 272, 304
-0.999188, 277, 97, 308, 224
-0.999189, 233, 65, 248, 192
-0.999192, 129, 305, 256, 336
-0.999193, 121, 33, 152, 288
-0.9992, 229, 145, 244, 272
-0.999222, 99, 225, 114, 352
-0.999224, 253, 97, 268, 224
-0.999237, 113, 177, 240, 208
-0.999238, 129, 1, 375, 64
-0.99925, 241, 337, 304, 464
-0.999257, 243, 65, 258, 192
-0.999262, 87, 305, 102, 432
-0.999264, 79, 193, 94, 320
-0.999276, 29, 257, 60, 500
-0.999285, 309, 65, 340, 320
-0.999293, 103, 353, 118, 480
-0.999301, 193, 49, 208, 176
-0.999302, 93, 353, 108, 480
-0.99931, 125, 337, 140, 464
-0.999312, 57, 97, 88, 352
-0.999319, 179, 113, 194, 240
-0.999322, 215, 161, 230, 288
-0.999323, 165, 113, 180, 240
-0.999328, 207, 97, 222, 224
-0.999329, 121, 193, 136, 320
-0.999339, 223, 145, 238, 272
-0.999349, 161, 257, 192, 500
-0.999351, 85, 33, 116, 288
-0.999352, 79, 273, 94, 400
-0.999354, 293, 65, 324, 320
-0.999356, 109, 65, 140, 192
-0.999362, 279, 177, 294, 304
-0.999366, 281, 65, 312, 320
-0.999375, 75, 337, 90, 464
-0.999376, 225, 65, 240, 192
-0.999382, 133, 209, 148, 336
-0.999386, 273, 161, 288, 288
-0.999387, 333, 65, 364, 320
-0.999388, 223, 209, 238, 336
-0.999389, 137, 321, 152, 448
-0.999395, 185, 129, 200, 256
-0.999398, 105, 209, 120, 336
-0.999401, 293, 161, 308, 288
-0.999404, 113, 417, 240, 448
-0.999408, 109, 353, 124, 480
-0.99941, 127, 241, 142, 368
-0.999415, 263, 177, 278, 304
-0.99942, 17, 421, 144, 452
-0.999424, 87, 257, 102, 384
-0.999426, 215, 81, 230, 208
-0.999431, 171, 81, 186, 208
-0.999434, 93, 289, 108, 416
-0.999436, 215, 225, 230, 352
-0.999441, 1, 9, 128, 40
-0.999442, 281, 337, 344, 464
-0.999446, 187, 337, 202, 464
-0.999449, 251, 193, 266, 320
-0.99945, 87, 369, 102, 496
-0.999451, 177, 225, 304, 256
-0.999464, 285, 193, 300, 320
-0.99947, 287, 145, 302, 272
-0.999474, 117, 305, 132, 432
-0.999475, 123, 289, 138, 416
-0.999477, 199, 81, 214, 208
-0.999478, 125, 97, 140, 224
-0.999479, 109, 1, 140, 256
-0.99948, 151, 369, 166, 496
-0.999483, 241, 13, 368, 44
-0.999486, 101, 113, 116, 240
-0.999487, 119, 353, 134, 480
-0.999489, 207, 17, 222, 144
-0.999489, 115, 209, 130, 336
-0.999491, 151, 321, 166, 448
-0.999498, 145, 321, 160, 448
-0.9995, 233, 17, 248, 144
-0.9995, 245, 17, 260, 144
-0.999504, 201, 17, 216, 144
-0.999509, 281, 129, 296, 256
-0.999511, 173, 257, 204, 500
-0.999515, 151, 81, 166, 208
-0.999517, 355, 129, 370, 256
-0.999519, 215, 17, 230, 144
-0.99952, 111, 113, 126, 240
-0.999523, 259, 129, 274, 256
-0.999524, 187, 375, 202, 390
-0.999525, 165, 309, 180, 324
-0.999525, 99, 211, 114, 226
-0.999525, 157, 135, 172, 150
-0.999525, 219, 255, 234, 270
-0.999529, 119, 211, 134, 226
-0.999529, 233, 137, 248, 152
-0.99953, 91, 323, 106, 338
-0.999531, 251, 109, 266, 124
-0.999531, 141, 335, 156, 350
-0.999531, 207, 161, 222, 288
-0.999532, 311, 159, 326, 174
-0.999533, 123, 159, 138, 174
-0.999533, 159, 411, 174, 426
-0.999533, 255, 193, 270, 208
-0.999533, 197, 289, 212, 304
-0.999535, 253, 199, 268, 214
-0.999535, 129, 333, 144, 348
-0.999536, 137, 361, 152, 376
-0.999536, 205, 277, 220, 292
-0.999537, 109, 403, 124, 418
-0.999537, 241, 151, 256, 166
-0.999539, 253, 123, 268, 138
-0.999539, 269, 215, 284, 230
-0.99954, 285, 199, 300, 214
-0.99954, 99, 377, 114, 392
-0.99954, 259, 207, 274, 222
-0.99954, 223, 17, 238, 144
-0.99954, 77, 365, 92, 380
-0.999541, 105, 377, 120, 392
-0.999541, 109, 171, 124, 186
-0.999541, 101, 203, 116, 218
-0.999541, 279, 215, 294, 230
-0.999542, 85, 343, 100, 358
-0.999542, 257, 187, 272, 202
-0.999542, 79, 231, 94, 246
-0.999542, 279, 193, 294, 208
-0.999543, 269, 221, 284, 236
-0.999543, 181, 337, 196, 464
-0.999544, 197, 281, 212, 296
-0.999544, 179, 125, 194, 140
-0.999544, 121, 221, 136, 236
-0.999545, 105, 305, 120, 432
-0.999545, 157, 191, 172, 206
-0.999545, 177, 305, 304, 336
-0.999545, 133, 225, 148, 240
-0.999545, 139, 81, 154, 208
-0.999545, 243, 143, 258, 158
-0.999547, 259, 201, 274, 216
-0.999547, 205, 283, 220, 298
-0.999547, 289, 209, 304, 224
-0.999548, 179, 133, 194, 148
-0.999549, 105, 409, 120, 424
-0.999549, 79, 211, 94, 226
-0.999549, 151, 137, 166, 152
-0.99955, 111, 397, 126, 412
-0.99955, 179, 119, 194, 134
-0.999551, 245, 107, 260, 122
-0.999551, 107, 197, 122, 212
-0.999551, 183, 139, 198, 154
-0.999551, 249, 131, 264, 146
-0.999551, 189, 133, 204, 148
-0.999551, 179, 17, 194, 144
-0.999554, 117, 229, 132, 244
-0.999554, 127, 393, 142, 408
-0.999555, 141, 221, 156, 236
-0.999555, 127, 193, 142, 320
-0.999557, 207, 241, 222, 368
-0.999558, 279, 199, 294, 214
-0.999559, 141, 213, 156, 228
-0.99956, 91, 379, 106, 394
-0.99956, 143, 177, 158, 304
-0.99956, 83, 197, 98, 212
-0.99956, 113, 235, 128, 250
-0.999562, 153, 409, 168, 424
-0.999562, 239, 111, 254, 126
-0.999564, 295, 211, 310, 226
-0.999564, 85, 207, 100, 222
-0.999565, 77, 379, 92, 394
-0.999566, 115, 169, 130, 184
-0.999566, 115, 389, 130, 404
-0.999566, 73, 257, 88, 384
-0.999569, 133, 375, 148, 390
-0.999569, 99, 305, 114, 432
-0.999571, 129, 157, 144, 172
-0.999572, 89, 235, 104, 250
-0.999572, 247, 181, 262, 196
-0.999572, 155, 211, 170, 226
-0.999572, 185, 381, 200, 396
-0.999572, 187, 1, 202, 128
-0.999573, 139, 145, 154, 160
-0.999573, 85, 185, 100, 200
-0.999574, 271, 209, 286, 336
-0.999574, 121, 365, 136, 380
-0.999574, 297, 113, 312, 240
-0.999576, 91, 179, 106, 194
-0.999577, 171, 129, 186, 256
-0.999578, 113, 195, 128, 210
-0.999579, 95, 113, 110, 240
-0.999579, 211, 103, 226, 118
-0.999581, 165, 207, 180, 222
-0.999582, 241, 167, 256, 182
-0.999585, 123, 199, 138, 214
-0.999585, 321, 65, 352, 320
-0.999586, 243, 137, 258, 152
-0.999587, 147, 219, 162, 234
-0.999588, 209, 377, 336, 408
-0.999589, 81, 369, 96, 496
-0.99959, 121, 349, 136, 364
-0.999592, 299, 161, 314, 288
-0.999593, 177, 95, 192, 110
-0.999594, 83, 217, 98, 232
-0.999594, 345, 113, 360, 240
-0.999594, 129, 387, 144, 402
-0.999595, 127, 221, 142, 236
-0.999597, 145, 141, 160, 156
-0.999597, 131, 369, 146, 496
-0.999597, 115, 381, 130, 396
-0.999597, 209, 357, 336, 388
-0.999598, 33, 69, 160, 100
-0.999598, 201, 273, 216, 400
-0.999599, 233, 155, 248, 170
-0.999599, 237, 161, 252, 176
-0.999599, 225, 235, 240, 250
-0.999601, 125, 213, 140, 228
-0.999603, 307, 161, 322, 288
-0.999604, 105, 223, 120, 238
-0.999606, 135, 333, 150, 348
-0.999606, 123, 375, 138, 390
-0.999607, 33, 81, 160, 112
-0.999608, 125, 229, 140, 244
-0.999611, 193, 97, 208, 224
-0.999611, 153, 209, 168, 336
-0.999611, 85, 113, 100, 240
-0.999612, 193, 321, 208, 448
-0.999614, 131, 339, 146, 354
-0.999615, 161, 213, 176, 228
-0.999616, 217, 321, 248, 448
-0.999617, 241, 1, 368, 32
-0.999617, 339, 129, 354, 256
-0.999617, 135, 211, 150, 226
-0.999617, 121, 391, 136, 406
-0.999617, 89, 213, 104, 228
-0.999621, 267, 129, 282, 256
-0.999622, 127, 207, 142, 222
-0.999625, 111, 229, 126, 244
-0.999626, 97, 175, 112, 190
-0.999627, 251, 49, 266, 176
-0.999628, 49, 65, 112, 192
-0.999629, 133, 149, 148, 164
-0.99963, 131, 369, 146, 384
-0.99963, 91, 185, 106, 200
-0.999631, 247, 175, 262, 190
-0.999631, 129, 273, 375, 336
-0.999632, 129, 381, 144, 396
-0.999632, 95, 233, 110, 248
-0.999634, 229, 149, 244, 164
-0.999635, 157, 353, 172, 480
-0.999635, 195, 1, 210, 128
-0.999635, 139, 273, 154, 400
-0.999638, 161, 305, 176, 432
-0.999639, 201, 161, 216, 288
-0.999644, 85, 191, 100, 206
-0.999648, 227, 155, 242, 170
-0.999648, 25, 161, 56, 416
-0.999649, 253, 1, 284, 256
-0.999649, 93, 221, 108, 236
-0.99965, 111, 305, 126, 432
-0.999651, 117, 97, 132, 224
-0.999651, 163, 65, 178, 192
-0.999652, 193, 417, 320, 448
-0.999652, 129, 361, 144, 376
-0.999652, 361, 161, 375, 288
-0.999656, 195, 145, 210, 272
-0.999657, 45, 257, 60, 384
-0.999661, 133, 219, 148, 234
-0.999664, 145, 81, 160, 208
-0.999666, 155, 217, 170, 232
-0.999667, 237, 145, 252, 160
-0.999667, 133, 81, 148, 208
-0.999671, 239, 17, 254, 144
-0.999676, 313, 145, 328, 272
-0.999676, 79, 145, 94, 272
-0.999677, 123, 385, 138, 400
-0.999677, 241, 225, 256, 352
-0.999679, 131, 355, 146, 370
-0.999681, 169, 33, 184, 160
-0.999683, 183, 289, 198, 416
-0.999684, 131, 345, 146, 360
-0.999692, 101, 229, 116, 244
-0.999705, 87, 227, 102, 242
-0.999715, 241, 37, 368, 68
-0.999725, 229, 225, 260, 480
-0.999735, 33, 57, 160, 88
-0.999769, 297, 193, 328, 320
-0.999947, 57, 49, 88, 176
-0.999994, 305, 353, 368, 480
-0.999998, 245, 273, 276, 400
-1.00001, 37, 1, 68, 256
-1.00005, 1, 177, 64, 304
-1.00012, 37, 49, 68, 176
-1.00014, 73, 1, 104, 256
-1.00014, 9, 225, 40, 480
-1.00015, 193, 377, 320, 440
-1.00017, 313, 17, 375, 144
-1.0002, 325, 257, 356, 384
-1.00021, 325, 305, 356, 432
-1.00021, 265, 49, 296, 176
-1.00022, 157, 161, 188, 416
-1.00022, 213, 257, 244, 500
-1.00024, 53, 1, 84, 256
-1.00033, 29, 193, 60, 320
-1.00035, 313, 257, 344, 500
-1.00041, 129, 425, 375, 488
-1.0005, 265, 1, 296, 256
-1.00057, 229, 305, 260, 432
-1.00057, 13, 273, 44, 400
-1.00058, 13, 1, 44, 256
-1.00059, 325, 257, 356, 500
-1.00066, 141, 241, 172, 368
-1.00068, 1, 57, 375, 120
-1.00073, 313, 353, 344, 480
-1.00074, 37, 321, 68, 448
-1.00076, 5, 129, 36, 384
-1.00076, 25, 65, 56, 320
-1.00078, 1, 425, 256, 488
-1.00079, 1, 1, 32, 256
-1.0008, 301, 257, 332, 500
-1.00091, 345, 257, 375, 500
-1.00094, 13, 321, 44, 448
-1.00095, 333, 65, 364, 192
-1.00095, 57, 97, 88, 224
-1.00098, 53, 321, 84, 448
-1.00099, 289, 257, 320, 500
-1.00105, 1, 273, 32, 400
-1.00105, 277, 257, 308, 500
-1.00108, 225, 257, 288, 500
-1.00113, 209, 369, 240, 496
-1.00124, 1, 425, 375, 488
-1.00133, 257, 273, 288, 400
-1.00142, 1, 33, 375, 96
-1.00146, 337, 257, 368, 384
-1.00153, 53, 1, 84, 128
-1.00156, 197, 369, 228, 496
-1.00159, 73, 1, 136, 128
-1.00161, 97, 1, 128, 128
-1.00195, 1, 1, 375, 64
-1.00199, 73, 65, 136, 192
-1.00229, 193, 433, 320, 496
-1.00284, 289, 257, 352, 500
-1.00301, 249, 257, 312, 500
-1.00372, 313, 257, 375, 500
-1.00638, 289, 17, 352, 144
-1.01015, 265, 1, 328, 128
