1876
-0.284796, 1, 1, 500, 333
-0.332087, 1, 1, 500, 256
-0.384642, 161, 1, 416, 333
-0.470523, 33, 1, 288, 333
-0.558065, 257, 1, 500, 333
-0.612901, 33, 1, 288, 256
-0.623132, 193, 1, 448, 256
-0.849815, 65, 1, 192, 333
-0.855598, 49, 1, 176, 256
-0.860639, 257, 1, 384, 333
-0.862244, 1, 49, 500, 176
-0.877901, 1, 33, 128, 288
-0.880106, 17, 1, 144, 333
-0.882758, 97, 1, 224, 256
-0.883649, 257, 1, 384, 256
-0.884222, 129, 1, 256, 333
-0.885316, 369, 65, 496, 320
-0.890786, 145, 1, 272, 256
-0.894745, 193, 1, 320, 333
-0.900733, 209, 1, 336, 256
-0.900779, 305, 1, 432, 333
-0.905172, 1, 1, 500, 128
-0.907112, 305, 33, 432, 288
-0.908342, 1, 97, 500, 224
-0.911714, 129, 1, 384, 128
-0.913804, 33, 49, 288, 176
-0.919262, 369, 1, 496, 333
-0.919431, 193, 81, 448, 208
-0.921297, 1, 209, 500, 333
-0.926857, 33, 1, 288, 128
-0.928942, 225, 1, 352, 128
-0.931906, 273, 1, 336, 128
-0.932871, 1, 145, 500, 272
-0.935919, 81, 17, 208, 144
-0.935989, 225, 33, 480, 160
-0.936551, 305, 17, 368, 144
-0.936936, 65, 49, 128, 176
-0.937819, 17, 49, 144, 176
-0.939118, 1, 97, 128, 224
-0.9398, 313, 81, 376, 208
-0.943596, 257, 49, 384, 176
-0.944699, 97, 97, 352, 224
-0.945575, 225, 129, 480, 256
-0.946381, 177, 49, 304, 176
-0.946407, 25, 81, 88, 208
-0.947757, 273, 65, 336, 192
-0.949407, 105, 1, 168, 128
-0.949707, 257, 97, 384, 224
-0.952234, 305, 25, 368, 88
-0.953226, 305, 81, 432, 208
-0.953882, 337, 129, 464, 256
-0.954525, 233, 1, 296, 128
-0.955487, 161, 1, 288, 128
-0.955569, 1, 97, 256, 224
-0.955925, 65, 209, 320, 333
-0.956053, 377, 113, 440, 240
-0.956263, 129, 49, 256, 176
-0.956932, 33, 105, 96, 168
-0.957354, 193, 97, 256, 224
-0.95776, 81, 97, 208, 224
-0.958133, 257, 1, 320, 64
-0.958511, 297, 49, 360, 112
-0.958682, 233, 49, 296, 176
-0.958767, 305, 81, 368, 144
-0.95891, 193, 177, 448, 304
-0.958947, 417, 97, 480, 224
-0.958952, 289, 113, 352, 240
-0.959225, 337, 113, 400, 240
-0.959752, 185, 49, 248, 176
-0.960898, 105, 113, 168, 240
-0.961059, 305, 105, 368, 168
-0.961248, 145, 113, 272, 240
-0.961497, 305, 33, 432, 160
-0.961896, 209, 97, 336, 224
-0.962383, 217, 97, 280, 160
-0.962388, 265, 73, 328, 136
-0.963061, 113, 193, 240, 320
-0.963312, 105, 9, 168, 72
-0.963594, 9, 105, 72, 168
-0.964154, 161, 49, 224, 176
-0.964318, 153, 1, 216, 128
-0.964392, 65, 145, 128, 272
-0.964427, 1, 113, 64, 240
-0.964515, 249, 97, 312, 160
-0.965031, 185, 1, 248, 128
-0.965088, 289, 145, 416, 272
-0.965097, 329, 33, 392, 160
-0.965141, 217, 73, 280, 136
-0.965241, 17, 145, 144, 272
-0.965442, 193, 193, 320, 320
-0.965519, 65, 209, 128, 333
-0.966125, 233, 113, 296, 240
-0.966401, 33, 73, 96, 136
-0.966639, 49, 97, 112, 224
-0.966875, 1, 161, 256, 288
-0.967178, 433, 97, 496, 160
-0.96726, 201, 1, 264, 64
-0.967455, 65, 145, 192, 272
-0.967596, 65, 193, 192, 320
-0.967696, 281, 105, 344, 168
-0.967928, 329, 57, 392, 120
-0.968102, 257, 193, 384, 320
-0.968314, 129, 1, 192, 128
-0.968376, 273, 41, 336, 104
-0.968479, 305, 193, 368, 320
-0.968528, 193, 81, 256, 144
-0.968652, 21, 97, 52, 160
-0.968737, 105, 1, 168, 256
-0.969053, 177, 33, 240, 96
-0.969132, 81, 97, 144, 224
-0.969151, 281, 9, 344, 72
-0.969538, 345, 193, 408, 320
-0.969699, 129, 9, 192, 72
-0.969775, 337, 193, 464, 320
-0.969822, 369, 81, 496, 208
-0.970343, 1, 209, 128, 333
-0.970513, 57, 57, 120, 120
-0.970545, 305, 1, 368, 256
-0.970921, 265, 113, 328, 240
-0.970998, 249, 193, 312, 256
-0.971451, 393, 121, 456, 184
-0.971495, 177, 1, 240, 64
-0.971647, 25, 209, 88, 333
-0.971653, 81, 33, 144, 288
-0.97168, 129, 113, 192, 240
-0.971697, 297, 1, 328, 128
-0.971919, 353, 113, 416, 176
-0.971943, 1, 65, 64, 192
-0.972036, 329, 97, 392, 160
-0.972058, 313, 129, 376, 256
-0.972102, 177, 105, 240, 168
-0.972123, 89, 161, 152, 288
-0.972331, 97, 17, 224, 80
-0.972368, 97, 33, 160, 96
-0.97247, 209, 1, 272, 128
-0.972675, 49, 33, 112, 288
-0.972726, 321, 33, 352, 160
-0.972816, 273, 209, 336, 333
-0.973081, 169, 193, 232, 320
-0.97317, 225, 73, 352, 136
-0.97323, 329, 33, 392, 96
-0.973294, 153, 113, 216, 240
-0.973338, 113, 193, 176, 320
-0.973341, 233, 1, 296, 64
-0.973376, 1, 217, 64, 280
-0.973435, 257, 25, 384, 88
-0.97347, 9, 81, 72, 144
-0.973982, 393, 193, 456, 320
-0.974019, 57, 121, 120, 184
-0.97417, 25, 257, 88, 320
-0.974201, 249, 1, 312, 256
-0.974369, 145, 177, 208, 304
-0.974426, 89, 209, 152, 272
-0.974513, 249, 33, 312, 96
-0.974562, 225, 89, 256, 152
-0.974607, 201, 121, 264, 184
-0.974643, 9, 129, 72, 192
-0.974665, 285, 1, 316, 128
-0.974791, 129, 49, 192, 176
-0.974819, 97, 161, 352, 288
-0.97484, 37, 81, 68, 144
-0.974841, 217, 33, 280, 96
-0.974928, 1, 105, 128, 168
-0.975101, 129, 185, 192, 248
-0.975176, 57, 49, 88, 176
-0.975319, 109, 17, 140, 144
-0.975354, 289, 129, 352, 192
-0.975406, 241, 73, 304, 136
-0.975415, 325, 81, 356, 208
-0.975419, 25, 33, 88, 288
-0.975623, 81, 105, 144, 168
-0.975673, 309, 1, 340, 128
-0.975676, 81, 177, 144, 240
-0.975687, 1, 257, 64, 320
-0.975786, 317, 17, 348, 80
-0.976016, 305, 105, 432, 168
-0.976297, 329, 121, 392, 184
-0.97631, 193, 145, 320, 272
-0.976565, 25, 33, 88, 160
-0.976584, 333, 25, 364, 88
-0.976604, 241, 145, 368, 272
-0.976639, 41, 65, 72, 192
-0.976696, 257, 121, 320, 184
-0.976811, 273, 201, 336, 264
-0.976868, 233, 193, 296, 320
-0.9769, 305, 65, 336, 192
-0.97694, 25, 217, 88, 280
-0.976965, 273, 1, 336, 256
-0.977008, 153, 9, 216, 72
-0.977054, 13, 97, 44, 224
-0.977086, 77, 49, 108, 176
-0.977099, 369, 193, 432, 320
-0.977254, 129, 1, 192, 256
-0.977271, 65, 145, 128, 208
-0.977361, 33, 129, 96, 192
-0.977621, 297, 17, 328, 80
-0.977628, 353, 65, 416, 192
-0.977679, 209, 97, 336, 160
-0.977685, 65, 233, 128, 296
-0.977812, 209, 49, 272, 176
-0.977999, 201, 177, 264, 304
-0.978026, 265, 1, 296, 128
-0.978052, 109, 25, 140, 88
-0.978064, 89, 49, 152, 176
-0.978074, 333, 17, 364, 144
-0.978078, 309, 81, 340, 144
-0.978327, 177, 1, 304, 64
-0.978334, 93, 49, 124, 176
-0.97835, 309, 105, 340, 168
-0.978491, 329, 57, 360, 120
-0.978552, 89, 209, 152, 333
-0.978575, 305, 233, 368, 296
-0.978587, 177, 25, 304, 88
-0.978637, 193, 57, 256, 120
-0.978656, 113, 209, 176, 272
-0.978773, 81, 1, 144, 128
-0.978822, 81, 1, 144, 333
-0.978937, 241, 1, 368, 64
-0.978955, 37, 105, 68, 168
-0.979011, 169, 81, 232, 144
-0.979011, 65, 209, 128, 272
-0.979043, 257, 105, 384, 168
-0.979206, 361, 137, 424, 200
-0.979226, 25, 129, 88, 256
-0.979249, 409, 193, 472, 256
-0.979317, 301, 41, 332, 104
-0.979398, 217, 65, 280, 320
-0.979548, 33, 1, 160, 128
-0.979581, 257, 49, 384, 112
-0.979702, 125, 1, 156, 128
-0.97974, 17, 81, 144, 144
-0.979849, 153, 41, 216, 104
-0.979896, 57, 185, 120, 248
-0.979974, 193, 49, 320, 112
-0.980062, 245, 1, 276, 128
-0.980184, 153, 113, 216, 176
-0.980192, 153, 185, 216, 248
-0.980195, 129, 1, 160, 64
-0.980378, 105, 105, 168, 168
-0.980433, 417, 65, 480, 320
-0.980632, 321, 113, 352, 176
-0.980758, 313, 49, 344, 112
-0.980767, 305, 201, 368, 264
-0.980783, 397, 113, 428, 240
-0.980792, 329, 241, 392, 304
-0.980797, 205, 81, 236, 144
-0.980802, 337, 81, 368, 208
-0.98083, 73, 33, 136, 96
-0.980851, 65, 209, 192, 272
-0.980852, 305, 273, 368, 333
-0.980875, 105, 169, 168, 232
-0.98091, 273, 177, 336, 240
-0.980942, 53, 73, 84, 136
-0.981004, 261, 81, 292, 144
-0.981044, 145, 113, 272, 176
-0.981249, 113, 209, 240, 272
-0.981407, 161, 89, 288, 152
-0.981466, 241, 49, 272, 176
-0.98154, 81, 41, 208, 104
-0.981612, 225, 49, 256, 176
-0.981622, 129, 185, 256, 248
-0.98167, 369, 185, 432, 248
-0.981685, 1, 209, 64, 333
-0.981713, 97, 145, 160, 208
-0.981722, 25, 121, 56, 184
-0.981755, 201, 33, 232, 160
-0.981787, 273, 81, 400, 144
-0.981905, 273, 241, 336, 304
-0.981935, 369, 113, 496, 176
-0.9821, 325, 81, 356, 144
-0.982148, 193, 33, 256, 288
-0.98217, 145, 65, 272, 128
-0.982189, 413, 113, 444, 240
-0.98221, 381, 113, 412, 240
-0.982216, 305, 49, 432, 112
-0.982325, 1, 65, 64, 320
-0.982366, 145, 209, 208, 272
-0.982391, 361, 257, 424, 320
-0.982523, 409, 97, 472, 160
-0.98262, 217, 217, 280, 280
-0.982631, 65, 97, 96, 224
-0.982642, 433, 105, 464, 168
-0.982643, 9, 113, 40, 176
-0.982847, 237, 105, 268, 168
-0.982919, 281, 81, 312, 144
-0.982953, 25, 193, 88, 256
-0.982966, 185, 209, 248, 272
-0.982982, 365, 129, 396, 256
-0.983067, 49, 273, 112, 333
-0.983114, 85, 161, 116, 288
-0.983129, 189, 49, 220, 176
-0.98323, 249, 81, 280, 144
-0.983232, 205, 1, 236, 64
-0.98325, 33, 49, 160, 112
-0.983256, 337, 193, 464, 256
-0.98333, 337, 209, 400, 272
-0.983364, 321, 1, 384, 333
-0.983374, 337, 81, 464, 144
-0.983397, 297, 1, 360, 333
-0.983431, 185, 17, 216, 80
-0.983473, 169, 17, 200, 144
-0.983524, 109, 97, 140, 224
-0.983526, 225, 9, 256, 72
-0.983556, 305, 177, 368, 240
-0.983594, 233, 121, 296, 184
-0.983644, 221, 97, 252, 224
-0.983685, 209, 121, 336, 184
-0.9837, 253, 49, 284, 176
-0.983742, 313, 113, 344, 240
-0.983749, 25, 129, 56, 256
-0.983751, 437, 97, 468, 224
-0.983775, 373, 121, 404, 184
-0.983798, 321, 129, 448, 192
-0.983818, 141, 1, 172, 64
-0.98382, 221, 113, 252, 176
-0.983831, 81, 177, 208, 240
-0.98384, 161, 1, 224, 256
-0.983892, 177, 201, 304, 264
-0.98395, 377, 65, 440, 192
-0.983995, 345, 57, 376, 120
-0.984009, 345, 33, 376, 96
-0.984073, 105, 1, 168, 333
-0.984101, 273, 161, 336, 288
-0.984118, 273, 17, 304, 80
-0.984122, 233, 1, 264, 128
-0.984148, 337, 65, 400, 320
-0.984163, 53, 97, 84, 224
-0.984194, 313, 145, 376, 208
-0.984212, 273, 265, 336, 328
-0.984248, 209, 193, 272, 256
-0.984281, 433, 49, 496, 176
-0.98437, 417, 121, 448, 184
-0.984493, 337, 273, 400, 333
-0.98458, 1, 153, 64, 216
-0.984742, 285, 9, 316, 72
-0.984745, 57, 97, 120, 160
-0.984751, 33, 185, 160, 248
-0.984776, 197, 41, 228, 104
-0.984898, 433, 273, 496, 333
-0.984945, 49, 105, 176, 168
-0.984951, 417, 121, 480, 184
-0.984978, 269, 49, 300, 176
-0.98498, 1, 129, 128, 192
-0.98499, 353, 129, 384, 256
-0.985159, 345, 17, 376, 144
-0.985171, 225, 65, 256, 128
-0.985173, 213, 25, 244, 88
-0.985227, 29, 81, 60, 208
-0.985285, 245, 9, 276, 72
-0.985287, 89, 113, 120, 176
-0.985337, 297, 97, 328, 160
-0.985366, 61, 113, 92, 176
-0.985385, 393, 65, 456, 320
-0.985401, 385, 89, 448, 152
-0.985404, 345, 113, 376, 176
-0.985407, 225, 193, 352, 256
-0.985431, 457, 97, 488, 224
-0.98546, 337, 273, 464, 333
-0.985466, 1, 193, 64, 256
-0.985482, 57, 1, 120, 333
-0.985557, 333, 113, 364, 176
-0.985595, 1, 257, 128, 320
-0.985629, 417, 209, 480, 333
-0.985708, 241, 241, 304, 304
-0.985723, 357, 25, 388, 88
-0.985735, 313, 1, 376, 64
-0.985761, 393, 273, 456, 333
-0.985762, 285, 49, 316, 112
-0.985807, 285, 49, 316, 176
-0.98588, 209, 113, 240, 176
-0.985904, 349, 65, 380, 192
-0.985918, 249, 217, 312, 280
-0.98595, 213, 49, 244, 176
-0.98595, 97, 161, 128, 288
-0.986065, 453, 97, 484, 160
-0.986121, 273, 137, 400, 200
-0.986147, 345, 177, 408, 240
-0.986189, 189, 73, 220, 136
-0.986215, 97, 89, 224, 152
-0.986219, 337, 217, 464, 280
-0.986227, 213, 1, 244, 128
-0.986296, 273, 1, 336, 333
-0.986303, 289, 185, 416, 248
-0.986328, 85, 185, 116, 248
-0.986493, 337, 81, 368, 144
-0.986504, 1, 161, 64, 288
-0.986512, 145, 89, 208, 152
-0.986521, 185, 241, 248, 304
-0.986522, 397, 121, 428, 184
-0.986533, 433, 201, 496, 264
-0.986555, 41, 153, 104, 216
-0.986558, 385, 137, 416, 200
-0.986599, 233, 97, 264, 224
-0.986647, 369, 169, 496, 232
-0.986714, 337, 249, 464, 312
-0.986749, 129, 113, 160, 240
-0.986757, 257, 25, 288, 88
-0.986814, 241, 1, 304, 333
-0.986818, 401, 233, 464, 296
-0.986843, 137, 1, 200, 333
-0.986922, 269, 49, 300, 112
-0.986942, 469, 97, 500, 224
-0.986943, 49, 241, 176, 304
-0.986948, 201, 1, 264, 333
-0.986951, 369, 161, 432, 224
-0.98696, 173, 33, 204, 96
-0.986961, 49, 1, 112, 128
-0.986999, 85, 97, 116, 224
-0.987007, 129, 129, 192, 192
-0.987031, 305, 25, 432, 88
-0.987043, 361, 233, 424, 296
-0.987096, 49, 105, 80, 168
-0.98711, 425, 97, 456, 224
-0.987125, 297, 113, 328, 240
-0.987132, 73, 57, 104, 120
-0.987132, 61, 241, 92, 304
-0.987192, 385, 185, 416, 248
-0.987196, 133, 209, 164, 272
-0.987219, 73, 145, 104, 272
-0.987268, 337, 129, 368, 256
-0.987295, 81, 129, 208, 192
-0.987302, 261, 97, 292, 224
-0.987304, 465, 97, 496, 160
-0.987409, 49, 9, 176, 72
-0.98742, 177, 65, 208, 192
-0.987557, 209, 257, 272, 320
-0.987569, 1, 209, 32, 333
-0.987597, 177, 177, 240, 240
-0.987627, 17, 265, 48, 328
-0.987653, 289, 241, 416, 304
-0.987656, 185, 49, 216, 112
-0.987668, 105, 105, 136, 168
-0.987779, 153, 113, 184, 240
-0.987832, 425, 249, 488, 312
-0.987859, 249, 105, 280, 168
-0.987868, 217, 169, 280, 232
-0.987914, 161, 1, 224, 333
-0.987921, 273, 273, 400, 333
-0.987937, 73, 209, 104, 333
-0.987955, 249, 169, 312, 232
-0.988014, 337, 145, 400, 208
-0.988025, 101, 209, 132, 272
-0.988025, 273, 161, 400, 224
-0.988064, 177, 177, 304, 240
-0.98814, 237, 65, 268, 128
-0.98818, 77, 225, 108, 288
-0.988203, 213, 49, 244, 112
-0.988209, 261, 185, 292, 248
-0.988247, 353, 137, 384, 200
-0.988269, 73, 145, 104, 208
-0.988284, 361, 65, 424, 320
-0.988288, 33, 1, 96, 333
-0.988336, 29, 217, 60, 280
-0.988392, 25, 209, 56, 333
-0.988406, 257, 49, 288, 112
-0.98842, 137, 1, 168, 128
-0.988435, 249, 273, 312, 333
-0.988469, 201, 193, 232, 320
-0.98851, 181, 1, 212, 128
-0.98851, 1, 153, 128, 216
-0.988532, 33, 265, 64, 328
-0.988581, 345, 1, 408, 333
-0.988599, 357, 113, 388, 176
-0.988601, 97, 41, 128, 104
-0.988614, 1, 209, 128, 272
-0.988642, 285, 105, 316, 168
-0.98871, 89, 241, 152, 304
-0.988726, 321, 161, 448, 224
-0.988736, 1, 113, 32, 240
-0.988745, 65, 153, 192, 216
-0.988765, 129, 161, 192, 224
-0.988786, 337, 193, 368, 320
-0.988797, 129, 41, 256, 104
-0.988831, 305, 129, 336, 192
-0.988836, 17, 105, 80, 136
-0.988844, 297, 73, 328, 136
-0.988877, 449, 193, 480, 256
-0.988889, 129, 33, 192, 96
-0.988941, 317, 137, 348, 200
-0.988997, 261, 105, 292, 168
-0.989131, 273, 97, 304, 224
-0.989149, 353, 41, 416, 104
-0.989159, 177, 145, 240, 272
-0.989178, 97, 233, 224, 296
-0.989179, 229, 33, 260, 96
-0.989179, 97, 1, 352, 64
-0.989181, 265, 177, 296, 304
-0.989195, 305, 105, 368, 136
-0.989217, 177, 225, 304, 288
-0.989245, 385, 113, 416, 176
-0.989279, 353, 193, 384, 320
-0.989361, 33, 117, 96, 148
-0.989368, 409, 169, 472, 232
-0.989378, 361, 209, 424, 272
-0.989393, 145, 65, 208, 128
-0.989496, 145, 201, 176, 264
-0.98954, 85, 145, 116, 208
-0.989602, 41, 113, 72, 240
-0.989627, 117, 161, 148, 288
-0.989629, 305, 117, 368, 148
-0.98963, 249, 105, 312, 136
-0.989645, 73, 201, 104, 264
-0.98967, 77, 105, 108, 168
-0.989679, 325, 129, 356, 256
-0.989706, 353, 121, 416, 152
-0.98972, 433, 105, 496, 136
-0.989726, 337, 233, 368, 296
-0.989792, 245, 129, 276, 256
-0.989817, 273, 105, 304, 168
-0.989856, 285, 209, 316, 333
-0.989863, 153, 233, 216, 296
-0.989882, 409, 185, 472, 216
-0.989896, 245, 201, 276, 264
-0.989908, 97, 169, 128, 232
-0.98991, 225, 105, 288, 136
-0.989925, 197, 105, 228, 168
-0.989973, 273, 113, 336, 144
-0.990031, 369, 137, 496, 200
-0.990049, 273, 185, 304, 248
-0.990093, 109, 177, 140, 240
-0.990095, 101, 145, 132, 208
-0.990095, 89, 209, 120, 272
-0.990148, 433, 161, 496, 288
-0.990162, 353, 89, 416, 152
-0.990169, 105, 29, 168, 60
-0.990197, 265, 13, 328, 44
-0.990198, 305, 177, 336, 304
-0.99021, 1, 117, 64, 148
-0.990215, 273, 153, 336, 216
-0.990225, 433, 161, 496, 224
-0.99023, 193, 81, 256, 112
-0.990277, 361, 189, 424, 220
-0.990288, 209, 113, 240, 240
-0.990289, 353, 33, 480, 160
-0.99029, 201, 97, 264, 128
-0.990292, 65, 9, 128, 72
-0.990308, 261, 1, 292, 64
-0.990352, 129, 9, 192, 40
-0.990432, 305, 29, 368, 60
-0.990454, 97, 113, 128, 240
-0.990456, 393, 257, 424, 320
-0.990488, 329, 121, 392, 152
-0.990491, 93, 209, 124, 333
-0.99054, 177, 73, 208, 136
-0.990544, 409, 49, 472, 176
-0.99058, 429, 177, 460, 240
-0.990586, 273, 97, 336, 128
-0.990589, 225, 217, 352, 280
-0.990609, 413, 193, 444, 256
-0.990638, 17, 193, 48, 256
-0.99064, 349, 249, 380, 312
-0.99065, 129, 185, 160, 248
-0.990677, 185, 69, 248, 100
-0.990678, 105, 17, 168, 48
-0.990697, 145, 193, 208, 224
-0.990698, 177, 109, 240, 140
-0.9907, 225, 193, 256, 320
-0.990717, 197, 209, 228, 272
-0.990728, 385, 185, 448, 216
-0.990766, 57, 61, 120, 92
-0.990779, 165, 113, 196, 240
-0.990793, 241, 93, 304, 124
-0.990798, 233, 77, 296, 108
-0.990802, 33, 133, 96, 164
-0.990811, 381, 193, 412, 320
-0.990812, 281, 49, 344, 80
-0.990818, 257, 57, 320, 88
-0.990831, 193, 53, 256, 84
-0.990846, 313, 45, 376, 76
-0.990856, 161, 25, 416, 88
-0.990883, 73, 121, 136, 152
-0.990887, 401, 145, 464, 272
-0.99089, 41, 193, 72, 320
-0.990898, 285, 97, 316, 224
-0.990918, 217, 65, 280, 96
-0.990935, 137, 21, 200, 52
-0.990942, 241, 249, 368, 312
-0.990949, 129, 233, 192, 296
-0.990951, 17, 301, 80, 332
-0.990951, 305, 81, 368, 112
-0.990952, 161, 41, 224, 72
-0.990992, 169, 1, 232, 32
-0.991026, 217, 117, 280, 148
-0.991034, 61, 161, 92, 288
-0.991059, 429, 201, 460, 264
-0.991063, 113, 189, 176, 220
-0.991067, 81, 201, 144, 232
-0.991077, 169, 193, 232, 224
-0.991093, 49, 273, 80, 333
-0.991111, 201, 1, 264, 32
-0.991122, 225, 1, 288, 32
-0.991138, 385, 125, 448, 156
-0.991161, 233, 17, 296, 48
-0.991169, 249, 193, 312, 224
-0.991183, 273, 209, 400, 272
-0.991183, 5, 265, 36, 328
-0.991202, 281, 85, 344, 116
-0.991212, 265, 29, 328, 60
-0.99122, 385, 209, 448, 272
-0.991222, 337, 209, 368, 272
-0.991222, 321, 61, 384, 92
-0.991223, 177, 93, 240, 124
-0.991234, 245, 41, 276, 104
-0.991242, 249, 117, 312, 148
-0.991244, 217, 33, 280, 64
-0.991247, 241, 37, 304, 68
-0.991248, 33, 93, 96, 124
-0.991253, 153, 177, 184, 240
-0.991274, 97, 41, 160, 72
-0.991284, 397, 201, 428, 264
-0.991303, 1, 41, 500, 104
-0.991311, 273, 69, 336, 100
-0.991315, 17, 217, 48, 280
-0.991336, 393, 113, 456, 144
-0.991342, 81, 181, 144, 212
-0.991349, 273, 125, 336, 156
-0.991361, 329, 133, 392, 164
-0.991382, 281, 161, 312, 288
-0.991383, 1, 73, 256, 136
-0.991392, 289, 201, 320, 264
-0.991396, 181, 105, 212, 168
-0.991396, 301, 201, 332, 264
-0.991407, 193, 97, 448, 160
-0.991423, 329, 109, 392, 140
-0.991425, 305, 249, 336, 312
-0.991453, 121, 209, 184, 240
-0.991466, 57, 245, 120, 276
-0.991471, 329, 137, 360, 200
-0.99149, 65, 33, 320, 96
-0.991505, 305, 133, 368, 164
-0.991514, 161, 29, 224, 60
-0.991523, 153, 57, 216, 88
-0.991525, 201, 189, 264, 220
-0.991527, 193, 21, 256, 52
-0.991527, 141, 177, 172, 304
-0.991528, 73, 133, 136, 164
-0.991528, 57, 189, 120, 220
-0.991535, 349, 273, 380, 333
-0.991545, 209, 209, 240, 272
-0.991576, 105, 209, 136, 333
-0.991578, 305, 93, 368, 124
-0.99158, 13, 193, 44, 320
-0.991587, 313, 269, 376, 300
-0.991595, 5, 193, 36, 256
-0.991597, 57, 301, 120, 332
-0.991601, 209, 201, 272, 232
-0.991611, 305, 17, 368, 48
-0.991615, 9, 93, 72, 124
-0.991622, 161, 65, 416, 128
-0.991624, 305, 225, 368, 256
-0.991626, 141, 129, 172, 256
-0.991639, 1, 217, 64, 248
-0.991671, 305, 241, 368, 272
-0.991674, 325, 249, 356, 312
-0.991675, 213, 193, 244, 320
-0.991705, 9, 129, 72, 160
-0.991737, 409, 125, 472, 156
-0.991738, 233, 53, 296, 84
-0.991751, 33, 81, 96, 112
-0.991763, 161, 69, 224, 100
-0.991784, 289, 265, 320, 328
-0.991788, 17, 253, 80, 284
-0.991792, 13, 49, 44, 176
-0.9918, 73, 109, 136, 140
-0.991809, 321, 189, 384, 220
-0.991838, 289, 257, 352, 288
-0.991839, 225, 169, 352, 232
-0.991841, 185, 209, 248, 240
-0.991848, 353, 273, 416, 304
-0.99185, 297, 61, 360, 92
-0.99188, 361, 133, 424, 164
-0.991897, 81, 53, 144, 84
-0.991923, 385, 173, 448, 204
-0.991934, 97, 221, 160, 252
-0.991944, 409, 173, 472, 204
-0.991944, 1, 9, 128, 72
-0.991951, 1, 205, 64, 236
-0.991955, 257, 1, 320, 32
-0.991956, 9, 141, 72, 172
-0.991958, 161, 153, 288, 216
-0.991966, 329, 97, 392, 128
-0.991984, 273, 237, 336, 268
-0.991985, 373, 185, 404, 248
-0.991986, 33, 201, 96, 232
-0.991989, 161, 161, 192, 288
-0.991993, 353, 173, 416, 204
-0.991995, 49, 289, 112, 320
-0.991996, 161, 205, 224, 236
-0.992003, 57, 233, 120, 264
-0.992007, 329, 241, 392, 272
-0.992009, 193, 33, 256, 64
-0.992009, 369, 201, 432, 232
-0.99201, 65, 37, 128, 68
-0.992018, 105, 177, 168, 208
-0.992021, 17, 281, 80, 312
-0.992023, 41, 105, 104, 136
-0.992026, 161, 17, 224, 48
-0.99203, 433, 185, 496, 216
-0.992033, 13, 137, 44, 200
-0.992036, 409, 193, 440, 320
-0.99205, 353, 109, 416, 140
-0.99206, 273, 209, 336, 240
-0.992068, 253, 193, 284, 320
-0.992091, 345, 209, 408, 240
-0.992109, 377, 257, 440, 288
-0.992121, 225, 189, 288, 220
-0.992128, 305, 201, 368, 232
-0.992154, 169, 181, 232, 212
-0.992156, 329, 33, 392, 64
-0.992158, 81, 169, 144, 200
-0.992179, 273, 193, 336, 224
-0.992181, 337, 221, 400, 252
-0.992182, 177, 237, 240, 268
-0.992194, 365, 81, 396, 208
-0.99222, 345, 9, 376, 72
-0.992293, 97, 97, 352, 160
-0.992355, 321, 1, 448, 64
-0.992387, 225, 273, 352, 333
-0.992388, 365, 193, 396, 320
-0.992446, 1, 89, 500, 152
-0.992484, 133, 9, 164, 40
-0.992507, 1, 17, 500, 80
-0.992519, 13, 105, 44, 136
-0.992551, 205, 85, 236, 116
-0.992598, 225, 105, 256, 136
-0.992602, 21, 117, 52, 148
-0.992604, 37, 105, 68, 136
-0.992617, 129, 121, 384, 184
-0.992645, 389, 185, 420, 216
-0.992647, 121, 17, 152, 48
-0.992653, 17, 285, 48, 316
-0.992662, 173, 177, 204, 304
-0.992674, 9, 121, 40, 152
-0.992684, 253, 105, 284, 136
-0.992684, 353, 117, 384, 148
-0.992686, 225, 85, 256, 116
-0.992691, 273, 93, 304, 124
-0.992715, 273, 57, 304, 88
-0.992721, 437, 105, 468, 136
-0.992737, 321, 117, 352, 148
-0.99275, 273, 105, 304, 136
-0.992767, 25, 297, 56, 328
-0.992794, 29, 129, 60, 160
-0.992796, 405, 193, 436, 224
-0.992806, 417, 125, 448, 156
-0.992807, 333, 29, 364, 60
-0.992807, 405, 181, 436, 212
-0.992809, 249, 65, 280, 96
-0.99281, 209, 97, 240, 128
-0.99282, 417, 185, 448, 216
-0.992837, 25, 93, 56, 124
-0.992838, 233, 73, 264, 104
-0.992846, 197, 105, 228, 136
-0.992849, 337, 85, 368, 116
-0.992865, 85, 189, 116, 220
-0.992869, 5, 285, 36, 316
-0.992872, 445, 185, 476, 216
-0.992882, 113, 33, 144, 64
-0.992884, 1, 233, 128, 296
-0.992889, 245, 85, 276, 116
-0.992892, 37, 297, 68, 328
-0.992893, 285, 85, 316, 116
-0.992894, 377, 185, 408, 216
-0.9929, 309, 109, 340, 140
-0.992903, 377, 125, 408, 156
-0.992909, 229, 117, 260, 148
-0.992915, 213, 73, 244, 104
-0.992916, 161, 189, 192, 220
-0.992923, 193, 69, 224, 100
-0.992929, 289, 45, 320, 76
-0.992934, 297, 17, 328, 48
-0.992934, 37, 89, 68, 120
-0.992935, 257, 49, 288, 80
-0.992938, 397, 133, 428, 164
-0.992939, 313, 21, 344, 52
-0.99294, 261, 93, 292, 124
-0.992942, 341, 113, 372, 144
-0.992951, 257, 37, 288, 68
-0.992964, 241, 113, 272, 144
-0.99297, 177, 257, 304, 320
-0.992973, 185, 25, 216, 56
-0.992976, 293, 73, 324, 104
-0.992976, 189, 93, 220, 124
-0.992978, 325, 105, 356, 136
-0.992978, 101, 181, 132, 212
-0.992979, 53, 209, 84, 333
-0.992983, 197, 37, 228, 68
-0.992984, 309, 81, 340, 112
-0.99299, 429, 189, 460, 220
-0.992992, 365, 121, 396, 152
-0.992992, 249, 25, 280, 56
-0.992998, 285, 105, 316, 136
-0.993002, 241, 37, 272, 68
-0.993007, 417, 1, 480, 333
-0.99301, 197, 53, 228, 84
-0.993014, 345, 101, 376, 132
-0.993015, 1, 201, 32, 232
-0.993025, 137, 21, 168, 52
-0.993028, 73, 61, 104, 92
-0.993033, 345, 45, 376, 76
-0.993039, 209, 109, 240, 140
-0.993047, 229, 1, 260, 32
-0.993049, 89, 57, 120, 88
-0.993049, 269, 29, 300, 60
-0.99305, 45, 117, 76, 148
-0.993053, 389, 117, 420, 148
-0.993054, 57, 113, 88, 144
-0.993057, 309, 69, 340, 100
-0.99306, 309, 41, 340, 72
-0.993062, 217, 45, 248, 76
-0.993063, 133, 209, 164, 240
-0.993066, 233, 17, 264, 48
-0.99307, 197, 209, 228, 240
-0.993074, 261, 17, 292, 48
-0.993076, 25, 105, 56, 136
-0.993082, 341, 125, 372, 156
-0.993084, 149, 193, 180, 224
-0.993084, 261, 189, 292, 220
-0.993088, 281, 17, 312, 48
-0.993102, 325, 49, 356, 80
-0.993102, 49, 73, 80, 104
-0.993106, 105, 201, 136, 232
-0.993113, 321, 65, 352, 96
-0.993114, 265, 117, 296, 148
-0.993115, 337, 245, 368, 276
-0.993117, 245, 1, 276, 32
-0.993117, 61, 65, 92, 96
-0.993121, 121, 193, 152, 224
-0.993124, 469, 101, 500, 132
-0.993124, 109, 21, 140, 52
-0.993125, 65, 133, 96, 164
-0.993126, 325, 81, 356, 112
-0.993126, 145, 1, 176, 32
-0.993126, 305, 121, 336, 152
-0.99313, 309, 133, 340, 164
-0.99313, 237, 97, 268, 128
-0.993132, 149, 33, 180, 160
-0.993132, 237, 61, 268, 92
-0.993133, 269, 45, 300, 76
-0.993133, 81, 125, 112, 156
-0.993135, 113, 177, 144, 208
-0.99314, 365, 189, 396, 220
-0.993141, 357, 137, 388, 168
-0.993144, 321, 37, 352, 68
-0.993149, 393, 173, 424, 204
-0.993151, 261, 81, 292, 112
-0.993151, 217, 121, 248, 152
-0.993152, 357, 45, 388, 76
-0.993153, 209, 193, 240, 224
-0.993154, 349, 185, 380, 216
-0.993164, 241, 205, 272, 236
-0.993165, 17, 213, 48, 244
-0.99317, 289, 57, 320, 88
-0.993173, 205, 1, 236, 32
-0.993175, 373, 137, 404, 168
-0.993175, 325, 233, 356, 264
-0.993176, 457, 101, 488, 132
-0.993182, 337, 61, 368, 92
-0.993198, 393, 177, 424, 304
-0.993199, 113, 153, 240, 216
-0.993324, 237, 177, 268, 304
-0.993382, 385, 1, 448, 333
-0.993388, 317, 209, 348, 333
-0.993525, 289, 121, 416, 152
-0.993533, 29, 97, 44, 160
-0.99381, 225, 69, 352, 100
-0.993927, 1, 65, 500, 128
-0.993947, 257, 121, 500, 184
-0.994025, 353, 25, 480, 88
-0.994079, 121, 209, 152, 333
-0.994086, 1, 201, 256, 264
-0.9941, 465, 49, 496, 176
-0.994118, 177, 69, 304, 100
-0.994163, 257, 49, 384, 80
-0.994166, 257, 33, 384, 64
-0.994181, 1, 109, 128, 140
-0.994188, 33, 233, 288, 296
-0.994198, 97, 21, 224, 52
-0.994237, 413, 65, 444, 192
-0.994262, 129, 265, 256, 328
-0.994276, 209, 105, 336, 136
-0.994281, 89, 1, 120, 128
-0.994298, 317, 41, 332, 104
-0.994318, 23, 97, 38, 160
-0.994346, 307, 17, 322, 80
-0.99445, 29, 33, 60, 160
-0.994553, 189, 97, 220, 224
-0.994565, 221, 145, 252, 272
-0.994571, 97, 37, 224, 68
-0.994594, 1, 185, 500, 248
-0.994654, 177, 113, 208, 240
-0.994701, 309, 97, 324, 160
-0.994707, 141, 1, 156, 64
-0.994713, 257, 89, 384, 120
-0.994726, 325, 113, 340, 176
-0.994737, 113, 25, 128, 88
-0.99476, 49, 81, 64, 144
-0.994775, 1, 121, 500, 184
-0.994811, 249, 105, 264, 168
-0.994816, 113, 193, 240, 224
-0.994871, 9, 1, 72, 333
-0.994872, 225, 89, 240, 152
-0.994894, 35, 97, 50, 160
-0.994916, 377, 65, 408, 192
-0.994951, 273, 61, 400, 92
-0.994975, 209, 57, 336, 88
-0.994982, 357, 17, 388, 144
-0.994997, 257, 105, 384, 136
-0.995002, 165, 65, 196, 192
-0.995013, 239, 89, 254, 152
-0.995028, 257, 21, 384, 52
-0.995034, 397, 65, 428, 192
-0.995039, 369, 185, 496, 216
-0.995079, 321, 17, 336, 80
-0.995101, 225, 257, 480, 320
-0.995106, 317, 81, 332, 144
-0.995169, 113, 205, 240, 236
-0.995177, 121, 65, 152, 192
-0.995179, 321, 189, 448, 220
-0.995254, 57, 73, 72, 136
-0.995257, 17, 105, 32, 168
-0.995271, 437, 209, 468, 333
-0.995283, 43, 81, 58, 144
-0.995293, 337, 17, 352, 80
-0.9953, 327, 17, 342, 80
-0.995302, 113, 1, 144, 256
-0.995309, 1, 105, 256, 168
-0.995321, 331, 57, 346, 120
-0.995326, 269, 81, 284, 144
-0.995331, 337, 113, 464, 144
-0.995331, 209, 117, 336, 148
-0.995404, 257, 73, 500, 136
-0.995435, 339, 57, 354, 120
-0.995442, 1, 161, 32, 288
-0.995445, 49, 273, 176, 333
-0.995468, 1, 125, 128, 156
-0.995484, 347, 25, 362, 88
-0.995507, 73, 113, 88, 176
-0.995511, 193, 93, 320, 124
-0.995522, 257, 25, 500, 88
-0.995532, 209, 41, 224, 104
-0.995537, 337, 97, 464, 128
-0.995541, 323, 81, 338, 144
-0.995542, 233, 81, 248, 144
-0.995567, 177, 37, 304, 68
-0.995596, 255, 89, 270, 152
-0.995601, 453, 49, 484, 176
-0.995623, 65, 185, 192, 216
-0.995624, 313, 17, 328, 80
-0.995626, 193, 1, 448, 64
-0.995628, 161, 209, 192, 333
-0.995633, 225, 145, 352, 208
-0.995635, 125, 17, 140, 80
-0.995644, 301, 9, 316, 72
-0.995648, 161, 109, 288, 140
-0.995662, 1, 97, 128, 128
-0.995678, 319, 113, 334, 176
-0.995684, 161, 201, 416, 264
-0.995685, 73, 1, 104, 128
-0.995685, 129, 161, 160, 288
-0.995699, 33, 177, 288, 240
-0.995699, 193, 233, 448, 296
-0.995704, 65, 205, 192, 236
-0.99572, 277, 81, 292, 144
-0.99573, 337, 125, 464, 156
-0.995737, 307, 41, 322, 104
-0.995764, 23, 121, 38, 184
-0.995773, 199, 73, 214, 136
-0.995797, 189, 177, 220, 304
-0.995797, 1, 9, 256, 72
-0.995841, 131, 9, 146, 72
-0.995841, 439, 105, 454, 168
-0.995857, 219, 73, 234, 136
-0.995875, 331, 113, 346, 176
-0.995888, 335, 81, 350, 144
-0.995939, 219, 49, 234, 112
-0.995965, 209, 5, 336, 36
-0.995971, 291, 17, 306, 80
-0.995973, 113, 9, 240, 40
-0.996019, 295, 57, 310, 120
-0.996027, 193, 189, 320, 220
-0.996051, 81, 65, 208, 128
-0.996055, 359, 25, 374, 88
-0.996074, 281, 57, 296, 120
-0.996087, 323, 41, 338, 104
-0.996103, 329, 81, 344, 144
-0.996105, 105, 41, 120, 104
-0.99613, 17, 289, 144, 320
-0.99613, 243, 65, 258, 128
-0.996161, 277, 1, 292, 64
-0.996181, 345, 57, 360, 120
-0.996181, 243, 113, 258, 176
-0.996183, 177, 17, 304, 48
-0.996194, 49, 113, 176, 144
-0.9962, 223, 1, 238, 64
-0.99621, 67, 65, 82, 128
-0.996215, 359, 113, 374, 176
-0.996215, 261, 65, 276, 128
-0.996225, 225, 177, 480, 240
-0.996226, 293, 161, 324, 288
-0.996248, 145, 97, 272, 128
-0.996248, 205, 65, 220, 128
-0.996255, 145, 49, 272, 80
-0.996261, 81, 49, 208, 80
-0.996291, 217, 1, 232, 64
-0.996293, 35, 121, 50, 184
-0.996296, 211, 89, 226, 152
-0.996302, 1, 225, 500, 288
-0.996327, 81, 33, 112, 288
-0.996327, 353, 17, 416, 144
-0.996329, 219, 105, 234, 168
-0.996337, 33, 129, 288, 192
-0.996343, 271, 49, 286, 112
-0.996347, 101, 1, 132, 256
-0.996354, 475, 97, 490, 160
-0.99637, 181, 41, 196, 104
-0.996372, 17, 201, 144, 232
-0.996375, 301, 105, 316, 168
-0.996392, 241, 9, 256, 72
-0.996399, 141, 81, 172, 208
-0.996406, 459, 97, 474, 160
-0.996407, 19, 265, 34, 328
-0.99641, 177, 209, 304, 240
-0.996416, 229, 25, 244, 88
-0.996434, 425, 121, 440, 184
-0.996436, 235, 49, 250, 112
-0.996438, 225, 113, 240, 176
-0.996444, 285, 81, 300, 144
-0.996444, 67, 113, 82, 176
-0.996445, 77, 57, 92, 120
-0.996454, 241, 33, 256, 96
-0.996456, 191, 1, 206, 64
-0.996459, 251, 1, 266, 64
-0.996462, 197, 41, 212, 104
-0.996473, 267, 105, 282, 168
-0.996496, 337, 113, 352, 176
-0.996501, 145, 121, 272, 152
-0.996508, 119, 17, 134, 80
-0.996524, 25, 209, 40, 272
-0.996531, 259, 33, 274, 96
-0.996545, 419, 121, 434, 184
-0.996575, 413, 121, 428, 184
-0.996579, 391, 113, 406, 176
-0.996593, 353, 33, 368, 96
-0.996597, 285, 9, 300, 72
-0.996598, 149, 9, 164, 72
-0.996603, 485, 97, 500, 160
-0.996604, 229, 1, 244, 64
-0.996607, 231, 105, 246, 168
-0.996616, 229, 57, 244, 120
-0.996627, 301, 41, 316, 104
-0.996636, 43, 105, 58, 168
-0.996647, 365, 113, 380, 176
-0.996666, 135, 185, 150, 248
-0.996671, 249, 81, 264, 144
-0.996675, 469, 193, 500, 320
-0.996693, 263, 1, 278, 64
-0.996705, 57, 33, 88, 288
-0.996705, 145, 201, 160, 264
-0.996712, 161, 81, 288, 112
-0.996718, 17, 85, 144, 116
-0.996723, 1, 257, 256, 320
-0.99673, 275, 185, 290, 248
-0.996748, 29, 121, 44, 184
-0.996751, 307, 73, 322, 136
-0.996755, 71, 241, 86, 304
-0.996758, 49, 61, 176, 92
-0.996762, 305, 49, 432, 80
-0.996762, 343, 81, 358, 144
-0.996764, 189, 73, 204, 136
-0.99677, 453, 97, 468, 160
-0.996772, 203, 1, 218, 64
-0.996786, 235, 9, 250, 72
-0.9968, 1, 137, 128, 168
-0.996805, 429, 145, 460, 272
-0.996826, 125, 1, 156, 256
-0.996857, 441, 49, 472, 176
-0.996857, 313, 121, 328, 184
-0.996864, 351, 57, 366, 120
-0.996867, 381, 121, 396, 184
-0.99688, 401, 113, 416, 176
-0.996888, 407, 193, 422, 256
-0.996897, 19, 201, 34, 264
-0.9969, 241, 189, 368, 220
-0.996902, 289, 41, 304, 104
-0.996904, 363, 137, 378, 200
-0.996904, 17, 65, 48, 320
-0.996919, 113, 217, 240, 248
-0.99693, 97, 273, 352, 333
-0.996937, 421, 193, 436, 256
-0.996947, 253, 25, 268, 88
-0.996953, 299, 81, 314, 144
-0.996954, 209, 81, 336, 112
-0.996957, 203, 41, 218, 104
-0.996958, 105, 209, 120, 272
-0.996958, 79, 121, 94, 184
-0.99696, 261, 97, 276, 160
-0.996964, 371, 129, 386, 192
-0.996967, 249, 57, 264, 120
-0.996974, 53, 105, 68, 168
-0.99698, 81, 173, 208, 204
-0.996989, 353, 173, 480, 204
-0.996993, 113, 229, 240, 260
-0.996993, 337, 201, 464, 232
-0.997047, 273, 177, 400, 208
-0.997049, 17, 189, 144, 220
-0.99706, 257, 209, 500, 272
-0.997097, 17, 301, 144, 332
-0.997111, 209, 129, 336, 160
-0.997112, 257, 145, 500, 208
-0.997112, 53, 1, 84, 128
-0.997144, 257, 133, 384, 164
-0.997153, 49, 29, 176, 60
-0.997157, 273, 1, 304, 256
-0.997165, 1, 241, 128, 272
-0.997165, 49, 133, 176, 164
-0.997168, 221, 1, 252, 256
-0.997173, 1, 277, 128, 308
-0.997193, 161, 1, 288, 32
-0.997219, 305, 245, 432, 276
-0.997228, 317, 1, 348, 256
-0.997245, 33, 73, 160, 104
-0.997245, 49, 245, 176, 276
-0.997248, 225, 201, 352, 232
-0.997266, 69, 33, 100, 288
-0.997268, 337, 137, 464, 168
-0.997303, 139, 9, 154, 40
-0.997315, 333, 1, 364, 256
-0.997316, 437, 65, 468, 320
-0.99733, 337, 221, 464, 252
-0.997367, 97, 105, 224, 136
-0.997369, 1, 265, 500, 328
-0.997375, 19, 109, 34, 140
-0.997375, 273, 101, 288, 132
-0.997375, 305, 1, 336, 256
-0.997414, 273, 77, 400, 108
-0.997428, 1, 169, 128, 200
-0.997446, 97, 241, 224, 272
-0.997483, 337, 37, 464, 68
-0.997493, 33, 121, 48, 152
-0.997501, 265, 109, 280, 140
-0.997504, 129, 65, 256, 96
-0.997507, 23, 121, 38, 152
-0.997509, 429, 49, 460, 176
-0.997515, 65, 225, 192, 256
-0.99756, 257, 49, 500, 112
-0.997578, 225, 229, 352, 260
-0.997588, 239, 85, 254, 116
-0.997611, 369, 297, 496, 328
-0.997627, 409, 193, 424, 224
-0.997633, 321, 273, 448, 304
-0.99764, 29, 101, 44, 132
-0.997651, 389, 185, 404, 216
-0.997655, 415, 185, 430, 216
-0.997656, 115, 29, 130, 60
-0.997657, 19, 285, 34, 316
-0.997668, 41, 17, 72, 144
-0.997672, 49, 145, 176, 176
-0.997684, 369, 257, 496, 288
-0.997687, 425, 185, 440, 216
-0.997691, 229, 85, 244, 116
-0.997697, 309, 113, 324, 144
-0.997697, 273, 229, 400, 260
-0.997711, 243, 73, 258, 104
-0.997711, 161, 1, 192, 256
-0.997721, 129, 17, 144, 48
-0.997736, 43, 89, 58, 120
-0.997736, 129, 177, 384, 240
-0.997748, 433, 181, 448, 212
-0.997754, 403, 181, 418, 212
-0.997756, 25, 289, 40, 320
-0.997761, 449, 209, 480, 333
-0.997776, 175, 189, 190, 220
-0.997787, 337, 233, 464, 264
-0.997789, 283, 93, 298, 124
-0.997792, 239, 105, 254, 136
-0.997796, 223, 109, 238, 140
-0.997802, 357, 117, 372, 148
-0.997804, 397, 181, 412, 212
-0.997808, 425, 65, 456, 320
-0.997809, 469, 65, 500, 320
-0.99781, 263, 97, 278, 128
-0.997813, 439, 109, 454, 140
-0.997821, 205, 93, 220, 124
-0.997824, 257, 253, 384, 284
-0.99783, 49, 17, 176, 48
-0.997832, 17, 213, 144, 244
-0.997833, 17, 41, 144, 72
-0.997834, 287, 105, 302, 136
-0.997842, 253, 1, 284, 256
-0.997844, 209, 33, 240, 288
-0.997846, 321, 289, 448, 320
-0.99785, 177, 229, 304, 260
-0.99785, 1, 257, 128, 288
-0.997856, 253, 97, 268, 128
-0.997863, 37, 93, 52, 124
-0.997869, 97, 133, 224, 164
-0.997871, 213, 105, 228, 136
-0.997871, 161, 177, 288, 208
-0.997876, 367, 117, 382, 148
-0.997882, 39, 297, 54, 328
-0.997886, 223, 93, 238, 124
-0.99789, 457, 65, 488, 320
-0.997892, 13, 113, 28, 144
-0.997898, 349, 113, 364, 144
-0.997899, 45, 65, 76, 320
-0.997903, 65, 301, 192, 332
-0.997903, 113, 77, 240, 108
-0.997905, 303, 113, 318, 144
-0.997914, 439, 181, 454, 212
-0.997925, 221, 81, 236, 112
-0.997944, 319, 113, 334, 144
-0.997944, 137, 1, 168, 256
-0.997945, 409, 181, 424, 212
-0.997947, 451, 185, 466, 216
-0.997947, 31, 133, 46, 164
-0.997953, 267, 85, 282, 116
-0.997953, 243, 117, 258, 148
-0.997958, 129, 145, 384, 208
-0.997976, 1, 145, 500, 208
-0.997983, 249, 65, 264, 96
-0.997983, 193, 73, 208, 104
-0.997985, 235, 73, 250, 104
-0.997992, 273, 29, 288, 60
-0.997992, 241, 1, 256, 32
-0.998006, 31, 293, 46, 324
-0.998006, 45, 301, 60, 332
-0.998016, 279, 105, 294, 136
-0.998017, 211, 85, 226, 116
-0.998018, 273, 209, 400, 240
-0.998018, 149, 1, 180, 256
-0.998019, 369, 285, 496, 316
-0.998025, 265, 37, 280, 68
-0.99803, 21, 209, 36, 240
-0.998038, 251, 113, 266, 144
-0.998043, 369, 273, 496, 304
-0.998044, 263, 17, 278, 48
-0.998047, 401, 193, 416, 224
-0.998047, 149, 1, 164, 32
-0.998047, 145, 249, 272, 280
-0.998052, 415, 129, 430, 160
-0.998063, 351, 41, 366, 72
-0.99807, 245, 21, 260, 52
-0.998073, 123, 21, 138, 52
-0.998075, 273, 273, 400, 304
-0.998081, 209, 261, 336, 292
-0.998083, 273, 17, 288, 48
-0.998087, 247, 85, 262, 116
-0.998089, 391, 121, 406, 152
-0.99809, 361, 65, 392, 320
-0.998092, 209, 273, 336, 304
-0.998092, 403, 129, 418, 160
-0.998093, 303, 9, 318, 40
-0.998097, 1, 153, 256, 216
-0.998097, 215, 49, 230, 80
-0.998098, 237, 1, 268, 256
-0.998099, 345, 65, 376, 320
-0.998105, 443, 193, 458, 224
-0.998106, 247, 101, 262, 132
-0.998107, 313, 101, 328, 132
-0.998112, 197, 93, 212, 124
-0.998114, 221, 69, 236, 100
-0.998118, 359, 45, 374, 76
-0.99812, 259, 69, 274, 100
-0.998121, 381, 121, 396, 152
-0.998122, 343, 85, 358, 116
-0.998122, 97, 121, 224, 152
-0.998124, 241, 285, 368, 316
-0.998126, 295, 101, 310, 132
-0.998126, 275, 189, 290, 220
-0.998129, 43, 105, 58, 136
-0.998138, 337, 29, 352, 60
-0.998143, 193, 57, 208, 88
-0.998145, 167, 189, 182, 220
-0.998146, 145, 13, 160, 44
-0.998149, 347, 29, 362, 60
-0.998155, 435, 193, 450, 224
-0.998158, 317, 53, 332, 84
-0.998162, 59, 301, 74, 332
-0.998168, 73, 129, 88, 160
-0.99817, 81, 157, 208, 188
-0.998172, 67, 113, 82, 144
-0.998173, 187, 69, 202, 100
-0.998176, 383, 185, 398, 216
-0.998182, 229, 73, 244, 104
-0.998184, 331, 25, 346, 56
-0.998186, 281, 49, 296, 80
-0.998194, 259, 81, 274, 112
-0.998196, 1, 153, 128, 184
-0.998197, 353, 149, 480, 180
-0.998203, 313, 125, 328, 156
-0.998205, 207, 41, 222, 72
-0.998206, 309, 13, 324, 44
-0.998212, 369, 245, 496, 276
-0.998212, 357, 101, 372, 132
-0.998213, 193, 1, 224, 256
-0.998215, 49, 1, 176, 32
-0.998216, 257, 37, 272, 68
-0.998224, 319, 65, 334, 96
-0.998226, 313, 81, 328, 112
-0.998227, 69, 65, 84, 96
-0.998229, 351, 53, 366, 84
-0.998233, 75, 117, 90, 148
-0.998237, 305, 89, 320, 120
-0.998237, 399, 117, 414, 148
-0.998242, 97, 57, 112, 88
-0.998244, 61, 117, 76, 148
-0.998245, 325, 65, 340, 96
-0.998245, 421, 125, 436, 156
-0.998246, 117, 197, 132, 228
-0.998249, 361, 129, 376, 160
-0.99825, 285, 81, 300, 112
-0.998252, 207, 105, 222, 136
-0.998254, 1, 229, 128, 260
-0.998256, 475, 101, 490, 132
-0.998257, 39, 129, 54, 160
-0.998259, 353, 161, 480, 192
-0.998262, 155, 193, 170, 224
-0.998262, 349, 89, 364, 120
-0.998263, 259, 109, 274, 140
-0.998269, 459, 101, 474, 132
-0.998269, 273, 49, 288, 80
-0.99827, 337, 81, 352, 112
-0.998305, 289, 145, 416, 176
-0.998309, 337, 85, 464, 116
-0.998309, 389, 65, 420, 320
-0.998309, 209, 241, 336, 272
-0.998364, 49, 101, 176, 132
-0.99837, 409, 65, 440, 320
-0.998376, 97, 93, 224, 124
-0.998381, 297, 41, 328, 56
-0.998382, 245, 75, 276, 90
-0.998382, 225, 33, 256, 48
-0.998382, 305, 21, 336, 36
-0.998382, 257, 191, 288, 206
-0.998383, 25, 139, 56, 154
-0.998384, 189, 85, 220, 100
-0.998384, 289, 123, 320, 138
-0.998384, 129, 213, 160, 228
-0.998385, 25, 293, 56, 308
-0.998385, 61, 115, 92, 130
-0.998385, 61, 135, 92, 150
-0.998385, 345, 127, 376, 142
-0.998386, 433, 109, 464, 124
-0.998386, 217, 47, 248, 62
-0.998386, 209, 115, 240, 130
-0.998387, 193, 51, 224, 66
-0.998388, 193, 69, 224, 84
-0.998389, 349, 109, 380, 124
-0.998389, 345, 47, 376, 62
-0.998389, 333, 87, 364, 102
-0.99839, 145, 5, 176, 20
-0.99839, 193, 109, 224, 124
-0.998391, 41, 211, 72, 226
-0.998391, 313, 109, 344, 124
-0.998392, 265, 97, 296, 112
-0.998392, 329, 187, 360, 202
-0.998394, 221, 73, 252, 88
-0.998394, 389, 139, 420, 154
-0.998395, 189, 75, 220, 90
-0.998395, 61, 317, 92, 332
-0.998396, 189, 63, 220, 78
-0.998397, 261, 27, 292, 42
-0.998397, 313, 37, 344, 52
-0.998399, 209, 245, 240, 260
-0.998399, 125, 207, 156, 222
-0.998399, 297, 15, 328, 30
-0.998402, 209, 189, 240, 204
-0.998403, 261, 71, 292, 86
-0.998404, 89, 59, 120, 74
-0.998404, 297, 51, 328, 66
-0.998405, 389, 125, 420, 140
-0.998405, 37, 259, 68, 274
-0.998406, 257, 51, 288, 66
-0.998407, 237, 69, 268, 84
-0.998408, 269, 85, 300, 100
-0.998408, 329, 57, 360, 72
-0.998408, 305, 129, 336, 144
-0.998408, 185, 189, 216, 204
-0.998409, 445, 105, 476, 120
-0.99841, 285, 55, 316, 70
-0.998411, 269, 191, 300, 206
-0.998412, 285, 87, 316, 102
-0.998413, 277, 107, 308, 122
-0.998414, 273, 65, 304, 80
-0.998414, 325, 31, 356, 46
-0.998415, 353, 59, 384, 74
-0.998415, 249, 17, 280, 32
-0.998416, 317, 25, 348, 40
-0.998416, 221, 123, 252, 138
-0.998417, 209, 95, 240, 110
-0.998418, 9, 111, 72, 126
-0.998419, 225, 15, 256, 30
-0.99842, 29, 99, 60, 114
-0.99842, 385, 193, 416, 208
-0.99842, 273, 55, 304, 70
-0.998421, 237, 127, 268, 142
-0.998422, 109, 35, 140, 50
-0.998422, 293, 61, 324, 76
-0.998423, 309, 67, 340, 82
-0.998423, 209, 79, 240, 94
-0.998423, 73, 63, 104, 78
-0.998424, 113, 29, 144, 44
-0.998425, 341, 93, 372, 108
-0.998431, 301, 75, 332, 90
-0.998434, 217, 89, 248, 104
-0.998434, 269, 115, 300, 130
-0.998435, 21, 119, 52, 134
-0.998435, 249, 115, 280, 130
-0.998437, 229, 87, 260, 102
-0.998438, 313, 83, 344, 98
-0.998441, 321, 73, 448, 104
-0.998444, 417, 127, 448, 142
-0.998446, 225, 107, 256, 122
-0.998447, 361, 189, 392, 204
-0.998447, 21, 211, 52, 226
-0.998449, 205, 107, 236, 122
-0.99845, 341, 99, 372, 114
-0.998451, 357, 127, 388, 142
-0.998451, 377, 121, 408, 136
-0.998456, 329, 107, 360, 122
-0.998457, 341, 187, 372, 202
-0.998458, 397, 133, 428, 148
-0.99846, 225, 101, 256, 116
-0.99846, 29, 133, 60, 148
-0.998464, 393, 187, 424, 202
-0.998464, 5, 287, 36, 302
-0.998464, 309, 57, 340, 72
-0.998465, 169, 189, 200, 204
-0.998465, 249, 103, 280, 118
-0.998466, 141, 209, 172, 224
-0.998467, 301, 109, 332, 124
-0.998468, 13, 131, 44, 146
-0.998468, 289, 119, 352, 134
-0.998468, 333, 115, 364, 130
-0.998468, 373, 133, 404, 148
-0.998471, 281, 57, 344, 72
-0.998472, 221, 95, 252, 110
-0.998472, 105, 201, 136, 216
-0.998479, 313, 59, 376, 74
-0.99848, 205, 101, 236, 116
-0.998481, 157, 189, 188, 204
-0.998481, 121, 23, 152, 38
-0.998482, 21, 105, 52, 120
-0.998482, 257, 117, 320, 132
-0.998483, 201, 89, 232, 104
-0.998483, 313, 113, 376, 128
-0.998484, 249, 69, 280, 84
-0.998485, 33, 305, 64, 320
-0.998486, 373, 191, 404, 206
-0.998487, 237, 97, 268, 112
-0.998487, 9, 123, 40, 138
-0.998488, 349, 117, 380, 132
-0.99849, 361, 123, 424, 138
-0.998491, 37, 109, 68, 124
-0.998492, 221, 117, 252, 132
-0.998494, 33, 119, 96, 134
-0.998495, 217, 115, 280, 130
-0.998497, 49, 313, 80, 328
-0.998497, 281, 113, 344, 128
-0.998497, 305, 25, 432, 56
-0.998497, 265, 107, 296, 122
-0.998498, 217, 107, 280, 122
-0.998501, 241, 107, 304, 122
-0.998504, 105, 33, 168, 48
-0.998507, 321, 61, 448, 92
-0.99851, 13, 113, 44, 128
-0.998511, 217, 101, 280, 116
-0.998512, 313, 119, 376, 134
-0.998512, 129, 13, 192, 28
-0.998513, 97, 203, 160, 218
-0.998516, 25, 299, 56, 314
-0.998517, 33, 109, 96, 124
-0.998521, 1, 125, 64, 140
-0.998522, 301, 123, 332, 138
-0.998522, 285, 115, 316, 130
-0.998524, 317, 117, 348, 132
-0.998527, 129, 15, 160, 30
-0.99853, 293, 1, 324, 256
-0.998534, 9, 105, 72, 120
-0.998538, 193, 87, 256, 102
-0.998538, 33, 131, 96, 146
-0.998538, 113, 23, 176, 38
-0.998539, 33, 125, 96, 140
-0.998539, 321, 189, 384, 204
-0.998539, 225, 177, 352, 208
-0.998539, 253, 109, 284, 124
-0.998543, 313, 51, 376, 66
-0.998546, 1, 117, 64, 132
-0.998547, 217, 1, 280, 16
-0.99855, 97, 39, 160, 54
-0.99855, 21, 125, 52, 140
-0.998552, 265, 107, 328, 122
-0.998552, 233, 81, 296, 96
-0.998554, 281, 83, 344, 98
-0.998554, 345, 189, 408, 204
-0.998554, 153, 191, 216, 206
-0.998554, 377, 189, 440, 204
-0.998554, 265, 123, 328, 138
-0.998557, 169, 3, 232, 18
-0.998557, 5, 65, 36, 320
-0.998558, 265, 73, 328, 88
-0.998559, 385, 117, 448, 132
-0.998562, 137, 7, 200, 22
-0.998562, 257, 65, 320, 80
-0.998563, 305, 103, 368, 118
-0.998565, 113, 209, 176, 224
-0.998566, 313, 127, 376, 142
-0.998567, 17, 137, 80, 152
-0.998568, 257, 99, 320, 114
-0.998571, 257, 9, 384, 40
-0.998571, 169, 41, 232, 56
-0.998571, 369, 133, 432, 148
-0.998572, 73, 131, 136, 146
-0.998572, 265, 31, 328, 46
-0.998576, 233, 27, 296, 42
-0.998577, 249, 87, 312, 102
-0.998577, 337, 117, 400, 132
-0.998578, 193, 81, 256, 96
-0.998579, 257, 55, 320, 70
-0.998579, 17, 305, 80, 320
-0.998582, 273, 131, 336, 146
-0.998582, 13, 293, 44, 308
-0.998584, 73, 201, 136, 216
-0.998584, 209, 95, 272, 110
-0.998585, 305, 89, 368, 104
-0.998585, 305, 31, 368, 46
-0.998585, 145, 1, 208, 16
-0.998586, 177, 73, 240, 88
-0.998588, 137, 25, 200, 40
-0.998588, 177, 117, 240, 132
-0.998588, 209, 121, 272, 136
-0.998589, 433, 105, 496, 120
-0.998589, 193, 61, 256, 76
-0.998591, 273, 49, 336, 64
-0.998591, 305, 37, 368, 52
-0.998594, 17, 311, 80, 326
-0.998594, 329, 137, 392, 152
-0.998596, 305, 115, 336, 130
-0.998596, 9, 215, 72, 230
-0.998597, 193, 67, 256, 82
-0.998598, 129, 189, 192, 204
-0.9986, 265, 21, 328, 36
-0.998602, 311, 1, 326, 128
-0.998603, 337, 127, 400, 142
-0.998603, 81, 191, 144, 206
-0.998603, 137, 203, 200, 218
-0.998606, 33, 253, 96, 268
-0.998606, 193, 109, 256, 124
-0.998606, 373, 65, 404, 320
-0.998607, 241, 13, 304, 28
-0.998607, 169, 197, 232, 212
-0.99861, 337, 183, 400, 198
-0.99861, 9, 131, 72, 146
-0.998611, 321, 65, 384, 80
-0.998611, 161, 33, 224, 48
-0.998612, 297, 187, 360, 202
-0.998612, 1, 295, 64, 310
-0.998612, 177, 103, 240, 118
-0.998613, 49, 201, 112, 216
-0.998614, 305, 251, 368, 266
-0.998615, 265, 15, 328, 30
-0.998616, 233, 93, 296, 108
-0.998616, 193, 17, 256, 32
-0.998617, 81, 181, 144, 196
-0.998617, 177, 189, 240, 204
-0.998617, 217, 69, 280, 84
-0.998618, 97, 51, 160, 66
-0.998618, 257, 241, 384, 272
-0.998618, 137, 209, 200, 224
-0.998619, 33, 91, 96, 106
-0.99862, 209, 205, 272, 220
-0.998623, 201, 31, 264, 46
-0.998623, 25, 259, 88, 274
-0.998624, 161, 51, 224, 66
-0.998624, 217, 21, 280, 36
-0.998625, 41, 317, 104, 332
-0.998625, 89, 211, 152, 226
-0.998627, 97, 45, 160, 60
-0.998627, 201, 37, 264, 52
-0.998627, 409, 127, 472, 142
-0.998628, 129, 31, 192, 46
-0.998628, 161, 23, 224, 38
-0.998628, 353, 139, 416, 154
-0.998629, 233, 123, 296, 138
-0.99863, 169, 211, 232, 226
-0.99863, 153, 65, 216, 80
-0.99863, 305, 283, 368, 298
-0.998631, 233, 53, 296, 68
-0.998631, 225, 75, 288, 90
-0.998632, 305, 43, 368, 58
-0.998632, 233, 63, 296, 78
-0.998633, 25, 291, 88, 306
-0.998634, 353, 205, 416, 220
-0.998634, 65, 61, 128, 76
-0.998634, 361, 271, 424, 286
-0.998635, 177, 93, 240, 108
-0.998635, 105, 187, 168, 202
-0.998635, 257, 191, 320, 206
-0.998636, 321, 245, 384, 260
-0.998642, 177, 65, 208, 320
-0.998651, 329, 33, 344, 160
-0.998704, 55, 65, 70, 192
-0.998706, 71, 49, 86, 176
-0.998752, 321, 261, 448, 292
-0.998756, 317, 1, 332, 128
-0.998786, 321, 301, 448, 332
-0.998792, 315, 49, 330, 176
-0.998793, 113, 17, 128, 144
-0.998794, 323, 33, 338, 160
-0.9988, 1, 61, 128, 92
-0.998801, 29, 33, 60, 288
-0.998829, 303, 1, 318, 128
-0.998839, 225, 213, 352, 244
-0.998847, 289, 1, 304, 128
-0.998849, 161, 265, 288, 296
-0.998855, 63, 65, 78, 192
-0.998856, 49, 257, 176, 288
-0.998898, 335, 33, 350, 160
-0.998906, 81, 49, 96, 176
-0.998908, 1, 29, 128, 60
-0.998921, 297, 1, 312, 128
-0.998933, 249, 1, 264, 128
-0.998934, 229, 81, 244, 208
-0.998939, 273, 1, 288, 128
-0.998948, 25, 81, 40, 208
-0.998958, 321, 97, 336, 224
-0.998974, 35, 81, 50, 208
-0.998975, 103, 49, 118, 176
-0.998977, 331, 81, 346, 208
-0.998982, 401, 113, 416, 240
-0.998991, 347, 17, 362, 144
-0.998995, 239, 49, 254, 176
-0.999007, 281, 1, 296, 128
-0.999007, 93, 49, 108, 176
-0.999008, 417, 113, 432, 240
-0.999013, 49, 65, 64, 192
-0.999014, 305, 13, 432, 44
-0.99902, 309, 49, 324, 176
-0.999021, 129, 1, 144, 128
-0.999029, 267, 49, 282, 176
-0.99903, 119, 17, 134, 144
-0.999037, 371, 129, 386, 256
-0.99905, 347, 65, 362, 192
-0.999058, 257, 1, 272, 128
-0.999062, 15, 97, 30, 224
-0.999066, 341, 65, 356, 192
-0.99907, 243, 1, 258, 128
-0.999071, 411, 113, 426, 240
-0.999075, 31, 129, 46, 256
-0.999076, 193, 285, 320, 316
-0.999076, 311, 113, 326, 240
-0.999085, 69, 97, 84, 224
-0.999091, 387, 129, 402, 256
-0.999107, 217, 33, 232, 160
-0.999108, 423, 113, 438, 240
-0.999117, 261, 49, 276, 176
-0.999134, 267, 1, 282, 128
-0.999135, 87, 49, 102, 176
-0.999138, 191, 65, 206, 192
-0.999138, 75, 97, 90, 224
-0.999143, 393, 129, 408, 256
-0.99915, 357, 17, 372, 144
-0.999151, 381, 113, 396, 240
-0.99916, 251, 49, 266, 176
-0.999168, 277, 49, 292, 176
-0.999171, 59, 113, 74, 240
-0.999174, 341, 17, 356, 144
-0.999177, 225, 33, 240, 160
-0.999177, 365, 129, 380, 256
-0.999184, 139, 1, 154, 128
-0.999186, 235, 97, 250, 224
-0.999186, 269, 97, 284, 224
-0.999192, 439, 97, 454, 224
-0.999212, 429, 113, 444, 240
-0.999227, 91, 145, 106, 272
-0.999232, 99, 161, 114, 288
-0.999232, 485, 81, 500, 208
-0.999235, 473, 97, 488, 224
-0.999238, 21, 209, 36, 333
-0.999256, 223, 113, 238, 240
-0.999263, 353, 97, 368, 224
-0.999263, 101, 97, 116, 224
-0.999268, 109, 113, 124, 240
-0.999269, 231, 33, 246, 160
-0.999271, 275, 97, 290, 224
-0.999273, 117, 97, 132, 224
-0.999277, 195, 1, 210, 128
-0.999279, 467, 97, 482, 224
-0.999283, 305, 113, 320, 240
-0.999283, 345, 129, 360, 256
-0.999284, 183, 33, 198, 160
-0.999294, 245, 81, 260, 208
-0.999294, 25, 129, 40, 256
-0.999294, 209, 49, 224, 176
-0.999303, 479, 97, 494, 224
-0.999305, 143, 113, 158, 240
-0.999311, 353, 57, 480, 120
-0.999312, 457, 97, 472, 224
-0.999318, 189, 17, 204, 144
-0.999322, 445, 97, 460, 224
-0.999325, 337, 113, 352, 240
-0.999327, 201, 33, 216, 160
-0.999329, 229, 193, 244, 320
-0.999332, 303, 65, 318, 192
-0.999332, 85, 129, 100, 256
-0.999335, 359, 97, 374, 224
-0.99935, 41, 65, 56, 192
-0.999352, 241, 129, 256, 256
-0.999358, 451, 97, 466, 224
-0.999359, 65, 161, 80, 288
-0.99936, 217, 193, 232, 320
-0.99936, 93, 97, 108, 224
-0.999362, 9, 113, 24, 240
-0.999372, 263, 113, 278, 240
-0.999375, 111, 177, 126, 304
-0.999378, 123, 97, 138, 224
-0.999391, 133, 113, 148, 240
-0.999399, 153, 113, 168, 240
-0.999402, 59, 17, 74, 144
-0.999409, 327, 129, 342, 256
-0.999411, 357, 145, 372, 272
-0.999413, 75, 193, 90, 320
-0.999415, 283, 49, 298, 176
-0.999416, 381, 161, 396, 288
-0.999417, 365, 49, 380, 176
-0.99942, 83, 193, 98, 320
-0.999431, 209, 177, 224, 304
-0.999433, 165, 113, 180, 240
-0.999433, 37, 129, 52, 256
-0.999436, 271, 177, 286, 304
-0.99944, 125, 177, 140, 304
-0.999446, 177, 17, 192, 144
-0.999449, 265, 177, 280, 304
-0.999452, 359, 209, 374, 333
-0.999454, 311, 177, 326, 304
-0.999456, 301, 209, 316, 333
-0.999456, 105, 209, 120, 333
-0.999458, 257, 129, 272, 256
-0.999463, 17, 49, 32, 176
-0.99947, 145, 1, 160, 128
-0.999594, 211, 49, 226, 64
-0.999595, 215, 243, 230, 258
-0.999595, 257, 79, 272, 94
-0.999596, 283, 105, 298, 120
-0.999596, 417, 195, 432, 210
-0.999596, 21, 283, 36, 298
-0.999597, 347, 115, 362, 130
-0.999597, 229, 83, 244, 98
-0.999598, 225, 117, 240, 132
-0.999598, 253, 13, 268, 28
-0.999598, 105, 181, 120, 196
-0.999598, 341, 187, 356, 202
-0.999599, 209, 97, 224, 112
-0.999599, 373, 123, 388, 138
-0.999599, 23, 295, 38, 310
-0.999599, 313, 21, 328, 36
-0.999599, 279, 117, 294, 132
-0.9996, 315, 81, 330, 96
-0.999601, 163, 189, 178, 204
-0.999601, 367, 189, 382, 204
-0.999601, 361, 187, 376, 202
-0.999601, 37, 215, 52, 230
-0.999601, 345, 97, 360, 112
-0.999602, 339, 31, 354, 46
-0.999602, 417, 205, 432, 220
-0.999603, 259, 105, 274, 120
-0.999603, 215, 109, 230, 124
-0.999603, 119, 25, 134, 40
-0.999603, 35, 95, 50, 110
-0.999604, 353, 187, 368, 202
-0.999605, 185, 189, 200, 204
-0.999605, 403, 131, 418, 146
-0.999605, 353, 93, 368, 108
-0.999605, 311, 51, 326, 66
-0.999606, 361, 119, 376, 134
-0.999606, 193, 63, 208, 78
-0.999606, 283, 53, 298, 68
-0.999606, 143, 213, 158, 228
-0.999607, 223, 83, 238, 98
-0.999607, 353, 117, 368, 132
-0.999607, 75, 65, 90, 80
-0.999608, 383, 123, 398, 138
-0.999608, 377, 131, 392, 146
-0.999609, 293, 81, 308, 96
-0.999609, 353, 109, 368, 124
-0.999609, 211, 91, 226, 106
-0.999609, 273, 117, 288, 132
-0.99961, 257, 133, 272, 148
-0.99961, 27, 139, 42, 154
-0.99961, 275, 29, 290, 44
-0.99961, 281, 59, 296, 74
-0.999611, 151, 17, 166, 32
-0.999611, 107, 201, 122, 216
-0.999612, 281, 189, 296, 204
-0.999612, 241, 89, 256, 104
-0.999612, 285, 85, 300, 100
-0.999613, 23, 129, 38, 144
-0.999613, 327, 111, 342, 126
-0.999613, 191, 71, 206, 86
-0.999614, 29, 101, 44, 116
-0.999614, 273, 65, 288, 80
-0.999616, 133, 15, 148, 30
-0.999617, 239, 129, 254, 144
-0.999618, 241, 135, 256, 150
-0.999618, 263, 71, 278, 86
-0.999619, 115, 31, 130, 46
-0.999619, 17, 123, 32, 138
-0.999619, 253, 105, 268, 120
-0.99962, 257, 97, 272, 112
-0.99962, 417, 129, 432, 144
-0.999622, 247, 19, 262, 34
-0.999622, 323, 117, 338, 132
-0.999625, 209, 107, 224, 122
-0.999625, 35, 131, 50, 146
-0.999625, 217, 91, 232, 106
-0.999626, 391, 193, 406, 208
-0.999627, 397, 187, 412, 202
-0.999627, 307, 109, 322, 124
-0.999628, 369, 129, 384, 144
-0.999629, 313, 109, 328, 124
-0.999629, 247, 103, 262, 118
-0.999632, 271, 99, 286, 114
-0.999632, 221, 97, 236, 112
-0.999632, 221, 1, 236, 16
-0.999633, 347, 187, 362, 202
-0.999633, 15, 287, 30, 302
-0.999634, 235, 89, 250, 104
-0.999637, 241, 99, 256, 114
-0.999639, 255, 111, 270, 126
-0.999641, 307, 121, 322, 136
-0.999643, 205, 87, 220, 102
-0.999646, 315, 67, 330, 82
-0.999646, 273, 189, 288, 204
-0.999648, 391, 187, 406, 202
-0.999648, 177, 191, 192, 206
-0.999649, 125, 21, 140, 36
-0.99965, 311, 57, 326, 72
-0.99965, 303, 115, 318, 130
-0.999652, 277, 99, 292, 114
-0.999652, 217, 103, 232, 118
-0.999653, 25, 211, 40, 226
-0.999654, 249, 93, 264, 108
-0.999657, 33, 123, 48, 138
-0.999658, 315, 115, 330, 130
-0.99966, 29, 131, 44, 146
-0.999663, 37, 297, 52, 312
-0.999664, 43, 301, 58, 316
-0.999664, 261, 111, 276, 126
-0.999665, 321, 59, 336, 74
-0.999668, 229, 93, 244, 108
-0.999669, 265, 103, 280, 118
-0.999678, 73, 317, 88, 332
-0.999679, 313, 123, 328, 138
-0.999681, 65, 313, 80, 328
-0.999683, 147, 207, 162, 222
-0.999685, 269, 73, 284, 88
-0.999686, 51, 305, 66, 320
-0.999686, 59, 309, 74, 324
-0.999687, 171, 189, 186, 204
-0.999688, 385, 189, 400, 204
-0.999688, 15, 113, 30, 128
-0.999689, 139, 11, 154, 26
-0.99969, 321, 111, 336, 126
-0.999692, 273, 109, 288, 124
-0.999696, 267, 117, 282, 132
-0.999697, 29, 293, 44, 308
-0.999705, 309, 115, 324, 130
-0.999714, 21, 289, 36, 304
-0.999714, 267, 109, 282, 124
-0.999725, 23, 123, 38, 138
-1.00082, 369, 1, 496, 64
-1.00132, 1, 17, 64, 144
-1.0111, 377, 17, 440, 144
-1.01587, 433, 1, 496, 128
-1.01676, 409, 1, 472, 128
