1884
-0.501574, 1, 65, 500, 320
-0.640684, 161, 65, 416, 320
-0.681401, 1, 1, 500, 334
-0.697754, 257, 65, 500, 320
-0.704654, 257, 1, 500, 334
-0.736644, 161, 1, 416, 334
-0.780462, 65, 65, 320, 320
-0.799958, 65, 1, 320, 334
-0.862806, 225, 65, 352, 320
-0.89042, 305, 65, 432, 320
-0.900323, 145, 65, 272, 320
-0.909221, 1, 177, 500, 304
-0.911438, 257, 129, 500, 256
-0.913212, 97, 65, 224, 320
-0.917891, 1, 129, 500, 256
-0.918281, 65, 193, 320, 320
-0.921487, 49, 65, 176, 320
-0.923354, 353, 33, 480, 288
-0.92432, 353, 1, 480, 334
-0.928632, 81, 177, 208, 304
-0.929287, 129, 129, 384, 256
-0.930147, 1, 65, 128, 320
-0.932186, 289, 1, 416, 334
-0.937037, 193, 65, 448, 192
-0.938897, 161, 209, 416, 334
-0.939448, 145, 177, 208, 304
-0.939701, 81, 1, 208, 334
-0.93991, 89, 177, 152, 304
-0.940057, 1, 1, 128, 334
-0.940571, 209, 1, 336, 334
-0.941534, 321, 113, 448, 240
-0.942259, 433, 145, 496, 272
-0.943122, 369, 129, 496, 256
-0.945119, 313, 81, 376, 208
-0.945272, 257, 177, 500, 304
-0.945385, 169, 177, 232, 304
-0.945689, 129, 177, 256, 304
-0.945977, 113, 177, 176, 304
-0.94629, 385, 137, 448, 200
-0.946709, 177, 193, 304, 320
-0.94768, 289, 65, 416, 192
-0.948067, 33, 145, 288, 272
-0.948265, 433, 169, 496, 232
-0.948569, 401, 129, 464, 256
-0.948607, 145, 1, 272, 334
-0.948632, 353, 129, 416, 192
-0.949742, 361, 113, 424, 240
-0.950044, 1, 65, 500, 192
-0.950107, 409, 145, 472, 208
-0.950927, 161, 129, 288, 256
-0.951828, 297, 209, 360, 334
-0.952037, 177, 193, 240, 256
-0.952489, 241, 129, 368, 256
-0.954837, 33, 177, 160, 304
-0.954956, 193, 193, 256, 320
-0.955889, 201, 193, 264, 256
-0.955982, 225, 177, 352, 304
-0.957142, 337, 97, 400, 224
-0.958759, 89, 193, 152, 256
-0.958817, 289, 145, 352, 272
-0.959427, 361, 153, 424, 216
-0.959574, 153, 193, 216, 256
-0.959737, 433, 145, 496, 208
-0.959918, 321, 161, 448, 288
-0.961274, 225, 65, 352, 192
-0.961854, 201, 129, 264, 256
-0.962091, 297, 217, 360, 280
-0.962297, 345, 105, 408, 168
-0.962449, 121, 185, 184, 248
-0.963214, 65, 177, 128, 304
-0.963897, 409, 177, 472, 240
-0.964868, 433, 193, 496, 256
-0.964931, 313, 129, 376, 256
-0.965285, 217, 193, 280, 320
-0.965442, 289, 65, 352, 192
-0.966942, 97, 81, 352, 208
-0.967089, 289, 209, 416, 334
-0.967271, 433, 193, 496, 320
-0.967347, 257, 121, 320, 184
-0.968013, 177, 129, 240, 256
-0.968197, 413, 145, 444, 208
-0.968314, 265, 129, 328, 256
-0.968316, 273, 209, 336, 334
-0.968467, 81, 193, 208, 256
-0.968681, 385, 129, 416, 192
-0.969027, 401, 121, 432, 184
-0.969037, 377, 113, 440, 176
-0.969298, 353, 137, 480, 200
-0.969684, 65, 193, 128, 256
-0.969988, 225, 201, 288, 264
-0.97046, 225, 129, 288, 256
-0.970723, 281, 137, 344, 200
-0.971048, 129, 193, 256, 256
-0.97126, 369, 177, 496, 304
-0.971525, 213, 193, 244, 256
-0.971543, 441, 145, 472, 272
-0.971552, 305, 57, 368, 120
-0.971581, 113, 129, 240, 256
-0.971766, 461, 153, 492, 216
-0.971818, 201, 217, 264, 280
-0.971959, 377, 161, 440, 288
-0.971964, 461, 177, 492, 240
-0.972173, 209, 105, 272, 168
-0.972316, 461, 145, 492, 272
-0.972342, 321, 113, 384, 176
-0.972349, 313, 137, 376, 200
-0.972495, 201, 193, 232, 256
-0.972566, 129, 129, 192, 256
-0.972809, 329, 65, 392, 128
-0.973512, 445, 177, 476, 240
-0.973589, 173, 177, 204, 304
-0.97373, 305, 121, 432, 184
-0.97403, 385, 161, 448, 224
-0.974042, 441, 145, 472, 208
-0.974043, 265, 81, 328, 208
-0.974226, 273, 73, 336, 136
-0.974496, 193, 201, 320, 264
-0.974716, 189, 193, 220, 256
-0.974753, 225, 193, 256, 256
-0.974761, 409, 177, 472, 304
-0.97479, 369, 81, 496, 208
-0.974993, 161, 177, 192, 304
-0.975183, 121, 177, 152, 304
-0.975314, 297, 81, 360, 144
-0.97556, 1, 97, 256, 224
-0.975839, 313, 209, 344, 334
-0.975843, 177, 193, 208, 256
-0.976128, 337, 161, 400, 288
-0.976187, 397, 145, 428, 208
-0.976189, 273, 65, 336, 320
-0.976254, 241, 177, 304, 304
-0.976392, 337, 49, 400, 176
-0.976397, 97, 177, 128, 304
-0.976409, 97, 193, 128, 256
-0.976421, 373, 129, 404, 192
-0.976522, 313, 33, 376, 160
-0.976928, 381, 97, 412, 224
-0.976953, 177, 217, 240, 280
-0.976967, 149, 177, 180, 304
-0.977171, 433, 97, 496, 224
-0.977219, 185, 177, 216, 304
-0.977244, 369, 97, 400, 224
-0.977507, 133, 177, 164, 304
-0.977551, 225, 81, 288, 208
-0.977815, 153, 129, 216, 256
-0.977936, 149, 193, 180, 256
-0.978027, 361, 65, 424, 192
-0.97811, 401, 113, 432, 240
-0.978406, 313, 145, 344, 272
-0.978483, 337, 161, 464, 224
-0.978502, 297, 241, 360, 304
-0.978736, 153, 169, 216, 232
-0.978779, 429, 153, 460, 216
-0.978819, 257, 97, 320, 160
-0.978828, 197, 177, 228, 304
-0.979189, 25, 177, 88, 304
-0.979194, 161, 201, 192, 264
-0.979373, 109, 177, 140, 304
-0.979435, 241, 177, 304, 240
-0.979539, 297, 113, 360, 176
-0.979756, 185, 105, 248, 168
-0.979793, 237, 201, 268, 264
-0.979811, 257, 81, 384, 144
-0.980103, 233, 105, 296, 168
-0.980137, 65, 217, 128, 280
-0.980149, 337, 153, 400, 216
-0.980162, 409, 201, 472, 264
-0.980306, 1, 1, 500, 128
-0.980447, 361, 121, 392, 184
-0.980459, 445, 193, 476, 320
-0.980573, 385, 153, 416, 216
-0.980629, 137, 185, 168, 248
-0.980818, 297, 265, 360, 328
-0.980895, 25, 193, 88, 256
-0.981018, 313, 137, 344, 200
-0.981125, 297, 137, 328, 200
-0.981155, 209, 177, 240, 304
-0.981229, 309, 57, 340, 120
-0.981566, 209, 113, 336, 176
-0.981623, 445, 201, 476, 264
-0.981839, 321, 65, 384, 320
-0.982026, 305, 161, 368, 224
-0.982091, 137, 217, 200, 280
-0.982131, 185, 65, 248, 320
-0.982238, 321, 81, 352, 208
-0.982276, 369, 185, 496, 248
-0.982301, 145, 81, 272, 208
-0.982312, 301, 209, 332, 334
-0.982315, 417, 145, 448, 272
-0.982329, 33, 193, 160, 256
-0.982445, 433, 177, 464, 240
-0.982451, 429, 145, 460, 272
-0.982457, 209, 169, 272, 232
-0.982464, 409, 81, 472, 208
-0.982471, 125, 185, 156, 248
-0.982496, 321, 209, 384, 334
-0.982629, 145, 217, 272, 280
-0.982942, 241, 217, 368, 280
-0.983049, 381, 105, 412, 168
-0.983086, 273, 145, 400, 208
-0.983207, 65, 129, 192, 256
-0.983269, 89, 217, 152, 280
-0.983311, 369, 153, 400, 216
-0.983327, 161, 65, 224, 320
-0.983397, 433, 217, 496, 280
-0.983512, 333, 57, 364, 120
-0.983578, 221, 177, 252, 304
-0.983607, 385, 81, 448, 208
-0.98364, 89, 129, 152, 256
-0.983662, 217, 129, 280, 192
-0.983851, 409, 121, 472, 184
-0.983858, 301, 81, 332, 208
-0.983869, 289, 217, 416, 280
-0.983975, 81, 217, 208, 280
-0.984058, 209, 65, 272, 320
-0.984134, 273, 225, 336, 288
-0.984217, 353, 81, 416, 144
-0.984242, 341, 81, 372, 208
-0.984306, 113, 193, 144, 256
-0.984316, 97, 33, 352, 160
-0.984614, 297, 81, 328, 144
-0.98474, 301, 129, 332, 256
-0.984777, 297, 33, 360, 288
-0.984888, 113, 169, 240, 232
-0.984955, 325, 209, 356, 334
-0.984989, 209, 177, 336, 240
-0.984998, 305, 97, 432, 160
-0.985198, 353, 113, 480, 176
-0.98521, 233, 129, 264, 256
-0.98524, 321, 33, 352, 160
-0.985248, 17, 129, 144, 256
-0.985326, 345, 65, 408, 320
-0.985438, 309, 217, 340, 280
-0.985439, 281, 161, 344, 224
-0.985477, 289, 57, 416, 120
-0.985552, 301, 113, 332, 176
-0.985593, 209, 217, 240, 280
-0.985758, 113, 217, 176, 280
-0.985799, 1, 49, 256, 176
-0.985873, 161, 105, 288, 168
-0.985943, 161, 113, 224, 176
-0.986201, 121, 65, 184, 320
-0.986202, 289, 129, 320, 256
-0.986222, 237, 105, 268, 168
-0.986316, 349, 145, 380, 208
-0.986325, 161, 129, 288, 192
-0.986581, 425, 129, 456, 192
-0.986594, 97, 169, 160, 232
-0.98663, 65, 129, 128, 256
-0.986732, 225, 105, 256, 168
-0.986778, 209, 73, 336, 136
-0.9868, 221, 129, 252, 256
-0.986825, 285, 137, 316, 200
-0.986846, 193, 129, 256, 192
-0.986954, 321, 225, 384, 288
-0.986954, 221, 217, 252, 280
-0.98697, 369, 97, 400, 160
-0.98707, 461, 201, 492, 264
-0.98709, 65, 169, 128, 232
-0.987157, 257, 105, 384, 168
-0.987182, 321, 57, 352, 120
-0.987236, 413, 121, 444, 184
-0.987247, 257, 201, 320, 264
-0.987278, 357, 65, 388, 192
-0.9873, 245, 129, 276, 256
-0.98742, 177, 169, 240, 232
-0.98743, 353, 73, 384, 136
-0.987511, 257, 105, 288, 168
-0.987556, 97, 65, 160, 320
-0.987659, 233, 65, 296, 320
-0.987719, 381, 145, 412, 272
-0.987732, 325, 161, 356, 288
-0.987786, 233, 177, 264, 304
-0.987864, 193, 197, 256, 228
-0.9879, 297, 57, 328, 120
-0.987927, 433, 65, 496, 320
-0.987932, 201, 81, 264, 208
-0.988011, 257, 145, 320, 208
-0.988091, 129, 161, 192, 224
-0.988154, 421, 177, 452, 240
-0.988264, 333, 81, 364, 144
-0.988304, 321, 89, 384, 152
-0.988468, 433, 157, 496, 188
-0.988468, 241, 241, 368, 304
-0.98851, 197, 217, 228, 280
-0.988545, 349, 121, 380, 184
-0.98855, 377, 133, 440, 164
-0.988561, 209, 81, 272, 144
-0.988613, 357, 113, 388, 240
-0.988637, 385, 153, 448, 184
-0.988657, 33, 193, 288, 256
-0.988713, 397, 169, 428, 232
-0.988742, 209, 129, 240, 256
-0.988763, 289, 169, 416, 232
-0.988954, 433, 201, 496, 232
-0.989036, 161, 169, 288, 232
-0.989042, 65, 65, 128, 320
-0.989063, 249, 185, 280, 248
-0.989071, 297, 69, 360, 100
-0.989122, 433, 189, 496, 220
-0.989144, 401, 141, 464, 172
-0.989286, 321, 217, 352, 280
-0.989314, 201, 113, 232, 176
-0.989318, 397, 161, 428, 288
-0.989352, 289, 241, 416, 304
-0.989374, 433, 169, 496, 200
-0.989384, 285, 113, 316, 176
-0.989401, 217, 205, 280, 236
-0.989433, 321, 69, 384, 100
-0.989471, 333, 33, 364, 160
-0.989515, 169, 197, 232, 228
-0.989592, 321, 249, 384, 312
-0.989604, 401, 169, 464, 200
-0.989657, 361, 153, 424, 184
-0.98967, 165, 177, 196, 240
-0.989734, 409, 153, 472, 184
-0.98974, 77, 193, 108, 256
-0.989752, 193, 209, 256, 240
-0.989815, 237, 177, 268, 240
-0.989826, 17, 217, 144, 280
-0.989833, 321, 193, 448, 256
-0.989847, 193, 225, 320, 288
-0.989921, 433, 201, 464, 264
-0.989943, 249, 73, 312, 136
-0.98995, 353, 117, 416, 148
-0.989984, 137, 193, 200, 224
-0.990053, 401, 65, 464, 320
-0.99008, 273, 265, 336, 328
-0.990127, 469, 129, 500, 192
-0.990164, 313, 81, 344, 144
-0.990175, 89, 197, 152, 228
-0.990221, 225, 137, 352, 200
-0.990253, 345, 101, 408, 132
-0.990257, 353, 129, 416, 160
-0.990269, 257, 265, 384, 328
-0.990325, 409, 181, 472, 212
-0.990356, 249, 121, 312, 152
-0.99036, 297, 193, 360, 256
-0.990375, 49, 169, 176, 232
-0.99038, 313, 113, 344, 176
-0.990411, 209, 109, 272, 140
-0.990432, 305, 149, 368, 180
-0.990471, 245, 81, 276, 208
-0.990472, 53, 193, 84, 256
-0.990541, 433, 145, 496, 176
-0.99056, 297, 225, 360, 256
-0.990602, 273, 121, 304, 184
-0.990627, 113, 193, 176, 224
-0.990674, 149, 129, 180, 256
-0.990709, 281, 153, 344, 184
-0.990724, 285, 73, 316, 136
-0.990738, 113, 121, 240, 184
-0.99075, 213, 105, 244, 168
-0.990789, 209, 125, 272, 156
-0.99081, 177, 217, 208, 280
-0.990811, 277, 81, 308, 208
-0.990815, 337, 153, 400, 184
-0.990859, 169, 209, 232, 240
-0.990864, 257, 109, 320, 140
-0.99087, 377, 165, 440, 196
-0.990907, 273, 141, 336, 172
-0.990922, 297, 33, 360, 96
-0.990983, 433, 121, 496, 184
-0.990991, 313, 265, 344, 328
-0.991068, 353, 141, 416, 172
-0.991075, 337, 17, 464, 144
-0.991085, 297, 225, 328, 288
-0.991106, 329, 41, 392, 104
-0.991131, 177, 129, 208, 256
-0.991136, 313, 137, 376, 168
-0.991193, 269, 97, 300, 160
-0.991202, 337, 73, 464, 136
-0.991224, 41, 217, 104, 280
-0.991224, 377, 121, 440, 152
-0.991237, 65, 197, 128, 228
-0.991251, 329, 113, 392, 144
-0.991274, 193, 129, 224, 256
-0.991278, 217, 193, 280, 224
-0.991308, 369, 49, 400, 176
-0.991331, 453, 129, 484, 192
-0.991384, 257, 17, 384, 144
-0.991406, 289, 209, 320, 334
-0.991407, 313, 57, 376, 88
-0.991422, 409, 225, 472, 288
-0.991425, 353, 97, 384, 160
-0.991471, 113, 97, 240, 160
-0.991472, 169, 185, 232, 216
-0.991477, 385, 185, 448, 248
-0.991489, 233, 109, 296, 140
-0.991523, 65, 209, 128, 240
-0.991527, 409, 197, 472, 228
-0.991643, 161, 209, 416, 272
-0.991655, 337, 161, 368, 288
-0.991658, 145, 205, 208, 236
-0.991679, 297, 237, 360, 268
-0.991681, 281, 125, 344, 156
-0.991742, 273, 69, 336, 100
-0.991868, 137, 129, 168, 256
-0.991872, 85, 177, 116, 304
-0.991904, 209, 137, 272, 168
-0.99192, 445, 169, 476, 200
-0.991941, 65, 221, 128, 252
-0.991958, 301, 161, 332, 224
-0.991985, 89, 185, 152, 216
-0.992002, 329, 201, 392, 264
-0.992011, 433, 213, 496, 244
-0.992012, 209, 197, 240, 228
-0.992016, 57, 89, 120, 152
-0.992018, 169, 125, 232, 156
-0.992043, 177, 113, 240, 144
-0.992048, 121, 181, 184, 212
-0.992059, 241, 197, 304, 228
-0.992068, 225, 81, 256, 208
-0.99207, 257, 129, 288, 256
-0.992071, 225, 197, 256, 228
-0.992077, 89, 209, 152, 240
-0.992086, 241, 209, 304, 240
-0.992086, 289, 57, 352, 88
-0.992095, 1, 169, 128, 232
-0.992098, 413, 145, 444, 176
-0.992098, 297, 249, 360, 280
-0.9921, 445, 157, 476, 188
-0.992108, 297, 269, 360, 300
-0.992123, 217, 217, 280, 248
-0.992124, 305, 117, 368, 148
-0.992127, 281, 113, 344, 144
-0.992155, 325, 137, 356, 200
-0.992169, 409, 209, 472, 240
-0.992183, 457, 181, 488, 212
-0.992221, 353, 165, 416, 196
-0.992222, 433, 157, 464, 188
-0.992228, 369, 209, 496, 272
-0.99223, 289, 81, 352, 112
-0.992234, 353, 153, 480, 184
-0.992237, 305, 161, 368, 192
-0.992244, 49, 105, 176, 168
-0.992262, 457, 193, 488, 320
-0.992266, 297, 213, 360, 244
-0.992279, 385, 153, 416, 184
-0.992283, 329, 125, 392, 156
-0.992283, 345, 69, 408, 100
-0.992285, 225, 161, 480, 224
-0.992286, 397, 137, 428, 168
-0.992289, 233, 153, 296, 216
-0.992292, 313, 81, 376, 112
-0.992298, 433, 169, 464, 200
-0.992304, 197, 197, 228, 228
-0.99231, 313, 69, 344, 100
-0.992331, 53, 177, 84, 304
-0.992334, 145, 181, 208, 212
-0.992359, 413, 157, 444, 188
-0.992364, 193, 185, 256, 216
-0.99237, 237, 205, 268, 236
-0.992379, 313, 149, 344, 180
-0.992384, 113, 129, 144, 256
-0.992392, 469, 181, 500, 212
-0.992393, 253, 177, 284, 304
-0.992401, 345, 33, 376, 160
-0.992426, 301, 69, 332, 100
-0.992427, 193, 221, 256, 252
-0.992428, 1, 193, 500, 256
-0.992432, 381, 117, 412, 148
-0.99244, 433, 193, 464, 320
-0.992448, 445, 185, 476, 216
-0.992458, 397, 149, 428, 180
-0.992463, 433, 181, 464, 212
-0.992467, 185, 137, 248, 168
-0.992493, 325, 69, 356, 100
-0.992495, 341, 65, 372, 96
-0.992495, 149, 217, 180, 280
-0.992501, 217, 209, 248, 240
-0.992503, 401, 129, 464, 160
-0.99251, 305, 101, 368, 132
-0.99251, 461, 169, 492, 200
-0.99251, 241, 133, 304, 164
-0.992518, 445, 197, 476, 228
-0.992527, 421, 97, 452, 224
-0.992532, 457, 157, 488, 188
-0.99255, 145, 161, 176, 224
-0.992563, 393, 125, 424, 156
-0.992591, 89, 221, 152, 252
-0.992597, 301, 141, 332, 172
-0.992599, 421, 169, 452, 200
-0.992611, 33, 197, 96, 228
-0.992625, 369, 105, 432, 136
-0.992633, 413, 133, 444, 164
-0.992637, 381, 133, 412, 164
-0.992656, 185, 197, 216, 228
-0.992662, 429, 145, 460, 176
-0.992662, 373, 153, 404, 184
-0.99267, 469, 149, 500, 180
-0.992687, 361, 177, 424, 240
-0.992693, 337, 89, 400, 120
-0.9927, 205, 209, 236, 240
-0.992715, 329, 165, 392, 196
-0.992733, 425, 225, 488, 256
-0.992746, 129, 197, 256, 228
-0.992773, 377, 177, 440, 208
-0.99278, 361, 153, 392, 184
-0.992782, 461, 193, 492, 224
-0.992786, 425, 133, 488, 164
-0.992791, 361, 125, 392, 156
-0.992817, 97, 193, 128, 224
-0.992817, 129, 189, 160, 220
-0.992826, 161, 193, 192, 224
-0.992828, 169, 221, 232, 252
-0.992829, 301, 265, 332, 328
-0.992829, 65, 185, 128, 216
-0.99285, 41, 209, 104, 240
-0.992854, 81, 193, 208, 224
-0.992862, 65, 217, 320, 280
-0.992867, 265, 169, 328, 200
-0.992874, 401, 161, 432, 192
-0.992879, 241, 109, 272, 140
-0.992884, 265, 81, 296, 208
-0.992899, 353, 69, 384, 100
-0.992899, 257, 153, 320, 184
-0.992908, 391, 129, 406, 192
-0.992917, 401, 117, 464, 148
-0.992917, 193, 113, 448, 176
-0.992923, 369, 109, 400, 140
-0.992927, 261, 109, 292, 140
-0.992936, 337, 57, 400, 88
-0.992948, 189, 169, 220, 232
-0.992963, 329, 57, 360, 88
-0.992965, 225, 181, 288, 212
-0.992967, 161, 129, 192, 256
-0.992968, 265, 221, 328, 252
-0.992981, 365, 97, 396, 128
-0.992984, 237, 193, 268, 224
-0.993009, 313, 217, 344, 248
-0.993016, 229, 109, 260, 140
-0.993018, 193, 213, 224, 244
-0.993018, 341, 77, 372, 108
-0.993021, 161, 141, 224, 172
-0.993024, 141, 193, 172, 224
-0.99303, 273, 109, 304, 140
-0.993033, 297, 153, 328, 184
-0.993033, 241, 125, 272, 156
-0.993033, 353, 105, 384, 136
-0.993035, 109, 193, 140, 224
-0.99305, 321, 261, 384, 292
-0.993051, 453, 145, 484, 176
-0.993052, 305, 125, 336, 156
-0.993056, 161, 225, 192, 288
-0.993058, 161, 81, 288, 144
-0.993062, 321, 249, 384, 280
-0.993062, 173, 197, 204, 228
-0.993063, 265, 257, 328, 288
-0.993063, 293, 113, 324, 144
-0.993076, 213, 129, 244, 160
-0.993077, 1, 137, 64, 168
-0.993082, 313, 137, 344, 168
-0.993085, 389, 165, 420, 196
-0.993086, 257, 121, 288, 152
-0.993087, 461, 205, 492, 236
-0.993091, 41, 221, 104, 252
-0.993092, 403, 145, 418, 208
-0.993098, 313, 161, 344, 224
-0.9931, 241, 129, 272, 192
-0.993106, 249, 209, 280, 240
-0.993112, 369, 137, 400, 168
-0.993114, 93, 217, 124, 280
-0.993115, 445, 209, 476, 240
-0.993119, 145, 221, 208, 252
-0.993124, 409, 169, 440, 232
-0.993124, 273, 121, 304, 152
-0.993126, 455, 153, 470, 216
-0.99314, 349, 153, 380, 184
-0.993142, 289, 69, 320, 100
-0.993156, 321, 233, 384, 264
-0.993162, 265, 81, 328, 112
-0.993163, 265, 209, 328, 240
-0.993164, 181, 209, 212, 240
-0.993172, 77, 209, 108, 240
-0.993173, 325, 149, 356, 180
-0.99318, 225, 121, 256, 152
-0.993183, 381, 105, 412, 136
-0.993184, 201, 125, 232, 156
-0.993185, 309, 269, 340, 300
-0.9932, 73, 145, 104, 272
-0.993203, 181, 185, 212, 216
-0.993209, 249, 197, 280, 228
-0.993209, 313, 81, 344, 112
-0.993212, 293, 125, 324, 156
-0.993212, 201, 137, 232, 168
-0.993219, 285, 137, 316, 168
-0.993223, 329, 217, 392, 248
-0.993225, 281, 101, 344, 132
-0.993228, 97, 129, 128, 256
-0.993229, 413, 181, 444, 212
-0.993232, 265, 233, 328, 264
-0.993234, 461, 97, 492, 224
-0.99324, 317, 57, 348, 88
-0.993243, 297, 81, 328, 112
-0.993244, 341, 113, 372, 144
-0.993245, 57, 233, 120, 264
-0.993251, 285, 149, 316, 180
-0.993256, 217, 109, 248, 140
-0.993257, 201, 109, 232, 140
-0.99328, 253, 81, 284, 144
-0.993291, 193, 93, 256, 124
-0.993294, 77, 197, 108, 228
-0.993297, 441, 145, 472, 176
-0.993298, 249, 69, 312, 100
-0.993303, 241, 97, 304, 128
-0.99331, 257, 137, 500, 200
-0.99332, 221, 185, 252, 216
-0.99333, 193, 185, 224, 216
-0.993333, 373, 165, 404, 196
-0.993337, 209, 185, 240, 216
-0.993337, 325, 137, 356, 168
-0.993338, 229, 217, 260, 248
-0.993341, 149, 181, 180, 212
-0.993352, 445, 225, 476, 256
-0.993385, 401, 173, 432, 204
-0.993391, 77, 221, 108, 252
-0.993398, 93, 213, 124, 244
-0.993407, 369, 93, 432, 124
-0.993409, 1, 137, 32, 168
-0.993412, 273, 269, 336, 300
-0.993412, 393, 113, 424, 144
-0.993419, 121, 221, 184, 252
-0.99342, 433, 193, 464, 224
-0.993424, 425, 133, 456, 164
-0.993425, 65, 85, 128, 116
-0.993436, 257, 193, 500, 256
-0.993436, 313, 161, 344, 192
-0.993438, 301, 57, 332, 88
-0.993443, 405, 121, 436, 152
-0.993448, 361, 165, 392, 196
-0.993448, 457, 217, 488, 248
-0.99347, 407, 121, 422, 184
-0.99347, 325, 81, 356, 112
-0.993471, 353, 93, 384, 124
-0.993473, 333, 165, 364, 196
-0.993481, 189, 129, 220, 160
-0.993484, 153, 109, 216, 140
-0.993486, 433, 1, 496, 334
-0.993487, 333, 101, 364, 132
-0.993504, 301, 221, 332, 252
-0.993506, 209, 41, 336, 104
-0.993514, 433, 213, 464, 244
-0.99352, 113, 205, 176, 236
-0.99352, 317, 125, 348, 156
-0.993524, 53, 197, 84, 228
-0.993525, 361, 57, 424, 88
-0.993529, 57, 97, 120, 128
-0.993533, 93, 225, 124, 256
-0.993536, 353, 81, 384, 112
-0.993537, 117, 181, 148, 212
-0.993568, 213, 193, 228, 256
-0.99358, 193, 17, 448, 144
-0.993589, 225, 165, 288, 196
-0.9936, 1, 177, 64, 304
-0.993611, 265, 57, 328, 88
-0.993613, 417, 145, 432, 208
-0.993659, 145, 125, 208, 156
-0.993694, 265, 245, 328, 276
-0.993698, 333, 225, 364, 288
-0.993699, 221, 193, 236, 256
-0.993705, 321, 205, 384, 236
-0.993706, 81, 233, 144, 264
-0.993708, 201, 149, 264, 180
-0.993712, 457, 177, 472, 240
-0.993719, 121, 113, 184, 176
-0.993719, 397, 113, 412, 176
-0.993719, 265, 145, 296, 208
-0.993748, 465, 153, 480, 216
-0.993767, 249, 209, 280, 272
-0.993853, 445, 225, 476, 288
-0.99387, 227, 193, 242, 256
-0.993883, 133, 161, 164, 224
-0.993889, 369, 145, 400, 272
-0.993927, 401, 97, 432, 160
-0.993927, 329, 1, 392, 334
-0.993978, 137, 217, 168, 280
-0.994008, 205, 193, 220, 256
-0.994039, 481, 169, 496, 232
-0.994058, 423, 137, 438, 200
-0.994112, 233, 193, 248, 256
-0.994148, 257, 41, 320, 104
-0.994186, 161, 209, 288, 240
-0.994225, 317, 193, 348, 256
-0.994226, 209, 169, 240, 232
-0.994233, 161, 185, 416, 248
-0.994242, 411, 153, 426, 216
-0.994258, 185, 113, 216, 176
-0.99429, 185, 81, 248, 144
-0.994291, 329, 161, 360, 224
-0.994322, 309, 241, 340, 304
-0.994344, 377, 1, 440, 334
-0.994354, 353, 137, 480, 168
-0.994366, 305, 125, 432, 156
-0.994373, 451, 177, 466, 240
-0.994375, 177, 65, 240, 192
-0.994393, 385, 129, 400, 192
-0.994404, 305, 1, 368, 334
-0.994435, 381, 49, 412, 176
-0.994436, 199, 193, 214, 256
-0.994445, 185, 193, 200, 256
-0.99445, 445, 161, 460, 224
-0.99446, 413, 121, 428, 184
-0.994461, 305, 137, 432, 168
-0.994465, 177, 169, 208, 232
-0.994499, 385, 89, 448, 152
-0.994506, 209, 205, 336, 236
-0.994526, 321, 241, 352, 304
-0.994538, 471, 145, 486, 208
-0.994593, 449, 97, 480, 224
-0.994596, 179, 193, 194, 256
-0.9946, 193, 193, 208, 256
-0.994637, 159, 193, 174, 256
-0.994661, 49, 81, 176, 144
-0.994676, 305, 153, 432, 184
-0.994677, 397, 137, 412, 200
-0.994717, 225, 169, 256, 232
-0.994727, 193, 109, 320, 140
-0.994728, 241, 193, 256, 256
-0.994756, 433, 97, 464, 224
-0.99478, 261, 169, 292, 232
-0.994808, 475, 169, 490, 232
-0.994817, 289, 69, 416, 100
-0.994821, 377, 129, 392, 192
-0.994823, 391, 105, 406, 168
-0.99484, 253, 129, 284, 192
-0.994859, 353, 57, 416, 120
-0.994864, 165, 193, 180, 256
-0.994893, 171, 201, 186, 264
-0.9949, 369, 173, 496, 204
-0.994927, 1, 217, 500, 280
-0.995068, 337, 105, 368, 168
-0.995091, 125, 209, 156, 272
-0.995099, 247, 105, 262, 168
-0.995147, 353, 169, 384, 232
-0.995155, 273, 33, 400, 96
-0.995156, 337, 49, 464, 112
-0.995177, 277, 129, 308, 256
-0.995188, 377, 65, 440, 320
-0.995205, 307, 137, 322, 200
-0.995224, 49, 65, 176, 192
-0.995231, 337, 209, 368, 334
-0.995248, 161, 73, 416, 136
-0.99529, 113, 169, 144, 232
-0.995305, 289, 81, 320, 208
-0.995316, 161, 233, 416, 296
-0.995319, 97, 169, 128, 232
-0.995364, 99, 193, 114, 256
-0.995466, 485, 145, 500, 208
-0.995477, 209, 121, 336, 152
-0.995518, 325, 265, 356, 328
-0.995524, 391, 153, 406, 216
-0.995583, 151, 185, 166, 248
-0.995584, 137, 185, 152, 248
-0.995601, 437, 153, 452, 216
-0.995622, 257, 193, 384, 256
-0.995653, 273, 169, 304, 232
-0.995657, 131, 185, 146, 248
-0.995668, 321, 165, 448, 196
-0.995672, 143, 185, 158, 248
-0.995674, 57, 1, 120, 334
-0.995684, 303, 65, 318, 128
-0.995688, 81, 205, 208, 236
-0.99569, 451, 201, 466, 264
-0.995696, 1, 113, 500, 176
-0.995716, 1, 105, 128, 168
-0.99577, 97, 113, 352, 176
-0.995787, 1, 161, 500, 224
-0.995791, 257, 149, 384, 180
-0.995793, 273, 113, 400, 144
-0.995822, 345, 49, 376, 112
-0.995822, 247, 201, 262, 264
-0.995841, 97, 49, 224, 176
-0.995847, 97, 1, 160, 334
-0.995866, 463, 177, 478, 240
-0.995868, 367, 153, 382, 216
-0.995885, 369, 197, 496, 228
-0.995885, 209, 217, 336, 248
-0.995886, 365, 73, 396, 136
-0.995893, 1, 81, 128, 208
-0.995901, 483, 193, 498, 256
-0.995903, 125, 129, 156, 256
-0.995909, 317, 129, 332, 192
-0.995922, 385, 153, 400, 216
-0.995923, 237, 105, 252, 168
-0.995927, 469, 193, 500, 320
-0.995934, 257, 217, 500, 280
-0.995956, 193, 249, 320, 312
-0.99597, 309, 73, 324, 136
-0.995986, 301, 65, 332, 320
-0.99599, 331, 57, 346, 120
-0.996027, 297, 137, 312, 200
-0.996036, 315, 57, 330, 120
-0.996042, 365, 121, 380, 184
-0.996056, 273, 73, 304, 136
-0.996064, 457, 201, 472, 264
-0.996085, 1, 81, 128, 144
-0.996085, 431, 145, 446, 208
-0.996087, 125, 185, 140, 248
-0.996103, 337, 241, 464, 304
-0.996197, 81, 241, 208, 304
-0.996217, 443, 137, 458, 200
-0.99622, 77, 217, 108, 280
-0.996235, 41, 177, 72, 304
-0.996248, 397, 161, 412, 224
-0.996294, 113, 145, 240, 208
-0.996295, 221, 81, 252, 144
-0.996318, 337, 57, 352, 120
-0.996332, 177, 193, 304, 224
-0.996351, 477, 145, 492, 208
-0.996351, 445, 193, 460, 256
-0.996354, 343, 57, 358, 120
-0.996381, 305, 265, 432, 328
-0.996385, 119, 193, 134, 256
-0.996391, 41, 65, 104, 320
-0.996399, 129, 185, 256, 216
-0.996425, 215, 217, 230, 280
-0.996426, 383, 97, 398, 160
-0.996427, 307, 113, 322, 176
-0.996454, 377, 153, 392, 216
-0.996457, 355, 81, 370, 144
-0.996458, 129, 145, 384, 208
-0.996491, 241, 69, 368, 100
-0.996496, 137, 1, 200, 334
-0.996497, 17, 65, 80, 320
-0.996514, 297, 113, 312, 176
-0.996542, 273, 1, 336, 128
-0.996561, 455, 153, 470, 184
-0.996571, 417, 137, 432, 168
-0.996574, 321, 57, 336, 120
-0.996592, 221, 217, 236, 280
-0.99662, 33, 197, 160, 228
-0.996631, 33, 169, 288, 232
-0.996643, 423, 161, 438, 224
-0.996676, 113, 193, 128, 256
-0.996683, 409, 1, 472, 334
-0.996712, 407, 149, 422, 180
-0.996712, 129, 241, 256, 304
-0.996725, 243, 129, 258, 192
-0.996727, 291, 129, 306, 192
-0.996741, 225, 197, 240, 228
-0.996744, 209, 217, 224, 280
-0.996753, 455, 129, 470, 192
-0.996755, 107, 193, 122, 256
-0.996757, 425, 145, 440, 176
-0.996766, 469, 177, 484, 240
-0.996793, 227, 217, 242, 280
-0.996795, 217, 197, 232, 228
-0.9968, 241, 229, 368, 260
-0.996803, 297, 57, 312, 120
-0.996838, 145, 109, 272, 140
-0.99684, 253, 97, 268, 160
-0.996843, 349, 57, 364, 120
-0.996845, 201, 89, 232, 152
-0.996848, 81, 217, 208, 248
-0.996862, 327, 137, 342, 200
-0.996868, 209, 133, 336, 164
-0.996884, 233, 217, 248, 280
-0.996892, 449, 169, 464, 200
-0.996896, 237, 201, 252, 232
-0.996907, 161, 1, 224, 334
-0.996908, 289, 225, 416, 256
-0.996912, 455, 189, 470, 220
-0.996912, 161, 129, 288, 160
-0.996922, 437, 177, 452, 240
-0.996923, 287, 105, 302, 168
-0.996932, 1, 113, 256, 176
-0.996936, 211, 197, 226, 228
-0.996938, 289, 249, 320, 312
-0.996959, 397, 65, 428, 192
-0.996965, 347, 81, 362, 144
-0.996971, 405, 169, 420, 232
-0.996981, 231, 197, 246, 228
-0.996983, 253, 201, 268, 264
-0.997011, 361, 145, 376, 208
-0.997012, 273, 165, 400, 196
-0.997019, 273, 101, 400, 132
-0.997023, 481, 177, 496, 208
-0.997037, 257, 241, 500, 304
-0.997059, 325, 69, 340, 100
-0.997062, 371, 121, 386, 184
-0.997079, 265, 105, 280, 168
-0.997092, 273, 241, 400, 272
-0.997101, 215, 105, 230, 168
-0.997124, 73, 81, 104, 144
-0.997136, 437, 165, 452, 196
-0.997159, 259, 97, 274, 160
-0.997159, 243, 201, 258, 232
-0.997161, 257, 65, 500, 128
-0.997165, 247, 177, 262, 240
-0.997168, 353, 105, 368, 168
-0.997178, 369, 185, 496, 216
-0.997196, 285, 161, 316, 224
-0.997199, 441, 177, 456, 208
-0.997205, 205, 113, 220, 176
-0.997209, 113, 217, 144, 280
-0.99721, 459, 177, 474, 208
-0.997215, 327, 81, 342, 144
-0.997216, 309, 69, 324, 100
-0.99722, 477, 193, 492, 256
-0.997222, 407, 137, 422, 168
-0.997223, 273, 97, 288, 160
-0.997225, 311, 217, 326, 280
-0.997236, 353, 1, 416, 334
-0.997251, 417, 157, 432, 188
-0.997254, 463, 201, 478, 264
-0.997254, 65, 193, 96, 320
-0.997254, 431, 161, 446, 192
-0.997269, 1, 137, 500, 200
-0.997295, 315, 69, 330, 100
-0.997295, 357, 57, 372, 120
-0.997296, 465, 177, 480, 208
-0.997302, 367, 153, 382, 184
-0.997303, 1, 209, 128, 240
-0.997315, 225, 193, 352, 224
-0.997316, 205, 197, 220, 228
-0.997317, 65, 193, 80, 256
-0.997319, 449, 137, 464, 200
-0.997319, 313, 65, 344, 320
-0.997321, 9, 105, 72, 168
-0.997328, 447, 185, 462, 216
-0.997329, 443, 165, 458, 196
-0.99733, 411, 177, 426, 240
-0.997338, 395, 117, 410, 148
-0.997339, 249, 249, 312, 312
-0.997349, 319, 217, 334, 280
-0.99736, 203, 217, 218, 280
-0.997361, 463, 129, 478, 192
-0.997365, 185, 217, 200, 280
-0.997367, 279, 145, 294, 208
-0.997372, 179, 217, 194, 280
-0.997374, 315, 145, 330, 176
-0.997384, 255, 121, 270, 184
-0.997397, 327, 217, 342, 280
-0.997402, 161, 221, 288, 252
-0.997408, 197, 217, 212, 280
-0.99741, 353, 125, 480, 156
-0.99741, 229, 209, 244, 240
-0.997413, 463, 157, 478, 188
-0.997413, 333, 69, 348, 100
-0.997419, 329, 177, 392, 240
-0.99742, 399, 153, 414, 184
-0.997424, 171, 177, 186, 240
-0.997426, 399, 133, 414, 164
-0.997431, 133, 113, 164, 176
-0.997434, 239, 217, 254, 280
-0.997437, 165, 153, 196, 216
-0.997438, 191, 217, 206, 280
-0.997439, 113, 121, 240, 152
-0.997446, 385, 153, 400, 184
-0.997451, 305, 41, 320, 104
-0.997452, 471, 149, 486, 180
-0.997458, 393, 153, 408, 184
-0.99746, 425, 165, 440, 196
-0.997475, 303, 69, 318, 100
-0.997486, 291, 73, 306, 136
-0.997491, 307, 149, 322, 180
-0.997493, 199, 197, 214, 228
-0.997511, 163, 217, 178, 280
-0.997524, 481, 165, 496, 196
-0.99753, 391, 133, 406, 164
-0.997532, 241, 81, 272, 144
-0.997533, 321, 153, 336, 216
-0.997543, 1, 193, 64, 256
-0.997545, 297, 81, 312, 144
-0.997546, 377, 105, 392, 168
-0.997568, 249, 205, 264, 236
-0.997572, 223, 209, 238, 240
-0.997574, 327, 265, 342, 328
-0.997579, 337, 137, 368, 200
-0.997582, 323, 149, 338, 180
-0.997583, 1, 129, 128, 192
-0.997591, 357, 69, 372, 100
-0.997592, 445, 153, 460, 184
-0.997611, 321, 113, 448, 144
-0.997625, 455, 165, 470, 196
-0.997633, 471, 169, 486, 200
-0.997634, 109, 113, 140, 176
-0.997641, 485, 189, 500, 220
-0.997641, 193, 65, 224, 320
-0.997644, 437, 153, 452, 184
-0.997644, 245, 125, 260, 156
-0.99765, 257, 81, 384, 112
-0.997684, 347, 65, 362, 96
-0.99771, 461, 189, 476, 220
-0.997717, 385, 117, 400, 148
-0.997726, 407, 125, 422, 156
-0.997732, 475, 181, 490, 212
-0.997736, 249, 161, 280, 224
-0.997762, 77, 169, 108, 232
-0.997762, 241, 253, 368, 284
-0.997764, 339, 69, 354, 100
-0.997764, 401, 121, 416, 152
-0.997772, 1, 33, 128, 160
-0.997811, 81, 181, 208, 212
-0.997812, 161, 141, 288, 172
-0.997816, 153, 145, 216, 208
-0.997817, 217, 209, 232, 240
-0.997825, 209, 65, 240, 192
-0.997838, 297, 145, 312, 176
-0.997846, 385, 129, 400, 160
-0.997853, 369, 209, 496, 240
-0.997856, 301, 33, 332, 160
-0.997883, 449, 197, 464, 228
-0.997887, 181, 65, 212, 320
-0.997894, 337, 61, 464, 92
-0.997897, 317, 133, 332, 164
-0.997898, 373, 153, 388, 184
-0.9979, 411, 161, 426, 192
-0.997905, 173, 113, 204, 176
-0.997914, 247, 109, 262, 140
-0.997936, 265, 1, 328, 334
-0.997955, 337, 101, 464, 132
-0.997958, 289, 253, 416, 284
-0.997959, 273, 265, 400, 296
-0.997959, 25, 1, 88, 334
-0.997962, 273, 109, 288, 140
-0.997985, 427, 177, 442, 208
-0.997986, 213, 129, 244, 192
-0.998005, 193, 197, 208, 228
-0.998009, 209, 65, 240, 320
-0.998016, 1, 221, 128, 252
-0.998016, 235, 213, 250, 244
-0.998024, 381, 105, 396, 136
-0.998032, 257, 89, 500, 152
-0.998035, 431, 149, 446, 180
-0.998039, 307, 137, 322, 168
-0.998048, 379, 153, 394, 184
-0.998051, 81, 229, 208, 260
-0.998051, 285, 65, 316, 320
-0.998052, 485, 201, 500, 232
-0.998056, 225, 225, 288, 288
-0.99808, 225, 65, 256, 320
-0.998082, 465, 145, 480, 176
-0.998084, 369, 113, 496, 144
-0.998096, 239, 109, 254, 140
-0.998103, 375, 125, 390, 156
-0.998103, 257, 57, 384, 88
-0.998103, 211, 209, 226, 240
-0.998106, 99, 193, 114, 224
-0.998108, 405, 165, 420, 196
-0.99811, 385, 141, 400, 172
-0.998112, 201, 1, 264, 334
-0.998112, 257, 109, 272, 140
-0.99812, 481, 153, 496, 184
-0.998122, 361, 33, 392, 288
-0.99813, 333, 57, 348, 88
-0.998141, 363, 69, 378, 100
-0.998157, 435, 177, 450, 208
-0.998175, 243, 213, 258, 244
-0.998175, 137, 189, 152, 220
-0.998176, 205, 209, 220, 240
-0.998178, 413, 125, 428, 156
-0.998186, 479, 193, 494, 224
-0.998191, 33, 241, 160, 304
-0.998196, 217, 121, 232, 152
-0.998201, 125, 65, 156, 320
-0.998202, 263, 109, 278, 140
-0.998204, 379, 137, 394, 168
-0.998205, 453, 65, 484, 320
-0.998206, 297, 69, 312, 100
-0.998208, 329, 145, 344, 176
-0.99821, 143, 189, 158, 220
-0.998214, 161, 257, 416, 320
-0.99822, 33, 185, 160, 216
-0.998221, 137, 65, 168, 320
-0.998225, 289, 213, 416, 244
-0.998233, 467, 189, 482, 220
-0.998235, 283, 109, 298, 140
-0.998237, 263, 121, 278, 152
-0.998246, 353, 161, 384, 288
-0.998247, 41, 169, 104, 232
-0.998261, 411, 177, 426, 208
-0.998264, 325, 65, 356, 320
-0.998267, 65, 129, 192, 192
-0.998283, 167, 193, 182, 224
-0.998284, 1, 89, 256, 152
-0.998284, 121, 193, 136, 224
-0.998286, 277, 121, 292, 152
-0.998286, 177, 181, 304, 212
-0.998287, 455, 145, 470, 272
-0.998288, 251, 121, 266, 152
-0.998292, 355, 109, 370, 140
-0.998296, 1, 133, 16, 164
-0.998296, 341, 57, 356, 88
-0.998301, 1, 97, 64, 224
-0.998304, 465, 65, 496, 320
-0.998313, 217, 109, 232, 140
-0.998317, 245, 137, 260, 168
-0.998317, 41, 129, 104, 256
-0.99832, 187, 193, 202, 224
-0.998324, 131, 189, 146, 220
-0.998327, 257, 121, 272, 152
-0.998329, 381, 143, 412, 158
-0.99833, 445, 215, 476, 230
-0.998331, 237, 125, 252, 156
-0.998331, 277, 139, 308, 154
-0.998331, 225, 161, 352, 192
-0.998332, 291, 141, 306, 172
-0.998334, 321, 237, 448, 268
-0.998334, 175, 197, 190, 228
-0.998334, 149, 201, 180, 216
-0.998335, 161, 203, 192, 218
-0.998335, 357, 71, 388, 86
-0.998335, 97, 113, 160, 176
-0.998335, 161, 65, 192, 320
-0.998336, 365, 167, 396, 182
-0.998336, 387, 105, 402, 136
-0.998337, 217, 139, 248, 154
-0.998338, 349, 161, 380, 176
-0.998339, 77, 213, 108, 228
-0.998339, 445, 209, 476, 224
-0.998339, 425, 185, 456, 200
-0.99834, 241, 131, 272, 146
-0.998341, 289, 79, 320, 94
-0.998341, 353, 113, 384, 128
-0.998343, 273, 121, 304, 136
-0.998343, 393, 139, 424, 154
-0.998343, 323, 137, 338, 168
-0.998344, 145, 33, 272, 160
-0.998344, 375, 97, 390, 128
-0.998346, 217, 137, 232, 168
-0.998346, 377, 109, 408, 124
-0.998347, 381, 169, 412, 184
-0.998347, 201, 205, 264, 220
-0.998347, 293, 159, 324, 174
-0.998348, 361, 149, 392, 164
-0.998349, 77, 219, 108, 234
-0.998349, 77, 201, 108, 216
-0.99835, 237, 65, 268, 320
-0.99835, 225, 125, 256, 140
-0.998352, 297, 129, 328, 144
-0.998352, 293, 115, 324, 130
-0.998354, 161, 193, 176, 224
-0.998356, 121, 197, 152, 212
-0.998359, 109, 141, 140, 156
-0.99836, 77, 207, 108, 222
-0.998362, 313, 271, 344, 286
-0.998363, 133, 199, 164, 214
-0.998365, 341, 113, 372, 128
-0.998365, 485, 213, 500, 244
-0.998366, 373, 117, 404, 132
-0.998367, 385, 125, 416, 140
-0.998368, 149, 193, 164, 224
-0.998368, 297, 123, 328, 138
-0.99837, 199, 213, 214, 244
-0.99837, 189, 211, 220, 226
-0.998373, 205, 141, 236, 156
-0.998374, 297, 135, 328, 150
-0.998375, 465, 207, 496, 222
-0.998376, 413, 167, 444, 182
-0.998376, 305, 81, 336, 96
-0.998377, 421, 141, 452, 156
-0.99838, 221, 133, 252, 148
-0.998381, 469, 147, 500, 162
-0.998382, 285, 153, 316, 168
-0.998384, 325, 57, 340, 88
-0.998384, 293, 145, 324, 160
-0.998384, 313, 159, 344, 174
-0.998387, 413, 179, 444, 194
-0.998389, 257, 123, 288, 138
-0.998389, 233, 213, 264, 228
-0.998391, 353, 155, 384, 170
-0.998391, 329, 79, 360, 94
-0.998392, 209, 215, 240, 230
-0.998392, 353, 107, 384, 122
-0.998394, 461, 199, 492, 214
-0.998397, 365, 101, 396, 116
-0.998398, 353, 77, 384, 92
-0.998399, 409, 133, 440, 148
-0.998402, 29, 177, 60, 304
-0.998404, 117, 191, 148, 206
-0.998407, 289, 73, 320, 88
-0.998408, 161, 89, 224, 152
-0.998409, 317, 147, 348, 162
-0.99841, 97, 195, 128, 210
-0.998411, 187, 205, 202, 236
-0.998411, 397, 133, 428, 148
-0.998415, 453, 149, 484, 164
-0.998415, 457, 201, 472, 232
-0.998417, 433, 163, 496, 178
-0.998419, 1, 1, 64, 334
-0.99842, 341, 77, 372, 92
-0.998421, 445, 203, 476, 218
-0.998425, 185, 199, 248, 214
-0.998426, 437, 189, 468, 204
-0.998429, 401, 145, 432, 160
-0.998431, 397, 167, 428, 182
-0.998431, 373, 149, 404, 164
-0.998431, 289, 71, 352, 86
-0.998431, 369, 135, 432, 150
-0.998434, 365, 111, 396, 126
-0.998435, 313, 69, 344, 84
-0.998438, 401, 151, 464, 166
-0.998439, 237, 201, 268, 216
-0.99844, 401, 161, 464, 176
-0.998445, 317, 79, 348, 94
-0.998449, 433, 173, 496, 188
-0.99845, 425, 155, 488, 170
-0.99845, 297, 153, 328, 168
-0.998456, 181, 197, 212, 212
-0.998457, 241, 125, 272, 140
-0.998457, 365, 127, 396, 142
-0.998459, 149, 65, 180, 320
-0.99846, 377, 153, 440, 168
-0.99846, 361, 161, 392, 176
-0.998462, 305, 141, 336, 156
-0.998465, 385, 119, 416, 134
-0.998466, 401, 161, 432, 176
-0.998467, 209, 241, 336, 272
-0.998468, 457, 181, 488, 196
-0.998468, 433, 199, 496, 214
-0.998469, 397, 127, 428, 142
-0.998471, 381, 131, 412, 146
-0.998472, 369, 155, 400, 170
-0.998472, 449, 189, 480, 204
-0.998472, 181, 205, 212, 220
-0.998478, 325, 69, 356, 84
-0.998478, 465, 171, 496, 186
-0.998479, 221, 213, 252, 228
-0.99848, 469, 165, 500, 180
-0.998481, 433, 179, 496, 194
-0.998483, 245, 207, 276, 222
-0.99849, 193, 211, 256, 226
-0.99849, 425, 147, 456, 162
-0.99849, 129, 191, 160, 206
-0.998491, 433, 205, 496, 220
-0.998495, 169, 197, 200, 212
-0.998498, 385, 141, 448, 156
-0.998499, 141, 193, 172, 208
-0.998499, 409, 169, 472, 184
-0.9985, 313, 69, 376, 84
-0.998502, 433, 191, 496, 206
-0.998504, 353, 129, 416, 144
-0.998505, 313, 153, 344, 168
-0.998506, 225, 207, 288, 222
-0.998506, 345, 69, 376, 84
-0.998507, 161, 197, 224, 212
-0.998509, 193, 199, 224, 214
-0.99851, 157, 195, 188, 210
-0.99851, 401, 177, 464, 192
-0.99851, 137, 195, 200, 210
-0.998515, 153, 203, 216, 218
-0.99852, 465, 193, 496, 208
-0.998521, 433, 169, 464, 184
-0.998522, 381, 155, 412, 170
-0.998524, 381, 161, 412, 176
-0.998525, 225, 199, 256, 214
-0.998526, 445, 183, 476, 198
-0.998526, 433, 153, 464, 168
-0.998526, 445, 197, 476, 212
-0.998527, 405, 139, 436, 154
-0.998529, 113, 193, 176, 208
-0.99853, 209, 199, 272, 214
-0.99853, 213, 199, 244, 214
-0.998538, 89, 195, 152, 210
-0.998538, 377, 161, 440, 176
-0.99854, 425, 179, 456, 194
-0.998543, 305, 149, 368, 164
-0.998543, 433, 211, 496, 226
-0.998547, 413, 153, 444, 168
-0.998548, 465, 153, 496, 168
-0.998549, 425, 149, 488, 164
-0.998551, 429, 161, 460, 176
-0.998553, 433, 185, 496, 200
-0.998555, 217, 213, 280, 228
-0.998556, 313, 79, 376, 94
-0.998559, 217, 125, 280, 140
-0.998561, 345, 111, 408, 126
-0.998566, 249, 121, 312, 136
-0.998566, 305, 147, 336, 162
-0.998567, 281, 153, 344, 168
-0.998569, 449, 169, 480, 184
-0.99857, 361, 147, 424, 162
-0.998571, 469, 181, 500, 196
-0.998573, 469, 159, 500, 174
-0.998574, 177, 205, 240, 220
-0.998578, 301, 71, 332, 86
-0.998579, 353, 155, 416, 170
-0.998581, 353, 161, 416, 176
-0.998584, 413, 161, 444, 176
-0.998585, 461, 187, 492, 202
-0.998592, 377, 167, 440, 182
-0.998592, 169, 211, 232, 226
-0.998592, 393, 151, 424, 166
-0.998594, 297, 227, 360, 242
-0.998598, 201, 209, 232, 224
-0.9986, 409, 197, 472, 212
-0.998603, 209, 137, 272, 152
-0.998603, 297, 159, 360, 174
-0.998608, 217, 207, 248, 222
-0.998611, 369, 121, 432, 136
-0.998611, 297, 235, 360, 250
-0.998612, 345, 105, 408, 120
-0.998614, 289, 79, 352, 94
-0.998614, 297, 221, 360, 236
-0.998615, 209, 131, 272, 146
-0.998617, 101, 65, 132, 320
-0.998617, 257, 129, 320, 144
-0.998618, 273, 147, 336, 162
-0.99862, 337, 77, 400, 92
-0.99862, 321, 161, 384, 176
-0.998622, 353, 167, 416, 182
-0.998623, 129, 201, 192, 216
-0.998624, 177, 157, 304, 188
-0.998624, 377, 129, 440, 144
-0.998625, 265, 75, 328, 90
-0.998628, 65, 197, 128, 212
-0.998635, 281, 139, 344, 154
-0.998636, 233, 207, 264, 222
-0.998637, 193, 17, 320, 144
-0.998637, 409, 143, 472, 158
-0.998638, 65, 203, 128, 218
-0.998639, 345, 117, 408, 132
-0.998639, 321, 155, 384, 170
-0.99864, 409, 183, 472, 198
-0.998644, 65, 221, 128, 236
-0.998644, 281, 121, 344, 136
-0.998645, 321, 143, 384, 158
-0.998646, 337, 149, 400, 164
-0.998647, 65, 209, 128, 224
-0.998647, 297, 241, 360, 256
-0.998647, 413, 147, 444, 162
-0.998648, 217, 119, 280, 134
-0.998648, 449, 161, 480, 176
-0.998649, 449, 155, 480, 170
-0.99865, 233, 197, 296, 212
-0.998655, 89, 189, 152, 204
-0.998655, 445, 177, 476, 192
-0.998655, 401, 131, 464, 146
-0.998656, 313, 115, 376, 130
-0.998659, 65, 215, 128, 230
-0.998659, 409, 191, 472, 206
-0.998659, 193, 97, 320, 128
-0.99866, 241, 111, 304, 126
-0.998662, 337, 99, 400, 114
-0.998666, 337, 71, 400, 86
-0.998667, 137, 189, 200, 204
-0.998668, 281, 127, 344, 142
-0.99867, 273, 161, 336, 176
-0.99867, 65, 227, 128, 242
-0.998671, 345, 141, 408, 156
-0.998671, 209, 111, 272, 126
-0.998676, 265, 113, 328, 128
-0.998677, 89, 201, 152, 216
-0.998678, 305, 81, 432, 112
-0.998681, 185, 193, 248, 208
-0.998682, 169, 139, 232, 154
-0.998682, 257, 153, 320, 168
-0.998684, 257, 137, 384, 168
-0.998684, 377, 173, 440, 188
-0.998684, 297, 247, 360, 262
-0.998685, 297, 271, 360, 286
-0.998685, 433, 219, 496, 234
-0.998686, 193, 217, 256, 232
-0.998686, 281, 133, 344, 148
-0.998686, 89, 207, 152, 222
-0.998686, 345, 135, 408, 150
-0.998689, 185, 111, 248, 126
-0.99869, 161, 191, 224, 206
-0.99869, 257, 135, 320, 150
-0.998691, 305, 109, 368, 124
-0.998691, 409, 203, 472, 218
-0.998691, 257, 141, 320, 156
-0.998692, 209, 193, 272, 208
-0.998695, 209, 145, 336, 176
-0.998696, 297, 261, 360, 276
-0.998696, 409, 219, 472, 234
-0.998696, 177, 127, 240, 142
-0.998697, 329, 127, 392, 142
-0.998697, 297, 253, 360, 268
-0.998702, 233, 133, 296, 148
-0.998703, 89, 217, 152, 232
-0.998703, 177, 119, 240, 134
-0.998704, 377, 109, 440, 124
-0.998707, 433, 225, 496, 240
-0.998708, 89, 225, 152, 240
-0.998709, 297, 165, 360, 180
-0.998713, 65, 113, 192, 144
-0.998713, 193, 143, 256, 158
-0.998715, 41, 201, 104, 216
-0.998715, 113, 187, 176, 202
-0.998716, 265, 227, 328, 242
-0.998719, 329, 167, 392, 182
-0.99872, 313, 137, 376, 152
-0.998721, 349, 65, 380, 320
-0.998722, 305, 63, 368, 78
-0.998726, 133, 177, 148, 304
-0.998728, 429, 65, 460, 320
-0.998738, 171, 177, 186, 304
-0.998761, 177, 177, 192, 304
-0.998765, 185, 177, 200, 304
-0.998768, 337, 221, 464, 252
-0.998798, 321, 177, 448, 208
-0.99883, 127, 177, 142, 304
-0.998834, 1, 129, 128, 160
-0.998836, 165, 177, 180, 304
-0.998838, 249, 33, 280, 288
-0.998838, 225, 181, 352, 212
-0.998841, 321, 129, 336, 256
-0.998844, 449, 145, 464, 272
-0.998844, 337, 1, 400, 128
-0.998857, 483, 161, 498, 288
-0.998868, 191, 177, 206, 304
-0.998868, 385, 97, 400, 224
-0.998873, 113, 65, 144, 320
-0.998885, 319, 209, 334, 334
-0.998887, 159, 177, 174, 304
-0.998893, 49, 65, 112, 192
-0.998897, 193, 61, 320, 92
-0.998898, 461, 161, 476, 288
-0.998911, 17, 233, 144, 264
-0.998913, 139, 177, 154, 304
-0.998915, 121, 177, 136, 304
-0.998918, 151, 177, 166, 304
-0.998922, 467, 129, 482, 256
-0.99893, 313, 209, 328, 334
-0.998935, 197, 177, 212, 304
-0.998939, 325, 209, 340, 334
-0.998942, 441, 33, 472, 288
-0.998951, 377, 81, 392, 208
-0.998973, 145, 177, 160, 304
-0.998995, 205, 177, 220, 304
-0.999007, 337, 33, 368, 288
-0.999019, 115, 177, 130, 304
-0.999022, 415, 113, 430, 240
-0.999027, 137, 241, 200, 304
-0.999028, 193, 77, 320, 108
-0.999032, 249, 225, 312, 288
-0.999035, 211, 177, 226, 304
-0.999038, 99, 177, 114, 304
-0.999053, 477, 145, 492, 272
-0.999064, 453, 193, 468, 320
-0.999072, 65, 241, 320, 304
-0.999079, 219, 177, 234, 304
-0.999082, 325, 81, 340, 208
-0.999083, 397, 97, 412, 224
-0.999085, 315, 145, 330, 272
-0.999085, 113, 137, 240, 168
-0.999092, 225, 177, 240, 304
-0.999096, 109, 177, 124, 304
-0.999103, 257, 125, 384, 156
-0.999105, 331, 209, 346, 334
-0.999106, 1, 105, 128, 136
-0.999106, 427, 129, 442, 256
-0.999108, 327, 129, 342, 256
-0.99912, 405, 113, 420, 240
-0.999129, 245, 113, 260, 240
-0.999134, 319, 81, 334, 208
-0.999136, 1, 81, 500, 144
-0.999144, 391, 113, 406, 240
-0.999146, 331, 81, 346, 208
-0.999151, 379, 129, 394, 256
-0.999153, 239, 113, 254, 240
-0.999173, 129, 97, 256, 128
-0.999173, 307, 209, 322, 334
-0.999186, 231, 177, 246, 304
-0.999191, 273, 33, 304, 288
-0.999209, 73, 65, 104, 320
-0.999216, 261, 33, 292, 288
-0.999218, 443, 145, 458, 272
-0.999222, 407, 161, 422, 288
-0.999228, 331, 33, 346, 160
-0.99923, 421, 145, 436, 272
-0.999248, 129, 233, 256, 264
-0.999254, 367, 97, 382, 224
-0.999265, 237, 177, 252, 304
-0.999271, 325, 33, 340, 160
-0.999279, 341, 33, 356, 160
-0.999284, 385, 145, 400, 272
-0.999286, 113, 73, 240, 136
-0.999292, 303, 129, 318, 256
-0.999312, 161, 49, 416, 112
-0.99934, 209, 273, 336, 334
-0.999343, 397, 161, 412, 288
-0.999349, 227, 129, 242, 256
-0.999349, 255, 113, 270, 240
-0.999353, 437, 145, 452, 272
-0.999359, 313, 81, 328, 208
-0.99936, 243, 177, 258, 304
-0.999361, 297, 97, 312, 224
-0.999362, 337, 249, 464, 280
-0.999363, 467, 177, 482, 304
-0.999365, 355, 81, 370, 208
-0.999365, 233, 97, 248, 224
-0.999378, 225, 265, 352, 296
-0.999378, 447, 193, 462, 320
-0.999381, 373, 65, 404, 320
-0.999398, 337, 209, 352, 334
-0.999412, 361, 97, 376, 224
-0.999418, 301, 209, 316, 334
-0.999421, 245, 65, 260, 192
-0.999431, 421, 97, 436, 224
-0.99944, 415, 161, 430, 288
-0.999441, 309, 145, 324, 272
-0.999442, 307, 81, 322, 208
-0.999446, 265, 129, 280, 256
-0.999448, 297, 145, 312, 272
-0.999449, 351, 33, 366, 160
-0.999455, 345, 81, 360, 208
-0.999457, 187, 129, 202, 256
-0.999459, 33, 137, 288, 200
-0.999464, 373, 129, 388, 256
-0.99947, 337, 161, 352, 288
-0.999476, 193, 253, 320, 284
-0.999477, 125, 129, 140, 256
-0.999485, 205, 129, 220, 256
-0.999492, 221, 129, 236, 256
-0.999493, 265, 81, 280, 208
-0.999494, 155, 129, 170, 256
-0.999496, 417, 65, 448, 320
-0.999506, 249, 177, 264, 304
-0.999507, 259, 161, 274, 288
-0.99951, 257, 265, 500, 328
-0.99951, 291, 97, 306, 224
-0.999513, 337, 81, 352, 208
-0.999518, 181, 129, 196, 256
-0.999523, 65, 177, 80, 304
-0.999525, 161, 129, 176, 256
-0.999528, 321, 201, 448, 232
-0.99954, 485, 113, 500, 240
-0.999542, 93, 177, 108, 304
-0.999545, 175, 129, 190, 256
-0.999548, 161, 169, 288, 200
-0.999553, 119, 129, 134, 256
-0.999559, 391, 161, 406, 288
-0.999562, 363, 49, 378, 176
-0.999563, 149, 129, 164, 256
-0.999568, 459, 209, 474, 334
-0.999571, 455, 97, 470, 224
-0.999573, 235, 49, 250, 176
-0.999574, 211, 129, 226, 256
-0.999578, 475, 97, 490, 224
-0.999578, 193, 129, 208, 256
-0.99958, 461, 113, 476, 240
-0.999584, 369, 49, 384, 176
-0.999585, 277, 81, 292, 208
-0.999585, 167, 129, 182, 256
-0.999587, 423, 155, 438, 170
-0.999589, 251, 125, 266, 140
-0.99959, 483, 155, 498, 170
-0.99959, 199, 129, 214, 256
-0.999591, 437, 147, 452, 162
-0.999591, 239, 131, 254, 146
-0.999595, 327, 153, 342, 168
-0.999595, 285, 81, 300, 208
-0.999596, 89, 65, 120, 320
-0.999597, 271, 81, 286, 208
-0.999597, 139, 129, 154, 256
-0.999597, 127, 189, 142, 204
-0.999597, 247, 201, 262, 216
-0.999598, 337, 159, 352, 174
-0.999599, 459, 197, 474, 212
-0.999599, 133, 191, 148, 206
-0.999599, 393, 133, 408, 148
-0.999599, 299, 147, 314, 162
-0.9996, 343, 177, 358, 304
-0.999601, 147, 193, 162, 208
-0.999602, 317, 141, 332, 156
-0.999602, 175, 195, 190, 210
-0.999603, 385, 149, 400, 164
-0.999606, 429, 143, 444, 158
-0.999606, 379, 151, 394, 166
-0.999606, 113, 129, 128, 256
-0.999607, 163, 195, 178, 210
-0.999607, 193, 205, 208, 220
-0.999608, 477, 175, 492, 190
-0.999608, 383, 161, 398, 176
-0.999611, 407, 129, 422, 144
-0.999611, 315, 153, 330, 168
-0.999611, 437, 161, 452, 176
-0.999612, 309, 71, 324, 86
-0.999612, 301, 153, 316, 168
-0.999612, 437, 169, 452, 184
-0.999613, 133, 129, 148, 256
-0.999613, 189, 197, 204, 212
-0.999614, 347, 69, 362, 84
-0.999615, 397, 121, 412, 136
-0.999616, 357, 33, 372, 160
-0.999616, 403, 165, 418, 180
-0.999617, 353, 111, 368, 126
-0.999617, 265, 177, 280, 304
-0.999617, 139, 191, 154, 206
-0.999618, 473, 189, 488, 204
-0.999618, 391, 147, 406, 162
-0.999618, 215, 139, 230, 154
-0.999618, 461, 181, 476, 196
-0.999619, 379, 129, 394, 144
-0.999619, 399, 135, 414, 150
-0.999622, 339, 69, 354, 84
-0.999623, 221, 213, 236, 228
-0.999623, 319, 33, 334, 160
-0.999623, 427, 179, 442, 194
-0.999624, 199, 209, 214, 224
-0.999625, 241, 199, 256, 214
-0.999625, 431, 169, 446, 184
-0.999625, 411, 141, 426, 156
-0.999627, 153, 193, 168, 208
-0.999628, 319, 71, 334, 86
-0.999628, 397, 155, 412, 170
-0.999629, 329, 69, 344, 84
-0.999629, 59, 177, 74, 304
-0.999629, 227, 213, 242, 228
-0.999629, 253, 207, 268, 222
-0.99963, 169, 195, 184, 210
-0.999631, 473, 159, 488, 174
-0.999637, 367, 161, 382, 176
-0.999638, 447, 153, 462, 168
-0.999638, 199, 199, 214, 214
-0.999639, 123, 141, 138, 156
-0.999639, 353, 69, 368, 84
-0.99964, 423, 163, 438, 178
-0.999641, 385, 109, 400, 124
-0.999642, 461, 161, 476, 176
-0.999642, 453, 167, 468, 182
-0.999643, 321, 153, 336, 168
-0.999643, 447, 189, 462, 204
-0.999643, 183, 197, 198, 212
-0.999644, 273, 129, 288, 256
-0.999644, 235, 199, 250, 214
-0.999644, 361, 71, 376, 86
-0.999646, 391, 155, 406, 170
-0.999646, 307, 147, 322, 162
-0.999647, 383, 49, 398, 176
-0.999647, 245, 133, 260, 148
-0.999649, 473, 183, 488, 198
-0.999649, 207, 199, 222, 214
-0.999649, 467, 175, 482, 190
-0.99965, 237, 211, 252, 226
-0.999651, 445, 97, 460, 224
-0.999652, 447, 181, 462, 196
-0.999653, 431, 161, 446, 176
-0.999654, 373, 155, 388, 170
-0.999657, 227, 199, 242, 214
-0.999659, 49, 65, 80, 320
-0.999659, 481, 169, 496, 184
-0.99966, 455, 177, 470, 192
-0.999662, 459, 155, 474, 170
-0.999665, 471, 169, 486, 184
-0.999665, 221, 199, 236, 214
-0.999667, 473, 149, 488, 164
-0.999667, 297, 73, 312, 88
-0.999667, 411, 161, 426, 176
-0.999671, 453, 161, 468, 176
-0.999673, 453, 197, 468, 212
-0.999674, 461, 167, 476, 182
-0.999674, 445, 161, 460, 176
-0.999675, 481, 193, 496, 208
-0.999675, 325, 147, 340, 162
-0.999677, 437, 153, 452, 168
-0.999677, 303, 73, 318, 88
-0.999678, 213, 199, 228, 214
-0.999678, 463, 187, 478, 202
-0.999682, 417, 153, 432, 168
-0.999683, 387, 131, 402, 146
-0.999683, 445, 169, 460, 184
-0.999685, 483, 181, 498, 196
-0.999686, 245, 127, 260, 142
-0.999687, 485, 209, 500, 334
-0.999688, 467, 181, 482, 196
-0.999688, 385, 155, 400, 170
-0.999691, 467, 151, 482, 166
-0.999692, 375, 161, 390, 176
-0.999692, 481, 161, 496, 176
-0.999692, 53, 177, 68, 304
-0.999693, 413, 133, 428, 148
-0.999696, 455, 189, 470, 204
-0.9997, 211, 209, 226, 224
-0.999703, 421, 137, 436, 152
-0.999705, 307, 153, 322, 168
-0.999708, 205, 209, 220, 224
-0.999708, 467, 161, 482, 176
-0.999714, 427, 149, 442, 164
-0.999717, 441, 177, 456, 192
-0.999724, 219, 207, 234, 222
-0.999727, 423, 143, 438, 158
-0.999728, 247, 207, 262, 222
-0.999729, 337, 25, 464, 88
-0.99974, 407, 151, 422, 166
-0.99974, 417, 159, 432, 174
-0.999741, 417, 143, 432, 158
-0.999742, 225, 207, 240, 222
-0.999748, 81, 241, 208, 272
-0.999753, 317, 147, 332, 162
-0.999753, 231, 207, 246, 222
-0.999757, 453, 153, 468, 168
-0.999758, 241, 205, 256, 220
-0.99976, 49, 97, 176, 128
-0.999766, 257, 41, 500, 104
-0.99977, 49, 85, 176, 116
-0.999772, 367, 155, 382, 170
-0.999776, 369, 89, 496, 120
-0.999779, 81, 149, 208, 180
-0.999783, 241, 277, 368, 308
-0.999792, 1, 93, 128, 124
-0.999809, 385, 33, 416, 288
-0.999814, 129, 153, 256, 184
-0.999819, 65, 65, 320, 128
-0.999836, 305, 189, 432, 220
-0.999936, 305, 49, 432, 80
-0.999949, 113, 241, 176, 304
-0.999966, 37, 65, 68, 320
-0.999969, 89, 145, 152, 208
-1.00003, 321, 265, 448, 296
-1.00003, 17, 177, 48, 304
-1.00006, 129, 245, 256, 276
-1.00007, 265, 177, 296, 304
-1.00009, 161, 241, 224, 304
-1.0001, 65, 129, 192, 160
-1.00014, 61, 65, 92, 320
-1.00014, 17, 65, 48, 320
-1.00015, 81, 165, 208, 196
-1.00015, 273, 177, 400, 208
-1.00017, 369, 233, 496, 264
-1.00017, 273, 201, 400, 232
-1.0002, 405, 65, 436, 320
-1.00022, 289, 277, 416, 308
-1.00022, 73, 65, 104, 192
-1.00023, 1, 81, 128, 112
-1.00024, 5, 65, 36, 320
-1.00027, 1, 241, 500, 304
-1.00029, 33, 97, 96, 160
-1.0004, 81, 253, 208, 284
-1.00043, 17, 245, 144, 276
-1.00043, 161, 57, 288, 120
-1.00045, 33, 173, 160, 204
-1.00046, 145, 85, 272, 116
-1.00046, 33, 145, 160, 176
-1.00049, 257, 45, 384, 76
-1.00049, 353, 73, 480, 104
-1.00052, 81, 73, 208, 104
-1.00055, 225, 1, 288, 334
-1.00056, 225, 17, 352, 80
-1.00057, 241, 289, 368, 320
-1.00058, 85, 97, 116, 224
-1.0006, 161, 25, 416, 88
-1.0006, 129, 257, 256, 288
-1.0006, 65, 41, 320, 104
-1.00061, 177, 269, 304, 300
-1.00062, 305, 33, 432, 64
-1.00062, 193, 285, 320, 316
-1.00065, 225, 33, 352, 64
-1.00067, 145, 73, 272, 104
-1.00068, 345, 225, 408, 288
-1.00069, 81, 241, 144, 304
-1.0007, 1, 69, 128, 100
-1.00071, 209, 49, 336, 80
-1.00075, 145, 265, 272, 328
-1.00076, 33, 257, 160, 288
-1.00077, 321, 289, 448, 320
-1.00078, 81, 265, 208, 296
-1.00079, 277, 193, 308, 320
-1.0008, 1, 161, 128, 192
-1.00082, 409, 97, 472, 160
-1.00085, 241, 21, 368, 52
-1.00085, 289, 301, 416, 332
-1.00086, 369, 293, 496, 324
-1.00086, 305, 21, 432, 52
-1.00087, 193, 297, 320, 328
-1.00088, 353, 49, 480, 80
-1.0009, 145, 61, 272, 92
-1.00091, 145, 281, 272, 312
-1.00091, 241, 305, 368, 334
-1.00095, 225, 33, 288, 160
-1.00098, 357, 17, 388, 144
-1.00101, 49, 57, 176, 120
-1.00102, 97, 73, 160, 136
-1.00117, 65, 265, 320, 328
-1.00119, 145, 65, 208, 192
-1.00125, 257, 17, 500, 80
-1.00127, 353, 33, 416, 96
-1.00132, 97, 265, 224, 328
-1.00133, 377, 65, 440, 128
-1.0014, 201, 33, 264, 160
-1.00146, 73, 49, 136, 176
-1.00147, 1, 57, 500, 120
-1.00148, 17, 217, 80, 280
-1.00152, 53, 97, 84, 224
-1.00155, 49, 265, 176, 328
-1.00156, 49, 65, 112, 128
-1.00167, 417, 193, 448, 320
-1.00169, 161, 1, 416, 64
-1.00169, 409, 65, 440, 192
-1.00177, 225, 33, 256, 160
-1.0018, 113, 41, 240, 104
-1.00181, 1, 265, 500, 328
-1.00188, 369, 209, 432, 272
-1.0019, 33, 1, 288, 64
-1.00191, 1, 49, 128, 112
-1.00195, 305, 1, 432, 64
-1.00199, 129, 89, 192, 152
-1.00209, 57, 241, 120, 304
-1.00213, 1, 265, 128, 328
-1.00221, 5, 193, 36, 320
-1.00222, 113, 17, 240, 80
-1.00225, 185, 241, 248, 304
-1.00227, 369, 1, 496, 64
-1.00228, 161, 33, 288, 96
-1.00234, 97, 33, 160, 160
-1.00242, 353, 273, 480, 334
-1.00243, 33, 97, 64, 224
-1.00243, 73, 17, 104, 144
-1.0025, 25, 65, 88, 128
-1.00259, 65, 17, 192, 80
-1.00268, 161, 1, 288, 64
-1.00268, 1, 9, 128, 72
-1.00269, 1, 81, 64, 144
-1.00275, 17, 169, 80, 232
-1.00275, 1, 33, 500, 96
-1.00279, 217, 57, 280, 120
-1.00283, 73, 113, 136, 176
-1.00284, 197, 81, 228, 208
-1.00287, 249, 273, 312, 334
-1.0029, 17, 97, 48, 224
-1.00298, 241, 33, 272, 160
-1.00301, 1, 97, 32, 224
-1.00307, 97, 33, 128, 160
-1.0031, 345, 249, 408, 312
-1.0032, 1, 129, 64, 192
-1.00328, 345, 209, 408, 334
-1.00331, 25, 33, 88, 160
-1.00351, 1, 9, 500, 72
-1.00351, 249, 33, 312, 160
-1.00359, 73, 65, 136, 128
-1.00363, 49, 33, 80, 160
-1.00375, 385, 193, 416, 320
-1.00378, 349, 209, 380, 334
-1.00387, 49, 17, 176, 144
-1.00392, 285, 33, 316, 160
-1.00404, 113, 81, 176, 208
-1.00414, 185, 81, 216, 208
-1.00422, 385, 241, 448, 304
-1.00426, 17, 241, 80, 304
-1.00429, 269, 33, 300, 160
-1.00434, 25, 81, 88, 208
-1.00451, 321, 273, 384, 334
-1.00452, 129, 81, 160, 208
-1.00459, 145, 33, 176, 160
-1.00459, 121, 137, 184, 200
-1.00462, 405, 209, 436, 334
-1.00464, 109, 49, 140, 176
-1.00467, 85, 49, 116, 176
-1.00483, 253, 33, 284, 160
-1.00498, 209, 249, 272, 312
-1.005, 369, 17, 432, 144
-1.00508, 13, 49, 44, 176
-1.00521, 125, 33, 156, 160
-1.00524, 1, 49, 32, 176
-1.00527, 1, 145, 32, 272
-1.00536, 25, 49, 56, 176
-1.00538, 97, 81, 128, 208
-1.00542, 61, 49, 92, 176
-1.00551, 373, 193, 404, 320
-1.00569, 421, 49, 452, 176
-1.00595, 197, 33, 228, 160
-1.00596, 37, 49, 68, 176
-1.00609, 1, 1, 256, 128
-1.00613, 157, 49, 188, 176
-1.00613, 49, 17, 112, 144
-1.00616, 329, 17, 392, 80
-1.00626, 361, 209, 392, 334
-1.00633, 369, 209, 432, 334
-1.00647, 161, 57, 224, 120
-1.00653, 1, 49, 64, 176
-1.00662, 173, 65, 204, 192
-1.00673, 433, 241, 496, 304
-1.00675, 409, 249, 472, 312
-1.00693, 81, 41, 144, 104
-1.00694, 193, 57, 256, 120
-1.00696, 185, 33, 216, 160
-1.00699, 209, 17, 240, 144
-1.0074, 141, 81, 172, 208
-1.00756, 61, 1, 92, 128
-1.00766, 121, 33, 184, 160
-1.00785, 373, 1, 404, 128
-1.00843, 409, 17, 440, 144
-1.00857, 97, 1, 224, 128
-1.01015, 145, 17, 208, 144
-1.01045, 73, 1, 136, 128
-1.01186, 401, 33, 464, 160
-1.01209, 177, 17, 240, 144
-1.01299, 433, 49, 496, 176
-1.014, 425, 1, 488, 128
-1.01464, 1, 1, 64, 128
