1969
-0.147791, 1, 1, 500, 375
-0.213666, 1, 1, 500, 256
-0.231251, 33, 1, 288, 375
-0.311146, 1, 97, 500, 352
-0.3397, 257, 1, 500, 375
-0.474823, 129, 1, 384, 375
-0.491907, 33, 97, 288, 352
-0.498392, 65, 1, 320, 256
-0.585471, 257, 97, 500, 352
-0.600732, 225, 1, 480, 256
-0.613798, 129, 129, 384, 375
-0.805436, 33, 1, 160, 375
-0.814147, 353, 1, 480, 375
-0.820266, 49, 33, 176, 288
-0.825968, 113, 1, 240, 375
-0.826754, 369, 1, 496, 256
-0.833543, 1, 97, 128, 352
-0.842899, 145, 65, 272, 320
-0.847946, 97, 1, 224, 256
-0.849436, 1, 1, 128, 256
-0.851052, 1, 161, 500, 288
-0.851315, 81, 129, 208, 375
-0.85521, 1, 33, 500, 160
-0.855428, 161, 1, 288, 375
-0.856807, 225, 1, 352, 375
-0.861011, 1, 81, 500, 208
-0.865515, 209, 129, 336, 375
-0.868153, 193, 1, 320, 256
-0.868519, 353, 97, 480, 352
-0.878254, 257, 1, 384, 256
-0.886495, 33, 145, 288, 272
-0.887519, 305, 1, 432, 375
-0.888043, 1, 209, 500, 336
-0.88956, 33, 49, 288, 176
-0.891653, 257, 129, 500, 256
-0.894588, 305, 97, 432, 352
-0.896826, 1, 241, 256, 368
-0.897589, 97, 97, 352, 224
-0.897669, 225, 1, 480, 128
-0.898904, 65, 1, 320, 128
-0.903519, 1, 193, 256, 320
-0.906569, 305, 1, 432, 256
-0.912489, 257, 129, 384, 375
-0.915431, 129, 145, 384, 272
-0.91574, 49, 113, 112, 240
-0.916233, 89, 161, 152, 288
-0.916437, 193, 81, 448, 208
-0.916894, 17, 161, 144, 288
-0.917035, 33, 33, 160, 160
-0.918344, 1, 81, 128, 208
-0.91852, 129, 161, 256, 288
-0.918856, 17, 225, 144, 352
-0.921255, 209, 145, 336, 272
-0.921914, 1, 97, 256, 224
-0.924715, 113, 113, 240, 240
-0.925184, 97, 209, 224, 336
-0.925689, 353, 97, 480, 224
-0.926287, 161, 65, 288, 192
-0.926663, 225, 177, 480, 304
-0.927276, 417, 49, 480, 176
-0.92769, 65, 161, 192, 288
-0.928034, 9, 161, 72, 288
-0.928147, 161, 113, 288, 240
-0.928251, 17, 81, 80, 208
-0.928673, 361, 81, 424, 208
-0.928834, 81, 33, 208, 160
-0.929095, 121, 161, 184, 288
-0.929121, 97, 193, 352, 320
-0.929369, 177, 1, 304, 128
-0.930068, 425, 177, 488, 304
-0.930187, 137, 113, 200, 240
-0.930674, 49, 113, 176, 240
-0.931484, 233, 113, 296, 240
-0.931962, 145, 17, 208, 144
-0.932133, 49, 49, 112, 176
-0.932219, 73, 113, 136, 240
-0.932851, 433, 1, 496, 128
-0.932935, 57, 177, 120, 304
-0.933525, 97, 113, 160, 240
-0.934152, 369, 1, 496, 128
-0.934232, 113, 1, 176, 128
-0.934344, 233, 1, 296, 128
-0.935081, 417, 113, 480, 240
-0.935461, 129, 17, 256, 144
-0.936348, 177, 161, 240, 288
-0.936756, 105, 209, 168, 336
-0.937129, 209, 129, 272, 256
-0.938009, 209, 97, 336, 224
-0.938958, 121, 65, 184, 192
-0.939411, 177, 65, 240, 192
-0.940239, 257, 145, 384, 272
-0.940927, 257, 145, 320, 272
-0.941286, 193, 193, 320, 320
-0.942079, 217, 65, 280, 192
-0.942308, 17, 97, 80, 160
-0.942489, 305, 97, 432, 224
-0.943206, 17, 1, 80, 128
-0.943566, 57, 177, 120, 240
-0.94419, 369, 49, 496, 176
-0.944669, 137, 209, 200, 336
-0.944799, 89, 33, 152, 160
-0.945366, 177, 17, 240, 144
-0.945489, 265, 161, 328, 224
-0.945519, 89, 185, 152, 248
-0.945655, 121, 201, 184, 264
-0.945688, 209, 1, 272, 128
-0.945928, 33, 161, 96, 288
-0.945942, 49, 153, 112, 216
-0.946302, 49, 1, 112, 128
-0.946717, 201, 177, 264, 304
-0.94699, 145, 161, 208, 288
-0.947092, 257, 97, 384, 224
-0.947349, 145, 65, 208, 192
-0.9474, 121, 17, 184, 80
-0.947519, 393, 33, 456, 160
-0.947633, 217, 161, 280, 224
-0.947761, 401, 113, 464, 176
-0.948213, 89, 217, 152, 280
-0.948219, 337, 129, 400, 256
-0.948283, 9, 121, 72, 184
-0.948336, 353, 97, 416, 160
-0.948415, 49, 129, 112, 192
-0.948548, 233, 161, 296, 288
-0.949245, 377, 105, 440, 168
-0.949346, 241, 169, 304, 232
-0.949353, 145, 41, 208, 104
-0.949805, 393, 97, 456, 224
-0.950082, 337, 145, 464, 272
-0.951201, 177, 113, 240, 240
-0.951818, 209, 49, 336, 176
-0.95212, 17, 185, 80, 248
-0.952135, 225, 1, 352, 128
-0.952231, 233, 9, 296, 72
-0.952376, 145, 209, 272, 336
-0.952556, 241, 137, 304, 200
-0.952562, 57, 201, 120, 264
-0.952698, 137, 121, 200, 184
-0.952886, 73, 145, 136, 208
-0.952892, 433, 1, 496, 64
-0.953598, 281, 161, 344, 288
-0.953709, 113, 121, 176, 184
-0.953832, 97, 241, 352, 368
-0.953977, 49, 1, 112, 256
-0.954441, 201, 121, 264, 184
-0.954915, 97, 33, 160, 96
-0.955117, 161, 225, 224, 352
-0.955201, 369, 209, 496, 336
-0.955338, 137, 65, 200, 128
-0.955409, 17, 209, 80, 272
-0.955465, 417, 225, 480, 352
-0.955715, 201, 193, 264, 256
-0.955831, 257, 17, 320, 144
-0.955845, 121, 177, 184, 240
-0.956405, 353, 121, 416, 184
-0.956504, 161, 201, 224, 264
-0.956999, 17, 153, 80, 216
-0.957106, 257, 49, 384, 176
-0.957125, 313, 153, 376, 216
-0.957336, 241, 193, 304, 256
-0.957567, 1, 241, 64, 368
-0.957687, 97, 153, 160, 216
-0.957765, 17, 73, 80, 136
-0.95796, 433, 25, 496, 88
-0.95809, 209, 33, 272, 96
-0.958093, 425, 225, 488, 288
-0.958189, 305, 129, 368, 256
-0.958205, 17, 65, 80, 320
-0.958383, 257, 97, 320, 224
-0.958525, 177, 145, 240, 208
-0.958981, 49, 49, 112, 112
-0.959114, 137, 225, 200, 288
-0.9592, 145, 145, 208, 208
-0.959283, 81, 209, 144, 336
-0.959399, 177, 89, 240, 152
-0.960045, 289, 169, 352, 232
-0.960091, 249, 33, 312, 96
-0.960158, 193, 225, 256, 352
-0.960196, 353, 1, 416, 128
-0.960199, 417, 137, 480, 200
-0.960678, 153, 97, 216, 160
-0.960712, 425, 177, 488, 240
-0.960829, 17, 41, 80, 104
-0.960912, 49, 97, 112, 352
-0.960956, 209, 1, 272, 64
-0.961161, 201, 225, 264, 288
-0.961181, 425, 105, 488, 168
-0.961243, 233, 113, 296, 176
-0.962592, 81, 1, 144, 256
-0.96279, 401, 33, 464, 96
-0.962866, 145, 297, 208, 360
-0.963042, 417, 73, 480, 136
-0.96311, 185, 33, 248, 96
-0.963191, 233, 89, 296, 152
-0.963319, 105, 265, 168, 328
-0.96346, 177, 65, 240, 128
-0.963491, 129, 89, 192, 152
-0.963519, 337, 145, 400, 208
-0.96364, 121, 41, 184, 104
-0.963648, 161, 169, 224, 232
-0.963748, 409, 1, 472, 64
-0.963804, 337, 81, 400, 208
-0.963924, 41, 105, 104, 168
-0.963988, 137, 1, 200, 256
-0.964244, 393, 1, 456, 256
-0.964297, 49, 137, 80, 200
-0.964885, 265, 137, 328, 200
-0.965059, 17, 233, 144, 296
-0.9654, 265, 185, 328, 248
-0.965435, 177, 121, 240, 184
-0.965448, 81, 9, 144, 72
-0.965453, 105, 33, 168, 288
-0.965481, 409, 249, 472, 312
-0.965509, 433, 97, 496, 352
-0.965694, 353, 121, 480, 184
-0.965752, 305, 1, 432, 128
-0.965781, 1, 145, 128, 208
-0.965849, 113, 313, 176, 375
-0.965935, 73, 121, 136, 184
-0.966073, 445, 137, 476, 200
-0.966113, 433, 161, 464, 288
-0.966164, 177, 1, 240, 256
-0.966178, 209, 161, 336, 224
-0.966208, 417, 201, 480, 264
-0.966235, 49, 225, 112, 352
-0.966258, 233, 65, 296, 128
-0.966414, 41, 25, 104, 88
-0.96654, 61, 113, 92, 240
-0.966553, 49, 177, 176, 240
-0.966879, 361, 129, 424, 256
-0.966901, 121, 145, 184, 208
-0.967112, 453, 65, 484, 192
-0.967113, 209, 97, 272, 160
-0.96713, 49, 225, 112, 288
-0.967211, 209, 145, 240, 272
-0.967364, 249, 177, 280, 240
-0.967473, 241, 137, 272, 200
-0.96766, 81, 209, 208, 272
-0.967717, 97, 25, 224, 88
-0.967781, 49, 97, 80, 224
-0.967904, 261, 129, 292, 256
-0.968124, 113, 129, 144, 256
-0.96813, 101, 161, 132, 224
-0.968141, 417, 1, 480, 256
-0.968319, 1, 121, 128, 184
-0.968338, 125, 145, 156, 272
-0.9684, 17, 1, 80, 64
-0.968416, 89, 161, 120, 224
-0.968491, 177, 233, 240, 296
-0.968648, 65, 121, 96, 184
-0.968668, 225, 129, 256, 256
-0.968674, 1, 305, 64, 368
-0.96868, 49, 49, 176, 112
-0.968687, 49, 129, 176, 192
-0.968693, 137, 129, 200, 375
-0.968711, 17, 289, 144, 352
-0.968975, 145, 41, 272, 104
-0.96898, 193, 169, 256, 232
-0.969085, 89, 241, 152, 304
-0.969198, 125, 17, 156, 80
-0.969289, 109, 185, 140, 248
-0.969324, 257, 225, 500, 352
-0.969492, 265, 9, 328, 72
-0.969591, 145, 25, 176, 88
-0.969632, 241, 193, 368, 320
-0.969632, 73, 113, 104, 240
-0.969657, 33, 201, 160, 264
-0.969706, 437, 49, 468, 176
-0.969711, 113, 289, 176, 352
-0.969872, 209, 57, 272, 120
-0.969906, 93, 161, 124, 288
-0.970202, 441, 113, 472, 240
-0.970231, 433, 249, 496, 312
-0.970243, 161, 97, 224, 352
-0.970247, 257, 153, 288, 216
-0.9703, 129, 209, 160, 272
-0.970314, 65, 153, 96, 216
-0.970345, 161, 137, 288, 200
-0.97035, 45, 49, 76, 176
-0.970431, 217, 1, 280, 256
-0.970434, 385, 145, 448, 272
-0.970569, 337, 1, 400, 64
-0.970574, 241, 65, 272, 192
-0.97059, 277, 161, 308, 224
-0.970629, 445, 113, 476, 176
-0.970665, 385, 97, 416, 160
-0.970775, 169, 209, 200, 336
-0.970777, 241, 113, 272, 240
-0.970824, 161, 129, 192, 192
-0.970841, 113, 121, 240, 184
-0.970958, 369, 9, 496, 72
-0.970959, 129, 177, 160, 240
-0.971044, 65, 33, 96, 160
-0.97105, 177, 9, 240, 72
-0.971168, 225, 153, 256, 216
-0.971215, 137, 1, 168, 64
-0.971266, 161, 33, 192, 160
-0.971315, 145, 1, 272, 64
-0.971347, 105, 177, 136, 304
-0.971388, 105, 129, 168, 375
-0.971439, 113, 153, 240, 216
-0.971444, 25, 241, 88, 368
-0.97152, 1, 241, 64, 304
-0.971529, 241, 33, 304, 288
-0.971556, 1, 169, 128, 232
-0.971574, 237, 9, 268, 72
-0.971574, 433, 185, 464, 248
-0.971609, 149, 113, 180, 240
-0.971633, 377, 25, 440, 88
-0.971691, 281, 113, 344, 240
-0.971735, 137, 145, 168, 272
-0.971744, 145, 9, 208, 72
-0.971985, 161, 113, 192, 240
-0.972031, 401, 225, 464, 288
-0.972036, 321, 105, 384, 168
-0.972065, 257, 25, 288, 88
-0.972158, 141, 65, 172, 192
-0.972171, 193, 17, 320, 80
-0.972196, 113, 153, 144, 216
-0.972236, 433, 49, 496, 112
-0.972292, 141, 1, 172, 128
-0.972368, 73, 49, 136, 112
-0.97237, 161, 217, 192, 280
-0.972381, 53, 113, 84, 176
-0.97242, 85, 113, 116, 240
-0.972492, 93, 193, 124, 256
-0.972594, 49, 153, 176, 216
-0.972613, 237, 161, 268, 224
-0.972654, 385, 81, 416, 208
-0.972685, 177, 81, 304, 144
-0.972739, 161, 161, 288, 224
-0.972748, 241, 1, 272, 128
-0.972872, 21, 177, 52, 304
-0.972912, 145, 193, 272, 256
-0.972979, 45, 73, 76, 136
-0.972991, 225, 81, 256, 208
-0.973072, 117, 121, 148, 184
-0.973112, 113, 241, 176, 304
-0.973145, 41, 145, 72, 272
-0.973156, 221, 17, 252, 144
-0.973224, 181, 161, 212, 288
-0.973414, 353, 97, 480, 160
-0.973448, 225, 209, 288, 336
-0.973456, 297, 161, 328, 224
-0.973501, 261, 129, 292, 192
-0.973519, 305, 145, 432, 208
-0.973562, 209, 161, 240, 224
-0.973592, 97, 137, 128, 200
-0.973597, 49, 1, 112, 375
-0.973742, 61, 161, 92, 288
-0.973763, 401, 121, 432, 184
-0.973805, 257, 193, 320, 320
-0.973814, 17, 265, 144, 328
-0.973895, 273, 1, 304, 128
-0.973905, 457, 73, 488, 136
-0.97395, 149, 201, 180, 264
-0.973959, 73, 129, 136, 375
-0.973979, 285, 145, 316, 272
-0.974049, 457, 1, 488, 128
-0.974199, 465, 81, 496, 208
-0.974199, 417, 113, 448, 176
-0.974204, 113, 97, 240, 160
-0.974224, 121, 1, 152, 128
-0.974244, 241, 137, 368, 200
-0.974245, 237, 185, 268, 248
-0.974249, 257, 161, 384, 224
-0.974257, 97, 313, 224, 375
-0.974316, 41, 161, 72, 224
-0.974335, 53, 1, 84, 128
-0.97442, 125, 97, 156, 224
-0.974453, 149, 161, 180, 288
-0.974586, 21, 185, 52, 248
-0.974626, 269, 17, 300, 80
-0.974677, 353, 145, 480, 208
-0.974707, 469, 17, 500, 144
-0.974775, 101, 113, 132, 240
-0.974889, 305, 97, 432, 160
-0.974906, 209, 97, 240, 224
-0.974912, 221, 129, 252, 192
-0.974934, 361, 81, 392, 208
-0.974988, 161, 113, 288, 176
-0.974989, 113, 241, 144, 368
-0.975003, 161, 89, 192, 152
-0.975039, 369, 65, 496, 128
-0.975041, 445, 161, 476, 288
-0.975197, 49, 249, 112, 312
-0.975281, 41, 81, 104, 144
-0.975347, 61, 177, 92, 240
-0.975384, 73, 97, 136, 160
-0.975397, 1, 153, 32, 216
-0.975424, 313, 129, 376, 192
-0.975447, 393, 145, 456, 208
-0.975521, 85, 129, 116, 192
-0.975532, 437, 1, 468, 128
-0.975534, 61, 49, 92, 112
-0.975563, 193, 201, 320, 264
-0.975616, 253, 17, 284, 144
-0.975626, 433, 209, 464, 272
-0.975632, 193, 241, 320, 368
-0.975637, 129, 233, 256, 296
-0.975667, 245, 177, 276, 304
-0.975669, 361, 1, 424, 256
-0.975679, 49, 25, 176, 88
-0.975687, 241, 185, 368, 248
-0.975687, 117, 209, 148, 272
-0.975801, 129, 193, 160, 320
-0.975812, 177, 313, 208, 375
-0.975816, 1, 97, 128, 160
-0.975857, 273, 129, 304, 256
-0.975905, 409, 1, 472, 375
-0.975927, 137, 113, 168, 176
-0.975929, 349, 129, 380, 192
-0.975985, 225, 217, 288, 280
-0.975986, 17, 209, 48, 272
-0.975992, 245, 33, 276, 96
-0.976065, 217, 97, 280, 352
-0.976086, 225, 177, 256, 304
-0.976147, 241, 105, 272, 168
-0.976251, 261, 177, 292, 240
-0.976268, 385, 193, 448, 320
-0.976288, 181, 33, 212, 96
-0.976319, 193, 161, 224, 288
-0.976345, 97, 257, 224, 320
-0.976378, 273, 33, 336, 96
-0.976406, 149, 81, 180, 144
-0.976467, 369, 89, 400, 152
-0.976491, 441, 1, 472, 64
-0.976493, 97, 1, 224, 64
-0.976569, 97, 289, 224, 352
-0.97658, 165, 49, 196, 112
-0.976655, 149, 121, 180, 184
-0.976798, 241, 57, 272, 120
-0.976814, 81, 1, 144, 375
-0.97689, 241, 129, 304, 375
-0.976899, 265, 33, 328, 288
-0.976928, 1, 49, 128, 112
-0.977079, 105, 33, 136, 160
-0.977188, 181, 81, 212, 208
-0.977201, 157, 209, 188, 336
-0.977214, 221, 193, 252, 256
-0.977218, 81, 233, 208, 296
-0.977297, 265, 129, 328, 375
-0.977372, 25, 89, 56, 152
-0.977372, 441, 209, 472, 336
-0.977384, 385, 1, 448, 64
-0.977441, 5, 57, 36, 120
-0.97745, 313, 177, 376, 240
-0.977498, 13, 241, 44, 368
-0.977537, 209, 121, 240, 184
-0.97754, 429, 113, 460, 176
-0.977548, 289, 1, 416, 64
-0.977568, 25, 273, 88, 336
-0.977594, 309, 169, 340, 232
-0.977597, 449, 233, 480, 296
-0.977629, 369, 129, 400, 192
-0.977641, 77, 153, 108, 216
-0.977654, 361, 145, 424, 208
-0.977686, 1, 49, 32, 176
-0.977726, 97, 49, 224, 112
-0.977746, 409, 97, 472, 352
-0.977756, 85, 33, 116, 160
-0.977831, 425, 273, 488, 336
-0.97786, 41, 241, 72, 368
-0.977901, 257, 65, 288, 192
-0.977906, 225, 33, 256, 96
-0.977919, 429, 41, 460, 104
-0.977921, 177, 33, 208, 160
-0.977938, 197, 209, 228, 336
-0.977995, 145, 153, 176, 216
-0.978017, 393, 81, 456, 144
-0.978065, 9, 1, 40, 128
-0.978124, 257, 113, 384, 176
-0.97819, 425, 1, 456, 128
-0.978221, 361, 1, 424, 64
-0.978225, 129, 73, 256, 136
-0.978251, 9, 129, 40, 256
-0.978261, 1, 1, 64, 375
-0.978283, 453, 113, 484, 240
-0.978367, 209, 225, 240, 288
-0.978381, 429, 241, 460, 304
-0.978387, 173, 169, 204, 232
-0.978489, 209, 1, 240, 128
-0.9785, 193, 17, 224, 144
-0.978527, 121, 1, 184, 375
-0.978534, 305, 121, 432, 184
-0.978536, 241, 17, 368, 80
-0.978569, 153, 273, 216, 336
-0.978576, 241, 1, 304, 375
-0.978604, 193, 129, 224, 192
-0.978613, 425, 9, 456, 72
-0.978677, 221, 105, 252, 168
-0.978782, 117, 193, 148, 320
-0.978812, 193, 129, 256, 375
-0.978814, 305, 9, 368, 72
-0.97884, 73, 161, 104, 288
-0.978852, 21, 81, 52, 208
-0.97888, 129, 153, 160, 216
-0.97892, 329, 145, 360, 208
-0.978974, 293, 185, 324, 248
-0.978982, 173, 209, 204, 272
-0.97902, 177, 1, 240, 375
-0.979054, 1, 233, 32, 296
-0.979096, 113, 273, 144, 336
-0.9791, 369, 233, 496, 296
-0.979104, 153, 249, 216, 312
-0.979114, 405, 81, 436, 208
-0.979193, 57, 25, 88, 88
-0.979224, 17, 297, 48, 360
-0.979224, 429, 113, 460, 240
-0.979258, 353, 97, 416, 352
-0.979287, 297, 145, 328, 272
-0.979303, 73, 177, 104, 240
-0.979359, 313, 81, 376, 208
-0.979366, 349, 113, 380, 240
-0.979411, 385, 97, 448, 352
-0.979419, 221, 81, 252, 144
-0.979442, 449, 257, 480, 320
-0.979503, 25, 1, 88, 375
-0.979534, 65, 97, 192, 160
-0.979617, 385, 201, 448, 264
-0.979636, 185, 89, 216, 152
-0.97965, 417, 113, 448, 240
-0.979676, 157, 297, 188, 360
-0.979691, 465, 241, 496, 368
-0.979778, 373, 97, 404, 224
-0.979821, 169, 313, 232, 375
-0.979876, 209, 49, 240, 176
-0.979882, 225, 217, 256, 280
-0.97998, 109, 241, 140, 304
-0.979988, 241, 81, 272, 144
-0.979996, 189, 297, 220, 360
-0.980008, 445, 177, 476, 240
-0.98013, 249, 201, 280, 264
-0.980176, 289, 129, 352, 192
-0.980225, 205, 33, 236, 96
-0.980297, 113, 65, 176, 128
-0.980338, 73, 289, 136, 352
-0.980468, 377, 1, 408, 128
-0.980491, 201, 1, 264, 375
-0.980516, 193, 41, 320, 104
-0.980549, 353, 153, 384, 216
-0.980561, 433, 1, 496, 375
-0.980564, 141, 225, 172, 352
-0.980611, 193, 113, 224, 240
-0.980671, 29, 289, 60, 352
-0.980688, 81, 201, 112, 264
-0.980703, 33, 73, 160, 136
-0.98082, 353, 209, 480, 272
-0.980855, 377, 1, 440, 375
-0.980867, 265, 57, 328, 120
-0.980918, 461, 233, 492, 296
-0.980933, 253, 57, 284, 120
-0.980934, 129, 41, 160, 104
-0.980974, 313, 1, 376, 256
-0.98105, 469, 81, 500, 144
-0.981098, 49, 1, 176, 64
-0.981122, 433, 145, 464, 208
-0.981186, 169, 161, 200, 288
-0.981195, 37, 121, 68, 184
-0.98127, 469, 49, 500, 112
-0.981311, 181, 241, 212, 368
-0.981391, 281, 193, 312, 256
-0.981418, 193, 33, 224, 96
-0.981437, 257, 177, 288, 304
-0.9815, 129, 49, 160, 176
-0.981506, 1, 281, 64, 344
-0.981512, 197, 65, 228, 128
-0.981536, 177, 289, 208, 352
-0.98155, 445, 57, 476, 120
-0.981564, 41, 1, 104, 64
-0.981576, 97, 177, 224, 240
-0.981948, 25, 233, 88, 296
-0.982048, 165, 25, 196, 88
-0.982191, 1, 25, 128, 88
-0.982222, 25, 33, 56, 160
-0.98226, 341, 153, 372, 216
-0.982308, 285, 25, 316, 88
-0.982337, 129, 233, 160, 296
-0.982341, 237, 209, 268, 272
-0.982347, 197, 153, 228, 216
-0.982439, 457, 193, 488, 320
-0.982484, 97, 233, 128, 296
-0.982574, 209, 209, 240, 336
-0.982663, 253, 89, 284, 152
-0.982843, 369, 33, 496, 96
-0.982858, 369, 1, 400, 64
-0.982884, 105, 113, 136, 176
-0.982896, 41, 1, 72, 128
-0.982909, 49, 49, 80, 112
-0.98299, 177, 145, 208, 208
-0.983006, 401, 177, 464, 240
-0.983015, 353, 185, 480, 248
-0.983031, 225, 1, 256, 64
-0.983136, 153, 1, 216, 375
-0.983362, 177, 225, 304, 288
-0.983371, 289, 1, 352, 128
-0.983434, 193, 65, 224, 192
-0.983469, 209, 105, 336, 168
-0.983531, 97, 97, 160, 160
-0.983575, 37, 97, 68, 224
-0.983691, 1, 241, 32, 368
-0.983733, 25, 313, 88, 375
-0.983813, 273, 177, 304, 304
-0.983886, 17, 313, 144, 375
-0.984125, 425, 49, 456, 176
-0.984154, 401, 17, 432, 144
-0.984177, 85, 209, 116, 336
-0.984235, 305, 169, 432, 232
-0.984403, 453, 241, 484, 368
-0.98448, 429, 209, 460, 336
-0.984718, 305, 49, 432, 176
-0.984885, 265, 105, 328, 168
-0.98495, 401, 129, 432, 256
-0.985009, 389, 17, 420, 144
-0.98519, 161, 297, 288, 360
-0.98572, 305, 25, 432, 88
-0.985956, 321, 1, 384, 128
-0.986011, 257, 73, 384, 136
-0.986048, 361, 129, 392, 256
-0.986416, 353, 1, 416, 375
-0.986435, 321, 193, 448, 320
-0.986484, 413, 33, 444, 160
-0.986747, 309, 145, 340, 272
-0.987048, 97, 153, 352, 216
-0.987195, 305, 1, 368, 375
-0.987347, 1, 209, 256, 272
-0.987358, 257, 145, 500, 208
-0.987438, 113, 81, 144, 208
-0.987594, 81, 73, 208, 136
-0.987684, 285, 97, 316, 224
-0.987706, 125, 241, 156, 368
-0.987735, 41, 161, 104, 192
-0.987789, 305, 177, 368, 304
-0.987902, 249, 25, 312, 56
-0.987991, 57, 177, 120, 208
-0.988116, 329, 97, 392, 352
-0.988129, 33, 41, 288, 104
-0.98814, 393, 129, 456, 160
-0.988237, 417, 141, 480, 172
-0.98827, 265, 169, 328, 200
-0.988303, 73, 133, 136, 164
-0.988322, 5, 193, 36, 320
-0.988348, 49, 193, 112, 224
-0.988386, 129, 209, 192, 240
-0.988405, 285, 17, 316, 144
-0.988441, 65, 177, 320, 240
-0.988494, 49, 217, 112, 248
-0.988506, 53, 209, 84, 336
-0.988512, 385, 109, 448, 140
-0.988547, 341, 161, 372, 288
-0.988558, 137, 37, 200, 68
-0.988564, 17, 113, 80, 144
-0.988605, 209, 173, 272, 204
-0.98865, 1, 153, 256, 216
-0.98865, 89, 221, 152, 252
-0.988653, 17, 125, 80, 156
-0.988655, 433, 5, 496, 36
-0.988675, 1, 289, 256, 352
-0.988678, 101, 225, 132, 352
-0.988684, 241, 41, 368, 104
-0.988726, 17, 97, 80, 128
-0.988787, 1, 169, 500, 232
-0.988808, 97, 157, 160, 188
-0.988828, 353, 113, 416, 144
-0.988853, 233, 153, 296, 184
-0.988863, 17, 165, 80, 196
-0.988873, 233, 181, 296, 212
-0.988883, 137, 25, 200, 56
-0.988904, 17, 181, 80, 212
-0.988904, 89, 193, 152, 224
-0.988913, 209, 161, 272, 192
-0.988915, 73, 145, 136, 176
-0.988916, 81, 173, 144, 204
-0.988951, 65, 129, 320, 192
-0.988985, 297, 181, 360, 212
-0.989008, 65, 157, 128, 188
-0.989031, 41, 125, 104, 156
-0.989051, 145, 61, 208, 92
-0.989051, 433, 249, 496, 280
-0.989062, 281, 1, 344, 375
-0.989074, 249, 201, 312, 232
-0.989074, 177, 109, 240, 140
-0.989116, 417, 121, 480, 152
-0.989186, 217, 113, 280, 144
-0.989232, 161, 225, 224, 256
-0.989241, 17, 193, 80, 224
-0.989243, 313, 161, 376, 192
-0.989249, 289, 129, 352, 375
-0.989251, 209, 29, 272, 60
-0.989303, 49, 205, 112, 236
-0.98931, 17, 49, 80, 80
-0.989316, 113, 145, 176, 176
-0.98934, 337, 1, 400, 256
-0.989351, 17, 209, 80, 240
-0.989354, 433, 37, 496, 68
-0.989361, 17, 85, 80, 116
-0.989367, 369, 129, 432, 160
-0.989371, 129, 117, 192, 148
-0.989395, 225, 105, 480, 168
-0.98942, 177, 37, 240, 68
-0.989429, 257, 17, 500, 80
-0.989431, 41, 149, 104, 180
-0.989431, 9, 141, 72, 172
-0.989437, 97, 45, 160, 76
-0.989449, 265, 189, 328, 220
-0.989459, 41, 193, 72, 320
-0.989481, 361, 97, 424, 128
-0.989484, 89, 233, 152, 264
-0.989504, 17, 233, 80, 264
-0.98951, 121, 237, 184, 268
-0.989522, 233, 13, 296, 44
-0.98953, 209, 125, 272, 156
-0.989535, 113, 221, 176, 252
-0.989556, 137, 165, 200, 196
-0.989593, 393, 13, 456, 44
-0.989603, 105, 181, 168, 212
-0.989611, 257, 169, 500, 232
-0.989621, 121, 13, 184, 44
-0.98963, 137, 49, 200, 80
-0.989635, 161, 49, 224, 80
-0.989679, 329, 113, 360, 240
-0.98968, 145, 153, 208, 184
-0.989681, 241, 209, 368, 272
-0.9897, 153, 109, 216, 140
-0.989701, 337, 149, 400, 180
-0.989701, 153, 337, 216, 368
-0.989702, 113, 129, 176, 160
-0.989712, 209, 189, 272, 220
-0.989713, 1, 61, 64, 92
-0.98974, 233, 141, 296, 172
-0.989794, 113, 325, 176, 356
-0.989803, 425, 189, 488, 220
-0.989807, 105, 337, 168, 368
-0.989811, 433, 25, 496, 56
-0.989822, 17, 73, 80, 104
-0.989822, 201, 61, 264, 92
-0.989828, 233, 1, 296, 32
-0.989845, 25, 241, 56, 368
-0.989848, 409, 249, 472, 280
-0.989868, 201, 225, 264, 256
-0.989908, 145, 325, 208, 356
-0.989908, 33, 89, 288, 152
-0.989925, 89, 205, 152, 236
-0.989934, 177, 153, 240, 184
-0.989946, 233, 169, 296, 200
-0.98996, 161, 201, 224, 232
-0.989961, 361, 141, 424, 172
-0.989977, 417, 229, 480, 260
-0.989985, 209, 149, 272, 180
-0.989986, 177, 169, 240, 200
-0.989987, 1, 257, 256, 320
-0.989995, 49, 57, 112, 88
-0.99001, 1, 309, 64, 340
-0.990085, 137, 73, 200, 104
-0.990128, 201, 205, 264, 236
-0.990129, 177, 97, 240, 128
-0.990136, 25, 61, 88, 92
-0.990148, 409, 109, 472, 140
-0.990212, 185, 73, 248, 104
-0.990215, 177, 237, 240, 268
-0.990258, 113, 25, 176, 56
-0.990259, 65, 1, 320, 64
-0.990262, 65, 233, 320, 296
-0.990271, 17, 153, 80, 184
-0.990273, 137, 221, 200, 252
-0.990298, 177, 121, 240, 152
-0.990299, 249, 37, 312, 68
-0.990304, 17, 5, 80, 36
-0.990308, 41, 137, 104, 168
-0.990315, 41, 45, 104, 76
-0.990327, 417, 193, 448, 320
-0.990328, 345, 129, 408, 160
-0.990355, 57, 241, 120, 272
-0.990358, 329, 5, 392, 36
-0.99036, 129, 337, 192, 368
-0.990364, 225, 73, 288, 104
-0.990377, 393, 33, 456, 64
-0.990392, 137, 129, 200, 160
-0.99042, 433, 73, 496, 104
-0.990426, 265, 157, 328, 188
-0.990445, 1, 217, 500, 280
-0.990446, 433, 109, 496, 140
-0.990456, 161, 73, 224, 104
-0.990457, 209, 17, 272, 48
-0.990491, 57, 229, 120, 260
-0.990495, 153, 237, 216, 268
-0.990511, 225, 193, 480, 256
-0.99052, 153, 293, 216, 324
-0.990527, 313, 17, 376, 48
-0.990564, 433, 269, 496, 300
-0.990577, 137, 141, 200, 172
-0.990587, 137, 89, 200, 120
-0.990669, 269, 65, 300, 192
-0.990686, 1, 105, 500, 168
-0.990768, 1, 193, 500, 256
-0.990828, 329, 1, 392, 375
-0.990881, 365, 33, 396, 160
-0.990994, 1, 313, 256, 375
-0.991249, 1, 1, 128, 64
-0.991434, 177, 249, 304, 312
-0.991437, 305, 97, 336, 224
-0.991454, 1, 157, 128, 188
-0.991551, 129, 81, 384, 144
-0.991604, 289, 33, 352, 288
-0.991746, 33, 65, 288, 128
-0.991763, 161, 129, 416, 192
-0.99178, 193, 273, 320, 336
-0.991887, 49, 161, 80, 192
-0.991896, 129, 33, 384, 96
-0.991951, 393, 241, 456, 368
-0.991956, 445, 137, 476, 168
-0.991989, 157, 337, 188, 368
-0.99202, 225, 113, 256, 144
-0.992021, 1, 129, 500, 192
-0.99204, 73, 161, 104, 192
-0.992063, 353, 137, 480, 168
-0.992078, 49, 53, 176, 84
-0.992088, 53, 149, 84, 180
-0.992108, 85, 181, 116, 212
-0.992135, 209, 165, 336, 196
-0.992142, 341, 65, 372, 192
-0.992156, 241, 153, 272, 184
-0.992176, 149, 205, 180, 236
-0.992185, 65, 173, 96, 204
-0.992187, 129, 201, 384, 264
-0.992192, 105, 145, 136, 176
-0.992195, 145, 37, 176, 68
-0.992196, 441, 181, 472, 212
-0.992204, 25, 129, 56, 256
-0.992206, 53, 117, 84, 148
-0.992222, 369, 9, 496, 40
-0.992223, 241, 169, 272, 200
-0.992232, 1, 1, 500, 64
-0.992235, 89, 129, 120, 160
-0.992236, 249, 181, 280, 212
-0.992249, 389, 109, 420, 140
-0.992261, 49, 161, 176, 192
-0.992265, 121, 213, 152, 244
-0.992287, 105, 177, 136, 208
-0.992298, 177, 333, 208, 364
-0.992312, 137, 205, 168, 236
-0.992316, 221, 161, 252, 192
-0.992318, 341, 145, 372, 176
-0.992323, 9, 57, 40, 88
-0.992326, 85, 169, 116, 200
-0.992327, 141, 5, 172, 36
-0.99233, 261, 153, 292, 184
-0.992334, 353, 257, 480, 320
-0.992338, 129, 29, 160, 60
-0.992347, 405, 113, 436, 144
-0.992348, 433, 197, 464, 228
-0.992363, 241, 21, 272, 52
-0.992369, 57, 57, 88, 88
-0.992373, 437, 249, 468, 280
-0.992379, 49, 133, 80, 164
-0.992383, 45, 101, 76, 132
-0.992385, 401, 133, 432, 164
-0.992396, 65, 141, 96, 172
-0.992398, 101, 161, 132, 192
-0.992398, 109, 129, 140, 160
-0.992401, 141, 117, 172, 148
-0.992415, 293, 189, 324, 220
-0.992423, 237, 193, 268, 224
-0.992445, 373, 93, 404, 124
-0.992449, 105, 225, 136, 256
-0.992453, 249, 137, 280, 168
-0.99246, 65, 129, 96, 160
-0.992477, 63, 137, 78, 200
-0.992485, 1, 237, 32, 268
-0.99249, 457, 81, 488, 112
-0.9925, 121, 41, 152, 72
-0.992509, 241, 121, 272, 152
-0.99252, 233, 221, 264, 252
-0.992526, 457, 253, 488, 284
-0.992528, 117, 165, 148, 196
-0.992528, 133, 153, 164, 184
-0.992528, 209, 177, 240, 208
-0.992531, 61, 161, 92, 192
-0.992537, 181, 37, 212, 68
-0.992537, 165, 37, 196, 68
-0.992541, 121, 125, 152, 156
-0.992544, 161, 233, 192, 264
-0.992544, 41, 173, 72, 204
-0.992549, 157, 325, 188, 356
-0.992551, 253, 169, 284, 200
-0.992552, 213, 113, 244, 144
-0.992553, 157, 109, 188, 140
-0.992554, 225, 177, 256, 208
-0.992558, 261, 29, 292, 60
-0.992561, 165, 53, 196, 84
-0.992574, 381, 121, 412, 152
-0.992574, 309, 177, 340, 208
-0.992575, 161, 125, 192, 156
-0.992577, 133, 173, 164, 204
-0.99258, 145, 49, 176, 80
-0.992581, 277, 25, 308, 56
-0.992581, 129, 17, 160, 48
-0.992597, 217, 33, 248, 64
-0.992598, 253, 205, 284, 236
-0.992604, 249, 65, 280, 96
-0.992604, 89, 157, 120, 188
-0.992604, 421, 109, 452, 140
-0.992606, 445, 121, 476, 152
-0.992607, 141, 21, 172, 52
-0.992611, 281, 197, 312, 228
-0.992612, 109, 277, 140, 308
-0.992612, 153, 153, 184, 184
-0.992617, 241, 41, 272, 72
-0.992618, 49, 81, 80, 112
-0.992621, 441, 5, 472, 36
-0.992623, 125, 233, 156, 264
-0.992625, 89, 145, 120, 176
-0.992628, 25, 89, 56, 120
-0.99263, 177, 293, 208, 324
-0.99263, 241, 109, 272, 140
-0.992638, 221, 149, 252, 180
-0.992638, 149, 77, 180, 108
-0.992645, 89, 201, 120, 232
-0.992646, 17, 213, 48, 244
-0.992653, 17, 201, 144, 232
-0.992653, 257, 41, 500, 104
-0.992655, 449, 265, 480, 296
-0.992657, 25, 313, 56, 344
-0.992662, 221, 125, 252, 156
-0.992669, 149, 61, 180, 92
-0.992674, 445, 61, 476, 92
-0.992677, 181, 313, 212, 344
-0.99268, 1, 225, 32, 256
-0.992684, 457, 101, 488, 132
-0.992686, 1, 25, 500, 88
-0.992688, 429, 125, 460, 156
-0.992689, 241, 209, 272, 240
-0.99269, 209, 233, 240, 264
-0.992693, 221, 229, 252, 260
-0.992697, 21, 189, 52, 220
-0.992701, 193, 41, 224, 72
-0.992702, 161, 213, 192, 244
-0.992707, 257, 169, 272, 232
-0.992709, 353, 137, 384, 168
-0.99271, 429, 45, 460, 76
-0.992713, 189, 297, 220, 328
-0.992713, 429, 229, 460, 260
-0.992716, 265, 17, 296, 48
-0.99272, 61, 185, 92, 216
-0.992722, 53, 41, 84, 72
-0.992723, 65, 41, 96, 72
-0.992728, 273, 185, 304, 216
-0.992728, 101, 189, 132, 220
-0.992729, 209, 125, 240, 156
-0.992729, 173, 173, 204, 204
-0.992734, 269, 197, 300, 228
-0.992734, 209, 61, 240, 92
-0.992737, 361, 113, 392, 144
-0.992748, 249, 77, 280, 108
-0.992748, 25, 117, 56, 148
-0.992869, 249, 177, 264, 240
-0.992875, 465, 129, 496, 256
-0.992937, 1, 65, 500, 128
-0.992946, 121, 185, 136, 248
-0.992969, 131, 209, 146, 272
-0.992975, 173, 209, 188, 272
-0.992986, 33, 245, 160, 276
-0.992991, 55, 73, 70, 136
-0.993048, 193, 153, 320, 184
-0.993062, 1, 117, 128, 148
-0.993072, 129, 105, 384, 168
-0.993099, 161, 1, 416, 64
-0.993122, 129, 57, 384, 120
-0.993168, 145, 37, 272, 68
-0.99317, 97, 125, 224, 156
-0.99319, 409, 113, 424, 176
-0.993201, 191, 289, 206, 352
-0.993205, 67, 113, 82, 176
-0.993249, 53, 121, 68, 184
-0.99326, 1, 133, 128, 164
-0.993278, 225, 29, 352, 60
-0.993291, 73, 209, 104, 336
-0.993296, 353, 149, 480, 180
-0.993317, 137, 1, 152, 64
-0.993325, 17, 217, 144, 248
-0.993332, 19, 217, 34, 280
-0.993365, 33, 257, 160, 288
-0.993395, 453, 137, 468, 200
-0.99341, 55, 153, 70, 216
-0.993416, 257, 25, 272, 88
-0.993416, 317, 97, 348, 224
-0.993417, 113, 161, 240, 192
-0.993428, 17, 289, 144, 320
-0.993439, 107, 129, 122, 192
-0.993474, 107, 153, 122, 216
-0.993513, 257, 137, 272, 200
-0.993516, 65, 173, 192, 204
-0.993523, 33, 233, 160, 264
-0.993538, 1, 169, 128, 200
-0.993606, 163, 121, 178, 184
-0.993632, 117, 121, 132, 184
-0.993637, 249, 17, 264, 80
-0.99366, 77, 129, 92, 192
-0.993673, 93, 177, 108, 240
-0.993683, 129, 149, 256, 180
-0.993711, 337, 125, 464, 156
-0.993726, 145, 9, 272, 40
-0.993768, 257, 145, 384, 176
-0.993773, 277, 9, 292, 72
-0.993791, 97, 333, 224, 364
-0.993792, 129, 53, 256, 84
-0.9938, 49, 189, 176, 220
-0.993807, 263, 161, 278, 224
-0.993809, 17, 277, 144, 308
-0.993839, 469, 193, 500, 320
-0.993845, 113, 153, 128, 216
-0.993858, 97, 41, 224, 72
-0.993867, 449, 241, 464, 304
-0.993878, 221, 121, 236, 184
-0.993881, 145, 201, 160, 264
-0.993912, 281, 161, 296, 224
-0.993923, 81, 217, 208, 248
-0.993925, 145, 201, 272, 232
-0.993947, 161, 113, 288, 144
-0.993953, 33, 289, 48, 352
-0.993973, 49, 149, 176, 180
-0.993994, 59, 49, 74, 112
-0.993997, 193, 177, 320, 208
-0.994014, 141, 169, 156, 232
-0.994031, 61, 113, 76, 176
-0.994035, 449, 177, 464, 240
-0.994036, 213, 113, 228, 176
-0.994071, 257, 165, 384, 196
-0.994073, 225, 13, 352, 44
-0.994079, 449, 113, 464, 176
-0.994087, 81, 205, 208, 236
-0.994087, 243, 193, 258, 256
-0.994088, 293, 193, 324, 320
-0.99415, 23, 193, 38, 256
-0.994152, 297, 161, 312, 224
-0.994164, 157, 81, 172, 144
-0.994169, 263, 121, 278, 184
-0.994174, 305, 161, 320, 224
-0.99418, 129, 173, 256, 204
-0.994188, 1, 145, 128, 176
-0.994205, 177, 77, 304, 108
-0.994223, 17, 301, 144, 332
-0.99423, 53, 1, 84, 256
-0.994245, 127, 185, 142, 248
-0.994257, 455, 97, 470, 160
-0.994291, 249, 137, 264, 200
-0.994299, 65, 33, 80, 96
-0.994309, 67, 161, 82, 224
-0.994312, 459, 65, 474, 128
-0.994312, 147, 169, 162, 232
-0.99434, 129, 213, 256, 244
-0.994348, 227, 105, 242, 168
-0.99436, 97, 29, 224, 60
-0.994361, 459, 129, 474, 192
-0.994364, 13, 137, 28, 200
-0.994374, 433, 209, 448, 272
-0.994384, 49, 29, 176, 60
-0.994393, 97, 233, 224, 264
-0.994404, 93, 201, 108, 264
-0.994422, 225, 217, 480, 280
-0.994423, 163, 201, 178, 264
-0.99443, 305, 201, 432, 264
-0.994452, 275, 161, 290, 224
-0.994452, 133, 177, 148, 240
-0.994459, 49, 89, 64, 152
-0.994459, 123, 153, 138, 216
-0.994461, 77, 1, 108, 256
-0.994474, 99, 193, 114, 256
-0.994494, 337, 113, 464, 144
-0.9945, 289, 17, 416, 48
-0.994514, 371, 129, 386, 192
-0.994522, 129, 65, 256, 96
-0.994527, 225, 1, 352, 32
-0.994538, 399, 97, 414, 160
-0.994542, 225, 81, 480, 144
-0.994561, 447, 137, 462, 200
-0.994586, 265, 25, 280, 88
-0.994587, 161, 89, 288, 120
-0.994606, 451, 57, 466, 120
-0.994616, 231, 81, 246, 144
-0.994649, 439, 1, 454, 64
-0.994651, 289, 153, 304, 216
-0.994653, 241, 25, 256, 88
-0.994657, 251, 57, 266, 120
-0.99466, 269, 137, 284, 200
-0.994678, 55, 97, 70, 160
-0.994702, 369, 281, 496, 344
-0.994722, 1, 89, 128, 120
-0.994727, 49, 137, 176, 168
-0.994743, 257, 97, 272, 160
-0.994748, 97, 321, 224, 352
-0.994776, 355, 137, 370, 200
-0.994782, 445, 41, 460, 104
-0.994784, 225, 205, 352, 236
-0.994792, 99, 161, 114, 224
-0.994804, 281, 49, 344, 176
-0.99482, 163, 57, 178, 120
-0.99482, 311, 161, 326, 224
-0.994822, 209, 189, 336, 220
-0.994829, 153, 137, 168, 200
-0.994832, 353, 101, 480, 132
-0.994845, 87, 145, 102, 208
-0.994849, 213, 153, 228, 216
-0.99485, 59, 17, 74, 80
-0.994857, 1, 57, 128, 88
-0.994857, 421, 105, 436, 168
-0.994869, 363, 129, 378, 192
-0.994869, 113, 297, 240, 328
-0.994876, 113, 177, 128, 240
-0.994879, 257, 181, 384, 212
-0.994892, 153, 161, 168, 224
-0.994896, 177, 25, 304, 56
-0.994903, 145, 225, 272, 256
-0.994913, 1, 189, 128, 220
-0.994924, 65, 33, 96, 288
-0.994934, 261, 65, 276, 128
-0.994934, 353, 29, 480, 60
-0.994937, 347, 145, 362, 208
-0.994945, 139, 25, 154, 88
-0.994953, 129, 25, 144, 88
-0.995012, 165, 89, 180, 152
-0.995013, 441, 121, 456, 184
-0.995015, 69, 137, 84, 200
-0.995022, 393, 89, 408, 152
-0.995035, 65, 57, 80, 120
-0.995044, 151, 1, 166, 64
-0.995044, 223, 161, 238, 224
-0.995046, 89, 33, 120, 288
-0.995053, 97, 289, 352, 352
-0.995063, 415, 105, 430, 168
-0.995065, 283, 17, 298, 80
-0.995067, 47, 113, 62, 176
-0.995073, 219, 81, 234, 144
-0.995083, 177, 65, 304, 96
-0.995086, 205, 33, 220, 96
-0.995091, 113, 113, 240, 144
-0.995107, 161, 313, 176, 375
-0.995113, 145, 129, 272, 160
-0.995116, 271, 25, 286, 88
-0.995118, 123, 225, 138, 288
-0.995121, 17, 321, 144, 352
-0.995141, 363, 105, 378, 168
-0.995145, 105, 185, 120, 248
-0.995149, 173, 33, 188, 96
-0.995153, 87, 177, 102, 240
-0.995158, 49, 69, 176, 100
-0.995165, 455, 257, 470, 320
-0.995168, 369, 85, 496, 116
-0.995176, 369, 189, 496, 220
-0.995178, 439, 241, 454, 304
-0.995179, 429, 105, 444, 168
-0.995195, 239, 1, 254, 64
-0.9952, 161, 189, 288, 220
-0.9952, 305, 157, 432, 188
-0.995201, 449, 1, 464, 64
-0.995202, 465, 1, 496, 256
-0.995204, 23, 1, 38, 64
-0.995212, 441, 145, 456, 208
-0.995222, 93, 153, 108, 216
-0.995225, 193, 133, 320, 164
-0.995225, 215, 225, 230, 288
-0.995226, 187, 145, 202, 208
-0.995227, 443, 177, 458, 240
-0.995227, 243, 169, 258, 232
-0.995228, 261, 33, 292, 288
-0.995239, 183, 33, 198, 96
-0.995242, 113, 245, 240, 276
-0.99525, 235, 193, 250, 256
-0.995258, 15, 161, 30, 224
-0.995267, 243, 105, 258, 168
-0.995272, 177, 129, 192, 192
-0.995272, 113, 273, 128, 336
-0.995275, 271, 1, 286, 64
-0.99528, 105, 1, 136, 256
-0.995297, 49, 41, 176, 72
-0.995303, 81, 285, 208, 316
-0.995307, 193, 45, 320, 76
-0.995318, 305, 145, 432, 176
-0.995369, 153, 65, 184, 320
-0.995383, 113, 309, 240, 340
-0.995386, 97, 345, 224, 375
-0.995395, 437, 1, 468, 256
-0.995409, 1, 77, 128, 108
-0.99541, 1, 101, 128, 132
-0.995418, 49, 121, 176, 152
-0.995458, 353, 161, 480, 192
-0.995494, 441, 97, 472, 352
-0.995501, 65, 1, 192, 32
-0.995502, 129, 77, 256, 108
-0.995514, 97, 265, 352, 328
-0.995565, 289, 5, 416, 36
-0.995581, 113, 185, 240, 216
-0.995596, 41, 97, 72, 352
-0.995616, 329, 177, 392, 304
-0.995645, 129, 101, 256, 132
-0.995657, 257, 129, 384, 160
-0.995666, 257, 241, 500, 304
-0.99567, 81, 261, 208, 292
-0.995706, 169, 97, 200, 352
-0.995717, 117, 1, 148, 256
-0.995717, 457, 97, 488, 352
-0.995731, 409, 1, 440, 256
-0.995735, 249, 33, 280, 288
-0.995743, 97, 17, 224, 48
-0.995822, 305, 73, 432, 136
-0.995875, 305, 101, 432, 132
-0.995882, 101, 97, 132, 352
-0.995905, 1, 241, 500, 304
-0.995934, 177, 101, 304, 132
-0.995968, 369, 249, 496, 280
-0.995996, 257, 193, 384, 224
-0.996033, 53, 97, 84, 352
-0.996055, 209, 1, 240, 256
-0.996059, 141, 129, 172, 375
-0.996123, 77, 97, 108, 352
-0.996145, 1, 37, 128, 68
-0.996155, 21, 1, 52, 256
-0.996179, 161, 313, 416, 375
-0.99618, 237, 65, 268, 320
-0.99622, 193, 217, 320, 248
-0.996257, 257, 117, 384, 148
-0.996281, 65, 109, 192, 140
-0.996286, 353, 237, 480, 268
-0.996314, 209, 117, 336, 148
-0.996344, 185, 1, 216, 256
-0.996344, 381, 1, 412, 256
-0.996393, 369, 205, 496, 236
-0.996397, 429, 97, 460, 352
-0.996418, 81, 273, 208, 304
-0.996425, 141, 33, 172, 288
-0.99645, 225, 97, 256, 352
-0.996477, 41, 1, 72, 256
-0.996489, 189, 97, 220, 352
-0.99649, 337, 217, 464, 248
-0.996504, 49, 17, 176, 48
-0.996536, 17, 237, 32, 268
-0.996568, 425, 1, 456, 256
-0.996588, 81, 89, 208, 120
-0.99663, 205, 129, 236, 375
-0.996638, 129, 1, 160, 256
-0.996656, 225, 105, 352, 136
-0.996676, 193, 229, 320, 260
-0.996682, 197, 1, 228, 256
-0.996729, 253, 129, 284, 375
-0.996729, 227, 113, 242, 144
-0.996737, 305, 173, 432, 204
-0.996797, 469, 97, 500, 352
-0.996811, 321, 233, 448, 296
-0.996824, 165, 1, 196, 256
-0.996838, 5, 1, 36, 256
-0.99684, 305, 29, 432, 60
-0.996845, 369, 41, 496, 72
-0.996855, 111, 177, 126, 208
-0.996869, 17, 333, 144, 364
-0.996872, 453, 1, 484, 256
-0.996882, 353, 177, 480, 208
-0.996927, 459, 137, 474, 168
-0.996933, 139, 25, 154, 56
-0.996939, 131, 217, 146, 248
-0.996939, 393, 1, 424, 256
-0.996944, 121, 97, 152, 352
-0.996948, 225, 1, 256, 256
-0.996965, 225, 69, 352, 100
-0.996967, 27, 193, 42, 224
-0.996994, 245, 113, 260, 144
-0.997003, 369, 65, 496, 96
-0.997018, 53, 93, 68, 124
-0.997019, 97, 137, 224, 168
-0.997032, 273, 97, 304, 352
-0.997034, 249, 21, 264, 52
-0.997035, 143, 209, 158, 240
-0.997048, 257, 169, 272, 200
-0.997048, 441, 125, 456, 156
-0.997059, 55, 81, 70, 112
-0.997063, 49, 117, 64, 148
-0.997065, 111, 133, 126, 164
-0.997069, 11, 141, 26, 172
-0.997079, 321, 193, 448, 224
-0.997093, 63, 145, 78, 176
-0.997104, 53, 153, 68, 184
-0.997127, 157, 113, 172, 144
-0.99713, 67, 173, 82, 204
-0.997141, 213, 113, 228, 144
-0.997148, 225, 57, 352, 88
-0.99715, 19, 209, 34, 240
-0.997161, 77, 157, 92, 188
-0.997165, 451, 57, 466, 88
-0.997169, 369, 1, 400, 256
-0.997171, 29, 129, 60, 375
-0.997172, 239, 113, 254, 144
-0.997179, 153, 153, 168, 184
-0.997188, 67, 161, 82, 192
-0.997188, 59, 113, 74, 144
-0.997189, 161, 297, 288, 328
-0.997199, 181, 37, 196, 68
-0.997203, 89, 129, 120, 375
-0.997205, 193, 297, 208, 328
-0.997207, 221, 129, 236, 160
-0.997208, 281, 17, 296, 48
-0.997208, 257, 89, 384, 120
-0.997243, 249, 189, 264, 220
-0.997258, 371, 137, 386, 168
-0.997263, 145, 325, 272, 356
-0.997267, 149, 205, 164, 236
-0.997272, 399, 101, 414, 132
-0.997275, 173, 209, 188, 240
-0.997277, 161, 345, 288, 375
-0.997288, 65, 37, 80, 68
-0.997296, 251, 117, 266, 148
-0.997298, 163, 125, 178, 156
-0.99731, 451, 249, 466, 280
-0.997313, 441, 145, 456, 176
-0.997322, 447, 181, 462, 212
-0.997328, 123, 125, 138, 156
-0.997334, 287, 21, 302, 52
-0.997343, 251, 173, 266, 204
-0.997346, 147, 157, 162, 188
-0.997347, 243, 169, 258, 200
-0.997348, 451, 193, 466, 224
-0.99737, 255, 25, 270, 56
-0.997372, 61, 157, 76, 188
-0.997375, 69, 145, 84, 176
-0.997388, 65, 129, 96, 375
-0.997392, 97, 169, 112, 200
-0.997393, 233, 113, 248, 144
-0.997401, 115, 145, 130, 176
-0.997403, 49, 105, 64, 136
-0.997405, 107, 157, 122, 188
-0.997405, 173, 225, 188, 256
-0.99741, 61, 57, 76, 88
-0.997412, 409, 117, 424, 148
-0.99742, 453, 261, 468, 292
-0.997421, 163, 205, 178, 236
-0.997427, 259, 137, 274, 168
-0.997427, 137, 13, 152, 44
-0.99743, 49, 345, 176, 375
-0.997431, 71, 125, 86, 156
-0.99744, 263, 33, 278, 64
-0.99745, 119, 221, 134, 252
-0.99745, 109, 145, 124, 176
-0.997451, 477, 89, 492, 120
-0.997454, 239, 205, 254, 236
-0.997455, 161, 313, 288, 344
-0.997456, 161, 325, 176, 356
-0.997464, 441, 185, 456, 216
-0.997465, 191, 313, 206, 344
-0.997466, 483, 77, 498, 108
-0.997468, 53, 129, 68, 160
-0.99747, 311, 169, 326, 200
-0.997473, 245, 157, 260, 188
-0.997474, 145, 273, 272, 336
-0.997474, 405, 137, 420, 168
-0.997482, 343, 145, 358, 176
-0.997485, 97, 201, 112, 232
-0.997485, 153, 141, 168, 172
-0.997497, 105, 189, 120, 220
-0.997505, 129, 29, 144, 60
-0.997509, 453, 177, 468, 208
-0.997518, 209, 89, 336, 120
-0.997518, 175, 45, 190, 76
-0.997522, 221, 113, 236, 144
-0.997523, 265, 133, 280, 164
-0.997529, 221, 149, 236, 180
-0.997539, 273, 1, 304, 256
-0.997541, 369, 305, 496, 368
-0.997542, 289, 33, 320, 288
-0.997543, 249, 145, 264, 176
-0.997544, 77, 129, 92, 160
-0.997544, 23, 57, 38, 88
-0.997549, 293, 29, 308, 60
-0.997551, 439, 33, 454, 64
-0.997553, 117, 129, 132, 160
-0.99756, 321, 49, 448, 112
-0.99756, 301, 189, 316, 220
-0.997572, 271, 145, 286, 176
-0.99759, 265, 149, 280, 180
-0.997593, 137, 209, 152, 240
-0.997602, 413, 97, 444, 352
-0.997604, 257, 117, 272, 148
-0.997606, 215, 161, 230, 192
-0.997607, 141, 157, 156, 188
-0.997614, 369, 53, 496, 84
-0.997617, 189, 165, 204, 196
-0.997618, 321, 205, 448, 236
-0.997626, 255, 41, 270, 72
-0.997629, 439, 5, 454, 36
-0.997634, 11, 161, 26, 192
-0.997636, 443, 45, 458, 76
-0.997638, 237, 157, 252, 188
-0.997639, 57, 141, 72, 172
-0.997643, 125, 217, 140, 248
-0.997647, 471, 85, 486, 116
-0.997648, 457, 69, 472, 100
-0.997653, 113, 225, 128, 256
-0.997654, 87, 161, 102, 192
-0.997656, 293, 129, 324, 375
-0.997657, 17, 129, 48, 375
-0.99766, 65, 117, 80, 148
-0.997668, 159, 77, 174, 108
-0.997669, 99, 229, 114, 260
-0.997674, 247, 101, 262, 132
-0.997674, 307, 185, 322, 216
-0.997675, 273, 189, 288, 220
-0.997677, 19, 221, 34, 252
-0.997678, 425, 105, 440, 136
-0.99768, 151, 117, 166, 148
-0.997685, 41, 317, 56, 348
-0.997685, 241, 181, 256, 212
-0.997686, 203, 109, 218, 140
-0.997704, 65, 133, 80, 164
-0.997707, 361, 97, 392, 352
-0.99771, 245, 217, 260, 248
-0.997713, 239, 29, 254, 60
-0.99772, 363, 157, 378, 188
-0.99798, 1, 129, 32, 375
-0.998158, 209, 305, 336, 368
-0.998174, 1, 289, 500, 352
-0.998206, 385, 97, 416, 352
-0.998316, 451, 129, 466, 256
-0.998324, 373, 97, 404, 352
-0.998324, 129, 213, 192, 228
-0.998338, 453, 81, 468, 208
-0.998355, 57, 181, 120, 196
-0.998369, 33, 177, 96, 192
-0.998386, 459, 65, 474, 192
-0.998389, 81, 185, 144, 200
-0.998389, 41, 161, 104, 176
-0.998397, 377, 119, 440, 134
-0.998398, 49, 199, 112, 214
-0.998399, 33, 127, 96, 142
-0.998403, 17, 101, 80, 116
-0.998408, 63, 97, 78, 224
-0.998411, 57, 193, 120, 208
-0.998411, 393, 129, 456, 144
-0.998412, 137, 117, 200, 132
-0.998414, 353, 119, 416, 134
-0.998416, 17, 121, 80, 136
-0.998417, 233, 157, 296, 172
-0.998418, 217, 177, 280, 192
-0.99842, 129, 207, 192, 222
-0.998421, 297, 183, 360, 198
-0.998421, 401, 115, 464, 130
-0.998422, 127, 129, 142, 256
-0.998427, 17, 183, 80, 198
-0.998428, 137, 51, 200, 66
-0.998433, 65, 159, 128, 174
-0.998433, 137, 43, 200, 58
-0.998434, 59, 49, 74, 176
-0.998435, 73, 133, 136, 148
-0.998435, 9, 61, 72, 76
-0.998438, 369, 125, 432, 140
-0.99844, 425, 9, 488, 24
-0.998441, 9, 127, 72, 142
-0.998441, 217, 171, 280, 186
-0.998443, 209, 117, 272, 132
-0.998444, 97, 227, 160, 242
-0.998444, 377, 113, 440, 128
-0.998445, 17, 171, 80, 186
-0.998445, 17, 115, 80, 130
-0.998445, 73, 153, 136, 168
-0.998448, 145, 167, 208, 182
-0.998448, 113, 123, 176, 138
-0.99845, 161, 57, 224, 72
-0.998452, 89, 235, 152, 250
-0.998453, 9, 213, 72, 228
-0.998453, 49, 205, 112, 220
-0.998456, 249, 35, 312, 50
-0.998456, 425, 189, 488, 204
-0.998457, 57, 223, 120, 238
-0.998457, 57, 187, 120, 202
-0.998459, 49, 213, 112, 228
-0.998459, 137, 57, 200, 72
-0.998461, 81, 179, 144, 194
-0.998462, 201, 153, 264, 168
-0.998465, 233, 5, 296, 20
-0.998466, 417, 139, 480, 154
-0.998466, 153, 241, 216, 256
-0.998466, 433, 253, 496, 268
-0.998467, 97, 49, 160, 64
-0.998468, 257, 281, 500, 344
-0.998469, 57, 175, 120, 190
-0.99847, 17, 87, 80, 102
-0.99847, 425, 145, 488, 160
-0.998472, 257, 165, 320, 180
-0.998472, 177, 121, 240, 136
-0.998472, 353, 113, 416, 128
-0.998475, 41, 167, 104, 182
-0.998476, 233, 11, 296, 26
-0.998477, 233, 121, 296, 136
-0.998479, 209, 33, 272, 48
-0.99848, 121, 245, 184, 260
-0.99848, 9, 203, 72, 218
-0.998481, 17, 109, 80, 124
-0.998482, 9, 251, 72, 266
-0.998483, 433, 29, 496, 44
-0.998485, 433, 15, 496, 30
-0.998485, 393, 135, 456, 150
-0.998485, 177, 111, 240, 126
-0.998485, 393, 141, 456, 156
-0.998485, 89, 221, 152, 236
-0.998486, 249, 27, 312, 42
-0.998486, 17, 95, 80, 110
-0.998487, 17, 189, 80, 204
-0.998487, 121, 239, 184, 254
-0.998487, 217, 185, 280, 200
-0.998487, 137, 37, 200, 52
-0.998492, 113, 331, 176, 346
-0.998493, 369, 131, 432, 146
-0.998493, 161, 235, 224, 250
-0.998493, 349, 97, 380, 352
-0.998493, 433, 41, 496, 56
-0.998494, 257, 183, 320, 198
-0.998494, 93, 143, 124, 158
-0.998494, 45, 131, 76, 146
-0.998494, 49, 139, 80, 154
-0.998494, 101, 157, 132, 172
-0.998494, 13, 219, 44, 234
-0.998494, 417, 123, 480, 138
-0.998495, 9, 159, 72, 174
-0.998495, 437, 257, 468, 272
-0.998495, 161, 35, 192, 50
-0.998495, 9, 137, 72, 152
-0.998495, 425, 33, 456, 48
-0.998495, 121, 19, 184, 34
-0.998495, 433, 211, 464, 226
-0.998496, 13, 247, 44, 262
-0.998497, 249, 141, 280, 156
-0.998497, 121, 47, 152, 62
-0.998497, 223, 145, 238, 272
-0.998498, 121, 233, 184, 248
-0.998498, 113, 129, 176, 144
-0.998498, 81, 177, 112, 192
-0.998498, 169, 49, 200, 64
-0.998498, 81, 191, 144, 206
-0.998498, 141, 157, 172, 172
-0.998499, 233, 109, 264, 124
-0.998499, 113, 161, 176, 176
-0.998499, 233, 165, 296, 180
-0.998499, 265, 171, 328, 186
-0.998499, 329, 149, 392, 164
-0.998499, 233, 113, 296, 128
-0.9985, 121, 25, 184, 40
-0.9985, 469, 81, 500, 96
-0.998501, 265, 163, 296, 178
-0.998501, 209, 123, 272, 138
-0.998501, 217, 153, 248, 168
-0.998501, 137, 219, 200, 234
-0.998501, 421, 129, 452, 144
-0.998502, 165, 55, 196, 70
-0.998503, 97, 233, 128, 248
-0.998503, 41, 179, 72, 194
-0.998504, 381, 127, 412, 142
-0.998504, 169, 209, 200, 224
-0.998504, 141, 115, 172, 130
-0.998504, 393, 19, 456, 34
-0.998504, 133, 145, 148, 272
-0.998504, 361, 137, 424, 152
-0.998504, 433, 137, 464, 152
-0.998504, 49, 229, 112, 244
-0.998505, 57, 147, 88, 162
-0.998505, 17, 195, 80, 210
-0.998505, 117, 129, 132, 256
-0.998505, 417, 247, 480, 262
-0.998506, 269, 157, 300, 172
-0.998506, 149, 61, 180, 76
-0.998506, 241, 41, 272, 56
-0.998506, 137, 65, 200, 80
-0.998506, 445, 177, 476, 192
-0.998506, 17, 81, 80, 96
-0.998507, 193, 159, 256, 174
-0.998507, 89, 173, 152, 188
-0.998507, 129, 175, 192, 190
-0.998507, 453, 83, 484, 98
-0.998508, 245, 121, 276, 136
-0.998508, 145, 71, 208, 86
-0.998508, 145, 161, 208, 176
-0.998508, 65, 181, 96, 196
-0.998509, 17, 67, 80, 82
-0.99851, 21, 99, 52, 114
-0.99851, 113, 43, 176, 58
-0.99851, 305, 177, 368, 192
-0.998511, 109, 191, 140, 206
-0.998511, 233, 21, 296, 36
-0.998511, 17, 213, 48, 228
-0.998511, 125, 215, 156, 230
-0.998512, 249, 147, 280, 162
-0.998513, 409, 109, 472, 124
-0.998513, 201, 213, 264, 228
-0.998513, 137, 225, 200, 240
-0.998514, 353, 99, 416, 114
-0.998514, 141, 17, 172, 32
-0.998514, 181, 299, 212, 314
-0.998515, 437, 147, 468, 162
-0.998515, 361, 143, 424, 158
-0.998515, 129, 341, 192, 356
-0.998515, 229, 159, 260, 174
-0.998516, 129, 33, 160, 48
-0.998516, 113, 325, 176, 340
-0.998517, 153, 339, 216, 354
-0.998518, 129, 27, 160, 42
-0.998518, 105, 139, 136, 154
-0.998519, 109, 129, 140, 144
-0.998519, 153, 327, 216, 342
-0.99852, 137, 123, 200, 138
-0.99852, 97, 167, 160, 182
-0.99852, 397, 107, 428, 122
-0.99852, 249, 189, 312, 204
-0.99852, 461, 1, 492, 16
-0.998521, 433, 73, 496, 88
-0.998521, 329, 157, 392, 172
-0.998522, 221, 173, 252, 188
-0.998523, 19, 161, 34, 288
-0.998523, 125, 239, 156, 254
-0.998524, 285, 195, 316, 210
-0.998525, 209, 121, 240, 136
-0.998525, 157, 347, 188, 362
-0.998526, 449, 271, 480, 286
-0.998527, 457, 253, 488, 268
-0.998527, 85, 169, 116, 184
-0.998527, 13, 9, 44, 24
-0.998529, 45, 97, 76, 112
-0.99853, 181, 305, 212, 320
-0.998532, 169, 215, 200, 230
-0.998533, 157, 329, 188, 344
-0.998535, 57, 59, 88, 74
-0.998535, 237, 181, 268, 196
-0.998536, 143, 145, 158, 272
-0.998536, 133, 1, 164, 16
-0.998537, 449, 77, 480, 92
-0.998537, 51, 65, 66, 192
-0.998537, 241, 161, 272, 176
-0.998537, 157, 335, 188, 350
-0.998539, 121, 125, 152, 140
-0.99854, 245, 155, 276, 170
-0.99854, 145, 43, 176, 58
-0.99854, 49, 115, 80, 130
-0.998541, 165, 93, 196, 108
-0.998541, 265, 33, 296, 48
-0.998541, 441, 7, 472, 22
-0.998542, 157, 127, 188, 142
-0.998542, 221, 167, 252, 182
-0.998544, 57, 127, 88, 142
-0.998547, 149, 67, 180, 82
-0.998547, 105, 279, 136, 294
-0.998548, 165, 239, 196, 254
-0.998549, 161, 117, 192, 132
-0.998549, 57, 1, 72, 128
-0.99855, 157, 213, 188, 228
-0.99855, 297, 37, 328, 52
-0.99855, 217, 161, 248, 176
-0.998551, 45, 173, 76, 188
-0.998551, 89, 189, 120, 204
-0.998552, 125, 41, 156, 56
-0.998555, 85, 133, 116, 148
-0.998556, 141, 11, 172, 26
-0.998557, 437, 251, 468, 266
-0.998558, 105, 183, 136, 198
-0.998559, 177, 337, 208, 352
-0.998559, 233, 115, 264, 130
-0.99856, 433, 189, 464, 204
-0.998561, 237, 205, 268, 220
-0.998561, 241, 29, 272, 44
-0.998563, 101, 163, 132, 178
-0.998564, 277, 29, 308, 44
-0.998566, 435, 177, 450, 304
-0.998566, 73, 157, 104, 172
-0.998567, 441, 199, 472, 214
-0.998567, 85, 183, 116, 198
-0.998575, 385, 121, 416, 136
-0.998576, 9, 61, 40, 76
-0.998577, 445, 137, 476, 152
-0.998578, 349, 143, 380, 158
-0.99858, 245, 175, 276, 190
-0.99858, 69, 33, 84, 160
-0.998582, 53, 121, 84, 136
-0.998583, 433, 205, 464, 220
-0.998583, 233, 121, 264, 136
-0.998591, 65, 175, 96, 190
-0.998591, 53, 153, 84, 168
-0.998596, 95, 113, 110, 240
-0.998597, 1, 239, 32, 254
-0.998598, 389, 113, 420, 128
-0.998598, 237, 167, 268, 182
-0.998599, 73, 163, 104, 178
-0.998601, 97, 131, 128, 146
-0.998604, 441, 183, 472, 198
-0.998604, 163, 65, 178, 192
-0.998606, 89, 159, 120, 174
-0.998607, 149, 65, 164, 192
-0.998616, 123, 193, 138, 320
-0.998618, 111, 129, 126, 256
-0.998619, 445, 161, 460, 288
-0.998621, 53, 163, 84, 178
-0.998622, 137, 213, 168, 228
-0.998628, 227, 81, 242, 208
-0.99863, 73, 169, 104, 184
-0.998631, 105, 227, 136, 242
-0.998634, 17, 1, 32, 128
-0.998637, 469, 65, 484, 192
-0.998665, 221, 125, 252, 140
-0.998667, 285, 145, 300, 272
-0.998667, 117, 221, 148, 236
-0.99867, 305, 129, 336, 375
-0.998671, 157, 341, 188, 356
-0.998679, 449, 143, 480, 158
-0.998681, 53, 145, 68, 272
-0.998698, 155, 65, 170, 192
-0.998702, 103, 129, 118, 256
-0.998703, 241, 145, 256, 272
-0.998704, 225, 233, 352, 296
-0.998706, 459, 113, 474, 240
-0.99871, 221, 117, 252, 132
-0.998712, 95, 161, 110, 288
-0.998717, 153, 1, 168, 128
-0.998719, 365, 81, 380, 208
-0.998722, 275, 129, 290, 256
-0.998726, 373, 81, 388, 208
-0.998727, 457, 177, 472, 304
-0.998729, 229, 129, 244, 256
-0.998735, 149, 207, 180, 222
-0.998745, 233, 81, 248, 208
-0.998746, 263, 17, 278, 144
-0.998749, 57, 97, 72, 224
-0.998749, 341, 1, 372, 256
-0.998754, 149, 145, 164, 272
-0.998755, 251, 129, 266, 256
-0.998759, 137, 1, 152, 128
-0.998764, 63, 1, 78, 128
-0.998773, 235, 129, 250, 256
-0.998776, 477, 1, 492, 128
-0.998781, 71, 113, 86, 240
-0.998788, 263, 113, 278, 240
-0.998791, 133, 97, 148, 224
-0.998793, 253, 1, 268, 128
-0.998794, 441, 1, 456, 128
-0.998798, 175, 193, 190, 320
-0.998798, 183, 241, 198, 368
-0.9988, 143, 97, 158, 224
-0.998805, 175, 113, 190, 240
-0.998813, 213, 145, 228, 272
-0.99882, 261, 65, 276, 192
-0.998827, 405, 97, 420, 224
-0.998827, 161, 113, 176, 240
-0.998831, 75, 49, 90, 176
-0.998835, 445, 113, 460, 240
-0.998836, 329, 1, 360, 256
-0.998839, 299, 145, 314, 272
-0.998839, 305, 145, 320, 272
-0.998841, 155, 113, 170, 240
-0.998843, 101, 33, 116, 160
-0.998846, 221, 81, 236, 208
-0.998848, 87, 145, 102, 272
-0.998849, 133, 193, 148, 320
-0.998849, 13, 113, 28, 240
-0.998849, 105, 177, 120, 304
-0.998855, 159, 17, 174, 144
-0.998856, 291, 145, 306, 272
-0.998856, 77, 113, 92, 240
-0.998858, 1, 313, 500, 375
-0.998859, 45, 97, 60, 224
-0.998861, 63, 161, 78, 288
-0.998862, 269, 129, 284, 256
-0.998872, 117, 177, 132, 304
-0.998879, 169, 113, 184, 240
-0.998879, 301, 33, 332, 288
-0.99888, 483, 33, 498, 160
-0.998881, 185, 145, 200, 272
-0.998886, 241, 65, 256, 192
-0.998893, 227, 17, 242, 144
-0.998895, 13, 241, 28, 368
-0.998899, 85, 33, 100, 160
-0.998901, 167, 193, 182, 320
-0.998908, 21, 113, 36, 240
-0.998912, 447, 33, 462, 160
-0.998929, 473, 241, 488, 368
-0.998929, 193, 241, 208, 368
-0.998931, 257, 161, 272, 288
-0.998933, 451, 177, 466, 304
-0.998935, 191, 161, 206, 288
-0.998937, 51, 1, 66, 128
-0.998937, 369, 129, 384, 256
-0.998937, 247, 65, 262, 192
-0.998937, 47, 241, 62, 368
-0.998942, 107, 33, 122, 160
-0.998945, 127, 33, 142, 160
-0.998946, 399, 81, 414, 208
-0.998947, 453, 33, 468, 160
-0.998949, 179, 33, 194, 160
-0.998956, 185, 1, 200, 128
-0.998958, 277, 1, 292, 128
-0.998959, 269, 17, 284, 144
-0.99896, 185, 193, 200, 320
-0.998965, 467, 1, 482, 128
-0.998965, 247, 1, 262, 128
-0.998965, 359, 113, 374, 240
-0.99897, 23, 1, 38, 128
-0.998983, 205, 17, 220, 144
-0.998984, 379, 97, 394, 224
-0.998984, 215, 65, 230, 192
-0.998984, 27, 177, 42, 304
-0.998985, 227, 193, 242, 320
-0.998987, 121, 33, 136, 160
-0.998988, 13, 49, 28, 176
-0.998995, 235, 17, 250, 144
-0.998997, 213, 209, 228, 336
-0.998999, 207, 161, 222, 288
-0.999012, 191, 1, 206, 128
-0.999014, 115, 33, 130, 160
-0.999015, 169, 49, 184, 176
-0.999017, 199, 1, 214, 128
-0.99902, 187, 81, 202, 208
-0.999021, 441, 49, 456, 176
-0.999028, 143, 33, 158, 160
-0.999028, 283, 1, 298, 128
-0.999029, 387, 1, 402, 128
-0.999031, 451, 225, 466, 352
-0.999034, 91, 33, 106, 160
-0.999159, 313, 1, 344, 256
-0.999226, 1, 265, 500, 328
-0.999308, 161, 241, 416, 304
-0.999356, 397, 97, 428, 352
-0.999408, 317, 97, 348, 352
-0.999665, 433, 249, 448, 264
-0.999666, 291, 31, 306, 46
-0.999666, 101, 201, 116, 216
-0.999666, 343, 149, 358, 164
-0.999667, 109, 195, 124, 210
-0.999667, 75, 157, 90, 172
-0.999667, 11, 161, 26, 176
-0.999667, 17, 235, 32, 250
-0.999667, 481, 93, 496, 108
-0.999668, 73, 53, 88, 68
-0.999669, 27, 191, 42, 206
-0.999669, 167, 95, 182, 110
-0.999669, 447, 139, 462, 154
-0.99967, 69, 145, 84, 160
-0.99967, 435, 205, 450, 220
-0.99967, 161, 327, 176, 342
-0.999671, 61, 115, 76, 130
-0.999671, 61, 59, 76, 74
-0.999671, 63, 143, 78, 158
-0.999672, 253, 41, 268, 56
-0.999672, 323, 177, 338, 192
-0.999672, 163, 45, 178, 60
-0.999673, 167, 205, 182, 220
-0.999673, 261, 183, 276, 198
-0.999674, 399, 107, 414, 122
-0.999674, 19, 225, 34, 240
-0.999675, 261, 149, 276, 164
-0.999675, 173, 231, 188, 246
-0.999676, 47, 115, 62, 130
-0.999676, 153, 145, 168, 160
-0.999676, 249, 119, 264, 134
-0.999676, 459, 253, 474, 268
-0.999677, 449, 251, 464, 266
-0.999678, 15, 7, 30, 22
-0.999679, 123, 191, 138, 206
-0.999679, 151, 125, 166, 140
-0.999679, 363, 139, 378, 154
-0.99968, 111, 185, 126, 200
-0.999681, 179, 47, 194, 62
-0.999683, 225, 123, 240, 138
-0.999683, 455, 179, 470, 194
-0.999683, 405, 137, 420, 152
-0.999684, 67, 169, 82, 184
-0.999684, 483, 83, 498, 98
-0.999685, 259, 167, 274, 182
-0.999685, 159, 291, 174, 306
-0.999687, 173, 49, 188, 64
-0.999687, 163, 127, 178, 142
-0.999688, 243, 111, 258, 126
-0.999688, 443, 51, 458, 66
-0.999688, 87, 173, 102, 188
-0.99969, 19, 163, 34, 178
-0.999691, 251, 127, 266, 142
-0.999692, 125, 125, 140, 140
-0.999692, 213, 129, 228, 144
-0.999693, 105, 163, 120, 178
-0.999693, 143, 209, 158, 224
-0.999693, 155, 207, 170, 222
-0.999694, 111, 229, 126, 244
-0.999694, 25, 197, 40, 212
-0.999696, 449, 61, 464, 76
-0.999696, 109, 145, 124, 160
-0.999696, 105, 181, 120, 196
-0.999697, 219, 79, 234, 94
-0.999699, 237, 157, 252, 172
-0.9997, 139, 31, 154, 46
-0.999701, 61, 153, 76, 168
-0.999701, 257, 305, 500, 368
-0.999703, 251, 165, 266, 180
-0.999703, 69, 175, 84, 190
-0.999703, 67, 49, 82, 64
-0.999705, 103, 131, 118, 146
-0.999705, 249, 29, 264, 44
-0.999706, 257, 139, 272, 154
-0.999706, 151, 151, 166, 166
-0.999706, 221, 129, 236, 144
-0.999707, 193, 295, 208, 310
-0.999708, 261, 33, 276, 48
-0.999709, 79, 53, 94, 68
-0.999709, 249, 179, 264, 194
-0.999712, 249, 113, 264, 128
-0.999714, 173, 43, 188, 58
-0.999715, 55, 81, 70, 96
-0.999715, 65, 137, 80, 152
-0.999716, 155, 115, 170, 130
-0.999716, 173, 217, 188, 232
-0.999717, 277, 29, 292, 44
-0.999717, 241, 163, 256, 178
-0.999717, 135, 25, 150, 40
-0.999718, 173, 55, 188, 70
-0.999719, 245, 169, 260, 184
-0.99972, 371, 137, 386, 152
-0.99972, 117, 225, 132, 240
-0.999721, 231, 125, 246, 140
-0.999721, 21, 7, 36, 22
-0.999721, 55, 89, 70, 104
-0.999722, 451, 197, 466, 212
-0.999722, 287, 25, 302, 40
-0.999722, 157, 121, 172, 136
-0.999722, 217, 123, 232, 138
-0.999723, 255, 173, 270, 188
-0.999728, 461, 141, 476, 156
-0.999728, 77, 163, 92, 178
-0.999728, 193, 301, 208, 316
-0.999729, 131, 217, 146, 232
-0.999729, 449, 181, 464, 196
-0.99973, 55, 131, 70, 146
-0.999731, 113, 131, 128, 146
-0.999731, 111, 139, 126, 154
-0.999731, 161, 207, 176, 222
-0.999731, 17, 241, 32, 256
-0.999732, 23, 205, 38, 220
-0.999738, 449, 271, 464, 286
-0.999738, 97, 173, 112, 188
-0.99974, 55, 95, 70, 110
-0.99974, 147, 161, 162, 176
-0.999745, 249, 21, 264, 36
-0.999747, 153, 157, 168, 172
-0.99975, 451, 203, 466, 218
-0.99975, 67, 163, 82, 178
-0.999767, 225, 117, 240, 132
-0.999768, 49, 123, 64, 138
-0.999771, 171, 211, 186, 226
-0.999771, 17, 247, 32, 262
-0.999773, 235, 117, 250, 132
-0.999778, 149, 209, 164, 224
-0.999781, 141, 215, 156, 230
-0.999783, 241, 121, 256, 136
-0.999787, 21, 213, 36, 228
-0.999789, 53, 157, 68, 172
-0.999792, 441, 137, 456, 152
-0.99988, 329, 97, 360, 352
-0.999999, 273, 313, 400, 375
-1.0001, 353, 1, 384, 256
-1.00025, 273, 257, 400, 320
-1.00026, 273, 289, 400, 352
-1.00066, 273, 233, 400, 296
-1.00094, 353, 177, 416, 304
-1.00151, 321, 305, 448, 368
-1.00234, 321, 281, 448, 344
-1.00329, 273, 241, 400, 368
-1.00379, 249, 241, 312, 368
-1.00753, 297, 241, 360, 368
-1.01053, 321, 241, 448, 368
-1.01114, 345, 225, 408, 352
-1.01236, 273, 241, 336, 368
-1.01335, 321, 225, 384, 352
-1.01822, 369, 241, 432, 368
