1990
-0.443253, 1, 65, 500, 320
-0.490918, 1, 1, 500, 399
-0.546388, 193, 1, 448, 399
-0.562208, 33, 1, 288, 399
-0.666737, 193, 97, 448, 352
-0.758652, 33, 65, 288, 320
-0.77332, 193, 1, 448, 256
-0.893803, 241, 1, 368, 399
-0.896931, 225, 65, 352, 320
-0.902323, 17, 1, 144, 399
-0.903613, 289, 1, 416, 399
-0.906202, 193, 1, 320, 399
-0.911832, 1, 65, 500, 192
-0.915519, 17, 1, 144, 256
-0.91653, 289, 97, 416, 352
-0.917685, 1, 113, 500, 240
-0.918481, 1, 177, 500, 304
-0.921148, 337, 129, 464, 384
-0.921254, 145, 129, 272, 384
-0.922419, 65, 1, 192, 399
-0.923209, 1, 17, 500, 144
-0.92723, 129, 1, 256, 399
-0.927513, 17, 97, 144, 352
-0.929353, 273, 1, 400, 256
-0.931364, 65, 33, 192, 288
-0.935796, 193, 97, 448, 224
-0.939066, 177, 1, 304, 256
-0.939117, 1, 225, 500, 352
-0.943081, 225, 177, 480, 304
-0.944396, 193, 225, 448, 352
-0.945536, 161, 273, 416, 399
-0.945552, 369, 1, 496, 399
-0.946667, 65, 33, 320, 160
-0.947903, 1, 273, 500, 399
-0.950332, 33, 81, 288, 208
-0.952604, 129, 33, 256, 288
-0.95274, 209, 257, 336, 384
-0.961083, 193, 49, 448, 176
-0.962783, 233, 225, 296, 352
-0.96366, 209, 209, 336, 336
-0.964749, 209, 225, 272, 352
-0.965058, 65, 241, 320, 368
-0.965569, 225, 97, 352, 224
-0.965974, 369, 1, 496, 256
-0.966038, 17, 49, 144, 176
-0.966426, 209, 273, 272, 399
-0.966993, 321, 1, 448, 256
-0.967718, 65, 145, 320, 272
-0.96842, 169, 321, 232, 384
-0.968628, 185, 273, 248, 399
-0.969307, 225, 97, 288, 224
-0.970502, 161, 257, 288, 384
-0.970563, 241, 33, 368, 160
-0.970992, 337, 225, 464, 352
-0.971159, 145, 161, 272, 288
-0.971976, 201, 145, 264, 272
-0.972074, 273, 257, 400, 384
-0.972379, 233, 177, 296, 304
-0.972826, 257, 265, 320, 328
-0.972924, 225, 233, 288, 296
-0.973912, 249, 97, 312, 224
-0.973929, 177, 97, 304, 224
-0.974112, 273, 209, 400, 336
-0.974374, 217, 49, 280, 176
-0.974734, 225, 161, 352, 288
-0.975308, 65, 129, 192, 384
-0.976109, 353, 177, 480, 304
-0.976118, 257, 273, 500, 399
-0.976195, 209, 265, 336, 328
-0.976231, 65, 193, 320, 320
-0.976503, 161, 209, 288, 336
-0.976746, 65, 49, 128, 176
-0.977307, 161, 1, 416, 128
-0.977487, 217, 257, 280, 320
-0.977593, 33, 97, 160, 224
-0.977615, 289, 97, 416, 224
-0.977635, 273, 241, 336, 368
-0.977704, 201, 281, 264, 344
-0.977943, 329, 257, 392, 384
-0.978822, 281, 33, 344, 160
-0.979064, 97, 65, 224, 192
-0.979238, 201, 313, 264, 376
-0.979562, 201, 97, 264, 224
-0.979574, 193, 97, 256, 160
-0.979798, 193, 17, 320, 144
-0.980038, 281, 265, 344, 328
-0.980189, 369, 241, 432, 368
-0.98029, 233, 273, 296, 399
-0.980304, 25, 113, 88, 240
-0.980504, 353, 273, 480, 399
-0.981352, 369, 281, 432, 344
-0.98136, 225, 241, 256, 368
-0.981828, 209, 241, 336, 304
-0.982116, 241, 17, 304, 144
-0.982254, 305, 145, 432, 272
-0.982336, 193, 49, 256, 176
-0.982482, 233, 65, 296, 320
-0.982712, 201, 153, 264, 216
-0.982876, 329, 297, 392, 360
-0.982997, 193, 305, 320, 368
-0.983101, 329, 209, 392, 336
-0.983105, 73, 97, 136, 224
-0.983216, 113, 241, 240, 368
-0.983402, 217, 121, 280, 184
-0.983693, 17, 49, 80, 176
-0.983841, 329, 265, 392, 328
-0.984102, 257, 265, 384, 328
-0.984218, 161, 329, 288, 392
-0.984293, 145, 337, 208, 399
-0.984326, 225, 297, 288, 360
-0.984444, 213, 273, 244, 399
-0.984658, 281, 257, 312, 320
-0.984679, 73, 89, 136, 152
-0.985172, 193, 97, 256, 352
-0.985277, 265, 177, 328, 304
-0.9853, 49, 113, 112, 240
-0.985315, 177, 297, 240, 360
-0.985436, 185, 129, 248, 192
-0.985471, 113, 17, 240, 144
-0.985572, 241, 97, 304, 160
-0.985754, 241, 193, 304, 256
-0.985845, 225, 185, 352, 248
-0.985903, 41, 113, 104, 176
-0.986119, 305, 257, 368, 320
-0.986222, 353, 129, 416, 256
-0.986242, 321, 1, 448, 128
-0.986261, 57, 1, 120, 256
-0.986311, 241, 289, 368, 352
-0.986372, 257, 241, 320, 304
-0.986382, 257, 1, 500, 128
-0.986889, 241, 33, 304, 96
-0.986917, 249, 289, 312, 352
-0.986939, 305, 289, 368, 352
-0.98694, 1, 97, 64, 224
-0.987063, 237, 225, 268, 352
-0.987155, 181, 329, 212, 392
-0.987157, 305, 209, 368, 336
-0.987226, 209, 49, 272, 112
-0.987238, 289, 241, 416, 304
-0.987275, 241, 169, 304, 232
-0.987307, 97, 65, 160, 192
-0.987336, 257, 65, 320, 320
-0.987363, 313, 1, 376, 128
-0.987377, 281, 1, 344, 256
-0.987524, 193, 105, 320, 168
-0.987536, 293, 265, 324, 328
-0.987537, 17, 1, 144, 128
-0.987552, 73, 121, 136, 184
-0.987614, 225, 217, 352, 280
-0.987823, 81, 113, 208, 240
-0.987832, 257, 73, 320, 136
-0.987901, 241, 1, 304, 399
-0.987965, 201, 1, 264, 256
-0.988042, 281, 49, 344, 112
-0.988142, 305, 1, 368, 256
-0.988144, 337, 257, 464, 320
-0.988178, 369, 305, 432, 368
-0.988303, 41, 49, 104, 176
-0.988331, 289, 289, 416, 352
-0.98834, 197, 321, 228, 384
-0.988393, 209, 137, 336, 200
-0.98861, 161, 161, 288, 224
-0.98863, 209, 297, 240, 360
-0.988732, 377, 225, 440, 288
-0.988739, 225, 145, 256, 272
-0.988852, 345, 97, 408, 352
-0.988855, 353, 233, 480, 296
-0.988929, 217, 97, 280, 160
-0.988942, 305, 257, 368, 384
-0.988992, 33, 81, 160, 144
-0.989004, 161, 257, 288, 320
-0.989019, 225, 33, 352, 96
-0.989101, 169, 329, 200, 392
-0.989138, 233, 97, 264, 224
-0.98919, 145, 281, 272, 344
-0.989222, 177, 113, 240, 240
-0.989229, 269, 257, 300, 320
-0.989257, 337, 1, 400, 128
-0.989284, 97, 49, 128, 176
-0.989285, 105, 81, 168, 144
-0.989343, 305, 49, 368, 176
-0.98935, 345, 233, 408, 296
-0.989359, 161, 257, 224, 384
-0.989366, 17, 113, 80, 176
-0.989421, 209, 73, 272, 136
-0.989563, 265, 25, 328, 88
-0.989589, 113, 321, 240, 384
-0.989603, 33, 113, 160, 176
-0.989626, 277, 241, 308, 368
-0.989688, 193, 337, 256, 399
-0.989696, 241, 145, 304, 208
-0.989754, 81, 33, 144, 288
-0.989787, 353, 281, 480, 344
-0.989791, 377, 161, 440, 288
-0.98983, 265, 1, 328, 399
-0.989986, 33, 1, 96, 256
-0.989993, 353, 129, 480, 256
-0.990012, 297, 1, 360, 399
-0.990019, 161, 233, 288, 296
-0.990036, 281, 233, 344, 296
-0.990095, 297, 25, 360, 88
-0.990206, 393, 257, 456, 320
-0.990213, 401, 289, 464, 352
-0.990285, 97, 89, 224, 152
-0.990311, 225, 161, 352, 224
-0.990323, 401, 225, 464, 352
-0.990341, 225, 265, 256, 328
-0.99037, 305, 97, 368, 352
-0.990374, 273, 81, 336, 208
-0.990402, 433, 1, 496, 128
-0.990412, 245, 97, 276, 224
-0.990448, 261, 225, 292, 352
-0.990624, 209, 177, 272, 240
-0.990669, 33, 49, 160, 112
-0.990787, 289, 161, 352, 288
-0.990807, 129, 113, 256, 240
-0.990871, 361, 257, 424, 320
-0.990873, 369, 129, 432, 384
-0.990897, 337, 81, 400, 208
-0.99102, 97, 105, 160, 168
-0.991025, 305, 145, 432, 208
-0.991078, 201, 273, 232, 399
-0.991186, 49, 97, 112, 352
-0.991208, 169, 329, 232, 360
-0.991212, 229, 241, 260, 304
-0.991301, 57, 1, 120, 399
-0.991305, 161, 185, 288, 248
-0.991344, 337, 193, 464, 256
-0.99148, 245, 177, 276, 304
-0.991501, 353, 193, 416, 320
-0.991543, 225, 257, 288, 288
-0.99156, 185, 73, 248, 136
-0.991582, 225, 245, 288, 276
-0.991644, 161, 341, 224, 372
-0.991666, 265, 177, 328, 240
-0.991668, 229, 313, 260, 376
-0.991722, 433, 9, 496, 72
-0.991763, 209, 73, 336, 136
-0.991769, 357, 273, 388, 399
-0.991783, 289, 49, 416, 176
-0.991799, 273, 217, 400, 280
-0.99182, 9, 33, 72, 288
-0.991846, 265, 265, 328, 296
-0.991877, 201, 309, 264, 340
-0.991926, 297, 289, 360, 320
-0.991951, 129, 137, 256, 200
-0.991955, 217, 269, 280, 300
-0.991956, 201, 169, 264, 200
-0.991997, 209, 289, 272, 320
-0.992002, 465, 1, 496, 128
-0.99201, 273, 281, 336, 312
-0.992033, 217, 81, 248, 208
-0.992044, 193, 1, 256, 399
-0.99207, 257, 81, 384, 144
-0.992073, 193, 321, 256, 352
-0.992078, 241, 193, 304, 224
-0.99208, 89, 1, 152, 399
-0.992093, 241, 181, 304, 212
-0.992117, 321, 297, 384, 328
-0.992168, 273, 97, 304, 224
-0.992181, 321, 281, 384, 312
-0.992228, 281, 129, 344, 384
-0.99226, 249, 277, 312, 308
-0.992284, 105, 57, 168, 120
-0.992312, 261, 97, 292, 224
-0.992321, 241, 301, 304, 332
-0.992362, 233, 233, 296, 264
-0.992362, 361, 297, 424, 328
-0.992365, 213, 329, 244, 392
-0.99238, 233, 37, 296, 68
-0.992385, 273, 105, 400, 168
-0.992396, 113, 49, 240, 112
-0.992453, 209, 49, 272, 80
-0.99261, 337, 169, 464, 232
-0.992617, 221, 289, 252, 352
-0.99263, 265, 33, 296, 160
-0.99263, 73, 49, 136, 112
-0.992634, 217, 1, 280, 399
-0.992648, 193, 105, 256, 136
-0.992665, 241, 169, 304, 200
-0.992695, 185, 153, 248, 184
-0.992702, 361, 285, 424, 316
-0.992702, 257, 253, 320, 284
-0.992702, 361, 289, 392, 352
-0.992713, 65, 57, 128, 88
-0.992716, 97, 113, 224, 176
-0.992742, 105, 17, 168, 144
-0.992744, 241, 101, 304, 132
-0.992787, 297, 29, 360, 60
-0.992794, 297, 257, 360, 288
-0.992798, 329, 309, 392, 340
-0.992804, 217, 141, 280, 172
-0.992807, 185, 125, 248, 156
-0.992813, 281, 289, 344, 352
-0.992821, 73, 109, 136, 140
-0.992833, 257, 33, 320, 64
-0.992834, 185, 249, 248, 312
-0.992841, 353, 313, 480, 376
-0.99285, 205, 65, 236, 192
-0.992859, 249, 289, 312, 320
-0.992862, 25, 117, 88, 148
-0.992887, 425, 273, 488, 336
-0.992894, 73, 121, 136, 152
-0.992901, 469, 1, 500, 64
-0.992918, 217, 93, 280, 124
-0.992922, 217, 181, 280, 212
-0.992948, 369, 309, 432, 340
-0.992962, 233, 221, 296, 252
-0.992977, 353, 145, 416, 208
-0.99298, 49, 121, 112, 152
-0.993011, 297, 301, 360, 332
-0.993017, 393, 269, 456, 300
-0.993044, 201, 17, 264, 80
-0.993051, 33, 1, 96, 399
-0.99306, 209, 337, 272, 368
-0.993061, 433, 17, 496, 48
-0.993067, 265, 181, 328, 212
-0.993074, 273, 261, 304, 292
-0.993083, 257, 89, 320, 120
-0.993083, 289, 369, 352, 399
-0.993088, 201, 37, 264, 68
-0.993093, 241, 205, 304, 236
-0.993101, 289, 269, 352, 300
-0.993122, 417, 273, 480, 399
-0.993131, 97, 113, 160, 144
-0.993132, 217, 113, 280, 144
-0.993132, 273, 293, 336, 324
-0.99314, 217, 321, 280, 352
-0.993142, 329, 1, 392, 399
-0.993168, 385, 281, 448, 312
-0.993171, 209, 129, 272, 160
-0.993174, 425, 5, 488, 36
-0.993174, 393, 301, 456, 332
-0.993179, 369, 245, 432, 276
-0.993183, 165, 341, 196, 372
-0.993185, 185, 257, 248, 288
-0.993202, 337, 241, 400, 272
-0.993203, 129, 341, 192, 372
-0.993208, 185, 277, 248, 308
-0.993208, 177, 353, 240, 384
-0.993212, 345, 121, 408, 184
-0.993215, 209, 157, 272, 188
-0.993222, 1, 117, 64, 148
-0.993226, 309, 289, 340, 320
-0.993239, 353, 269, 416, 300
-0.993253, 237, 41, 268, 72
-0.993256, 233, 157, 296, 188
-0.993273, 249, 181, 280, 212
-0.993276, 417, 253, 480, 284
-0.99328, 269, 233, 300, 296
-0.993284, 289, 269, 320, 300
-0.993285, 321, 293, 352, 324
-0.993289, 241, 297, 272, 360
-0.993317, 205, 321, 236, 352
-0.993318, 97, 113, 160, 240
-0.993325, 97, 113, 128, 240
-0.993332, 229, 161, 260, 224
-0.993343, 229, 49, 260, 176
-0.993352, 357, 301, 388, 332
-0.993356, 369, 229, 432, 260
-0.993359, 185, 341, 248, 372
-0.993362, 145, 353, 208, 384
-0.993366, 345, 257, 408, 288
-0.993367, 105, 53, 168, 84
-0.993374, 333, 297, 364, 328
-0.993375, 305, 265, 336, 328
-0.993376, 241, 305, 272, 336
-0.993377, 145, 105, 272, 168
-0.993377, 229, 169, 260, 200
-0.993377, 177, 337, 208, 368
-0.993382, 177, 141, 240, 172
-0.993386, 49, 109, 112, 140
-0.993393, 105, 65, 168, 96
-0.993397, 41, 89, 104, 152
-0.993405, 345, 297, 376, 328
-0.993407, 281, 245, 344, 276
-0.993411, 185, 49, 248, 80
-0.993412, 73, 97, 136, 128
-0.993421, 229, 53, 260, 84
-0.993429, 241, 49, 304, 80
-0.993435, 237, 241, 268, 272
-0.993437, 417, 233, 480, 296
-0.993439, 193, 93, 256, 124
-0.99344, 213, 309, 244, 340
-0.99344, 385, 165, 448, 196
-0.993441, 289, 193, 416, 256
-0.993445, 313, 365, 376, 396
-0.993446, 269, 277, 300, 308
-0.993451, 313, 269, 376, 300
-0.993452, 465, 13, 496, 44
-0.993463, 193, 245, 256, 276
-0.993467, 165, 353, 196, 384
-0.993468, 257, 265, 288, 328
-0.993471, 369, 321, 432, 352
-0.993474, 417, 297, 480, 328
-0.993474, 289, 33, 320, 160
-0.993475, 209, 97, 240, 128
-0.993477, 253, 289, 284, 320
-0.993484, 105, 81, 168, 112
-0.993486, 217, 61, 280, 92
-0.993488, 321, 257, 384, 288
-0.993492, 369, 297, 400, 328
-0.9935, 73, 69, 136, 100
-0.993502, 329, 209, 392, 272
-0.993503, 229, 257, 260, 288
-0.993504, 189, 325, 220, 356
-0.993504, 369, 257, 432, 288
-0.993508, 293, 281, 324, 312
-0.99351, 201, 213, 264, 244
-0.993512, 461, 1, 492, 32
-0.993516, 241, 157, 272, 188
-0.993517, 225, 325, 256, 356
-0.99352, 217, 149, 248, 180
-0.993521, 241, 229, 272, 260
-0.993527, 169, 105, 232, 168
-0.993531, 201, 193, 264, 224
-0.993538, 105, 101, 168, 132
-0.99354, 353, 285, 384, 316
-0.993543, 221, 129, 252, 192
-0.993547, 381, 309, 412, 340
-0.993549, 33, 25, 160, 88
-0.99355, 225, 269, 256, 300
-0.993551, 297, 369, 328, 399
-0.993555, 249, 37, 280, 68
-0.993559, 265, 49, 328, 80
-0.993559, 253, 301, 284, 332
-0.99356, 309, 29, 340, 60
-0.993568, 437, 281, 468, 312
-0.993568, 205, 349, 236, 380
-0.993568, 285, 257, 316, 288
-0.99357, 429, 293, 460, 324
-0.993572, 289, 189, 352, 220
-0.993573, 85, 121, 116, 152
-0.993578, 249, 113, 312, 144
-0.993578, 153, 345, 184, 376
-0.993581, 213, 337, 244, 368
-0.993581, 97, 57, 128, 88
-0.993588, 257, 241, 320, 272
-0.993589, 273, 249, 304, 280
-0.993593, 229, 109, 260, 140
-0.993593, 417, 285, 480, 316
-0.993594, 33, 117, 64, 148
-0.993596, 221, 297, 252, 328
-0.993596, 249, 193, 280, 224
-0.993602, 213, 53, 244, 84
-0.993603, 201, 25, 264, 56
-0.993604, 249, 169, 280, 200
-0.993609, 289, 57, 352, 88
-0.993612, 353, 341, 416, 372
-0.993612, 309, 277, 340, 308
-0.993613, 321, 281, 352, 312
-0.993613, 221, 281, 252, 312
-0.993616, 333, 285, 364, 316
-0.993619, 73, 81, 136, 112
-0.993623, 297, 257, 328, 288
-0.993625, 45, 117, 76, 148
-0.993632, 261, 265, 292, 296
-0.993638, 237, 181, 268, 212
-0.99364, 385, 153, 448, 184
-0.99364, 213, 37, 244, 68
-0.993643, 193, 113, 448, 176
-0.993643, 261, 105, 292, 136
-0.993644, 289, 185, 320, 216
-0.993648, 233, 289, 264, 320
-0.99365, 409, 293, 440, 324
-0.993653, 265, 101, 328, 132
-0.993657, 225, 81, 288, 112
-0.993657, 69, 121, 100, 152
-0.993659, 245, 217, 276, 248
-0.993661, 177, 289, 240, 320
-0.993662, 229, 313, 260, 344
-0.993662, 97, 109, 128, 140
-0.993663, 217, 137, 248, 168
-0.993664, 289, 169, 416, 232
-0.993665, 241, 53, 272, 84
-0.993666, 197, 105, 228, 136
-0.993668, 117, 105, 148, 136
-0.99367, 213, 85, 244, 116
-0.993677, 209, 233, 272, 264
-0.993679, 217, 165, 248, 196
-0.993679, 221, 97, 252, 128
-0.99368, 181, 349, 212, 380
-0.993683, 101, 121, 132, 152
-0.993684, 229, 149, 260, 180
-0.993684, 21, 117, 52, 148
-0.993687, 361, 145, 424, 176
-0.993691, 361, 313, 392, 344
-0.993699, 261, 33, 292, 64
-0.993702, 289, 33, 320, 64
-0.993703, 265, 197, 328, 228
-0.993706, 57, 121, 88, 152
-0.993709, 277, 85, 308, 116
-0.993709, 249, 101, 280, 132
-0.993712, 373, 285, 404, 316
-0.993716, 225, 337, 256, 368
-0.993719, 217, 109, 248, 140
-0.993721, 369, 181, 432, 212
-0.993722, 301, 189, 332, 220
-0.993722, 17, 89, 80, 152
-0.993724, 381, 325, 412, 356
-0.993724, 1, 105, 64, 136
-0.993724, 33, 57, 96, 88
-0.993726, 261, 245, 292, 276
-0.993727, 285, 297, 316, 328
-0.993734, 417, 269, 480, 300
-0.993736, 453, 265, 484, 296
-0.993739, 73, 45, 136, 76
-0.993739, 201, 333, 232, 364
-0.993741, 5, 117, 36, 148
-0.993743, 217, 121, 248, 152
-0.993743, 301, 45, 332, 76
-0.993745, 25, 105, 88, 136
-0.993746, 241, 113, 272, 144
-0.993748, 193, 249, 448, 312
-0.99375, 393, 313, 456, 344
-0.993751, 281, 281, 312, 312
-0.993751, 193, 357, 224, 388
-0.993751, 225, 245, 256, 276
-0.993752, 213, 265, 244, 296
-0.993752, 297, 297, 328, 328
-0.993755, 313, 189, 376, 220
-0.993756, 337, 9, 400, 40
-0.993757, 201, 309, 232, 340
-0.99376, 297, 173, 360, 204
-0.99376, 417, 261, 448, 292
-0.99376, 289, 101, 352, 132
-0.993762, 229, 121, 260, 152
-0.993766, 313, 369, 344, 399
-0.993766, 225, 41, 256, 72
-0.993768, 449, 9, 480, 40
-0.993769, 169, 317, 232, 348
-0.993772, 277, 97, 308, 128
-0.993773, 453, 21, 484, 52
-0.993774, 361, 349, 392, 380
-0.993774, 97, 125, 160, 156
-0.993774, 245, 205, 276, 236
-0.993776, 129, 325, 192, 356
-0.993776, 309, 301, 340, 332
-0.993777, 277, 177, 308, 208
-0.993779, 101, 85, 132, 116
-0.993783, 201, 137, 232, 168
-0.993783, 449, 277, 480, 308
-0.993783, 285, 241, 316, 272
-0.993785, 261, 189, 292, 220
-0.993785, 265, 173, 296, 204
-0.993787, 325, 369, 356, 399
-0.993788, 201, 153, 232, 184
-0.993791, 85, 57, 116, 88
-0.993795, 97, 69, 128, 100
-0.993797, 417, 281, 448, 312
-0.993799, 117, 85, 148, 116
-0.9938, 189, 117, 220, 148
-0.993863, 225, 185, 480, 248
-0.993945, 69, 113, 100, 240
-0.993947, 377, 161, 440, 224
-0.994103, 241, 225, 272, 288
-0.994108, 369, 81, 496, 208
-0.994121, 1, 1, 64, 399
-0.994153, 161, 305, 416, 368
-0.994157, 193, 137, 448, 200
-0.994166, 193, 209, 448, 272
-0.994191, 161, 209, 288, 272
-0.994197, 209, 329, 336, 392
-0.994211, 305, 1, 432, 64
-0.994248, 57, 113, 88, 240
-0.994269, 265, 97, 328, 160
-0.994314, 97, 81, 128, 144
-0.994326, 177, 49, 304, 112
-0.99438, 209, 89, 240, 152
-0.994397, 377, 241, 408, 368
-0.994406, 85, 113, 116, 240
-0.994408, 193, 209, 256, 272
-0.99443, 129, 313, 192, 376
-0.994445, 233, 73, 296, 136
-0.994455, 1, 97, 500, 160
-0.994455, 45, 113, 76, 240
-0.994495, 33, 89, 288, 152
-0.994547, 217, 209, 280, 272
-0.994568, 217, 33, 248, 160
-0.994658, 281, 73, 344, 136
-0.994659, 161, 273, 416, 336
-0.994671, 13, 97, 44, 224
-0.99471, 65, 113, 96, 176
-0.994742, 33, 113, 64, 240
-0.994748, 357, 225, 388, 352
-0.994752, 245, 273, 276, 399
-0.994826, 185, 273, 216, 399
-0.99487, 145, 81, 272, 144
-0.994912, 345, 177, 408, 240
-0.994919, 249, 193, 280, 256
-0.994952, 301, 17, 332, 144
-0.994957, 317, 33, 348, 160
-0.994964, 229, 105, 260, 168
-0.994969, 197, 105, 228, 168
-0.994983, 105, 33, 168, 96
-0.994983, 289, 97, 352, 160
-0.995003, 369, 145, 496, 208
-0.995044, 193, 9, 320, 72
-0.995054, 313, 81, 376, 144
-0.995058, 225, 161, 480, 224
-0.995061, 225, 321, 288, 384
-0.995073, 9, 49, 40, 176
-0.995114, 65, 17, 192, 144
-0.995115, 245, 33, 276, 160
-0.995117, 33, 49, 64, 176
-0.995149, 185, 193, 248, 320
-0.995159, 305, 233, 368, 296
-0.995179, 209, 269, 336, 300
-0.995184, 401, 177, 464, 304
-0.99519, 305, 57, 368, 120
-0.995219, 313, 129, 376, 256
-0.995236, 97, 25, 224, 88
-0.995246, 277, 81, 308, 144
-0.995248, 305, 241, 336, 368
-0.995256, 273, 25, 400, 88
-0.995265, 257, 97, 288, 160
-0.995275, 85, 49, 116, 176
-0.995277, 257, 57, 384, 120
-0.995286, 177, 153, 240, 216
-0.995294, 217, 153, 248, 216
-0.995305, 345, 257, 376, 384
-0.995313, 321, 281, 352, 344
-0.995322, 217, 1, 280, 128
-0.995352, 373, 273, 404, 336
-0.995364, 345, 1, 408, 64
-0.995399, 321, 121, 448, 184
-0.995412, 17, 1, 144, 64
-0.995412, 65, 25, 320, 88
-0.99545, 233, 41, 264, 104
-0.995462, 257, 281, 500, 344
-0.995479, 65, 313, 192, 376
-0.995487, 81, 121, 112, 184
-0.995533, 1, 73, 500, 136
-0.995611, 341, 209, 372, 336
-0.995651, 313, 185, 376, 248
-0.995682, 345, 337, 408, 399
-0.995737, 293, 177, 324, 304
-0.995775, 369, 329, 432, 392
-0.995786, 53, 49, 84, 176
-0.995789, 65, 57, 320, 120
-0.995794, 369, 121, 496, 184
-0.99584, 321, 9, 384, 72
-0.995853, 105, 1, 168, 256
-0.99586, 457, 17, 488, 80
-0.995867, 277, 49, 308, 176
-0.995883, 289, 169, 352, 232
-0.995903, 281, 233, 312, 296
-0.995904, 273, 313, 400, 376
-0.995911, 97, 57, 128, 120
-0.995921, 33, 113, 288, 176
-0.995969, 281, 177, 312, 304
-0.99598, 49, 113, 80, 176
-0.99599, 377, 201, 440, 264
-0.996008, 73, 49, 104, 176
-0.996026, 361, 313, 392, 376
-0.996038, 289, 225, 320, 352
-0.996074, 353, 1, 416, 399
-0.996076, 129, 329, 384, 392
-0.99608, 177, 273, 240, 336
-0.996119, 85, 97, 116, 160
-0.996175, 349, 273, 380, 336
-0.996175, 209, 257, 336, 288
-0.996187, 289, 257, 304, 320
-0.996208, 301, 25, 332, 88
-0.996214, 293, 241, 324, 304
-0.996244, 17, 113, 48, 176
-0.996258, 37, 113, 68, 176
-0.996283, 145, 25, 272, 88
-0.996299, 101, 113, 132, 176
-0.996314, 117, 49, 148, 176
-0.99634, 353, 1, 480, 64
-0.996346, 1, 97, 32, 224
-0.996419, 241, 145, 272, 208
-0.996433, 185, 49, 248, 112
-0.996466, 193, 89, 448, 152
-0.996478, 241, 297, 368, 328
-0.996481, 73, 1, 136, 128
-0.996521, 21, 49, 52, 176
-0.996554, 73, 1, 136, 64
-0.996564, 277, 281, 308, 344
-0.99657, 113, 257, 240, 320
-0.996586, 113, 1, 240, 64
-0.996615, 153, 289, 216, 352
-0.996634, 65, 273, 192, 399
-0.996646, 429, 289, 460, 352
-0.996658, 313, 25, 344, 88
-0.996665, 333, 1, 364, 128
-0.996687, 161, 333, 288, 364
-0.996703, 209, 281, 336, 312
-0.996751, 283, 257, 298, 320
-0.996761, 261, 273, 292, 399
-0.996779, 1, 201, 500, 264
-0.996793, 205, 113, 236, 240
-0.9968, 321, 337, 448, 399
-0.996808, 305, 285, 432, 316
-0.996867, 1, 177, 500, 240
-0.996888, 297, 257, 312, 320
-0.996903, 401, 129, 464, 384
-0.996916, 65, 161, 320, 224
-0.996918, 385, 137, 448, 200
-0.996944, 1, 137, 500, 200
-0.996955, 417, 241, 448, 368
-0.997021, 393, 313, 456, 376
-0.997021, 273, 257, 400, 288
-0.997026, 157, 337, 188, 399
-0.997032, 179, 329, 194, 392
-0.997041, 253, 289, 284, 352
-0.997051, 65, 273, 320, 336
-0.997061, 97, 249, 352, 312
-0.997062, 5, 113, 36, 176
-0.997062, 203, 321, 218, 384
-0.997079, 293, 113, 324, 240
-0.997081, 173, 329, 188, 392
-0.997094, 329, 241, 360, 368
-0.997112, 65, 1, 320, 64
-0.997117, 305, 81, 432, 144
-0.997139, 249, 225, 280, 352
-0.997162, 433, 1, 496, 256
-0.997165, 273, 209, 336, 272
-0.997221, 73, 25, 136, 88
-0.997239, 225, 185, 352, 216
-0.997256, 209, 245, 336, 276
-0.997319, 245, 33, 276, 96
-0.997345, 329, 1, 392, 256
-0.997351, 193, 309, 320, 340
-0.997365, 303, 265, 318, 328
-0.997383, 353, 297, 480, 328
-0.997416, 191, 329, 206, 392
-0.997451, 239, 233, 254, 296
-0.997454, 33, 297, 288, 360
-0.997471, 193, 293, 320, 324
-0.997471, 81, 289, 208, 352
-0.99748, 277, 257, 292, 320
-0.997486, 117, 81, 148, 144
-0.997488, 201, 129, 232, 192
-0.997488, 257, 233, 288, 296
-0.997529, 385, 1, 448, 399
-0.99753, 129, 185, 384, 248
-0.997541, 161, 257, 288, 288
-0.997554, 311, 265, 326, 328
-0.997561, 337, 257, 368, 320
-0.997565, 409, 265, 440, 328
-0.997571, 217, 305, 232, 368
-0.997586, 449, 265, 480, 328
-0.997597, 1, 25, 500, 88
-0.997598, 225, 201, 352, 232
-0.997604, 317, 257, 348, 320
-0.997613, 185, 329, 200, 392
-0.997619, 249, 217, 312, 280
-0.997626, 161, 25, 416, 88
-0.997627, 33, 105, 160, 136
-0.997634, 231, 249, 246, 312
-0.99764, 161, 181, 288, 212
-0.997647, 209, 313, 224, 376
-0.997657, 197, 321, 212, 384
-0.99766, 223, 121, 238, 184
-0.997662, 1, 49, 500, 112
-0.997664, 289, 269, 416, 300
-0.997681, 225, 221, 352, 252
-0.997681, 369, 241, 496, 272
-0.997691, 161, 49, 416, 112
-0.997692, 227, 321, 242, 384
-0.997698, 113, 337, 240, 368
-0.997698, 305, 305, 432, 336
-0.997706, 33, 137, 288, 200
-0.99771, 353, 97, 480, 160
-0.997725, 225, 173, 352, 204
-0.99773, 373, 305, 388, 368
-0.997745, 17, 57, 144, 88
-0.997747, 337, 97, 400, 160
-0.99778, 345, 1, 376, 128
-0.997787, 145, 297, 272, 328
-0.997796, 161, 169, 288, 200
-0.99781, 241, 169, 256, 232
-0.997811, 113, 1, 176, 399
-0.997812, 109, 97, 140, 224
-0.997818, 265, 153, 328, 216
-0.997824, 217, 65, 248, 128
-0.99783, 333, 289, 364, 352
-0.997831, 229, 129, 260, 384
-0.997843, 289, 25, 320, 88
-0.997844, 1, 297, 500, 360
-0.997849, 1, 225, 500, 288
-0.997854, 225, 45, 352, 76
-0.997856, 251, 297, 266, 360
-0.997857, 173, 273, 204, 399
-0.997858, 241, 121, 304, 184
-0.997867, 271, 265, 286, 328
-0.997868, 281, 233, 296, 296
-0.997874, 233, 1, 264, 256
-0.997883, 137, 273, 200, 399
-0.997917, 97, 113, 224, 144
-0.997919, 33, 337, 288, 399
-0.997932, 245, 169, 276, 232
-0.997932, 65, 217, 320, 280
-0.997953, 177, 321, 304, 352
-0.997959, 479, 1, 494, 64
-0.997969, 113, 325, 240, 356
-0.997987, 377, 129, 408, 256
-0.99799, 405, 241, 436, 368
-0.998, 381, 305, 412, 368
-0.99801, 257, 129, 384, 192
-0.998011, 33, 121, 160, 152
-0.998018, 257, 305, 500, 368
-0.998035, 241, 33, 368, 64
-0.998043, 225, 265, 240, 328
-0.998056, 245, 97, 276, 160
-0.998088, 353, 277, 480, 308
-0.998096, 401, 193, 464, 256
-0.998121, 401, 169, 464, 232
-0.998124, 169, 341, 184, 372
-0.998126, 353, 253, 480, 284
-0.998141, 245, 217, 260, 280
-0.998149, 275, 233, 290, 296
-0.99815, 257, 285, 384, 316
-0.998165, 209, 233, 336, 264
-0.998168, 309, 289, 340, 352
-0.998171, 161, 129, 224, 192
-0.998176, 221, 73, 236, 136
-0.998182, 287, 233, 302, 296
-0.998186, 113, 349, 240, 380
-0.998187, 367, 281, 382, 344
-0.998202, 433, 1, 496, 399
-0.998209, 209, 149, 336, 180
-0.998212, 353, 265, 480, 296
-0.998215, 285, 263, 316, 278
-0.998215, 213, 41, 244, 56
-0.998215, 85, 59, 116, 74
-0.998215, 177, 359, 208, 374
-0.998216, 277, 89, 308, 104
-0.998216, 257, 35, 288, 50
-0.998216, 117, 97, 148, 112
-0.998216, 219, 281, 234, 344
-0.998216, 277, 101, 308, 116
-0.998217, 257, 47, 288, 62
-0.998218, 245, 213, 276, 228
-0.998218, 361, 351, 392, 366
-0.998218, 237, 185, 268, 200
-0.998218, 245, 201, 276, 216
-0.998218, 33, 119, 64, 134
-0.998219, 101, 101, 132, 116
-0.998219, 373, 307, 404, 322
-0.998219, 257, 271, 288, 286
-0.998219, 301, 301, 332, 316
-0.998219, 1, 117, 32, 132
-0.998219, 309, 279, 340, 294
-0.99822, 225, 331, 256, 346
-0.99822, 257, 177, 288, 304
-0.99822, 217, 103, 248, 118
-0.998221, 209, 315, 240, 330
-0.998221, 233, 325, 264, 340
-0.998221, 217, 141, 248, 156
-0.998222, 261, 195, 292, 210
-0.998222, 297, 263, 328, 278
-0.998222, 293, 283, 324, 298
-0.998223, 101, 87, 132, 102
-0.998224, 217, 111, 248, 126
-0.998224, 221, 343, 252, 358
-0.998224, 245, 207, 276, 222
-0.998224, 217, 299, 248, 314
-0.998224, 381, 325, 412, 340
-0.998225, 213, 61, 244, 76
-0.998225, 269, 257, 300, 272
-0.998226, 217, 163, 248, 178
-0.998226, 153, 353, 184, 368
-0.998226, 117, 115, 148, 130
-0.998227, 45, 121, 76, 136
-0.998227, 213, 307, 244, 322
-0.998227, 205, 113, 236, 128
-0.998228, 213, 325, 244, 340
-0.998228, 309, 287, 340, 302
-0.998228, 373, 293, 404, 308
-0.998229, 241, 313, 272, 328
-0.998229, 201, 357, 232, 372
-0.998229, 117, 105, 148, 120
-0.99823, 245, 229, 276, 244
-0.99823, 97, 115, 128, 130
-0.99823, 319, 281, 334, 344
-0.99823, 225, 279, 256, 294
-0.998231, 85, 123, 116, 138
-0.998231, 229, 121, 244, 184
-0.998232, 201, 321, 232, 336
-0.998232, 209, 91, 240, 106
-0.998233, 101, 123, 132, 138
-0.998234, 377, 313, 408, 328
-0.998234, 357, 291, 388, 306
-0.998235, 297, 381, 328, 396
-0.998235, 149, 347, 180, 362
-0.998235, 209, 133, 336, 164
-0.998235, 225, 307, 256, 322
-0.998236, 21, 119, 52, 134
-0.998236, 425, 291, 456, 306
-0.998237, 57, 121, 88, 136
-0.998239, 225, 337, 256, 352
-0.998239, 289, 257, 320, 272
-0.99824, 217, 147, 248, 162
-0.99824, 193, 327, 224, 342
-0.998241, 301, 33, 332, 48
-0.998241, 229, 301, 260, 316
-0.998242, 241, 235, 272, 250
-0.998243, 221, 289, 252, 304
-0.998243, 241, 161, 272, 176
-0.998243, 229, 255, 260, 270
-0.998243, 225, 267, 256, 282
-0.998244, 381, 319, 412, 334
-0.998246, 217, 49, 248, 64
-0.998246, 329, 291, 360, 306
-0.998248, 345, 295, 376, 310
-0.998248, 413, 297, 444, 312
-0.998249, 205, 107, 236, 122
-0.99825, 245, 97, 276, 352
-0.998251, 193, 117, 320, 148
-0.998251, 245, 51, 276, 66
-0.998251, 221, 153, 252, 168
-0.998251, 73, 123, 104, 138
-0.998251, 161, 193, 288, 224
-0.998252, 457, 23, 488, 38
-0.998252, 97, 61, 128, 76
-0.998252, 233, 247, 264, 262
-0.998254, 253, 301, 284, 316
-0.998254, 341, 307, 372, 322
-0.998254, 265, 277, 296, 292
-0.998255, 213, 349, 244, 364
-0.998255, 161, 345, 288, 376
-0.998255, 249, 195, 280, 210
-0.998255, 165, 349, 196, 364
-0.998256, 227, 145, 242, 208
-0.998257, 237, 241, 268, 256
-0.998257, 229, 57, 260, 72
-0.998257, 221, 169, 252, 184
-0.998258, 225, 273, 256, 288
-0.998262, 213, 97, 244, 112
-0.998262, 313, 301, 344, 316
-0.998266, 229, 261, 260, 276
-0.998266, 221, 329, 236, 392
-0.998267, 245, 305, 260, 368
-0.998267, 65, 1, 192, 64
-0.998269, 233, 49, 248, 112
-0.998269, 465, 17, 496, 32
-0.99827, 181, 353, 212, 368
-0.99827, 373, 301, 404, 316
-0.998272, 361, 297, 392, 312
-0.998272, 329, 305, 360, 320
-0.998275, 185, 333, 216, 348
-0.998275, 235, 313, 250, 376
-0.998276, 465, 1, 496, 16
-0.998278, 237, 179, 268, 194
-0.99828, 361, 309, 392, 324
-0.99828, 229, 97, 244, 160
-0.998283, 305, 293, 336, 308
-0.998283, 249, 307, 280, 322
-0.998283, 245, 39, 276, 54
-0.998287, 289, 271, 320, 286
-0.998287, 97, 1, 128, 256
-0.998292, 251, 185, 266, 248
-0.998293, 85, 1, 116, 256
-0.998293, 293, 281, 308, 344
-0.998293, 301, 273, 332, 288
-0.998296, 277, 269, 308, 284
-0.998297, 213, 55, 244, 70
-0.998297, 457, 11, 488, 26
-0.998298, 113, 81, 128, 144
-0.998301, 297, 375, 328, 390
-0.998301, 249, 183, 280, 198
-0.998301, 165, 357, 196, 372
-0.998302, 145, 309, 272, 340
-0.998307, 97, 101, 224, 132
-0.998312, 285, 277, 316, 292
-0.998319, 233, 51, 264, 66
-0.998319, 361, 233, 392, 296
-0.99832, 233, 43, 264, 58
-0.998322, 169, 343, 200, 358
-0.998326, 233, 153, 248, 216
-0.998328, 121, 337, 184, 399
-0.998329, 173, 337, 204, 352
-0.99833, 75, 113, 90, 176
-0.998332, 361, 303, 392, 318
-0.998336, 273, 263, 304, 278
-0.998342, 113, 77, 240, 108
-0.998346, 317, 273, 348, 399
-0.998348, 361, 265, 392, 328
-0.998348, 473, 9, 488, 72
-0.998349, 249, 189, 280, 204
-0.998351, 317, 293, 348, 308
-0.998354, 369, 1, 496, 32
-0.998361, 293, 233, 308, 296
-0.998368, 353, 209, 416, 272
-0.998368, 269, 233, 284, 296
-0.998372, 167, 337, 182, 399
-0.998373, 485, 1, 500, 64
-0.998373, 93, 121, 108, 184
-0.998374, 329, 297, 360, 312
-0.998377, 235, 129, 250, 192
-0.998382, 37, 113, 52, 176
-0.998384, 345, 301, 376, 316
-0.998388, 293, 177, 324, 240
-0.998388, 63, 113, 78, 176
-0.998389, 441, 257, 472, 384
-0.998394, 25, 113, 40, 176
-0.998402, 251, 153, 266, 216
-0.998406, 273, 233, 400, 264
-0.998412, 87, 121, 102, 184
-0.998424, 267, 105, 282, 168
-0.998428, 223, 97, 238, 160
-0.99844, 217, 97, 248, 352
-0.998443, 47, 113, 62, 176
-0.998443, 103, 121, 118, 184
-0.998445, 337, 189, 464, 220
-0.998446, 31, 113, 46, 176
-0.998451, 315, 25, 330, 88
-0.99846, 81, 113, 96, 176
-0.998462, 193, 57, 320, 88
-0.998464, 225, 161, 352, 192
-0.998473, 291, 265, 306, 296
-0.998474, 33, 69, 160, 100
-0.998475, 361, 273, 376, 336
-0.998477, 353, 229, 480, 260
-0.998481, 161, 205, 288, 236
-0.998482, 273, 245, 400, 276
-0.998482, 325, 281, 340, 344
-0.998485, 113, 89, 240, 120
-0.998503, 53, 113, 68, 176
-0.998506, 305, 25, 320, 88
-0.998511, 113, 233, 240, 296
-0.998512, 161, 269, 288, 300
-0.99852, 245, 145, 260, 208
-0.998526, 261, 97, 276, 160
-0.998527, 175, 337, 190, 368
-0.998531, 93, 97, 108, 160
-0.998533, 323, 25, 338, 88
-0.998538, 285, 261, 300, 292
-0.99854, 1, 113, 16, 176
-0.998545, 361, 97, 392, 224
-0.998546, 97, 53, 224, 84
-0.998546, 11, 113, 26, 176
-0.998551, 277, 89, 292, 152
-0.998555, 19, 113, 34, 176
-0.998555, 257, 297, 272, 360
-0.998566, 193, 105, 320, 136
-0.998567, 177, 1, 240, 128
-0.998572, 145, 157, 272, 188
-0.998572, 113, 113, 128, 176
-0.998575, 389, 145, 420, 272
-0.998582, 69, 113, 84, 176
-0.998585, 377, 273, 392, 336
-0.998587, 329, 293, 344, 324
-0.998591, 261, 273, 276, 336
-0.998592, 323, 257, 338, 320
-0.998596, 235, 45, 250, 76
-0.998603, 289, 145, 352, 208
-0.998605, 97, 1, 128, 128
-0.998606, 245, 1, 276, 256
-0.998609, 353, 313, 480, 344
-0.998612, 247, 33, 262, 96
-0.998614, 177, 333, 240, 348
-0.998618, 257, 269, 320, 284
-0.998621, 371, 301, 386, 332
-0.998624, 321, 299, 384, 314
-0.998626, 215, 73, 230, 136
-0.998627, 337, 201, 464, 232
-0.998632, 425, 209, 488, 336
-0.998633, 129, 137, 256, 168
-0.998639, 239, 33, 254, 96
-0.998645, 225, 261, 288, 276
-0.998649, 73, 89, 104, 152
-0.99865, 225, 267, 288, 282
-0.99865, 169, 339, 232, 354
-0.998653, 177, 25, 240, 88
-0.998653, 215, 329, 230, 392
-0.998654, 185, 327, 248, 342
-0.998657, 225, 255, 288, 270
-0.998658, 201, 311, 264, 326
-0.998658, 329, 307, 392, 322
-0.998661, 297, 297, 360, 312
-0.998662, 321, 57, 448, 120
-0.998663, 217, 273, 280, 288
-0.998664, 287, 281, 302, 344
-0.998664, 209, 301, 272, 316
-0.998667, 87, 97, 102, 160
-0.998668, 33, 81, 160, 112
-0.998669, 241, 195, 304, 210
-0.998669, 297, 269, 312, 300
-0.99867, 161, 345, 224, 360
-0.998672, 289, 291, 352, 306
-0.998672, 257, 279, 320, 294
-0.998672, 309, 1, 340, 256
-0.998673, 201, 317, 264, 332
-0.998675, 227, 297, 242, 360
-0.998675, 285, 81, 300, 144
-0.998676, 317, 289, 332, 320
-0.998678, 353, 301, 416, 316
-0.998679, 329, 293, 392, 308
-0.99868, 265, 263, 328, 278
-0.998682, 209, 295, 272, 310
-0.998683, 225, 247, 288, 262
-0.998683, 241, 303, 304, 318
-0.998684, 321, 241, 448, 272
-0.998684, 241, 105, 256, 168
-0.998687, 193, 33, 320, 64
-0.998689, 201, 45, 264, 60
-0.998689, 467, 17, 482, 80
-0.99869, 201, 53, 264, 68
-0.998695, 225, 51, 288, 66
-0.998695, 241, 181, 304, 196
-0.998696, 233, 239, 296, 254
-0.998697, 161, 351, 224, 366
-0.998698, 241, 189, 304, 204
-0.998698, 369, 315, 432, 330
-0.998702, 217, 287, 280, 302
-0.998704, 233, 45, 296, 60
-0.998706, 161, 237, 288, 268
-0.998707, 369, 309, 432, 324
-0.998707, 289, 273, 352, 288
-0.998707, 241, 173, 304, 188
-0.998708, 241, 201, 304, 216
-0.998709, 273, 299, 336, 314
-0.998709, 209, 175, 272, 190
-0.99871, 289, 31, 352, 46
-0.998712, 289, 133, 416, 164
-0.998714, 249, 35, 312, 50
-0.998715, 185, 119, 248, 134
-0.998716, 233, 233, 296, 248
-0.998716, 217, 279, 280, 294
-0.998716, 193, 169, 256, 184
-0.998717, 289, 259, 352, 274
-0.998719, 297, 303, 360, 318
-0.998719, 369, 293, 432, 308
-0.998719, 73, 61, 136, 76
-0.99872, 193, 113, 256, 128
-0.99872, 49, 123, 112, 138
-0.99872, 433, 7, 496, 22
-0.998722, 61, 1, 92, 256
-0.998722, 73, 115, 136, 130
-0.998723, 193, 107, 256, 122
-0.998724, 73, 1, 104, 256
-0.998724, 289, 377, 352, 392
-0.998725, 73, 123, 136, 138
-0.998725, 185, 127, 248, 142
-0.998726, 241, 293, 304, 308
-0.998727, 209, 181, 272, 196
-0.998728, 25, 121, 88, 136
-0.998729, 433, 21, 496, 36
-0.99873, 433, 15, 496, 30
-0.99873, 369, 323, 432, 338
-0.99873, 291, 65, 306, 128
-0.998732, 265, 189, 328, 204
-0.998734, 193, 163, 256, 178
-0.998734, 201, 61, 264, 76
-0.998734, 209, 149, 272, 164
-0.998734, 217, 187, 280, 202
-0.998735, 305, 145, 432, 176
-0.998735, 361, 285, 424, 300
-0.998736, 225, 57, 288, 72
-0.998737, 137, 355, 200, 370
-0.998737, 323, 289, 338, 320
-0.998738, 1, 119, 64, 134
-0.998738, 145, 113, 272, 144
-0.998738, 343, 293, 358, 324
-0.998738, 369, 243, 432, 258
-0.998739, 105, 81, 168, 96
-0.998739, 297, 257, 312, 288
-0.998739, 329, 287, 392, 302
-0.998739, 169, 359, 232, 374
-0.99874, 185, 263, 248, 278
-0.99874, 257, 43, 320, 58
-0.998741, 209, 143, 272, 158
-0.998742, 433, 1, 496, 16
-0.998743, 201, 101, 264, 116
-0.998743, 249, 95, 312, 110
-0.998743, 225, 39, 288, 54
-0.998744, 177, 151, 240, 166
-0.998744, 225, 97, 288, 112
-0.998745, 369, 249, 432, 264
-0.998745, 217, 337, 280, 352
-0.998745, 225, 105, 288, 120
-0.998745, 277, 65, 308, 320
-0.998746, 177, 143, 240, 158
-0.998747, 241, 207, 304, 222
-0.998748, 185, 257, 248, 272
-0.998748, 249, 103, 312, 118
-0.998748, 353, 261, 416, 276
-0.998748, 377, 301, 440, 316
-0.998748, 105, 59, 168, 74
-0.998749, 185, 269, 248, 284
-0.99875, 361, 279, 424, 294
-0.99875, 233, 227, 296, 242
-0.99875, 273, 95, 336, 110
-0.998751, 217, 91, 280, 106
-0.998751, 289, 383, 352, 398
-0.998751, 329, 253, 392, 268
-0.998751, 233, 221, 296, 236
-0.998752, 97, 119, 160, 134
-0.998752, 137, 345, 200, 360
-0.998752, 217, 155, 280, 170
-0.998752, 249, 253, 312, 268
-0.998752, 177, 157, 240, 172
-0.998753, 281, 281, 344, 296
-0.998753, 105, 95, 168, 110
-0.998754, 185, 277, 248, 292
-0.998754, 241, 213, 304, 228
-0.998754, 105, 87, 168, 102
-0.998754, 233, 313, 296, 328
-0.998755, 105, 73, 168, 88
-0.998756, 73, 103, 136, 118
-0.998756, 377, 255, 440, 270
-0.998756, 289, 267, 352, 282
-0.998756, 209, 349, 272, 364
-0.998757, 105, 105, 168, 120
-0.998757, 217, 331, 280, 346
-0.998757, 225, 321, 288, 336
-0.998758, 251, 185, 266, 216
-0.998758, 353, 267, 416, 282
-0.998759, 393, 291, 456, 306
-0.99876, 185, 353, 248, 368
-0.99876, 305, 281, 368, 296
-0.99876, 185, 251, 248, 266
-0.99876, 241, 167, 304, 182
-0.99876, 201, 193, 264, 208
-0.998763, 225, 333, 240, 364
-0.998763, 393, 273, 456, 399
-0.998764, 289, 1, 352, 64
-0.998765, 169, 129, 232, 384
-0.998767, 335, 265, 350, 328
-0.998775, 299, 25, 314, 88
-0.998776, 217, 137, 232, 200
-0.998778, 321, 65, 352, 320
-0.998779, 97, 97, 128, 352
-0.998779, 215, 349, 230, 380
-0.998781, 477, 13, 492, 44
-0.998781, 217, 97, 232, 160
-0.998781, 251, 105, 266, 168
-0.998783, 237, 241, 252, 272
-0.998787, 333, 65, 364, 192
-0.998788, 301, 49, 332, 112
-0.998788, 281, 281, 296, 344
-0.998789, 49, 49, 112, 112
-0.998792, 99, 97, 114, 160
-0.998792, 277, 261, 292, 292
-0.998794, 251, 301, 266, 332
-0.998812, 305, 281, 320, 312
-0.998813, 213, 225, 244, 352
-0.998816, 243, 173, 258, 204
-0.998816, 335, 293, 350, 324
-0.998818, 241, 41, 256, 72
-0.998818, 329, 25, 344, 88
-0.99882, 33, 93, 160, 124
-0.998824, 209, 337, 224, 399
-0.998825, 339, 297, 354, 360
-0.998826, 265, 1, 296, 256
-0.998827, 317, 209, 348, 336
-0.99883, 383, 297, 398, 360
-0.998831, 237, 289, 252, 352
-0.998831, 247, 37, 262, 68
-0.998834, 209, 85, 336, 116
-0.998836, 345, 257, 360, 320
-0.998838, 145, 285, 272, 316
-0.998845, 113, 65, 240, 96
-0.998845, 369, 1, 432, 64
-0.998846, 203, 97, 218, 160
-0.998854, 227, 49, 242, 112
-0.998856, 317, 257, 332, 320
-0.998857, 469, 21, 484, 52
-0.998857, 265, 121, 328, 184
-0.998862, 425, 249, 456, 312
-0.998878, 241, 9, 304, 72
-0.998879, 265, 73, 296, 136
-0.998879, 273, 105, 304, 168
-0.998879, 249, 273, 264, 336
-0.998883, 417, 297, 448, 360
-0.998884, 145, 217, 272, 248
-0.998884, 289, 369, 416, 399
-0.998886, 233, 253, 248, 284
-0.998892, 233, 57, 248, 88
-0.998893, 289, 65, 320, 128
-0.998893, 307, 269, 322, 300
-0.998895, 349, 297, 364, 328
-0.998895, 245, 309, 260, 340
-0.998897, 311, 289, 326, 320
-0.998903, 111, 57, 126, 120
-0.998906, 367, 289, 382, 320
-0.998909, 289, 277, 304, 308
-0.99891, 33, 45, 160, 76
-0.998916, 379, 321, 394, 384
-0.998921, 303, 241, 318, 304
-0.998922, 305, 157, 432, 188
-0.998925, 227, 273, 242, 304
-0.99893, 253, 37, 268, 68
-0.998935, 1, 1, 500, 64
-0.998936, 283, 277, 298, 308
-0.998942, 337, 213, 464, 244
-0.998943, 311, 289, 326, 352
-0.998943, 235, 321, 250, 352
-0.998948, 181, 337, 196, 368
-0.998948, 273, 101, 400, 132
-0.99895, 41, 33, 72, 288
-0.998953, 69, 97, 100, 352
-0.998954, 305, 177, 432, 208
-0.998959, 235, 105, 250, 168
-0.998961, 257, 25, 500, 88
-0.998962, 105, 97, 120, 160
-0.998968, 461, 17, 476, 80
-0.99897, 163, 345, 178, 376
-0.99897, 119, 105, 134, 168
-0.998973, 351, 257, 366, 320
-0.998976, 359, 297, 374, 328
-0.998977, 453, 265, 468, 328
-0.998977, 243, 281, 258, 344
-0.998979, 209, 349, 224, 380
-0.998985, 81, 89, 96, 152
-0.998997, 33, 193, 288, 256
-0.998998, 51, 89, 66, 152
-0.998999, 257, 77, 384, 108
-0.999001, 229, 185, 260, 248
-0.999001, 365, 301, 380, 332
-0.999002, 289, 217, 416, 248
-0.999009, 483, 5, 498, 36
-0.99901, 245, 233, 260, 264
-0.999012, 289, 205, 416, 236
-0.999015, 169, 65, 232, 192
-0.999016, 445, 273, 460, 336
-0.999018, 305, 289, 320, 352
-0.999019, 81, 97, 112, 352
-0.999021, 177, 353, 192, 384
-0.999022, 253, 25, 268, 88
-0.999024, 29, 1, 60, 256
-0.999028, 209, 333, 336, 364
-0.999035, 195, 329, 210, 360
-0.999036, 277, 277, 292, 308
-0.999036, 463, 21, 478, 52
-0.99904, 373, 289, 388, 320
-0.99904, 145, 101, 272, 132
-0.999044, 187, 333, 202, 364
-0.999044, 297, 177, 312, 240
-0.999044, 93, 121, 108, 152
-0.999047, 273, 113, 400, 144
-0.999047, 369, 169, 496, 200
-0.999052, 419, 273, 434, 336
-0.999052, 257, 293, 272, 324
-0.999053, 75, 89, 90, 152
-0.999058, 201, 321, 216, 352
-0.999061, 429, 289, 444, 352
-0.999062, 313, 193, 328, 256
-0.999063, 225, 285, 240, 316
-0.999064, 357, 97, 388, 352
-0.999066, 305, 193, 336, 320
-0.999067, 315, 277, 330, 308
-0.999071, 215, 333, 230, 364
-0.999076, 293, 129, 324, 384
-0.999085, 253, 173, 268, 204
-0.999086, 247, 157, 262, 188
-0.999092, 219, 293, 234, 324
-0.999095, 437, 293, 452, 324
-0.999099, 467, 9, 482, 40
-0.999102, 291, 245, 306, 276
-0.999103, 233, 149, 248, 180
-0.999107, 237, 165, 252, 196
-0.99911, 373, 313, 388, 344
-0.999111, 381, 241, 412, 304
-0.999115, 223, 137, 238, 168
-0.999117, 257, 97, 288, 352
-0.999117, 321, 277, 336, 308
-0.999117, 289, 29, 416, 60
-0.99912, 25, 129, 88, 384
-0.99912, 429, 225, 460, 352
-0.999123, 369, 145, 496, 176
-0.999125, 47, 117, 62, 148
-0.999126, 193, 69, 320, 100
-0.999127, 145, 41, 272, 72
-0.999131, 85, 121, 100, 152
-0.999132, 289, 189, 416, 220
-0.999132, 113, 109, 128, 140
-0.999134, 223, 97, 238, 128
-0.99914, 299, 281, 314, 312
-0.999143, 13, 33, 44, 288
-0.999143, 275, 245, 290, 276
-0.999144, 1, 249, 500, 312
-0.99915, 305, 29, 320, 60
-0.999153, 451, 277, 466, 308
-0.999153, 305, 209, 368, 272
-0.999154, 213, 33, 244, 96
-0.999155, 231, 241, 246, 368
-0.999155, 227, 261, 242, 292
-0.999159, 203, 357, 218, 388
-0.999159, 269, 265, 284, 296
-0.999162, 53, 117, 68, 148
-0.999166, 209, 21, 336, 52
-0.999168, 329, 281, 344, 312
-0.999168, 305, 185, 320, 216
-0.999168, 211, 309, 226, 340
-0.999172, 99, 121, 114, 152
-0.999174, 115, 121, 130, 152
-0.999175, 169, 353, 184, 384
-0.999175, 185, 121, 216, 184
-0.99918, 215, 81, 230, 112
-0.99918, 251, 49, 266, 80
-0.99918, 37, 117, 52, 148
-0.999181, 249, 221, 264, 252
-0.999182, 223, 149, 238, 180
-0.999183, 79, 121, 94, 152
-0.999186, 227, 117, 242, 148
-0.999191, 169, 1, 232, 399
-0.999194, 383, 309, 398, 340
-0.999194, 57, 97, 88, 352
-0.999194, 241, 53, 256, 84
-0.999198, 1, 113, 16, 144
-0.9992, 343, 305, 358, 336
-0.999204, 293, 1, 324, 256
-0.999208, 71, 121, 86, 152
-0.999211, 31, 117, 46, 148
-0.999213, 267, 105, 282, 136
-0.999221, 333, 97, 364, 352
-0.999223, 301, 369, 316, 399
-0.999223, 97, 41, 224, 72
-0.999224, 225, 257, 240, 384
-0.999226, 23, 117, 38, 148
-0.999226, 241, 225, 256, 352
-0.999231, 443, 285, 458, 316
-0.999232, 431, 293, 446, 324
-0.999233, 307, 369, 322, 399
-0.999234, 461, 1, 492, 256
-0.999234, 59, 117, 74, 148
-0.999237, 243, 113, 258, 144
-0.99924, 129, 125, 256, 156
-0.999241, 305, 97, 336, 352
-0.999241, 229, 101, 244, 132
-0.999241, 219, 121, 234, 152
-0.999241, 271, 277, 286, 308
-0.999244, 303, 257, 318, 288
-0.999245, 259, 37, 274, 68
-0.999246, 203, 341, 218, 372
-0.999248, 221, 345, 236, 376
-0.999249, 285, 245, 300, 276
-0.999251, 227, 53, 242, 84
-0.999252, 349, 285, 364, 316
-0.999252, 263, 285, 278, 316
-0.999254, 241, 57, 368, 88
-0.999255, 105, 121, 120, 152
-0.999258, 265, 33, 280, 64
-0.999259, 297, 297, 328, 360
-0.999259, 229, 321, 244, 352
-0.999261, 367, 277, 382, 308
-0.999264, 259, 181, 274, 212
-0.999266, 337, 281, 352, 312
-0.999266, 25, 97, 56, 352
-0.999266, 377, 277, 392, 308
-0.999269, 61, 89, 92, 152
-0.99927, 65, 121, 80, 152
-0.999272, 229, 129, 244, 160
-0.999274, 17, 117, 32, 148
-0.999274, 345, 97, 376, 352
-0.999274, 215, 149, 230, 180
-0.999276, 461, 9, 476, 40
-0.999282, 369, 133, 496, 164
-0.999282, 261, 101, 276, 132
-0.999285, 369, 157, 496, 188
-0.999297, 113, 105, 144, 168
-0.999297, 1, 33, 32, 288
-0.999301, 109, 33, 140, 288
-0.999302, 17, 1, 144, 32
-0.999308, 257, 89, 384, 120
-0.999318, 73, 129, 136, 384
-0.999322, 65, 333, 192, 364
-0.999323, 369, 97, 400, 352
-0.999328, 257, 1, 500, 64
-0.999343, 219, 273, 234, 399
-0.999355, 65, 345, 192, 376
-0.999357, 389, 241, 420, 368
-0.999374, 117, 49, 148, 112
-0.999376, 385, 97, 448, 224
-0.999391, 353, 341, 480, 372
-0.999417, 239, 161, 254, 288
-0.999417, 213, 265, 244, 328
-0.99942, 111, 49, 126, 176
-0.999427, 241, 97, 256, 224
-0.99943, 273, 225, 288, 352
-0.999434, 221, 1, 252, 256
-0.999438, 257, 37, 272, 52
-0.999439, 223, 161, 238, 176
-0.999439, 47, 119, 62, 134
-0.999439, 221, 297, 236, 312
-0.999439, 237, 61, 252, 76
-0.99944, 349, 295, 364, 310
-0.99944, 461, 17, 476, 32
-0.99944, 113, 125, 128, 140
-0.99944, 263, 37, 278, 52
-0.99944, 435, 299, 450, 314
-0.999441, 113, 25, 240, 56
-0.999441, 321, 285, 336, 300
-0.999441, 275, 269, 290, 284
-0.999441, 373, 317, 388, 332
-0.999441, 113, 115, 128, 130
-0.999441, 229, 127, 244, 142
-0.999441, 341, 293, 356, 308
-0.999442, 103, 61, 118, 76
-0.999442, 227, 283, 242, 298
-0.999442, 97, 125, 112, 140
-0.999443, 233, 159, 248, 174
-0.999443, 425, 297, 440, 312
-0.999443, 27, 119, 42, 134
-0.999443, 269, 273, 284, 288
-0.999444, 207, 353, 222, 368
-0.999444, 223, 149, 238, 164
-0.999445, 359, 309, 374, 324
-0.999445, 231, 49, 246, 64
-0.999445, 431, 293, 446, 308
-0.999445, 291, 255, 306, 270
-0.999445, 469, 25, 484, 40
-0.999445, 69, 121, 84, 136
-0.999446, 327, 289, 342, 304
-0.999447, 237, 323, 252, 338
-0.999448, 349, 307, 364, 322
-0.999448, 279, 241, 294, 368
-0.999448, 303, 33, 318, 48
-0.999448, 383, 317, 398, 332
-0.999448, 59, 121, 74, 136
-0.999449, 235, 253, 250, 268
-0.999449, 379, 301, 394, 316
-0.999449, 335, 289, 350, 304
-0.999449, 307, 189, 322, 204
-0.99945, 307, 285, 322, 300
-0.99945, 211, 95, 226, 110
-0.99945, 91, 123, 106, 138
-0.999452, 203, 359, 218, 374
-0.999452, 249, 177, 264, 192
-0.999452, 229, 113, 244, 240
-0.999453, 225, 289, 240, 304
-0.999453, 33, 119, 48, 134
-0.999453, 247, 233, 262, 248
-0.999453, 275, 279, 290, 294
-0.999454, 215, 89, 230, 104
-0.999454, 367, 291, 382, 306
-0.999454, 259, 189, 274, 204
-0.999454, 337, 305, 352, 320
-0.999454, 451, 279, 466, 294
-0.999455, 303, 279, 318, 294
-0.999455, 243, 315, 258, 330
-0.999455, 251, 189, 266, 204
-0.999456, 445, 285, 460, 300
-0.999456, 225, 343, 240, 358
-0.999456, 233, 259, 248, 274
-0.999457, 289, 121, 352, 184
-0.999457, 163, 347, 178, 362
-0.999458, 281, 277, 296, 292
-0.999458, 285, 259, 300, 274
-0.999459, 79, 123, 94, 138
-0.999459, 321, 301, 336, 316
-0.999459, 277, 261, 292, 276
-0.999459, 365, 309, 380, 324
-0.999459, 227, 277, 242, 292
-0.999459, 171, 357, 186, 372
-0.99946, 327, 303, 342, 318
-0.99946, 241, 55, 256, 70
-0.99946, 113, 13, 240, 44
-0.99946, 305, 375, 320, 390
-0.999461, 237, 247, 252, 262
-0.999462, 343, 307, 358, 322
-0.999463, 187, 333, 202, 348
-0.999463, 291, 277, 306, 292
-0.999463, 85, 123, 100, 138
-0.999463, 253, 49, 268, 64
-0.999464, 483, 9, 498, 24
-0.999464, 199, 327, 214, 342
-0.999464, 225, 57, 240, 72
-0.999465, 231, 265, 246, 280
-0.999465, 297, 261, 312, 276
-0.999465, 245, 41, 260, 56
-0.999466, 239, 171, 254, 186
-0.999467, 217, 347, 232, 362
-0.999467, 259, 299, 274, 314
-0.999468, 241, 241, 256, 256
-0.999468, 251, 39, 266, 54
-0.999469, 299, 379, 314, 394
-0.99947, 165, 353, 180, 368
-0.999471, 463, 23, 478, 38
-0.999471, 171, 351, 186, 366
-0.999473, 453, 1, 484, 128
-0.999474, 229, 271, 244, 286
-0.999474, 301, 271, 316, 286
-0.999475, 247, 51, 262, 66
-0.999475, 227, 337, 242, 352
-0.999477, 81, 1, 208, 32
-0.999477, 469, 13, 484, 28
-0.999477, 473, 19, 488, 34
-0.999478, 249, 309, 264, 324
-0.999478, 371, 309, 386, 324
-0.999479, 231, 329, 246, 344
-0.999484, 223, 65, 238, 192
-0.999485, 315, 291, 330, 306
-0.999486, 45, 89, 76, 152
-0.999487, 479, 15, 494, 30
-0.999488, 193, 331, 208, 346
-0.999489, 479, 1, 494, 128
-0.999491, 231, 61, 246, 76
-0.999491, 369, 297, 384, 312
-0.999492, 289, 267, 304, 282
-0.999492, 161, 1, 416, 64
-0.999499, 297, 277, 312, 292
-0.999499, 321, 9, 448, 40
-0.9995, 213, 273, 228, 399
-0.999503, 307, 273, 322, 288
-0.999507, 285, 225, 300, 352
-0.999507, 237, 45, 252, 60
-0.999509, 385, 129, 416, 384
-0.999512, 249, 97, 264, 224
-0.999513, 177, 357, 192, 372
-0.999513, 235, 97, 250, 224
-0.999514, 321, 293, 336, 308
-0.999514, 223, 113, 238, 240
-0.999514, 181, 337, 196, 352
-0.999515, 253, 183, 268, 198
-0.999517, 1, 273, 500, 336
-0.999518, 215, 65, 230, 192
-0.999518, 235, 55, 250, 70
-0.999519, 367, 303, 382, 318
-0.99952, 373, 303, 388, 318
-0.99952, 113, 273, 240, 304
-0.999522, 357, 301, 372, 316
-0.999523, 295, 269, 310, 284
-0.999526, 175, 339, 190, 354
-0.999527, 253, 303, 268, 318
-0.999533, 349, 301, 364, 316
-0.999534, 365, 257, 380, 384
-0.999536, 213, 353, 228, 368
-0.999537, 305, 241, 336, 304
-0.999539, 229, 65, 244, 192
-0.999541, 243, 179, 258, 194
-0.999543, 265, 97, 280, 224
-0.999553, 343, 299, 358, 314
-0.999553, 321, 121, 448, 152
-0.999554, 327, 295, 342, 310
-0.999558, 333, 297, 348, 312
-0.999563, 17, 337, 144, 399
-0.999566, 247, 225, 262, 352
-0.999568, 75, 113, 90, 240
-0.999568, 169, 343, 184, 358
-0.99958, 1, 249, 256, 312
-0.99958, 247, 161, 262, 288
-0.999583, 233, 161, 248, 288
-0.999586, 257, 1, 384, 64
-0.999588, 35, 113, 50, 240
-0.999591, 259, 97, 274, 224
-0.999591, 33, 21, 160, 52
-0.999592, 473, 1, 488, 128
-0.999598, 65, 113, 80, 240
-0.999599, 103, 49, 118, 176
-0.999604, 145, 53, 272, 84
-0.999605, 49, 113, 64, 240
-0.999606, 271, 97, 286, 224
-0.999606, 261, 25, 292, 88
-0.999609, 371, 273, 386, 399
-0.99961, 81, 113, 96, 240
-0.999611, 207, 273, 222, 399
-0.999612, 327, 17, 342, 144
-0.999614, 283, 17, 298, 144
-0.999614, 295, 225, 310, 352
-0.999617, 289, 357, 416, 388
-0.999617, 97, 49, 112, 176
-0.999621, 329, 17, 360, 80
-0.999624, 107, 113, 122, 240
-0.999625, 113, 97, 128, 224
-0.999627, 235, 33, 250, 160
-0.999628, 23, 97, 38, 224
-0.999628, 317, 17, 332, 144
-0.99963, 337, 353, 464, 384
-0.99963, 59, 113, 74, 240
-0.999631, 101, 113, 116, 240
-0.999634, 285, 81, 300, 208
-0.999635, 97, 313, 224, 344
-0.99964, 333, 1, 364, 256
-0.999643, 43, 113, 58, 240
-0.999646, 89, 113, 104, 240
-0.999649, 277, 33, 292, 160
-0.999651, 91, 49, 106, 176
-0.999655, 195, 273, 210, 399
-0.999659, 9, 49, 24, 176
-0.99966, 1, 97, 16, 224
-0.999661, 161, 21, 288, 52
-0.999664, 377, 105, 440, 168
-0.999665, 1, 49, 16, 176
-0.999668, 279, 81, 294, 208
-0.999668, 41, 49, 56, 176
-0.999668, 301, 241, 316, 368
-0.999669, 29, 49, 44, 176
-0.99967, 359, 257, 374, 384
-0.99967, 355, 209, 370, 336
-0.999672, 15, 49, 30, 176
-0.999676, 81, 49, 96, 176
-0.999677, 365, 209, 380, 336
-0.999679, 95, 113, 110, 240
-0.99968, 249, 273, 264, 399
-0.999681, 279, 193, 294, 320
-0.999682, 267, 225, 282, 352
-0.999684, 51, 49, 66, 176
-0.999685, 23, 49, 38, 176
-0.999686, 9, 97, 24, 224
-0.999686, 15, 97, 30, 224
-0.999688, 295, 33, 310, 160
-0.999688, 217, 113, 232, 240
-0.999689, 465, 1, 480, 128
-0.99969, 71, 49, 86, 176
-0.999691, 251, 33, 266, 160
-0.999693, 337, 85, 464, 116
-0.999693, 353, 325, 480, 356
-0.999693, 81, 125, 208, 156
-0.999693, 29, 113, 44, 240
-0.999694, 309, 177, 324, 304
-0.999696, 265, 33, 280, 160
-0.999699, 259, 17, 274, 144
-0.999702, 289, 17, 304, 144
-0.999702, 33, 33, 160, 64
-0.999703, 201, 273, 216, 399
-0.999704, 57, 49, 72, 176
-0.999704, 347, 1, 362, 128
-0.999705, 35, 49, 50, 176
-0.999706, 353, 109, 480, 140
-0.999706, 273, 45, 400, 76
-0.999708, 271, 33, 286, 160
-0.99971, 65, 49, 80, 176
-0.999713, 311, 17, 326, 144
-0.999714, 371, 225, 386, 352
-0.999715, 161, 89, 288, 120
-0.999718, 187, 273, 202, 399
-0.999728, 303, 17, 318, 144
-0.99973, 421, 241, 436, 368
-0.999731, 303, 177, 318, 304
-0.999731, 1, 337, 500, 399
-0.99974, 177, 273, 192, 399
-0.999742, 299, 113, 314, 240
-0.999747, 295, 177, 310, 304
-0.999748, 325, 209, 340, 336
-0.99975, 383, 241, 398, 368
-0.999751, 335, 241, 350, 368
-0.999752, 333, 17, 348, 144
-0.999754, 253, 145, 268, 272
-0.999755, 255, 273, 270, 399
-0.999756, 409, 1, 472, 399
-0.99976, 261, 225, 276, 352
-0.999765, 119, 81, 134, 208
-0.999767, 209, 65, 224, 192
-0.999767, 307, 257, 322, 384
-0.999769, 263, 273, 278, 399
-0.999769, 225, 321, 352, 352
-0.999773, 353, 257, 368, 384
-0.999774, 315, 257, 330, 384
-0.999778, 329, 273, 344, 399
-0.999779, 243, 273, 258, 399
-0.999781, 253, 225, 268, 352
-0.999782, 205, 129, 236, 384
-0.999785, 341, 1, 356, 128
-0.999785, 343, 241, 358, 368
-0.999787, 237, 273, 252, 399
-0.999789, 377, 273, 392, 399
-0.999797, 349, 209, 364, 336
-0.999807, 273, 273, 288, 399
-0.999807, 121, 33, 136, 160
-0.999811, 377, 225, 392, 352
-0.999813, 241, 33, 256, 160
-0.999819, 289, 177, 304, 304
-0.999819, 285, 273, 300, 399
-0.999821, 321, 257, 336, 384
-0.999822, 369, 97, 384, 224
-0.999824, 295, 273, 310, 399
-0.99983, 315, 177, 330, 304
-0.999831, 293, 113, 308, 240
-0.999832, 369, 121, 496, 152
-0.999833, 343, 193, 358, 320
-0.99984, 161, 357, 288, 388
-0.999852, 113, 161, 240, 224
-0.999887, 337, 97, 464, 128
-0.999891, 129, 1, 256, 32
-0.999896, 145, 89, 208, 152
-0.9999, 345, 65, 376, 192
-0.999903, 209, 369, 336, 399
-0.999907, 289, 329, 416, 360
-0.999914, 113, 257, 240, 288
-0.999965, 445, 1, 476, 64
-0.999968, 397, 129, 428, 384
-0.999999, 81, 137, 208, 200
-1.00001, 257, 65, 500, 128
-1.00004, 401, 177, 432, 304
-1.00005, 457, 241, 488, 368
-1.00006, 33, 89, 64, 152
-1.0001, 209, 1, 240, 256
-1.00012, 193, 97, 224, 224
-1.00014, 409, 129, 440, 384
-1.00016, 97, 33, 128, 96
-1.00017, 365, 1, 396, 128
-1.00018, 397, 281, 428, 344
-1.00019, 345, 1, 376, 256
-1.00023, 1, 89, 32, 152
-1.00023, 281, 177, 312, 240
-1.00023, 273, 337, 400, 399
-1.00024, 425, 129, 456, 384
-1.00025, 277, 25, 308, 88
-1.00026, 289, 337, 352, 399
-1.00028, 241, 121, 272, 184
-1.0003, 37, 129, 68, 384
-1.0003, 385, 137, 416, 200
-1.00031, 449, 1, 480, 256
-1.00035, 65, 337, 192, 399
-1.00038, 293, 273, 324, 399
-1.0004, 369, 193, 400, 320
-1.00044, 329, 177, 360, 304
-1.00044, 289, 89, 320, 152
-1.00044, 437, 265, 468, 328
-1.00045, 1, 129, 32, 384
-1.00046, 365, 113, 396, 176
-1.00046, 121, 1, 152, 256
-1.00048, 197, 1, 228, 256
-1.00049, 321, 33, 448, 96
-1.00049, 17, 89, 48, 152
-1.0005, 329, 153, 392, 216
-1.0005, 225, 329, 480, 392
-1.00054, 313, 57, 344, 120
-1.00054, 369, 81, 432, 144
-1.00056, 385, 33, 416, 288
-1.00058, 265, 1, 328, 64
-1.00058, 105, 9, 168, 72
-1.00059, 49, 169, 176, 232
-1.0006, 13, 129, 44, 384
-1.0006, 357, 1, 388, 256
-1.00061, 213, 161, 244, 288
-1.00064, 437, 129, 468, 384
-1.00064, 205, 241, 236, 304
-1.00066, 269, 161, 300, 224
-1.0007, 197, 297, 228, 360
-1.00071, 17, 313, 144, 376
-1.00072, 269, 161, 300, 288
-1.00074, 277, 57, 308, 120
-1.00075, 369, 1, 400, 256
-1.00076, 217, 217, 248, 280
-1.00077, 433, 209, 496, 272
-1.00077, 25, 49, 88, 112
-1.00078, 257, 169, 288, 232
-1.00081, 17, 209, 144, 272
-1.00081, 193, 97, 224, 352
-1.00082, 397, 33, 428, 288
-1.00084, 109, 129, 140, 384
-1.00085, 177, 1, 240, 256
-1.00086, 253, 73, 284, 136
-1.00088, 377, 1, 408, 64
-1.00089, 329, 185, 360, 248
-1.00093, 145, 1, 208, 399
-1.00093, 465, 129, 496, 384
-1.00095, 449, 129, 480, 384
-1.00095, 1, 177, 128, 240
-1.00095, 1, 265, 128, 328
-1.00096, 229, 81, 260, 144
-1.00097, 425, 177, 456, 304
-1.00099, 461, 257, 492, 320
-1.00099, 369, 337, 496, 399
-1.001, 349, 249, 380, 312
-1.00101, 117, 1, 148, 128
-1.00101, 1, 129, 64, 384
-1.00103, 349, 225, 380, 288
-1.00103, 49, 241, 176, 304
-1.00103, 129, 97, 160, 352
-1.00107, 177, 305, 208, 368
-1.0011, 425, 297, 488, 360
-1.00116, 265, 297, 296, 360
-1.00117, 133, 1, 164, 256
-1.00118, 417, 33, 448, 288
-1.00119, 341, 81, 372, 144
-1.00121, 429, 273, 460, 399
-1.00121, 197, 65, 228, 128
-1.00121, 49, 25, 112, 88
-1.00123, 1, 49, 64, 112
-1.00125, 365, 337, 396, 399
-1.00125, 305, 145, 336, 272
-1.00126, 397, 249, 428, 312
-1.0013, 369, 25, 496, 88
-1.0013, 153, 97, 184, 352
-1.00131, 165, 129, 196, 384
-1.00131, 357, 177, 388, 304
-1.00133, 321, 33, 384, 96
-1.00135, 305, 97, 336, 224
-1.00135, 177, 97, 208, 352
-1.00137, 397, 137, 428, 200
-1.00138, 185, 1, 216, 256
-1.00143, 321, 113, 352, 240
-1.00144, 237, 265, 268, 328
-1.00145, 1, 233, 128, 296
-1.00146, 337, 129, 368, 256
-1.00147, 433, 33, 464, 288
-1.00149, 149, 1, 180, 256
-1.00151, 17, 289, 144, 352
-1.00151, 313, 129, 376, 192
-1.00152, 441, 209, 472, 336
-1.00153, 1, 225, 128, 352
-1.00153, 141, 97, 172, 352
-1.00155, 385, 281, 416, 344
-1.00157, 345, 1, 376, 64
-1.0016, 157, 313, 188, 376
-1.00162, 285, 153, 316, 216
-1.00162, 413, 161, 444, 288
-1.00162, 173, 1, 204, 256
-1.00164, 65, 201, 192, 264
-1.00169, 161, 1, 192, 256
-1.0017, 369, 73, 496, 136
-1.00172, 1, 153, 128, 216
-1.00172, 65, 305, 128, 368
-1.00174, 105, 97, 168, 352
-1.00174, 169, 1, 232, 64
-1.00192, 205, 17, 236, 144
-1.00199, 65, 265, 192, 328
-1.00212, 469, 241, 500, 368
-1.00216, 317, 161, 348, 288
-1.00217, 113, 209, 240, 272
-1.00218, 277, 1, 308, 128
-1.00222, 225, 193, 256, 320
-1.00229, 389, 193, 420, 320
-1.00232, 49, 1, 112, 64
-1.00237, 201, 225, 232, 352
-1.00243, 369, 49, 496, 112
-1.00248, 373, 81, 404, 208
-1.00258, 41, 329, 104, 392
-1.00259, 157, 273, 188, 399
-1.00267, 349, 113, 380, 240
-1.00276, 233, 1, 264, 128
-1.00278, 425, 129, 488, 384
-1.00291, 401, 129, 432, 256
-1.00298, 425, 161, 488, 288
-1.00302, 389, 97, 420, 224
-1.00317, 369, 49, 432, 176
-1.00318, 457, 193, 488, 320
-1.00323, 357, 49, 388, 176
-1.00323, 17, 161, 144, 288
-1.00323, 113, 185, 240, 248
-1.00325, 361, 1, 424, 256
-1.00354, 153, 113, 216, 240
-1.00357, 121, 65, 184, 192
-1.00374, 181, 97, 212, 224
-1.0038, 385, 33, 448, 288
-1.00387, 193, 49, 224, 176
-1.00403, 413, 113, 444, 240
-1.0043, 189, 145, 220, 272
-1.00432, 73, 273, 136, 399
-1.00433, 437, 161, 468, 288
-1.00462, 469, 193, 500, 320
-1.00463, 85, 1, 116, 128
-1.00467, 65, 161, 192, 288
-1.00471, 121, 97, 152, 224
-1.00479, 49, 209, 176, 336
-1.00488, 369, 33, 496, 160
-1.00491, 185, 225, 216, 352
-1.00512, 65, 161, 96, 288
-1.00512, 5, 1, 36, 128
-1.00535, 401, 81, 432, 208
-1.0055, 181, 49, 212, 176
-1.00552, 33, 161, 96, 288
-1.00553, 377, 1, 408, 128
-1.00554, 25, 1, 56, 128
-1.00557, 1, 1, 64, 128
-1.00566, 133, 81, 164, 208
-1.00567, 73, 1, 104, 128
-1.00568, 361, 1, 424, 128
-1.00577, 25, 177, 56, 304
-1.00577, 49, 1, 112, 128
-1.00578, 129, 33, 160, 160
-1.00582, 77, 161, 108, 288
-1.00626, 17, 273, 144, 399
-1.00631, 129, 1, 192, 256
-1.00637, 57, 161, 120, 288
-1.00662, 409, 113, 472, 240
-1.00708, 97, 273, 160, 399
-1.00723, 137, 97, 200, 352
-1.00746, 145, 65, 208, 192
-1.00754, 153, 1, 216, 256
-1.00757, 9, 161, 72, 288
-1.00757, 97, 225, 160, 352
-1.00774, 409, 33, 472, 288
-1.00783, 49, 225, 112, 352
-1.00799, 161, 161, 224, 288
-1.00801, 25, 1, 88, 128
-1.00825, 121, 113, 184, 240
-1.00831, 129, 17, 192, 144
-1.00835, 137, 193, 200, 320
-1.00874, 81, 161, 144, 288
-1.00951, 73, 209, 136, 336
-1.00976, 161, 209, 224, 336
-1.00984, 433, 113, 496, 240
-1.00997, 409, 1, 472, 128
-1.01026, 417, 49, 480, 176
-1.01032, 9, 273, 72, 399
-1.01042, 9, 209, 72, 336
-1.01068, 113, 161, 176, 288
-1.01084, 41, 273, 104, 399
-1.01194, 153, 17, 216, 144
-1.01272, 393, 49, 456, 176
-1.01546, 385, 1, 448, 128
