1886
-0.417538, 1, 65, 500, 320
-0.536479, 1, 1, 500, 335
-0.537963, 65, 1, 320, 335
-0.546249, 193, 1, 448, 335
-0.585696, 65, 65, 320, 320
-0.653848, 161, 65, 416, 320
-0.805603, 257, 65, 500, 320
-0.863437, 161, 65, 288, 320
-0.864646, 209, 65, 336, 320
-0.871933, 113, 65, 240, 320
-0.874403, 1, 65, 128, 320
-0.883001, 1, 113, 500, 240
-0.883942, 145, 1, 272, 335
-0.890135, 1, 209, 500, 335
-0.893918, 225, 1, 352, 335
-0.896706, 17, 1, 144, 335
-0.900472, 1, 161, 500, 288
-0.901233, 129, 209, 384, 335
-0.906058, 49, 65, 176, 320
-0.906253, 225, 209, 480, 335
-0.91137, 273, 1, 400, 335
-0.912634, 129, 161, 384, 288
-0.912836, 129, 81, 384, 208
-0.915414, 273, 65, 400, 320
-0.916182, 97, 1, 224, 335
-0.920372, 33, 177, 288, 304
-0.92256, 257, 145, 500, 272
-0.923385, 225, 209, 352, 335
-0.930026, 145, 209, 272, 335
-0.933423, 297, 81, 360, 208
-0.935625, 241, 97, 368, 224
-0.935778, 193, 161, 320, 288
-0.93922, 225, 97, 480, 224
-0.940707, 337, 65, 464, 320
-0.940736, 337, 1, 464, 335
-0.941079, 273, 129, 336, 256
-0.941565, 273, 145, 400, 272
-0.94158, 1, 65, 500, 192
-0.941788, 161, 81, 288, 208
-0.941914, 305, 161, 368, 288
-0.942642, 241, 193, 304, 320
-0.946211, 193, 209, 256, 335
-0.947107, 289, 209, 352, 335
-0.94765, 81, 193, 208, 320
-0.9494, 273, 209, 400, 335
-0.949416, 33, 97, 288, 224
-0.949696, 265, 81, 328, 208
-0.949937, 145, 161, 272, 288
-0.950267, 185, 81, 248, 208
-0.950384, 225, 145, 288, 272
-0.950613, 113, 209, 176, 335
-0.950729, 329, 209, 392, 335
-0.95131, 297, 97, 360, 160
-0.951364, 217, 97, 280, 224
-0.951999, 1, 97, 128, 224
-0.954018, 169, 209, 232, 335
-0.954297, 321, 137, 384, 200
-0.955108, 329, 129, 392, 256
-0.955396, 321, 209, 448, 335
-0.955618, 193, 225, 256, 288
-0.955707, 1, 193, 128, 320
-0.956315, 113, 81, 240, 208
-0.95712, 369, 161, 496, 288
-0.957258, 297, 137, 360, 200
-0.957581, 177, 161, 240, 288
-0.958224, 25, 81, 88, 208
-0.958431, 337, 257, 400, 320
-0.95866, 265, 193, 328, 320
-0.958677, 201, 161, 264, 288
-0.958728, 249, 129, 312, 256
-0.959247, 289, 97, 416, 224
-0.959311, 353, 145, 416, 272
-0.959536, 81, 145, 208, 272
-0.959979, 153, 97, 216, 224
-0.960545, 217, 129, 280, 192
-0.960645, 241, 113, 304, 176
-0.961201, 137, 145, 200, 272
-0.961355, 89, 193, 152, 320
-0.961654, 409, 161, 472, 288
-0.962018, 1, 145, 128, 272
-0.962149, 217, 105, 280, 168
-0.962205, 369, 209, 496, 335
-0.962351, 137, 193, 200, 320
-0.962482, 49, 177, 112, 304
-0.962792, 281, 169, 344, 232
-0.962805, 177, 97, 240, 160
-0.963077, 257, 137, 320, 200
-0.963195, 321, 145, 448, 272
-0.963226, 65, 113, 128, 240
-0.963423, 241, 241, 304, 304
-0.963634, 209, 49, 272, 176
-0.963745, 321, 169, 384, 232
-0.964088, 289, 257, 352, 320
-0.964185, 265, 97, 328, 160
-0.965307, 161, 241, 224, 304
-0.965612, 265, 209, 328, 272
-0.965723, 305, 225, 368, 288
-0.965785, 377, 209, 440, 335
-0.965965, 361, 161, 424, 224
-0.965967, 217, 209, 280, 335
-0.96644, 209, 65, 272, 128
-0.966558, 321, 193, 384, 256
-0.966818, 393, 153, 456, 216
-0.967301, 25, 193, 88, 320
-0.967516, 33, 49, 288, 176
-0.9676, 249, 185, 312, 248
-0.9677, 105, 113, 168, 240
-0.967756, 425, 209, 488, 335
-0.967797, 225, 209, 288, 272
-0.967842, 209, 49, 336, 176
-0.968261, 337, 217, 400, 280
-0.968613, 325, 153, 356, 216
-0.968679, 169, 121, 232, 184
-0.968689, 49, 97, 176, 224
-0.968806, 89, 97, 152, 160
-0.968982, 113, 249, 176, 312
-0.968983, 225, 65, 288, 320
-0.969107, 25, 129, 88, 256
-0.969279, 1, 161, 64, 288
-0.969888, 137, 129, 200, 192
-0.969968, 281, 233, 344, 296
-0.970016, 145, 233, 272, 296
-0.970245, 353, 193, 416, 320
-0.97042, 433, 161, 496, 288
-0.97044, 1, 17, 500, 144
-0.970528, 113, 121, 176, 184
-0.970571, 25, 65, 88, 320
-0.970574, 153, 97, 216, 160
-0.970846, 289, 201, 352, 264
-0.971078, 185, 73, 248, 136
-0.971177, 193, 201, 256, 264
-0.971437, 25, 225, 88, 288
-0.971514, 17, 105, 80, 168
-0.97157, 241, 217, 368, 280
-0.971654, 225, 257, 352, 320
-0.971691, 417, 169, 480, 232
-0.971746, 249, 273, 312, 335
-0.971955, 225, 209, 256, 335
-0.971991, 177, 145, 240, 208
-0.972085, 193, 33, 448, 160
-0.972142, 313, 249, 376, 312
-0.972562, 137, 217, 200, 280
-0.972615, 1, 97, 64, 224
-0.972673, 361, 241, 424, 304
-0.972711, 377, 161, 440, 288
-0.972902, 309, 137, 340, 200
-0.972904, 305, 129, 336, 256
-0.973233, 241, 145, 368, 208
-0.973368, 193, 209, 320, 272
-0.973373, 321, 161, 352, 288
-0.973641, 89, 121, 152, 184
-0.973875, 241, 89, 368, 152
-0.973893, 241, 81, 304, 208
-0.973991, 17, 129, 80, 192
-0.97414, 73, 233, 136, 296
-0.974213, 233, 161, 296, 224
-0.97435, 333, 129, 364, 256
-0.974513, 57, 113, 120, 176
-0.97453, 49, 65, 112, 320
-0.974801, 305, 81, 336, 208
-0.974847, 25, 81, 88, 144
-0.974885, 341, 241, 372, 304
-0.974904, 305, 153, 432, 216
-0.975101, 249, 105, 280, 168
-0.975227, 361, 217, 424, 280
-0.97523, 49, 225, 112, 288
-0.97553, 433, 273, 496, 335
-0.975558, 185, 65, 248, 320
-0.975736, 241, 113, 368, 176
-0.975904, 321, 97, 352, 224
-0.975908, 325, 129, 356, 192
-0.975944, 361, 185, 424, 248
-0.975973, 289, 129, 416, 192
-0.976242, 137, 257, 200, 320
-0.97629, 193, 73, 320, 136
-0.976377, 257, 169, 384, 232
-0.976444, 345, 137, 408, 200
-0.976456, 305, 177, 432, 240
-0.97649, 161, 97, 288, 160
-0.97653, 241, 193, 368, 256
-0.976559, 49, 49, 176, 176
-0.97671, 273, 241, 400, 304
-0.977015, 113, 161, 176, 288
-0.977027, 17, 97, 144, 160
-0.977076, 193, 121, 256, 184
-0.97719, 225, 185, 288, 248
-0.977195, 341, 153, 372, 216
-0.977201, 341, 129, 372, 192
-0.97721, 293, 193, 324, 320
-0.977336, 273, 193, 304, 320
-0.977537, 289, 265, 416, 328
-0.977577, 325, 177, 356, 240
-0.97762, 349, 129, 380, 256
-0.977636, 97, 153, 160, 216
-0.977694, 169, 201, 232, 264
-0.9777, 145, 257, 272, 320
-0.97775, 321, 81, 384, 208
-0.9778, 49, 81, 112, 144
-0.97784, 185, 33, 248, 160
-0.978008, 353, 161, 480, 224
-0.978056, 261, 113, 292, 240
-0.978058, 321, 113, 384, 176
-0.978139, 65, 161, 128, 224
-0.978254, 201, 145, 232, 272
-0.978338, 293, 129, 324, 256
-0.978365, 417, 241, 480, 304
-0.978373, 193, 177, 320, 240
-0.97838, 121, 97, 184, 160
-0.97838, 317, 89, 348, 152
-0.978559, 305, 81, 336, 144
-0.978631, 137, 153, 200, 216
-0.978684, 245, 193, 276, 320
-0.978686, 337, 217, 368, 280
-0.978759, 309, 209, 340, 335
-0.978904, 129, 81, 192, 208
-0.97892, 213, 161, 244, 288
-0.97914, 321, 265, 352, 328
-0.97915, 337, 177, 368, 240
-0.979223, 321, 241, 448, 304
-0.979335, 97, 249, 224, 312
-0.979369, 257, 161, 320, 224
-0.979415, 229, 89, 260, 152
-0.979441, 341, 193, 372, 320
-0.979472, 73, 193, 136, 256
-0.979539, 465, 193, 496, 320
-0.97956, 361, 241, 392, 304
-0.979618, 221, 225, 252, 288
-0.979815, 433, 217, 496, 280
-0.979828, 217, 249, 280, 312
-0.979921, 209, 273, 272, 335
-0.979954, 297, 65, 360, 320
-0.979977, 161, 33, 288, 160
-0.980088, 41, 249, 104, 312
-0.980199, 241, 145, 272, 272
-0.980227, 305, 113, 336, 176
-0.980231, 257, 129, 288, 192
-0.980236, 169, 241, 200, 304
-0.980251, 357, 209, 388, 272
-0.980318, 145, 65, 208, 320
-0.980337, 265, 33, 328, 288
-0.980367, 289, 217, 416, 280
-0.980368, 189, 81, 220, 208
-0.980381, 313, 273, 376, 335
-0.980389, 201, 177, 264, 240
-0.980449, 209, 153, 272, 216
-0.980534, 113, 97, 240, 160
-0.980696, 401, 193, 464, 256
-0.980696, 89, 65, 152, 320
-0.980745, 401, 209, 464, 335
-0.980751, 249, 97, 280, 224
-0.980787, 81, 225, 208, 288
-0.980829, 193, 233, 320, 296
-0.98084, 261, 161, 292, 288
-0.98085, 105, 65, 168, 192
-0.980911, 285, 209, 316, 272
-0.980944, 185, 97, 216, 160
-0.981049, 1, 49, 128, 176
-0.981095, 97, 225, 160, 288
-0.981185, 369, 273, 496, 335
-0.981201, 193, 121, 320, 184
-0.981234, 25, 153, 88, 216
-0.981259, 273, 201, 304, 264
-0.981274, 353, 193, 384, 320
-0.981277, 49, 65, 112, 192
-0.981407, 217, 65, 248, 192
-0.981419, 33, 129, 160, 192
-0.981461, 437, 161, 468, 224
-0.981698, 57, 137, 120, 200
-0.981725, 249, 249, 280, 312
-0.98183, 321, 209, 352, 335
-0.981923, 181, 209, 212, 335
-0.982028, 97, 97, 128, 160
-0.982088, 289, 137, 320, 200
-0.982103, 385, 217, 448, 280
-0.982196, 53, 225, 84, 288
-0.982208, 309, 177, 340, 240
-0.982211, 1, 225, 128, 288
-0.982213, 193, 145, 320, 208
-0.982258, 161, 265, 224, 328
-0.98239, 229, 65, 260, 128
-0.98245, 277, 169, 308, 232
-0.982477, 1, 65, 64, 320
-0.982486, 205, 65, 236, 192
-0.982488, 45, 73, 76, 136
-0.9827, 337, 97, 464, 224
-0.982717, 145, 209, 176, 335
-0.982724, 145, 193, 208, 256
-0.982763, 145, 129, 272, 192
-0.982903, 369, 249, 496, 312
-0.982978, 209, 225, 240, 288
-0.982979, 1, 209, 64, 335
-0.983006, 177, 169, 240, 232
-0.98307, 385, 249, 448, 312
-0.983075, 201, 209, 232, 335
-0.983085, 17, 177, 48, 304
-0.983098, 197, 225, 228, 288
-0.983138, 377, 273, 440, 335
-0.983139, 29, 97, 60, 160
-0.98318, 325, 209, 356, 272
-0.983257, 281, 145, 312, 272
-0.983332, 441, 161, 472, 288
-0.983337, 113, 185, 176, 248
-0.983356, 217, 113, 248, 176
-0.983385, 353, 169, 384, 232
-0.983463, 29, 97, 60, 224
-0.983468, 369, 153, 400, 216
-0.983468, 297, 217, 328, 280
-0.983482, 113, 193, 144, 320
-0.983495, 329, 241, 360, 304
-0.983615, 97, 33, 224, 160
-0.983633, 185, 161, 216, 288
-0.983633, 229, 161, 260, 288
-0.983657, 81, 121, 208, 184
-0.983667, 49, 201, 112, 264
-0.9837, 1, 169, 128, 232
-0.983708, 373, 249, 404, 312
-0.983728, 129, 153, 256, 216
-0.983756, 353, 137, 384, 200
-0.983785, 241, 217, 272, 280
-0.983841, 233, 81, 264, 208
-0.983922, 169, 193, 200, 320
-0.983976, 265, 177, 296, 240
-0.983995, 185, 233, 216, 296
-0.98405, 73, 177, 104, 304
-0.984057, 185, 209, 216, 272
-0.98406, 409, 145, 440, 272
-0.984153, 257, 33, 320, 160
-0.984178, 361, 129, 392, 256
-0.984196, 165, 121, 196, 184
-0.98427, 93, 177, 124, 304
-0.984287, 145, 257, 176, 320
-0.984289, 157, 257, 188, 320
-0.984319, 25, 193, 88, 256
-0.984351, 93, 97, 124, 224
-0.98439, 185, 121, 216, 184
-0.984438, 145, 73, 272, 136
-0.984449, 401, 113, 464, 240
-0.984452, 433, 193, 496, 256
-0.984481, 49, 153, 176, 216
-0.984488, 453, 265, 484, 328
-0.984529, 213, 209, 244, 335
-0.984541, 209, 89, 240, 152
-0.984598, 369, 217, 496, 280
-0.984598, 209, 201, 240, 264
-0.984613, 1, 153, 64, 216
-0.984639, 409, 153, 440, 216
-0.984641, 233, 265, 264, 328
-0.984664, 121, 65, 184, 320
-0.984757, 369, 217, 400, 280
-0.984787, 145, 209, 272, 272
-0.984797, 117, 97, 148, 160
-0.98483, 409, 265, 472, 328
-0.984931, 125, 209, 156, 335
-0.984945, 197, 201, 228, 264
-0.985045, 137, 129, 168, 192
-0.985097, 37, 177, 68, 304
-0.985151, 461, 185, 492, 248
-0.985194, 389, 161, 420, 224
-0.985203, 257, 49, 384, 176
-0.985211, 289, 249, 320, 312
-0.985283, 217, 57, 248, 120
-0.985304, 305, 49, 432, 176
-0.985306, 201, 137, 232, 200
-0.985354, 49, 249, 176, 312
-0.985393, 281, 1, 344, 335
-0.985415, 429, 145, 460, 272
-0.985503, 269, 241, 300, 304
-0.985588, 77, 233, 108, 296
-0.985593, 145, 129, 176, 256
-0.985596, 145, 185, 272, 248
-0.985599, 361, 97, 424, 224
-0.985625, 293, 81, 324, 208
-0.985731, 257, 73, 320, 136
-0.985794, 1, 225, 64, 288
-0.985796, 81, 201, 208, 264
-0.985912, 33, 193, 160, 256
-0.985921, 217, 113, 248, 240
-0.985943, 65, 257, 128, 320
-0.98601, 297, 185, 328, 248
-0.986023, 269, 129, 300, 192
-0.986029, 177, 97, 208, 224
-0.986034, 173, 97, 204, 160
-0.986041, 153, 105, 184, 168
-0.98605, 449, 177, 480, 240
-0.986139, 309, 225, 340, 288
-0.986143, 469, 241, 500, 304
-0.986204, 61, 121, 92, 184
-0.986236, 369, 185, 496, 248
-0.986338, 125, 161, 156, 288
-0.986415, 309, 249, 340, 312
-0.98645, 33, 217, 64, 280
-0.986462, 33, 73, 160, 136
-0.986553, 245, 129, 276, 192
-0.986589, 17, 249, 80, 312
-0.98662, 17, 121, 48, 184
-0.98686, 205, 65, 236, 128
-0.986866, 453, 177, 484, 304
-0.986883, 81, 137, 112, 200
-0.987084, 121, 137, 152, 200
-0.987101, 385, 273, 416, 335
-0.987113, 261, 209, 292, 272
-0.987142, 61, 177, 92, 304
-0.987176, 1, 193, 64, 256
-0.987227, 369, 137, 432, 200
-0.987234, 297, 33, 360, 160
-0.987343, 209, 1, 336, 128
-0.987405, 261, 105, 292, 168
-0.987465, 337, 273, 368, 335
-0.987492, 465, 217, 496, 280
-0.987517, 185, 1, 248, 335
-0.987625, 141, 81, 172, 208
-0.987656, 229, 129, 260, 192
-0.987706, 125, 177, 156, 240
-0.987791, 313, 201, 344, 264
-0.987828, 1, 1, 256, 128
-0.987834, 365, 209, 396, 335
-0.987874, 421, 161, 452, 224
-0.987995, 49, 209, 80, 335
-0.988004, 257, 273, 288, 335
-0.988039, 97, 129, 128, 192
-0.988047, 257, 153, 288, 216
-0.988049, 297, 161, 328, 224
-0.98806, 97, 241, 128, 304
-0.988103, 289, 89, 416, 152
-0.988108, 353, 65, 416, 320
-0.988141, 333, 81, 364, 208
-0.988147, 293, 113, 324, 176
-0.988169, 197, 89, 228, 152
-0.98817, 65, 233, 96, 296
-0.988209, 161, 1, 224, 335
-0.9883, 45, 105, 76, 168
-0.988356, 1, 249, 128, 312
-0.988373, 61, 97, 92, 224
-0.988387, 289, 73, 352, 136
-0.988415, 29, 153, 60, 216
-0.988425, 5, 129, 36, 192
-0.988428, 113, 145, 144, 272
-0.98848, 41, 81, 72, 208
-0.988496, 209, 1, 272, 335
-0.98851, 157, 209, 188, 335
-0.988524, 109, 129, 140, 192
-0.988582, 61, 145, 92, 208
-0.98859, 105, 153, 136, 216
-0.988617, 469, 265, 500, 328
-0.988642, 81, 113, 112, 176
-0.988657, 161, 49, 224, 176
-0.98868, 129, 113, 160, 240
-0.988687, 297, 137, 360, 168
-0.988688, 169, 217, 200, 280
-0.988695, 273, 1, 336, 64
-0.98873, 193, 225, 448, 288
-0.988742, 93, 169, 124, 232
-0.988766, 129, 249, 384, 312
-0.988787, 321, 65, 384, 320
-0.988808, 409, 217, 472, 280
-0.988863, 25, 1, 88, 335
-0.988893, 113, 185, 144, 248
-0.98897, 225, 49, 352, 112
-0.988988, 81, 177, 208, 240
-0.989007, 337, 129, 464, 192
-0.98902, 297, 125, 360, 156
-0.98904, 17, 97, 48, 224
-0.989069, 229, 185, 260, 248
-0.989233, 73, 161, 104, 224
-0.989267, 89, 257, 152, 320
-0.989351, 449, 241, 480, 304
-0.989366, 49, 129, 80, 256
-0.989388, 265, 137, 328, 168
-0.989451, 313, 169, 376, 200
-0.989473, 201, 113, 232, 176
-0.989535, 385, 233, 416, 296
-0.989557, 81, 273, 208, 335
-0.989577, 313, 193, 376, 224
-0.989578, 81, 73, 208, 136
-0.989583, 233, 73, 296, 136
-0.989638, 337, 257, 400, 288
-0.989649, 153, 225, 184, 288
-0.989726, 165, 81, 196, 208
-0.989739, 225, 113, 288, 144
-0.989763, 217, 133, 280, 164
-0.989807, 297, 209, 360, 240
-0.98982, 297, 101, 360, 132
-0.989849, 185, 233, 248, 264
-0.989919, 393, 157, 456, 188
-0.989926, 321, 213, 384, 244
-0.989953, 81, 129, 112, 256
-0.989986, 377, 209, 408, 335
-0.990026, 65, 97, 192, 160
-0.990026, 301, 273, 332, 335
-0.990042, 137, 73, 200, 136
-0.990047, 29, 129, 60, 192
-0.990074, 297, 149, 360, 180
-0.990092, 305, 1, 368, 335
-0.990097, 373, 145, 404, 272
-0.990104, 273, 193, 336, 224
-0.990133, 153, 145, 184, 208
-0.990134, 321, 137, 384, 168
-0.990151, 41, 241, 72, 304
-0.990166, 257, 125, 320, 156
-0.990266, 321, 149, 384, 180
-0.990268, 349, 265, 380, 328
-0.990286, 41, 137, 72, 200
-0.990291, 321, 245, 384, 276
-0.9903, 169, 265, 200, 328
-0.990323, 409, 181, 472, 212
-0.990329, 313, 181, 376, 212
-0.990335, 73, 65, 136, 192
-0.990337, 89, 105, 152, 136
-0.99036, 109, 225, 140, 288
-0.990369, 337, 233, 400, 264
-0.990413, 401, 169, 464, 200
-0.990423, 97, 121, 352, 184
-0.990425, 17, 177, 48, 240
-0.990425, 297, 113, 360, 144
-0.990458, 225, 249, 480, 312
-0.99046, 233, 257, 296, 288
-0.990492, 361, 173, 424, 204
-0.990511, 273, 173, 336, 204
-0.990519, 89, 117, 152, 148
-0.990542, 169, 129, 232, 160
-0.990563, 93, 193, 124, 256
-0.990571, 257, 209, 288, 335
-0.990576, 73, 193, 104, 256
-0.990589, 1, 73, 64, 136
-0.990617, 313, 73, 376, 136
-0.990638, 353, 245, 416, 276
-0.990644, 385, 161, 416, 288
-0.990644, 185, 85, 248, 116
-0.990694, 257, 149, 320, 180
-0.990713, 201, 121, 264, 152
-0.99072, 289, 89, 352, 120
-0.990777, 249, 213, 312, 244
-0.990806, 241, 193, 272, 256
-0.990814, 345, 161, 408, 192
-0.990822, 129, 249, 160, 312
-0.990824, 33, 193, 64, 256
-0.990845, 297, 269, 360, 300
-0.990861, 185, 49, 248, 112
-0.990864, 233, 269, 296, 300
-0.990903, 249, 289, 312, 320
-0.990911, 49, 113, 112, 144
-0.990913, 201, 73, 264, 104
-0.99092, 225, 273, 480, 335
-0.990933, 273, 161, 336, 192
-0.99094, 337, 177, 400, 208
-0.990953, 433, 113, 496, 240
-0.990958, 225, 221, 288, 252
-0.990971, 137, 145, 200, 176
-0.990978, 157, 145, 188, 272
-0.990981, 209, 97, 272, 128
-0.990983, 265, 101, 328, 132
-0.991007, 105, 97, 136, 224
-0.99101, 33, 225, 288, 288
-0.991014, 177, 117, 240, 148
-0.991054, 193, 213, 256, 244
-0.991067, 145, 121, 208, 152
-0.991111, 257, 113, 320, 144
-0.991121, 25, 105, 88, 136
-0.991135, 177, 141, 240, 172
-0.991143, 377, 249, 440, 280
-0.991151, 337, 285, 400, 316
-0.991153, 241, 169, 304, 200
-0.991169, 209, 157, 272, 188
-0.991176, 169, 105, 232, 136
-0.991182, 17, 149, 80, 180
-0.991189, 129, 261, 192, 292
-0.991232, 193, 249, 256, 312
-0.991248, 129, 109, 192, 140
-0.99126, 281, 257, 344, 288
-0.991309, 361, 213, 424, 244
-0.991325, 113, 1, 176, 335
-0.991331, 297, 237, 360, 268
-0.991341, 33, 249, 288, 312
-0.991346, 257, 153, 500, 216
-0.991358, 313, 257, 376, 288
-0.99136, 249, 305, 312, 335
-0.991374, 429, 193, 460, 320
-0.991411, 393, 129, 456, 192
-0.991415, 169, 221, 232, 252
-0.991427, 73, 245, 136, 276
-0.991432, 113, 137, 176, 168
-0.991433, 241, 245, 304, 276
-0.99144, 169, 153, 232, 184
-0.991453, 433, 289, 496, 320
-0.991467, 417, 145, 480, 208
-0.991469, 273, 217, 336, 248
-0.991478, 337, 269, 400, 300
-0.99149, 73, 129, 136, 160
-0.991516, 1, 1, 64, 335
-0.99153, 305, 281, 368, 312
-0.991537, 57, 1, 120, 335
-0.991553, 361, 225, 424, 256
-0.991565, 169, 245, 232, 276
-0.991569, 369, 161, 432, 192
-0.991585, 433, 181, 496, 212
-0.99159, 337, 297, 400, 328
-0.991616, 273, 205, 336, 236
-0.99162, 337, 201, 400, 232
-0.991622, 241, 137, 304, 168
-0.99165, 297, 225, 360, 256
-0.99165, 433, 269, 496, 300
-0.991687, 433, 241, 496, 272
-0.991701, 233, 193, 296, 224
-0.991733, 17, 125, 80, 156
-0.991736, 97, 149, 160, 180
-0.991738, 145, 249, 208, 280
-0.991751, 137, 157, 200, 188
-0.991757, 393, 209, 424, 335
-0.991759, 297, 301, 360, 332
-0.991763, 201, 109, 264, 140
-0.991779, 17, 137, 80, 168
-0.99178, 233, 1, 296, 335
-0.991783, 409, 249, 472, 280
-0.991792, 49, 233, 112, 264
-0.991801, 233, 149, 296, 180
-0.99182, 57, 145, 120, 176
-0.99182, 97, 253, 160, 284
-0.991831, 209, 177, 272, 208
-0.991839, 209, 145, 272, 176
-0.991843, 41, 249, 104, 280
-0.991857, 33, 81, 96, 112
-0.991888, 73, 233, 136, 264
-0.991893, 209, 289, 272, 320
-0.991932, 409, 285, 472, 316
-0.991942, 129, 273, 384, 335
-0.991943, 137, 133, 200, 164
-0.991954, 441, 209, 472, 335
-0.991955, 433, 193, 496, 224
-0.991963, 321, 125, 384, 156
-0.991977, 273, 97, 304, 224
-0.99198, 265, 245, 328, 276
-0.991981, 89, 201, 152, 232
-0.991982, 273, 289, 336, 320
-0.991992, 193, 201, 448, 264
-0.991993, 377, 237, 440, 268
-0.991996, 113, 217, 176, 248
-0.992005, 233, 181, 296, 212
-0.992005, 209, 233, 272, 264
-0.992007, 25, 93, 88, 124
-0.992019, 361, 201, 424, 232
-0.992022, 121, 121, 184, 152
-0.992028, 25, 33, 88, 160
-0.99203, 145, 97, 208, 128
-0.992031, 137, 289, 200, 320
-0.992032, 425, 169, 488, 200
-0.992036, 369, 281, 432, 312
-0.992047, 433, 305, 496, 335
-0.992057, 393, 193, 456, 224
-0.99206, 345, 149, 408, 180
-0.992062, 17, 169, 80, 200
-0.992124, 337, 189, 400, 220
-0.992137, 129, 97, 384, 160
-0.992164, 397, 145, 428, 272
-0.992185, 257, 177, 500, 240
-0.992186, 1, 233, 500, 296
-0.992263, 145, 49, 272, 112
-0.99234, 417, 65, 480, 320
-0.992367, 301, 1, 332, 128
-0.992383, 357, 241, 388, 272
-0.992384, 333, 157, 364, 188
-0.992388, 405, 209, 436, 335
-0.99241, 309, 89, 340, 120
-0.992482, 333, 197, 364, 228
-0.992492, 249, 109, 280, 140
-0.992512, 345, 193, 376, 224
-0.992527, 305, 141, 336, 172
-0.992532, 137, 33, 200, 160
-0.992535, 333, 173, 364, 204
-0.992562, 321, 181, 352, 212
-0.992568, 317, 165, 348, 196
-0.992572, 321, 141, 352, 172
-0.992576, 45, 77, 76, 108
-0.992581, 129, 145, 384, 208
-0.992593, 1, 49, 64, 176
-0.992607, 341, 133, 372, 164
-0.992608, 1, 145, 32, 272
-0.992625, 429, 161, 460, 192
-0.99263, 305, 129, 336, 160
-0.992632, 345, 113, 408, 176
-0.992642, 221, 229, 252, 260
-0.99268, 349, 205, 380, 236
-0.992713, 165, 145, 196, 176
-0.99272, 441, 181, 472, 212
-0.992726, 153, 81, 184, 208
-0.992736, 313, 153, 344, 184
-0.992737, 409, 153, 440, 184
-0.992746, 177, 245, 208, 276
-0.992747, 257, 1, 320, 335
-0.99275, 97, 105, 128, 136
-0.992774, 73, 73, 136, 136
-0.992777, 249, 133, 280, 164
-0.992784, 373, 249, 404, 280
-0.992784, 341, 249, 372, 280
-0.992794, 213, 217, 244, 248
-0.992796, 305, 65, 432, 128
-0.992805, 289, 141, 320, 172
-0.992806, 321, 49, 352, 176
-0.992815, 337, 213, 368, 244
-0.992822, 189, 93, 220, 124
-0.992824, 341, 225, 372, 256
-0.992825, 333, 145, 364, 176
-0.992829, 197, 233, 228, 264
-0.992831, 185, 129, 216, 160
-0.992858, 349, 161, 380, 192
-0.992859, 329, 129, 360, 160
-0.99286, 321, 197, 352, 228
-0.99286, 209, 229, 240, 260
-0.992862, 241, 261, 272, 292
-0.99287, 201, 121, 232, 152
-0.992875, 229, 73, 260, 104
-0.992887, 321, 209, 352, 240
-0.992894, 421, 173, 452, 204
-0.992904, 349, 181, 380, 212
-0.992904, 301, 105, 332, 136
-0.992905, 365, 229, 396, 260
-0.992912, 117, 117, 148, 148
-0.992918, 353, 257, 384, 288
-0.992923, 385, 241, 416, 272
-0.992928, 273, 205, 304, 236
-0.992933, 253, 149, 284, 180
-0.992942, 333, 185, 364, 216
-0.992955, 237, 117, 268, 148
-0.992965, 229, 93, 260, 124
-0.992968, 217, 121, 248, 152
-0.992978, 161, 73, 224, 136
-0.992982, 317, 261, 348, 292
-0.992988, 309, 185, 340, 216
-0.992988, 461, 189, 492, 220
-0.992988, 317, 129, 348, 160
-0.992996, 169, 257, 200, 288
-0.992998, 321, 101, 352, 132
-0.993, 149, 261, 180, 292
-0.993003, 349, 145, 380, 176
-0.993005, 153, 121, 184, 152
-0.993005, 173, 109, 204, 140
-0.993024, 241, 221, 272, 252
-0.993024, 461, 221, 492, 252
-0.993025, 81, 145, 112, 176
-0.993029, 269, 133, 300, 164
-0.993031, 257, 121, 288, 152
-0.993032, 137, 1, 200, 335
-0.993033, 225, 269, 256, 300
-0.993038, 409, 169, 440, 200
-0.993041, 1, 137, 500, 200
-0.993041, 441, 169, 472, 200
-0.993042, 345, 281, 376, 312
-0.993048, 57, 237, 88, 268
-0.993048, 229, 105, 260, 136
-0.993052, 309, 209, 340, 240
-0.993059, 293, 121, 324, 152
-0.993061, 217, 69, 248, 100
-0.993061, 197, 221, 228, 252
-0.993062, 221, 133, 252, 164
-0.993071, 361, 217, 392, 248
-0.99308, 153, 141, 184, 172
-0.993082, 253, 281, 284, 312
-0.993087, 445, 261, 476, 292
-0.99309, 201, 157, 232, 188
-0.99309, 61, 249, 92, 280
-0.993092, 9, 129, 40, 160
-0.993093, 297, 93, 328, 124
-0.993094, 161, 293, 192, 324
-0.993098, 277, 173, 308, 204
-0.993107, 225, 213, 256, 244
-0.993108, 377, 161, 408, 192
-0.993109, 137, 133, 168, 164
-0.993116, 105, 249, 136, 280
-0.993117, 77, 249, 108, 280
-0.993117, 465, 281, 496, 312
-0.993122, 301, 9, 332, 40
-0.993122, 453, 277, 484, 308
-0.993125, 137, 109, 168, 140
-0.993127, 93, 117, 124, 148
-0.993128, 153, 109, 184, 140
-0.993135, 329, 245, 360, 276
-0.993136, 129, 253, 160, 284
-0.993137, 457, 293, 488, 324
-0.99314, 33, 225, 64, 256
-0.993144, 285, 201, 316, 232
-0.993145, 205, 137, 236, 168
-0.993147, 261, 201, 292, 232
-0.993149, 117, 105, 148, 136
-0.993151, 365, 261, 396, 292
-0.993152, 297, 173, 328, 204
-0.993152, 121, 153, 152, 184
-0.993153, 309, 197, 340, 228
-0.993153, 5, 141, 36, 172
-0.993154, 361, 157, 392, 188
-0.993154, 305, 117, 336, 148
-0.993155, 29, 101, 60, 132
-0.993155, 321, 117, 352, 148
-0.993156, 361, 173, 392, 204
-0.993159, 173, 145, 204, 272
-0.99316, 29, 145, 60, 176
-0.993161, 325, 281, 356, 312
-0.993164, 189, 117, 220, 148
-0.993165, 285, 249, 316, 280
-0.993168, 389, 161, 420, 192
-0.993168, 465, 261, 496, 292
-0.993168, 49, 109, 80, 140
-0.993169, 185, 105, 216, 136
-0.993172, 269, 145, 300, 176
-0.993173, 129, 169, 384, 232
-0.993174, 361, 201, 392, 232
-0.993265, 297, 9, 360, 72
-0.993314, 1, 137, 256, 200
-0.99336, 145, 245, 272, 276
-0.993393, 225, 217, 352, 248
-0.99348, 209, 41, 272, 104
-0.993584, 1, 201, 500, 264
-0.993589, 345, 81, 376, 208
-0.993606, 337, 157, 464, 188
-0.993668, 229, 33, 260, 160
-0.993684, 113, 273, 176, 335
-0.993856, 33, 97, 288, 160
-0.993961, 341, 137, 356, 200
-0.994171, 161, 73, 416, 136
-0.994178, 331, 137, 346, 200
-0.994185, 331, 177, 346, 240
-0.994212, 323, 153, 338, 216
-0.994268, 225, 289, 352, 320
-0.99427, 193, 121, 448, 184
-0.994284, 257, 141, 384, 172
-0.994324, 25, 57, 88, 120
-0.994344, 225, 261, 352, 292
-0.994345, 337, 105, 464, 168
-0.994401, 17, 273, 144, 335
-0.994441, 89, 1, 152, 335
-0.994471, 325, 185, 340, 248
-0.994506, 113, 73, 176, 136
-0.994512, 81, 257, 208, 288
-0.994532, 321, 249, 448, 280
-0.994562, 313, 137, 328, 200
-0.99457, 5, 97, 36, 224
-0.994579, 257, 161, 384, 192
-0.994648, 345, 177, 360, 240
-0.994688, 1, 201, 256, 264
-0.994696, 73, 65, 104, 192
-0.994712, 225, 249, 352, 280
-0.994723, 273, 233, 400, 264
-0.99474, 273, 257, 400, 288
-0.994802, 145, 277, 272, 308
-0.994834, 171, 257, 186, 320
-0.994908, 337, 177, 352, 240
-0.99491, 377, 65, 440, 320
-0.994945, 145, 257, 272, 288
-0.994946, 189, 33, 220, 160
-0.994953, 1, 169, 500, 232
-0.994966, 241, 97, 368, 128
-0.994968, 261, 105, 276, 168
-0.994974, 257, 205, 384, 236
-0.994984, 257, 121, 384, 152
-0.99501, 49, 57, 112, 120
-0.995042, 189, 217, 204, 280
-0.995047, 363, 217, 378, 280
-0.99507, 1, 149, 128, 180
-0.99507, 241, 301, 368, 332
-0.995076, 335, 201, 350, 264
-0.995099, 161, 305, 288, 335
-0.995103, 305, 97, 320, 160
-0.995109, 161, 233, 288, 264
-0.995128, 353, 177, 480, 208
-0.995166, 349, 137, 364, 200
-0.995175, 417, 209, 448, 335
-0.995209, 333, 113, 348, 176
-0.99521, 1, 113, 500, 176
-0.995223, 305, 217, 432, 248
-0.995223, 269, 129, 284, 192
-0.995234, 465, 145, 496, 272
-0.995242, 289, 209, 304, 272
-0.995243, 365, 249, 380, 312
-0.995244, 233, 225, 248, 288
-0.995256, 327, 257, 342, 320
-0.995264, 33, 273, 288, 335
-0.995273, 161, 101, 288, 132
-0.995277, 321, 129, 336, 192
-0.995279, 209, 153, 336, 184
-0.995289, 375, 233, 390, 296
-0.995299, 65, 73, 320, 136
-0.995309, 319, 81, 334, 144
-0.995313, 257, 181, 384, 212
-0.995371, 355, 209, 370, 272
-0.995374, 253, 105, 268, 168
-0.995381, 209, 137, 336, 168
-0.995396, 305, 177, 432, 208
-0.995418, 49, 109, 176, 140
-0.995447, 337, 265, 352, 328
-0.995499, 273, 277, 400, 308
-0.995531, 225, 109, 352, 140
-0.995569, 357, 185, 372, 248
-0.995575, 177, 85, 304, 116
-0.995578, 209, 173, 336, 204
-0.995583, 27, 185, 42, 248
-0.995603, 175, 225, 190, 288
-0.995608, 199, 233, 214, 296
-0.995621, 45, 33, 76, 160
-0.995628, 181, 241, 196, 304
-0.995636, 145, 289, 272, 320
-0.995648, 267, 105, 282, 168
-0.995652, 351, 249, 366, 312
-0.995657, 213, 17, 244, 144
-0.995671, 243, 217, 258, 280
-0.995672, 219, 217, 234, 280
-0.995681, 243, 257, 258, 320
-0.995688, 177, 113, 304, 144
-0.995695, 339, 113, 354, 176
-0.995697, 305, 121, 320, 184
-0.995698, 195, 209, 210, 272
-0.995714, 281, 177, 296, 240
-0.99572, 363, 169, 378, 232
-0.995721, 305, 141, 432, 172
-0.995724, 1, 257, 500, 320
-0.995744, 369, 217, 384, 280
-0.995749, 183, 217, 198, 280
-0.99575, 273, 245, 400, 276
-0.995793, 313, 81, 328, 144
-0.995807, 185, 97, 200, 160
-0.995821, 305, 289, 432, 320
-0.995822, 159, 257, 174, 320
-0.995825, 357, 145, 372, 208
-0.99584, 375, 209, 390, 272
-0.995842, 225, 273, 352, 304
-0.995856, 321, 217, 336, 280
-0.99587, 331, 233, 346, 296
-0.995873, 47, 81, 62, 144
-0.995876, 209, 201, 224, 264
-0.995877, 33, 177, 288, 240
-0.995878, 209, 201, 336, 232
-0.995896, 329, 209, 344, 272
-0.995905, 313, 113, 328, 176
-0.995912, 187, 241, 202, 304
-0.995923, 253, 129, 268, 192
-0.995924, 359, 249, 374, 312
-0.995925, 249, 257, 264, 320
-0.995926, 225, 97, 480, 160
-0.995927, 295, 209, 310, 272
-0.995988, 97, 105, 224, 136
-0.995999, 351, 161, 366, 224
-0.996011, 227, 225, 242, 288
-0.99602, 277, 209, 292, 272
-0.996034, 225, 57, 240, 120
-0.996047, 353, 237, 480, 268
-0.996049, 305, 189, 432, 220
-0.996054, 439, 161, 454, 224
-0.996056, 223, 105, 238, 168
-0.996058, 325, 81, 340, 144
-0.996077, 449, 161, 464, 224
-0.996078, 319, 177, 334, 240
-0.996104, 245, 49, 276, 176
-0.996104, 361, 1, 424, 335
-0.996105, 331, 89, 346, 152
-0.996107, 67, 225, 82, 288
-0.99612, 345, 241, 360, 304
-0.996133, 225, 81, 352, 112
-0.996155, 211, 121, 226, 184
-0.996156, 81, 145, 208, 176
-0.996158, 337, 233, 352, 296
-0.99618, 307, 145, 322, 208
-0.99618, 257, 193, 384, 224
-0.996183, 21, 121, 36, 184
-0.99619, 303, 217, 318, 280
-0.996192, 205, 233, 220, 296
-0.996193, 209, 185, 336, 216
-0.996201, 299, 105, 314, 168
-0.996202, 81, 245, 208, 276
-0.996203, 349, 209, 364, 272
-0.996229, 33, 133, 160, 164
-0.996231, 81, 233, 208, 264
-0.99624, 203, 201, 218, 264
-0.996259, 133, 137, 148, 200
-0.996259, 209, 229, 336, 260
-0.996262, 233, 49, 296, 112
-0.996277, 289, 241, 304, 304
-0.996279, 471, 273, 486, 335
-0.996287, 365, 193, 380, 256
-0.996289, 97, 201, 352, 264
-0.996295, 97, 117, 224, 148
-0.996326, 177, 113, 192, 176
-0.996329, 381, 249, 396, 312
-0.99634, 351, 185, 366, 248
-0.996346, 321, 261, 448, 292
-0.996356, 129, 149, 256, 180
-0.996357, 211, 225, 226, 288
-0.996358, 215, 193, 230, 256
-0.996359, 337, 277, 464, 308
-0.996366, 21, 153, 36, 216
-0.99637, 165, 257, 180, 320
-0.996371, 363, 137, 378, 200
-0.996387, 401, 153, 416, 216
-0.996396, 319, 105, 334, 168
-0.996402, 247, 105, 262, 168
-0.99641, 289, 1, 320, 128
-0.996425, 313, 161, 328, 224
-0.996427, 283, 201, 298, 264
-0.996431, 73, 241, 88, 304
-0.996438, 51, 225, 66, 288
-0.996448, 117, 81, 148, 208
-0.996451, 369, 145, 384, 208
-0.996462, 169, 225, 184, 288
-0.996463, 65, 17, 128, 144
-0.996471, 161, 137, 288, 168
-0.996482, 41, 65, 72, 320
-0.996502, 259, 129, 274, 192
-0.996509, 485, 233, 500, 296
-0.996517, 305, 205, 432, 236
-0.996528, 17, 97, 144, 128
-0.996532, 311, 185, 326, 248
-0.996536, 99, 105, 114, 168
-0.996544, 341, 209, 356, 272
-0.996548, 219, 65, 234, 128
-0.99655, 289, 301, 416, 332
-0.996566, 275, 169, 290, 232
-0.996584, 29, 49, 60, 176
-0.996599, 53, 65, 84, 320
-0.996604, 313, 1, 344, 128
-0.996606, 209, 1, 336, 64
-0.996611, 161, 221, 288, 252
-0.996621, 157, 113, 172, 176
-0.996644, 459, 233, 474, 296
-0.996648, 235, 65, 250, 128
-0.996651, 225, 25, 352, 88
-0.996657, 245, 73, 260, 136
-0.996673, 407, 153, 422, 216
-0.996675, 321, 257, 336, 320
-0.996676, 287, 177, 302, 240
-0.996678, 209, 125, 336, 156
-0.996682, 229, 89, 244, 152
-0.996684, 43, 225, 58, 288
-0.996689, 1, 249, 128, 280
-0.996694, 119, 97, 134, 160
-0.996694, 301, 145, 316, 208
-0.996699, 143, 113, 158, 176
-0.996699, 343, 265, 358, 328
-0.996702, 1, 169, 128, 200
-0.996705, 37, 225, 52, 288
-0.99672, 221, 193, 236, 256
-0.996721, 61, 81, 76, 144
-0.996725, 65, 113, 80, 176
-0.996728, 161, 73, 288, 104
-0.996729, 193, 241, 208, 304
-0.996734, 455, 177, 470, 240
-0.996734, 145, 209, 272, 240
-0.996737, 227, 201, 242, 264
-0.996748, 213, 33, 244, 288
-0.996752, 453, 129, 484, 256
-0.996768, 1, 225, 128, 256
-0.996772, 167, 137, 182, 200
-0.996793, 245, 65, 276, 320
-0.996812, 305, 129, 432, 160
-0.996817, 97, 93, 224, 124
-0.996827, 289, 93, 416, 124
-0.996828, 369, 289, 496, 320
-0.996878, 93, 65, 124, 320
-0.996881, 1, 113, 128, 144
-0.996887, 185, 273, 248, 335
-0.996905, 409, 1, 472, 335
-0.996952, 81, 161, 208, 192
-0.996967, 193, 65, 224, 320
-0.996972, 113, 221, 240, 252
-0.996987, 65, 177, 192, 208
-0.996995, 129, 161, 256, 192
-0.996996, 353, 209, 480, 240
-0.99704, 421, 97, 452, 224
-0.997049, 33, 201, 160, 232
-0.997071, 161, 125, 288, 156
-0.997085, 337, 1, 400, 335
-0.997097, 327, 161, 342, 192
-0.997135, 273, 109, 400, 140
-0.997157, 1, 181, 128, 212
-0.997186, 1, 237, 128, 268
-0.997187, 1, 213, 128, 244
-0.997207, 337, 157, 352, 188
-0.99721, 145, 173, 272, 204
-0.997238, 335, 177, 350, 208
-0.997254, 81, 133, 208, 164
-0.997261, 343, 177, 358, 208
-0.997269, 369, 241, 384, 272
-0.997303, 305, 1, 336, 256
-0.997306, 81, 293, 208, 324
-0.997335, 363, 241, 378, 272
-0.997335, 17, 85, 144, 116
-0.997345, 29, 65, 60, 320
-0.997354, 49, 1, 176, 128
-0.997363, 1, 193, 32, 320
-0.997382, 229, 33, 260, 288
-0.997384, 339, 137, 354, 168
-0.997399, 327, 141, 342, 172
-0.997427, 309, 141, 324, 172
-0.997429, 81, 197, 208, 228
-0.997432, 305, 129, 320, 160
-0.997471, 369, 249, 496, 280
-0.997487, 325, 185, 340, 216
-0.99749, 321, 145, 336, 176
-0.99749, 369, 197, 496, 228
-0.997512, 369, 305, 496, 335
-0.997545, 169, 65, 200, 320
-0.99755, 349, 177, 364, 208
-0.997552, 225, 1, 288, 128
-0.997561, 361, 81, 392, 208
-0.997564, 369, 261, 496, 292
-0.997568, 321, 161, 336, 192
-0.997597, 181, 65, 212, 320
-0.997597, 331, 213, 346, 244
-0.997599, 339, 197, 354, 228
-0.99762, 357, 177, 372, 208
-0.997644, 331, 201, 346, 232
-0.997666, 337, 89, 400, 152
-0.99767, 329, 93, 344, 124
-0.997671, 81, 269, 208, 300
-0.997674, 305, 101, 320, 132
-0.997697, 443, 161, 458, 192
-0.9977, 343, 149, 358, 180
-0.997706, 369, 225, 496, 256
-0.997707, 329, 173, 344, 204
-0.997708, 351, 161, 366, 192
-0.997709, 293, 65, 324, 320
-0.997715, 161, 49, 224, 112
-0.997723, 177, 249, 192, 280
-0.997726, 315, 137, 330, 168
-0.997727, 349, 189, 364, 220
-0.997733, 379, 241, 394, 272
-0.997736, 105, 65, 136, 320
-0.997737, 441, 97, 472, 224
-0.997737, 331, 189, 346, 220
-0.99774, 1, 89, 500, 152
-0.997752, 333, 141, 348, 172
-0.997755, 233, 225, 248, 256
-0.997789, 49, 77, 64, 108
-0.997789, 357, 189, 372, 220
-0.997795, 161, 49, 416, 112
-0.997809, 433, 169, 448, 200
-0.997812, 361, 137, 376, 168
-0.997818, 243, 73, 258, 104
-0.997824, 77, 65, 108, 320
-0.997854, 341, 209, 356, 240
-0.997856, 227, 225, 242, 256
-0.997875, 97, 49, 224, 112
-0.997878, 297, 137, 312, 168
-0.99788, 279, 197, 294, 228
-0.997883, 321, 173, 336, 204
-0.997889, 323, 89, 338, 120
-0.997892, 185, 245, 200, 276
-0.997894, 189, 229, 204, 260
-0.997897, 199, 237, 214, 268
-0.997901, 353, 205, 368, 236
-0.997904, 375, 253, 390, 284
-0.997905, 353, 225, 368, 256
-0.997912, 323, 197, 338, 228
-0.997922, 335, 125, 350, 156
-0.997928, 223, 113, 238, 144
-0.99793, 357, 245, 372, 276
-0.997931, 235, 69, 250, 100
-0.997936, 257, 65, 288, 320
-0.997939, 315, 153, 330, 184
-0.997939, 217, 217, 232, 248
-0.997942, 359, 205, 374, 236
-0.997944, 357, 165, 372, 196
-0.997949, 97, 281, 224, 312
-0.997965, 65, 65, 96, 320
-0.997972, 121, 65, 152, 320
-0.997975, 363, 185, 378, 216
-0.997976, 65, 49, 320, 112
-0.997982, 225, 69, 352, 100
-0.997984, 199, 225, 214, 256
-0.997985, 405, 97, 436, 224
-0.997988, 161, 185, 288, 216
-0.997992, 367, 205, 382, 236
-0.997993, 167, 141, 182, 172
-0.997999, 345, 161, 360, 192
-0.998005, 313, 89, 328, 120
-0.998007, 213, 125, 228, 156
-0.998007, 49, 121, 176, 152
-0.998012, 215, 233, 230, 264
-0.99802, 315, 165, 330, 196
-0.998029, 251, 109, 266, 140
-0.998029, 365, 225, 380, 256
-0.99803, 205, 237, 220, 268
-0.998033, 457, 181, 472, 212
-0.998037, 211, 217, 226, 248
-0.998043, 191, 241, 206, 272
-0.998046, 349, 133, 364, 164
-0.998048, 61, 77, 76, 108
-0.998051, 55, 73, 70, 104
-0.998059, 251, 125, 266, 156
-0.99806, 161, 197, 288, 228
-0.998061, 349, 145, 364, 176
-0.998063, 145, 61, 272, 92
-0.998066, 171, 257, 186, 288
-0.998068, 249, 289, 264, 320
-0.998069, 241, 225, 256, 256
-0.998072, 99, 109, 114, 140
-0.998072, 355, 257, 370, 288
-0.998077, 271, 145, 286, 176
-0.998083, 21, 133, 36, 164
-0.998085, 375, 229, 390, 260
-0.9981, 205, 221, 220, 252
-0.998105, 221, 229, 236, 260
-0.998107, 285, 201, 300, 232
-0.998108, 17, 261, 144, 292
-0.998108, 191, 89, 206, 120
-0.998108, 327, 261, 342, 292
-0.998112, 247, 261, 262, 292
-0.998116, 145, 25, 272, 88
-0.99812, 113, 185, 240, 216
-0.998123, 429, 157, 444, 188
-0.998135, 261, 129, 276, 160
-0.998136, 81, 209, 208, 240
-0.998137, 239, 269, 254, 300
-0.998141, 161, 261, 176, 292
-0.998141, 185, 105, 200, 136
-0.99815, 229, 213, 244, 244
-0.998154, 369, 253, 384, 284
-0.998156, 9, 49, 40, 176
-0.998156, 107, 105, 122, 136
-0.998158, 373, 97, 404, 224
-0.998159, 97, 305, 224, 335
-0.998161, 419, 149, 434, 180
-0.998161, 315, 9, 330, 40
-0.998162, 355, 149, 370, 180
-0.998171, 137, 65, 168, 320
-0.998174, 347, 201, 362, 232
-0.998189, 355, 133, 370, 164
-0.998193, 469, 277, 484, 308
-0.998196, 49, 73, 176, 104
-0.998198, 317, 33, 348, 288
-0.99821, 255, 149, 270, 180
-0.998219, 323, 221, 338, 252
-0.998224, 223, 213, 238, 244
-0.99823, 333, 265, 348, 296
-0.998234, 321, 209, 336, 240
-0.998235, 185, 93, 200, 124
-0.998245, 315, 193, 330, 224
-0.998247, 1, 49, 128, 112
-0.998247, 309, 161, 324, 192
-0.99825, 273, 201, 288, 232
-0.998259, 369, 113, 432, 176
-0.998261, 265, 113, 280, 144
-0.998263, 311, 121, 326, 152
-0.998263, 263, 297, 278, 328
-0.998266, 177, 125, 192, 156
-0.99828, 365, 169, 380, 200
-0.998282, 39, 209, 54, 240
-0.998284, 33, 101, 48, 132
-0.998285, 243, 281, 258, 312
-0.99829, 63, 113, 78, 144
-0.998292, 235, 81, 250, 112
-0.9983, 359, 221, 374, 252
-0.998302, 49, 41, 176, 104
-0.998304, 93, 141, 108, 172
-0.998317, 287, 245, 302, 276
-0.99832, 345, 225, 360, 256
-0.998322, 329, 65, 360, 320
-0.998332, 485, 245, 500, 276
-0.998332, 423, 161, 438, 192
-0.998357, 113, 81, 240, 112
-0.99836, 17, 65, 48, 320
-0.998365, 1, 49, 64, 112
-0.998369, 429, 171, 460, 186
-0.998369, 273, 203, 304, 218
-0.998369, 373, 237, 404, 252
-0.99837, 393, 179, 424, 194
-0.99837, 257, 123, 288, 138
-0.99837, 361, 157, 392, 172
-0.998371, 121, 141, 152, 156
-0.998371, 261, 307, 292, 322
-0.998372, 425, 183, 456, 198
-0.998372, 357, 261, 388, 276
-0.998372, 357, 175, 388, 190
-0.998373, 201, 131, 232, 146
-0.998374, 225, 95, 256, 110
-0.998374, 197, 227, 228, 242
-0.998375, 341, 253, 372, 268
-0.998375, 61, 251, 92, 266
-0.998375, 49, 113, 80, 128
-0.998376, 153, 121, 184, 136
-0.998378, 317, 147, 348, 162
-0.998379, 257, 167, 288, 182
-0.998379, 441, 175, 472, 190
-0.99838, 325, 131, 356, 146
-0.998381, 265, 215, 296, 230
-0.998382, 301, 113, 332, 128
-0.998383, 129, 255, 160, 270
-0.998384, 269, 139, 300, 154
-0.998384, 157, 261, 188, 276
-0.998384, 417, 167, 448, 182
-0.998385, 185, 103, 216, 118
-0.998386, 225, 273, 256, 288
-0.998387, 301, 13, 332, 28
-0.998387, 261, 205, 292, 220
-0.998388, 273, 209, 304, 224
-0.998388, 461, 193, 492, 208
-0.99839, 349, 287, 380, 302
-0.998391, 57, 235, 88, 250
-0.998396, 213, 223, 244, 238
-0.998396, 417, 161, 448, 176
-0.998397, 241, 271, 272, 286
-0.998398, 169, 259, 200, 274
-0.998399, 337, 225, 368, 240
-0.998401, 333, 207, 364, 222
-0.998402, 413, 181, 444, 196
-0.998403, 229, 123, 260, 138
-0.998404, 337, 141, 368, 156
-0.998404, 161, 295, 192, 310
-0.998405, 457, 223, 488, 238
-0.998406, 153, 143, 184, 158
-0.998406, 297, 135, 328, 150
-0.998406, 453, 281, 484, 296
-0.998407, 361, 219, 392, 234
-0.998408, 305, 171, 336, 186
-0.998409, 309, 201, 340, 216
-0.99841, 321, 267, 352, 282
-0.998411, 217, 127, 248, 142
-0.998412, 301, 213, 332, 228
-0.998412, 329, 147, 360, 162
-0.998413, 305, 99, 336, 114
-0.998414, 409, 173, 440, 188
-0.998415, 289, 143, 320, 158
-0.998416, 185, 93, 216, 108
-0.998417, 117, 117, 148, 132
-0.998417, 337, 215, 368, 230
-0.998417, 321, 203, 352, 218
-0.998419, 301, 107, 332, 122
-0.998421, 329, 191, 360, 206
-0.998422, 185, 131, 216, 146
-0.998422, 233, 227, 264, 242
-0.998423, 345, 203, 376, 218
-0.998423, 321, 105, 352, 120
-0.998425, 29, 103, 60, 118
-0.998427, 101, 107, 132, 122
-0.998428, 353, 169, 384, 184
-0.998428, 325, 217, 356, 232
-0.998429, 229, 73, 260, 88
-0.998429, 349, 189, 380, 204
-0.99843, 349, 159, 380, 174
-0.998431, 305, 177, 336, 192
-0.998433, 341, 151, 372, 166
-0.998435, 365, 315, 396, 330
-0.998437, 97, 113, 128, 128
-0.998438, 253, 151, 284, 166
-0.998438, 165, 145, 196, 160
-0.998439, 177, 249, 208, 264
-0.998439, 353, 145, 480, 176
-0.99844, 201, 125, 232, 140
-0.998441, 277, 215, 308, 230
-0.998443, 269, 145, 300, 160
-0.998444, 361, 255, 392, 270
-0.998444, 241, 129, 272, 144
-0.998446, 429, 177, 460, 192
-0.99845, 317, 169, 348, 184
-0.998452, 341, 183, 372, 198
-0.998452, 305, 157, 336, 172
-0.998453, 221, 133, 252, 148
-0.998454, 357, 207, 388, 222
-0.998455, 325, 141, 356, 156
-0.998459, 317, 181, 348, 196
-0.998459, 349, 215, 380, 230
-0.99846, 209, 233, 240, 248
-0.998462, 429, 165, 460, 180
-0.998462, 305, 149, 336, 164
-0.998464, 193, 239, 224, 254
-0.998467, 441, 181, 472, 196
-0.998469, 321, 209, 352, 224
-0.998472, 301, 141, 332, 156
-0.998474, 373, 251, 404, 266
-0.998474, 305, 203, 368, 218
-0.998478, 369, 243, 400, 258
-0.998479, 297, 147, 360, 162
-0.998479, 257, 133, 288, 148
-0.998481, 305, 163, 336, 178
-0.998483, 341, 195, 372, 210
-0.998483, 329, 181, 360, 196
-0.998484, 409, 155, 440, 170
-0.998485, 341, 135, 372, 150
-0.998486, 333, 201, 364, 216
-0.998487, 297, 129, 360, 144
-0.998489, 61, 49, 92, 176
-0.99849, 257, 147, 320, 162
-0.998491, 305, 141, 368, 156
-0.998493, 349, 143, 380, 158
-0.998496, 357, 243, 388, 258
-0.9985, 325, 153, 356, 168
-0.9985, 265, 141, 328, 156
-0.9985, 329, 165, 360, 180
-0.998508, 321, 197, 352, 212
-0.998509, 305, 187, 368, 202
-0.998509, 297, 153, 360, 168
-0.998512, 337, 245, 400, 260
-0.998512, 353, 151, 384, 166
-0.998514, 249, 111, 280, 126
-0.998515, 337, 175, 368, 190
-0.998515, 313, 223, 376, 238
-0.998518, 297, 159, 360, 174
-0.998519, 297, 101, 360, 116
-0.998521, 193, 233, 256, 248
-0.998522, 345, 251, 408, 266
-0.998529, 337, 157, 368, 172
-0.99853, 313, 197, 376, 212
-0.99853, 305, 165, 368, 180
-0.998531, 345, 209, 376, 224
-0.998533, 317, 175, 348, 190
-0.998539, 257, 319, 320, 334
-0.998541, 225, 115, 288, 130
-0.998542, 45, 79, 76, 94
-0.998543, 297, 217, 360, 232
-0.998544, 289, 211, 352, 226
-0.998544, 317, 159, 348, 174
-0.998546, 221, 231, 252, 246
-0.998546, 297, 135, 360, 150
-0.998547, 305, 175, 368, 190
-0.998548, 321, 251, 384, 266
-0.998548, 337, 159, 400, 174
-0.998549, 233, 269, 296, 284
-0.998549, 225, 129, 288, 144
-0.998551, 217, 139, 280, 154
-0.998554, 297, 95, 360, 110
-0.998556, 193, 239, 256, 254
-0.998557, 249, 133, 312, 148
-0.998558, 201, 73, 264, 88
-0.998562, 297, 123, 360, 138
-0.998563, 329, 259, 392, 274
-0.998564, 321, 151, 384, 166
-0.998564, 257, 127, 320, 142
-0.998565, 305, 181, 368, 196
-0.998565, 393, 173, 456, 188
-0.998566, 417, 183, 480, 198
-0.998571, 225, 121, 288, 136
-0.998572, 193, 221, 256, 236
-0.998574, 273, 191, 336, 206
-0.998577, 241, 259, 304, 274
-0.998577, 313, 209, 376, 224
-0.998577, 249, 217, 312, 232
-0.998579, 289, 107, 352, 122
-0.99858, 265, 115, 328, 130
-0.998581, 385, 113, 416, 240
-0.998583, 249, 299, 312, 314
-0.998583, 329, 177, 392, 192
-0.998583, 49, 117, 112, 132
-0.998583, 329, 203, 392, 218
-0.998584, 393, 161, 456, 176
-0.998584, 241, 283, 304, 298
-0.998585, 289, 115, 352, 130
-0.998585, 265, 165, 328, 180
-0.998586, 273, 157, 336, 172
-0.998586, 177, 91, 240, 106
-0.998587, 313, 91, 344, 106
-0.99859, 273, 135, 336, 150
-0.99859, 161, 135, 224, 150
-0.99859, 281, 171, 344, 186
-0.99859, 129, 121, 192, 136
-0.998591, 129, 261, 192, 276
-0.998591, 357, 249, 388, 264
-0.998591, 417, 177, 480, 192
-0.998592, 321, 231, 384, 246
-0.998593, 89, 117, 152, 132
-0.998593, 65, 123, 128, 138
-0.998594, 265, 109, 328, 124
-0.998596, 89, 107, 152, 122
-0.998597, 137, 253, 200, 268
-0.998597, 177, 129, 240, 144
-0.998597, 305, 81, 432, 112
-0.998597, 329, 215, 392, 230
-0.998598, 201, 127, 264, 142
-0.998598, 201, 133, 264, 148
-0.998602, 281, 205, 344, 220
-0.998602, 241, 153, 304, 168
-0.998603, 17, 153, 80, 168
-0.998604, 305, 245, 368, 260
-0.998604, 241, 173, 304, 188
-0.998606, 377, 321, 440, 335
-0.998607, 209, 167, 272, 182
-0.998608, 137, 155, 200, 170
-0.998608, 281, 199, 344, 214
-0.998608, 321, 135, 384, 150
-0.998609, 177, 97, 240, 112
-0.99861, 265, 179, 328, 194
-0.99861, 361, 179, 424, 194
-0.99861, 129, 111, 192, 126
-0.998612, 17, 105, 80, 120
-0.998612, 33, 79, 96, 94
-0.998613, 265, 185, 328, 200
-0.998615, 265, 121, 328, 136
-0.998616, 161, 231, 224, 246
-0.998618, 209, 161, 272, 176
-0.998618, 169, 153, 232, 168
-0.998619, 161, 141, 224, 156
-0.998619, 265, 211, 328, 226
-0.99862, 201, 119, 264, 134
-0.99862, 169, 107, 232, 122
-0.998621, 337, 295, 400, 310
-0.998622, 73, 135, 136, 150
-0.998622, 337, 239, 400, 254
-0.998623, 241, 277, 304, 292
-0.998623, 385, 155, 448, 170
-0.998624, 169, 253, 232, 268
-0.998624, 377, 253, 440, 268
-0.998624, 241, 289, 304, 304
-0.998624, 417, 253, 480, 268
-0.998624, 297, 299, 360, 314
-0.998625, 233, 253, 296, 268
-0.998625, 17, 111, 80, 126
-0.998625, 169, 119, 232, 134
-0.998626, 49, 129, 112, 144
-0.998626, 337, 221, 400, 236
-0.998626, 305, 321, 368, 335
-0.998627, 353, 197, 416, 212
-0.998627, 401, 167, 464, 182
-0.998628, 345, 321, 408, 335
-0.998629, 169, 167, 232, 182
-0.99863, 433, 289, 496, 304
-0.99863, 337, 275, 400, 290
-0.99863, 329, 169, 392, 184
-0.99863, 249, 305, 312, 320
-0.99863, 177, 147, 240, 162
-0.99863, 201, 83, 264, 98
-0.998631, 17, 159, 80, 174
-0.998632, 113, 139, 176, 154
-0.998632, 337, 289, 400, 304
-0.998635, 105, 149, 168, 164
-0.998635, 233, 179, 296, 194
-0.998635, 425, 283, 488, 298
-0.998636, 73, 251, 136, 266
-0.998645, 269, 65, 300, 320
-0.998655, 353, 65, 384, 320
-0.998657, 49, 221, 176, 252
-0.998664, 337, 97, 352, 224
-0.998675, 149, 65, 180, 320
-0.998702, 281, 65, 312, 320
-0.998749, 385, 1, 448, 335
-0.998758, 321, 117, 448, 148
-0.998765, 347, 145, 362, 272
-0.998783, 327, 145, 342, 272
-0.998823, 289, 209, 304, 335
-0.998825, 317, 129, 332, 256
-0.998825, 337, 177, 352, 304
-0.998833, 311, 81, 326, 208
-0.998837, 97, 49, 128, 176
-0.99885, 235, 209, 250, 335
-0.998863, 329, 209, 344, 335
-0.99888, 295, 193, 310, 320
-0.998894, 307, 129, 322, 256
-0.998901, 341, 65, 372, 320
-0.99894, 27, 177, 42, 304
-0.998944, 173, 209, 188, 335
-0.998949, 359, 129, 374, 256
-0.998953, 281, 193, 296, 320
-0.998955, 325, 81, 340, 208
-0.998956, 247, 209, 262, 335
-0.998956, 433, 1, 496, 335
-0.998965, 287, 161, 302, 288
-0.998974, 269, 113, 284, 240
-0.998989, 331, 81, 346, 208
-0.998994, 365, 177, 380, 304
-0.998998, 353, 193, 368, 320
-0.999001, 317, 81, 332, 208
-0.999011, 319, 209, 334, 335
-0.999012, 359, 193, 374, 320
-0.999016, 343, 209, 358, 335
-0.999029, 181, 193, 196, 320
-0.999031, 215, 145, 230, 272
-0.999045, 309, 193, 324, 320
-0.999059, 49, 281, 176, 312
-0.999071, 193, 209, 208, 335
-0.999076, 189, 161, 204, 288
-0.999077, 305, 81, 320, 208
-0.999081, 301, 129, 316, 256
-0.999086, 197, 161, 212, 288
-0.999087, 39, 177, 54, 304
-0.999088, 193, 57, 320, 88
-0.99909, 301, 209, 316, 335
-0.999097, 241, 193, 256, 320
-0.999099, 223, 161, 238, 288
-0.999106, 211, 65, 226, 192
-0.999107, 213, 209, 228, 335
-0.999111, 263, 97, 278, 224
-0.999117, 223, 49, 238, 176
-0.999127, 461, 177, 476, 304
-0.999129, 209, 1, 336, 32
-0.99913, 203, 145, 218, 272
-0.999135, 229, 161, 244, 288
-0.999139, 205, 209, 220, 335
-0.999139, 229, 209, 244, 335
-0.999151, 239, 129, 254, 256
-0.99916, 365, 129, 380, 256
-0.999164, 219, 209, 234, 335
-0.99917, 167, 209, 182, 335
-0.999172, 259, 209, 274, 335
-0.999179, 209, 161, 224, 288
-0.99918, 479, 177, 494, 304
-0.99918, 253, 129, 268, 256
-0.999183, 65, 193, 80, 320
-0.999183, 187, 209, 202, 335
-0.999185, 467, 193, 482, 320
-0.999193, 253, 209, 268, 335
-0.999201, 249, 81, 264, 208
-0.99921, 107, 177, 122, 304
-0.999213, 199, 209, 214, 335
-0.999215, 277, 145, 292, 272
-0.999229, 97, 177, 112, 304
-0.99923, 353, 113, 368, 240
-0.999231, 161, 209, 176, 335
-0.999251, 189, 81, 204, 208
-0.999264, 197, 81, 212, 208
-0.999266, 299, 81, 314, 208
-0.999268, 33, 129, 48, 256
-0.999269, 317, 1, 332, 128
-0.99927, 217, 49, 232, 176
-0.999271, 451, 161, 466, 288
-0.999273, 205, 81, 220, 208
-0.999277, 145, 97, 160, 224
-0.999281, 263, 145, 278, 272
-0.999281, 371, 193, 386, 320
-0.999284, 247, 161, 262, 288
-0.999284, 97, 69, 224, 100
-0.999286, 1, 65, 32, 320
-0.999286, 183, 145, 198, 272
-0.999292, 119, 193, 134, 320
-0.999296, 95, 113, 110, 240
-0.999296, 131, 209, 146, 335
-0.999302, 293, 129, 308, 256
-0.999307, 275, 193, 290, 320
-0.999311, 371, 145, 386, 272
-0.999313, 43, 81, 58, 208
-0.999314, 51, 209, 66, 335
-0.999318, 137, 161, 152, 288
-0.999318, 103, 97, 118, 224
-0.999319, 473, 209, 488, 335
-0.999322, 155, 129, 170, 256
-0.999323, 343, 97, 358, 224
-0.999323, 125, 161, 140, 288
-0.99933, 439, 145, 454, 272
-0.999332, 181, 81, 196, 208
-0.999332, 269, 161, 284, 288
-0.999345, 33, 81, 48, 208
-0.999345, 229, 49, 244, 176
-0.999347, 49, 65, 64, 192
-0.999347, 379, 209, 394, 335
-0.999349, 21, 129, 36, 256
-0.999354, 485, 177, 500, 304
-0.999356, 33, 193, 48, 320
-0.999359, 243, 81, 258, 208
-0.99936, 115, 129, 130, 256
-0.999361, 67, 97, 82, 224
-0.999368, 161, 129, 176, 256
-0.999374, 411, 145, 426, 272
-0.999375, 445, 145, 460, 272
-0.999375, 137, 209, 152, 335
-0.999376, 255, 81, 270, 208
-0.999382, 321, 105, 448, 136
-0.999385, 417, 121, 480, 184
-0.999388, 113, 193, 128, 320
-0.999392, 45, 177, 60, 304
-0.999396, 225, 97, 240, 224
-0.999399, 155, 209, 170, 335
-0.999409, 421, 145, 436, 272
-0.999416, 437, 65, 468, 320
-0.999419, 79, 177, 94, 304
-0.999426, 27, 113, 42, 240
-0.999427, 175, 161, 190, 288
-0.99943, 145, 177, 160, 304
-0.999433, 409, 65, 440, 320
-0.999436, 33, 61, 160, 92
-0.999437, 91, 177, 106, 304
-0.999445, 219, 97, 234, 224
-0.999446, 257, 1, 384, 64
-0.999449, 135, 113, 150, 240
-0.999462, 401, 145, 416, 272
-0.999473, 57, 145, 72, 272
-0.999478, 155, 81, 170, 208
-0.999481, 109, 113, 124, 240
-0.999485, 125, 209, 140, 335
-0.999487, 73, 113, 88, 240
-0.999487, 433, 161, 448, 288
-0.99958, 473, 193, 488, 208
-0.99958, 333, 143, 348, 158
-0.999581, 349, 187, 364, 202
-0.999582, 285, 207, 300, 222
-0.999582, 131, 253, 146, 268
-0.999582, 329, 265, 344, 280
-0.999584, 337, 183, 352, 198
-0.999584, 351, 239, 366, 254
-0.999585, 261, 131, 276, 146
-0.999585, 335, 169, 350, 184
-0.999585, 251, 109, 266, 124
-0.999585, 47, 85, 62, 100
-0.999586, 329, 149, 344, 164
-0.999586, 233, 223, 248, 238
-0.999587, 373, 65, 404, 320
-0.999588, 287, 213, 302, 228
-0.999588, 163, 263, 178, 278
-0.999588, 21, 141, 36, 156
-0.999588, 257, 151, 272, 166
-0.999589, 361, 225, 376, 240
-0.99959, 377, 233, 392, 248
-0.99959, 227, 231, 242, 246
-0.999591, 337, 129, 352, 144
-0.999591, 213, 129, 228, 144
-0.999591, 335, 231, 350, 246
-0.999592, 365, 209, 380, 224
-0.999593, 355, 257, 370, 272
-0.999593, 201, 17, 232, 144
-0.999593, 303, 107, 318, 122
-0.999594, 343, 201, 358, 216
-0.999594, 33, 103, 48, 118
-0.999594, 1, 73, 128, 104
-0.999595, 345, 213, 360, 228
-0.999597, 341, 149, 356, 164
-0.9996, 385, 243, 400, 258
-0.999601, 369, 219, 384, 234
-0.999601, 221, 233, 236, 248
-0.999601, 317, 169, 332, 184
-0.999602, 361, 187, 376, 202
-0.999602, 99, 113, 114, 128
-0.999602, 251, 129, 266, 144
-0.999604, 439, 163, 454, 178
-0.999604, 241, 73, 256, 88
-0.999604, 347, 225, 362, 240
-0.999606, 189, 247, 204, 262
-0.999606, 445, 163, 460, 178
-0.999607, 267, 147, 282, 162
-0.999607, 329, 93, 344, 108
-0.999608, 327, 143, 342, 158
-0.999608, 295, 141, 310, 156
-0.999609, 207, 231, 222, 246
-0.999612, 345, 193, 360, 208
-0.999612, 317, 89, 332, 104
-0.999614, 195, 233, 210, 248
-0.999614, 425, 65, 456, 320
-0.999616, 333, 161, 348, 176
-0.999616, 227, 223, 242, 238
-0.999617, 323, 167, 338, 182
-0.999617, 359, 247, 374, 262
-0.999618, 347, 143, 362, 158
-0.999619, 331, 101, 346, 116
-0.999619, 219, 227, 234, 242
-0.99962, 347, 165, 362, 180
-0.99962, 311, 163, 326, 178
-0.99962, 325, 197, 340, 212
-0.999621, 351, 215, 366, 230
-0.999621, 167, 143, 182, 158
-0.999622, 177, 49, 208, 176
-0.999622, 363, 241, 378, 256
-0.999625, 367, 203, 382, 218
-0.999625, 173, 257, 188, 272
-0.999625, 361, 193, 376, 208
-0.999626, 349, 131, 364, 146
-0.999626, 359, 141, 374, 156
-0.999628, 371, 259, 386, 274
-0.999629, 215, 233, 230, 248
-0.999631, 49, 79, 64, 94
-0.999632, 347, 137, 362, 152
-0.999633, 373, 239, 388, 254
-0.999634, 323, 179, 338, 194
-0.999635, 241, 227, 256, 242
-0.999637, 343, 131, 358, 146
-0.999638, 309, 157, 324, 172
-0.999639, 57, 77, 72, 92
-0.99964, 315, 13, 330, 28
-0.99964, 205, 237, 220, 252
-0.999641, 329, 213, 344, 228
-0.999646, 343, 187, 358, 202
-0.999647, 337, 177, 352, 192
-0.999648, 315, 141, 330, 156
-0.999648, 353, 155, 368, 170
-0.999652, 195, 243, 210, 258
-0.999653, 339, 141, 354, 156
-0.999653, 233, 229, 248, 244
-0.999653, 325, 173, 340, 188
-0.999656, 379, 247, 394, 262
-0.999656, 307, 145, 322, 160
-0.999656, 333, 189, 348, 204
-0.999656, 305, 139, 320, 154
-0.999657, 357, 205, 372, 220
-0.999657, 353, 141, 368, 156
-0.999657, 373, 253, 388, 268
-0.999659, 317, 161, 332, 176
-0.99966, 433, 175, 448, 190
-0.99966, 183, 249, 198, 264
-0.99966, 355, 187, 370, 202
-0.999662, 339, 217, 354, 232
-0.999663, 333, 199, 348, 214
-0.999663, 331, 177, 346, 192
-0.999664, 355, 173, 370, 188
-0.999665, 325, 189, 340, 204
-0.999665, 353, 147, 368, 162
-0.999666, 1, 25, 128, 88
-0.999666, 355, 193, 370, 208
-0.99967, 351, 179, 366, 194
-0.999676, 343, 181, 358, 196
-0.999677, 329, 167, 344, 182
-0.99968, 327, 205, 342, 220
-0.999681, 319, 147, 334, 162
-0.999682, 257, 73, 500, 136
-0.999684, 349, 199, 364, 214
-0.999684, 355, 135, 370, 150
-0.999685, 347, 157, 362, 172
-0.999686, 355, 199, 370, 214
-0.999689, 339, 161, 354, 176
-0.999691, 339, 211, 354, 226
-0.999692, 337, 205, 352, 220
-0.999694, 225, 21, 352, 52
-0.999696, 317, 155, 332, 170
-0.999701, 323, 153, 338, 168
-0.999701, 327, 161, 342, 176
-0.999704, 345, 175, 360, 190
-0.999711, 339, 155, 354, 170
-0.999719, 347, 207, 362, 222
-0.999726, 309, 151, 324, 166
-0.999733, 331, 183, 346, 198
-0.999736, 347, 151, 362, 166
-0.999737, 465, 65, 496, 320
-0.99975, 329, 155, 344, 170
-0.999782, 289, 1, 416, 32
-0.999821, 289, 13, 416, 44
-0.999853, 1, 25, 256, 88
-0.999894, 449, 65, 480, 320
-0.999911, 193, 25, 448, 88
-0.999951, 1, 273, 128, 304
-0.999997, 281, 49, 312, 176
-1.00001, 393, 65, 424, 320
-1.00001, 33, 293, 160, 324
-1.00005, 225, 45, 352, 76
-1.00006, 353, 133, 480, 164
-1.00016, 261, 65, 292, 192
-1.00017, 145, 49, 272, 80
-1.00025, 161, 1, 416, 64
-1.00033, 161, 1, 224, 128
-1.00036, 1, 49, 128, 80
-1.0004, 273, 25, 400, 56
-1.00043, 329, 33, 392, 160
-1.00044, 369, 121, 496, 152
-1.00045, 313, 49, 376, 112
-1.00047, 1, 9, 128, 40
-1.0005, 33, 305, 160, 335
-1.00052, 257, 49, 500, 112
-1.00054, 1, 21, 128, 52
-1.00058, 129, 65, 160, 192
-1.00069, 289, 1, 416, 128
-1.00071, 97, 1, 352, 128
-1.00079, 17, 1, 144, 64
-1.00106, 1, 57, 500, 120
-1.00117, 257, 1, 500, 64
-1.00127, 1, 1, 256, 64
-1.00136, 145, 1, 272, 64
-1.00145, 81, 9, 208, 72
-1.0015, 185, 25, 248, 88
-1.00164, 273, 25, 400, 88
-1.00164, 341, 33, 372, 160
-1.00184, 1, 33, 500, 96
-1.00189, 97, 25, 352, 88
-1.002, 273, 49, 336, 112
-1.00221, 305, 1, 432, 64
-1.00229, 369, 81, 496, 144
-1.00231, 1, 1, 500, 64
-1.00268, 41, 33, 104, 96
-1.00274, 85, 49, 116, 176
-1.00288, 353, 25, 480, 88
-1.00288, 353, 49, 480, 112
-1.00291, 369, 1, 496, 64
-1.00297, 249, 1, 312, 64
-1.00297, 25, 1, 56, 128
-1.00298, 1, 1, 128, 128
-1.00315, 273, 25, 336, 88
-1.00368, 165, 33, 196, 160
-1.00379, 465, 97, 496, 224
-1.00435, 153, 33, 184, 160
-1.00444, 13, 1, 44, 128
-1.00456, 109, 33, 140, 160
-1.00515, 1, 1, 64, 128
-1.00528, 141, 33, 172, 160
-1.00528, 61, 1, 92, 128
-1.00541, 177, 1, 208, 128
-1.00552, 353, 49, 480, 176
-1.00625, 389, 65, 420, 192
-1.00641, 257, 17, 288, 144
-1.00645, 73, 17, 104, 144
-1.00667, 241, 1, 272, 128
-1.00682, 453, 81, 484, 208
-1.00685, 89, 1, 120, 128
-1.00696, 105, 17, 168, 144
-1.00711, 393, 65, 456, 192
-1.01012, 369, 1, 496, 128
-1.0116, 361, 49, 424, 176
-1.01292, 433, 65, 496, 192
-1.01458, 417, 17, 480, 144
-1.01478, 393, 1, 456, 128
-1.01513, 369, 1, 432, 128
