1116
-0.512511, 1, 1, 310, 139
-0.66416, 1, 1, 256, 139
-0.880945, 1, 1, 128, 139
-0.881183, 81, 1, 208, 139
-0.900888, 129, 1, 256, 139
-0.904887, 1, 1, 310, 128
-0.924512, 1, 17, 256, 139
-0.926168, 177, 1, 304, 139
-0.940338, 81, 17, 208, 139
-0.945499, 17, 17, 144, 139
-0.949845, 89, 17, 152, 139
-0.952539, 57, 17, 120, 139
-0.957436, 113, 17, 176, 139
-0.963083, 89, 33, 152, 96
-0.963155, 129, 17, 256, 139
-0.963615, 17, 49, 80, 112
-0.963961, 25, 1, 88, 128
-0.9648, 217, 73, 280, 136
-0.964972, 193, 65, 256, 128
-0.966815, 177, 1, 304, 128
-0.968589, 65, 33, 128, 96
-0.96879, 41, 41, 104, 104
-0.969345, 169, 17, 232, 139
-0.970188, 105, 65, 168, 128
-0.970191, 65, 73, 128, 136
-0.970677, 201, 17, 264, 139
-0.971195, 145, 33, 208, 96
-0.971446, 137, 17, 200, 139
-0.971606, 129, 57, 192, 120
-0.971974, 9, 25, 72, 88
-0.972842, 113, 17, 144, 139
-0.973084, 169, 57, 232, 120
-0.974759, 1, 17, 64, 139
-0.975961, 33, 33, 160, 96
-0.976018, 249, 1, 310, 128
-0.976516, 121, 25, 184, 88
-0.976723, 41, 17, 104, 80
-0.976802, 113, 57, 240, 120
-0.977382, 25, 1, 88, 139
-0.977439, 93, 17, 124, 139
-0.977822, 113, 65, 144, 128
-0.977863, 177, 73, 304, 136
-0.97796, 41, 73, 104, 136
-0.978095, 225, 17, 288, 139
-0.978285, 9, 73, 72, 136
-0.978647, 65, 49, 96, 112
-0.979168, 81, 33, 208, 96
-0.979243, 81, 9, 144, 72
-0.979345, 1, 65, 128, 128
-0.979672, 121, 1, 184, 139
-0.979968, 1, 41, 32, 104
-0.980251, 81, 1, 144, 139
-0.980602, 133, 57, 164, 120
-0.980868, 17, 49, 48, 112
-0.981353, 57, 1, 120, 139
-0.981639, 121, 1, 184, 64
-0.981884, 241, 73, 304, 136
-0.982285, 41, 41, 72, 104
-0.982458, 49, 57, 176, 120
-0.982496, 145, 1, 208, 139
-0.982787, 29, 49, 60, 112
-0.983261, 129, 1, 160, 128
-0.983539, 1, 1, 64, 64
-0.983663, 145, 9, 208, 72
-0.983773, 189, 73, 220, 136
-0.983871, 217, 49, 280, 112
-0.983903, 53, 33, 84, 96
-0.983994, 109, 41, 140, 104
-0.984278, 89, 33, 120, 96
-0.984344, 33, 9, 160, 72
-0.98456, 193, 41, 256, 104
-0.984656, 53, 65, 84, 128
-0.984847, 81, 9, 208, 72
-0.985496, 161, 49, 288, 112
-0.985514, 69, 1, 100, 128
-0.985577, 201, 57, 232, 120
-0.985698, 169, 33, 232, 96
-0.985969, 93, 73, 124, 136
-0.986137, 213, 65, 244, 128
-0.986373, 237, 73, 268, 136
-0.986541, 225, 65, 256, 128
-0.986713, 5, 65, 36, 128
-0.987111, 181, 49, 212, 112
-0.987223, 1, 1, 64, 139
-0.987683, 81, 17, 112, 139
-0.987868, 241, 49, 304, 112
-0.987877, 45, 1, 76, 128
-0.987977, 169, 1, 232, 139
-0.987999, 129, 25, 160, 88
-0.98807, 233, 1, 296, 139
-0.988087, 77, 49, 108, 112
-0.988178, 21, 25, 52, 88
-0.988219, 5, 17, 36, 139
-0.988319, 161, 73, 192, 136
-0.988458, 153, 33, 184, 96
-0.988711, 217, 85, 280, 116
-0.988771, 41, 73, 72, 136
-0.988837, 129, 9, 256, 72
-0.98893, 73, 25, 104, 88
-0.989001, 249, 73, 280, 136
-0.989119, 41, 45, 104, 76
-0.989119, 177, 17, 304, 80
-0.98925, 177, 93, 240, 124
-0.989386, 73, 73, 104, 136
-0.989627, 57, 1, 88, 128
-0.989631, 185, 17, 216, 139
-0.989743, 201, 97, 264, 128
-0.98998, 17, 53, 80, 84
-0.990036, 81, 37, 144, 68
-0.990106, 9, 33, 72, 64
-0.990129, 193, 77, 256, 108
-0.99013, 169, 41, 200, 104
-0.99014, 25, 1, 56, 128
-0.990159, 97, 77, 160, 108
-0.990183, 169, 81, 232, 112
-0.990204, 57, 33, 120, 64
-0.990349, 169, 17, 200, 139
-0.990437, 241, 85, 304, 116
-0.99051, 49, 73, 112, 104
-0.990627, 241, 9, 304, 72
-0.990642, 221, 17, 252, 139
-0.990746, 9, 73, 72, 104
-0.990751, 209, 1, 272, 139
-0.99077, 49, 9, 80, 72
-0.990779, 1, 57, 256, 120
-0.990871, 121, 37, 184, 68
-0.990899, 145, 57, 176, 120
-0.990931, 153, 93, 216, 124
-0.99096, 121, 61, 184, 92
-0.990992, 73, 57, 136, 88
-0.99101, 249, 1, 280, 128
-0.991109, 225, 97, 288, 128
-0.991124, 101, 17, 132, 80
-0.991153, 73, 89, 136, 120
-0.991222, 129, 77, 192, 108
-0.991235, 185, 9, 248, 72
-0.991259, 73, 77, 136, 108
-0.991304, 145, 45, 208, 76
-0.991312, 41, 61, 104, 92
-0.991315, 33, 33, 96, 64
-0.991326, 185, 65, 248, 96
-0.991336, 17, 85, 80, 116
-0.991408, 121, 25, 184, 56
-0.991415, 129, 89, 192, 120
-0.991582, 161, 57, 224, 88
-0.991609, 185, 109, 248, 139
-0.99165, 217, 73, 280, 104
-0.991718, 145, 105, 208, 136
-0.991769, 65, 21, 128, 52
-0.991777, 177, 73, 208, 136
-0.99186, 233, 17, 264, 139
-0.991987, 97, 93, 160, 124
-0.99201, 97, 21, 160, 52
-0.992054, 97, 65, 160, 96
-0.992148, 117, 17, 148, 80
-0.992199, 1, 33, 256, 96
-0.992224, 249, 97, 310, 128
-0.992241, 141, 33, 172, 96
-0.992294, 113, 77, 144, 108
-0.992317, 113, 105, 176, 136
-0.992323, 49, 97, 112, 128
-0.992357, 161, 85, 288, 116
-0.992375, 229, 81, 260, 112
-0.992395, 33, 17, 64, 80
-0.992425, 41, 21, 104, 52
-0.992457, 105, 49, 168, 80
-0.992477, 249, 85, 280, 116
-0.992483, 209, 93, 240, 124
-0.992509, 41, 85, 104, 116
-0.992515, 241, 69, 304, 100
-0.99252, 193, 97, 224, 128
-0.992564, 89, 105, 152, 136
-0.992582, 189, 85, 220, 116
-0.992607, 49, 41, 80, 72
-0.992653, 61, 41, 92, 72
-0.992664, 161, 69, 224, 100
-0.992692, 1, 97, 64, 128
-0.992721, 61, 61, 92, 92
-0.992723, 1, 65, 310, 128
-0.992736, 57, 73, 88, 104
-0.992751, 157, 1, 188, 128
-0.992752, 5, 73, 36, 104
-0.992767, 209, 77, 240, 108
-0.992789, 9, 21, 72, 52
-0.992823, 73, 45, 104, 76
-0.99285, 221, 97, 252, 128
-0.992864, 153, 25, 216, 56
-0.992904, 5, 53, 36, 84
-0.992915, 89, 9, 152, 40
-0.992921, 45, 77, 76, 108
-0.992931, 113, 65, 144, 96
-0.992932, 25, 97, 88, 128
-0.992944, 9, 41, 40, 72
-0.992953, 101, 77, 132, 108
-0.992961, 37, 49, 68, 80
-0.992971, 73, 73, 104, 104
-0.992976, 209, 109, 272, 139
-0.992997, 21, 37, 52, 68
-0.992999, 129, 81, 160, 112
-0.993004, 21, 57, 52, 88
-0.993015, 89, 81, 120, 112
-0.993019, 21, 73, 52, 136
-0.993024, 193, 61, 224, 92
-0.993026, 73, 33, 104, 64
-0.993028, 33, 33, 64, 64
-0.993036, 173, 97, 204, 128
-0.993047, 137, 61, 168, 92
-0.993053, 185, 37, 248, 68
-0.993059, 169, 81, 200, 112
-0.993068, 261, 97, 292, 128
-0.993073, 89, 37, 120, 68
-0.993077, 113, 37, 144, 68
-0.993089, 233, 93, 264, 124
-0.993109, 101, 37, 132, 68
-0.993118, 89, 69, 120, 100
-0.993147, 113, 89, 144, 120
-0.993162, 185, 53, 248, 84
-0.993163, 181, 49, 212, 80
-0.99317, 73, 57, 104, 88
-0.99317, 129, 13, 192, 44
-0.993173, 133, 33, 164, 64
-0.993202, 49, 109, 112, 139
-0.993205, 261, 85, 292, 116
-0.993209, 205, 65, 236, 96
-0.993222, 193, 73, 224, 104
-0.993234, 209, 105, 240, 136
-0.993235, 245, 97, 276, 128
-0.993237, 181, 73, 212, 104
-0.99324, 209, 1, 272, 32
-0.993245, 53, 29, 84, 60
-0.993256, 165, 41, 196, 72
-0.99326, 249, 13, 310, 44
-0.993267, 73, 85, 104, 116
-0.993273, 109, 25, 140, 56
-0.993276, 229, 69, 260, 100
-0.99328, 49, 53, 80, 84
-0.993283, 241, 73, 272, 104
-0.993287, 101, 89, 132, 120
-0.993287, 21, 85, 52, 116
-0.993287, 153, 41, 184, 72
-0.99329, 9, 17, 40, 80
-0.993296, 17, 73, 48, 104
-0.993298, 125, 57, 156, 88
-0.9933, 149, 57, 180, 88
-0.99332, 121, 105, 152, 136
-0.993327, 157, 77, 188, 108
-0.99334, 149, 1, 180, 64
-0.993346, 129, 21, 160, 52
-0.993349, 165, 61, 196, 92
-0.993349, 133, 93, 164, 124
-0.993352, 57, 85, 88, 116
-0.993353, 45, 65, 76, 96
-0.993373, 85, 25, 116, 56
-0.993378, 273, 93, 304, 124
-0.993383, 189, 109, 220, 139
-0.993398, 9, 109, 72, 139
-0.9934, 113, 1, 176, 32
-0.993401, 233, 109, 296, 139
-0.993402, 33, 61, 64, 92
-0.993403, 161, 93, 192, 124
-0.993419, 85, 53, 116, 84
-0.993423, 1, 93, 32, 124
-0.993462, 125, 69, 156, 100
-0.993464, 97, 21, 128, 52
-0.993466, 141, 73, 172, 104
-0.993469, 233, 105, 264, 136
-0.99347, 101, 65, 132, 96
-0.993495, 153, 29, 184, 60
-0.993504, 209, 61, 272, 92
-0.99351, 225, 17, 288, 48
-0.99351, 241, 37, 304, 68
-0.993521, 125, 45, 156, 76
-0.993526, 85, 93, 116, 124
-0.993529, 197, 17, 228, 139
-0.993533, 33, 73, 64, 104
-0.993537, 33, 89, 64, 120
-0.993543, 177, 61, 208, 92
-0.993545, 149, 109, 180, 139
-0.993549, 185, 1, 248, 32
-0.993554, 201, 13, 264, 44
-0.993556, 133, 109, 164, 139
-0.993559, 61, 97, 92, 128
-0.993561, 273, 81, 304, 112
-0.993562, 169, 109, 200, 139
-0.993581, 165, 29, 196, 60
-0.993603, 89, 9, 120, 72
-0.993606, 145, 97, 176, 128
-0.993608, 177, 37, 208, 68
-0.993608, 109, 101, 140, 132
-0.993615, 73, 17, 104, 48
-0.993619, 13, 97, 44, 128
-0.993627, 141, 17, 172, 48
-0.993628, 209, 49, 272, 80
-0.993632, 253, 73, 284, 104
-0.993637, 57, 1, 120, 32
-0.993639, 137, 1, 200, 32
-0.993655, 41, 21, 72, 52
-0.993657, 217, 65, 248, 96
-0.993659, 17, 25, 48, 56
-0.993662, 37, 105, 68, 136
-0.993664, 193, 49, 224, 80
-0.993671, 49, 101, 80, 132
-0.993675, 193, 37, 224, 68
-0.993686, 205, 53, 236, 84
-0.993696, 141, 45, 172, 76
-0.993716, 181, 25, 212, 56
-0.993726, 241, 1, 272, 32
-0.993733, 221, 109, 252, 139
-0.993736, 33, 5, 96, 36
-0.993746, 253, 13, 284, 44
-0.993747, 233, 1, 296, 32
-0.993753, 101, 53, 132, 84
-0.993753, 141, 1, 172, 32
-0.993757, 1, 1, 64, 32
-0.99377, 109, 13, 140, 44
-0.99377, 73, 97, 104, 128
-0.993771, 1, 25, 32, 56
-0.993774, 121, 1, 152, 32
-0.993775, 145, 85, 176, 116
-0.993778, 265, 37, 296, 68
-0.993779, 29, 21, 60, 52
-0.993789, 53, 17, 84, 48
-0.993814, 85, 1, 116, 32
-0.993815, 25, 105, 56, 136
-0.993819, 161, 1, 224, 32
-0.993828, 245, 29, 276, 60
-0.993839, 45, 89, 76, 120
-0.993839, 245, 109, 276, 139
-0.993842, 265, 9, 296, 40
-0.993845, 97, 1, 128, 32
-0.993845, 277, 33, 308, 64
-0.993852, 229, 1, 260, 32
-0.993855, 185, 25, 248, 56
-0.993908, 233, 49, 296, 80
-0.99397, 249, 25, 310, 56
-0.994002, 217, 33, 280, 64
-0.994022, 161, 13, 224, 44
-0.99404, 261, 73, 292, 136
-0.994073, 97, 81, 224, 112
-0.994208, 49, 37, 176, 68
-0.994259, 73, 1, 104, 64
-0.99427, 141, 17, 172, 139
-0.994467, 229, 41, 260, 104
-0.994646, 113, 93, 240, 124
-0.994808, 1, 37, 128, 68
-0.994977, 181, 25, 212, 88
-0.995052, 161, 97, 288, 128
-0.99507, 137, 1, 168, 64
-0.995136, 129, 73, 144, 136
-0.995142, 129, 69, 256, 100
-0.995273, 193, 25, 224, 88
-0.995294, 273, 73, 304, 136
-0.995319, 65, 9, 310, 72
-0.995328, 209, 17, 240, 139
-0.995505, 217, 17, 280, 80
-0.995524, 109, 73, 124, 136
-0.995554, 17, 49, 32, 112
-0.995556, 1, 41, 310, 104
-0.995577, 273, 1, 304, 128
-0.995625, 1, 73, 128, 104
-0.995737, 1, 53, 128, 84
-0.995845, 33, 93, 160, 124
-0.995896, 11, 33, 26, 96
-0.995969, 113, 105, 240, 136
-0.995974, 261, 1, 292, 128
-0.996019, 123, 73, 138, 136
-0.996025, 81, 69, 208, 100
-0.996038, 69, 49, 84, 112
-0.996051, 23, 57, 38, 120
-0.996101, 77, 49, 92, 112
-0.996108, 117, 57, 132, 120
-0.996166, 253, 49, 284, 112
-0.996253, 97, 57, 224, 88
-0.996309, 241, 49, 272, 112
-0.996323, 49, 57, 176, 88
-0.996414, 135, 49, 150, 112
-0.996432, 47, 41, 62, 104
-0.996432, 213, 65, 228, 128
-0.996442, 103, 73, 118, 136
-0.996499, 135, 73, 150, 136
-0.996504, 111, 33, 126, 96
-0.996563, 177, 73, 304, 104
-0.9966, 97, 37, 224, 68
-0.996618, 245, 73, 260, 136
-0.996622, 33, 25, 160, 56
-0.996665, 201, 57, 216, 120
-0.996686, 125, 41, 140, 104
-0.996721, 83, 57, 98, 120
-0.996722, 49, 81, 176, 112
-0.996748, 191, 73, 206, 136
-0.996758, 149, 57, 164, 120
-0.996821, 7, 57, 22, 120
-0.996843, 207, 65, 222, 128
-0.996852, 81, 25, 208, 56
-0.996883, 147, 33, 162, 96
-0.996903, 33, 49, 48, 112
-0.996927, 57, 41, 72, 104
-0.996985, 155, 57, 170, 120
-0.996987, 77, 25, 92, 88
-0.997024, 195, 49, 210, 112
-0.99703, 103, 33, 118, 96
-0.997032, 41, 49, 56, 112
-0.997038, 33, 105, 160, 136
-0.997039, 269, 1, 300, 64
-0.997073, 63, 41, 78, 104
-0.997095, 189, 49, 204, 112
-0.997097, 157, 25, 172, 88
-0.997116, 227, 65, 242, 128
-0.99719, 17, 73, 32, 136
-0.997212, 87, 25, 102, 88
-0.997213, 183, 41, 198, 104
-0.997225, 237, 65, 252, 128
-0.997255, 185, 73, 200, 136
-0.997277, 59, 65, 74, 128
-0.997284, 221, 73, 236, 136
-0.997323, 53, 65, 68, 128
-0.99733, 5, 33, 20, 96
-0.997342, 117, 33, 132, 96
-0.99735, 93, 33, 108, 96
-0.997353, 125, 77, 140, 108
-0.997371, 89, 73, 104, 136
-0.997398, 213, 41, 244, 104
-0.997403, 109, 77, 124, 108
-0.997427, 1, 1, 310, 64
-0.997451, 215, 93, 230, 124
-0.997453, 175, 73, 190, 136
-0.99746, 251, 73, 266, 136
-0.99746, 75, 73, 90, 136
-0.997466, 243, 81, 258, 112
-0.997478, 207, 97, 222, 128
-0.997498, 53, 1, 84, 139
-0.997572, 99, 1, 114, 64
-0.997583, 61, 9, 92, 72
-0.997594, 39, 25, 54, 88
-0.997595, 235, 77, 250, 108
-0.997658, 227, 85, 242, 116
-0.997663, 141, 57, 156, 120
-0.997672, 17, 13, 144, 44
-0.997693, 201, 93, 216, 124
-0.997713, 185, 81, 200, 112
-0.997714, 221, 93, 236, 124
-0.997757, 97, 57, 112, 120
-0.997763, 117, 77, 132, 108
-0.997772, 141, 25, 156, 88
-0.997777, 89, 1, 120, 139
-0.997778, 49, 9, 64, 72
-0.997782, 261, 73, 276, 136
-0.99779, 131, 17, 146, 80
-0.997791, 165, 33, 180, 96
-0.997793, 23, 25, 38, 88
-0.997803, 69, 73, 84, 136
-0.997814, 163, 73, 178, 136
-0.997834, 249, 81, 264, 112
-0.99784, 177, 109, 304, 139
-0.997844, 71, 25, 86, 88
-0.997851, 145, 53, 272, 84
-0.997856, 11, 41, 26, 72
-0.997861, 273, 73, 288, 136
-0.997887, 173, 33, 188, 96
-0.997891, 105, 1, 120, 64
-0.997891, 113, 1, 144, 139
-0.997894, 65, 1, 96, 139
-0.997901, 133, 1, 164, 139
-0.99792, 213, 81, 228, 112
-0.997924, 9, 1, 24, 64
-0.997925, 117, 65, 132, 96
-0.997948, 17, 53, 32, 84
-0.997948, 1, 65, 16, 128
-0.997966, 93, 9, 108, 72
-0.998, 61, 37, 76, 68
-0.998012, 117, 1, 132, 64
-0.99802, 53, 45, 68, 76
-0.998029, 233, 89, 248, 120
-0.998045, 77, 45, 92, 76
-0.998046, 123, 1, 138, 64
-0.998056, 81, 73, 96, 104
-0.998058, 43, 73, 58, 136
-0.998072, 11, 69, 26, 100
-0.998079, 249, 9, 280, 72
-0.998087, 41, 1, 72, 139
-0.99809, 191, 81, 206, 112
-0.998093, 263, 85, 278, 116
-0.998097, 197, 81, 212, 112
-0.998097, 153, 1, 184, 139
-0.9981, 177, 41, 304, 72
-0.998105, 147, 9, 162, 72
-0.998116, 243, 93, 258, 124
-0.998118, 49, 33, 64, 64
-0.998127, 193, 25, 208, 88
-0.998133, 67, 41, 82, 72
-0.998139, 271, 93, 286, 124
-0.998143, 245, 49, 260, 112
-0.99815, 75, 61, 90, 92
-0.998164, 37, 73, 52, 136
-0.998166, 65, 17, 80, 80
-0.998185, 207, 85, 222, 116
-0.998186, 17, 73, 32, 104
-0.998194, 65, 13, 192, 44
-0.998203, 173, 1, 204, 139
-0.998206, 59, 9, 74, 72
-0.998208, 179, 97, 194, 128
-0.998218, 221, 77, 236, 108
-0.998224, 153, 1, 168, 64
-0.998227, 255, 85, 270, 116
-0.998227, 249, 93, 264, 124
-0.998241, 75, 33, 90, 64
-0.998255, 59, 73, 74, 104
-0.998255, 225, 111, 256, 126
-0.998256, 113, 67, 144, 82
-0.998257, 149, 33, 180, 48
-0.998261, 177, 101, 208, 116
-0.998262, 265, 103, 296, 118
-0.998262, 101, 99, 132, 114
-0.998263, 137, 55, 168, 70
-0.998264, 145, 119, 176, 134
-0.998266, 89, 69, 120, 84
-0.998267, 169, 17, 200, 80
-0.998268, 161, 67, 192, 82
-0.998269, 23, 61, 38, 92
-0.998269, 253, 81, 284, 96
-0.99827, 129, 99, 160, 114
-0.998271, 1, 93, 32, 108
-0.998272, 213, 115, 244, 130
-0.998275, 135, 77, 150, 108
-0.998276, 85, 57, 116, 72
-0.998276, 169, 107, 200, 122
-0.998277, 93, 31, 124, 46
-0.998278, 89, 45, 120, 60
-0.998278, 117, 43, 148, 58
-0.998278, 21, 71, 52, 86
-0.998279, 73, 31, 104, 46
-0.998281, 193, 115, 224, 130
-0.998282, 165, 81, 196, 96
-0.998283, 117, 107, 148, 122
-0.998284, 209, 67, 240, 82
-0.998285, 227, 97, 242, 128
-0.998287, 23, 37, 38, 68
-0.99829, 273, 91, 304, 106
-0.998291, 45, 71, 76, 86
-0.998294, 69, 85, 100, 100
-0.998296, 5, 73, 20, 104
-0.998296, 117, 97, 148, 112
-0.998296, 169, 113, 200, 128
-0.998296, 113, 73, 144, 88
-0.998297, 117, 31, 148, 46
-0.998297, 85, 91, 116, 106
-0.998298, 149, 61, 164, 92
-0.998301, 45, 83, 76, 98
-0.998304, 57, 83, 88, 98
-0.998306, 9, 87, 40, 102
-0.998309, 133, 93, 164, 108
-0.998317, 165, 89, 196, 104
-0.998318, 81, 51, 112, 66
-0.998318, 17, 39, 48, 54
-0.998318, 181, 85, 212, 100
-0.998323, 21, 45, 52, 60
-0.998327, 175, 81, 190, 112
-0.998331, 197, 109, 228, 124
-0.998335, 45, 65, 76, 80
-0.998336, 189, 61, 220, 76
-0.998337, 81, 33, 96, 64
-0.998338, 97, 91, 128, 106
-0.998339, 119, 89, 134, 120
-0.99834, 33, 41, 64, 56
-0.998341, 133, 31, 164, 46
-0.998342, 121, 79, 152, 94
-0.998345, 145, 39, 176, 54
-0.998345, 1, 69, 32, 84
-0.998346, 9, 59, 40, 74
-0.998346, 133, 77, 164, 92
-0.998347, 73, 65, 104, 80
-0.998347, 137, 61, 168, 76
-0.998347, 161, 95, 192, 110
-0.998349, 41, 35, 72, 50
-0.998349, 149, 69, 180, 84
-0.998349, 69, 61, 84, 92
-0.99835, 225, 105, 256, 120
-0.998354, 21, 87, 52, 102
-0.998355, 125, 59, 156, 74
-0.998356, 155, 57, 170, 88
-0.998356, 181, 55, 212, 70
-0.998358, 149, 61, 180, 76
-0.998358, 133, 83, 164, 98
-0.998358, 85, 75, 116, 90
-0.998359, 97, 79, 128, 94
-0.99836, 83, 45, 98, 76
-0.998361, 73, 57, 104, 72
-0.998364, 173, 69, 204, 84
-0.998364, 195, 57, 210, 88
-0.998367, 73, 43, 104, 58
-0.998368, 73, 37, 104, 52
-0.998369, 105, 85, 136, 100
-0.998369, 219, 49, 234, 112
-0.99837, 261, 89, 292, 104
-0.99837, 169, 47, 200, 62
-0.998371, 41, 77, 72, 92
-0.998371, 267, 73, 282, 136
-0.998375, 269, 97, 300, 112
-0.998377, 29, 57, 60, 72
-0.998377, 241, 99, 272, 114
-0.998378, 177, 75, 208, 90
-0.998379, 113, 91, 144, 106
-0.998381, 105, 41, 136, 56
-0.998383, 61, 63, 92, 78
-0.998384, 229, 73, 244, 104
-0.998385, 161, 75, 192, 90
-0.998385, 61, 43, 92, 58
-0.998388, 47, 49, 62, 80
-0.998389, 253, 49, 268, 112
-0.998389, 229, 75, 260, 90
-0.998391, 103, 77, 118, 108
-0.998391, 111, 65, 126, 96
-0.998391, 89, 37, 120, 52
-0.998393, 1, 81, 32, 96
-0.998393, 5, 53, 36, 68
-0.998394, 5, 43, 36, 58
-0.998394, 197, 67, 228, 82
-0.998396, 157, 41, 188, 56
-0.998396, 85, 83, 116, 98
-0.998399, 13, 1, 44, 139
-0.9984, 213, 109, 244, 124
-0.998403, 213, 101, 244, 116
-0.998403, 43, 33, 58, 64
-0.998404, 127, 93, 142, 124
-0.998404, 105, 35, 136, 50
-0.998404, 253, 99, 284, 114
-0.998405, 173, 95, 204, 110
-0.998407, 53, 49, 84, 64
-0.998408, 17, 25, 32, 88
-0.998409, 69, 73, 100, 88
-0.998414, 21, 51, 52, 66
-0.998415, 241, 81, 272, 96
-0.998416, 55, 33, 70, 64
-0.998416, 129, 37, 160, 52
-0.998418, 117, 85, 148, 100
-0.998418, 207, 65, 222, 96
-0.998421, 93, 33, 108, 64
-0.998422, 111, 9, 126, 72
-0.998426, 117, 37, 148, 52
-0.998426, 73, 79, 104, 94
-0.998427, 29, 1, 60, 139
-0.998434, 5, 75, 36, 90
-0.998436, 209, 73, 240, 88
-0.998437, 61, 37, 92, 52
-0.998443, 189, 101, 220, 116
-0.998443, 41, 55, 72, 70
-0.998443, 225, 91, 288, 106
-0.998444, 193, 95, 256, 110
-0.998446, 249, 93, 280, 108
-0.998447, 197, 95, 228, 110
-0.998448, 117, 37, 132, 68
-0.998449, 197, 77, 228, 92
-0.998455, 193, 89, 224, 104
-0.998455, 201, 103, 232, 118
-0.998456, 57, 77, 88, 92
-0.998461, 201, 33, 216, 96
-0.998461, 41, 51, 104, 66
-0.998465, 201, 61, 216, 92
-0.998467, 201, 81, 264, 96
-0.998467, 185, 93, 200, 124
-0.998468, 213, 87, 244, 102
-0.99847, 69, 49, 100, 64
-0.998476, 229, 99, 260, 114
-0.99848, 249, 87, 280, 102
-0.99848, 123, 65, 138, 96
-0.998484, 163, 1, 178, 64
-0.998485, 41, 49, 72, 64
-0.998488, 209, 79, 240, 94
-0.99849, 185, 49, 200, 80
-0.998491, 61, 55, 92, 70
-0.998492, 169, 73, 184, 136
-0.998498, 65, 37, 128, 52
-0.998499, 169, 95, 232, 110
-0.9985, 97, 81, 160, 96
-0.9985, 49, 43, 80, 58
-0.998502, 63, 53, 78, 84
-0.998507, 237, 91, 268, 106
-0.998507, 191, 97, 206, 128
-0.998508, 11, 53, 26, 84
-0.998509, 177, 75, 240, 90
-0.998509, 113, 37, 176, 52
-0.99851, 105, 37, 120, 68
-0.99851, 177, 101, 240, 116
-0.998514, 57, 71, 88, 86
-0.998519, 225, 89, 256, 104
-0.99852, 193, 89, 256, 104
-0.998521, 225, 85, 288, 100
-0.998524, 225, 99, 288, 114
-0.998524, 1, 43, 64, 58
-0.998535, 41, 45, 104, 60
-0.998542, 75, 77, 90, 108
-0.998543, 109, 79, 140, 94
-0.998544, 53, 73, 68, 104
-0.998548, 41, 53, 56, 84
-0.998548, 9, 37, 72, 52
-0.998549, 113, 1, 240, 32
-0.99855, 17, 51, 80, 66
-0.998552, 87, 73, 102, 104
-0.998552, 229, 81, 260, 96
-0.998553, 85, 1, 100, 64
-0.998554, 123, 25, 138, 56
-0.998554, 127, 37, 142, 68
-0.998555, 17, 73, 80, 88
-0.998556, 89, 37, 152, 52
-0.998562, 73, 79, 136, 94
-0.998565, 145, 95, 208, 110
-0.99858, 169, 89, 232, 104
-0.998581, 33, 57, 96, 72
-0.998582, 129, 75, 192, 90
-0.998583, 1, 59, 64, 74
-0.998587, 201, 101, 264, 116
-0.998588, 111, 29, 126, 60
-0.998591, 253, 1, 284, 139
-0.998592, 49, 75, 112, 90
-0.998595, 225, 79, 288, 94
-0.998598, 41, 39, 104, 54
-0.998599, 169, 69, 232, 84
-0.9986, 201, 75, 264, 90
-0.998601, 265, 97, 280, 128
-0.998602, 65, 49, 128, 64
-0.998602, 185, 95, 216, 110
-0.998606, 209, 95, 240, 110
-0.998606, 81, 91, 144, 106
-0.998607, 145, 25, 272, 56
-0.99861, 129, 89, 192, 104
-0.998611, 5, 61, 20, 92
-0.998613, 73, 73, 136, 88
-0.998613, 249, 87, 310, 102
-0.998614, 81, 43, 144, 58
-0.99862, 33, 81, 96, 96
-0.998624, 185, 109, 248, 124
-0.998626, 277, 93, 292, 124
-0.998628, 227, 41, 242, 104
-0.998632, 145, 81, 208, 96
-0.998634, 129, 43, 192, 58
-0.998635, 57, 57, 120, 72
-0.998639, 153, 75, 216, 90
-0.99864, 145, 49, 208, 64
-0.998641, 269, 81, 284, 112
-0.998642, 17, 65, 80, 80
-0.998646, 1, 79, 64, 94
-0.998646, 81, 57, 96, 88
-0.998647, 121, 69, 184, 84
-0.998649, 105, 59, 168, 74
-0.99865, 177, 81, 240, 96
-0.998652, 65, 73, 80, 104
-0.998652, 105, 75, 168, 90
-0.998653, 249, 97, 310, 112
-0.998654, 57, 85, 120, 100
-0.998655, 201, 69, 264, 84
-0.998657, 213, 69, 228, 100
-0.998661, 185, 115, 248, 130
-0.998662, 161, 59, 224, 74
-0.998662, 97, 31, 160, 46
-0.998664, 153, 101, 216, 116
-0.998665, 1, 87, 64, 102
-0.998666, 249, 81, 310, 96
-0.998668, 49, 65, 112, 80
-0.998668, 137, 115, 200, 130
-0.998669, 23, 73, 38, 104
-0.998669, 73, 65, 136, 80
-0.99867, 145, 67, 208, 82
-0.998671, 157, 37, 172, 68
-0.998671, 25, 49, 40, 80
-0.998671, 137, 59, 200, 74
-0.998672, 129, 31, 192, 46
-0.998672, 105, 89, 168, 104
-0.998674, 121, 95, 184, 110
-0.998676, 145, 109, 208, 124
-0.99868, 65, 31, 128, 46
-0.998682, 121, 83, 184, 98
-0.998683, 81, 55, 144, 70
-0.998683, 89, 97, 152, 112
-0.998686, 33, 1, 160, 32
-0.998688, 97, 109, 160, 124
-0.998689, 37, 41, 52, 72
-0.998689, 97, 65, 160, 80
-0.998689, 89, 49, 152, 64
-0.99869, 209, 107, 272, 122
-0.998691, 57, 95, 120, 110
-0.998693, 187, 69, 202, 100
-0.998695, 17, 41, 32, 72
-0.998697, 57, 61, 72, 92
-0.998698, 121, 101, 184, 116
-0.9987, 89, 103, 152, 118
-0.998702, 241, 69, 256, 100
-0.998703, 113, 115, 176, 130
-0.998703, 41, 33, 104, 48
-0.998705, 33, 87, 96, 102
-0.998706, 99, 89, 114, 120
-0.998708, 137, 121, 200, 136
-0.998708, 105, 43, 168, 58
-0.998711, 97, 123, 160, 138
-0.998711, 77, 1, 108, 139
-0.998711, 9, 95, 72, 110
-0.998715, 169, 39, 232, 54
-0.998716, 25, 103, 88, 118
-0.998716, 161, 1, 288, 32
-0.998716, 185, 45, 248, 60
-0.998719, 249, 103, 310, 118
-0.998725, 225, 73, 288, 88
-0.998726, 49, 101, 112, 116
-0.998726, 3, 1, 18, 64
-0.998728, 145, 37, 208, 52
-0.998729, 201, 63, 264, 78
-0.998729, 89, 15, 152, 30
-0.998729, 237, 101, 252, 132
-0.998729, 169, 51, 232, 66
-0.998734, 213, 41, 228, 104
-0.998736, 17, 31, 80, 46
-0.998738, 185, 1, 216, 139
-0.998739, 217, 105, 232, 136
-0.998742, 153, 31, 216, 46
-0.998742, 129, 19, 192, 34
-0.998743, 49, 107, 112, 122
-0.998747, 177, 121, 240, 136
-0.998748, 233, 109, 296, 124
-0.998748, 121, 107, 184, 122
-0.998748, 121, 53, 184, 68
-0.99875, 1, 105, 64, 120
-0.998751, 135, 89, 150, 120
-0.998752, 101, 1, 132, 139
-0.998755, 97, 9, 160, 24
-0.998755, 33, 95, 96, 110
-0.998755, 209, 113, 272, 128
-0.998756, 161, 115, 224, 130
-0.998757, 97, 25, 160, 40
-0.998757, 87, 89, 102, 120
-0.998758, 193, 53, 256, 68
-0.99876, 173, 41, 188, 72
-0.998761, 25, 109, 88, 124
-0.998762, 41, 27, 104, 42
-0.998765, 41, 15, 104, 30
-0.998766, 129, 13, 192, 28
-0.998767, 209, 11, 272, 26
-0.998768, 11, 81, 26, 112
-0.99877, 125, 17, 140, 139
-0.998774, 249, 75, 310, 90
-0.998774, 133, 37, 148, 68
-0.998777, 109, 89, 124, 120
-0.998777, 143, 57, 158, 88
-0.998778, 65, 7, 128, 22
-0.998778, 65, 15, 128, 30
-0.998778, 249, 17, 310, 32
-0.998778, 1, 17, 64, 32
-0.998778, 233, 49, 296, 64
-0.998779, 41, 21, 104, 36
-0.99878, 9, 115, 72, 130
-0.998781, 193, 19, 256, 34
-0.998782, 129, 25, 192, 40
-0.998783, 1, 25, 64, 40
-0.998783, 49, 113, 112, 128
-0.998783, 87, 33, 102, 64
-0.998783, 249, 43, 310, 58
-0.998784, 1, 9, 64, 24
-0.998785, 21, 85, 36, 116
-0.998789, 179, 45, 194, 76
-0.998795, 161, 77, 176, 108
-0.998795, 193, 69, 208, 100
-0.998796, 87, 57, 102, 88
-0.998807, 79, 1, 94, 64
-0.998809, 31, 41, 46, 72
-0.998809, 99, 33, 114, 64
-0.998811, 29, 73, 44, 136
-0.998818, 147, 41, 162, 72
-0.998818, 267, 1, 282, 64
-0.99883, 183, 17, 198, 80
-0.998834, 43, 1, 58, 64
-0.998839, 97, 77, 112, 108
-0.998845, 33, 25, 48, 88
-0.998845, 281, 65, 296, 128
-0.998846, 129, 13, 256, 44
-0.998855, 237, 41, 252, 104
-0.99886, 67, 29, 82, 60
-0.998866, 117, 25, 132, 56
-0.998867, 47, 65, 62, 96
-0.998872, 119, 17, 134, 139
-0.998878, 259, 97, 274, 128
-0.998879, 5, 89, 20, 120
-0.998884, 181, 69, 196, 100
-0.998889, 135, 65, 150, 96
-0.998901, 77, 89, 92, 120
-0.998905, 33, 53, 48, 84
-0.998908, 157, 93, 172, 124
-0.998911, 113, 17, 128, 139
-0.998938, 175, 69, 190, 100
-0.998939, 167, 77, 182, 108
-0.998944, 101, 21, 116, 52
-0.998945, 111, 41, 126, 72
-0.998951, 255, 73, 270, 104
-0.998958, 47, 77, 62, 108
-0.998964, 177, 13, 304, 44
-0.99897, 273, 1, 288, 64
-0.998972, 247, 69, 262, 100
-0.998975, 155, 73, 170, 104
-0.998976, 57, 85, 72, 116
-0.998986, 19, 1, 34, 64
-0.998991, 1, 1, 32, 139
-0.998997, 283, 1, 298, 64
-0.999013, 207, 41, 222, 104
-0.999015, 261, 1, 276, 64
-0.999034, 251, 9, 266, 72
-0.999035, 107, 17, 122, 139
-0.999062, 21, 1, 52, 64
-0.999075, 263, 49, 278, 112
-0.9991, 101, 17, 116, 139
-0.999102, 141, 1, 156, 64
-0.99911, 131, 17, 146, 139
-0.999112, 241, 1, 272, 139
-0.999121, 173, 9, 188, 72
-0.99917, 265, 1, 296, 139
-0.999186, 95, 17, 110, 139
-0.999226, 205, 1, 236, 139
-0.999244, 229, 1, 260, 139
-0.999253, 289, 1, 304, 64
-0.999263, 271, 49, 286, 112
-0.999354, 71, 1, 86, 64
-0.999362, 73, 1, 88, 128
-0.99939, 11, 17, 26, 139
-0.999399, 37, 1, 52, 64
-0.999405, 53, 1, 68, 128
-0.999411, 85, 1, 100, 128
-0.999436, 251, 1, 266, 128
-0.999479, 79, 17, 94, 139
-0.999484, 47, 1, 62, 128
-0.999498, 17, 17, 32, 139
-0.9995, 243, 17, 258, 139
-0.999502, 59, 1, 74, 128
-0.999505, 137, 17, 152, 139
-0.999505, 5, 17, 20, 139
-0.999509, 35, 1, 50, 128
-0.999513, 281, 1, 310, 64
-0.999513, 179, 17, 194, 139
-0.999514, 109, 33, 124, 48
-0.999514, 77, 61, 92, 76
-0.999516, 165, 69, 180, 84
-0.999517, 235, 73, 250, 88
-0.999517, 223, 105, 238, 120
-0.999517, 157, 57, 172, 72
-0.999517, 137, 77, 152, 92
-0.999518, 233, 1, 248, 128
-0.99952, 111, 91, 126, 106
-0.999521, 137, 83, 152, 98
-0.999523, 5, 81, 20, 96
-0.999524, 69, 79, 84, 94
-0.999524, 7, 67, 22, 82
-0.999524, 163, 75, 178, 90
-0.999524, 249, 79, 264, 94
-0.999525, 155, 39, 170, 54
-0.999525, 67, 17, 82, 139
-0.999527, 21, 57, 36, 72
-0.999527, 19, 39, 34, 54
-0.999527, 99, 83, 114, 98
-0.999528, 165, 41, 180, 56
-0.99953, 23, 51, 38, 66
-0.99953, 175, 73, 190, 88
-0.999531, 121, 41, 136, 56
-0.999531, 81, 83, 96, 98
-0.999532, 135, 33, 150, 48
-0.999533, 69, 57, 84, 72
-0.999533, 185, 17, 200, 139
-0.999534, 255, 97, 270, 112
-0.999534, 51, 41, 66, 56
-0.999535, 215, 87, 230, 102
-0.999536, 103, 37, 118, 52
-0.999537, 191, 89, 206, 104
-0.999537, 209, 89, 224, 104
-0.999538, 85, 77, 100, 92
-0.999539, 115, 69, 130, 84
-0.99954, 15, 55, 30, 70
-0.999542, 53, 75, 68, 90
-0.999542, 75, 37, 90, 52
-0.999542, 191, 77, 206, 92
-0.999542, 185, 75, 200, 90
-0.999543, 219, 71, 234, 86
-0.999543, 229, 105, 244, 120
-0.999544, 165, 1, 180, 128
-0.999544, 95, 37, 110, 52
-0.999548, 133, 39, 148, 54
-0.999548, 207, 73, 222, 88
-0.999548, 63, 55, 78, 70
-0.999549, 205, 79, 220, 94
-0.999549, 83, 57, 98, 72
-0.99955, 5, 75, 20, 90
-0.999553, 191, 55, 206, 70
-0.999553, 125, 75, 140, 90
-0.999554, 229, 75, 244, 90
-0.999554, 131, 81, 146, 96
-0.999555, 69, 51, 84, 66
-0.999555, 249, 99, 264, 114
-0.999555, 169, 75, 184, 90
-0.999556, 23, 1, 38, 128
-0.999557, 17, 73, 32, 88
-0.999557, 217, 103, 232, 118
-0.999557, 145, 59, 160, 74
-0.999558, 125, 93, 140, 108
-0.999558, 201, 63, 216, 78
-0.99956, 109, 39, 124, 54
-0.99956, 201, 73, 216, 88
-0.99956, 115, 35, 130, 50
-0.999561, 197, 87, 212, 102
-0.999564, 255, 91, 270, 106
-0.999565, 173, 45, 188, 60
-0.999569, 13, 49, 28, 64
-0.999569, 69, 65, 84, 80
-0.999569, 41, 17, 56, 139
-0.999571, 187, 99, 202, 114
-0.999571, 69, 37, 84, 52
-0.999572, 267, 99, 282, 114
-0.999573, 261, 95, 276, 110
-0.999574, 75, 55, 90, 70
-0.999575, 289, 33, 304, 96
-0.999575, 181, 99, 196, 114
-0.999575, 119, 75, 134, 90
-0.999575, 191, 1, 206, 128
-0.999577, 73, 45, 88, 60
-0.999577, 267, 89, 282, 104
-0.999579, 179, 93, 194, 108
-0.999581, 215, 17, 230, 139
-0.999581, 39, 55, 54, 70
-0.999582, 257, 1, 272, 128
-0.999583, 61, 65, 76, 80
-0.999587, 121, 35, 136, 50
-0.999589, 207, 17, 222, 139
-0.99959, 75, 67, 90, 82
-0.99959, 257, 85, 272, 100
-0.999591, 47, 49, 62, 64
-0.999593, 215, 109, 230, 124
-0.999594, 109, 85, 124, 100
-0.999598, 81, 51, 96, 66
-0.999599, 75, 79, 90, 94
-0.999599, 185, 51, 200, 66
-0.999601, 211, 79, 226, 94
-0.999603, 179, 47, 194, 62
-0.999604, 209, 67, 224, 82
-0.999604, 53, 49, 68, 64
-0.999606, 211, 103, 226, 118
-0.999606, 69, 71, 84, 86
-0.999608, 11, 73, 26, 88
-0.999612, 227, 95, 242, 110
-0.999614, 173, 17, 188, 139
-0.999615, 63, 41, 78, 56
-0.999616, 269, 1, 284, 128
-0.999616, 203, 89, 218, 104
-0.999616, 227, 17, 242, 139
-0.999618, 57, 43, 72, 58
-0.999619, 217, 81, 232, 96
-0.999619, 221, 87, 236, 102
-0.99962, 79, 73, 94, 88
-0.999623, 219, 95, 234, 110
-0.999623, 117, 91, 132, 106
-0.999625, 127, 37, 142, 52
-0.999627, 237, 99, 252, 114
-0.999629, 243, 97, 258, 112
-0.99963, 9, 41, 24, 56
-0.999631, 59, 73, 74, 88
-0.999632, 151, 61, 166, 76
-0.999634, 239, 81, 254, 96
-0.999636, 213, 73, 228, 88
-0.999636, 125, 87, 140, 102
-0.999637, 263, 1, 278, 128
-0.999637, 205, 103, 220, 118
-0.999645, 283, 25, 298, 88
-0.99965, 273, 95, 288, 110
-0.999652, 197, 17, 212, 139
-0.999653, 249, 91, 264, 106
-0.999656, 235, 91, 250, 106
-0.999656, 29, 17, 44, 139
-0.999656, 223, 77, 238, 92
-0.999657, 265, 49, 296, 112
-0.999657, 247, 85, 262, 100
-0.999664, 231, 81, 246, 96
-0.999677, 189, 1, 204, 64
-0.999677, 229, 89, 244, 104
-0.999678, 195, 95, 210, 110
-0.999678, 243, 91, 258, 106
-0.999681, 119, 81, 134, 96
-0.999681, 295, 33, 310, 96
-0.999692, 221, 25, 236, 88
-0.999693, 213, 95, 228, 110
-0.999696, 109, 79, 124, 94
-0.999697, 125, 81, 140, 96
-0.999702, 295, 1, 310, 64
-0.999703, 145, 1, 160, 128
-0.999705, 275, 1, 290, 128
-0.999715, 201, 97, 216, 112
-0.999718, 185, 93, 200, 108
-0.999718, 295, 57, 310, 120
-0.999719, 159, 1, 174, 128
-0.999726, 207, 95, 222, 110
-0.999736, 245, 9, 260, 72
-0.999748, 237, 9, 252, 72
-0.999762, 221, 17, 236, 139
-0.999768, 277, 1, 308, 139
-0.99979, 153, 17, 168, 139
-0.999796, 281, 1, 296, 128
-0.99983, 289, 57, 304, 120
-0.999862, 277, 41, 292, 104
-0.999862, 293, 1, 308, 128
-0.999885, 287, 1, 302, 128
-0.999918, 231, 9, 246, 72
-0.999925, 199, 9, 214, 72
-0.99994, 217, 1, 248, 139
-0.99998, 207, 17, 222, 80
-0.999988, 225, 1, 240, 64
-1.00017, 215, 17, 230, 80
-1.0002, 31, 1, 46, 64
-1.00022, 261, 25, 276, 88
-1.00155, 277, 49, 308, 112
-1.00155, 237, 9, 268, 72
-1.00161, 181, 1, 212, 64
-1.00219, 277, 25, 308, 88
-1.00237, 221, 1, 252, 64
-1.00371, 205, 9, 236, 72
-1.00399, 193, 1, 224, 64
-1.00433, 265, 25, 296, 88
