1983
-0.164493, 1, 1, 500, 395
-0.342349, 1, 129, 500, 384
-0.351478, 1, 1, 500, 256
-0.363264, 161, 1, 416, 395
-0.402927, 257, 1, 500, 395
-0.482743, 1, 1, 256, 395
-0.53748, 225, 1, 480, 256
-0.54435, 97, 65, 352, 320
-0.629507, 257, 97, 500, 352
-0.664255, 1, 129, 256, 384
-0.692198, 1, 33, 256, 288
-0.838418, 177, 1, 304, 395
-0.840508, 97, 129, 224, 384
-0.842246, 257, 1, 384, 256
-0.84394, 177, 129, 304, 384
-0.844187, 209, 1, 336, 256
-0.844193, 289, 1, 416, 395
-0.846935, 161, 1, 288, 256
-0.851197, 97, 1, 224, 256
-0.861178, 65, 1, 192, 395
-0.861258, 337, 65, 464, 320
-0.865827, 1, 33, 500, 160
-0.866256, 257, 129, 384, 384
-0.869265, 225, 1, 352, 395
-0.871934, 337, 1, 464, 395
-0.8818, 1, 113, 500, 240
-0.882085, 1, 161, 500, 288
-0.882954, 113, 1, 240, 395
-0.883029, 1, 225, 500, 352
-0.884913, 1, 273, 500, 395
-0.896927, 257, 17, 500, 144
-0.903499, 49, 33, 176, 288
-0.90503, 49, 129, 176, 384
-0.905058, 161, 65, 416, 192
-0.907712, 97, 161, 352, 288
-0.91267, 1, 209, 256, 336
-0.916207, 65, 17, 320, 144
-0.916311, 161, 17, 416, 144
-0.917065, 65, 65, 320, 192
-0.917583, 97, 209, 352, 336
-0.918033, 257, 81, 500, 208
-0.918164, 257, 33, 320, 160
-0.918325, 257, 257, 500, 384
-0.921049, 257, 1, 384, 128
-0.921131, 209, 33, 336, 160
-0.9213, 97, 257, 352, 384
-0.924605, 97, 177, 224, 304
-0.925039, 257, 193, 500, 320
-0.925876, 193, 81, 320, 208
-0.928653, 1, 161, 256, 288
-0.928717, 193, 1, 256, 128
-0.929993, 1, 129, 128, 384
-0.930188, 17, 1, 144, 395
-0.930448, 33, 113, 288, 240
-0.931095, 129, 113, 384, 240
-0.931323, 313, 1, 376, 128
-0.932341, 113, 1, 240, 128
-0.932477, 257, 49, 384, 176
-0.933439, 217, 65, 280, 192
-0.933467, 97, 113, 224, 240
-0.934086, 1, 257, 256, 384
-0.934475, 273, 81, 336, 208
-0.936465, 177, 145, 304, 272
-0.937801, 65, 177, 128, 304
-0.93851, 433, 257, 496, 384
-0.939259, 145, 113, 208, 240
-0.940666, 105, 161, 168, 288
-0.941678, 113, 65, 176, 192
-0.941889, 145, 81, 272, 208
-0.942072, 337, 1, 464, 128
-0.942268, 121, 17, 184, 144
-0.942842, 273, 33, 336, 96
-0.943109, 257, 129, 500, 256
-0.943377, 273, 65, 336, 128
-0.943698, 281, 1, 344, 128
-0.944044, 249, 129, 312, 256
-0.944086, 217, 17, 280, 144
-0.944173, 289, 97, 416, 224
-0.944253, 241, 113, 368, 240
-0.944469, 161, 33, 288, 160
-0.946327, 401, 225, 464, 352
-0.946381, 185, 145, 248, 272
-0.947068, 273, 113, 336, 176
-0.947959, 65, 49, 192, 176
-0.948448, 161, 49, 224, 176
-0.949474, 409, 273, 472, 395
-0.950158, 65, 257, 128, 384
-0.950263, 209, 73, 272, 136
-0.950459, 297, 49, 360, 176
-0.950528, 305, 33, 368, 96
-0.950624, 145, 161, 208, 288
-0.950681, 369, 225, 496, 352
-0.950753, 337, 97, 464, 224
-0.951645, 177, 225, 304, 352
-0.951863, 305, 49, 432, 176
-0.951867, 249, 49, 312, 112
-0.952048, 97, 257, 224, 384
-0.952061, 377, 97, 440, 224
-0.952131, 353, 97, 416, 224
-0.95264, 169, 1, 232, 128
-0.953059, 273, 193, 400, 320
-0.953414, 241, 81, 304, 208
-0.953659, 177, 97, 240, 224
-0.957039, 297, 97, 360, 224
-0.957103, 1, 273, 128, 395
-0.957633, 17, 193, 144, 320
-0.95779, 305, 1, 368, 64
-0.958053, 65, 185, 128, 248
-0.958108, 377, 257, 440, 384
-0.958371, 433, 281, 496, 344
-0.958789, 105, 161, 168, 224
-0.959081, 65, 1, 192, 128
-0.959424, 265, 1, 328, 256
-0.959452, 249, 153, 312, 216
-0.959489, 321, 257, 448, 384
-0.959854, 273, 9, 336, 72
-0.960195, 273, 273, 400, 395
-0.96024, 273, 129, 336, 256
-0.960404, 49, 145, 176, 272
-0.960993, 81, 113, 144, 240
-0.961031, 105, 113, 168, 240
-0.961075, 185, 49, 248, 176
-0.96115, 297, 33, 328, 160
-0.961346, 297, 145, 360, 272
-0.96147, 145, 169, 208, 232
-0.961692, 145, 137, 208, 200
-0.961816, 177, 153, 240, 216
-0.961833, 41, 257, 104, 384
-0.961948, 433, 209, 496, 336
-0.962207, 265, 89, 328, 152
-0.96227, 273, 137, 336, 200
-0.962875, 249, 25, 312, 88
-0.963009, 81, 145, 144, 208
-0.963067, 433, 257, 496, 320
-0.963098, 233, 121, 296, 184
-0.963109, 97, 17, 160, 144
-0.963178, 249, 1, 312, 64
-0.963282, 377, 17, 440, 144
-0.963477, 17, 81, 144, 208
-0.963478, 225, 41, 288, 104
-0.963664, 145, 1, 208, 128
-0.963866, 185, 49, 248, 112
-0.964026, 73, 305, 136, 368
-0.96406, 1, 33, 128, 288
-0.964598, 177, 273, 304, 395
-0.964602, 297, 33, 328, 96
-0.964837, 337, 145, 464, 272
-0.964898, 241, 97, 304, 160
-0.964981, 277, 33, 308, 160
-0.96509, 241, 1, 304, 256
-0.965383, 369, 105, 432, 168
-0.965776, 409, 273, 472, 336
-0.965976, 393, 177, 456, 304
-0.966137, 321, 49, 384, 176
-0.96624, 113, 65, 176, 128
-0.966352, 49, 241, 176, 368
-0.966518, 277, 33, 308, 96
-0.966589, 81, 329, 144, 392
-0.966818, 121, 25, 184, 88
-0.966922, 65, 241, 128, 304
-0.967028, 393, 297, 456, 360
-0.967035, 225, 161, 352, 288
-0.967419, 257, 33, 384, 96
-0.967426, 177, 9, 240, 72
-0.967565, 73, 65, 136, 192
-0.967804, 153, 1, 216, 64
-0.967975, 281, 193, 344, 320
-0.968308, 121, 129, 184, 192
-0.968324, 145, 193, 208, 256
-0.968324, 417, 313, 480, 376
-0.968515, 305, 89, 368, 152
-0.968543, 345, 97, 408, 160
-0.968558, 345, 49, 408, 176
-0.968615, 177, 1, 240, 256
-0.968715, 353, 241, 416, 368
-0.968732, 309, 17, 340, 144
-0.968785, 193, 81, 320, 144
-0.968809, 113, 1, 176, 256
-0.969053, 353, 177, 416, 304
-0.96935, 161, 89, 224, 152
-0.969822, 225, 9, 288, 72
-0.969989, 241, 73, 304, 136
-0.969999, 65, 281, 128, 344
-0.970068, 353, 49, 480, 176
-0.970173, 257, 65, 384, 128
-0.970219, 137, 65, 200, 192
-0.970253, 41, 257, 104, 320
-0.970331, 81, 65, 144, 128
-0.970378, 281, 257, 344, 384
-0.970379, 369, 65, 432, 128
-0.970384, 257, 33, 288, 160
-0.970429, 89, 273, 152, 395
-0.970486, 313, 33, 344, 96
-0.970528, 65, 209, 128, 272
-0.970688, 269, 129, 300, 192
-0.970838, 289, 145, 416, 272
-0.971024, 97, 169, 224, 232
-0.971037, 209, 41, 336, 104
-0.97107, 289, 1, 352, 256
-0.971616, 329, 33, 392, 96
-0.97167, 185, 257, 248, 384
-0.971845, 105, 185, 168, 248
-0.97204, 97, 193, 224, 256
-0.972131, 177, 105, 304, 168
-0.972149, 293, 81, 324, 208
-0.972156, 445, 241, 476, 368
-0.97218, 249, 321, 312, 384
-0.972237, 113, 129, 240, 192
-0.972315, 361, 265, 424, 328
-0.972376, 177, 129, 240, 384
-0.97241, 161, 65, 224, 128
-0.972427, 257, 9, 384, 72
-0.972468, 105, 209, 168, 336
-0.972664, 161, 113, 224, 176
-0.972906, 297, 65, 328, 128
-0.973024, 265, 49, 296, 112
-0.973083, 245, 17, 276, 144
-0.973136, 281, 121, 312, 184
-0.973195, 133, 1, 164, 128
-0.973351, 329, 129, 392, 192
-0.973394, 329, 193, 392, 320
-0.973397, 197, 1, 228, 128
-0.973429, 233, 1, 264, 128
-0.973574, 153, 33, 216, 288
-0.973614, 97, 41, 160, 104
-0.973638, 321, 57, 384, 120
-0.973646, 289, 97, 416, 160
-0.973676, 33, 233, 96, 296
-0.973772, 257, 81, 288, 208
-0.973877, 9, 241, 72, 368
-0.973931, 409, 233, 472, 296
-0.974016, 177, 153, 304, 216
-0.974059, 377, 129, 440, 192
-0.974066, 273, 97, 336, 352
-0.974174, 377, 97, 440, 352
-0.974209, 321, 193, 448, 320
-0.974295, 297, 105, 328, 168
-0.974314, 225, 209, 352, 336
-0.974326, 177, 129, 304, 192
-0.974334, 249, 129, 312, 384
-0.974342, 217, 1, 248, 128
-0.974413, 201, 9, 264, 72
-0.974539, 185, 209, 248, 336
-0.974668, 105, 129, 168, 384
-0.97476, 113, 9, 240, 72
-0.974779, 329, 153, 392, 216
-0.974787, 329, 113, 392, 240
-0.974803, 41, 209, 104, 336
-0.974873, 241, 257, 304, 384
-0.97492, 201, 1, 264, 256
-0.974938, 369, 273, 496, 395
-0.975114, 337, 17, 464, 80
-0.975116, 361, 153, 424, 216
-0.97514, 121, 1, 184, 64
-0.975147, 185, 73, 248, 136
-0.975154, 337, 241, 400, 304
-0.975187, 97, 121, 160, 184
-0.975221, 341, 1, 372, 64
-0.975291, 277, 65, 308, 128
-0.975357, 189, 1, 220, 64
-0.975472, 305, 81, 336, 208
-0.975519, 209, 113, 272, 240
-0.975527, 297, 113, 360, 176
-0.975576, 329, 1, 392, 64
-0.975598, 353, 129, 416, 192
-0.975815, 281, 257, 344, 320
-0.975836, 73, 105, 136, 168
-0.975939, 201, 137, 264, 200
-0.975973, 277, 113, 308, 240
-0.976015, 57, 73, 120, 136
-0.976058, 113, 97, 176, 160
-0.976072, 201, 97, 264, 160
-0.976124, 465, 257, 496, 384
-0.976381, 249, 1, 280, 64
-0.976402, 225, 257, 352, 384
-0.976402, 461, 281, 492, 344
-0.976503, 241, 121, 368, 184
-0.976572, 1, 249, 64, 312
-0.976691, 81, 129, 144, 384
-0.976722, 277, 9, 308, 72
-0.977045, 313, 1, 376, 256
-0.977073, 453, 249, 484, 312
-0.977079, 353, 65, 416, 320
-0.977144, 189, 161, 220, 224
-0.977162, 433, 161, 496, 288
-0.977178, 97, 289, 224, 352
-0.977365, 153, 137, 184, 200
-0.977393, 177, 1, 304, 64
-0.977434, 145, 1, 176, 128
-0.977494, 161, 41, 288, 104
-0.977523, 433, 217, 496, 280
-0.977556, 337, 57, 464, 120
-0.977583, 297, 145, 360, 208
-0.977591, 49, 153, 176, 216
-0.977606, 201, 49, 232, 112
-0.977696, 217, 49, 248, 176
-0.977772, 289, 169, 352, 232
-0.977786, 145, 33, 208, 96
-0.977789, 265, 105, 296, 168
-0.977863, 17, 233, 144, 296
-0.977886, 273, 233, 336, 296
-0.977964, 185, 233, 248, 296
-0.978118, 97, 233, 224, 296
-0.978143, 433, 273, 464, 336
-0.978177, 321, 17, 352, 144
-0.978293, 369, 249, 496, 312
-0.978319, 113, 49, 240, 112
-0.978351, 313, 1, 344, 64
-0.978412, 213, 81, 244, 144
-0.978443, 345, 1, 376, 128
-0.978542, 469, 257, 500, 320
-0.978557, 177, 297, 240, 360
-0.978676, 245, 65, 276, 192
-0.978703, 289, 9, 320, 72
-0.978752, 433, 273, 464, 395
-0.978805, 17, 193, 144, 256
-0.978942, 253, 49, 284, 112
-0.978965, 449, 273, 480, 336
-0.978987, 257, 1, 320, 395
-0.97903, 105, 321, 136, 384
-0.979031, 193, 113, 224, 240
-0.979052, 89, 281, 152, 344
-0.979064, 345, 73, 408, 136
-0.979088, 369, 297, 496, 360
-0.979089, 89, 1, 152, 256
-0.979149, 257, 193, 320, 320
-0.979161, 153, 113, 184, 240
-0.979288, 145, 81, 272, 144
-0.979319, 377, 97, 408, 224
-0.979344, 369, 41, 432, 104
-0.979361, 57, 153, 120, 216
-0.97938, 177, 329, 240, 392
-0.979386, 145, 129, 208, 384
-0.979401, 241, 97, 368, 160
-0.979413, 105, 145, 136, 208
-0.979427, 409, 33, 472, 160
-0.97943, 273, 233, 400, 296
-0.979447, 277, 89, 308, 152
-0.979471, 81, 81, 208, 144
-0.979492, 257, 137, 288, 200
-0.979521, 17, 265, 144, 328
-0.979523, 377, 105, 408, 168
-0.979653, 337, 1, 400, 128
-0.979661, 337, 273, 464, 336
-0.979713, 137, 65, 200, 128
-0.979829, 297, 57, 360, 120
-0.979882, 237, 73, 268, 136
-0.979889, 337, 25, 368, 88
-0.979902, 41, 281, 104, 344
-0.97991, 69, 273, 100, 336
-0.979971, 165, 113, 196, 240
-0.980136, 97, 289, 128, 352
-0.980152, 393, 89, 456, 152
-0.980227, 49, 305, 112, 368
-0.980267, 393, 193, 456, 256
-0.980297, 141, 49, 172, 176
-0.980366, 85, 121, 116, 184
-0.980419, 377, 1, 440, 256
-0.980432, 117, 145, 148, 272
-0.980459, 105, 233, 168, 296
-0.98046, 337, 105, 464, 168
-0.980466, 201, 17, 232, 80
-0.980484, 193, 161, 224, 288
-0.980512, 97, 313, 224, 376
-0.980628, 225, 145, 288, 208
-0.980649, 265, 17, 296, 80
-0.980722, 241, 145, 368, 208
-0.980755, 65, 105, 192, 168
-0.980774, 57, 129, 120, 384
-0.980778, 101, 273, 132, 395
-0.98081, 177, 217, 304, 280
-0.98081, 385, 257, 448, 320
-0.98086, 57, 329, 120, 392
-0.980877, 97, 129, 128, 256
-0.980901, 337, 265, 400, 328
-0.980931, 225, 33, 256, 96
-0.980972, 185, 1, 248, 395
-0.981015, 133, 169, 164, 232
-0.98103, 309, 89, 340, 152
-0.981069, 429, 305, 460, 368
-0.981074, 185, 209, 248, 272
-0.981142, 385, 153, 448, 216
-0.98121, 97, 257, 224, 320
-0.981224, 393, 113, 424, 176
-0.981272, 233, 65, 264, 192
-0.981277, 137, 145, 168, 208
-0.981284, 253, 89, 284, 152
-0.981289, 61, 249, 92, 312
-0.981308, 173, 161, 204, 288
-0.981374, 89, 1, 152, 64
-0.981405, 77, 161, 108, 288
-0.981531, 265, 129, 296, 256
-0.981582, 113, 1, 176, 395
-0.981612, 317, 57, 348, 120
-0.981612, 193, 129, 224, 192
-0.981636, 141, 129, 172, 256
-0.981642, 353, 9, 416, 72
-0.981657, 65, 33, 128, 288
-0.981664, 393, 329, 456, 392
-0.981672, 117, 153, 148, 216
-0.981713, 49, 129, 112, 192
-0.981766, 361, 241, 424, 304
-0.981796, 65, 129, 192, 192
-0.981813, 145, 257, 208, 384
-0.981829, 97, 121, 128, 184
-0.981837, 97, 305, 160, 368
-0.981922, 273, 265, 400, 328
-0.981926, 301, 9, 332, 72
-0.982009, 153, 209, 216, 336
-0.982179, 77, 153, 108, 216
-0.982182, 65, 57, 192, 120
-0.982186, 289, 145, 416, 208
-0.982191, 265, 73, 296, 136
-0.982203, 177, 289, 304, 352
-0.982213, 33, 329, 160, 392
-0.982217, 205, 81, 236, 208
-0.982245, 361, 185, 424, 248
-0.982376, 313, 265, 376, 328
-0.982393, 433, 193, 496, 256
-0.982457, 129, 25, 160, 88
-0.98248, 225, 73, 256, 136
-0.982518, 121, 1, 152, 128
-0.982542, 337, 81, 464, 144
-0.982686, 153, 49, 184, 176
-0.982687, 257, 177, 320, 240
-0.982735, 401, 81, 464, 208
-0.982927, 201, 129, 264, 384
-0.98297, 305, 193, 368, 320
-0.983029, 429, 225, 460, 352
-0.983059, 49, 97, 112, 160
-0.983064, 417, 305, 448, 368
-0.983178, 225, 129, 288, 384
-0.983186, 89, 265, 120, 328
-0.983265, 277, 153, 308, 216
-0.98328, 85, 65, 116, 192
-0.983321, 89, 153, 120, 216
-0.983405, 105, 209, 168, 272
-0.983416, 105, 329, 168, 392
-0.983428, 289, 1, 352, 395
-0.983452, 33, 297, 160, 360
-0.983456, 337, 129, 464, 192
-0.983476, 145, 249, 208, 312
-0.983539, 361, 81, 392, 208
-0.983541, 377, 17, 440, 80
-0.983733, 113, 105, 240, 168
-0.983825, 353, 41, 384, 104
-0.983831, 441, 297, 472, 360
-0.983835, 161, 161, 192, 224
-0.983876, 1, 145, 128, 272
-0.98388, 177, 273, 240, 336
-0.983897, 145, 305, 208, 368
-0.98391, 297, 97, 360, 352
-0.983926, 325, 1, 356, 64
-0.983945, 353, 17, 384, 80
-0.984018, 97, 193, 128, 256
-0.984069, 273, 209, 336, 272
-0.984076, 225, 329, 288, 392
-0.984121, 353, 225, 480, 288
-0.984125, 225, 161, 288, 288
-0.984215, 137, 97, 200, 160
-0.984216, 217, 273, 280, 395
-0.984231, 273, 169, 400, 232
-0.984262, 393, 113, 424, 240
-0.984295, 361, 81, 392, 144
-0.984334, 241, 41, 272, 104
-0.984417, 469, 313, 500, 376
-0.984424, 17, 33, 144, 160
-0.984432, 273, 201, 400, 264
-0.984446, 325, 25, 356, 88
-0.984465, 249, 241, 312, 304
-0.98448, 109, 209, 140, 336
-0.984506, 177, 241, 304, 304
-0.984506, 421, 329, 452, 392
-0.984507, 165, 33, 196, 160
-0.984591, 145, 65, 176, 128
-0.984596, 85, 329, 116, 392
-0.984675, 41, 161, 104, 288
-0.984681, 253, 25, 284, 88
-0.984722, 421, 273, 452, 395
-0.984726, 193, 329, 320, 392
-0.984785, 405, 113, 436, 240
-0.984797, 113, 65, 144, 128
-0.9848, 209, 129, 240, 256
-0.984866, 233, 1, 296, 395
-0.984886, 61, 241, 92, 368
-0.98489, 317, 81, 348, 208
-0.985016, 209, 137, 240, 200
-0.985056, 153, 1, 216, 395
-0.985078, 129, 1, 160, 64
-0.985096, 321, 1, 384, 395
-0.985136, 409, 121, 440, 184
-0.985139, 69, 185, 100, 248
-0.985158, 329, 185, 392, 248
-0.98516, 385, 257, 416, 384
-0.985168, 89, 1, 152, 395
-0.985176, 113, 65, 144, 192
-0.985207, 177, 185, 304, 248
-0.985241, 297, 193, 360, 256
-0.985262, 333, 1, 364, 128
-0.985273, 329, 241, 392, 368
-0.985341, 77, 273, 108, 395
-0.985372, 153, 113, 184, 176
-0.985398, 185, 185, 248, 248
-0.985404, 401, 97, 464, 352
-0.985534, 49, 97, 112, 224
-0.985597, 57, 193, 88, 320
-0.985624, 353, 185, 480, 248
-0.985625, 73, 17, 136, 144
-0.985629, 185, 1, 216, 128
-0.985633, 9, 273, 72, 336
-0.985711, 181, 137, 212, 200
-0.985712, 225, 169, 352, 232
-0.985729, 361, 209, 424, 272
-0.985754, 281, 281, 344, 344
-0.985828, 213, 49, 244, 112
-0.985878, 345, 1, 408, 395
-0.985892, 129, 97, 160, 224
-0.985896, 97, 81, 128, 208
-0.985897, 273, 321, 304, 384
-0.985946, 281, 305, 344, 368
-0.985988, 85, 65, 116, 128
-0.986, 77, 297, 108, 360
-0.986103, 65, 33, 192, 96
-0.986139, 141, 17, 172, 80
-0.986209, 305, 129, 336, 256
-0.986246, 177, 265, 304, 328
-0.986249, 85, 113, 116, 240
-0.986254, 365, 241, 396, 304
-0.986317, 469, 209, 500, 336
-0.986332, 145, 169, 176, 232
-0.986343, 401, 129, 464, 256
-0.986493, 45, 241, 76, 304
-0.986525, 1, 193, 64, 320
-0.98653, 337, 161, 464, 224
-0.986572, 181, 25, 212, 88
-0.986594, 433, 129, 496, 384
-0.986657, 441, 249, 472, 312
-0.986662, 253, 113, 284, 176
-0.986694, 189, 289, 220, 352
-0.986716, 17, 57, 144, 120
-0.986738, 385, 1, 448, 395
-0.986757, 201, 97, 232, 160
-0.986772, 409, 257, 440, 384
-0.986901, 49, 49, 112, 176
-0.986927, 181, 113, 212, 240
-0.986952, 345, 265, 376, 328
-0.987165, 177, 193, 208, 256
-0.987278, 93, 225, 124, 352
-0.987279, 265, 41, 328, 72
-0.987288, 289, 193, 320, 320
-0.987366, 193, 233, 224, 296
-0.987401, 165, 121, 196, 184
-0.987424, 309, 113, 340, 176
-0.98748, 233, 9, 264, 72
-0.98754, 253, 129, 284, 256
-0.987566, 145, 329, 272, 392
-0.987627, 173, 169, 204, 232
-0.987656, 429, 233, 460, 296
-0.98768, 401, 49, 432, 176
-0.987705, 65, 1, 128, 395
-0.98771, 333, 265, 364, 328
-0.987726, 365, 105, 396, 168
-0.987813, 213, 9, 244, 72
-0.98785, 401, 89, 432, 152
-0.987888, 17, 129, 144, 192
-0.987895, 289, 121, 416, 184
-0.987917, 305, 33, 368, 64
-0.987971, 357, 1, 388, 128
-0.988037, 257, 33, 500, 96
-0.988071, 257, 313, 384, 376
-0.988077, 377, 257, 408, 320
-0.988101, 457, 209, 488, 336
-0.988104, 285, 233, 316, 296
-0.988143, 177, 1, 208, 64
-0.988174, 125, 49, 156, 176
-0.988183, 349, 209, 380, 336
-0.988185, 273, 29, 336, 60
-0.988193, 189, 209, 220, 336
-0.988203, 365, 209, 396, 336
-0.98825, 373, 73, 404, 136
-0.988299, 65, 1, 192, 64
-0.988326, 277, 161, 308, 288
-0.988391, 273, 57, 336, 88
-0.988418, 273, 257, 304, 384
-0.988446, 17, 97, 144, 160
-0.988485, 109, 121, 140, 184
-0.988501, 225, 193, 352, 256
-0.988511, 153, 1, 184, 64
-0.98854, 221, 113, 252, 240
-0.988566, 321, 89, 352, 152
-0.988625, 409, 1, 472, 256
-0.98863, 353, 329, 480, 392
-0.988689, 225, 57, 480, 120
-0.988697, 109, 233, 140, 296
-0.98873, 305, 257, 368, 384
-0.988766, 401, 193, 432, 320
-0.988786, 93, 177, 124, 304
-0.988796, 209, 1, 272, 395
-0.988829, 297, 145, 328, 208
-0.988843, 361, 145, 392, 208
-0.988867, 249, 69, 312, 100
-0.988882, 57, 225, 88, 288
-0.988883, 189, 65, 220, 192
-0.988907, 373, 33, 404, 160
-0.988921, 469, 233, 500, 296
-0.988961, 353, 233, 384, 296
-0.988989, 113, 41, 144, 104
-0.988992, 241, 49, 304, 80
-0.989123, 125, 49, 156, 112
-0.989142, 109, 1, 140, 64
-0.989147, 141, 177, 172, 304
-0.989161, 241, 33, 304, 64
-0.989166, 417, 129, 448, 256
-0.989257, 273, 121, 336, 152
-0.989277, 209, 81, 272, 112
-0.989301, 273, 141, 336, 172
-0.989303, 217, 37, 280, 68
-0.989356, 273, 69, 336, 100
-0.989382, 97, 73, 128, 136
-0.989397, 289, 273, 320, 395
-0.989435, 189, 257, 220, 384
-0.989461, 389, 145, 420, 208
-0.989496, 377, 129, 408, 192
-0.989497, 349, 161, 380, 288
-0.989543, 265, 81, 328, 112
-0.989554, 417, 301, 480, 332
-0.989559, 225, 241, 352, 304
-0.989592, 321, 249, 448, 312
-0.989631, 77, 97, 108, 160
-0.989632, 241, 17, 304, 48
-0.989649, 289, 45, 352, 76
-0.989661, 137, 177, 200, 208
-0.989717, 145, 193, 208, 224
-0.989722, 337, 137, 368, 200
-0.989745, 49, 265, 80, 328
-0.989821, 249, 157, 312, 188
-0.989856, 1, 97, 64, 224
-0.989869, 161, 81, 416, 144
-0.989893, 433, 329, 464, 392
-0.989893, 161, 33, 416, 96
-0.989902, 105, 177, 168, 208
-0.989917, 101, 169, 132, 232
-0.989946, 313, 17, 376, 48
-0.989947, 193, 61, 256, 92
-0.989968, 273, 289, 400, 352
-0.989986, 261, 329, 292, 392
-0.98999, 265, 101, 328, 132
-0.989997, 349, 49, 380, 176
-0.99, 73, 193, 136, 224
-0.990003, 381, 177, 412, 304
-0.990003, 425, 177, 456, 304
-0.990023, 137, 161, 200, 192
-0.990044, 337, 129, 368, 256
-0.990045, 129, 161, 384, 224
-0.990053, 177, 73, 240, 104
-0.990103, 185, 17, 248, 48
-0.990122, 113, 65, 176, 96
-0.990123, 365, 129, 396, 256
-0.990123, 369, 113, 432, 144
-0.990144, 425, 289, 488, 320
-0.990158, 217, 53, 280, 84
-0.990168, 305, 105, 368, 136
-0.990173, 433, 265, 496, 296
-0.990174, 81, 153, 144, 184
-0.990205, 73, 325, 136, 356
-0.990218, 257, 9, 500, 72
-0.990226, 273, 17, 336, 48
-0.990233, 225, 265, 352, 328
-0.990324, 241, 145, 304, 176
-0.990351, 153, 57, 216, 88
-0.99036, 289, 129, 320, 256
-0.990367, 81, 349, 144, 380
-0.990384, 121, 25, 184, 56
-0.990393, 417, 317, 480, 348
-0.990402, 273, 153, 336, 184
-0.990436, 409, 1, 472, 395
-0.990436, 265, 5, 328, 36
-0.990442, 313, 1, 376, 32
-0.990442, 113, 165, 176, 196
-0.990452, 177, 49, 208, 176
-0.990477, 281, 269, 344, 300
-0.990498, 225, 1, 288, 32
-0.990514, 469, 161, 500, 288
-0.990542, 81, 73, 144, 104
-0.990545, 145, 9, 208, 40
-0.99057, 121, 273, 184, 395
-0.990573, 177, 45, 240, 76
-0.990586, 321, 305, 448, 368
-0.990587, 249, 117, 312, 148
-0.990588, 97, 241, 352, 304
-0.990602, 393, 309, 456, 340
-0.990604, 113, 149, 176, 180
-0.990609, 233, 113, 264, 240
-0.990621, 433, 277, 496, 308
-0.990653, 65, 181, 128, 212
-0.990656, 113, 189, 176, 220
-0.990662, 201, 5, 264, 36
-0.990679, 69, 97, 100, 224
-0.990688, 65, 277, 128, 308
-0.990689, 313, 45, 376, 76
-0.990694, 345, 109, 408, 140
-0.990699, 161, 101, 224, 132
-0.990721, 241, 133, 304, 164
-0.990722, 161, 121, 224, 152
-0.990723, 33, 73, 288, 136
-0.990728, 433, 253, 496, 284
-0.990731, 73, 337, 136, 368
-0.990748, 377, 93, 440, 124
-0.990762, 177, 161, 240, 192
-0.9908, 361, 273, 424, 304
-0.990819, 97, 201, 352, 264
-0.990826, 113, 45, 176, 76
-0.990833, 33, 253, 96, 284
-0.990837, 249, 333, 312, 364
-0.990851, 41, 269, 104, 300
-0.990852, 161, 89, 224, 120
-0.990856, 65, 225, 128, 256
-0.990905, 257, 225, 500, 288
-0.990918, 153, 133, 216, 164
-0.990918, 321, 265, 384, 296
-0.990944, 65, 249, 128, 280
-0.990958, 305, 65, 368, 96
-0.990967, 209, 149, 272, 180
-0.990969, 369, 73, 432, 104
-0.990987, 225, 69, 288, 100
-0.990988, 73, 313, 136, 344
-0.991006, 177, 173, 240, 204
-0.991017, 257, 273, 500, 336
-0.991037, 161, 9, 416, 72
-0.991064, 129, 129, 384, 192
-0.991069, 89, 361, 152, 392
-0.991069, 129, 105, 384, 168
-0.991078, 405, 1, 436, 128
-0.991085, 153, 73, 216, 104
-0.991094, 41, 281, 104, 312
-0.991094, 433, 365, 496, 395
-0.991125, 81, 57, 144, 88
-0.991127, 105, 133, 168, 164
-0.991153, 33, 237, 96, 268
-0.991163, 337, 17, 400, 48
-0.991192, 329, 193, 360, 320
-0.991193, 65, 265, 128, 296
-0.991227, 329, 29, 392, 60
-0.991249, 409, 265, 472, 296
-0.99126, 1, 257, 64, 288
-0.991264, 65, 205, 128, 236
-0.991273, 289, 1, 352, 32
-0.991273, 73, 133, 136, 164
-0.991281, 109, 17, 140, 144
-0.991287, 321, 93, 384, 124
-0.99129, 289, 85, 352, 116
-0.991304, 409, 365, 472, 395
-0.991318, 65, 297, 128, 328
-0.991324, 241, 105, 304, 136
-0.991329, 145, 145, 208, 176
-0.991337, 317, 129, 348, 256
-0.991359, 65, 365, 128, 395
-0.991365, 241, 81, 304, 112
-0.991369, 345, 97, 408, 128
-0.991369, 1, 145, 500, 208
-0.99137, 337, 277, 400, 308
-0.991382, 433, 1, 496, 395
-0.991404, 377, 129, 440, 160
-0.991421, 177, 145, 240, 176
-0.991452, 49, 89, 112, 120
-0.991454, 97, 333, 160, 364
-0.991457, 1, 193, 256, 256
-0.991462, 1, 245, 64, 276
-0.991464, 33, 161, 288, 224
-0.991483, 409, 353, 472, 384
-0.991485, 313, 277, 376, 308
-0.991492, 297, 117, 360, 148
-0.991505, 257, 169, 320, 200
-0.991507, 121, 13, 184, 44
-0.991508, 289, 181, 352, 212
-0.991533, 409, 277, 472, 308
-0.991533, 409, 249, 472, 280
-0.99155, 209, 161, 272, 192
-0.991558, 89, 165, 152, 196
-0.991561, 169, 1, 232, 32
-0.991572, 201, 121, 264, 152
-0.991573, 313, 77, 376, 108
-0.991577, 57, 73, 120, 104
-0.991582, 1, 41, 500, 104
-0.991602, 177, 29, 240, 60
-0.991604, 65, 109, 128, 140
-0.991618, 65, 237, 128, 268
-0.991623, 1, 241, 32, 368
-0.991708, 1, 241, 256, 304
-0.99183, 1, 265, 256, 328
-0.991857, 97, 273, 352, 336
-0.991889, 277, 41, 308, 72
-0.99189, 297, 45, 328, 76
-0.991928, 445, 193, 476, 320
-0.992007, 297, 33, 328, 64
-0.992027, 273, 61, 304, 92
-0.992059, 321, 129, 384, 384
-0.992071, 257, 81, 500, 144
-0.992115, 301, 193, 332, 320
-0.992122, 257, 49, 288, 80
-0.992155, 285, 57, 316, 88
-0.992194, 269, 141, 300, 172
-0.992201, 425, 17, 456, 144
-0.992231, 65, 33, 320, 96
-0.992238, 225, 121, 480, 184
-0.992238, 285, 29, 316, 60
-0.992252, 301, 113, 332, 144
-0.992281, 257, 37, 384, 68
-0.992281, 453, 257, 484, 288
-0.99229, 313, 25, 344, 56
-0.992292, 469, 265, 500, 296
-0.992299, 1, 281, 500, 344
-0.992314, 17, 25, 144, 88
-0.992316, 97, 297, 352, 360
-0.992326, 73, 49, 104, 176
-0.992347, 277, 121, 308, 152
-0.992381, 257, 1, 288, 32
-0.992408, 265, 129, 296, 160
-0.992412, 261, 69, 292, 100
-0.992447, 1, 153, 128, 216
-0.992449, 317, 37, 348, 68
-0.992456, 297, 73, 328, 104
-0.992456, 285, 69, 316, 100
-0.99247, 1, 225, 500, 288
-0.992474, 297, 61, 328, 92
-0.992484, 65, 1, 320, 64
-0.992486, 307, 41, 322, 104
-0.992499, 281, 133, 312, 164
-0.99251, 291, 33, 306, 96
-0.992513, 265, 37, 296, 68
-0.992522, 1, 217, 256, 280
-0.992535, 337, 29, 368, 60
-0.992557, 433, 301, 464, 332
-0.992562, 193, 21, 224, 52
-0.992576, 137, 181, 168, 212
-0.992589, 449, 281, 480, 312
-0.992596, 245, 33, 276, 64
-0.992611, 261, 157, 292, 188
-0.992622, 185, 169, 216, 200
-0.992625, 333, 17, 364, 48
-0.992632, 165, 181, 196, 212
-0.992652, 269, 17, 300, 48
-0.992663, 257, 21, 288, 52
-0.992664, 105, 333, 136, 364
-0.992666, 345, 17, 376, 48
-0.992672, 101, 145, 132, 176
-0.992677, 133, 13, 164, 44
-0.992692, 201, 73, 232, 104
-0.992694, 289, 117, 320, 148
-0.992696, 273, 109, 304, 140
-0.992711, 377, 109, 408, 140
-0.992722, 461, 285, 492, 316
-0.992726, 225, 29, 256, 60
-0.992736, 189, 9, 220, 40
-0.992744, 441, 269, 472, 300
-0.992744, 453, 269, 484, 300
-0.992748, 273, 77, 304, 108
-0.992749, 317, 13, 348, 44
-0.992756, 357, 21, 388, 52
-0.992757, 153, 141, 184, 172
-0.992765, 61, 277, 92, 308
-0.992767, 197, 41, 228, 72
-0.992772, 257, 145, 288, 176
-0.992775, 421, 345, 452, 376
-0.992776, 205, 13, 236, 44
-0.992777, 105, 57, 136, 88
-0.992778, 97, 329, 352, 392
-0.99278, 233, 41, 264, 72
-0.992786, 297, 101, 328, 132
-0.992788, 209, 53, 240, 84
-0.99279, 309, 61, 340, 92
-0.992794, 33, 121, 288, 184
-0.992799, 101, 321, 132, 352
-0.992803, 89, 125, 120, 156
-0.992803, 469, 365, 500, 395
-0.992808, 309, 101, 340, 132
-0.992812, 129, 25, 160, 56
-0.992813, 221, 81, 252, 112
-0.992825, 57, 265, 88, 296
-0.992829, 421, 309, 452, 340
-0.992833, 301, 89, 332, 120
-0.992834, 469, 253, 500, 284
-0.992836, 261, 117, 292, 148
-0.99284, 81, 185, 112, 216
-0.992853, 69, 173, 100, 204
-0.992853, 153, 173, 184, 204
-0.992857, 365, 269, 396, 300
-0.992868, 113, 161, 144, 192
-0.992869, 281, 145, 312, 176
-0.99287, 245, 81, 276, 112
-0.99287, 465, 301, 496, 332
-0.992876, 337, 5, 368, 36
-0.992877, 341, 269, 372, 300
-0.992885, 405, 125, 436, 156
-0.992887, 105, 345, 136, 376
-0.992889, 177, 29, 208, 60
-0.992891, 269, 1, 300, 32
-0.992892, 129, 1, 160, 32
-0.992901, 205, 157, 236, 188
-0.992907, 197, 57, 228, 88
-0.992907, 425, 365, 456, 395
-0.992912, 393, 121, 424, 152
-0.992913, 365, 105, 396, 136
-0.992918, 97, 309, 128, 340
-0.992924, 301, 21, 332, 52
-0.99293, 245, 9, 276, 40
-0.992931, 245, 53, 276, 84
-0.992936, 273, 329, 304, 360
-0.992939, 185, 69, 216, 100
-0.992947, 137, 157, 168, 188
-0.992948, 185, 49, 216, 80
-0.992951, 333, 257, 364, 384
-0.992952, 209, 145, 240, 176
-0.992953, 453, 361, 484, 392
-0.992954, 441, 257, 472, 288
-0.992963, 97, 197, 128, 228
-0.992964, 437, 317, 468, 348
-0.992971, 357, 89, 388, 120
-0.992972, 249, 157, 280, 188
-0.992973, 277, 157, 308, 188
-0.992974, 389, 65, 420, 192
-0.992976, 101, 133, 132, 164
-0.99298, 69, 289, 100, 320
-0.992981, 277, 97, 308, 128
-0.992982, 93, 169, 124, 200
-0.992982, 257, 105, 288, 136
-0.992983, 449, 293, 480, 324
-0.992986, 313, 1, 344, 32
-0.992986, 57, 85, 88, 116
-0.992993, 445, 305, 476, 336
-0.992995, 321, 97, 352, 128
-0.992996, 177, 5, 208, 36
-0.992997, 433, 289, 464, 320
-0.992998, 49, 277, 80, 308
-0.992998, 233, 13, 264, 44
-0.992999, 165, 117, 196, 148
-0.993, 145, 17, 176, 48
-0.993, 233, 77, 264, 108
-0.993001, 405, 109, 436, 140
-0.993011, 441, 365, 472, 395
-0.993014, 377, 269, 408, 300
-0.993016, 209, 85, 240, 116
-0.993017, 321, 269, 352, 300
-0.993125, 279, 33, 294, 96
-0.993204, 279, 121, 294, 184
-0.993212, 229, 161, 260, 288
-0.99326, 311, 73, 326, 136
-0.993261, 209, 77, 336, 108
-0.993297, 129, 57, 384, 120
-0.993349, 273, 121, 288, 184
-0.993371, 413, 209, 444, 336
-0.993423, 257, 305, 500, 368
-0.993435, 129, 145, 160, 272
-0.993482, 317, 177, 348, 304
-0.993513, 301, 33, 316, 96
-0.993538, 173, 257, 204, 384
-0.993593, 349, 113, 380, 240
-0.993607, 285, 33, 300, 96
-0.993611, 1, 297, 256, 360
-0.993724, 1, 169, 500, 232
-0.993752, 433, 97, 496, 224
-0.993756, 257, 145, 500, 208
-0.99376, 421, 65, 452, 192
-0.993766, 97, 33, 128, 160
-0.993796, 1, 321, 500, 384
-0.993805, 313, 41, 328, 104
-0.99383, 397, 241, 428, 368
-0.993843, 257, 193, 500, 256
-0.993876, 321, 257, 352, 384
-0.993881, 81, 185, 208, 216
-0.993918, 321, 21, 448, 52
-0.993928, 193, 157, 320, 188
-0.99394, 97, 213, 224, 244
-0.99397, 1, 113, 32, 240
-0.993995, 257, 17, 384, 48
-0.994013, 33, 97, 288, 160
-0.994069, 1, 121, 500, 184
-0.994127, 193, 97, 320, 128
-0.994134, 1, 73, 500, 136
-0.994179, 269, 97, 284, 160
-0.99418, 257, 249, 500, 312
-0.994181, 161, 45, 288, 76
-0.994182, 209, 61, 336, 92
-0.994256, 285, 129, 300, 192
-0.994274, 97, 201, 224, 232
-0.9943, 1, 321, 256, 384
-0.994309, 193, 117, 320, 148
-0.99432, 153, 161, 184, 288
-0.994322, 313, 97, 328, 160
-0.994335, 257, 169, 500, 232
-0.994379, 433, 1, 496, 128
-0.994398, 161, 85, 288, 116
-0.994424, 273, 41, 288, 104
-0.994434, 1, 193, 500, 256
-0.994446, 193, 133, 320, 164
-0.994457, 177, 33, 304, 64
-0.994458, 277, 1, 308, 256
-0.994461, 319, 33, 334, 96
-0.994465, 293, 57, 308, 120
-0.994507, 257, 65, 384, 96
-0.994516, 97, 153, 224, 184
-0.994517, 97, 49, 224, 80
-0.994552, 191, 161, 206, 224
-0.994553, 277, 209, 308, 336
-0.994553, 305, 33, 432, 64
-0.994554, 447, 273, 462, 336
-0.994555, 283, 9, 298, 72
-0.994564, 223, 49, 238, 112
-0.994577, 475, 273, 490, 336
-0.994597, 393, 113, 408, 176
-0.994642, 303, 65, 318, 128
-0.994665, 199, 1, 214, 64
-0.99467, 279, 57, 294, 120
-0.994684, 441, 297, 456, 360
-0.994696, 225, 217, 352, 280
-0.994704, 273, 49, 400, 80
-0.994713, 485, 297, 500, 360
-0.994722, 241, 1, 368, 32
-0.994732, 225, 49, 352, 80
-0.994735, 457, 249, 472, 312
-0.994737, 373, 257, 404, 384
-0.994748, 289, 101, 416, 132
-0.994754, 49, 257, 80, 384
-0.994761, 483, 249, 498, 312
-0.994777, 279, 145, 294, 208
-0.994795, 161, 57, 288, 88
-0.994796, 151, 161, 166, 224
-0.9948, 279, 81, 294, 144
-0.994802, 129, 129, 256, 160
-0.994816, 349, 257, 380, 384
-0.994832, 155, 137, 170, 200
-0.994837, 129, 141, 256, 172
-0.994847, 299, 105, 314, 168
-0.994869, 241, 129, 368, 160
-0.994895, 353, 277, 480, 308
-0.994903, 381, 105, 396, 168
-0.994917, 257, 145, 384, 176
-0.994921, 1, 257, 500, 320
-0.994926, 101, 105, 116, 168
-0.99493, 337, 73, 464, 104
-0.99493, 463, 273, 478, 336
-0.994934, 185, 161, 200, 224
-0.994976, 305, 105, 320, 168
-0.994985, 109, 185, 124, 248
-0.994995, 257, 81, 384, 112
-0.994999, 483, 273, 498, 336
-0.995011, 293, 9, 308, 72
-0.995013, 1, 1, 500, 64
-0.995015, 97, 321, 224, 352
-0.995055, 1, 105, 16, 168
-0.995062, 161, 73, 288, 104
-0.995067, 149, 9, 164, 72
-0.995067, 387, 105, 402, 168
-0.995076, 33, 129, 96, 384
-0.995079, 319, 89, 334, 152
-0.99508, 65, 69, 192, 100
-0.995083, 97, 225, 224, 256
-0.995096, 311, 17, 326, 80
-0.995126, 289, 113, 416, 144
-0.995128, 329, 65, 360, 192
-0.995142, 65, 165, 192, 196
-0.995156, 297, 1, 328, 256
-0.995171, 291, 121, 306, 184
-0.995204, 255, 1, 270, 64
-0.995206, 17, 245, 144, 276
-0.995217, 97, 301, 224, 332
-0.995218, 193, 1, 208, 64
-0.995218, 241, 161, 272, 288
-0.995223, 285, 65, 300, 128
-0.99523, 369, 265, 496, 296
-0.995243, 269, 73, 284, 136
-0.995251, 337, 9, 464, 40
-0.995258, 231, 73, 246, 136
-0.995272, 1, 97, 64, 352
-0.995276, 271, 17, 286, 80
-0.995287, 177, 229, 304, 260
-0.995287, 17, 269, 144, 300
-0.995297, 209, 21, 336, 52
-0.995305, 317, 65, 332, 128
-0.995306, 273, 269, 400, 300
-0.995313, 453, 273, 468, 336
-0.995331, 337, 57, 464, 88
-0.995354, 355, 9, 370, 72
-0.995359, 103, 145, 118, 208
-0.995375, 241, 109, 368, 140
-0.995378, 209, 145, 336, 176
-0.995379, 249, 73, 264, 136
-0.995382, 337, 45, 464, 76
-0.995384, 263, 57, 278, 120
-0.995399, 473, 249, 488, 312
-0.9954, 81, 133, 208, 164
-0.9954, 113, 69, 240, 100
-0.995429, 249, 41, 264, 104
-0.99543, 317, 1, 332, 64
-0.995439, 161, 169, 288, 200
-0.995442, 213, 129, 228, 192
-0.995445, 97, 33, 224, 64
-0.99545, 403, 113, 418, 176
-0.995467, 113, 9, 240, 40
-0.99547, 49, 365, 176, 395
-0.995477, 81, 109, 208, 140
-0.995483, 207, 9, 222, 72
-0.995499, 177, 321, 304, 352
-0.995501, 113, 169, 240, 200
-0.995517, 217, 81, 232, 144
-0.995519, 97, 241, 224, 272
-0.995532, 469, 281, 484, 344
-0.995542, 65, 81, 192, 112
-0.995549, 255, 41, 270, 104
-0.995551, 97, 261, 224, 292
-0.995554, 431, 321, 446, 384
-0.995565, 109, 129, 124, 192
-0.995569, 325, 33, 340, 96
-0.995575, 337, 109, 464, 140
-0.995596, 369, 309, 496, 340
-0.995609, 33, 1, 96, 395
-0.995609, 81, 209, 112, 336
-0.995611, 249, 273, 280, 395
-0.995621, 241, 97, 368, 128
-0.995637, 225, 329, 480, 392
-0.995651, 249, 1, 264, 64
-0.995652, 229, 33, 244, 96
-0.995677, 37, 241, 68, 368
-0.995679, 265, 1, 296, 256
-0.995695, 51, 257, 66, 320
-0.995699, 161, 129, 176, 192
-0.995709, 81, 121, 208, 152
-0.995713, 435, 297, 450, 360
-0.995721, 333, 9, 348, 72
-0.995722, 285, 105, 300, 168
-0.995723, 195, 129, 210, 192
-0.995724, 1, 1, 64, 395
-0.995751, 273, 145, 288, 208
-0.995777, 369, 253, 496, 284
-0.995788, 113, 85, 240, 116
-0.995802, 145, 97, 272, 128
-0.995802, 333, 33, 348, 96
-0.995835, 17, 233, 144, 264
-0.995835, 17, 257, 144, 288
-0.99585, 145, 145, 160, 208
-0.995854, 97, 273, 224, 304
-0.995855, 119, 153, 134, 216
-0.995862, 93, 121, 108, 184
-0.995866, 325, 9, 340, 72
-0.995869, 263, 81, 278, 144
-0.995871, 305, 9, 320, 72
-0.995884, 337, 85, 464, 116
-0.99589, 267, 137, 282, 200
-0.995894, 161, 153, 176, 216
-0.995908, 479, 297, 494, 360
-0.995924, 189, 201, 204, 264
-0.995924, 97, 153, 112, 216
-0.995928, 97, 289, 224, 320
-0.995931, 33, 197, 160, 228
-0.995936, 7, 281, 22, 344
-0.995939, 273, 281, 400, 312
-0.995948, 301, 97, 332, 352
-0.995951, 113, 333, 240, 364
-0.995971, 17, 1, 144, 64
-0.995974, 485, 225, 500, 288
-0.995975, 339, 33, 354, 96
-0.995986, 193, 1, 320, 32
-0.996006, 375, 97, 390, 160
-0.996006, 353, 145, 368, 208
-0.996008, 193, 225, 208, 288
-0.99601, 123, 1, 138, 64
-0.996018, 5, 249, 20, 312
-0.996029, 225, 73, 240, 136
-0.996029, 379, 241, 394, 304
-0.996029, 189, 1, 220, 256
-0.996032, 243, 33, 258, 96
-0.99604, 241, 1, 272, 256
-0.99605, 197, 161, 212, 224
-0.996051, 451, 249, 466, 312
-0.996057, 285, 321, 300, 384
-0.996063, 441, 273, 456, 336
-0.99607, 255, 73, 270, 136
-0.996075, 81, 97, 208, 128
-0.99609, 205, 273, 236, 395
-0.996107, 131, 1, 146, 64
-0.99612, 177, 341, 304, 372
-0.99613, 161, 21, 288, 52
-0.996132, 467, 249, 482, 312
-0.996136, 187, 137, 202, 200
-0.996149, 371, 65, 386, 128
-0.996152, 217, 57, 232, 120
-0.996152, 193, 129, 224, 384
-0.996156, 363, 41, 378, 104
-0.996163, 239, 73, 254, 136
-0.996184, 363, 225, 378, 288
-0.996186, 315, 121, 330, 184
-0.996187, 111, 233, 126, 296
-0.996196, 265, 33, 280, 96
-0.996198, 65, 145, 96, 272
-0.996209, 383, 137, 398, 200
-0.996219, 219, 137, 234, 200
-0.996228, 127, 161, 142, 224
-0.99623, 337, 133, 464, 164
-0.996235, 337, 97, 464, 128
-0.996236, 337, 121, 464, 152
-0.996256, 339, 1, 354, 64
-0.996264, 167, 121, 182, 184
-0.996265, 49, 149, 176, 180
-0.996271, 349, 265, 364, 328
-0.996273, 91, 145, 106, 208
-0.996276, 291, 97, 306, 160
-0.996278, 253, 1, 284, 256
-0.996286, 191, 289, 206, 352
-0.996289, 145, 153, 272, 184
-0.99629, 355, 121, 370, 184
-0.996297, 273, 157, 400, 188
-0.996316, 365, 137, 380, 200
-0.996335, 289, 97, 320, 352
-0.996342, 97, 21, 224, 52
-0.99637, 279, 129, 294, 160
-0.996417, 145, 117, 272, 148
-0.996423, 301, 241, 332, 368
-0.996423, 289, 177, 416, 208
-0.996424, 141, 1, 172, 256
-0.996445, 161, 181, 288, 212
-0.996446, 121, 33, 152, 288
-0.996482, 369, 357, 496, 388
-0.996535, 33, 317, 160, 348
-0.996539, 33, 329, 160, 360
-0.996551, 369, 65, 400, 320
-0.99656, 17, 301, 144, 332
-0.996588, 1, 97, 500, 160
-0.996595, 17, 89, 144, 120
-0.996684, 17, 217, 144, 248
-0.996708, 177, 217, 304, 248
-0.996722, 295, 33, 310, 64
-0.996726, 337, 145, 464, 176
-0.996731, 177, 257, 304, 288
-0.996737, 49, 353, 176, 384
-0.996753, 317, 29, 332, 60
-0.996755, 273, 97, 304, 352
-0.996782, 293, 53, 308, 84
-0.996784, 309, 33, 324, 64
-0.996801, 177, 245, 304, 276
-0.996824, 279, 61, 294, 92
-0.996844, 321, 265, 448, 296
-0.996847, 97, 365, 224, 395
-0.996902, 353, 197, 480, 228
-0.996907, 271, 141, 286, 172
-0.996917, 109, 33, 140, 288
-0.996923, 17, 281, 144, 312
-0.996949, 241, 177, 368, 208
-0.996969, 385, 97, 416, 352
-0.996969, 289, 5, 416, 36
-0.996997, 229, 33, 260, 288
-0.997014, 313, 109, 328, 140
-0.997017, 469, 1, 500, 128
-0.997024, 289, 189, 416, 220
-0.997029, 353, 33, 480, 64
-0.997034, 97, 129, 128, 384
-0.997046, 279, 149, 294, 180
-0.997056, 177, 193, 304, 224
-0.997057, 305, 329, 432, 392
-0.997067, 353, 213, 480, 244
-0.997074, 117, 129, 148, 384
-0.997084, 177, 269, 304, 300
-0.997085, 17, 77, 144, 108
-0.997089, 289, 133, 416, 164
-0.997105, 273, 205, 400, 236
-0.997106, 1, 117, 128, 148
-0.997114, 433, 33, 496, 288
-0.99712, 309, 1, 340, 256
-0.99715, 481, 257, 496, 288
-0.997173, 209, 1, 240, 256
-0.997175, 33, 341, 160, 372
-0.997179, 177, 309, 304, 340
-0.99723, 287, 129, 302, 160
-0.99723, 177, 285, 304, 316
-0.997231, 455, 269, 470, 300
-0.99724, 321, 1, 352, 256
-0.997249, 273, 61, 288, 92
-0.997252, 165, 1, 196, 256
-0.997253, 301, 29, 316, 60
-0.997254, 305, 45, 320, 76
-0.997262, 285, 141, 300, 172
-0.997269, 273, 233, 400, 264
-0.99727, 225, 269, 352, 300
-0.997273, 33, 181, 160, 212
-0.997277, 273, 257, 400, 288
-0.99728, 33, 57, 160, 88
-0.997326, 283, 29, 298, 60
-0.997347, 49, 1, 112, 128
-0.997358, 369, 241, 496, 272
-0.99736, 369, 321, 496, 352
-0.997381, 17, 161, 144, 192
-0.997391, 25, 113, 88, 240
-0.997392, 263, 1, 278, 32
-0.997414, 369, 297, 496, 328
-0.997419, 301, 109, 316, 140
-0.997425, 155, 181, 170, 212
-0.997427, 311, 45, 326, 76
-0.997436, 483, 269, 498, 300
-0.997451, 299, 45, 314, 76
-0.997452, 101, 125, 116, 156
-0.997452, 473, 261, 488, 292
-0.997459, 319, 109, 334, 140
-0.997461, 323, 29, 338, 60
-0.997463, 321, 41, 336, 72
-0.997465, 357, 17, 372, 48
-0.997468, 225, 289, 352, 352
-0.99748, 291, 65, 306, 96
-0.997493, 201, 1, 216, 32
-0.997498, 287, 53, 302, 84
-0.997503, 257, 245, 384, 276
-0.997516, 269, 73, 284, 104
-0.997519, 309, 77, 324, 108
-0.997527, 177, 205, 304, 236
-0.997536, 261, 129, 292, 384
-0.997545, 51, 265, 66, 296
-0.997561, 473, 273, 488, 304
-0.997562, 307, 109, 322, 140
-0.997563, 287, 41, 302, 72
-0.997578, 285, 73, 300, 104
-0.997581, 269, 49, 284, 80
-0.997583, 249, 37, 264, 68
-0.997585, 289, 113, 304, 144
-0.997587, 295, 117, 310, 148
-0.997612, 185, 173, 200, 204
-0.99762, 435, 301, 450, 332
-0.997624, 311, 65, 326, 96
-0.997626, 459, 253, 474, 284
-0.997634, 97, 33, 128, 288
-0.997635, 329, 33, 344, 64
-0.997641, 389, 113, 404, 144
-0.997652, 279, 81, 294, 112
-0.997664, 269, 21, 284, 52
-0.997665, 277, 37, 292, 68
-0.997666, 317, 93, 332, 124
-0.997675, 335, 25, 350, 56
-0.997682, 219, 45, 234, 76
-0.997686, 277, 117, 292, 148
-0.997689, 465, 273, 480, 304
-0.997692, 439, 313, 454, 344
-0.997695, 85, 97, 116, 352
-0.997695, 479, 281, 494, 312
-0.997705, 153, 149, 168, 180
-0.997706, 299, 57, 314, 88
-0.997708, 201, 13, 216, 44
-0.99771, 187, 29, 202, 60
-0.997712, 269, 1, 284, 32
-0.997716, 153, 65, 184, 320
-0.997737, 287, 17, 302, 48
-0.997742, 249, 129, 280, 384
-0.997746, 149, 17, 164, 48
-0.997759, 157, 137, 172, 168
-0.99776, 433, 333, 448, 364
-0.997767, 109, 137, 124, 168
-0.997788, 63, 277, 78, 308
-0.997799, 1, 49, 64, 176
-0.997803, 3, 113, 18, 144
-0.997803, 263, 45, 278, 76
-0.997806, 349, 17, 364, 48
-0.997808, 219, 85, 234, 116
-0.997808, 429, 305, 444, 336
-0.997813, 273, 129, 288, 160
-0.997813, 213, 141, 228, 172
-0.997816, 381, 109, 396, 140
-0.997818, 155, 193, 170, 224
-0.997823, 357, 33, 388, 288
-0.997828, 397, 117, 412, 148
-0.997833, 269, 97, 284, 128
-0.997833, 293, 129, 308, 160
-0.997842, 471, 365, 486, 395
-0.997842, 219, 149, 234, 180
-0.997855, 209, 13, 224, 44
-0.997856, 301, 69, 316, 100
-0.997858, 465, 257, 480, 288
-0.997864, 181, 129, 212, 384
-0.997864, 321, 17, 336, 48
-0.997866, 177, 33, 208, 288
-0.997873, 93, 173, 108, 204
-0.997878, 413, 97, 444, 352
-0.997879, 257, 5, 272, 36
-0.99788, 55, 277, 70, 308
-0.997888, 211, 73, 226, 104
-0.997888, 111, 201, 126, 232
-0.997892, 425, 349, 440, 380
-0.997896, 311, 97, 326, 128
-0.997903, 405, 121, 420, 152
-0.997912, 323, 97, 338, 128
-0.997917, 355, 29, 370, 60
-0.997918, 201, 77, 216, 108
-0.997919, 225, 129, 256, 384
-0.997924, 93, 121, 108, 152
-0.997926, 311, 21, 326, 52
-0.99793, 441, 301, 456, 332
-0.997933, 5, 281, 20, 312
-0.997934, 167, 113, 182, 144
-0.997945, 195, 13, 210, 44
-0.997949, 263, 89, 278, 120
-0.997954, 283, 113, 298, 144
-0.997956, 133, 1, 148, 32
-0.997957, 205, 61, 220, 92
-0.997959, 473, 289, 488, 320
-0.997961, 219, 61, 234, 92
-0.997961, 317, 65, 332, 96
-0.997962, 113, 53, 128, 84
-0.997962, 387, 269, 402, 300
-0.997966, 451, 285, 466, 316
-0.99797, 209, 129, 240, 384
-0.997978, 485, 245, 500, 276
-0.997979, 329, 17, 344, 48
-0.997979, 447, 265, 462, 296
-0.997989, 271, 109, 286, 140
-0.997996, 457, 285, 472, 316
-0.998001, 445, 281, 460, 312
-0.998002, 225, 81, 240, 112
-0.998002, 443, 365, 458, 395
-0.998017, 453, 257, 468, 288
-0.998018, 265, 149, 280, 180
-0.998023, 163, 129, 178, 160
-0.998023, 367, 269, 382, 300
-0.998025, 301, 121, 316, 152
-0.998027, 211, 57, 226, 88
-0.99803, 353, 269, 368, 300
-0.998074, 41, 33, 104, 288
-0.998142, 305, 33, 320, 160
-0.998186, 401, 97, 432, 352
-0.998225, 405, 1, 436, 256
-0.99825, 311, 33, 326, 160
-0.998267, 73, 129, 104, 384
-0.998317, 469, 129, 500, 384
-0.998322, 313, 97, 344, 352
-0.998341, 273, 37, 336, 52
-0.998353, 237, 129, 268, 384
-0.998355, 265, 43, 328, 58
-0.998364, 265, 71, 328, 86
-0.998392, 305, 39, 368, 54
-0.998394, 249, 49, 312, 64
-0.998404, 299, 33, 314, 160
-0.998405, 345, 1, 376, 256
-0.998411, 265, 63, 328, 78
-0.998411, 273, 49, 336, 64
-0.998411, 273, 55, 336, 70
-0.998415, 241, 39, 304, 54
-0.998428, 469, 263, 500, 278
-0.998431, 321, 275, 352, 290
-0.998431, 449, 281, 480, 296
-0.998431, 241, 55, 304, 70
-0.998432, 193, 139, 224, 154
-0.998432, 197, 9, 228, 24
-0.998433, 257, 31, 288, 46
-0.998433, 165, 185, 196, 200
-0.998434, 105, 337, 136, 352
-0.998434, 181, 171, 212, 186
-0.998435, 313, 57, 344, 72
-0.998435, 305, 33, 368, 48
-0.998436, 465, 371, 496, 386
-0.998437, 297, 29, 328, 44
-0.998437, 177, 49, 208, 64
-0.998437, 449, 269, 480, 284
-0.998437, 129, 25, 160, 40
-0.998437, 109, 163, 140, 178
-0.99844, 61, 129, 92, 384
-0.998441, 313, 65, 344, 80
-0.998441, 241, 73, 304, 88
-0.998443, 393, 123, 424, 138
-0.998443, 317, 1, 348, 16
-0.998443, 401, 111, 432, 126
-0.998444, 241, 81, 272, 96
-0.998444, 277, 145, 308, 160
-0.998444, 281, 31, 344, 46
-0.998445, 89, 125, 120, 140
-0.998445, 233, 49, 264, 64
-0.998446, 197, 165, 228, 180
-0.998447, 145, 19, 176, 34
-0.998447, 105, 349, 136, 364
-0.998447, 209, 47, 240, 62
-0.998447, 277, 157, 308, 172
-0.998448, 445, 377, 476, 392
-0.998448, 377, 273, 408, 288
-0.998448, 137, 179, 200, 194
-0.998448, 265, 131, 296, 146
-0.998449, 181, 177, 212, 192
-0.998452, 53, 281, 84, 296
-0.998452, 157, 23, 188, 38
-0.998452, 469, 287, 500, 302
-0.998452, 217, 81, 280, 96
-0.998453, 129, 19, 160, 34
-0.998454, 469, 377, 500, 392
-0.998454, 453, 263, 484, 278
-0.998456, 217, 53, 248, 68
-0.998457, 305, 97, 336, 112
-0.998459, 389, 117, 420, 132
-0.99846, 293, 111, 324, 126
-0.998463, 253, 59, 284, 74
-0.998463, 261, 115, 292, 130
-0.998463, 269, 7, 300, 22
-0.998464, 337, 5, 368, 20
-0.998464, 265, 77, 328, 92
-0.998464, 461, 293, 492, 308
-0.998465, 253, 3, 284, 18
-0.998467, 201, 79, 232, 94
-0.998467, 297, 123, 328, 138
-0.998468, 149, 187, 180, 202
-0.998468, 237, 33, 268, 48
-0.998469, 301, 103, 332, 118
-0.99847, 205, 53, 236, 68
-0.99847, 249, 11, 280, 26
-0.998471, 373, 113, 404, 128
-0.998472, 421, 347, 452, 362
-0.998475, 469, 257, 500, 272
-0.998476, 281, 119, 312, 134
-0.998478, 261, 121, 292, 136
-0.998478, 289, 129, 320, 144
-0.998482, 277, 81, 308, 96
-0.998482, 137, 185, 168, 200
-0.998482, 253, 17, 284, 32
-0.998482, 265, 103, 328, 118
-0.998483, 101, 331, 132, 346
-0.998484, 461, 269, 492, 284
-0.998484, 253, 65, 284, 80
-0.998485, 273, 117, 336, 132
-0.998486, 217, 53, 280, 68
-0.998486, 245, 39, 276, 54
-0.998486, 145, 195, 208, 210
-0.998488, 229, 79, 260, 94
-0.998492, 137, 191, 168, 206
-0.998492, 209, 161, 240, 176
-0.998493, 433, 303, 464, 318
-0.998494, 77, 191, 108, 206
-0.998494, 337, 29, 368, 44
-0.998494, 305, 71, 336, 86
-0.998495, 197, 47, 228, 62
-0.998495, 265, 143, 328, 158
-0.998496, 345, 21, 376, 36
-0.998497, 105, 343, 136, 358
-0.998498, 185, 75, 248, 90
-0.998499, 301, 53, 332, 68
-0.998503, 245, 49, 276, 64
-0.998504, 265, 83, 296, 98
-0.998504, 165, 191, 196, 206
-0.998504, 249, 33, 312, 48
-0.998505, 257, 83, 320, 98
-0.998507, 193, 133, 224, 148
-0.99851, 197, 15, 228, 30
-0.998511, 433, 277, 496, 292
-0.998511, 241, 65, 304, 80
-0.998511, 261, 159, 292, 174
-0.998511, 265, 111, 328, 126
-0.998513, 349, 129, 380, 384
-0.998513, 273, 125, 336, 140
-0.998514, 421, 309, 452, 324
-0.998516, 137, 173, 200, 188
-0.998517, 265, 97, 328, 112
-0.998517, 417, 305, 480, 320
-0.998519, 353, 29, 384, 44
-0.998519, 137, 187, 200, 202
-0.998521, 449, 275, 480, 290
-0.998521, 257, 37, 288, 52
-0.998522, 277, 111, 308, 126
-0.998523, 321, 281, 384, 296
-0.998524, 313, 45, 376, 60
-0.998524, 281, 139, 312, 154
-0.998524, 301, 41, 332, 56
-0.998524, 73, 193, 136, 208
-0.998524, 97, 147, 128, 162
-0.998525, 185, 53, 248, 68
-0.998526, 217, 47, 280, 62
-0.998527, 209, 9, 272, 24
-0.998528, 377, 119, 440, 134
-0.998528, 249, 121, 312, 136
-0.998528, 461, 279, 492, 294
-0.998529, 73, 327, 136, 342
-0.99853, 281, 133, 344, 148
-0.998532, 433, 375, 496, 390
-0.998532, 129, 27, 192, 42
-0.998532, 273, 33, 304, 48
-0.998534, 273, 151, 336, 166
-0.998535, 425, 381, 456, 395
-0.998535, 279, 65, 294, 192
-0.998535, 453, 287, 484, 302
-0.998536, 297, 79, 328, 94
-0.998536, 257, 45, 288, 60
-0.998538, 269, 65, 284, 192
-0.998538, 277, 125, 308, 140
-0.998538, 417, 321, 480, 336
-0.998539, 185, 167, 248, 182
-0.998539, 89, 175, 152, 190
-0.998541, 425, 297, 488, 312
-0.998543, 193, 23, 224, 38
-0.998543, 241, 163, 304, 178
-0.998544, 249, 7, 312, 22
-0.998545, 265, 13, 328, 28
-0.998545, 105, 147, 168, 162
-0.998546, 289, 61, 352, 76
-0.998547, 269, 137, 300, 152
-0.998547, 433, 283, 496, 298
-0.998547, 41, 283, 104, 298
-0.998547, 217, 87, 280, 102
-0.998548, 81, 157, 144, 172
-0.998549, 353, 273, 416, 288
-0.99855, 317, 1, 332, 128
-0.99855, 145, 161, 208, 176
-0.99855, 121, 19, 184, 34
-0.998551, 453, 257, 484, 272
-0.998551, 281, 1, 344, 16
-0.998551, 249, 157, 312, 172
-0.998551, 105, 167, 168, 182
-0.998551, 81, 349, 144, 364
-0.998551, 113, 69, 176, 84
-0.998552, 153, 19, 216, 34
-0.998553, 433, 257, 496, 272
-0.998554, 241, 149, 304, 164
-0.998555, 241, 141, 304, 156
-0.998555, 185, 9, 248, 24
-0.998556, 297, 113, 360, 128
-0.998557, 177, 47, 240, 62
-0.998557, 161, 129, 224, 144
-0.998558, 177, 23, 240, 38
-0.998558, 49, 191, 112, 206
-0.998558, 161, 123, 224, 138
-0.998559, 377, 109, 440, 124
-0.99856, 305, 27, 368, 42
-0.998562, 305, 13, 368, 28
-0.998562, 73, 343, 136, 358
-0.998562, 153, 71, 216, 86
-0.998565, 289, 71, 352, 86
-0.998565, 65, 283, 128, 298
-0.998566, 161, 109, 224, 124
-0.998566, 201, 161, 264, 176
-0.998566, 153, 135, 216, 150
-0.998567, 241, 135, 304, 150
-0.998567, 337, 35, 368, 50
-0.998568, 225, 3, 288, 18
-0.998569, 393, 315, 456, 330
-0.998572, 217, 59, 280, 74
-0.998574, 289, 93, 352, 108
-0.998574, 113, 175, 176, 190
-0.998574, 225, 157, 288, 172
-0.998575, 321, 89, 384, 104
-0.998575, 81, 355, 144, 370
-0.998576, 121, 153, 184, 168
-0.998576, 65, 275, 128, 290
-0.998577, 137, 167, 200, 182
-0.998577, 409, 371, 472, 386
-0.998577, 289, 53, 320, 68
-0.998578, 249, 339, 312, 354
-0.998578, 185, 15, 248, 30
-0.998578, 161, 91, 224, 106
-0.998578, 377, 103, 440, 118
-0.998578, 265, 149, 296, 164
-0.99858, 1, 251, 64, 266
-0.99858, 89, 181, 152, 196
-0.99858, 73, 199, 136, 214
-0.998581, 65, 239, 128, 254
-0.998581, 113, 75, 176, 90
-0.998582, 105, 193, 168, 208
-0.998582, 49, 185, 112, 200
-0.998582, 285, 31, 316, 46
-0.998582, 81, 163, 144, 178
-0.998582, 161, 115, 224, 130
-0.998583, 277, 131, 308, 146
-0.998583, 265, 91, 328, 106
-0.998583, 287, 33, 302, 160
-0.998584, 277, 45, 308, 60
-0.998584, 65, 245, 128, 260
-0.998585, 329, 33, 392, 48
-0.998585, 33, 255, 96, 270
-0.998585, 297, 117, 328, 132
-0.998585, 65, 179, 128, 194
-0.998586, 305, 111, 336, 126
-0.998587, 65, 173, 128, 188
-0.998587, 81, 77, 144, 92
-0.998588, 73, 293, 136, 308
-0.998588, 209, 39, 272, 54
-0.998588, 73, 337, 136, 352
-0.998588, 317, 41, 348, 56
-0.998589, 273, 157, 336, 172
-0.99859, 121, 159, 184, 174
-0.99859, 241, 127, 304, 142
-0.99859, 305, 1, 368, 16
-0.99859, 257, 75, 288, 90
-0.99859, 217, 67, 280, 82
-0.998591, 433, 269, 496, 284
-0.998591, 73, 321, 136, 336
-0.998593, 279, 1, 294, 128
-0.998597, 273, 39, 304, 54
-0.998604, 257, 51, 288, 66
-0.99861, 273, 17, 288, 144
-0.998612, 289, 43, 320, 58
-0.998615, 285, 37, 316, 52
-0.998616, 277, 51, 308, 66
-0.998616, 317, 31, 348, 46
-0.998619, 281, 63, 312, 78
-0.998623, 293, 63, 324, 78
-0.998628, 265, 143, 296, 158
-0.99863, 313, 97, 328, 224
-0.998637, 265, 61, 296, 76
-0.998641, 281, 75, 312, 90
-0.998644, 297, 35, 328, 50
-0.998649, 277, 57, 308, 72
-0.998671, 293, 73, 324, 88
-0.998687, 217, 65, 232, 192
-0.998691, 319, 49, 334, 176
-0.998703, 301, 47, 332, 62
-0.998713, 219, 1, 234, 128
-0.998719, 273, 69, 304, 84
-0.998721, 279, 113, 294, 240
-0.998738, 485, 241, 500, 368
-0.998749, 455, 241, 470, 368
-0.998751, 433, 129, 464, 384
-0.998766, 479, 257, 494, 384
-0.998772, 141, 97, 172, 352
-0.998776, 421, 1, 452, 256
-0.998787, 189, 161, 204, 288
-0.998795, 155, 129, 170, 256
-0.998812, 293, 17, 308, 144
-0.998813, 305, 81, 320, 208
-0.998816, 151, 1, 166, 128
-0.998817, 259, 65, 274, 192
-0.99883, 299, 97, 314, 224
-0.998834, 247, 1, 262, 128
-0.998837, 233, 1, 248, 128
-0.998844, 469, 241, 484, 368
-0.998845, 169, 129, 200, 384
-0.998868, 333, 1, 364, 256
-0.99888, 391, 97, 406, 224
-0.99891, 253, 33, 268, 160
-0.998912, 393, 1, 424, 256
-0.998924, 263, 1, 278, 128
-0.998929, 323, 1, 338, 128
-0.99893, 443, 273, 458, 395
-0.998938, 273, 113, 288, 240
-0.998945, 289, 81, 304, 208
-0.998954, 461, 241, 476, 368
-0.998958, 227, 1, 242, 128
-0.998958, 131, 1, 146, 128
-0.998968, 165, 81, 180, 208
-0.99897, 119, 145, 134, 272
-0.998981, 239, 1, 254, 128
-0.998994, 199, 161, 214, 288
-0.999008, 157, 49, 172, 176
-0.999011, 443, 225, 458, 352
-0.99903, 207, 1, 222, 128
-0.999038, 109, 129, 124, 256
-0.999039, 437, 273, 452, 395
-0.99904, 289, 129, 304, 256
-0.999041, 145, 1, 160, 128
-0.999047, 399, 113, 414, 240
-0.999048, 113, 193, 128, 320
-0.999053, 449, 273, 464, 395
-0.999067, 419, 113, 434, 240
-0.99907, 149, 129, 164, 256
-0.99907, 223, 81, 238, 208
-0.999075, 109, 273, 124, 395
-0.999078, 385, 97, 400, 224
-0.999087, 229, 49, 244, 176
-0.999091, 81, 1, 112, 256
-0.999093, 379, 193, 394, 320
-0.999098, 377, 97, 392, 224
-0.999108, 319, 97, 334, 224
-0.999112, 355, 1, 370, 128
-0.999117, 361, 1, 376, 128
-0.99912, 191, 113, 206, 240
-0.999121, 193, 209, 208, 336
-0.999123, 161, 129, 176, 256
-0.999126, 213, 17, 228, 144
-0.999127, 381, 1, 412, 256
-0.999137, 129, 129, 160, 384
-0.99915, 239, 49, 254, 176
-0.999151, 183, 161, 198, 288
-0.999153, 211, 81, 226, 208
-0.999157, 157, 1, 172, 128
-0.999178, 197, 113, 212, 240
-0.99918, 363, 193, 378, 320
-0.999181, 185, 113, 200, 240
-0.999192, 79, 161, 94, 288
-0.999194, 337, 97, 368, 352
-0.999195, 389, 193, 404, 320
-0.999204, 353, 193, 368, 320
-0.999207, 431, 161, 446, 288
-0.999211, 267, 113, 282, 240
-0.999213, 349, 1, 364, 128
-0.999215, 453, 129, 484, 384
-0.999216, 367, 49, 382, 176
-0.999217, 359, 145, 374, 272
-0.999225, 247, 65, 262, 192
-0.999228, 329, 1, 344, 128
-0.999229, 7, 257, 22, 384
-0.999229, 151, 49, 166, 176
-0.999231, 485, 161, 500, 288
-0.999235, 75, 241, 90, 368
-0.999238, 97, 65, 112, 192
-0.999241, 125, 17, 140, 144
-0.999246, 423, 177, 438, 304
-0.99925, 373, 209, 388, 336
-0.999252, 413, 113, 428, 240
-0.999253, 145, 81, 160, 208
-0.999256, 335, 161, 350, 288
-0.999256, 199, 1, 214, 128
-0.999259, 425, 257, 440, 384
-0.999266, 431, 273, 446, 395
-0.999266, 405, 113, 420, 240
-0.999268, 103, 193, 118, 320
-0.99927, 189, 273, 204, 395
-0.999273, 325, 113, 340, 240
-0.999277, 373, 49, 388, 176
-0.999278, 1, 81, 16, 208
-0.99928, 71, 177, 86, 304
-0.999285, 371, 97, 386, 224
-0.999286, 437, 209, 452, 336
-0.999286, 405, 193, 420, 320
-0.999288, 389, 241, 404, 368
-0.99929, 177, 33, 192, 160
-0.999292, 107, 81, 122, 208
-0.999292, 225, 145, 240, 272
-0.999293, 449, 225, 464, 352
-0.999296, 287, 241, 302, 368
-0.999297, 81, 273, 96, 395
-0.999304, 127, 65, 142, 192
-0.999305, 371, 161, 386, 288
-0.99931, 341, 129, 356, 256
-0.999313, 325, 129, 356, 384
-0.999316, 295, 273, 310, 395
-0.999317, 345, 209, 360, 336
-0.999321, 395, 209, 410, 336
-0.999323, 339, 209, 354, 336
-0.999324, 353, 145, 368, 272
-0.999326, 215, 129, 230, 256
-0.999347, 119, 65, 134, 192
-0.999348, 89, 97, 104, 224
-0.99935, 403, 241, 418, 368
-0.999356, 315, 193, 330, 320
-0.999361, 411, 177, 426, 304
-0.999363, 193, 1, 208, 128
-0.999364, 125, 145, 140, 272
-0.99951, 469, 33, 500, 288
-0.999629, 465, 285, 480, 300
-0.999629, 263, 3, 278, 18
-0.999632, 355, 15, 370, 30
-0.999632, 455, 275, 470, 290
-0.999632, 309, 99, 324, 114
-0.999632, 331, 31, 346, 46
-0.999632, 483, 281, 498, 296
-0.999632, 307, 119, 322, 134
-0.999633, 1, 97, 32, 352
-0.999633, 183, 27, 198, 42
-0.999633, 155, 185, 170, 200
-0.999633, 423, 381, 438, 395
-0.999633, 459, 377, 474, 392
-0.999634, 383, 111, 398, 126
-0.999634, 207, 21, 222, 36
-0.999634, 249, 33, 264, 48
-0.999634, 465, 273, 480, 288
-0.999635, 251, 13, 266, 28
-0.999636, 315, 89, 330, 104
-0.999636, 403, 121, 418, 136
-0.999639, 201, 3, 216, 18
-0.999639, 303, 37, 318, 52
-0.999639, 481, 269, 496, 284
-0.99964, 313, 69, 328, 84
-0.99964, 311, 59, 326, 74
-0.99964, 157, 173, 172, 188
-0.999641, 273, 69, 288, 84
-0.999642, 347, 29, 362, 44
-0.999642, 425, 307, 440, 322
-0.999644, 481, 287, 496, 302
-0.999644, 275, 151, 290, 166
-0.999646, 291, 111, 306, 126
-0.999646, 201, 9, 216, 24
-0.999647, 261, 49, 276, 64
-0.999648, 273, 135, 288, 150
-0.999648, 359, 29, 374, 44
-0.999648, 261, 65, 276, 80
-0.999649, 247, 75, 262, 90
-0.999649, 203, 71, 218, 86
-0.999649, 439, 317, 454, 332
-0.99965, 311, 81, 326, 96
-0.99965, 277, 143, 292, 158
-0.999652, 299, 55, 314, 70
-0.999652, 191, 171, 206, 186
-0.999653, 317, 37, 332, 52
-0.999654, 337, 31, 352, 46
-0.999654, 387, 273, 402, 288
-0.999655, 433, 345, 448, 360
-0.999655, 219, 155, 234, 170
-0.999656, 475, 261, 490, 276
-0.999657, 395, 117, 410, 132
-0.999657, 317, 101, 332, 116
-0.999658, 267, 59, 282, 74
-0.999661, 317, 95, 332, 110
-0.999662, 207, 15, 222, 30
-0.999663, 329, 39, 344, 54
-0.999663, 219, 51, 234, 66
-0.999664, 291, 37, 306, 52
-0.999664, 471, 293, 486, 308
-0.999664, 153, 21, 168, 36
-0.999665, 103, 135, 118, 150
-0.999665, 267, 45, 282, 60
-0.999667, 161, 191, 176, 206
-0.999667, 457, 257, 472, 272
-0.999668, 295, 67, 310, 82
-0.999668, 51, 269, 66, 284
-0.999668, 283, 153, 298, 168
-0.999669, 303, 107, 318, 122
-0.999669, 297, 31, 312, 46
-0.99967, 457, 287, 472, 302
-0.999671, 271, 161, 286, 176
-0.999672, 289, 135, 304, 150
-0.999672, 295, 129, 310, 144
-0.999672, 201, 15, 216, 30
-0.999674, 311, 47, 326, 62
-0.999674, 279, 83, 294, 98
-0.999674, 155, 197, 170, 212
-0.999675, 289, 121, 304, 136
-0.999675, 309, 105, 324, 120
-0.999675, 109, 145, 124, 160
-0.999677, 271, 75, 286, 90
-0.999678, 311, 33, 326, 48
-0.99968, 151, 179, 166, 194
-0.99968, 253, 39, 268, 54
-0.99968, 307, 65, 322, 80
-0.999681, 147, 19, 162, 34
-0.999683, 357, 21, 372, 36
-0.999684, 279, 125, 294, 140
-0.999686, 467, 279, 482, 294
-0.999687, 251, 51, 266, 66
-0.999688, 303, 75, 318, 90
-0.999689, 481, 263, 496, 278
-0.999691, 283, 37, 298, 52
-0.999693, 473, 269, 488, 284
-0.999694, 295, 61, 310, 76
-0.999694, 279, 159, 294, 174
-0.999695, 257, 9, 272, 24
-0.999696, 261, 59, 276, 74
-0.999696, 295, 73, 310, 88
-0.999697, 293, 45, 308, 60
-0.9997, 267, 53, 282, 68
-0.9997, 301, 69, 316, 84
-0.9997, 321, 43, 336, 58
-0.999702, 319, 31, 334, 46
-0.999703, 283, 143, 298, 158
-0.999705, 289, 79, 304, 94
-0.999707, 297, 37, 312, 52
-0.999709, 479, 275, 494, 290
-0.99971, 5, 115, 20, 130
-0.999712, 305, 31, 320, 46
-0.999713, 313, 117, 328, 132
-0.999725, 309, 75, 324, 90
-0.999725, 481, 257, 496, 272
-0.999728, 317, 109, 332, 124
-0.999731, 271, 143, 286, 158
-0.999735, 279, 131, 294, 146
-0.999737, 473, 279, 488, 294
-0.999742, 287, 31, 302, 46
-0.999745, 305, 45, 320, 60
-0.999754, 289, 59, 304, 74
-0.999761, 311, 39, 326, 54
-0.999767, 303, 113, 318, 128
-0.999769, 273, 63, 288, 78
-0.999781, 279, 137, 294, 152
-0.999782, 311, 111, 326, 126
-0.99979, 285, 129, 300, 144
-0.999795, 289, 65, 304, 80
-0.999799, 291, 53, 306, 68
-0.999803, 279, 69, 294, 84
-0.999819, 289, 73, 304, 88
-0.999822, 283, 61, 298, 76
-1.00001, 1, 1, 32, 256
-1.00008, 65, 1, 96, 256
-1.00013, 49, 97, 80, 352
-1.00044, 1, 145, 64, 272
-1.00061, 13, 97, 44, 352
-1.00088, 457, 1, 488, 256
-1.00097, 33, 97, 64, 352
-1.00103, 441, 1, 472, 256
-1.0014, 45, 1, 76, 256
-1.00143, 13, 1, 44, 256
-1.00183, 25, 1, 56, 256
-1.00311, 25, 65, 88, 192
-1.00311, 129, 209, 192, 336
-1.00348, 9, 1, 72, 256
-1.00358, 233, 209, 296, 336
-1.00574, 25, 17, 88, 144
-1.00698, 209, 209, 272, 336
-1.00706, 1, 1, 64, 128
-1.00838, 433, 49, 496, 176
