1694
-0.521466, 1, 1, 408, 274
-0.535235, 33, 1, 288, 274
-0.535812, 1, 33, 408, 274
-0.680568, 129, 1, 384, 274
-0.712599, 1, 33, 256, 274
-0.79686, 97, 33, 352, 274
-0.876494, 97, 1, 224, 256
-0.876593, 65, 1, 192, 274
-0.890986, 113, 1, 240, 274
-0.891077, 145, 33, 272, 274
-0.908268, 161, 1, 288, 274
-0.91145, 1, 1, 128, 274
-0.911452, 49, 33, 176, 274
-0.9154, 1, 81, 408, 208
-0.923451, 1, 33, 128, 274
-0.93657, 209, 33, 336, 274
-0.936913, 241, 1, 368, 274
-0.940822, 33, 65, 288, 192
-0.94511, 1, 113, 256, 240
-0.946164, 1, 33, 408, 160
-0.947337, 1, 145, 408, 272
-0.949624, 129, 97, 384, 224
-0.951561, 1, 17, 256, 144
-0.952057, 97, 33, 224, 160
-0.955493, 257, 33, 384, 274
-0.958939, 289, 1, 408, 274
-0.959871, 161, 65, 288, 192
-0.962456, 105, 33, 168, 160
-0.963191, 177, 81, 240, 208
-0.96385, 129, 49, 384, 176
-0.965269, 97, 145, 352, 272
-0.965968, 137, 177, 200, 240
-0.965999, 209, 65, 272, 192
-0.966111, 1, 97, 128, 224
-0.9665, 153, 57, 216, 120
-0.967188, 129, 113, 256, 240
-0.9673, 209, 73, 272, 136
-0.967614, 129, 1, 384, 128
-0.968163, 177, 113, 304, 240
-0.968471, 81, 113, 208, 240
-0.968484, 137, 129, 200, 256
-0.968589, 137, 33, 200, 160
-0.969067, 1, 145, 128, 272
-0.970012, 209, 113, 272, 240
-0.970259, 185, 177, 248, 240
-0.970835, 81, 113, 144, 240
-0.971435, 177, 33, 240, 160
-0.97148, 113, 185, 176, 248
-0.971638, 177, 49, 240, 112
-0.972354, 185, 145, 248, 272
-0.972554, 73, 49, 136, 176
-0.973167, 161, 17, 288, 144
-0.97349, 177, 89, 240, 152
-0.974166, 49, 33, 176, 160
-0.9743, 145, 201, 208, 264
-0.974721, 73, 1, 136, 128
-0.974736, 105, 41, 168, 104
-0.974952, 113, 129, 176, 256
-0.975169, 153, 33, 216, 96
-0.97655, 161, 129, 224, 256
-0.977447, 129, 33, 192, 96
-0.977629, 97, 57, 224, 120
-0.977661, 73, 1, 136, 64
-0.97824, 169, 33, 200, 96
-0.978621, 161, 81, 288, 144
-0.978929, 157, 41, 188, 104
-0.978963, 209, 185, 272, 248
-0.978974, 241, 201, 304, 264
-0.979102, 1, 49, 128, 176
-0.980106, 161, 177, 224, 240
-0.980406, 161, 185, 288, 248
-0.980424, 97, 33, 160, 274
-0.980701, 145, 33, 208, 274
-0.980878, 1, 193, 64, 256
-0.981265, 57, 113, 120, 240
-0.981477, 153, 177, 184, 240
-0.981581, 209, 65, 336, 192
-0.981628, 225, 113, 352, 240
-0.98171, 185, 153, 248, 216
-0.982049, 81, 33, 208, 96
-0.982242, 153, 1, 216, 64
-0.98237, 133, 193, 164, 256
-0.982378, 121, 1, 184, 64
-0.982443, 153, 81, 216, 208
-0.98256, 1, 177, 32, 240
-0.982686, 1, 145, 32, 272
-0.982923, 1, 1, 128, 128
-0.982985, 185, 57, 216, 120
-0.983005, 17, 145, 80, 272
-0.983037, 345, 1, 408, 64
-0.983066, 169, 65, 200, 128
-0.983142, 121, 1, 184, 256
-0.983456, 165, 177, 196, 240
-0.983504, 1, 1, 64, 64
-0.983677, 145, 57, 272, 120
-0.983897, 1, 1, 32, 64
-0.98419, 73, 33, 136, 274
-0.984307, 233, 129, 296, 256
-0.984352, 113, 185, 240, 248
-0.984444, 265, 201, 328, 264
-0.984465, 129, 57, 192, 120
-0.984537, 1, 97, 32, 224
-0.984691, 177, 185, 208, 248
-0.984706, 109, 33, 140, 160
-0.984727, 105, 1, 168, 274
-0.98474, 185, 113, 248, 176
-0.984746, 177, 33, 240, 274
-0.984748, 1, 209, 32, 272
-0.984908, 209, 81, 336, 144
-0.984936, 129, 1, 192, 274
-0.985108, 225, 185, 256, 248
-0.985156, 145, 153, 208, 216
-0.985347, 33, 97, 96, 224
-0.985379, 289, 129, 408, 256
-0.985393, 209, 121, 272, 184
-0.985478, 189, 81, 220, 144
-0.985556, 113, 161, 176, 224
-0.985569, 209, 201, 336, 264
-0.985602, 97, 1, 224, 64
-0.985603, 65, 89, 128, 152
-0.985704, 1, 113, 32, 176
-0.985794, 161, 105, 288, 168
-0.985813, 1, 105, 128, 168
-0.985879, 81, 113, 144, 176
-0.985935, 1, 185, 128, 248
-0.985986, 25, 177, 88, 240
-0.98604, 145, 201, 176, 264
-0.986065, 73, 1, 136, 274
-0.986126, 49, 33, 112, 160
-0.986146, 213, 81, 244, 144
-0.986256, 121, 193, 152, 256
-0.986286, 225, 65, 256, 192
-0.986465, 145, 33, 272, 96
-0.986503, 153, 1, 184, 64
-0.986565, 209, 97, 272, 160
-0.986578, 1, 153, 32, 216
-0.986639, 233, 81, 296, 208
-0.986676, 165, 33, 196, 160
-0.986689, 33, 1, 96, 64
-0.986742, 377, 1, 408, 64
-0.986745, 145, 129, 176, 256
-0.986864, 1, 97, 64, 224
-0.986916, 65, 177, 192, 240
-0.986925, 201, 33, 264, 274
-0.987032, 141, 169, 172, 232
-0.987045, 129, 161, 256, 224
-0.987125, 193, 1, 256, 64
-0.987297, 97, 81, 224, 144
-0.98731, 57, 113, 120, 176
-0.987352, 157, 201, 188, 264
-0.987393, 73, 25, 136, 88
-0.987436, 97, 1, 160, 64
-0.987565, 145, 1, 272, 64
-0.987579, 89, 185, 152, 248
-0.987874, 1, 161, 128, 224
-0.987928, 169, 201, 232, 264
-0.987935, 205, 81, 236, 208
-0.98804, 177, 65, 208, 192
-0.988042, 145, 113, 208, 176
-0.98805, 221, 113, 252, 240
-0.988264, 205, 105, 236, 168
-0.988356, 85, 1, 116, 128
-0.988425, 189, 161, 220, 224
-0.988433, 109, 41, 140, 104
-0.988468, 153, 1, 216, 274
-0.988485, 233, 73, 264, 136
-0.988493, 201, 49, 264, 112
-0.98879, 241, 177, 304, 240
-0.9888, 129, 129, 160, 256
-0.988892, 49, 1, 176, 64
-0.988926, 169, 113, 200, 240
-0.988984, 145, 33, 176, 96
-0.989013, 1, 1, 128, 64
-0.98908, 1, 49, 32, 176
-0.989114, 1, 89, 32, 152
-0.989118, 9, 153, 72, 216
-0.9892, 181, 1, 212, 64
-0.989245, 249, 97, 312, 160
-0.989285, 217, 209, 280, 272
-0.989451, 177, 25, 240, 88
-0.989587, 237, 65, 268, 192
-0.989785, 129, 209, 256, 272
-0.989942, 201, 81, 232, 144
-0.9901, 153, 197, 216, 228
-0.990172, 97, 33, 128, 160
-0.99018, 97, 113, 224, 176
-0.990187, 177, 1, 208, 128
-0.990202, 153, 33, 184, 160
-0.990293, 137, 185, 200, 216
-0.990382, 85, 97, 116, 224
-0.990391, 93, 1, 124, 64
-0.990409, 157, 129, 188, 256
-0.990439, 85, 105, 116, 168
-0.990462, 193, 1, 320, 64
-0.990463, 65, 49, 128, 112
-0.9905, 209, 17, 272, 144
-0.990532, 97, 113, 128, 240
-0.990582, 177, 161, 304, 224
-0.990609, 113, 197, 176, 228
-0.990649, 153, 89, 216, 152
-0.990657, 153, 53, 216, 84
-0.990671, 237, 193, 268, 256
-0.990681, 125, 169, 156, 232
-0.990688, 1, 209, 128, 272
-0.990693, 1, 65, 32, 128
-0.990705, 73, 1, 136, 32
-0.990716, 201, 81, 264, 112
-0.990769, 105, 49, 168, 80
-0.99077, 153, 1, 216, 32
-0.990788, 113, 1, 176, 32
-0.99086, 345, 1, 408, 32
-0.990893, 189, 33, 220, 160
-0.99095, 177, 193, 240, 224
-0.990984, 257, 209, 384, 272
-0.991027, 185, 181, 248, 212
-0.991031, 89, 89, 152, 152
-0.991063, 33, 105, 96, 168
-0.99109, 1, 1, 64, 32
-0.991114, 33, 1, 96, 32
-0.991163, 193, 1, 256, 32
-0.991192, 289, 209, 352, 272
-0.991226, 177, 61, 240, 92
-0.991278, 185, 1, 248, 274
-0.991308, 273, 1, 336, 64
-0.991328, 177, 109, 240, 140
-0.991363, 113, 209, 176, 272
-0.991406, 177, 97, 240, 128
-0.991409, 209, 105, 336, 168
-0.991475, 233, 33, 296, 274
-0.991504, 193, 57, 320, 120
-0.991523, 289, 185, 352, 248
-0.991543, 97, 185, 160, 216
-0.991619, 249, 209, 312, 240
-0.991662, 229, 105, 260, 168
-0.99167, 153, 41, 216, 72
-0.99174, 137, 65, 200, 96
-0.991749, 245, 113, 276, 240
-0.991761, 257, 1, 384, 64
-0.991767, 185, 113, 216, 240
-0.991799, 17, 205, 80, 236
-0.991837, 137, 209, 200, 240
-0.991839, 1, 129, 128, 192
-0.991842, 121, 1, 152, 64
-0.991872, 241, 1, 304, 32
-0.991875, 49, 1, 112, 256
-0.991885, 165, 1, 196, 64
-0.991903, 177, 85, 240, 116
-0.991916, 273, 1, 336, 32
-0.991916, 297, 1, 360, 32
-0.991916, 321, 1, 384, 32
-0.991929, 217, 1, 280, 32
-0.991929, 241, 1, 304, 64
-0.991955, 201, 205, 264, 236
-0.991996, 129, 45, 192, 76
-0.992012, 1, 1, 32, 128
-0.992017, 201, 193, 264, 224
-0.992042, 209, 101, 272, 132
-0.992069, 297, 1, 360, 64
-0.992087, 1, 81, 128, 144
-0.99209, 217, 1, 280, 64
-0.992115, 321, 1, 384, 64
-0.992152, 177, 73, 240, 104
-0.992222, 185, 33, 216, 96
-0.992272, 49, 1, 112, 274
-0.992325, 17, 193, 80, 224
-0.992335, 201, 117, 264, 148
-0.992349, 377, 129, 408, 256
-0.992362, 49, 113, 176, 176
-0.99237, 213, 177, 244, 240
-0.992457, 89, 197, 152, 228
-0.992461, 57, 113, 120, 144
-0.992475, 1, 1, 32, 32
-0.992512, 177, 169, 240, 200
-0.99252, 209, 1, 272, 274
-0.992553, 49, 153, 176, 216
-0.992553, 1, 225, 64, 256
-0.992609, 153, 81, 216, 112
-0.992616, 377, 1, 408, 32
-0.992625, 249, 33, 312, 160
-0.992627, 105, 1, 136, 64
-0.992631, 1, 25, 128, 88
-0.992665, 281, 225, 344, 256
-0.992694, 157, 57, 188, 88
-0.992701, 165, 201, 196, 232
-0.992701, 173, 53, 204, 84
-0.992709, 129, 33, 192, 64
-0.992711, 81, 113, 144, 144
-0.992712, 77, 1, 108, 64
-0.992722, 49, 89, 176, 152
-0.992729, 73, 37, 136, 68
-0.99273, 141, 201, 172, 232
-0.992731, 57, 101, 120, 132
-0.992732, 1, 41, 32, 104
-0.992739, 225, 201, 288, 232
-0.99274, 129, 173, 192, 204
-0.992753, 65, 193, 320, 256
-0.992761, 113, 209, 176, 240
-0.992771, 201, 69, 264, 100
-0.992782, 289, 185, 408, 248
-0.992782, 105, 37, 168, 68
-0.992792, 121, 193, 152, 224
-0.992813, 73, 13, 136, 44
-0.992825, 153, 93, 216, 124
-0.992854, 153, 201, 184, 232
-0.992864, 169, 41, 200, 72
-0.992864, 1, 113, 64, 176
-0.992866, 9, 181, 72, 212
-0.992867, 161, 1, 192, 32
-0.992867, 185, 133, 248, 164
-0.992876, 173, 1, 204, 32
-0.992879, 157, 41, 188, 72
-0.992879, 149, 1, 180, 32
-0.99288, 233, 113, 264, 240
-0.992886, 225, 213, 288, 244
-0.992894, 177, 197, 208, 228
-0.992895, 189, 89, 220, 120
-0.992897, 129, 1, 160, 32
-0.992905, 241, 121, 272, 184
-0.992907, 85, 1, 116, 32
-0.992907, 205, 89, 236, 120
-0.992908, 109, 1, 140, 32
-0.992929, 97, 1, 128, 32
-0.992931, 1, 181, 32, 212
-0.992935, 133, 1, 164, 64
-0.99294, 189, 101, 220, 132
-0.992946, 121, 33, 152, 160
-0.992965, 1, 209, 32, 240
-0.992967, 1, 193, 32, 224
-0.99297, 185, 1, 216, 32
-0.992971, 161, 181, 224, 212
-0.992981, 273, 209, 336, 240
-0.993, 225, 121, 288, 152
-0.993003, 73, 1, 104, 32
-0.99301, 225, 225, 288, 256
-0.993011, 137, 189, 168, 220
-0.993015, 65, 53, 128, 84
-0.993028, 177, 121, 240, 152
-0.993031, 1, 241, 32, 272
-0.993033, 1, 125, 32, 156
-0.993039, 225, 69, 288, 100
-0.993039, 129, 205, 160, 236
-0.993042, 201, 1, 232, 32
-0.993042, 169, 185, 200, 216
-0.993055, 1, 237, 64, 268
-0.993061, 1, 221, 32, 252
-0.993064, 61, 1, 92, 32
-0.993065, 161, 209, 224, 240
-0.993083, 9, 169, 72, 200
-0.99309, 1, 109, 32, 140
-0.993091, 189, 193, 220, 224
-0.993097, 257, 65, 384, 192
-0.993114, 33, 113, 96, 144
-0.993116, 189, 185, 220, 248
-0.993119, 153, 109, 216, 140
-0.993122, 1, 169, 32, 200
-0.993132, 201, 113, 232, 144
-0.993136, 225, 189, 288, 220
-0.993138, 1, 141, 32, 172
-0.993149, 217, 161, 280, 224
-0.993159, 169, 69, 200, 100
-0.993159, 1, 157, 32, 188
-0.993168, 153, 29, 216, 60
-0.993168, 217, 77, 248, 108
-0.993172, 149, 189, 180, 220
-0.993178, 65, 81, 320, 144
-0.993189, 185, 69, 216, 100
-0.993189, 225, 81, 288, 112
-0.993198, 109, 45, 140, 76
-0.993208, 273, 145, 336, 272
-0.993224, 153, 13, 216, 44
-0.993224, 13, 1, 44, 32
-0.993224, 49, 1, 80, 32
-0.993225, 229, 121, 260, 152
-0.993228, 229, 81, 260, 112
-0.993229, 97, 101, 160, 132
-0.99323, 137, 49, 168, 80
-0.993237, 1, 93, 32, 124
-0.993239, 217, 1, 248, 32
-0.993241, 205, 77, 236, 108
-0.993247, 37, 1, 68, 32
-0.993247, 233, 1, 264, 32
-0.993248, 201, 101, 232, 132
-0.993249, 25, 1, 56, 32
-0.993249, 281, 1, 312, 32
-0.993249, 293, 1, 324, 32
-0.993249, 305, 1, 336, 32
-0.993249, 317, 1, 348, 32
-0.993249, 329, 1, 360, 32
-0.993249, 341, 1, 372, 32
-0.993249, 353, 1, 384, 32
-0.993249, 365, 1, 396, 32
-0.99325, 141, 33, 172, 160
-0.99325, 81, 125, 144, 156
-0.993253, 225, 177, 352, 240
-0.993255, 113, 61, 176, 92
-0.993255, 1, 117, 64, 148
-0.993259, 1, 81, 32, 112
-0.99326, 249, 221, 312, 252
-0.99326, 269, 1, 300, 32
-0.993272, 249, 1, 280, 32
-0.993272, 221, 109, 252, 140
-0.993275, 85, 49, 116, 176
-0.993286, 65, 65, 128, 96
-0.993295, 345, 129, 408, 256
-0.993299, 225, 173, 288, 204
-0.993302, 121, 181, 152, 212
-0.993314, 9, 157, 72, 188
-0.99332, 1, 69, 32, 100
-0.993333, 237, 193, 268, 224
-0.993334, 185, 57, 216, 88
-0.993341, 189, 181, 220, 212
-0.993345, 225, 189, 256, 220
-0.993346, 201, 217, 264, 248
-0.993352, 81, 113, 112, 144
-0.993355, 241, 105, 272, 136
-0.993358, 229, 205, 260, 236
-0.993358, 193, 49, 256, 80
-0.993367, 65, 205, 128, 236
-0.993368, 305, 225, 336, 256
-0.993376, 113, 113, 144, 240
-0.993381, 1, 57, 32, 88
-0.993387, 57, 89, 120, 120
-0.99339, 249, 109, 312, 140
-0.993408, 229, 69, 260, 100
-0.993409, 109, 189, 140, 220
-0.993416, 221, 97, 252, 128
-0.993417, 185, 153, 248, 184
-0.993419, 65, 77, 128, 108
-0.993426, 73, 177, 136, 208
-0.993434, 345, 141, 408, 172
-0.993444, 157, 69, 188, 100
-0.99345, 289, 197, 352, 228
-0.993455, 1, 45, 32, 76
-0.993455, 193, 209, 256, 272
-0.993456, 249, 209, 280, 240
-0.993456, 213, 185, 244, 216
-0.99346, 65, 201, 192, 264
-0.993468, 297, 209, 360, 240
-0.993474, 13, 113, 44, 240
-0.993475, 181, 33, 212, 64
-0.993476, 281, 209, 312, 240
-0.993478, 85, 101, 116, 132
-0.993482, 57, 125, 120, 156
-0.993482, 81, 125, 112, 156
-0.993497, 133, 173, 164, 204
-0.993499, 193, 169, 224, 200
-0.993507, 237, 217, 268, 248
-0.993514, 13, 189, 44, 220
-0.993515, 93, 53, 124, 84
-0.993516, 157, 29, 188, 60
-0.993524, 25, 189, 56, 220
-0.993524, 177, 37, 240, 68
-0.993528, 13, 169, 44, 200
-0.993529, 197, 65, 228, 96
-0.99353, 1, 33, 32, 64
-0.993531, 217, 205, 248, 236
-0.993533, 161, 157, 224, 188
-0.993543, 377, 145, 408, 176
-0.993548, 93, 33, 124, 64
-0.993555, 293, 225, 324, 256
-0.993556, 97, 117, 128, 148
-0.993558, 177, 109, 208, 140
-0.993562, 241, 93, 272, 124
-0.993566, 241, 97, 272, 160
-0.993574, 141, 213, 172, 244
-0.993574, 1, 21, 32, 52
-0.993575, 297, 209, 328, 240
-0.993578, 177, 85, 208, 116
-0.99358, 145, 61, 176, 92
-0.993581, 157, 213, 188, 244
-0.993584, 201, 193, 232, 224
-0.993584, 205, 125, 236, 156
-0.993591, 241, 117, 272, 148
-0.993591, 153, 169, 216, 200
-0.993592, 185, 45, 216, 76
-0.993593, 241, 93, 304, 124
-0.993594, 201, 169, 264, 200
-0.993602, 137, 221, 200, 252
-0.993604, 313, 229, 376, 260
-0.993609, 25, 185, 56, 248
-0.993611, 65, 25, 128, 56
-0.993611, 161, 141, 224, 172
-0.993612, 13, 121, 44, 152
-0.993614, 377, 133, 408, 164
-0.993614, 1, 105, 64, 136
-0.993621, 1, 49, 128, 112
-0.993622, 145, 121, 208, 152
-0.993624, 169, 173, 200, 204
-0.993627, 113, 33, 144, 64
-0.99363, 209, 173, 240, 204
-0.993634, 209, 129, 240, 256
-0.99365, 105, 169, 168, 200
-0.993656, 85, 81, 116, 112
-0.99366, 145, 37, 176, 68
-0.993661, 101, 201, 132, 232
-0.993668, 97, 105, 128, 136
-0.993669, 49, 193, 112, 224
-0.993671, 237, 229, 268, 260
-0.993672, 261, 209, 292, 240
-0.99368, 217, 121, 248, 152
-0.993683, 345, 125, 408, 156
-0.993684, 209, 133, 272, 164
-0.993701, 249, 193, 312, 224
-0.993705, 73, 165, 136, 196
-0.99372, 121, 13, 184, 44
-0.99374, 105, 25, 168, 56
-0.99375, 201, 233, 264, 264
-0.99376, 97, 73, 160, 104
-0.993771, 289, 237, 352, 268
-0.993792, 41, 205, 104, 236
-0.993801, 33, 181, 96, 212
-0.993804, 1, 137, 64, 168
-0.993805, 313, 201, 376, 264
-0.993814, 249, 77, 312, 108
-0.993827, 249, 209, 280, 272
-0.993828, 249, 121, 312, 152
-0.993836, 113, 221, 176, 252
-0.993846, 97, 13, 160, 44
-0.993853, 25, 217, 88, 248
-0.993862, 41, 165, 104, 196
-0.993895, 197, 49, 228, 112
-0.993898, 209, 153, 272, 184
-0.993903, 97, 89, 160, 120
-0.993905, 1, 49, 256, 112
-0.993921, 89, 209, 152, 240
-0.993965, 73, 33, 104, 160
-0.993976, 177, 25, 240, 56
-0.993979, 225, 237, 288, 268
-0.993985, 313, 133, 376, 164
-0.994015, 161, 129, 288, 192
-0.994057, 93, 25, 124, 88
-0.994058, 65, 169, 128, 232
-0.994071, 193, 105, 224, 168
-0.994095, 233, 1, 296, 274
-0.994125, 121, 81, 184, 208
-0.994179, 313, 145, 376, 272
-0.99426, 177, 89, 208, 152
-0.994262, 345, 137, 408, 200
-0.994335, 157, 65, 188, 128
-0.994352, 1, 1, 16, 64
-0.994527, 209, 17, 336, 144
-0.994538, 277, 201, 308, 264
-0.994551, 1, 161, 256, 224
-0.994643, 69, 113, 100, 240
-0.994662, 97, 113, 128, 176
-0.994777, 169, 33, 184, 96
-0.994779, 233, 121, 296, 184
-0.99481, 161, 81, 408, 144
-0.994842, 85, 49, 116, 112
-0.994876, 33, 105, 288, 168
-0.994884, 25, 201, 88, 264
-0.994961, 121, 113, 184, 176
-0.995004, 161, 193, 288, 224
-0.995016, 129, 105, 384, 168
-0.995045, 201, 169, 232, 232
-0.99505, 201, 1, 232, 64
-0.995059, 165, 153, 196, 216
-0.995093, 133, 41, 164, 104
-0.995093, 109, 177, 140, 240
-0.995129, 57, 1, 88, 64
-0.995149, 1, 89, 64, 152
-0.995173, 49, 57, 176, 120
-0.995202, 89, 161, 152, 224
-0.995213, 257, 113, 384, 176
-0.99528, 73, 137, 136, 200
-0.995298, 249, 73, 312, 136
-0.995333, 201, 33, 232, 160
-0.995367, 193, 25, 320, 88
-0.995372, 41, 81, 104, 144
-0.995381, 77, 81, 108, 144
-0.995431, 13, 153, 44, 216
-0.995433, 33, 1, 288, 64
-0.995488, 289, 209, 320, 272
-0.995526, 265, 201, 296, 264
-0.995532, 377, 145, 408, 208
-0.995536, 175, 33, 190, 96
-0.995556, 81, 1, 208, 32
-0.995556, 129, 169, 384, 232
-0.99557, 149, 177, 164, 240
-0.995574, 197, 145, 228, 272
-0.995589, 81, 57, 208, 88
-0.995593, 121, 25, 152, 88
-0.995603, 13, 185, 44, 248
-0.995647, 147, 201, 162, 264
-0.995692, 181, 177, 196, 240
-0.995732, 155, 177, 170, 240
-0.995802, 161, 85, 288, 116
-0.995833, 225, 153, 352, 216
-0.99586, 113, 197, 240, 228
-0.995867, 161, 109, 288, 140
-0.995917, 1, 185, 408, 248
-0.995936, 309, 209, 340, 272
-0.995951, 1, 1, 128, 32
-0.996, 1, 65, 16, 128
-0.996009, 191, 49, 206, 112
-0.996012, 167, 177, 182, 240
-0.996025, 129, 181, 256, 212
-0.996063, 137, 193, 152, 256
-0.996065, 217, 121, 248, 184
-0.996069, 177, 1, 304, 32
-0.996102, 161, 73, 288, 104
-0.996144, 97, 89, 128, 152
-0.996205, 241, 57, 368, 120
-0.996206, 129, 1, 256, 32
-0.99622, 163, 33, 178, 96
-0.996222, 169, 113, 200, 176
-0.996229, 181, 65, 196, 128
-0.996234, 1, 41, 16, 104
-0.996247, 161, 193, 408, 256
-0.996251, 161, 97, 288, 128
-0.996256, 239, 185, 254, 248
-0.996261, 1, 97, 16, 160
-0.996291, 1, 1, 64, 274
-0.996302, 215, 73, 230, 136
-0.996326, 289, 137, 408, 200
-0.996347, 129, 1, 384, 64
-0.996349, 173, 177, 188, 240
-0.996356, 185, 41, 200, 104
-0.99636, 145, 57, 272, 88
-0.99636, 143, 177, 158, 240
-0.996379, 161, 177, 176, 240
-0.996387, 1, 137, 256, 200
-0.996402, 81, 45, 208, 76
-0.996445, 187, 185, 202, 248
-0.996467, 393, 1, 408, 64
-0.996481, 253, 97, 284, 160
-0.996505, 65, 193, 192, 224
-0.996587, 345, 105, 408, 168
-0.996649, 251, 89, 266, 152
-0.996667, 157, 201, 172, 264
-0.996684, 13, 121, 44, 184
-0.996689, 1, 49, 64, 176
-0.99669, 177, 161, 208, 224
-0.996704, 377, 113, 408, 176
-0.996705, 97, 65, 160, 128
-0.996713, 129, 57, 384, 120
-0.996714, 1, 121, 16, 184
-0.996788, 165, 33, 196, 274
-0.996796, 377, 81, 408, 208
-0.996827, 225, 1, 352, 32
-0.996834, 113, 137, 176, 200
-0.99685, 209, 101, 336, 132
-0.99686, 237, 65, 252, 128
-0.996862, 175, 65, 190, 128
-0.996906, 225, 81, 240, 144
-0.996912, 169, 1, 184, 64
-0.996913, 273, 1, 400, 32
-0.99694, 1, 113, 408, 176
-0.996941, 245, 169, 276, 232
-0.996961, 129, 33, 384, 96
-0.996974, 225, 209, 256, 272
-0.996983, 131, 185, 146, 248
-0.996995, 115, 33, 130, 96
-0.997016, 13, 1, 44, 64
-0.997027, 113, 69, 240, 100
-0.997031, 157, 33, 172, 96
-0.997034, 1, 89, 408, 152
-0.997066, 3, 1, 18, 32
-0.997076, 1, 169, 16, 232
-0.997087, 209, 81, 224, 144
-0.997109, 231, 65, 246, 128
-0.99711, 1, 193, 16, 256
-0.99711, 1, 189, 128, 220
-0.997127, 177, 1, 192, 64
-0.997141, 253, 65, 284, 192
-0.997178, 163, 1, 178, 64
-0.997185, 1, 145, 16, 208
-0.99719, 113, 93, 240, 124
-0.997193, 1, 205, 128, 236
-0.997209, 121, 1, 136, 64
-0.997234, 1, 117, 128, 148
-0.997247, 209, 89, 336, 120
-0.99727, 145, 45, 272, 76
-0.997272, 229, 185, 244, 248
-0.997312, 257, 81, 384, 144
-0.997318, 7, 1, 22, 64
-0.997347, 161, 205, 288, 236
-0.997347, 181, 113, 212, 176
-0.997355, 175, 201, 190, 264
-0.9974, 233, 49, 296, 112
-0.997401, 225, 213, 352, 244
-0.99742, 191, 73, 206, 136
-0.99742, 229, 49, 260, 112
-0.997421, 125, 177, 140, 240
-0.997424, 247, 201, 262, 264
-0.997429, 129, 129, 384, 192
-0.997432, 109, 1, 124, 64
-0.997438, 169, 57, 184, 120
-0.99744, 265, 177, 328, 240
-0.997448, 203, 81, 218, 144
-0.997451, 209, 57, 240, 120
-0.99747, 25, 1, 88, 274
-0.997472, 81, 1, 96, 64
-0.997473, 165, 201, 180, 264
-0.997489, 115, 1, 130, 64
-0.997517, 19, 193, 34, 256
-0.997538, 1, 1, 408, 64
-0.997565, 197, 57, 212, 120
-0.997578, 97, 81, 224, 112
-0.997583, 25, 145, 56, 272
-0.997607, 127, 1, 142, 64
-0.997612, 65, 205, 192, 236
-0.997615, 1, 25, 256, 88
-0.997628, 81, 181, 208, 212
-0.997639, 391, 1, 406, 32
-0.99764, 209, 117, 336, 148
-0.997644, 153, 1, 168, 64
-0.997651, 173, 201, 188, 232
-0.99766, 147, 205, 162, 236
-0.997664, 89, 1, 104, 64
-0.997667, 229, 1, 260, 64
-0.997671, 109, 1, 140, 256
-0.997691, 97, 137, 224, 200
-0.997693, 1, 177, 128, 208
-0.997694, 133, 193, 148, 224
-0.997696, 243, 65, 258, 128
-0.997705, 183, 1, 198, 64
-0.997712, 133, 33, 164, 274
-0.997714, 177, 181, 304, 212
-0.997728, 393, 145, 408, 208
-0.997731, 181, 201, 196, 264
-0.997739, 193, 169, 208, 232
-0.997739, 209, 129, 336, 192
-0.997741, 213, 33, 244, 160
-0.9978, 57, 193, 120, 256
-0.997801, 377, 1, 408, 128
-0.997804, 223, 177, 238, 240
-0.997809, 103, 1, 118, 64
-0.997819, 179, 1, 194, 32
-0.997832, 1, 33, 64, 274
-0.997835, 137, 169, 152, 232
-0.997835, 159, 205, 174, 236
-0.997845, 167, 201, 182, 232
-0.997848, 135, 1, 150, 64
-0.997859, 169, 1, 184, 32
-0.997866, 159, 57, 174, 88
-0.997868, 249, 1, 280, 64
-0.997872, 225, 161, 256, 224
-0.997877, 209, 77, 336, 108
-0.997892, 83, 113, 98, 176
-0.997913, 151, 33, 166, 96
-0.997914, 131, 161, 146, 224
-0.997915, 121, 33, 152, 274
-0.99792, 185, 197, 200, 228
-0.997925, 233, 113, 248, 176
-0.997928, 205, 105, 220, 168
-0.99793, 217, 1, 248, 64
-0.99793, 277, 1, 308, 64
-0.997938, 345, 1, 408, 274
-0.997946, 27, 185, 42, 248
-0.997947, 209, 169, 224, 232
-0.997952, 95, 1, 110, 32
-0.997955, 89, 105, 104, 168
-0.997956, 185, 89, 200, 152
-0.997958, 97, 109, 224, 140
-0.997958, 169, 37, 184, 68
-0.99796, 165, 57, 180, 88
-0.997963, 1, 165, 128, 196
-0.997965, 105, 1, 120, 32
-0.997967, 121, 1, 136, 32
-0.997969, 179, 201, 194, 232
-0.997974, 225, 225, 352, 256
-0.997977, 1, 93, 16, 124
-0.997977, 171, 53, 186, 84
-0.997985, 393, 105, 408, 168
-0.997999, 163, 1, 178, 32
-0.997999, 203, 89, 218, 120
-0.998, 197, 81, 212, 144
-0.998003, 79, 1, 94, 32
-0.998004, 145, 33, 176, 274
-0.998004, 177, 33, 208, 274
-0.998005, 345, 81, 408, 208
-0.998007, 45, 1, 76, 64
-0.998009, 143, 1, 158, 64
-0.99801, 113, 209, 240, 240
-0.998014, 153, 1, 168, 32
-0.998018, 115, 1, 130, 32
-0.998025, 393, 57, 408, 120
-0.998026, 251, 121, 266, 184
-0.998034, 185, 1, 200, 32
-0.99804, 131, 1, 146, 32
-0.998058, 89, 1, 104, 32
-0.998065, 273, 161, 400, 224
-0.998073, 153, 201, 168, 232
-0.998074, 147, 1, 162, 32
-0.99808, 393, 33, 408, 96
-0.998086, 1, 81, 16, 112
-0.99809, 69, 1, 84, 64
-0.998091, 191, 1, 206, 32
-0.998091, 163, 57, 178, 120
-0.998097, 17, 169, 32, 232
-0.9981, 33, 1, 64, 64
-0.9981, 293, 1, 324, 64
-0.9981, 305, 1, 336, 64
-0.9981, 317, 1, 348, 64
-0.9981, 329, 1, 360, 64
-0.9981, 341, 1, 372, 64
-0.9981, 353, 1, 384, 64
-0.9981, 365, 1, 396, 64
-0.9981, 233, 33, 264, 274
-0.998111, 1, 217, 128, 248
-0.998112, 137, 1, 152, 32
-0.998119, 97, 1, 112, 64
-0.998119, 195, 1, 210, 64
-0.998125, 141, 201, 156, 232
-0.998132, 393, 81, 408, 144
-0.998133, 257, 97, 272, 160
-0.998139, 73, 33, 104, 96
-0.998139, 153, 113, 184, 176
-0.99814, 239, 209, 254, 272
-0.99814, 1, 105, 128, 136
-0.99815, 243, 97, 258, 160
-0.998154, 1, 69, 16, 100
-0.998157, 97, 1, 128, 256
-0.998162, 1, 45, 16, 76
-0.998167, 159, 45, 174, 76
-0.998168, 215, 169, 230, 232
-0.998169, 221, 33, 252, 274
-0.99817, 253, 121, 284, 184
-0.998172, 205, 1, 220, 64
-0.998172, 193, 25, 208, 88
-0.99818, 1, 209, 408, 272
-0.998189, 1, 17, 16, 48
-0.998207, 143, 189, 158, 220
-0.998214, 217, 105, 232, 168
-0.998214, 1, 117, 16, 148
-0.998214, 71, 1, 86, 32
-0.998216, 97, 49, 128, 112
-0.998221, 1, 105, 16, 136
-0.998222, 189, 1, 204, 64
-0.998224, 205, 145, 236, 208
-0.998224, 1, 33, 16, 64
-0.998224, 197, 1, 212, 32
-0.998225, 105, 25, 120, 88
-0.998227, 1, 57, 16, 88
-0.998233, 175, 37, 190, 68
-0.998236, 181, 185, 196, 216
-0.998242, 177, 49, 192, 80
-0.998251, 1, 65, 408, 128
-0.998252, 239, 193, 254, 224
-0.998264, 205, 1, 220, 32
-0.998271, 249, 213, 280, 228
-0.998271, 193, 199, 224, 214
-0.998271, 145, 61, 176, 76
-0.998272, 153, 153, 184, 216
-0.998273, 225, 85, 256, 100
-0.998274, 205, 119, 236, 134
-0.998274, 225, 193, 256, 208
-0.998274, 117, 185, 148, 200
-0.998274, 1, 41, 32, 56
-0.998277, 109, 43, 140, 58
-0.998278, 229, 129, 260, 192
-0.998279, 245, 3, 276, 18
-0.99828, 293, 229, 324, 244
-0.99828, 237, 217, 268, 232
-0.998281, 273, 3, 304, 18
-0.998281, 205, 125, 236, 140
-0.998281, 157, 217, 188, 232
-0.998281, 221, 109, 252, 124
-0.998281, 1, 153, 128, 184
-0.998282, 137, 53, 168, 68
-0.998282, 1, 47, 32, 62
-0.998283, 257, 3, 288, 18
-0.998285, 189, 187, 220, 202
-0.998285, 285, 3, 316, 18
-0.998285, 177, 37, 208, 52
-0.998285, 219, 77, 234, 108
-0.998285, 93, 55, 124, 70
-0.998286, 129, 185, 160, 200
-0.998289, 85, 113, 116, 128
-0.998289, 185, 53, 216, 68
-0.99829, 297, 3, 328, 18
-0.998291, 1, 53, 32, 68
-0.998291, 153, 201, 184, 216
-0.998291, 309, 3, 340, 18
-0.998292, 241, 107, 272, 122
-0.998293, 101, 203, 132, 218
-0.998296, 229, 3, 260, 18
-0.998296, 169, 187, 200, 202
-0.998296, 137, 191, 168, 206
-0.998299, 21, 3, 52, 18
-0.998299, 241, 113, 272, 128
-0.998299, 321, 3, 352, 18
-0.9983, 1, 33, 32, 274
-0.9983, 13, 1, 28, 64
-0.9983, 297, 217, 328, 232
-0.9983, 153, 69, 184, 84
-0.998301, 221, 73, 252, 88
-0.998302, 365, 3, 396, 18
-0.998304, 1, 59, 32, 74
-0.998304, 45, 3, 76, 18
-0.998304, 337, 3, 368, 18
-0.998305, 253, 209, 268, 272
-0.998305, 197, 3, 228, 18
-0.998305, 241, 101, 272, 116
-0.998306, 127, 25, 142, 88
-0.998306, 33, 3, 64, 18
-0.998306, 213, 3, 244, 18
-0.998306, 353, 3, 384, 18
-0.998309, 157, 53, 188, 68
-0.998309, 185, 83, 216, 98
-0.99831, 297, 209, 312, 272
-0.99831, 1, 65, 32, 80
-0.998312, 205, 101, 220, 132
-0.998314, 305, 227, 336, 242
-0.998315, 1, 73, 32, 88
-0.998317, 217, 207, 248, 222
-0.998317, 209, 197, 336, 228
-0.998318, 257, 1, 320, 274
-0.998318, 197, 83, 228, 98
-0.998319, 157, 47, 188, 62
-0.998319, 237, 209, 268, 224
-0.99832, 233, 125, 264, 140
-0.99832, 169, 197, 200, 212
-0.998322, 189, 193, 220, 208
-0.998323, 213, 85, 244, 100
-0.998323, 191, 97, 206, 160
-0.998323, 109, 49, 140, 64
-0.998324, 113, 113, 144, 176
-0.998327, 61, 3, 92, 18
-0.998329, 177, 63, 208, 78
-0.99833, 1, 235, 32, 250
-0.998333, 121, 3, 152, 18
-0.998333, 169, 3, 200, 18
-0.998335, 221, 115, 252, 130
-0.998335, 1, 93, 32, 108
-0.998335, 1, 79, 32, 94
-0.998336, 141, 3, 172, 18
-0.998336, 73, 3, 104, 18
-0.998337, 177, 69, 208, 84
-0.998337, 201, 113, 232, 128
-0.998338, 1, 85, 32, 100
-0.998339, 129, 209, 160, 224
-0.99834, 105, 3, 136, 18
-0.998343, 319, 209, 334, 272
-0.998343, 117, 191, 148, 206
-0.998345, 13, 1, 28, 32
-0.998345, 1, 229, 32, 244
-0.998348, 221, 127, 252, 142
-0.998348, 189, 91, 220, 106
-0.998349, 209, 103, 240, 118
-0.998349, 1, 99, 32, 114
-0.998352, 85, 3, 116, 18
-0.998354, 1, 107, 32, 122
-0.998356, 1, 137, 32, 152
-0.998356, 165, 69, 196, 84
-0.998357, 225, 79, 256, 94
-0.998357, 69, 121, 100, 184
-0.998357, 173, 51, 204, 66
-0.998357, 141, 201, 172, 216
-0.998358, 169, 43, 200, 58
-0.998362, 125, 185, 140, 216
-0.998362, 213, 79, 244, 94
-0.998366, 1, 143, 32, 158
-0.998366, 97, 121, 224, 152
-0.998366, 181, 3, 212, 18
-0.998367, 1, 153, 32, 168
-0.998368, 1, 159, 32, 174
-0.998368, 1, 123, 32, 138
-0.998369, 1, 183, 32, 198
-0.998372, 1, 165, 32, 180
-0.998373, 1, 173, 32, 188
-0.998374, 1, 129, 16, 160
-0.998377, 153, 3, 184, 18
-0.998379, 213, 93, 228, 124
-0.99838, 221, 121, 252, 136
-0.998383, 1, 129, 32, 144
-0.998386, 205, 97, 236, 112
-0.998387, 225, 237, 352, 268
-0.998388, 1, 223, 32, 238
-0.998389, 1, 241, 32, 256
-0.998389, 1, 249, 32, 264
-0.998389, 157, 41, 188, 56
-0.99839, 281, 201, 296, 264
-0.998391, 181, 201, 212, 216
-0.998393, 393, 185, 408, 248
-0.998393, 169, 57, 200, 72
-0.998395, 1, 113, 32, 128
-0.998396, 303, 193, 318, 256
-0.998397, 119, 177, 134, 240
-0.998397, 191, 197, 206, 228
-0.998405, 189, 57, 204, 88
-0.998406, 1, 203, 32, 218
-0.998406, 1, 211, 32, 226
-0.998407, 49, 117, 176, 148
-0.998408, 175, 153, 190, 216
-0.998408, 121, 25, 136, 88
-0.998409, 1, 189, 32, 204
-0.998411, 1, 217, 32, 232
-0.998411, 101, 97, 116, 160
-0.998411, 181, 153, 196, 216
-0.998412, 1, 197, 32, 212
-0.998412, 189, 107, 220, 122
-0.998413, 157, 207, 188, 222
-0.998415, 203, 57, 218, 120
-0.998422, 113, 33, 240, 64
-0.998423, 189, 97, 220, 112
-0.998425, 201, 91, 232, 106
-0.998433, 169, 205, 200, 220
-0.998435, 377, 177, 408, 240
-0.99844, 265, 1, 296, 64
-0.998443, 1, 259, 32, 274
-0.998448, 245, 121, 260, 184
-0.998448, 377, 3, 408, 18
-0.998449, 183, 57, 198, 88
-0.998451, 75, 1, 90, 64
-0.998455, 1, 141, 16, 172
-0.998459, 231, 73, 246, 104
-0.998462, 129, 203, 160, 218
-0.998465, 121, 197, 152, 212
-0.998466, 1, 129, 128, 160
-0.998467, 249, 177, 264, 240
-0.99847, 187, 161, 202, 224
-0.998472, 145, 207, 176, 222
-0.998479, 159, 193, 174, 224
-0.99848, 1, 3, 32, 18
-0.998481, 1, 173, 16, 204
-0.998482, 149, 81, 180, 208
-0.998484, 157, 59, 188, 74
-0.998486, 153, 59, 216, 74
-0.998486, 175, 185, 190, 216
-0.998486, 65, 1, 80, 32
-0.998486, 115, 41, 130, 72
-0.99849, 273, 201, 400, 232
-0.99849, 25, 161, 40, 224
-0.998493, 1, 185, 16, 216
-0.998493, 1, 197, 16, 228
-0.998493, 49, 169, 176, 200
-0.998511, 77, 1, 108, 256
-0.998512, 1, 209, 16, 240
-0.998515, 137, 207, 200, 222
-0.998522, 1, 161, 16, 192
-0.998522, 241, 1, 256, 32
-0.998525, 23, 1, 38, 32
-0.998525, 29, 1, 44, 32
-0.998525, 35, 1, 50, 32
-0.998525, 41, 1, 56, 32
-0.998525, 47, 1, 62, 32
-0.998525, 53, 1, 68, 32
-0.998525, 59, 1, 74, 32
-0.998525, 211, 1, 226, 32
-0.998525, 217, 1, 232, 32
-0.998525, 223, 1, 238, 32
-0.998525, 229, 1, 244, 32
-0.998525, 235, 1, 250, 32
-0.998525, 283, 1, 298, 32
-0.998525, 289, 1, 304, 32
-0.998525, 295, 1, 310, 32
-0.998525, 301, 1, 316, 32
-0.998525, 307, 1, 322, 32
-0.998525, 313, 1, 328, 32
-0.998525, 319, 1, 334, 32
-0.998525, 325, 1, 340, 32
-0.998525, 331, 1, 346, 32
-0.998525, 337, 1, 352, 32
-0.998525, 343, 1, 358, 32
-0.998525, 349, 1, 364, 32
-0.998525, 355, 1, 370, 32
-0.998525, 361, 1, 376, 32
-0.998525, 367, 1, 382, 32
-0.998525, 373, 1, 388, 32
-0.998525, 379, 1, 394, 32
-0.998525, 385, 1, 400, 32
-0.998528, 137, 181, 152, 212
-0.998532, 149, 189, 164, 220
-0.998542, 277, 1, 292, 32
-0.998543, 97, 13, 224, 44
-0.998544, 21, 229, 36, 260
-0.998547, 13, 121, 28, 184
-0.998547, 49, 105, 176, 136
-0.998549, 167, 185, 182, 216
-0.998551, 227, 121, 242, 184
-0.998553, 97, 199, 160, 214
-0.998554, 247, 1, 262, 32
-0.998554, 137, 197, 200, 212
-0.998555, 1, 221, 16, 252
-0.998557, 161, 203, 224, 218
-0.998563, 185, 137, 216, 200
-0.998565, 1, 141, 128, 172
-0.998566, 301, 185, 332, 248
-0.998573, 253, 1, 268, 32
-0.998573, 271, 1, 286, 32
-0.998576, 183, 113, 198, 176
-0.998581, 189, 33, 220, 274
-0.998582, 133, 25, 148, 88
-0.998589, 313, 209, 328, 272
-0.99859, 265, 1, 280, 32
-0.998592, 177, 81, 240, 96
-0.998592, 201, 83, 264, 98
-0.998598, 161, 121, 288, 152
-0.9986, 195, 97, 210, 128
-0.998601, 143, 153, 158, 216
-0.998602, 289, 201, 304, 264
-0.998604, 259, 1, 274, 32
-0.998605, 77, 113, 92, 176
-0.998606, 237, 69, 252, 100
-0.998612, 201, 89, 264, 104
-0.998613, 185, 197, 248, 212
-0.998613, 97, 205, 160, 220
-0.998617, 97, 49, 112, 112
-0.998617, 345, 3, 408, 18
-0.998617, 105, 53, 168, 68
-0.998618, 203, 169, 218, 232
-0.998618, 1, 161, 408, 224
-0.99862, 1, 233, 16, 264
-0.998626, 177, 91, 240, 106
-0.998627, 177, 109, 240, 124
-0.998635, 149, 49, 164, 80
-0.998636, 185, 185, 248, 200
-0.998636, 177, 69, 240, 84
-0.998639, 1, 3, 64, 18
-0.99864, 137, 69, 200, 84
-0.998641, 185, 99, 248, 114
-0.998645, 145, 25, 160, 88
-0.998648, 233, 161, 248, 224
-0.998649, 73, 3, 136, 18
-0.998649, 199, 33, 214, 96
-0.99865, 201, 77, 264, 92
-0.998651, 145, 191, 208, 206
-0.998652, 175, 65, 190, 96
-0.998653, 105, 3, 168, 18
-0.998655, 273, 221, 400, 252
-0.998656, 187, 185, 202, 216
-0.998657, 177, 115, 240, 130
-0.998659, 241, 213, 256, 244
-0.998662, 153, 3, 216, 18
-0.998665, 129, 3, 192, 18
-0.998665, 247, 85, 262, 116
-0.998667, 49, 3, 112, 18
-0.998669, 1, 205, 64, 220
-0.998669, 249, 213, 312, 228
-0.99867, 177, 75, 240, 90
-0.998671, 201, 105, 264, 120
-0.998673, 129, 51, 192, 66
-0.998673, 185, 209, 248, 224
-0.998673, 181, 69, 196, 100
-0.998675, 193, 191, 256, 206
-0.998675, 1, 259, 64, 274
-0.998675, 209, 111, 272, 126
-0.998676, 317, 221, 332, 252
-0.998677, 177, 3, 240, 18
-0.998679, 161, 99, 224, 114
-0.99868, 89, 193, 152, 208
-0.998682, 161, 169, 288, 200
-0.998684, 25, 3, 88, 18
-0.998686, 209, 209, 272, 224
-0.998687, 209, 81, 224, 112
-0.998687, 113, 211, 176, 226
-0.998688, 65, 33, 192, 64
-0.998689, 57, 115, 120, 130
-0.998689, 137, 217, 200, 232
-0.998691, 129, 61, 192, 76
-0.998693, 305, 3, 368, 18
-0.998693, 105, 59, 168, 74
-0.998693, 281, 3, 344, 18
-0.998696, 201, 3, 264, 18
-0.998696, 209, 123, 272, 138
-0.998696, 129, 185, 192, 200
-0.998697, 209, 99, 272, 114
-0.998697, 105, 47, 168, 62
-0.998697, 1, 199, 64, 214
-0.998698, 17, 211, 80, 226
-0.998699, 191, 69, 206, 100
-0.998699, 257, 3, 320, 18
-0.9987, 185, 123, 248, 138
-0.998701, 281, 229, 344, 244
-0.998702, 57, 109, 120, 124
-0.998702, 153, 53, 216, 68
-0.998703, 225, 3, 288, 18
-0.998706, 9, 193, 72, 208
-0.998707, 1, 233, 64, 248
-0.998708, 185, 131, 248, 146
-0.998709, 1, 223, 64, 238
-0.99871, 73, 207, 136, 222
-0.998713, 57, 121, 120, 136
-0.998714, 177, 179, 240, 194
-0.998714, 209, 117, 272, 132
-0.998716, 145, 45, 208, 60
-0.998716, 161, 213, 224, 228
-0.998719, 255, 109, 270, 140
-0.998719, 81, 117, 144, 132
-0.99872, 249, 223, 312, 238
-0.99872, 1, 239, 64, 254
-0.998721, 9, 185, 72, 200
-0.998723, 21, 217, 36, 248
-0.998723, 225, 203, 288, 218
-0.998724, 113, 217, 176, 232
-0.998724, 33, 117, 96, 132
-0.998724, 1, 217, 64, 232
-0.998724, 243, 109, 258, 140
-0.998725, 73, 47, 136, 62
-0.998725, 65, 81, 96, 144
-0.998726, 89, 187, 152, 202
-0.998727, 105, 41, 168, 56
-0.998731, 177, 63, 240, 78
-0.998732, 1, 245, 64, 260
-0.998733, 121, 191, 184, 206
-0.998734, 233, 229, 296, 244
-0.998735, 73, 57, 136, 72
-0.998735, 121, 179, 184, 194
-0.998736, 153, 89, 216, 104
-0.998736, 225, 83, 288, 98
-0.998736, 1, 119, 64, 134
-0.998737, 235, 117, 250, 148
-0.998737, 289, 217, 352, 232
-0.998738, 213, 201, 244, 264
-0.998738, 225, 215, 288, 230
-0.998738, 105, 65, 168, 80
-0.998739, 161, 39, 224, 54
-0.998741, 161, 197, 224, 212
-0.998741, 217, 129, 280, 144
-0.998742, 81, 123, 144, 138
-0.998743, 9, 167, 72, 182
-0.998743, 225, 77, 240, 108
-0.998744, 65, 63, 128, 78
-0.998745, 185, 203, 248, 218
-0.998745, 9, 179, 72, 194
-0.998746, 249, 119, 312, 134
-0.998747, 145, 179, 208, 194
-0.998747, 73, 41, 136, 56
-0.998748, 25, 205, 88, 220
-0.998748, 65, 91, 128, 106
-0.998749, 169, 191, 232, 206
-0.998749, 1, 253, 64, 268
-0.998749, 1, 125, 64, 140
-0.99875, 225, 93, 288, 108
-0.998751, 73, 13, 136, 28
-0.998751, 225, 105, 240, 136
-0.998751, 201, 225, 264, 240
-0.998752, 185, 137, 248, 152
-0.998753, 193, 81, 208, 112
-0.998753, 225, 77, 288, 92
-0.998753, 153, 105, 216, 120
-0.998754, 57, 127, 120, 142
-0.998754, 65, 71, 128, 86
-0.998754, 153, 185, 216, 200
-0.998754, 161, 173, 224, 188
-0.998756, 225, 185, 352, 216
-0.998756, 73, 201, 136, 216
-0.998756, 273, 223, 336, 238
-0.998757, 57, 99, 120, 114
-0.998759, 145, 113, 208, 128
-0.99876, 9, 173, 72, 188
-0.998761, 65, 85, 128, 100
-0.998761, 233, 191, 296, 206
-0.998761, 65, 77, 128, 92
-0.998762, 185, 157, 248, 172
-0.998763, 289, 209, 352, 224
-0.998767, 1, 229, 128, 260
-0.998774, 1, 45, 128, 76
-0.998788, 81, 129, 112, 192
-0.99886, 1, 73, 128, 104
-0.998863, 161, 133, 288, 164
-0.998892, 1, 57, 128, 88
-0.998905, 289, 185, 320, 248
-0.99892, 133, 137, 164, 200
-0.998934, 161, 33, 288, 64
-0.998936, 1, 93, 128, 124
-0.998961, 289, 137, 408, 168
-0.99898, 49, 13, 176, 44
-0.999021, 49, 137, 112, 200
-0.999021, 33, 97, 64, 224
-0.999046, 205, 33, 236, 274
-0.999068, 1, 41, 408, 104
-0.999074, 1, 49, 16, 176
-0.999087, 1, 1, 16, 128
-0.999088, 197, 25, 228, 88
-0.999093, 65, 1, 96, 256
-0.999105, 121, 49, 152, 112
-0.999119, 225, 65, 352, 96
-0.99914, 281, 1, 344, 274
-0.999147, 65, 69, 192, 100
-0.99915, 113, 169, 240, 200
-0.999165, 57, 97, 88, 224
-0.999196, 345, 193, 408, 256
-0.999209, 273, 233, 400, 264
-0.99921, 1, 33, 128, 64
-0.999241, 225, 129, 352, 160
-0.999253, 1, 97, 16, 224
-0.999267, 179, 33, 194, 160
-0.999288, 113, 33, 128, 160
-0.999289, 173, 33, 188, 160
-0.999301, 149, 129, 164, 256
-0.999303, 257, 113, 288, 240
-0.999323, 225, 173, 352, 204
-0.999335, 155, 129, 170, 256
-0.999336, 49, 93, 176, 124
-0.999338, 167, 129, 182, 256
-0.999352, 145, 221, 272, 252
-0.999376, 233, 81, 248, 208
-0.999381, 145, 17, 272, 48
-0.999382, 215, 81, 230, 208
-0.999394, 227, 65, 242, 192
-0.999397, 1, 145, 16, 272
-0.999397, 161, 129, 176, 256
-0.999398, 243, 65, 258, 192
-0.999401, 143, 113, 158, 240
-0.999412, 193, 53, 320, 84
-0.999412, 173, 129, 188, 256
-0.999415, 113, 153, 144, 216
-0.99942, 141, 113, 172, 176
-0.999422, 257, 101, 384, 132
-0.999438, 105, 49, 120, 176
-0.999442, 221, 65, 236, 192
-0.999456, 377, 25, 408, 88
-0.999456, 377, 49, 408, 112
-0.999456, 377, 73, 408, 136
-0.999458, 377, 33, 408, 274
-0.999461, 253, 65, 268, 192
-0.999468, 115, 113, 130, 240
-0.999469, 99, 33, 114, 160
-0.999471, 49, 81, 176, 112
-0.999478, 189, 1, 204, 128
-0.999481, 119, 33, 134, 160
-0.999487, 393, 129, 408, 256
-0.999492, 225, 129, 240, 256
-0.999493, 49, 129, 176, 160
-0.999495, 193, 49, 208, 176
-0.999496, 125, 113, 140, 240
-0.999496, 25, 161, 56, 224
-0.999498, 165, 33, 180, 160
-0.999505, 211, 85, 226, 100
-0.999505, 169, 69, 184, 84
-0.999507, 29, 3, 44, 18
-0.999507, 379, 3, 394, 18
-0.999507, 385, 3, 400, 18
-0.999508, 239, 195, 254, 210
-0.999508, 207, 99, 222, 114
-0.999508, 139, 189, 154, 204
-0.999508, 169, 35, 184, 50
-0.999509, 195, 105, 210, 120
-0.999509, 353, 3, 368, 18
-0.99951, 219, 3, 234, 18
-0.99951, 225, 3, 240, 18
-0.99951, 49, 3, 64, 18
-0.99951, 55, 3, 70, 18
-0.99951, 213, 3, 228, 18
-0.999511, 105, 1, 120, 128
-0.999511, 341, 3, 356, 18
-0.999511, 373, 3, 388, 18
-0.999511, 127, 33, 142, 160
-0.999511, 223, 97, 238, 112
-0.999511, 43, 3, 58, 18
-0.999511, 63, 3, 78, 18
-0.999511, 199, 3, 214, 18
-0.999512, 13, 3, 28, 18
-0.999512, 225, 129, 240, 144
-0.999512, 235, 123, 250, 138
-0.999513, 359, 3, 374, 18
-0.999513, 35, 3, 50, 18
-0.999514, 317, 225, 332, 240
-0.999514, 83, 113, 98, 240
-0.999514, 241, 219, 256, 234
-0.999515, 181, 197, 196, 212
-0.999515, 173, 53, 188, 68
-0.999515, 189, 3, 204, 18
-0.999516, 175, 59, 190, 74
-0.999516, 191, 69, 206, 84
-0.999516, 125, 195, 140, 210
-0.999517, 223, 85, 238, 100
-0.999517, 141, 33, 156, 160
-0.999518, 191, 195, 206, 210
-0.999518, 225, 123, 240, 138
-0.999519, 229, 77, 244, 92
-0.999519, 185, 65, 200, 192
-0.99952, 131, 113, 146, 240
-0.999521, 115, 45, 130, 60
-0.999521, 187, 59, 202, 74
-0.999521, 131, 207, 146, 222
-0.999522, 125, 201, 140, 216
-0.999523, 195, 95, 210, 110
-0.999523, 177, 3, 192, 18
-0.999525, 1, 249, 16, 264
-0.999525, 7, 3, 22, 18
-0.999526, 147, 33, 162, 160
-0.999527, 175, 69, 190, 84
-0.999529, 73, 3, 88, 18
-0.99953, 393, 81, 408, 208
-0.999531, 119, 3, 134, 18
-0.999531, 33, 25, 96, 88
-0.999532, 181, 113, 196, 240
-0.999532, 155, 3, 170, 18
-0.999532, 1, 243, 16, 258
-0.999533, 125, 189, 140, 204
-0.999533, 141, 3, 156, 18
-0.999533, 161, 3, 176, 18
-0.999534, 79, 3, 94, 18
-0.999535, 1, 237, 16, 252
-0.999535, 125, 3, 140, 18
-0.999535, 107, 3, 122, 18
-0.999536, 113, 3, 128, 18
-0.999537, 1, 229, 16, 244
-0.999539, 131, 3, 146, 18
-0.999539, 235, 75, 250, 90
-0.999539, 149, 201, 164, 216
-0.999539, 147, 3, 162, 18
-0.99954, 95, 3, 110, 18
-0.99954, 181, 69, 196, 84
-0.999542, 1, 223, 16, 238
-0.999543, 101, 3, 116, 18
-0.999543, 153, 33, 168, 160
-0.999543, 81, 1, 96, 128
-0.999543, 179, 49, 194, 64
-0.999545, 213, 95, 228, 110
-0.999547, 87, 3, 102, 18
-0.999547, 1, 165, 16, 180
-0.999548, 219, 129, 234, 256
-0.999548, 1, 217, 16, 232
-0.999548, 1, 159, 16, 174
-0.999549, 1, 171, 16, 186
-0.999549, 21, 235, 36, 250
-0.999549, 1, 241, 128, 272
-0.99955, 1, 177, 16, 192
-0.999551, 241, 225, 256, 240
-0.999551, 1, 193, 16, 208
-0.999551, 1, 199, 16, 214
-0.999551, 1, 205, 16, 220
-0.999551, 1, 211, 16, 226
-0.999552, 1, 183, 16, 198
-0.999553, 249, 129, 264, 256
-0.999554, 1, 149, 16, 164
-0.999555, 187, 203, 202, 218
-0.999555, 245, 33, 276, 274
-0.999556, 239, 129, 254, 256
-0.999556, 1, 259, 16, 274
-0.999558, 217, 79, 232, 94
-0.99956, 203, 107, 218, 122
-0.99956, 1, 143, 16, 158
-0.999561, 217, 89, 232, 104
-0.999562, 133, 33, 148, 160
-0.999562, 1, 119, 16, 134
-0.999563, 89, 97, 104, 224
-0.999567, 199, 97, 214, 224
-0.999571, 203, 93, 218, 108
-0.999571, 1, 137, 16, 152
-0.999573, 131, 201, 146, 216
-0.999574, 201, 101, 216, 116
-0.999574, 169, 3, 184, 18
-0.999574, 137, 129, 152, 256
-0.999577, 169, 205, 184, 220
-0.999578, 1, 131, 16, 146
-0.999578, 145, 233, 272, 264
-0.999579, 209, 81, 224, 208
-0.999579, 19, 145, 34, 272
-0.999579, 183, 3, 198, 18
-0.999581, 49, 157, 176, 188
-0.999581, 109, 113, 124, 240
-0.999582, 1, 111, 16, 126
-0.999582, 1, 33, 16, 48
-0.999583, 1, 39, 16, 54
-0.999583, 179, 39, 194, 54
-0.999584, 165, 59, 180, 74
-0.999585, 1, 65, 16, 80
-0.999586, 1, 125, 16, 140
-0.999588, 159, 33, 174, 160
-0.999588, 1, 27, 16, 42
-0.999589, 1, 57, 16, 72
-0.99959, 1, 51, 16, 66
-0.99959, 1, 19, 16, 34
-0.99959, 1, 73, 16, 88
-0.999591, 1, 45, 16, 60
-0.999592, 155, 207, 170, 222
-0.999593, 181, 205, 196, 220
-0.999594, 163, 207, 178, 222
-0.999595, 1, 81, 16, 96
-0.999597, 1, 9, 16, 24
-0.999598, 393, 1, 408, 128
-0.999608, 175, 205, 190, 220
-0.999608, 1, 87, 16, 102
-0.999609, 255, 113, 270, 240
-0.999612, 169, 41, 184, 56
-0.999614, 81, 49, 96, 176
-0.999614, 141, 205, 156, 220
-0.999616, 159, 59, 174, 74
-0.999617, 1, 95, 16, 110
-0.999622, 1, 105, 16, 120
-0.999623, 131, 195, 146, 210
-0.999625, 391, 3, 406, 18
-0.999626, 273, 189, 400, 220
-0.999628, 89, 1, 104, 128
-0.999639, 237, 33, 252, 160
-0.999642, 209, 153, 336, 184
-0.999645, 147, 209, 162, 224
-0.999645, 87, 49, 102, 176
-0.999648, 137, 199, 152, 214
-0.99966, 233, 129, 248, 256
-0.999665, 97, 97, 112, 224
-0.999677, 187, 113, 202, 240
-0.99968, 213, 129, 228, 256
-0.999681, 27, 129, 42, 256
-0.999682, 195, 1, 210, 128
-0.999684, 205, 33, 220, 160
-0.999691, 103, 97, 118, 224
-0.999695, 1, 3, 16, 18
-0.999697, 125, 113, 156, 176
-0.999698, 257, 81, 384, 112
-0.999708, 113, 133, 240, 164
-0.999709, 49, 141, 176, 172
-0.999712, 257, 117, 384, 148
-0.999725, 77, 113, 92, 240
-0.999726, 227, 17, 242, 144
-0.999736, 75, 33, 90, 160
-0.999737, 269, 145, 284, 272
-0.999738, 261, 113, 276, 240
-0.999741, 15, 97, 30, 224
-0.999755, 1, 21, 128, 52
-0.999756, 259, 65, 274, 192
-0.999762, 171, 81, 186, 208
-0.999765, 207, 129, 222, 256
-0.99977, 193, 97, 208, 224
-0.999771, 13, 145, 28, 272
-0.999776, 61, 169, 92, 232
-0.999778, 129, 153, 256, 184
-0.999789, 275, 145, 290, 272
-0.999792, 93, 49, 108, 176
-0.999797, 243, 17, 258, 144
-0.9998, 195, 145, 210, 272
-0.999803, 345, 1, 408, 256
-0.999813, 199, 49, 214, 176
-0.99982, 265, 65, 280, 192
-0.999822, 325, 201, 356, 264
-0.999834, 317, 145, 332, 272
-0.999835, 33, 97, 48, 224
-0.99984, 219, 17, 234, 144
-0.999844, 71, 97, 86, 224
-0.999849, 201, 145, 216, 272
-0.99985, 385, 129, 400, 256
-0.999854, 7, 33, 22, 160
-0.999855, 301, 145, 316, 272
-0.999859, 161, 81, 176, 208
-0.999859, 233, 17, 264, 144
-0.999863, 9, 81, 24, 208
-0.999866, 311, 145, 326, 272
-0.999868, 89, 145, 104, 272
-0.999874, 21, 97, 36, 224
-0.99988, 61, 33, 92, 160
-0.999882, 253, 17, 268, 144
-0.999885, 291, 145, 306, 272
-0.999886, 7, 129, 22, 256
-0.999888, 379, 129, 394, 256
-0.999898, 55, 97, 70, 224
-0.999903, 39, 97, 54, 224
-0.99991, 211, 33, 226, 160
-0.99991, 13, 65, 44, 192
-0.999911, 281, 145, 296, 272
-0.999913, 155, 81, 170, 208
-0.999915, 49, 97, 64, 224
-0.999917, 273, 145, 304, 272
-0.999919, 149, 81, 164, 208
-0.99992, 49, 217, 176, 248
-0.99992, 35, 145, 50, 272
-0.999934, 65, 97, 80, 224
-0.999938, 193, 21, 320, 52
-0.999946, 137, 81, 152, 208
-0.999952, 257, 33, 288, 274
-0.999953, 371, 129, 386, 256
-0.999962, 363, 129, 378, 256
-0.999967, 95, 145, 110, 272
-0.99997, 313, 129, 376, 192
-0.999974, 323, 145, 338, 272
-0.999983, 13, 33, 44, 274
-0.999985, 69, 17, 84, 144
-0.99999, 329, 145, 344, 272
-0.999992, 281, 121, 344, 184
-0.999997, 355, 145, 370, 272
-0.999997, 59, 145, 74, 272
-1, 349, 129, 364, 256
-1.00001, 343, 129, 358, 256
-1.00002, 101, 145, 116, 272
-1.00002, 15, 49, 30, 176
-1.00002, 45, 145, 60, 272
-1.00003, 337, 129, 352, 256
-1.00003, 259, 17, 274, 144
-1.00004, 271, 65, 286, 192
-1.00004, 277, 65, 292, 192
-1.00005, 53, 145, 68, 272
-1.00005, 13, 1, 28, 128
-1.00006, 71, 145, 86, 272
-1.00006, 129, 81, 160, 208
-1.00006, 65, 145, 80, 272
-1.00006, 377, 201, 408, 264
-1.00007, 273, 173, 400, 204
-1.00015, 121, 89, 184, 152
-1.00015, 297, 145, 328, 272
-1.00019, 257, 81, 320, 208
-1.00019, 81, 145, 112, 272
-1.0002, 97, 221, 224, 252
-1.00025, 201, 193, 232, 256
-1.00028, 245, 73, 276, 136
-1.00028, 345, 169, 408, 232
-1.0003, 257, 149, 384, 180
-1.00031, 209, 141, 336, 172
-1.00043, 285, 145, 316, 272
-1.00044, 89, 209, 152, 272
-1.00044, 257, 161, 384, 192
-1.00046, 321, 1, 384, 274
-1.00046, 25, 33, 88, 274
-1.00046, 289, 161, 352, 224
-1.00049, 25, 129, 88, 192
-1.00058, 49, 229, 176, 260
-1.0006, 269, 33, 300, 274
-1.00063, 97, 233, 224, 264
-1.00065, 297, 33, 328, 274
-1.00065, 225, 41, 352, 72
-1.00068, 1, 137, 408, 200
-1.00071, 33, 33, 64, 274
-1.00074, 365, 129, 396, 256
-1.00076, 321, 33, 352, 274
-1.00076, 265, 65, 296, 192
-1.00077, 273, 69, 400, 100
-1.00079, 257, 25, 384, 56
-1.00079, 53, 1, 84, 256
-1.00082, 241, 53, 368, 84
-1.00082, 257, 13, 384, 44
-1.00091, 245, 17, 276, 144
-1.00095, 273, 41, 400, 72
-1.00096, 345, 1, 408, 128
-1.00096, 201, 25, 264, 88
-1.00099, 257, 33, 320, 274
-1.00102, 289, 57, 408, 88
-1.00102, 361, 33, 392, 274
-1.00105, 345, 33, 376, 274
-1.00107, 281, 33, 312, 274
-1.00115, 345, 57, 408, 120
-1.00118, 49, 241, 176, 272
-1.00121, 313, 177, 376, 240
-1.00122, 333, 33, 364, 274
-1.00125, 345, 33, 408, 96
-1.00133, 309, 1, 340, 256
-1.00145, 345, 81, 408, 144
-1.0015, 241, 145, 304, 208
-1.00153, 317, 129, 348, 256
-1.00158, 1, 65, 64, 128
-1.00159, 241, 33, 368, 96
-1.0018, 37, 145, 68, 272
-1.00205, 289, 57, 408, 120
-1.00209, 273, 97, 336, 160
-1.00224, 353, 129, 384, 256
-1.00236, 41, 57, 104, 120
-1.00237, 257, 17, 384, 144
-1.00296, 289, 33, 408, 96
-1.00296, 45, 97, 76, 224
-1.00299, 289, 33, 352, 274
-1.00307, 341, 145, 372, 272
-1.00333, 1, 25, 64, 88
-1.00365, 25, 33, 88, 160
-1.00369, 329, 145, 360, 272
-1.00386, 257, 17, 288, 144
-1.00398, 313, 153, 376, 216
-1.00405, 321, 105, 384, 168
-1.00432, 49, 145, 80, 272
-1.00435, 297, 97, 360, 160
-1.00437, 321, 33, 384, 274
-1.00465, 1, 1, 64, 128
-1.00485, 265, 153, 328, 216
-1.00485, 257, 121, 320, 184
-1.00523, 13, 17, 44, 144
-1.00554, 277, 65, 308, 192
-1.00561, 49, 49, 80, 176
-1.00563, 289, 97, 352, 224
-1.00565, 365, 81, 396, 208
-1.00567, 37, 49, 68, 176
-1.0058, 341, 97, 372, 224
-1.00597, 321, 81, 384, 208
-1.00603, 281, 65, 344, 128
-1.00618, 269, 17, 300, 144
-1.00643, 305, 97, 336, 224
-1.00644, 353, 81, 384, 208
-1.00664, 329, 97, 360, 224
-1.00669, 293, 65, 324, 192
-1.00695, 317, 81, 348, 208
-1.007, 49, 1, 80, 128
-1.00709, 257, 49, 320, 112
-1.0072, 25, 49, 56, 176
-1.00722, 281, 1, 312, 128
-1.00766, 333, 49, 364, 176
-1.00768, 305, 49, 336, 176
-1.00773, 281, 49, 344, 176
-1.00803, 293, 1, 324, 128
-1.00805, 29, 1, 60, 128
-1.0081, 361, 1, 392, 128
-1.00826, 317, 1, 348, 128
-1.00827, 345, 1, 376, 128
-1.00828, 225, 25, 288, 88
-1.00854, 305, 1, 336, 128
-1.00864, 305, 73, 368, 136
-1.00866, 265, 25, 328, 88
-1.0087, 329, 1, 360, 128
-1.00915, 273, 1, 336, 128
-1.00926, 289, 41, 352, 104
-1.00929, 321, 25, 384, 88
-1.00929, 321, 49, 384, 112
-1.01198, 297, 1, 360, 128
-1.01338, 321, 1, 384, 128
