1963
-0.474804, 161, 97, 416, 352
-0.477221, 1, 97, 500, 352
-0.515674, 257, 1, 500, 375
-0.561456, 161, 1, 416, 375
-0.585089, 1, 1, 500, 375
-0.65337, 1, 1, 500, 256
-0.664047, 1, 1, 256, 375
-0.711173, 257, 97, 500, 352
-0.806947, 65, 129, 320, 375
-0.842817, 257, 1, 500, 256
-0.870363, 257, 97, 384, 352
-0.871031, 1, 33, 256, 288
-0.874258, 177, 97, 304, 352
-0.878426, 273, 1, 400, 375
-0.87983, 353, 1, 480, 375
-0.884499, 161, 1, 416, 256
-0.890651, 177, 1, 304, 375
-0.903424, 353, 65, 480, 320
-0.905731, 225, 1, 352, 375
-0.908358, 1, 129, 500, 256
-0.908919, 161, 113, 416, 240
-0.911898, 305, 129, 432, 375
-0.913669, 97, 1, 224, 375
-0.914977, 129, 129, 256, 375
-0.915978, 1, 225, 500, 352
-0.928058, 1, 177, 500, 304
-0.929997, 81, 65, 208, 320
-0.930301, 225, 225, 480, 352
-0.935125, 161, 161, 416, 288
-0.94195, 97, 241, 352, 368
-0.943023, 257, 113, 500, 240
-0.943248, 177, 1, 304, 256
-0.947461, 49, 1, 176, 375
-0.94849, 257, 177, 500, 304
-0.949344, 129, 33, 256, 288
-0.94997, 273, 113, 400, 240
-0.950416, 273, 1, 400, 256
-0.952109, 257, 65, 500, 192
-0.953108, 337, 209, 464, 336
-0.95373, 1, 177, 256, 304
-0.954084, 209, 241, 336, 368
-0.954255, 209, 97, 336, 224
-0.954529, 281, 241, 344, 368
-0.955056, 321, 241, 384, 368
-0.95513, 273, 241, 400, 368
-0.956706, 225, 1, 352, 256
-0.958329, 353, 161, 416, 288
-0.958936, 193, 113, 256, 240
-0.95906, 337, 161, 464, 288
-0.959774, 1, 17, 500, 144
-0.960244, 1, 81, 500, 208
-0.960305, 321, 113, 384, 240
-0.961063, 257, 241, 320, 368
-0.961112, 161, 161, 288, 288
-0.962025, 161, 241, 288, 368
-0.962046, 257, 193, 384, 320
-0.96225, 369, 81, 496, 208
-0.962302, 1, 225, 256, 352
-0.962338, 1, 1, 128, 375
-0.962603, 433, 193, 496, 320
-0.962626, 217, 241, 280, 368
-0.963901, 1, 129, 128, 375
-0.964647, 1, 65, 256, 192
-0.965262, 433, 113, 496, 240
-0.965954, 161, 113, 288, 240
-0.966079, 177, 193, 240, 320
-0.966382, 281, 113, 344, 176
-0.966417, 313, 193, 376, 320
-0.966767, 153, 193, 216, 320
-0.966871, 209, 113, 272, 176
-0.967005, 401, 193, 464, 320
-0.967084, 97, 193, 224, 320
-0.967413, 345, 113, 408, 240
-0.967414, 329, 137, 392, 200
-0.968269, 161, 65, 416, 192
-0.968306, 249, 257, 312, 320
-0.968577, 249, 97, 312, 224
-0.969216, 289, 97, 352, 224
-0.969316, 217, 97, 280, 224
-0.969403, 321, 249, 384, 312
-0.969956, 345, 209, 408, 336
-0.970408, 201, 257, 264, 320
-0.970519, 273, 257, 336, 320
-0.9708, 425, 241, 488, 368
-0.971373, 345, 169, 408, 232
-0.971416, 425, 249, 488, 312
-0.972864, 193, 97, 256, 352
-0.972945, 241, 113, 304, 176
-0.973015, 225, 257, 288, 320
-0.973058, 425, 65, 488, 192
-0.973179, 193, 113, 320, 176
-0.973242, 297, 249, 360, 312
-0.973756, 193, 241, 256, 368
-0.973762, 185, 121, 248, 184
-0.974194, 337, 65, 400, 192
-0.974405, 305, 121, 368, 184
-0.974919, 209, 193, 336, 320
-0.975137, 321, 97, 384, 352
-0.975285, 353, 33, 480, 160
-0.975335, 369, 97, 432, 224
-0.975661, 169, 249, 232, 312
-0.975942, 321, 113, 448, 240
-0.975947, 273, 65, 400, 192
-0.976203, 169, 241, 232, 368
-0.976583, 33, 33, 160, 288
-0.976986, 113, 241, 240, 368
-0.977054, 425, 217, 488, 280
-0.977101, 357, 129, 388, 256
-0.977242, 257, 257, 384, 320
-0.977319, 65, 113, 320, 240
-0.977457, 297, 97, 360, 352
-0.977495, 241, 193, 304, 320
-0.977846, 313, 225, 376, 288
-0.977889, 273, 129, 400, 192
-0.977901, 113, 65, 240, 192
-0.977978, 241, 97, 304, 352
-0.978265, 273, 193, 336, 320
-0.978573, 433, 1, 496, 128
-0.978839, 369, 161, 432, 224
-0.979944, 361, 153, 392, 216
-0.979994, 217, 97, 280, 352
-0.980091, 209, 257, 336, 320
-0.980223, 273, 97, 336, 352
-0.980328, 345, 97, 408, 352
-0.980462, 329, 241, 360, 368
-0.980507, 433, 121, 496, 184
-0.98056, 425, 185, 488, 248
-0.980642, 217, 193, 280, 320
-0.98065, 337, 225, 464, 288
-0.980671, 369, 137, 432, 200
-0.980688, 249, 153, 312, 216
-0.981125, 329, 113, 392, 176
-0.981216, 161, 257, 288, 320
-0.981398, 185, 145, 248, 208
-0.981403, 169, 145, 232, 272
-0.981571, 261, 257, 292, 320
-0.981647, 357, 177, 388, 240
-0.981723, 301, 241, 332, 368
-0.981804, 313, 65, 376, 192
-0.981824, 345, 241, 408, 304
-0.98193, 313, 241, 344, 368
-0.982184, 305, 249, 432, 312
-0.98231, 341, 241, 372, 368
-0.982323, 145, 169, 208, 232
-0.982329, 337, 161, 464, 224
-0.982537, 401, 257, 464, 320
-0.982616, 289, 241, 320, 368
-0.982671, 225, 257, 256, 320
-0.982674, 377, 161, 440, 288
-0.982716, 137, 217, 200, 280
-0.982836, 361, 129, 392, 192
-0.982848, 253, 241, 284, 368
-0.982931, 433, 145, 496, 208
-0.982932, 113, 145, 240, 272
-0.982974, 269, 241, 300, 368
-0.983037, 241, 105, 368, 168
-0.983169, 237, 257, 268, 320
-0.983259, 353, 217, 416, 280
-0.98338, 373, 161, 404, 224
-0.983389, 273, 153, 400, 216
-0.983448, 433, 81, 496, 144
-0.983454, 277, 257, 308, 320
-0.983616, 345, 257, 376, 320
-0.983649, 337, 201, 464, 264
-0.983667, 177, 145, 304, 208
-0.983692, 177, 209, 240, 272
-0.983734, 297, 257, 328, 320
-0.983805, 197, 113, 228, 240
-0.983884, 401, 241, 464, 368
-0.984106, 393, 17, 456, 144
-0.984185, 369, 137, 496, 200
-0.984212, 433, 273, 496, 336
-0.984258, 353, 193, 416, 256
-0.984316, 257, 17, 500, 144
-0.984325, 249, 257, 280, 320
-0.984397, 193, 233, 256, 296
-0.984458, 465, 113, 496, 240
-0.984496, 161, 129, 224, 375
-0.984544, 361, 177, 392, 304
-0.98466, 113, 249, 240, 312
-0.984721, 373, 145, 404, 272
-0.984758, 181, 177, 212, 304
-0.984794, 241, 113, 272, 176
-0.984823, 321, 89, 384, 152
-0.985016, 409, 113, 472, 240
-0.98522, 337, 137, 368, 200
-0.985236, 249, 89, 312, 152
-0.985265, 201, 121, 232, 184
-0.985451, 401, 233, 464, 296
-0.98547, 465, 161, 496, 224
-0.985482, 153, 65, 216, 192
-0.985579, 145, 249, 208, 312
-0.985582, 229, 105, 260, 168
-0.985603, 305, 105, 336, 168
-0.985662, 233, 233, 296, 296
-0.985695, 129, 161, 192, 288
-0.985807, 333, 249, 364, 312
-0.985832, 153, 193, 216, 256
-0.985887, 369, 113, 432, 176
-0.986019, 225, 49, 352, 176
-0.986066, 289, 49, 352, 176
-0.986151, 469, 105, 500, 168
-0.986205, 97, 225, 224, 288
-0.98627, 213, 113, 244, 176
-0.986286, 345, 113, 376, 240
-0.98635, 341, 193, 372, 320
-0.986393, 161, 217, 288, 280
-0.98644, 213, 257, 244, 320
-0.986504, 321, 121, 352, 184
-0.98657, 353, 225, 384, 352
-0.986591, 241, 241, 272, 368
-0.986639, 309, 257, 340, 320
-0.98679, 177, 185, 240, 248
-0.986818, 241, 97, 272, 224
-0.986875, 369, 113, 496, 176
-0.986964, 225, 89, 288, 152
-0.987002, 65, 145, 192, 272
-0.98705, 145, 241, 208, 368
-0.987115, 277, 113, 308, 176
-0.987246, 209, 233, 336, 296
-0.987267, 217, 281, 280, 344
-0.98742, 461, 137, 492, 200
-0.987424, 425, 65, 488, 320
-0.98745, 465, 193, 496, 320
-0.987563, 161, 177, 288, 240
-0.987603, 153, 145, 216, 208
-0.987628, 409, 145, 472, 208
-0.987653, 437, 177, 468, 304
-0.987669, 65, 17, 320, 144
-0.987728, 357, 249, 388, 312
-0.987751, 353, 273, 480, 336
-0.987775, 273, 185, 400, 248
-0.987848, 333, 113, 364, 240
-0.987948, 253, 113, 284, 176
-0.988, 273, 225, 400, 288
-0.988009, 321, 105, 448, 168
-0.988041, 357, 81, 388, 208
-0.988046, 445, 193, 476, 256
-0.988074, 369, 81, 496, 144
-0.988095, 321, 249, 352, 312
-0.988151, 337, 105, 368, 168
-0.98816, 385, 25, 448, 88
-0.988173, 257, 97, 288, 224
-0.988194, 177, 49, 304, 176
-0.988303, 321, 113, 352, 240
-0.988319, 289, 113, 320, 176
-0.988434, 353, 249, 480, 312
-0.988441, 457, 217, 488, 280
-0.988442, 273, 153, 336, 216
-0.988593, 229, 225, 260, 352
-0.988649, 209, 1, 272, 375
-0.988753, 433, 9, 496, 72
-0.988773, 217, 161, 280, 224
-0.988781, 369, 209, 432, 336
-0.988791, 281, 1, 344, 375
-0.988893, 269, 97, 300, 224
-0.988955, 345, 225, 376, 288
-0.988974, 209, 113, 240, 240
-0.98901, 373, 97, 404, 224
-0.989158, 209, 241, 240, 368
-0.989191, 361, 1, 424, 375
-0.989192, 97, 161, 224, 224
-0.989221, 161, 121, 416, 184
-0.989257, 281, 89, 344, 152
-0.989264, 409, 97, 472, 160
-0.989316, 249, 153, 280, 216
-0.989335, 229, 97, 260, 224
-0.989359, 145, 113, 208, 240
-0.989365, 305, 97, 336, 224
-0.989414, 241, 1, 304, 375
-0.989467, 201, 257, 232, 320
-0.989492, 161, 17, 416, 144
-0.989639, 377, 97, 440, 352
-0.989674, 257, 49, 320, 176
-0.989718, 177, 249, 208, 312
-0.989719, 453, 161, 484, 288
-0.989755, 181, 217, 212, 280
-0.989766, 321, 137, 448, 200
-0.989767, 465, 185, 496, 248
-0.989791, 401, 65, 464, 192
-0.989871, 453, 209, 484, 336
-0.989901, 233, 49, 296, 176
-0.989963, 361, 281, 424, 344
-0.989996, 129, 193, 192, 256
-0.989999, 273, 233, 336, 296
-0.990014, 193, 281, 320, 344
-0.990032, 217, 113, 280, 144
-0.990047, 457, 241, 488, 304
-0.990076, 161, 153, 416, 216
-0.990099, 81, 193, 208, 256
-0.990104, 241, 157, 304, 188
-0.990122, 329, 1, 392, 375
-0.990243, 401, 209, 464, 272
-0.990331, 1, 225, 128, 352
-0.990395, 153, 113, 216, 176
-0.990413, 313, 169, 376, 232
-0.990454, 273, 113, 336, 144
-0.990534, 285, 97, 316, 224
-0.990629, 469, 1, 500, 128
-0.990698, 429, 49, 460, 176
-0.99073, 177, 257, 240, 288
-0.990751, 249, 289, 312, 352
-0.990787, 345, 177, 408, 208
-0.990842, 305, 1, 368, 375
-0.990897, 349, 113, 380, 176
-0.990932, 321, 201, 384, 264
-0.990943, 225, 261, 288, 292
-0.990982, 385, 1, 448, 375
-0.991048, 161, 161, 192, 288
-0.991051, 253, 193, 284, 320
-0.991055, 425, 265, 488, 296
-0.991085, 441, 217, 472, 280
-0.991104, 193, 145, 224, 208
-0.991119, 189, 249, 220, 312
-0.991126, 289, 81, 416, 144
-0.991132, 185, 1, 248, 375
-0.991132, 257, 249, 500, 312
-0.991144, 353, 33, 480, 96
-0.991166, 349, 145, 380, 208
-0.99119, 377, 1, 440, 256
-0.991201, 297, 253, 360, 284
-0.991215, 97, 1, 224, 128
-0.991216, 441, 257, 472, 320
-0.991222, 433, 1, 496, 375
-0.991248, 297, 289, 360, 352
-0.991249, 289, 125, 352, 156
-0.991292, 409, 121, 472, 184
-0.991301, 369, 165, 432, 196
-0.991336, 201, 125, 264, 156
-0.991341, 425, 253, 488, 284
-0.991367, 129, 121, 256, 184
-0.991395, 329, 141, 392, 172
-0.991401, 293, 193, 324, 320
-0.991428, 249, 117, 312, 148
-0.991467, 401, 185, 464, 248
-0.991481, 425, 241, 488, 272
-0.991487, 201, 261, 264, 292
-0.991519, 189, 241, 220, 368
-0.991527, 277, 153, 308, 216
-0.991539, 469, 1, 500, 64
-0.991541, 257, 129, 500, 192
-0.991563, 153, 33, 216, 288
-0.99161, 225, 153, 352, 216
-0.991669, 337, 153, 400, 184
-0.991687, 425, 217, 488, 248
-0.99169, 337, 1, 400, 256
-0.991691, 257, 289, 384, 352
-0.991697, 329, 121, 392, 152
-0.991717, 317, 193, 348, 320
-0.991755, 177, 89, 240, 152
-0.991765, 429, 209, 460, 272
-0.991778, 369, 145, 432, 176
-0.991792, 425, 277, 488, 308
-0.991805, 161, 225, 192, 288
-0.991814, 425, 201, 488, 232
-0.991855, 329, 257, 392, 288
-0.991857, 273, 257, 336, 288
-0.991874, 425, 229, 488, 260
-0.991881, 289, 153, 320, 216
-0.991888, 249, 145, 312, 176
-0.991909, 345, 189, 408, 220
-0.991937, 381, 137, 412, 200
-0.99195, 297, 345, 360, 375
-0.991954, 273, 161, 336, 192
-0.991954, 433, 93, 496, 124
-0.991987, 161, 193, 192, 256
-0.992009, 409, 57, 472, 120
-0.99201, 249, 261, 312, 292
-0.992032, 305, 101, 368, 132
-0.992034, 185, 153, 248, 184
-0.992034, 345, 165, 408, 196
-0.992051, 145, 1, 208, 375
-0.99206, 441, 225, 472, 352
-0.992067, 193, 137, 256, 168
-0.992095, 205, 233, 236, 296
-0.992103, 193, 89, 320, 152
-0.992109, 401, 269, 464, 300
-0.992134, 277, 193, 308, 320
-0.992136, 433, 189, 496, 220
-0.992148, 321, 245, 384, 276
-0.992165, 433, 153, 496, 184
-0.992178, 217, 161, 280, 192
-0.992219, 321, 233, 384, 264
-0.992244, 353, 241, 416, 272
-0.992257, 425, 141, 488, 172
-0.992277, 265, 193, 296, 320
-0.992297, 153, 201, 216, 232
-0.992311, 353, 133, 416, 164
-0.992335, 469, 209, 500, 272
-0.992343, 145, 177, 208, 208
-0.992347, 453, 97, 484, 224
-0.992364, 409, 1, 472, 375
-0.992365, 297, 113, 360, 144
-0.992383, 185, 165, 248, 196
-0.992397, 433, 117, 496, 148
-0.992401, 145, 189, 208, 220
-0.992432, 145, 245, 208, 276
-0.992444, 177, 241, 240, 272
-0.992447, 241, 101, 304, 132
-0.992451, 177, 161, 208, 224
-0.99246, 409, 177, 472, 208
-0.992486, 409, 189, 472, 220
-0.9925, 209, 277, 272, 308
-0.992504, 433, 5, 496, 36
-0.99251, 345, 65, 376, 192
-0.99252, 201, 49, 264, 176
-0.992526, 153, 257, 216, 288
-0.99257, 345, 201, 408, 232
-0.992572, 281, 149, 344, 180
-0.992577, 369, 177, 432, 208
-0.99258, 193, 113, 256, 144
-0.992594, 153, 165, 216, 196
-0.992604, 401, 281, 464, 312
-0.992611, 201, 249, 264, 280
-0.992612, 153, 149, 216, 180
-0.992622, 345, 213, 408, 244
-0.99263, 177, 65, 240, 192
-0.992652, 433, 129, 496, 160
-0.992674, 313, 173, 376, 204
-0.992675, 301, 109, 332, 140
-0.99268, 229, 109, 260, 140
-0.992683, 273, 289, 336, 352
-0.992691, 433, 105, 496, 136
-0.992718, 357, 177, 388, 208
-0.992727, 137, 217, 200, 248
-0.99273, 433, 177, 496, 208
-0.99273, 401, 257, 464, 288
-0.992734, 177, 205, 240, 236
-0.992748, 57, 241, 120, 304
-0.99275, 353, 253, 416, 284
-0.992765, 353, 225, 416, 256
-0.992769, 377, 249, 440, 312
-0.992772, 265, 101, 328, 132
-0.992792, 233, 285, 296, 316
-0.992812, 113, 97, 240, 160
-0.992833, 361, 153, 392, 184
-0.992844, 249, 249, 312, 280
-0.992846, 305, 137, 368, 168
-0.992874, 217, 261, 248, 292
-0.992875, 329, 289, 392, 320
-0.992885, 205, 257, 236, 288
-0.992887, 401, 245, 464, 276
-0.992888, 225, 249, 288, 280
-0.99289, 177, 189, 240, 220
-0.992897, 209, 121, 240, 152
-0.992899, 433, 165, 496, 196
-0.992899, 305, 193, 336, 320
-0.992904, 453, 169, 484, 232
-0.992913, 137, 233, 200, 264
-0.992915, 185, 177, 248, 208
-0.992929, 401, 201, 464, 232
-0.992934, 409, 165, 472, 196
-0.99294, 465, 81, 496, 144
-0.992946, 257, 293, 320, 324
-0.992958, 321, 125, 352, 156
-0.99296, 321, 221, 384, 252
-0.992969, 285, 161, 316, 192
-0.992976, 161, 257, 416, 320
-0.99298, 249, 161, 280, 192
-0.992985, 177, 125, 240, 156
-0.992997, 385, 33, 448, 64
-0.992999, 153, 125, 216, 156
-0.993009, 249, 169, 312, 200
-0.993018, 209, 149, 272, 180
-0.993025, 169, 217, 232, 248
-0.993045, 297, 293, 360, 324
-0.993056, 245, 117, 276, 148
-0.993063, 329, 109, 392, 140
-0.993066, 469, 257, 500, 320
-0.993072, 401, 221, 464, 252
-0.993082, 381, 165, 412, 196
-0.993099, 185, 273, 248, 304
-0.993101, 229, 261, 260, 292
-0.993103, 305, 281, 432, 344
-0.993104, 161, 137, 224, 168
-0.993106, 329, 193, 360, 320
-0.993108, 325, 97, 356, 160
-0.993135, 185, 257, 216, 288
-0.993135, 341, 141, 372, 172
-0.993138, 369, 1, 432, 128
-0.99314, 281, 117, 312, 148
-0.993147, 425, 289, 488, 320
-0.993148, 465, 181, 496, 212
-0.993154, 305, 257, 336, 288
-0.99316, 457, 237, 488, 268
-0.993161, 417, 81, 480, 112
-0.993163, 457, 209, 488, 240
-0.993165, 461, 169, 492, 200
-0.993173, 369, 165, 400, 196
-0.993173, 353, 253, 384, 284
-0.993182, 241, 261, 272, 292
-0.993189, 309, 121, 340, 152
-0.993195, 237, 157, 268, 188
-0.993196, 357, 189, 388, 220
-0.993201, 273, 157, 304, 188
-0.993205, 169, 209, 200, 336
-0.993205, 409, 101, 472, 132
-0.993206, 201, 133, 232, 164
-0.993206, 289, 261, 320, 292
-0.993207, 341, 125, 372, 156
-0.993208, 345, 65, 408, 128
-0.993218, 341, 257, 372, 288
-0.993221, 325, 253, 356, 284
-0.993224, 377, 285, 440, 316
-0.993224, 441, 217, 472, 248
-0.99323, 457, 269, 488, 300
-0.993236, 457, 221, 488, 252
-0.993236, 169, 229, 232, 260
-0.993242, 313, 197, 376, 228
-0.993247, 321, 185, 384, 216
-0.993247, 373, 193, 404, 320
-0.99325, 221, 121, 252, 152
-0.993253, 469, 197, 500, 228
-0.993254, 409, 153, 472, 184
-0.993257, 257, 261, 288, 292
-0.993261, 461, 153, 492, 184
-0.993265, 353, 137, 384, 168
-0.993269, 353, 57, 480, 120
-0.993269, 265, 117, 296, 148
-0.993278, 469, 13, 500, 44
-0.993279, 453, 185, 484, 216
-0.99328, 409, 281, 472, 344
-0.99328, 185, 101, 248, 132
-0.993294, 457, 249, 488, 280
-0.993298, 277, 261, 308, 292
-0.993308, 377, 177, 408, 208
-0.993317, 345, 169, 376, 232
-0.993318, 417, 69, 480, 100
-0.993318, 241, 193, 272, 320
-0.993322, 217, 109, 248, 140
-0.993322, 409, 129, 472, 160
-0.993325, 429, 233, 460, 296
-0.993329, 193, 157, 224, 188
-0.993333, 321, 209, 384, 240
-0.993333, 345, 85, 408, 116
-0.993334, 441, 185, 472, 216
-0.993336, 173, 253, 204, 284
-0.993337, 469, 125, 500, 156
-0.99334, 465, 113, 496, 144
-0.993342, 361, 217, 392, 280
-0.993343, 465, 93, 496, 124
-0.993343, 173, 189, 204, 220
-0.993345, 129, 205, 192, 236
-0.993346, 369, 189, 432, 220
-0.993346, 365, 133, 396, 164
-0.993348, 385, 21, 448, 52
-0.993349, 197, 145, 228, 176
-0.993358, 377, 201, 440, 232
-0.993362, 401, 53, 464, 84
-0.993366, 441, 201, 472, 232
-0.993369, 337, 281, 400, 344
-0.993374, 385, 81, 448, 112
-0.993375, 261, 149, 292, 180
-0.993376, 369, 117, 432, 148
-0.993379, 321, 345, 384, 375
-0.99338, 345, 73, 408, 104
-0.99339, 49, 209, 176, 336
-0.993392, 401, 233, 464, 264
-0.9934, 333, 113, 364, 144
-0.993404, 173, 177, 204, 208
-0.993414, 265, 113, 296, 176
-0.993415, 293, 149, 324, 180
-0.993416, 437, 229, 468, 260
-0.993416, 345, 173, 376, 204
-0.993418, 361, 241, 392, 272
-0.993419, 457, 137, 488, 168
-0.993421, 369, 269, 432, 300
-0.993422, 161, 113, 224, 144
-0.993422, 469, 273, 500, 304
-0.993423, 329, 345, 360, 375
-0.993424, 385, 93, 448, 124
-0.993427, 409, 113, 472, 144
-0.993433, 349, 241, 380, 272
-0.993436, 357, 165, 388, 196
-0.993437, 469, 141, 500, 172
-0.99344, 353, 121, 384, 152
-0.99344, 353, 289, 416, 320
-0.993445, 161, 201, 192, 232
-0.993453, 357, 205, 388, 236
-0.993454, 469, 221, 500, 252
-0.993461, 377, 141, 408, 172
-0.993469, 453, 197, 484, 228
-0.993475, 221, 249, 252, 280
-0.993487, 429, 97, 460, 224
-0.993487, 429, 241, 460, 272
-0.993495, 469, 209, 500, 240
-0.993495, 453, 113, 484, 176
-0.993495, 181, 193, 212, 256
-0.993497, 441, 269, 472, 300
-0.993499, 345, 89, 408, 152
-0.993503, 441, 245, 472, 276
-0.993505, 185, 205, 216, 236
-0.993511, 441, 257, 472, 288
-0.99352, 177, 165, 208, 196
-0.993523, 361, 221, 392, 252
-0.993529, 245, 101, 276, 132
-0.993533, 429, 193, 460, 224
-0.993534, 465, 1, 496, 32
-0.993535, 417, 213, 448, 244
-0.993541, 261, 293, 292, 324
-0.993543, 401, 97, 464, 352
-0.993547, 445, 173, 476, 204
-0.993547, 429, 253, 460, 284
-0.993547, 317, 345, 348, 375
-0.993549, 457, 281, 488, 312
-0.993551, 429, 177, 460, 208
-0.993553, 277, 105, 308, 136
-0.993555, 469, 253, 500, 284
-0.993557, 469, 241, 500, 272
-0.993559, 233, 281, 264, 312
-0.993563, 425, 229, 456, 260
-0.993566, 249, 289, 280, 320
-0.993569, 317, 101, 348, 132
-0.99357, 429, 269, 460, 300
-0.993571, 221, 277, 252, 308
-0.993572, 385, 153, 416, 184
-0.993572, 181, 217, 212, 248
-0.993572, 441, 281, 472, 312
-0.993575, 189, 245, 220, 276
-0.993577, 193, 169, 224, 200
-0.993578, 429, 217, 460, 248
-0.993579, 429, 137, 460, 168
-0.993581, 177, 237, 208, 268
-0.993581, 161, 241, 192, 272
-0.993582, 445, 161, 476, 192
-0.993582, 281, 249, 312, 280
-0.993583, 337, 293, 368, 324
-0.993584, 437, 65, 468, 96
-0.993584, 209, 273, 240, 304
-0.993588, 445, 109, 476, 140
-0.993589, 425, 113, 456, 144
-0.993589, 253, 249, 284, 280
-0.993592, 469, 81, 500, 112
-0.993593, 209, 245, 240, 276
-0.993602, 429, 205, 460, 236
-0.993604, 337, 245, 368, 276
-0.993605, 457, 125, 488, 156
-0.993609, 269, 249, 300, 280
-0.993616, 241, 249, 272, 280
-0.993621, 429, 53, 460, 84
-0.993681, 425, 193, 456, 320
-0.993701, 105, 177, 168, 304
-0.993712, 385, 89, 448, 152
-0.993719, 385, 281, 448, 344
-0.993727, 433, 57, 464, 120
-0.993734, 237, 153, 268, 216
-0.99385, 161, 217, 416, 280
-0.993936, 441, 129, 472, 256
-0.993989, 209, 193, 240, 320
-0.993997, 185, 129, 216, 256
-0.994015, 385, 57, 448, 120
-0.994156, 365, 105, 396, 168
-0.994187, 441, 81, 472, 208
-0.994199, 441, 169, 472, 232
-0.994229, 325, 65, 356, 192
-0.994246, 241, 81, 368, 144
-0.994335, 217, 233, 248, 296
-0.994374, 81, 137, 208, 200
-0.994385, 457, 265, 488, 328
-0.994426, 437, 81, 468, 144
-0.994441, 1, 177, 128, 304
-0.994463, 33, 241, 160, 304
-0.994578, 33, 241, 288, 304
-0.994587, 201, 89, 264, 152
-0.994597, 81, 249, 144, 312
-0.994617, 193, 1, 256, 256
-0.99466, 417, 193, 448, 256
-0.99468, 305, 145, 368, 208
-0.994709, 371, 153, 386, 216
-0.994736, 105, 249, 168, 312
-0.994776, 377, 113, 408, 176
-0.994802, 433, 57, 496, 120
-0.994806, 49, 225, 112, 352
-0.994828, 257, 153, 500, 216
-0.994835, 273, 149, 400, 180
-0.994843, 193, 117, 320, 148
-0.994924, 257, 225, 500, 288
-0.994925, 261, 137, 292, 200
-0.995012, 189, 169, 220, 232
-0.995023, 377, 193, 440, 256
-0.995066, 209, 261, 336, 292
-0.995091, 369, 1, 496, 64
-0.995131, 361, 49, 424, 176
-0.995136, 161, 177, 416, 240
-0.995149, 237, 233, 268, 296
-0.995196, 181, 65, 212, 192
-0.995241, 465, 49, 496, 176
-0.995267, 245, 281, 276, 344
-0.995275, 417, 241, 448, 304
-0.995279, 129, 73, 256, 136
-0.995283, 113, 33, 240, 96
-0.995306, 429, 185, 460, 248
-0.995418, 401, 1, 464, 256
-0.995438, 1, 249, 500, 312
-0.995441, 377, 153, 392, 216
-0.995459, 321, 313, 448, 375
-0.995463, 289, 17, 416, 144
-0.995493, 145, 281, 272, 344
-0.995493, 353, 229, 480, 260
-0.995499, 277, 89, 308, 152
-0.995511, 17, 209, 80, 336
-0.995518, 369, 49, 400, 176
-0.995526, 481, 113, 496, 176
-0.995542, 1, 137, 500, 200
-0.995567, 113, 1, 176, 375
-0.995574, 245, 89, 276, 152
-0.995592, 465, 241, 496, 368
-0.995613, 1, 209, 500, 272
-0.995677, 65, 129, 320, 192
-0.995684, 177, 149, 304, 180
-0.995698, 361, 169, 376, 232
-0.995722, 413, 209, 444, 336
-0.995731, 469, 233, 500, 296
-0.995731, 269, 257, 284, 320
-0.995748, 251, 257, 266, 320
-0.99576, 229, 129, 260, 192
-0.99578, 257, 177, 500, 240
-0.995781, 237, 257, 252, 320
-0.995833, 209, 89, 240, 152
-0.995856, 265, 289, 296, 352
-0.995895, 287, 257, 302, 320
-0.995901, 481, 169, 496, 232
-0.995905, 433, 145, 464, 208
-0.995926, 255, 153, 270, 216
-0.995939, 241, 313, 368, 375
-0.995946, 245, 257, 260, 320
-0.995952, 49, 217, 176, 280
-0.996023, 281, 257, 296, 320
-0.996025, 33, 225, 96, 288
-0.996041, 263, 257, 278, 320
-0.996051, 227, 257, 242, 320
-0.99606, 351, 257, 366, 320
-0.996075, 299, 257, 314, 320
-0.996089, 353, 241, 480, 272
-0.9961, 289, 233, 320, 296
-0.996102, 305, 257, 320, 320
-0.996129, 275, 257, 290, 320
-0.996154, 293, 257, 308, 320
-0.996155, 369, 173, 496, 204
-0.996164, 177, 273, 240, 336
-0.996173, 201, 65, 232, 192
-0.996177, 289, 257, 416, 288
-0.996189, 289, 161, 416, 192
-0.996199, 359, 145, 374, 208
-0.996239, 383, 161, 398, 224
-0.99625, 193, 193, 224, 320
-0.996271, 313, 1, 376, 256
-0.996275, 291, 153, 306, 216
-0.99628, 309, 233, 340, 296
-0.996301, 273, 137, 400, 168
-0.996306, 257, 257, 272, 320
-0.996323, 247, 113, 262, 176
-0.99633, 81, 225, 144, 352
-0.996349, 337, 217, 464, 248
-0.99635, 17, 249, 80, 312
-0.996367, 241, 117, 368, 148
-0.996369, 121, 1, 184, 128
-0.996374, 1, 153, 256, 216
-0.996374, 257, 89, 500, 152
-0.996385, 315, 249, 330, 312
-0.996393, 209, 137, 272, 200
-0.996405, 161, 261, 288, 292
-0.996433, 253, 233, 284, 296
-0.996455, 357, 257, 372, 320
-0.996462, 183, 209, 198, 272
-0.996464, 199, 137, 214, 200
-0.996464, 113, 225, 176, 288
-0.996469, 97, 9, 224, 72
-0.996473, 33, 305, 160, 368
-0.996484, 475, 153, 490, 216
-0.996498, 1, 217, 256, 280
-0.996516, 345, 249, 360, 312
-0.996522, 221, 257, 236, 320
-0.996523, 353, 97, 384, 352
-0.996524, 257, 201, 500, 264
-0.99653, 241, 161, 368, 192
-0.996532, 417, 17, 448, 144
-0.996574, 293, 89, 324, 152
-0.996577, 291, 113, 306, 176
-0.996594, 365, 241, 396, 368
-0.996599, 129, 65, 192, 320
-0.996616, 233, 105, 248, 168
-0.996621, 113, 257, 240, 288
-0.996621, 371, 177, 386, 240
-0.996634, 239, 105, 254, 168
-0.996656, 429, 257, 460, 320
-0.996661, 353, 133, 480, 164
-0.996662, 255, 113, 270, 176
-0.996663, 65, 265, 320, 328
-0.996664, 365, 145, 380, 208
-0.996682, 321, 225, 352, 288
-0.996685, 477, 201, 492, 264
-0.996721, 1, 177, 256, 240
-0.996734, 311, 105, 326, 168
-0.996736, 409, 33, 472, 96
-0.996742, 369, 145, 496, 176
-0.996775, 1, 177, 500, 240
-0.996778, 197, 97, 228, 352
-0.996802, 337, 189, 464, 220
-0.99681, 207, 121, 222, 184
-0.996814, 377, 129, 392, 192
-0.996814, 485, 145, 500, 208
-0.996814, 177, 161, 304, 192
-0.996817, 353, 161, 480, 192
-0.996832, 325, 249, 340, 312
-0.996859, 335, 249, 350, 312
-0.996864, 1, 217, 128, 280
-0.996871, 305, 105, 320, 168
-0.996878, 321, 9, 448, 72
-0.996921, 233, 49, 264, 176
-0.996927, 173, 137, 204, 200
-0.996939, 327, 121, 342, 184
-0.996974, 337, 129, 368, 375
-0.996984, 81, 273, 208, 336
-0.996987, 363, 249, 378, 312
-0.997014, 273, 241, 400, 272
-0.997015, 485, 193, 500, 256
-0.997022, 285, 113, 300, 176
-0.997026, 215, 257, 230, 320
-0.997031, 227, 105, 242, 168
-0.997032, 253, 49, 284, 176
-0.997058, 321, 177, 448, 208
-0.997058, 289, 109, 416, 140
-0.997069, 485, 89, 500, 152
-0.997078, 213, 121, 228, 184
-0.997079, 335, 129, 350, 192
-0.997079, 297, 49, 328, 176
-0.997089, 483, 1, 498, 64
-0.997103, 297, 105, 312, 168
-0.997104, 173, 113, 204, 240
-0.997109, 317, 113, 332, 176
-0.997123, 337, 201, 464, 232
-0.997131, 207, 249, 222, 312
-0.997139, 113, 225, 176, 352
-0.997152, 97, 245, 224, 276
-0.997153, 81, 225, 144, 288
-0.99717, 265, 89, 296, 152
-0.997172, 353, 129, 368, 192
-0.99718, 261, 113, 276, 176
-0.997192, 383, 137, 398, 200
-0.997192, 475, 249, 490, 312
-0.997197, 281, 49, 312, 176
-0.997201, 193, 249, 320, 280
-0.997207, 177, 137, 304, 168
-0.997214, 371, 129, 386, 192
-0.997215, 165, 249, 196, 312
-0.997218, 297, 313, 360, 375
-0.997225, 121, 41, 184, 104
-0.997241, 377, 177, 392, 240
-0.997264, 33, 265, 160, 328
-0.99729, 255, 157, 270, 188
-0.997292, 277, 289, 308, 352
-0.997301, 357, 225, 372, 288
-0.997322, 289, 157, 304, 188
-0.997324, 337, 253, 464, 284
-0.997332, 161, 97, 416, 160
-0.997346, 271, 113, 286, 176
-0.997361, 153, 33, 216, 96
-0.997368, 225, 105, 352, 136
-0.997377, 245, 97, 276, 352
-0.997385, 321, 97, 352, 352
-0.997395, 273, 97, 304, 352
-0.997395, 361, 121, 376, 184
-0.997395, 385, 97, 416, 224
-0.99741, 313, 49, 344, 176
-0.997429, 451, 177, 466, 240
-0.997438, 289, 1, 352, 256
-0.997453, 257, 273, 500, 336
-0.997466, 467, 185, 482, 248
-0.997469, 209, 97, 240, 352
-0.997474, 221, 121, 236, 184
-0.997478, 97, 157, 224, 188
-0.997488, 425, 105, 456, 168
-0.997494, 343, 113, 358, 176
-0.997514, 261, 97, 292, 352
-0.997532, 279, 113, 294, 176
-0.997543, 365, 129, 396, 375
-0.997545, 269, 49, 300, 176
-0.99757, 221, 97, 252, 352
-0.997573, 469, 97, 500, 352
-0.997579, 187, 177, 202, 240
-0.997597, 185, 129, 216, 375
-0.9976, 249, 145, 264, 208
-0.997601, 201, 257, 216, 320
-0.997601, 81, 233, 208, 264
-0.997601, 309, 97, 340, 352
-0.997602, 457, 161, 472, 224
-0.997616, 347, 137, 362, 200
-0.997621, 97, 173, 224, 204
-0.997621, 233, 97, 264, 352
-0.997627, 435, 225, 450, 288
-0.997641, 451, 241, 466, 304
-0.997658, 285, 145, 300, 208
-0.997658, 369, 185, 400, 248
-0.997682, 195, 161, 210, 224
-0.997687, 161, 181, 288, 212
-0.997692, 1, 113, 500, 176
-0.997693, 369, 277, 496, 308
-0.997694, 421, 145, 452, 272
-0.997701, 353, 105, 368, 168
-0.997712, 195, 249, 210, 312
-0.997723, 373, 281, 404, 344
-0.997728, 289, 97, 320, 352
-0.997728, 445, 145, 476, 208
-0.997728, 273, 229, 400, 260
-0.997759, 369, 101, 496, 132
-0.997764, 225, 233, 240, 296
-0.997772, 471, 129, 486, 192
-0.997792, 161, 281, 416, 344
-0.997793, 417, 169, 448, 232
-0.997797, 429, 241, 460, 368
-0.997824, 161, 193, 288, 224
-0.99783, 233, 109, 248, 140
-0.997842, 49, 17, 176, 144
-0.997843, 451, 265, 466, 328
-0.997847, 97, 201, 224, 232
-0.997848, 477, 225, 492, 288
-0.997853, 189, 249, 204, 312
-0.997862, 273, 233, 304, 296
-0.997863, 233, 233, 248, 296
-0.997872, 81, 305, 208, 368
-0.997873, 113, 133, 240, 164
-0.997886, 33, 33, 160, 96
-0.997887, 181, 249, 196, 312
-0.997888, 337, 289, 368, 352
-0.997893, 305, 121, 432, 152
-0.997894, 311, 109, 326, 140
-0.997896, 177, 225, 192, 288
-0.997908, 217, 65, 248, 192
-0.997924, 373, 217, 404, 280
-0.997925, 445, 193, 460, 256
-0.997925, 217, 233, 232, 296
-0.997926, 289, 189, 416, 220
-0.997928, 337, 105, 352, 168
-0.997952, 145, 241, 272, 272
-0.997954, 385, 1, 448, 64
-0.997955, 161, 277, 288, 308
-0.997956, 383, 165, 398, 196
-0.99798, 467, 217, 482, 280
-0.997982, 439, 193, 454, 256
-0.998, 451, 209, 466, 272
-0.998002, 457, 97, 488, 352
-0.998004, 219, 257, 234, 288
-0.99801, 441, 33, 472, 160
-0.998015, 97, 185, 224, 216
-0.998034, 393, 281, 424, 344
-0.998035, 297, 129, 312, 192
-0.998036, 363, 217, 378, 280
-0.998061, 243, 233, 258, 296
-0.998062, 227, 261, 242, 292
-0.998064, 359, 173, 374, 204
-0.998065, 377, 217, 440, 280
-0.998084, 273, 345, 400, 375
-0.998088, 341, 137, 356, 200
-0.998093, 193, 313, 320, 375
-0.9981, 361, 41, 424, 104
-0.998105, 211, 257, 226, 288
-0.998106, 373, 157, 388, 188
-0.998108, 433, 33, 496, 96
-0.998128, 207, 129, 222, 160
-0.99813, 97, 145, 224, 176
-0.998141, 485, 157, 500, 188
-0.998145, 441, 217, 456, 280
-0.998146, 233, 261, 248, 292
-0.99815, 65, 57, 192, 120
-0.99815, 1, 137, 128, 200
-0.998159, 477, 1, 492, 64
-0.998159, 485, 25, 500, 88
-0.998162, 443, 249, 458, 312
-0.998169, 239, 109, 254, 140
-0.998187, 273, 217, 400, 248
-0.998192, 225, 1, 288, 256
-0.998193, 301, 109, 316, 140
-0.998194, 369, 113, 496, 144
-0.998204, 293, 289, 324, 352
-0.998209, 479, 173, 494, 204
-0.998209, 145, 221, 272, 252
-0.998213, 239, 261, 254, 292
-0.998215, 129, 313, 256, 375
-0.998222, 81, 213, 208, 244
-0.998225, 371, 225, 386, 288
-0.998226, 333, 129, 348, 160
-0.99823, 89, 1, 152, 375
-0.998232, 373, 105, 388, 168
-0.998238, 225, 81, 256, 144
-0.998244, 369, 69, 496, 100
-0.998247, 433, 193, 448, 256
-0.998252, 475, 177, 490, 240
-0.998256, 461, 185, 476, 248
-0.998261, 353, 281, 384, 344
-0.998264, 321, 149, 448, 180
-0.998268, 201, 257, 216, 288
-0.998269, 201, 233, 216, 296
-0.998269, 275, 289, 290, 352
-0.99827, 421, 213, 452, 228
-0.998271, 329, 129, 360, 144
-0.998272, 365, 131, 396, 146
-0.998272, 469, 95, 500, 110
-0.998273, 173, 167, 204, 182
-0.998273, 277, 259, 308, 274
-0.998274, 193, 253, 224, 268
-0.998275, 313, 349, 344, 364
-0.998275, 437, 281, 468, 296
-0.998276, 465, 11, 496, 26
-0.998276, 441, 255, 472, 270
-0.998277, 437, 203, 468, 218
-0.998277, 481, 141, 496, 172
-0.998279, 213, 275, 244, 290
-0.99828, 429, 191, 460, 206
-0.99828, 265, 295, 296, 310
-0.99828, 295, 157, 310, 188
-0.998281, 361, 253, 392, 268
-0.998281, 437, 237, 468, 252
-0.998281, 469, 259, 500, 274
-0.998282, 381, 157, 412, 172
-0.998283, 201, 137, 216, 168
-0.998283, 225, 279, 256, 294
-0.998284, 277, 111, 308, 126
-0.998287, 177, 189, 208, 204
-0.998287, 469, 133, 500, 148
-0.998288, 457, 143, 488, 158
-0.998289, 465, 105, 496, 120
-0.998289, 197, 145, 228, 160
-0.998289, 325, 117, 356, 132
-0.998292, 173, 173, 204, 188
-0.998292, 357, 205, 388, 220
-0.998292, 453, 195, 484, 210
-0.998293, 457, 153, 488, 168
-0.998293, 441, 223, 472, 238
-0.998293, 373, 149, 404, 164
-0.998293, 469, 273, 500, 288
-0.998293, 289, 289, 416, 320
-0.998294, 469, 17, 500, 32
-0.998294, 301, 121, 332, 136
-0.998295, 193, 167, 224, 182
-0.998296, 349, 251, 380, 266
-0.998296, 357, 199, 388, 214
-0.998298, 469, 127, 500, 142
-0.9983, 173, 195, 204, 210
-0.998301, 471, 97, 486, 160
-0.998302, 249, 111, 280, 126
-0.998302, 457, 265, 488, 280
-0.998302, 289, 201, 416, 232
-0.998305, 485, 193, 500, 224
-0.998305, 445, 183, 476, 198
-0.998305, 249, 89, 264, 152
-0.998305, 327, 97, 342, 160
-0.998305, 353, 133, 384, 148
-0.998305, 269, 117, 300, 132
-0.998306, 193, 159, 224, 174
-0.998308, 457, 259, 488, 274
-0.998309, 273, 167, 304, 182
-0.99831, 197, 151, 228, 166
-0.99831, 233, 261, 264, 276
-0.998311, 465, 195, 496, 210
-0.998311, 469, 283, 500, 298
-0.998311, 201, 139, 232, 154
-0.998312, 313, 257, 344, 272
-0.998313, 437, 231, 468, 246
-0.998313, 229, 119, 260, 134
-0.998315, 173, 255, 204, 270
-0.998315, 469, 23, 500, 38
-0.998317, 221, 263, 252, 278
-0.998317, 457, 271, 488, 286
-0.998319, 457, 217, 488, 232
-0.99832, 445, 189, 476, 204
-0.99832, 465, 111, 496, 126
-0.998321, 249, 157, 264, 188
-0.998322, 465, 181, 496, 196
-0.998324, 465, 121, 496, 136
-0.998324, 333, 257, 364, 272
-0.998325, 369, 249, 384, 312
-0.998325, 381, 167, 412, 182
-0.998325, 469, 139, 500, 154
-0.998326, 317, 129, 348, 144
-0.998326, 441, 209, 472, 224
-0.998326, 329, 135, 360, 150
-0.998328, 369, 141, 400, 156
-0.998329, 373, 185, 404, 200
-0.998329, 329, 347, 360, 362
-0.99833, 465, 175, 496, 190
-0.99833, 341, 129, 372, 144
-0.99833, 457, 227, 488, 242
-0.998332, 461, 167, 492, 182
-0.998333, 205, 133, 236, 148
-0.998334, 485, 101, 500, 132
-0.998335, 457, 251, 488, 266
-0.998336, 193, 225, 224, 288
-0.998338, 457, 281, 488, 296
-0.998338, 397, 1, 428, 128
-0.998338, 257, 263, 288, 278
-0.998339, 469, 207, 500, 222
-0.998339, 461, 159, 492, 174
-0.99834, 245, 113, 260, 144
-0.998344, 365, 159, 396, 174
-0.998344, 457, 235, 488, 250
-0.998346, 465, 187, 496, 202
-0.998346, 357, 259, 388, 274
-0.998346, 461, 201, 492, 216
-0.998346, 245, 263, 276, 278
-0.998347, 345, 175, 376, 190
-0.998347, 357, 171, 388, 186
-0.998347, 433, 249, 448, 312
-0.99835, 277, 265, 308, 280
-0.998353, 457, 245, 488, 260
-0.998353, 333, 123, 364, 138
-0.998355, 345, 261, 376, 276
-0.998358, 441, 217, 472, 232
-0.99836, 281, 117, 312, 132
-0.998362, 365, 165, 396, 180
-0.998363, 205, 127, 236, 142
-0.998365, 289, 263, 320, 278
-0.998368, 357, 189, 388, 204
-0.998368, 373, 179, 404, 194
-0.998369, 257, 117, 288, 132
-0.998375, 371, 181, 386, 212
-0.99838, 369, 173, 400, 188
-0.998381, 381, 173, 412, 188
-0.998382, 341, 135, 372, 150
-0.998383, 365, 177, 380, 208
-0.998383, 185, 259, 216, 274
-0.998384, 445, 57, 460, 120
-0.998385, 245, 119, 276, 134
-0.998385, 449, 137, 464, 200
-0.998387, 259, 281, 274, 344
-0.998391, 197, 259, 228, 274
-0.998392, 285, 167, 316, 182
-0.998392, 265, 159, 296, 174
-0.998393, 457, 211, 488, 226
-0.998393, 227, 113, 242, 144
-0.998395, 377, 173, 392, 204
-0.998395, 301, 259, 332, 274
-0.998396, 179, 185, 194, 248
-0.998398, 369, 49, 400, 112
-0.9984, 245, 167, 276, 182
-0.9984, 321, 121, 336, 152
-0.998403, 353, 149, 384, 164
-0.998405, 295, 113, 310, 144
-0.998411, 341, 143, 372, 158
-0.998412, 241, 161, 304, 176
-0.998413, 367, 137, 382, 168
-0.998417, 97, 241, 128, 304
-0.998417, 209, 261, 240, 276
-0.99842, 217, 123, 248, 138
-0.998423, 313, 123, 344, 138
-0.998427, 357, 139, 388, 154
-0.998431, 273, 173, 400, 204
-0.998435, 241, 273, 368, 304
-0.998437, 357, 183, 388, 198
-0.998443, 291, 89, 306, 152
-0.998444, 355, 169, 370, 232
-0.998447, 261, 233, 276, 296
-0.998448, 357, 177, 388, 192
-0.998449, 265, 289, 280, 352
-0.998454, 245, 261, 260, 292
-0.998454, 261, 153, 276, 216
-0.998456, 277, 161, 308, 176
-0.998456, 475, 161, 490, 192
-0.998456, 441, 169, 456, 232
-0.998457, 309, 257, 324, 288
-0.998458, 345, 125, 360, 156
-0.99846, 383, 113, 398, 176
-0.998462, 481, 113, 496, 144
-0.998462, 453, 81, 468, 144
-0.998465, 217, 121, 232, 152
-0.998469, 321, 89, 336, 152
-0.998474, 327, 125, 342, 156
-0.998476, 253, 161, 284, 176
-0.998477, 479, 1, 494, 32
-0.998479, 417, 97, 448, 224
-0.99848, 363, 149, 378, 180
-0.998483, 241, 161, 272, 176
-0.998489, 113, 113, 240, 144
-0.99849, 357, 257, 372, 288
-0.998498, 351, 261, 366, 292
-0.998498, 289, 161, 320, 176
-0.998507, 477, 205, 492, 236
-0.998514, 485, 17, 500, 48
-0.998516, 197, 153, 212, 184
-0.998518, 177, 33, 304, 96
-0.998518, 289, 49, 416, 112
-0.998531, 273, 115, 336, 130
-0.998532, 271, 261, 286, 292
-0.998535, 289, 261, 304, 292
-0.998538, 221, 177, 252, 304
-0.998547, 299, 261, 314, 292
-0.998551, 289, 169, 304, 200
-0.998554, 241, 293, 368, 324
-0.998554, 217, 113, 280, 128
-0.998558, 297, 113, 328, 128
-0.998562, 305, 257, 368, 272
-0.998566, 369, 81, 400, 144
-0.998569, 377, 129, 408, 375
-0.998572, 229, 113, 260, 128
-0.998579, 261, 161, 276, 192
-0.998584, 217, 119, 280, 134
-0.998585, 337, 137, 400, 152
-0.998586, 185, 259, 248, 274
-0.998587, 201, 127, 264, 142
-0.998587, 181, 113, 212, 176
-0.998592, 187, 181, 202, 212
-0.998592, 481, 129, 496, 160
-0.998594, 251, 261, 266, 292
-0.998597, 267, 117, 282, 148
-0.998601, 195, 257, 210, 288
-0.998603, 345, 257, 360, 288
-0.998604, 345, 177, 408, 192
-0.998604, 289, 125, 352, 140
-0.998606, 273, 163, 336, 178
-0.998607, 425, 261, 488, 276
-0.99861, 321, 253, 336, 284
-0.998611, 305, 81, 336, 144
-0.998613, 161, 209, 288, 240
-0.998614, 377, 171, 440, 186
-0.998614, 471, 145, 486, 176
-0.998615, 425, 267, 488, 282
-0.998617, 261, 117, 276, 148
-0.998619, 209, 263, 272, 278
-0.998619, 425, 273, 488, 288
-0.998619, 425, 279, 488, 294
-0.998619, 369, 155, 432, 170
-0.99862, 425, 239, 488, 254
-0.998621, 249, 167, 312, 182
-0.998623, 305, 349, 368, 364
-0.998623, 425, 255, 488, 270
-0.998624, 249, 119, 312, 134
-0.998624, 337, 289, 464, 320
-0.998625, 337, 163, 400, 178
-0.998625, 451, 269, 466, 300
-0.998629, 345, 183, 408, 198
-0.998631, 275, 117, 290, 148
-0.998633, 337, 37, 464, 68
-0.998634, 251, 117, 266, 148
-0.998634, 283, 157, 298, 188
-0.998635, 193, 133, 256, 148
-0.998636, 281, 261, 344, 276
-0.998637, 217, 161, 280, 176
-0.998638, 329, 131, 392, 146
-0.99864, 249, 265, 312, 280
-0.99864, 289, 133, 352, 148
-0.998643, 425, 219, 488, 234
-0.998646, 297, 113, 360, 128
-0.998646, 425, 233, 488, 248
-0.998646, 321, 143, 384, 158
-0.998648, 371, 169, 386, 200
-0.998648, 433, 203, 496, 218
-0.998648, 485, 205, 500, 236
-0.998649, 329, 149, 392, 164
-0.998649, 249, 155, 312, 170
-0.998654, 345, 169, 408, 184
-0.998654, 369, 161, 432, 176
-0.998654, 425, 213, 488, 228
-0.998655, 345, 189, 408, 204
-0.998656, 321, 251, 384, 266
-0.998658, 425, 227, 488, 242
-0.998659, 417, 285, 480, 300
-0.998659, 425, 249, 488, 264
-0.99866, 281, 261, 296, 292
-0.99866, 337, 253, 352, 284
-0.998662, 193, 143, 256, 158
-0.998662, 241, 109, 304, 124
-0.998663, 369, 149, 432, 164
-0.998667, 433, 123, 496, 138
-0.998667, 329, 259, 392, 274
-0.998672, 329, 157, 392, 172
-0.998673, 353, 253, 416, 268
-0.998674, 193, 111, 256, 126
-0.998674, 153, 253, 216, 268
-0.998676, 145, 199, 208, 214
-0.998676, 425, 129, 488, 144
-0.998677, 437, 33, 468, 288
-0.998677, 321, 277, 448, 308
-0.998677, 321, 121, 384, 136
-0.998678, 455, 177, 470, 208
-0.998679, 183, 253, 198, 284
-0.998681, 441, 225, 456, 256
-0.998682, 369, 177, 432, 192
-0.998683, 315, 257, 330, 288
-0.998683, 185, 159, 248, 174
-0.998684, 433, 103, 496, 118
-0.998684, 313, 137, 376, 152
-0.998685, 161, 259, 224, 274
-0.998686, 425, 147, 488, 162
-0.998687, 433, 109, 496, 124
-0.998687, 401, 271, 464, 286
-0.998688, 185, 167, 248, 182
-0.998688, 401, 263, 464, 278
-0.998689, 409, 205, 472, 220
-0.998689, 433, 117, 496, 132
-0.99869, 153, 149, 216, 164
-0.99869, 145, 183, 208, 198
-0.99869, 345, 201, 408, 216
-0.998691, 361, 243, 424, 258
-0.998692, 249, 257, 312, 272
-0.998692, 355, 137, 370, 168
-0.998693, 281, 157, 344, 172
-0.998694, 185, 153, 248, 168
-0.998694, 145, 177, 208, 192
-0.998695, 401, 279, 464, 294
-0.998695, 345, 195, 408, 210
-0.998695, 305, 107, 368, 122
-0.998696, 433, 197, 496, 212
-0.998696, 433, 9, 496, 24
-0.998696, 1, 217, 64, 280
-0.998696, 153, 157, 216, 172
-0.998697, 345, 211, 408, 226
-0.998697, 253, 169, 268, 200
-0.998699, 321, 245, 384, 260
-0.998699, 353, 143, 416, 158
-0.998699, 409, 177, 472, 192
-0.9987, 345, 219, 408, 234
-0.998701, 409, 197, 472, 212
-0.998702, 321, 175, 384, 190
-0.998702, 433, 181, 496, 196
-0.998702, 177, 253, 240, 268
-0.998703, 137, 219, 200, 234
-0.998704, 145, 205, 208, 220
-0.998705, 137, 211, 200, 226
-0.998706, 185, 183, 248, 198
-0.998706, 361, 237, 424, 252
-0.998707, 153, 167, 216, 182
-0.998707, 429, 33, 460, 96
-0.998707, 321, 233, 384, 248
-0.998708, 217, 255, 280, 270
-0.998708, 153, 193, 216, 208
-0.998708, 433, 97, 496, 112
-0.99871, 425, 141, 488, 156
-0.99871, 185, 173, 248, 188
-0.998711, 161, 135, 224, 150
-0.998713, 425, 135, 488, 150
-0.998713, 433, 153, 496, 168
-0.998715, 257, 261, 272, 292
-0.998715, 201, 279, 264, 294
-0.998716, 377, 187, 440, 202
-0.998716, 137, 247, 200, 262
-0.998717, 217, 167, 280, 182
-0.998717, 485, 177, 500, 208
-0.998717, 369, 81, 496, 112
-0.998718, 273, 295, 336, 310
-0.998718, 353, 225, 416, 240
-0.99872, 483, 97, 498, 224
-0.99872, 177, 289, 304, 320
-0.99872, 337, 291, 400, 306
-0.99872, 177, 215, 240, 230
-0.998721, 433, 189, 496, 204
-0.998721, 409, 191, 472, 206
-0.998721, 217, 285, 280, 300
-0.998722, 287, 117, 302, 148
-0.998723, 137, 225, 200, 240
-0.998723, 265, 109, 328, 124
-0.998724, 153, 143, 216, 158
-0.998724, 185, 189, 248, 204
-0.998724, 177, 209, 240, 224
-0.998725, 373, 141, 388, 172
-0.998725, 321, 239, 384, 254
-0.998728, 273, 169, 336, 184
-0.998729, 353, 231, 416, 246
-0.99873, 433, 291, 496, 306
-0.99873, 401, 257, 464, 272
-0.998731, 353, 259, 416, 274
-0.998732, 189, 257, 204, 288
-0.998733, 1, 105, 256, 168
-0.998734, 475, 269, 490, 300
-0.998739, 461, 165, 476, 196
-0.998742, 369, 1, 496, 32
-0.998748, 349, 137, 364, 168
-0.998751, 263, 261, 278, 292
-0.998754, 361, 129, 376, 160
-0.99876, 465, 181, 480, 212
-0.998761, 327, 253, 342, 284
-0.99877, 349, 89, 380, 152
-0.998772, 321, 341, 448, 372
-0.998777, 363, 257, 378, 288
-0.998781, 469, 1, 500, 256
-0.998785, 485, 81, 500, 112
-0.998793, 273, 97, 400, 128
-0.998794, 187, 205, 202, 236
-0.998798, 281, 117, 296, 148
-0.998799, 365, 241, 380, 272
-0.9988, 339, 133, 354, 164
-0.998802, 469, 281, 500, 344
-0.998802, 441, 129, 472, 375
-0.998809, 145, 1, 272, 128
-0.998824, 477, 225, 492, 256
-0.99883, 261, 149, 276, 180
-0.99883, 1, 233, 128, 264
-0.998844, 365, 33, 396, 288
-0.998845, 351, 125, 366, 156
-0.998847, 195, 165, 210, 196
-0.998851, 339, 121, 354, 152
-0.998855, 479, 13, 494, 44
-0.998862, 33, 73, 288, 136
-0.998863, 477, 193, 492, 224
-0.998866, 17, 249, 144, 280
-0.998874, 369, 249, 400, 312
-0.998876, 475, 121, 490, 152
-0.998882, 469, 213, 484, 244
-0.998884, 467, 233, 482, 264
-0.998885, 113, 269, 240, 300
-0.998887, 353, 49, 480, 80
-0.998897, 435, 221, 450, 252
-0.998902, 233, 281, 264, 344
-0.998904, 341, 33, 372, 288
-0.998908, 289, 145, 304, 176
-0.998917, 451, 257, 466, 288
-0.998921, 183, 217, 198, 248
-0.998921, 321, 105, 336, 136
-0.998926, 477, 245, 492, 276
-0.998933, 445, 213, 460, 244
-0.998934, 467, 193, 482, 224
-0.998937, 449, 185, 464, 216
-0.998945, 437, 205, 452, 236
-0.998955, 337, 265, 464, 296
-0.998959, 257, 1, 320, 256
-0.998962, 273, 293, 288, 324
-0.998966, 341, 345, 356, 375
-0.998967, 373, 129, 388, 160
-0.99897, 181, 193, 196, 224
-0.99897, 371, 129, 386, 256
-0.998975, 187, 169, 202, 200
-0.998984, 329, 113, 344, 144
-0.998985, 369, 13, 496, 44
-0.998987, 435, 273, 450, 304
-0.998988, 351, 249, 366, 280
-0.998988, 331, 241, 346, 368
-0.998989, 339, 241, 354, 368
-0.99899, 379, 145, 394, 176
-0.998999, 447, 201, 462, 232
-0.999001, 475, 257, 490, 288
-0.999009, 455, 197, 470, 228
-0.999018, 279, 249, 294, 280
-0.999019, 191, 245, 206, 276
-0.999021, 409, 1, 472, 64
-0.999024, 459, 209, 474, 240
-0.999025, 337, 25, 464, 56
-0.999026, 173, 65, 204, 320
-0.999028, 377, 185, 392, 216
-0.999031, 479, 93, 494, 124
-0.999047, 479, 161, 494, 288
-0.999049, 417, 33, 448, 96
-0.999059, 325, 241, 340, 368
-0.999062, 363, 113, 378, 240
-0.999067, 121, 17, 184, 80
-0.999078, 317, 241, 332, 368
-0.999082, 417, 97, 448, 352
-0.999083, 271, 241, 286, 368
-0.999088, 129, 101, 256, 132
-0.999104, 483, 1, 498, 128
-0.999106, 261, 241, 276, 368
-0.99911, 289, 241, 304, 368
-0.999113, 369, 297, 496, 360
-0.999125, 185, 65, 248, 128
-0.999128, 33, 1, 160, 64
-0.999129, 311, 241, 326, 368
-0.99913, 349, 241, 364, 368
-0.999138, 255, 241, 270, 368
-0.99914, 145, 1, 272, 64
-0.999143, 281, 241, 296, 368
-0.999149, 185, 193, 200, 320
-0.999153, 361, 161, 376, 288
-0.999161, 357, 209, 372, 336
-0.999164, 477, 113, 492, 240
-0.999165, 113, 37, 240, 68
-0.999173, 313, 289, 344, 352
-0.99918, 295, 241, 310, 368
-0.999188, 97, 41, 160, 104
-0.999197, 351, 113, 366, 240
-0.9992, 97, 57, 224, 88
-0.999203, 209, 337, 336, 368
-0.999204, 379, 129, 394, 256
-0.999221, 357, 113, 372, 240
-0.999227, 305, 241, 320, 368
-0.999241, 113, 25, 240, 56
-0.999249, 337, 313, 400, 375
-0.999252, 429, 129, 460, 375
-0.999253, 73, 281, 136, 344
-0.999266, 249, 241, 264, 368
-0.999288, 195, 145, 210, 272
-0.999294, 225, 129, 352, 160
-0.999295, 417, 137, 448, 200
-0.999297, 145, 209, 176, 336
-0.999308, 261, 97, 276, 224
-0.999313, 485, 145, 500, 272
-0.999314, 105, 193, 168, 256
-0.999317, 351, 193, 366, 320
-0.999324, 333, 113, 348, 240
-0.999324, 333, 225, 364, 288
-0.999331, 249, 97, 264, 224
-0.999336, 363, 225, 378, 352
-0.999341, 201, 113, 216, 240
-0.999345, 477, 209, 492, 336
-0.999345, 153, 9, 216, 72
-0.999348, 207, 113, 222, 240
-0.999361, 229, 97, 244, 224
-0.999362, 435, 209, 450, 336
-0.999365, 295, 97, 310, 224
-0.999367, 471, 129, 486, 256
-0.999367, 429, 1, 460, 128
-0.999371, 313, 97, 328, 224
-0.999371, 243, 225, 258, 352
-0.999381, 9, 161, 72, 288
-0.999383, 255, 97, 270, 224
-0.999387, 283, 97, 298, 224
-0.999387, 97, 1, 224, 32
-0.999399, 451, 177, 466, 304
-0.999403, 377, 177, 392, 304
-0.999405, 223, 241, 238, 368
-0.999405, 409, 273, 440, 336
-0.999408, 257, 25, 500, 88
-0.999416, 241, 185, 368, 216
-0.999417, 367, 177, 382, 304
-0.999425, 209, 241, 224, 368
-0.999431, 217, 225, 232, 352
-0.999432, 191, 193, 206, 320
-0.999435, 289, 97, 304, 224
-0.99944, 345, 113, 360, 240
-0.99944, 369, 81, 384, 208
-0.999441, 321, 81, 448, 112
-0.999441, 277, 97, 292, 224
-0.999444, 233, 225, 248, 352
-0.999449, 377, 81, 392, 208
-0.999451, 269, 97, 284, 224
-0.999453, 271, 193, 286, 320
-0.999454, 179, 193, 194, 320
-0.999454, 339, 113, 354, 240
-0.999455, 193, 1, 224, 256
-0.999455, 215, 113, 230, 240
-0.99946, 113, 13, 240, 44
-0.999463, 445, 193, 460, 320
-0.999463, 243, 97, 258, 224
-0.999468, 263, 193, 278, 320
-0.999468, 319, 97, 334, 224
-0.99948, 221, 113, 236, 240
-0.999481, 341, 193, 356, 320
-0.999483, 255, 193, 270, 320
-0.999494, 477, 235, 492, 250
-0.999495, 373, 141, 388, 156
-0.999495, 259, 169, 274, 184
-0.999495, 473, 127, 488, 142
-0.999495, 381, 185, 396, 200
-0.999496, 449, 279, 464, 294
-0.999496, 373, 133, 388, 148
-0.999496, 289, 119, 304, 134
-0.999498, 477, 213, 492, 228
-0.999498, 325, 193, 340, 320
-0.999499, 485, 283, 500, 298
-0.999499, 199, 151, 214, 166
-0.999499, 357, 169, 372, 184
-0.9995, 457, 185, 472, 200
-0.9995, 253, 113, 268, 128
-0.9995, 481, 185, 496, 200
-0.999501, 367, 185, 382, 200
-0.999502, 285, 193, 300, 320
-0.999502, 257, 297, 500, 360
-0.999503, 481, 127, 496, 142
-0.999503, 471, 151, 486, 166
-0.999503, 371, 171, 386, 186
-0.999504, 485, 113, 500, 128
-0.999504, 187, 183, 202, 198
-0.999506, 485, 209, 500, 224
-0.999506, 315, 193, 330, 320
-0.999507, 315, 259, 330, 274
-0.999507, 225, 117, 240, 132
-0.999507, 473, 159, 488, 174
-0.999508, 277, 117, 292, 132
-0.999508, 197, 157, 212, 172
-0.999509, 203, 143, 218, 158
-0.999509, 373, 189, 388, 204
-0.99951, 383, 163, 398, 178
-0.99951, 451, 271, 466, 286
-0.99951, 467, 185, 482, 200
-0.999511, 373, 153, 388, 168
-0.999511, 177, 105, 304, 136
-0.999511, 453, 213, 468, 228
-0.999512, 477, 177, 492, 192
-0.999512, 307, 193, 322, 320
-0.999513, 479, 143, 494, 158
-0.999513, 401, 9, 432, 72
-0.999513, 483, 191, 498, 206
-0.999513, 477, 5, 492, 20
-0.999514, 235, 263, 250, 278
-0.999514, 381, 33, 412, 288
-0.999514, 485, 177, 500, 192
-0.999515, 365, 255, 380, 270
-0.999516, 253, 119, 268, 134
-0.999517, 345, 143, 360, 158
-0.999518, 355, 133, 370, 148
-0.999518, 229, 261, 244, 276
-0.999519, 199, 241, 214, 368
-0.999519, 475, 281, 490, 296
-0.99952, 481, 19, 496, 34
-0.99952, 277, 193, 292, 320
-0.99952, 299, 193, 314, 320
-0.99952, 485, 89, 500, 104
-0.99952, 343, 257, 358, 272
-0.999521, 475, 165, 490, 180
-0.999521, 205, 137, 220, 152
-0.999523, 351, 261, 366, 276
-0.999523, 243, 261, 258, 276
-0.999523, 189, 145, 204, 272
-0.999524, 255, 155, 270, 170
-0.999525, 237, 97, 252, 224
-0.999525, 259, 119, 274, 134
-0.999526, 223, 261, 238, 276
-0.999527, 289, 155, 304, 170
-0.999527, 231, 117, 246, 132
-0.999527, 341, 127, 356, 142
-0.999527, 261, 263, 276, 278
-0.999527, 481, 151, 496, 166
-0.999527, 327, 113, 342, 240
-0.999529, 485, 1, 500, 16
-0.999529, 317, 121, 332, 136
-0.999529, 459, 179, 474, 194
-0.999529, 321, 97, 448, 128
-0.99953, 309, 259, 324, 274
-0.99953, 361, 149, 376, 164
-0.99953, 341, 135, 356, 150
-0.999531, 315, 115, 330, 130
-0.999532, 265, 117, 280, 132
-0.999532, 249, 263, 264, 278
-0.999532, 301, 97, 316, 224
-0.999533, 247, 167, 262, 182
-0.999534, 477, 11, 492, 26
-0.999534, 129, 73, 192, 136
-0.999535, 269, 263, 284, 278
-0.999535, 183, 255, 198, 270
-0.999535, 479, 171, 494, 186
-0.999536, 297, 263, 312, 278
-0.999536, 483, 121, 498, 136
-0.999537, 385, 129, 400, 256
-0.999538, 481, 133, 496, 148
-0.999539, 255, 263, 270, 278
-0.999539, 271, 117, 286, 132
-0.99954, 285, 265, 300, 280
-0.99954, 381, 179, 396, 194
-0.99954, 279, 265, 294, 280
-0.999541, 335, 193, 350, 320
-0.999542, 307, 97, 322, 224
-0.999543, 335, 133, 350, 148
-0.999543, 189, 257, 204, 272
-0.999544, 485, 139, 500, 154
-0.999545, 479, 205, 494, 220
-0.999548, 293, 193, 308, 320
-0.999549, 303, 261, 318, 276
-0.999549, 413, 1, 444, 256
-0.999551, 357, 261, 372, 276
-0.999551, 485, 203, 500, 218
-0.999552, 485, 25, 500, 40
-0.999552, 201, 259, 216, 274
-0.999553, 425, 313, 488, 375
-0.999553, 357, 139, 372, 154
-0.999555, 485, 171, 500, 186
-0.999555, 247, 117, 262, 132
-0.999557, 457, 81, 472, 208
-0.999557, 41, 1, 104, 375
-0.999559, 465, 193, 480, 320
-0.999559, 485, 197, 500, 212
-0.999559, 291, 265, 306, 280
-0.99956, 373, 177, 388, 192
-0.999561, 65, 25, 320, 88
-0.999561, 223, 123, 238, 138
-0.999561, 295, 117, 310, 132
-0.999565, 361, 65, 376, 192
-0.999565, 481, 157, 496, 172
-0.999565, 211, 259, 226, 274
-0.999572, 217, 125, 232, 140
-0.999572, 457, 161, 472, 288
-0.999574, 49, 169, 176, 232
-0.999575, 329, 127, 344, 142
-0.999576, 485, 193, 500, 320
-0.999578, 351, 141, 366, 156
-0.999578, 249, 193, 264, 320
-0.999581, 195, 259, 210, 274
-0.999581, 209, 131, 224, 146
-0.999581, 217, 261, 232, 276
-0.999582, 445, 129, 460, 256
-0.999582, 323, 123, 338, 138
-0.999582, 283, 163, 298, 178
-0.999584, 1, 281, 500, 344
-0.999586, 301, 113, 316, 128
-0.999586, 241, 113, 256, 128
-0.999589, 449, 65, 464, 192
-0.99959, 373, 183, 388, 198
-0.99959, 435, 33, 450, 160
-0.99959, 297, 163, 312, 178
-0.999591, 363, 139, 378, 154
-0.999591, 359, 175, 374, 190
-0.999592, 193, 241, 208, 368
-0.999592, 365, 179, 380, 194
-0.999592, 481, 49, 496, 176
-0.999595, 347, 135, 362, 150
-0.999595, 261, 163, 276, 178
-0.999596, 367, 151, 382, 166
-0.999597, 341, 65, 356, 192
-0.999599, 485, 165, 500, 180
-0.9996, 253, 167, 268, 182
-0.999602, 257, 49, 500, 112
-0.999605, 383, 169, 398, 184
-0.999607, 349, 65, 364, 192
-0.999608, 289, 167, 304, 182
-0.999609, 453, 225, 468, 352
-0.99961, 471, 209, 486, 336
-0.999611, 97, 69, 224, 100
-0.999612, 355, 65, 370, 192
-0.999613, 377, 161, 392, 176
-0.999614, 249, 161, 264, 176
-0.999618, 183, 241, 198, 368
-0.999619, 473, 65, 488, 192
-0.999625, 443, 49, 458, 176
-0.999628, 369, 225, 384, 352
-0.999633, 325, 281, 356, 344
-0.999635, 309, 111, 324, 126
-0.999637, 183, 145, 198, 272
-0.999637, 445, 241, 460, 368
-0.999637, 301, 129, 332, 192
-0.999638, 321, 329, 448, 360
-0.999648, 225, 193, 240, 320
-0.999654, 109, 249, 140, 312
-0.999661, 161, 65, 192, 320
-0.999662, 235, 111, 250, 126
-0.999665, 221, 65, 236, 192
-0.999668, 451, 113, 466, 240
-0.999671, 459, 209, 474, 336
-0.999674, 211, 193, 226, 320
-0.999678, 325, 65, 340, 192
-0.999678, 177, 241, 192, 368
-0.999679, 429, 209, 444, 336
-0.99968, 435, 145, 450, 272
-0.999685, 435, 97, 450, 224
-0.999686, 425, 161, 440, 288
-0.999687, 429, 17, 444, 144
-0.999697, 203, 193, 218, 320
-0.999697, 477, 1, 492, 128
-0.999699, 201, 65, 216, 192
-0.999699, 215, 65, 230, 192
-0.999707, 57, 209, 120, 272
-0.999708, 425, 1, 456, 256
-0.999709, 195, 65, 210, 192
-0.999709, 173, 161, 188, 288
-0.999721, 331, 65, 346, 192
-0.999725, 237, 49, 252, 176
-0.999726, 401, 1, 432, 256
-0.999726, 463, 97, 478, 224
-0.99973, 303, 49, 318, 176
-0.999734, 291, 49, 306, 176
-0.999736, 281, 49, 296, 176
-0.999741, 17, 277, 144, 308
-0.999757, 17, 265, 144, 296
-0.999758, 1, 193, 128, 256
-0.999759, 341, 193, 372, 256
-0.99976, 49, 297, 176, 328
-0.999769, 157, 225, 188, 352
-0.999769, 65, 269, 192, 300
-0.999772, 97, 305, 224, 336
-0.999784, 457, 1, 488, 256
-0.999801, 49, 61, 176, 92
-0.999802, 33, 37, 160, 68
-0.999811, 1, 149, 128, 180
-0.999814, 145, 321, 272, 352
-0.999814, 289, 161, 304, 176
-0.999818, 65, 289, 320, 352
-0.999828, 113, 81, 240, 112
-0.999829, 321, 69, 448, 100
-0.999831, 25, 137, 88, 200
-0.999834, 255, 161, 270, 176
-0.999846, 361, 17, 424, 80
-0.999868, 33, 309, 160, 340
-0.999868, 73, 177, 136, 304
-0.999874, 97, 273, 160, 336
-0.999884, 145, 309, 272, 340
-0.999886, 209, 237, 336, 268
-0.999893, 97, 321, 224, 352
-0.999899, 65, 281, 192, 312
-0.999918, 161, 49, 416, 112
-0.999918, 105, 65, 168, 320
-0.999925, 33, 221, 160, 252
-0.999925, 33, 13, 160, 44
-0.999929, 145, 69, 272, 100
-0.999931, 261, 1, 292, 256
-0.999934, 65, 1, 320, 64
-0.999956, 289, 1, 320, 256
-0.99996, 97, 293, 224, 324
-0.999963, 129, 313, 384, 375
-0.999963, 369, 321, 496, 352
-0.999964, 17, 165, 144, 196
-0.999982, 225, 173, 352, 204
-1.00001, 321, 13, 448, 44
-1.00002, 1, 137, 128, 168
-1.00003, 289, 33, 416, 64
-1.00003, 453, 49, 484, 176
-1.00004, 397, 209, 428, 336
-1.00006, 1, 1, 64, 375
-1.00006, 33, 25, 160, 56
-1.00006, 145, 49, 272, 80
-1.00006, 49, 153, 176, 184
-1.00006, 33, 321, 160, 352
-1.00006, 353, 1, 384, 256
-1.00006, 49, 189, 176, 220
-1.00006, 113, 333, 240, 364
-1.00006, 49, 177, 112, 304
-1.00007, 177, 33, 304, 64
-1.00008, 225, 149, 352, 180
-1.00009, 177, 17, 304, 48
-1.00009, 257, 329, 384, 360
-1.0001, 245, 1, 276, 256
-1.00011, 1, 17, 500, 80
-1.00012, 1, 297, 128, 328
-1.00012, 289, 57, 416, 88
-1.00013, 145, 1, 208, 128
-1.00013, 225, 93, 352, 124
-1.00014, 49, 73, 176, 104
-1.00014, 225, 177, 352, 240
-1.00016, 33, 49, 160, 80
-1.00016, 1, 205, 128, 236
-1.00016, 193, 1, 448, 64
-1.00016, 321, 1, 352, 256
-1.00018, 209, 1, 240, 256
-1.00019, 1, 129, 64, 375
-1.0002, 233, 1, 264, 256
-1.00021, 309, 1, 340, 256
-1.00021, 145, 65, 176, 320
-1.00025, 81, 305, 144, 368
-1.00025, 169, 305, 232, 368
-1.00027, 161, 73, 416, 136
-1.00029, 41, 305, 104, 368
-1.00031, 273, 1, 304, 256
-1.00031, 121, 169, 184, 232
-1.00031, 221, 1, 252, 256
-1.00032, 193, 9, 320, 72
-1.00035, 393, 97, 424, 352
-1.00036, 125, 65, 156, 320
-1.00037, 257, 313, 320, 375
-1.0004, 25, 225, 56, 352
-1.00043, 41, 265, 104, 328
-1.00043, 177, 1, 208, 128
-1.00045, 405, 129, 436, 375
-1.00047, 33, 97, 64, 352
-1.00049, 385, 145, 416, 272
-1.0005, 177, 65, 304, 128
-1.00054, 209, 209, 336, 272
-1.00055, 141, 161, 172, 288
-1.00058, 33, 113, 160, 176
-1.00059, 105, 129, 136, 375
-1.00061, 65, 1, 128, 375
-1.00061, 21, 129, 52, 375
-1.00062, 385, 225, 416, 352
-1.00065, 129, 1, 160, 128
-1.00065, 65, 49, 320, 112
-1.00066, 121, 273, 184, 336
-1.00066, 93, 129, 124, 375
-1.00066, 1, 313, 256, 375
-1.00067, 45, 97, 76, 352
-1.00068, 97, 169, 160, 232
-1.00069, 81, 129, 112, 375
-1.00072, 129, 145, 192, 208
-1.00074, 65, 129, 96, 375
-1.00078, 409, 145, 440, 272
-1.00079, 1, 97, 32, 352
-1.0008, 97, 145, 160, 208
-1.0008, 113, 1, 144, 256
-1.00086, 9, 225, 40, 352
-1.00092, 161, 57, 224, 120
-1.00095, 1, 169, 128, 232
-1.00097, 161, 25, 416, 88
-1.00103, 25, 129, 88, 375
-1.00109, 273, 1, 400, 64
-1.00111, 69, 225, 100, 352
-1.00114, 381, 49, 412, 176
-1.00114, 9, 281, 72, 344
-1.00118, 177, 17, 240, 144
-1.00118, 1, 65, 500, 128
-1.00122, 105, 65, 168, 128
-1.00122, 37, 225, 68, 352
-1.00134, 101, 33, 132, 288
-1.00137, 13, 33, 44, 288
-1.00137, 105, 225, 136, 352
-1.00137, 1, 185, 64, 248
-1.00138, 1, 41, 500, 104
-1.00138, 69, 33, 100, 288
-1.0014, 121, 65, 184, 192
-1.0014, 33, 1, 64, 256
-1.0014, 81, 209, 112, 336
-1.00144, 185, 1, 248, 64
-1.00147, 1, 1, 32, 256
-1.00149, 85, 33, 116, 288
-1.00151, 57, 33, 88, 288
-1.00159, 45, 1, 76, 256
-1.0016, 1, 305, 500, 368
-1.0016, 297, 65, 360, 128
-1.00161, 121, 297, 184, 360
-1.00163, 73, 129, 136, 375
-1.00165, 273, 25, 400, 88
-1.00172, 57, 225, 88, 352
-1.00173, 337, 41, 400, 104
-1.00179, 217, 145, 280, 272
-1.00184, 133, 209, 164, 336
-1.00188, 93, 225, 124, 352
-1.0019, 17, 57, 144, 120
-1.00193, 49, 81, 176, 144
-1.00197, 1, 129, 128, 256
-1.00202, 1, 129, 64, 192
-1.00221, 49, 65, 176, 192
-1.00226, 357, 33, 388, 160
-1.00228, 141, 1, 172, 128
-1.00231, 1, 89, 500, 152
-1.00234, 225, 49, 352, 112
-1.00234, 121, 241, 152, 368
-1.00236, 33, 129, 96, 256
-1.00242, 157, 1, 188, 128
-1.00244, 97, 1, 160, 128
-1.00244, 1, 89, 128, 152
-1.00252, 41, 177, 72, 304
-1.0026, 453, 1, 484, 128
-1.00264, 117, 177, 148, 304
-1.00268, 93, 177, 124, 304
-1.00274, 21, 177, 52, 304
-1.00291, 397, 145, 428, 272
-1.00294, 129, 161, 160, 288
-1.00295, 69, 177, 100, 304
-1.00299, 137, 65, 168, 192
-1.00305, 373, 1, 404, 128
-1.00306, 57, 177, 88, 304
-1.00326, 385, 1, 416, 128
-1.00329, 49, 129, 112, 375
-1.00333, 121, 65, 152, 192
-1.00334, 241, 145, 304, 272
-1.00336, 105, 1, 136, 128
-1.00349, 81, 161, 112, 288
-1.00361, 1, 177, 32, 304
-1.0037, 105, 177, 136, 304
-1.00374, 165, 65, 196, 192
-1.00379, 105, 129, 168, 256
-1.00379, 149, 65, 180, 192
-1.00381, 253, 145, 284, 272
-1.00396, 33, 129, 64, 256
-1.00397, 337, 17, 400, 144
-1.004, 117, 1, 148, 128
-1.00402, 297, 145, 360, 272
-1.0041, 225, 145, 352, 272
-1.00413, 197, 17, 228, 144
-1.00499, 1, 81, 128, 208
-1.00528, 1, 17, 128, 144
-1.00544, 81, 33, 144, 288
-1.00578, 41, 81, 104, 208
-1.0059, 9, 113, 72, 240
-1.0061, 73, 129, 136, 256
-1.00634, 193, 1, 320, 128
-1.00636, 97, 65, 160, 192
-1.00687, 33, 33, 96, 288
-1.0069, 313, 17, 376, 144
-1.00759, 265, 145, 328, 272
-1.00803, 1, 33, 64, 288
-1.0089, 65, 81, 128, 208
-1.00896, 57, 33, 120, 288
-1.00935, 1, 65, 64, 192
-1.00961, 73, 1, 136, 128
-1.01068, 241, 1, 368, 128
-1.01218, 289, 1, 352, 128
-1.01236, 41, 33, 104, 160
-1.01257, 1, 17, 64, 144
-1.01293, 201, 1, 264, 128
-1.01413, 249, 1, 312, 128
-1.01617, 225, 1, 288, 128
