1996
-0.345019, 1, 129, 500, 375
-0.561419, 129, 129, 384, 375
-0.572217, 1, 1, 500, 375
-0.578633, 257, 129, 500, 375
-0.601713, 129, 1, 384, 375
-0.615925, 257, 1, 500, 375
-0.644015, 33, 1, 288, 375
-0.657389, 1, 33, 500, 288
-0.658586, 33, 129, 288, 375
-0.844156, 321, 129, 448, 375
-0.847505, 1, 177, 500, 304
-0.863539, 257, 129, 384, 375
-0.87237, 49, 129, 176, 375
-0.873177, 129, 129, 256, 375
-0.879242, 209, 129, 336, 375
-0.881121, 369, 129, 496, 375
-0.887096, 1, 193, 256, 320
-0.891758, 1, 241, 500, 368
-0.893146, 289, 1, 416, 375
-0.899676, 257, 193, 500, 320
-0.900193, 225, 1, 352, 375
-0.900944, 65, 1, 192, 375
-0.901127, 369, 1, 496, 375
-0.902873, 97, 177, 352, 304
-0.905414, 1, 193, 128, 320
-0.90559, 1, 129, 128, 375
-0.905743, 113, 1, 240, 375
-0.909752, 1, 129, 500, 256
-0.912355, 193, 145, 448, 272
-0.914068, 1, 241, 256, 368
-0.91423, 161, 1, 288, 375
-0.917063, 361, 161, 424, 288
-0.918044, 49, 209, 176, 336
-0.919498, 97, 209, 160, 336
-0.919686, 17, 1, 144, 375
-0.919937, 369, 161, 496, 288
-0.92038, 41, 193, 104, 320
-0.921853, 321, 193, 448, 320
-0.922183, 17, 193, 80, 320
-0.925349, 337, 209, 400, 336
-0.926688, 129, 241, 384, 368
-0.929074, 73, 209, 136, 336
-0.929632, 369, 209, 432, 336
-0.935396, 313, 161, 376, 288
-0.935621, 241, 129, 368, 256
-0.935747, 113, 193, 240, 320
-0.93639, 121, 193, 184, 320
-0.936906, 225, 241, 480, 368
-0.937633, 305, 145, 432, 272
-0.937813, 337, 161, 400, 288
-0.938783, 161, 33, 416, 288
-0.938912, 257, 193, 384, 320
-0.939324, 417, 161, 480, 288
-0.939662, 273, 241, 400, 368
-0.941225, 361, 209, 424, 272
-0.941249, 289, 193, 352, 320
-0.943647, 313, 209, 376, 336
-0.944394, 81, 161, 144, 288
-0.945322, 353, 241, 416, 304
-0.946129, 329, 241, 392, 304
-0.946197, 385, 161, 448, 288
-0.946586, 113, 241, 176, 304
-0.946604, 81, 241, 144, 304
-0.946811, 73, 193, 136, 256
-0.947457, 225, 241, 352, 368
-0.94772, 145, 177, 208, 304
-0.947779, 57, 241, 120, 304
-0.947859, 81, 217, 144, 280
-0.948715, 49, 161, 176, 288
-0.948736, 1, 241, 128, 368
-0.949414, 337, 217, 400, 280
-0.949414, 377, 241, 440, 304
-0.949422, 97, 129, 352, 256
-0.950791, 369, 33, 496, 288
-0.950889, 177, 241, 304, 368
-0.951109, 121, 241, 184, 368
-0.952318, 393, 209, 456, 336
-0.952605, 273, 113, 336, 240
-0.952846, 337, 241, 464, 368
-0.952876, 97, 241, 224, 368
-0.952915, 273, 241, 336, 368
-0.953494, 217, 161, 280, 224
-0.953622, 177, 161, 304, 288
-0.95379, 33, 241, 96, 368
-0.954047, 241, 153, 304, 216
-0.954212, 249, 241, 312, 368
-0.954456, 81, 265, 144, 328
-0.954985, 105, 217, 168, 280
-0.955361, 241, 33, 368, 288
-0.95584, 9, 241, 72, 368
-0.956446, 257, 33, 500, 288
-0.95668, 225, 241, 288, 368
-0.957485, 417, 249, 480, 312
-0.957555, 321, 153, 384, 216
-0.957992, 185, 177, 248, 240
-0.95826, 41, 193, 104, 256
-0.958434, 145, 241, 208, 368
-0.958512, 289, 145, 352, 208
-0.95863, 353, 265, 416, 328
-0.958738, 265, 193, 328, 320
-0.958757, 105, 185, 168, 248
-0.959922, 289, 257, 352, 320
-0.959935, 305, 33, 432, 288
-0.960382, 193, 161, 256, 288
-0.960783, 225, 145, 288, 272
-0.960837, 201, 241, 264, 368
-0.961715, 385, 217, 448, 280
-0.961799, 385, 169, 448, 232
-0.961845, 329, 113, 392, 240
-0.962036, 137, 265, 200, 328
-0.962088, 225, 97, 480, 224
-0.962391, 249, 113, 312, 240
-0.962484, 9, 217, 72, 280
-0.962552, 129, 193, 160, 320
-0.962866, 377, 161, 408, 288
-0.963627, 177, 241, 240, 368
-0.963726, 373, 225, 404, 288
-0.964138, 49, 249, 176, 312
-0.96431, 361, 209, 392, 336
-0.964328, 353, 185, 416, 248
-0.964341, 337, 241, 464, 304
-0.96442, 417, 241, 480, 368
-0.964594, 345, 129, 408, 375
-0.964598, 129, 185, 192, 248
-0.964735, 113, 265, 176, 328
-0.964769, 89, 209, 120, 336
-0.964858, 97, 33, 224, 288
-0.964911, 73, 193, 104, 320
-0.964962, 117, 209, 148, 336
-0.965006, 241, 193, 304, 320
-0.965053, 265, 257, 328, 320
-0.965378, 49, 265, 112, 328
-0.965478, 389, 209, 420, 336
-0.96569, 105, 209, 136, 336
-0.965956, 105, 233, 136, 296
-0.965964, 369, 129, 432, 375
-0.966021, 201, 265, 264, 328
-0.966021, 225, 265, 288, 328
-0.966147, 345, 161, 408, 224
-0.966208, 1, 217, 128, 280
-0.966497, 417, 177, 480, 240
-0.966549, 93, 193, 124, 256
-0.966639, 397, 249, 428, 312
-0.966652, 393, 217, 424, 280
-0.966828, 177, 265, 240, 328
-0.967181, 37, 193, 68, 320
-0.967229, 313, 185, 376, 248
-0.967569, 265, 153, 328, 216
-0.96765, 193, 1, 320, 256
-0.9677, 217, 193, 280, 320
-0.967761, 169, 177, 232, 304
-0.967848, 105, 209, 136, 272
-0.967857, 257, 177, 320, 240
-0.967998, 137, 241, 200, 304
-0.968, 373, 209, 404, 336
-0.968339, 297, 113, 360, 240
-0.968363, 225, 153, 352, 216
-0.968528, 349, 209, 380, 336
-0.968562, 361, 233, 392, 296
-0.968748, 25, 265, 88, 328
-0.968772, 97, 241, 224, 304
-0.968959, 337, 217, 464, 280
-0.968983, 49, 193, 80, 320
-0.969432, 81, 193, 112, 256
-0.969485, 297, 129, 360, 375
-0.969698, 25, 193, 56, 320
-0.969768, 389, 161, 420, 288
-0.969771, 357, 209, 388, 272
-0.969786, 73, 241, 104, 304
-0.969803, 365, 161, 396, 288
-0.970099, 373, 249, 404, 312
-0.970359, 329, 265, 392, 328
-0.970531, 145, 33, 272, 288
-0.970562, 321, 129, 384, 375
-0.970608, 113, 185, 144, 248
-0.970625, 129, 225, 160, 288
-0.970637, 49, 193, 176, 256
-0.97071, 289, 169, 352, 232
-0.970914, 273, 249, 400, 312
-0.971002, 65, 217, 192, 280
-0.971021, 117, 241, 148, 304
-0.97104, 85, 241, 116, 304
-0.9712, 369, 177, 496, 240
-0.971215, 117, 217, 148, 280
-0.971274, 245, 153, 276, 216
-0.971323, 305, 97, 432, 224
-0.971544, 409, 241, 440, 304
-0.971661, 193, 113, 320, 240
-0.971669, 393, 265, 456, 328
-0.971763, 401, 209, 432, 336
-0.971784, 97, 161, 128, 288
-0.971907, 193, 177, 320, 240
-0.972107, 345, 217, 376, 280
-0.972235, 385, 241, 416, 304
-0.972318, 1, 129, 256, 256
-0.972493, 337, 193, 368, 320
-0.972724, 289, 153, 416, 216
-0.972947, 57, 217, 120, 280
-0.973048, 161, 185, 224, 248
-0.97318, 309, 193, 340, 320
-0.973315, 1, 241, 128, 304
-0.973335, 77, 217, 108, 280
-0.973356, 65, 33, 320, 288
-0.973371, 213, 169, 244, 232
-0.97356, 161, 241, 224, 304
-0.97359, 89, 217, 120, 280
-0.97361, 417, 129, 480, 375
-0.973613, 61, 193, 92, 320
-0.973648, 341, 249, 372, 312
-0.973691, 357, 257, 388, 320
-0.973747, 1, 257, 64, 320
-0.973868, 233, 161, 264, 224
-0.973965, 113, 185, 240, 248
-0.974282, 225, 185, 288, 248
-0.974287, 377, 201, 408, 264
-0.974322, 97, 129, 160, 375
-0.974486, 113, 145, 240, 272
-0.97463, 321, 177, 352, 304
-0.974682, 385, 113, 448, 240
-0.974699, 133, 249, 164, 312
-0.974765, 153, 193, 184, 320
-0.974772, 57, 201, 88, 264
-0.974831, 145, 129, 208, 375
-0.97526, 33, 241, 96, 304
-0.975273, 425, 249, 456, 312
-0.975617, 49, 33, 176, 288
-0.975797, 209, 129, 272, 375
-0.975847, 273, 129, 336, 375
-0.975914, 401, 161, 432, 288
-0.975915, 73, 129, 136, 375
-0.976179, 145, 257, 272, 320
-0.976271, 417, 209, 480, 272
-0.976351, 257, 193, 384, 256
-0.976353, 425, 273, 488, 336
-0.976572, 289, 193, 352, 256
-0.976587, 413, 225, 444, 352
-0.976592, 405, 217, 436, 280
-0.976668, 349, 161, 380, 288
-0.976685, 109, 161, 140, 288
-0.976747, 369, 113, 496, 240
-0.976801, 121, 265, 152, 328
-0.976809, 201, 177, 232, 240
-0.976864, 69, 193, 100, 256
-0.976898, 305, 233, 368, 296
-0.976906, 109, 265, 140, 328
-0.977128, 17, 217, 48, 280
-0.97718, 129, 217, 192, 280
-0.977356, 265, 281, 328, 344
-0.977373, 97, 265, 224, 328
-0.977406, 321, 257, 352, 320
-0.977437, 225, 257, 352, 320
-0.977606, 141, 225, 172, 352
-0.977609, 305, 281, 368, 344
-0.97761, 321, 265, 448, 328
-0.97766, 141, 177, 172, 304
-0.977665, 325, 241, 356, 368
-0.977674, 393, 129, 456, 375
-0.977745, 41, 145, 104, 272
-0.977749, 437, 249, 468, 312
-0.977925, 153, 241, 184, 304
-0.977926, 153, 265, 184, 328
-0.978074, 373, 169, 404, 232
-0.978321, 1, 145, 128, 272
-0.978359, 93, 265, 124, 328
-0.978536, 305, 177, 432, 240
-0.978577, 453, 249, 484, 312
-0.978629, 453, 161, 484, 288
-0.978653, 309, 257, 340, 320
-0.978664, 129, 129, 192, 256
-0.978741, 85, 161, 116, 288
-0.978812, 33, 217, 96, 280
-0.978902, 1, 193, 128, 256
-0.979257, 309, 241, 340, 368
-0.979344, 13, 193, 44, 320
-0.979375, 49, 129, 112, 375
-0.979438, 297, 257, 328, 320
-0.979476, 313, 145, 344, 208
-0.979576, 281, 241, 312, 368
-0.979616, 297, 193, 328, 320
-0.97964, 297, 241, 328, 368
-0.979674, 57, 241, 88, 368
-0.979736, 265, 241, 296, 368
-0.979771, 249, 129, 312, 375
-0.979784, 137, 185, 168, 248
-0.979793, 169, 265, 200, 328
-0.979824, 337, 145, 368, 272
-0.979849, 201, 113, 264, 240
-0.979953, 385, 265, 416, 328
-0.980012, 17, 273, 144, 336
-0.980018, 325, 153, 356, 216
-0.980073, 325, 129, 356, 256
-0.980128, 337, 153, 368, 216
-0.980157, 65, 169, 128, 232
-0.980214, 53, 265, 84, 328
-0.98025, 453, 177, 484, 240
-0.980293, 193, 241, 256, 304
-0.980307, 177, 153, 304, 216
-0.980308, 401, 169, 432, 232
-0.980381, 189, 185, 220, 248
-0.980386, 193, 153, 256, 216
-0.980503, 277, 265, 308, 328
-0.980531, 1, 33, 128, 288
-0.980585, 77, 241, 108, 368
-0.980608, 361, 185, 392, 248
-0.980611, 205, 265, 236, 328
-0.980611, 241, 265, 272, 328
-0.980628, 413, 161, 444, 288
-0.980642, 185, 265, 216, 328
-0.980669, 305, 169, 336, 232
-0.980673, 229, 265, 260, 328
-0.980732, 241, 241, 304, 304
-0.980742, 385, 177, 416, 240
-0.980799, 165, 241, 196, 304
-0.980812, 253, 265, 284, 328
-0.980819, 33, 241, 64, 368
-0.980823, 125, 185, 156, 248
-0.980898, 253, 241, 284, 368
-0.980913, 361, 113, 424, 240
-0.980951, 265, 265, 296, 328
-0.980964, 185, 129, 248, 375
-0.981012, 369, 265, 496, 328
-0.981013, 217, 265, 248, 328
-0.981105, 173, 177, 204, 304
-0.981171, 217, 241, 280, 304
-0.981221, 81, 265, 112, 328
-0.981254, 257, 145, 288, 208
-0.981301, 289, 177, 320, 240
-0.981303, 277, 153, 308, 216
-0.981463, 41, 265, 72, 328
-0.981616, 309, 129, 340, 256
-0.981649, 21, 241, 52, 368
-0.981689, 225, 97, 288, 224
-0.981813, 121, 129, 184, 375
-0.981903, 241, 241, 272, 368
-0.981918, 349, 153, 380, 216
-0.982095, 289, 225, 416, 288
-0.982142, 45, 241, 76, 368
-0.982144, 165, 225, 196, 352
-0.982305, 469, 193, 500, 320
-0.982608, 289, 153, 320, 216
-0.982625, 385, 193, 448, 256
-0.982627, 105, 145, 168, 272
-0.982668, 229, 241, 260, 368
-0.982731, 317, 177, 348, 240
-0.9828, 1, 145, 64, 272
-0.982813, 345, 137, 408, 200
-0.982888, 145, 97, 272, 224
-0.982962, 281, 193, 312, 320
-0.983176, 337, 241, 368, 368
-0.983181, 169, 153, 232, 216
-0.983187, 233, 145, 264, 272
-0.983234, 297, 113, 328, 240
-0.983258, 153, 241, 184, 368
-0.983364, 1, 193, 32, 320
-0.983482, 185, 241, 216, 368
-0.983672, 217, 241, 248, 368
-0.98377, 257, 281, 384, 344
-0.983795, 377, 113, 408, 240
-0.983819, 385, 145, 448, 208
-0.983838, 269, 193, 300, 320
-0.983868, 33, 209, 64, 272
-0.983988, 285, 113, 316, 240
-0.984151, 129, 241, 160, 368
-0.98422, 361, 161, 392, 224
-0.984265, 185, 177, 216, 304
-0.984337, 17, 257, 48, 320
-0.984388, 25, 129, 88, 375
-0.984521, 65, 265, 96, 328
-0.984562, 209, 281, 336, 344
-0.984566, 141, 225, 172, 288
-0.984612, 205, 241, 236, 368
-0.98463, 61, 241, 92, 304
-0.984666, 173, 185, 204, 248
-0.984692, 249, 129, 312, 192
-0.984809, 269, 177, 300, 240
-0.984811, 257, 193, 288, 320
-0.98491, 241, 81, 368, 208
-0.984951, 213, 161, 244, 288
-0.985025, 177, 113, 240, 240
-0.985044, 425, 241, 456, 368
-0.985063, 161, 281, 288, 344
-0.985109, 201, 161, 232, 288
-0.98516, 301, 145, 332, 208
-0.985326, 273, 113, 304, 240
-0.985406, 29, 265, 60, 328
-0.98543, 425, 161, 456, 288
-0.985567, 253, 113, 284, 240
-0.985593, 229, 185, 260, 248
-0.985654, 153, 185, 184, 248
-0.985725, 217, 137, 280, 200
-0.985773, 409, 265, 440, 328
-0.985797, 9, 241, 40, 368
-0.98583, 245, 193, 276, 320
-0.985845, 257, 177, 288, 240
-0.986015, 469, 209, 500, 272
-0.986144, 273, 121, 336, 184
-0.986149, 113, 209, 240, 272
-0.986261, 441, 161, 472, 288
-0.986289, 145, 161, 208, 224
-0.986723, 193, 153, 448, 216
-0.986763, 1, 281, 64, 344
-0.986772, 437, 177, 468, 240
-0.986854, 425, 169, 456, 232
-0.986895, 245, 177, 276, 240
-0.986913, 233, 193, 264, 320
-0.986916, 445, 273, 476, 336
-0.986963, 181, 241, 212, 304
-0.987025, 125, 145, 156, 272
-0.987063, 241, 129, 368, 192
-0.98709, 409, 153, 472, 216
-0.987217, 301, 193, 332, 256
-0.987361, 9, 193, 72, 256
-0.987395, 329, 185, 360, 248
-0.987693, 1, 241, 256, 304
-0.98776, 345, 281, 376, 344
-0.987843, 353, 253, 416, 284
-0.987856, 345, 185, 376, 248
-0.987943, 1, 81, 500, 208
-0.987979, 329, 245, 392, 276
-0.988022, 353, 265, 416, 296
-0.988051, 89, 241, 152, 272
-0.988054, 89, 257, 152, 288
-0.988109, 89, 273, 152, 304
-0.988145, 385, 173, 448, 204
-0.988261, 373, 273, 404, 336
-0.988272, 153, 129, 216, 256
-0.988285, 289, 281, 320, 344
-0.988316, 301, 281, 332, 344
-0.988371, 465, 249, 496, 312
-0.98841, 353, 213, 416, 244
-0.988414, 41, 209, 104, 240
-0.98844, 333, 281, 364, 344
-0.988506, 413, 169, 444, 232
-0.988521, 417, 177, 480, 208
-0.988548, 313, 281, 344, 344
-0.988582, 65, 185, 320, 248
-0.988594, 313, 209, 376, 272
-0.988625, 353, 153, 480, 216
-0.988633, 305, 1, 368, 375
-0.98865, 73, 229, 136, 260
-0.988694, 89, 217, 152, 248
-0.988694, 5, 249, 36, 312
-0.988726, 193, 185, 256, 216
-0.988788, 353, 233, 416, 264
-0.988809, 133, 281, 164, 344
-0.988831, 45, 201, 76, 264
-0.988856, 113, 253, 176, 284
-0.98887, 5, 217, 36, 280
-0.98896, 337, 1, 400, 375
-0.988988, 65, 249, 128, 280
-0.988999, 257, 249, 500, 312
-0.989034, 129, 161, 256, 224
-0.989041, 65, 197, 128, 228
-0.989043, 113, 269, 176, 300
-0.989081, 457, 225, 488, 352
-0.98921, 381, 145, 412, 208
-0.98921, 353, 169, 416, 200
-0.989292, 257, 177, 500, 240
-0.989314, 385, 245, 448, 276
-0.989349, 65, 169, 192, 232
-0.989355, 73, 145, 104, 272
-0.989412, 97, 229, 160, 260
-0.989438, 377, 1, 440, 375
-0.989456, 1, 185, 500, 248
-0.989512, 377, 229, 440, 260
-0.989521, 265, 193, 328, 224
-0.989523, 397, 273, 428, 336
-0.989536, 329, 257, 392, 288
-0.989537, 457, 201, 488, 264
-0.989581, 225, 185, 288, 216
-0.98961, 65, 273, 128, 304
-0.989716, 353, 277, 416, 308
-0.989722, 329, 269, 392, 300
-0.98973, 377, 265, 440, 296
-0.989739, 113, 161, 176, 224
-0.989758, 93, 169, 124, 232
-0.989758, 113, 241, 176, 272
-0.989782, 397, 193, 428, 256
-0.989851, 297, 153, 360, 184
-0.989859, 297, 189, 360, 220
-0.989862, 249, 149, 312, 180
-0.989887, 329, 165, 392, 196
-0.989893, 201, 197, 264, 228
-0.989924, 161, 233, 288, 296
-0.98994, 217, 173, 280, 204
-0.990059, 113, 1, 176, 375
-0.990071, 329, 233, 392, 264
-0.990075, 273, 149, 336, 180
-0.990082, 1, 249, 500, 312
-0.990088, 273, 181, 336, 212
-0.990113, 437, 241, 468, 368
-0.990119, 225, 197, 288, 228
-0.990167, 345, 185, 408, 216
-0.990209, 401, 257, 464, 288
-0.990218, 49, 113, 176, 240
-0.990234, 1, 265, 256, 328
-0.990236, 169, 185, 232, 216
-0.990256, 153, 217, 184, 280
-0.990271, 297, 121, 360, 184
-0.990272, 65, 1, 128, 375
-0.990414, 9, 217, 72, 248
-0.99042, 89, 193, 152, 224
-0.990433, 421, 281, 452, 344
-0.990448, 233, 161, 296, 192
-0.990466, 65, 261, 128, 292
-0.990482, 241, 225, 368, 288
-0.990533, 201, 241, 232, 304
-0.990542, 161, 177, 416, 240
-0.990602, 17, 265, 80, 296
-0.990627, 245, 241, 276, 304
-0.990664, 313, 201, 376, 232
-0.990681, 65, 217, 128, 248
-0.990686, 161, 197, 224, 228
-0.990715, 121, 189, 184, 220
-0.990715, 41, 169, 104, 232
-0.990731, 113, 217, 176, 248
-0.990732, 1, 209, 500, 272
-0.990766, 225, 241, 256, 304
-0.990766, 153, 1, 216, 375
-0.99077, 41, 265, 104, 296
-0.990774, 433, 273, 464, 336
-0.990785, 141, 129, 172, 256
-0.990802, 53, 145, 84, 272
-0.990807, 137, 269, 200, 300
-0.990808, 121, 229, 184, 260
-0.990839, 305, 265, 368, 296
-0.990842, 285, 241, 316, 304
-0.990856, 305, 129, 432, 192
-0.990919, 425, 189, 488, 220
-0.99095, 113, 281, 176, 312
-0.990959, 89, 285, 152, 316
-0.990972, 249, 181, 312, 212
-0.990998, 257, 241, 288, 304
-0.991, 433, 253, 496, 284
-0.991007, 49, 233, 112, 264
-0.991041, 321, 189, 384, 220
-0.991058, 297, 177, 360, 208
-0.99113, 417, 241, 480, 272
-0.991136, 269, 241, 300, 304
-0.991148, 177, 269, 240, 300
-0.991185, 417, 269, 480, 300
-0.991209, 377, 185, 440, 216
-0.991219, 113, 289, 176, 352
-0.991237, 217, 265, 280, 296
-0.991242, 417, 1, 480, 375
-0.991243, 1, 129, 64, 375
-0.991248, 241, 265, 304, 296
-0.991285, 321, 153, 384, 184
-0.991323, 417, 217, 448, 280
-0.991355, 97, 257, 352, 320
-0.991363, 273, 265, 336, 296
-0.99137, 329, 221, 392, 252
-0.991374, 185, 173, 248, 204
-0.991387, 377, 217, 440, 248
-0.991405, 281, 1, 344, 375
-0.991406, 177, 1, 240, 375
-0.99143, 145, 253, 208, 284
-0.99144, 377, 281, 440, 312
-0.991455, 217, 193, 248, 256
-0.991538, 213, 241, 244, 304
-0.991609, 89, 205, 152, 236
-0.991646, 305, 245, 368, 276
-0.99165, 357, 113, 388, 240
-0.991657, 41, 249, 104, 280
-0.991688, 137, 285, 200, 316
-0.991701, 333, 225, 364, 288
-0.991706, 209, 177, 240, 208
-0.991718, 129, 205, 192, 236
-0.991726, 57, 289, 120, 352
-0.991735, 105, 269, 136, 300
-0.991738, 241, 285, 304, 316
-0.991751, 41, 197, 104, 228
-0.991751, 337, 245, 464, 276
-0.991782, 161, 285, 224, 316
-0.991795, 105, 233, 136, 264
-0.991796, 289, 285, 352, 316
-0.991798, 373, 265, 404, 296
-0.991803, 313, 285, 376, 316
-0.991806, 265, 285, 328, 316
-0.991814, 217, 285, 280, 316
-0.991817, 137, 217, 200, 248
-0.991827, 185, 285, 248, 316
-0.991831, 9, 229, 72, 260
-0.991848, 137, 241, 200, 272
-0.991853, 65, 285, 128, 316
-0.991854, 409, 281, 472, 312
-0.991876, 241, 1, 304, 375
-0.99191, 105, 257, 136, 288
-0.99192, 1, 1, 500, 128
-0.991934, 393, 241, 424, 272
-0.991934, 93, 237, 124, 268
-0.991951, 145, 185, 208, 216
-0.991951, 153, 145, 184, 272
-0.991954, 17, 285, 80, 316
-0.99198, 273, 137, 336, 168
-0.99199, 89, 1, 152, 375
-0.991996, 389, 169, 420, 200
-0.992027, 129, 209, 384, 272
-0.992036, 117, 273, 148, 304
-0.992057, 353, 157, 416, 188
-0.992062, 377, 161, 440, 192
-0.992066, 117, 253, 148, 284
-0.992066, 89, 253, 120, 284
-0.992073, 361, 253, 392, 284
-0.992078, 409, 165, 472, 196
-0.992091, 373, 253, 404, 284
-0.992103, 217, 1, 280, 375
-0.992103, 373, 233, 404, 264
-0.99211, 45, 241, 76, 304
-0.992122, 385, 253, 416, 284
-0.992136, 73, 245, 104, 276
-0.992158, 41, 285, 104, 316
-0.992168, 93, 265, 124, 296
-0.992175, 265, 205, 328, 236
-0.992176, 357, 241, 388, 272
-0.992179, 385, 269, 416, 300
-0.992196, 117, 241, 148, 272
-0.992202, 341, 249, 372, 280
-0.992211, 405, 245, 436, 276
-0.992223, 369, 165, 400, 196
-0.992224, 353, 265, 480, 296
-0.992231, 17, 253, 80, 284
-0.992247, 125, 225, 156, 256
-0.992251, 225, 149, 288, 180
-0.992269, 357, 269, 388, 300
-0.992274, 385, 229, 416, 260
-0.992286, 41, 221, 104, 252
-0.99229, 413, 177, 444, 208
-0.992324, 405, 233, 436, 264
-0.992327, 113, 217, 144, 248
-0.992341, 161, 201, 288, 264
-0.992341, 305, 165, 368, 196
-0.99235, 433, 281, 496, 312
-0.992354, 425, 201, 488, 232
-0.992355, 393, 217, 424, 248
-0.992361, 337, 201, 400, 232
-0.992361, 197, 185, 228, 216
-0.992365, 105, 245, 136, 276
-0.992369, 229, 169, 260, 200
-0.992371, 445, 177, 476, 208
-0.992374, 241, 153, 368, 184
-0.992376, 305, 229, 368, 260
-0.992384, 85, 217, 116, 248
-0.992418, 321, 177, 384, 208
-0.992427, 81, 197, 112, 228
-0.992438, 89, 277, 120, 308
-0.992438, 357, 217, 388, 248
-0.992439, 345, 237, 376, 268
-0.992454, 397, 257, 428, 288
-0.992459, 325, 153, 356, 184
-0.992464, 17, 205, 80, 236
-0.992469, 1, 217, 256, 280
-0.992477, 69, 201, 100, 232
-0.992486, 209, 161, 272, 192
-0.992487, 97, 81, 352, 208
-0.992487, 285, 193, 316, 224
-0.992495, 289, 201, 352, 232
-0.992496, 153, 217, 216, 280
-0.992497, 229, 185, 260, 216
-0.9925, 129, 217, 144, 280
-0.992504, 453, 253, 484, 284
-0.992507, 361, 229, 392, 260
-0.992511, 25, 1, 88, 375
-0.992527, 377, 213, 408, 244
-0.992531, 361, 217, 376, 280
-0.992533, 77, 233, 108, 264
-0.992538, 373, 233, 388, 296
-0.992538, 257, 161, 320, 192
-0.99254, 309, 193, 340, 224
-0.992541, 401, 177, 432, 208
-0.992554, 433, 177, 464, 208
-0.992562, 397, 269, 428, 300
-0.992574, 367, 209, 382, 272
-0.992574, 325, 185, 356, 216
-0.992582, 253, 149, 284, 180
-0.992584, 129, 237, 160, 268
-0.992594, 133, 249, 164, 280
-0.992595, 107, 193, 122, 256
-0.992606, 265, 149, 296, 180
-0.992609, 345, 225, 376, 256
-0.992612, 273, 193, 304, 224
-0.992614, 29, 217, 60, 248
-0.992617, 89, 161, 152, 224
-0.992618, 213, 193, 244, 224
-0.992628, 101, 217, 132, 248
-0.992629, 313, 149, 344, 180
-0.992629, 161, 173, 224, 204
-0.992638, 321, 141, 384, 172
-0.992643, 185, 193, 216, 224
-0.992645, 81, 265, 112, 296
-0.992646, 357, 161, 388, 192
-0.992649, 341, 157, 372, 188
-0.992649, 229, 197, 260, 228
-0.992657, 385, 197, 448, 228
-0.992659, 119, 233, 134, 296
-0.992664, 213, 113, 244, 240
-0.992664, 401, 225, 464, 256
-0.992665, 129, 241, 144, 304
-0.992683, 241, 165, 272, 196
-0.992693, 49, 205, 80, 236
-0.992701, 113, 289, 240, 352
-0.992707, 241, 197, 272, 228
-0.99271, 321, 121, 384, 184
-0.992718, 305, 181, 336, 212
-0.992722, 141, 233, 172, 264
-0.992725, 367, 249, 382, 312
-0.99274, 137, 289, 200, 352
-0.992749, 397, 241, 412, 304
-0.992753, 241, 153, 272, 184
-0.992755, 377, 177, 408, 208
-0.992756, 257, 225, 500, 288
-0.992765, 353, 177, 480, 208
-0.992768, 369, 277, 400, 308
-0.992771, 425, 229, 488, 260
-0.99278, 13, 225, 44, 256
-0.992786, 33, 289, 96, 352
-0.992789, 321, 233, 448, 264
-0.992793, 133, 265, 164, 296
-0.992793, 269, 181, 300, 212
-0.992794, 253, 197, 284, 228
-0.992795, 445, 265, 476, 296
-0.9928, 93, 193, 108, 256
-0.992801, 113, 209, 128, 272
-0.992805, 433, 213, 496, 244
-0.992808, 281, 233, 344, 296
-0.992808, 101, 285, 132, 316
-0.992811, 101, 197, 132, 228
-0.992823, 297, 193, 328, 224
-0.992839, 273, 253, 336, 284
-0.992849, 1, 265, 128, 296
-0.992862, 293, 181, 324, 212
-0.992865, 253, 185, 284, 216
-0.992868, 97, 181, 160, 212
-0.992874, 21, 265, 52, 296
-0.992875, 137, 213, 168, 244
-0.992881, 277, 149, 308, 180
-0.992882, 103, 241, 118, 304
-0.992888, 241, 185, 272, 216
-0.99289, 153, 269, 184, 300
-0.992892, 301, 149, 332, 180
-0.992894, 217, 165, 248, 196
-0.992894, 157, 237, 188, 268
-0.992897, 1, 253, 128, 284
-0.992903, 389, 113, 420, 240
-0.992905, 83, 193, 98, 256
-0.992907, 361, 201, 424, 232
-0.992908, 201, 197, 232, 228
-0.992909, 117, 193, 148, 224
-0.99291, 91, 217, 106, 280
-0.992916, 169, 269, 200, 300
-0.992922, 297, 141, 360, 172
-0.992923, 153, 249, 184, 280
-0.992923, 437, 253, 468, 284
-0.992957, 181, 269, 212, 300
-0.992966, 169, 253, 232, 284
-0.992967, 173, 197, 204, 228
-0.992968, 389, 241, 404, 304
-0.992972, 33, 265, 64, 296
-0.992977, 289, 149, 320, 180
-0.992979, 149, 189, 180, 220
-0.992983, 321, 265, 352, 296
-0.992987, 249, 137, 312, 168
-0.992988, 453, 189, 484, 220
-0.992992, 69, 257, 100, 288
-0.993016, 193, 269, 224, 300
-0.993017, 389, 181, 420, 212
-0.99302, 309, 265, 340, 296
-0.993023, 9, 265, 40, 296
-0.993025, 297, 217, 360, 248
-0.993029, 341, 261, 372, 292
-0.99303, 281, 265, 312, 296
-0.993032, 133, 189, 164, 220
-0.993034, 281, 181, 312, 212
-0.99304, 205, 269, 236, 300
-0.993045, 381, 281, 412, 312
-0.993052, 453, 241, 484, 272
-0.993059, 297, 265, 328, 296
-0.993064, 253, 265, 284, 296
-0.993073, 217, 269, 248, 300
-0.993075, 269, 265, 300, 296
-0.993076, 125, 213, 156, 244
-0.99308, 401, 165, 432, 196
-0.993091, 345, 185, 376, 216
-0.993097, 237, 97, 268, 224
-0.993111, 465, 249, 496, 280
-0.993114, 241, 265, 272, 296
-0.993116, 113, 285, 144, 316
-0.993117, 161, 193, 192, 224
-0.993122, 229, 265, 260, 296
-0.993165, 379, 225, 394, 288
-0.993179, 329, 289, 392, 352
-0.993181, 395, 209, 410, 272
-0.993255, 91, 241, 106, 304
-0.993293, 169, 289, 232, 352
-0.993293, 193, 289, 256, 352
-0.993293, 217, 289, 280, 352
-0.993319, 193, 185, 320, 216
-0.993373, 145, 181, 272, 212
-0.993375, 403, 241, 418, 304
-0.993425, 409, 113, 472, 240
-0.993431, 1, 169, 128, 232
-0.993461, 113, 185, 128, 248
-0.993491, 65, 253, 192, 284
-0.993511, 405, 217, 420, 280
-0.993575, 65, 193, 192, 224
-0.993593, 241, 289, 304, 352
-0.993609, 109, 233, 124, 296
-0.993615, 97, 249, 112, 312
-0.993655, 373, 209, 388, 272
-0.993655, 101, 193, 116, 256
-0.993686, 385, 289, 448, 352
-0.993716, 135, 249, 150, 312
-0.993733, 81, 269, 208, 300
-0.993797, 289, 265, 416, 296
-0.993802, 119, 209, 134, 272
-0.993825, 361, 241, 376, 304
-0.993862, 49, 233, 176, 264
-0.993949, 81, 217, 96, 280
-0.993984, 257, 201, 500, 264
-0.993987, 173, 129, 204, 256
-0.994007, 101, 217, 116, 280
-0.994049, 49, 221, 176, 252
-0.994083, 249, 153, 264, 216
-0.994084, 1, 209, 128, 240
-0.994111, 409, 241, 424, 304
-0.99414, 321, 221, 448, 252
-0.994156, 381, 201, 396, 264
-0.994161, 129, 233, 384, 296
-0.99418, 1, 225, 128, 256
-0.994195, 389, 209, 404, 272
-0.994259, 209, 201, 336, 264
-0.994327, 391, 265, 406, 328
-0.994332, 273, 193, 400, 224
-0.994342, 141, 225, 156, 288
-0.994354, 193, 197, 320, 228
-0.994424, 121, 257, 136, 320
-0.994444, 289, 245, 416, 276
-0.994466, 227, 169, 242, 232
-0.99447, 355, 249, 370, 312
-0.994472, 193, 173, 320, 204
-0.994509, 289, 165, 416, 196
-0.994512, 85, 249, 100, 312
-0.994536, 125, 185, 140, 248
-0.994537, 395, 169, 410, 232
-0.99455, 353, 289, 480, 352
-0.994588, 145, 193, 272, 224
-0.994589, 111, 257, 126, 320
-0.994592, 185, 129, 216, 256
-0.994593, 381, 161, 396, 224
-0.994599, 127, 265, 142, 328
-0.994614, 77, 193, 92, 256
-0.994623, 135, 217, 150, 280
-0.994635, 257, 273, 500, 336
-0.994636, 369, 233, 496, 264
-0.994642, 97, 153, 352, 216
-0.994669, 305, 289, 432, 352
-0.994673, 335, 257, 350, 320
-0.994697, 379, 249, 394, 312
-0.994708, 161, 281, 416, 344
-0.99471, 369, 189, 496, 220
-0.994754, 425, 249, 440, 312
-0.994774, 255, 153, 270, 216
-0.994789, 221, 169, 236, 232
-0.994789, 135, 185, 150, 248
-0.994851, 113, 253, 240, 284
-0.994853, 65, 289, 192, 352
-0.994858, 215, 169, 230, 232
-0.994864, 355, 217, 370, 280
-0.994893, 177, 121, 304, 184
-0.994893, 233, 169, 248, 232
-0.994911, 33, 277, 160, 308
-0.994913, 119, 185, 134, 248
-0.994914, 159, 241, 174, 304
-0.994929, 21, 217, 36, 280
-0.99493, 305, 277, 432, 308
-0.994933, 157, 265, 172, 328
-0.994943, 377, 129, 408, 375
-0.994949, 329, 257, 344, 320
-0.994958, 265, 201, 328, 264
-0.99497, 349, 217, 364, 280
-0.994972, 241, 177, 368, 208
-0.994978, 449, 249, 464, 312
-0.994983, 373, 257, 388, 320
-0.995, 415, 225, 430, 288
-0.995021, 89, 289, 152, 352
-0.995028, 49, 205, 176, 236
-0.995046, 323, 257, 338, 320
-0.995067, 243, 153, 258, 216
-0.99507, 1, 237, 128, 268
-0.995083, 437, 249, 452, 312
-0.995122, 399, 265, 414, 328
-0.995124, 315, 257, 330, 320
-0.995145, 165, 265, 180, 328
-0.995151, 455, 249, 470, 312
-0.99517, 401, 169, 416, 232
-0.995172, 175, 265, 190, 328
-0.995177, 305, 181, 432, 212
-0.995193, 203, 177, 218, 240
-0.995206, 181, 265, 196, 328
-0.995209, 307, 257, 322, 320
-0.995215, 67, 257, 82, 320
-0.995243, 129, 269, 256, 300
-0.995261, 329, 33, 392, 288
-0.99529, 461, 249, 476, 312
-0.995296, 387, 169, 402, 232
-0.9953, 299, 257, 314, 320
-0.995306, 187, 265, 202, 328
-0.995318, 443, 249, 458, 312
-0.995333, 401, 113, 432, 240
-0.995337, 175, 241, 190, 304
-0.995339, 373, 185, 388, 248
-0.995342, 201, 113, 232, 240
-0.995354, 219, 265, 234, 328
-0.995354, 225, 265, 240, 328
-0.995358, 147, 241, 162, 304
-0.99536, 329, 145, 344, 208
-0.99536, 247, 265, 262, 328
-0.99536, 277, 265, 292, 328
-0.995373, 253, 265, 268, 328
-0.995393, 27, 217, 42, 280
-0.9954, 259, 265, 274, 328
-0.9954, 265, 265, 280, 328
-0.9954, 271, 265, 286, 328
-0.995403, 241, 265, 368, 296
-0.995406, 199, 265, 214, 328
-0.995406, 205, 265, 220, 328
-0.995406, 231, 265, 246, 328
-0.995412, 283, 265, 298, 328
-0.995416, 467, 249, 482, 312
-0.995424, 241, 265, 256, 328
-0.99543, 349, 129, 380, 375
-0.99543, 365, 129, 396, 375
-0.99544, 193, 265, 208, 328
-0.99544, 213, 265, 228, 328
-0.99544, 375, 161, 390, 224
-0.995442, 293, 257, 308, 320
-0.995462, 361, 265, 376, 328
-0.995501, 61, 265, 76, 328
-0.995508, 319, 161, 334, 224
-0.995517, 431, 257, 446, 320
-0.995543, 167, 241, 182, 304
-0.995581, 91, 265, 106, 328
-0.995591, 77, 241, 92, 304
-0.995604, 405, 265, 420, 328
-0.995613, 55, 265, 70, 328
-0.995628, 277, 153, 292, 216
-0.995639, 295, 153, 310, 216
-0.99564, 463, 177, 478, 240
-0.995645, 419, 249, 434, 312
-0.995653, 49, 265, 64, 328
-0.995655, 71, 201, 86, 264
-0.995661, 353, 153, 368, 216
-0.995663, 433, 113, 496, 240
-0.99574, 329, 129, 360, 375
-0.995756, 97, 213, 224, 244
-0.995761, 261, 153, 276, 216
-0.995771, 43, 265, 58, 328
-0.995793, 307, 153, 322, 216
-0.995813, 341, 241, 356, 304
-0.995825, 477, 209, 492, 272
-0.995827, 367, 185, 382, 248
-0.995837, 289, 153, 304, 216
-0.995855, 325, 185, 340, 248
-0.995865, 1, 1, 64, 375
-0.995876, 97, 241, 224, 272
-0.995924, 129, 137, 256, 200
-0.995938, 369, 221, 496, 252
-0.995945, 1, 281, 500, 344
-0.996007, 257, 205, 384, 236
-0.99605, 97, 285, 224, 316
-0.99606, 389, 129, 420, 375
-0.996061, 177, 265, 304, 296
-0.996112, 369, 277, 496, 308
-0.996114, 1, 153, 500, 216
-0.996237, 77, 129, 108, 375
-0.996268, 289, 153, 416, 184
-0.996309, 399, 249, 414, 280
-0.996363, 425, 129, 456, 375
-0.996367, 193, 161, 320, 192
-0.996383, 201, 201, 264, 264
-0.996409, 93, 253, 108, 284
-0.996409, 337, 97, 368, 224
-0.996414, 363, 249, 378, 280
-0.996458, 17, 145, 48, 272
-0.996468, 129, 241, 144, 272
-0.996477, 445, 113, 476, 240
-0.996491, 125, 253, 140, 284
-0.996501, 337, 165, 464, 196
-0.996518, 273, 225, 400, 256
-0.996524, 97, 129, 128, 375
-0.996525, 33, 145, 64, 272
-0.996546, 225, 129, 256, 375
-0.996556, 153, 129, 184, 375
-0.996561, 129, 129, 160, 375
-0.99661, 393, 269, 408, 300
-0.996615, 399, 237, 414, 268
-0.996622, 101, 237, 116, 268
-0.996647, 91, 241, 106, 272
-0.996649, 305, 129, 336, 375
-0.996657, 99, 273, 114, 304
-0.996663, 393, 229, 408, 260
-0.996684, 113, 129, 144, 375
-0.996704, 373, 265, 388, 296
-0.996707, 119, 241, 134, 272
-0.996709, 401, 129, 432, 375
-0.996713, 367, 233, 382, 264
-0.996728, 353, 289, 416, 352
-0.99673, 399, 265, 414, 296
-0.996734, 111, 229, 126, 260
-0.996736, 177, 209, 240, 272
-0.996737, 121, 269, 136, 300
-0.996745, 115, 273, 130, 304
-0.99676, 393, 253, 408, 284
-0.996764, 413, 129, 444, 375
-0.99677, 105, 269, 120, 300
-0.996787, 317, 129, 348, 375
-0.996792, 177, 285, 304, 316
-0.996799, 469, 145, 500, 272
-0.996823, 125, 229, 140, 260
-0.996833, 257, 285, 384, 316
-0.996842, 387, 169, 402, 200
-0.996846, 369, 201, 496, 232
-0.996852, 379, 265, 394, 296
-0.996853, 387, 269, 402, 300
-0.996901, 127, 269, 142, 300
-0.996902, 103, 253, 118, 284
-0.996929, 215, 177, 230, 208
-0.996933, 241, 253, 368, 284
-0.996957, 445, 129, 476, 375
-0.996969, 115, 257, 130, 288
-0.996986, 365, 265, 380, 296
-0.996987, 93, 273, 108, 304
-0.997003, 17, 289, 144, 320
-0.997005, 395, 169, 410, 200
-0.997008, 119, 217, 134, 248
-0.997013, 237, 129, 268, 375
-0.997037, 433, 113, 464, 240
-0.997043, 387, 233, 402, 264
-0.997047, 97, 181, 224, 212
-0.997062, 393, 241, 408, 272
-0.997082, 223, 173, 238, 204
-0.99709, 361, 237, 376, 268
-0.997138, 373, 233, 388, 264
-0.997168, 359, 265, 374, 296
-0.99717, 103, 217, 118, 248
-0.997202, 461, 177, 476, 208
-0.99722, 97, 225, 224, 256
-0.997224, 239, 165, 254, 196
-0.997232, 131, 253, 146, 284
-0.997235, 401, 169, 416, 200
-0.997249, 375, 165, 390, 196
-0.997266, 199, 185, 214, 216
-0.997271, 379, 229, 394, 260
-0.997275, 141, 129, 172, 375
-0.997283, 135, 221, 150, 252
-0.997319, 369, 253, 384, 284
-0.99732, 309, 81, 340, 208
-0.99732, 205, 181, 220, 212
-0.997328, 365, 217, 380, 248
-0.997328, 145, 169, 272, 200
-0.997338, 375, 253, 390, 284
-0.997343, 405, 237, 420, 268
-0.997348, 293, 129, 324, 375
-0.997351, 229, 169, 244, 200
-0.997354, 433, 145, 496, 208
-0.997357, 425, 177, 440, 208
-0.99736, 373, 213, 388, 244
-0.997384, 353, 129, 480, 192
-0.997386, 213, 129, 244, 375
-0.99739, 381, 165, 396, 196
-0.99741, 325, 149, 340, 180
-0.997411, 155, 233, 170, 264
-0.997412, 289, 193, 304, 224
-0.997419, 253, 129, 284, 375
-0.997423, 95, 217, 110, 248
-0.997442, 129, 217, 144, 248
-0.997443, 1, 197, 128, 228
-0.997458, 455, 253, 470, 284
-0.997462, 119, 229, 134, 260
-0.997464, 321, 209, 448, 240
-0.997475, 113, 217, 128, 248
-0.997476, 235, 177, 250, 208
-0.997481, 133, 269, 148, 300
-0.997487, 369, 277, 384, 308
-0.997491, 351, 225, 366, 256
-0.997493, 87, 197, 102, 228
-0.997498, 431, 177, 446, 208
-0.997498, 267, 149, 282, 180
-0.997498, 419, 177, 434, 208
-0.997498, 95, 229, 110, 260
-0.997503, 109, 257, 124, 288
-0.997505, 265, 129, 296, 375
-0.997509, 417, 113, 448, 240
-0.997513, 181, 129, 212, 375
-0.997514, 409, 173, 424, 204
-0.997514, 65, 129, 96, 375
-0.997518, 357, 249, 372, 280
-0.997518, 403, 221, 418, 252
-0.997522, 357, 221, 372, 252
-0.997525, 81, 229, 96, 260
-0.997528, 385, 257, 400, 288
-0.997536, 387, 213, 402, 244
-0.997537, 321, 193, 448, 224
-0.997538, 409, 225, 424, 256
-0.997538, 33, 217, 48, 248
-0.997542, 331, 149, 346, 180
-0.997546, 397, 217, 412, 248
-0.997556, 295, 193, 310, 224
-0.997557, 87, 221, 102, 252
-0.997559, 405, 265, 420, 296
-0.997562, 87, 253, 102, 284
-0.997566, 277, 129, 308, 375
-0.997568, 93, 197, 108, 228
-0.997573, 251, 153, 266, 184
-0.997579, 257, 141, 384, 172
-0.99758, 193, 189, 208, 220
-0.997581, 165, 129, 196, 375
-0.997586, 233, 209, 296, 272
-0.997589, 245, 161, 260, 192
-0.997592, 467, 253, 482, 284
-0.997596, 161, 209, 288, 240
-0.997597, 141, 229, 156, 260
-0.997618, 443, 177, 458, 208
-0.997627, 81, 113, 144, 240
-0.997628, 319, 189, 334, 220
-0.997632, 283, 193, 298, 224
-0.997646, 325, 185, 340, 216
-0.997656, 87, 265, 102, 296
-0.997669, 455, 177, 470, 208
-0.997672, 319, 149, 334, 180
-0.997685, 1, 289, 256, 352
-0.99769, 227, 185, 242, 216
-0.997692, 113, 241, 128, 272
-0.997694, 233, 197, 248, 228
-0.997696, 405, 253, 420, 284
-0.997699, 99, 197, 114, 228
-0.997705, 261, 149, 276, 180
-0.997726, 225, 97, 256, 224
-0.997751, 387, 245, 402, 276
-0.997755, 171, 237, 186, 268
-0.997759, 461, 257, 476, 288
-0.997759, 313, 189, 328, 220
-0.997761, 273, 149, 288, 180
-0.997761, 63, 205, 78, 236
-0.997774, 287, 181, 302, 212
-0.997777, 301, 193, 316, 224
-0.997777, 193, 129, 224, 375
-0.997781, 415, 233, 430, 264
-0.997786, 251, 197, 266, 228
-0.997786, 19, 265, 34, 296
-0.99779, 81, 197, 96, 228
-0.99779, 161, 249, 288, 280
-0.997791, 27, 217, 42, 248
-0.997801, 105, 281, 120, 312
-0.997802, 437, 177, 452, 208
-0.997804, 45, 213, 60, 244
-0.997834, 245, 197, 260, 228
-0.997852, 381, 245, 396, 276
-0.997856, 261, 197, 276, 228
-0.997863, 121, 281, 136, 312
-0.997864, 457, 129, 488, 375
-0.997865, 293, 181, 308, 212
-0.997869, 187, 193, 202, 224
-0.997879, 193, 149, 320, 180
-0.997951, 377, 33, 440, 288
-0.998061, 305, 33, 368, 288
-0.998246, 193, 129, 448, 192
-0.998281, 305, 141, 432, 172
-0.998313, 241, 165, 368, 196
-0.998318, 375, 161, 390, 288
-0.998326, 89, 269, 152, 284
-0.998334, 119, 209, 134, 336
-0.998335, 93, 209, 108, 336
-0.998344, 103, 209, 118, 336
-0.998344, 353, 261, 416, 276
-0.998359, 185, 189, 248, 204
-0.998362, 353, 243, 416, 258
-0.998367, 89, 243, 152, 258
-0.998369, 353, 267, 416, 282
-0.998379, 371, 209, 386, 336
-0.998386, 381, 145, 396, 272
-0.998386, 383, 209, 398, 336
-0.998388, 125, 209, 140, 336
-0.998394, 73, 231, 136, 246
-0.998398, 353, 149, 480, 180
-0.998409, 97, 231, 160, 246
-0.99841, 135, 193, 150, 320
-0.998414, 377, 209, 392, 336
-0.998414, 89, 261, 152, 276
-0.998416, 1, 153, 256, 216
-0.998418, 289, 153, 352, 168
-0.998419, 113, 263, 176, 278
-0.998424, 391, 209, 406, 336
-0.998426, 97, 97, 224, 224
-0.99843, 53, 129, 84, 375
-0.998432, 385, 177, 448, 192
-0.998435, 281, 195, 344, 210
-0.998437, 49, 193, 64, 320
-0.998439, 49, 211, 112, 226
-0.998441, 329, 259, 392, 274
-0.998443, 353, 217, 416, 232
-0.998444, 345, 227, 408, 242
-0.998448, 437, 257, 468, 272
-0.998449, 73, 249, 136, 264
-0.998449, 141, 241, 172, 256
-0.99845, 113, 249, 176, 264
-0.99845, 353, 159, 384, 174
-0.99845, 13, 229, 44, 244
-0.998451, 265, 151, 328, 166
-0.998451, 365, 187, 396, 202
-0.998452, 417, 181, 480, 196
-0.998452, 193, 185, 224, 200
-0.998454, 257, 197, 288, 212
-0.998456, 161, 193, 192, 208
-0.998456, 353, 237, 416, 252
-0.998457, 77, 227, 108, 242
-0.998457, 361, 209, 376, 336
-0.998459, 177, 193, 208, 208
-0.998461, 89, 217, 152, 232
-0.998462, 77, 193, 92, 320
-0.998462, 399, 209, 414, 336
-0.998463, 121, 191, 184, 206
-0.998466, 101, 217, 132, 232
-0.998467, 425, 259, 456, 274
-0.998467, 329, 249, 392, 264
-0.998468, 449, 255, 480, 270
-0.998468, 369, 231, 432, 246
-0.998468, 161, 191, 224, 206
-0.99847, 129, 213, 160, 228
-0.99847, 389, 217, 420, 232
-0.998471, 349, 165, 380, 180
-0.998471, 217, 173, 248, 188
-0.998471, 325, 187, 356, 202
-0.998472, 329, 239, 392, 254
-0.998472, 365, 215, 396, 230
-0.998472, 69, 263, 100, 278
-0.998475, 229, 165, 260, 180
-0.998476, 65, 259, 128, 274
-0.998476, 53, 213, 84, 228
-0.998476, 241, 159, 304, 174
-0.998477, 377, 249, 440, 264
-0.998478, 365, 279, 396, 294
-0.998479, 377, 183, 408, 198
-0.99848, 73, 197, 136, 212
-0.99848, 269, 197, 300, 212
-0.99848, 361, 173, 424, 188
-0.998481, 401, 259, 464, 274
-0.998482, 329, 265, 392, 280
-0.998482, 185, 195, 248, 210
-0.998483, 89, 279, 152, 294
-0.998483, 85, 257, 116, 272
-0.998483, 397, 161, 412, 288
-0.998484, 293, 149, 324, 164
-0.998485, 41, 193, 56, 320
-0.998486, 41, 217, 104, 232
-0.998487, 433, 179, 464, 194
-0.998488, 65, 241, 128, 256
-0.998488, 241, 153, 304, 168
-0.998489, 309, 205, 340, 220
-0.998489, 113, 243, 176, 258
-0.99849, 387, 161, 402, 288
-0.998492, 369, 171, 400, 186
-0.998492, 41, 213, 72, 228
-0.998495, 353, 269, 384, 284
-0.998496, 229, 199, 260, 214
-0.998497, 329, 165, 392, 180
-0.998497, 313, 191, 376, 206
-0.998497, 77, 233, 108, 248
-0.998498, 201, 191, 232, 206
-0.9985, 121, 227, 152, 242
-0.998502, 305, 159, 368, 174
-0.998502, 377, 183, 440, 198
-0.998503, 397, 223, 428, 238
-0.998503, 193, 183, 256, 198
-0.998503, 229, 191, 260, 206
-0.998505, 353, 279, 416, 294
-0.998506, 65, 203, 96, 218
-0.998506, 113, 269, 176, 284
-0.998507, 225, 165, 288, 180
-0.998508, 369, 225, 432, 240
-0.998509, 73, 253, 104, 268
-0.99851, 81, 267, 112, 282
-0.99851, 373, 165, 404, 180
-0.99851, 257, 197, 320, 212
-0.998511, 93, 275, 124, 290
-0.998512, 389, 181, 420, 196
-0.998512, 89, 237, 152, 252
-0.998512, 141, 193, 156, 320
-0.998514, 349, 227, 380, 242
-0.998514, 89, 221, 120, 236
-0.998515, 305, 151, 336, 166
-0.998516, 377, 237, 440, 252
-0.998516, 361, 257, 392, 272
-0.998517, 97, 251, 128, 266
-0.998517, 353, 255, 416, 270
-0.998518, 217, 191, 280, 206
-0.99852, 65, 265, 128, 280
-0.998521, 353, 185, 416, 200
-0.998522, 109, 255, 140, 270
-0.998523, 389, 271, 420, 286
-0.998524, 349, 233, 380, 248
-0.998525, 29, 219, 60, 234
-0.998526, 113, 237, 176, 252
-0.998527, 273, 151, 304, 166
-0.998528, 297, 195, 328, 210
-0.998528, 117, 193, 148, 208
-0.99853, 133, 263, 164, 278
-0.998531, 97, 281, 128, 296
-0.998531, 53, 207, 84, 222
-0.998532, 105, 255, 168, 270
-0.998532, 125, 233, 156, 248
-0.998532, 297, 203, 360, 218
-0.998533, 357, 221, 388, 236
-0.998534, 65, 273, 128, 288
-0.998535, 113, 209, 128, 336
-0.998538, 425, 189, 488, 204
-0.998541, 117, 219, 148, 234
-0.998542, 409, 253, 440, 268
-0.998542, 261, 153, 292, 168
-0.998542, 97, 193, 160, 208
-0.998543, 401, 233, 432, 248
-0.998543, 87, 193, 102, 320
-0.998543, 377, 267, 440, 282
-0.998543, 129, 215, 192, 230
-0.998544, 109, 281, 140, 296
-0.998544, 17, 219, 80, 234
-0.998548, 217, 199, 280, 214
-0.99855, 417, 253, 480, 268
-0.998551, 369, 273, 432, 288
-0.998551, 77, 239, 108, 254
-0.998551, 317, 193, 348, 208
-0.998552, 241, 165, 272, 180
-0.998552, 81, 199, 112, 214
-0.998553, 401, 267, 464, 282
-0.998555, 377, 243, 440, 258
-0.998556, 397, 257, 428, 272
-0.998556, 81, 223, 144, 238
-0.998557, 57, 205, 120, 220
-0.998557, 161, 197, 224, 212
-0.998558, 377, 277, 408, 292
-0.99856, 133, 247, 164, 262
-0.998561, 313, 153, 376, 168
-0.998564, 413, 177, 444, 192
-0.998564, 201, 177, 264, 192
-0.998566, 329, 233, 392, 248
-0.998566, 229, 171, 260, 186
-0.998567, 117, 273, 148, 288
-0.998567, 329, 159, 392, 174
-0.998568, 93, 269, 124, 284
-0.998569, 121, 251, 152, 266
-0.99857, 353, 249, 416, 264
-0.99857, 389, 265, 420, 280
-0.998571, 55, 193, 70, 320
-0.998571, 373, 241, 404, 256
-0.998574, 41, 267, 104, 282
-0.998574, 113, 261, 144, 276
-0.998574, 213, 193, 244, 208
-0.998575, 101, 195, 132, 210
-0.998575, 385, 237, 416, 252
-0.998577, 205, 185, 236, 200
-0.998578, 265, 157, 328, 172
-0.998578, 73, 245, 104, 260
-0.998579, 313, 185, 376, 200
-0.99858, 217, 171, 280, 186
-0.998583, 361, 165, 392, 180
-0.998585, 377, 247, 408, 262
-0.998585, 329, 157, 360, 172
-0.998585, 361, 229, 392, 244
-0.998585, 305, 265, 368, 280
-0.998586, 85, 249, 116, 264
-0.998587, 345, 259, 376, 274
-0.998587, 449, 181, 480, 196
-0.998589, 361, 167, 424, 182
-0.998589, 377, 261, 440, 276
-0.998592, 249, 155, 280, 170
-0.998592, 353, 251, 384, 266
-0.998595, 9, 213, 72, 228
-0.998596, 273, 189, 336, 204
-0.998597, 341, 159, 372, 174
-0.998597, 361, 263, 392, 278
-0.998598, 97, 257, 128, 272
-0.998599, 101, 243, 132, 258
-0.998599, 257, 207, 320, 222
-0.998599, 65, 193, 80, 320
-0.9986, 113, 225, 176, 240
-0.998601, 377, 255, 440, 270
-0.998601, 17, 267, 80, 282
-0.998601, 49, 235, 112, 250
-0.998602, 9, 227, 72, 242
-0.998604, 369, 161, 384, 288
-0.998605, 89, 239, 120, 254
-0.998605, 385, 259, 416, 274
-0.998605, 113, 275, 176, 290
-0.998606, 345, 273, 408, 288
-0.998607, 213, 179, 244, 194
-0.998608, 35, 193, 50, 320
-0.998608, 137, 241, 200, 256
-0.998609, 321, 197, 384, 212
-0.99861, 217, 155, 280, 170
-0.998611, 357, 239, 388, 254
-0.998611, 401, 239, 432, 254
-0.998611, 381, 231, 412, 246
-0.998613, 117, 239, 148, 254
-0.998613, 97, 229, 128, 244
-0.998613, 409, 175, 472, 190
-0.998614, 361, 245, 392, 260
-0.998614, 153, 185, 216, 200
-0.998615, 373, 261, 404, 276
-0.998616, 345, 239, 376, 254
-0.998618, 317, 151, 348, 166
-0.998622, 385, 171, 448, 186
-0.998622, 49, 249, 112, 264
-0.998626, 401, 187, 464, 202
-0.998626, 337, 173, 400, 188
-0.998627, 401, 237, 464, 252
-0.998628, 217, 209, 280, 224
-0.998629, 17, 129, 48, 375
-0.998629, 425, 195, 488, 210
-0.99863, 65, 281, 128, 296
-0.99863, 189, 191, 220, 206
-0.99863, 121, 231, 184, 246
-0.99863, 117, 245, 148, 260
-0.99863, 321, 221, 384, 236
-0.99863, 225, 185, 288, 200
-0.998631, 129, 239, 160, 254
-0.998632, 137, 267, 200, 282
-0.998632, 417, 245, 480, 260
-0.998634, 249, 189, 312, 204
-0.998634, 381, 171, 412, 186
-0.998636, 73, 211, 136, 226
-0.998636, 193, 209, 256, 224
-0.998637, 313, 179, 376, 194
-0.998639, 365, 269, 396, 284
-0.998639, 17, 261, 80, 276
-0.998639, 433, 259, 496, 274
-0.998639, 193, 169, 256, 184
-0.99864, 377, 279, 440, 294
-0.99864, 389, 243, 420, 258
-0.998641, 129, 287, 192, 302
-0.998642, 145, 259, 208, 274
-0.998643, 305, 239, 368, 254
-0.998643, 93, 263, 124, 278
-0.998643, 369, 287, 432, 302
-0.998644, 413, 209, 428, 336
-0.998644, 57, 225, 120, 240
-0.998645, 353, 179, 416, 194
-0.998646, 305, 259, 368, 274
-0.998647, 329, 279, 392, 294
-0.998647, 373, 225, 404, 240
-0.998647, 373, 255, 404, 270
-0.998648, 113, 267, 144, 282
-0.998653, 393, 175, 424, 190
-0.998655, 341, 249, 372, 264
-0.998659, 37, 129, 68, 375
-0.998664, 109, 231, 140, 246
-0.998667, 105, 273, 136, 288
-0.998674, 145, 157, 272, 188
-0.998676, 101, 237, 132, 252
-0.998679, 363, 161, 378, 288
-0.99868, 111, 161, 126, 288
-0.998688, 209, 209, 336, 240
-0.998691, 405, 247, 436, 262
-0.998696, 347, 193, 362, 320
-0.998707, 369, 235, 400, 250
-0.998708, 145, 145, 272, 176
-0.998708, 377, 269, 408, 284
-0.998716, 393, 251, 424, 266
-0.998724, 305, 289, 432, 320
-0.998726, 323, 193, 338, 320
-0.998728, 99, 161, 114, 288
-0.998745, 469, 129, 500, 375
-0.998747, 23, 193, 38, 320
-0.998752, 125, 161, 140, 288
-0.998754, 353, 209, 368, 336
-0.998755, 407, 161, 422, 288
-0.998763, 317, 193, 332, 320
-0.998779, 333, 193, 348, 320
-0.998791, 29, 193, 44, 320
-0.998819, 155, 193, 170, 320
-0.998834, 341, 225, 356, 352
-0.998843, 147, 177, 162, 304
-0.998846, 147, 225, 162, 352
-0.998863, 71, 193, 86, 320
-0.998893, 131, 241, 146, 368
-0.998895, 93, 161, 108, 288
-0.998904, 311, 193, 326, 320
-0.998907, 241, 237, 368, 268
-0.998915, 117, 161, 132, 288
-0.998915, 407, 209, 422, 336
-0.998918, 419, 225, 434, 352
-0.998922, 87, 241, 102, 368
-0.998925, 17, 181, 144, 212
-0.998928, 319, 241, 334, 368
-0.998928, 339, 145, 354, 272
-0.998931, 325, 241, 340, 368
-0.998939, 161, 177, 176, 304
-0.99895, 97, 121, 352, 184
-0.998956, 333, 241, 348, 368
-0.998961, 311, 241, 326, 368
-0.998967, 301, 241, 316, 368
-0.998977, 353, 161, 368, 288
-0.998978, 465, 161, 480, 288
-0.998983, 17, 193, 32, 320
-0.998992, 293, 241, 308, 368
-0.998993, 153, 241, 168, 368
-0.998995, 175, 177, 190, 304
-0.998997, 283, 241, 298, 368
-0.999003, 413, 161, 428, 288
-0.999013, 267, 241, 282, 368
-0.999013, 277, 241, 292, 368
-0.99902, 67, 241, 82, 368
-0.999023, 259, 241, 274, 368
-0.999023, 475, 193, 490, 320
-0.999025, 319, 129, 334, 256
-0.999035, 41, 241, 56, 368
-0.999036, 47, 241, 62, 368
-0.999038, 167, 177, 182, 304
-0.999041, 105, 161, 120, 288
-0.999043, 331, 129, 346, 256
-0.99905, 253, 241, 268, 368
-0.999059, 35, 241, 50, 368
-0.999066, 53, 241, 68, 368
-0.999078, 305, 193, 320, 320
-0.999081, 23, 241, 38, 368
-0.999081, 59, 241, 74, 368
-0.999084, 29, 241, 44, 368
-0.999086, 247, 241, 262, 368
-0.999093, 209, 137, 336, 168
-0.999104, 241, 241, 256, 368
-0.999114, 49, 145, 176, 208
-0.999116, 235, 241, 250, 368
-0.999119, 299, 193, 314, 320
-0.999121, 167, 241, 182, 368
-0.999121, 425, 241, 440, 368
-0.999122, 293, 193, 308, 320
-0.999127, 325, 113, 340, 240
-0.999128, 181, 241, 196, 368
-0.999134, 185, 177, 200, 304
-0.999134, 283, 193, 298, 320
-0.999136, 311, 113, 326, 240
-0.999141, 229, 241, 244, 368
-0.999141, 347, 145, 362, 272
-0.999144, 175, 225, 190, 352
-0.999146, 11, 209, 26, 336
-0.999156, 223, 241, 238, 368
-0.999157, 353, 289, 480, 320
-0.999159, 241, 145, 256, 272
-0.99916, 277, 193, 292, 320
-0.999171, 271, 193, 286, 320
-0.999175, 421, 161, 436, 288
-0.999179, 161, 241, 176, 368
-0.999184, 235, 145, 250, 272
-0.999187, 217, 241, 232, 368
-0.999189, 73, 241, 88, 368
-0.999191, 195, 241, 210, 368
-0.999196, 205, 241, 220, 368
-0.999207, 265, 193, 280, 320
-0.999211, 287, 113, 302, 240
-0.999216, 211, 241, 226, 368
-0.999219, 293, 113, 308, 240
-0.999219, 189, 241, 204, 368
-0.999219, 299, 113, 314, 240
-0.99922, 135, 145, 150, 272
-0.999224, 17, 241, 32, 368
-0.999226, 257, 193, 272, 320
-0.999228, 281, 113, 296, 240
-0.999228, 85, 145, 100, 272
-0.999229, 305, 113, 320, 240
-0.999239, 459, 161, 474, 288
-0.999246, 227, 161, 242, 288
-0.999246, 271, 113, 286, 240
-0.99925, 265, 113, 280, 240
-0.999254, 431, 225, 446, 352
-0.999259, 251, 193, 266, 320
-0.999265, 427, 161, 442, 288
-0.999269, 1, 97, 32, 352
-0.999271, 449, 161, 464, 288
-0.999339, 97, 169, 224, 200
-0.999354, 145, 233, 272, 264
-0.999359, 417, 33, 480, 288
-0.999451, 457, 113, 488, 240
-0.999468, 357, 33, 388, 288
-0.999473, 469, 241, 500, 368
-0.999486, 193, 129, 256, 192
-0.99965, 377, 33, 408, 288
-0.999661, 379, 241, 394, 256
-0.999661, 233, 191, 248, 206
-0.999662, 319, 151, 334, 166
-0.999662, 53, 213, 68, 228
-0.999663, 329, 191, 344, 206
-0.999663, 425, 177, 440, 192
-0.999664, 199, 193, 214, 208
-0.999665, 371, 279, 386, 294
-0.999665, 225, 181, 240, 196
-0.999668, 313, 151, 328, 166
-0.999669, 103, 239, 118, 254
-0.99967, 235, 199, 250, 214
-0.999672, 417, 177, 432, 192
-0.999674, 407, 257, 422, 272
-0.999674, 89, 239, 104, 254
-0.999674, 93, 197, 108, 212
-0.99968, 95, 257, 110, 272
-0.999682, 59, 209, 74, 224
-0.999682, 209, 179, 224, 194
-0.999682, 391, 271, 406, 286
-0.999683, 115, 255, 130, 270
-0.999687, 387, 241, 402, 256
-0.999687, 109, 253, 124, 268
-0.999688, 403, 263, 418, 278
-0.999689, 377, 275, 392, 290
-0.999689, 113, 195, 128, 210
-0.99969, 387, 247, 402, 262
-0.999691, 69, 205, 84, 220
-0.999691, 391, 277, 406, 292
-0.999692, 411, 177, 426, 192
-0.999692, 387, 253, 402, 268
-0.999693, 369, 257, 384, 272
-0.999693, 357, 263, 372, 278
-0.999694, 33, 219, 48, 234
-0.999694, 107, 195, 122, 210
-0.999696, 325, 151, 340, 166
-0.999697, 265, 153, 280, 168
-0.999698, 127, 273, 142, 288
-0.999699, 391, 265, 406, 280
-0.999705, 87, 267, 102, 282
-0.999707, 193, 189, 208, 204
-0.999707, 405, 243, 420, 258
-0.999709, 385, 277, 400, 292
-0.99971, 225, 193, 240, 208
-0.999711, 119, 279, 134, 294
-0.999712, 371, 235, 386, 250
-0.999712, 389, 179, 404, 194
-0.999715, 249, 157, 264, 172
-0.999716, 463, 181, 478, 196
-0.999717, 323, 193, 338, 208
-0.999717, 39, 217, 54, 232
-0.999717, 115, 245, 130, 260
-0.999719, 97, 243, 112, 258
-0.99972, 375, 249, 390, 264
-0.999722, 111, 281, 126, 296
-0.999723, 379, 225, 394, 240
-0.999723, 129, 261, 144, 276
-0.999723, 103, 245, 118, 260
-0.999725, 103, 257, 118, 272
-0.999729, 199, 187, 214, 202
-0.999731, 99, 267, 114, 282
-0.999733, 133, 251, 148, 266
-0.999733, 339, 155, 354, 170
-0.999735, 369, 269, 384, 284
-0.999736, 363, 269, 378, 284
-0.999736, 345, 159, 360, 174
-0.999738, 105, 279, 120, 294
-0.999738, 47, 215, 62, 230
-0.999739, 255, 155, 270, 170
-0.99974, 93, 271, 108, 286
-0.99974, 351, 161, 366, 176
-0.999745, 111, 267, 126, 282
-0.999745, 125, 255, 140, 270
-0.999746, 91, 245, 106, 260
-0.999747, 359, 161, 374, 176
-0.999747, 385, 269, 400, 284
-0.999749, 373, 241, 388, 256
-0.999752, 379, 233, 394, 248
-0.999753, 109, 237, 124, 252
-0.999753, 123, 247, 138, 262
-0.999754, 359, 239, 374, 254
-0.999756, 369, 249, 384, 264
-0.999758, 333, 153, 348, 168
-0.999758, 389, 259, 404, 274
-0.999759, 247, 163, 262, 178
-0.999761, 405, 175, 420, 190
-0.999762, 375, 257, 390, 272
-0.999762, 399, 257, 414, 272
-0.999763, 367, 163, 382, 178
-0.999763, 99, 273, 114, 288
-0.999766, 373, 165, 388, 180
-0.999767, 403, 249, 418, 264
-0.999769, 119, 263, 134, 278
-0.99977, 121, 273, 136, 288
-0.999771, 121, 241, 136, 256
-0.999772, 205, 185, 220, 200
-0.999773, 127, 267, 142, 282
-0.999774, 393, 243, 408, 258
-0.999776, 369, 263, 384, 278
-0.999779, 215, 179, 230, 194
-0.999782, 363, 261, 378, 276
-0.999784, 99, 251, 114, 266
-0.999784, 399, 239, 414, 254
-0.999787, 117, 231, 132, 246
-0.999787, 379, 167, 394, 182
-0.999788, 359, 249, 374, 264
-0.99979, 387, 169, 402, 184
-0.99979, 93, 263, 108, 278
-0.999792, 397, 251, 412, 266
-0.999793, 365, 243, 380, 258
-0.999793, 239, 167, 254, 182
-0.999794, 5, 145, 36, 272
-0.999795, 397, 265, 412, 280
-0.999795, 389, 227, 404, 242
-0.999795, 373, 229, 388, 244
-0.999796, 231, 171, 246, 186
-0.999803, 397, 173, 412, 188
-0.999811, 129, 245, 144, 260
-0.999812, 395, 233, 410, 248
-0.999813, 223, 175, 238, 190
-0.999814, 365, 233, 380, 248
-0.999815, 111, 229, 126, 244
-0.999819, 129, 239, 144, 254
-0.999819, 379, 269, 394, 284
-0.999821, 101, 233, 116, 248
-0.999822, 115, 273, 130, 288
-0.999827, 363, 255, 378, 270
-0.999836, 123, 235, 138, 250
-0.999838, 89, 253, 104, 268
-0.999859, 95, 237, 110, 252
-0.999864, 109, 273, 124, 288
-0.999979, 233, 1, 296, 256
-0.999997, 321, 81, 352, 208
-1.00001, 273, 33, 336, 288
-1.00002, 113, 33, 176, 288
-1.00007, 325, 33, 356, 288
-1.0001, 225, 105, 352, 168
-1.00016, 185, 33, 248, 288
-1.00017, 341, 33, 372, 288
-1.00022, 401, 33, 432, 288
-1.00025, 389, 33, 420, 288
-1.00027, 145, 221, 272, 252
-1.00033, 229, 1, 260, 256
-1.00036, 305, 33, 336, 288
-1.00039, 245, 33, 276, 288
-1.0004, 305, 105, 432, 168
-1.00042, 453, 33, 484, 288
-1.00047, 217, 1, 248, 256
-1.00048, 289, 129, 416, 160
-1.00049, 437, 33, 468, 288
-1.00057, 205, 33, 236, 288
-1.00057, 293, 33, 324, 288
-1.00058, 425, 33, 456, 288
-1.00058, 49, 169, 176, 200
-1.00058, 113, 33, 144, 288
-1.00063, 469, 33, 500, 288
-1.00065, 281, 1, 312, 256
-1.00066, 161, 133, 288, 164
-1.00068, 257, 33, 288, 288
-1.00069, 93, 33, 124, 288
-1.0007, 149, 33, 180, 288
-1.0007, 269, 33, 300, 288
-1.0007, 193, 1, 224, 256
-1.00071, 165, 33, 196, 288
-1.00072, 177, 1, 208, 256
-1.00077, 77, 33, 108, 288
-1.00077, 257, 105, 500, 168
-1.00079, 129, 297, 256, 328
-1.00081, 193, 233, 320, 264
-1.00084, 17, 169, 80, 232
-1.00085, 65, 297, 192, 328
-1.00086, 125, 33, 156, 288
-1.00089, 177, 297, 304, 328
-1.00089, 257, 297, 384, 328
-1.0009, 241, 125, 368, 156
-1.0009, 225, 221, 352, 252
-1.00092, 57, 33, 88, 288
-1.00094, 413, 33, 444, 288
-1.00106, 1, 345, 128, 375
-1.00107, 193, 117, 320, 148
-1.00107, 321, 117, 448, 148
-1.00107, 369, 117, 496, 148
-1.00107, 129, 121, 256, 152
-1.00107, 17, 125, 144, 156
-1.00107, 65, 125, 192, 156
-1.00107, 369, 129, 496, 160
-1.00107, 113, 133, 240, 164
-1.00107, 33, 137, 160, 168
-1.00107, 81, 145, 208, 176
-1.00107, 1, 149, 128, 180
-1.00107, 49, 157, 176, 188
-1.00107, 1, 161, 128, 192
-1.00107, 33, 309, 160, 340
-1.00107, 81, 309, 208, 340
-1.00107, 129, 309, 256, 340
-1.00107, 177, 309, 304, 340
-1.00107, 225, 309, 352, 340
-1.00107, 273, 309, 400, 340
-1.00107, 321, 309, 448, 340
-1.00107, 369, 309, 496, 340
-1.00107, 33, 321, 160, 352
-1.00107, 81, 321, 208, 352
-1.00107, 129, 321, 256, 352
-1.00107, 177, 321, 304, 352
-1.00107, 225, 321, 352, 352
-1.00107, 273, 321, 400, 352
-1.00107, 321, 321, 448, 352
-1.00107, 369, 321, 496, 352
-1.00107, 33, 333, 160, 364
-1.00107, 81, 333, 208, 364
-1.00107, 129, 333, 256, 364
-1.00107, 177, 333, 304, 364
-1.00107, 225, 333, 352, 364
-1.00107, 273, 333, 400, 364
-1.00107, 321, 333, 448, 364
-1.00107, 369, 333, 496, 364
-1.00107, 81, 345, 208, 375
-1.00107, 129, 345, 256, 375
-1.00107, 177, 345, 304, 375
-1.00107, 225, 345, 352, 375
-1.00107, 273, 345, 400, 375
-1.00107, 321, 345, 448, 375
-1.00107, 369, 345, 496, 375
-1.00109, 137, 33, 168, 288
-1.00111, 13, 33, 44, 288
-1.00116, 73, 33, 136, 288
-1.00129, 41, 33, 72, 288
-1.00131, 17, 297, 144, 360
-1.00133, 93, 113, 124, 240
-1.00134, 113, 113, 144, 240
-1.00137, 25, 33, 56, 288
-1.00163, 353, 33, 416, 288
-1.00164, 1, 129, 256, 192
-1.00179, 289, 65, 352, 192
-1.00183, 257, 297, 500, 360
-1.00185, 1, 145, 128, 208
-1.00188, 161, 97, 416, 160
-1.00195, 161, 97, 192, 224
-1.00197, 1, 1, 32, 256
-1.00201, 209, 1, 272, 256
-1.00205, 97, 305, 352, 368
-1.00206, 1, 313, 256, 375
-1.00209, 129, 113, 256, 176
-1.00212, 161, 1, 416, 64
-1.00212, 257, 9, 500, 72
-1.00212, 65, 17, 320, 80
-1.00212, 161, 25, 416, 88
-1.00212, 257, 33, 500, 96
-1.00212, 65, 41, 320, 104
-1.00212, 161, 49, 416, 112
-1.00212, 257, 57, 500, 120
-1.00212, 65, 65, 320, 128
-1.00212, 161, 73, 416, 136
-1.00212, 257, 81, 500, 144
-1.00212, 1, 89, 256, 152
-1.00246, 1, 129, 500, 192
-1.00254, 177, 97, 304, 160
-1.00255, 193, 49, 320, 176
-1.00267, 257, 49, 500, 176
-1.00283, 161, 1, 224, 256
-1.00291, 33, 1, 160, 64
-1.00291, 81, 1, 208, 64
-1.00291, 177, 1, 304, 64
-1.00291, 369, 1, 496, 64
-1.00291, 225, 9, 352, 72
-1.00291, 273, 9, 400, 72
-1.00291, 321, 9, 448, 72
-1.00291, 129, 17, 256, 80
-1.00291, 33, 25, 160, 88
-1.00291, 81, 25, 208, 88
-1.00291, 177, 25, 304, 88
-1.00291, 369, 25, 496, 88
-1.00291, 225, 33, 352, 96
-1.00291, 273, 33, 400, 96
-1.00291, 321, 33, 448, 96
-1.00291, 129, 41, 256, 104
-1.00291, 33, 49, 160, 112
-1.00291, 81, 49, 208, 112
-1.00291, 177, 49, 304, 112
-1.00291, 369, 49, 496, 112
-1.00291, 225, 57, 352, 120
-1.00291, 273, 57, 400, 120
-1.00291, 321, 57, 448, 120
-1.00291, 129, 65, 256, 128
-1.00291, 33, 73, 160, 136
-1.00291, 81, 73, 208, 136
-1.00291, 177, 73, 304, 136
-1.00291, 369, 73, 496, 136
-1.00291, 225, 81, 352, 144
-1.00291, 273, 81, 400, 144
-1.00291, 321, 81, 448, 144
-1.00291, 129, 89, 256, 152
-1.00291, 33, 97, 160, 160
-1.00291, 81, 97, 208, 160
-1.00291, 369, 97, 496, 160
-1.00291, 33, 121, 160, 184
-1.00291, 81, 121, 208, 184
-1.00291, 81, 313, 208, 375
-1.00291, 129, 313, 256, 375
-1.00291, 177, 313, 304, 375
-1.00291, 225, 313, 352, 375
-1.00291, 273, 313, 400, 375
-1.00291, 321, 313, 448, 375
-1.00291, 369, 313, 496, 375
-1.00312, 249, 65, 312, 192
-1.00332, 1, 105, 500, 168
-1.00336, 1, 305, 500, 368
-1.00338, 469, 97, 500, 224
-1.00346, 1, 17, 500, 80
-1.0035, 329, 65, 392, 192
-1.00355, 1, 57, 500, 120
-1.0037, 33, 33, 96, 288
-1.00378, 1, 81, 500, 144
-1.00393, 137, 33, 200, 288
-1.00419, 297, 49, 328, 176
-1.00422, 81, 97, 112, 224
-1.00444, 225, 113, 288, 176
-1.00449, 261, 65, 292, 192
-1.00456, 273, 65, 304, 192
-1.00466, 285, 65, 316, 192
-1.00468, 129, 97, 160, 224
-1.00506, 249, 105, 312, 168
-1.00516, 361, 65, 392, 192
-1.00534, 249, 65, 280, 192
-1.0055, 9, 33, 72, 288
-1.006, 377, 121, 440, 184
-1.00636, 289, 49, 416, 176
-1.00637, 1, 81, 256, 208
-1.00638, 169, 129, 232, 192
-1.0064, 409, 129, 472, 192
-1.00646, 105, 97, 168, 224
-1.00669, 189, 81, 220, 208
-1.00689, 345, 113, 408, 176
-1.00729, 373, 65, 404, 192
-1.0077, 321, 97, 384, 160
-1.00772, 61, 97, 92, 224
-1.00802, 425, 297, 488, 360
-1.00811, 333, 49, 364, 176
-1.00849, 389, 65, 420, 192
-1.00856, 309, 33, 340, 160
-1.00856, 1, 81, 128, 208
-1.0086, 213, 65, 244, 192
-1.00862, 65, 145, 128, 208
-1.00888, 369, 65, 496, 192
-1.00889, 1, 1, 256, 128
-1.00921, 349, 65, 380, 192
-1.00924, 177, 313, 240, 375
-1.00924, 201, 313, 264, 375
-1.00928, 453, 65, 484, 192
-1.00929, 121, 121, 184, 184
-1.00929, 41, 129, 104, 192
-1.00929, 9, 137, 72, 200
-1.00929, 1, 313, 64, 375
-1.00929, 25, 313, 88, 375
-1.00929, 49, 313, 112, 375
-1.00929, 73, 313, 136, 375
-1.00929, 97, 313, 160, 375
-1.00929, 121, 313, 184, 375
-1.00929, 145, 313, 208, 375
-1.00929, 233, 313, 296, 375
-1.00929, 257, 313, 320, 375
-1.00929, 281, 313, 344, 375
-1.00929, 305, 313, 368, 375
-1.00929, 329, 313, 392, 375
-1.00929, 353, 313, 416, 375
-1.00929, 377, 313, 440, 375
-1.00929, 401, 313, 464, 375
-1.00946, 241, 17, 368, 144
-1.00947, 321, 33, 352, 160
-1.0095, 225, 33, 256, 160
-1.0095, 173, 49, 204, 176
-1.00956, 237, 49, 268, 176
-1.00957, 129, 17, 384, 144
-1.01002, 17, 1, 144, 128
-1.01002, 65, 1, 192, 128
-1.01009, 153, 81, 216, 208
-1.0102, 185, 65, 248, 192
-1.01038, 193, 1, 320, 128
-1.01038, 321, 1, 448, 128
-1.01038, 129, 17, 256, 144
-1.01038, 369, 17, 496, 144
-1.01038, 81, 49, 208, 176
-1.01038, 257, 1, 500, 128
-1.01077, 57, 97, 120, 224
-1.01236, 385, 65, 448, 192
-1.01255, 33, 97, 96, 224
-1.01354, 217, 49, 280, 176
-1.01385, 361, 65, 424, 192
-1.01442, 57, 1, 120, 128
-1.01442, 81, 1, 144, 128
-1.01478, 113, 1, 176, 128
-1.01478, 137, 1, 200, 128
-1.01478, 217, 1, 280, 128
-1.01478, 241, 1, 304, 128
-1.01478, 265, 1, 328, 128
-1.01478, 289, 1, 352, 128
-1.01478, 313, 1, 376, 128
-1.01478, 337, 1, 400, 128
-1.01478, 1, 17, 64, 144
-1.01478, 25, 17, 88, 144
-1.01478, 193, 17, 256, 144
-1.01478, 361, 17, 424, 144
-1.01478, 385, 17, 448, 144
-1.01478, 161, 33, 224, 160
-1.01478, 409, 33, 472, 160
-1.01478, 433, 33, 496, 160
-1.01478, 49, 49, 112, 176
-1.01478, 73, 49, 136, 176
-1.01478, 97, 49, 160, 176
-1.01478, 121, 49, 184, 176
-1.01478, 9, 65, 72, 192
