1958
-0.37486, 1, 129, 500, 375
-0.506366, 1, 1, 500, 375
-0.547244, 33, 1, 288, 375
-0.576198, 1, 33, 500, 288
-0.594267, 161, 1, 416, 375
-0.594999, 33, 129, 288, 375
-0.623086, 161, 65, 416, 320
-0.722782, 257, 1, 500, 375
-0.733336, 257, 129, 500, 375
-0.851095, 1, 33, 256, 288
-0.862427, 113, 97, 240, 352
-0.865879, 97, 1, 224, 375
-0.869869, 257, 65, 384, 320
-0.881073, 1, 177, 500, 304
-0.886172, 177, 97, 304, 352
-0.887789, 1, 225, 500, 352
-0.890825, 257, 33, 500, 288
-0.895595, 33, 129, 160, 375
-0.898878, 289, 1, 416, 375
-0.902956, 145, 1, 272, 375
-0.903843, 337, 129, 464, 375
-0.904308, 1, 129, 500, 256
-0.908009, 161, 145, 416, 272
-0.910436, 225, 1, 352, 375
-0.913602, 33, 145, 288, 272
-0.915582, 65, 209, 320, 336
-0.918473, 337, 1, 464, 375
-0.919809, 49, 1, 176, 375
-0.922529, 65, 33, 192, 288
-0.925753, 161, 193, 416, 320
-0.925793, 321, 33, 448, 288
-0.927808, 185, 177, 248, 304
-0.930495, 161, 1, 288, 256
-0.931096, 209, 161, 336, 288
-0.931112, 113, 161, 240, 288
-0.932863, 257, 177, 500, 304
-0.933502, 161, 129, 288, 256
-0.934781, 369, 177, 496, 304
-0.936304, 329, 177, 392, 304
-0.937486, 321, 145, 448, 272
-0.938872, 241, 113, 368, 240
-0.939737, 169, 129, 232, 256
-0.940547, 297, 97, 360, 224
-0.940888, 113, 1, 240, 256
-0.942511, 153, 177, 216, 304
-0.94315, 217, 129, 280, 256
-0.943732, 17, 161, 144, 288
-0.944098, 81, 209, 208, 336
-0.945184, 129, 177, 192, 304
-0.945885, 161, 97, 416, 224
-0.947664, 321, 113, 384, 240
-0.947693, 185, 201, 248, 264
-0.947739, 97, 209, 160, 336
-0.947962, 289, 193, 416, 320
-0.948651, 193, 129, 256, 256
-0.949501, 161, 193, 288, 320
-0.949528, 73, 241, 136, 368
-0.950277, 401, 177, 464, 304
-0.951742, 145, 113, 208, 240
-0.951898, 257, 129, 500, 256
-0.952567, 209, 153, 272, 216
-0.952787, 113, 97, 240, 224
-0.953751, 17, 241, 144, 368
-0.953851, 321, 201, 384, 264
-0.954072, 321, 65, 384, 192
-0.954112, 305, 121, 368, 184
-0.954319, 337, 161, 400, 224
-0.955069, 321, 241, 448, 368
-0.955545, 161, 193, 224, 256
-0.956098, 193, 177, 256, 240
-0.956225, 209, 1, 336, 256
-0.956234, 17, 33, 144, 288
-0.956575, 249, 129, 312, 192
-0.957082, 289, 81, 416, 208
-0.957611, 289, 97, 352, 160
-0.957647, 257, 225, 500, 352
-0.957821, 209, 193, 272, 320
-0.958239, 177, 129, 240, 192
-0.9585, 425, 193, 488, 320
-0.95885, 1, 81, 500, 208
-0.9589, 137, 201, 200, 264
-0.959559, 377, 169, 440, 232
-0.959782, 129, 241, 256, 368
-0.959918, 65, 161, 192, 288
-0.959982, 169, 169, 232, 232
-0.960066, 241, 65, 368, 192
-0.960141, 81, 153, 144, 216
-0.960144, 305, 209, 368, 336
-0.960174, 161, 225, 224, 288
-0.960571, 9, 193, 72, 320
-0.960737, 313, 65, 376, 128
-0.961196, 161, 241, 416, 368
-0.96171, 105, 145, 168, 272
-0.961959, 361, 145, 424, 272
-0.96226, 161, 225, 224, 352
-0.962622, 241, 145, 304, 272
-0.962983, 1, 1, 128, 375
-0.963895, 313, 89, 376, 152
-0.963899, 281, 121, 344, 184
-0.964325, 33, 65, 288, 192
-0.964327, 41, 241, 104, 368
-0.964543, 57, 153, 120, 216
-0.964964, 273, 145, 336, 272
-0.964991, 185, 225, 248, 288
-0.96565, 417, 201, 480, 264
-0.966129, 401, 177, 464, 240
-0.966307, 361, 225, 424, 352
-0.966385, 177, 81, 304, 208
-0.966772, 225, 201, 288, 264
-0.967023, 193, 161, 224, 288
-0.96729, 225, 129, 288, 192
-0.967375, 105, 161, 168, 224
-0.967375, 97, 217, 160, 280
-0.967439, 33, 161, 160, 224
-0.967523, 297, 145, 360, 272
-0.967534, 33, 161, 96, 288
-0.967806, 349, 145, 380, 208
-0.96788, 185, 225, 248, 352
-0.967992, 185, 81, 248, 208
-0.968145, 257, 97, 320, 224
-0.968203, 345, 185, 408, 248
-0.968241, 145, 169, 208, 232
-0.968259, 337, 177, 464, 240
-0.968628, 9, 241, 72, 368
-0.968901, 161, 33, 416, 160
-0.969106, 329, 225, 392, 288
-0.969145, 213, 145, 244, 272
-0.969195, 173, 201, 204, 264
-0.969224, 145, 201, 272, 264
-0.969348, 129, 81, 192, 144
-0.969603, 201, 129, 264, 192
-0.969613, 145, 57, 208, 120
-0.969887, 321, 89, 352, 152
-0.970179, 201, 185, 232, 248
-0.970278, 337, 57, 400, 120
-0.970376, 297, 49, 360, 176
-0.970479, 257, 65, 500, 192
-0.970501, 169, 129, 232, 375
-0.970688, 345, 129, 376, 256
-0.970881, 241, 121, 368, 184
-0.971274, 121, 241, 184, 368
-0.971344, 321, 81, 352, 208
-0.971349, 369, 161, 400, 288
-0.971503, 129, 177, 256, 240
-0.971618, 289, 73, 352, 136
-0.971866, 417, 241, 480, 368
-0.971869, 145, 65, 208, 320
-0.972083, 57, 177, 120, 304
-0.972164, 185, 193, 216, 256
-0.972219, 169, 257, 232, 320
-0.972362, 33, 169, 96, 232
-0.972475, 329, 225, 392, 352
-0.972572, 137, 233, 200, 296
-0.972611, 197, 145, 228, 208
-0.97262, 153, 121, 216, 184
-0.972726, 321, 305, 384, 368
-0.972736, 265, 153, 328, 216
-0.973061, 321, 33, 448, 160
-0.973283, 249, 177, 312, 240
-0.973316, 289, 145, 352, 208
-0.973319, 177, 145, 304, 208
-0.973349, 81, 217, 208, 280
-0.973506, 333, 113, 364, 240
-0.973625, 65, 129, 128, 256
-0.973723, 337, 65, 368, 128
-0.973831, 213, 193, 244, 256
-0.973838, 233, 153, 296, 216
-0.974033, 33, 113, 160, 240
-0.974101, 341, 121, 372, 184
-0.974105, 329, 113, 392, 176
-0.974155, 313, 65, 376, 320
-0.974204, 357, 161, 388, 288
-0.974216, 169, 65, 232, 128
-0.974301, 353, 169, 384, 232
-0.974479, 369, 177, 400, 240
-0.974659, 265, 129, 296, 192
-0.97474, 153, 177, 184, 240
-0.974819, 1, 33, 500, 160
-0.974869, 149, 209, 180, 272
-0.974968, 209, 137, 240, 200
-0.975017, 129, 137, 256, 200
-0.975046, 153, 145, 216, 208
-0.975129, 361, 225, 424, 288
-0.97514, 81, 241, 144, 304
-0.975243, 177, 113, 208, 240
-0.975492, 209, 209, 336, 336
-0.975801, 333, 65, 364, 192
-0.975917, 209, 225, 272, 288
-0.975921, 369, 33, 496, 288
-0.975989, 189, 113, 220, 240
-0.976034, 97, 49, 224, 176
-0.976114, 129, 49, 192, 176
-0.976198, 113, 185, 176, 248
-0.976214, 9, 193, 72, 256
-0.976275, 189, 121, 220, 184
-0.976511, 9, 257, 72, 320
-0.97652, 325, 65, 356, 128
-0.976554, 369, 225, 496, 352
-0.976652, 329, 113, 360, 176
-0.976807, 349, 49, 380, 112
-0.97688, 337, 97, 464, 224
-0.976897, 213, 161, 244, 224
-0.976973, 105, 209, 136, 336
-0.97704, 145, 225, 272, 288
-0.977227, 445, 193, 476, 320
-0.977228, 57, 305, 120, 368
-0.977269, 233, 193, 296, 320
-0.977283, 25, 281, 88, 344
-0.977293, 361, 249, 424, 312
-0.977387, 205, 193, 236, 320
-0.977445, 289, 217, 416, 280
-0.977478, 361, 313, 424, 375
-0.977551, 217, 177, 280, 240
-0.977615, 345, 49, 376, 176
-0.977793, 313, 161, 376, 224
-0.97799, 89, 241, 120, 368
-0.978009, 13, 193, 44, 320
-0.978025, 9, 145, 72, 272
-0.978049, 285, 121, 316, 184
-0.97814, 205, 217, 236, 280
-0.978153, 305, 225, 368, 288
-0.978249, 289, 97, 352, 352
-0.978252, 169, 225, 200, 288
-0.978272, 257, 145, 384, 208
-0.978287, 177, 97, 240, 160
-0.97837, 225, 161, 256, 288
-0.978399, 81, 305, 144, 368
-0.97842, 193, 129, 256, 375
-0.978554, 337, 81, 400, 144
-0.978563, 453, 201, 484, 264
-0.97863, 309, 105, 340, 168
-0.978643, 189, 169, 220, 232
-0.978678, 9, 217, 72, 280
-0.978714, 185, 217, 216, 280
-0.978817, 297, 289, 360, 352
-0.978892, 209, 185, 336, 248
-0.978982, 369, 225, 496, 288
-0.979035, 353, 201, 480, 264
-0.979133, 145, 161, 176, 288
-0.979167, 193, 257, 256, 320
-0.979172, 377, 193, 440, 256
-0.97927, 453, 241, 484, 304
-0.979302, 173, 193, 204, 320
-0.979349, 121, 57, 184, 120
-0.97941, 289, 265, 352, 328
-0.979625, 425, 177, 456, 240
-0.979632, 329, 281, 392, 344
-0.979675, 337, 137, 400, 200
-0.979697, 225, 201, 256, 264
-0.979725, 161, 177, 192, 304
-0.979932, 321, 193, 352, 320
-0.980075, 281, 225, 344, 352
-0.980116, 13, 225, 44, 288
-0.980178, 377, 209, 408, 336
-0.98021, 157, 57, 188, 120
-0.980215, 89, 233, 120, 296
-0.980237, 257, 105, 320, 168
-0.980265, 253, 137, 284, 200
-0.980288, 69, 153, 100, 216
-0.980392, 305, 65, 432, 128
-0.980457, 361, 145, 424, 208
-0.980466, 81, 241, 208, 304
-0.980485, 65, 281, 128, 344
-0.9805, 333, 89, 364, 152
-0.980524, 81, 169, 208, 232
-0.980549, 273, 49, 336, 176
-0.980616, 425, 225, 488, 288
-0.980692, 53, 153, 84, 216
-0.980968, 101, 153, 132, 216
-0.980989, 309, 129, 340, 192
-0.981069, 349, 193, 380, 256
-0.981073, 369, 233, 400, 296
-0.981085, 369, 289, 432, 352
-0.981206, 113, 289, 176, 352
-0.981256, 145, 289, 208, 352
-0.981332, 169, 97, 200, 160
-0.981382, 289, 193, 416, 256
-0.981491, 289, 201, 352, 264
-0.981512, 297, 113, 328, 176
-0.981594, 393, 129, 456, 256
-0.9816, 257, 169, 384, 232
-0.981794, 105, 217, 136, 280
-0.981803, 265, 169, 296, 232
-0.981843, 309, 81, 340, 144
-0.981903, 305, 313, 432, 375
-0.981906, 289, 105, 416, 168
-0.982007, 37, 161, 68, 288
-0.982034, 257, 241, 384, 368
-0.982046, 333, 161, 364, 288
-0.982091, 433, 145, 496, 272
-0.982138, 333, 185, 364, 248
-0.982139, 133, 169, 164, 232
-0.982145, 113, 153, 144, 216
-0.98218, 209, 209, 336, 272
-0.982187, 365, 153, 396, 216
-0.98222, 229, 113, 260, 240
-0.982298, 193, 209, 224, 336
-0.982322, 29, 177, 60, 240
-0.982442, 13, 201, 44, 264
-0.982468, 329, 1, 392, 375
-0.982544, 413, 169, 444, 232
-0.98262, 177, 57, 208, 120
-0.982636, 81, 297, 208, 360
-0.982785, 289, 241, 416, 304
-0.982798, 57, 249, 120, 312
-0.982802, 433, 177, 464, 304
-0.982874, 229, 225, 260, 288
-0.982907, 237, 193, 268, 256
-0.982979, 381, 169, 412, 232
-0.98306, 349, 73, 380, 136
-0.983151, 113, 313, 176, 375
-0.983162, 17, 249, 144, 312
-0.983223, 25, 305, 88, 368
-0.983227, 337, 161, 368, 224
-0.983265, 221, 137, 252, 200
-0.983286, 41, 161, 72, 224
-0.983322, 105, 129, 168, 375
-0.983389, 145, 257, 272, 320
-0.983411, 81, 153, 112, 216
-0.983489, 33, 281, 160, 344
-0.983527, 457, 193, 488, 320
-0.98353, 153, 65, 216, 192
-0.983609, 345, 49, 408, 176
-0.983615, 369, 209, 400, 272
-0.98363, 409, 305, 472, 368
-0.983713, 157, 81, 188, 144
-0.983759, 321, 129, 352, 256
-0.98381, 249, 185, 280, 248
-0.983979, 225, 161, 256, 224
-0.983993, 305, 81, 336, 208
-0.984081, 437, 185, 468, 248
-0.984084, 177, 121, 208, 184
-0.984084, 425, 177, 488, 240
-0.984094, 105, 137, 168, 200
-0.984097, 133, 145, 164, 272
-0.9841, 177, 121, 304, 184
-0.984141, 257, 297, 384, 360
-0.984147, 153, 1, 216, 375
-0.984148, 317, 201, 348, 264
-0.984227, 177, 33, 304, 160
-0.984239, 185, 241, 216, 304
-0.984252, 273, 113, 304, 240
-0.984308, 137, 257, 200, 320
-0.984335, 401, 169, 432, 232
-0.984381, 337, 249, 400, 312
-0.984411, 357, 113, 388, 240
-0.984411, 137, 193, 168, 256
-0.984412, 329, 33, 392, 96
-0.984449, 361, 97, 424, 224
-0.984553, 201, 105, 264, 168
-0.984689, 121, 177, 152, 304
-0.984798, 257, 81, 384, 144
-0.984805, 153, 97, 216, 160
-0.984815, 425, 265, 488, 328
-0.984851, 385, 249, 448, 312
-0.984876, 385, 241, 448, 368
-0.984921, 169, 257, 200, 320
-0.984928, 233, 97, 296, 352
-0.984946, 169, 33, 232, 288
-0.984989, 201, 113, 232, 240
-0.985019, 145, 57, 176, 120
-0.985049, 1, 185, 128, 248
-0.985072, 129, 1, 192, 375
-0.985134, 277, 145, 308, 208
-0.9852, 161, 201, 192, 264
-0.985207, 321, 153, 448, 216
-0.985215, 353, 249, 480, 312
-0.985217, 133, 217, 164, 280
-0.985252, 33, 145, 96, 208
-0.98528, 33, 305, 160, 368
-0.985292, 17, 225, 144, 288
-0.985368, 129, 297, 256, 360
-0.985396, 165, 97, 196, 224
-0.985442, 177, 169, 208, 232
-0.985504, 1, 305, 64, 368
-0.985622, 345, 129, 408, 375
-0.985693, 249, 145, 280, 272
-0.985723, 293, 81, 324, 208
-0.985731, 121, 129, 152, 256
-0.985774, 49, 129, 112, 375
-0.985817, 385, 161, 416, 288
-0.985847, 385, 313, 448, 375
-0.985869, 173, 33, 204, 160
-0.985883, 349, 313, 380, 375
-0.985912, 209, 241, 336, 304
-0.985916, 345, 177, 376, 304
-0.985937, 1, 281, 64, 344
-0.985955, 317, 233, 348, 296
-0.986044, 25, 129, 88, 375
-0.986048, 361, 57, 392, 120
-0.986048, 217, 225, 248, 288
-0.986052, 265, 97, 328, 352
-0.986165, 73, 217, 136, 280
-0.986285, 453, 265, 484, 328
-0.986404, 321, 289, 448, 352
-0.986407, 365, 313, 396, 375
-0.986422, 149, 241, 180, 368
-0.986551, 217, 81, 280, 208
-0.986584, 217, 209, 248, 336
-0.98662, 189, 65, 220, 192
-0.986687, 9, 169, 72, 232
-0.986706, 361, 241, 392, 368
-0.986715, 289, 145, 320, 208
-0.986755, 33, 241, 96, 304
-0.986778, 297, 313, 360, 375
-0.986831, 305, 129, 336, 256
-0.986834, 33, 241, 64, 368
-0.98684, 93, 257, 124, 320
-0.986854, 421, 161, 452, 288
-0.986854, 457, 241, 488, 368
-0.986876, 313, 249, 376, 312
-0.986877, 237, 145, 268, 208
-0.986902, 369, 313, 496, 375
-0.98696, 105, 161, 136, 288
-0.987015, 305, 129, 432, 192
-0.987056, 113, 113, 240, 176
-0.98708, 181, 241, 212, 368
-0.987085, 73, 97, 136, 352
-0.987091, 445, 241, 476, 368
-0.987103, 65, 193, 192, 256
-0.987108, 89, 273, 152, 336
-0.987122, 385, 257, 416, 320
-0.987201, 113, 249, 176, 312
-0.987236, 177, 97, 304, 160
-0.987244, 321, 17, 384, 144
-0.987254, 441, 225, 472, 288
-0.987268, 33, 137, 160, 200
-0.987284, 73, 129, 136, 192
-0.987297, 281, 225, 344, 288
-0.987322, 385, 225, 448, 288
-0.987353, 97, 97, 160, 224
-0.987367, 165, 241, 196, 368
-0.987376, 97, 73, 224, 136
-0.987448, 233, 209, 264, 336
-0.987504, 273, 289, 336, 352
-0.987572, 13, 241, 44, 368
-0.987589, 77, 241, 108, 304
-0.987614, 93, 209, 124, 272
-0.98768, 81, 137, 208, 200
-0.987695, 417, 153, 480, 216
-0.9877, 333, 209, 364, 336
-0.987716, 157, 233, 188, 296
-0.987749, 317, 257, 348, 320
-0.987827, 353, 121, 384, 184
-0.98783, 305, 41, 368, 104
-0.987907, 169, 281, 232, 344
-0.987966, 185, 145, 216, 208
-0.988024, 53, 177, 84, 240
-0.988037, 209, 241, 272, 368
-0.988063, 93, 161, 124, 288
-0.988166, 145, 57, 272, 120
-0.988182, 57, 177, 120, 240
-0.988211, 29, 265, 60, 328
-0.988221, 25, 177, 56, 304
-0.988259, 465, 225, 496, 288
-0.988273, 97, 265, 224, 328
-0.988318, 41, 185, 72, 248
-0.988333, 313, 73, 376, 104
-0.988362, 169, 201, 232, 232
-0.988423, 305, 125, 368, 156
-0.988435, 381, 217, 412, 280
-0.988475, 217, 249, 280, 312
-0.988499, 117, 177, 148, 240
-0.988508, 249, 137, 312, 168
-0.988521, 345, 97, 376, 160
-0.988524, 61, 305, 92, 368
-0.988549, 197, 249, 228, 312
-0.988549, 337, 297, 368, 360
-0.988571, 401, 281, 464, 344
-0.988627, 133, 209, 164, 336
-0.988651, 137, 33, 200, 96
-0.988667, 129, 145, 192, 208
-0.988674, 317, 241, 348, 368
-0.988697, 77, 225, 108, 352
-0.988717, 193, 201, 256, 232
-0.988723, 193, 1, 256, 375
-0.98874, 185, 153, 248, 184
-0.988861, 81, 177, 144, 240
-0.988873, 337, 185, 400, 216
-0.98892, 105, 241, 136, 304
-0.988952, 177, 213, 240, 244
-0.988982, 57, 129, 88, 256
-0.989028, 153, 189, 216, 220
-0.989044, 137, 217, 200, 248
-0.989086, 425, 201, 456, 264
-0.989121, 121, 217, 152, 280
-0.989133, 329, 137, 360, 200
-0.989172, 209, 281, 336, 344
-0.989185, 261, 113, 292, 240
-0.989193, 1, 161, 256, 224
-0.989195, 241, 149, 304, 180
-0.989202, 201, 141, 264, 172
-0.989209, 133, 57, 164, 120
-0.989272, 369, 113, 400, 240
-0.989307, 333, 209, 364, 272
-0.989352, 97, 225, 160, 256
-0.989415, 289, 137, 352, 168
-0.989485, 273, 125, 336, 156
-0.989579, 277, 169, 308, 232
-0.989635, 329, 197, 392, 228
-0.98968, 125, 145, 156, 208
-0.989693, 193, 189, 256, 220
-0.989706, 121, 241, 152, 368
-0.989767, 73, 265, 104, 328
-0.989829, 161, 49, 192, 176
-0.989835, 177, 141, 240, 172
-0.989854, 369, 189, 432, 220
-0.989873, 361, 33, 392, 96
-0.989881, 181, 97, 212, 160
-0.989889, 289, 113, 352, 144
-0.989904, 241, 17, 368, 144
-0.989925, 97, 237, 160, 268
-0.98993, 217, 205, 280, 236
-0.989958, 209, 257, 240, 320
-0.989961, 305, 1, 368, 375
-0.989965, 377, 173, 440, 204
-0.99002, 81, 157, 144, 188
-0.990026, 161, 245, 224, 276
-0.990124, 41, 161, 104, 192
-0.990127, 193, 313, 320, 375
-0.990139, 209, 161, 272, 192
-0.990155, 321, 61, 384, 92
-0.990177, 165, 177, 196, 240
-0.9902, 81, 297, 112, 360
-0.990204, 353, 169, 416, 200
-0.990244, 337, 41, 464, 104
-0.990245, 225, 177, 480, 240
-0.990256, 169, 225, 232, 256
-0.99027, 257, 265, 384, 328
-0.990283, 353, 113, 416, 176
-0.990345, 129, 65, 192, 96
-0.990366, 121, 229, 184, 260
-0.99037, 233, 225, 296, 288
-0.990381, 313, 89, 376, 120
-0.990424, 237, 161, 268, 288
-0.990434, 145, 201, 208, 232
-0.990439, 161, 281, 192, 344
-0.990486, 401, 161, 432, 288
-0.990502, 209, 217, 272, 248
-0.990513, 81, 249, 144, 280
-0.990516, 185, 169, 248, 200
-0.990516, 105, 313, 136, 375
-0.990523, 121, 1, 184, 256
-0.990539, 241, 57, 368, 120
-0.990559, 337, 157, 400, 188
-0.990573, 93, 289, 124, 352
-0.99062, 137, 241, 200, 272
-0.990646, 177, 129, 240, 160
-0.990648, 105, 161, 168, 192
-0.990684, 185, 237, 248, 268
-0.990706, 321, 217, 384, 248
-0.990721, 73, 237, 136, 268
-0.990759, 337, 105, 464, 168
-0.990761, 225, 105, 288, 168
-0.990763, 161, 257, 224, 288
-0.990851, 161, 69, 224, 100
-0.990875, 265, 161, 328, 192
-0.990876, 1, 225, 32, 352
-0.990888, 161, 165, 224, 196
-0.990908, 357, 233, 388, 296
-0.990916, 61, 241, 92, 368
-0.990938, 329, 137, 392, 168
-0.990941, 73, 173, 136, 204
-0.990984, 289, 77, 352, 108
-0.990993, 289, 149, 352, 180
-0.990998, 145, 177, 208, 208
-0.991016, 401, 177, 464, 208
-0.991025, 121, 305, 152, 368
-0.99104, 33, 177, 96, 208
-0.991063, 353, 249, 416, 280
-0.991066, 217, 193, 280, 224
-0.991069, 113, 181, 176, 212
-0.991076, 313, 101, 376, 132
-0.991078, 393, 145, 456, 208
-0.991078, 265, 257, 328, 320
-0.991078, 353, 237, 416, 268
-0.991083, 329, 229, 392, 260
-0.99111, 81, 317, 144, 348
-0.991124, 329, 125, 392, 156
-0.991125, 401, 193, 464, 224
-0.991136, 265, 73, 328, 136
-0.99117, 145, 229, 208, 260
-0.991226, 129, 137, 384, 200
-0.991232, 353, 1, 416, 375
-0.991234, 345, 69, 408, 100
-0.991235, 129, 193, 384, 256
-0.991237, 417, 205, 480, 236
-0.991238, 17, 189, 80, 220
-0.991239, 353, 33, 416, 96
-0.991268, 241, 193, 304, 224
-0.991273, 249, 125, 312, 156
-0.99128, 345, 209, 408, 240
-0.99129, 469, 225, 500, 352
-0.991312, 9, 177, 72, 208
-0.991324, 29, 201, 60, 264
-0.991332, 41, 281, 72, 344
-0.991338, 113, 213, 176, 244
-0.991377, 17, 249, 48, 312
-0.991393, 289, 169, 352, 232
-0.991427, 257, 173, 320, 204
-0.991471, 297, 293, 360, 324
-0.991472, 225, 137, 288, 168
-0.991476, 73, 297, 136, 328
-0.991509, 9, 213, 72, 244
-0.991522, 233, 161, 296, 192
-0.991528, 305, 305, 368, 336
-0.991533, 153, 129, 216, 160
-0.99154, 389, 209, 420, 336
-0.991542, 137, 81, 200, 112
-0.991549, 413, 305, 444, 368
-0.991557, 81, 177, 112, 304
-0.991558, 289, 1, 352, 256
-0.991565, 357, 65, 388, 192
-0.991575, 337, 33, 400, 288
-0.991578, 465, 249, 496, 312
-0.991592, 9, 201, 72, 232
-0.991623, 345, 57, 408, 88
-0.991625, 41, 301, 104, 332
-0.991637, 121, 301, 184, 332
-0.991638, 65, 269, 128, 300
-0.991642, 313, 177, 376, 208
-0.991644, 329, 113, 392, 144
-0.991645, 377, 313, 408, 375
-0.991676, 161, 153, 224, 184
-0.991689, 353, 321, 416, 352
-0.991695, 425, 189, 488, 220
-0.991702, 201, 289, 264, 352
-0.991724, 337, 309, 400, 340
-0.991759, 97, 57, 160, 120
-0.991759, 185, 249, 248, 280
-0.991777, 425, 221, 488, 252
-0.991793, 9, 273, 72, 304
-0.9918, 289, 101, 352, 132
-0.991827, 121, 193, 184, 224
-0.991829, 145, 289, 208, 320
-0.991847, 361, 341, 424, 372
-0.991848, 285, 129, 316, 256
-0.991857, 209, 173, 272, 204
-0.99186, 49, 217, 112, 280
-0.99188, 289, 277, 352, 308
-0.991882, 57, 313, 120, 344
-0.991886, 305, 233, 368, 264
-0.991891, 305, 265, 432, 328
-0.991895, 401, 129, 464, 375
-0.991896, 209, 153, 240, 184
-0.991927, 377, 257, 440, 288
-0.991938, 305, 205, 368, 236
-0.991939, 329, 249, 392, 280
-0.991941, 145, 109, 208, 140
-0.991963, 105, 321, 168, 352
-0.991984, 1, 237, 64, 268
-0.992014, 185, 189, 216, 220
-0.992022, 289, 89, 352, 120
-0.992035, 177, 33, 240, 160
-0.992044, 145, 301, 208, 332
-0.99205, 57, 285, 120, 316
-0.992071, 9, 253, 72, 284
-0.992109, 177, 209, 208, 240
-0.992111, 105, 249, 168, 280
-0.992117, 433, 289, 496, 352
-0.992126, 129, 161, 384, 224
-0.99213, 1, 225, 64, 256
-0.992132, 265, 113, 328, 144
-0.992143, 65, 333, 128, 364
-0.992159, 49, 245, 112, 276
-0.992172, 321, 73, 352, 104
-0.992173, 73, 221, 136, 252
-0.992177, 357, 165, 388, 196
-0.992191, 297, 133, 328, 164
-0.992192, 417, 269, 480, 300
-0.992197, 33, 261, 96, 292
-0.992199, 161, 273, 224, 304
-0.992201, 329, 329, 392, 360
-0.992217, 329, 293, 392, 324
-0.992217, 313, 153, 376, 184
-0.992229, 337, 125, 368, 156
-0.992232, 193, 33, 256, 288
-0.992238, 65, 217, 320, 280
-0.99225, 305, 245, 368, 276
-0.992252, 17, 285, 80, 316
-0.992253, 425, 233, 488, 264
-0.992262, 305, 189, 368, 220
-0.992272, 285, 153, 316, 184
-0.992277, 137, 313, 200, 375
-0.99228, 345, 153, 376, 184
-0.992281, 201, 201, 232, 232
-0.992321, 197, 189, 228, 220
-0.992338, 165, 197, 196, 228
-0.992341, 345, 177, 376, 208
-0.992349, 281, 125, 312, 156
-0.992369, 197, 165, 228, 196
-0.992377, 189, 201, 220, 232
-0.992378, 153, 213, 184, 244
-0.992393, 365, 181, 396, 212
-0.992406, 225, 209, 256, 240
-0.992419, 349, 57, 380, 88
-0.992421, 193, 145, 224, 176
-0.992434, 317, 129, 348, 160
-0.99245, 169, 221, 200, 252
-0.992462, 321, 97, 352, 128
-0.992475, 41, 169, 72, 200
-0.992475, 93, 237, 124, 268
-0.992486, 361, 197, 392, 228
-0.99249, 233, 197, 264, 228
-0.99249, 145, 209, 272, 240
-0.992491, 205, 141, 236, 172
-0.992496, 281, 137, 312, 168
-0.992499, 197, 177, 228, 208
-0.992506, 233, 241, 296, 368
-0.992523, 173, 245, 204, 276
-0.992531, 273, 165, 304, 196
-0.992546, 337, 77, 368, 108
-0.992548, 293, 117, 324, 148
-0.992568, 165, 209, 196, 240
-0.992569, 245, 197, 276, 228
-0.992571, 321, 33, 352, 160
-0.99259, 33, 181, 64, 212
-0.992597, 389, 245, 420, 276
-0.992604, 185, 129, 216, 160
-0.992609, 269, 141, 300, 172
-0.992613, 229, 145, 260, 176
-0.992616, 369, 237, 400, 268
-0.992627, 117, 225, 148, 256
-0.992629, 105, 233, 136, 264
-0.992642, 345, 137, 376, 168
-0.992642, 437, 189, 468, 220
-0.992663, 385, 169, 416, 200
-0.992664, 185, 241, 216, 272
-0.992671, 233, 221, 264, 252
-0.992689, 137, 169, 168, 200
-0.992697, 337, 189, 464, 220
-0.992704, 53, 165, 84, 196
-0.992705, 217, 221, 248, 252
-0.99271, 105, 221, 136, 252
-0.992718, 141, 217, 172, 248
-0.992719, 305, 117, 336, 148
-0.992726, 369, 249, 400, 280
-0.992737, 445, 201, 476, 232
-0.992747, 217, 197, 248, 228
-0.992748, 261, 181, 292, 212
-0.992755, 333, 89, 364, 120
-0.992763, 149, 65, 180, 96
-0.992763, 269, 129, 300, 160
-0.992765, 213, 169, 244, 200
-0.992766, 13, 229, 44, 260
-0.992768, 285, 165, 316, 196
-0.992771, 425, 181, 456, 212
-0.992777, 145, 1, 208, 128
-0.992781, 217, 141, 248, 172
-0.992781, 197, 221, 228, 252
-0.992787, 373, 169, 404, 200
-0.992795, 297, 145, 328, 176
-0.992799, 245, 209, 276, 240
-0.9928, 353, 45, 384, 76
-0.992806, 305, 85, 336, 116
-0.992806, 153, 181, 184, 212
-0.992813, 241, 289, 304, 352
-0.992823, 17, 197, 48, 228
-0.992824, 33, 241, 288, 304
-0.992831, 337, 189, 368, 220
-0.992837, 97, 49, 224, 112
-0.992841, 249, 137, 280, 168
-0.992846, 93, 157, 124, 188
-0.992846, 325, 117, 356, 148
-0.992848, 377, 185, 408, 216
-0.992851, 349, 73, 380, 104
-0.99286, 49, 181, 80, 212
-0.992875, 373, 221, 404, 252
-0.992878, 77, 157, 108, 188
-0.992878, 173, 257, 204, 288
-0.992882, 181, 221, 212, 252
-0.992882, 157, 85, 188, 116
-0.992895, 329, 201, 360, 232
-0.992907, 401, 173, 432, 204
-0.992908, 85, 249, 116, 280
-0.992909, 257, 193, 288, 224
-0.992914, 153, 229, 184, 260
-0.992923, 213, 209, 244, 240
-0.992926, 209, 233, 240, 264
-0.992928, 113, 161, 144, 192
-0.992933, 209, 181, 240, 212
-0.992933, 65, 161, 96, 192
-0.992935, 453, 261, 484, 292
-0.992935, 273, 177, 304, 208
-0.992936, 369, 281, 496, 344
-0.99294, 161, 245, 192, 276
-0.992945, 225, 161, 256, 192
-0.992947, 321, 85, 352, 116
-0.992953, 333, 141, 364, 172
-0.992957, 261, 169, 292, 200
-0.992959, 361, 65, 392, 96
-0.992959, 353, 317, 384, 348
-0.992971, 161, 65, 192, 96
-0.992972, 129, 221, 160, 252
-0.992977, 449, 277, 480, 308
-0.992977, 453, 221, 484, 252
-0.992984, 257, 125, 384, 156
-0.992985, 137, 65, 168, 96
-0.99299, 389, 257, 420, 288
-0.992992, 333, 65, 364, 96
-0.992995, 329, 293, 360, 324
-0.992999, 169, 117, 200, 148
-0.993, 333, 161, 364, 192
-0.993, 173, 233, 204, 264
-0.993, 413, 177, 444, 208
-0.993003, 453, 245, 484, 276
-0.993008, 97, 249, 128, 280
-0.993015, 189, 201, 204, 264
-0.993015, 269, 161, 300, 288
-0.993016, 177, 65, 208, 96
-0.993017, 253, 149, 284, 180
-0.99302, 189, 253, 220, 284
-0.993026, 453, 233, 484, 264
-0.993028, 337, 305, 368, 336
-0.99303, 273, 153, 304, 184
-0.993032, 17, 261, 48, 292
-0.993034, 13, 217, 44, 248
-0.993035, 317, 233, 348, 264
-0.993058, 1, 217, 500, 280
-0.993131, 33, 137, 288, 200
-0.993176, 81, 237, 208, 268
-0.993177, 355, 161, 370, 224
-0.993185, 241, 33, 368, 96
-0.993221, 355, 137, 370, 200
-0.993227, 361, 57, 424, 120
-0.993246, 1, 177, 500, 240
-0.993285, 281, 1, 344, 375
-0.99329, 1, 185, 256, 248
-0.993294, 305, 241, 336, 368
-0.99333, 193, 141, 320, 172
-0.993363, 73, 129, 104, 256
-0.9935, 161, 225, 416, 288
-0.993617, 363, 145, 378, 208
-0.993647, 369, 153, 496, 216
-0.993671, 1, 137, 500, 200
-0.993687, 257, 193, 320, 320
-0.993697, 113, 221, 240, 252
-0.993698, 353, 49, 368, 112
-0.993715, 225, 201, 480, 264
-0.993723, 161, 197, 288, 228
-0.99377, 209, 169, 224, 232
-0.993797, 345, 121, 360, 184
-0.993859, 333, 89, 348, 152
-0.993922, 49, 161, 176, 192
-0.993945, 49, 177, 176, 208
-0.993962, 213, 97, 244, 224
-0.993994, 1, 1, 256, 128
-0.993999, 1, 241, 500, 304
-0.994, 17, 1, 80, 375
-0.994005, 225, 153, 480, 216
-0.994061, 233, 1, 296, 375
-0.994096, 73, 1, 136, 375
-0.994114, 273, 137, 400, 168
-0.994127, 323, 97, 338, 160
-0.99414, 219, 153, 234, 216
-0.99415, 129, 173, 256, 204
-0.994155, 225, 121, 480, 184
-0.994219, 339, 121, 354, 184
-0.994222, 53, 177, 84, 304
-0.994223, 225, 201, 240, 264
-0.994267, 195, 177, 210, 240
-0.994289, 321, 169, 448, 200
-0.994306, 459, 241, 474, 304
-0.994324, 161, 57, 416, 120
-0.994423, 325, 65, 340, 128
-0.994435, 9, 97, 72, 224
-0.99445, 281, 137, 296, 200
-0.994457, 385, 113, 416, 240
-0.994491, 215, 129, 230, 192
-0.994498, 203, 193, 218, 256
-0.994523, 433, 225, 464, 352
-0.994533, 361, 49, 376, 112
-0.994537, 97, 1, 160, 375
-0.994576, 369, 97, 432, 352
-0.994588, 175, 201, 190, 264
-0.994602, 379, 209, 394, 272
-0.994624, 207, 145, 222, 208
-0.994631, 177, 161, 304, 192
-0.994638, 305, 33, 336, 160
-0.994662, 41, 97, 104, 224
-0.994672, 449, 145, 480, 272
-0.994688, 129, 185, 256, 216
-0.994693, 177, 185, 304, 216
-0.99475, 33, 281, 288, 344
-0.994797, 215, 185, 230, 248
-0.994818, 195, 201, 210, 264
-0.994825, 237, 201, 252, 264
-0.994853, 159, 177, 174, 240
-0.994856, 291, 121, 306, 184
-0.99487, 241, 149, 368, 180
-0.994872, 129, 233, 256, 264
-0.994873, 129, 161, 256, 192
-0.994875, 373, 169, 388, 232
-0.994888, 49, 41, 176, 104
-0.994891, 347, 49, 362, 112
-0.994905, 313, 105, 328, 168
-0.99491, 193, 121, 208, 184
-0.994997, 421, 225, 452, 352
-0.995004, 345, 153, 360, 216
-0.995006, 149, 33, 180, 160
-0.995014, 165, 185, 180, 248
-0.995014, 309, 193, 340, 320
-0.995023, 97, 33, 160, 288
-0.995059, 193, 129, 320, 160
-0.995074, 129, 289, 384, 352
-0.99508, 339, 73, 354, 136
-0.995097, 307, 105, 322, 168
-0.995136, 225, 153, 240, 216
-0.995143, 297, 113, 312, 176
-0.995148, 459, 265, 474, 328
-0.995176, 39, 177, 54, 240
-0.99519, 347, 177, 362, 240
-0.995204, 401, 241, 432, 368
-0.995213, 129, 149, 256, 180
-0.995223, 201, 145, 216, 208
-0.995231, 129, 249, 256, 280
-0.995246, 353, 73, 368, 136
-0.995272, 97, 209, 224, 240
-0.995296, 181, 201, 196, 264
-0.995298, 33, 305, 288, 368
-0.995308, 383, 185, 398, 248
-0.995311, 275, 129, 290, 192
-0.995332, 93, 241, 108, 304
-0.995333, 65, 249, 192, 280
-0.995337, 417, 113, 448, 240
-0.995351, 167, 217, 182, 280
-0.995364, 289, 245, 416, 276
-0.995382, 205, 241, 236, 368
-0.995383, 107, 217, 122, 280
-0.995385, 115, 153, 130, 216
-0.99539, 437, 129, 468, 256
-0.995415, 17, 233, 144, 264
-0.995417, 459, 201, 474, 264
-0.995421, 275, 161, 290, 224
-0.995435, 465, 217, 480, 280
-0.995435, 179, 73, 194, 136
-0.995438, 67, 153, 82, 216
-0.995447, 437, 177, 452, 240
-0.995453, 49, 65, 176, 128
-0.995454, 171, 57, 186, 120
-0.995463, 231, 209, 246, 272
-0.995488, 243, 193, 258, 256
-0.995488, 445, 185, 460, 248
-0.995524, 333, 121, 348, 184
-0.995526, 123, 153, 138, 216
-0.995555, 321, 65, 448, 96
-0.995555, 79, 153, 94, 216
-0.995556, 391, 225, 406, 288
-0.995568, 161, 81, 416, 144
-0.995569, 101, 233, 116, 296
-0.995571, 317, 81, 332, 144
-0.995576, 23, 193, 38, 256
-0.995594, 417, 169, 432, 232
-0.995595, 181, 97, 196, 160
-0.99561, 241, 181, 368, 212
-0.995614, 45, 241, 76, 368
-0.995618, 45, 169, 60, 232
-0.995623, 423, 169, 438, 232
-0.995634, 209, 217, 224, 280
-0.995635, 429, 177, 444, 240
-0.995635, 157, 201, 172, 264
-0.995644, 65, 225, 192, 256
-0.995646, 129, 249, 384, 312
-0.995655, 165, 57, 180, 120
-0.995663, 177, 33, 304, 96
-0.995689, 333, 1, 364, 128
-0.995697, 177, 173, 304, 204
-0.9957, 357, 113, 372, 176
-0.995701, 267, 137, 282, 200
-0.995701, 287, 145, 302, 208
-0.99571, 361, 169, 376, 232
-0.995714, 265, 1, 328, 256
-0.995716, 303, 129, 318, 192
-0.995719, 289, 77, 416, 108
-0.995743, 145, 113, 176, 240
-0.99575, 309, 129, 324, 192
-0.995762, 345, 97, 360, 160
-0.995768, 281, 161, 296, 224
-0.99577, 55, 161, 70, 224
-0.995781, 367, 49, 382, 112
-0.995781, 149, 169, 164, 232
-0.995782, 37, 113, 68, 240
-0.995797, 465, 241, 480, 304
-0.995798, 293, 145, 308, 208
-0.995799, 233, 137, 248, 200
-0.995837, 345, 241, 376, 368
-0.995847, 371, 233, 386, 296
-0.995849, 363, 73, 378, 136
-0.995852, 225, 201, 352, 232
-0.995872, 289, 41, 416, 104
-0.995873, 365, 193, 380, 256
-0.995883, 107, 153, 122, 216
-0.995912, 251, 185, 266, 248
-0.995914, 171, 89, 186, 152
-0.995917, 129, 161, 144, 224
-0.995924, 337, 201, 464, 232
-0.995927, 29, 185, 44, 248
-0.995932, 73, 153, 88, 216
-0.995995, 151, 193, 166, 256
-0.996014, 367, 169, 382, 232
-0.99602, 257, 177, 272, 240
-0.996025, 267, 169, 282, 232
-0.996027, 339, 97, 354, 160
-0.996028, 453, 265, 468, 328
-0.996032, 453, 193, 468, 256
-0.996036, 17, 249, 144, 280
-0.996065, 33, 317, 160, 348
-0.996075, 101, 153, 116, 216
-0.996079, 185, 225, 200, 288
-0.996081, 209, 193, 224, 256
-0.996092, 345, 73, 360, 136
-0.996102, 85, 153, 100, 216
-0.996115, 93, 153, 108, 216
-0.996127, 385, 217, 400, 280
-0.996144, 185, 97, 216, 352
-0.996147, 161, 221, 288, 252
-0.996148, 187, 113, 202, 176
-0.996162, 333, 65, 348, 128
-0.996165, 331, 201, 346, 264
-0.996169, 185, 177, 200, 240
-0.996176, 121, 97, 184, 224
-0.99619, 337, 193, 352, 256
-0.996203, 353, 241, 480, 272
-0.996206, 49, 305, 176, 336
-0.996214, 207, 121, 222, 184
-0.996218, 129, 69, 256, 100
-0.996223, 221, 177, 236, 240
-0.996227, 379, 161, 394, 224
-0.996228, 193, 225, 208, 288
-0.99623, 141, 161, 156, 224
-0.996239, 201, 217, 216, 280
-0.996247, 389, 249, 404, 312
-0.996249, 353, 129, 480, 192
-0.996263, 225, 129, 240, 192
-0.996269, 257, 225, 500, 288
-0.996274, 387, 161, 402, 224
-0.996302, 257, 241, 320, 368
-0.996308, 17, 221, 144, 252
-0.996314, 273, 113, 400, 144
-0.996315, 181, 121, 196, 184
-0.996316, 33, 293, 160, 324
-0.996318, 469, 177, 500, 304
-0.996327, 275, 169, 290, 200
-0.996334, 369, 229, 496, 260
-0.996334, 113, 217, 128, 280
-0.996356, 257, 273, 500, 336
-0.996379, 241, 73, 368, 104
-0.99639, 1, 269, 128, 300
-0.996397, 97, 1, 224, 128
-0.996398, 289, 233, 416, 264
-0.996403, 401, 1, 464, 375
-0.996403, 371, 313, 386, 375
-0.996406, 231, 161, 246, 224
-0.996412, 321, 257, 448, 288
-0.996417, 351, 113, 366, 176
-0.996418, 113, 197, 240, 228
-0.996426, 257, 73, 500, 136
-0.996449, 1, 281, 128, 312
-0.996501, 289, 221, 416, 252
-0.996523, 249, 97, 280, 224
-0.996549, 205, 129, 236, 375
-0.996554, 1, 173, 128, 204
-0.996572, 209, 225, 336, 256
-0.996575, 273, 169, 400, 200
-0.996588, 225, 213, 352, 244
-0.996599, 209, 241, 336, 272
-0.9966, 369, 173, 496, 204
-0.99662, 1, 305, 500, 368
-0.996657, 249, 197, 264, 228
-0.996669, 293, 149, 308, 180
-0.996671, 337, 317, 464, 348
-0.996716, 257, 17, 500, 144
-0.996755, 353, 153, 368, 184
-0.99677, 225, 297, 480, 360
-0.996781, 281, 65, 312, 192
-0.996796, 113, 313, 240, 344
-0.996808, 289, 149, 416, 180
-0.996808, 257, 1, 320, 375
-0.996808, 393, 241, 408, 272
-0.996822, 145, 137, 272, 168
-0.996822, 165, 65, 196, 320
-0.996847, 337, 213, 464, 244
-0.996853, 305, 125, 432, 156
-0.996881, 303, 137, 318, 168
-0.996906, 281, 161, 296, 192
-0.996942, 81, 281, 208, 312
-0.996947, 289, 197, 416, 228
-0.996953, 1, 265, 500, 328
-0.996962, 267, 177, 282, 208
-0.996966, 177, 113, 304, 144
-0.996972, 375, 177, 390, 208
-0.996981, 145, 261, 272, 292
-0.997021, 81, 293, 208, 324
-0.997024, 65, 269, 192, 300
-0.997029, 257, 249, 500, 312
-0.997032, 65, 65, 192, 96
-0.997047, 257, 189, 272, 220
-0.997048, 369, 253, 496, 284
-0.997052, 355, 165, 370, 196
-0.997053, 425, 129, 488, 375
-0.997059, 199, 189, 214, 220
-0.997083, 97, 25, 224, 88
-0.997116, 215, 161, 230, 192
-0.997116, 353, 129, 384, 375
-0.99712, 223, 157, 238, 188
-0.99714, 317, 65, 348, 320
-0.99715, 357, 137, 372, 168
-0.99716, 377, 1, 440, 375
-0.99716, 217, 1, 280, 256
-0.997167, 257, 97, 500, 160
-0.997175, 337, 33, 368, 288
-0.997191, 1, 129, 64, 375
-0.997191, 241, 205, 256, 236
-0.997197, 287, 153, 302, 184
-0.9972, 273, 57, 400, 88
-0.997204, 129, 33, 384, 96
-0.997214, 309, 129, 324, 160
-0.997224, 95, 241, 110, 272
-0.997229, 209, 253, 336, 284
-0.997241, 321, 293, 448, 324
-0.997246, 343, 125, 358, 156
-0.997253, 269, 65, 300, 192
-0.997253, 33, 65, 288, 128
-0.997259, 191, 209, 206, 240
-0.99726, 145, 273, 272, 304
-0.997262, 369, 185, 384, 216
-0.997272, 459, 269, 474, 300
-0.997286, 253, 193, 284, 320
-0.997293, 325, 73, 340, 104
-0.997315, 207, 145, 222, 176
-0.997316, 181, 209, 196, 240
-0.997327, 125, 65, 156, 192
-0.997329, 365, 165, 380, 196
-0.997335, 353, 73, 368, 104
-0.997359, 17, 209, 144, 240
-0.997359, 297, 137, 312, 168
-0.997361, 207, 173, 222, 204
-0.997363, 357, 57, 372, 88
-0.997373, 365, 61, 380, 92
-0.997394, 129, 297, 256, 328
-0.997398, 163, 217, 178, 248
-0.997405, 339, 73, 354, 104
-0.997406, 289, 185, 416, 216
-0.997428, 215, 205, 230, 236
-0.997428, 213, 149, 228, 180
-0.997441, 199, 201, 214, 232
-0.997452, 453, 277, 468, 308
-0.997464, 65, 113, 192, 176
-0.997483, 49, 173, 64, 204
-0.997484, 385, 245, 400, 276
-0.997485, 189, 189, 204, 220
-0.997487, 321, 341, 448, 372
-0.99749, 347, 141, 362, 172
-0.9975, 235, 217, 250, 248
-0.997506, 175, 213, 190, 244
-0.997508, 379, 205, 394, 236
-0.997511, 363, 153, 378, 184
-0.997528, 349, 57, 364, 88
-0.997542, 81, 77, 208, 108
-0.997546, 49, 333, 176, 364
-0.997552, 399, 249, 414, 280
-0.997554, 129, 113, 384, 176
-0.997559, 211, 193, 226, 224
-0.99756, 189, 125, 204, 156
-0.997566, 257, 305, 384, 336
-0.997569, 371, 237, 386, 268
-0.997582, 1, 189, 128, 220
-0.997604, 357, 33, 388, 288
-0.997616, 173, 245, 188, 276
-0.99762, 461, 249, 476, 280
-0.997623, 299, 117, 314, 148
-0.997625, 225, 205, 240, 236
-0.997632, 161, 205, 176, 236
-0.997644, 181, 105, 196, 136
-0.997663, 289, 121, 304, 152
-0.997665, 43, 177, 58, 208
-0.997675, 369, 281, 496, 312
-0.997678, 179, 245, 194, 276
-0.997682, 385, 169, 400, 200
-0.997683, 113, 125, 240, 156
-0.997694, 219, 141, 234, 172
-0.997704, 191, 229, 206, 260
-0.99771, 287, 133, 302, 164
-0.99771, 265, 189, 280, 220
-0.997711, 293, 193, 324, 320
-0.997713, 275, 181, 290, 212
-0.997721, 201, 161, 216, 192
-0.997727, 385, 185, 400, 216
-0.997727, 299, 149, 314, 180
-0.997733, 105, 233, 120, 264
-0.997734, 359, 77, 374, 108
-0.997739, 289, 329, 416, 360
-0.997746, 225, 225, 240, 256
-0.997755, 289, 209, 416, 240
-0.997761, 289, 89, 416, 120
-0.997768, 361, 41, 376, 72
-0.99777, 37, 177, 52, 208
-0.997772, 173, 225, 188, 256
-0.997775, 321, 113, 448, 144
-0.997781, 345, 69, 360, 100
-0.997787, 209, 265, 336, 296
-0.997797, 333, 89, 348, 120
-0.997811, 209, 161, 224, 192
-0.997818, 389, 229, 404, 260
-0.997823, 155, 217, 170, 248
-0.997824, 173, 77, 188, 108
-0.997826, 183, 197, 198, 228
-0.997827, 341, 149, 356, 180
-0.99783, 1, 161, 128, 192
-0.997831, 219, 177, 234, 208
-0.997836, 261, 137, 276, 168
-0.997836, 241, 93, 368, 124
-0.997842, 69, 177, 100, 304
-0.997851, 63, 165, 78, 196
-0.997852, 205, 201, 220, 232
-0.997852, 13, 129, 44, 256
-0.997857, 117, 229, 132, 260
-0.997858, 183, 221, 198, 252
-0.997859, 165, 285, 180, 316
-0.99786, 203, 133, 218, 164
-0.997862, 197, 145, 212, 176
-0.997863, 323, 97, 338, 128
-0.997863, 331, 125, 346, 156
-0.997869, 1, 305, 128, 336
-0.997871, 145, 285, 272, 316
-0.997871, 337, 125, 352, 156
-0.997873, 129, 313, 384, 375
-0.99788, 231, 145, 246, 176
-0.997883, 305, 117, 320, 148
-0.997883, 197, 221, 212, 252
-0.997886, 319, 117, 334, 148
-0.997887, 213, 137, 228, 168
-0.99789, 365, 73, 380, 104
-0.997892, 215, 221, 230, 252
-0.997893, 255, 201, 270, 232
-0.997894, 305, 305, 432, 336
-0.9979, 257, 317, 384, 348
-0.997901, 55, 169, 70, 200
-0.997905, 289, 165, 304, 196
-0.997907, 143, 221, 158, 252
-0.997907, 235, 205, 250, 236
-0.997908, 177, 93, 192, 124
-0.997912, 317, 81, 332, 112
-0.997913, 29, 185, 44, 216
-0.997916, 87, 253, 102, 284
-0.997925, 249, 49, 312, 176
-0.997936, 171, 201, 186, 232
-0.99794, 253, 141, 268, 172
-0.997942, 225, 169, 352, 200
-0.997945, 269, 133, 284, 164
-0.997946, 357, 177, 372, 208
-0.997952, 337, 129, 368, 375
-0.997954, 289, 101, 416, 132
-0.997955, 125, 97, 156, 352
-0.997955, 281, 173, 296, 204
-0.997957, 195, 177, 210, 208
-0.997958, 279, 129, 294, 160
-0.997961, 169, 213, 184, 244
-0.997963, 111, 221, 126, 252
-0.997973, 343, 85, 358, 116
-0.997973, 167, 65, 182, 96
-0.997978, 357, 17, 388, 144
-0.997979, 197, 241, 212, 272
-0.997987, 353, 65, 480, 128
-0.99799, 337, 109, 352, 140
-0.997992, 225, 145, 240, 176
-0.997996, 381, 217, 396, 248
-0.998, 185, 245, 200, 276
-0.998001, 117, 157, 132, 188
-0.998002, 261, 177, 276, 208
-0.998003, 209, 221, 224, 252
-0.998058, 269, 97, 300, 352
-0.998062, 101, 97, 132, 352
-0.998088, 353, 269, 480, 300
-0.998091, 297, 1, 360, 128
-0.998105, 321, 137, 448, 168
-0.998119, 217, 129, 248, 375
-0.998158, 49, 149, 176, 180
-0.998169, 149, 65, 180, 320
-0.998177, 85, 97, 116, 224
-0.998189, 33, 113, 288, 176
-0.998199, 49, 65, 176, 192
-0.998203, 301, 97, 332, 352
-0.998218, 225, 113, 352, 144
-0.998257, 241, 329, 368, 360
-0.998295, 1, 329, 128, 360
-0.998314, 25, 113, 56, 240
-0.998366, 1, 73, 500, 136
-0.998371, 81, 137, 208, 168
-0.998377, 369, 301, 496, 332
-0.998389, 313, 77, 376, 92
-0.998391, 241, 281, 368, 312
-0.998394, 193, 203, 256, 218
-0.998397, 105, 97, 136, 224
-0.998397, 185, 157, 248, 172
-0.998403, 113, 57, 240, 88
-0.998422, 361, 187, 424, 202
-0.998422, 81, 271, 112, 286
-0.998422, 449, 215, 480, 230
-0.998424, 345, 57, 376, 72
-0.998425, 385, 187, 416, 202
-0.998425, 117, 233, 148, 248
-0.998427, 41, 189, 72, 204
-0.998428, 337, 311, 368, 326
-0.998428, 333, 147, 364, 162
-0.998429, 337, 83, 368, 98
-0.998432, 305, 143, 336, 158
-0.998432, 17, 209, 48, 224
-0.998434, 329, 305, 360, 320
-0.998435, 185, 221, 216, 236
-0.998435, 105, 247, 136, 262
-0.998436, 149, 229, 180, 244
-0.998436, 185, 257, 216, 272
-0.998436, 185, 163, 248, 178
-0.998438, 173, 105, 204, 120
-0.998439, 157, 77, 188, 92
-0.99844, 189, 197, 220, 212
-0.998441, 85, 97, 116, 352
-0.998441, 249, 189, 280, 204
-0.998443, 373, 223, 404, 238
-0.998443, 173, 257, 204, 272
-0.998444, 177, 123, 208, 138
-0.998444, 429, 191, 460, 206
-0.998444, 265, 143, 328, 158
-0.998446, 293, 119, 324, 134
-0.998447, 361, 71, 392, 86
-0.998448, 293, 159, 324, 174
-0.998448, 365, 181, 396, 196
-0.998449, 305, 129, 368, 144
-0.998449, 209, 223, 240, 238
-0.998449, 129, 223, 160, 238
-0.998449, 285, 165, 316, 180
-0.998449, 209, 145, 272, 160
-0.998449, 361, 167, 392, 182
-0.99845, 209, 261, 240, 276
-0.998451, 445, 207, 476, 222
-0.998452, 345, 189, 376, 204
-0.998452, 209, 233, 240, 248
-0.998454, 25, 197, 56, 212
-0.998454, 189, 147, 220, 162
-0.998455, 169, 207, 200, 222
-0.998455, 201, 215, 232, 230
-0.998455, 153, 201, 216, 216
-0.998456, 253, 139, 284, 154
-0.998456, 189, 239, 220, 254
-0.998458, 377, 247, 408, 262
-0.998459, 437, 197, 468, 212
-0.998459, 381, 259, 412, 274
-0.998459, 341, 123, 372, 138
-0.99846, 41, 177, 72, 192
-0.998461, 221, 165, 252, 180
-0.998462, 137, 65, 168, 320
-0.998463, 289, 135, 352, 150
-0.998464, 265, 133, 296, 148
-0.998464, 169, 211, 232, 226
-0.998464, 21, 203, 52, 218
-0.998465, 233, 221, 264, 236
-0.998466, 369, 217, 400, 232
-0.998467, 369, 341, 496, 372
-0.998469, 65, 189, 192, 220
-0.99847, 193, 217, 256, 232
-0.99847, 185, 129, 216, 144
-0.998471, 361, 65, 392, 80
-0.998472, 329, 75, 360, 90
-0.998473, 213, 215, 244, 230
-0.998473, 221, 155, 252, 170
-0.998474, 117, 227, 148, 242
-0.998477, 309, 123, 340, 138
-0.998478, 121, 221, 184, 236
-0.998478, 193, 151, 256, 166
-0.998478, 265, 135, 328, 150
-0.998479, 369, 329, 496, 360
-0.998481, 105, 233, 136, 248
-0.998482, 285, 125, 316, 140
-0.998483, 193, 197, 256, 212
-0.998484, 185, 207, 216, 222
-0.998485, 105, 223, 136, 238
-0.998486, 169, 225, 232, 240
-0.998486, 373, 253, 404, 268
-0.998488, 193, 211, 256, 226
-0.998489, 89, 251, 120, 266
-0.99849, 393, 259, 424, 274
-0.998491, 169, 247, 200, 262
-0.998491, 273, 129, 336, 144
-0.998493, 89, 241, 152, 256
-0.998494, 93, 245, 124, 260
-0.998494, 321, 101, 352, 116
-0.998494, 269, 143, 300, 158
-0.998495, 97, 325, 224, 356
-0.998495, 145, 217, 208, 232
-0.998496, 345, 147, 376, 162
-0.998496, 153, 219, 184, 234
-0.998496, 97, 225, 160, 240
-0.998499, 197, 221, 228, 236
-0.998499, 349, 159, 380, 174
-0.998499, 341, 139, 372, 154
-0.998501, 317, 137, 348, 152
-0.998502, 129, 67, 192, 82
-0.998503, 329, 199, 392, 214
-0.998504, 249, 149, 312, 164
-0.998505, 265, 179, 296, 194
-0.99851, 337, 167, 400, 182
-0.998511, 89, 247, 152, 262
-0.998511, 289, 147, 352, 162
-0.998511, 249, 195, 280, 210
-0.998514, 221, 223, 252, 238
-0.998514, 349, 165, 380, 180
-0.998515, 217, 199, 248, 214
-0.998515, 345, 153, 376, 168
-0.998515, 197, 209, 228, 224
-0.998515, 353, 179, 384, 194
-0.998515, 293, 151, 324, 166
-0.998515, 305, 141, 368, 156
-0.998517, 185, 169, 248, 184
-0.998518, 337, 71, 400, 86
-0.998519, 137, 249, 200, 264
-0.998519, 193, 225, 256, 240
-0.99852, 261, 185, 292, 200
-0.99852, 217, 207, 280, 222
-0.998521, 73, 177, 136, 192
-0.998522, 345, 71, 376, 86
-0.998523, 165, 217, 196, 232
-0.998524, 197, 189, 228, 204
-0.998524, 329, 65, 392, 80
-0.998525, 281, 123, 344, 138
-0.998528, 161, 237, 224, 252
-0.998528, 337, 183, 400, 198
-0.998529, 89, 231, 152, 246
-0.99853, 209, 169, 240, 184
-0.998531, 213, 177, 244, 192
-0.998531, 313, 91, 376, 106
-0.998531, 293, 137, 324, 152
-0.998532, 337, 191, 400, 206
-0.998534, 93, 239, 124, 254
-0.998535, 353, 173, 384, 188
-0.998536, 209, 161, 224, 288
-0.998537, 281, 139, 312, 154
-0.998538, 153, 191, 216, 206
-0.998539, 169, 217, 232, 232
-0.99854, 349, 63, 380, 78
-0.998542, 361, 257, 424, 272
-0.998542, 337, 215, 400, 230
-0.998542, 349, 79, 380, 94
-0.998542, 197, 183, 228, 198
-0.998542, 225, 159, 288, 174
-0.998543, 145, 229, 208, 244
-0.998543, 169, 257, 232, 272
-0.998543, 169, 225, 200, 240
-0.998544, 293, 143, 324, 158
-0.998545, 29, 189, 60, 204
-0.998545, 25, 183, 88, 198
-0.998545, 305, 123, 368, 138
-0.998546, 313, 135, 376, 150
-0.998546, 317, 77, 348, 92
-0.998547, 281, 157, 312, 172
-0.998549, 121, 231, 184, 246
-0.998549, 73, 159, 136, 174
-0.99855, 217, 197, 280, 212
-0.99855, 269, 171, 300, 186
-0.99855, 193, 231, 256, 246
-0.99855, 297, 117, 360, 132
-0.998551, 313, 85, 376, 100
-0.998552, 237, 207, 268, 222
-0.998555, 369, 187, 400, 202
-0.998555, 177, 191, 240, 206
-0.998556, 205, 195, 236, 210
-0.998557, 177, 139, 240, 154
-0.998557, 241, 139, 304, 154
-0.998558, 113, 241, 176, 256
-0.998558, 177, 213, 208, 228
-0.998559, 401, 185, 464, 200
-0.99856, 225, 213, 256, 228
-0.998561, 193, 159, 224, 174
-0.998562, 389, 253, 420, 268
-0.998563, 161, 247, 224, 262
-0.998563, 193, 239, 256, 254
-0.998564, 345, 209, 408, 224
-0.998565, 377, 175, 440, 190
-0.998566, 89, 315, 152, 330
-0.998566, 197, 175, 228, 190
-0.998567, 201, 149, 232, 164
-0.998568, 249, 155, 312, 170
-0.998568, 137, 243, 200, 258
-0.998568, 37, 183, 68, 198
-0.998569, 185, 175, 248, 190
-0.998569, 333, 89, 364, 104
-0.99857, 209, 165, 272, 180
-0.99857, 249, 241, 280, 368
-0.99857, 69, 97, 100, 352
-0.998571, 177, 199, 208, 214
-0.998572, 321, 209, 384, 224
-0.998573, 317, 131, 348, 146
-0.998576, 237, 201, 268, 216
-0.998576, 217, 213, 280, 228
-0.998576, 41, 171, 104, 186
-0.998577, 361, 199, 392, 214
-0.998577, 369, 251, 432, 266
-0.998577, 197, 169, 228, 184
-0.998577, 153, 65, 216, 80
-0.998578, 289, 83, 352, 98
-0.99858, 209, 157, 240, 172
-0.998581, 113, 173, 176, 188
-0.998582, 265, 165, 328, 180
-0.998582, 41, 311, 104, 326
-0.998582, 197, 203, 228, 218
-0.998583, 297, 111, 360, 126
-0.998584, 313, 315, 376, 330
-0.998584, 329, 221, 392, 236
-0.998585, 185, 181, 248, 196
-0.998585, 289, 155, 352, 170
-0.998587, 145, 185, 208, 200
-0.998587, 17, 199, 80, 214
-0.998588, 153, 177, 216, 192
-0.998588, 217, 153, 280, 168
-0.998588, 337, 59, 400, 74
-0.99859, 329, 247, 392, 262
-0.99859, 313, 71, 376, 86
-0.998592, 193, 321, 320, 352
-0.998594, 329, 97, 392, 112
-0.998595, 273, 165, 304, 180
-0.998596, 217, 205, 248, 220
-0.998598, 337, 129, 368, 144
-0.998598, 145, 223, 208, 238
-0.998598, 217, 191, 280, 206
-0.998599, 161, 161, 224, 176
-0.998599, 49, 317, 112, 332
-0.9986, 209, 177, 272, 192
-0.9986, 329, 129, 392, 144
-0.998601, 177, 145, 240, 160
-0.998602, 305, 137, 336, 152
-0.998603, 17, 191, 80, 206
-0.998605, 289, 277, 416, 308
-0.998606, 161, 75, 224, 90
-0.998606, 289, 131, 320, 146
-0.998606, 329, 143, 392, 158
-0.998607, 177, 133, 240, 148
-0.998608, 223, 145, 238, 272
-0.998611, 377, 193, 440, 208
-0.998615, 9, 205, 72, 220
-0.998616, 337, 173, 400, 188
-0.998616, 161, 273, 224, 288
-0.998616, 313, 103, 376, 118
-0.998617, 409, 195, 472, 210
-0.998618, 129, 73, 192, 88
-0.998618, 185, 267, 248, 282
-0.998618, 409, 203, 472, 218
-0.998619, 353, 199, 416, 214
-0.99862, 329, 239, 392, 254
-0.99862, 329, 321, 392, 336
-0.998621, 113, 311, 176, 326
-0.998621, 153, 127, 216, 142
-0.998622, 97, 167, 160, 182
-0.998623, 209, 171, 272, 186
-0.998625, 193, 249, 256, 264
-0.998626, 121, 179, 184, 194
-0.998626, 313, 215, 376, 230
-0.998626, 191, 161, 206, 288
-0.998626, 137, 33, 168, 160
-0.998627, 305, 305, 368, 320
-0.998627, 49, 181, 112, 196
-0.998627, 417, 211, 480, 226
-0.998627, 289, 77, 352, 92
-0.998628, 137, 207, 200, 222
-0.998628, 353, 245, 416, 260
-0.998631, 305, 129, 336, 144
-0.998633, 185, 191, 216, 206
-0.998636, 1, 41, 256, 104
-0.998648, 257, 293, 384, 324
-0.998684, 49, 33, 112, 288
-0.998685, 177, 1, 208, 256
-0.998692, 209, 163, 240, 178
-0.998696, 343, 65, 358, 192
-0.998697, 17, 129, 48, 375
-0.998719, 177, 65, 304, 96
-0.998724, 209, 293, 336, 324
-0.998725, 337, 77, 464, 108
-0.998757, 459, 193, 474, 320
-0.998764, 97, 101, 224, 132
-0.998773, 353, 53, 480, 84
-0.998777, 113, 129, 144, 375
-0.998781, 353, 113, 368, 240
-0.998784, 197, 161, 212, 288
-0.99879, 191, 113, 206, 240
-0.998795, 449, 129, 480, 375
-0.998806, 273, 45, 400, 76
-0.998813, 145, 101, 272, 132
-0.998819, 217, 145, 232, 272
-0.998824, 209, 345, 336, 375
-0.998831, 53, 129, 84, 375
-0.998842, 361, 129, 376, 256
-0.998844, 349, 65, 364, 192
-0.998845, 453, 177, 468, 304
-0.998851, 339, 113, 354, 240
-0.998862, 367, 145, 382, 272
-0.998863, 223, 193, 238, 320
-0.998865, 205, 33, 236, 288
-0.998866, 183, 97, 198, 224
-0.998866, 327, 65, 342, 192
-0.998868, 377, 177, 392, 304
-0.99887, 337, 157, 464, 188
-0.998871, 365, 129, 396, 375
-0.998891, 109, 209, 124, 336
-0.998892, 129, 81, 256, 112
-0.998895, 345, 145, 360, 272
-0.998901, 203, 161, 218, 288
-0.998905, 433, 129, 464, 375
-0.99892, 101, 241, 116, 368
-0.998921, 257, 129, 288, 375
-0.998925, 229, 161, 244, 288
-0.998935, 337, 193, 352, 320
-0.998942, 281, 129, 312, 375
-0.998947, 217, 193, 232, 320
-0.998967, 257, 49, 500, 112
-0.998992, 273, 341, 400, 372
-0.998994, 361, 65, 376, 192
-0.998995, 97, 345, 224, 375
-0.998998, 199, 113, 214, 240
-0.999028, 333, 65, 348, 192
-0.999047, 387, 161, 402, 288
-0.999053, 97, 113, 224, 144
-0.999062, 355, 65, 370, 192
-0.999063, 41, 1, 104, 375
-0.999063, 465, 209, 480, 336
-0.999067, 433, 1, 496, 375
-0.999073, 161, 177, 176, 304
-0.999077, 167, 177, 182, 304
-0.999087, 441, 161, 456, 288
-0.999096, 453, 225, 468, 352
-0.999099, 253, 129, 268, 256
-0.9991, 211, 209, 226, 336
-0.9991, 177, 309, 304, 340
-0.999101, 17, 193, 32, 320
-0.999111, 141, 161, 156, 288
-0.999113, 95, 209, 110, 336
-0.999119, 371, 225, 386, 352
-0.999119, 321, 81, 336, 208
-0.999119, 173, 177, 188, 304
-0.999127, 283, 113, 298, 240
-0.999132, 35, 177, 50, 304
-0.999136, 205, 113, 220, 240
-0.999138, 459, 241, 474, 368
-0.999146, 101, 177, 116, 304
-0.99915, 447, 177, 462, 304
-0.999154, 185, 177, 200, 304
-0.999154, 161, 333, 288, 364
-0.999156, 333, 129, 348, 256
-0.999169, 41, 129, 72, 375
-0.999173, 239, 161, 254, 288
-0.999173, 169, 241, 184, 368
-0.999179, 23, 177, 38, 304
-0.999184, 229, 113, 244, 240
-0.999185, 391, 209, 406, 336
-0.999189, 115, 209, 130, 336
-0.999189, 233, 129, 264, 375
-0.999189, 161, 345, 288, 375
-0.999219, 295, 97, 310, 224
-0.999224, 163, 241, 178, 368
-0.999226, 179, 49, 194, 176
-0.999231, 435, 161, 450, 288
-0.999233, 111, 161, 126, 288
-0.999235, 195, 209, 210, 336
-0.999242, 267, 129, 282, 256
-0.999243, 329, 193, 344, 320
-0.999246, 385, 209, 400, 336
-0.999249, 179, 193, 194, 320
-0.999249, 193, 277, 320, 308
-0.999251, 155, 193, 170, 320
-0.999251, 319, 209, 334, 336
-0.999257, 135, 145, 150, 272
-0.999258, 121, 209, 136, 336
-0.999259, 245, 193, 260, 320
-0.99926, 53, 161, 68, 288
-0.999263, 31, 241, 46, 368
-0.999283, 175, 241, 190, 368
-0.999283, 305, 113, 320, 240
-0.999285, 173, 33, 188, 160
-0.999289, 205, 209, 220, 336
-0.99929, 191, 49, 206, 176
-0.999305, 361, 177, 376, 304
-0.999305, 233, 209, 248, 336
-0.999307, 101, 129, 116, 256
-0.999311, 201, 65, 232, 192
-0.999321, 85, 241, 100, 368
-0.999325, 333, 241, 348, 368
-0.999326, 235, 113, 250, 240
-0.999326, 243, 113, 258, 240
-0.999328, 147, 145, 162, 272
-0.999334, 289, 129, 304, 256
-0.999343, 351, 161, 366, 288
-0.999346, 137, 209, 152, 336
-0.999349, 29, 177, 44, 304
-0.999364, 129, 129, 144, 256
-0.999366, 185, 33, 200, 160
-0.999369, 177, 97, 192, 224
-0.99937, 117, 129, 132, 256
-0.999375, 311, 81, 326, 208
-0.999379, 131, 209, 146, 336
-0.99938, 261, 241, 292, 368
-0.99939, 471, 209, 486, 336
-0.99939, 261, 177, 276, 304
-0.999397, 367, 97, 382, 224
-0.999398, 375, 129, 390, 256
-0.9994, 29, 129, 60, 375
-0.9994, 277, 97, 292, 224
-0.999403, 79, 241, 94, 368
-0.999403, 429, 145, 444, 272
-0.999403, 327, 113, 342, 240
-0.999407, 397, 225, 412, 352
-0.999416, 377, 129, 408, 375
-0.999416, 311, 129, 326, 256
-0.999423, 351, 17, 366, 144
-0.999425, 61, 129, 76, 256
-0.999432, 343, 193, 358, 320
-0.999433, 143, 209, 158, 336
-0.999435, 197, 65, 212, 192
-0.999443, 123, 161, 138, 288
-0.999445, 395, 161, 410, 288
-0.999447, 317, 129, 332, 256
-0.999448, 183, 241, 198, 368
-0.99945, 153, 145, 168, 272
-0.99945, 379, 225, 394, 352
-0.99945, 211, 113, 226, 240
-0.999452, 363, 241, 378, 368
-0.999457, 275, 161, 290, 288
-0.999458, 171, 81, 186, 208
-0.999459, 217, 97, 232, 224
-0.999461, 53, 241, 68, 368
-0.999462, 93, 161, 108, 288
-0.999464, 39, 241, 54, 368
-0.99947, 11, 225, 26, 352
-0.999475, 361, 17, 376, 144
-0.999478, 155, 241, 170, 368
-0.999479, 149, 241, 164, 368
-0.999554, 65, 81, 128, 208
-0.99956, 273, 241, 304, 368
-0.99961, 189, 1, 220, 256
-0.999619, 125, 1, 156, 256
-0.999629, 389, 231, 404, 246
-0.99963, 303, 119, 318, 134
-0.999632, 181, 197, 196, 212
-0.999633, 365, 165, 380, 180
-0.999633, 269, 191, 284, 206
-0.999634, 295, 165, 310, 180
-0.999635, 215, 205, 230, 220
-0.999635, 345, 307, 360, 322
-0.999636, 457, 283, 472, 298
-0.999639, 159, 215, 174, 230
-0.999639, 47, 173, 62, 188
-0.999639, 223, 221, 238, 236
-0.999639, 27, 199, 42, 214
-0.999639, 399, 261, 414, 276
-0.99964, 393, 259, 408, 274
-0.99964, 43, 197, 58, 212
-0.99964, 285, 33, 316, 288
-0.999641, 183, 209, 198, 224
-0.999641, 53, 169, 68, 184
-0.999641, 211, 195, 226, 210
-0.999641, 395, 253, 410, 268
-0.999643, 29, 193, 44, 208
-0.999643, 189, 205, 204, 220
-0.999643, 165, 291, 180, 306
-0.999643, 107, 235, 122, 250
-0.999644, 245, 129, 276, 375
-0.999645, 309, 141, 324, 156
-0.999645, 385, 257, 400, 272
-0.999645, 319, 77, 334, 92
-0.999646, 215, 223, 230, 238
-0.999647, 285, 155, 300, 170
-0.999647, 215, 211, 230, 226
-0.999647, 359, 87, 374, 102
-0.999648, 41, 177, 56, 192
-0.999649, 207, 201, 222, 216
-0.999649, 355, 71, 370, 86
-0.999649, 327, 91, 342, 106
-0.99965, 275, 187, 290, 202
-0.999652, 215, 151, 230, 166
-0.999653, 189, 221, 204, 236
-0.999654, 367, 171, 382, 186
-0.999655, 181, 215, 196, 230
-0.999655, 205, 149, 220, 164
-0.999656, 377, 185, 392, 200
-0.999656, 461, 275, 476, 290
-0.999658, 241, 199, 256, 214
-0.999659, 283, 177, 298, 192
-0.99966, 45, 185, 60, 200
-0.999661, 387, 239, 402, 254
-0.999662, 181, 223, 196, 238
-0.999665, 189, 193, 204, 208
-0.999667, 459, 269, 474, 284
-0.999669, 199, 207, 214, 222
-0.999671, 177, 105, 192, 120
-0.999672, 289, 167, 304, 182
-0.999672, 99, 239, 114, 254
-0.999673, 221, 199, 236, 214
-0.999674, 275, 181, 290, 196
-0.999676, 291, 135, 306, 150
-0.999678, 363, 41, 378, 56
-0.999678, 317, 129, 332, 144
-0.999679, 181, 117, 196, 132
-0.999679, 405, 261, 420, 276
-0.99968, 355, 165, 370, 180
-0.99968, 229, 201, 244, 216
-0.999682, 217, 177, 232, 192
-0.999682, 93, 247, 108, 262
-0.999684, 379, 205, 394, 220
-0.999685, 331, 99, 346, 114
-0.999685, 313, 135, 328, 150
-0.999686, 159, 297, 174, 312
-0.999688, 341, 127, 356, 142
-0.999688, 393, 247, 408, 262
-0.999688, 371, 187, 386, 202
-0.999688, 339, 89, 354, 104
-0.99969, 343, 73, 358, 88
-0.999691, 329, 129, 344, 144
-0.999692, 239, 213, 254, 228
-0.999692, 247, 199, 262, 214
-0.999693, 53, 181, 68, 196
-0.999693, 383, 251, 398, 266
-0.999693, 353, 159, 368, 174
-0.999694, 357, 171, 372, 186
-0.999694, 277, 163, 292, 178
-0.999696, 381, 221, 396, 236
-0.999697, 211, 157, 226, 172
-0.9997, 367, 65, 382, 80
-0.9997, 211, 163, 226, 178
-0.999702, 221, 205, 236, 220
-0.999705, 369, 33, 400, 288
-0.999706, 187, 127, 202, 142
-0.999707, 241, 205, 256, 220
-0.999707, 349, 149, 364, 164
-0.999709, 35, 199, 50, 214
-0.999709, 401, 255, 416, 270
-0.99971, 379, 215, 394, 230
-0.999712, 193, 199, 208, 214
-0.999712, 235, 223, 250, 238
-0.999713, 175, 217, 190, 232
-0.999713, 299, 151, 314, 166
-0.999713, 221, 155, 236, 170
-0.999714, 167, 219, 182, 234
-0.999717, 197, 189, 212, 204
-0.999719, 373, 67, 388, 82
-0.999721, 41, 191, 56, 206
-0.999723, 1, 113, 500, 176
-0.999729, 375, 179, 390, 194
-0.999731, 455, 277, 470, 292
-0.999732, 249, 207, 264, 222
-0.999733, 255, 197, 270, 212
-0.999733, 271, 173, 286, 188
-0.999733, 363, 73, 378, 88
-0.999736, 301, 139, 316, 154
-0.999736, 353, 77, 368, 92
-0.999737, 201, 201, 216, 216
-0.99974, 223, 163, 238, 178
-0.999742, 1, 145, 32, 272
-0.999744, 299, 131, 314, 146
-0.999754, 309, 129, 324, 144
-0.999755, 357, 139, 372, 154
-0.999759, 291, 157, 306, 172
-0.999763, 303, 145, 318, 160
-0.99977, 293, 151, 308, 166
-0.999785, 263, 191, 278, 206
-0.999786, 257, 191, 272, 206
-0.999792, 269, 185, 284, 200
-0.999808, 33, 1, 160, 128
-0.999809, 307, 135, 322, 150
-0.99981, 285, 161, 300, 176
-0.99981, 297, 145, 312, 160
-0.999814, 277, 169, 292, 184
-0.999815, 213, 169, 228, 184
-0.99982, 277, 175, 292, 190
-0.999827, 305, 1, 336, 256
-0.999828, 263, 185, 278, 200
-0.999833, 269, 179, 284, 194
-0.999843, 283, 167, 298, 182
-0.999849, 265, 1, 296, 256
-0.99988, 225, 33, 256, 288
-0.999901, 421, 129, 452, 375
-0.999943, 469, 97, 500, 352
-0.999944, 389, 129, 420, 375
-1, 1, 113, 128, 176
-1, 401, 129, 432, 375
-1.00001, 113, 33, 144, 288
-1.00007, 405, 113, 436, 240
-1.00017, 193, 73, 320, 136
-1.00025, 1, 129, 32, 375
-1.00027, 253, 33, 284, 288
-1.00029, 337, 17, 464, 80
-1.00046, 65, 89, 320, 152
-1.00053, 57, 33, 88, 288
-1.00053, 17, 33, 80, 288
-1.00054, 345, 1, 376, 128
-1.00059, 437, 33, 468, 288
-1.00062, 33, 33, 64, 288
-1.00063, 237, 33, 268, 288
-1.00063, 97, 1, 128, 256
-1.00076, 69, 1, 100, 256
-1.00085, 457, 33, 488, 288
-1.00087, 81, 1, 112, 256
-1.00095, 5, 33, 36, 288
-1.00096, 1, 17, 256, 80
-1.001, 289, 17, 416, 80
-1.00102, 417, 33, 448, 288
-1.00104, 45, 33, 76, 288
-1.00108, 257, 25, 500, 88
-1.00108, 161, 1, 192, 128
-1.00108, 49, 17, 176, 80
-1.00115, 21, 33, 52, 288
-1.00118, 1, 49, 500, 112
-1.00132, 293, 241, 324, 368
-1.00136, 401, 33, 432, 288
-1.00139, 381, 33, 412, 288
-1.0014, 433, 97, 496, 224
-1.00145, 469, 1, 500, 256
-1.00147, 1, 41, 128, 104
-1.00154, 257, 1, 500, 64
-1.00163, 97, 1, 352, 64
-1.00173, 57, 81, 88, 208
-1.0018, 1, 73, 128, 136
-1.00182, 293, 33, 324, 160
-1.00182, 1, 1, 128, 64
-1.00193, 97, 1, 224, 64
-1.00196, 229, 65, 260, 192
-1.00203, 185, 17, 216, 144
-1.00214, 209, 1, 336, 64
-1.00224, 145, 9, 272, 72
-1.00247, 49, 89, 176, 152
-1.0026, 1, 25, 500, 88
-1.00265, 401, 33, 464, 288
-1.00282, 281, 177, 312, 304
-1.00303, 465, 129, 496, 256
-1.00307, 345, 1, 408, 128
-1.00316, 105, 49, 168, 176
-1.00324, 1, 1, 500, 64
-1.00336, 369, 65, 400, 192
-1.00338, 73, 81, 104, 208
-1.00341, 361, 1, 424, 256
-1.00392, 117, 1, 148, 128
-1.00439, 89, 1, 152, 128
-1.00446, 73, 1, 136, 256
-1.00447, 369, 17, 496, 144
-1.0045, 241, 1, 304, 256
-1.00471, 113, 1, 176, 128
-1.00524, 1, 49, 128, 176
-1.00612, 433, 33, 496, 288
-1.00718, 273, 1, 336, 128
-1.00751, 201, 33, 264, 160
-1.00769, 369, 1, 432, 128
-1.00793, 393, 81, 456, 208
-1.01075, 33, 1, 96, 128
-1.0108, 9, 49, 72, 176
-1.01095, 57, 1, 120, 128
-1.01099, 33, 49, 96, 176
-1.01106, 249, 1, 312, 128
-1.01195, 425, 33, 488, 160
-1.01254, 401, 1, 464, 128
-1.01257, 9, 1, 72, 128
-1.01421, 369, 49, 432, 176
-1.01435, 225, 1, 288, 128
