1910
-0.494427, 1, 161, 333, 416
-0.543417, 1, 257, 333, 500
-0.693352, 1, 65, 333, 320
-0.718459, 1, 1, 333, 500
-0.784945, 33, 161, 288, 416
-0.798092, 33, 257, 288, 500
-0.821354, 1, 1, 256, 500
-0.879935, 161, 193, 288, 448
-0.906949, 209, 225, 333, 480
-0.916095, 1, 289, 333, 416
-0.918184, 81, 193, 208, 448
-0.918232, 129, 97, 256, 352
-0.925443, 1, 193, 333, 320
-0.925576, 1, 241, 333, 368
-0.926126, 1, 337, 333, 464
-0.928766, 209, 129, 333, 384
-0.930488, 1, 65, 256, 320
-0.938084, 145, 1, 272, 500
-0.938441, 1, 1, 128, 500
-0.938687, 193, 1, 320, 500
-0.939807, 33, 161, 160, 416
-0.945336, 81, 1, 208, 500
-0.947788, 33, 177, 288, 304
-0.947985, 161, 273, 288, 400
-0.949931, 17, 257, 144, 500
-0.950861, 161, 177, 288, 304
-0.951835, 153, 289, 216, 416
-0.954255, 65, 289, 320, 416
-0.957041, 193, 33, 320, 288
-0.959374, 241, 289, 304, 416
-0.959626, 209, 193, 272, 320
-0.959688, 1, 353, 256, 480
-0.960275, 81, 97, 208, 352
-0.96092, 145, 225, 272, 352
-0.961267, 33, 129, 288, 256
-0.961642, 129, 321, 192, 448
-0.962336, 33, 225, 288, 352
-0.962613, 209, 241, 333, 368
-0.962991, 201, 185, 264, 248
-0.962991, 209, 289, 333, 416
-0.963357, 209, 177, 333, 304
-0.96508, 233, 209, 296, 272
-0.96574, 129, 321, 256, 448
-0.966186, 265, 257, 328, 384
-0.966235, 81, 337, 208, 464
-0.966348, 97, 225, 224, 352
-0.966939, 137, 337, 200, 400
-0.967394, 81, 177, 208, 304
-0.967622, 81, 289, 208, 416
-0.967996, 177, 273, 240, 400
-0.968154, 1, 145, 333, 272
-0.968583, 145, 305, 208, 368
-0.968675, 153, 281, 216, 344
-0.96934, 33, 65, 160, 320
-0.969348, 273, 289, 333, 352
-0.969701, 97, 1, 224, 256
-0.970033, 129, 129, 256, 256
-0.970124, 145, 241, 208, 368
-0.970516, 273, 209, 333, 336
-0.970947, 185, 209, 248, 336
-0.970982, 201, 145, 264, 272
-0.971318, 217, 289, 280, 416
-0.971567, 209, 209, 272, 272
-0.972231, 273, 313, 333, 376
-0.972274, 241, 193, 304, 320
-0.972324, 177, 289, 240, 352
-0.972489, 177, 161, 240, 288
-0.972556, 249, 185, 312, 248
-0.972856, 241, 297, 304, 360
-0.972977, 153, 337, 216, 464
-0.973207, 17, 161, 144, 288
-0.973373, 265, 305, 328, 432
-0.973702, 209, 337, 333, 464
-0.973906, 145, 257, 208, 320
-0.974134, 105, 321, 168, 448
-0.974239, 225, 241, 288, 368
-0.974402, 113, 305, 176, 368
-0.974665, 41, 369, 104, 496
-0.974831, 273, 265, 333, 328
-0.975073, 177, 185, 240, 248
-0.975073, 217, 265, 280, 328
-0.97544, 177, 113, 240, 240
-0.975502, 157, 273, 188, 400
-0.975883, 177, 209, 240, 272
-0.976084, 149, 321, 180, 448
-0.976158, 161, 337, 224, 400
-0.976428, 177, 129, 304, 256
-0.976808, 169, 273, 200, 400
-0.977381, 105, 273, 168, 400
-0.977385, 129, 281, 192, 344
-0.977714, 145, 321, 176, 384
-0.977786, 1, 209, 128, 336
-0.978075, 205, 185, 236, 248
-0.978115, 177, 265, 240, 328
-0.978151, 161, 305, 288, 368
-0.978315, 217, 289, 280, 352
-0.978343, 225, 185, 288, 248
-0.978614, 205, 177, 236, 304
-0.97863, 177, 281, 304, 344
-0.978951, 241, 201, 272, 264
-0.978965, 113, 337, 176, 400
-0.97904, 161, 305, 192, 368
-0.979153, 105, 281, 168, 344
-0.97921, 233, 337, 296, 464
-0.979682, 193, 233, 256, 296
-0.979826, 129, 281, 256, 344
-0.979932, 273, 209, 333, 272
-0.979953, 161, 193, 288, 256
-0.980017, 185, 129, 248, 384
-0.980028, 221, 185, 252, 248
-0.980061, 173, 273, 204, 336
-0.980084, 265, 337, 328, 400
-0.980146, 241, 321, 304, 384
-0.980196, 241, 265, 304, 328
-0.980202, 17, 369, 144, 496
-0.980377, 161, 337, 192, 400
-0.980805, 177, 129, 240, 192
-0.980919, 145, 225, 208, 480
-0.980963, 177, 153, 240, 216
-0.981112, 1, 321, 128, 448
-0.981238, 1, 393, 64, 456
-0.981246, 137, 193, 200, 320
-0.981261, 181, 289, 212, 416
-0.981312, 177, 321, 240, 448
-0.981392, 205, 129, 236, 256
-0.981556, 177, 313, 240, 376
-0.981777, 297, 305, 328, 368
-0.981867, 201, 161, 264, 224
-0.981973, 209, 305, 333, 368
-0.982289, 161, 273, 192, 336
-0.982331, 173, 225, 204, 352
-0.982372, 149, 345, 180, 408
-0.982432, 225, 193, 288, 448
-0.98247, 273, 233, 333, 296
-0.982482, 1, 273, 128, 400
-0.982483, 113, 177, 176, 304
-0.982515, 129, 337, 256, 400
-0.982557, 121, 369, 184, 496
-0.98269, 177, 257, 304, 320
-0.982868, 233, 193, 264, 320
-0.982879, 81, 177, 144, 304
-0.982892, 205, 153, 236, 216
-0.983006, 233, 233, 296, 296
-0.983015, 25, 385, 88, 448
-0.983232, 189, 273, 220, 336
-0.983257, 185, 225, 248, 480
-0.983309, 133, 273, 164, 336
-0.983334, 137, 321, 168, 448
-0.983416, 273, 185, 333, 248
-0.983436, 217, 177, 248, 304
-0.983623, 33, 161, 96, 288
-0.983634, 217, 209, 248, 272
-0.98385, 1, 369, 64, 496
-0.98385, 253, 289, 284, 416
-0.984004, 149, 297, 180, 360
-0.984096, 249, 289, 280, 352
-0.984303, 81, 345, 208, 408
-0.984326, 137, 225, 200, 288
-0.984361, 181, 297, 212, 360
-0.984655, 193, 257, 224, 384
-0.984704, 193, 217, 320, 280
-0.984729, 65, 369, 128, 496
-0.984734, 161, 321, 192, 448
-0.984843, 49, 385, 112, 448
-0.984864, 257, 257, 320, 500
-0.984889, 49, 241, 176, 368
-0.984902, 145, 273, 176, 400
-0.984916, 241, 145, 304, 272
-0.984932, 153, 369, 216, 432
-0.984976, 265, 161, 328, 288
-0.985019, 121, 361, 184, 424
-0.985022, 201, 313, 264, 376
-0.985025, 301, 273, 332, 400
-0.985051, 49, 321, 112, 448
-0.985196, 129, 369, 256, 496
-0.985264, 209, 193, 333, 256
-0.985295, 149, 273, 180, 336
-0.985499, 81, 281, 208, 344
-0.985501, 193, 337, 256, 400
-0.985505, 173, 321, 204, 384
-0.985584, 169, 233, 232, 296
-0.985702, 133, 297, 164, 360
-0.985711, 25, 161, 88, 224
-0.985723, 189, 185, 220, 248
-0.985926, 57, 161, 120, 288
-0.986116, 193, 193, 224, 320
-0.986122, 65, 361, 128, 424
-0.986211, 189, 161, 220, 224
-0.986319, 253, 193, 284, 256
-0.986351, 129, 201, 192, 264
-0.986424, 129, 169, 256, 232
-0.986447, 81, 321, 208, 384
-0.986639, 205, 129, 236, 192
-0.986704, 97, 249, 224, 312
-0.986738, 157, 225, 188, 352
-0.98674, 1, 161, 64, 288
-0.986802, 261, 265, 292, 328
-0.986833, 201, 273, 232, 336
-0.986867, 273, 225, 304, 288
-0.986891, 113, 257, 176, 500
-0.986951, 25, 361, 88, 424
-0.986984, 81, 369, 208, 432
-0.987102, 113, 201, 240, 264
-0.987132, 209, 337, 272, 464
-0.987152, 193, 329, 320, 392
-0.987206, 297, 329, 328, 392
-0.987258, 273, 353, 333, 480
-0.987273, 225, 289, 256, 416
-0.987287, 137, 345, 168, 408
-0.987362, 185, 129, 216, 256
-0.987484, 229, 217, 260, 280
-0.987561, 177, 161, 304, 224
-0.987572, 153, 193, 216, 256
-0.987597, 133, 273, 164, 400
-0.987674, 177, 249, 208, 312
-0.987688, 189, 137, 220, 200
-0.98781, 177, 369, 240, 496
-0.987887, 105, 257, 168, 320
-0.988018, 73, 169, 136, 232
-0.988031, 249, 241, 280, 368
-0.988056, 145, 233, 272, 296
-0.988067, 1, 321, 64, 448
-0.988093, 105, 225, 168, 352
-0.988103, 1, 385, 128, 448
-0.988226, 289, 257, 320, 384
-0.988345, 177, 177, 208, 304
-0.988446, 205, 209, 236, 272
-0.988522, 205, 297, 236, 360
-0.988657, 225, 297, 256, 360
-0.98866, 233, 177, 264, 240
-0.988843, 105, 185, 168, 248
-0.988847, 273, 257, 304, 384
-0.988912, 169, 193, 200, 256
-0.988926, 205, 241, 236, 368
-0.988953, 269, 305, 300, 368
-0.988957, 153, 249, 184, 312
-0.989038, 89, 377, 152, 440
-0.989081, 177, 369, 240, 432
-0.989082, 41, 257, 104, 384
-0.9891, 301, 265, 332, 328
-0.989169, 169, 217, 200, 280
-0.989256, 33, 169, 160, 232
-0.989345, 173, 345, 204, 408
-0.989464, 33, 409, 96, 472
-0.989492, 281, 329, 312, 392
-0.989492, 245, 193, 276, 320
-0.989524, 81, 129, 208, 256
-0.989532, 65, 409, 192, 472
-0.989616, 177, 137, 304, 200
-0.989655, 257, 161, 320, 416
-0.989716, 129, 361, 256, 424
-0.989749, 301, 193, 332, 320
-0.98979, 237, 281, 268, 344
-0.989798, 133, 321, 164, 384
-0.98985, 285, 201, 316, 264
-0.989867, 201, 129, 264, 192
-0.990021, 273, 393, 333, 456
-0.990021, 73, 409, 136, 472
-0.990126, 273, 201, 304, 264
-0.990147, 153, 293, 216, 324
-0.990208, 145, 225, 176, 352
-0.990215, 141, 249, 172, 312
-0.990253, 1, 161, 64, 224
-0.990256, 9, 417, 72, 480
-0.990296, 237, 273, 268, 400
-0.990383, 177, 305, 240, 336
-0.990403, 273, 333, 333, 364
-0.990412, 129, 145, 256, 208
-0.990497, 285, 225, 316, 288
-0.990509, 233, 345, 296, 408
-0.990517, 241, 213, 304, 244
-0.990523, 261, 225, 292, 352
-0.990524, 89, 337, 152, 400
-0.990614, 33, 217, 160, 280
-0.990659, 145, 325, 208, 356
-0.990717, 173, 337, 204, 464
-0.990791, 209, 209, 272, 240
-0.990842, 153, 305, 216, 336
-0.990858, 289, 321, 320, 448
-0.99087, 185, 285, 248, 316
-0.990872, 237, 313, 268, 376
-0.990876, 185, 337, 216, 464
-0.990882, 225, 265, 256, 328
-0.99089, 209, 189, 272, 220
-0.990896, 145, 349, 208, 380
-0.990905, 273, 305, 304, 432
-0.990963, 225, 241, 256, 368
-0.990974, 1, 273, 128, 336
-0.990978, 257, 313, 288, 376
-0.990997, 1, 433, 128, 496
-0.990997, 89, 369, 152, 496
-0.991006, 265, 301, 328, 332
-0.991027, 165, 249, 196, 312
-0.991035, 137, 337, 200, 368
-0.991038, 97, 233, 160, 296
-0.991062, 65, 225, 128, 352
-0.991066, 161, 409, 224, 472
-0.991095, 217, 293, 280, 324
-0.991165, 49, 249, 176, 312
-0.99117, 289, 209, 320, 336
-0.991197, 129, 277, 192, 308
-0.991251, 213, 265, 244, 328
-0.991266, 1, 249, 128, 312
-0.99134, 209, 385, 333, 448
-0.991365, 241, 305, 304, 336
-0.991421, 57, 337, 120, 400
-0.991432, 217, 221, 280, 252
-0.991446, 273, 321, 333, 352
-0.991476, 153, 281, 216, 312
-0.991513, 113, 369, 176, 400
-0.991515, 241, 289, 304, 320
-0.99155, 73, 321, 136, 448
-0.991551, 1, 361, 128, 424
-0.991557, 241, 317, 304, 348
-0.991566, 241, 225, 272, 288
-0.99157, 49, 169, 112, 232
-0.99158, 217, 305, 280, 336
-0.991585, 49, 433, 112, 496
-0.991592, 265, 349, 328, 380
-0.991648, 241, 201, 304, 232
-0.991654, 265, 289, 328, 320
-0.991661, 81, 177, 208, 240
-0.991665, 237, 257, 268, 320
-0.991708, 129, 313, 192, 344
-0.99176, 161, 225, 224, 256
-0.991792, 209, 281, 272, 312
-0.991822, 113, 333, 176, 364
-0.991832, 269, 337, 300, 400
-0.991832, 177, 205, 240, 236
-0.991839, 97, 381, 160, 412
-0.991839, 289, 265, 320, 328
-0.991895, 129, 289, 192, 320
-0.99191, 257, 273, 320, 304
-0.991933, 153, 269, 216, 300
-0.991937, 129, 417, 256, 480
-0.991949, 193, 297, 224, 360
-0.991967, 273, 257, 333, 288
-0.991984, 233, 337, 296, 368
-0.991994, 137, 369, 200, 400
-0.992006, 273, 425, 333, 488
-0.99201, 241, 225, 304, 256
-0.992025, 1, 409, 128, 472
-0.992033, 185, 217, 248, 248
-0.992041, 273, 217, 333, 248
-0.992043, 273, 265, 304, 328
-0.992054, 177, 353, 304, 416
-0.992055, 301, 337, 332, 464
-0.992063, 73, 385, 136, 416
-0.992073, 25, 393, 88, 424
-0.992086, 201, 233, 264, 264
-0.99211, 273, 193, 304, 320
-0.992129, 281, 297, 312, 360
-0.992141, 177, 133, 240, 164
-0.992145, 265, 361, 328, 424
-0.992148, 129, 301, 192, 332
-0.992148, 49, 389, 112, 420
-0.992182, 33, 113, 160, 240
-0.992201, 237, 321, 268, 448
-0.992201, 133, 369, 164, 496
-0.992205, 249, 241, 312, 272
-0.992205, 169, 345, 232, 376
-0.992228, 169, 317, 232, 348
-0.99225, 97, 225, 224, 288
-0.992291, 233, 253, 296, 284
-0.992298, 221, 129, 252, 256
-0.992328, 121, 381, 184, 412
-0.992371, 105, 289, 168, 320
-0.99238, 173, 297, 204, 328
-0.992381, 249, 189, 312, 220
-0.992386, 117, 241, 148, 368
-0.992388, 205, 289, 236, 416
-0.992392, 73, 373, 136, 404
-0.992397, 177, 193, 240, 224
-0.992398, 81, 265, 144, 328
-0.992422, 177, 157, 240, 188
-0.99247, 273, 205, 333, 236
-0.992487, 173, 285, 204, 316
-0.992493, 105, 357, 168, 388
-0.992505, 193, 249, 256, 280
-0.992505, 177, 173, 240, 204
-0.99252, 177, 333, 240, 364
-0.992537, 233, 269, 296, 300
-0.992562, 1, 393, 64, 424
-0.992568, 197, 301, 228, 332
-0.992573, 157, 293, 188, 324
-0.992596, 65, 433, 192, 496
-0.992599, 177, 273, 240, 304
-0.992606, 33, 337, 160, 400
-0.992619, 217, 213, 248, 244
-0.99265, 145, 325, 176, 356
-0.992662, 241, 209, 272, 240
-0.992669, 193, 285, 224, 316
-0.992672, 205, 193, 236, 224
-0.992673, 249, 417, 312, 480
-0.992676, 49, 377, 112, 408
-0.99271, 97, 269, 160, 300
-0.992716, 1, 241, 64, 368
-0.992718, 237, 221, 268, 252
-0.99272, 113, 161, 176, 416
-0.992739, 121, 289, 152, 352
-0.992744, 161, 281, 192, 312
-0.992746, 157, 313, 188, 344
-0.992751, 193, 433, 320, 496
-0.992767, 201, 321, 264, 352
-0.992771, 177, 145, 240, 176
-0.992778, 189, 249, 220, 312
-0.992806, 105, 309, 168, 340
-0.992806, 1, 369, 64, 432
-0.992807, 297, 325, 328, 356
-0.99281, 201, 177, 264, 208
-0.992819, 9, 381, 72, 412
-0.992841, 149, 337, 180, 368
-0.992858, 137, 253, 200, 284
-0.992859, 161, 329, 192, 360
-0.992898, 133, 365, 164, 396
-0.992908, 25, 305, 88, 432
-0.99291, 137, 241, 200, 272
-0.992933, 209, 361, 272, 424
-0.992936, 1, 97, 333, 224
-0.99294, 137, 277, 168, 308
-0.992945, 185, 301, 216, 332
-0.992947, 169, 237, 232, 268
-0.99295, 149, 281, 180, 312
-0.992955, 129, 265, 192, 296
-0.992962, 281, 337, 312, 368
-0.992964, 301, 345, 332, 376
-0.992971, 33, 169, 96, 200
-0.992972, 145, 313, 176, 344
-0.992979, 205, 205, 236, 236
-0.99298, 189, 201, 220, 232
-0.992985, 225, 193, 256, 224
-0.992988, 105, 321, 168, 352
-0.992989, 205, 181, 236, 212
-0.99299, 169, 309, 200, 340
-0.993008, 205, 133, 236, 164
-0.993009, 209, 301, 240, 332
-0.993012, 1, 169, 64, 200
-0.993015, 201, 133, 264, 164
-0.993015, 105, 345, 168, 376
-0.99302, 273, 229, 333, 260
-0.993024, 89, 225, 152, 480
-0.993028, 225, 225, 256, 256
-0.993037, 201, 157, 264, 188
-0.993038, 213, 285, 244, 316
-0.993043, 273, 185, 333, 216
-0.993055, 209, 265, 272, 296
-0.993059, 301, 305, 332, 336
-0.993069, 189, 189, 220, 220
-0.993075, 273, 245, 333, 276
-0.993079, 281, 221, 312, 252
-0.993079, 225, 301, 256, 332
-0.993082, 149, 349, 180, 380
-0.993102, 253, 213, 284, 244
-0.993104, 193, 345, 256, 376
-0.993109, 65, 441, 128, 472
-0.993114, 81, 177, 144, 208
-0.993122, 149, 201, 180, 264
-0.993123, 229, 205, 260, 236
-0.993129, 265, 465, 328, 496
-0.993131, 245, 289, 276, 320
-0.993131, 145, 297, 176, 328
-0.993134, 161, 373, 224, 404
-0.993142, 177, 273, 208, 304
-0.993154, 285, 349, 316, 380
-0.993166, 161, 341, 192, 372
-0.993171, 137, 337, 168, 368
-0.993176, 169, 253, 232, 284
-0.993195, 89, 233, 152, 264
-0.993197, 185, 357, 248, 388
-0.993202, 153, 269, 184, 300
-0.993203, 125, 345, 156, 408
-0.993209, 189, 221, 220, 252
-0.99321, 57, 173, 120, 204
-0.993212, 205, 157, 236, 188
-0.993213, 189, 217, 220, 280
-0.993213, 157, 225, 188, 288
-0.993214, 245, 313, 276, 344
-0.993216, 161, 413, 224, 444
-0.993226, 33, 461, 96, 492
-0.993229, 9, 237, 72, 268
-0.99323, 173, 325, 204, 356
-0.993231, 161, 361, 224, 392
-0.993231, 169, 209, 200, 240
-0.993243, 225, 285, 256, 316
-0.993247, 97, 249, 160, 280
-0.993247, 177, 121, 240, 152
-0.993252, 121, 221, 184, 252
-0.993275, 257, 289, 288, 320
-0.993276, 129, 293, 160, 324
-0.993277, 181, 177, 212, 208
-0.993278, 65, 417, 128, 448
-0.993278, 1, 461, 64, 492
-0.993282, 245, 301, 276, 332
-0.993283, 113, 377, 144, 408
-0.993283, 41, 281, 104, 312
-0.993284, 261, 333, 292, 364
-0.993285, 193, 129, 224, 160
-0.993289, 285, 233, 316, 264
-0.99329, 265, 225, 296, 256
-0.993294, 289, 253, 320, 284
-0.993294, 169, 221, 200, 252
-0.993295, 89, 305, 152, 368
-0.993296, 17, 261, 80, 292
-0.993296, 217, 441, 280, 472
-0.993302, 205, 217, 236, 248
-0.993304, 141, 377, 172, 408
-0.993312, 237, 193, 268, 224
-0.993313, 205, 145, 236, 176
-0.993314, 189, 153, 220, 184
-0.993317, 137, 201, 200, 232
-0.993322, 125, 273, 156, 304
-0.993322, 217, 349, 280, 380
-0.993325, 41, 441, 104, 472
-0.993326, 193, 141, 224, 172
-0.993329, 249, 193, 280, 224
-0.99333, 161, 425, 224, 456
-0.993331, 205, 169, 236, 200
-0.993333, 25, 429, 88, 460
-0.993338, 41, 265, 104, 296
-0.993341, 181, 313, 212, 344
-0.993342, 65, 297, 320, 360
-0.993344, 137, 401, 200, 464
-0.993345, 129, 377, 160, 408
-0.993349, 289, 297, 320, 328
-0.993352, 193, 173, 224, 204
-0.993361, 37, 161, 68, 288
-0.993362, 89, 373, 120, 404
-0.993362, 257, 301, 288, 332
-0.993365, 273, 209, 304, 240
-0.993366, 65, 265, 128, 296
-0.993366, 73, 429, 136, 460
-0.993368, 137, 349, 168, 380
-0.993369, 25, 209, 88, 336
-0.99337, 97, 189, 160, 220
-0.99337, 241, 349, 304, 380
-0.993375, 293, 209, 324, 240
-0.993384, 57, 385, 88, 416
-0.99339, 121, 413, 184, 444
-0.993391, 165, 269, 196, 300
-0.9934, 133, 321, 164, 352
-0.993407, 69, 385, 100, 416
-0.993411, 273, 449, 333, 480
-0.993411, 73, 317, 136, 348
-0.993415, 273, 325, 304, 356
-0.99342, 121, 361, 152, 392
-0.99342, 273, 237, 304, 268
-0.993422, 185, 369, 248, 400
-0.993425, 245, 257, 276, 288
-0.993426, 229, 253, 260, 284
-0.993428, 269, 285, 300, 316
-0.993431, 273, 361, 333, 392
-0.993431, 141, 261, 172, 292
-0.993433, 297, 357, 328, 388
-0.993434, 85, 385, 116, 416
-0.993437, 117, 293, 148, 324
-0.993438, 173, 345, 204, 376
-0.993442, 145, 465, 208, 496
-0.993442, 9, 181, 72, 212
-0.993444, 193, 273, 224, 304
-0.993447, 153, 377, 184, 408
-0.99345, 145, 361, 176, 392
-0.99345, 185, 445, 248, 476
-0.993455, 209, 333, 272, 364
-0.99346, 213, 229, 244, 260
-0.99346, 101, 381, 132, 412
-0.993464, 229, 321, 260, 352
-0.993465, 269, 345, 300, 376
-0.993466, 13, 385, 44, 448
-0.993468, 45, 389, 76, 420
-0.993468, 29, 393, 60, 424
-0.993468, 77, 445, 108, 476
-0.993468, 73, 277, 136, 308
-0.993468, 17, 241, 48, 272
-0.99347, 161, 365, 192, 396
-0.993471, 57, 253, 120, 284
-0.993472, 229, 265, 260, 296
-0.993473, 257, 277, 288, 308
-0.993474, 133, 309, 164, 340
-0.99348, 181, 165, 212, 196
-0.993487, 249, 329, 280, 360
-0.993488, 241, 269, 272, 300
-0.993489, 125, 333, 156, 364
-0.993491, 241, 457, 304, 488
-0.993492, 73, 469, 136, 500
-0.993492, 269, 269, 300, 300
-0.993492, 17, 389, 48, 420
-0.993493, 121, 253, 152, 284
-0.993496, 261, 201, 292, 232
-0.993497, 1, 397, 32, 428
-0.993498, 289, 273, 320, 304
-0.993501, 285, 321, 316, 352
-0.993507, 185, 469, 248, 500
-0.993512, 225, 181, 256, 212
-0.993519, 269, 301, 300, 332
-0.99352, 277, 257, 308, 288
-0.993522, 161, 233, 192, 264
-0.993524, 225, 241, 256, 304
-0.993529, 169, 197, 200, 228
-0.99353, 109, 185, 140, 216
-0.993531, 161, 353, 192, 384
-0.993533, 213, 437, 244, 468
-0.993538, 205, 265, 236, 296
-0.993598, 1, 225, 64, 288
-0.993598, 249, 265, 280, 328
-0.993667, 209, 409, 333, 472
-0.993686, 73, 161, 104, 288
-0.993723, 177, 169, 208, 232
-0.993737, 1, 185, 64, 248
-0.99375, 17, 217, 48, 280
-0.993759, 25, 185, 88, 248
-0.993775, 85, 337, 116, 464
-0.993818, 261, 225, 292, 288
-0.993839, 173, 129, 204, 256
-0.993858, 109, 177, 140, 240
-0.993903, 145, 393, 272, 456
-0.993966, 297, 353, 328, 416
-0.993974, 65, 273, 128, 400
-0.993993, 69, 433, 100, 496
-0.994008, 181, 281, 196, 344
-0.99404, 101, 377, 132, 440
-0.994047, 101, 161, 132, 288
-0.994071, 209, 97, 272, 352
-0.994071, 1, 393, 32, 456
-0.99408, 105, 417, 168, 480
-0.994102, 133, 225, 164, 352
-0.994127, 185, 113, 216, 176
-0.994135, 65, 185, 320, 248
-0.994208, 225, 321, 256, 384
-0.994254, 155, 321, 170, 384
-0.994312, 225, 385, 288, 448
-0.99432, 161, 369, 192, 432
-0.994349, 81, 153, 208, 216
-0.994349, 177, 369, 208, 432
-0.994352, 153, 169, 216, 232
-0.994362, 41, 273, 104, 336
-0.99439, 33, 193, 160, 256
-0.994393, 17, 297, 144, 360
-0.994405, 129, 249, 160, 312
-0.994429, 161, 369, 192, 496
-0.99444, 185, 321, 216, 384
-0.994452, 53, 385, 84, 448
-0.994516, 247, 193, 262, 256
-0.99454, 9, 161, 40, 288
-0.99457, 145, 369, 176, 496
-0.994579, 65, 385, 96, 448
-0.994617, 125, 321, 156, 448
-0.994618, 145, 129, 208, 384
-0.994637, 65, 305, 128, 368
-0.994649, 145, 285, 272, 316
-0.994658, 201, 433, 264, 496
-0.99473, 193, 393, 256, 456
-0.994816, 173, 289, 188, 352
-0.994826, 205, 337, 236, 464
-0.99483, 81, 353, 112, 416
-0.994865, 195, 281, 210, 344
-0.994865, 137, 425, 200, 488
-0.994885, 121, 369, 152, 432
-0.99489, 97, 169, 128, 232
-0.99489, 17, 321, 80, 384
-0.994909, 165, 177, 196, 304
-0.99498, 81, 209, 144, 272
-0.994988, 165, 329, 180, 392
-0.994989, 117, 177, 148, 304
-0.995001, 225, 425, 288, 488
-0.995008, 25, 297, 88, 360
-0.995016, 29, 241, 60, 304
-0.995051, 73, 433, 136, 496
-0.995119, 1, 273, 64, 336
-0.995143, 175, 321, 190, 384
-0.995161, 201, 97, 264, 224
-0.995207, 315, 297, 330, 360
-0.99522, 161, 305, 288, 336
-0.995248, 163, 305, 178, 368
-0.995252, 129, 121, 256, 184
-0.995259, 187, 281, 202, 344
-0.995265, 185, 345, 216, 408
-0.995273, 297, 201, 328, 264
-0.995293, 29, 225, 60, 352
-0.995335, 223, 185, 238, 248
-0.995339, 307, 313, 322, 376
-0.995354, 257, 337, 288, 400
-0.995369, 177, 1, 240, 500
-0.995402, 33, 161, 288, 224
-0.995508, 149, 321, 164, 384
-0.995514, 239, 217, 254, 280
-0.995519, 65, 265, 320, 328
-0.995619, 249, 145, 280, 272
-0.995619, 209, 297, 333, 328
-0.995632, 149, 369, 180, 432
-0.995638, 155, 297, 170, 360
-0.995649, 1, 289, 333, 352
-0.995706, 297, 241, 328, 304
-0.995722, 53, 321, 84, 448
-0.995729, 189, 257, 204, 320
-0.995736, 145, 1, 272, 256
-0.995836, 241, 193, 256, 256
-0.995864, 49, 425, 80, 488
-0.995878, 105, 305, 136, 368
-0.995884, 153, 1, 216, 500
-0.995889, 149, 345, 164, 408
-0.995914, 173, 265, 188, 328
-0.995926, 117, 321, 148, 384
-0.995932, 145, 321, 272, 352
-0.995957, 301, 145, 332, 272
-0.995972, 193, 193, 320, 224
-0.99598, 209, 129, 224, 192
-0.995981, 151, 273, 166, 336
-0.995989, 217, 1, 280, 500
-0.99601, 277, 177, 308, 240
-0.996029, 215, 185, 230, 248
-0.996038, 101, 209, 132, 336
-0.99604, 177, 433, 240, 496
-0.99604, 73, 353, 104, 480
-0.996052, 193, 285, 320, 316
-0.996053, 129, 177, 160, 304
-0.996058, 229, 209, 244, 272
-0.996078, 179, 257, 194, 320
-0.996087, 261, 337, 292, 464
-0.996096, 101, 345, 132, 408
-0.996098, 85, 409, 116, 472
-0.996108, 159, 345, 174, 408
-0.996114, 253, 169, 284, 232
-0.996125, 69, 409, 100, 472
-0.996147, 209, 309, 333, 340
-0.996149, 113, 289, 144, 416
-0.996158, 57, 201, 120, 264
-0.996172, 177, 345, 192, 408
-0.996186, 97, 353, 128, 480
-0.996189, 301, 313, 316, 376
-0.99619, 33, 161, 96, 416
-0.996216, 117, 241, 148, 304
-0.996229, 25, 209, 88, 272
-0.996238, 201, 249, 232, 312
-0.996241, 185, 81, 216, 208
-0.996251, 145, 205, 272, 236
-0.996329, 229, 185, 244, 248
-0.996347, 207, 185, 222, 248
-0.996357, 65, 369, 320, 432
-0.99636, 167, 281, 182, 344
-0.996366, 253, 201, 268, 264
-0.996382, 33, 337, 288, 400
-0.996391, 209, 209, 333, 240
-0.996391, 25, 161, 56, 288
-0.996396, 81, 333, 208, 364
-0.996408, 287, 209, 302, 272
-0.996419, 145, 297, 160, 360
-0.996453, 61, 369, 92, 496
-0.996466, 219, 209, 234, 272
-0.996479, 187, 305, 202, 368
-0.99648, 169, 209, 184, 272
-0.996481, 113, 409, 144, 472
-0.996487, 13, 209, 44, 336
-0.99652, 201, 273, 216, 336
-0.996534, 101, 273, 132, 400
-0.996541, 257, 289, 272, 352
-0.996547, 25, 233, 88, 296
-0.996572, 153, 129, 216, 256
-0.996594, 285, 161, 316, 288
-0.996594, 97, 285, 224, 316
-0.99662, 267, 281, 282, 344
-0.996625, 185, 345, 200, 408
-0.996637, 1, 145, 128, 208
-0.996648, 281, 201, 296, 264
-0.996653, 97, 305, 224, 336
-0.996666, 81, 377, 112, 440
-0.996668, 241, 337, 272, 400
-0.996679, 1, 81, 256, 208
-0.996712, 85, 161, 116, 288
-0.996712, 229, 369, 260, 496
-0.996733, 97, 161, 160, 224
-0.996736, 277, 225, 292, 288
-0.996748, 129, 349, 256, 380
-0.996756, 187, 129, 202, 192
-0.996764, 229, 297, 244, 360
-0.996778, 145, 193, 272, 224
-0.99678, 29, 265, 60, 328
-0.996789, 317, 273, 332, 336
-0.996792, 65, 209, 320, 272
-0.996834, 225, 145, 288, 208
-0.996857, 73, 169, 104, 232
-0.996866, 145, 221, 272, 252
-0.996879, 161, 273, 176, 336
-0.996881, 205, 129, 236, 384
-0.996898, 197, 329, 228, 392
-0.996902, 249, 353, 280, 480
-0.996908, 213, 281, 228, 344
-0.996916, 65, 241, 320, 304
-0.996918, 73, 145, 136, 208
-0.996942, 143, 321, 158, 384
-0.996961, 145, 337, 272, 368
-0.996961, 177, 105, 240, 168
-0.996969, 171, 345, 186, 408
-0.99697, 187, 185, 202, 248
-0.996972, 209, 153, 224, 216
-0.996978, 37, 369, 68, 496
-0.99699, 193, 333, 320, 364
-0.996994, 193, 273, 320, 304
-0.996999, 81, 129, 144, 256
-0.997, 247, 313, 262, 376
-0.997001, 1, 321, 333, 384
-0.997005, 205, 433, 236, 496
-0.997007, 241, 305, 256, 368
-0.997008, 113, 337, 144, 464
-0.99701, 1, 17, 333, 144
-0.997015, 235, 185, 250, 248
-0.997034, 137, 273, 152, 336
-0.997063, 153, 177, 184, 304
-0.997073, 317, 321, 332, 384
-0.997082, 65, 357, 192, 388
-0.997082, 29, 393, 60, 456
-0.997084, 301, 393, 332, 456
-0.9971, 1, 249, 64, 312
-0.997101, 181, 321, 196, 384
-0.997103, 279, 297, 294, 360
-0.997105, 209, 113, 333, 176
-0.997109, 253, 265, 268, 328
-0.99711, 163, 217, 178, 280
-0.997114, 81, 317, 208, 348
-0.997114, 1, 185, 333, 248
-0.997115, 247, 217, 262, 280
-0.997128, 65, 381, 192, 412
-0.99713, 209, 225, 333, 256
-0.997137, 113, 373, 240, 404
-0.997141, 261, 265, 276, 328
-0.997143, 223, 297, 238, 360
-0.997151, 65, 257, 128, 500
-0.997152, 235, 281, 250, 344
-0.997168, 119, 177, 134, 240
-0.997171, 197, 193, 212, 256
-0.997172, 113, 385, 176, 448
-0.997174, 159, 249, 174, 312
-0.997175, 145, 233, 272, 264
-0.997192, 25, 161, 56, 224
-0.997198, 207, 273, 222, 336
-0.997234, 237, 241, 252, 304
-0.997239, 17, 389, 144, 420
-0.99724, 57, 241, 120, 304
-0.99724, 113, 181, 240, 212
-0.997241, 173, 289, 188, 320
-0.997248, 113, 273, 240, 304
-0.997254, 311, 337, 326, 400
-0.997283, 89, 321, 120, 384
-0.99729, 195, 257, 210, 320
-0.997291, 249, 161, 312, 224
-0.997298, 145, 249, 160, 312
-0.997298, 207, 209, 222, 272
-0.997302, 53, 353, 84, 416
-0.997305, 181, 209, 196, 272
-0.997307, 193, 305, 208, 368
-0.997308, 249, 393, 312, 456
-0.99732, 221, 161, 252, 224
-0.997326, 69, 345, 100, 408
-0.997332, 157, 333, 172, 364
-0.997332, 165, 317, 180, 348
-0.997333, 97, 81, 224, 208
-0.997335, 271, 321, 286, 384
-0.997347, 209, 321, 333, 352
-0.997355, 251, 289, 266, 352
-0.997358, 1, 265, 333, 328
-0.997359, 33, 137, 288, 200
-0.99736, 167, 257, 182, 320
-0.997366, 37, 433, 68, 496
-0.997372, 213, 241, 244, 304
-0.997375, 105, 169, 120, 232
-0.997377, 245, 281, 260, 344
-0.997388, 217, 257, 232, 320
-0.997407, 293, 177, 324, 240
-0.997412, 201, 249, 216, 312
-0.997413, 113, 177, 128, 240
-0.997414, 187, 153, 202, 216
-0.997422, 279, 265, 294, 328
-0.997436, 145, 249, 272, 280
-0.997442, 57, 161, 88, 288
-0.997446, 227, 257, 242, 320
-0.997447, 235, 305, 250, 368
-0.997472, 249, 1, 312, 500
-0.997486, 287, 241, 302, 304
-0.997491, 49, 113, 112, 240
-0.997496, 169, 193, 200, 448
-0.9975, 179, 293, 194, 324
-0.997502, 177, 181, 304, 212
-0.997505, 17, 241, 48, 304
-0.997513, 113, 265, 144, 328
-0.997519, 1, 361, 333, 424
-0.99754, 153, 317, 168, 348
-0.99756, 273, 265, 288, 328
-0.99756, 265, 313, 280, 376
-0.997565, 161, 393, 192, 456
-0.997567, 29, 217, 60, 280
-0.997577, 121, 185, 152, 248
-0.997578, 163, 329, 178, 360
-0.997583, 33, 285, 160, 316
-0.997583, 247, 257, 262, 320
-0.997584, 187, 217, 202, 280
-0.997591, 209, 253, 333, 284
-0.997592, 287, 185, 302, 248
-0.997596, 213, 209, 228, 272
-0.997597, 233, 217, 248, 248
-0.997611, 295, 321, 310, 384
-0.997613, 215, 153, 230, 216
-0.997618, 287, 265, 302, 328
-0.997623, 145, 273, 160, 336
-0.997626, 193, 345, 320, 376
-0.997666, 149, 257, 180, 500
-0.997668, 191, 289, 206, 320
-0.997671, 113, 345, 144, 408
-0.997673, 197, 369, 228, 432
-0.997681, 289, 329, 304, 392
-0.997689, 175, 209, 190, 272
-0.997704, 225, 425, 256, 488
-0.997706, 1, 173, 128, 204
-0.99771, 305, 281, 320, 344
-0.997711, 173, 305, 188, 336
-0.997711, 49, 369, 80, 496
-0.99773, 201, 297, 216, 360
-0.997735, 293, 209, 308, 272
-0.997743, 65, 345, 192, 376
-0.997765, 1, 345, 64, 408
-0.997766, 259, 193, 274, 256
-0.997787, 231, 233, 246, 296
-0.997799, 1, 273, 128, 304
-0.997802, 305, 337, 320, 400
-0.997804, 193, 161, 224, 416
-0.997812, 169, 221, 184, 252
-0.997813, 105, 1, 168, 500
-0.997818, 165, 353, 180, 416
-0.997824, 193, 241, 320, 272
-0.997827, 253, 177, 268, 240
-0.997831, 159, 317, 174, 348
-0.997833, 207, 297, 222, 360
-0.997834, 279, 177, 294, 240
-0.997839, 207, 233, 222, 296
-0.997844, 193, 81, 320, 208
-0.997864, 283, 337, 298, 400
-0.997875, 265, 193, 296, 448
-0.997884, 179, 281, 194, 312
-0.997884, 307, 313, 322, 344
-0.997884, 241, 225, 272, 480
-0.997885, 217, 161, 248, 416
-0.997892, 175, 233, 190, 296
-0.997909, 1, 1, 64, 500
-0.997919, 193, 217, 208, 280
-0.997923, 317, 249, 332, 312
-0.997924, 75, 409, 90, 472
-0.997938, 273, 1, 333, 500
-0.997939, 317, 305, 332, 336
-0.997941, 65, 269, 192, 300
-0.997944, 217, 305, 232, 368
-0.997946, 177, 169, 304, 200
-0.997946, 139, 361, 154, 424
-0.997952, 293, 257, 308, 320
-0.997955, 239, 217, 254, 248
-0.997961, 261, 177, 292, 304
-0.997963, 161, 193, 176, 256
-0.997964, 103, 377, 118, 440
-0.997966, 199, 145, 214, 208
-0.997973, 83, 433, 98, 496
-0.997977, 285, 225, 316, 480
-0.997977, 97, 249, 224, 280
-0.997977, 33, 185, 160, 216
-0.997986, 219, 293, 234, 324
-0.99799, 151, 329, 166, 360
-0.99799, 179, 185, 194, 248
-0.997993, 163, 305, 178, 336
-0.997999, 243, 205, 258, 236
-0.998003, 225, 213, 240, 244
-0.998003, 97, 369, 112, 432
-0.998006, 129, 249, 144, 312
-0.998009, 271, 217, 286, 280
-0.99801, 191, 345, 206, 408
-0.998016, 301, 201, 316, 264
-0.998026, 191, 305, 206, 336
-0.998031, 173, 321, 188, 352
-0.998031, 85, 409, 100, 472
-0.998036, 167, 289, 182, 320
-0.998038, 41, 257, 104, 500
-0.998055, 273, 161, 333, 224
-0.998057, 161, 365, 288, 396
-0.998075, 1, 445, 128, 476
-0.998088, 209, 133, 224, 164
-0.998092, 181, 161, 212, 416
-0.998096, 185, 293, 200, 324
-0.998096, 217, 369, 248, 496
-0.998098, 207, 189, 222, 220
-0.998101, 205, 225, 236, 480
-0.998102, 281, 221, 296, 252
-0.998104, 299, 337, 314, 368
-0.998106, 33, 417, 288, 480
-0.99811, 197, 301, 212, 332
-0.998111, 33, 289, 64, 416
-0.998122, 177, 157, 304, 188
-0.998124, 49, 433, 176, 464
-0.998131, 175, 337, 190, 368
-0.998135, 215, 201, 230, 232
-0.998136, 249, 205, 264, 236
-0.998138, 129, 261, 256, 292
-0.998156, 129, 157, 256, 188
-0.998175, 81, 197, 208, 228
-0.998182, 207, 285, 222, 316
-0.998182, 303, 325, 318, 356
-0.998182, 201, 285, 216, 316
-0.998184, 133, 257, 164, 500
-0.99819, 113, 361, 240, 392
-0.998199, 151, 349, 166, 380
-0.998204, 157, 305, 172, 336
-0.998217, 291, 337, 306, 368
-0.998218, 187, 277, 202, 308
-0.998227, 251, 289, 266, 320
-0.998232, 105, 209, 168, 272
-0.998242, 205, 297, 220, 328
-0.998246, 97, 169, 224, 200
-0.99825, 233, 229, 248, 260
-0.998255, 41, 1, 104, 500
-0.998267, 221, 193, 236, 224
-0.99828, 81, 209, 208, 240
-0.998288, 65, 369, 192, 400
-0.998298, 151, 305, 166, 336
-0.998304, 65, 389, 96, 404
-0.998305, 165, 373, 196, 388
-0.998305, 125, 373, 156, 388
-0.998306, 17, 397, 48, 412
-0.998306, 141, 273, 172, 288
-0.998307, 213, 301, 228, 332
-0.998309, 269, 235, 300, 250
-0.99831, 153, 287, 184, 302
-0.998311, 237, 253, 252, 284
-0.998311, 125, 363, 156, 378
-0.998312, 105, 325, 136, 340
-0.998312, 133, 335, 164, 350
-0.998312, 77, 387, 108, 402
-0.998313, 147, 317, 162, 348
-0.998315, 161, 223, 192, 238
-0.998316, 253, 203, 284, 218
-0.998317, 253, 209, 284, 224
-0.998317, 145, 255, 176, 270
-0.998319, 137, 293, 168, 308
-0.99832, 1, 261, 128, 292
-0.998321, 225, 289, 256, 304
-0.998321, 281, 351, 312, 366
-0.998322, 287, 221, 302, 252
-0.998323, 269, 291, 300, 306
-0.998323, 189, 221, 220, 236
-0.998323, 189, 155, 220, 170
-0.998324, 165, 231, 196, 246
-0.998324, 5, 399, 36, 414
-0.998324, 289, 255, 320, 270
-0.998325, 117, 291, 148, 306
-0.998325, 221, 209, 252, 224
-0.998325, 261, 297, 292, 312
-0.998325, 161, 317, 192, 332
-0.998325, 289, 267, 320, 282
-0.998327, 257, 339, 288, 354
-0.998327, 53, 391, 84, 406
-0.998327, 189, 165, 220, 180
-0.998328, 41, 393, 72, 408
-0.998328, 189, 175, 220, 190
-0.998328, 289, 335, 320, 350
-0.998329, 205, 181, 236, 196
-0.99833, 181, 183, 212, 198
-0.998331, 129, 299, 160, 314
-0.998331, 181, 203, 212, 218
-0.998332, 129, 279, 160, 294
-0.998332, 221, 233, 252, 248
-0.998332, 1, 369, 128, 400
-0.998332, 205, 149, 236, 164
-0.998335, 189, 139, 220, 154
-0.998336, 205, 171, 236, 186
-0.998336, 137, 307, 168, 322
-0.998338, 189, 147, 220, 162
-0.998339, 245, 317, 276, 332
-0.998341, 173, 311, 204, 326
-0.998342, 213, 221, 244, 236
-0.998342, 157, 339, 188, 354
-0.998344, 225, 191, 256, 206
-0.998346, 101, 383, 132, 398
-0.998348, 225, 295, 256, 310
-0.998348, 133, 321, 164, 336
-0.998348, 213, 285, 228, 316
-0.99835, 165, 349, 196, 364
-0.998351, 169, 333, 184, 364
-0.998352, 229, 161, 260, 416
-0.998352, 201, 289, 232, 304
-0.998354, 209, 153, 224, 184
-0.998356, 169, 323, 200, 338
-0.998356, 69, 445, 100, 460
-0.998357, 173, 277, 188, 308
-0.998358, 205, 165, 236, 180
-0.998358, 133, 329, 164, 344
-0.998359, 245, 189, 260, 220
-0.99836, 221, 305, 236, 336
-0.99836, 169, 217, 200, 232
-0.998362, 249, 223, 280, 238
-0.998362, 209, 307, 240, 322
-0.998365, 137, 287, 168, 302
-0.998366, 253, 215, 284, 230
-0.998366, 217, 197, 248, 212
-0.998366, 261, 345, 292, 360
-0.998366, 245, 295, 276, 310
-0.998368, 153, 347, 184, 362
-0.998368, 177, 281, 208, 296
-0.998369, 301, 325, 332, 340
-0.998369, 205, 141, 236, 156
-0.998369, 129, 379, 160, 394
-0.998369, 161, 293, 176, 324
-0.99837, 1, 225, 32, 352
-0.99837, 205, 155, 236, 170
-0.998371, 189, 189, 220, 204
-0.998371, 137, 369, 168, 384
-0.998374, 33, 393, 288, 456
-0.998374, 247, 221, 262, 252
-0.998376, 301, 355, 332, 370
-0.998376, 185, 307, 216, 322
-0.998376, 157, 281, 188, 296
-0.998376, 193, 133, 224, 148
-0.998378, 233, 145, 264, 272
-0.99838, 265, 229, 296, 244
-0.998383, 9, 161, 72, 416
-0.998383, 217, 227, 248, 242
-0.998383, 301, 347, 332, 362
-0.998384, 233, 205, 264, 220
-0.998385, 261, 285, 276, 316
-0.998385, 149, 315, 180, 330
-0.998388, 301, 335, 332, 350
-0.99839, 277, 339, 308, 354
-0.998392, 189, 215, 220, 230
-0.998393, 143, 365, 158, 396
-0.998397, 177, 225, 208, 240
-0.998398, 241, 289, 272, 304
-0.998401, 153, 373, 184, 388
-0.998403, 205, 187, 236, 202
-0.998403, 285, 233, 316, 248
-0.998405, 205, 135, 236, 150
-0.998406, 157, 293, 188, 308
-0.998406, 249, 301, 280, 316
-0.998407, 197, 207, 228, 222
-0.998408, 183, 305, 198, 336
-0.998412, 301, 315, 332, 330
-0.998413, 209, 213, 240, 228
-0.998414, 277, 225, 308, 240
-0.998415, 153, 305, 184, 320
-0.998416, 193, 283, 224, 298
-0.998417, 189, 197, 220, 212
-0.99842, 225, 221, 256, 236
-0.998428, 241, 211, 272, 226
-0.998428, 161, 329, 192, 344
-0.998429, 247, 305, 262, 336
-0.99843, 141, 375, 172, 390
-0.998432, 233, 229, 264, 244
-0.998433, 179, 349, 194, 380
-0.998435, 145, 339, 176, 354
-0.998436, 165, 287, 196, 302
-0.998438, 33, 421, 160, 452
-0.998441, 205, 201, 236, 216
-0.998442, 281, 345, 312, 360
-0.998443, 225, 215, 256, 230
-0.998444, 121, 257, 152, 500
-0.998444, 97, 237, 224, 268
-0.998446, 227, 285, 242, 316
-0.998449, 157, 299, 188, 314
-0.99845, 143, 305, 158, 336
-0.998451, 209, 297, 240, 312
-0.998452, 241, 217, 272, 232
-0.998453, 309, 329, 324, 360
-0.99846, 197, 307, 228, 322
-0.99846, 255, 209, 270, 240
-0.998461, 145, 325, 176, 340
-0.998461, 189, 291, 220, 306
-0.998466, 209, 207, 240, 222
-0.998474, 151, 285, 166, 316
-0.998476, 301, 161, 332, 416
-0.998477, 177, 287, 208, 302
-0.998479, 33, 237, 160, 268
-0.99848, 157, 323, 188, 338
-0.998486, 145, 329, 160, 360
-0.998487, 187, 125, 202, 156
-0.998493, 129, 289, 144, 320
-0.998493, 293, 341, 324, 356
-0.998494, 135, 273, 150, 304
-0.998494, 173, 305, 204, 320
-0.998498, 309, 349, 324, 380
-0.998502, 137, 365, 152, 396
-0.998505, 167, 277, 182, 308
-0.998512, 209, 177, 224, 208
-0.998513, 205, 195, 236, 210
-0.99852, 237, 223, 268, 238
-0.998524, 163, 221, 178, 252
-0.998525, 169, 293, 200, 308
-0.998525, 145, 331, 176, 346
-0.99853, 229, 253, 244, 284
-0.998532, 177, 297, 240, 312
-0.998536, 131, 377, 146, 408
-0.998536, 189, 297, 220, 312
-0.998539, 275, 229, 290, 260
-0.99854, 133, 161, 164, 416
-0.998545, 209, 217, 272, 232
-0.998549, 97, 437, 224, 468
-0.99855, 177, 299, 208, 314
-0.99855, 187, 137, 202, 168
-0.998551, 241, 221, 304, 236
-0.998557, 177, 133, 304, 164
-0.998557, 137, 327, 200, 342
-0.998558, 239, 321, 254, 352
-0.998561, 215, 213, 230, 244
-0.998562, 179, 213, 194, 244
-0.998563, 153, 291, 216, 306
-0.998564, 129, 141, 256, 172
-0.998565, 241, 229, 256, 260
-0.998572, 209, 361, 333, 392
-0.998573, 189, 349, 204, 380
-0.998576, 175, 225, 190, 256
-0.998576, 209, 227, 272, 242
-0.998577, 237, 305, 252, 336
-0.998578, 153, 297, 216, 312
-0.998579, 273, 341, 333, 356
-0.998581, 1, 457, 128, 488
-0.998583, 229, 257, 260, 500
-0.998585, 217, 295, 280, 310
-0.998588, 145, 303, 208, 318
-0.998589, 137, 297, 152, 328
-0.998589, 171, 209, 186, 240
-0.99859, 49, 253, 176, 284
-0.998592, 297, 349, 312, 380
-0.998592, 249, 213, 312, 228
-0.998596, 265, 315, 328, 330
-0.998598, 209, 207, 272, 222
-0.998598, 193, 285, 256, 300
-0.998601, 209, 389, 333, 420
-0.998601, 177, 291, 240, 306
-0.998604, 233, 227, 296, 242
-0.998605, 113, 329, 176, 344
-0.998609, 317, 317, 332, 348
-0.99861, 257, 295, 320, 310
-0.99861, 185, 305, 248, 320
-0.99861, 81, 221, 208, 252
-0.99861, 137, 337, 200, 352
-0.998611, 145, 371, 208, 386
-0.998613, 233, 343, 296, 358
-0.998614, 159, 349, 174, 380
-0.998615, 209, 193, 272, 208
-0.998615, 257, 301, 272, 332
-0.998615, 113, 377, 176, 392
-0.998617, 273, 335, 333, 350
-0.998618, 185, 223, 248, 238
-0.998619, 141, 285, 156, 316
-0.998621, 273, 347, 333, 362
-0.998623, 281, 209, 296, 240
-0.998625, 215, 133, 230, 164
-0.998626, 185, 257, 216, 500
-0.998626, 153, 365, 168, 396
-0.998627, 291, 209, 306, 240
-0.998629, 137, 321, 200, 336
-0.99863, 241, 293, 256, 324
-0.998632, 265, 307, 328, 322
-0.998632, 73, 305, 104, 432
-0.998632, 161, 225, 224, 240
-0.998633, 17, 345, 144, 376
-0.998633, 229, 301, 244, 332
-0.998636, 17, 393, 80, 408
-0.998637, 187, 149, 202, 180
-0.998637, 145, 349, 208, 364
-0.998637, 177, 133, 240, 148
-0.998639, 193, 465, 320, 496
-0.998639, 161, 281, 176, 312
-0.998639, 137, 343, 200, 358
-0.998639, 17, 401, 80, 416
-0.998639, 137, 285, 200, 300
-0.998641, 1, 209, 333, 272
-0.998641, 241, 305, 304, 320
-0.998643, 217, 289, 280, 304
-0.998646, 41, 397, 104, 412
-0.998647, 209, 199, 272, 214
-0.998647, 273, 301, 333, 316
-0.998647, 145, 377, 208, 392
-0.99865, 119, 185, 134, 216
-0.99865, 41, 389, 104, 404
-0.998652, 185, 325, 200, 356
-0.998652, 273, 259, 333, 274
-0.998652, 217, 305, 280, 320
-0.998653, 153, 309, 216, 324
-0.998656, 315, 345, 330, 376
-0.998657, 241, 317, 304, 332
-0.998657, 161, 231, 224, 246
-0.998658, 153, 277, 216, 292
-0.998661, 177, 217, 240, 232
-0.998661, 113, 323, 176, 338
-0.998661, 249, 289, 312, 304
-0.998661, 209, 165, 224, 196
-0.998663, 239, 189, 254, 220
-0.998663, 113, 335, 176, 350
-0.998664, 249, 335, 312, 350
-0.998665, 145, 437, 272, 468
-0.998667, 249, 205, 312, 220
-0.998669, 161, 285, 224, 300
-0.99867, 169, 349, 232, 364
-0.998671, 65, 393, 128, 408
-0.998675, 161, 325, 224, 340
-0.998675, 209, 233, 272, 248
-0.998675, 169, 315, 232, 330
-0.998678, 273, 221, 333, 236
-0.998678, 145, 345, 160, 376
-0.998678, 177, 157, 240, 172
-0.998679, 273, 273, 333, 288
-0.998679, 141, 177, 172, 304
-0.998679, 141, 273, 156, 304
-0.99868, 113, 295, 176, 310
-0.998682, 113, 287, 176, 302
-0.998683, 113, 365, 176, 380
-0.998683, 241, 265, 304, 280
-0.998685, 177, 201, 240, 216
-0.998686, 177, 139, 240, 154
-0.998686, 121, 371, 184, 386
-0.998687, 225, 311, 288, 326
-0.998687, 205, 221, 220, 252
-0.998688, 249, 197, 312, 212
-0.998688, 145, 315, 208, 330
-0.998689, 177, 209, 240, 224
-0.998689, 65, 385, 128, 400
-0.99869, 273, 325, 333, 340
-0.99869, 177, 163, 240, 178
-0.998691, 89, 383, 152, 398
-0.998692, 249, 329, 312, 344
-0.998695, 227, 225, 242, 256
-0.998695, 233, 257, 296, 272
-0.998695, 297, 325, 312, 356
-0.998695, 273, 361, 333, 376
-0.998696, 177, 171, 240, 186
-0.998697, 129, 383, 192, 398
-0.998697, 121, 307, 184, 322
-0.998697, 273, 355, 333, 370
-0.998698, 177, 185, 240, 200
-0.998699, 121, 351, 184, 366
-0.998699, 177, 177, 240, 192
-0.998699, 201, 187, 264, 202
-0.998699, 121, 315, 184, 330
-0.9987, 207, 205, 222, 236
-0.998701, 241, 323, 304, 338
-0.998701, 209, 323, 272, 338
-0.998701, 273, 213, 333, 228
-0.998702, 145, 355, 208, 370
-0.998702, 57, 445, 120, 460
-0.998702, 177, 253, 240, 268
-0.998703, 177, 279, 240, 294
-0.998703, 89, 389, 152, 404
-0.998704, 113, 345, 176, 360
-0.998706, 265, 253, 328, 268
-0.998708, 267, 297, 282, 328
-0.998709, 193, 261, 256, 276
-0.998711, 185, 221, 200, 252
-0.998712, 177, 195, 240, 210
-0.998714, 265, 267, 328, 282
-0.998714, 251, 193, 266, 224
-0.998715, 185, 321, 248, 336
-0.998715, 233, 233, 296, 248
-0.998717, 273, 289, 333, 304
-0.998717, 89, 377, 152, 392
-0.998717, 109, 189, 124, 220
-0.998718, 249, 349, 312, 364
-0.998718, 201, 135, 264, 150
-0.998719, 233, 191, 296, 206
-0.998719, 137, 259, 200, 274
-0.99872, 169, 343, 232, 358
-0.99872, 137, 221, 200, 236
-0.99872, 121, 273, 184, 288
-0.998721, 201, 313, 264, 328
-0.998721, 273, 193, 333, 208
-0.998722, 273, 235, 333, 250
-0.998722, 169, 379, 232, 394
-0.998722, 161, 331, 224, 346
-0.998722, 9, 407, 72, 422
-0.998722, 177, 151, 240, 166
-0.998723, 217, 263, 280, 278
-0.998724, 107, 381, 122, 412
-0.998724, 193, 247, 256, 262
-0.998725, 121, 231, 184, 246
-0.998725, 257, 229, 320, 244
-0.998728, 1, 401, 128, 432
-0.998728, 145, 361, 208, 376
-0.998728, 81, 449, 208, 480
-0.998728, 153, 249, 216, 264
-0.998729, 129, 243, 192, 258
-0.998729, 201, 157, 264, 172
-0.998732, 161, 253, 176, 284
-0.998733, 289, 369, 320, 496
-0.998733, 253, 257, 284, 500
-0.998733, 299, 253, 314, 284
-0.998735, 17, 353, 48, 480
-0.998735, 177, 145, 304, 176
-0.998738, 215, 189, 230, 220
-0.998742, 237, 241, 252, 272
-0.998748, 83, 385, 98, 416
-0.99875, 113, 413, 240, 444
-0.99875, 179, 321, 194, 352
-0.998752, 219, 281, 234, 312
-0.998757, 179, 269, 194, 300
-0.998762, 165, 349, 180, 380
-0.998763, 193, 277, 208, 308
-0.998764, 293, 229, 308, 260
-0.998769, 153, 161, 184, 416
-0.998773, 289, 261, 304, 292
-0.998774, 141, 317, 156, 348
-0.998813, 159, 305, 174, 432
-0.998818, 33, 205, 160, 236
-0.99886, 153, 305, 168, 432
-0.99888, 9, 257, 72, 500
-0.998884, 81, 1, 144, 500
-0.998904, 177, 405, 304, 436
-0.998905, 1, 433, 128, 464
-0.99893, 1, 241, 333, 304
-0.99894, 57, 241, 88, 368
-0.998941, 113, 425, 240, 456
-0.998952, 185, 65, 216, 320
-0.99896, 33, 225, 160, 256
-0.998963, 81, 129, 144, 384
-0.998967, 65, 461, 192, 492
-0.998982, 193, 453, 320, 484
-0.999001, 173, 273, 188, 400
-0.999008, 113, 161, 144, 416
-0.999015, 129, 129, 256, 160
-0.999024, 209, 429, 333, 460
-0.999029, 33, 325, 160, 356
-0.999031, 165, 289, 180, 416
-0.999036, 81, 129, 208, 192
-0.999043, 57, 161, 120, 416
-0.999049, 33, 297, 160, 328
-0.999054, 1, 113, 64, 240
-0.999114, 161, 421, 288, 452
-0.999133, 153, 257, 168, 384
-0.999138, 225, 177, 240, 304
-0.999148, 315, 273, 330, 400
-0.999151, 189, 273, 204, 400
-0.999164, 211, 113, 226, 240
-0.999174, 209, 177, 224, 304
-0.999176, 241, 129, 272, 384
-0.999189, 183, 289, 198, 416
-0.999192, 65, 393, 192, 424
-0.999197, 17, 273, 48, 400
-0.999215, 195, 289, 210, 416
-0.99922, 17, 357, 144, 388
-0.999223, 239, 289, 254, 416
-0.999227, 187, 129, 202, 256
-0.99923, 217, 257, 248, 500
-0.999242, 217, 177, 232, 304
-0.999246, 247, 193, 262, 320
-0.999246, 49, 145, 112, 208
-0.999251, 147, 305, 162, 432
-0.999252, 297, 193, 312, 320
-0.999255, 159, 257, 174, 384
-0.999259, 1, 249, 128, 280
-0.999282, 151, 353, 166, 480
-0.999296, 1, 297, 64, 360
-0.999302, 309, 289, 324, 416
-0.999305, 239, 177, 254, 304
-0.999314, 247, 305, 262, 432
-0.999319, 33, 313, 160, 344
-0.999326, 229, 289, 244, 416
-0.99933, 17, 469, 144, 500
-0.999333, 113, 385, 240, 416
-0.999335, 141, 273, 156, 400
-0.999336, 253, 273, 268, 400
-0.99934, 1, 385, 333, 448
-0.999342, 49, 173, 176, 204
-0.999342, 129, 449, 256, 480
-0.999346, 209, 417, 333, 448
-0.999348, 169, 337, 184, 464
-0.999349, 303, 257, 318, 384
-0.999355, 235, 241, 250, 368
-0.999356, 233, 193, 248, 320
-0.999365, 177, 225, 192, 352
-0.999366, 157, 353, 172, 480
-0.999371, 227, 225, 242, 352
-0.999374, 187, 225, 202, 352
-0.99939, 115, 177, 130, 304
-0.999392, 315, 225, 330, 352
-0.999394, 257, 225, 272, 352
-0.999397, 129, 397, 256, 428
-0.999397, 165, 225, 180, 352
-0.9994, 129, 1, 192, 500
-0.999402, 209, 441, 333, 472
-0.999403, 177, 321, 192, 448
-0.999406, 129, 469, 256, 500
-0.999422, 203, 161, 218, 288
-0.999435, 271, 289, 286, 416
-0.999443, 277, 257, 292, 384
-0.999453, 217, 129, 232, 256
-0.999453, 263, 225, 278, 352
-0.999455, 183, 337, 198, 464
-0.999463, 177, 377, 304, 408
-0.999468, 199, 241, 214, 368
-0.999479, 285, 257, 300, 384
-0.99948, 253, 161, 284, 416
-0.999482, 309, 177, 324, 304
-0.999484, 293, 257, 308, 384
-0.999489, 205, 225, 220, 352
-0.999489, 147, 257, 162, 384
-0.999489, 315, 177, 330, 304
-0.99949, 245, 257, 260, 384
-0.999497, 317, 321, 332, 448
-0.999498, 1, 337, 32, 464
-0.999498, 295, 321, 310, 448
-0.999498, 105, 257, 136, 500
-0.999502, 271, 241, 286, 368
-0.999504, 135, 289, 150, 416
-0.999505, 201, 289, 216, 416
-0.999505, 93, 257, 124, 500
-0.999507, 309, 241, 324, 368
-0.999513, 213, 241, 228, 368
-0.99952, 159, 209, 174, 336
-0.99952, 277, 129, 308, 384
-0.999521, 171, 193, 186, 320
-0.999521, 259, 289, 274, 416
-0.999526, 181, 177, 196, 304
-0.99953, 265, 289, 280, 416
-0.999531, 109, 177, 124, 304
-0.999533, 209, 173, 224, 188
-0.999533, 209, 163, 224, 178
-0.999534, 209, 299, 224, 314
-0.999534, 203, 147, 218, 162
-0.999535, 167, 349, 182, 364
-0.999535, 147, 343, 162, 358
-0.999535, 317, 363, 332, 378
-0.999535, 299, 333, 314, 348
-0.999536, 301, 339, 316, 354
-0.999536, 219, 257, 234, 384
-0.999537, 181, 129, 196, 256
-0.999537, 249, 289, 264, 304
-0.999537, 187, 145, 202, 160
-0.999537, 191, 337, 206, 464
-0.999538, 309, 311, 324, 326
-0.999538, 139, 375, 154, 390
-0.999538, 277, 229, 292, 244
-0.999538, 251, 299, 266, 314
-0.999539, 209, 185, 224, 200
-0.999539, 287, 235, 302, 250
-0.99954, 141, 291, 156, 306
-0.999541, 185, 279, 200, 294
-0.999541, 159, 319, 174, 334
-0.999542, 197, 193, 212, 320
-0.999542, 305, 325, 320, 340
-0.999543, 209, 149, 224, 164
-0.999543, 187, 223, 202, 238
-0.999543, 223, 217, 238, 232
-0.999544, 187, 137, 202, 152
-0.999544, 173, 351, 188, 366
-0.999545, 259, 301, 274, 316
-0.999545, 175, 345, 190, 360
-0.999545, 247, 315, 262, 330
-0.999546, 205, 207, 220, 222
-0.999547, 309, 363, 324, 378
-0.999547, 307, 351, 322, 366
-0.999547, 153, 319, 168, 334
-0.999547, 203, 305, 218, 320
-0.999547, 151, 299, 166, 314
-0.999548, 205, 281, 220, 296
-0.999549, 157, 307, 172, 322
-0.999549, 163, 353, 178, 480
-0.999549, 299, 253, 314, 268
-0.999549, 171, 229, 186, 244
-0.99955, 215, 307, 230, 322
-0.99955, 135, 297, 150, 312
-0.999551, 287, 347, 302, 362
-0.999551, 173, 323, 188, 338
-0.999552, 287, 221, 302, 236
-0.999552, 267, 303, 282, 318
-0.999553, 183, 325, 198, 340
-0.999554, 239, 259, 254, 274
-0.999555, 209, 157, 224, 172
-0.999556, 175, 329, 190, 344
-0.999556, 199, 287, 214, 302
-0.999556, 143, 329, 158, 344
-0.999557, 221, 193, 236, 208
-0.999558, 221, 307, 236, 322
-0.999558, 243, 211, 258, 226
-0.999559, 167, 299, 182, 314
-0.999559, 161, 291, 176, 306
-0.99956, 143, 307, 158, 322
-0.99956, 187, 131, 202, 146
-0.99956, 187, 353, 202, 368
-0.99956, 159, 373, 174, 388
-0.999561, 251, 221, 266, 236
-0.999562, 175, 217, 190, 232
-0.999563, 199, 281, 214, 296
-0.999563, 167, 331, 182, 346
-0.999564, 141, 369, 156, 384
-0.999564, 187, 177, 202, 304
-0.999564, 309, 317, 324, 332
-0.999564, 215, 213, 230, 228
-0.999565, 77, 445, 92, 460
-0.999565, 177, 227, 192, 242
-0.999565, 301, 305, 316, 432
-0.999566, 283, 193, 298, 320
-0.999568, 181, 221, 196, 236
-0.999569, 147, 321, 162, 336
-0.99957, 187, 285, 202, 300
-0.99957, 151, 369, 166, 384
-0.99957, 317, 317, 332, 332
-0.999571, 221, 297, 236, 312
-0.999571, 151, 313, 166, 328
-0.999572, 175, 287, 190, 302
-0.999572, 177, 281, 192, 296
-0.999572, 311, 345, 326, 360
-0.999572, 145, 353, 160, 480
-0.999573, 249, 205, 264, 220
-0.999573, 145, 375, 160, 390
-0.999573, 245, 191, 260, 206
-0.999574, 81, 161, 96, 288
-0.999577, 207, 193, 222, 208
-0.999578, 311, 337, 326, 464
-0.999578, 87, 161, 102, 288
-0.999579, 131, 291, 146, 306
-0.999581, 155, 349, 170, 364
-0.999582, 291, 193, 306, 320
-0.999583, 281, 223, 296, 238
-0.999583, 151, 375, 166, 390
-0.999584, 163, 305, 178, 320
-0.999584, 159, 325, 174, 340
-0.999585, 211, 207, 226, 222
-0.999585, 237, 229, 252, 244
-0.999585, 131, 241, 146, 368
-0.999585, 209, 143, 224, 158
-0.999585, 197, 307, 212, 322
-0.999586, 249, 211, 264, 226
-0.999587, 213, 201, 228, 216
-0.999588, 215, 297, 230, 312
-0.999588, 165, 323, 180, 338
-0.99959, 271, 193, 286, 320
-0.999591, 151, 305, 166, 320
-0.999592, 201, 299, 216, 314
-0.999594, 149, 331, 164, 346
-0.999594, 245, 225, 260, 240
-0.999594, 179, 351, 194, 366
-0.999594, 307, 357, 322, 372
-0.999597, 289, 305, 304, 432
-0.999598, 289, 341, 304, 356
-0.999599, 295, 339, 310, 354
-0.999599, 303, 193, 318, 320
-0.999599, 191, 309, 206, 324
-0.9996, 139, 225, 154, 352
-0.999601, 233, 145, 248, 272
-0.999601, 137, 353, 152, 480
-0.999601, 229, 369, 244, 496
-0.999602, 233, 217, 248, 232
-0.999605, 181, 305, 196, 320
-0.999607, 169, 283, 184, 298
-0.999608, 209, 133, 224, 148
-0.999609, 261, 295, 276, 310
-0.999609, 131, 353, 146, 480
-0.99961, 173, 299, 188, 314
-0.999611, 257, 177, 272, 304
-0.999613, 95, 353, 110, 480
-0.999613, 149, 349, 164, 364
-0.999613, 277, 321, 292, 448
-0.999616, 47, 353, 62, 480
-0.999616, 155, 339, 170, 354
-0.999621, 255, 213, 270, 228
-0.999625, 173, 305, 188, 320
-0.99963, 37, 161, 52, 288
-0.99963, 181, 287, 196, 302
-0.999631, 161, 331, 176, 346
-0.999632, 223, 321, 238, 448
-0.999633, 315, 309, 330, 324
-0.999634, 241, 337, 256, 464
-0.999636, 191, 299, 206, 314
-0.999639, 53, 161, 68, 288
-0.999641, 189, 291, 204, 306
-0.999641, 77, 369, 92, 496
-0.999642, 205, 113, 220, 240
-0.999643, 225, 65, 256, 320
-0.999644, 277, 209, 292, 336
-0.999647, 231, 227, 246, 242
-0.999649, 169, 97, 200, 352
-0.999651, 233, 97, 296, 352
-0.999653, 179, 293, 194, 308
-0.999653, 101, 321, 116, 448
-0.999653, 31, 161, 46, 288
-0.999654, 243, 217, 258, 232
-0.999655, 89, 353, 104, 480
-0.999663, 197, 337, 212, 464
-0.999663, 155, 331, 170, 346
-0.999667, 125, 193, 140, 320
-0.999671, 39, 353, 54, 480
-0.999673, 249, 353, 264, 480
-0.999674, 1, 425, 333, 488
-0.999674, 113, 353, 128, 480
-0.999675, 125, 257, 140, 384
-0.999679, 203, 337, 218, 464
-0.999679, 43, 161, 58, 288
-0.999681, 265, 177, 280, 304
-0.999681, 207, 273, 222, 400
-0.999684, 169, 223, 184, 238
-0.999684, 55, 353, 70, 480
-0.999685, 149, 209, 164, 336
-0.999686, 83, 353, 98, 480
-0.999686, 97, 161, 128, 416
-0.999689, 69, 353, 84, 480
-0.99969, 177, 369, 192, 496
-0.99969, 27, 241, 42, 368
-0.999694, 115, 129, 130, 256
-0.999696, 235, 353, 250, 480
-0.9997, 247, 145, 262, 272
-0.9997, 199, 113, 214, 240
-0.999701, 225, 129, 240, 256
-0.999701, 153, 325, 168, 340
-0.999706, 173, 293, 188, 308
-0.999707, 65, 161, 80, 288
-0.999711, 65, 409, 192, 440
-0.999715, 237, 223, 252, 238
-0.999716, 255, 353, 270, 480
-0.999716, 215, 305, 230, 432
-0.999717, 1, 161, 16, 288
-0.999718, 63, 305, 78, 432
-0.99972, 283, 305, 298, 432
-0.999722, 135, 177, 150, 304
-0.999728, 209, 33, 240, 288
-0.999729, 85, 161, 116, 416
-0.999731, 301, 257, 332, 500
-0.999737, 181, 299, 196, 314
-0.999739, 117, 129, 148, 256
-0.99974, 193, 121, 320, 152
-0.99975, 85, 289, 116, 416
-0.999792, 77, 257, 108, 500
-0.999801, 13, 161, 44, 416
-0.999852, 33, 161, 64, 416
-0.999883, 45, 257, 76, 384
-0.999889, 1, 161, 128, 192
-0.999896, 217, 105, 280, 168
-0.999931, 57, 161, 88, 416
-0.99994, 273, 145, 304, 272
-0.999955, 113, 129, 176, 256
-0.99997, 73, 161, 104, 416
-1.00003, 153, 121, 216, 184
-1.00004, 1, 161, 333, 224
-1.00008, 17, 257, 48, 500
-1.0001, 81, 157, 208, 188
-1.00021, 97, 117, 224, 148
-1.00033, 97, 97, 224, 160
-1.00033, 1, 161, 32, 416
-1.00034, 61, 257, 92, 500
-1.00034, 289, 129, 320, 384
-1.00043, 1, 257, 32, 500
-1.00045, 265, 97, 296, 352
-1.00045, 1, 137, 64, 200
-1.00047, 197, 33, 228, 288
-1.00047, 29, 257, 60, 500
-1.00053, 277, 353, 308, 480
-1.00054, 93, 65, 124, 320
-1.00054, 45, 161, 76, 416
-1.0006, 89, 241, 120, 368
-1.00061, 45, 257, 76, 500
-1.00061, 33, 113, 288, 176
-1.00064, 217, 1, 280, 256
-1.00069, 169, 33, 232, 288
-1.0007, 81, 129, 208, 160
-1.00071, 13, 65, 44, 320
-1.00071, 113, 65, 144, 320
-1.00073, 177, 109, 304, 140
-1.00074, 129, 177, 192, 240
-1.00074, 301, 65, 332, 320
-1.00077, 25, 137, 88, 200
-1.00077, 33, 149, 160, 180
-1.00079, 73, 65, 104, 320
-1.0008, 33, 65, 64, 320
-1.00084, 165, 1, 196, 256
-1.00091, 57, 65, 88, 320
-1.00091, 81, 145, 208, 176
-1.00092, 1, 29, 128, 60
-1.00093, 69, 257, 100, 384
-1.00094, 253, 65, 284, 320
-1.00097, 125, 65, 156, 320
-1.00097, 129, 105, 256, 136
-1.00098, 45, 65, 76, 320
-1.00099, 1, 65, 32, 320
-1.001, 49, 17, 176, 48
-1.001, 49, 29, 176, 60
-1.00103, 17, 133, 144, 164
-1.00104, 149, 65, 180, 320
-1.00104, 81, 101, 208, 132
-1.00106, 49, 5, 176, 36
-1.00106, 1, 1, 128, 32
-1.00106, 1, 41, 128, 72
-1.00106, 129, 93, 256, 124
-1.00106, 177, 93, 304, 124
-1.00106, 17, 121, 144, 152
-1.00107, 113, 65, 240, 96
-1.00107, 161, 69, 288, 100
-1.00107, 209, 69, 333, 100
-1.00107, 17, 73, 144, 104
-1.00107, 65, 73, 192, 104
-1.00107, 113, 77, 240, 108
-1.00107, 161, 81, 288, 112
-1.00107, 209, 81, 333, 112
-1.00107, 33, 85, 160, 116
-1.00107, 81, 89, 208, 120
-1.00107, 33, 97, 160, 128
-1.00107, 33, 109, 160, 140
-1.00107, 281, 33, 312, 288
-1.00119, 89, 113, 120, 240
-1.0012, 213, 81, 244, 208
-1.00121, 177, 89, 304, 152
-1.00124, 77, 209, 108, 336
-1.00126, 237, 33, 268, 288
-1.00131, 161, 113, 192, 240
-1.00138, 41, 209, 72, 336
-1.00143, 153, 145, 216, 208
-1.00143, 1, 89, 256, 152
-1.00149, 137, 33, 168, 288
-1.00166, 265, 1, 296, 256
-1.00177, 1, 273, 32, 400
-1.00186, 33, 65, 96, 320
-1.00188, 33, 57, 288, 120
-1.00191, 65, 1, 320, 64
-1.00191, 1, 25, 256, 88
-1.0021, 53, 113, 84, 240
-1.00212, 17, 121, 144, 184
-1.00219, 21, 113, 52, 240
-1.00224, 69, 113, 100, 240
-1.00227, 17, 17, 144, 80
-1.00227, 1, 73, 128, 136
-1.00236, 41, 113, 72, 240
-1.00254, 1, 49, 128, 112
-1.00254, 121, 153, 184, 216
-1.00262, 65, 1, 192, 64
-1.00262, 49, 57, 176, 120
-1.00274, 65, 33, 192, 96
-1.00276, 113, 73, 240, 136
-1.00284, 1, 137, 333, 200
-1.00284, 9, 65, 72, 320
-1.00288, 49, 97, 176, 160
-1.00291, 113, 1, 240, 64
-1.00291, 161, 1, 288, 64
-1.00291, 209, 17, 333, 80
-1.00291, 113, 25, 240, 88
-1.00291, 161, 25, 288, 88
-1.00291, 209, 41, 333, 104
-1.00291, 129, 49, 256, 112
-1.00291, 177, 65, 304, 128
-1.00305, 1, 97, 128, 160
-1.00321, 1, 113, 32, 240
-1.00327, 105, 113, 136, 240
-1.00334, 1, 33, 256, 160
-1.00342, 177, 65, 240, 192
-1.00344, 257, 65, 320, 320
-1.00364, 1, 1, 333, 64
-1.00367, 1, 57, 333, 120
-1.00371, 1, 25, 333, 88
-1.00374, 225, 97, 288, 224
-1.00381, 165, 65, 196, 192
-1.00381, 1, 81, 333, 144
-1.00389, 1, 105, 333, 168
-1.00444, 129, 129, 160, 256
-1.00456, 57, 65, 120, 320
-1.00468, 137, 97, 200, 160
-1.00493, 145, 129, 176, 256
-1.005, 113, 65, 176, 320
-1.0052, 97, 137, 160, 200
-1.00522, 285, 113, 316, 240
-1.00532, 25, 113, 88, 240
-1.00541, 201, 81, 232, 208
-1.00547, 261, 129, 292, 256
-1.00577, 137, 33, 200, 288
-1.00581, 17, 17, 144, 144
-1.00598, 81, 33, 144, 288
-1.00602, 117, 81, 148, 208
-1.00652, 113, 33, 240, 160
-1.00654, 189, 33, 220, 160
-1.0068, 177, 81, 240, 144
-1.00693, 193, 1, 256, 256
-1.00694, 213, 33, 244, 160
-1.00722, 65, 121, 128, 184
-1.00728, 265, 113, 328, 240
-1.0073, 297, 97, 328, 224
-1.00737, 241, 97, 272, 224
-1.00744, 37, 1, 68, 128
-1.00744, 105, 17, 136, 144
-1.00751, 25, 1, 56, 128
-1.00753, 137, 65, 200, 192
-1.00759, 117, 17, 148, 144
-1.00767, 69, 65, 100, 192
-1.00771, 85, 17, 116, 144
-1.00772, 177, 33, 304, 160
-1.00786, 129, 17, 160, 144
-1.00804, 97, 65, 128, 192
-1.00809, 1, 9, 64, 72
-1.0081, 65, 17, 192, 144
-1.00821, 201, 81, 264, 144
-1.00825, 121, 129, 184, 192
-1.00827, 49, 81, 112, 144
-1.00839, 33, 25, 96, 88
-1.00844, 25, 73, 88, 136
-1.00856, 73, 81, 136, 208
-1.0086, 9, 33, 72, 96
-1.00871, 49, 65, 176, 192
-1.00873, 65, 57, 128, 120
-1.01004, 25, 1, 88, 128
-1.01032, 217, 49, 280, 176
-1.01095, 89, 17, 152, 144
-1.0113, 145, 81, 272, 208
-1.01134, 1, 65, 128, 192
-1.01158, 113, 81, 176, 208
-1.01166, 113, 17, 176, 144
-1.01182, 49, 1, 112, 128
-1.01231, 1, 1, 64, 128
-1.01272, 177, 17, 240, 144
-1.01274, 33, 65, 96, 192
-1.01335, 273, 1, 333, 128
-1.01386, 137, 17, 200, 144
-1.01442, 249, 1, 312, 128
-1.01445, 265, 49, 328, 176
-1.01452, 209, 1, 272, 128
-1.01505, 1, 65, 64, 192
-1.01529, 241, 49, 304, 176
