1971
-0.341498, 1, 1, 500, 375
-0.446086, 1, 1, 500, 256
-0.480458, 1, 129, 500, 375
-0.514294, 161, 1, 416, 375
-0.54006, 257, 1, 500, 375
-0.628388, 33, 1, 288, 375
-0.711301, 193, 33, 448, 288
-0.722431, 129, 129, 384, 375
-0.741198, 257, 129, 500, 375
-0.742575, 97, 33, 352, 288
-0.776635, 1, 97, 256, 352
-0.791447, 1, 1, 256, 256
-0.879779, 1, 225, 500, 352
-0.885521, 129, 1, 256, 375
-0.891324, 129, 97, 256, 352
-0.892577, 209, 1, 336, 375
-0.895056, 257, 1, 384, 256
-0.895203, 65, 1, 192, 375
-0.895806, 273, 1, 400, 375
-0.905533, 305, 129, 432, 375
-0.905674, 177, 1, 304, 256
-0.907747, 129, 1, 256, 256
-0.910572, 17, 1, 144, 375
-0.911792, 1, 49, 500, 176
-0.91256, 65, 129, 192, 375
-0.91362, 1, 161, 500, 288
-0.920407, 257, 129, 384, 375
-0.921254, 1, 1, 128, 256
-0.922167, 81, 33, 208, 288
-0.924981, 17, 97, 144, 352
-0.925219, 321, 1, 448, 375
-0.926684, 1, 97, 500, 224
-0.927262, 353, 129, 480, 375
-0.931682, 209, 97, 336, 352
-0.932851, 305, 33, 432, 288
-0.934285, 1, 1, 500, 128
-0.934291, 97, 17, 352, 144
-0.940166, 193, 49, 448, 176
-0.941435, 161, 241, 416, 368
-0.941722, 369, 1, 496, 256
-0.941861, 369, 1, 496, 375
-0.942057, 257, 241, 500, 368
-0.943207, 225, 177, 480, 304
-0.947517, 113, 241, 176, 368
-0.948905, 65, 209, 192, 336
-0.94963, 1, 161, 256, 288
-0.950139, 193, 1, 448, 128
-0.951016, 137, 193, 200, 320
-0.951532, 257, 241, 384, 368
-0.951614, 145, 241, 272, 368
-0.951907, 177, 17, 304, 144
-0.952888, 65, 225, 320, 352
-0.953366, 257, 17, 384, 144
-0.953516, 1, 81, 256, 208
-0.954818, 321, 161, 448, 288
-0.956142, 97, 97, 352, 224
-0.956191, 129, 193, 256, 320
-0.956403, 1, 17, 256, 144
-0.957023, 129, 33, 192, 160
-0.957332, 129, 177, 384, 304
-0.957346, 297, 33, 360, 96
-0.957546, 113, 193, 176, 320
-0.957582, 129, 33, 256, 160
-0.957598, 273, 145, 400, 272
-0.95776, 305, 209, 432, 336
-0.958726, 257, 129, 500, 256
-0.958861, 289, 17, 352, 144
-0.959657, 385, 177, 448, 304
-0.960601, 361, 209, 424, 336
-0.960838, 257, 65, 384, 192
-0.960928, 265, 17, 328, 144
-0.961117, 145, 241, 208, 368
-0.961322, 169, 241, 232, 368
-0.961419, 129, 81, 256, 208
-0.961863, 225, 1, 288, 128
-0.961889, 153, 113, 216, 240
-0.962502, 137, 305, 200, 368
-0.963087, 369, 145, 496, 272
-0.963109, 177, 49, 240, 176
-0.963117, 137, 217, 200, 280
-0.963437, 33, 161, 160, 288
-0.963505, 141, 193, 172, 320
-0.964944, 313, 265, 376, 328
-0.965115, 129, 241, 192, 304
-0.965176, 17, 65, 80, 192
-0.965229, 289, 225, 352, 352
-0.965388, 113, 145, 176, 272
-0.965768, 313, 241, 376, 368
-0.966065, 153, 65, 216, 192
-0.966125, 265, 225, 328, 352
-0.966212, 265, 25, 328, 88
-0.966252, 81, 33, 208, 160
-0.966378, 129, 145, 256, 272
-0.966382, 345, 161, 408, 288
-0.966583, 113, 265, 176, 328
-0.966617, 313, 33, 376, 160
-0.966747, 1, 113, 128, 240
-0.966974, 17, 17, 144, 144
-0.967396, 265, 281, 328, 344
-0.967622, 137, 273, 200, 336
-0.967924, 177, 65, 304, 192
-0.968153, 25, 129, 88, 256
-0.968341, 145, 193, 208, 256
-0.968558, 225, 193, 352, 320
-0.968633, 33, 1, 96, 128
-0.969485, 141, 217, 172, 280
-0.969522, 305, 1, 432, 128
-0.969903, 265, 1, 328, 64
-0.970107, 113, 201, 176, 264
-0.970231, 169, 81, 232, 144
-0.97031, 353, 209, 480, 336
-0.970438, 137, 89, 200, 152
-0.970515, 145, 265, 176, 328
-0.970525, 257, 177, 320, 304
-0.970599, 113, 289, 176, 352
-0.970717, 225, 1, 288, 64
-0.971179, 161, 313, 224, 375
-0.971248, 297, 113, 360, 240
-0.971283, 289, 65, 352, 192
-0.971614, 401, 225, 464, 352
-0.97191, 17, 209, 80, 336
-0.972226, 177, 113, 304, 240
-0.97241, 417, 113, 480, 240
-0.97242, 145, 241, 176, 368
-0.972458, 241, 289, 304, 352
-0.972711, 233, 225, 296, 352
-0.972767, 177, 1, 240, 128
-0.972826, 145, 289, 176, 352
-0.972956, 209, 241, 336, 368
-0.97297, 81, 81, 208, 208
-0.973028, 321, 161, 384, 288
-0.973068, 113, 81, 176, 208
-0.97352, 97, 225, 160, 288
-0.973687, 361, 177, 424, 240
-0.973734, 289, 273, 352, 336
-0.973753, 321, 97, 448, 224
-0.973969, 153, 121, 216, 184
-0.973998, 265, 97, 328, 224
-0.974108, 137, 49, 200, 112
-0.974124, 161, 177, 224, 304
-0.97415, 89, 241, 152, 368
-0.974151, 141, 241, 172, 304
-0.974269, 25, 57, 88, 120
-0.974365, 41, 177, 104, 304
-0.97441, 157, 297, 188, 360
-0.974594, 177, 25, 240, 88
-0.974723, 121, 177, 184, 240
-0.974754, 353, 265, 416, 328
-0.974807, 153, 201, 184, 264
-0.974986, 33, 185, 96, 248
-0.975018, 425, 145, 488, 208
-0.975076, 313, 241, 376, 304
-0.975094, 177, 57, 240, 120
-0.975169, 153, 1, 216, 128
-0.975344, 265, 137, 328, 200
-0.975394, 185, 313, 248, 375
-0.975401, 257, 49, 320, 112
-0.975449, 337, 241, 400, 368
-0.975512, 89, 193, 152, 320
-0.975513, 33, 65, 160, 192
-0.975576, 89, 193, 152, 256
-0.975697, 257, 177, 320, 240
-0.97579, 153, 241, 216, 304
-0.975888, 281, 177, 344, 304
-0.976212, 81, 297, 208, 360
-0.976232, 313, 33, 344, 96
-0.976257, 297, 297, 360, 360
-0.976318, 225, 25, 288, 88
-0.976362, 225, 129, 352, 256
-0.976365, 385, 201, 448, 264
-0.976468, 257, 33, 384, 96
-0.97648, 337, 1, 400, 128
-0.976594, 305, 1, 368, 64
-0.976622, 137, 25, 200, 88
-0.976678, 297, 65, 360, 128
-0.976716, 161, 289, 224, 352
-0.976728, 209, 241, 272, 368
-0.976822, 297, 137, 360, 200
-0.977068, 105, 1, 168, 128
-0.97736, 177, 97, 240, 224
-0.977417, 321, 49, 384, 112
-0.97749, 401, 233, 464, 296
-0.977679, 25, 161, 88, 224
-0.977723, 369, 97, 496, 224
-0.977842, 129, 209, 160, 336
-0.977904, 129, 289, 256, 352
-0.977989, 257, 281, 384, 344
-0.977994, 89, 249, 152, 312
-0.978029, 9, 17, 72, 144
-0.97806, 17, 209, 144, 336
-0.978093, 289, 241, 352, 304
-0.978235, 241, 129, 304, 256
-0.978578, 281, 169, 344, 232
-0.97861, 177, 113, 240, 176
-0.978643, 297, 201, 360, 264
-0.97866, 209, 41, 336, 104
-0.978787, 73, 145, 136, 272
-0.978857, 233, 169, 296, 232
-0.978863, 273, 217, 336, 280
-0.978897, 337, 169, 400, 232
-0.978952, 141, 193, 172, 256
-0.978974, 9, 121, 72, 184
-0.979006, 225, 313, 288, 375
-0.97907, 105, 1, 168, 64
-0.979077, 157, 225, 188, 352
-0.97931, 89, 49, 152, 176
-0.979349, 401, 257, 464, 320
-0.97943, 161, 313, 288, 375
-0.979431, 65, 225, 128, 352
-0.979472, 241, 65, 368, 128
-0.979592, 25, 33, 88, 96
-0.979662, 133, 281, 164, 344
-0.979868, 129, 121, 256, 184
-0.979895, 81, 145, 208, 272
-0.979904, 361, 233, 424, 296
-0.979932, 113, 217, 240, 280
-0.979937, 289, 169, 416, 232
-0.979948, 137, 1, 200, 256
-0.979949, 161, 33, 288, 96
-0.979965, 325, 41, 356, 104
-0.980024, 209, 313, 336, 375
-0.980039, 137, 97, 200, 352
-0.980192, 113, 313, 176, 375
-0.980227, 1, 73, 64, 136
-0.980276, 201, 193, 264, 320
-0.980336, 321, 113, 384, 240
-0.980602, 41, 241, 104, 368
-0.980625, 137, 1, 200, 64
-0.98081, 361, 201, 424, 264
-0.980842, 49, 225, 112, 288
-0.980912, 209, 1, 336, 64
-0.980978, 49, 273, 176, 336
-0.981007, 137, 1, 168, 128
-0.981021, 209, 289, 336, 352
-0.981064, 305, 161, 368, 224
-0.981218, 289, 1, 352, 256
-0.981307, 225, 49, 288, 176
-0.981413, 241, 145, 304, 208
-0.981462, 305, 49, 432, 176
-0.981486, 313, 17, 344, 144
-0.981487, 97, 89, 224, 152
-0.981488, 113, 41, 176, 104
-0.981576, 393, 185, 424, 248
-0.98162, 161, 9, 288, 72
-0.981736, 65, 217, 192, 280
-0.981897, 17, 1, 80, 256
-0.981953, 129, 65, 256, 128
-0.982062, 153, 177, 184, 304
-0.98215, 325, 33, 356, 160
-0.982226, 433, 65, 496, 192
-0.982287, 141, 145, 172, 272
-0.982388, 57, 281, 120, 344
-0.982555, 177, 193, 304, 320
-0.98258, 269, 289, 300, 352
-0.982601, 425, 105, 488, 168
-0.98261, 329, 217, 392, 280
-0.982628, 313, 1, 376, 256
-0.982661, 145, 193, 272, 256
-0.982802, 33, 1, 96, 64
-0.982895, 65, 177, 128, 240
-0.982901, 329, 289, 392, 352
-0.982954, 21, 65, 52, 192
-0.982969, 409, 201, 440, 264
-0.982978, 65, 241, 192, 304
-0.983045, 97, 33, 224, 96
-0.983057, 153, 169, 216, 232
-0.983062, 357, 273, 388, 336
-0.983077, 377, 257, 440, 320
-0.983102, 337, 49, 368, 112
-0.983124, 125, 241, 156, 304
-0.983145, 1, 161, 64, 288
-0.983164, 281, 129, 344, 375
-0.983222, 177, 81, 304, 144
-0.983356, 153, 233, 184, 296
-0.983424, 337, 217, 464, 280
-0.983448, 113, 121, 176, 184
-0.983466, 369, 153, 496, 216
-0.983566, 217, 49, 280, 112
-0.983577, 105, 129, 168, 375
-0.983602, 113, 153, 176, 216
-0.983626, 65, 177, 192, 240
-0.98368, 337, 17, 400, 80
-0.98372, 17, 97, 80, 160
-0.98382, 257, 9, 384, 72
-0.983835, 305, 193, 432, 256
-0.983878, 285, 281, 316, 344
-0.983992, 321, 265, 448, 328
-0.983998, 193, 217, 256, 280
-0.984024, 145, 313, 176, 375
-0.98412, 153, 177, 184, 240
-0.984163, 301, 33, 332, 96
-0.984288, 177, 1, 240, 64
-0.984351, 257, 289, 288, 352
-0.984371, 345, 265, 376, 328
-0.98439, 297, 225, 328, 352
-0.984563, 257, 145, 384, 208
-0.984563, 381, 161, 412, 288
-0.9846, 129, 1, 160, 64
-0.984624, 65, 97, 128, 224
-0.98467, 397, 177, 428, 304
-0.984684, 381, 177, 412, 240
-0.984711, 257, 129, 320, 375
-0.984718, 313, 1, 344, 64
-0.984718, 17, 33, 144, 96
-0.984757, 433, 97, 496, 352
-0.984815, 1, 209, 64, 272
-0.984815, 369, 129, 432, 256
-0.984855, 1, 153, 128, 216
-0.984864, 305, 129, 368, 375
-0.984937, 193, 193, 320, 256
-0.985025, 425, 225, 488, 352
-0.985068, 353, 289, 416, 352
-0.985105, 1, 25, 64, 88
-0.98516, 241, 193, 368, 256
-0.985168, 409, 193, 440, 320
-0.985192, 197, 313, 228, 375
-0.985197, 81, 1, 208, 64
-0.985222, 265, 305, 328, 368
-0.985315, 1, 49, 64, 112
-0.985417, 113, 241, 240, 304
-0.985429, 409, 161, 472, 288
-0.985461, 301, 17, 332, 144
-0.985469, 33, 1, 160, 64
-0.985481, 145, 265, 272, 328
-0.985575, 321, 241, 448, 304
-0.985612, 193, 193, 256, 256
-0.985747, 357, 241, 388, 368
-0.985783, 181, 81, 212, 144
-0.985792, 337, 33, 368, 160
-0.98582, 29, 65, 60, 128
-0.985839, 257, 257, 384, 320
-0.985845, 305, 273, 336, 336
-0.98589, 169, 217, 232, 280
-0.985895, 265, 249, 328, 312
-0.98593, 337, 193, 400, 256
-0.985933, 241, 201, 304, 264
-0.986013, 425, 233, 456, 296
-0.986036, 137, 1, 200, 375
-0.986097, 1, 1, 64, 64
-0.986197, 129, 217, 160, 280
-0.9862, 329, 129, 360, 256
-0.986206, 321, 65, 352, 128
-0.986227, 65, 145, 128, 208
-0.986304, 281, 113, 344, 176
-0.986305, 33, 17, 64, 144
-0.986308, 401, 169, 464, 232
-0.986322, 433, 161, 496, 288
-0.986323, 305, 1, 432, 64
-0.986338, 161, 265, 224, 328
-0.986356, 209, 241, 336, 304
-0.986372, 361, 129, 424, 375
-0.986378, 345, 113, 408, 240
-0.986398, 177, 313, 208, 375
-0.986425, 73, 305, 136, 368
-0.986497, 141, 169, 172, 232
-0.986543, 113, 97, 176, 160
-0.986576, 169, 193, 232, 256
-0.986684, 217, 289, 280, 352
-0.986702, 65, 145, 192, 208
-0.98674, 153, 145, 216, 208
-0.986747, 345, 241, 376, 368
-0.986753, 81, 65, 208, 128
-0.986784, 369, 33, 496, 160
-0.986789, 165, 1, 196, 128
-0.98679, 89, 65, 152, 128
-0.986805, 89, 273, 152, 336
-0.986808, 217, 33, 280, 288
-0.986828, 269, 41, 300, 104
-0.986837, 177, 113, 304, 176
-0.986861, 17, 193, 144, 256
-0.986886, 217, 225, 280, 288
-0.986913, 321, 25, 448, 88
-0.986982, 369, 209, 400, 336
-0.987082, 337, 129, 400, 375
-0.987176, 265, 225, 296, 352
-0.987203, 1, 57, 128, 120
-0.987223, 337, 49, 400, 176
-0.987226, 317, 241, 348, 368
-0.987227, 185, 145, 248, 272
-0.987262, 209, 97, 272, 224
-0.987322, 89, 97, 152, 160
-0.98735, 113, 73, 176, 136
-0.9874, 157, 273, 188, 336
-0.987404, 113, 1, 176, 375
-0.987434, 321, 257, 352, 320
-0.987436, 337, 241, 400, 304
-0.987449, 393, 281, 456, 344
-0.987458, 273, 217, 400, 280
-0.987473, 305, 289, 432, 352
-0.987479, 65, 113, 192, 176
-0.987486, 1, 113, 32, 176
-0.987613, 113, 33, 176, 288
-0.987621, 269, 145, 300, 208
-0.98765, 33, 249, 96, 312
-0.987674, 25, 1, 88, 375
-0.987754, 241, 265, 304, 328
-0.987884, 397, 225, 428, 352
-0.987908, 225, 169, 352, 232
-0.987988, 353, 185, 480, 248
-0.988013, 33, 225, 64, 288
-0.988017, 21, 97, 52, 160
-0.988044, 257, 41, 288, 104
-0.988051, 265, 33, 328, 288
-0.988051, 165, 193, 196, 256
-0.98806, 389, 209, 420, 272
-0.988075, 169, 105, 200, 168
-0.988091, 453, 105, 484, 168
-0.988106, 313, 65, 344, 192
-0.988119, 21, 17, 52, 144
-0.988125, 257, 305, 384, 368
-0.988146, 169, 81, 200, 208
-0.988213, 277, 225, 308, 352
-0.988232, 309, 209, 340, 272
-0.988236, 401, 129, 464, 375
-0.988254, 233, 177, 296, 304
-0.988256, 305, 1, 368, 375
-0.988291, 1, 273, 128, 336
-0.9883, 9, 41, 40, 104
-0.988307, 385, 209, 416, 336
-0.988344, 1, 249, 128, 312
-0.988352, 1, 105, 128, 168
-0.98837, 289, 57, 416, 120
-0.988385, 201, 105, 264, 168
-0.988387, 341, 241, 372, 304
-0.9884, 369, 265, 400, 328
-0.988445, 361, 161, 392, 288
-0.988455, 185, 65, 216, 192
-0.988551, 365, 169, 396, 232
-0.988616, 377, 201, 408, 264
-0.988622, 185, 289, 248, 352
-0.988658, 177, 65, 240, 320
-0.988728, 209, 81, 272, 144
-0.988764, 125, 145, 156, 272
-0.988786, 469, 97, 500, 224
-0.9888, 9, 233, 72, 296
-0.988882, 225, 217, 352, 280
-0.988886, 409, 241, 440, 368
-0.98895, 209, 257, 272, 320
-0.988969, 369, 265, 496, 328
-0.988982, 57, 249, 120, 312
-0.989023, 65, 193, 96, 320
-0.989052, 133, 305, 164, 368
-0.989071, 321, 145, 448, 208
-0.989073, 145, 169, 272, 232
-0.989085, 209, 265, 336, 328
-0.989087, 421, 193, 452, 320
-0.989166, 289, 177, 320, 240
-0.989204, 237, 297, 268, 360
-0.989214, 321, 137, 384, 200
-0.989245, 33, 305, 96, 368
-0.989253, 1, 1, 64, 375
-0.989275, 161, 217, 288, 280
-0.989309, 241, 33, 304, 288
-0.989312, 333, 273, 364, 336
-0.989348, 1, 97, 32, 224
-0.989428, 25, 209, 88, 272
-0.989435, 265, 33, 296, 160
-0.989477, 33, 33, 64, 96
-0.989563, 1, 49, 32, 176
-0.989587, 297, 41, 360, 72
-0.989632, 453, 81, 484, 208
-0.989633, 369, 105, 496, 168
-0.989638, 425, 249, 488, 312
-0.989639, 25, 193, 56, 320
-0.989647, 253, 225, 284, 352
-0.989662, 329, 81, 360, 208
-0.989671, 181, 105, 212, 168
-0.989696, 177, 169, 240, 232
-0.98973, 153, 325, 216, 356
-0.989734, 125, 193, 156, 256
-0.989768, 317, 113, 348, 240
-0.989874, 369, 241, 496, 304
-0.989882, 409, 249, 440, 312
-0.989927, 1, 129, 128, 192
-0.989931, 65, 113, 128, 176
-0.989961, 1, 113, 64, 240
-0.989994, 145, 341, 208, 372
-0.99001, 129, 325, 192, 356
-0.990027, 345, 161, 376, 288
-0.990072, 137, 213, 200, 244
-0.990104, 409, 209, 472, 272
-0.990125, 129, 233, 192, 264
-0.990216, 45, 241, 76, 368
-0.990217, 421, 209, 452, 272
-0.990232, 49, 89, 176, 152
-0.990245, 145, 313, 208, 344
-0.990249, 153, 201, 216, 232
-0.99031, 341, 25, 372, 88
-0.990316, 265, 145, 296, 272
-0.990322, 301, 241, 332, 304
-0.990327, 281, 129, 312, 192
-0.990344, 165, 49, 196, 112
-0.990344, 325, 129, 356, 192
-0.990363, 121, 309, 184, 340
-0.990391, 137, 277, 200, 308
-0.990401, 469, 121, 500, 184
-0.990413, 33, 273, 96, 336
-0.990425, 141, 25, 172, 88
-0.990431, 113, 217, 176, 248
-0.990442, 329, 209, 360, 336
-0.990458, 45, 257, 76, 320
-0.990463, 73, 217, 136, 280
-0.990495, 57, 129, 120, 375
-0.990543, 265, 1, 328, 375
-0.990585, 113, 205, 176, 236
-0.990585, 141, 49, 172, 176
-0.990592, 265, 177, 296, 240
-0.990656, 265, 29, 328, 60
-0.990671, 345, 289, 376, 352
-0.99069, 33, 297, 160, 360
-0.990702, 241, 121, 368, 184
-0.990722, 241, 241, 304, 304
-0.990752, 97, 229, 160, 260
-0.990755, 145, 117, 208, 148
-0.990764, 177, 325, 240, 356
-0.990779, 113, 269, 176, 300
-0.990803, 409, 177, 440, 240
-0.99083, 137, 265, 200, 296
-0.990928, 129, 97, 160, 224
-0.990939, 169, 109, 232, 140
-0.990952, 313, 265, 376, 296
-0.990988, 137, 289, 200, 320
-0.991003, 113, 245, 176, 276
-0.991014, 177, 121, 240, 152
-0.991044, 177, 81, 240, 112
-0.99106, 145, 145, 272, 208
-0.991093, 325, 233, 356, 296
-0.991106, 17, 193, 48, 256
-0.991111, 1, 81, 128, 144
-0.991112, 273, 17, 304, 80
-0.991114, 341, 153, 372, 216
-0.991123, 153, 225, 216, 256
-0.991132, 225, 45, 288, 76
-0.991146, 201, 317, 264, 348
-0.991189, 17, 217, 144, 280
-0.99119, 353, 273, 416, 304
-0.991199, 121, 181, 184, 212
-0.991247, 385, 273, 416, 336
-0.991258, 185, 337, 248, 368
-0.991262, 281, 289, 344, 320
-0.99127, 369, 209, 432, 240
-0.991282, 53, 217, 84, 280
-0.991289, 317, 281, 348, 344
-0.991325, 113, 257, 176, 288
-0.99134, 145, 301, 208, 332
-0.991351, 309, 65, 340, 128
-0.991354, 201, 49, 264, 176
-0.991373, 369, 129, 496, 192
-0.991395, 169, 289, 200, 352
-0.991406, 241, 297, 304, 328
-0.991411, 17, 65, 48, 128
-0.991413, 113, 293, 176, 324
-0.99143, 205, 105, 236, 168
-0.991436, 313, 253, 376, 284
-0.991442, 169, 97, 232, 128
-0.991447, 153, 237, 216, 268
-0.991458, 221, 313, 252, 375
-0.991463, 117, 49, 148, 176
-0.991486, 169, 313, 232, 344
-0.991494, 177, 41, 240, 72
-0.991518, 177, 241, 208, 368
-0.991522, 137, 9, 200, 40
-0.991538, 177, 69, 240, 100
-0.991546, 265, 17, 328, 48
-0.991547, 265, 53, 328, 84
-0.991558, 137, 97, 200, 128
-0.991559, 353, 181, 416, 212
-0.991562, 157, 73, 188, 136
-0.991562, 273, 137, 336, 168
-0.991566, 161, 213, 224, 244
-0.99157, 309, 177, 340, 304
-0.99157, 177, 1, 240, 375
-0.991584, 265, 65, 328, 96
-0.991588, 265, 185, 328, 216
-0.991613, 229, 1, 260, 128
-0.991633, 61, 193, 92, 256
-0.991634, 137, 85, 200, 116
-0.991635, 225, 5, 288, 36
-0.991636, 157, 65, 188, 192
-0.991641, 301, 177, 332, 240
-0.991647, 265, 277, 328, 308
-0.991695, 137, 249, 200, 280
-0.991696, 289, 177, 320, 304
-0.991697, 113, 281, 176, 312
-0.991698, 9, 97, 72, 352
-0.991705, 225, 21, 288, 52
-0.991706, 209, 145, 336, 208
-0.991721, 137, 45, 200, 76
-0.991724, 25, 57, 88, 88
-0.991732, 1, 73, 32, 136
-0.991736, 325, 169, 356, 232
-0.991739, 145, 129, 208, 160
-0.99174, 153, 129, 184, 256
-0.991747, 21, 129, 52, 256
-0.99175, 305, 65, 368, 96
-0.991754, 89, 241, 152, 272
-0.99176, 401, 241, 464, 272
-0.991767, 241, 321, 304, 352
-0.991786, 1, 73, 64, 104
-0.9918, 153, 189, 216, 220
-0.991813, 1, 133, 64, 164
-0.991815, 41, 1, 72, 64
-0.991815, 265, 5, 328, 36
-0.991817, 17, 153, 80, 184
-0.991826, 421, 145, 452, 272
-0.991843, 337, 253, 400, 284
-0.991843, 313, 281, 376, 312
-0.991848, 289, 173, 352, 204
-0.991849, 1, 1, 64, 32
-0.991866, 241, 309, 304, 340
-0.991867, 209, 329, 272, 360
-0.991868, 185, 229, 248, 260
-0.991887, 97, 265, 224, 328
-0.991893, 297, 145, 360, 176
-0.991897, 121, 193, 184, 224
-0.991903, 9, 1, 40, 128
-0.991903, 145, 25, 208, 56
-0.991918, 25, 45, 88, 76
-0.991923, 377, 197, 440, 228
-0.99193, 313, 293, 376, 324
-0.991933, 337, 53, 400, 84
-0.991937, 273, 301, 336, 332
-0.991956, 33, 217, 96, 248
-0.991982, 241, 57, 304, 88
-0.991984, 177, 53, 240, 84
-0.991991, 289, 273, 352, 304
-0.991994, 257, 41, 320, 72
-0.991994, 25, 205, 88, 236
-0.991996, 25, 29, 88, 60
-0.991997, 277, 185, 308, 248
-0.992007, 425, 157, 488, 188
-0.992022, 337, 285, 400, 316
-0.992045, 225, 33, 288, 64
-0.992046, 337, 169, 400, 200
-0.992049, 17, 93, 80, 124
-0.992049, 137, 57, 200, 88
-0.992065, 313, 305, 376, 336
-0.99207, 353, 289, 480, 352
-0.992085, 137, 69, 200, 100
-0.992095, 65, 249, 96, 312
-0.992103, 177, 29, 240, 60
-0.992103, 73, 177, 104, 240
-0.992104, 233, 153, 296, 184
-0.992106, 25, 185, 88, 216
-0.99211, 365, 241, 396, 304
-0.992115, 361, 261, 424, 292
-0.992117, 241, 193, 304, 224
-0.992119, 385, 221, 448, 252
-0.992127, 265, 173, 328, 204
-0.992138, 145, 289, 176, 320
-0.992139, 289, 217, 352, 248
-0.992143, 157, 325, 188, 356
-0.99215, 265, 201, 328, 232
-0.992153, 201, 1, 264, 375
-0.99216, 25, 69, 88, 100
-0.992161, 41, 237, 104, 268
-0.992169, 9, 105, 72, 136
-0.992199, 97, 345, 160, 375
-0.992212, 209, 297, 240, 360
-0.992218, 361, 285, 424, 316
-0.992223, 305, 1, 368, 32
-0.992229, 221, 209, 252, 272
-0.992238, 217, 305, 280, 336
-0.992239, 393, 265, 456, 296
-0.992244, 153, 305, 184, 336
-0.992247, 57, 277, 120, 308
-0.992257, 257, 153, 320, 184
-0.992257, 17, 165, 80, 196
-0.992258, 277, 113, 308, 240
-0.992265, 305, 193, 368, 224
-0.99227, 325, 17, 356, 80
-0.99227, 249, 141, 312, 172
-0.992279, 89, 217, 152, 248
-0.992281, 1, 1, 256, 64
-0.992282, 177, 13, 240, 44
-0.992285, 313, 169, 376, 200
-0.992293, 161, 277, 224, 308
-0.992296, 145, 205, 176, 236
-0.992297, 17, 269, 80, 300
-0.992298, 321, 233, 384, 264
-0.992302, 33, 17, 96, 48
-0.992306, 193, 305, 448, 368
-0.992316, 305, 17, 368, 48
-0.992317, 117, 193, 148, 320
-0.99232, 313, 157, 376, 188
-0.992353, 241, 1, 304, 375
-0.992368, 77, 289, 108, 352
-0.992371, 257, 97, 384, 160
-0.992375, 197, 241, 228, 368
-0.992376, 141, 265, 172, 296
-0.99238, 141, 221, 172, 252
-0.99241, 145, 277, 176, 308
-0.992416, 313, 137, 344, 200
-0.992436, 129, 33, 384, 96
-0.992446, 157, 205, 188, 236
-0.992472, 33, 129, 96, 375
-0.992496, 145, 317, 176, 348
-0.992517, 141, 249, 172, 280
-0.992533, 169, 81, 200, 144
-0.992539, 169, 325, 200, 356
-0.992544, 445, 129, 476, 192
-0.992554, 401, 225, 432, 288
-0.992569, 1, 145, 32, 208
-0.99261, 141, 305, 172, 336
-0.992653, 137, 237, 168, 268
-0.992664, 21, 129, 52, 192
-0.992693, 257, 145, 288, 208
-0.992739, 197, 337, 228, 368
-0.992784, 301, 297, 332, 360
-0.992789, 301, 1, 332, 64
-0.992804, 325, 41, 356, 72
-0.992819, 169, 193, 200, 224
-0.992824, 133, 281, 164, 312
-0.992841, 145, 185, 176, 216
-0.992857, 133, 57, 164, 120
-0.992868, 141, 97, 172, 224
-0.992875, 161, 17, 192, 80
-0.992894, 125, 241, 156, 272
-0.992895, 309, 37, 340, 68
-0.992909, 133, 293, 164, 324
-0.992909, 353, 169, 384, 232
-0.992909, 425, 241, 456, 272
-0.992911, 153, 237, 184, 268
-0.992912, 193, 325, 224, 356
-0.992913, 177, 337, 208, 368
-0.992923, 357, 273, 388, 304
-0.992929, 397, 197, 428, 228
-0.992934, 157, 193, 188, 224
-0.992937, 185, 117, 216, 148
-0.992944, 221, 233, 252, 296
-0.992954, 345, 265, 376, 296
-0.992958, 157, 221, 188, 252
-0.992985, 169, 313, 200, 344
-0.992992, 161, 337, 192, 368
-0.992995, 289, 281, 320, 312
-0.993002, 157, 293, 188, 324
-0.993014, 1, 141, 32, 172
-0.993024, 333, 61, 364, 92
-0.993035, 117, 73, 148, 136
-0.993035, 329, 297, 360, 360
-0.993041, 1, 129, 32, 160
-0.993047, 389, 185, 420, 216
-0.99305, 465, 97, 496, 160
-0.993055, 361, 285, 392, 316
-0.99306, 41, 193, 72, 256
-0.993067, 125, 229, 156, 260
-0.993084, 269, 45, 300, 76
-0.993084, 325, 257, 356, 288
-0.993087, 153, 261, 184, 292
-0.993088, 125, 253, 156, 284
-0.993091, 301, 297, 332, 328
-0.993093, 289, 201, 320, 264
-0.993097, 129, 205, 160, 236
-0.993097, 181, 325, 212, 356
-0.993101, 129, 269, 160, 300
-0.99311, 153, 249, 184, 280
-0.993114, 289, 49, 320, 112
-0.993117, 213, 321, 244, 352
-0.993118, 29, 73, 60, 104
-0.993124, 181, 85, 212, 116
-0.993129, 225, 129, 288, 375
-0.993131, 381, 205, 412, 236
-0.993133, 457, 145, 488, 208
-0.993138, 317, 273, 348, 304
-0.993149, 369, 269, 400, 300
-0.993156, 277, 289, 308, 320
-0.993162, 261, 297, 292, 328
-0.993166, 409, 229, 440, 260
-0.993168, 193, 57, 448, 120
-0.993168, 369, 177, 400, 208
-0.993169, 269, 149, 300, 180
-0.99317, 157, 85, 188, 116
-0.993176, 269, 193, 300, 224
-0.993185, 253, 33, 284, 160
-0.993188, 325, 141, 356, 172
-0.993188, 401, 209, 432, 240
-0.99319, 89, 97, 152, 224
-0.993192, 165, 113, 196, 144
-0.993201, 261, 61, 292, 92
-0.993205, 125, 1, 156, 32
-0.993208, 157, 281, 188, 312
-0.99321, 149, 337, 180, 368
-0.993214, 301, 277, 332, 308
-0.993216, 253, 149, 284, 180
-0.993218, 337, 49, 368, 80
-0.99322, 57, 153, 88, 216
-0.993223, 337, 1, 400, 256
-0.993224, 1, 81, 32, 112
-0.993224, 465, 105, 496, 136
-0.993229, 25, 85, 56, 116
-0.993236, 125, 217, 156, 248
-0.993246, 21, 133, 52, 164
-0.993246, 225, 317, 256, 348
-0.993251, 21, 113, 52, 144
-0.993253, 253, 49, 284, 80
-0.993257, 409, 273, 440, 336
-0.99326, 13, 69, 44, 100
-0.993268, 1, 117, 32, 148
-0.993272, 165, 57, 196, 88
-0.993274, 205, 121, 236, 152
-0.993275, 321, 65, 352, 96
-0.993277, 313, 293, 344, 324
-0.993277, 345, 289, 376, 320
-0.993281, 285, 185, 316, 216
-0.993281, 453, 125, 484, 156
-0.993282, 305, 125, 336, 156
-0.993288, 269, 181, 300, 212
-0.993296, 433, 1, 496, 375
-0.9933, 317, 129, 348, 160
-0.9933, 429, 229, 460, 260
-0.993304, 277, 169, 308, 200
-0.993309, 169, 205, 200, 236
-0.993317, 181, 105, 212, 136
-0.99332, 369, 257, 400, 288
-0.993321, 33, 45, 64, 76
-0.993323, 345, 253, 376, 284
-0.993324, 33, 33, 64, 64
-0.993329, 13, 45, 44, 76
-0.993337, 253, 197, 284, 228
-0.993339, 21, 101, 52, 132
-0.993339, 1, 1, 32, 32
-0.993343, 417, 253, 448, 284
-0.993343, 289, 301, 320, 332
-0.993347, 77, 181, 108, 212
-0.993348, 413, 217, 444, 248
-0.993354, 329, 1, 392, 375
-0.993355, 237, 313, 268, 344
-0.993356, 281, 133, 312, 164
-0.993358, 157, 181, 188, 212
-0.99336, 57, 33, 120, 160
-0.993362, 329, 273, 360, 304
-0.993363, 165, 101, 196, 132
-0.993365, 181, 221, 212, 252
-0.993365, 385, 1, 448, 375
-0.993367, 293, 197, 324, 228
-0.993368, 269, 33, 300, 64
-0.993368, 385, 273, 416, 304
-0.99337, 413, 205, 444, 236
-0.99337, 33, 61, 64, 92
-0.993371, 297, 173, 328, 204
-0.993373, 465, 145, 496, 176
-0.993379, 381, 217, 412, 248
-0.993379, 45, 225, 76, 256
-0.993379, 137, 345, 168, 375
-0.993381, 341, 33, 372, 64
-0.993382, 465, 169, 496, 232
-0.993383, 129, 305, 160, 336
-0.993388, 445, 137, 476, 168
-0.993391, 313, 1, 344, 32
-0.993394, 169, 85, 200, 116
-0.993408, 189, 129, 220, 192
-0.993451, 469, 161, 500, 288
-0.993452, 241, 217, 272, 280
-0.993491, 433, 225, 464, 352
-0.993497, 305, 113, 336, 240
-0.993507, 253, 17, 284, 80
-0.993507, 29, 169, 60, 232
-0.993512, 225, 33, 256, 96
-0.993514, 147, 209, 162, 272
-0.993518, 225, 57, 256, 120
-0.993609, 145, 89, 176, 152
-0.993634, 349, 1, 380, 128
-0.993634, 181, 113, 212, 240
-0.993656, 321, 121, 448, 184
-0.993681, 301, 65, 332, 192
-0.993727, 233, 193, 264, 256
-0.993741, 341, 81, 372, 208
-0.993779, 159, 297, 174, 360
-0.993782, 1, 185, 256, 248
-0.993846, 13, 177, 44, 304
-0.99388, 257, 281, 500, 344
-0.993893, 1, 241, 500, 304
-0.993903, 225, 257, 480, 320
-0.993918, 129, 49, 160, 176
-0.993962, 33, 313, 288, 375
-0.993972, 97, 9, 352, 72
-0.993972, 1, 105, 256, 168
-0.993984, 153, 281, 168, 344
-0.99401, 97, 57, 352, 120
-0.994042, 257, 33, 500, 96
-0.994122, 157, 193, 172, 256
-0.994123, 77, 241, 108, 368
-0.994162, 241, 241, 272, 368
-0.994172, 129, 281, 384, 344
-0.994186, 361, 1, 424, 375
-0.994192, 257, 45, 384, 76
-0.994205, 49, 177, 80, 304
-0.994217, 37, 161, 68, 288
-0.994298, 33, 33, 288, 96
-0.994341, 193, 169, 448, 232
-0.994361, 193, 1, 448, 64
-0.994361, 209, 145, 272, 272
-0.994402, 339, 41, 354, 104
-0.994412, 109, 145, 140, 272
-0.994423, 1, 289, 500, 352
-0.994451, 213, 49, 244, 176
-0.994472, 217, 241, 248, 368
-0.994476, 81, 145, 112, 272
-0.994484, 1, 49, 500, 112
-0.994502, 129, 193, 384, 256
-0.994542, 185, 177, 216, 304
-0.994553, 165, 297, 180, 360
-0.994603, 57, 1, 120, 375
-0.994609, 157, 225, 172, 288
-0.994622, 253, 145, 284, 272
-0.994644, 165, 177, 196, 304
-0.99466, 161, 241, 288, 304
-0.994668, 421, 241, 452, 368
-0.994686, 433, 1, 496, 256
-0.994696, 397, 129, 428, 256
-0.994739, 257, 193, 500, 256
-0.994785, 257, 145, 500, 208
-0.994802, 147, 249, 162, 312
-0.994824, 193, 113, 224, 240
-0.994837, 257, 233, 500, 296
-0.994847, 1, 209, 500, 272
-0.994854, 65, 241, 96, 368
-0.99492, 289, 49, 320, 176
-0.99494, 329, 33, 344, 96
-0.994949, 113, 213, 240, 244
-0.994982, 97, 121, 352, 184
-0.994989, 125, 1, 156, 128
-0.995045, 129, 233, 384, 296
-0.995054, 177, 53, 304, 84
-0.995061, 181, 17, 212, 144
-0.995072, 315, 33, 330, 96
-0.995158, 97, 161, 352, 224
-0.995163, 141, 281, 156, 344
-0.99521, 81, 1, 144, 128
-0.995256, 1, 265, 500, 328
-0.995275, 205, 97, 236, 224
-0.995296, 323, 33, 338, 96
-0.99534, 153, 305, 168, 368
-0.995401, 163, 201, 178, 264
-0.995404, 177, 41, 304, 72
-0.995406, 241, 33, 368, 64
-0.99546, 151, 185, 166, 248
-0.995464, 129, 337, 256, 368
-0.995465, 177, 325, 304, 356
-0.995475, 363, 273, 378, 336
-0.995475, 305, 97, 432, 160
-0.995478, 205, 193, 236, 320
-0.995482, 81, 297, 208, 328
-0.995503, 277, 177, 308, 304
-0.995509, 33, 281, 288, 344
-0.995515, 161, 313, 288, 344
-0.995521, 49, 285, 176, 316
-0.995545, 147, 305, 162, 368
-0.995566, 185, 81, 200, 144
-0.995576, 147, 273, 162, 336
-0.995595, 1, 169, 500, 232
-0.995606, 169, 129, 200, 256
-0.995607, 137, 257, 152, 320
-0.995616, 241, 65, 368, 96
-0.995638, 279, 289, 294, 352
-0.995647, 409, 1, 472, 375
-0.995651, 401, 185, 416, 248
-0.995659, 157, 169, 172, 232
-0.995689, 113, 225, 240, 256
-0.995713, 97, 325, 224, 356
-0.995751, 33, 233, 160, 264
-0.995778, 159, 273, 174, 336
-0.995821, 441, 113, 472, 240
-0.995828, 81, 309, 208, 340
-0.995842, 33, 209, 288, 272
-0.995857, 257, 289, 384, 320
-0.995863, 225, 1, 352, 32
-0.995865, 1, 153, 256, 216
-0.995876, 65, 261, 192, 292
-0.995909, 161, 13, 288, 44
-0.995913, 271, 41, 286, 104
-0.995925, 129, 117, 256, 148
-0.995932, 141, 225, 156, 288
-0.995945, 129, 301, 256, 332
-0.995957, 277, 49, 308, 176
-0.995977, 337, 49, 464, 112
-0.995985, 145, 197, 272, 228
-0.995998, 345, 49, 360, 112
-0.995999, 225, 21, 352, 52
-0.996017, 309, 33, 324, 96
-0.996029, 409, 145, 440, 272
-0.996032, 65, 217, 192, 248
-0.996034, 1, 25, 500, 88
-0.996042, 163, 177, 178, 240
-0.996082, 177, 29, 304, 60
-0.996112, 273, 289, 288, 352
-0.996115, 1, 313, 500, 375
-0.996133, 145, 289, 272, 320
-0.996139, 289, 277, 416, 308
-0.996144, 369, 81, 496, 144
-0.996152, 273, 173, 400, 204
-0.996156, 129, 105, 256, 136
-0.996167, 97, 89, 352, 152
-0.996179, 33, 273, 160, 304
-0.996186, 129, 93, 256, 124
-0.996203, 225, 49, 256, 176
-0.996235, 305, 193, 432, 224
-0.996238, 1, 233, 256, 296
-0.996243, 161, 1, 288, 32
-0.99628, 337, 269, 464, 300
-0.996315, 129, 25, 256, 56
-0.996317, 407, 193, 422, 256
-0.996323, 273, 145, 288, 208
-0.996334, 225, 313, 352, 344
-0.996342, 97, 257, 352, 320
-0.996351, 257, 193, 384, 224
-0.996351, 113, 265, 240, 296
-0.996354, 113, 277, 240, 308
-0.996356, 175, 305, 190, 368
-0.996357, 179, 89, 194, 152
-0.996372, 37, 25, 52, 88
-0.996372, 395, 185, 410, 248
-0.996388, 33, 249, 160, 280
-0.9964, 415, 201, 430, 264
-0.996405, 65, 201, 192, 232
-0.996406, 153, 257, 168, 320
-0.996419, 137, 201, 152, 264
-0.99644, 129, 77, 256, 108
-0.996445, 315, 1, 330, 64
-0.996455, 285, 289, 300, 352
-0.996456, 357, 273, 372, 336
-0.996458, 129, 45, 256, 76
-0.99646, 295, 281, 310, 344
-0.996485, 229, 193, 260, 320
-0.996486, 81, 1, 144, 375
-0.996515, 81, 97, 144, 352
-0.996518, 31, 57, 46, 120
-0.996531, 289, 265, 416, 296
-0.996531, 137, 1, 152, 64
-0.996538, 209, 301, 336, 332
-0.996558, 145, 249, 272, 280
-0.996561, 369, 165, 496, 196
-0.996563, 305, 253, 432, 284
-0.996594, 193, 65, 320, 96
-0.996595, 321, 181, 448, 212
-0.996602, 23, 81, 38, 144
-0.996606, 145, 237, 272, 268
-0.99662, 389, 177, 404, 240
-0.996636, 33, 1, 160, 32
-0.996641, 257, 121, 500, 184
-0.996669, 225, 181, 352, 212
-0.996671, 1, 145, 500, 208
-0.996678, 353, 257, 480, 288
-0.99668, 241, 145, 368, 176
-0.996682, 401, 209, 416, 272
-0.99669, 433, 233, 448, 296
-0.99669, 317, 273, 332, 336
-0.996719, 177, 121, 304, 152
-0.99673, 1, 129, 256, 192
-0.99673, 267, 289, 282, 352
-0.996741, 65, 185, 192, 216
-0.996764, 153, 1, 184, 128
-0.996767, 81, 113, 208, 144
-0.996779, 305, 241, 432, 272
-0.996791, 229, 241, 260, 368
-0.996792, 257, 161, 384, 192
-0.996803, 469, 49, 500, 176
-0.996804, 97, 57, 224, 88
-0.996817, 163, 317, 178, 348
-0.996826, 469, 137, 484, 200
-0.996828, 135, 225, 150, 288
-0.996831, 81, 241, 208, 272
-0.996838, 273, 305, 400, 336
-0.996844, 1, 1, 500, 64
-0.996855, 389, 201, 404, 264
-0.996863, 337, 209, 464, 240
-0.996866, 141, 129, 172, 375
-0.996867, 423, 209, 438, 272
-0.996871, 335, 65, 350, 128
-0.996874, 395, 209, 410, 272
-0.99688, 57, 113, 88, 240
-0.996889, 1, 157, 128, 188
-0.996894, 193, 97, 448, 160
-0.9969, 241, 257, 368, 288
-0.996908, 361, 1, 392, 128
-0.996912, 189, 313, 204, 375
-0.996914, 1, 81, 256, 144
-0.996917, 457, 129, 488, 256
-0.996925, 153, 25, 168, 88
-0.99693, 193, 193, 320, 224
-0.996938, 199, 313, 214, 375
-0.99694, 333, 129, 348, 192
-0.996948, 305, 221, 432, 252
-0.996957, 371, 265, 386, 328
-0.996968, 1, 89, 500, 152
-0.996974, 337, 313, 464, 375
-0.997005, 17, 61, 144, 92
-0.997012, 129, 129, 256, 160
-0.997025, 1, 173, 128, 204
-0.997025, 157, 301, 172, 332
-0.997049, 17, 217, 144, 248
-0.99705, 189, 105, 204, 168
-0.997066, 225, 241, 352, 272
-0.997066, 305, 289, 432, 320
-0.997068, 113, 1, 240, 32
-0.997082, 301, 273, 316, 336
-0.997083, 181, 313, 196, 375
-0.997088, 151, 209, 166, 240
-0.997088, 209, 313, 224, 375
-0.997111, 39, 225, 54, 288
-0.997116, 305, 201, 320, 264
-0.997123, 41, 1, 56, 64
-0.997127, 1, 145, 128, 176
-0.997134, 169, 325, 184, 356
-0.997137, 475, 129, 490, 192
-0.997144, 71, 185, 86, 248
-0.997145, 1, 57, 256, 120
-0.997147, 267, 161, 282, 224
-0.997154, 97, 193, 128, 320
-0.997156, 423, 249, 438, 312
-0.997164, 81, 21, 208, 52
-0.997169, 311, 289, 326, 352
-0.997171, 17, 41, 144, 72
-0.997174, 343, 145, 358, 208
-0.997181, 149, 285, 164, 316
-0.997186, 25, 1, 56, 256
-0.997192, 381, 177, 396, 240
-0.9972, 169, 185, 184, 248
-0.997201, 113, 1, 144, 128
-0.997201, 293, 129, 324, 256
-0.997201, 341, 281, 356, 344
-0.997209, 81, 93, 208, 124
-0.997215, 261, 297, 276, 360
-0.997216, 305, 25, 432, 56
-0.997216, 141, 1, 172, 256
-0.99722, 327, 129, 342, 192
-0.997234, 295, 177, 310, 240
-0.99724, 323, 265, 338, 328
-0.997252, 163, 233, 178, 296
-0.997255, 143, 185, 158, 248
-0.997262, 145, 181, 272, 212
-0.997267, 411, 233, 426, 296
-0.99728, 257, 133, 384, 164
-0.997285, 365, 249, 380, 312
-0.997293, 147, 269, 162, 300
-0.997294, 33, 209, 48, 272
-0.997294, 257, 209, 384, 240
-0.997298, 65, 173, 192, 204
-0.997314, 363, 169, 378, 232
-0.997314, 49, 81, 176, 112
-0.997316, 157, 201, 172, 232
-0.997317, 265, 41, 280, 104
-0.997319, 349, 25, 364, 88
-0.997323, 225, 229, 352, 260
-0.997328, 175, 325, 190, 356
-0.997331, 177, 337, 304, 368
-0.997339, 415, 257, 430, 320
-0.99734, 289, 5, 416, 36
-0.997353, 23, 105, 38, 168
-0.997354, 215, 313, 230, 375
-0.997361, 193, 205, 320, 236
-0.997379, 321, 53, 448, 84
-0.99738, 217, 161, 248, 288
-0.99739, 241, 277, 368, 308
-0.997391, 339, 17, 354, 80
-0.997393, 323, 65, 338, 128
-0.997401, 349, 257, 364, 320
-0.997402, 441, 241, 456, 304
-0.99741, 1, 77, 128, 108
-0.997413, 353, 221, 480, 252
-0.997419, 275, 17, 290, 80
-0.997419, 283, 177, 298, 240
-0.99742, 353, 1, 480, 64
-0.997428, 321, 1, 352, 256
-0.997429, 17, 25, 144, 56
-0.997433, 179, 41, 194, 104
-0.997435, 165, 205, 180, 236
-0.99744, 347, 281, 362, 344
-0.997442, 385, 81, 448, 208
-0.997458, 237, 305, 252, 368
-0.99746, 321, 201, 336, 264
-0.997463, 193, 109, 320, 140
-0.997468, 329, 65, 344, 128
-0.997473, 1, 133, 128, 164
-0.997473, 309, 265, 324, 328
-0.997477, 1, 117, 128, 148
-0.99748, 65, 149, 192, 180
-0.997481, 125, 97, 156, 352
-0.997486, 279, 137, 294, 200
-0.997504, 157, 317, 172, 348
-0.997511, 311, 177, 326, 240
-0.997512, 29, 81, 44, 144
-0.997512, 147, 17, 162, 80
-0.997523, 223, 209, 238, 272
-0.997527, 195, 113, 210, 176
-0.997528, 27, 193, 42, 256
-0.99753, 383, 201, 398, 264
-0.997546, 163, 329, 178, 360
-0.997549, 357, 249, 372, 312
-0.997558, 255, 297, 270, 360
-0.99756, 145, 217, 160, 248
-0.997573, 47, 241, 62, 304
-0.997574, 17, 197, 144, 228
-0.997576, 383, 265, 398, 328
-0.997588, 357, 297, 372, 360
-0.997595, 243, 305, 258, 368
-0.9976, 145, 65, 272, 96
-0.997617, 177, 81, 304, 112
-0.997642, 183, 113, 198, 176
-0.997645, 317, 65, 332, 128
-0.997645, 81, 341, 208, 372
-0.997647, 81, 69, 208, 100
-0.997651, 81, 33, 208, 64
-0.997659, 165, 273, 180, 336
-0.997659, 55, 257, 70, 320
-0.997671, 267, 137, 282, 200
-0.997672, 357, 169, 372, 232
-0.997679, 135, 97, 150, 160
-0.997681, 433, 209, 448, 272
-0.997682, 289, 185, 304, 248
-0.997687, 371, 169, 386, 232
-0.997688, 305, 297, 320, 360
-0.997693, 151, 297, 166, 328
-0.997694, 73, 81, 104, 208
-0.997706, 163, 305, 178, 336
-0.997716, 1, 185, 128, 216
-0.997731, 145, 301, 160, 332
-0.997731, 353, 245, 480, 276
-0.997739, 41, 81, 104, 208
-0.997739, 161, 217, 288, 248
-0.997758, 161, 217, 176, 248
-0.997763, 65, 137, 192, 168
-0.997764, 339, 45, 354, 76
-0.997773, 69, 129, 100, 256
-0.997776, 129, 141, 256, 172
-0.997777, 305, 65, 432, 96
-0.997789, 151, 317, 166, 348
-0.997792, 81, 125, 208, 156
-0.997795, 193, 169, 320, 200
-0.997806, 153, 129, 184, 375
-0.997814, 65, 161, 192, 192
-0.997822, 365, 113, 396, 240
-0.997844, 169, 313, 184, 344
-0.997848, 265, 97, 296, 224
-0.99785, 241, 193, 272, 320
-0.997861, 147, 257, 162, 288
-0.997861, 321, 169, 448, 200
-0.997865, 33, 113, 64, 240
-0.997873, 201, 129, 264, 375
-0.997887, 139, 277, 154, 308
-0.997906, 49, 325, 176, 356
-0.997906, 369, 129, 496, 160
-0.997908, 347, 49, 362, 80
-0.997911, 159, 189, 174, 220
-0.997913, 137, 265, 152, 296
-0.997917, 141, 289, 156, 320
-0.997921, 159, 281, 174, 312
-0.997923, 361, 1, 424, 128
-0.997932, 157, 229, 172, 260
-0.997932, 353, 281, 480, 312
-0.997943, 157, 269, 172, 300
-0.997945, 177, 277, 304, 308
-0.997957, 81, 45, 208, 76
-0.997967, 1, 105, 128, 136
-0.997969, 17, 13, 144, 44
-0.997976, 369, 197, 496, 228
-0.997978, 257, 77, 384, 108
-0.99798, 139, 229, 154, 260
-0.997985, 209, 289, 336, 320
-0.997985, 41, 65, 72, 192
-0.997987, 189, 329, 204, 360
-0.998005, 353, 233, 480, 264
-0.998005, 359, 273, 374, 304
-0.998006, 365, 273, 380, 304
-0.998009, 157, 329, 172, 360
-0.99802, 155, 249, 170, 280
-0.998039, 271, 41, 286, 72
-0.998052, 309, 1, 340, 256
-0.998061, 17, 261, 144, 292
-0.998072, 225, 325, 352, 356
-0.998085, 169, 189, 184, 220
-0.998098, 341, 57, 356, 88
-0.998112, 369, 153, 496, 184
-0.998112, 147, 245, 162, 276
-0.998122, 145, 229, 160, 260
-0.998134, 197, 333, 212, 364
-0.998135, 33, 297, 160, 328
-0.998136, 143, 201, 158, 232
-0.998156, 1, 285, 128, 316
-0.998161, 183, 85, 198, 116
-0.998174, 315, 37, 330, 68
-0.998184, 181, 329, 196, 360
-0.998232, 41, 33, 104, 288
-0.998281, 183, 97, 198, 128
-0.998296, 137, 253, 152, 284
-0.998297, 3, 1, 18, 32
-0.998308, 405, 193, 420, 224
-0.998317, 387, 181, 402, 212
-0.998319, 411, 197, 426, 228
-0.998321, 269, 149, 284, 180
-0.998324, 397, 129, 428, 375
-0.998327, 137, 241, 152, 272
-0.99833, 181, 191, 212, 206
-0.998331, 1, 141, 32, 156
-0.998331, 321, 257, 352, 272
-0.998332, 389, 271, 420, 286
-0.998332, 413, 211, 444, 226
-0.998332, 177, 95, 208, 110
-0.998333, 269, 45, 300, 60
-0.998334, 409, 235, 440, 250
-0.998334, 157, 87, 188, 102
-0.998334, 165, 341, 196, 356
-0.998334, 393, 201, 424, 216
-0.998335, 337, 265, 368, 280
-0.998335, 289, 291, 320, 306
-0.998337, 37, 29, 68, 44
-0.998337, 369, 267, 400, 282
-0.998338, 301, 277, 332, 292
-0.998338, 125, 273, 156, 288
-0.998338, 121, 225, 152, 240
-0.998339, 281, 179, 312, 194
-0.998339, 401, 211, 432, 226
-0.99834, 21, 139, 52, 154
-0.99834, 181, 117, 212, 132
-0.99834, 137, 209, 168, 224
-0.99834, 305, 39, 336, 54
-0.998341, 181, 337, 212, 352
-0.998341, 25, 81, 56, 96
-0.998342, 29, 73, 60, 88
-0.998342, 357, 277, 388, 292
-0.998343, 469, 105, 500, 120
-0.998344, 165, 197, 196, 212
-0.998344, 333, 33, 364, 288
-0.998345, 325, 143, 356, 158
-0.998345, 13, 55, 44, 70
-0.998345, 429, 239, 460, 254
-0.998346, 385, 189, 416, 204
-0.998347, 125, 267, 156, 282
-0.998347, 149, 187, 180, 202
-0.998348, 433, 17, 496, 144
-0.998348, 265, 147, 296, 162
-0.998348, 181, 89, 212, 104
-0.998349, 197, 343, 228, 358
-0.998349, 29, 67, 60, 82
-0.99835, 165, 123, 196, 138
-0.99835, 101, 97, 132, 224
-0.998351, 329, 275, 360, 290
-0.998352, 145, 181, 176, 196
-0.998353, 161, 305, 192, 320
-0.998353, 205, 129, 236, 144
-0.998354, 165, 319, 196, 334
-0.998355, 161, 93, 192, 108
-0.998357, 133, 203, 164, 218
-0.998357, 417, 241, 448, 256
-0.998357, 325, 263, 356, 278
-0.998358, 177, 345, 208, 360
-0.99836, 137, 205, 152, 236
-0.99836, 157, 287, 188, 302
-0.99836, 163, 293, 178, 324
-0.99836, 341, 273, 372, 288
-0.998362, 329, 65, 360, 80
-0.998362, 5, 83, 36, 98
-0.998363, 269, 51, 300, 66
-0.998365, 153, 245, 184, 260
-0.998365, 157, 177, 172, 208
-0.998366, 377, 183, 408, 198
-0.998367, 25, 87, 56, 102
-0.998367, 201, 331, 232, 346
-0.998368, 433, 233, 448, 264
-0.998368, 121, 231, 152, 246
-0.99837, 197, 349, 228, 364
-0.99837, 41, 267, 72, 282
-0.998371, 153, 259, 184, 274
-0.998371, 33, 61, 48, 92
-0.998371, 269, 57, 284, 88
-0.998373, 153, 251, 184, 266
-0.998373, 133, 215, 164, 230
-0.998374, 341, 39, 372, 54
-0.998375, 253, 151, 284, 166
-0.998376, 125, 261, 156, 276
-0.998376, 145, 329, 176, 344
-0.998376, 329, 45, 360, 60
-0.998377, 193, 357, 224, 372
-0.998378, 157, 293, 188, 308
-0.998378, 153, 273, 184, 288
-0.998379, 133, 297, 164, 312
-0.998381, 341, 61, 372, 76
-0.998385, 321, 269, 352, 284
-0.998386, 293, 285, 324, 300
-0.998387, 185, 331, 216, 346
-0.998388, 165, 115, 196, 130
-0.998388, 157, 229, 188, 244
-0.998392, 125, 255, 156, 270
-0.998393, 89, 241, 120, 368
-0.998394, 1, 133, 32, 148
-0.998396, 133, 287, 164, 302
-0.998396, 349, 267, 380, 282
-0.998397, 153, 237, 184, 252
-0.998397, 347, 61, 362, 92
-0.998401, 161, 217, 192, 232
-0.998401, 329, 137, 344, 168
-0.998402, 369, 273, 400, 288
-0.998403, 137, 311, 168, 326
-0.998404, 137, 305, 168, 320
-0.998404, 429, 245, 460, 260
-0.998405, 149, 203, 180, 218
-0.998406, 161, 311, 192, 326
-0.998406, 153, 339, 184, 354
-0.998407, 189, 341, 204, 372
-0.998408, 321, 97, 352, 352
-0.998408, 153, 267, 184, 282
-0.99841, 175, 313, 190, 344
-0.998411, 137, 217, 152, 248
-0.998412, 157, 299, 188, 314
-0.998412, 157, 223, 188, 238
-0.998413, 133, 281, 164, 296
-0.998415, 333, 41, 348, 72
-0.998421, 125, 239, 156, 254
-0.998422, 205, 325, 220, 356
-0.998425, 393, 185, 408, 216
-0.99843, 1, 147, 32, 162
-0.998431, 371, 269, 386, 300
-0.998432, 193, 337, 224, 352
-0.998437, 429, 129, 460, 375
-0.998438, 317, 41, 348, 56
-0.998439, 125, 245, 156, 260
-0.998442, 165, 211, 196, 226
-0.998442, 27, 85, 42, 116
-0.998445, 185, 123, 216, 138
-0.998452, 135, 1, 150, 32
-0.998453, 169, 335, 200, 350
-0.998455, 141, 317, 172, 332
-0.998456, 151, 221, 166, 252
-0.99846, 153, 327, 216, 342
-0.998461, 313, 293, 328, 324
-0.998472, 171, 201, 186, 232
-0.998475, 161, 205, 192, 220
-0.998477, 147, 193, 162, 320
-0.99848, 349, 37, 364, 68
-0.998487, 1, 1, 32, 256
-0.998489, 335, 65, 350, 96
-0.998492, 307, 297, 322, 328
-0.998493, 175, 105, 190, 136
-0.998493, 145, 323, 176, 338
-0.998495, 173, 329, 204, 344
-0.998496, 145, 279, 176, 294
-0.998498, 153, 189, 168, 220
-0.998502, 209, 121, 224, 152
-0.998504, 39, 25, 54, 56
-0.998505, 365, 261, 380, 292
-0.998507, 141, 251, 172, 266
-0.998508, 161, 333, 224, 348
-0.99851, 341, 145, 356, 176
-0.998514, 359, 289, 374, 320
-0.998516, 117, 241, 148, 368
-0.998517, 141, 257, 172, 272
-0.998517, 137, 239, 168, 254
-0.998518, 137, 215, 200, 230
-0.99852, 391, 209, 406, 240
-0.998523, 177, 123, 240, 138
-0.998525, 1, 257, 256, 320
-0.998527, 141, 227, 172, 242
-0.998528, 137, 233, 168, 248
-0.998533, 141, 273, 172, 288
-0.998534, 189, 117, 204, 148
-0.998535, 279, 137, 294, 168
-0.998536, 137, 245, 168, 260
-0.998536, 141, 221, 172, 236
-0.998536, 145, 299, 176, 314
-0.998536, 399, 189, 414, 220
-0.998538, 25, 97, 40, 128
-0.99854, 145, 287, 176, 302
-0.998541, 427, 245, 442, 276
-0.998541, 149, 311, 180, 326
-0.998543, 129, 325, 192, 340
-0.998544, 145, 215, 176, 230
-0.998544, 297, 41, 360, 56
-0.998544, 335, 257, 350, 288
-0.998545, 145, 209, 208, 224
-0.998545, 417, 209, 432, 240
-0.998548, 141, 263, 172, 278
-0.998551, 151, 337, 166, 368
-0.998552, 465, 149, 480, 180
-0.998552, 153, 317, 184, 332
-0.998552, 277, 293, 292, 324
-0.998552, 297, 285, 312, 316
-0.998553, 175, 337, 190, 368
-0.99856, 21, 97, 52, 352
-0.998561, 137, 273, 200, 288
-0.998561, 31, 73, 46, 104
-0.998562, 137, 221, 200, 236
-0.998564, 305, 281, 320, 312
-0.998564, 405, 209, 420, 240
-0.998564, 113, 217, 176, 232
-0.998565, 129, 237, 192, 252
-0.998567, 129, 245, 192, 260
-0.998568, 129, 251, 192, 266
-0.998568, 169, 117, 232, 132
-0.998569, 199, 321, 214, 352
-0.998569, 113, 229, 176, 244
-0.998569, 145, 313, 208, 328
-0.99857, 161, 339, 224, 354
-0.99857, 161, 325, 192, 340
-0.998571, 415, 245, 430, 276
-0.998573, 275, 181, 290, 212
-0.998576, 265, 33, 328, 48
-0.998576, 137, 295, 200, 310
-0.998579, 321, 267, 384, 282
-0.998579, 169, 89, 232, 104
-0.998581, 177, 129, 240, 144
-0.998582, 157, 333, 188, 348
-0.998582, 145, 127, 208, 142
-0.998584, 113, 267, 176, 282
-0.998585, 137, 287, 200, 302
-0.998585, 185, 337, 248, 352
-0.998586, 145, 293, 176, 308
-0.998586, 145, 345, 208, 360
-0.998588, 149, 209, 180, 224
-0.998591, 113, 275, 176, 290
-0.998591, 225, 51, 288, 66
-0.998591, 129, 259, 192, 274
-0.998592, 137, 281, 200, 296
-0.998592, 253, 81, 284, 208
-0.998593, 225, 57, 288, 72
-0.998595, 133, 229, 148, 260
-0.998595, 137, 307, 200, 322
-0.998597, 153, 231, 216, 246
-0.998597, 297, 47, 360, 62
-0.998597, 313, 273, 376, 288
-0.998597, 1, 1, 64, 16
-0.998597, 169, 105, 232, 120
-0.998598, 137, 121, 200, 136
-0.998598, 169, 111, 232, 126
-0.998599, 177, 83, 240, 98
-0.998599, 105, 243, 168, 258
-0.998601, 113, 223, 176, 238
-0.998602, 201, 1, 264, 128
-0.998602, 149, 305, 180, 320
-0.998604, 193, 325, 256, 340
-0.998605, 137, 301, 200, 316
-0.998605, 137, 11, 200, 26
-0.998606, 121, 209, 184, 224
-0.998609, 137, 115, 200, 130
-0.998609, 105, 235, 168, 250
-0.99861, 121, 313, 184, 328
-0.998611, 155, 225, 170, 352
-0.998612, 353, 273, 416, 288
-0.998613, 129, 335, 192, 350
-0.998613, 105, 251, 168, 266
-0.998614, 137, 17, 200, 32
-0.998614, 265, 55, 328, 70
-0.998614, 439, 241, 454, 272
-0.998614, 231, 317, 246, 348
-0.998614, 201, 331, 264, 346
-0.998614, 129, 93, 192, 108
-0.998615, 321, 37, 336, 68
-0.998615, 169, 337, 184, 368
-0.998616, 163, 229, 178, 260
-0.998616, 257, 49, 320, 64
-0.998617, 121, 319, 184, 334
-0.998618, 265, 175, 328, 190
-0.998621, 157, 341, 172, 372
-0.998622, 153, 321, 216, 336
-0.998622, 161, 199, 224, 214
-0.998625, 281, 289, 344, 304
-0.998625, 265, 295, 328, 310
-0.998626, 169, 99, 232, 114
-0.998626, 265, 23, 328, 38
-0.998627, 129, 101, 192, 116
-0.998627, 353, 289, 368, 320
-0.998627, 137, 267, 200, 282
-0.998628, 113, 297, 176, 312
-0.99863, 273, 189, 336, 204
-0.99863, 225, 45, 288, 60
-0.998631, 377, 213, 440, 228
-0.998633, 225, 1, 288, 16
-0.998633, 265, 45, 280, 76
-0.998634, 105, 257, 168, 272
-0.998634, 405, 233, 420, 264
-0.998635, 121, 203, 184, 218
-0.998635, 113, 283, 176, 298
-0.998636, 129, 83, 192, 98
-0.998637, 153, 351, 216, 366
-0.998637, 345, 267, 408, 282
-0.998637, 233, 315, 296, 330
-0.998638, 427, 217, 442, 248
-0.998639, 417, 129, 448, 375
-0.998639, 145, 25, 208, 40
-0.998639, 177, 65, 240, 80
-0.998639, 313, 307, 376, 322
-0.998639, 25, 65, 88, 80
-0.998639, 265, 65, 328, 80
-0.998639, 1, 141, 64, 156
-0.99864, 33, 29, 96, 44
-0.998641, 177, 55, 240, 70
-0.998642, 161, 215, 224, 230
-0.998642, 9, 157, 72, 172
-0.998642, 257, 43, 320, 58
-0.998642, 89, 359, 152, 374
-0.998643, 225, 7, 288, 22
-0.998643, 25, 55, 88, 70
-0.998643, 1, 141, 16, 172
-0.998645, 219, 321, 234, 352
-0.998645, 381, 285, 396, 316
-0.998645, 143, 13, 158, 44
-0.998646, 113, 289, 176, 304
-0.998646, 25, 49, 88, 64
-0.998647, 305, 287, 368, 302
-0.998648, 129, 107, 192, 122
-0.998649, 401, 245, 464, 260
-0.998649, 113, 303, 176, 318
-0.998649, 321, 279, 384, 294
-0.998649, 145, 133, 208, 148
-0.998651, 287, 289, 302, 320
-0.998651, 121, 183, 184, 198
-0.998651, 263, 197, 278, 228
-0.998651, 153, 237, 216, 252
-0.998652, 153, 247, 216, 262
-0.998652, 25, 209, 88, 224
-0.998653, 369, 205, 432, 220
-0.998653, 137, 5, 200, 20
-0.998653, 137, 189, 200, 204
-0.998653, 9, 147, 72, 162
-0.998654, 401, 251, 464, 266
-0.998654, 69, 33, 100, 160
-0.998654, 265, 15, 328, 30
-0.998655, 265, 1, 328, 16
-0.998655, 145, 31, 208, 46
-0.998655, 241, 197, 304, 212
-0.998656, 169, 345, 232, 360
-0.998657, 329, 61, 392, 76
-0.998657, 297, 279, 360, 294
-0.998658, 225, 31, 288, 46
-0.998658, 1, 81, 64, 96
-0.998659, 329, 253, 344, 284
-0.998659, 277, 53, 292, 84
-0.998659, 73, 187, 136, 202
-0.998659, 137, 49, 200, 64
-0.998659, 53, 257, 68, 288
-0.99866, 289, 225, 352, 240
-0.99866, 177, 73, 240, 88
-0.998661, 305, 31, 368, 46
-0.998661, 33, 229, 96, 244
-0.998661, 137, 59, 200, 74
-0.998661, 297, 63, 360, 78
-0.998661, 89, 223, 152, 238
-0.998661, 267, 161, 282, 192
-0.998661, 177, 43, 240, 58
-0.998664, 471, 141, 486, 172
-0.998675, 381, 177, 396, 208
-0.998675, 421, 253, 436, 284
-0.998676, 397, 217, 412, 248
-0.998677, 131, 241, 146, 272
-0.998677, 309, 33, 324, 64
-0.998678, 43, 237, 58, 268
-0.998683, 311, 277, 326, 308
-0.998687, 277, 129, 308, 375
-0.998706, 309, 129, 340, 375
-0.99872, 381, 129, 412, 375
-0.998728, 337, 129, 368, 375
-0.998732, 469, 97, 500, 352
-0.998741, 169, 97, 200, 352
-0.998748, 89, 1, 152, 256
-0.998773, 289, 129, 320, 375
-0.998789, 297, 33, 328, 288
-0.998809, 1, 113, 500, 176
-0.99881, 377, 113, 408, 240
-0.998819, 369, 129, 400, 375
-0.998825, 261, 1, 292, 256
-0.998908, 93, 145, 124, 272
-0.998916, 357, 129, 388, 375
-0.998939, 149, 241, 164, 368
-0.998942, 139, 209, 154, 336
-0.998991, 169, 1, 200, 256
-0.999016, 153, 33, 184, 288
-0.999048, 313, 17, 328, 144
-0.999049, 153, 177, 168, 304
-0.999049, 205, 145, 236, 272
-0.999063, 35, 17, 50, 144
-0.999076, 337, 17, 352, 144
-0.999086, 37, 1, 68, 256
-0.99909, 221, 1, 252, 256
-0.999096, 143, 1, 158, 128
-0.999099, 345, 1, 376, 256
-0.999114, 161, 177, 176, 304
-0.999116, 27, 49, 42, 176
-0.999122, 161, 241, 176, 368
-0.999125, 147, 145, 162, 272
-0.999126, 331, 17, 346, 144
-0.999132, 457, 65, 488, 320
-0.999147, 261, 129, 292, 375
-0.99916, 433, 177, 464, 304
-0.999175, 457, 33, 488, 160
-0.999181, 319, 17, 334, 144
-0.999183, 181, 33, 212, 288
-0.999184, 129, 1, 160, 256
-0.999188, 77, 193, 108, 320
-0.999202, 417, 193, 432, 320
-0.999217, 343, 33, 358, 160
-0.999223, 273, 225, 288, 352
-0.999223, 333, 65, 348, 192
-0.999224, 185, 65, 200, 192
-0.999225, 283, 225, 298, 352
-0.999228, 325, 17, 340, 144
-0.999235, 9, 97, 40, 352
-0.999244, 167, 241, 182, 368
-0.999249, 205, 65, 236, 320
-0.999252, 469, 1, 500, 256
-0.999261, 133, 193, 148, 320
-0.999267, 393, 33, 456, 288
-0.999267, 153, 129, 168, 256
-0.999268, 151, 17, 166, 144
-0.999273, 391, 161, 406, 288
-0.999293, 323, 65, 338, 192
-0.999304, 411, 225, 426, 352
-0.999305, 479, 113, 494, 240
-0.999309, 141, 161, 156, 288
-0.999326, 307, 17, 322, 144
-0.999327, 65, 1, 128, 256
-0.99934, 367, 225, 382, 352
-0.999345, 307, 225, 322, 352
-0.999346, 225, 33, 240, 160
-0.999356, 37, 97, 68, 352
-0.999356, 267, 225, 282, 352
-0.999359, 313, 225, 328, 352
-0.99936, 401, 177, 416, 304
-0.999364, 485, 97, 500, 224
-0.999366, 331, 113, 346, 240
-0.999375, 289, 225, 304, 352
-0.999378, 277, 33, 308, 288
-0.999379, 343, 129, 358, 256
-0.99938, 301, 225, 316, 352
-0.99938, 407, 177, 422, 304
-0.999398, 361, 241, 376, 368
-0.999398, 395, 209, 410, 336
-0.999404, 23, 97, 38, 224
-0.999404, 183, 113, 198, 240
-0.999406, 269, 17, 284, 144
-0.999411, 267, 145, 282, 272
-0.999413, 141, 113, 156, 240
-0.999414, 337, 113, 352, 240
-0.999414, 425, 193, 440, 320
-0.999416, 137, 1, 152, 128
-0.999428, 469, 81, 484, 208
-0.99943, 385, 161, 400, 288
-0.999432, 373, 225, 388, 352
-0.999432, 405, 225, 420, 352
-0.999436, 195, 241, 210, 368
-0.999439, 361, 161, 376, 288
-0.999442, 217, 97, 248, 352
-0.999443, 355, 225, 370, 352
-0.999444, 431, 209, 446, 336
-0.999454, 379, 177, 394, 304
-0.999458, 325, 113, 340, 240
-0.999458, 349, 33, 364, 160
-0.999461, 113, 129, 144, 375
-0.999461, 323, 225, 338, 352
-0.999463, 441, 97, 472, 352
-0.999477, 317, 65, 332, 192
-0.999482, 35, 209, 50, 336
-0.999482, 295, 225, 310, 352
-0.999482, 129, 81, 144, 208
-0.999488, 159, 129, 174, 256
-0.999498, 261, 225, 276, 352
-0.999498, 295, 177, 310, 304
-0.999505, 29, 193, 44, 320
-0.999506, 41, 1, 56, 128
-0.999507, 373, 161, 388, 288
-0.99951, 471, 129, 486, 256
-0.999511, 135, 129, 150, 256
-0.999514, 387, 209, 402, 336
-0.999516, 179, 65, 194, 192
-0.999516, 273, 145, 288, 272
-0.999517, 185, 129, 216, 375
-0.999518, 367, 145, 382, 272
-0.999519, 177, 241, 192, 368
-0.999524, 301, 177, 316, 304
-0.999527, 421, 241, 436, 368
-0.999528, 279, 113, 294, 240
-0.999528, 231, 1, 246, 128
-0.999529, 275, 65, 290, 192
-0.99953, 179, 1, 194, 128
-0.999531, 203, 241, 218, 368
-0.999532, 331, 139, 346, 154
-0.999533, 175, 83, 190, 98
-0.999533, 341, 147, 356, 162
-0.999533, 183, 103, 198, 118
-0.999535, 157, 33, 172, 160
-0.999535, 329, 343, 344, 358
-0.999535, 229, 57, 244, 72
-0.999536, 359, 287, 374, 302
-0.999537, 145, 203, 160, 218
-0.999537, 175, 93, 190, 108
-0.999537, 315, 291, 330, 306
-0.999537, 341, 225, 356, 352
-0.999537, 417, 207, 432, 222
-0.999538, 323, 41, 338, 56
-0.999538, 183, 193, 198, 208
-0.999538, 369, 271, 384, 286
-0.999538, 281, 321, 296, 336
-0.999538, 209, 241, 224, 368
-0.999539, 171, 193, 186, 208
-0.999539, 157, 179, 172, 194
-0.999539, 285, 113, 300, 240
-0.999539, 387, 183, 402, 198
-0.999541, 33, 69, 48, 84
-0.999541, 259, 167, 274, 182
-0.999541, 1, 149, 16, 164
-0.999542, 185, 83, 200, 98
-0.999543, 329, 41, 344, 56
-0.999543, 185, 115, 200, 130
-0.999543, 269, 157, 284, 172
-0.999544, 23, 177, 38, 304
-0.999544, 425, 213, 440, 228
-0.999545, 261, 159, 276, 174
-0.999545, 147, 227, 162, 242
-0.999545, 1, 1, 16, 16
-0.999546, 163, 341, 178, 356
-0.999546, 341, 271, 356, 286
-0.999546, 245, 97, 276, 352
-0.99955, 271, 149, 286, 164
-0.999551, 205, 327, 220, 342
-0.999551, 137, 253, 152, 268
-0.999552, 335, 337, 350, 352
-0.999552, 149, 321, 164, 336
-0.999554, 355, 321, 370, 336
-0.999555, 349, 59, 364, 74
-0.999555, 127, 177, 142, 304
-0.999555, 367, 309, 382, 324
-0.999556, 313, 177, 328, 304
-0.999556, 131, 239, 146, 254
-0.999557, 245, 155, 260, 170
-0.999558, 343, 331, 358, 346
-0.99956, 165, 189, 180, 204
-0.99956, 349, 325, 364, 340
-0.999561, 163, 1, 178, 128
-0.999561, 381, 225, 396, 352
-0.999563, 189, 189, 204, 204
-0.999564, 381, 297, 396, 312
-0.999565, 275, 17, 290, 144
-0.999565, 167, 177, 182, 304
-0.999565, 175, 323, 190, 338
-0.999565, 445, 225, 460, 352
-0.999566, 141, 225, 156, 240
-0.999566, 171, 203, 186, 218
-0.999566, 155, 341, 170, 356
-0.999567, 183, 109, 198, 124
-0.999567, 135, 49, 150, 176
-0.999567, 259, 151, 274, 166
-0.999567, 75, 145, 90, 272
-0.999568, 163, 197, 178, 212
-0.999568, 155, 215, 170, 230
-0.999568, 335, 43, 350, 58
-0.999568, 71, 193, 86, 320
-0.999569, 361, 315, 376, 330
-0.99957, 477, 65, 492, 192
-0.99957, 249, 241, 264, 368
-0.999572, 175, 113, 190, 128
-0.999572, 283, 177, 298, 304
-0.999573, 387, 273, 402, 288
-0.999573, 137, 233, 152, 248
-0.999573, 137, 273, 152, 288
-0.999574, 193, 331, 208, 346
-0.999574, 145, 245, 160, 260
-0.999575, 363, 267, 378, 282
-0.999576, 33, 129, 48, 256
-0.999577, 181, 89, 196, 104
-0.999578, 17, 97, 32, 224
-0.999578, 315, 39, 330, 54
-0.999578, 143, 211, 158, 226
-0.999578, 311, 65, 326, 192
-0.99958, 167, 209, 182, 224
-0.99958, 183, 333, 198, 348
-0.99958, 437, 225, 452, 352
-0.999581, 271, 47, 286, 62
-0.999581, 155, 335, 170, 350
-0.999582, 189, 113, 204, 240
-0.999582, 337, 65, 352, 80
-0.999583, 219, 65, 234, 192
-0.999583, 255, 241, 270, 368
-0.999583, 203, 333, 218, 348
-0.999584, 349, 53, 364, 68
-0.999587, 135, 245, 150, 260
-0.999587, 51, 241, 66, 368
-0.999588, 211, 123, 226, 138
-0.999588, 365, 277, 380, 292
-0.999589, 9, 1, 24, 16
-0.999591, 157, 231, 172, 246
-0.999591, 269, 163, 284, 178
-0.999592, 197, 337, 212, 352
-0.999593, 139, 217, 154, 232
-0.999593, 291, 129, 306, 256
-0.999594, 17, 33, 32, 160
-0.999595, 141, 289, 156, 304
-0.999596, 69, 145, 84, 272
-0.999597, 225, 241, 240, 368
-0.999598, 155, 241, 170, 256
-0.999599, 157, 271, 172, 286
-0.999599, 137, 261, 152, 276
-0.999599, 147, 237, 162, 252
-0.9996, 155, 263, 170, 278
-0.9996, 357, 1, 372, 128
-0.9996, 41, 209, 56, 336
-0.9996, 183, 241, 198, 368
-0.999601, 169, 321, 184, 336
-0.999602, 163, 215, 178, 230
-0.999603, 307, 177, 322, 304
-0.999604, 319, 145, 334, 272
-0.999605, 161, 221, 176, 236
-0.999606, 185, 17, 200, 144
-0.999607, 139, 279, 154, 294
-0.999607, 155, 257, 170, 272
-0.999607, 143, 299, 158, 314
-0.999607, 147, 221, 162, 236
-0.99961, 433, 241, 448, 256
-0.99961, 457, 97, 472, 224
-0.99961, 427, 145, 442, 272
-0.99961, 161, 297, 176, 312
-0.99961, 33, 65, 48, 192
-0.999611, 243, 241, 258, 368
-0.999612, 157, 283, 172, 298
-0.999615, 155, 247, 170, 262
-0.999615, 165, 311, 180, 326
-0.999616, 145, 257, 160, 272
-0.99962, 145, 251, 160, 266
-0.999622, 157, 277, 172, 292
-0.999624, 145, 309, 160, 324
-0.999624, 137, 267, 152, 282
-0.999627, 137, 239, 152, 254
-0.999631, 343, 61, 358, 76
-0.999634, 147, 315, 162, 330
-0.999634, 159, 291, 174, 306
-0.999635, 357, 1, 388, 256
-0.999635, 341, 47, 356, 62
-0.999636, 175, 335, 190, 350
-0.999637, 165, 203, 180, 218
-0.999639, 163, 303, 178, 318
-0.999642, 155, 325, 170, 340
-0.999646, 147, 263, 162, 278
-0.99966, 61, 129, 92, 375
-0.99967, 147, 269, 162, 284
-0.999674, 149, 281, 164, 296
-0.999684, 161, 333, 176, 348
-0.999692, 157, 317, 172, 332
-0.999692, 149, 215, 164, 230
-0.999693, 169, 335, 184, 350
-0.999694, 147, 275, 162, 290
-0.999695, 175, 329, 190, 344
-0.999708, 163, 321, 178, 336
-0.999709, 149, 287, 164, 302
-0.999718, 81, 129, 112, 375
-0.999725, 159, 205, 174, 220
-0.999728, 151, 297, 166, 312
-0.999733, 409, 49, 472, 176
-0.999741, 155, 311, 170, 326
-0.999744, 165, 327, 180, 342
-0.99975, 153, 305, 168, 320
-0.999764, 153, 209, 168, 224
-0.99981, 49, 129, 80, 375
-0.999845, 13, 1, 44, 256
-0.999942, 229, 97, 260, 352
-0.999965, 101, 97, 132, 352
-0.999972, 117, 1, 148, 256
-1.00015, 369, 25, 496, 88
-1.0002, 413, 33, 444, 288
-1.00025, 49, 33, 80, 288
-1.00026, 101, 1, 132, 256
-1.00033, 73, 1, 104, 256
-1.00033, 373, 1, 404, 256
-1.00035, 193, 33, 224, 288
-1.0004, 425, 33, 456, 288
-1.00042, 393, 33, 424, 288
-1.00052, 249, 1, 280, 256
-1.00066, 61, 33, 92, 288
-1.00066, 85, 1, 116, 256
-1.00073, 445, 1, 476, 256
-1.0008, 361, 33, 424, 288
-1.00085, 233, 1, 264, 256
-1.00607, 385, 1, 448, 128
-1.00726, 409, 1, 472, 128
-1.0132, 361, 65, 424, 192
