1955
-0.445748, 1, 97, 500, 352
-0.449547, 97, 1, 352, 375
-0.454943, 1, 1, 500, 375
-0.469265, 1, 1, 500, 256
-0.538364, 1, 1, 256, 375
-0.54749, 225, 1, 480, 375
-0.574117, 129, 97, 384, 352
-0.638266, 1, 33, 256, 288
-0.652405, 225, 97, 480, 352
-0.742335, 225, 1, 480, 256
-0.755609, 1, 129, 256, 375
-0.757388, 97, 1, 352, 256
-0.864381, 289, 97, 416, 352
-0.865418, 129, 129, 256, 375
-0.866227, 161, 1, 288, 375
-0.87264, 1, 129, 500, 256
-0.872899, 209, 97, 336, 352
-0.874539, 113, 1, 240, 375
-0.884579, 257, 1, 384, 375
-0.884952, 49, 1, 176, 375
-0.887654, 113, 33, 240, 288
-0.889877, 49, 65, 176, 320
-0.891756, 337, 97, 464, 352
-0.892276, 1, 1, 128, 375
-0.892386, 209, 1, 336, 375
-0.897632, 1, 65, 500, 192
-0.898266, 225, 129, 480, 256
-0.900026, 1, 177, 500, 304
-0.902207, 177, 1, 304, 256
-0.902242, 1, 65, 128, 320
-0.902971, 161, 177, 416, 304
-0.90753, 305, 1, 432, 375
-0.908447, 97, 113, 352, 240
-0.91423, 1, 97, 256, 224
-0.916313, 209, 129, 336, 256
-0.919241, 369, 1, 496, 375
-0.920563, 289, 129, 416, 256
-0.926893, 1, 145, 256, 272
-0.929651, 129, 161, 256, 288
-0.929684, 369, 1, 496, 256
-0.929953, 241, 1, 368, 256
-0.933301, 241, 145, 304, 272
-0.933552, 209, 177, 336, 304
-0.934075, 369, 97, 496, 224
-0.93426, 1, 225, 500, 352
-0.935418, 289, 1, 416, 256
-0.935922, 257, 177, 500, 304
-0.936027, 161, 113, 288, 240
-0.936068, 217, 129, 280, 256
-0.937992, 265, 97, 328, 224
-0.939287, 257, 81, 500, 208
-0.940139, 17, 81, 144, 208
-0.940683, 145, 209, 272, 336
-0.941018, 33, 193, 288, 320
-0.941562, 401, 97, 464, 224
-0.941818, 369, 97, 432, 224
-0.942002, 73, 81, 136, 208
-0.943199, 289, 145, 352, 272
-0.94325, 177, 145, 240, 272
-0.943268, 161, 65, 416, 192
-0.944673, 81, 97, 208, 224
-0.945192, 1, 17, 500, 144
-0.94612, 369, 177, 432, 304
-0.946437, 169, 153, 232, 216
-0.946591, 265, 153, 328, 216
-0.946815, 241, 177, 304, 240
-0.947035, 1, 49, 256, 176
-0.94726, 345, 129, 408, 256
-0.947468, 49, 65, 112, 192
-0.947934, 289, 177, 416, 304
-0.948497, 433, 97, 496, 224
-0.949418, 113, 153, 176, 216
-0.949559, 209, 81, 336, 208
-0.949619, 169, 81, 232, 208
-0.950185, 161, 225, 416, 352
-0.950694, 17, 81, 80, 208
-0.95127, 209, 177, 272, 304
-0.951302, 377, 113, 440, 176
-0.951324, 305, 97, 368, 224
-0.951403, 225, 153, 288, 216
-0.952027, 81, 145, 208, 272
-0.952983, 273, 177, 336, 240
-0.953284, 113, 145, 176, 272
-0.954531, 137, 145, 200, 208
-0.954581, 297, 153, 360, 216
-0.95459, 145, 97, 208, 224
-0.954758, 201, 193, 264, 256
-0.955028, 265, 129, 328, 192
-0.955334, 153, 145, 216, 272
-0.955942, 401, 113, 464, 176
-0.956317, 65, 193, 192, 320
-0.95633, 97, 97, 160, 224
-0.956605, 249, 105, 312, 168
-0.956626, 121, 97, 184, 224
-0.956819, 369, 137, 432, 200
-0.956871, 265, 145, 328, 272
-0.956895, 289, 81, 416, 208
-0.957223, 337, 177, 464, 304
-0.957394, 345, 209, 408, 336
-0.958161, 169, 97, 232, 160
-0.958733, 433, 105, 496, 168
-0.959249, 33, 153, 96, 216
-0.959627, 129, 65, 256, 192
-0.960071, 177, 177, 240, 240
-0.960118, 209, 129, 272, 192
-0.960254, 201, 153, 264, 216
-0.960925, 113, 113, 176, 176
-0.961122, 193, 97, 256, 224
-0.961369, 153, 209, 216, 336
-0.962041, 89, 161, 152, 224
-0.962345, 249, 201, 312, 264
-0.962678, 41, 113, 104, 240
-0.962971, 225, 105, 288, 168
-0.963115, 153, 201, 216, 264
-0.963228, 329, 113, 392, 176
-0.963407, 289, 129, 352, 192
-0.963502, 33, 129, 160, 256
-0.963523, 49, 81, 112, 144
-0.963605, 145, 169, 208, 232
-0.963612, 89, 105, 152, 168
-0.964026, 393, 145, 456, 208
-0.964387, 313, 145, 376, 272
-0.964544, 329, 81, 392, 208
-0.964667, 345, 265, 408, 328
-0.964785, 337, 153, 400, 216
-0.965154, 97, 161, 224, 224
-0.965171, 241, 129, 304, 192
-0.965572, 369, 185, 432, 248
-0.965676, 57, 153, 120, 216
-0.965695, 201, 105, 264, 168
-0.965769, 353, 113, 416, 176
-0.965913, 273, 193, 336, 320
-0.966004, 113, 193, 176, 320
-0.966109, 1, 145, 64, 208
-0.966178, 65, 177, 128, 240
-0.966409, 33, 241, 288, 368
-0.966445, 177, 153, 304, 216
-0.966654, 113, 177, 176, 240
-0.967032, 41, 177, 104, 240
-0.96731, 81, 145, 144, 272
-0.967466, 137, 121, 200, 184
-0.967674, 185, 193, 248, 320
-0.967775, 9, 33, 72, 160
-0.967842, 9, 177, 72, 240
-0.968059, 241, 97, 304, 224
-0.968101, 393, 177, 456, 304
-0.968168, 1, 17, 128, 144
-0.968341, 281, 169, 312, 232
-0.968377, 177, 201, 240, 264
-0.968465, 177, 129, 240, 192
-0.968641, 81, 137, 144, 200
-0.968689, 353, 49, 480, 176
-0.969028, 269, 177, 300, 240
-0.969287, 81, 241, 208, 368
-0.969355, 289, 105, 352, 168
-0.969384, 377, 49, 440, 176
-0.969431, 273, 153, 400, 216
-0.969479, 273, 225, 400, 352
-0.969584, 217, 97, 280, 352
-0.970359, 273, 201, 336, 264
-0.970374, 193, 185, 320, 248
-0.97043, 1, 1, 256, 128
-0.970683, 293, 129, 324, 256
-0.970799, 369, 113, 496, 176
-0.970869, 293, 161, 324, 224
-0.971052, 433, 49, 496, 176
-0.971176, 17, 145, 80, 272
-0.971187, 161, 1, 416, 128
-0.971245, 25, 113, 88, 176
-0.971255, 385, 113, 416, 176
-0.971258, 121, 233, 184, 296
-0.971325, 145, 193, 272, 256
-0.971425, 405, 113, 436, 176
-0.971429, 257, 225, 500, 352
-0.971541, 125, 121, 156, 184
-0.97155, 137, 97, 200, 160
-0.971598, 209, 217, 272, 280
-0.971688, 161, 225, 224, 288
-0.971724, 249, 193, 312, 320
-0.971901, 321, 209, 384, 336
-0.971957, 273, 177, 400, 240
-0.972014, 417, 113, 448, 176
-0.972051, 217, 81, 280, 208
-0.972093, 145, 233, 176, 296
-0.972226, 225, 113, 256, 240
-0.972312, 425, 129, 488, 192
-0.97248, 49, 17, 176, 144
-0.972628, 225, 161, 352, 224
-0.972678, 221, 177, 252, 304
-0.973023, 1, 113, 64, 176
-0.973037, 253, 153, 284, 216
-0.973165, 177, 65, 240, 320
-0.973186, 385, 225, 448, 352
-0.973385, 201, 161, 232, 224
-0.973554, 17, 153, 144, 216
-0.973732, 125, 161, 156, 224
-0.973767, 241, 129, 368, 192
-0.973807, 237, 129, 268, 256
-0.97384, 121, 241, 184, 368
-0.973869, 385, 97, 416, 224
-0.974058, 209, 161, 240, 288
-0.974071, 433, 113, 464, 176
-0.974076, 289, 113, 416, 176
-0.974431, 221, 185, 252, 248
-0.974472, 189, 161, 220, 224
-0.974628, 285, 105, 316, 168
-0.974696, 257, 33, 500, 160
-0.97492, 281, 129, 312, 192
-0.974924, 141, 153, 172, 216
-0.974927, 417, 145, 480, 272
-0.97544, 409, 177, 472, 240
-0.975489, 337, 137, 464, 200
-0.975508, 281, 97, 312, 224
-0.97551, 293, 193, 324, 256
-0.975518, 377, 265, 408, 328
-0.97558, 297, 177, 360, 240
-0.975614, 177, 153, 208, 216
-0.975706, 65, 113, 128, 176
-0.975771, 49, 129, 176, 192
-0.975801, 73, 65, 104, 192
-0.975812, 193, 105, 320, 168
-0.975842, 145, 225, 272, 288
-0.975863, 293, 137, 324, 200
-0.975868, 329, 177, 392, 240
-0.975932, 377, 97, 440, 352
-0.976049, 401, 49, 464, 176
-0.976063, 17, 97, 144, 160
-0.976103, 369, 273, 432, 336
-0.976216, 317, 129, 348, 256
-0.976398, 73, 81, 136, 144
-0.976431, 129, 257, 192, 320
-0.976432, 189, 81, 220, 208
-0.976437, 373, 209, 404, 336
-0.976479, 217, 145, 248, 208
-0.976481, 145, 113, 272, 176
-0.976641, 297, 193, 360, 320
-0.97675, 313, 153, 344, 216
-0.976823, 105, 49, 168, 176
-0.976841, 241, 177, 272, 240
-0.976864, 49, 177, 176, 240
-0.976908, 57, 153, 88, 216
-0.976936, 417, 97, 448, 224
-0.97715, 49, 17, 112, 144
-0.977195, 17, 177, 144, 304
-0.977326, 109, 161, 140, 224
-0.977338, 393, 161, 424, 288
-0.97737, 113, 97, 144, 160
-0.977402, 305, 145, 336, 272
-0.977413, 257, 177, 288, 240
-0.977451, 145, 177, 176, 304
-0.977463, 233, 105, 264, 168
-0.977526, 121, 65, 184, 320
-0.977563, 369, 225, 496, 352
-0.977569, 297, 97, 360, 352
-0.977658, 241, 97, 304, 352
-0.977738, 365, 129, 396, 256
-0.977774, 437, 97, 468, 224
-0.977872, 405, 97, 436, 224
-0.977896, 89, 193, 152, 320
-0.97793, 5, 65, 36, 192
-0.978001, 225, 217, 352, 280
-0.97831, 165, 161, 196, 224
-0.978318, 153, 65, 216, 320
-0.978411, 233, 193, 264, 320
-0.978577, 113, 89, 240, 152
-0.978599, 325, 153, 356, 216
-0.978621, 1, 177, 128, 240
-0.978684, 129, 137, 256, 200
-0.978717, 209, 185, 240, 248
-0.97873, 321, 177, 448, 240
-0.978736, 89, 185, 152, 248
-0.978781, 393, 201, 456, 264
-0.978792, 177, 1, 304, 128
-0.978839, 465, 105, 496, 168
-0.978853, 369, 225, 432, 288
-0.978855, 193, 185, 224, 248
-0.978939, 89, 65, 152, 320
-0.979069, 289, 81, 352, 144
-0.979088, 97, 113, 224, 176
-0.979107, 337, 89, 400, 152
-0.979116, 265, 65, 328, 320
-0.979152, 373, 113, 404, 176
-0.979211, 349, 153, 380, 216
-0.979218, 25, 89, 88, 152
-0.979263, 209, 225, 272, 352
-0.979364, 249, 129, 280, 256
-0.97938, 297, 113, 328, 176
-0.979543, 129, 201, 192, 264
-0.979584, 265, 153, 296, 216
-0.979585, 337, 97, 400, 352
-0.979589, 1, 73, 128, 136
-0.979653, 229, 153, 260, 216
-0.979664, 213, 97, 244, 224
-0.979703, 161, 201, 192, 264
-0.97972, 97, 185, 224, 248
-0.979733, 453, 113, 484, 176
-0.979821, 217, 1, 280, 256
-0.979858, 1, 73, 64, 136
-0.979913, 237, 209, 268, 272
-0.979995, 385, 209, 416, 336
-0.980012, 413, 145, 444, 208
-0.980018, 197, 145, 228, 272
-0.980076, 77, 81, 108, 144
-0.980097, 17, 97, 48, 224
-0.980139, 201, 81, 232, 208
-0.980269, 377, 89, 440, 152
-0.980315, 113, 89, 176, 152
-0.980324, 89, 81, 120, 208
-0.980352, 305, 33, 432, 160
-0.980361, 157, 145, 188, 272
-0.9804, 193, 129, 320, 192
-0.980408, 61, 177, 92, 240
-0.980499, 133, 177, 164, 304
-0.980813, 69, 153, 100, 216
-0.980904, 113, 137, 144, 200
-0.98092, 469, 97, 500, 224
-0.980935, 417, 153, 480, 216
-0.981053, 145, 49, 208, 176
-0.981062, 201, 105, 232, 168
-0.981063, 413, 201, 444, 264
-0.981073, 73, 177, 104, 240
-0.981095, 177, 177, 208, 240
-0.981146, 365, 153, 396, 216
-0.981197, 85, 177, 116, 240
-0.981267, 137, 129, 168, 192
-0.981288, 289, 49, 352, 176
-0.981289, 269, 113, 300, 240
-0.981341, 5, 113, 36, 176
-0.981345, 5, 113, 36, 240
-0.98137, 337, 153, 368, 216
-0.981381, 153, 153, 184, 216
-0.981416, 401, 137, 432, 200
-0.981458, 49, 177, 80, 240
-0.981496, 157, 81, 188, 208
-0.981558, 125, 97, 156, 224
-0.981655, 153, 249, 216, 312
-0.98168, 409, 97, 472, 352
-0.981688, 217, 113, 248, 176
-0.981749, 397, 209, 428, 336
-0.981794, 5, 73, 36, 136
-0.981829, 33, 177, 64, 240
-0.981842, 97, 17, 224, 144
-0.981845, 241, 137, 272, 200
-0.98185, 313, 81, 344, 208
-0.981891, 137, 97, 168, 224
-0.981915, 57, 81, 88, 208
-0.981968, 189, 89, 220, 152
-0.982018, 345, 289, 408, 352
-0.98202, 97, 241, 160, 304
-0.982048, 113, 129, 144, 256
-0.982116, 81, 1, 144, 128
-0.98214, 97, 177, 128, 240
-0.982154, 1, 137, 32, 200
-0.982209, 457, 97, 488, 224
-0.982341, 281, 193, 312, 256
-0.98253, 297, 201, 360, 264
-0.982591, 261, 105, 292, 168
-0.982598, 249, 225, 312, 288
-0.982611, 209, 241, 272, 304
-0.982635, 81, 257, 208, 320
-0.982658, 209, 225, 336, 352
-0.982696, 21, 177, 52, 240
-0.982743, 1, 177, 32, 240
-0.98279, 385, 137, 416, 200
-0.982808, 185, 225, 248, 288
-0.982835, 233, 81, 296, 144
-0.982881, 37, 81, 68, 208
-0.98292, 401, 193, 432, 256
-0.982925, 17, 113, 48, 176
-0.982956, 281, 145, 312, 272
-0.982969, 425, 137, 456, 200
-0.982984, 105, 81, 136, 208
-0.983037, 381, 145, 412, 272
-0.983052, 325, 129, 356, 192
-0.983052, 133, 233, 164, 296
-0.98308, 125, 97, 156, 160
-0.983096, 301, 81, 332, 208
-0.983114, 93, 97, 124, 160
-0.983132, 45, 153, 76, 216
-0.983144, 361, 209, 392, 336
-0.983173, 241, 1, 304, 256
-0.983201, 365, 257, 396, 320
-0.983407, 413, 177, 444, 240
-0.983443, 353, 129, 384, 256
-0.983491, 141, 177, 172, 240
-0.98351, 177, 81, 208, 208
-0.983516, 321, 225, 448, 352
-0.983528, 273, 89, 400, 152
-0.983581, 337, 233, 400, 296
-0.983624, 209, 81, 272, 144
-0.983685, 401, 89, 464, 152
-0.983727, 405, 145, 436, 272
-0.983732, 333, 145, 364, 272
-0.983855, 145, 249, 272, 312
-0.983887, 9, 49, 72, 112
-0.983894, 181, 201, 212, 264
-0.984069, 273, 201, 400, 264
-0.984101, 201, 137, 232, 200
-0.984242, 309, 129, 340, 192
-0.984297, 21, 153, 52, 216
-0.984412, 185, 73, 248, 136
-0.984558, 1, 1, 64, 256
-0.984572, 33, 153, 64, 216
-0.98464, 81, 65, 208, 128
-0.984701, 381, 185, 412, 248
-0.984711, 145, 225, 176, 352
-0.984891, 433, 1, 496, 256
-0.984947, 169, 1, 232, 375
-0.984978, 173, 145, 204, 272
-0.985043, 65, 233, 192, 296
-0.985045, 289, 265, 416, 328
-0.985051, 249, 201, 280, 264
-0.985106, 273, 105, 304, 168
-0.985236, 361, 161, 424, 224
-0.985259, 269, 201, 300, 264
-0.985313, 157, 249, 188, 312
-0.985438, 65, 73, 96, 136
-0.985451, 281, 193, 312, 320
-0.985541, 153, 73, 216, 136
-0.985552, 269, 129, 300, 192
-0.985592, 153, 177, 184, 240
-0.985637, 129, 1, 192, 375
-0.985825, 1, 121, 128, 184
-0.985858, 137, 105, 168, 168
-0.985864, 177, 89, 208, 152
-0.985898, 85, 153, 116, 216
-0.985912, 337, 217, 464, 280
-0.985913, 225, 209, 256, 272
-0.985965, 69, 113, 100, 240
-0.985974, 249, 1, 312, 375
-0.985986, 57, 161, 120, 288
-0.986157, 293, 177, 324, 304
-0.986242, 289, 233, 416, 296
-0.986258, 209, 209, 240, 336
-0.986284, 157, 129, 188, 192
-0.986314, 321, 265, 384, 328
-0.986331, 361, 113, 392, 176
-0.986341, 253, 129, 284, 192
-0.986342, 25, 1, 88, 256
-0.986521, 193, 49, 256, 176
-0.986562, 25, 193, 88, 320
-0.986723, 1, 193, 64, 320
-0.986764, 261, 161, 292, 288
-0.986827, 273, 1, 336, 375
-0.986947, 17, 33, 48, 160
-0.986997, 65, 129, 96, 192
-0.987012, 333, 81, 364, 208
-0.987085, 265, 173, 328, 204
-0.987095, 57, 65, 120, 320
-0.987103, 305, 177, 336, 240
-0.987113, 353, 49, 416, 176
-0.987121, 165, 105, 196, 168
-0.987128, 165, 225, 196, 288
-0.987132, 49, 81, 80, 144
-0.98716, 193, 81, 320, 144
-0.987176, 97, 1, 160, 375
-0.987262, 337, 273, 464, 336
-0.987273, 65, 89, 192, 152
-0.987292, 165, 209, 196, 336
-0.987297, 445, 137, 476, 200
-0.987343, 337, 129, 368, 192
-0.987513, 353, 249, 384, 312
-0.98753, 109, 185, 140, 248
-0.987633, 369, 89, 496, 152
-0.987714, 29, 145, 60, 272
-0.987788, 161, 153, 416, 216
-0.987821, 217, 1, 280, 375
-0.987829, 97, 153, 128, 216
-0.987858, 185, 129, 216, 192
-0.987859, 1, 161, 256, 224
-0.987905, 97, 65, 160, 128
-0.987906, 433, 97, 496, 352
-0.98797, 81, 145, 112, 272
-0.987976, 169, 33, 232, 160
-0.988009, 241, 49, 304, 176
-0.98801, 289, 1, 352, 256
-0.988039, 409, 1, 472, 256
-0.98818, 121, 65, 184, 128
-0.988286, 129, 193, 160, 256
-0.988312, 265, 197, 328, 228
-0.988411, 381, 289, 412, 352
-0.988435, 141, 201, 172, 264
-0.988441, 241, 205, 304, 236
-0.988447, 225, 177, 480, 240
-0.988449, 365, 225, 396, 288
-0.9886, 65, 1, 128, 375
-0.988601, 377, 141, 440, 172
-0.988796, 313, 233, 376, 296
-0.988797, 57, 145, 88, 272
-0.988812, 401, 141, 464, 172
-0.988826, 233, 189, 296, 220
-0.988844, 41, 145, 72, 272
-0.988845, 169, 153, 232, 184
-0.988847, 273, 125, 336, 156
-0.988847, 321, 89, 448, 152
-0.988856, 249, 177, 280, 304
-0.988858, 425, 177, 456, 240
-0.988915, 209, 109, 272, 140
-0.988945, 433, 141, 496, 172
-0.988973, 217, 89, 248, 152
-0.988987, 201, 201, 264, 232
-0.989019, 129, 157, 192, 188
-0.98902, 241, 233, 272, 296
-0.989046, 225, 113, 480, 176
-0.989053, 289, 157, 352, 188
-0.989091, 137, 141, 200, 172
-0.989198, 113, 145, 176, 176
-0.989243, 29, 105, 60, 168
-0.989299, 77, 129, 108, 192
-0.989303, 121, 245, 184, 276
-0.989304, 321, 1, 384, 375
-0.989339, 161, 101, 224, 132
-0.989345, 25, 1, 88, 375
-0.989369, 225, 33, 352, 160
-0.989396, 89, 217, 152, 280
-0.989426, 217, 173, 280, 204
-0.989468, 209, 149, 272, 180
-0.989484, 421, 49, 452, 176
-0.989496, 141, 257, 172, 320
-0.989497, 297, 1, 360, 375
-0.989498, 365, 281, 396, 344
-0.989527, 65, 97, 320, 160
-0.989538, 229, 129, 260, 192
-0.989576, 125, 49, 156, 176
-0.989577, 249, 113, 312, 144
-0.989599, 233, 217, 296, 248
-0.9896, 225, 1, 288, 128
-0.989608, 465, 129, 496, 192
-0.989622, 101, 121, 132, 184
-0.989623, 361, 81, 392, 208
-0.989625, 49, 85, 112, 116
-0.989638, 5, 17, 36, 144
-0.989685, 257, 161, 320, 192
-0.98969, 345, 273, 408, 304
-0.989701, 241, 177, 304, 208
-0.989734, 89, 105, 152, 136
-0.989735, 97, 177, 352, 240
-0.989751, 277, 81, 308, 144
-0.989764, 385, 249, 448, 312
-0.989769, 17, 145, 48, 272
-0.98978, 281, 217, 312, 280
-0.98979, 273, 109, 336, 140
-0.989817, 329, 201, 392, 264
-0.989821, 1, 177, 500, 240
-0.989837, 201, 213, 264, 244
-0.989867, 417, 201, 480, 264
-0.989887, 305, 169, 368, 200
-0.98995, 121, 177, 152, 304
-0.989951, 185, 129, 216, 256
-0.989954, 377, 125, 440, 156
-0.989981, 273, 225, 336, 288
-0.989987, 105, 265, 168, 328
-0.98999, 17, 145, 80, 176
-0.990025, 233, 157, 296, 188
-0.990094, 41, 141, 104, 172
-0.9901, 249, 125, 312, 156
-0.990105, 57, 105, 88, 168
-0.990137, 93, 145, 124, 272
-0.990137, 1, 97, 64, 352
-0.99015, 113, 129, 176, 160
-0.990204, 457, 49, 488, 176
-0.990216, 209, 189, 272, 220
-0.99023, 185, 101, 248, 132
-0.990238, 321, 113, 384, 144
-0.990286, 137, 105, 200, 136
-0.990288, 297, 121, 360, 152
-0.990298, 349, 209, 380, 336
-0.990299, 1, 153, 500, 216
-0.99031, 177, 201, 240, 232
-0.990345, 437, 49, 468, 176
-0.990375, 65, 121, 320, 184
-0.99044, 221, 225, 252, 352
-0.99045, 257, 81, 320, 144
-0.990468, 281, 209, 344, 240
-0.99047, 1, 1, 64, 375
-0.990477, 273, 185, 336, 216
-0.990483, 353, 129, 416, 160
-0.990489, 209, 137, 272, 168
-0.990567, 369, 193, 496, 256
-0.990572, 249, 137, 312, 168
-0.990592, 329, 157, 392, 188
-0.990632, 137, 257, 200, 288
-0.990676, 177, 189, 240, 220
-0.990678, 369, 189, 432, 220
-0.990704, 257, 81, 288, 208
-0.990725, 345, 117, 408, 148
-0.990737, 393, 185, 456, 216
-0.990792, 37, 33, 68, 160
-0.990836, 57, 181, 120, 212
-0.990837, 289, 197, 352, 228
-0.990839, 177, 177, 240, 208
-0.990864, 377, 1, 440, 375
-0.990877, 417, 1, 480, 375
-0.990883, 33, 181, 96, 212
-0.990914, 49, 57, 112, 120
-0.990921, 137, 117, 200, 148
-0.990924, 1, 49, 128, 112
-0.99093, 89, 177, 152, 208
-0.990931, 265, 149, 328, 180
-0.99094, 305, 193, 336, 320
-0.990941, 97, 161, 160, 192
-0.990958, 337, 249, 464, 312
-0.990964, 353, 285, 416, 316
-0.990969, 417, 145, 448, 272
-0.990972, 105, 257, 168, 288
-0.990994, 73, 125, 136, 156
-0.991006, 145, 197, 208, 228
-0.991021, 49, 201, 176, 264
-0.991028, 297, 109, 360, 140
-0.991064, 73, 145, 136, 176
-0.991071, 257, 217, 320, 248
-0.99108, 113, 105, 176, 136
-0.991081, 1, 181, 64, 212
-0.991103, 217, 121, 280, 152
-0.991128, 201, 161, 264, 192
-0.991138, 65, 97, 128, 128
-0.991147, 317, 177, 348, 304
-0.991154, 169, 217, 232, 248
-0.991161, 401, 113, 464, 144
-0.991189, 405, 49, 436, 176
-0.991234, 241, 241, 368, 304
-0.991284, 385, 201, 448, 232
-0.991297, 241, 229, 304, 260
-0.9913, 177, 165, 240, 196
-0.991315, 129, 93, 192, 124
-0.99133, 369, 161, 496, 224
-0.991351, 177, 117, 240, 148
-0.991352, 49, 33, 80, 160
-0.99137, 353, 149, 416, 180
-0.991371, 433, 113, 496, 144
-0.991375, 401, 129, 464, 160
-0.991376, 241, 101, 304, 132
-0.991397, 201, 225, 264, 256
-0.991405, 185, 137, 248, 168
-0.99141, 25, 97, 88, 128
-0.991456, 41, 153, 104, 184
-0.991456, 281, 137, 344, 168
-0.991476, 377, 113, 440, 144
-0.991479, 237, 81, 268, 208
-0.991501, 193, 1, 256, 128
-0.991542, 33, 257, 160, 320
-0.991544, 177, 33, 208, 160
-0.991555, 433, 129, 496, 160
-0.991592, 113, 117, 176, 148
-0.991613, 337, 181, 400, 212
-0.99164, 193, 1, 256, 375
-0.991645, 113, 181, 176, 212
-0.991649, 297, 185, 360, 216
-0.991656, 105, 197, 168, 228
-0.991676, 417, 189, 480, 220
-0.991707, 401, 153, 464, 184
-0.991718, 161, 141, 224, 172
-0.991739, 265, 49, 328, 176
-0.99174, 97, 209, 224, 272
-0.991748, 289, 289, 416, 352
-0.991757, 17, 133, 80, 164
-0.991803, 161, 257, 224, 288
-0.991813, 305, 133, 368, 164
-0.991815, 137, 169, 200, 200
-0.991842, 41, 129, 104, 160
-0.991881, 89, 93, 152, 124
-0.991886, 257, 153, 500, 216
-0.991904, 377, 153, 440, 184
-0.991919, 1, 89, 64, 120
-0.991957, 385, 221, 448, 252
-0.99197, 329, 33, 392, 160
-0.991985, 209, 237, 272, 268
-0.991996, 81, 197, 144, 228
-0.991996, 425, 81, 488, 144
-0.992013, 433, 145, 464, 272
-0.992016, 353, 233, 416, 264
-0.992016, 41, 197, 104, 228
-0.992017, 33, 109, 96, 140
-0.992032, 377, 281, 440, 312
-0.99204, 1, 101, 64, 132
-0.992053, 329, 137, 392, 168
-0.992103, 145, 225, 208, 256
-0.992131, 33, 97, 96, 352
-0.992132, 9, 77, 72, 108
-0.992132, 137, 181, 200, 212
-0.992143, 209, 97, 272, 128
-0.992155, 385, 49, 416, 176
-0.992174, 337, 257, 400, 288
-0.992174, 297, 165, 328, 196
-0.992176, 1, 201, 64, 264
-0.992176, 33, 201, 96, 264
-0.992176, 269, 201, 300, 232
-0.992177, 161, 201, 416, 264
-0.992178, 433, 153, 496, 184
-0.992181, 129, 269, 192, 300
-0.992185, 285, 109, 316, 140
-0.992188, 221, 189, 252, 220
-0.992203, 1, 117, 64, 148
-0.992204, 17, 161, 80, 192
-0.99223, 1, 185, 256, 248
-0.992238, 281, 201, 312, 232
-0.992254, 97, 245, 160, 276
-0.992259, 17, 197, 80, 228
-0.992261, 309, 161, 340, 192
-0.992296, 1, 113, 500, 176
-0.992301, 245, 205, 276, 236
-0.992321, 433, 141, 464, 172
-0.992323, 329, 285, 392, 316
-0.992328, 409, 213, 472, 244
-0.992331, 229, 201, 260, 232
-0.992334, 465, 141, 496, 172
-0.992338, 141, 149, 172, 180
-0.992341, 445, 141, 476, 172
-0.99236, 153, 237, 216, 268
-0.992372, 9, 281, 72, 312
-0.992376, 185, 97, 216, 128
-0.99238, 257, 205, 288, 236
-0.992382, 417, 141, 448, 172
-0.992385, 273, 169, 304, 200
-0.992393, 209, 189, 240, 220
-0.992395, 217, 145, 248, 176
-0.992406, 377, 273, 408, 304
-0.992426, 217, 201, 248, 232
-0.992437, 145, 249, 176, 280
-0.992442, 189, 153, 220, 184
-0.992445, 241, 217, 272, 248
-0.992451, 289, 125, 320, 156
-0.992463, 385, 121, 416, 152
-0.992463, 297, 113, 328, 144
-0.992481, 73, 81, 104, 112
-0.992504, 253, 181, 284, 212
-0.992519, 293, 197, 324, 228
-0.992531, 277, 121, 308, 152
-0.992531, 385, 141, 416, 172
-0.992535, 365, 113, 396, 144
-0.992553, 121, 161, 152, 192
-0.99256, 285, 157, 316, 188
-0.99256, 261, 165, 292, 196
-0.992564, 279, 177, 294, 240
-0.992568, 133, 225, 164, 352
-0.992571, 177, 153, 208, 184
-0.992571, 205, 201, 236, 232
-0.992573, 137, 165, 168, 196
-0.992579, 269, 213, 300, 244
-0.992581, 237, 149, 268, 180
-0.992614, 305, 125, 336, 156
-0.992624, 265, 189, 296, 220
-0.992625, 397, 141, 428, 172
-0.992628, 205, 165, 236, 196
-0.99263, 241, 109, 272, 140
-0.992634, 229, 177, 260, 208
-0.992647, 177, 149, 304, 180
-0.992659, 229, 217, 260, 248
-0.992671, 293, 177, 324, 208
-0.992675, 321, 157, 352, 188
-0.992677, 129, 149, 160, 180
-0.992683, 17, 273, 80, 336
-0.992694, 141, 233, 172, 264
-0.992694, 121, 105, 152, 136
-0.992694, 157, 157, 188, 188
-0.992707, 1, 141, 32, 172
-0.992708, 221, 105, 252, 136
-0.992716, 129, 125, 160, 156
-0.992719, 189, 17, 220, 144
-0.992723, 249, 161, 280, 192
-0.992728, 193, 201, 224, 232
-0.992738, 417, 205, 448, 236
-0.992739, 333, 157, 364, 188
-0.99274, 281, 181, 312, 212
-0.992742, 413, 181, 444, 212
-0.992742, 377, 1, 440, 256
-0.992753, 73, 57, 136, 120
-0.992756, 305, 189, 336, 220
-0.992772, 249, 193, 280, 224
-0.992782, 237, 189, 268, 220
-0.992782, 169, 101, 200, 132
-0.992783, 221, 157, 252, 188
-0.992798, 57, 201, 120, 264
-0.992813, 369, 261, 400, 292
-0.992816, 217, 177, 248, 208
-0.992819, 41, 145, 72, 176
-0.992821, 353, 113, 384, 144
-0.992826, 153, 145, 184, 176
-0.992826, 193, 241, 320, 304
-0.992832, 281, 213, 312, 244
-0.99284, 109, 105, 140, 136
-0.992845, 373, 137, 404, 168
-0.992848, 201, 153, 232, 184
-0.992859, 317, 173, 348, 204
-0.99286, 157, 221, 188, 252
-0.992873, 65, 181, 96, 212
-0.992877, 381, 289, 412, 320
-0.992881, 57, 141, 88, 172
-0.992883, 49, 89, 80, 120
-0.992884, 293, 209, 324, 240
-0.992889, 297, 153, 328, 184
-0.992897, 113, 149, 144, 180
-0.992907, 265, 113, 296, 144
-0.992915, 57, 265, 120, 328
-0.992923, 77, 93, 108, 124
-0.992925, 393, 181, 424, 212
-0.992927, 141, 137, 172, 168
-0.992929, 201, 213, 232, 244
-0.99294, 9, 181, 40, 212
-0.992949, 209, 189, 336, 220
-0.992954, 45, 181, 76, 212
-0.99296, 77, 181, 108, 212
-0.992966, 253, 217, 284, 248
-0.992971, 157, 105, 188, 136
-0.99298, 437, 109, 468, 140
-0.992983, 193, 205, 320, 236
-0.992985, 241, 237, 272, 268
-0.99299, 69, 141, 100, 172
-0.992991, 121, 137, 152, 168
-0.992992, 109, 161, 140, 192
-0.992993, 121, 177, 152, 208
-0.992993, 261, 153, 292, 184
-0.992995, 237, 137, 268, 168
-0.992995, 25, 181, 56, 212
-0.993005, 425, 33, 488, 96
-0.993006, 5, 101, 36, 132
-0.993006, 257, 137, 288, 168
-0.993007, 285, 145, 316, 176
-0.993008, 397, 129, 428, 160
-0.993013, 205, 177, 236, 208
-0.993015, 357, 249, 388, 280
-0.993026, 273, 157, 304, 188
-0.993027, 201, 101, 232, 132
-0.993028, 29, 141, 60, 172
-0.993029, 249, 149, 280, 180
-0.99303, 469, 113, 500, 144
-0.993032, 353, 125, 384, 156
-0.99304, 89, 181, 120, 212
-0.993051, 241, 177, 272, 208
-0.993052, 149, 265, 180, 296
-0.993058, 173, 169, 204, 200
-0.993069, 209, 177, 336, 208
-0.993071, 133, 113, 164, 144
-0.993072, 309, 113, 340, 144
-0.993077, 165, 197, 196, 228
-0.993085, 373, 149, 404, 180
-0.993086, 5, 117, 36, 148
-0.993088, 433, 129, 464, 160
-0.993093, 365, 281, 396, 312
-0.993101, 181, 201, 212, 232
-0.993103, 309, 149, 340, 180
-0.993109, 413, 121, 444, 152
-0.993143, 369, 33, 496, 96
-0.993153, 469, 49, 500, 176
-0.993164, 161, 89, 416, 152
-0.993318, 285, 177, 300, 240
-0.993319, 345, 1, 408, 375
-0.993333, 257, 1, 320, 64
-0.993352, 65, 17, 96, 144
-0.993358, 149, 33, 180, 160
-0.993369, 161, 225, 416, 288
-0.99339, 257, 177, 384, 208
-0.993487, 303, 153, 318, 216
-0.993605, 353, 141, 480, 172
-0.993606, 193, 1, 320, 64
-0.993616, 373, 81, 404, 208
-0.993625, 349, 81, 380, 208
-0.993641, 299, 113, 314, 176
-0.993717, 93, 1, 124, 128
-0.993724, 77, 17, 108, 144
-0.993765, 329, 209, 360, 336
-0.993796, 289, 129, 416, 160
-0.993829, 197, 209, 228, 336
-0.993841, 389, 113, 404, 176
-0.993876, 409, 113, 424, 176
-0.993878, 431, 113, 446, 176
-0.993914, 177, 161, 304, 192
-0.993957, 249, 1, 312, 128
-0.993973, 421, 113, 436, 176
-0.994003, 129, 149, 256, 180
-0.994012, 409, 193, 440, 320
-0.994044, 145, 197, 272, 228
-0.994053, 125, 161, 140, 224
-0.9941, 157, 225, 172, 288
-0.994109, 241, 1, 368, 64
-0.994116, 291, 169, 306, 232
-0.994145, 139, 161, 154, 224
-0.994185, 33, 17, 160, 80
-0.994193, 215, 153, 230, 216
-0.994194, 185, 209, 216, 336
-0.994212, 305, 181, 432, 212
-0.994219, 1, 201, 500, 264
-0.994226, 383, 265, 398, 328
-0.994272, 297, 169, 312, 232
-0.99429, 133, 161, 148, 224
-0.994298, 437, 113, 452, 176
-0.994321, 209, 113, 336, 144
-0.994326, 129, 253, 256, 284
-0.994336, 285, 49, 316, 176
-0.994345, 181, 161, 196, 224
-0.994347, 273, 177, 288, 240
-0.994463, 257, 201, 500, 264
-0.994472, 265, 161, 280, 224
-0.994474, 147, 153, 162, 216
-0.994475, 415, 113, 430, 176
-0.994477, 1, 201, 128, 264
-0.994492, 221, 177, 236, 240
-0.994505, 309, 153, 324, 216
-0.994507, 369, 297, 432, 360
-0.994511, 289, 113, 416, 144
-0.994512, 257, 165, 384, 196
-0.994515, 241, 201, 368, 232
-0.994539, 97, 165, 224, 196
-0.99454, 151, 225, 166, 288
-0.994597, 123, 97, 138, 160
-0.994601, 389, 273, 404, 336
-0.994606, 203, 161, 218, 224
-0.994618, 67, 161, 82, 224
-0.994653, 129, 121, 144, 184
-0.994658, 397, 113, 412, 176
-0.994684, 211, 185, 226, 248
-0.994686, 247, 193, 262, 256
-0.994695, 233, 241, 264, 368
-0.99472, 477, 105, 492, 168
-0.994723, 175, 161, 190, 224
-0.994736, 403, 113, 418, 176
-0.994751, 229, 185, 244, 248
-0.994768, 177, 217, 304, 248
-0.994775, 443, 105, 458, 168
-0.994785, 225, 145, 352, 176
-0.994786, 17, 233, 144, 296
-0.994794, 255, 177, 270, 240
-0.994796, 119, 153, 134, 216
-0.994834, 195, 161, 210, 224
-0.994837, 97, 241, 160, 368
-0.994837, 283, 153, 298, 216
-0.994843, 187, 161, 202, 224
-0.994844, 75, 153, 90, 216
-0.994847, 423, 193, 438, 256
-0.994862, 291, 137, 306, 200
-0.994865, 293, 105, 308, 168
-0.99489, 337, 297, 464, 360
-0.994893, 109, 177, 140, 304
-0.994913, 65, 209, 320, 272
-0.994917, 1, 89, 128, 120
-0.994927, 141, 121, 156, 184
-0.994968, 135, 105, 150, 168
-0.995003, 241, 265, 368, 328
-0.995008, 129, 137, 256, 168
-0.99501, 339, 153, 354, 216
-0.995012, 225, 273, 480, 336
-0.995013, 275, 153, 290, 216
-0.995017, 129, 249, 384, 312
-0.995021, 429, 193, 444, 256
-0.995026, 25, 193, 56, 320
-0.995058, 145, 9, 272, 72
-0.995065, 293, 193, 308, 256
-0.995066, 485, 113, 500, 176
-0.995104, 369, 117, 496, 148
-0.995115, 255, 153, 270, 216
-0.995124, 155, 153, 170, 216
-0.99514, 61, 153, 76, 216
-0.995147, 409, 297, 472, 360
-0.995168, 81, 261, 208, 292
-0.995169, 335, 129, 350, 192
-0.99517, 351, 153, 366, 216
-0.995179, 421, 137, 436, 200
-0.995181, 49, 149, 176, 180
-0.995187, 383, 113, 398, 176
-0.99519, 49, 241, 112, 304
-0.995193, 197, 89, 212, 152
-0.995221, 129, 101, 256, 132
-0.995222, 229, 145, 244, 208
-0.995225, 239, 209, 254, 272
-0.995242, 209, 133, 336, 164
-0.995253, 65, 245, 192, 276
-0.995273, 5, 137, 20, 200
-0.995274, 1, 257, 256, 320
-0.99528, 313, 89, 376, 152
-0.995281, 375, 257, 390, 320
-0.995306, 145, 65, 272, 128
-0.995316, 345, 153, 360, 216
-0.995326, 285, 105, 300, 168
-0.995339, 225, 217, 352, 248
-0.995345, 77, 177, 92, 240
-0.99535, 205, 185, 220, 248
-0.995373, 129, 97, 144, 160
-0.995388, 225, 65, 256, 192
-0.995389, 413, 137, 428, 200
-0.995396, 13, 113, 28, 176
-0.995402, 371, 153, 386, 216
-0.995403, 193, 265, 320, 328
-0.995404, 385, 41, 448, 104
-0.995405, 81, 73, 96, 136
-0.995421, 1, 25, 64, 88
-0.995421, 129, 185, 256, 216
-0.995446, 129, 113, 256, 144
-0.995469, 277, 105, 292, 168
-0.995472, 61, 177, 76, 240
-0.995478, 209, 161, 224, 224
-0.995484, 257, 65, 384, 128
-0.995491, 83, 177, 98, 240
-0.995495, 1, 281, 128, 344
-0.995512, 89, 177, 104, 240
-0.99552, 111, 161, 126, 224
-0.995523, 145, 241, 272, 272
-0.995542, 273, 153, 400, 184
-0.995543, 301, 33, 332, 160
-0.995545, 55, 177, 70, 240
-0.995548, 113, 1, 176, 128
-0.995559, 357, 153, 372, 216
-0.995559, 69, 161, 100, 288
-0.995569, 223, 145, 238, 208
-0.99557, 45, 177, 60, 240
-0.995573, 9, 73, 24, 136
-0.995574, 449, 105, 464, 168
-0.995577, 1, 89, 500, 152
-0.99558, 195, 185, 210, 248
-0.995584, 365, 153, 380, 216
-0.995586, 183, 185, 198, 248
-0.995593, 151, 193, 166, 256
-0.995595, 49, 125, 176, 156
-0.995607, 101, 177, 116, 240
-0.995607, 353, 129, 480, 160
-0.995624, 39, 177, 54, 240
-0.995625, 267, 193, 282, 256
-0.995629, 377, 113, 392, 176
-0.995633, 91, 89, 106, 152
-0.995642, 49, 101, 176, 132
-0.995654, 165, 193, 180, 256
-0.99566, 243, 105, 258, 168
-0.995664, 297, 145, 312, 208
-0.995667, 31, 177, 46, 240
-0.995679, 119, 177, 134, 240
-0.995684, 319, 153, 334, 216
-0.995704, 5, 113, 20, 176
-0.995704, 161, 249, 176, 312
-0.995707, 457, 113, 472, 176
-0.995708, 33, 181, 160, 212
-0.995722, 201, 137, 216, 200
-0.995732, 189, 185, 204, 248
-0.995737, 229, 113, 244, 176
-0.995745, 117, 97, 132, 160
-0.995748, 321, 193, 448, 224
-0.995749, 257, 89, 500, 152
-0.995756, 1, 65, 16, 128
-0.995761, 95, 177, 110, 240
-0.995765, 309, 193, 324, 256
-0.99578, 33, 73, 288, 136
-0.995781, 177, 185, 192, 248
-0.995789, 237, 105, 252, 168
-0.995808, 469, 113, 484, 176
-0.995815, 9, 1, 72, 64
-0.995819, 1, 177, 16, 240
-0.995821, 69, 137, 84, 200
-0.995832, 219, 201, 234, 264
-0.995857, 159, 185, 174, 248
-0.995858, 377, 153, 392, 216
-0.995865, 237, 185, 252, 248
-0.995872, 243, 169, 258, 232
-0.995872, 47, 153, 62, 216
-0.995885, 285, 129, 300, 192
-0.995893, 213, 105, 228, 168
-0.995895, 25, 177, 40, 240
-0.995899, 169, 161, 184, 224
-0.995901, 305, 113, 320, 176
-0.995904, 191, 89, 206, 152
-0.995905, 407, 137, 422, 200
-0.995931, 257, 189, 384, 220
-0.995938, 49, 137, 176, 168
-0.995957, 225, 65, 256, 320
-0.99598, 321, 41, 448, 104
-0.996, 393, 225, 456, 288
-0.996009, 305, 141, 432, 172
-0.996022, 269, 65, 300, 192
-0.996047, 145, 1, 208, 64
-0.996092, 97, 197, 224, 228
-0.996114, 97, 193, 128, 320
-0.996152, 97, 1, 224, 64
-0.996201, 1, 141, 128, 172
-0.996209, 209, 33, 240, 160
-0.996239, 105, 1, 136, 128
-0.996261, 321, 153, 448, 184
-0.996305, 257, 225, 500, 288
-0.996318, 65, 41, 192, 104
-0.996353, 337, 65, 464, 128
-0.996381, 313, 1, 376, 256
-0.996383, 129, 213, 256, 244
-0.996412, 17, 161, 144, 192
-0.99643, 289, 273, 416, 304
-0.996523, 165, 17, 196, 144
-0.996526, 13, 193, 44, 320
-0.996544, 81, 181, 208, 212
-0.996587, 49, 89, 176, 120
-0.99663, 305, 289, 432, 320
-0.99665, 233, 257, 296, 320
-0.996651, 225, 229, 352, 260
-0.996657, 289, 1, 416, 64
-0.996666, 353, 277, 480, 308
-0.996693, 193, 1, 256, 64
-0.996696, 283, 201, 298, 232
-0.996767, 281, 1, 344, 64
-0.996827, 1, 105, 128, 136
-0.996845, 307, 165, 322, 196
-0.996887, 193, 101, 320, 132
-0.996897, 1, 225, 500, 288
-0.996907, 161, 173, 288, 204
-0.996918, 33, 241, 160, 368
-0.996941, 213, 97, 244, 352
-0.996946, 73, 9, 136, 72
-0.996966, 273, 213, 400, 244
-0.996976, 137, 129, 168, 375
-0.997, 277, 201, 292, 232
-0.99701, 223, 189, 238, 220
-0.997012, 293, 97, 324, 352
-0.997017, 129, 265, 256, 296
-0.997068, 33, 197, 160, 228
-0.997076, 447, 141, 462, 172
-0.997096, 37, 193, 68, 320
-0.997107, 305, 169, 432, 200
-0.997118, 153, 233, 168, 264
-0.997136, 251, 205, 266, 236
-0.997138, 301, 157, 316, 188
-0.99715, 299, 109, 314, 140
-0.997158, 117, 65, 148, 320
-0.99716, 243, 201, 258, 232
-0.997186, 49, 113, 176, 144
-0.997191, 265, 205, 280, 236
-0.997209, 267, 169, 282, 200
-0.997227, 243, 217, 258, 248
-0.997236, 337, 205, 464, 236
-0.997243, 293, 201, 308, 232
-0.997252, 271, 205, 286, 236
-0.997255, 365, 97, 396, 352
-0.997259, 161, 249, 176, 280
-0.997263, 239, 105, 254, 136
-0.997269, 215, 201, 230, 232
-0.997286, 161, 125, 288, 156
-0.997292, 1, 129, 128, 160
-0.997298, 1, 49, 256, 112
-0.997311, 113, 9, 176, 72
-0.997317, 259, 205, 274, 236
-0.997324, 217, 189, 232, 220
-0.997329, 433, 177, 496, 240
-0.99733, 291, 121, 306, 152
-0.997335, 245, 97, 276, 352
-0.997338, 369, 153, 496, 184
-0.997338, 301, 197, 316, 228
-0.997339, 113, 33, 176, 96
-0.997343, 353, 105, 480, 136
-0.997367, 235, 201, 250, 232
-0.99738, 201, 65, 232, 320
-0.997395, 5, 1, 36, 256
-0.997407, 257, 249, 320, 312
-0.997407, 299, 121, 314, 152
-0.997414, 145, 229, 272, 260
-0.997415, 421, 193, 452, 320
-0.997417, 227, 201, 242, 232
-0.997421, 419, 141, 434, 172
-0.997436, 135, 157, 150, 188
-0.997436, 125, 105, 140, 136
-0.997436, 81, 193, 112, 320
-0.997438, 279, 169, 294, 200
-0.997443, 113, 89, 240, 120
-0.997446, 1, 69, 128, 100
-0.997448, 387, 137, 402, 168
-0.997452, 221, 145, 236, 176
-0.997455, 149, 97, 180, 352
-0.997461, 273, 161, 288, 192
-0.997485, 213, 1, 244, 256
-0.997486, 161, 221, 176, 252
-0.997496, 307, 117, 322, 148
-0.997505, 309, 193, 324, 224
-0.997509, 285, 121, 300, 152
-0.997513, 53, 193, 84, 320
-0.997518, 251, 217, 266, 248
-0.997527, 385, 97, 416, 352
-0.997528, 283, 213, 298, 244
-0.997532, 333, 157, 348, 188
-0.997536, 433, 141, 448, 172
-0.997551, 5, 133, 20, 164
-0.997558, 397, 97, 428, 352
-0.997561, 389, 121, 404, 152
-0.997561, 9, 241, 72, 304
-0.99757, 245, 105, 260, 136
-0.99758, 97, 125, 224, 156
-0.997593, 213, 157, 228, 188
-0.997595, 165, 129, 196, 375
-0.997596, 221, 201, 236, 232
-0.997597, 151, 145, 166, 176
-0.997597, 189, 1, 220, 256
-0.997603, 209, 201, 224, 232
-0.997605, 323, 157, 338, 188
-0.997614, 441, 141, 456, 172
-0.997617, 457, 141, 472, 172
-0.997622, 201, 201, 216, 232
-0.997624, 171, 101, 186, 132
-0.997624, 467, 141, 482, 172
-0.997628, 1, 277, 128, 308
-0.997629, 481, 141, 496, 172
-0.997631, 143, 153, 158, 184
-0.997635, 375, 261, 390, 292
-0.997639, 245, 225, 276, 352
-0.997643, 389, 273, 404, 304
-0.997659, 159, 145, 174, 176
-0.997667, 349, 97, 380, 352
-0.997668, 241, 101, 368, 132
-0.997673, 291, 109, 306, 140
-0.997673, 65, 273, 192, 304
-0.997677, 295, 161, 310, 192
-0.997689, 307, 177, 322, 208
-0.997689, 475, 141, 490, 172
-0.997695, 281, 65, 312, 320
-0.997699, 277, 213, 292, 244
-0.997703, 229, 189, 244, 220
-0.997704, 263, 157, 278, 188
-0.997715, 55, 145, 70, 176
-0.997716, 407, 137, 422, 168
-0.997722, 301, 169, 316, 200
-0.997733, 425, 205, 440, 236
-0.997734, 353, 1, 480, 128
-0.997735, 273, 189, 288, 220
-0.997735, 193, 65, 448, 128
-0.997736, 325, 97, 356, 352
-0.997741, 427, 141, 442, 172
-0.997748, 119, 141, 134, 172
-0.997752, 273, 173, 288, 204
-0.997776, 255, 145, 270, 176
-0.997778, 321, 229, 448, 260
-0.997785, 445, 145, 476, 272
-0.997787, 323, 117, 338, 148
-0.997789, 245, 233, 260, 264
-0.997794, 317, 169, 332, 200
-0.997804, 197, 97, 212, 128
-0.997805, 307, 153, 322, 184
-0.997808, 417, 97, 448, 352
-0.997811, 179, 157, 194, 188
-0.997816, 193, 153, 208, 184
-0.997816, 257, 217, 272, 248
-0.997818, 73, 241, 136, 304
-0.997823, 369, 253, 384, 284
-0.997825, 283, 109, 298, 140
-0.997831, 237, 213, 252, 244
-0.997832, 177, 33, 208, 288
-0.997836, 225, 177, 240, 208
-0.997841, 317, 157, 332, 188
-0.997842, 105, 1, 136, 256
-0.997844, 289, 101, 416, 132
-0.997846, 305, 129, 336, 375
-0.997849, 49, 145, 64, 176
-0.997849, 285, 169, 300, 200
-0.997851, 203, 153, 218, 184
-0.997854, 369, 189, 496, 220
-0.99786, 377, 117, 392, 148
-0.997867, 253, 193, 268, 224
-0.997869, 189, 97, 204, 128
-0.997872, 361, 109, 376, 140
-0.997872, 291, 133, 306, 164
-0.997873, 339, 157, 354, 188
-0.997875, 431, 209, 446, 240
-0.997889, 141, 165, 156, 196
-0.997892, 369, 221, 496, 252
-0.997895, 245, 1, 276, 256
-0.997903, 263, 185, 278, 216
-0.997906, 273, 113, 288, 144
-0.997908, 397, 141, 412, 172
-0.997913, 233, 105, 248, 136
-0.997915, 441, 109, 456, 140
-0.997918, 1, 145, 16, 176
-0.997922, 203, 101, 218, 132
-0.997924, 67, 181, 82, 212
-0.997929, 129, 161, 144, 192
-0.99793, 235, 189, 250, 220
-0.997931, 131, 105, 146, 136
-0.997933, 413, 141, 428, 172
-0.997939, 283, 181, 298, 212
-0.99794, 187, 153, 202, 184
-0.997942, 321, 289, 384, 352
-0.997977, 75, 181, 90, 212
-0.997996, 33, 261, 160, 292
-0.998004, 401, 185, 416, 216
-0.998006, 129, 33, 160, 288
-0.998007, 83, 81, 98, 112
-0.998012, 91, 93, 106, 124
-0.99802, 219, 177, 234, 208
-0.998022, 137, 105, 152, 136
-0.998022, 179, 105, 194, 136
-0.998022, 413, 181, 428, 212
-0.998026, 195, 201, 210, 232
-0.998026, 53, 181, 68, 212
-0.998028, 315, 125, 330, 156
-0.998033, 213, 169, 228, 200
-0.998039, 119, 105, 134, 136
-0.99804, 255, 109, 270, 140
-0.998042, 81, 181, 96, 212
-0.998044, 259, 169, 274, 200
-0.998045, 147, 165, 162, 196
-0.998055, 209, 213, 224, 244
-0.99806, 113, 33, 240, 96
-0.998072, 469, 1, 500, 256
-0.998077, 57, 65, 88, 320
-0.998081, 17, 1, 48, 256
-0.998091, 337, 1, 400, 256
-0.998092, 85, 65, 116, 320
-0.998093, 457, 1, 488, 256
-0.998095, 225, 249, 480, 312
-0.998122, 369, 177, 496, 208
-0.998124, 337, 97, 368, 352
-0.998133, 369, 305, 496, 336
-0.998162, 273, 25, 400, 88
-0.998181, 125, 1, 156, 128
-0.998185, 241, 1, 368, 32
-0.998207, 193, 1, 448, 64
-0.998227, 81, 77, 208, 108
-0.998237, 29, 65, 60, 320
-0.998238, 353, 289, 480, 320
-0.998249, 193, 89, 320, 120
-0.998306, 445, 1, 476, 256
-0.998342, 209, 245, 336, 276
-0.998364, 273, 261, 400, 292
-0.998375, 265, 179, 328, 194
-0.998378, 45, 1, 76, 256
-0.998408, 13, 97, 44, 352
-0.998412, 425, 153, 456, 168
-0.998412, 281, 127, 344, 142
-0.998412, 229, 149, 260, 164
-0.998412, 281, 169, 344, 184
-0.998412, 381, 139, 412, 154
-0.998412, 405, 143, 436, 158
-0.998413, 257, 173, 320, 188
-0.998413, 429, 201, 460, 216
-0.998413, 305, 209, 336, 224
-0.998414, 381, 155, 412, 170
-0.998414, 209, 149, 272, 164
-0.998414, 197, 109, 228, 124
-0.998414, 197, 115, 228, 130
-0.998414, 453, 139, 484, 154
-0.998415, 141, 149, 172, 164
-0.998415, 209, 157, 240, 172
-0.998415, 297, 113, 328, 128
-0.998415, 281, 195, 312, 210
-0.998415, 137, 117, 168, 132
-0.998417, 381, 117, 412, 132
-0.998417, 225, 211, 256, 226
-0.998417, 241, 201, 272, 216
-0.998418, 385, 127, 416, 142
-0.998419, 157, 155, 188, 170
-0.998419, 233, 181, 264, 196
-0.99842, 261, 121, 292, 136
-0.99842, 305, 177, 368, 192
-0.998421, 273, 117, 304, 132
-0.998421, 117, 163, 148, 178
-0.998421, 421, 185, 452, 200
-0.998422, 65, 137, 96, 152
-0.998422, 293, 197, 324, 212
-0.998422, 161, 219, 192, 234
-0.998423, 293, 157, 324, 172
-0.998424, 453, 153, 484, 168
-0.998424, 145, 111, 176, 126
-0.998424, 73, 153, 104, 168
-0.998425, 393, 143, 424, 158
-0.998427, 241, 113, 304, 128
-0.998427, 217, 163, 248, 178
-0.998428, 121, 107, 152, 122
-0.998428, 273, 111, 304, 126
-0.99843, 321, 205, 352, 220
-0.998432, 377, 275, 408, 290
-0.998433, 381, 291, 412, 306
-0.998433, 325, 171, 356, 186
-0.998433, 221, 221, 252, 236
-0.998435, 181, 217, 212, 232
-0.998435, 293, 163, 324, 178
-0.998435, 41, 147, 104, 162
-0.998436, 281, 149, 312, 164
-0.998436, 33, 241, 96, 368
-0.998436, 197, 165, 228, 180
-0.998438, 165, 33, 196, 288
-0.998439, 373, 149, 404, 164
-0.998443, 433, 97, 464, 352
-0.998443, 125, 127, 156, 142
-0.998443, 329, 133, 360, 148
-0.998443, 465, 115, 496, 130
-0.998445, 221, 113, 252, 128
-0.998447, 261, 169, 292, 184
-0.998447, 53, 149, 84, 164
-0.998447, 349, 113, 380, 128
-0.998449, 265, 201, 328, 216
-0.998449, 377, 281, 408, 296
-0.99845, 205, 149, 236, 164
-0.998451, 153, 161, 184, 176
-0.998451, 465, 147, 496, 162
-0.998452, 317, 161, 348, 176
-0.998452, 141, 143, 172, 158
-0.998453, 105, 97, 136, 352
-0.998453, 285, 171, 316, 186
-0.998454, 261, 153, 292, 168
-0.998454, 249, 167, 280, 182
-0.998455, 33, 153, 64, 168
-0.998455, 365, 117, 396, 132
-0.998457, 229, 177, 244, 304
-0.998459, 257, 215, 288, 230
-0.998459, 241, 119, 272, 134
-0.99846, 313, 177, 344, 192
-0.99846, 201, 195, 232, 210
-0.998462, 221, 107, 252, 122
-0.998462, 433, 143, 464, 158
-0.998462, 73, 65, 104, 320
-0.998463, 249, 213, 312, 228
-0.998464, 257, 121, 320, 136
-0.998464, 241, 207, 272, 222
-0.998465, 317, 131, 348, 146
-0.998466, 57, 143, 88, 158
-0.998466, 289, 209, 320, 224
-0.998467, 141, 243, 172, 258
-0.998467, 133, 167, 164, 182
-0.998467, 33, 233, 288, 296
-0.998469, 137, 151, 200, 166
-0.998471, 129, 163, 192, 178
-0.998471, 301, 131, 332, 146
-0.998472, 185, 155, 216, 170
-0.998473, 233, 111, 264, 126
-0.998473, 49, 157, 80, 172
-0.998475, 257, 207, 288, 222
-0.998476, 1, 145, 32, 160
-0.998477, 209, 111, 272, 126
-0.998477, 193, 215, 224, 230
-0.998477, 217, 203, 248, 218
-0.998478, 369, 151, 432, 166
-0.998478, 257, 129, 288, 375
-0.99848, 465, 141, 496, 156
-0.99848, 205, 171, 236, 186
-0.998481, 417, 143, 448, 158
-0.998481, 221, 189, 252, 204
-0.998483, 217, 179, 280, 194
-0.998484, 113, 155, 176, 170
-0.998486, 121, 253, 184, 268
-0.998486, 261, 163, 292, 178
-0.998486, 389, 189, 420, 204
-0.998488, 161, 159, 224, 174
-0.998488, 293, 203, 324, 218
-0.998489, 401, 187, 464, 202
-0.998489, 337, 127, 400, 142
-0.99849, 365, 265, 396, 280
-0.998491, 249, 173, 280, 188
-0.998491, 393, 143, 456, 158
-0.998493, 165, 107, 196, 122
-0.998494, 233, 197, 296, 212
-0.998496, 273, 163, 336, 178
-0.998498, 25, 141, 88, 156
-0.998498, 305, 159, 336, 174
-0.998498, 197, 155, 228, 170
-0.9985, 113, 143, 176, 158
-0.9985, 289, 209, 352, 224
-0.998502, 261, 115, 292, 130
-0.998504, 437, 113, 468, 128
-0.998505, 269, 205, 300, 220
-0.998505, 313, 171, 344, 186
-0.998509, 217, 173, 280, 188
-0.998511, 245, 113, 276, 128
-0.998512, 169, 153, 232, 168
-0.998514, 297, 121, 360, 136
-0.998514, 161, 103, 224, 118
-0.998516, 241, 219, 272, 234
-0.998516, 273, 179, 304, 194
-0.998518, 433, 145, 496, 160
-0.998518, 117, 157, 148, 172
-0.998519, 413, 191, 444, 206
-0.998519, 185, 201, 248, 216
-0.998522, 73, 83, 104, 98
-0.998522, 241, 151, 272, 166
-0.998523, 321, 301, 448, 332
-0.998523, 209, 191, 272, 206
-0.998524, 253, 183, 284, 198
-0.998524, 233, 207, 296, 222
-0.998524, 17, 147, 80, 162
-0.998526, 149, 253, 180, 268
-0.998527, 273, 213, 304, 228
-0.998528, 445, 145, 476, 160
-0.998528, 153, 113, 216, 128
-0.99853, 369, 139, 432, 154
-0.998531, 185, 195, 248, 210
-0.998531, 201, 211, 264, 226
-0.998531, 369, 41, 496, 72
-0.998533, 321, 113, 384, 128
-0.998533, 137, 155, 168, 170
-0.998533, 249, 149, 312, 164
-0.998535, 41, 153, 104, 168
-0.998536, 229, 199, 260, 214
-0.998537, 129, 259, 192, 274
-0.998537, 217, 167, 280, 182
-0.998539, 137, 145, 200, 160
-0.998539, 297, 123, 328, 138
-0.998542, 177, 175, 240, 190
-0.998542, 305, 133, 368, 148
-0.998543, 189, 99, 220, 114
-0.998545, 249, 163, 312, 178
-0.998545, 225, 217, 288, 232
-0.998545, 265, 157, 328, 172
-0.998546, 297, 171, 328, 186
-0.998547, 121, 245, 184, 260
-0.998547, 257, 127, 320, 142
-0.998547, 113, 137, 176, 152
-0.998547, 89, 109, 152, 124
-0.998548, 129, 161, 160, 176
-0.998548, 209, 121, 272, 136
-0.99855, 209, 201, 272, 216
-0.99855, 425, 113, 488, 128
-0.998551, 289, 197, 352, 212
-0.998551, 409, 185, 440, 200
-0.998552, 317, 225, 348, 352
-0.998553, 337, 133, 400, 148
-0.998553, 269, 129, 300, 375
-0.998555, 313, 161, 376, 176
-0.998556, 385, 149, 416, 164
-0.998556, 97, 161, 160, 176
-0.998557, 145, 1, 176, 256
-0.998558, 185, 105, 248, 120
-0.998558, 113, 149, 176, 164
-0.998558, 265, 133, 328, 148
-0.998558, 217, 185, 280, 200
-0.998559, 153, 217, 216, 232
-0.998559, 177, 215, 240, 230
-0.99856, 265, 185, 328, 200
-0.998561, 257, 207, 320, 222
-0.998561, 113, 109, 176, 124
-0.998562, 277, 125, 308, 140
-0.998563, 281, 113, 344, 128
-0.998563, 217, 149, 248, 164
-0.998564, 73, 143, 136, 158
-0.998564, 49, 95, 112, 110
-0.998564, 305, 171, 368, 186
-0.998565, 345, 271, 408, 286
-0.998567, 285, 113, 316, 128
-0.998567, 1, 241, 64, 368
-0.998568, 121, 119, 184, 134
-0.99857, 233, 125, 296, 140
-0.99857, 185, 113, 248, 128
-0.99857, 209, 157, 272, 172
-0.998571, 273, 171, 304, 186
-0.998571, 201, 221, 264, 236
-0.998572, 281, 203, 312, 218
-0.998574, 393, 149, 456, 164
-0.998574, 233, 119, 296, 134
-0.998574, 193, 49, 320, 112
-0.998574, 49, 85, 112, 100
-0.998575, 137, 169, 200, 184
-0.998579, 289, 129, 320, 144
-0.998579, 361, 187, 424, 202
-0.998581, 261, 175, 292, 190
-0.998582, 105, 265, 168, 280
-0.998582, 9, 153, 72, 168
-0.998582, 209, 143, 272, 158
-0.998585, 345, 283, 408, 298
-0.998585, 177, 165, 240, 180
-0.998585, 345, 277, 408, 292
-0.998586, 353, 117, 416, 132
-0.998586, 81, 155, 144, 170
-0.998587, 293, 177, 324, 192
-0.998587, 241, 179, 304, 194
-0.998588, 129, 103, 192, 118
-0.998589, 369, 145, 432, 160
-0.998589, 401, 193, 464, 208
-0.998591, 377, 127, 440, 142
-0.998592, 161, 261, 224, 276
-0.998595, 249, 143, 312, 158
-0.998596, 185, 99, 248, 114
-0.998599, 345, 293, 408, 308
-0.9986, 65, 105, 128, 120
-0.998602, 433, 139, 496, 154
-0.998602, 161, 97, 224, 112
-0.998606, 89, 149, 152, 164
-0.998607, 369, 133, 432, 148
-0.998607, 249, 227, 312, 242
-0.998607, 129, 265, 192, 280
-0.998608, 1, 117, 128, 148
-0.998608, 369, 9, 496, 72
-0.998609, 433, 153, 496, 168
-0.998609, 89, 103, 152, 118
-0.99861, 401, 155, 464, 170
-0.99861, 313, 205, 376, 220
-0.998611, 337, 157, 400, 172
-0.998612, 285, 119, 316, 134
-0.998615, 273, 191, 336, 206
-0.998617, 233, 191, 296, 206
-0.998617, 33, 159, 96, 174
-0.998617, 329, 181, 392, 196
-0.998619, 289, 203, 352, 218
-0.998621, 273, 151, 336, 166
-0.998621, 209, 105, 272, 120
-0.998622, 177, 119, 240, 134
-0.998624, 409, 137, 472, 152
-0.998625, 385, 305, 448, 320
-0.998626, 213, 195, 244, 210
-0.998626, 137, 137, 200, 152
-0.998627, 273, 233, 400, 264
-0.998628, 41, 279, 104, 294
-0.998628, 105, 199, 168, 214
-0.998628, 369, 181, 432, 196
-0.998629, 73, 123, 136, 138
-0.998633, 221, 161, 236, 288
-0.998654, 433, 1, 464, 256
-0.998667, 305, 165, 336, 180
-0.998668, 307, 145, 322, 272
-0.998674, 449, 97, 480, 352
-0.998687, 469, 97, 500, 352
-0.998699, 1, 249, 500, 312
-0.998709, 1, 97, 32, 352
-0.998725, 1, 1, 256, 64
-0.998746, 369, 265, 496, 296
-0.998749, 387, 209, 402, 336
-0.998783, 301, 113, 316, 240
-0.998785, 387, 113, 402, 240
-0.998792, 407, 161, 422, 288
-0.998821, 261, 1, 292, 256
-0.998823, 157, 177, 172, 304
-0.998855, 381, 129, 396, 256
-0.998855, 229, 113, 244, 240
-0.998857, 439, 97, 454, 224
-0.998861, 1, 177, 32, 304
-0.998864, 257, 297, 500, 360
-0.99887, 13, 65, 28, 192
-0.998887, 407, 97, 422, 224
-0.998889, 151, 177, 166, 304
-0.998905, 235, 161, 250, 288
-0.998906, 377, 209, 392, 336
-0.998908, 215, 145, 230, 272
-0.998911, 81, 65, 96, 192
-0.998912, 313, 145, 328, 272
-0.998917, 49, 281, 176, 344
-0.998932, 249, 113, 264, 240
-0.998935, 89, 81, 104, 208
-0.99894, 65, 233, 192, 264
-0.998944, 205, 81, 220, 208
-0.998947, 433, 97, 448, 224
-0.99895, 293, 113, 308, 240
-0.99895, 5, 113, 20, 240
-0.998951, 239, 113, 254, 240
-0.998961, 445, 97, 460, 224
-0.99897, 257, 285, 384, 316
-0.998972, 95, 81, 110, 208
-0.998984, 97, 9, 352, 72
-0.998991, 1, 57, 128, 88
-0.998992, 401, 161, 416, 288
-0.99901, 319, 145, 334, 272
-0.999012, 337, 61, 464, 92
-0.999012, 209, 257, 336, 288
-0.999013, 257, 41, 500, 104
-0.999013, 417, 97, 432, 224
-0.999015, 399, 97, 414, 224
-0.999016, 307, 97, 322, 224
-0.999022, 193, 13, 320, 44
-0.999025, 279, 97, 294, 224
-0.999029, 137, 49, 168, 176
-0.999032, 393, 97, 408, 224
-0.999037, 171, 81, 186, 208
-0.999039, 145, 177, 160, 304
-0.99904, 223, 113, 238, 240
-0.999041, 249, 1, 280, 128
-0.99905, 129, 273, 256, 336
-0.999051, 121, 81, 136, 208
-0.999053, 241, 161, 256, 288
-0.999054, 257, 113, 272, 240
-0.999055, 297, 1, 328, 256
-0.999062, 71, 65, 86, 192
-0.999071, 1, 65, 16, 192
-0.999073, 395, 177, 410, 304
-0.999078, 197, 81, 212, 208
-0.999078, 59, 81, 74, 208
-0.999083, 481, 97, 496, 224
-0.999083, 373, 129, 388, 256
-0.999085, 125, 129, 140, 256
-0.999092, 287, 145, 302, 272
-0.999099, 191, 81, 206, 208
-0.999107, 31, 97, 46, 224
-0.999107, 329, 129, 344, 256
-0.999107, 25, 97, 40, 224
-0.999111, 321, 49, 448, 80
-0.999114, 163, 177, 178, 304
-0.999115, 277, 145, 292, 272
-0.999115, 247, 161, 262, 288
-0.999116, 313, 97, 328, 224
-0.999116, 475, 97, 490, 224
-0.999117, 65, 81, 80, 208
-0.999122, 423, 97, 438, 224
-0.999127, 387, 161, 402, 288
-0.999135, 147, 129, 162, 256
-0.999136, 413, 145, 428, 272
-0.99914, 153, 225, 168, 352
-0.99914, 417, 1, 448, 256
-0.999141, 401, 209, 416, 336
-0.999142, 115, 81, 130, 208
-0.999142, 451, 97, 466, 224
-0.999143, 7, 65, 22, 192
-0.999146, 211, 97, 226, 224
-0.999154, 367, 129, 382, 256
-0.999156, 285, 97, 300, 224
-0.999168, 33, 21, 160, 52
-0.99917, 223, 209, 238, 336
-0.99917, 325, 81, 340, 208
-0.999171, 209, 145, 224, 272
-0.999172, 129, 273, 384, 336
-0.999174, 53, 81, 68, 208
-0.999175, 139, 177, 154, 304
-0.999177, 39, 81, 54, 208
-0.99918, 11, 113, 26, 240
-0.999181, 71, 113, 86, 240
-0.999183, 81, 209, 208, 240
-0.999188, 277, 1, 308, 128
-0.999192, 371, 209, 386, 336
-0.999193, 19, 113, 34, 240
-0.999194, 335, 145, 350, 272
-0.999197, 45, 81, 60, 208
-0.999197, 109, 81, 124, 208
-0.999199, 457, 97, 472, 224
-0.999203, 319, 97, 334, 224
-0.999206, 269, 97, 284, 224
-0.999208, 269, 145, 284, 272
-0.999212, 469, 97, 484, 224
-0.999216, 113, 29, 240, 60
-0.999223, 119, 129, 134, 256
-0.999225, 153, 97, 168, 224
-0.999227, 103, 81, 118, 208
-0.999231, 79, 145, 94, 272
-0.999232, 145, 81, 160, 208
-0.999232, 137, 97, 152, 224
-0.999247, 297, 161, 312, 288
-0.999254, 337, 253, 464, 284
-0.999255, 377, 81, 392, 208
-0.999255, 133, 177, 148, 304
-0.999261, 169, 177, 184, 304
-0.99927, 113, 17, 240, 48
-0.99927, 193, 269, 320, 300
-0.999271, 217, 81, 232, 208
-0.999274, 335, 97, 350, 224
-0.999277, 289, 1, 416, 32
-0.999277, 257, 69, 384, 100
-0.999277, 177, 145, 192, 272
-0.999278, 5, 17, 20, 144
-0.999279, 159, 225, 174, 352
-0.999284, 185, 81, 200, 208
-0.99929, 463, 97, 478, 224
-0.999294, 55, 145, 70, 272
-0.999294, 85, 145, 100, 272
-0.999299, 19, 65, 34, 192
-0.9993, 39, 145, 54, 272
-0.999304, 263, 145, 278, 272
-0.999304, 345, 129, 360, 256
-0.999308, 239, 209, 254, 336
-0.99931, 203, 129, 218, 256
-0.999311, 417, 193, 480, 320
-0.999321, 127, 81, 142, 208
-0.999322, 163, 129, 178, 256
-0.999323, 359, 129, 374, 256
-0.999326, 353, 129, 368, 256
-0.999326, 291, 193, 306, 320
-0.99933, 337, 93, 464, 124
-0.999332, 299, 65, 314, 192
-0.999334, 147, 225, 162, 352
-0.999336, 247, 209, 262, 336
-0.999336, 193, 1, 320, 32
-0.999342, 255, 161, 270, 288
-0.999343, 31, 145, 46, 272
-0.999345, 1, 65, 500, 128
-0.999349, 309, 193, 324, 320
-0.999361, 91, 145, 106, 272
-0.999362, 131, 129, 146, 256
-0.999365, 25, 145, 40, 272
-0.999378, 45, 145, 60, 272
-0.999396, 241, 273, 368, 304
-0.999411, 321, 217, 448, 248
-0.999416, 309, 1, 340, 256
-0.999417, 17, 245, 144, 276
-0.999418, 1, 9, 500, 72
-0.999418, 225, 25, 352, 88
-0.999423, 353, 165, 480, 196
-0.999451, 257, 89, 384, 120
-0.999465, 397, 1, 428, 256
-0.999465, 189, 97, 220, 352
-0.999472, 321, 33, 352, 160
-0.999473, 97, 5, 224, 36
-0.999553, 1, 25, 256, 88
-0.999579, 33, 33, 160, 64
-0.999612, 159, 151, 174, 166
-0.999612, 133, 169, 148, 184
-0.999612, 201, 155, 216, 170
-0.999614, 269, 161, 284, 176
-0.999614, 205, 215, 220, 230
-0.999615, 387, 139, 402, 154
-0.999615, 303, 197, 318, 212
-0.999617, 243, 235, 258, 250
-0.999617, 327, 159, 342, 174
-0.999618, 405, 187, 420, 202
-0.999619, 237, 211, 252, 226
-0.99962, 237, 195, 252, 210
-0.99962, 467, 145, 482, 160
-0.99962, 149, 143, 164, 158
-0.99962, 291, 133, 306, 148
-0.99962, 385, 115, 400, 130
-0.999621, 309, 193, 324, 208
-0.999621, 385, 155, 400, 170
-0.999621, 229, 187, 244, 202
-0.999622, 335, 133, 350, 148
-0.999624, 419, 143, 434, 158
-0.999624, 75, 139, 90, 154
-0.999625, 199, 215, 214, 230
-0.999625, 307, 159, 322, 174
-0.999626, 287, 171, 302, 186
-0.999626, 43, 153, 58, 168
-0.999626, 249, 149, 264, 164
-0.999627, 243, 203, 258, 218
-0.999627, 81, 153, 96, 168
-0.999628, 357, 245, 372, 260
-0.999629, 457, 145, 472, 160
-0.999629, 215, 171, 230, 186
-0.99963, 207, 195, 222, 210
-0.99963, 205, 103, 220, 118
-0.999631, 85, 147, 100, 162
-0.999633, 301, 161, 316, 176
-0.999634, 289, 111, 304, 126
-0.999634, 381, 267, 396, 282
-0.999635, 253, 209, 268, 224
-0.999635, 257, 217, 272, 232
-0.999635, 475, 113, 490, 128
-0.999636, 57, 143, 72, 158
-0.999636, 265, 153, 280, 168
-0.999636, 141, 163, 156, 178
-0.999638, 329, 169, 344, 184
-0.999638, 359, 111, 374, 126
-0.999639, 431, 211, 446, 226
-0.999639, 447, 143, 462, 158
-0.99964, 135, 163, 150, 178
-0.99964, 275, 163, 290, 178
-0.99964, 399, 189, 414, 204
-0.999641, 441, 113, 456, 128
-0.999641, 157, 231, 172, 246
-0.999641, 309, 179, 324, 194
-0.999641, 81, 81, 96, 96
-0.999642, 171, 105, 186, 120
-0.999643, 217, 203, 232, 218
-0.999643, 391, 293, 406, 308
-0.999644, 269, 205, 284, 220
-0.999646, 279, 125, 294, 140
-0.999646, 291, 143, 306, 158
-0.999646, 217, 189, 232, 204
-0.999646, 235, 201, 250, 216
-0.999647, 211, 109, 226, 124
-0.999648, 293, 211, 308, 226
-0.99965, 161, 251, 176, 266
-0.999653, 161, 225, 176, 240
-0.999654, 419, 185, 434, 200
-0.999654, 283, 119, 298, 134
-0.999654, 283, 113, 298, 128
-0.999655, 139, 155, 154, 170
-0.999655, 255, 113, 270, 128
-0.999656, 75, 151, 90, 166
-0.999656, 297, 175, 312, 190
-0.999657, 261, 207, 276, 222
-0.99966, 49, 157, 64, 172
-0.999661, 299, 119, 314, 134
-0.999662, 277, 179, 292, 194
-0.999663, 301, 155, 316, 170
-0.999663, 227, 199, 242, 214
-0.999666, 213, 165, 228, 180
-0.999666, 305, 127, 320, 142
-0.999666, 125, 105, 140, 120
-0.999667, 411, 193, 426, 208
-0.999667, 5, 143, 20, 158
-0.999669, 79, 145, 94, 160
-0.99967, 219, 149, 234, 164
-0.999672, 317, 177, 332, 192
-0.999672, 131, 157, 146, 172
-0.999673, 151, 239, 166, 254
-0.999673, 379, 119, 394, 134
-0.999674, 241, 13, 368, 44
-0.999675, 323, 169, 338, 184
-0.999675, 297, 201, 312, 216
-0.999677, 291, 203, 306, 218
-0.999678, 223, 187, 238, 202
-0.999678, 237, 115, 252, 130
-0.999679, 333, 1, 364, 256
-0.999679, 229, 205, 244, 220
-0.99968, 387, 149, 402, 164
-0.999682, 369, 255, 384, 270
-0.999682, 265, 179, 280, 194
-0.999682, 319, 161, 334, 176
-0.999683, 311, 167, 326, 182
-0.999684, 211, 155, 226, 170
-0.999686, 155, 143, 170, 158
-0.999687, 291, 119, 306, 134
-0.99969, 275, 205, 290, 220
-0.999691, 265, 173, 280, 188
-0.999692, 55, 153, 70, 168
-0.999693, 485, 143, 500, 158
-0.999693, 297, 129, 312, 144
-0.999693, 301, 167, 316, 182
-0.999694, 281, 171, 296, 186
-0.999695, 247, 219, 262, 234
-0.999695, 425, 185, 440, 200
-0.999697, 247, 113, 262, 128
-0.999699, 363, 249, 378, 264
-0.999701, 285, 213, 300, 228
-0.999701, 385, 1, 416, 256
-0.999702, 195, 97, 210, 112
-0.999705, 265, 167, 280, 182
-0.999705, 375, 263, 390, 278
-0.999707, 241, 107, 256, 122
-0.999717, 285, 127, 300, 142
-0.999719, 285, 203, 300, 218
-0.99972, 291, 127, 306, 142
-0.999723, 297, 109, 312, 124
-0.999723, 303, 173, 318, 188
-0.999733, 65, 65, 192, 96
-0.999742, 411, 187, 426, 202
-0.99975, 273, 173, 288, 188
-0.999752, 193, 77, 320, 108
-0.999764, 223, 193, 238, 208
-0.999766, 289, 245, 416, 276
-0.999775, 213, 195, 228, 210
-0.999786, 177, 25, 304, 56
-0.999809, 177, 129, 208, 375
-0.999812, 161, 33, 416, 96
-0.999824, 273, 57, 400, 88
-0.999858, 1, 289, 128, 320
-0.999868, 97, 41, 224, 72
-0.999871, 333, 33, 364, 160
-0.999911, 41, 97, 72, 352
-0.999913, 49, 9, 176, 40
-0.999995, 145, 5, 272, 36
-0.999998, 369, 25, 496, 56
-1.00002, 65, 221, 192, 252
-1.00002, 1, 221, 128, 252
-1.00006, 321, 1, 352, 256
-1.00007, 321, 73, 448, 104
-1.00007, 321, 37, 448, 68
-1.00008, 293, 225, 324, 352
-1.00009, 273, 45, 400, 76
-1.0001, 145, 41, 272, 72
-1.00017, 345, 1, 376, 256
-1.00021, 369, 33, 400, 160
-1.00038, 137, 1, 200, 128
-1.00039, 357, 1, 388, 256
-1.00048, 373, 1, 404, 256
-1.0006, 1, 281, 256, 344
-1.00065, 1, 305, 128, 368
-1.00068, 233, 241, 296, 368
-1.00078, 185, 241, 248, 368
-1.00078, 209, 289, 336, 352
-1.00104, 1, 273, 500, 336
-1.00121, 273, 1, 336, 128
-1.00135, 33, 305, 288, 368
-1.00147, 129, 297, 256, 360
-1.00172, 161, 297, 416, 360
-1.00178, 49, 305, 176, 368
-1.0018, 1, 41, 500, 104
-1.00196, 209, 313, 336, 375
-1.00225, 289, 313, 416, 375
-1.00237, 1, 297, 500, 360
-1.00279, 57, 209, 120, 336
-1.00398, 425, 1, 488, 128
-1.0041, 273, 241, 336, 368
-1.00451, 297, 241, 360, 368
-1.00562, 425, 241, 488, 368
-1.00712, 305, 1, 368, 128
-1.00886, 369, 1, 432, 128
-1.00993, 401, 1, 464, 128
