1971
-0.229782, 1, 1, 375, 500
-0.23431, 1, 161, 375, 416
-0.266878, 65, 1, 320, 500
-0.331858, 1, 257, 375, 500
-0.382857, 1, 65, 375, 320
-0.408575, 65, 129, 320, 384
-0.461946, 1, 225, 256, 480
-0.512708, 33, 1, 288, 256
-0.530674, 97, 257, 352, 500
-0.750486, 129, 33, 375, 288
-0.802224, 49, 161, 176, 416
-0.810129, 97, 1, 224, 500
-0.821968, 97, 1, 224, 256
-0.822464, 177, 1, 304, 500
-0.826542, 177, 129, 304, 384
-0.828572, 97, 193, 224, 448
-0.840455, 49, 33, 176, 288
-0.841937, 1, 193, 375, 320
-0.843353, 49, 1, 176, 500
-0.843437, 129, 97, 256, 352
-0.846062, 1, 65, 128, 320
-0.855709, 177, 225, 304, 480
-0.857226, 1, 225, 128, 480
-0.859655, 1, 1, 128, 500
-0.867619, 1, 305, 375, 432
-0.86772, 49, 257, 176, 500
-0.86776, 1, 241, 375, 368
-0.868217, 1, 145, 375, 272
-0.872931, 33, 193, 288, 320
-0.874646, 145, 1, 272, 256
-0.886845, 1, 49, 375, 176
-0.890865, 1, 241, 256, 368
-0.891529, 225, 1, 352, 500
-0.89249, 1, 97, 375, 224
-0.895242, 209, 33, 336, 288
-0.895879, 129, 161, 375, 288
-0.896575, 1, 1, 375, 128
-0.899173, 97, 241, 352, 368
-0.901555, 1, 129, 256, 256
-0.903823, 33, 1, 288, 128
-0.906964, 33, 49, 288, 176
-0.907879, 1, 353, 375, 480
-0.908809, 33, 289, 288, 416
-0.911112, 65, 193, 192, 320
-0.913594, 81, 145, 208, 272
-0.915286, 241, 193, 368, 448
-0.916519, 17, 225, 144, 352
-0.916727, 65, 193, 128, 320
-0.918553, 177, 161, 304, 288
-0.918658, 81, 1, 208, 128
-0.919713, 97, 97, 352, 224
-0.921823, 113, 193, 240, 320
-0.923068, 185, 177, 248, 304
-0.923485, 97, 337, 352, 464
-0.923697, 81, 241, 208, 368
-0.924957, 113, 177, 176, 304
-0.926796, 129, 113, 256, 240
-0.926948, 177, 225, 304, 352
-0.927302, 153, 145, 216, 272
-0.928428, 153, 209, 216, 336
-0.929116, 73, 65, 136, 192
-0.929207, 81, 49, 208, 176
-0.929548, 89, 241, 152, 368
-0.930577, 1, 113, 128, 240
-0.930861, 1, 177, 128, 304
-0.931284, 89, 129, 152, 256
-0.931995, 41, 209, 104, 336
-0.932686, 81, 97, 208, 224
-0.932807, 65, 17, 128, 144
-0.934141, 129, 289, 375, 416
-0.934517, 217, 17, 280, 144
-0.934818, 121, 129, 184, 256
-0.935303, 121, 241, 184, 368
-0.93565, 113, 1, 176, 128
-0.935741, 225, 145, 288, 272
-0.935814, 1, 337, 256, 464
-0.936597, 97, 289, 224, 416
-0.936608, 129, 65, 256, 192
-0.936674, 265, 321, 328, 448
-0.936794, 145, 1, 272, 128
-0.93694, 153, 257, 216, 384
-0.937335, 49, 145, 112, 272
-0.937563, 33, 49, 160, 176
-0.937804, 161, 49, 224, 176
-0.938053, 193, 97, 256, 224
-0.938891, 17, 273, 144, 400
-0.938916, 129, 241, 256, 368
-0.939097, 193, 321, 320, 448
-0.940069, 121, 81, 184, 208
-0.940365, 89, 17, 152, 144
-0.940659, 137, 33, 200, 160
-0.942936, 89, 193, 152, 320
-0.943717, 97, 289, 160, 416
-0.944165, 193, 225, 256, 352
-0.94417, 177, 1, 240, 128
-0.94584, 249, 161, 312, 288
-0.946078, 161, 369, 288, 496
-0.946111, 177, 113, 304, 240
-0.946423, 33, 1, 160, 128
-0.947304, 65, 193, 128, 256
-0.947917, 73, 57, 136, 120
-0.948229, 17, 65, 80, 192
-0.948252, 65, 257, 128, 384
-0.948656, 185, 49, 248, 176
-0.948937, 225, 193, 352, 320
-0.949275, 57, 233, 120, 296
-0.949831, 217, 65, 280, 192
-0.950488, 193, 225, 256, 288
-0.950513, 89, 9, 152, 72
-0.951209, 121, 121, 184, 184
-0.951389, 1, 129, 64, 256
-0.95145, 145, 97, 208, 224
-0.951456, 177, 185, 240, 248
-0.951626, 177, 273, 304, 400
-0.952146, 129, 49, 375, 176
-0.952481, 185, 129, 248, 192
-0.952896, 89, 257, 152, 320
-0.95301, 145, 153, 208, 216
-0.953109, 121, 201, 184, 264
-0.953109, 153, 225, 216, 288
-0.953319, 185, 369, 248, 496
-0.953892, 97, 337, 224, 464
-0.954445, 17, 193, 80, 320
-0.954494, 153, 305, 216, 432
-0.954522, 169, 105, 232, 168
-0.955112, 17, 81, 80, 144
-0.955266, 65, 89, 128, 152
-0.955306, 25, 129, 88, 256
-0.955533, 145, 97, 208, 160
-0.955634, 97, 169, 160, 232
-0.955641, 177, 65, 240, 128
-0.955651, 265, 353, 328, 416
-0.956139, 193, 33, 320, 160
-0.956221, 97, 65, 160, 192
-0.956284, 97, 209, 160, 272
-0.956822, 241, 1, 304, 128
-0.956864, 169, 97, 232, 224
-0.956893, 153, 257, 216, 320
-0.957142, 89, 89, 152, 152
-0.957175, 129, 1, 375, 128
-0.95728, 129, 177, 192, 240
-0.957569, 289, 369, 352, 496
-0.957693, 49, 97, 112, 224
-0.957868, 225, 57, 288, 120
-0.958038, 217, 225, 280, 288
-0.95811, 41, 257, 104, 384
-0.958171, 225, 153, 288, 216
-0.958622, 153, 57, 216, 120
-0.958754, 33, 241, 96, 304
-0.959022, 281, 193, 344, 320
-0.95913, 121, 161, 184, 416
-0.959203, 153, 201, 216, 264
-0.959269, 265, 369, 328, 496
-0.959313, 209, 369, 336, 496
-0.959757, 241, 353, 304, 480
-0.959969, 129, 73, 192, 136
-0.96012, 185, 65, 248, 320
-0.960288, 153, 305, 216, 368
-0.960442, 129, 49, 192, 112
-0.960576, 57, 161, 120, 416
-0.960585, 193, 89, 256, 152
-0.960797, 33, 217, 96, 280
-0.960798, 145, 321, 272, 448
-0.961258, 73, 113, 136, 176
-0.961448, 25, 17, 88, 144
-0.961809, 73, 33, 136, 96
-0.961844, 225, 81, 288, 144
-0.961939, 145, 129, 208, 192
-0.962002, 233, 385, 296, 448
-0.962381, 65, 265, 128, 328
-0.962424, 33, 57, 96, 120
-0.962868, 145, 1, 208, 256
-0.96311, 49, 33, 112, 96
-0.96312, 113, 257, 176, 320
-0.963259, 97, 193, 160, 448
-0.963559, 89, 297, 152, 360
-0.963698, 33, 265, 96, 328
-0.963773, 129, 9, 192, 72
-0.964184, 81, 201, 208, 264
-0.964227, 241, 233, 304, 296
-0.96436, 81, 177, 112, 304
-0.964373, 113, 297, 176, 360
-0.964829, 73, 33, 136, 288
-0.964923, 185, 385, 248, 448
-0.965257, 97, 257, 224, 320
-0.965298, 177, 169, 304, 232
-0.965376, 153, 225, 216, 480
-0.965398, 233, 225, 296, 352
-0.965486, 177, 225, 304, 288
-0.965532, 161, 281, 224, 344
-0.965753, 69, 81, 100, 144
-0.965761, 201, 249, 264, 312
-0.965825, 81, 65, 208, 128
-0.96594, 233, 129, 296, 384
-0.965955, 65, 129, 96, 256
-0.966014, 193, 177, 224, 304
-0.966177, 89, 17, 120, 144
-0.966218, 129, 233, 192, 296
-0.966513, 17, 233, 144, 296
-0.966777, 25, 105, 88, 168
-0.966833, 153, 33, 216, 96
-0.966922, 181, 177, 212, 304
-0.967002, 57, 169, 120, 232
-0.967062, 181, 241, 212, 368
-0.967119, 17, 353, 144, 480
-0.967211, 41, 193, 104, 256
-0.967623, 105, 209, 136, 336
-0.967635, 193, 321, 256, 448
-0.967736, 257, 209, 320, 272
-0.967736, 93, 49, 124, 112
-0.967772, 81, 233, 144, 296
-0.967797, 97, 49, 160, 112
-0.967928, 273, 401, 336, 464
-0.967966, 81, 137, 144, 200
-0.967983, 49, 145, 112, 208
-0.968026, 5, 153, 36, 216
-0.968087, 237, 1, 268, 128
-0.968106, 161, 225, 192, 352
-0.96812, 129, 129, 256, 192
-0.968462, 193, 153, 256, 216
-0.968604, 161, 1, 224, 64
-0.968614, 265, 241, 328, 368
-0.968657, 201, 65, 264, 128
-0.968803, 217, 161, 248, 288
-0.968887, 81, 65, 112, 128
-0.969007, 197, 225, 228, 288
-0.969045, 81, 185, 112, 248
-0.969128, 129, 193, 256, 256
-0.969142, 241, 321, 368, 448
-0.96926, 137, 177, 168, 304
-0.969424, 1, 153, 64, 216
-0.969684, 49, 121, 112, 184
-0.969691, 93, 193, 124, 320
-0.969693, 169, 161, 232, 224
-0.969725, 121, 289, 184, 416
-0.969729, 85, 25, 116, 88
-0.969741, 1, 73, 128, 136
-0.96976, 1, 113, 128, 176
-0.969769, 233, 225, 264, 288
-0.969773, 137, 113, 168, 240
-0.969846, 81, 169, 208, 232
-0.969872, 81, 89, 208, 152
-0.969911, 17, 241, 80, 368
-0.969995, 69, 177, 100, 304
-0.969996, 281, 377, 344, 440
-0.970153, 97, 225, 224, 288
-0.970225, 193, 17, 256, 80
-0.97066, 1, 121, 64, 184
-0.970802, 129, 105, 256, 168
-0.970892, 153, 129, 216, 384
-0.970931, 73, 305, 136, 432
-0.971037, 65, 41, 192, 104
-0.971095, 65, 105, 96, 168
-0.9711, 81, 121, 208, 184
-0.971128, 233, 145, 264, 272
-0.971142, 81, 65, 112, 192
-0.971161, 193, 353, 256, 416
-0.971255, 177, 249, 304, 312
-0.971257, 57, 9, 120, 72
-0.971269, 17, 193, 144, 256
-0.971296, 33, 225, 96, 480
-0.971346, 193, 41, 256, 104
-0.971395, 193, 345, 320, 408
-0.971425, 117, 209, 148, 336
-0.971464, 97, 65, 160, 320
-0.971482, 17, 257, 144, 320
-0.971494, 225, 81, 352, 208
-0.971618, 201, 225, 264, 480
-0.971653, 93, 241, 124, 368
-0.971767, 265, 329, 328, 392
-0.971894, 201, 225, 232, 352
-0.971916, 157, 193, 188, 256
-0.971944, 265, 241, 328, 304
-0.971962, 249, 65, 312, 192
-0.971989, 181, 49, 212, 176
-0.972051, 209, 225, 240, 288
-0.97207, 93, 257, 124, 320
-0.972223, 81, 265, 112, 328
-0.972268, 129, 113, 160, 176
-0.972297, 1, 97, 32, 224
-0.972307, 121, 97, 184, 160
-0.972309, 149, 145, 180, 272
-0.97239, 109, 257, 140, 320
-0.972412, 1, 129, 32, 192
-0.972438, 125, 113, 156, 240
-0.972499, 161, 65, 288, 128
-0.972631, 301, 353, 332, 480
-0.972659, 53, 209, 84, 336
-0.972767, 105, 257, 136, 384
-0.97279, 69, 217, 100, 280
-0.972827, 297, 201, 360, 264
-0.972834, 177, 385, 304, 448
-0.972877, 165, 113, 196, 240
-0.972976, 125, 161, 156, 288
-0.97298, 177, 249, 240, 312
-0.973004, 121, 1, 184, 256
-0.973005, 153, 25, 184, 88
-0.973056, 69, 193, 100, 256
-0.973086, 173, 209, 204, 272
-0.973098, 89, 321, 152, 384
-0.973113, 65, 17, 192, 80
-0.973187, 209, 129, 272, 384
-0.973205, 233, 9, 296, 72
-0.973256, 225, 145, 352, 272
-0.973313, 221, 217, 252, 280
-0.9734, 109, 217, 140, 280
-0.973462, 177, 105, 208, 168
-0.973463, 161, 177, 192, 304
-0.973471, 201, 1, 232, 128
-0.973605, 81, 89, 112, 152
-0.973661, 77, 121, 108, 184
-0.973683, 177, 41, 208, 104
-0.973709, 257, 377, 320, 440
-0.973743, 149, 193, 180, 320
-0.973763, 81, 145, 208, 208
-0.973766, 77, 129, 108, 256
-0.973795, 21, 177, 52, 304
-0.973874, 145, 1, 176, 128
-0.973877, 265, 193, 328, 448
-0.973923, 153, 49, 184, 176
-0.974005, 181, 249, 212, 312
-0.974011, 241, 241, 368, 368
-0.97417, 249, 161, 312, 224
-0.974258, 133, 177, 164, 240
-0.974267, 65, 81, 96, 208
-0.974301, 133, 1, 164, 128
-0.974358, 225, 361, 288, 424
-0.974404, 73, 225, 104, 352
-0.974437, 113, 1, 176, 500
-0.974447, 161, 65, 192, 128
-0.974453, 217, 1, 280, 256
-0.974493, 73, 1, 136, 500
-0.974527, 81, 153, 112, 216
-0.974581, 129, 153, 256, 216
-0.974666, 17, 289, 144, 352
-0.974708, 245, 57, 276, 120
-0.974777, 41, 193, 72, 320
-0.97488, 41, 81, 104, 144
-0.974925, 217, 369, 280, 496
-0.974957, 201, 65, 232, 192
-0.974968, 45, 217, 76, 280
-0.97499, 9, 145, 40, 272
-0.975038, 65, 281, 192, 344
-0.975054, 209, 129, 272, 192
-0.975137, 141, 241, 172, 368
-0.975192, 213, 97, 244, 224
-0.975221, 97, 305, 224, 368
-0.975263, 137, 305, 168, 368
-0.975266, 189, 185, 220, 248
-0.975272, 125, 257, 156, 384
-0.975302, 189, 81, 220, 144
-0.975331, 113, 81, 144, 144
-0.97535, 209, 65, 240, 128
-0.975361, 161, 1, 192, 128
-0.975411, 237, 81, 268, 208
-0.975417, 93, 185, 124, 248
-0.975687, 113, 1, 240, 64
-0.975691, 221, 209, 252, 336
-0.975753, 305, 177, 368, 304
-0.97579, 233, 225, 296, 480
-0.975851, 65, 313, 128, 376
-0.975854, 33, 97, 96, 352
-0.975941, 289, 369, 320, 496
-0.975949, 201, 249, 232, 312
-0.975997, 289, 225, 352, 288
-0.976098, 69, 265, 100, 328
-0.976218, 229, 153, 260, 216
-0.97622, 189, 1, 220, 128
-0.976395, 121, 153, 184, 216
-0.976424, 241, 257, 304, 320
-0.976484, 209, 393, 272, 456
-0.976488, 97, 113, 160, 176
-0.976489, 1, 97, 32, 160
-0.976535, 141, 1, 172, 64
-0.976547, 69, 145, 100, 208
-0.976593, 225, 209, 352, 272
-0.976595, 121, 257, 152, 320
-0.976617, 49, 1, 112, 256
-0.97666, 201, 129, 232, 256
-0.976825, 157, 233, 188, 296
-0.976833, 285, 241, 316, 304
-0.976843, 129, 65, 160, 192
-0.976862, 93, 297, 124, 360
-0.976907, 41, 345, 104, 408
-0.976963, 89, 225, 120, 288
-0.97697, 17, 177, 80, 240
-0.97697, 1, 169, 128, 232
-0.976991, 165, 65, 196, 192
-0.977151, 165, 121, 196, 184
-0.977207, 209, 1, 272, 500
-0.977348, 113, 337, 176, 464
-0.977386, 77, 17, 108, 144
-0.977454, 277, 177, 308, 304
-0.977467, 137, 1, 200, 500
-0.977481, 217, 321, 280, 448
-0.97749, 137, 281, 200, 344
-0.977536, 1, 57, 64, 120
-0.977583, 177, 273, 304, 336
-0.977607, 145, 161, 176, 224
-0.977615, 277, 321, 308, 448
-0.977619, 217, 33, 280, 96
-0.977748, 113, 145, 144, 272
-0.977831, 177, 145, 304, 208
-0.97785, 141, 49, 172, 112
-0.977868, 289, 321, 352, 448
-0.977938, 245, 145, 276, 272
-0.977973, 113, 281, 240, 344
-0.97805, 9, 249, 72, 312
-0.97805, 193, 329, 256, 392
-0.978087, 141, 65, 172, 192
-0.978117, 177, 161, 240, 416
-0.978128, 177, 1, 208, 128
-0.978161, 289, 169, 352, 232
-0.978179, 249, 185, 312, 248
-0.978279, 193, 321, 320, 384
-0.978302, 57, 249, 88, 312
-0.978306, 253, 1, 284, 128
-0.978321, 185, 129, 216, 192
-0.978363, 113, 321, 176, 384
-0.978396, 221, 49, 252, 112
-0.978418, 1, 145, 128, 208
-0.978434, 113, 65, 144, 192
-0.978439, 65, 289, 128, 352
-0.978441, 57, 201, 88, 264
-0.978479, 209, 177, 272, 240
-0.978601, 1, 305, 64, 432
-0.978633, 121, 297, 152, 360
-0.978712, 105, 289, 136, 352
-0.978769, 25, 145, 88, 208
-0.978783, 133, 201, 164, 264
-0.978794, 253, 385, 284, 448
-0.978876, 25, 1, 88, 256
-0.978912, 245, 233, 276, 296
-0.979017, 53, 65, 84, 128
-0.979083, 221, 17, 252, 144
-0.979092, 13, 81, 44, 144
-0.979115, 205, 177, 236, 304
-0.979124, 109, 17, 140, 80
-0.979143, 189, 113, 220, 240
-0.979195, 97, 9, 128, 72
-0.97921, 65, 345, 128, 408
-0.979212, 241, 1, 368, 128
-0.979231, 181, 281, 212, 344
-0.979425, 301, 377, 332, 440
-0.97944, 105, 233, 168, 296
-0.979462, 197, 57, 228, 120
-0.979496, 33, 9, 96, 72
-0.979583, 209, 201, 272, 264
-0.979591, 189, 369, 220, 496
-0.979663, 1, 49, 128, 112
-0.979664, 161, 353, 224, 416
-0.979714, 93, 89, 124, 152
-0.9798, 257, 49, 320, 112
-0.979805, 193, 273, 256, 400
-0.979861, 297, 425, 360, 488
-0.979875, 285, 401, 316, 464
-0.979892, 145, 193, 176, 256
-0.979969, 177, 257, 240, 500
-0.979997, 201, 153, 232, 216
-0.98, 177, 89, 304, 152
-0.980087, 177, 121, 304, 184
-0.98015, 233, 25, 264, 88
-0.980171, 193, 281, 256, 344
-0.980176, 69, 57, 100, 120
-0.98019, 301, 433, 332, 496
-0.980219, 65, 33, 96, 160
-0.980232, 233, 1, 296, 500
-0.980234, 201, 193, 232, 256
-0.980258, 253, 65, 284, 192
-0.980279, 233, 209, 264, 336
-0.98029, 117, 17, 148, 144
-0.9803, 57, 257, 120, 500
-0.980313, 225, 369, 352, 432
-0.980381, 257, 433, 320, 496
-0.980458, 289, 321, 320, 448
-0.980475, 281, 241, 312, 368
-0.980478, 169, 1, 232, 500
-0.980524, 265, 161, 296, 288
-0.980578, 37, 257, 68, 384
-0.980786, 9, 257, 72, 500
-0.980855, 177, 297, 304, 360
-0.980902, 101, 1, 132, 128
-0.980952, 177, 81, 208, 144
-0.980961, 233, 73, 264, 136
-0.981002, 33, 225, 64, 288
-0.98107, 89, 129, 120, 256
-0.981079, 133, 257, 164, 320
-0.981079, 17, 1, 80, 500
-0.98109, 265, 1, 328, 128
-0.981137, 97, 329, 224, 392
-0.981171, 233, 129, 296, 192
-0.981259, 149, 81, 180, 144
-0.981261, 233, 49, 264, 112
-0.981281, 273, 177, 304, 240
-0.981371, 109, 177, 140, 240
-0.981435, 129, 1, 160, 64
-0.981435, 1, 65, 64, 320
-0.981439, 257, 353, 288, 480
-0.981451, 177, 409, 240, 472
-0.981458, 301, 409, 332, 472
-0.981555, 45, 49, 76, 176
-0.981572, 1, 329, 64, 392
-0.981582, 13, 121, 44, 184
-0.981659, 257, 233, 288, 296
-0.981681, 289, 193, 320, 320
-0.981698, 125, 81, 156, 144
-0.981718, 85, 1, 116, 64
-0.981719, 185, 161, 216, 224
-0.981731, 121, 257, 184, 500
-0.981748, 81, 273, 112, 400
-0.981828, 165, 41, 196, 104
-0.981913, 145, 33, 272, 96
-0.98202, 93, 65, 124, 192
-0.98203, 153, 305, 184, 368
-0.982035, 41, 289, 104, 352
-0.982061, 197, 385, 228, 448
-0.982071, 9, 225, 72, 288
-0.982112, 17, 353, 144, 416
-0.982119, 293, 337, 324, 400
-0.982189, 173, 1, 204, 64
-0.982212, 289, 241, 352, 368
-0.982301, 145, 217, 176, 280
-0.982447, 217, 153, 248, 216
-0.982452, 1, 17, 64, 144
-0.982525, 165, 89, 196, 152
-0.982529, 193, 105, 224, 168
-0.982587, 1, 313, 128, 376
-0.982593, 249, 1, 280, 64
-0.982624, 213, 185, 244, 248
-0.982656, 141, 129, 172, 192
-0.982693, 225, 97, 256, 224
-0.982842, 145, 257, 176, 320
-0.982867, 161, 353, 224, 480
-0.9829, 213, 129, 244, 192
-0.982908, 97, 361, 224, 424
-0.982913, 181, 289, 212, 416
-0.982921, 221, 81, 252, 144
-0.982978, 17, 1, 144, 64
-0.983122, 193, 1, 224, 64
-0.983161, 173, 145, 204, 208
-0.983369, 53, 105, 84, 168
-0.983374, 289, 193, 352, 448
-0.983446, 65, 353, 128, 480
-0.983499, 225, 233, 352, 296
-0.983521, 241, 305, 304, 432
-0.983541, 177, 113, 208, 240
-0.983574, 81, 297, 112, 360
-0.983579, 241, 33, 304, 288
-0.983637, 25, 337, 88, 464
-0.983689, 129, 41, 160, 104
-0.983712, 21, 113, 52, 240
-0.98373, 1, 201, 64, 264
-0.983734, 85, 321, 116, 384
-0.983739, 209, 89, 240, 152
-0.983754, 17, 353, 80, 416
-0.983809, 69, 169, 100, 232
-0.983844, 125, 321, 156, 384
-0.983944, 93, 305, 124, 432
-0.983975, 225, 393, 352, 456
-0.984038, 305, 361, 368, 424
-0.98404, 37, 265, 68, 328
-0.984046, 105, 57, 136, 120
-0.984081, 101, 145, 132, 272
-0.984101, 97, 345, 160, 408
-0.984127, 277, 329, 308, 392
-0.984161, 137, 281, 168, 344
-0.98423, 121, 169, 152, 232
-0.984237, 153, 97, 184, 224
-0.98424, 161, 377, 224, 440
-0.984259, 169, 233, 200, 296
-0.984266, 153, 105, 184, 168
-0.984277, 201, 337, 232, 464
-0.984308, 49, 329, 176, 392
-0.984382, 249, 81, 312, 144
-0.984386, 125, 137, 156, 200
-0.98441, 177, 185, 208, 248
-0.984464, 41, 1, 104, 500
-0.984493, 289, 129, 352, 256
-0.984603, 1, 161, 64, 416
-0.98466, 177, 193, 304, 256
-0.984676, 289, 337, 352, 400
-0.984808, 57, 225, 88, 288
-0.984823, 37, 145, 68, 272
-0.984853, 153, 1, 184, 64
-0.984854, 181, 305, 212, 368
-0.984866, 1, 25, 128, 88
-0.984868, 53, 129, 84, 256
-0.985009, 153, 329, 216, 392
-0.985133, 273, 305, 336, 368
-0.985194, 93, 113, 124, 176
-0.985209, 57, 129, 88, 192
-0.98521, 113, 305, 144, 432
-0.985282, 221, 241, 252, 304
-0.985454, 273, 281, 336, 344
-0.985605, 1, 33, 64, 96
-0.985818, 145, 361, 272, 424
-0.985834, 225, 161, 352, 224
-0.986012, 257, 113, 320, 240
-0.986399, 257, 1, 320, 500
-0.986559, 97, 385, 224, 448
-0.986766, 161, 1, 288, 64
-0.986848, 33, 249, 288, 312
-0.986976, 69, 289, 100, 416
-0.987038, 49, 273, 80, 400
-0.98704, 141, 289, 172, 416
-0.98717, 33, 225, 288, 288
-0.987251, 97, 409, 224, 472
-0.987356, 209, 65, 336, 128
-0.987566, 209, 233, 272, 264
-0.987586, 49, 1, 80, 128
-0.987732, 157, 273, 188, 400
-0.9878, 21, 65, 52, 192
-0.987884, 97, 177, 352, 240
-0.988029, 273, 97, 336, 352
-0.98813, 1, 201, 375, 264
-0.988176, 301, 177, 332, 304
-0.98829, 129, 225, 375, 288
-0.988324, 65, 201, 128, 232
-0.988405, 73, 273, 136, 304
-0.988412, 225, 185, 352, 248
-0.988467, 177, 369, 208, 496
-0.988514, 25, 225, 56, 352
-0.988611, 193, 41, 320, 104
-0.988614, 89, 13, 152, 44
-0.988646, 33, 281, 288, 344
-0.988677, 225, 165, 288, 196
-0.988855, 241, 249, 304, 280
-0.988875, 33, 113, 288, 176
-0.988885, 57, 237, 120, 268
-0.988893, 185, 245, 248, 276
-0.98893, 89, 25, 152, 56
-0.988931, 129, 209, 192, 240
-0.98895, 1, 201, 256, 264
-0.98896, 177, 193, 240, 224
-0.988993, 265, 1, 296, 128
-0.988993, 225, 129, 352, 192
-0.989014, 65, 189, 128, 220
-0.989021, 105, 265, 168, 296
-0.989029, 241, 345, 368, 408
-0.989143, 33, 89, 288, 152
-0.989174, 33, 65, 288, 128
-0.989191, 301, 305, 332, 432
-0.989209, 73, 61, 136, 92
-0.989284, 129, 197, 192, 228
-0.989299, 49, 221, 112, 252
-0.989346, 105, 205, 168, 236
-0.989363, 145, 125, 208, 156
-0.98937, 161, 73, 224, 104
-0.989418, 161, 61, 224, 92
-0.98943, 89, 217, 152, 248
-0.989541, 137, 149, 200, 180
-0.989549, 153, 261, 216, 292
-0.989553, 17, 97, 80, 128
-0.989632, 261, 241, 292, 368
-0.989643, 65, 105, 128, 136
-0.989646, 17, 109, 80, 140
-0.989647, 81, 261, 144, 292
-0.989701, 105, 45, 168, 76
-0.989725, 265, 373, 328, 404
-0.989757, 225, 73, 288, 104
-0.989767, 145, 321, 272, 384
-0.989778, 121, 137, 184, 168
-0.989778, 9, 49, 40, 176
-0.989795, 233, 393, 296, 424
-0.989798, 169, 113, 232, 144
-0.989799, 33, 85, 96, 116
-0.989806, 169, 133, 232, 164
-0.989806, 161, 229, 224, 260
-0.98981, 73, 73, 136, 104
-0.989853, 49, 265, 112, 296
-0.989863, 193, 129, 256, 160
-0.989863, 121, 121, 184, 152
-0.989869, 25, 225, 88, 256
-0.989879, 217, 61, 280, 92
-0.989937, 65, 33, 128, 64
-0.989947, 33, 209, 96, 240
-0.989965, 265, 385, 328, 416
-0.989983, 153, 313, 216, 344
-0.989991, 113, 313, 176, 344
-0.990011, 65, 249, 128, 280
-0.990011, 81, 137, 144, 168
-0.990023, 153, 161, 216, 192
-0.990028, 65, 153, 320, 216
-0.990029, 25, 73, 88, 104
-0.990036, 169, 5, 232, 36
-0.990049, 129, 9, 192, 40
-0.990054, 73, 117, 136, 148
-0.990063, 25, 253, 88, 284
-0.990069, 73, 93, 136, 124
-0.990076, 89, 305, 152, 336
-0.990107, 65, 313, 320, 376
-0.990127, 1, 77, 64, 108
-0.990163, 265, 361, 328, 392
-0.990166, 97, 193, 160, 224
-0.990168, 193, 49, 256, 80
-0.990173, 49, 53, 112, 84
-0.990176, 145, 113, 208, 144
-0.990191, 185, 225, 248, 256
-0.990198, 65, 21, 128, 52
-0.990211, 89, 157, 152, 188
-0.99025, 65, 149, 128, 180
-0.990259, 193, 157, 256, 188
-0.990278, 137, 33, 200, 64
-0.990288, 137, 353, 200, 480
-0.990327, 225, 1, 352, 64
-0.990346, 313, 369, 375, 496
-0.990386, 105, 253, 168, 284
-0.990404, 241, 237, 304, 268
-0.990414, 153, 205, 216, 236
-0.990419, 41, 281, 104, 312
-0.990428, 1, 369, 64, 496
-0.990454, 209, 245, 272, 276
-0.990457, 97, 433, 224, 496
-0.990483, 121, 61, 184, 92
-0.990488, 105, 181, 168, 212
-0.990496, 177, 89, 240, 120
-0.990508, 265, 253, 328, 284
-0.990525, 245, 225, 276, 352
-0.990526, 185, 77, 248, 108
-0.990529, 113, 149, 176, 180
-0.99054, 1, 265, 375, 328
-0.990559, 161, 45, 224, 76
-0.990567, 49, 69, 112, 100
-0.990568, 65, 353, 128, 384
-0.990572, 185, 393, 248, 424
-0.99058, 129, 261, 192, 292
-0.990584, 97, 293, 160, 324
-0.990589, 185, 181, 248, 212
-0.990594, 153, 241, 216, 272
-0.990596, 177, 145, 240, 176
-0.990611, 73, 49, 136, 80
-0.990625, 49, 129, 112, 160
-0.990635, 209, 13, 272, 44
-0.990636, 185, 169, 248, 200
-0.990636, 129, 81, 192, 112
-0.990646, 1, 261, 64, 292
-0.990654, 1, 161, 64, 192
-0.990658, 1, 225, 375, 288
-0.990675, 97, 169, 160, 200
-0.99069, 49, 117, 112, 148
-0.990695, 33, 185, 96, 216
-0.990706, 193, 257, 256, 288
-0.990736, 217, 85, 280, 116
-0.990741, 153, 325, 216, 356
-0.99077, 137, 301, 200, 332
-0.990772, 65, 161, 128, 192
-0.990776, 193, 361, 256, 392
-0.99079, 105, 325, 168, 356
-0.9908, 233, 17, 296, 48
-0.990815, 129, 249, 375, 312
-0.990836, 121, 221, 184, 252
-0.990836, 145, 137, 208, 168
-0.990843, 153, 273, 216, 304
-0.990856, 265, 409, 328, 440
-0.990893, 153, 89, 216, 120
-0.990913, 281, 397, 344, 428
-0.990948, 137, 49, 200, 80
-0.99102, 17, 121, 80, 152
-0.991025, 25, 265, 88, 296
-0.991069, 41, 357, 104, 388
-0.991069, 89, 105, 152, 136
-0.991077, 73, 285, 136, 316
-0.991087, 33, 41, 288, 104
-0.991091, 153, 193, 216, 224
-0.991092, 241, 321, 368, 384
-0.991096, 161, 301, 224, 332
-0.991101, 145, 173, 208, 204
-0.991105, 193, 117, 256, 148
-0.991123, 97, 341, 160, 372
-0.991131, 41, 17, 104, 48
-0.99114, 265, 349, 328, 380
-0.99115, 33, 157, 96, 188
-0.991157, 65, 337, 320, 400
-0.991158, 241, 257, 368, 320
-0.991165, 193, 25, 256, 56
-0.991186, 281, 189, 344, 220
-0.991188, 209, 181, 272, 212
-0.991258, 337, 177, 368, 304
-0.991298, 49, 305, 112, 432
-0.991355, 201, 289, 232, 416
-0.991389, 97, 201, 352, 264
-0.991491, 129, 289, 375, 352
-0.991542, 1, 377, 128, 440
-0.991616, 241, 41, 368, 104
-0.991623, 125, 305, 156, 432
-0.991679, 33, 17, 288, 80
-0.991744, 217, 369, 248, 496
-0.991822, 97, 377, 352, 440
-0.991848, 197, 237, 228, 268
-0.991866, 209, 237, 240, 268
-0.991886, 289, 145, 320, 272
-0.991897, 229, 233, 260, 264
-0.991928, 277, 369, 308, 496
-0.991936, 289, 1, 352, 500
-0.991937, 241, 237, 272, 268
-0.991993, 261, 113, 292, 240
-0.991995, 129, 81, 375, 144
-0.99204, 169, 305, 200, 432
-0.992043, 5, 153, 36, 184
-0.992078, 229, 245, 260, 276
-0.992084, 1, 65, 375, 128
-0.992103, 245, 369, 276, 496
-0.992119, 65, 109, 96, 140
-0.99214, 133, 205, 164, 236
-0.992171, 93, 57, 124, 88
-0.992227, 85, 33, 116, 64
-0.99223, 73, 137, 104, 168
-0.99224, 73, 77, 104, 108
-0.992259, 5, 165, 36, 196
-0.992263, 49, 217, 176, 248
-0.992271, 81, 189, 112, 220
-0.992272, 189, 189, 220, 220
-0.992279, 77, 149, 108, 180
-0.992286, 89, 269, 120, 300
-0.992295, 61, 217, 92, 248
-0.992296, 81, 45, 112, 76
-0.992339, 133, 121, 164, 152
-0.992364, 5, 101, 36, 132
-0.992364, 169, 49, 200, 80
-0.992371, 209, 225, 240, 256
-0.992371, 1, 113, 32, 144
-0.992372, 73, 225, 104, 256
-0.992379, 109, 265, 140, 296
-0.992392, 245, 249, 276, 280
-0.992392, 93, 13, 124, 44
-0.992399, 45, 225, 76, 256
-0.9924, 273, 253, 304, 284
-0.992419, 73, 61, 104, 92
-0.992421, 249, 73, 280, 104
-0.992448, 213, 217, 228, 280
-0.99247, 161, 69, 192, 100
-0.992481, 157, 49, 188, 80
-0.992481, 117, 77, 148, 108
-0.992483, 1, 361, 256, 424
-0.992484, 149, 197, 180, 228
-0.99249, 181, 137, 212, 168
-0.992494, 253, 389, 284, 420
-0.992504, 81, 97, 112, 128
-0.992505, 209, 77, 240, 108
-0.992506, 181, 253, 212, 284
-0.992511, 73, 269, 104, 300
-0.992526, 197, 249, 228, 280
-0.992531, 193, 389, 224, 420
-0.992538, 221, 73, 252, 104
-0.992542, 225, 173, 256, 204
-0.992547, 145, 149, 176, 180
-0.992556, 233, 369, 264, 496
-0.99256, 1, 305, 375, 368
-0.992563, 93, 257, 124, 288
-0.992568, 237, 161, 268, 192
-0.99257, 137, 137, 168, 168
-0.992571, 61, 81, 92, 112
-0.992587, 105, 21, 136, 52
-0.992587, 137, 165, 168, 196
-0.992588, 121, 265, 152, 296
-0.992591, 161, 209, 192, 240
-0.992592, 81, 281, 112, 312
-0.992593, 233, 77, 264, 108
-0.9926, 1, 129, 32, 160
-0.992609, 289, 429, 320, 460
-0.992612, 233, 49, 264, 80
-0.992615, 221, 157, 252, 188
-0.992616, 181, 49, 212, 80
-0.99262, 65, 125, 96, 156
-0.992624, 93, 45, 124, 76
-0.992628, 81, 169, 112, 200
-0.992631, 97, 261, 224, 292
-0.992635, 125, 145, 156, 176
-0.992636, 75, 105, 90, 168
-0.992636, 33, 201, 160, 232
-0.99264, 257, 253, 288, 284
-0.99264, 301, 461, 332, 492
-0.992643, 141, 313, 172, 344
-0.992644, 289, 249, 320, 280
-0.992649, 65, 97, 96, 128
-0.992654, 289, 413, 320, 444
-0.992664, 237, 13, 268, 44
-0.992668, 153, 37, 184, 68
-0.992678, 301, 441, 332, 472
-0.992681, 165, 221, 196, 252
-0.992687, 165, 133, 196, 164
-0.992688, 165, 241, 196, 272
-0.992692, 25, 273, 56, 400
-0.992693, 253, 305, 284, 432
-0.992693, 69, 201, 100, 232
-0.992695, 165, 37, 196, 68
-0.992699, 53, 65, 84, 96
-0.992701, 117, 305, 148, 336
-0.992705, 93, 301, 124, 332
-0.99271, 205, 173, 236, 204
-0.992714, 149, 61, 180, 92
-0.992715, 99, 9, 114, 72
-0.992724, 237, 61, 268, 92
-0.992725, 133, 301, 164, 332
-0.992725, 249, 61, 280, 92
-0.99273, 141, 37, 172, 68
-0.992732, 81, 297, 112, 328
-0.992735, 93, 93, 124, 124
-0.992741, 133, 9, 164, 40
-0.992747, 221, 53, 252, 84
-0.992748, 105, 277, 136, 308
-0.992751, 181, 61, 212, 92
-0.992754, 21, 77, 52, 108
-0.992756, 109, 197, 140, 228
-0.992758, 93, 69, 124, 100
-0.99276, 97, 213, 128, 244
-0.99276, 125, 325, 156, 356
-0.992763, 217, 249, 248, 280
-0.992763, 193, 129, 224, 160
-0.992765, 165, 149, 196, 180
-0.992765, 69, 165, 100, 196
-0.992766, 177, 257, 304, 288
-0.992773, 85, 185, 100, 248
-0.992774, 285, 261, 316, 292
-0.992786, 53, 257, 84, 288
-0.992787, 197, 225, 228, 256
-0.992792, 81, 109, 112, 140
-0.992802, 157, 25, 188, 56
-0.992805, 169, 1, 200, 32
-0.992805, 129, 77, 160, 108
-0.992806, 241, 297, 368, 360
-0.992811, 289, 401, 320, 432
-0.992813, 49, 213, 80, 244
-0.992814, 249, 161, 280, 192
-0.992816, 77, 125, 108, 156
-0.992819, 61, 269, 92, 300
-0.992822, 65, 149, 96, 180
-0.992833, 201, 57, 232, 88
-0.992834, 257, 241, 288, 272
-0.992839, 185, 305, 216, 336
-0.99284, 17, 261, 144, 292
-0.992843, 101, 317, 132, 348
-0.992843, 129, 337, 160, 368
-0.992845, 301, 421, 332, 452
-0.992846, 9, 321, 40, 448
-0.992854, 253, 13, 284, 44
-0.992857, 301, 401, 332, 432
-0.992867, 69, 177, 100, 208
-0.992867, 193, 69, 224, 100
-0.992868, 1, 177, 375, 240
-0.99287, 181, 241, 212, 272
-0.99287, 137, 181, 168, 212
-0.992873, 185, 89, 216, 120
-0.992883, 129, 129, 256, 160
-0.992889, 79, 193, 94, 256
-0.992975, 145, 409, 272, 472
-0.992991, 81, 125, 208, 156
-0.993004, 17, 249, 144, 280
-0.993007, 1, 117, 128, 148
-0.99303, 1, 177, 256, 240
-0.993048, 177, 177, 304, 208
-0.993081, 1, 121, 16, 184
-0.993129, 235, 225, 250, 288
-0.993174, 11, 145, 26, 208
-0.993194, 1, 337, 375, 400
-0.993195, 165, 233, 180, 296
-0.993217, 33, 17, 64, 144
-0.993218, 65, 13, 192, 44
-0.99325, 65, 25, 192, 56
-0.993268, 265, 1, 328, 256
-0.993279, 85, 81, 100, 144
-0.993279, 225, 89, 352, 152
-0.993311, 201, 225, 216, 288
-0.993312, 81, 181, 208, 212
-0.99335, 245, 233, 260, 296
-0.993376, 207, 217, 222, 280
-0.993432, 313, 193, 344, 320
-0.993442, 71, 81, 86, 144
-0.99345, 145, 229, 272, 260
-0.993527, 81, 137, 208, 168
-0.993548, 81, 149, 208, 180
-0.993586, 265, 65, 296, 192
-0.993651, 93, 25, 108, 88
-0.993651, 111, 257, 126, 320
-0.993662, 251, 225, 266, 288
-0.993668, 73, 193, 88, 256
-0.993703, 161, 161, 288, 192
-0.993748, 81, 73, 208, 104
-0.993772, 65, 37, 192, 68
-0.993835, 129, 57, 375, 120
-0.993853, 129, 117, 256, 148
-0.993865, 221, 217, 236, 280
-0.993874, 173, 65, 188, 128
-0.993875, 7, 121, 22, 184
-0.993877, 301, 385, 316, 448
-0.993929, 85, 49, 100, 112
-0.993931, 13, 241, 44, 368
-0.993932, 1, 193, 32, 320
-0.993938, 209, 433, 336, 496
-0.993939, 1, 105, 128, 136
-0.993942, 159, 217, 174, 280
-0.993973, 91, 185, 106, 248
-0.993992, 81, 201, 208, 232
-0.994, 15, 121, 30, 184
-0.994005, 145, 73, 272, 104
-0.994025, 3, 145, 18, 208
-0.994036, 77, 65, 92, 128
-0.994059, 33, 65, 64, 192
-0.994069, 83, 153, 98, 216
-0.994071, 93, 353, 124, 480
-0.994084, 161, 245, 288, 276
-0.994102, 49, 113, 176, 144
-0.994106, 97, 265, 112, 328
-0.994108, 129, 141, 256, 172
-0.994115, 193, 377, 320, 408
-0.994131, 225, 57, 240, 120
-0.99414, 97, 237, 224, 268
-0.994148, 165, 193, 180, 256
-0.994148, 257, 57, 272, 120
-0.994157, 195, 225, 210, 288
-0.994158, 297, 97, 360, 352
-0.99416, 213, 321, 244, 448
-0.994166, 91, 257, 106, 320
-0.994197, 65, 53, 192, 84
-0.994209, 177, 25, 192, 88
-0.994212, 301, 337, 316, 400
-0.994238, 1, 137, 375, 200
-0.994248, 65, 281, 192, 312
-0.994254, 95, 65, 110, 128
-0.994263, 129, 197, 256, 228
-0.994278, 103, 241, 118, 304
-0.994283, 123, 257, 138, 320
-0.994321, 143, 297, 158, 360
-0.994325, 103, 185, 118, 248
-0.994327, 143, 169, 158, 232
-0.994399, 241, 321, 272, 448
-0.994407, 97, 249, 224, 280
-0.994409, 17, 233, 144, 264
-0.994422, 81, 97, 208, 128
-0.994424, 1, 145, 128, 176
-0.994429, 17, 153, 32, 216
-0.99443, 1, 385, 375, 448
-0.994434, 1, 157, 128, 188
-0.994439, 193, 169, 208, 232
-0.994479, 177, 365, 304, 396
-0.99449, 97, 185, 112, 248
-0.994491, 105, 49, 120, 112
-0.994491, 145, 61, 272, 92
-0.994511, 69, 257, 84, 320
-0.994516, 161, 397, 288, 428
-0.994516, 213, 193, 228, 256
-0.994574, 193, 189, 320, 220
-0.994584, 19, 81, 34, 144
-0.994588, 205, 185, 220, 248
-0.994592, 87, 25, 102, 88
-0.994601, 81, 169, 208, 200
-0.994612, 149, 169, 164, 232
-0.994619, 117, 257, 132, 320
-0.994628, 95, 217, 110, 280
-0.994628, 137, 177, 152, 240
-0.994633, 303, 409, 318, 472
-0.994635, 137, 313, 152, 376
-0.994655, 297, 217, 312, 280
-0.994661, 81, 1, 112, 256
-0.994672, 113, 297, 240, 328
-0.994672, 187, 81, 202, 144
-0.994673, 175, 225, 190, 288
-0.994677, 33, 401, 160, 464
-0.994684, 75, 161, 90, 224
-0.99469, 81, 321, 112, 448
-0.994697, 97, 321, 224, 352
-0.994698, 69, 105, 84, 168
-0.994701, 227, 225, 242, 288
-0.994707, 203, 249, 218, 312
-0.994712, 159, 193, 174, 256
-0.994723, 1, 189, 128, 220
-0.994723, 121, 217, 136, 280
-0.994727, 73, 217, 88, 280
-0.994737, 83, 265, 98, 328
-0.994748, 109, 297, 124, 360
-0.994753, 167, 41, 182, 104
-0.994755, 135, 1, 150, 64
-0.994756, 313, 369, 344, 496
-0.994757, 193, 81, 208, 144
-0.994769, 229, 145, 244, 208
-0.994773, 85, 121, 100, 184
-0.994773, 129, 1, 375, 64
-0.994779, 3, 169, 18, 232
-0.994782, 17, 301, 144, 332
-0.994809, 1, 85, 128, 116
-0.994815, 225, 237, 352, 268
-0.994819, 1, 213, 128, 244
-0.994827, 225, 393, 352, 424
-0.994839, 215, 65, 230, 128
-0.994844, 131, 73, 146, 136
-0.99485, 195, 369, 210, 432
-0.994856, 277, 129, 308, 256
-0.994858, 121, 161, 152, 416
-0.994863, 113, 217, 128, 280
-0.994869, 91, 281, 106, 344
-0.994882, 173, 89, 188, 152
-0.994892, 191, 249, 206, 312
-0.994899, 145, 21, 272, 52
-0.99492, 67, 209, 82, 272
-0.994927, 101, 289, 116, 352
-0.994934, 33, 69, 160, 100
-0.994962, 205, 73, 220, 136
-0.994969, 149, 297, 164, 360
-0.994982, 111, 57, 126, 120
-0.994987, 177, 325, 304, 356
-0.994998, 287, 241, 302, 304
-0.995008, 65, 301, 192, 332
-0.995016, 193, 353, 320, 384
-0.995017, 1, 89, 375, 152
-0.995022, 177, 337, 304, 368
-0.995039, 211, 241, 226, 304
-0.99504, 97, 401, 352, 464
-0.995041, 113, 9, 240, 40
-0.995044, 237, 153, 252, 216
-0.995045, 199, 65, 214, 128
-0.995063, 185, 105, 200, 168
-0.995066, 259, 233, 274, 296
-0.995066, 183, 153, 198, 216
-0.99508, 57, 217, 72, 280
-0.995107, 93, 89, 108, 152
-0.995113, 91, 153, 106, 216
-0.995129, 1, 129, 128, 160
-0.995137, 131, 297, 146, 360
-0.995154, 69, 129, 84, 192
-0.995157, 135, 257, 150, 320
-0.995175, 293, 401, 308, 464
-0.995179, 75, 265, 90, 328
-0.995189, 153, 193, 168, 256
-0.995197, 179, 57, 194, 120
-0.995198, 165, 65, 180, 128
-0.995216, 183, 201, 198, 264
-0.995217, 199, 145, 214, 208
-0.995238, 223, 89, 238, 152
-0.995252, 113, 333, 240, 364
-0.995254, 171, 17, 186, 80
-0.995262, 157, 25, 172, 88
-0.995268, 191, 105, 206, 168
-0.995269, 191, 137, 206, 200
-0.995276, 161, 1, 176, 64
-0.99528, 139, 113, 154, 176
-0.99528, 17, 289, 144, 320
-0.995282, 13, 89, 28, 152
-0.995282, 63, 241, 78, 304
-0.995285, 25, 73, 40, 136
-0.995291, 189, 41, 204, 104
-0.995294, 179, 89, 194, 152
-0.995303, 69, 129, 100, 384
-0.995341, 141, 1, 156, 64
-0.995343, 129, 113, 144, 176
-0.995354, 5, 97, 20, 160
-0.995359, 1, 169, 128, 200
-0.995364, 107, 209, 122, 272
-0.995379, 113, 309, 240, 340
-0.995403, 239, 49, 254, 112
-0.995407, 137, 289, 152, 352
-0.995414, 41, 225, 56, 288
-0.995416, 79, 217, 94, 280
-0.995422, 161, 161, 192, 416
-0.995422, 147, 193, 162, 256
-0.995423, 177, 269, 304, 300
-0.995433, 113, 273, 240, 304
-0.995433, 113, 85, 240, 116
-0.995439, 129, 113, 375, 176
-0.995449, 145, 257, 160, 320
-0.995475, 97, 225, 224, 256
-0.995541, 209, 165, 336, 196
-0.995545, 141, 161, 172, 416
-0.995586, 161, 1, 192, 256
-0.99562, 177, 313, 304, 344
-0.995624, 97, 213, 224, 244
-0.995661, 93, 161, 124, 416
-0.995705, 177, 297, 304, 328
-0.995706, 129, 173, 256, 204
-0.995706, 17, 277, 144, 308
-0.995716, 277, 161, 308, 416
-0.995718, 113, 33, 240, 64
-0.995721, 229, 129, 260, 384
-0.995722, 177, 133, 304, 164
-0.995773, 33, 433, 160, 496
-0.995809, 225, 249, 352, 280
-0.99582, 1, 361, 375, 424
-0.995825, 189, 1, 220, 256
-0.995839, 105, 193, 136, 448
-0.995846, 93, 1, 124, 256
-0.995858, 177, 285, 304, 316
-0.995862, 173, 97, 204, 352
-0.995926, 17, 29, 144, 60
-0.995938, 133, 1, 164, 256
-0.995946, 241, 381, 368, 412
-0.995949, 97, 345, 224, 376
-0.995978, 209, 65, 240, 320
-0.996028, 173, 1, 204, 256
-0.99603, 49, 353, 176, 384
-0.996034, 113, 285, 240, 316
-0.996047, 17, 17, 144, 48
-0.996057, 241, 97, 272, 352
-0.996065, 193, 217, 320, 248
-0.996129, 129, 185, 256, 216
-0.99615, 17, 57, 144, 88
-0.996197, 49, 225, 80, 480
-0.996211, 237, 1, 268, 256
-0.996246, 145, 49, 272, 80
-0.996272, 81, 161, 112, 416
-0.996278, 249, 241, 264, 272
-0.996339, 177, 149, 304, 180
-0.99634, 149, 1, 180, 256
-0.996353, 225, 237, 240, 268
-0.99636, 181, 225, 212, 480
-0.996384, 161, 105, 288, 136
-0.996398, 257, 129, 288, 384
-0.99648, 193, 77, 320, 108
-0.996489, 49, 313, 176, 344
-0.996489, 225, 469, 352, 500
-0.996491, 289, 1, 352, 128
-0.996538, 211, 241, 226, 272
-0.996547, 281, 257, 312, 500
-0.996569, 233, 241, 248, 272
-0.996579, 1, 41, 128, 72
-0.996586, 231, 229, 246, 260
-0.996593, 253, 1, 284, 256
-0.996611, 239, 237, 254, 268
-0.996645, 17, 333, 144, 364
-0.996653, 113, 261, 128, 292
-0.996659, 161, 93, 288, 124
-0.99668, 177, 121, 304, 152
-0.996684, 37, 225, 68, 480
-0.996695, 57, 97, 88, 352
-0.996709, 9, 149, 24, 180
-0.996719, 105, 65, 136, 320
-0.996723, 113, 393, 240, 424
-0.996728, 97, 377, 224, 408
-0.996733, 215, 229, 230, 260
-0.996771, 193, 129, 224, 384
-0.996793, 67, 213, 82, 244
-0.996802, 1, 33, 375, 96
-0.996812, 225, 365, 352, 396
-0.996818, 1, 373, 128, 404
-0.996849, 69, 33, 100, 288
-0.996856, 197, 237, 212, 268
-0.996861, 97, 365, 224, 396
-0.996887, 89, 369, 152, 496
-0.996896, 1, 357, 128, 388
-0.996918, 167, 61, 182, 92
-0.996923, 1, 1, 375, 64
-0.996928, 65, 225, 96, 480
-0.996959, 99, 13, 114, 44
-0.996984, 221, 225, 236, 256
-0.997011, 145, 381, 272, 412
-0.997013, 139, 313, 154, 344
-0.997026, 1, 33, 32, 288
-0.997054, 205, 233, 220, 264
-0.997055, 241, 225, 368, 256
-0.997057, 209, 41, 336, 72
-0.997059, 121, 257, 152, 500
-0.997087, 225, 177, 352, 208
-0.997097, 255, 241, 270, 272
-0.997098, 171, 49, 186, 80
-0.997099, 209, 405, 336, 436
-0.997099, 3, 153, 18, 184
-0.997118, 161, 5, 288, 36
-0.997137, 65, 333, 192, 364
-0.997139, 91, 265, 106, 296
-0.997146, 1, 321, 128, 352
-0.997149, 73, 221, 88, 252
-0.997179, 97, 417, 224, 448
-0.997194, 15, 161, 30, 192
-0.997198, 209, 61, 336, 92
-0.997198, 75, 117, 90, 148
-0.997221, 77, 137, 92, 168
-0.997223, 313, 193, 375, 448
-0.997225, 1, 113, 375, 176
-0.997233, 193, 185, 208, 216
-0.997238, 123, 265, 138, 296
-0.997252, 139, 301, 154, 332
-0.997256, 221, 33, 252, 288
-0.99726, 85, 137, 100, 168
-0.997269, 49, 85, 176, 116
-0.997272, 301, 401, 316, 432
-0.997306, 139, 325, 154, 356
-0.997317, 83, 149, 98, 180
-0.997318, 165, 77, 180, 108
-0.997319, 245, 229, 260, 260
-0.997322, 103, 273, 118, 304
-0.997324, 137, 205, 152, 236
-0.997337, 133, 309, 148, 340
-0.997341, 131, 77, 146, 108
-0.997349, 161, 33, 288, 64
-0.99735, 73, 205, 88, 236
-0.997353, 231, 157, 246, 188
-0.997359, 201, 225, 232, 480
-0.997359, 201, 253, 216, 284
-0.99736, 165, 49, 180, 80
-0.99737, 107, 57, 122, 88
-0.997373, 77, 69, 92, 100
-0.997382, 65, 1, 192, 32
-0.997382, 197, 173, 212, 204
-0.997384, 17, 149, 32, 180
-0.997387, 101, 37, 116, 68
-0.997388, 241, 353, 368, 384
-0.997403, 167, 213, 182, 244
-0.997409, 75, 93, 90, 124
-0.997411, 1, 113, 16, 144
-0.997414, 85, 61, 100, 92
-0.99744, 191, 41, 206, 72
-0.997444, 307, 465, 322, 496
-0.997447, 145, 313, 160, 344
-0.997462, 85, 85, 100, 116
-0.997463, 145, 301, 160, 332
-0.997472, 97, 269, 112, 300
-0.997479, 143, 193, 158, 224
-0.997483, 83, 277, 98, 308
-0.997487, 159, 149, 174, 180
-0.997488, 129, 145, 144, 176
-0.9975, 253, 61, 268, 92
-0.9975, 237, 161, 252, 192
-0.997502, 85, 177, 100, 208
-0.997503, 243, 249, 258, 280
-0.997504, 107, 261, 122, 292
-0.997528, 171, 33, 186, 64
-0.997532, 265, 389, 280, 420
-0.997532, 161, 29, 176, 60
-0.997533, 77, 273, 92, 304
-0.997541, 101, 49, 116, 80
-0.997544, 3, 129, 18, 160
-0.997544, 129, 25, 375, 88
-0.997552, 69, 105, 84, 136
-0.997553, 161, 229, 176, 260
-0.997558, 137, 257, 168, 500
-0.99756, 181, 133, 196, 164
-0.997564, 293, 193, 324, 448
-0.997565, 303, 413, 318, 444
-0.997565, 227, 53, 242, 84
-0.997576, 89, 297, 104, 328
-0.997578, 243, 73, 258, 104
-0.997578, 1, 101, 16, 132
-0.997586, 243, 161, 258, 192
-0.997589, 93, 45, 108, 76
-0.997589, 85, 105, 100, 136
-0.997594, 193, 17, 320, 48
-0.997601, 269, 257, 300, 500
-0.997602, 93, 221, 108, 252
-0.997613, 237, 225, 252, 256
-0.997615, 167, 241, 182, 272
-0.997631, 261, 241, 276, 272
-0.997634, 157, 61, 172, 92
-0.997637, 223, 73, 238, 104
-0.997637, 253, 253, 268, 284
-0.997642, 251, 229, 266, 260
-0.997652, 301, 389, 316, 420
-0.997652, 191, 249, 206, 280
-0.997653, 121, 65, 152, 320
-0.997654, 9, 161, 24, 192
-0.997655, 97, 405, 224, 436
-0.997663, 305, 449, 320, 480
-0.997667, 213, 81, 228, 112
-0.99767, 159, 45, 174, 76
-0.997671, 67, 129, 82, 160
-0.997671, 113, 273, 128, 304
-0.997678, 155, 217, 170, 248
-0.99768, 171, 229, 186, 260
-0.997684, 91, 189, 106, 220
-0.997688, 149, 197, 164, 228
-0.997689, 23, 77, 38, 108
-0.99769, 235, 61, 250, 92
-0.99769, 17, 105, 32, 136
-0.997691, 303, 437, 318, 468
-0.997692, 133, 321, 148, 352
-0.997692, 217, 241, 232, 272
-0.997697, 265, 1, 296, 256
-0.997698, 75, 161, 90, 192
-0.997701, 177, 41, 192, 72
-0.997711, 187, 137, 202, 168
-0.997714, 241, 193, 368, 224
-0.997714, 3, 165, 18, 196
-0.997715, 103, 321, 118, 352
-0.997716, 11, 101, 26, 132
-0.99772, 183, 201, 198, 232
-0.99772, 79, 221, 94, 252
-0.997721, 91, 29, 106, 60
-0.997731, 149, 329, 164, 360
-0.997734, 57, 221, 72, 252
-0.997736, 139, 165, 154, 196
-0.997736, 283, 253, 298, 284
-0.997736, 83, 161, 98, 192
-0.99774, 95, 57, 110, 88
-0.99775, 223, 249, 238, 280
-0.99775, 209, 205, 336, 236
-0.997754, 155, 313, 170, 344
-0.997756, 21, 161, 36, 192
-0.997756, 15, 129, 30, 160
-0.997762, 273, 253, 288, 284
-0.997763, 101, 25, 116, 56
-0.997766, 253, 257, 284, 500
-0.997776, 83, 189, 98, 220
-0.99782, 145, 353, 272, 384
-0.99784, 229, 225, 260, 480
-0.997854, 1, 385, 256, 448
-0.997857, 97, 429, 224, 460
-0.99789, 313, 1, 375, 500
-0.997895, 17, 5, 144, 36
-0.997933, 13, 161, 44, 416
-0.997948, 1, 385, 128, 416
-0.997952, 217, 161, 248, 416
-0.997958, 241, 261, 368, 292
-0.99797, 313, 129, 375, 256
-0.997979, 97, 425, 352, 488
-0.997982, 161, 409, 288, 440
-0.997999, 209, 29, 336, 60
-0.998005, 209, 89, 336, 120
-0.998063, 57, 1, 88, 256
-0.998136, 49, 377, 176, 440
-0.998176, 1, 409, 375, 472
-0.998189, 241, 333, 368, 364
-0.998208, 45, 129, 76, 384
-0.99823, 225, 145, 352, 176
-0.998246, 241, 225, 272, 480
-0.99825, 213, 257, 244, 500
-0.998257, 29, 65, 60, 320
-0.998273, 225, 161, 240, 288
-0.998278, 241, 73, 368, 104
-0.998294, 201, 177, 216, 304
-0.998294, 77, 161, 92, 288
-0.998338, 85, 177, 100, 304
-0.998345, 241, 255, 304, 270
-0.998354, 97, 441, 224, 472
-0.998368, 97, 177, 112, 304
-0.998377, 213, 177, 228, 304
-0.998382, 25, 193, 56, 448
-0.998385, 101, 1, 116, 128
-0.998385, 289, 97, 320, 352
-0.998388, 105, 209, 168, 224
-0.998401, 117, 209, 132, 336
-0.998408, 65, 205, 128, 220
-0.998413, 209, 235, 272, 250
-0.998419, 129, 213, 192, 228
-0.998419, 89, 17, 152, 32
-0.99842, 89, 27, 152, 42
-0.998421, 65, 211, 128, 226
-0.998426, 177, 195, 240, 210
-0.998428, 101, 225, 116, 352
-0.998429, 65, 199, 128, 214
-0.998437, 185, 229, 248, 244
-0.998438, 137, 201, 200, 216
-0.998446, 193, 63, 256, 78
-0.998447, 265, 257, 328, 272
-0.998454, 65, 193, 128, 208
-0.998454, 73, 219, 136, 234
-0.998454, 105, 215, 168, 230
-0.998455, 129, 127, 192, 142
-0.998456, 305, 193, 336, 448
-0.998457, 57, 229, 120, 244
-0.998457, 161, 71, 224, 86
-0.998458, 185, 251, 248, 266
-0.998462, 77, 257, 108, 500
-0.998463, 97, 203, 160, 218
-0.998463, 153, 263, 216, 278
-0.998463, 233, 175, 296, 190
-0.998466, 161, 65, 224, 80
-0.998468, 145, 133, 208, 148
-0.998468, 57, 121, 120, 136
-0.99847, 193, 131, 256, 146
-0.998471, 129, 207, 192, 222
-0.998472, 57, 275, 120, 290
-0.998472, 233, 169, 296, 184
-0.998472, 73, 69, 136, 84
-0.998473, 269, 263, 300, 278
-0.998474, 181, 145, 212, 160
-0.998474, 197, 233, 228, 248
-0.998475, 189, 177, 204, 304
-0.998475, 301, 451, 332, 466
-0.998475, 133, 215, 164, 230
-0.998476, 181, 193, 196, 320
-0.998476, 289, 437, 320, 452
-0.998477, 21, 197, 52, 212
-0.998478, 253, 249, 284, 264
-0.998478, 73, 63, 136, 78
-0.998478, 273, 251, 304, 266
-0.998478, 101, 219, 132, 234
-0.998478, 241, 261, 304, 276
-0.998479, 137, 335, 168, 350
-0.998479, 93, 117, 124, 132
-0.998479, 261, 67, 292, 82
-0.99848, 301, 463, 332, 478
-0.99848, 117, 87, 148, 102
-0.99848, 221, 75, 252, 90
-0.99848, 225, 83, 288, 98
-0.99848, 121, 147, 184, 162
-0.998481, 109, 207, 140, 222
-0.998481, 33, 219, 96, 234
-0.998482, 157, 27, 188, 42
-0.998482, 13, 99, 44, 114
-0.998483, 201, 185, 232, 200
-0.998483, 165, 151, 196, 166
-0.998483, 209, 245, 272, 260
-0.998484, 147, 113, 162, 240
-0.998484, 241, 249, 304, 264
-0.998485, 101, 333, 132, 348
-0.998485, 141, 319, 172, 334
-0.998485, 61, 93, 92, 108
-0.998487, 193, 257, 256, 272
-0.998488, 217, 61, 280, 76
-0.998489, 157, 215, 188, 230
-0.998489, 185, 155, 216, 170
-0.99849, 217, 251, 280, 266
-0.998491, 113, 267, 144, 282
-0.998491, 161, 59, 192, 74
-0.998491, 105, 17, 136, 32
-0.998492, 265, 387, 328, 402
-0.998492, 305, 481, 336, 496
-0.998492, 89, 123, 152, 138
-0.998493, 241, 63, 272, 78
-0.998493, 73, 283, 136, 298
-0.998494, 229, 255, 260, 270
-0.998494, 157, 129, 172, 256
-0.998495, 69, 165, 100, 180
-0.998495, 221, 81, 252, 96
-0.998495, 57, 115, 120, 130
-0.998495, 129, 121, 192, 136
-0.998496, 81, 123, 112, 138
-0.998496, 209, 71, 240, 86
-0.998496, 65, 111, 96, 126
-0.998497, 177, 51, 208, 66
-0.998497, 81, 267, 144, 282
-0.998499, 137, 85, 200, 100
-0.998499, 157, 33, 188, 48
-0.998499, 81, 353, 112, 368
-0.9985, 65, 355, 128, 370
-0.998501, 81, 231, 112, 246
-0.998501, 149, 45, 180, 60
-0.998502, 93, 21, 124, 36
-0.998503, 81, 299, 112, 314
-0.998503, 65, 131, 96, 146
-0.998503, 57, 243, 120, 258
-0.998504, 209, 253, 240, 268
-0.998505, 257, 393, 320, 408
-0.998506, 89, 265, 120, 280
-0.998506, 81, 225, 112, 240
-0.998507, 109, 23, 140, 38
-0.998508, 185, 61, 216, 76
-0.998508, 17, 121, 80, 136
-0.998508, 265, 251, 328, 266
-0.998508, 171, 193, 186, 320
-0.998509, 65, 257, 128, 272
-0.998509, 161, 151, 224, 166
-0.99851, 129, 45, 192, 60
-0.99851, 237, 15, 268, 30
-0.99851, 173, 135, 204, 150
-0.998511, 77, 159, 108, 174
-0.998511, 81, 97, 112, 112
-0.998511, 53, 355, 84, 370
-0.998512, 129, 85, 160, 100
-0.998513, 33, 225, 96, 240
-0.998513, 121, 221, 184, 236
-0.998513, 105, 33, 168, 48
-0.998514, 89, 27, 120, 42
-0.998514, 209, 85, 240, 100
-0.998515, 33, 267, 96, 282
-0.998515, 107, 193, 122, 320
-0.998515, 225, 163, 256, 178
-0.998515, 153, 145, 216, 160
-0.998515, 233, 397, 296, 412
-0.998516, 57, 217, 88, 232
-0.998516, 73, 97, 136, 112
-0.998516, 177, 143, 240, 158
-0.998517, 233, 87, 264, 102
-0.998517, 65, 127, 128, 142
-0.998517, 165, 43, 196, 58
-0.998517, 81, 141, 144, 156
-0.998517, 89, 41, 152, 56
-0.998518, 81, 273, 144, 288
-0.998518, 57, 237, 120, 252
-0.998519, 77, 267, 108, 282
-0.998519, 91, 177, 106, 304
-0.998519, 153, 317, 216, 332
-0.998519, 209, 229, 272, 244
-0.99852, 121, 317, 184, 332
-0.99852, 81, 115, 112, 130
-0.99852, 1, 115, 32, 130
-0.998521, 145, 199, 176, 214
-0.998521, 137, 113, 152, 240
-0.998522, 93, 63, 124, 78
-0.998522, 105, 269, 168, 284
-0.998522, 177, 57, 240, 72
-0.998523, 137, 169, 168, 184
-0.998523, 161, 231, 224, 246
-0.998524, 253, 395, 284, 410
-0.998526, 17, 111, 80, 126
-0.998527, 253, 83, 284, 98
-0.998527, 141, 87, 172, 102
-0.998527, 33, 89, 96, 104
-0.998528, 65, 157, 128, 172
-0.998528, 161, 221, 192, 236
-0.998529, 129, 11, 192, 26
-0.99853, 113, 335, 176, 350
-0.998531, 97, 279, 128, 294
-0.998531, 65, 23, 128, 38
-0.998532, 177, 89, 240, 104
-0.998533, 113, 323, 176, 338
-0.998533, 9, 165, 40, 180
-0.998533, 165, 225, 180, 352
-0.998534, 33, 193, 96, 208
-0.998535, 209, 17, 272, 32
-0.998535, 65, 29, 128, 44
-0.998535, 197, 255, 228, 270
-0.998535, 33, 261, 96, 276
-0.998535, 89, 167, 152, 182
-0.998536, 5, 171, 36, 186
-0.998537, 169, 125, 232, 140
-0.998538, 73, 67, 104, 82
-0.998538, 89, 47, 152, 62
-0.998538, 129, 311, 192, 326
-0.998539, 253, 77, 284, 92
-0.998539, 65, 151, 128, 166
-0.99854, 185, 185, 248, 200
-0.998541, 113, 91, 176, 106
-0.998541, 49, 95, 112, 110
-0.998542, 177, 399, 240, 414
-0.998542, 65, 163, 128, 178
-0.998543, 137, 153, 200, 168
-0.998543, 89, 117, 152, 132
-0.998543, 201, 83, 264, 98
-0.998544, 161, 311, 224, 326
-0.998544, 25, 83, 88, 98
-0.998545, 65, 17, 128, 32
-0.998546, 197, 247, 228, 262
-0.998547, 201, 69, 264, 84
-0.998547, 73, 153, 104, 168
-0.998547, 245, 165, 276, 180
-0.998547, 161, 77, 224, 92
-0.998548, 65, 355, 96, 370
-0.998548, 265, 379, 328, 394
-0.998548, 53, 223, 84, 238
-0.998549, 73, 35, 136, 50
-0.99855, 121, 169, 184, 184
-0.99855, 1, 99, 64, 114
-0.998551, 1, 79, 64, 94
-0.998552, 165, 177, 180, 304
-0.998552, 297, 249, 360, 264
-0.998552, 97, 307, 160, 322
-0.998554, 161, 67, 192, 82
-0.998554, 289, 431, 320, 446
-0.998555, 153, 43, 216, 58
-0.998555, 265, 365, 328, 380
-0.998556, 33, 231, 96, 246
-0.998556, 73, 83, 104, 98
-0.998556, 101, 273, 132, 288
-0.998556, 49, 71, 112, 86
-0.998556, 105, 259, 168, 274
-0.998557, 173, 61, 204, 76
-0.998558, 93, 257, 124, 500
-0.998559, 153, 59, 216, 74
-0.998559, 73, 109, 136, 124
-0.998559, 101, 265, 132, 280
-0.998559, 57, 249, 120, 264
-0.99856, 153, 275, 216, 290
-0.99856, 185, 235, 248, 250
-0.99856, 153, 193, 216, 208
-0.998561, 89, 11, 152, 26
-0.998561, 1, 129, 16, 256
-0.998561, 25, 255, 88, 270
-0.998561, 81, 315, 144, 330
-0.998561, 153, 173, 216, 188
-0.998561, 105, 129, 168, 144
-0.998562, 193, 393, 224, 408
-0.998563, 153, 257, 216, 272
-0.998564, 113, 213, 144, 228
-0.998567, 177, 45, 208, 60
-0.998567, 197, 239, 228, 254
-0.998567, 107, 241, 122, 368
-0.998567, 89, 51, 120, 66
-0.998568, 117, 81, 148, 96
-0.99857, 241, 255, 272, 270
-0.998571, 129, 125, 160, 140
-0.998575, 165, 53, 196, 68
-0.998579, 195, 177, 210, 304
-0.99858, 241, 243, 272, 258
-0.99858, 233, 145, 248, 272
-0.998584, 69, 229, 100, 244
-0.998585, 131, 113, 146, 240
-0.998586, 65, 123, 96, 138
-0.998587, 257, 257, 288, 272
-0.998587, 137, 257, 152, 384
-0.998587, 209, 247, 240, 262
-0.998587, 73, 137, 104, 152
-0.998587, 85, 129, 100, 256
-0.998587, 277, 65, 308, 320
-0.998588, 89, 33, 120, 48
-0.998589, 93, 15, 124, 30
-0.99859, 95, 1, 110, 128
-0.998597, 219, 161, 234, 288
-0.998601, 73, 77, 104, 92
-0.998601, 73, 89, 104, 104
-0.998603, 89, 57, 120, 72
-0.998603, 123, 209, 138, 336
-0.998605, 85, 17, 100, 144
-0.998605, 89, 43, 120, 58
-0.998607, 79, 209, 94, 336
-0.99861, 49, 229, 80, 244
-0.998611, 73, 147, 104, 162
-0.998623, 89, 271, 120, 286
-0.998628, 137, 177, 152, 304
-0.998628, 221, 249, 252, 264
-0.998628, 209, 239, 240, 254
-0.998629, 251, 1, 266, 128
-0.998632, 1, 433, 375, 496
-0.998633, 133, 209, 164, 224
-0.998636, 65, 223, 96, 238
-0.998642, 221, 237, 252, 252
-0.998644, 65, 117, 96, 132
-0.998645, 229, 231, 260, 246
-0.998647, 273, 257, 304, 272
-0.998647, 209, 229, 240, 244
-0.998647, 149, 257, 180, 500
-0.998655, 237, 249, 268, 264
-0.99866, 145, 433, 272, 496
-0.99866, 85, 191, 116, 206
-0.998661, 1, 129, 32, 384
-0.998662, 95, 225, 110, 352
-0.99867, 19, 145, 34, 272
-0.998673, 229, 243, 260, 258
-0.998675, 5, 159, 36, 174
-0.998679, 193, 1, 208, 128
-0.998685, 5, 153, 36, 168
-0.998689, 241, 237, 272, 252
-0.998689, 71, 209, 86, 336
-0.998691, 179, 145, 194, 272
-0.998693, 13, 97, 28, 224
-0.998696, 301, 321, 316, 448
-0.998698, 285, 253, 316, 268
-0.998708, 189, 193, 220, 208
-0.998711, 153, 193, 168, 320
-0.998722, 7, 81, 22, 208
-0.998724, 125, 257, 140, 384
-0.998727, 303, 369, 318, 496
-0.998737, 243, 1, 258, 128
-0.998737, 75, 113, 90, 240
-0.998738, 69, 129, 84, 256
-0.998738, 129, 209, 144, 336
-0.998742, 91, 129, 106, 256
-0.998746, 161, 257, 192, 500
-0.998755, 75, 49, 90, 176
-0.998756, 37, 177, 52, 304
-0.998762, 143, 161, 158, 288
-0.998768, 43, 209, 58, 336
-0.998774, 113, 257, 128, 384
-0.998781, 159, 177, 174, 304
-0.998786, 203, 129, 218, 256
-0.998794, 147, 257, 162, 384
-0.998795, 197, 225, 212, 352
-0.998796, 251, 81, 266, 208
-0.998797, 119, 257, 134, 384
-0.998803, 207, 177, 222, 304
-0.99881, 129, 161, 144, 288
-0.998813, 85, 81, 100, 208
-0.998818, 197, 49, 212, 176
-0.998827, 227, 49, 242, 176
-0.998837, 215, 1, 230, 128
-0.99884, 13, 65, 44, 320
-0.998845, 95, 273, 110, 400
-0.998846, 89, 225, 104, 352
-0.99885, 297, 209, 312, 336
-0.998855, 153, 1, 168, 128
-0.998862, 171, 241, 186, 368
-0.998862, 225, 97, 240, 224
-0.998863, 101, 273, 116, 400
-0.998864, 65, 209, 80, 336
-0.998867, 157, 65, 172, 192
-0.998869, 205, 225, 220, 352
-0.998877, 185, 49, 200, 176
-0.998881, 239, 161, 254, 288
-0.998887, 59, 209, 74, 336
-0.998894, 261, 17, 276, 144
-0.998899, 159, 225, 174, 352
-0.998904, 133, 65, 148, 192
-0.998904, 223, 209, 238, 336
-0.998908, 195, 97, 210, 224
-0.998909, 295, 337, 310, 464
-0.998913, 7, 129, 22, 256
-0.998919, 107, 1, 122, 128
-0.99892, 191, 225, 206, 352
-0.998926, 205, 1, 220, 128
-0.998932, 183, 241, 198, 368
-0.998932, 245, 145, 260, 272
-0.998934, 93, 49, 108, 176
-0.998939, 285, 177, 300, 304
-0.99894, 169, 49, 184, 176
-0.998942, 69, 65, 84, 192
-0.998944, 237, 81, 252, 208
-0.998946, 179, 33, 194, 160
-0.998947, 291, 177, 306, 304
-0.998952, 221, 49, 236, 176
-0.998959, 107, 49, 122, 176
-0.998961, 131, 257, 146, 384
-0.998971, 219, 113, 234, 240
-0.998972, 205, 65, 220, 192
-0.998972, 99, 49, 114, 176
-0.998975, 141, 33, 156, 160
-0.998984, 211, 225, 226, 352
-0.998992, 171, 129, 186, 256
-0.998994, 231, 97, 246, 224
-0.998995, 199, 1, 214, 128
-0.998998, 133, 1, 148, 128
-0.998999, 177, 241, 192, 368
-0.999007, 159, 1, 174, 128
-0.999008, 49, 209, 64, 336
-0.999008, 125, 113, 140, 240
-0.999012, 147, 1, 162, 128
-0.99903, 275, 321, 290, 448
-0.999031, 255, 145, 270, 272
-0.999035, 257, 65, 272, 192
-0.999037, 123, 161, 138, 288
-0.999042, 301, 97, 332, 352
-0.99905, 237, 1, 252, 128
-0.99905, 113, 49, 128, 176
-0.999052, 187, 1, 202, 128
-0.999057, 107, 289, 122, 416
-0.999058, 13, 145, 28, 272
-0.99906, 313, 353, 328, 480
-0.99906, 147, 209, 162, 336
-0.999071, 279, 161, 294, 288
-0.999071, 197, 337, 212, 464
-0.999074, 163, 49, 178, 176
-0.999077, 235, 209, 250, 336
-0.999123, 45, 1, 76, 256
-0.9995, 345, 193, 375, 448
-0.999662, 1, 409, 256, 472
-0.999662, 195, 391, 210, 406
-0.999663, 259, 245, 274, 260
-0.999663, 97, 277, 112, 292
-0.999663, 303, 383, 318, 398
-0.999663, 281, 261, 296, 276
-0.999663, 243, 79, 258, 94
-0.999663, 305, 455, 320, 470
-0.999664, 85, 195, 100, 210
-0.999664, 71, 205, 86, 220
-0.999665, 301, 411, 316, 426
-0.999665, 155, 63, 170, 78
-0.999665, 157, 149, 172, 164
-0.999669, 305, 461, 320, 476
-0.999669, 197, 177, 212, 192
-0.99967, 95, 353, 110, 368
-0.999671, 207, 229, 222, 244
-0.999671, 141, 303, 156, 318
-0.999672, 85, 69, 100, 84
-0.999672, 197, 185, 212, 200
-0.999673, 201, 193, 216, 208
-0.999674, 111, 19, 126, 34
-0.999674, 169, 239, 184, 254
-0.999675, 283, 431, 298, 446
-0.999675, 215, 85, 230, 100
-0.999675, 75, 163, 90, 178
-0.999676, 237, 163, 252, 178
-0.999677, 101, 53, 116, 68
-0.999677, 171, 41, 186, 56
-0.999677, 67, 355, 82, 370
-0.999677, 273, 263, 288, 278
-0.999678, 85, 121, 100, 136
-0.999678, 77, 355, 92, 370
-0.999679, 167, 227, 182, 242
-0.999679, 77, 77, 92, 92
-0.99968, 199, 59, 214, 74
-0.999683, 101, 47, 116, 62
-0.999685, 295, 257, 310, 272
-0.999685, 145, 311, 160, 326
-0.999686, 223, 77, 238, 92
-0.999686, 211, 253, 226, 268
-0.999686, 307, 469, 322, 484
-0.999687, 77, 151, 92, 166
-0.999688, 225, 185, 240, 200
-0.999688, 147, 319, 162, 334
-0.999688, 187, 55, 202, 70
-0.999689, 101, 41, 116, 56
-0.99969, 83, 163, 98, 178
-0.99969, 119, 277, 134, 292
-0.99969, 77, 131, 92, 146
-0.99969, 205, 393, 220, 408
-0.999691, 79, 143, 94, 158
-0.999692, 83, 185, 98, 200
-0.999694, 113, 265, 128, 280
-0.999694, 107, 61, 122, 76
-0.999695, 173, 33, 188, 48
-0.999695, 1, 159, 16, 174
-0.999697, 227, 243, 242, 258
-0.999697, 85, 141, 100, 156
-0.999697, 101, 35, 116, 50
-0.999698, 69, 133, 84, 148
-0.999699, 161, 57, 176, 72
-0.999699, 79, 225, 94, 240
-0.9997, 109, 273, 124, 288
-0.999702, 265, 391, 280, 406
-0.999703, 85, 115, 100, 130
-0.999703, 147, 337, 162, 352
-0.999705, 193, 51, 208, 66
-0.999706, 197, 237, 212, 252
-0.999707, 111, 279, 126, 294
-0.999707, 189, 45, 204, 60
-0.999708, 139, 335, 154, 350
-0.999708, 97, 189, 112, 204
-0.999709, 221, 245, 236, 260
-0.99971, 85, 91, 100, 106
-0.999711, 309, 485, 324, 500
-0.999716, 245, 247, 260, 262
-0.999717, 103, 275, 118, 290
-0.999717, 317, 193, 348, 448
-0.999718, 201, 255, 216, 270
-0.999718, 19, 153, 34, 168
-0.999718, 131, 79, 146, 94
-0.99972, 201, 231, 216, 246
-0.999721, 15, 167, 30, 182
-0.999723, 205, 239, 220, 254
-0.999725, 215, 235, 230, 250
-0.999726, 93, 269, 108, 284
-0.999726, 237, 247, 252, 262
-0.999727, 169, 233, 184, 248
-0.99973, 1, 153, 16, 168
-0.999731, 57, 223, 72, 238
-0.999732, 85, 147, 100, 162
-0.999732, 69, 115, 84, 130
-0.999733, 245, 165, 260, 180
-0.999734, 193, 191, 208, 206
-0.999736, 139, 327, 154, 342
-0.999739, 173, 61, 188, 76
-0.99974, 293, 1, 324, 256
-0.999741, 73, 223, 88, 238
-0.999743, 7, 161, 22, 176
-0.999747, 237, 253, 252, 268
-0.999748, 301, 251, 316, 266
-0.99975, 139, 315, 154, 330
-0.999753, 223, 251, 238, 266
-0.999754, 295, 251, 310, 266
-0.999755, 101, 13, 116, 28
-0.999756, 135, 305, 150, 320
-0.999757, 231, 237, 246, 252
-0.999762, 19, 159, 34, 174
-0.999768, 225, 237, 240, 252
-0.999769, 249, 257, 264, 272
-0.999769, 225, 231, 240, 246
-0.999774, 275, 257, 290, 272
-0.999775, 231, 249, 246, 264
-0.999777, 167, 67, 182, 82
-0.99978, 11, 153, 26, 168
-0.999784, 247, 235, 262, 250
-0.999784, 77, 137, 92, 152
-0.999786, 215, 247, 230, 262
-0.999788, 239, 241, 254, 256
-0.999789, 197, 245, 212, 260
-0.999789, 219, 229, 234, 244
-0.999793, 13, 257, 44, 500
-0.999796, 237, 233, 252, 248
-0.999799, 281, 255, 296, 270
-0.999804, 253, 249, 268, 264
-0.999806, 255, 239, 270, 254
-0.999806, 1, 225, 32, 480
-0.999806, 67, 219, 82, 234
-0.999812, 249, 241, 264, 256
-0.999812, 213, 229, 228, 244
-0.999812, 243, 253, 258, 268
-0.999823, 289, 253, 304, 268
-0.999827, 207, 245, 222, 260
-0.999876, 231, 231, 246, 246
-1.0001, 313, 97, 344, 352
-1.00013, 333, 193, 364, 448
-1.00013, 313, 321, 375, 448
-1.00025, 329, 97, 360, 352
-1.00034, 341, 33, 372, 288
-1.00051, 1, 433, 256, 496
-1.00088, 305, 1, 336, 256
-1.0009, 317, 1, 348, 256
-1.00104, 329, 1, 360, 256
-1.00174, 273, 49, 336, 176
-1.00354, 297, 1, 360, 256
-1.0045, 313, 225, 375, 352
-1.00474, 313, 1, 375, 128
-1.00838, 313, 49, 375, 176
-1.01229, 313, 273, 375, 400
-1.01717, 217, 273, 280, 400
