2069
-0.230801, 1, 1, 500, 448
-0.280267, 1, 97, 500, 352
-0.287225, 129, 1, 384, 448
-0.320289, 1, 193, 500, 448
-0.334457, 1, 1, 256, 448
-0.344858, 1, 1, 500, 256
-0.397998, 225, 1, 480, 448
-0.450113, 225, 193, 480, 448
-0.490258, 1, 161, 256, 416
-0.494869, 97, 65, 352, 320
-0.515334, 225, 97, 480, 352
-0.518745, 129, 193, 384, 448
-0.534358, 1, 65, 256, 320
-0.620092, 193, 1, 448, 256
-0.820643, 145, 1, 272, 448
-0.831245, 273, 193, 400, 448
-0.832265, 81, 1, 208, 448
-0.836177, 145, 65, 272, 320
-0.837879, 33, 193, 160, 448
-0.838563, 273, 65, 400, 320
-0.840954, 129, 193, 256, 448
-0.844919, 337, 97, 464, 352
-0.845686, 1, 1, 128, 448
-0.847165, 225, 97, 352, 352
-0.847337, 49, 97, 176, 352
-0.848718, 1, 97, 500, 224
-0.850996, 1, 305, 500, 432
-0.851054, 241, 1, 368, 448
-0.852983, 193, 1, 320, 256
-0.854267, 1, 1, 128, 256
-0.855378, 289, 1, 416, 448
-0.856294, 193, 1, 320, 448
-0.857323, 97, 65, 224, 320
-0.857619, 321, 193, 448, 448
-0.86068, 193, 193, 320, 448
-0.8669, 1, 97, 128, 352
-0.870666, 337, 1, 464, 448
-0.871973, 49, 1, 176, 256
-0.874681, 81, 193, 208, 448
-0.885355, 1, 257, 500, 384
-0.886804, 65, 113, 320, 240
-0.889388, 129, 65, 384, 192
-0.891218, 129, 193, 384, 320
-0.891763, 97, 305, 352, 432
-0.892367, 225, 257, 480, 384
-0.893763, 1, 145, 500, 272
-0.894439, 225, 209, 480, 336
-0.894929, 1, 257, 256, 384
-0.899203, 1, 209, 500, 336
-0.899881, 225, 145, 480, 272
-0.900231, 369, 193, 496, 448
-0.902396, 1, 49, 500, 176
-0.90244, 225, 321, 480, 448
-0.903396, 1, 1, 500, 128
-0.904254, 337, 1, 464, 256
-0.905266, 129, 241, 384, 368
-0.90655, 33, 161, 288, 288
-0.909409, 33, 65, 288, 192
-0.910347, 1, 321, 256, 448
-0.911874, 225, 97, 480, 224
-0.913314, 1, 1, 256, 128
-0.916121, 1, 209, 256, 336
-0.918895, 129, 81, 256, 208
-0.920014, 33, 321, 96, 448
-0.921534, 257, 161, 384, 288
-0.922348, 33, 321, 160, 448
-0.923934, 273, 81, 400, 208
-0.924071, 145, 257, 208, 384
-0.924408, 129, 1, 384, 128
-0.925032, 65, 113, 192, 240
-0.925743, 185, 81, 248, 208
-0.925748, 297, 113, 360, 240
-0.925771, 273, 289, 400, 416
-0.926153, 161, 289, 288, 416
-0.926613, 297, 65, 360, 192
-0.926802, 121, 305, 184, 432
-0.926857, 337, 225, 464, 352
-0.927859, 209, 81, 336, 208
-0.928297, 321, 97, 448, 224
-0.929175, 81, 321, 144, 448
-0.929243, 113, 273, 240, 400
-0.930122, 161, 177, 288, 304
-0.93077, 209, 129, 336, 256
-0.931402, 9, 257, 72, 384
-0.931615, 337, 209, 400, 336
-0.93221, 1, 1, 128, 128
-0.932367, 33, 257, 160, 384
-0.932538, 129, 225, 256, 352
-0.93263, 1, 1, 64, 128
-0.9329, 105, 97, 168, 224
-0.933098, 145, 97, 208, 224
-0.933181, 1, 177, 128, 304
-0.933434, 273, 97, 336, 224
-0.93384, 257, 321, 320, 448
-0.934353, 313, 161, 376, 288
-0.934979, 145, 49, 208, 176
-0.9354, 337, 273, 464, 400
-0.935982, 1, 81, 128, 208
-0.936167, 81, 225, 208, 352
-0.936346, 321, 305, 384, 432
-0.936648, 273, 209, 400, 336
-0.937047, 81, 321, 208, 448
-0.937108, 225, 49, 480, 176
-0.937405, 169, 273, 232, 400
-0.937561, 161, 1, 224, 128
-0.937913, 185, 129, 248, 256
-0.938035, 1, 209, 64, 336
-0.938139, 361, 209, 424, 336
-0.939537, 1, 305, 64, 432
-0.939588, 217, 305, 280, 432
-0.939963, 209, 321, 336, 448
-0.939994, 1, 113, 64, 240
-0.940647, 241, 129, 304, 256
-0.941226, 121, 257, 184, 384
-0.941562, 209, 97, 272, 224
-0.941957, 193, 33, 320, 160
-0.94211, 209, 145, 272, 272
-0.94228, 145, 129, 272, 256
-0.942336, 225, 1, 480, 128
-0.942588, 1, 385, 64, 448
-0.942672, 297, 209, 360, 336
-0.942705, 329, 257, 392, 384
-0.942747, 289, 289, 352, 416
-0.943486, 177, 225, 240, 352
-0.943918, 209, 257, 336, 384
-0.944358, 193, 289, 256, 416
-0.94448, 297, 121, 360, 184
-0.944746, 129, 1, 256, 128
-0.945021, 161, 145, 224, 272
-0.945175, 337, 97, 400, 224
-0.945963, 25, 1, 88, 128
-0.946292, 97, 225, 160, 352
-0.946367, 121, 145, 184, 272
-0.946394, 265, 137, 328, 200
-0.946834, 25, 145, 88, 272
-0.946981, 265, 145, 328, 272
-0.947442, 57, 1, 120, 128
-0.947487, 73, 113, 136, 240
-0.947811, 1, 65, 64, 192
-0.947849, 353, 177, 480, 304
-0.94799, 321, 361, 384, 424
-0.948926, 81, 161, 208, 288
-0.949136, 249, 113, 312, 176
-0.949266, 1, 129, 128, 256
-0.949367, 225, 209, 352, 336
-0.949434, 329, 257, 392, 320
-0.949575, 273, 353, 336, 416
-0.950082, 217, 113, 280, 176
-0.950095, 1, 1, 64, 64
-0.950477, 385, 225, 448, 352
-0.950542, 81, 65, 208, 192
-0.950571, 137, 209, 200, 336
-0.950632, 1, 257, 64, 320
-0.950992, 9, 305, 72, 368
-0.951037, 97, 273, 160, 400
-0.951093, 185, 1, 248, 128
-0.951502, 57, 321, 120, 448
-0.951539, 65, 1, 192, 128
-0.951757, 273, 1, 400, 128
-0.952029, 305, 145, 432, 272
-0.952087, 249, 81, 312, 208
-0.952259, 97, 113, 160, 176
-0.952296, 193, 113, 256, 176
-0.95233, 225, 49, 288, 176
-0.952409, 321, 321, 448, 448
-0.952442, 137, 121, 200, 184
-0.952474, 273, 209, 336, 336
-0.952476, 89, 337, 152, 400
-0.953759, 313, 89, 376, 152
-0.953969, 337, 209, 400, 272
-0.954234, 161, 121, 224, 184
-0.954235, 241, 273, 304, 400
-0.954287, 273, 49, 336, 176
-0.954302, 129, 305, 192, 368
-0.954501, 281, 241, 344, 304
-0.954669, 393, 113, 456, 240
-0.955082, 369, 217, 432, 280
-0.955395, 297, 1, 360, 128
-0.955483, 145, 305, 208, 432
-0.955563, 97, 49, 160, 176
-0.955586, 289, 385, 352, 448
-0.955677, 1, 137, 64, 200
-0.955859, 241, 225, 304, 352
-0.956037, 25, 361, 88, 424
-0.956164, 257, 329, 320, 392
-0.956174, 49, 177, 112, 304
-0.956219, 1, 217, 64, 280
-0.956226, 105, 313, 168, 376
-0.956333, 273, 113, 336, 176
-0.956464, 129, 273, 192, 336
-0.956481, 1, 161, 64, 224
-0.956556, 65, 257, 128, 384
-0.956569, 137, 97, 200, 160
-0.956632, 97, 241, 160, 304
-0.956647, 49, 329, 112, 392
-0.956713, 257, 89, 320, 152
-0.956937, 321, 1, 448, 128
-0.957026, 193, 89, 256, 152
-0.957119, 361, 257, 424, 384
-0.95739, 129, 353, 192, 416
-0.957436, 265, 257, 328, 384
-0.957522, 321, 49, 384, 176
-0.957747, 185, 153, 248, 216
-0.957787, 225, 137, 288, 200
-0.958043, 289, 73, 352, 136
-0.95831, 329, 337, 392, 400
-0.95832, 265, 161, 328, 224
-0.958449, 313, 169, 376, 232
-0.958488, 217, 257, 280, 384
-0.958628, 153, 241, 216, 304
-0.958678, 385, 273, 448, 336
-0.958679, 1, 161, 64, 288
-0.95888, 121, 49, 184, 176
-0.959164, 337, 161, 400, 288
-0.9592, 33, 169, 96, 232
-0.959507, 289, 161, 352, 288
-0.959702, 321, 49, 448, 176
-0.96005, 121, 241, 184, 304
-0.960053, 313, 233, 376, 296
-0.960075, 161, 65, 224, 128
-0.960174, 65, 1, 128, 64
-0.960187, 337, 105, 400, 168
-0.960313, 137, 153, 200, 216
-0.960421, 1, 185, 64, 248
-0.960448, 49, 65, 112, 192
-0.960665, 41, 273, 104, 400
-0.960988, 241, 241, 304, 304
-0.961349, 313, 145, 376, 208
-0.961371, 265, 1, 328, 128
-0.961642, 161, 161, 224, 224
-0.961649, 25, 385, 88, 448
-0.961662, 233, 361, 296, 424
-0.961753, 233, 313, 296, 376
-0.961995, 105, 1, 168, 64
-0.962001, 345, 321, 408, 448
-0.962084, 337, 281, 400, 344
-0.962174, 185, 33, 248, 96
-0.962359, 369, 241, 432, 304
-0.962613, 297, 353, 360, 416
-0.962686, 329, 385, 392, 448
-0.962805, 25, 1, 88, 64
-0.962873, 169, 321, 232, 448
-0.962927, 217, 209, 280, 336
-0.962977, 209, 41, 272, 104
-0.963055, 361, 97, 424, 224
-0.963234, 1, 337, 64, 400
-0.963244, 57, 377, 120, 440
-0.9634, 177, 337, 240, 400
-0.963559, 185, 177, 248, 304
-0.963605, 137, 209, 200, 272
-0.963617, 289, 161, 352, 416
-0.963698, 41, 137, 104, 200
-0.963765, 129, 1, 192, 128
-0.963899, 33, 337, 160, 400
-0.963991, 105, 1, 168, 128
-0.964402, 273, 81, 400, 144
-0.964439, 289, 33, 352, 288
-0.964648, 257, 265, 320, 328
-0.964648, 209, 105, 336, 168
-0.964697, 169, 1, 232, 64
-0.964783, 57, 321, 88, 448
-0.964933, 73, 105, 136, 168
-0.965067, 161, 201, 224, 264
-0.96513, 313, 65, 376, 320
-0.965335, 129, 193, 192, 448
-0.965433, 361, 105, 424, 168
-0.965529, 249, 49, 312, 112
-0.965645, 265, 377, 328, 440
-0.965733, 297, 265, 360, 328
-0.965806, 241, 177, 304, 304
-0.96594, 273, 121, 400, 184
-0.966019, 153, 113, 184, 240
-0.966059, 153, 65, 184, 192
-0.966074, 201, 65, 232, 192
-0.966306, 17, 361, 144, 424
-0.966329, 65, 305, 128, 368
-0.966615, 337, 193, 400, 448
-0.966642, 1, 161, 64, 416
-0.966702, 337, 233, 400, 296
-0.966795, 81, 1, 144, 128
-0.96696, 129, 1, 192, 64
-0.967005, 289, 145, 352, 208
-0.967021, 241, 1, 304, 128
-0.967073, 217, 89, 280, 152
-0.967158, 25, 193, 88, 256
-0.967306, 249, 193, 312, 448
-0.967322, 273, 321, 304, 448
-0.96739, 169, 33, 232, 288
-0.967467, 361, 281, 424, 344
-0.967536, 193, 97, 256, 352
-0.967584, 1, 81, 64, 144
-0.967678, 1, 281, 64, 344
-0.967801, 265, 217, 328, 280
-0.967825, 165, 113, 196, 240
-0.96787, 385, 273, 448, 400
-0.968085, 193, 49, 320, 112
-0.968228, 153, 193, 216, 448
-0.968288, 109, 321, 140, 448
-0.968324, 289, 153, 320, 216
-0.968344, 313, 209, 376, 272
-0.968376, 161, 265, 224, 328
-0.968377, 113, 297, 240, 360
-0.96839, 1, 1, 128, 64
-0.968395, 65, 137, 128, 200
-0.968426, 257, 97, 320, 352
-0.968488, 97, 137, 160, 200
-0.968536, 153, 305, 216, 368
-0.96854, 201, 113, 232, 176
-0.968563, 213, 81, 244, 208
-0.968564, 289, 49, 352, 112
-0.968566, 1, 113, 64, 176
-0.968581, 225, 161, 288, 224
-0.968623, 257, 361, 384, 424
-0.968713, 393, 249, 456, 312
-0.968748, 293, 81, 324, 144
-0.968766, 337, 81, 368, 208
-0.968859, 129, 89, 256, 152
-0.968869, 281, 97, 312, 160
-0.968871, 49, 81, 112, 144
-0.968919, 289, 329, 352, 392
-0.968984, 137, 73, 200, 136
-0.969039, 345, 241, 376, 368
-0.969181, 349, 97, 380, 160
-0.969222, 201, 1, 264, 64
-0.96926, 157, 257, 188, 384
-0.969288, 281, 81, 312, 208
-0.969323, 333, 345, 364, 408
-0.969414, 301, 65, 332, 192
-0.969434, 393, 121, 456, 184
-0.969445, 25, 209, 88, 336
-0.969486, 65, 129, 192, 192
-0.969511, 193, 313, 320, 376
-0.969531, 25, 97, 88, 224
-0.969533, 409, 193, 472, 320
-0.969592, 337, 137, 400, 200
-0.969606, 209, 1, 272, 128
-0.969625, 145, 33, 208, 288
-0.969713, 353, 217, 480, 280
-0.969738, 217, 89, 248, 152
-0.969777, 269, 121, 300, 184
-0.9698, 81, 361, 144, 424
-0.969817, 201, 305, 264, 368
-0.969832, 129, 305, 160, 368
-0.969858, 321, 105, 448, 168
-0.969899, 169, 209, 200, 272
-0.969983, 321, 241, 448, 304
-0.970036, 225, 113, 256, 176
-0.970066, 145, 273, 176, 400
-0.970115, 201, 113, 232, 240
-0.970239, 145, 209, 272, 272
-0.97035, 225, 97, 256, 224
-0.970492, 277, 145, 308, 208
-0.970524, 225, 1, 288, 64
-0.970579, 209, 129, 336, 192
-0.970583, 5, 185, 36, 248
-0.970596, 177, 241, 240, 304
-0.970619, 1, 385, 128, 448
-0.970628, 9, 1, 40, 128
-0.970738, 113, 113, 240, 176
-0.970766, 201, 273, 264, 336
-0.970867, 1, 25, 64, 88
-0.970963, 65, 129, 128, 384
-0.970978, 185, 57, 248, 120
-0.971048, 345, 217, 376, 280
-0.971063, 257, 153, 384, 216
-0.971068, 273, 129, 304, 256
-0.971113, 345, 97, 408, 352
-0.971134, 165, 233, 196, 296
-0.971156, 225, 1, 288, 256
-0.971187, 257, 1, 320, 256
-0.971219, 161, 25, 224, 88
-0.971228, 361, 193, 424, 448
-0.971236, 289, 129, 320, 256
-0.971244, 217, 65, 280, 128
-0.971267, 257, 385, 384, 448
-0.971288, 313, 289, 376, 352
-0.971309, 269, 233, 300, 296
-0.971318, 113, 89, 176, 152
-0.97132, 209, 185, 272, 248
-0.97132, 353, 289, 384, 416
-0.971353, 241, 217, 304, 280
-0.971423, 5, 177, 36, 304
-0.971519, 313, 193, 376, 448
-0.971527, 345, 361, 408, 424
-0.97157, 81, 233, 208, 296
-0.971601, 153, 241, 184, 304
-0.971713, 45, 289, 76, 416
-0.971734, 57, 25, 120, 88
-0.971736, 361, 49, 424, 176
-0.971758, 349, 97, 380, 224
-0.971774, 105, 273, 168, 336
-0.971808, 313, 113, 344, 240
-0.971836, 73, 161, 136, 288
-0.971858, 89, 385, 152, 448
-0.971892, 33, 193, 96, 448
-0.971899, 145, 273, 176, 336
-0.971916, 25, 281, 88, 344
-0.97192, 165, 209, 196, 336
-0.97194, 169, 89, 232, 152
-0.971951, 257, 337, 384, 400
-0.97207, 145, 129, 176, 192
-0.972074, 33, 313, 160, 376
-0.972089, 65, 161, 128, 224
-0.972169, 1, 169, 128, 232
-0.972257, 285, 121, 316, 184
-0.972292, 25, 337, 88, 400
-0.972364, 257, 225, 384, 288
-0.972384, 177, 257, 208, 384
-0.972438, 105, 193, 168, 448
-0.972464, 321, 65, 352, 192
-0.972562, 369, 321, 496, 448
-0.972665, 217, 289, 248, 416
-0.972688, 129, 329, 192, 392
-0.972695, 233, 385, 296, 448
-0.972701, 277, 377, 308, 440
-0.972801, 337, 265, 464, 328
-0.972808, 161, 121, 288, 184
-0.972826, 249, 305, 280, 432
-0.972861, 5, 1, 36, 64
-0.972991, 129, 337, 256, 400
-0.973064, 121, 305, 152, 432
-0.973089, 369, 161, 432, 288
-0.973098, 385, 1, 448, 128
-0.973106, 1, 249, 128, 312
-0.973106, 29, 305, 60, 432
-0.973172, 129, 65, 256, 128
-0.973192, 249, 113, 280, 176
-0.973242, 289, 169, 352, 232
-0.973263, 353, 73, 416, 136
-0.973361, 81, 1, 208, 64
-0.973363, 25, 41, 88, 104
-0.973512, 329, 273, 360, 400
-0.973559, 181, 129, 212, 192
-0.973637, 141, 81, 172, 208
-0.973655, 61, 385, 92, 448
-0.97366, 257, 265, 384, 328
-0.973765, 97, 321, 128, 448
-0.973828, 333, 321, 364, 448
-0.973905, 209, 153, 336, 216
-0.973918, 217, 193, 280, 448
-0.973928, 53, 169, 84, 232
-0.973943, 349, 257, 380, 320
-0.973992, 193, 1, 256, 256
-0.974, 37, 361, 68, 424
-0.974016, 277, 353, 308, 416
-0.974029, 189, 65, 220, 192
-0.974081, 49, 345, 80, 408
-0.974103, 1, 209, 128, 272
-0.974204, 65, 105, 192, 168
-0.974254, 9, 225, 40, 288
-0.974276, 157, 121, 188, 184
-0.974288, 253, 145, 284, 208
-0.974301, 129, 257, 160, 384
-0.974399, 177, 113, 208, 240
-0.974483, 133, 305, 164, 432
-0.974494, 209, 73, 336, 136
-0.974551, 73, 65, 136, 192
-0.97456, 349, 297, 380, 360
-0.974575, 25, 33, 88, 288
-0.974671, 1, 113, 128, 176
-0.974769, 213, 129, 244, 256
-0.974794, 137, 337, 168, 400
-0.974844, 257, 361, 288, 424
-0.975129, 225, 1, 352, 64
-0.975176, 357, 201, 388, 264
-0.975195, 129, 233, 256, 296
-0.97522, 349, 129, 380, 192
-0.975231, 205, 273, 236, 400
-0.975231, 337, 129, 464, 192
-0.975255, 305, 113, 336, 176
-0.975273, 193, 1, 224, 128
-0.975348, 385, 97, 448, 352
-0.975384, 273, 273, 304, 400
-0.975389, 337, 137, 368, 200
-0.975415, 33, 273, 160, 336
-0.975478, 1, 65, 64, 320
-0.975491, 49, 113, 112, 240
-0.975558, 205, 81, 236, 144
-0.975596, 149, 89, 180, 152
-0.975613, 57, 1, 120, 256
-0.975633, 237, 145, 268, 272
-0.975706, 117, 313, 148, 376
-0.975718, 345, 1, 408, 128
-0.975759, 121, 65, 184, 320
-0.975808, 9, 385, 40, 448
-0.975847, 157, 273, 188, 336
-0.97588, 261, 321, 292, 448
-0.975905, 105, 233, 136, 296
-0.975945, 1, 145, 128, 208
-0.975969, 281, 233, 312, 296
-0.976053, 113, 225, 144, 352
-0.976062, 189, 273, 220, 400
-0.976095, 369, 129, 496, 256
-0.976117, 209, 337, 336, 400
-0.976196, 225, 97, 288, 352
-0.97622, 81, 345, 208, 408
-0.976329, 5, 121, 36, 184
-0.976338, 305, 385, 432, 448
-0.976364, 273, 201, 400, 264
-0.976404, 337, 161, 368, 288
-0.976434, 161, 145, 288, 208
-0.97644, 265, 177, 296, 304
-0.976453, 165, 161, 196, 288
-0.976487, 329, 113, 360, 176
-0.976518, 309, 57, 340, 120
-0.976541, 9, 241, 40, 368
-0.976672, 193, 193, 256, 448
-0.976709, 85, 113, 116, 176
-0.97673, 305, 361, 432, 424
-0.976738, 205, 145, 236, 208
-0.976748, 49, 385, 176, 448
-0.976808, 273, 329, 304, 392
-0.976853, 337, 81, 368, 144
-0.976883, 217, 137, 248, 200
-0.976883, 177, 185, 304, 248
-0.976914, 349, 193, 380, 320
-0.97698, 265, 385, 296, 448
-0.976986, 161, 9, 288, 72
-0.976999, 161, 1, 224, 448
-0.977056, 73, 1, 104, 128
-0.977071, 377, 209, 408, 336
-0.977114, 173, 1, 204, 128
-0.977124, 25, 385, 56, 448
-0.977143, 365, 241, 396, 368
-0.977272, 321, 17, 352, 144
-0.977285, 385, 65, 448, 192
-0.977314, 145, 225, 176, 352
-0.977321, 325, 113, 356, 240
-0.977321, 5, 129, 36, 256
-0.977335, 177, 233, 304, 296
-0.977341, 5, 161, 36, 224
-0.977343, 5, 25, 36, 88
-0.977382, 353, 289, 480, 352
-0.977436, 369, 281, 400, 344
-0.977436, 301, 113, 332, 240
-0.977449, 289, 209, 320, 336
-0.977453, 57, 321, 88, 384
-0.977467, 257, 289, 384, 352
-0.977545, 305, 177, 336, 304
-0.977569, 285, 273, 316, 400
-0.977571, 337, 257, 368, 320
-0.977595, 325, 73, 356, 136
-0.977634, 353, 193, 480, 256
-0.977679, 145, 273, 272, 336
-0.977764, 157, 153, 188, 216
-0.97777, 229, 289, 260, 416
-0.977824, 9, 305, 40, 368
-0.977838, 277, 257, 308, 320
-0.977859, 253, 145, 284, 272
-0.977983, 269, 97, 300, 160
-0.978, 81, 321, 208, 384
-0.978008, 65, 153, 192, 216
-0.978014, 237, 113, 268, 176
-0.97807, 145, 41, 272, 104
-0.978083, 361, 105, 392, 168
-0.978153, 97, 273, 224, 336
-0.978165, 161, 1, 192, 128
-0.978251, 321, 1, 384, 128
-0.978263, 49, 161, 80, 288
-0.978283, 397, 209, 428, 336
-0.978294, 97, 105, 128, 168
-0.978294, 361, 249, 392, 312
-0.978296, 9, 265, 40, 328
-0.9783, 105, 1, 136, 64
-0.978336, 241, 177, 368, 240
-0.97835, 273, 313, 400, 376
-0.978368, 129, 113, 160, 176
-0.978409, 101, 257, 132, 384
-0.978444, 285, 321, 316, 448
-0.978468, 45, 305, 76, 368
-0.978487, 257, 225, 288, 288
-0.978545, 141, 313, 172, 376
-0.978565, 97, 65, 160, 320
-0.97863, 165, 65, 196, 192
-0.978661, 369, 49, 496, 176
-0.97872, 209, 265, 336, 328
-0.978793, 385, 193, 448, 448
-0.978837, 45, 241, 76, 368
-0.978843, 241, 33, 272, 96
-0.978863, 149, 161, 180, 288
-0.978872, 41, 169, 72, 232
-0.978881, 253, 97, 284, 224
-0.978886, 81, 209, 208, 272
-0.97897, 9, 305, 40, 432
-0.978975, 329, 169, 360, 232
-0.979036, 125, 1, 156, 64
-0.979058, 409, 241, 472, 368
-0.979071, 177, 241, 208, 304
-0.979114, 313, 177, 344, 240
-0.979172, 169, 121, 200, 184
-0.979281, 61, 1, 92, 64
-0.979351, 41, 201, 72, 264
-0.979377, 305, 137, 336, 200
-0.979381, 421, 129, 452, 256
-0.979391, 225, 145, 256, 272
-0.979397, 85, 321, 116, 448
-0.979437, 225, 49, 256, 112
-0.979497, 165, 305, 196, 432
-0.979499, 69, 161, 100, 288
-0.979515, 49, 1, 80, 64
-0.979604, 1, 81, 128, 144
-0.979618, 45, 1, 76, 128
-0.979635, 5, 49, 36, 176
-0.979675, 189, 113, 220, 240
-0.979676, 29, 305, 60, 368
-0.979684, 357, 353, 388, 416
-0.979715, 257, 57, 384, 120
-0.97975, 213, 33, 244, 160
-0.979767, 333, 369, 364, 432
-0.979871, 269, 225, 300, 352
-0.979874, 65, 81, 192, 144
-0.979877, 213, 1, 244, 64
-0.979892, 185, 65, 216, 128
-0.979938, 289, 1, 352, 448
-0.980039, 25, 1, 56, 64
-0.980076, 333, 289, 364, 352
-0.980088, 209, 361, 336, 424
-0.980162, 177, 65, 208, 192
-0.980246, 109, 337, 140, 400
-0.98025, 177, 1, 208, 64
-0.980329, 5, 49, 36, 112
-0.980368, 21, 177, 52, 240
-0.980389, 297, 1, 328, 128
-0.980411, 133, 273, 164, 336
-0.980463, 193, 1, 224, 64
-0.980475, 21, 1, 52, 128
-0.980519, 361, 97, 392, 224
-0.980526, 165, 65, 196, 128
-0.98057, 25, 225, 56, 352
-0.98064, 369, 321, 432, 448
-0.980727, 73, 377, 104, 440
-0.980756, 1, 33, 128, 96
-0.980775, 97, 145, 160, 272
-0.980824, 317, 97, 348, 160
-0.980835, 193, 209, 224, 336
-0.980837, 313, 1, 344, 64
-0.980913, 377, 209, 408, 272
-0.980923, 177, 89, 208, 152
-0.980969, 353, 321, 384, 384
-0.980986, 209, 225, 240, 352
-0.98109, 113, 161, 240, 224
-0.981095, 1, 1, 64, 448
-0.981152, 421, 129, 452, 192
-0.981181, 265, 161, 296, 224
-0.981184, 109, 105, 140, 168
-0.981224, 73, 1, 104, 64
-0.981268, 1, 57, 128, 120
-0.981273, 333, 209, 364, 336
-0.981359, 321, 217, 352, 280
-0.981361, 157, 1, 188, 64
-0.981376, 353, 353, 480, 416
-0.981449, 277, 177, 308, 304
-0.981499, 37, 177, 68, 304
-0.981501, 193, 161, 224, 288
-0.981507, 305, 337, 432, 400
-0.981555, 61, 1, 92, 128
-0.981595, 21, 129, 52, 256
-0.981691, 321, 353, 352, 416
-0.981727, 21, 209, 52, 272
-0.981732, 237, 137, 268, 200
-0.981786, 177, 209, 208, 336
-0.981809, 293, 217, 324, 280
-0.98181, 137, 1, 200, 448
-0.981833, 157, 209, 188, 272
-0.981851, 93, 1, 124, 128
-0.981852, 341, 161, 372, 224
-0.981868, 101, 113, 132, 240
-0.981874, 353, 385, 480, 448
-0.981912, 305, 289, 432, 352
-0.981954, 197, 329, 228, 392
-0.981985, 85, 1, 116, 64
-0.982013, 253, 225, 284, 352
-0.982067, 397, 225, 428, 288
-0.982074, 57, 1, 120, 448
-0.982123, 97, 25, 224, 88
-0.982129, 305, 353, 336, 416
-0.982157, 185, 217, 216, 280
-0.982208, 277, 169, 308, 232
-0.98222, 261, 321, 292, 384
-0.982244, 321, 153, 448, 216
-0.982249, 421, 209, 452, 336
-0.982277, 81, 145, 112, 208
-0.982351, 69, 169, 100, 232
-0.982419, 129, 113, 160, 240
-0.982479, 177, 161, 208, 288
-0.982573, 369, 1, 496, 128
-0.982774, 145, 321, 176, 448
-0.982842, 237, 97, 268, 224
-0.982842, 365, 193, 396, 320
-0.982876, 269, 81, 300, 208
-0.982897, 185, 1, 248, 448
-0.983045, 353, 321, 480, 384
-0.983096, 357, 145, 388, 272
-0.983168, 241, 33, 368, 96
-0.983259, 369, 241, 496, 304
-0.983275, 197, 321, 228, 448
-0.983422, 49, 57, 176, 120
-0.98347, 113, 1, 176, 448
-0.983522, 33, 1, 64, 128
-0.983528, 229, 49, 260, 176
-0.983647, 49, 185, 176, 248
-0.983692, 69, 321, 100, 448
-0.983701, 17, 177, 48, 304
-0.983757, 325, 161, 356, 288
-0.983772, 333, 1, 364, 128
-0.983795, 309, 17, 340, 144
-0.983821, 117, 97, 148, 224
-0.984176, 317, 289, 348, 416
-0.984181, 409, 241, 440, 368
-0.984188, 261, 273, 292, 400
-0.984231, 285, 1, 316, 128
-0.984283, 33, 1, 96, 448
-0.984402, 393, 321, 456, 448
-0.984421, 305, 1, 432, 64
-0.984423, 33, 113, 64, 240
-0.984511, 349, 49, 380, 176
-0.984534, 289, 177, 416, 240
-0.984563, 317, 209, 348, 336
-0.984956, 229, 1, 260, 128
-0.985101, 177, 305, 208, 432
-0.985142, 301, 321, 332, 448
-0.985269, 337, 73, 464, 136
-0.985291, 385, 1, 448, 448
-0.985479, 233, 1, 296, 448
-0.985527, 409, 129, 472, 384
-0.985862, 209, 385, 336, 448
-0.986108, 209, 1, 272, 448
-0.986197, 113, 137, 240, 200
-0.986229, 25, 49, 88, 176
-0.986408, 89, 1, 152, 448
-0.986448, 209, 209, 336, 272
-0.987064, 313, 1, 376, 448
-0.98709, 97, 369, 224, 432
-0.987181, 193, 289, 320, 352
-0.987214, 345, 1, 408, 448
-0.987298, 97, 341, 160, 372
-0.987361, 225, 113, 480, 176
-0.987375, 97, 73, 352, 136
-0.987524, 409, 65, 472, 192
-0.987542, 65, 345, 320, 408
-0.987646, 385, 1, 448, 256
-0.987803, 97, 97, 352, 160
-0.987915, 337, 49, 464, 112
-0.9881, 225, 281, 480, 344
-0.988124, 185, 117, 248, 148
-0.988133, 97, 241, 352, 304
-0.988253, 129, 185, 256, 248
-0.988486, 225, 337, 480, 400
-0.988589, 65, 305, 320, 368
-0.988615, 1, 353, 500, 416
-0.98864, 17, 385, 80, 416
-0.98867, 89, 353, 152, 384
-0.988678, 217, 113, 280, 144
-0.98868, 265, 105, 328, 136
-0.988684, 273, 369, 336, 400
-0.988687, 225, 233, 480, 296
-0.988693, 257, 149, 320, 180
-0.988732, 129, 153, 384, 216
-0.98874, 337, 229, 400, 260
-0.988792, 209, 133, 272, 164
-0.988808, 129, 121, 384, 184
-0.98889, 297, 125, 360, 156
-0.988893, 1, 413, 64, 444
-0.988906, 25, 205, 88, 236
-0.988914, 329, 345, 392, 376
-0.988967, 169, 341, 232, 372
-0.988976, 97, 117, 160, 148
-0.988981, 281, 165, 344, 196
-0.988987, 273, 117, 336, 148
-0.989013, 265, 1, 328, 448
-0.989021, 1, 105, 500, 168
-0.989047, 297, 77, 360, 108
-0.989054, 225, 169, 288, 200
-0.989069, 321, 105, 384, 136
-0.989093, 313, 237, 376, 268
-0.989121, 25, 373, 88, 404
-0.989125, 305, 177, 368, 208
-0.98915, 161, 361, 288, 424
-0.989158, 169, 165, 232, 196
-0.989159, 1, 193, 256, 256
-0.989172, 241, 225, 304, 256
-0.989182, 433, 1, 496, 128
-0.989186, 289, 349, 352, 380
-0.989216, 137, 157, 200, 188
-0.989217, 433, 145, 496, 272
-0.989223, 137, 125, 200, 156
-0.989224, 249, 129, 312, 160
-0.989266, 265, 177, 328, 208
-0.989283, 121, 113, 184, 144
-0.989307, 121, 345, 184, 376
-0.98931, 41, 349, 104, 380
-0.989317, 313, 365, 376, 396
-0.989328, 193, 157, 256, 188
-0.989346, 49, 337, 112, 368
-0.98936, 281, 137, 344, 168
-0.989373, 321, 401, 384, 432
-0.98938, 1, 161, 256, 224
-0.989382, 369, 241, 432, 272
-0.989394, 1, 205, 64, 236
-0.9894, 89, 129, 152, 160
-0.989406, 1, 397, 64, 428
-0.989423, 161, 185, 416, 248
-0.989443, 145, 237, 208, 268
-0.989444, 121, 313, 184, 344
-0.989457, 1, 153, 64, 184
-0.989457, 129, 217, 384, 280
-0.989499, 25, 309, 88, 340
-0.989507, 329, 289, 392, 320
-0.989523, 1, 121, 256, 184
-0.989527, 233, 365, 296, 396
-0.989528, 1, 185, 64, 216
-0.98954, 265, 381, 328, 412
-0.989544, 353, 109, 416, 140
-0.989547, 161, 73, 224, 104
-0.989557, 337, 217, 400, 248
-0.989594, 193, 89, 448, 152
-0.989615, 393, 273, 456, 304
-0.989635, 161, 121, 224, 152
-0.98964, 225, 369, 480, 432
-0.989715, 1, 9, 64, 40
-0.989728, 193, 105, 256, 136
-0.989741, 297, 225, 360, 256
-0.989757, 313, 377, 376, 408
-0.989801, 49, 413, 112, 444
-0.989804, 313, 165, 376, 196
-0.989828, 289, 389, 352, 420
-0.989836, 337, 249, 400, 280
-0.989842, 281, 413, 344, 444
-0.989842, 353, 1, 480, 64
-0.989851, 33, 169, 96, 200
-0.989859, 337, 205, 400, 236
-0.989879, 217, 49, 280, 80
-0.989889, 209, 145, 272, 176
-0.989901, 97, 241, 160, 272
-0.98991, 289, 401, 352, 432
-0.989939, 297, 249, 360, 280
-0.989954, 1, 261, 64, 292
-0.989954, 25, 189, 88, 220
-0.989958, 49, 25, 176, 88
-0.989973, 1, 385, 500, 448
-0.989975, 361, 285, 424, 316
-0.989984, 33, 361, 96, 392
-0.990017, 265, 349, 328, 380
-0.990027, 289, 269, 352, 300
-0.99003, 345, 373, 408, 404
-0.99005, 289, 33, 416, 96
-0.990052, 9, 337, 72, 368
-0.990059, 1, 217, 64, 248
-0.990072, 313, 149, 376, 180
-0.990085, 57, 389, 120, 420
-0.99009, 129, 357, 192, 388
-0.990102, 1, 277, 64, 308
-0.990103, 1, 265, 256, 328
-0.990108, 369, 229, 432, 260
-0.99011, 1, 133, 64, 164
-0.990111, 201, 65, 264, 96
-0.990119, 329, 117, 392, 148
-0.990126, 329, 269, 392, 300
-0.990149, 145, 93, 208, 124
-0.990153, 369, 217, 432, 248
-0.990168, 225, 209, 480, 272
-0.990176, 97, 329, 160, 360
-0.990183, 433, 97, 496, 224
-0.990216, 161, 217, 224, 248
-0.990222, 169, 153, 232, 184
-0.990236, 25, 325, 88, 356
-0.99024, 65, 125, 128, 156
-0.990249, 1, 289, 64, 320
-0.990255, 185, 129, 248, 160
-0.990259, 313, 93, 376, 124
-0.990279, 425, 289, 488, 416
-0.990288, 121, 237, 184, 268
-0.990292, 145, 109, 208, 140
-0.990303, 329, 413, 392, 444
-0.990305, 1, 349, 64, 380
-0.990325, 273, 233, 336, 264
-0.990325, 57, 325, 120, 356
-0.990355, 257, 161, 320, 192
-0.990372, 153, 197, 216, 228
-0.99038, 1, 301, 64, 332
-0.990384, 337, 333, 400, 364
-0.990402, 225, 157, 288, 188
-0.990402, 1, 165, 64, 196
-0.990417, 257, 265, 320, 296
-0.990438, 313, 209, 376, 240
-0.990438, 257, 57, 320, 88
-0.990467, 1, 249, 64, 280
-0.99049, 1, 25, 64, 56
-0.990516, 1, 97, 64, 128
-0.990525, 97, 141, 160, 172
-0.990533, 297, 113, 360, 144
-0.990553, 369, 253, 432, 284
-0.990555, 177, 241, 240, 272
-0.990558, 25, 401, 88, 432
-0.990568, 217, 237, 280, 268
-0.990582, 185, 89, 248, 120
-0.990595, 193, 257, 448, 320
-0.990616, 49, 137, 112, 168
-0.990618, 81, 365, 144, 396
-0.990628, 337, 357, 400, 388
-0.990651, 129, 273, 192, 304
-0.990658, 313, 389, 376, 420
-0.99074, 161, 49, 416, 112
-0.990831, 1, 217, 256, 280
-0.990876, 161, 313, 416, 376
-0.990965, 257, 305, 500, 368
-0.990974, 345, 1, 408, 256
-0.991333, 257, 161, 500, 224
-0.991384, 97, 1, 352, 64
-0.991408, 409, 1, 472, 448
-0.991454, 1, 241, 256, 304
-0.991536, 1, 129, 500, 192
-0.991622, 33, 353, 160, 384
-0.991693, 1, 1, 256, 64
-0.991828, 1, 389, 128, 420
-0.991855, 209, 125, 336, 156
-0.991903, 369, 105, 496, 168
-0.991977, 205, 157, 236, 188
-0.991998, 257, 381, 384, 412
-0.992067, 281, 261, 312, 292
-0.992072, 201, 113, 232, 144
-0.992105, 281, 125, 312, 156
-0.992111, 313, 117, 344, 148
-0.992113, 165, 237, 196, 268
-0.992143, 129, 117, 160, 148
-0.992148, 121, 341, 152, 372
-0.992166, 349, 113, 380, 144
-0.992173, 1, 97, 256, 160
-0.992242, 141, 345, 172, 376
-0.992267, 5, 197, 36, 228
-0.992281, 333, 349, 364, 380
-0.992294, 129, 309, 160, 340
-0.992299, 293, 161, 324, 192
-0.992301, 337, 121, 368, 152
-0.992307, 257, 365, 288, 396
-0.992313, 217, 121, 248, 152
-0.992318, 161, 121, 192, 152
-0.992319, 81, 237, 208, 268
-0.992337, 309, 105, 340, 136
-0.992339, 349, 241, 380, 272
-0.992348, 237, 113, 268, 144
-0.99235, 65, 377, 320, 440
-0.992359, 81, 133, 112, 164
-0.99237, 277, 153, 308, 184
-0.992374, 333, 361, 364, 392
-0.992382, 97, 273, 352, 336
-0.992395, 165, 157, 196, 188
-0.992396, 5, 173, 36, 204
-0.992401, 9, 209, 40, 240
-0.992404, 177, 237, 208, 268
-0.992414, 305, 169, 336, 200
-0.992415, 345, 293, 376, 324
-0.99242, 357, 209, 388, 240
-0.992425, 225, 137, 480, 200
-0.992427, 261, 125, 292, 156
-0.992431, 349, 133, 380, 164
-0.992433, 9, 9, 40, 40
-0.992434, 277, 173, 308, 204
-0.992437, 297, 137, 328, 168
-0.992444, 277, 417, 308, 448
-0.992445, 249, 233, 280, 264
-0.992446, 289, 109, 320, 140
-0.992449, 5, 417, 36, 448
-0.992456, 141, 113, 172, 144
-0.992457, 5, 397, 36, 428
-0.992469, 197, 337, 228, 368
-0.992479, 229, 133, 260, 164
-0.992481, 217, 101, 248, 132
-0.992482, 349, 101, 380, 132
-0.992486, 345, 253, 376, 284
-0.992489, 213, 145, 244, 176
-0.992498, 153, 241, 184, 272
-0.992502, 53, 309, 84, 340
-0.992503, 281, 369, 312, 400
-0.992503, 25, 381, 56, 412
-0.992519, 301, 121, 332, 152
-0.992521, 17, 377, 144, 408
-0.992523, 277, 353, 308, 384
-0.992536, 365, 113, 396, 144
-0.992538, 309, 61, 340, 92
-0.992539, 345, 229, 376, 260
-0.99254, 153, 161, 184, 192
-0.992548, 157, 273, 188, 304
-0.99255, 261, 229, 292, 260
-0.992551, 1, 81, 500, 144
-0.992573, 337, 265, 368, 296
-0.992581, 49, 205, 80, 236
-0.992583, 321, 349, 352, 380
-0.992584, 361, 233, 392, 264
-0.992585, 241, 45, 272, 76
-0.992586, 317, 177, 348, 208
-0.992591, 57, 337, 88, 368
-0.992592, 321, 73, 352, 104
-0.992593, 349, 313, 380, 344
-0.992596, 145, 297, 176, 328
-0.992604, 101, 237, 132, 268
-0.992607, 193, 165, 224, 196
-0.992608, 249, 221, 280, 252
-0.99261, 193, 109, 320, 140
-0.992614, 117, 117, 148, 148
-0.992615, 37, 201, 68, 232
-0.992618, 97, 125, 128, 156
-0.992619, 249, 113, 280, 144
-0.992621, 273, 105, 304, 136
-0.992636, 229, 49, 260, 80
-0.992637, 117, 329, 148, 360
-0.992638, 141, 129, 172, 160
-0.99264, 365, 289, 396, 320
-0.992642, 1, 273, 500, 336
-0.992646, 273, 125, 400, 156
-0.992648, 49, 349, 80, 380
-0.992652, 337, 161, 368, 192
-0.992653, 177, 113, 208, 144
-0.992658, 269, 137, 300, 168
-0.99266, 357, 221, 388, 252
-0.992666, 105, 329, 136, 360
-0.992669, 329, 173, 360, 204
-0.992671, 337, 217, 368, 248
-0.992672, 265, 53, 296, 84
-0.992675, 5, 185, 36, 216
-0.992675, 17, 397, 48, 428
-0.992676, 9, 29, 40, 60
-0.992676, 301, 225, 332, 256
-0.992676, 329, 245, 360, 276
-0.992682, 1, 161, 500, 224
-0.992682, 293, 173, 324, 204
-0.992684, 33, 25, 288, 88
-0.992685, 257, 169, 288, 200
-0.99269, 97, 113, 128, 144
-0.9927, 349, 329, 380, 360
-0.992702, 273, 229, 304, 260
-0.992705, 41, 361, 72, 392
-0.992715, 325, 373, 356, 404
-0.992717, 173, 249, 204, 280
-0.99272, 361, 253, 392, 284
-0.99272, 5, 129, 36, 160
-0.992724, 57, 173, 88, 204
-0.992732, 325, 225, 356, 256
-0.992735, 213, 133, 244, 164
-0.99274, 205, 81, 236, 112
-0.992743, 21, 205, 52, 236
-0.992744, 225, 145, 256, 176
-0.992744, 5, 157, 36, 188
-0.992744, 285, 329, 316, 360
-0.992746, 289, 85, 320, 116
-0.992746, 337, 281, 368, 312
-0.992756, 261, 401, 292, 432
-0.992757, 169, 217, 200, 248
-0.992762, 289, 225, 320, 256
-0.992767, 157, 77, 188, 108
-0.992773, 325, 105, 356, 136
-0.992773, 277, 385, 308, 416
-0.992781, 317, 165, 348, 196
-0.992784, 53, 409, 84, 440
-0.992785, 297, 137, 312, 200
-0.992786, 337, 149, 368, 180
-0.99279, 169, 193, 200, 224
-0.992793, 249, 145, 280, 176
-0.992793, 169, 209, 184, 272
-0.992803, 401, 277, 432, 308
-0.992804, 181, 161, 212, 192
-0.992805, 5, 225, 36, 256
-0.992821, 257, 417, 384, 448
-0.992836, 355, 97, 370, 160
-0.992848, 1, 1, 500, 64
-0.992873, 17, 365, 144, 396
-0.992888, 257, 89, 384, 120
-0.992894, 129, 345, 256, 376
-0.992921, 1, 73, 256, 136
-0.993007, 129, 77, 256, 108
-0.993008, 1, 329, 500, 392
-0.993105, 1, 241, 500, 304
-0.993116, 369, 169, 496, 232
-0.993154, 193, 69, 320, 100
-0.993154, 225, 1, 480, 64
-0.993166, 209, 169, 336, 200
-0.993171, 33, 337, 160, 368
-0.993172, 257, 185, 500, 248
-0.993212, 257, 229, 384, 260
-0.993267, 165, 233, 180, 296
-0.993279, 1, 409, 128, 440
-0.993305, 285, 233, 300, 296
-0.993318, 321, 117, 448, 148
-0.993327, 353, 217, 368, 280
-0.99333, 241, 113, 368, 144
-0.993371, 303, 121, 318, 184
-0.993374, 227, 89, 242, 152
-0.993403, 271, 361, 286, 424
-0.993421, 425, 33, 488, 288
-0.993483, 193, 337, 320, 368
-0.9935, 409, 1, 472, 128
-0.993503, 257, 357, 384, 388
-0.993513, 129, 313, 144, 376
-0.99352, 113, 121, 240, 152
-0.993528, 9, 177, 24, 240
-0.993561, 321, 253, 448, 284
-0.993578, 97, 105, 112, 168
-0.993593, 1, 257, 128, 288
-0.993606, 331, 353, 346, 416
-0.993621, 273, 345, 400, 376
-0.993647, 273, 241, 400, 272
-0.99365, 291, 257, 306, 320
-0.993654, 65, 125, 192, 156
-0.993669, 353, 241, 480, 272
-0.993675, 257, 137, 384, 168
-0.993677, 1, 245, 128, 276
-0.993678, 129, 89, 256, 120
-0.993699, 353, 281, 480, 312
-0.993726, 9, 1, 24, 64
-0.993742, 219, 113, 234, 176
-0.993748, 1, 201, 128, 232
-0.993762, 97, 109, 224, 140
-0.993771, 129, 157, 256, 188
-0.993781, 293, 81, 308, 144
-0.993784, 213, 113, 228, 176
-0.993789, 9, 273, 24, 336
-0.993802, 321, 225, 448, 256
-0.993805, 139, 305, 154, 368
-0.993811, 157, 129, 172, 192
-0.993822, 309, 161, 324, 224
-0.993836, 147, 121, 162, 184
-0.993848, 1, 297, 500, 360
-0.993852, 291, 105, 306, 168
-0.993866, 273, 385, 288, 448
-0.993874, 353, 185, 368, 248
-0.993902, 257, 101, 384, 132
-0.993924, 275, 225, 290, 288
-0.993925, 81, 249, 208, 280
-0.993941, 161, 173, 288, 204
-0.993955, 343, 265, 358, 328
-0.993964, 151, 273, 166, 336
-0.993993, 173, 113, 188, 176
-0.993995, 161, 221, 288, 252
-0.994004, 139, 337, 154, 400
-0.994013, 33, 141, 160, 172
-0.99402, 285, 89, 300, 152
-0.994022, 257, 369, 384, 400
-0.994024, 81, 349, 208, 380
-0.994035, 289, 213, 416, 244
-0.994038, 301, 161, 316, 224
-0.994039, 13, 217, 28, 280
-0.994055, 153, 89, 168, 152
-0.994057, 291, 153, 306, 216
-0.994063, 1, 49, 256, 112
-0.994063, 257, 169, 384, 200
-0.994097, 321, 265, 448, 296
-0.994118, 69, 385, 84, 448
-0.994127, 209, 97, 336, 128
-0.994142, 279, 137, 294, 200
-0.994148, 209, 145, 336, 176
-0.994155, 345, 81, 360, 144
-0.994171, 353, 145, 368, 208
-0.994172, 285, 145, 300, 208
-0.994177, 237, 105, 252, 168
-0.994202, 343, 289, 358, 352
-0.994202, 1, 185, 500, 248
-0.994205, 113, 133, 240, 164
-0.994207, 161, 121, 288, 152
-0.99421, 337, 137, 464, 168
-0.994222, 209, 73, 224, 136
-0.994231, 113, 301, 240, 332
-0.994233, 303, 81, 318, 144
-0.994239, 145, 237, 272, 268
-0.99424, 291, 129, 306, 192
-0.994252, 259, 105, 274, 168
-0.994258, 353, 205, 480, 236
-0.994268, 257, 157, 384, 188
-0.994273, 273, 105, 288, 168
-0.994302, 305, 105, 432, 136
-0.994312, 1, 169, 128, 200
-0.994318, 257, 393, 384, 424
-0.994345, 39, 369, 54, 432
-0.994348, 297, 113, 312, 176
-0.994354, 365, 105, 380, 168
-0.994377, 209, 157, 336, 188
-0.994388, 249, 113, 264, 176
-0.994393, 159, 233, 174, 296
-0.994408, 217, 81, 232, 144
-0.99441, 75, 377, 90, 440
-0.994415, 167, 113, 182, 176
-0.994436, 225, 129, 240, 192
-0.99446, 363, 249, 378, 312
-0.994469, 145, 305, 160, 368
-0.994471, 285, 97, 316, 352
-0.994499, 305, 289, 432, 320
-0.99452, 269, 153, 284, 216
-0.994538, 177, 233, 192, 296
-0.994558, 67, 1, 82, 64
-0.994564, 47, 353, 62, 416
-0.994567, 139, 273, 154, 336
-0.994571, 345, 337, 360, 400
-0.994573, 343, 113, 358, 176
-0.994577, 311, 73, 326, 136
-0.994581, 145, 105, 272, 136
-0.994597, 157, 273, 172, 336
-0.994606, 347, 225, 362, 288
-0.994634, 257, 65, 500, 128
-0.994638, 225, 273, 352, 304
-0.994672, 313, 113, 328, 176
-0.994684, 1, 57, 500, 120
-0.994689, 255, 225, 270, 288
-0.994693, 103, 113, 118, 176
-0.994721, 273, 329, 400, 360
-0.994723, 21, 193, 36, 256
-0.994726, 81, 337, 208, 368
-0.994739, 219, 145, 234, 208
-0.994742, 31, 369, 46, 432
-0.994744, 63, 385, 78, 448
-0.994745, 285, 121, 300, 184
-0.994752, 355, 249, 370, 312
-0.994756, 291, 233, 306, 296
-0.994781, 319, 57, 334, 120
-0.994786, 91, 121, 106, 184
-0.994788, 53, 345, 68, 408
-0.994794, 147, 97, 162, 160
-0.994797, 343, 313, 358, 376
-0.994804, 1, 9, 128, 40
-0.994808, 159, 153, 174, 216
-0.994812, 267, 321, 282, 384
-0.994819, 51, 169, 66, 232
-0.994832, 361, 289, 376, 352
-0.994885, 19, 305, 34, 368
-0.994885, 305, 373, 432, 404
-0.994903, 257, 309, 384, 340
-0.99491, 171, 233, 186, 296
-0.994919, 175, 209, 190, 272
-0.99492, 73, 1, 88, 64
-0.994922, 281, 337, 296, 400
-0.994927, 265, 113, 280, 176
-0.994932, 185, 209, 200, 272
-0.994933, 355, 121, 370, 184
-0.994944, 1, 157, 128, 188
-0.994949, 67, 305, 82, 368
-0.994953, 257, 41, 500, 104
-0.99496, 1, 213, 128, 244
-0.994962, 293, 329, 308, 392
-0.994967, 265, 361, 280, 424
-0.994974, 193, 57, 320, 88
-0.994976, 81, 225, 208, 256
-0.994984, 61, 305, 76, 368
-0.994988, 327, 1, 342, 64
-0.995003, 183, 233, 198, 296
-0.995003, 209, 349, 336, 380
-0.995013, 193, 129, 208, 192
-0.995015, 277, 193, 308, 448
-0.995033, 325, 337, 340, 400
-0.995035, 167, 273, 182, 336
-0.995051, 45, 161, 60, 224
-0.995063, 55, 305, 70, 368
-0.995064, 305, 385, 432, 416
-0.99507, 33, 325, 160, 356
-0.995072, 203, 105, 218, 168
-0.995074, 111, 1, 126, 64
-0.995107, 155, 49, 170, 112
-0.995117, 33, 313, 160, 344
-0.995125, 215, 49, 230, 112
-0.995134, 213, 1, 228, 64
-0.995136, 353, 193, 480, 224
-0.995138, 293, 353, 308, 416
-0.995141, 337, 337, 352, 400
-0.995144, 259, 361, 274, 424
-0.995145, 279, 377, 294, 440
-0.995147, 17, 125, 144, 156
-0.995156, 305, 401, 432, 432
-0.995176, 325, 369, 340, 432
-0.99518, 67, 169, 82, 232
-0.995182, 193, 325, 320, 356
-0.995182, 81, 161, 208, 192
-0.995193, 1, 181, 128, 212
-0.995201, 305, 413, 432, 444
-0.995202, 349, 281, 364, 344
-0.995207, 161, 305, 288, 336
-0.995219, 25, 305, 40, 368
-0.995224, 329, 33, 360, 288
-0.995228, 273, 261, 400, 292
-0.995228, 1, 229, 128, 260
-0.995253, 285, 257, 300, 320
-0.995254, 369, 281, 384, 344
-0.995255, 209, 225, 336, 256
-0.995256, 19, 385, 34, 448
-0.995258, 167, 153, 182, 216
-0.995261, 241, 185, 368, 216
-0.995269, 319, 1, 334, 64
-0.995277, 305, 361, 432, 392
-0.995279, 137, 1, 152, 64
-0.995283, 319, 81, 334, 144
-0.995284, 225, 9, 352, 40
-0.995297, 243, 113, 258, 176
-0.9953, 171, 185, 186, 248
-0.995306, 331, 129, 346, 192
-0.995311, 49, 113, 176, 144
-0.995325, 209, 85, 336, 116
-0.995327, 97, 325, 224, 356
-0.995334, 161, 45, 288, 76
-0.995337, 65, 297, 192, 328
-0.995364, 257, 77, 384, 108
-0.995372, 433, 1, 496, 448
-0.99543, 273, 277, 400, 308
-0.995431, 209, 365, 336, 396
-0.995454, 49, 389, 176, 420
-0.995463, 153, 193, 184, 448
-0.995476, 1, 269, 128, 300
-0.995526, 149, 65, 180, 320
-0.995536, 161, 209, 288, 240
-0.995539, 65, 369, 192, 400
-0.995566, 129, 25, 384, 88
-0.995568, 177, 13, 304, 44
-0.995609, 353, 293, 480, 324
-0.995631, 337, 25, 464, 88
-0.995637, 433, 241, 496, 368
-0.995655, 145, 357, 272, 388
-0.995656, 1, 69, 128, 100
-0.995674, 273, 1, 304, 256
-0.995675, 97, 313, 224, 344
-0.995699, 201, 33, 232, 288
-0.995705, 257, 405, 384, 436
-0.995735, 293, 1, 324, 256
-0.995736, 65, 81, 192, 112
-0.995738, 177, 189, 304, 220
-0.995739, 1, 25, 128, 56
-0.995744, 169, 65, 200, 320
-0.995771, 329, 193, 360, 448
-0.995781, 97, 13, 224, 44
-0.99579, 305, 1, 336, 256
-0.995791, 241, 61, 368, 92
-0.995804, 337, 153, 464, 184
-0.995834, 161, 133, 288, 164
-0.995834, 125, 193, 156, 448
-0.995849, 1, 113, 128, 144
-0.995854, 1, 217, 500, 280
-0.995873, 165, 193, 196, 448
-0.995877, 181, 1, 212, 256
-0.995903, 49, 401, 176, 432
-0.995908, 345, 129, 376, 384
-0.99591, 97, 25, 224, 56
-0.99595, 21, 161, 52, 416
-0.99597, 129, 249, 256, 280
-0.996007, 81, 273, 208, 304
-0.996013, 1, 289, 128, 320
-0.996024, 265, 129, 296, 384
-0.996026, 113, 193, 144, 448
-0.996029, 209, 241, 336, 272
-0.996071, 129, 65, 256, 96
-0.996092, 53, 161, 84, 416
-0.996099, 305, 169, 432, 200
-0.99612, 297, 129, 328, 384
-0.996129, 129, 145, 256, 176
-0.99613, 49, 261, 176, 292
-0.996131, 237, 193, 268, 448
-0.996141, 81, 149, 208, 180
-0.996172, 353, 349, 480, 380
-0.996177, 33, 193, 64, 448
-0.996193, 113, 289, 240, 320
-0.996205, 57, 33, 88, 288
-0.996238, 17, 41, 144, 72
-0.996246, 433, 49, 496, 176
-0.996261, 373, 193, 404, 448
-0.996276, 5, 33, 36, 288
-0.996371, 253, 193, 284, 448
-0.99646, 141, 193, 172, 448
-0.996467, 185, 97, 216, 352
-0.996478, 421, 97, 452, 352
-0.996521, 309, 169, 324, 200
-0.996566, 283, 413, 298, 444
-0.996577, 9, 161, 40, 416
-0.996616, 221, 97, 252, 352
-0.996624, 357, 65, 388, 320
-0.996641, 357, 193, 388, 448
-0.996707, 185, 193, 216, 448
-0.996714, 291, 261, 306, 292
-0.996727, 41, 97, 72, 352
-0.996742, 81, 65, 112, 320
-0.996803, 433, 193, 496, 320
-0.99687, 335, 349, 350, 380
-0.996912, 351, 221, 366, 252
-0.996925, 165, 237, 180, 268
-0.996937, 317, 65, 348, 320
-0.99698, 303, 137, 318, 168
-0.996998, 385, 97, 416, 352
-0.997, 225, 193, 256, 448
-0.997018, 185, 237, 200, 268
-0.997033, 175, 157, 190, 188
-0.997034, 9, 405, 24, 436
-0.997039, 69, 65, 100, 320
-0.997068, 341, 345, 356, 376
-0.99707, 143, 305, 158, 336
-0.997074, 353, 133, 368, 164
-0.997075, 249, 97, 280, 352
-0.997078, 47, 365, 62, 396
-0.997083, 341, 289, 356, 320
-0.997096, 201, 129, 232, 384
-0.997113, 9, 173, 24, 204
-0.997114, 351, 233, 366, 264
-0.997119, 137, 33, 168, 288
-0.997127, 273, 389, 288, 420
-0.997128, 363, 105, 378, 136
-0.997135, 53, 413, 68, 444
-0.997135, 397, 193, 428, 448
-0.997145, 117, 329, 132, 360
-0.997162, 213, 145, 228, 176
-0.997168, 213, 1, 244, 256
-0.997171, 245, 1, 276, 256
-0.997173, 319, 105, 334, 136
-0.997176, 169, 121, 184, 152
-0.997204, 341, 33, 372, 288
-0.997205, 313, 105, 328, 136
-0.997206, 29, 381, 44, 412
-0.99721, 273, 109, 288, 140
-0.997213, 355, 121, 370, 152
-0.997214, 347, 253, 362, 284
-0.997221, 283, 141, 298, 172
-0.997227, 303, 117, 318, 148
-0.997229, 55, 349, 70, 380
-0.997235, 135, 309, 150, 340
-0.99725, 255, 53, 270, 84
-0.997258, 143, 345, 158, 376
-0.997269, 9, 161, 24, 192
-0.997278, 319, 61, 334, 92
-0.997279, 219, 153, 234, 184
-0.997287, 261, 113, 276, 144
-0.997291, 355, 97, 370, 128
-0.997292, 135, 117, 150, 148
-0.99731, 315, 177, 330, 208
-0.99731, 9, 417, 24, 448
-0.997313, 141, 117, 156, 148
-0.997319, 347, 293, 362, 324
-0.997322, 255, 225, 270, 256
-0.997331, 329, 373, 344, 404
-0.997332, 317, 193, 348, 448
-0.997341, 221, 129, 236, 160
-0.997351, 205, 153, 220, 184
-0.997356, 209, 337, 224, 368
-0.997357, 167, 153, 182, 184
-0.997368, 323, 169, 338, 200
-0.99737, 271, 121, 286, 152
-0.997371, 285, 261, 300, 292
-0.997378, 315, 117, 330, 148
-0.997382, 9, 289, 24, 320
-0.997402, 355, 245, 370, 276
-0.99741, 291, 153, 306, 184
-0.997419, 211, 157, 226, 188
-0.997429, 65, 161, 96, 416
-0.997432, 225, 1, 256, 256
-0.997436, 159, 157, 174, 188
-0.997439, 275, 229, 290, 260
-0.997443, 179, 237, 194, 268
-0.997445, 101, 193, 132, 448
-0.997464, 93, 1, 124, 256
-0.997467, 271, 361, 286, 392
-0.997468, 9, 185, 24, 216
-0.997473, 61, 337, 76, 368
-0.997473, 19, 393, 34, 424
-0.997483, 239, 45, 254, 76
-0.997495, 67, 329, 82, 360
-0.997503, 325, 117, 340, 148
-0.997504, 91, 133, 106, 164
-0.997506, 41, 373, 56, 404
-0.997508, 9, 9, 24, 40
-0.997511, 171, 237, 186, 268
-0.997516, 129, 337, 144, 368
-0.997517, 237, 113, 252, 144
-0.99752, 329, 349, 344, 380
-0.997521, 293, 89, 308, 120
-0.997526, 347, 333, 362, 364
-0.997535, 327, 361, 342, 392
-0.997537, 217, 117, 232, 148
-0.997539, 385, 193, 416, 448
-0.997542, 61, 205, 76, 236
-0.997548, 221, 141, 236, 172
-0.997551, 365, 117, 380, 148
-0.997561, 297, 261, 312, 292
-0.997561, 355, 197, 370, 228
-0.997574, 135, 365, 150, 396
-0.997575, 277, 405, 292, 436
-0.997587, 397, 97, 428, 352
-0.997588, 213, 193, 244, 448
-0.997588, 261, 53, 276, 84
-0.997588, 345, 113, 360, 144
-0.997589, 97, 125, 112, 156
-0.99759, 227, 169, 242, 200
-0.997593, 325, 101, 340, 132
-0.997596, 123, 321, 138, 352
-0.9976, 299, 157, 314, 188
-0.9976, 97, 113, 112, 144
-0.997613, 269, 233, 284, 264
-0.997617, 163, 273, 178, 304
-0.997618, 147, 113, 162, 144
-0.997618, 17, 169, 32, 200
-0.997618, 149, 297, 164, 328
-0.997619, 135, 341, 150, 372
-0.99762, 291, 129, 306, 160
-0.997623, 9, 205, 24, 236
-0.997628, 317, 165, 332, 196
-0.997633, 353, 173, 368, 204
-0.997634, 229, 49, 244, 80
-0.997634, 433, 161, 496, 416
-0.997637, 345, 321, 360, 352
-0.997639, 191, 237, 206, 268
-0.997646, 291, 333, 306, 364
-0.997647, 289, 413, 304, 444
-0.997649, 339, 265, 354, 296
-0.997653, 171, 193, 186, 224
-0.997664, 251, 113, 266, 144
-0.997664, 267, 389, 282, 420
-0.997673, 215, 65, 230, 96
-0.997675, 233, 97, 264, 352
-0.997677, 277, 177, 292, 208
-0.997686, 297, 145, 312, 176
-0.997693, 281, 105, 296, 136
-0.997703, 105, 33, 136, 288
-0.997705, 33, 213, 48, 244
-0.997707, 261, 233, 276, 264
-0.997711, 49, 349, 64, 380
-0.997712, 171, 217, 186, 248
-0.997715, 169, 273, 184, 304
-0.997717, 337, 301, 352, 332
-0.997723, 35, 373, 50, 404
-0.99773, 209, 73, 224, 104
-0.997732, 163, 253, 178, 284
-0.997734, 353, 209, 368, 240
-0.997735, 261, 129, 276, 160
-0.997739, 111, 337, 126, 368
-0.997983, 261, 1, 292, 256
-0.998115, 413, 193, 444, 448
-0.998182, 1, 33, 500, 96
-0.998201, 93, 97, 124, 352
-0.998202, 17, 65, 48, 320
-0.998224, 369, 97, 400, 352
-0.998233, 409, 97, 440, 352
-0.998283, 125, 97, 156, 352
-0.99833, 97, 345, 160, 360
-0.998378, 289, 123, 352, 138
-0.998381, 129, 351, 192, 366
-0.998392, 161, 159, 224, 174
-0.998403, 273, 117, 336, 132
-0.998407, 89, 353, 152, 368
-0.998407, 177, 121, 240, 136
-0.99841, 297, 81, 360, 96
-0.998414, 265, 129, 328, 144
-0.998416, 155, 81, 170, 208
-0.998418, 241, 235, 304, 250
-0.99842, 329, 345, 392, 360
-0.998421, 1, 425, 64, 440
-0.998422, 211, 65, 226, 192
-0.998422, 153, 127, 216, 142
-0.998426, 97, 121, 160, 136
-0.998428, 89, 137, 152, 152
-0.998429, 169, 349, 232, 364
-0.998431, 265, 183, 328, 198
-0.998431, 25, 205, 88, 220
-0.998432, 169, 165, 232, 180
-0.998436, 265, 123, 328, 138
-0.998437, 17, 393, 80, 408
-0.998441, 185, 127, 248, 142
-0.998442, 353, 81, 368, 208
-0.998443, 169, 113, 184, 240
-0.998444, 329, 371, 392, 386
-0.998445, 297, 129, 360, 144
-0.998447, 89, 127, 152, 142
-0.998448, 153, 241, 216, 256
-0.99845, 257, 393, 320, 408
-0.998451, 137, 161, 200, 176
-0.998452, 297, 235, 360, 250
-0.998452, 175, 113, 190, 240
-0.998452, 249, 143, 312, 158
-0.998456, 265, 427, 328, 442
-0.998459, 273, 135, 336, 150
-0.998459, 313, 177, 376, 192
-0.99846, 223, 81, 238, 208
-0.99846, 225, 133, 288, 148
-0.998461, 361, 113, 424, 128
-0.998462, 289, 173, 352, 188
-0.998462, 257, 365, 320, 380
-0.998464, 337, 239, 400, 254
-0.998464, 161, 75, 224, 90
-0.998464, 129, 129, 192, 144
-0.998465, 265, 111, 328, 126
-0.998465, 337, 231, 400, 246
-0.998467, 121, 315, 184, 330
-0.998467, 25, 381, 88, 396
-0.998469, 185, 159, 248, 174
-0.99847, 1, 217, 64, 232
-0.998471, 41, 359, 104, 374
-0.998472, 321, 363, 384, 378
-0.998473, 273, 375, 336, 390
-0.998474, 233, 367, 296, 382
-0.998474, 321, 401, 384, 416
-0.998475, 273, 383, 336, 398
-0.998476, 97, 339, 160, 354
-0.998479, 265, 9, 328, 24
-0.998479, 321, 121, 384, 136
-0.998479, 313, 381, 376, 396
-0.99848, 25, 387, 88, 402
-0.998481, 337, 225, 400, 240
-0.998482, 421, 1, 452, 256
-0.998483, 33, 369, 96, 384
-0.998483, 297, 139, 360, 154
-0.998484, 289, 355, 352, 370
-0.998485, 337, 247, 400, 262
-0.998485, 25, 311, 88, 326
-0.998486, 1, 151, 64, 166
-0.998486, 321, 351, 384, 366
-0.998486, 249, 115, 280, 130
-0.998486, 329, 171, 360, 186
-0.998486, 1, 9, 64, 24
-0.998487, 281, 117, 312, 132
-0.998488, 297, 361, 360, 376
-0.998488, 225, 57, 256, 72
-0.998488, 273, 9, 304, 24
-0.998489, 217, 123, 280, 138
-0.998489, 377, 109, 408, 124
-0.998489, 9, 341, 72, 356
-0.99849, 5, 217, 36, 232
-0.99849, 289, 237, 320, 252
-0.99849, 321, 295, 384, 310
-0.99849, 61, 339, 92, 354
-0.998491, 41, 371, 72, 386
-0.998491, 365, 113, 396, 128
-0.998491, 5, 51, 36, 66
-0.998491, 313, 101, 376, 116
-0.998491, 257, 159, 320, 174
-0.998491, 197, 113, 228, 128
-0.998491, 137, 357, 200, 372
-0.998492, 313, 227, 376, 242
-0.998493, 69, 9, 100, 24
-0.998493, 209, 139, 240, 154
-0.998494, 257, 169, 288, 184
-0.998494, 97, 111, 160, 126
-0.998494, 357, 219, 388, 234
-0.998494, 393, 279, 456, 294
-0.998495, 161, 131, 192, 146
-0.998495, 193, 113, 256, 128
-0.998496, 345, 245, 376, 260
-0.998496, 97, 121, 128, 136
-0.998496, 5, 417, 36, 432
-0.998497, 281, 377, 312, 392
-0.998497, 121, 123, 184, 138
-0.998497, 29, 381, 60, 396
-0.998497, 273, 165, 336, 180
-0.998497, 37, 349, 68, 364
-0.998498, 277, 361, 308, 376
-0.998498, 21, 389, 52, 404
-0.998499, 273, 229, 336, 244
-0.998499, 313, 241, 376, 256
-0.9985, 145, 315, 176, 330
-0.9985, 241, 47, 272, 62
-0.998501, 281, 267, 344, 282
-0.998501, 293, 151, 324, 166
-0.998501, 329, 427, 392, 442
-0.998502, 143, 273, 158, 400
-0.998502, 177, 305, 240, 320
-0.998502, 1, 305, 64, 320
-0.998503, 1, 195, 64, 210
-0.998504, 337, 207, 400, 222
-0.998505, 313, 113, 376, 128
-0.998505, 289, 395, 352, 410
-0.998505, 17, 397, 48, 412
-0.998505, 225, 115, 288, 130
-0.998505, 369, 249, 432, 264
-0.998505, 349, 225, 380, 240
-0.998505, 105, 241, 136, 256
-0.998506, 41, 203, 72, 218
-0.998506, 5, 31, 36, 46
-0.998506, 1, 355, 64, 370
-0.998506, 273, 107, 304, 122
-0.998507, 297, 367, 360, 382
-0.998508, 309, 69, 340, 84
-0.998508, 289, 423, 352, 438
-0.998508, 301, 129, 332, 144
-0.998509, 1, 203, 64, 218
-0.998509, 33, 175, 96, 190
-0.998509, 9, 399, 72, 414
-0.99851, 1, 157, 64, 172
-0.99851, 101, 347, 132, 362
-0.99851, 225, 181, 288, 196
-0.998511, 265, 149, 328, 164
-0.998511, 293, 117, 324, 132
-0.998511, 273, 141, 336, 156
-0.998512, 177, 123, 208, 138
-0.998512, 249, 59, 312, 74
-0.998512, 1, 163, 64, 178
-0.998512, 49, 425, 80, 440
-0.998512, 217, 65, 280, 80
-0.998513, 221, 125, 252, 140
-0.998514, 129, 309, 192, 324
-0.998514, 345, 273, 360, 400
-0.998514, 293, 9, 324, 24
-0.998514, 57, 397, 120, 412
-0.998515, 129, 345, 192, 360
-0.998515, 337, 219, 400, 234
-0.998515, 89, 359, 152, 374
-0.998515, 289, 349, 352, 364
-0.998515, 257, 129, 288, 144
-0.998515, 321, 289, 384, 304
-0.998515, 217, 133, 248, 148
-0.998515, 1, 187, 64, 202
-0.998515, 5, 167, 36, 182
-0.998516, 349, 251, 380, 266
-0.998516, 337, 253, 400, 268
-0.998516, 121, 117, 184, 132
-0.998517, 289, 401, 352, 416
-0.998517, 61, 173, 92, 188
-0.998517, 317, 181, 348, 196
-0.998517, 313, 389, 376, 404
-0.998518, 49, 347, 112, 362
-0.998518, 265, 105, 328, 120
-0.998518, 217, 51, 280, 66
-0.998519, 241, 153, 304, 168
-0.99852, 253, 227, 284, 242
-0.99852, 17, 415, 80, 430
-0.998521, 313, 171, 376, 186
-0.998521, 325, 295, 356, 310
-0.998521, 33, 375, 96, 390
-0.998521, 5, 405, 36, 420
-0.998521, 349, 135, 380, 150
-0.998521, 337, 213, 400, 228
-0.998522, 57, 337, 120, 352
-0.998523, 305, 183, 368, 198
-0.998524, 293, 173, 324, 188
-0.998524, 217, 59, 280, 74
-0.998524, 1, 407, 64, 422
-0.998525, 257, 59, 288, 74
-0.998525, 309, 77, 340, 92
-0.998526, 257, 265, 320, 280
-0.998526, 225, 169, 288, 184
-0.998526, 141, 353, 172, 368
-0.998527, 109, 339, 140, 354
-0.998528, 173, 251, 204, 266
-0.998529, 5, 173, 36, 188
-0.99853, 293, 165, 324, 180
-0.998531, 141, 131, 172, 146
-0.998531, 237, 53, 268, 68
-0.998532, 97, 127, 128, 142
-0.998532, 117, 349, 148, 364
-0.998533, 361, 255, 392, 270
-0.998535, 121, 119, 152, 134
-0.998535, 149, 161, 180, 176
-0.998535, 349, 129, 380, 144
-0.998537, 341, 169, 372, 184
-0.998537, 277, 155, 308, 170
-0.998538, 397, 283, 428, 298
-0.998539, 5, 205, 36, 220
-0.99854, 29, 65, 60, 320
-0.99854, 349, 257, 380, 272
-0.99854, 5, 189, 36, 204
-0.998541, 5, 9, 36, 24
-0.998541, 309, 115, 340, 130
-0.998542, 153, 277, 184, 292
-0.998544, 153, 257, 168, 384
-0.998544, 277, 421, 308, 436
-0.998544, 161, 65, 176, 192
-0.998545, 305, 183, 336, 198
-0.998545, 129, 129, 160, 144
-0.998546, 281, 137, 312, 152
-0.998546, 329, 353, 360, 368
-0.998547, 337, 177, 368, 192
-0.998549, 337, 221, 368, 236
-0.998551, 269, 147, 300, 162
-0.998552, 353, 111, 384, 126
-0.998552, 9, 337, 40, 352
-0.998554, 273, 233, 304, 248
-0.998555, 309, 161, 324, 288
-0.998558, 161, 239, 192, 254
-0.998559, 197, 341, 228, 356
-0.998561, 289, 111, 320, 126
-0.998562, 173, 161, 204, 176
-0.998562, 281, 125, 312, 140
-0.998564, 313, 175, 344, 190
-0.998565, 229, 97, 244, 224
-0.998565, 141, 307, 172, 322
-0.998566, 281, 269, 312, 284
-0.998567, 5, 181, 36, 196
-0.998569, 5, 199, 36, 214
-0.998569, 337, 125, 368, 140
-0.99857, 343, 65, 358, 192
-0.998572, 337, 295, 368, 310
-0.998572, 313, 113, 328, 240
-0.998572, 161, 385, 288, 448
-0.998573, 261, 123, 292, 138
-0.998575, 261, 235, 292, 250
-0.99858, 161, 125, 192, 140
-0.998581, 337, 347, 368, 362
-0.998583, 333, 369, 364, 384
-0.998585, 81, 137, 112, 152
-0.998587, 353, 193, 368, 320
-0.998587, 333, 361, 364, 376
-0.998588, 135, 289, 150, 416
-0.998594, 161, 159, 192, 174
-0.998595, 305, 169, 336, 184
-0.998595, 173, 245, 204, 260
-0.998597, 209, 17, 224, 144
-0.998597, 161, 113, 176, 240
-0.998598, 183, 257, 198, 384
-0.9986, 201, 119, 232, 134
-0.998605, 149, 81, 164, 208
-0.998607, 339, 273, 354, 400
-0.998607, 277, 183, 308, 198
-0.998607, 45, 289, 60, 416
-0.998611, 321, 77, 352, 92
-0.998612, 273, 175, 304, 190
-0.998613, 345, 117, 376, 132
-0.998614, 293, 179, 324, 194
-0.998618, 161, 225, 176, 352
-0.998618, 217, 65, 232, 192
-0.998624, 293, 123, 324, 138
-0.998624, 205, 159, 236, 174
-0.998625, 273, 427, 304, 442
-0.998626, 353, 145, 368, 272
-0.998631, 9, 1, 24, 128
-0.998633, 121, 343, 152, 358
-0.998635, 257, 365, 288, 380
-0.998641, 129, 313, 160, 328
-0.998645, 305, 65, 320, 192
-0.998651, 137, 347, 168, 362
-0.998659, 249, 235, 280, 250
-0.99866, 73, 209, 136, 336
-0.998663, 37, 305, 52, 432
-0.998664, 9, 241, 24, 368
-0.998666, 351, 241, 366, 368
-0.998666, 335, 65, 350, 192
-0.998668, 173, 239, 204, 254
-0.998673, 281, 131, 312, 146
-0.998674, 169, 193, 184, 320
-0.998676, 127, 305, 142, 432
-0.998676, 201, 65, 216, 192
-0.998681, 159, 273, 174, 400
-0.998684, 109, 321, 124, 448
-0.998685, 219, 273, 234, 400
-0.998689, 309, 121, 340, 136
-0.998692, 45, 1, 76, 256
-0.998695, 287, 273, 302, 400
-0.9987, 57, 321, 72, 448
-0.9987, 63, 321, 78, 448
-0.998707, 263, 305, 278, 432
-0.998717, 281, 263, 312, 278
-0.99872, 283, 97, 298, 224
-0.998725, 161, 245, 192, 260
-0.998726, 313, 65, 328, 192
-0.998732, 117, 321, 132, 448
-0.998743, 357, 241, 372, 368
-0.998744, 169, 65, 184, 192
-0.998748, 271, 321, 286, 448
-0.998748, 343, 113, 358, 240
-0.998763, 167, 257, 182, 384
-0.998764, 17, 1, 32, 128
-0.998768, 227, 289, 242, 416
-0.998773, 69, 321, 84, 448
-0.998774, 209, 289, 224, 416
-0.998777, 277, 97, 292, 224
-0.998782, 173, 273, 188, 400
-0.998784, 323, 49, 338, 176
-0.998786, 117, 257, 132, 384
-0.998786, 293, 81, 308, 208
-0.998786, 9, 177, 24, 304
-0.998806, 363, 97, 378, 224
-0.998809, 189, 257, 204, 384
-0.998811, 195, 273, 210, 400
-0.998814, 51, 257, 66, 384
-0.998816, 281, 145, 296, 272
-0.998818, 219, 145, 234, 272
-0.998827, 307, 113, 322, 240
-0.998828, 67, 1, 82, 128
-0.998831, 333, 273, 348, 400
-0.998834, 203, 145, 218, 272
-0.998841, 299, 65, 314, 192
-0.998844, 89, 193, 120, 448
-0.998847, 243, 129, 258, 256
-0.998848, 17, 177, 32, 304
-0.998849, 195, 97, 210, 224
-0.998851, 409, 1, 440, 256
-0.998854, 179, 1, 194, 128
-0.998863, 351, 289, 366, 416
-0.998864, 201, 273, 216, 400
-0.998865, 325, 97, 340, 224
-0.998866, 279, 257, 294, 384
-0.998869, 333, 113, 348, 240
-0.998871, 285, 321, 300, 448
-0.998874, 287, 193, 302, 320
-0.998879, 125, 241, 140, 368
-0.99888, 203, 1, 218, 128
-0.998884, 9, 129, 24, 256
-0.998884, 167, 305, 182, 432
-0.998885, 97, 321, 112, 448
-0.998888, 233, 289, 248, 416
-0.998891, 259, 145, 274, 272
-0.998894, 249, 145, 264, 272
-0.998894, 277, 305, 292, 432
-0.998898, 345, 225, 360, 352
-0.998899, 329, 1, 344, 128
-0.998901, 217, 17, 232, 144
-0.998902, 257, 305, 272, 432
-0.998905, 213, 113, 228, 240
-0.998911, 335, 321, 350, 448
-0.998912, 315, 161, 330, 288
-0.998918, 183, 65, 198, 192
-0.998918, 195, 1, 210, 128
-0.99892, 189, 1, 204, 128
-0.99892, 23, 209, 38, 336
-0.99892, 293, 129, 308, 256
-0.998922, 235, 97, 250, 224
-0.998922, 175, 65, 190, 192
-0.998922, 183, 209, 198, 336
-0.998924, 187, 113, 202, 240
-0.998928, 293, 321, 308, 448
-0.998933, 251, 305, 266, 432
-0.998935, 435, 129, 450, 256
-0.998939, 15, 225, 30, 352
-0.998939, 51, 321, 66, 448
-0.998941, 369, 321, 384, 448
-0.998943, 31, 305, 46, 432
-0.998944, 319, 97, 334, 224
-0.998959, 223, 17, 238, 144
-0.998961, 103, 321, 118, 448
-0.998963, 73, 161, 88, 288
-0.998963, 163, 161, 178, 288
-0.998971, 239, 305, 254, 432
-0.998972, 369, 241, 384, 368
-0.998972, 61, 1, 76, 128
-0.998975, 181, 113, 196, 240
-0.998978, 345, 321, 360, 448
-0.998979, 383, 209, 398, 336
-0.998979, 245, 305, 260, 432
-0.99898, 173, 1, 188, 128
-0.998984, 233, 145, 248, 272
-0.998986, 411, 209, 426, 336
-0.998987, 361, 289, 376, 416
-0.998987, 363, 241, 378, 368
-0.99907, 125, 1, 156, 256
-0.999176, 425, 193, 456, 448
-0.999305, 441, 33, 472, 288
-0.999311, 441, 161, 472, 416
-0.999665, 265, 235, 280, 250
-0.999665, 9, 345, 24, 360
-0.999666, 7, 167, 22, 182
-0.999666, 293, 269, 308, 284
-0.999666, 295, 179, 310, 194
-0.999666, 143, 303, 158, 318
-0.999667, 173, 165, 188, 180
-0.999667, 297, 131, 312, 146
-0.999667, 309, 111, 324, 126
-0.999667, 365, 117, 380, 132
-0.999667, 141, 119, 156, 134
-0.999669, 221, 131, 236, 146
-0.999669, 287, 177, 302, 192
-0.99967, 283, 105, 298, 120
-0.99967, 327, 365, 342, 380
-0.999671, 355, 195, 370, 210
-0.999672, 65, 337, 80, 352
-0.999672, 7, 289, 22, 304
-0.999673, 69, 329, 84, 344
-0.999673, 77, 161, 108, 416
-0.999673, 235, 55, 250, 70
-0.999673, 277, 183, 292, 198
-0.999674, 283, 145, 298, 160
-0.999674, 99, 135, 114, 150
-0.999675, 279, 409, 294, 424
-0.999675, 299, 171, 314, 186
-0.999675, 219, 153, 234, 168
-0.999676, 97, 113, 112, 128
-0.999677, 377, 205, 392, 220
-0.999677, 181, 241, 196, 256
-0.999677, 353, 137, 368, 152
-0.999678, 47, 353, 62, 368
-0.999678, 171, 251, 186, 266
-0.999678, 273, 129, 288, 144
-0.999678, 353, 189, 368, 204
-0.999679, 91, 129, 106, 144
-0.999681, 231, 135, 246, 150
-0.999681, 47, 431, 62, 446
-0.999682, 45, 367, 60, 382
-0.999682, 9, 199, 24, 214
-0.999683, 67, 9, 82, 24
-0.999683, 269, 391, 284, 406
-0.999683, 373, 1, 404, 256
-0.999685, 227, 61, 242, 76
-0.999686, 209, 111, 224, 126
-0.999686, 59, 343, 74, 358
-0.999686, 355, 129, 370, 144
-0.999687, 287, 125, 302, 140
-0.999687, 187, 239, 202, 254
-0.999688, 327, 173, 342, 188
-0.999689, 223, 247, 238, 262
-0.999689, 289, 143, 304, 158
-0.999689, 345, 119, 360, 134
-0.999689, 277, 9, 292, 24
-0.999691, 265, 123, 280, 138
-0.999691, 355, 251, 370, 266
-0.999691, 97, 119, 112, 134
-0.999692, 355, 257, 370, 272
-0.999693, 145, 309, 160, 324
-0.999693, 133, 129, 148, 144
-0.999693, 317, 175, 332, 190
-0.999694, 91, 137, 106, 152
-0.999695, 315, 183, 330, 198
-0.999696, 37, 373, 52, 388
-0.999697, 309, 171, 324, 186
-0.9997, 217, 159, 232, 174
-0.9997, 73, 9, 88, 24
-0.999702, 259, 127, 274, 142
-0.999702, 133, 313, 148, 328
-0.999703, 9, 193, 24, 208
-0.999703, 363, 257, 378, 272
-0.999703, 9, 405, 24, 420
-0.999706, 173, 245, 188, 260
-0.999707, 303, 123, 318, 138
-0.999709, 333, 293, 348, 308
-0.99971, 253, 233, 268, 248
-0.999711, 313, 119, 328, 134
-0.999712, 289, 413, 304, 428
-0.999712, 295, 159, 310, 174
-0.999714, 133, 119, 148, 134
-0.999715, 321, 181, 336, 196
-0.999715, 335, 357, 350, 372
-0.999717, 169, 123, 184, 138
-0.999717, 165, 239, 180, 254
-0.999717, 49, 361, 64, 376
-0.999717, 9, 9, 24, 24
-0.999718, 55, 351, 70, 366
-0.999719, 209, 339, 224, 354
-0.999719, 169, 275, 184, 290
-0.99972, 349, 345, 364, 360
-0.999721, 309, 177, 324, 192
-0.999722, 351, 223, 366, 238
-0.999723, 31, 383, 46, 398
-0.999725, 173, 239, 188, 254
-0.999725, 275, 233, 290, 248
-0.999726, 291, 153, 306, 168
-0.999726, 321, 119, 336, 134
-0.999726, 15, 199, 30, 214
-0.999726, 269, 363, 284, 378
-0.999727, 367, 111, 382, 126
-0.999727, 339, 291, 354, 306
-0.999729, 207, 155, 222, 170
-0.999732, 309, 9, 324, 24
-0.999732, 353, 143, 368, 158
-0.999732, 305, 137, 320, 152
-0.999732, 305, 165, 320, 180
-0.999733, 277, 427, 292, 442
-0.999737, 317, 11, 332, 26
-0.999737, 355, 123, 370, 138
-0.999738, 9, 181, 24, 196
-0.999739, 157, 163, 172, 178
-0.999739, 317, 113, 332, 128
-0.999739, 173, 159, 188, 174
-0.999739, 319, 69, 334, 84
-0.999744, 273, 123, 288, 138
-0.999745, 201, 161, 216, 176
-0.999746, 271, 429, 286, 444
-0.999747, 165, 245, 180, 260
-0.999753, 351, 233, 366, 248
-0.999759, 139, 309, 154, 324
-0.99976, 167, 159, 182, 174
-0.999767, 351, 239, 366, 254
-0.999768, 393, 1, 424, 256
-0.999768, 285, 261, 300, 276
-0.99977, 139, 343, 154, 358
-0.999776, 309, 183, 324, 198
-0.999778, 341, 347, 356, 362
-0.999784, 331, 75, 346, 90
-0.999795, 343, 297, 358, 312
-0.999798, 129, 341, 144, 356
-0.999808, 9, 173, 24, 188
-0.999819, 335, 351, 350, 366
-0.999823, 285, 419, 300, 434
-1.00124, 469, 1, 500, 256
-1.00131, 453, 1, 484, 256
-1.00182, 469, 161, 500, 416
-1.00183, 457, 193, 488, 448
-1.00184, 457, 97, 488, 352
