1966
-0.343199, 1, 129, 500, 375
-0.377755, 1, 1, 500, 375
-0.41504, 65, 1, 320, 375
-0.514708, 1, 33, 500, 288
-0.539033, 129, 97, 384, 352
-0.604894, 33, 65, 288, 320
-0.66938, 161, 1, 416, 375
-0.7236, 225, 129, 480, 375
-0.761455, 129, 1, 384, 256
-0.773405, 257, 1, 500, 375
-0.832728, 97, 1, 224, 375
-0.848228, 113, 33, 240, 288
-0.857102, 1, 145, 500, 272
-0.867085, 65, 65, 192, 320
-0.872575, 145, 1, 272, 375
-0.887365, 225, 1, 480, 256
-0.887663, 161, 65, 288, 320
-0.890949, 305, 129, 432, 375
-0.891814, 225, 97, 352, 352
-0.893703, 1, 193, 500, 320
-0.893875, 49, 1, 176, 375
-0.899066, 113, 129, 240, 375
-0.903825, 225, 1, 352, 375
-0.909181, 1, 241, 500, 368
-0.910202, 1, 97, 500, 224
-0.911024, 65, 65, 320, 192
-0.914594, 273, 1, 400, 375
-0.915427, 209, 1, 336, 256
-0.917443, 17, 65, 144, 320
-0.923976, 193, 113, 448, 240
-0.926431, 1, 49, 500, 176
-0.927859, 97, 113, 352, 240
-0.928134, 321, 1, 448, 375
-0.933284, 81, 49, 208, 176
-0.934721, 273, 1, 400, 256
-0.935394, 89, 49, 152, 176
-0.941687, 81, 97, 208, 224
-0.942212, 129, 161, 256, 288
-0.943547, 129, 49, 256, 176
-0.943549, 369, 1, 496, 375
-0.943572, 113, 97, 176, 224
-0.944199, 1, 1, 500, 128
-0.944236, 97, 161, 352, 288
-0.944813, 1, 241, 256, 368
-0.944883, 257, 193, 500, 320
-0.945958, 97, 241, 224, 368
-0.946301, 225, 113, 352, 240
-0.947233, 1, 113, 256, 240
-0.948845, 1, 1, 128, 375
-0.950284, 161, 97, 288, 224
-0.950645, 121, 33, 184, 160
-0.950846, 137, 241, 200, 368
-0.951783, 321, 1, 448, 256
-0.952031, 217, 97, 280, 224
-0.952509, 137, 105, 200, 168
-0.952548, 273, 129, 400, 256
-0.952949, 89, 97, 152, 160
-0.953145, 161, 225, 416, 352
-0.953214, 145, 33, 208, 160
-0.953505, 137, 113, 200, 240
-0.954241, 353, 129, 480, 375
-0.955521, 89, 97, 152, 224
-0.955623, 353, 161, 416, 288
-0.957519, 65, 17, 320, 144
-0.95784, 1, 177, 256, 304
-0.95796, 257, 241, 500, 368
-0.958189, 121, 49, 184, 112
-0.958374, 97, 161, 160, 288
-0.958386, 337, 209, 464, 336
-0.958574, 257, 113, 320, 240
-0.959029, 321, 161, 448, 288
-0.959569, 49, 161, 176, 288
-0.960032, 281, 113, 344, 240
-0.960324, 329, 145, 392, 272
-0.961042, 369, 33, 496, 288
-0.961721, 305, 129, 368, 256
-0.962248, 97, 129, 160, 192
-0.962803, 385, 193, 448, 320
-0.962902, 177, 241, 304, 368
-0.963176, 169, 305, 232, 368
-0.963349, 121, 81, 184, 144
-0.963498, 153, 129, 216, 192
-0.964136, 161, 97, 224, 224
-0.964642, 33, 49, 160, 176
-0.964887, 161, 241, 224, 368
-0.964971, 185, 81, 248, 208
-0.965013, 33, 113, 160, 240
-0.96653, 121, 137, 184, 200
-0.966536, 161, 281, 224, 344
-0.966643, 81, 121, 208, 184
-0.967068, 89, 57, 152, 120
-0.967243, 145, 161, 208, 288
-0.967774, 305, 137, 368, 200
-0.968005, 65, 113, 128, 240
-0.968243, 161, 41, 224, 104
-0.96829, 89, 33, 152, 288
-0.968408, 97, 1, 224, 128
-0.968449, 433, 209, 496, 336
-0.969188, 129, 33, 192, 288
-0.969365, 113, 105, 176, 168
-0.969471, 177, 105, 240, 168
-0.969977, 393, 241, 456, 368
-0.970644, 185, 129, 248, 256
-0.970976, 161, 65, 416, 192
-0.97107, 281, 129, 344, 192
-0.971184, 337, 153, 400, 216
-0.971307, 161, 17, 416, 144
-0.971495, 201, 241, 264, 368
-0.971822, 113, 209, 176, 336
-0.971898, 49, 209, 176, 336
-0.971942, 81, 97, 208, 160
-0.973712, 129, 313, 192, 375
-0.973762, 353, 177, 416, 240
-0.973783, 225, 121, 288, 184
-0.974061, 145, 129, 208, 375
-0.97426, 177, 33, 240, 160
-0.974438, 145, 81, 208, 144
-0.974751, 393, 265, 456, 328
-0.974815, 113, 313, 240, 375
-0.974925, 81, 145, 208, 208
-0.975042, 145, 105, 176, 168
-0.97518, 81, 49, 208, 112
-0.975237, 73, 161, 136, 288
-0.975259, 161, 1, 224, 256
-0.975283, 157, 113, 188, 176
-0.975344, 141, 97, 172, 224
-0.975501, 241, 65, 368, 192
-0.97555, 257, 129, 320, 192
-0.97584, 145, 105, 272, 168
-0.97589, 209, 161, 336, 288
-0.975997, 241, 65, 304, 192
-0.97624, 93, 81, 124, 208
-0.976772, 81, 33, 144, 96
-0.976953, 193, 33, 320, 160
-0.977004, 201, 297, 264, 360
-0.977243, 433, 297, 496, 360
-0.977363, 133, 49, 164, 176
-0.977447, 177, 137, 240, 200
-0.977636, 137, 257, 200, 320
-0.977898, 153, 97, 184, 224
-0.977969, 129, 185, 256, 248
-0.977989, 105, 217, 168, 280
-0.978237, 169, 129, 232, 375
-0.978396, 81, 1, 144, 128
-0.978418, 113, 161, 176, 224
-0.978479, 149, 33, 180, 160
-0.978637, 145, 1, 272, 128
-0.978687, 241, 129, 368, 192
-0.978787, 129, 129, 256, 192
-0.978944, 281, 97, 344, 352
-0.978946, 377, 201, 440, 264
-0.979005, 81, 73, 208, 136
-0.979017, 137, 193, 200, 256
-0.979036, 201, 97, 264, 160
-0.979145, 321, 129, 384, 375
-0.979382, 185, 193, 248, 320
-0.979434, 161, 241, 192, 368
-0.979461, 137, 1, 200, 375
-0.979631, 145, 137, 176, 200
-0.979702, 225, 161, 288, 288
-0.979707, 133, 113, 164, 176
-0.979716, 305, 193, 432, 256
-0.979756, 145, 153, 208, 216
-0.979792, 145, 81, 176, 144
-0.980171, 385, 225, 448, 288
-0.980174, 401, 289, 464, 352
-0.980179, 97, 1, 160, 375
-0.980573, 113, 289, 240, 352
-0.980657, 237, 97, 268, 224
-0.980695, 217, 97, 280, 352
-0.980717, 185, 257, 248, 320
-0.980721, 233, 161, 296, 224
-0.980762, 157, 145, 188, 208
-0.980767, 433, 273, 496, 336
-0.98078, 57, 137, 120, 200
-0.981032, 369, 161, 496, 288
-0.981086, 145, 81, 272, 144
-0.981168, 273, 153, 400, 216
-0.981241, 249, 113, 280, 240
-0.981249, 133, 49, 164, 112
-0.981463, 401, 313, 464, 375
-0.981531, 149, 241, 180, 368
-0.981562, 257, 105, 320, 168
-0.981577, 105, 193, 168, 256
-0.981748, 161, 33, 192, 160
-0.981864, 109, 49, 140, 176
-0.981976, 249, 97, 312, 352
-0.98198, 113, 241, 176, 304
-0.981988, 105, 313, 168, 375
-0.982035, 65, 49, 128, 176
-0.982056, 153, 225, 216, 288
-0.982069, 201, 145, 264, 208
-0.982088, 193, 313, 224, 375
-0.982163, 125, 113, 156, 240
-0.98219, 93, 33, 124, 160
-0.98228, 353, 273, 480, 336
-0.982361, 173, 241, 204, 368
-0.98241, 193, 97, 256, 352
-0.982534, 369, 113, 496, 240
-0.982575, 121, 33, 152, 160
-0.98263, 121, 161, 184, 288
-0.982738, 129, 153, 256, 216
-0.982749, 193, 73, 256, 136
-0.982751, 177, 289, 304, 352
-0.982753, 345, 129, 408, 375
-0.982804, 337, 249, 464, 312
-0.98282, 129, 217, 256, 280
-0.982866, 89, 169, 152, 232
-0.982884, 357, 161, 388, 224
-0.982969, 357, 145, 388, 272
-0.982986, 321, 217, 448, 280
-0.983029, 161, 1, 224, 375
-0.983065, 337, 129, 368, 256
-0.983103, 169, 97, 200, 160
-0.983172, 121, 57, 152, 120
-0.983181, 369, 161, 400, 288
-0.983209, 137, 281, 200, 344
-0.983211, 93, 97, 124, 160
-0.983272, 225, 193, 288, 256
-0.983296, 33, 1, 160, 128
-0.983481, 49, 209, 176, 272
-0.983557, 193, 121, 320, 184
-0.983587, 409, 225, 472, 288
-0.983675, 161, 249, 288, 312
-0.983693, 33, 121, 160, 184
-0.98382, 145, 49, 176, 112
-0.983826, 169, 97, 200, 224
-0.983837, 425, 249, 488, 312
-0.983889, 257, 193, 320, 320
-0.983914, 385, 177, 416, 304
-0.983973, 145, 177, 176, 304
-0.98399, 169, 129, 200, 192
-0.98404, 309, 113, 340, 240
-0.984061, 97, 265, 224, 328
-0.984065, 89, 129, 152, 375
-0.984134, 89, 129, 120, 256
-0.984176, 173, 33, 204, 160
-0.984199, 161, 249, 224, 312
-0.984252, 185, 169, 248, 232
-0.984262, 325, 137, 356, 200
-0.98428, 101, 49, 132, 112
-0.984341, 225, 97, 288, 160
-0.984357, 185, 241, 216, 368
-0.984459, 321, 129, 352, 256
-0.984462, 185, 1, 248, 256
-0.984479, 157, 89, 188, 152
-0.98454, 49, 73, 112, 136
-0.984546, 105, 97, 136, 224
-0.984596, 129, 49, 256, 112
-0.984609, 113, 129, 176, 375
-0.984616, 49, 169, 176, 232
-0.984694, 281, 249, 344, 312
-0.984762, 57, 49, 120, 112
-0.984768, 161, 177, 224, 240
-0.984799, 377, 177, 408, 240
-0.984802, 273, 177, 400, 304
-0.984844, 345, 145, 376, 208
-0.984852, 189, 289, 220, 352
-0.984919, 65, 65, 128, 320
-0.985, 369, 225, 496, 288
-0.985047, 225, 217, 288, 280
-0.985132, 105, 161, 136, 288
-0.985251, 297, 177, 360, 304
-0.985264, 125, 81, 156, 144
-0.985347, 285, 121, 316, 184
-0.985348, 169, 65, 232, 128
-0.985368, 33, 97, 160, 160
-0.985414, 413, 209, 444, 336
-0.985456, 281, 113, 312, 240
-0.985473, 201, 121, 264, 184
-0.985481, 313, 129, 344, 192
-0.985488, 173, 281, 204, 344
-0.985498, 181, 105, 212, 168
-0.985508, 361, 209, 424, 336
-0.985581, 209, 177, 336, 240
-0.985582, 161, 49, 192, 112
-0.985668, 397, 193, 428, 320
-0.985694, 177, 313, 304, 375
-0.985711, 49, 113, 112, 176
-0.985729, 297, 209, 360, 272
-0.98573, 329, 97, 392, 224
-0.98577, 237, 105, 268, 168
-0.985834, 353, 297, 480, 360
-0.98587, 41, 49, 104, 176
-0.985943, 397, 201, 428, 264
-0.986091, 297, 65, 360, 192
-0.986096, 265, 65, 328, 192
-0.986108, 181, 137, 212, 200
-0.986125, 257, 161, 320, 224
-0.986151, 241, 1, 304, 256
-0.986216, 85, 41, 116, 104
-0.986251, 269, 113, 300, 240
-0.986426, 225, 97, 256, 224
-0.986479, 201, 33, 264, 160
-0.986512, 133, 137, 164, 200
-0.986525, 257, 65, 500, 192
-0.98675, 185, 201, 248, 264
-0.986975, 425, 241, 456, 368
-0.987005, 117, 105, 148, 168
-0.987125, 81, 241, 208, 304
-0.987157, 225, 209, 352, 336
-0.987206, 281, 225, 344, 352
-0.987243, 293, 113, 324, 240
-0.987246, 289, 249, 416, 312
-0.987379, 33, 73, 160, 136
-0.987453, 193, 97, 320, 160
-0.987454, 137, 225, 168, 352
-0.987639, 189, 33, 220, 96
-0.987642, 261, 129, 292, 192
-0.987643, 73, 313, 136, 375
-0.987663, 445, 241, 476, 368
-0.987685, 413, 217, 444, 280
-0.987689, 121, 25, 184, 88
-0.98777, 89, 145, 120, 208
-0.987792, 377, 129, 440, 256
-0.987917, 249, 121, 280, 184
-0.988063, 297, 129, 328, 192
-0.98819, 117, 137, 148, 200
-0.988209, 161, 265, 192, 328
-0.988229, 273, 225, 400, 352
-0.988296, 265, 185, 328, 248
-0.9883, 161, 145, 192, 272
-0.988301, 33, 49, 160, 112
-0.988328, 185, 1, 248, 375
-0.98837, 209, 209, 336, 272
-0.98837, 65, 313, 192, 375
-0.988394, 353, 113, 416, 240
-0.988456, 177, 41, 208, 104
-0.988493, 305, 113, 368, 176
-0.98854, 313, 241, 376, 304
-0.988545, 409, 193, 472, 320
-0.988657, 209, 169, 272, 232
-0.988664, 225, 249, 288, 312
-0.988721, 425, 273, 456, 336
-0.988814, 141, 193, 172, 256
-0.988816, 305, 81, 432, 208
-0.988839, 433, 225, 496, 288
-0.988891, 425, 313, 456, 375
-0.989075, 257, 241, 320, 304
-0.989089, 125, 161, 156, 288
-0.98914, 137, 117, 200, 148
-0.989241, 189, 265, 220, 328
-0.989242, 17, 145, 144, 208
-0.989266, 237, 185, 268, 248
-0.989357, 177, 145, 304, 208
-0.989389, 185, 233, 248, 296
-0.989396, 137, 1, 168, 128
-0.989424, 321, 217, 384, 280
-0.989446, 81, 81, 112, 208
-0.989551, 225, 1, 288, 375
-0.989612, 93, 73, 124, 136
-0.98978, 1, 185, 500, 248
-0.9898, 225, 209, 288, 336
-0.989863, 445, 297, 476, 360
-0.9899, 149, 249, 180, 312
-0.989925, 281, 97, 344, 160
-0.989936, 145, 17, 208, 80
-0.989937, 97, 25, 224, 88
-0.990014, 209, 1, 272, 256
-0.990017, 213, 129, 244, 256
-0.990049, 353, 225, 416, 288
-0.990057, 257, 241, 320, 368
-0.99008, 153, 129, 216, 160
-0.990164, 369, 201, 496, 264
-0.990275, 81, 121, 144, 152
-0.990288, 77, 129, 108, 192
-0.990326, 17, 313, 144, 375
-0.990339, 353, 201, 416, 264
-0.990403, 121, 53, 184, 84
-0.990414, 273, 129, 336, 160
-0.990417, 73, 1, 136, 375
-0.99043, 121, 141, 184, 172
-0.990441, 253, 185, 284, 248
-0.990451, 297, 137, 360, 168
-0.990481, 289, 161, 352, 224
-0.990495, 137, 313, 168, 375
-0.990521, 189, 33, 220, 160
-0.990538, 161, 105, 224, 136
-0.990552, 321, 1, 384, 256
-0.990553, 129, 129, 192, 160
-0.990559, 125, 313, 156, 375
-0.99057, 81, 49, 144, 80
-0.990581, 265, 273, 328, 336
-0.990583, 169, 317, 232, 348
-0.9906, 181, 97, 212, 224
-0.990603, 153, 145, 216, 176
-0.990636, 97, 121, 128, 184
-0.990639, 161, 25, 288, 88
-0.990639, 169, 73, 200, 136
-0.99064, 101, 169, 132, 232
-0.990641, 89, 133, 152, 164
-0.99069, 337, 129, 464, 192
-0.990708, 313, 149, 376, 180
-0.990759, 113, 97, 176, 128
-0.990772, 161, 305, 224, 336
-0.990783, 113, 109, 176, 140
-0.990785, 137, 105, 200, 136
-0.990823, 321, 169, 448, 232
-0.990849, 329, 177, 392, 240
-0.99085, 81, 105, 144, 136
-0.990873, 109, 1, 140, 128
-0.990913, 97, 149, 160, 180
-0.990927, 1, 209, 64, 272
-0.990997, 157, 193, 188, 320
-0.991001, 193, 97, 224, 224
-0.991058, 289, 129, 416, 192
-0.991063, 65, 161, 128, 224
-0.991064, 213, 305, 244, 368
-0.991069, 89, 85, 152, 116
-0.99108, 177, 137, 240, 168
-0.991081, 225, 121, 288, 152
-0.991133, 125, 201, 156, 264
-0.991153, 393, 273, 456, 304
-0.991154, 241, 105, 368, 168
-0.991226, 273, 129, 304, 192
-0.991251, 213, 81, 244, 208
-0.991268, 161, 137, 416, 200
-0.991289, 345, 181, 408, 212
-0.991289, 169, 329, 232, 360
-0.99132, 245, 161, 276, 288
-0.991325, 329, 161, 392, 192
-0.991327, 145, 49, 208, 80
-0.991356, 409, 185, 472, 248
-0.991373, 137, 89, 200, 120
-0.991384, 113, 85, 176, 116
-0.991411, 177, 305, 208, 368
-0.991414, 369, 169, 496, 232
-0.991444, 201, 329, 264, 360
-0.991448, 225, 185, 256, 248
-0.991472, 177, 125, 240, 156
-0.991476, 145, 157, 208, 188
-0.991482, 225, 201, 288, 232
-0.991505, 241, 257, 368, 320
-0.991514, 353, 121, 416, 184
-0.991534, 65, 113, 320, 176
-0.991567, 393, 285, 456, 316
-0.991593, 225, 185, 288, 216
-0.991612, 177, 149, 240, 180
-0.991624, 81, 61, 144, 92
-0.991629, 201, 309, 264, 340
-0.991634, 89, 73, 152, 104
-0.991663, 185, 33, 248, 96
-0.991663, 81, 193, 144, 256
-0.991701, 113, 69, 176, 100
-0.991717, 125, 161, 156, 224
-0.991722, 369, 209, 432, 240
-0.991722, 229, 209, 260, 272
-0.991724, 137, 233, 168, 296
-0.991731, 161, 37, 224, 68
-0.991738, 161, 65, 224, 96
-0.991745, 353, 193, 416, 224
-0.991757, 185, 293, 248, 324
-0.991817, 145, 241, 208, 272
-0.991817, 393, 297, 456, 328
-0.991821, 57, 49, 120, 80
-0.991833, 433, 305, 496, 336
-0.991842, 273, 209, 336, 272
-0.991852, 105, 121, 168, 152
-0.991854, 257, 209, 384, 272
-0.99187, 289, 185, 352, 248
-0.991875, 137, 197, 200, 228
-0.991877, 161, 313, 192, 375
-0.991883, 169, 341, 232, 372
-0.991887, 1, 137, 500, 200
-0.99194, 161, 281, 224, 312
-0.991941, 353, 249, 416, 312
-0.991959, 161, 293, 224, 324
-0.991971, 393, 261, 456, 292
-0.991996, 289, 245, 352, 276
-0.991999, 193, 101, 256, 132
-0.992003, 33, 81, 288, 144
-0.992005, 401, 329, 464, 360
-0.992022, 433, 345, 496, 375
-0.992026, 161, 93, 224, 124
-0.992033, 121, 165, 184, 196
-0.992035, 137, 77, 200, 108
-0.992039, 97, 213, 160, 244
-0.99204, 201, 113, 264, 144
-0.992061, 257, 113, 320, 144
-0.992068, 401, 145, 464, 272
-0.992078, 185, 169, 248, 200
-0.992083, 257, 257, 320, 288
-0.992085, 121, 153, 184, 184
-0.99209, 425, 269, 488, 300
-0.992112, 433, 329, 496, 360
-0.992121, 161, 77, 224, 108
-0.992122, 97, 313, 352, 375
-0.992128, 225, 221, 288, 252
-0.992134, 109, 73, 140, 136
-0.992136, 201, 341, 264, 372
-0.992138, 253, 161, 284, 224
-0.992142, 433, 317, 496, 348
-0.992146, 185, 281, 248, 312
-0.992163, 65, 57, 320, 120
-0.992169, 401, 345, 464, 375
-0.992194, 393, 317, 456, 348
-0.992195, 385, 221, 448, 252
-0.9922, 193, 209, 256, 240
-0.992231, 425, 285, 488, 316
-0.992243, 65, 145, 320, 208
-0.992244, 249, 1, 312, 375
-0.99225, 201, 133, 264, 164
-0.992258, 113, 313, 144, 375
-0.99226, 249, 197, 312, 228
-0.992267, 97, 345, 160, 375
-0.992275, 137, 185, 200, 216
-0.992277, 201, 189, 264, 220
-0.992278, 197, 241, 228, 368
-0.992291, 305, 261, 368, 292
-0.992315, 225, 133, 288, 164
-0.992315, 273, 273, 336, 304
-0.992325, 281, 257, 344, 288
-0.992326, 369, 129, 432, 375
-0.992328, 113, 201, 176, 232
-0.992338, 137, 265, 200, 296
-0.992338, 297, 1, 360, 256
-0.992345, 225, 169, 288, 200
-0.992358, 153, 253, 216, 284
-0.99236, 177, 265, 240, 296
-0.992363, 145, 109, 176, 140
-0.992369, 313, 225, 376, 352
-0.992372, 121, 253, 184, 284
-0.992377, 121, 317, 184, 348
-0.992385, 145, 161, 176, 224
-0.992426, 385, 233, 448, 264
-0.992435, 49, 129, 112, 160
-0.99244, 65, 141, 128, 172
-0.992458, 97, 161, 160, 192
-0.992476, 197, 129, 228, 192
-0.992495, 161, 177, 224, 208
-0.992501, 249, 133, 312, 164
-0.992504, 69, 49, 100, 176
-0.992505, 321, 217, 352, 280
-0.992505, 105, 225, 168, 256
-0.992513, 105, 177, 168, 208
-0.992552, 441, 273, 472, 336
-0.992554, 305, 1, 368, 375
-0.992563, 145, 229, 208, 260
-0.992581, 241, 161, 272, 224
-0.992599, 185, 85, 248, 116
-0.992607, 65, 165, 128, 196
-0.992611, 137, 277, 200, 308
-0.992637, 225, 237, 288, 268
-0.99264, 121, 213, 184, 244
-0.992645, 81, 333, 144, 364
-0.992653, 177, 161, 208, 288
-0.992655, 113, 189, 176, 220
-0.992671, 105, 237, 168, 268
-0.992676, 113, 333, 176, 364
-0.992682, 289, 201, 352, 232
-0.992697, 169, 49, 232, 80
-0.992705, 249, 185, 312, 216
-0.992705, 257, 209, 320, 240
-0.992716, 249, 217, 312, 280
-0.992718, 141, 141, 172, 172
-0.992729, 169, 153, 200, 216
-0.992734, 241, 281, 304, 312
-0.992744, 185, 37, 248, 68
-0.99275, 57, 153, 120, 184
-0.992752, 49, 117, 112, 148
-0.992754, 25, 217, 88, 280
-0.992756, 337, 241, 400, 368
-0.992758, 73, 49, 104, 112
-0.992762, 1, 161, 500, 224
-0.992783, 265, 165, 328, 196
-0.992784, 49, 85, 112, 116
-0.992801, 49, 217, 112, 280
-0.992812, 85, 45, 116, 76
-0.992821, 129, 129, 160, 160
-0.992822, 201, 153, 264, 184
-0.992827, 321, 137, 352, 168
-0.992839, 89, 37, 152, 68
-0.992842, 341, 149, 372, 180
-0.992856, 57, 341, 120, 372
-0.992859, 313, 249, 376, 280
-0.992863, 337, 133, 400, 164
-0.992866, 189, 37, 220, 68
-0.992867, 233, 161, 264, 288
-0.992897, 225, 153, 352, 216
-0.992902, 165, 105, 196, 136
-0.992911, 161, 129, 192, 160
-0.992913, 361, 165, 392, 196
-0.99294, 73, 217, 136, 280
-0.992943, 193, 161, 448, 224
-0.992952, 141, 121, 172, 152
-0.992975, 293, 129, 324, 160
-0.992985, 165, 49, 196, 80
-0.992988, 121, 105, 152, 136
-0.992991, 193, 317, 224, 348
-0.993017, 241, 233, 368, 296
-0.993028, 225, 201, 480, 264
-0.993029, 309, 133, 340, 164
-0.993034, 373, 181, 404, 212
-0.993035, 377, 145, 440, 208
-0.993038, 129, 217, 192, 280
-0.993056, 237, 117, 268, 148
-0.993056, 157, 145, 188, 176
-0.993086, 133, 53, 164, 84
-0.993091, 141, 97, 172, 128
-0.9931, 437, 193, 468, 320
-0.993102, 129, 93, 160, 124
-0.993112, 93, 129, 124, 160
-0.99312, 145, 85, 176, 116
-0.993129, 397, 209, 428, 240
-0.993134, 153, 97, 184, 128
-0.993138, 189, 129, 220, 160
-0.993138, 233, 201, 264, 232
-0.993142, 425, 193, 456, 320
-0.993145, 217, 173, 248, 204
-0.993168, 385, 193, 416, 224
-0.993171, 93, 97, 124, 128
-0.993181, 249, 121, 280, 152
-0.993182, 1, 305, 500, 368
-0.993186, 213, 333, 244, 364
-0.993186, 197, 333, 228, 364
-0.993188, 281, 129, 312, 160
-0.993191, 261, 105, 292, 168
-0.993196, 441, 305, 472, 336
-0.993197, 297, 245, 328, 276
-0.993198, 153, 53, 184, 84
-0.993204, 349, 161, 380, 192
-0.993205, 117, 137, 148, 168
-0.993205, 425, 285, 456, 316
-0.993209, 117, 85, 148, 116
-0.993211, 81, 125, 208, 156
-0.993213, 193, 301, 224, 332
-0.993214, 173, 133, 204, 164
-0.993215, 129, 141, 160, 172
-0.993217, 177, 41, 208, 72
-0.99322, 189, 161, 220, 224
-0.993224, 89, 117, 120, 148
-0.993225, 117, 57, 148, 88
-0.99323, 265, 1, 328, 256
-0.99324, 429, 329, 460, 360
-0.993242, 177, 49, 304, 112
-0.993243, 145, 189, 176, 220
-0.993245, 189, 289, 220, 320
-0.993245, 93, 85, 124, 116
-0.993248, 1, 313, 256, 375
-0.993255, 177, 117, 208, 148
-0.993258, 189, 141, 220, 172
-0.993258, 121, 117, 152, 148
-0.993268, 97, 141, 128, 172
-0.99327, 101, 53, 132, 84
-0.993271, 77, 129, 108, 256
-0.993274, 169, 153, 200, 184
-0.993274, 293, 257, 324, 288
-0.993274, 145, 153, 176, 184
-0.99328, 129, 225, 384, 288
-0.993282, 157, 169, 188, 232
-0.993288, 157, 117, 188, 148
-0.993288, 425, 297, 456, 328
-0.993289, 237, 177, 268, 208
-0.993295, 305, 105, 432, 168
-0.993295, 409, 221, 440, 252
-0.993297, 313, 249, 344, 280
-0.993299, 269, 261, 300, 292
-0.993301, 157, 157, 188, 188
-0.993302, 169, 93, 200, 124
-0.993304, 197, 345, 228, 375
-0.993308, 141, 201, 172, 232
-0.993308, 161, 269, 192, 300
-0.993309, 161, 233, 192, 296
-0.993309, 61, 341, 92, 372
-0.993316, 333, 137, 364, 168
-0.993316, 213, 321, 244, 352
-0.993317, 237, 189, 268, 220
-0.993323, 241, 273, 304, 336
-0.993326, 141, 249, 172, 280
-0.993327, 425, 313, 456, 344
-0.993329, 121, 341, 152, 372
-0.993332, 77, 141, 108, 172
-0.993333, 125, 205, 156, 236
-0.993334, 169, 177, 200, 208
-0.993337, 265, 117, 296, 148
-0.993338, 93, 69, 124, 100
-0.993339, 329, 149, 360, 180
-0.993344, 233, 221, 264, 252
-0.993345, 257, 193, 288, 224
-0.993352, 301, 209, 332, 272
-0.993355, 221, 189, 252, 220
-0.993356, 421, 273, 452, 304
-0.993357, 313, 237, 344, 268
-0.993358, 337, 225, 368, 288
-0.993374, 333, 237, 364, 268
-0.993379, 249, 213, 280, 244
-0.99338, 201, 133, 232, 164
-0.993383, 261, 133, 292, 164
-0.993384, 157, 85, 188, 116
-0.993385, 233, 237, 264, 268
-0.993387, 417, 241, 448, 304
-0.993388, 209, 309, 240, 340
-0.993393, 233, 165, 264, 196
-0.993395, 389, 177, 420, 240
-0.993399, 213, 345, 244, 375
-0.9934, 237, 105, 268, 136
-0.993404, 281, 257, 312, 288
-0.993408, 133, 109, 164, 140
-0.993408, 429, 341, 460, 372
-0.993408, 121, 153, 152, 184
-0.993416, 329, 1, 392, 375
-0.993419, 205, 157, 236, 188
-0.99342, 281, 1, 344, 375
-0.993421, 109, 153, 140, 184
-0.993424, 157, 185, 188, 216
-0.993429, 273, 273, 304, 304
-0.993432, 129, 249, 384, 312
-0.993434, 157, 241, 188, 272
-0.993436, 253, 169, 284, 200
-0.993439, 109, 105, 140, 136
-0.99344, 105, 85, 136, 116
-0.993442, 93, 165, 124, 196
-0.993447, 245, 201, 276, 232
-0.993448, 437, 273, 468, 304
-0.993451, 261, 277, 292, 308
-0.993452, 81, 33, 112, 160
-0.993456, 273, 197, 304, 228
-0.993457, 189, 113, 220, 144
-0.993458, 185, 269, 216, 300
-0.993464, 73, 129, 104, 160
-0.993464, 169, 281, 200, 312
-0.993465, 185, 81, 216, 112
-0.993466, 189, 49, 220, 80
-0.993469, 185, 97, 216, 128
-0.993469, 449, 345, 480, 375
-0.993472, 121, 329, 152, 360
-0.993473, 321, 213, 352, 244
-0.993473, 441, 289, 472, 320
-0.993476, 417, 261, 448, 292
-0.993476, 261, 217, 292, 248
-0.993477, 181, 305, 212, 336
-0.993508, 221, 177, 252, 304
-0.993533, 209, 145, 240, 208
-0.993574, 289, 249, 320, 312
-0.993589, 161, 273, 416, 336
-0.993596, 257, 265, 500, 328
-0.993605, 217, 89, 248, 152
-0.993619, 265, 65, 296, 192
-0.993621, 377, 177, 440, 240
-0.993657, 1, 161, 128, 288
-0.993663, 97, 177, 352, 240
-0.993701, 81, 97, 112, 160
-0.993716, 305, 265, 368, 328
-0.993738, 1, 217, 128, 280
-0.99376, 197, 145, 228, 272
-0.993773, 1, 209, 500, 272
-0.99381, 209, 273, 272, 336
-0.993851, 241, 81, 368, 144
-0.993874, 301, 177, 332, 304
-0.993893, 349, 97, 380, 224
-0.993914, 213, 177, 244, 240
-0.993939, 1, 289, 256, 352
-0.993943, 161, 113, 416, 176
-0.993963, 257, 297, 500, 360
-0.993974, 177, 249, 208, 312
-0.993995, 81, 73, 112, 136
-0.994005, 149, 225, 180, 288
-0.994017, 249, 81, 312, 144
-0.99402, 97, 201, 352, 264
-0.994028, 369, 1, 432, 375
-0.99405, 321, 193, 352, 256
-0.994052, 1, 281, 500, 344
-0.994054, 305, 281, 432, 344
-0.994074, 57, 1, 120, 128
-0.994108, 65, 109, 192, 140
-0.994128, 321, 81, 352, 208
-0.994139, 225, 233, 480, 296
-0.994144, 225, 129, 256, 192
-0.994158, 209, 281, 240, 344
-0.994162, 193, 105, 224, 168
-0.994181, 261, 273, 292, 336
-0.994246, 81, 137, 208, 168
-0.994258, 301, 249, 332, 312
-0.994287, 101, 145, 132, 208
-0.99429, 181, 81, 212, 144
-0.994367, 333, 81, 364, 208
-0.99438, 149, 313, 180, 375
-0.994423, 97, 53, 224, 84
-0.994517, 81, 241, 144, 368
-0.994518, 213, 241, 244, 368
-0.994554, 129, 129, 256, 160
-0.994579, 437, 225, 468, 288
-0.994617, 249, 65, 280, 192
-0.994629, 321, 249, 352, 312
-0.99464, 249, 297, 312, 360
-0.994643, 273, 161, 304, 224
-0.994647, 225, 129, 352, 160
-0.994659, 241, 281, 368, 344
-0.994766, 49, 313, 112, 375
-0.994839, 1, 265, 256, 328
-0.994844, 329, 113, 392, 176
-0.994854, 289, 289, 352, 352
-0.994904, 345, 33, 408, 288
-0.994919, 105, 97, 136, 160
-0.99492, 381, 129, 412, 256
-0.994925, 293, 225, 324, 352
-0.995009, 257, 185, 384, 248
-0.995044, 157, 81, 172, 144
-0.995054, 401, 129, 464, 375
-0.995077, 113, 317, 240, 348
-0.995085, 131, 49, 146, 112
-0.995097, 167, 113, 182, 176
-0.99511, 273, 105, 304, 168
-0.995121, 49, 25, 176, 88
-0.995186, 147, 105, 162, 168
-0.995189, 301, 105, 332, 168
-0.995208, 225, 313, 288, 375
-0.99524, 161, 121, 176, 184
-0.995257, 65, 97, 192, 128
-0.995266, 145, 117, 272, 148
-0.995293, 1, 249, 500, 312
-0.995296, 377, 209, 408, 272
-0.995307, 81, 153, 208, 184
-0.995363, 205, 193, 236, 320
-0.995374, 249, 209, 280, 336
-0.995417, 65, 81, 192, 112
-0.995455, 137, 129, 152, 192
-0.99547, 369, 153, 400, 216
-0.995476, 205, 105, 236, 168
-0.995493, 113, 177, 144, 240
-0.995507, 213, 201, 244, 264
-0.995512, 159, 145, 174, 208
-0.995547, 261, 161, 292, 288
-0.995548, 113, 329, 240, 360
-0.995556, 163, 49, 178, 112
-0.995557, 273, 161, 400, 192
-0.995569, 153, 25, 184, 88
-0.995572, 405, 257, 436, 320
-0.99558, 193, 73, 320, 136
-0.995609, 369, 113, 400, 240
-0.995611, 121, 33, 152, 96
-0.995617, 341, 121, 372, 184
-0.995621, 177, 289, 304, 320
-0.995621, 225, 313, 352, 375
-0.995632, 249, 97, 280, 160
-0.995656, 393, 129, 424, 256
-0.995671, 465, 209, 496, 336
-0.995697, 147, 49, 162, 112
-0.995763, 153, 49, 168, 112
-0.99579, 25, 313, 88, 375
-0.995798, 179, 129, 194, 192
-0.995802, 221, 153, 252, 216
-0.995804, 153, 105, 168, 168
-0.99581, 113, 105, 240, 136
-0.995849, 265, 193, 296, 256
-0.995914, 281, 209, 312, 336
-0.995915, 153, 65, 184, 320
-0.995925, 163, 89, 178, 152
-0.99594, 151, 137, 166, 200
-0.995964, 33, 289, 160, 352
-0.995974, 317, 105, 348, 168
-0.995976, 233, 209, 264, 336
-0.995979, 137, 49, 152, 112
-0.995986, 297, 185, 328, 248
-0.995989, 1, 225, 256, 288
-0.996003, 141, 73, 156, 136
-0.99601, 169, 145, 184, 208
-0.996011, 301, 65, 332, 192
-0.996032, 173, 113, 188, 176
-0.996038, 337, 265, 464, 296
-0.996069, 177, 301, 304, 332
-0.9961, 131, 81, 146, 144
-0.9961, 33, 125, 160, 156
-0.996105, 1, 201, 256, 264
-0.99611, 133, 105, 148, 168
-0.996128, 321, 209, 448, 240
-0.996136, 177, 313, 304, 344
-0.996158, 425, 129, 488, 375
-0.996177, 1, 25, 128, 88
-0.996188, 393, 1, 456, 375
-0.996191, 129, 241, 256, 272
-0.996191, 125, 65, 156, 320
-0.996196, 201, 33, 232, 160
-0.996204, 143, 129, 158, 192
-0.996206, 81, 65, 208, 96
-0.99622, 129, 197, 256, 228
-0.996222, 177, 277, 304, 308
-0.996232, 337, 273, 400, 336
-0.996235, 161, 289, 192, 352
-0.996241, 289, 181, 416, 212
-0.996242, 113, 301, 240, 332
-0.996254, 329, 113, 360, 176
-0.996261, 129, 89, 384, 152
-0.996266, 337, 137, 352, 200
-0.996267, 257, 141, 384, 172
-0.996271, 305, 305, 432, 368
-0.996306, 377, 169, 392, 232
-0.996308, 305, 193, 432, 224
-0.996309, 81, 165, 208, 196
-0.99635, 1, 193, 128, 256
-0.996367, 1, 113, 500, 176
-0.996373, 241, 217, 272, 280
-0.996374, 205, 313, 220, 375
-0.996386, 93, 97, 108, 160
-0.9964, 151, 73, 166, 136
-0.996425, 329, 177, 360, 304
-0.996426, 337, 277, 464, 308
-0.996438, 201, 169, 232, 232
-0.99645, 201, 65, 232, 128
-0.996457, 171, 81, 186, 144
-0.996462, 1, 169, 256, 232
-0.99648, 367, 161, 382, 224
-0.996481, 145, 149, 272, 180
-0.996484, 125, 57, 140, 120
-0.99649, 145, 253, 272, 284
-0.996491, 441, 249, 472, 312
-0.996493, 337, 249, 464, 280
-0.996522, 351, 145, 366, 208
-0.996525, 145, 181, 272, 212
-0.996534, 129, 209, 256, 240
-0.996535, 129, 33, 384, 96
-0.996543, 185, 1, 216, 256
-0.996548, 169, 177, 200, 240
-0.996551, 113, 77, 240, 108
-0.996563, 113, 93, 240, 124
-0.996564, 243, 105, 258, 168
-0.996569, 179, 105, 194, 168
-0.996588, 325, 129, 340, 192
-0.996589, 389, 233, 420, 296
-0.996594, 137, 65, 168, 320
-0.996599, 297, 121, 312, 184
-0.996612, 113, 289, 176, 352
-0.996618, 285, 65, 316, 192
-0.996643, 97, 281, 224, 312
-0.996651, 161, 1, 288, 64
-0.996658, 139, 97, 154, 160
-0.996667, 383, 177, 398, 240
-0.996668, 113, 33, 144, 288
-0.996669, 161, 105, 288, 136
-0.996693, 145, 265, 272, 296
-0.996702, 165, 65, 196, 320
-0.996706, 255, 121, 270, 184
-0.996719, 319, 129, 334, 192
-0.996736, 193, 9, 256, 72
-0.996745, 353, 289, 480, 320
-0.996747, 193, 117, 320, 148
-0.996752, 283, 129, 298, 192
-0.996755, 93, 137, 108, 200
-0.996756, 185, 281, 200, 344
-0.996758, 93, 33, 124, 288
-0.996761, 361, 153, 376, 216
-0.996784, 49, 1, 112, 375
-0.996796, 129, 313, 144, 375
-0.996798, 265, 129, 280, 192
-0.996806, 81, 9, 144, 72
-0.996812, 187, 137, 202, 200
-0.996817, 357, 137, 388, 200
-0.996819, 429, 249, 460, 312
-0.996823, 97, 341, 224, 372
-0.996828, 125, 209, 156, 336
-0.996847, 345, 145, 360, 208
-0.996863, 193, 325, 320, 356
-0.996891, 399, 193, 414, 256
-0.996899, 313, 129, 328, 192
-0.9969, 393, 185, 408, 248
-0.99692, 49, 221, 176, 252
-0.996922, 129, 229, 256, 260
-0.996925, 225, 197, 352, 228
-0.996944, 411, 209, 426, 272
-0.996983, 127, 105, 142, 168
-0.996988, 119, 57, 134, 120
-0.99699, 169, 49, 184, 112
-0.996993, 175, 153, 190, 216
-0.997041, 241, 1, 368, 64
-0.997061, 93, 41, 108, 104
-0.997064, 99, 73, 114, 136
-0.99707, 97, 265, 224, 296
-0.997075, 179, 273, 194, 336
-0.997086, 25, 193, 88, 256
-0.997086, 331, 129, 346, 192
-0.997086, 353, 309, 480, 340
-0.997107, 185, 113, 200, 176
-0.99711, 131, 129, 146, 192
-0.997122, 233, 49, 264, 176
-0.997122, 291, 121, 306, 184
-0.997123, 183, 41, 198, 104
-0.99715, 353, 333, 480, 364
-0.997152, 49, 209, 176, 240
-0.997152, 321, 221, 448, 252
-0.997159, 81, 1, 208, 64
-0.997213, 145, 193, 160, 256
-0.997216, 33, 137, 160, 168
-0.997235, 239, 185, 254, 248
-0.997238, 317, 97, 348, 352
-0.99724, 199, 129, 214, 192
-0.997252, 203, 289, 218, 352
-0.997259, 103, 49, 118, 112
-0.99728, 199, 25, 214, 88
-0.99729, 17, 341, 144, 372
-0.997302, 353, 321, 480, 352
-0.997303, 17, 49, 144, 80
-0.997303, 305, 129, 320, 192
-0.997308, 99, 145, 114, 208
-0.997319, 257, 137, 500, 200
-0.997331, 193, 337, 320, 368
-0.997346, 405, 145, 436, 272
-0.99735, 163, 249, 178, 312
-0.997366, 423, 225, 438, 288
-0.997375, 87, 49, 102, 112
-0.997383, 271, 129, 286, 192
-0.997396, 1, 57, 500, 120
-0.997398, 175, 49, 190, 112
-0.997399, 405, 201, 420, 264
-0.9974, 377, 289, 440, 352
-0.997401, 191, 281, 206, 344
-0.997403, 193, 145, 320, 176
-0.997417, 135, 313, 150, 375
-0.997445, 153, 249, 168, 312
-0.997461, 257, 257, 384, 288
-0.997462, 97, 253, 224, 284
-0.997466, 437, 289, 452, 352
-0.997469, 249, 113, 264, 176
-0.997474, 225, 209, 352, 240
-0.997478, 193, 193, 224, 320
-0.997487, 259, 161, 274, 224
-0.997488, 177, 129, 208, 375
-0.997495, 177, 129, 304, 160
-0.997504, 197, 289, 212, 352
-0.997504, 145, 165, 272, 196
-0.997506, 369, 225, 496, 256
-0.997508, 333, 129, 364, 375
-0.997508, 191, 305, 206, 368
-0.99752, 105, 137, 120, 200
-0.997523, 439, 313, 454, 375
-0.997529, 435, 265, 450, 328
-0.997547, 173, 273, 188, 336
-0.997556, 445, 297, 460, 360
-0.997569, 109, 49, 124, 112
-0.997572, 369, 33, 432, 288
-0.997572, 209, 177, 336, 208
-0.997575, 121, 81, 136, 144
-0.997579, 87, 113, 102, 176
-0.997596, 417, 217, 432, 280
-0.997605, 145, 341, 272, 372
-0.997605, 33, 61, 160, 92
-0.997605, 1, 89, 500, 152
-0.997608, 161, 41, 288, 72
-0.997614, 353, 345, 480, 375
-0.997625, 193, 137, 208, 200
-0.997626, 357, 129, 388, 375
-0.997627, 275, 161, 290, 224
-0.997646, 81, 41, 208, 72
-0.997647, 321, 237, 448, 268
-0.997651, 325, 217, 340, 280
-0.997663, 1, 33, 500, 96
-0.997674, 65, 241, 192, 272
-0.997681, 237, 97, 252, 160
-0.997684, 277, 129, 292, 192
-0.997689, 313, 297, 376, 360
-0.997694, 111, 145, 126, 208
-0.997699, 281, 97, 312, 352
-0.997699, 99, 121, 114, 184
-0.997704, 145, 65, 272, 96
-0.997726, 169, 105, 184, 136
-0.997731, 97, 185, 224, 216
-0.997731, 209, 237, 336, 268
-0.997735, 209, 257, 336, 288
-0.99774, 161, 313, 176, 375
-0.997741, 141, 313, 156, 375
-0.997747, 161, 57, 416, 120
-0.997753, 247, 177, 262, 240
-0.99776, 49, 197, 176, 228
-0.997761, 115, 177, 130, 240
-0.997763, 225, 65, 256, 320
-0.99777, 1, 97, 128, 128
-0.997771, 305, 97, 336, 352
-0.997776, 167, 313, 182, 375
-0.997785, 353, 173, 480, 204
-0.9978, 319, 201, 334, 264
-0.997809, 169, 249, 184, 312
-0.997812, 177, 209, 304, 240
-0.997824, 257, 269, 384, 300
-0.997824, 177, 313, 192, 375
-0.997837, 147, 233, 162, 296
-0.997843, 237, 97, 268, 352
-0.997843, 145, 53, 272, 84
-0.997847, 49, 177, 176, 208
-0.997851, 211, 313, 226, 375
-0.997858, 89, 73, 104, 136
-0.997874, 185, 89, 200, 152
-0.997877, 301, 249, 316, 312
-0.99788, 417, 1, 480, 375
-0.997885, 191, 33, 206, 96
-0.997892, 345, 233, 360, 296
-0.997906, 295, 249, 310, 312
-0.997906, 345, 129, 376, 375
-0.997913, 203, 161, 218, 224
-0.997915, 253, 193, 268, 256
-0.99792, 225, 165, 352, 196
-0.997932, 1, 113, 128, 144
-0.997933, 185, 249, 200, 312
-0.997938, 177, 197, 304, 228
-0.99794, 177, 81, 192, 144
-0.997945, 195, 105, 210, 168
-0.99795, 141, 217, 156, 280
-0.997957, 139, 89, 154, 120
-0.99796, 157, 97, 172, 128
-0.997971, 319, 225, 334, 288
-0.997982, 429, 225, 444, 288
-0.997984, 17, 165, 144, 196
-0.997991, 449, 193, 480, 320
-0.997993, 99, 97, 114, 160
-0.998007, 89, 129, 120, 375
-0.99801, 141, 121, 156, 152
-0.998012, 221, 137, 236, 200
-0.998014, 161, 77, 288, 108
-0.998018, 225, 65, 288, 128
-0.998031, 17, 325, 144, 356
-0.99804, 205, 129, 236, 375
-0.998043, 159, 225, 174, 288
-0.998044, 33, 149, 160, 180
-0.998045, 443, 273, 458, 336
-0.998067, 199, 313, 214, 375
-0.998068, 205, 41, 220, 104
-0.998078, 161, 145, 176, 176
-0.998084, 337, 149, 464, 180
-0.998085, 321, 129, 448, 160
-0.998118, 41, 25, 104, 88
-0.998119, 369, 185, 496, 216
-0.998126, 353, 161, 480, 192
-0.998128, 167, 93, 182, 124
-0.998131, 149, 105, 164, 136
-0.998146, 197, 1, 228, 256
-0.998155, 65, 329, 192, 360
-0.998157, 153, 141, 168, 172
-0.99816, 133, 93, 148, 124
-0.998164, 161, 109, 176, 140
-0.998164, 161, 89, 288, 120
-0.99818, 341, 209, 372, 336
-0.998183, 273, 245, 400, 276
-0.998192, 89, 45, 104, 76
-0.998203, 281, 161, 312, 288
-0.998209, 369, 213, 496, 244
-0.998222, 1, 77, 128, 108
-0.998252, 253, 97, 284, 352
-0.998252, 375, 169, 390, 200
-0.998255, 157, 85, 172, 116
-0.998256, 199, 33, 214, 64
-0.998257, 293, 97, 324, 352
-0.99827, 41, 1, 104, 256
-0.998275, 337, 137, 352, 168
-0.998275, 169, 149, 184, 180
-0.998288, 135, 133, 150, 164
-0.998291, 373, 209, 404, 336
-0.998299, 135, 113, 150, 144
-0.9983, 189, 129, 220, 375
-0.998303, 441, 319, 472, 334
-0.998303, 241, 17, 304, 144
-0.998304, 421, 277, 452, 292
-0.998304, 385, 195, 416, 210
-0.998304, 285, 159, 316, 174
-0.998304, 121, 345, 152, 360
-0.998305, 193, 327, 224, 342
-0.998306, 117, 139, 148, 154
-0.998306, 253, 233, 284, 248
-0.998306, 277, 133, 308, 148
-0.998308, 197, 341, 228, 356
-0.998308, 165, 131, 196, 146
-0.998308, 393, 209, 424, 224
-0.998308, 265, 125, 296, 140
-0.998308, 425, 321, 456, 336
-0.998309, 237, 191, 268, 206
-0.998309, 253, 187, 284, 202
-0.99831, 205, 359, 236, 374
-0.99831, 221, 199, 252, 214
-0.99831, 93, 105, 124, 120
-0.998311, 85, 55, 116, 70
-0.998311, 125, 209, 156, 224
-0.998311, 233, 221, 264, 236
-0.998312, 77, 141, 108, 156
-0.998313, 257, 97, 500, 160
-0.998314, 249, 213, 280, 228
-0.998314, 137, 209, 168, 224
-0.998315, 457, 361, 488, 375
-0.998316, 173, 45, 204, 60
-0.998317, 253, 173, 284, 188
-0.998317, 221, 175, 252, 190
-0.998318, 193, 309, 224, 324
-0.998318, 177, 131, 208, 146
-0.998318, 429, 333, 460, 348
-0.998318, 197, 349, 228, 364
-0.998318, 265, 135, 296, 150
-0.998319, 97, 53, 128, 68
-0.99832, 249, 227, 280, 242
-0.99832, 213, 353, 244, 368
-0.99832, 93, 145, 124, 160
-0.998321, 441, 313, 472, 328
-0.998321, 313, 257, 344, 272
-0.998322, 265, 273, 296, 288
-0.998322, 189, 131, 220, 146
-0.998322, 233, 229, 264, 244
-0.998323, 273, 129, 400, 160
-0.998323, 293, 271, 324, 286
-0.998323, 129, 143, 160, 158
-0.998324, 289, 251, 320, 266
-0.998324, 145, 197, 176, 212
-0.998324, 437, 361, 468, 375
-0.998324, 89, 115, 120, 130
-0.998325, 125, 99, 156, 114
-0.998326, 241, 125, 272, 140
-0.998326, 377, 189, 408, 204
-0.998327, 113, 117, 144, 132
-0.998327, 349, 149, 364, 180
-0.998328, 181, 137, 212, 152
-0.998328, 177, 125, 208, 140
-0.998328, 145, 161, 176, 176
-0.998328, 189, 303, 220, 318
-0.998328, 161, 95, 192, 110
-0.998329, 113, 109, 144, 124
-0.998329, 425, 289, 456, 304
-0.99833, 141, 139, 172, 154
-0.99833, 425, 283, 456, 298
-0.998331, 237, 185, 268, 200
-0.998331, 281, 257, 312, 272
-0.998331, 319, 133, 334, 164
-0.998331, 425, 327, 456, 342
-0.998333, 397, 217, 428, 232
-0.998334, 133, 105, 164, 120
-0.998334, 137, 91, 168, 106
-0.998336, 273, 267, 304, 282
-0.998336, 425, 301, 456, 316
-0.998337, 193, 333, 224, 348
-0.998337, 145, 55, 176, 70
-0.998338, 185, 109, 216, 124
-0.998339, 289, 245, 320, 260
-0.99834, 213, 335, 244, 350
-0.998341, 149, 155, 180, 170
-0.998341, 89, 129, 120, 144
-0.998342, 93, 99, 124, 114
-0.998343, 189, 297, 220, 312
-0.998343, 301, 133, 332, 148
-0.998343, 93, 91, 124, 106
-0.998344, 125, 89, 156, 104
-0.998344, 125, 111, 156, 126
-0.998344, 93, 81, 124, 96
-0.998345, 213, 347, 244, 362
-0.998345, 277, 277, 308, 292
-0.998347, 161, 151, 192, 166
-0.998347, 369, 183, 400, 198
-0.998351, 213, 327, 244, 342
-0.998351, 301, 255, 332, 270
-0.998351, 145, 141, 160, 172
-0.998353, 93, 137, 124, 152
-0.998353, 233, 237, 264, 252
-0.998355, 129, 129, 160, 144
-0.998356, 137, 97, 168, 112
-0.998356, 213, 341, 244, 356
-0.998356, 241, 1, 304, 64
-0.998357, 237, 203, 268, 218
-0.998357, 141, 203, 172, 218
-0.998357, 361, 171, 392, 186
-0.998359, 193, 315, 224, 330
-0.998362, 173, 119, 204, 134
-0.998362, 241, 25, 368, 88
-0.998364, 137, 53, 152, 84
-0.998365, 153, 101, 184, 116
-0.998365, 161, 157, 192, 172
-0.998367, 113, 59, 144, 74
-0.998369, 333, 147, 364, 162
-0.998369, 237, 119, 268, 134
-0.99837, 305, 245, 336, 260
-0.998374, 369, 197, 496, 228
-0.998374, 181, 45, 196, 76
-0.998374, 313, 137, 344, 152
-0.998375, 185, 45, 216, 60
-0.998375, 209, 221, 336, 252
-0.998376, 193, 321, 224, 336
-0.998376, 129, 135, 160, 150
-0.998379, 269, 97, 300, 352
-0.998381, 349, 161, 380, 176
-0.998381, 127, 105, 142, 136
-0.998382, 169, 103, 200, 118
-0.998385, 165, 51, 196, 66
-0.998387, 343, 145, 358, 176
-0.998387, 133, 55, 164, 70
-0.998396, 341, 153, 372, 168
-0.998398, 1, 1, 128, 64
-0.998398, 125, 117, 156, 132
-0.998398, 329, 137, 344, 168
-0.9984, 165, 109, 196, 124
-0.998401, 127, 57, 142, 88
-0.998402, 145, 107, 176, 122
-0.998405, 255, 121, 270, 152
-0.998405, 129, 81, 144, 112
-0.998406, 369, 165, 384, 196
-0.998409, 289, 129, 320, 144
-0.99841, 9, 193, 72, 320
-0.998415, 161, 115, 192, 130
-0.998419, 325, 141, 356, 156
-0.998419, 313, 209, 344, 336
-0.99842, 139, 101, 154, 132
-0.998423, 161, 121, 192, 136
-0.998426, 233, 209, 264, 224
-0.998426, 123, 89, 138, 120
-0.998428, 241, 117, 368, 148
-0.998431, 125, 123, 156, 138
-0.998432, 363, 161, 378, 192
-0.998434, 145, 125, 176, 140
-0.998438, 313, 133, 328, 164
-0.998443, 141, 145, 172, 160
-0.998444, 179, 93, 194, 124
-0.99845, 189, 39, 220, 54
-0.998455, 193, 33, 208, 64
-0.998462, 85, 49, 116, 64
-0.998473, 145, 113, 176, 128
-0.998473, 273, 209, 400, 240
-0.998479, 175, 49, 190, 80
-0.998481, 187, 41, 202, 72
-0.99849, 355, 153, 370, 184
-0.998501, 137, 119, 200, 134
-0.998502, 137, 127, 200, 142
-0.998506, 155, 53, 170, 84
-0.998512, 169, 49, 184, 80
-0.998516, 99, 49, 114, 80
-0.998521, 145, 119, 176, 134
-0.998523, 177, 105, 192, 136
-0.998524, 163, 125, 178, 156
-0.998526, 281, 133, 344, 148
-0.998527, 289, 33, 416, 160
-0.998533, 33, 33, 288, 96
-0.998536, 137, 111, 200, 126
-0.998542, 307, 129, 322, 160
-0.998544, 235, 209, 250, 240
-0.998552, 383, 177, 398, 208
-0.998559, 91, 141, 106, 172
-0.99856, 297, 125, 312, 156
-0.99856, 385, 225, 416, 352
-0.998561, 241, 197, 256, 228
-0.998564, 161, 53, 176, 84
-0.998565, 121, 57, 136, 88
-0.998569, 113, 115, 176, 130
-0.998571, 81, 121, 144, 136
-0.998571, 121, 55, 184, 70
-0.998572, 121, 145, 184, 160
-0.998573, 81, 137, 144, 152
-0.998574, 89, 91, 152, 106
-0.998576, 177, 161, 192, 192
-0.998577, 261, 209, 292, 336
-0.998577, 209, 333, 224, 364
-0.998577, 81, 129, 144, 144
-0.998578, 137, 133, 200, 148
-0.998579, 377, 129, 408, 375
-0.998581, 245, 109, 260, 140
-0.998583, 73, 53, 136, 68
-0.998584, 261, 125, 276, 156
-0.998584, 155, 153, 170, 184
-0.998585, 267, 209, 282, 240
-0.998586, 81, 115, 144, 130
-0.998587, 197, 129, 212, 160
-0.998587, 305, 1, 432, 64
-0.998588, 169, 321, 232, 336
-0.99859, 89, 99, 152, 114
-0.99859, 433, 265, 448, 296
-0.99859, 89, 143, 152, 158
-0.998591, 161, 107, 224, 122
-0.998592, 293, 253, 308, 284
-0.998593, 161, 313, 224, 328
-0.998594, 113, 99, 176, 114
-0.998596, 151, 81, 166, 112
-0.998603, 445, 305, 460, 336
-0.998603, 225, 211, 288, 226
-0.998604, 313, 151, 376, 166
-0.998604, 201, 329, 264, 344
-0.998606, 89, 59, 152, 74
-0.998607, 137, 105, 200, 120
-0.99861, 161, 113, 224, 128
-0.99861, 97, 155, 160, 170
-0.998613, 113, 139, 176, 154
-0.998614, 337, 177, 400, 192
-0.998615, 113, 121, 176, 136
-0.998615, 179, 129, 194, 160
-0.998616, 177, 131, 240, 146
-0.998618, 143, 201, 158, 232
-0.99862, 257, 131, 320, 146
-0.99862, 113, 109, 176, 124
-0.99862, 329, 169, 392, 184
-0.998621, 89, 149, 152, 164
-0.998621, 289, 129, 304, 160
-0.998622, 321, 163, 384, 178
-0.998623, 139, 77, 154, 108
-0.998625, 233, 205, 296, 220
-0.998625, 169, 333, 232, 348
-0.998626, 225, 129, 288, 144
-0.998626, 313, 157, 376, 172
-0.998626, 281, 257, 344, 272
-0.998626, 183, 113, 198, 144
-0.998627, 185, 133, 200, 164
-0.998628, 437, 285, 452, 316
-0.998628, 297, 139, 360, 154
-0.998629, 89, 105, 152, 120
-0.998631, 225, 189, 288, 204
-0.998631, 201, 321, 264, 336
-0.998632, 65, 317, 192, 348
-0.998632, 161, 119, 224, 134
-0.998633, 169, 327, 232, 342
-0.998636, 165, 77, 180, 108
-0.998637, 113, 89, 176, 104
-0.998638, 169, 117, 184, 148
-0.998639, 161, 153, 224, 168
-0.998639, 169, 339, 232, 354
-0.998639, 145, 139, 208, 154
-0.998641, 169, 345, 232, 360
-0.998641, 393, 275, 456, 290
-0.998642, 115, 57, 130, 88
-0.998642, 191, 125, 206, 156
-0.998644, 201, 335, 264, 350
-0.998644, 145, 249, 208, 264
-0.998645, 297, 145, 360, 160
-0.998646, 89, 75, 152, 90
-0.998647, 121, 151, 184, 166
-0.998647, 99, 93, 114, 124
-0.998647, 161, 51, 224, 66
-0.998648, 161, 305, 224, 320
-0.998648, 185, 307, 248, 322
-0.998649, 393, 283, 456, 298
-0.998649, 345, 185, 408, 200
-0.99865, 97, 163, 160, 178
-0.99865, 177, 141, 240, 156
-0.99865, 201, 315, 264, 330
-0.99865, 137, 201, 200, 216
-0.99865, 185, 299, 248, 314
-0.998651, 163, 157, 178, 188
-0.998652, 89, 81, 152, 96
-0.998652, 241, 281, 368, 312
-0.998653, 161, 69, 224, 84
-0.998654, 401, 241, 432, 368
-0.998654, 161, 297, 224, 312
-0.998655, 353, 191, 416, 206
-0.998655, 105, 53, 120, 84
-0.998656, 425, 275, 488, 290
-0.998656, 225, 183, 288, 198
-0.998657, 209, 33, 240, 288
-0.998659, 257, 125, 320, 140
-0.998659, 217, 123, 280, 138
-0.998659, 201, 345, 264, 360
-0.99866, 271, 193, 286, 224
-0.99866, 137, 161, 200, 176
-0.99866, 153, 93, 216, 108
-0.998662, 415, 217, 430, 248
-0.998662, 369, 207, 432, 222
-0.998662, 401, 359, 464, 374
-0.998663, 121, 73, 184, 88
-0.998663, 393, 289, 456, 304
-0.998664, 369, 213, 432, 228
-0.998664, 441, 329, 456, 360
-0.998664, 129, 207, 192, 222
-0.998665, 153, 85, 216, 100
-0.998666, 289, 251, 352, 266
-0.998666, 433, 357, 496, 372
-0.998666, 153, 147, 216, 162
-0.998667, 161, 125, 224, 140
-0.998667, 369, 237, 496, 268
-0.998667, 161, 289, 224, 304
-0.998667, 145, 243, 208, 258
-0.998668, 201, 203, 264, 218
-0.998668, 153, 263, 216, 278
-0.998668, 89, 67, 152, 82
-0.998669, 169, 43, 232, 58
-0.99867, 361, 197, 424, 212
-0.99867, 393, 301, 456, 316
-0.998671, 105, 133, 168, 148
-0.998671, 169, 351, 232, 366
-0.998671, 401, 327, 464, 342
-0.998671, 113, 127, 176, 142
-0.998671, 401, 295, 464, 310
-0.998671, 401, 309, 464, 324
-0.998672, 377, 221, 440, 236
-0.998672, 393, 269, 456, 284
-0.998674, 161, 79, 224, 94
-0.998674, 433, 315, 496, 330
-0.998674, 225, 135, 288, 150
-0.998675, 145, 255, 208, 270
-0.998675, 433, 309, 496, 324
-0.998676, 201, 113, 264, 128
-0.998676, 393, 319, 456, 334
-0.998676, 401, 333, 464, 348
-0.998677, 273, 245, 336, 260
-0.998677, 153, 63, 216, 78
-0.998678, 225, 239, 288, 254
-0.998678, 257, 261, 320, 276
-0.998679, 425, 281, 488, 296
-0.99868, 97, 353, 160, 368
-0.99868, 201, 293, 264, 308
-0.998681, 433, 293, 496, 308
-0.998681, 49, 141, 112, 156
-0.998681, 161, 101, 224, 116
-0.998682, 433, 303, 496, 318
-0.998682, 205, 317, 220, 348
-0.998682, 201, 219, 264, 234
-0.998682, 297, 263, 360, 278
-0.998683, 137, 237, 200, 252
-0.998684, 137, 99, 200, 114
-0.998684, 401, 349, 464, 364
-0.99869, 211, 345, 226, 375
-0.998693, 257, 221, 384, 252
-0.998699, 145, 53, 160, 84
-0.9987, 283, 129, 298, 160
-0.998702, 309, 253, 324, 284
-0.998704, 261, 217, 276, 248
-0.998717, 301, 249, 316, 280
-0.998719, 389, 181, 404, 212
-0.998722, 129, 329, 144, 360
-0.998723, 421, 225, 436, 256
-0.998735, 321, 213, 336, 244
-0.998738, 95, 125, 110, 156
-0.99874, 171, 161, 186, 192
-0.998743, 409, 209, 424, 240
-0.998746, 235, 237, 250, 268
-0.998746, 267, 133, 282, 164
-0.99875, 173, 93, 188, 124
-0.998752, 167, 181, 182, 212
-0.998752, 151, 33, 166, 160
-0.998754, 149, 153, 164, 184
-0.998755, 397, 193, 412, 224
-0.998757, 175, 117, 190, 148
-0.998757, 173, 181, 188, 212
-0.998759, 137, 145, 152, 176
-0.998759, 369, 1, 496, 64
-0.99876, 157, 73, 172, 104
-0.998762, 91, 101, 106, 132
-0.998766, 447, 345, 462, 375
-0.998766, 115, 105, 130, 136
-0.998766, 161, 185, 176, 216
-0.998768, 127, 141, 142, 172
-0.998768, 155, 253, 170, 284
-0.998768, 175, 145, 190, 176
-0.998771, 145, 89, 160, 120
-0.998775, 147, 121, 162, 152
-0.998776, 151, 93, 166, 124
-0.998781, 149, 193, 164, 224
-0.998788, 99, 145, 114, 176
-0.998791, 285, 273, 300, 304
-0.998795, 307, 165, 322, 196
-0.998815, 81, 33, 112, 288
-0.998816, 239, 105, 254, 136
-0.99882, 169, 129, 184, 160
-0.998825, 241, 17, 368, 144
-0.998826, 201, 297, 216, 328
-0.998831, 197, 109, 212, 140
-0.998836, 163, 261, 178, 292
-0.998837, 403, 197, 418, 228
-0.998841, 99, 81, 114, 112
-0.998842, 443, 289, 458, 320
-0.998843, 155, 109, 170, 140
-0.998848, 231, 177, 246, 208
-0.998852, 203, 125, 218, 156
-0.998858, 187, 97, 202, 128
-0.998866, 261, 1, 292, 256
-0.998867, 17, 313, 144, 344
-0.99887, 139, 33, 154, 160
-0.99887, 289, 117, 416, 148
-0.99887, 225, 105, 352, 136
-0.99889, 193, 65, 320, 96
-0.998904, 1, 169, 128, 232
-0.998913, 143, 81, 158, 208
-0.99892, 101, 129, 132, 375
-0.998923, 225, 49, 352, 112
-0.998955, 153, 81, 168, 208
-0.998956, 273, 233, 400, 264
-0.998972, 145, 33, 160, 160
-0.998991, 237, 1, 268, 256
-0.998996, 97, 81, 112, 208
-0.998999, 241, 309, 368, 340
-0.998999, 173, 241, 188, 368
-0.999012, 1, 221, 128, 252
-0.999015, 259, 113, 274, 240
-0.999023, 171, 97, 186, 224
-0.99903, 161, 33, 176, 160
-0.999046, 49, 193, 112, 256
-0.999046, 159, 97, 174, 224
-0.999088, 389, 129, 420, 375
-0.99909, 167, 241, 182, 368
-0.999092, 329, 1, 360, 256
-0.999099, 177, 97, 192, 224
-0.999103, 129, 49, 144, 176
-0.99911, 1, 185, 64, 248
-0.999114, 161, 241, 176, 368
-0.999119, 167, 33, 182, 160
-0.999125, 49, 253, 176, 284
-0.999126, 289, 281, 416, 312
-0.99913, 179, 241, 194, 368
-0.999132, 251, 97, 266, 224
-0.999137, 113, 129, 144, 375
-0.999153, 149, 129, 164, 256
-0.999162, 165, 97, 180, 224
-0.999165, 225, 293, 352, 324
-0.999169, 103, 81, 118, 208
-0.999174, 335, 129, 350, 256
-0.999178, 155, 241, 170, 368
-0.999179, 245, 97, 260, 224
-0.999197, 185, 241, 200, 368
-0.999198, 367, 145, 382, 272
-0.999202, 309, 1, 340, 256
-0.99921, 177, 33, 192, 160
-0.999215, 321, 113, 336, 240
-0.999217, 345, 33, 376, 288
-0.999218, 375, 161, 390, 288
-0.999219, 115, 49, 130, 176
-0.999223, 345, 129, 360, 256
-0.999223, 239, 97, 254, 224
-0.999223, 299, 113, 314, 240
-0.999224, 385, 161, 400, 288
-0.999233, 193, 53, 320, 84
-0.999239, 267, 113, 282, 240
-0.999252, 91, 97, 106, 224
-0.999262, 433, 161, 496, 288
-0.999264, 353, 129, 368, 256
-0.999268, 117, 161, 132, 288
-0.99928, 109, 97, 124, 224
-0.999283, 273, 1, 304, 256
-0.999287, 131, 97, 146, 224
-0.999287, 119, 113, 134, 240
-0.999295, 137, 113, 152, 240
-0.999297, 153, 177, 168, 304
-0.999298, 313, 113, 328, 240
-0.999298, 407, 193, 422, 320
-0.999302, 103, 129, 118, 256
-0.99931, 121, 49, 136, 176
-0.999311, 423, 209, 438, 336
-0.999312, 183, 97, 198, 224
-0.999315, 285, 113, 300, 240
-0.999316, 111, 161, 126, 288
-0.999321, 95, 33, 110, 160
-0.999334, 249, 1, 280, 256
-0.999336, 85, 49, 100, 176
-0.999336, 149, 241, 164, 368
-0.999339, 391, 177, 406, 304
-0.99934, 293, 113, 308, 240
-0.999342, 97, 129, 112, 256
-0.999344, 109, 49, 124, 176
-0.999352, 201, 241, 216, 368
-0.999353, 361, 145, 376, 272
-0.999357, 191, 241, 206, 368
-0.999367, 281, 313, 344, 375
-0.999368, 273, 293, 400, 324
-0.999371, 397, 177, 412, 304
-0.999375, 329, 129, 344, 256
-0.999381, 405, 129, 436, 375
-0.999393, 307, 113, 322, 240
-0.999395, 233, 81, 248, 208
-0.999395, 413, 193, 428, 320
-0.999396, 143, 161, 158, 288
-0.999401, 279, 113, 294, 240
-0.999406, 123, 161, 138, 288
-0.999416, 435, 241, 450, 368
-0.999429, 273, 113, 288, 240
-0.99943, 103, 33, 118, 160
-0.999432, 143, 225, 158, 352
-0.999439, 185, 33, 200, 160
-0.999444, 161, 29, 288, 60
-0.999445, 429, 209, 444, 336
-0.999446, 159, 177, 174, 304
-0.999447, 165, 177, 180, 304
-0.999459, 209, 93, 336, 124
-0.999465, 373, 33, 404, 288
-0.999466, 125, 113, 140, 240
-0.999467, 41, 97, 104, 224
-0.999477, 219, 129, 234, 256
-0.999481, 297, 1, 328, 256
-0.999486, 447, 241, 462, 368
-0.999491, 1, 241, 128, 368
-0.999492, 305, 321, 432, 352
-0.999504, 113, 241, 144, 368
-0.999504, 189, 109, 204, 124
-0.999504, 287, 175, 302, 190
-0.999505, 133, 109, 148, 124
-0.999506, 439, 329, 454, 344
-0.999506, 197, 141, 212, 156
-0.999506, 257, 233, 272, 248
-0.999506, 269, 269, 284, 284
-0.999506, 127, 85, 142, 100
-0.999507, 189, 143, 204, 158
-0.999507, 313, 135, 328, 150
-0.999507, 97, 75, 112, 90
-0.999508, 157, 143, 172, 158
-0.999508, 91, 141, 106, 156
-0.999508, 403, 207, 418, 222
-0.999509, 179, 109, 194, 124
-0.999509, 293, 259, 308, 274
-0.999509, 207, 333, 222, 348
-0.999509, 249, 117, 264, 132
-0.99951, 255, 205, 270, 220
-0.99951, 445, 305, 460, 320
-0.99951, 143, 205, 158, 220
-0.99951, 309, 253, 324, 268
-0.99951, 159, 55, 174, 70
-0.99951, 105, 53, 120, 68
-0.999511, 257, 345, 384, 375
-0.999511, 135, 135, 150, 150
-0.999513, 273, 181, 288, 196
-0.999513, 267, 183, 282, 198
-0.999513, 171, 127, 186, 142
-0.999514, 305, 131, 320, 146
-0.999514, 311, 239, 326, 254
-0.999514, 241, 209, 256, 224
-0.999515, 439, 301, 454, 316
-0.999515, 231, 129, 246, 256
-0.999515, 149, 53, 164, 68
-0.999515, 285, 257, 300, 272
-0.999515, 437, 285, 452, 300
-0.999515, 265, 219, 280, 234
-0.999515, 263, 131, 278, 146
-0.999517, 399, 197, 414, 212
-0.999517, 211, 351, 226, 366
-0.999518, 171, 153, 186, 168
-0.999518, 447, 361, 462, 375
-0.999518, 141, 99, 156, 114
-0.999518, 235, 239, 250, 254
-0.999518, 99, 93, 114, 108
-0.999518, 209, 319, 224, 334
-0.999519, 385, 183, 400, 198
-0.999519, 307, 261, 322, 276
-0.99952, 343, 145, 358, 160
-0.999521, 237, 203, 252, 218
-0.999521, 133, 81, 148, 96
-0.999522, 267, 189, 282, 204
-0.999522, 283, 279, 298, 294
-0.999523, 99, 87, 114, 102
-0.999523, 359, 157, 374, 172
-0.999523, 173, 51, 188, 66
-0.999523, 289, 279, 304, 294
-0.999524, 175, 95, 190, 110
-0.999524, 289, 131, 304, 146
-0.999525, 149, 107, 164, 122
-0.999526, 157, 105, 172, 120
-0.999526, 263, 171, 278, 186
-0.999527, 317, 261, 332, 276
-0.999527, 257, 125, 272, 140
-0.999527, 265, 205, 280, 220
-0.99953, 145, 143, 160, 158
-0.99953, 369, 167, 384, 182
-0.99953, 175, 145, 190, 272
-0.99953, 227, 81, 242, 208
-0.999531, 141, 123, 156, 138
-0.999531, 301, 243, 316, 258
-0.999532, 199, 113, 214, 240
-0.999532, 309, 247, 324, 262
-0.999533, 185, 103, 200, 118
-0.999533, 301, 255, 316, 270
-0.999534, 363, 163, 378, 178
-0.999534, 111, 57, 126, 72
-0.999535, 331, 139, 346, 154
-0.999535, 297, 129, 312, 144
-0.999535, 179, 117, 194, 132
-0.999536, 167, 53, 182, 68
-0.999536, 121, 59, 136, 74
-0.999537, 157, 81, 172, 96
-0.999538, 163, 149, 178, 164
-0.999538, 167, 95, 182, 110
-0.999538, 161, 87, 176, 102
-0.999539, 129, 121, 144, 136
-0.999539, 145, 91, 160, 106
-0.99954, 325, 137, 340, 152
-0.99954, 347, 151, 362, 166
-0.99954, 375, 173, 390, 188
-0.999541, 141, 129, 156, 144
-0.999541, 151, 141, 166, 156
-0.999542, 173, 105, 188, 120
-0.999543, 357, 1, 388, 256
-0.999543, 319, 135, 334, 150
-0.999543, 441, 209, 456, 336
-0.999543, 117, 109, 132, 124
-0.999545, 257, 227, 272, 242
-0.999545, 129, 97, 144, 112
-0.999546, 169, 9, 232, 72
-0.999546, 123, 1, 138, 128
-0.999548, 157, 111, 172, 126
-0.999548, 127, 115, 142, 130
-0.999548, 377, 113, 392, 240
-0.999549, 93, 47, 108, 62
-0.99955, 125, 107, 140, 122
-0.99955, 267, 275, 282, 290
-0.99955, 243, 203, 258, 218
-0.99955, 99, 51, 114, 66
-0.999552, 285, 273, 300, 288
-0.999552, 193, 81, 208, 208
-0.999553, 185, 45, 200, 60
-0.999553, 301, 225, 316, 352
-0.999554, 191, 39, 206, 54
-0.999555, 135, 99, 150, 114
-0.999555, 133, 1, 148, 128
-0.999555, 213, 129, 228, 256
-0.999556, 163, 117, 178, 132
-0.999559, 33, 241, 160, 304
-0.99956, 127, 59, 142, 74
-0.999561, 353, 153, 368, 168
-0.999562, 337, 143, 352, 158
-0.999562, 199, 35, 214, 50
-0.999564, 133, 127, 148, 142
-0.999564, 139, 115, 154, 130
-0.999565, 111, 1, 126, 128
-0.999565, 179, 103, 194, 118
-0.999565, 189, 129, 204, 256
-0.999566, 303, 249, 318, 264
-0.999568, 133, 89, 148, 104
-0.999569, 235, 211, 250, 226
-0.999569, 263, 161, 278, 288
-0.999569, 161, 99, 176, 114
-0.999569, 253, 161, 268, 288
-0.99957, 139, 85, 154, 100
-0.999571, 179, 49, 194, 64
-0.999571, 163, 155, 178, 170
-0.999575, 155, 87, 170, 102
-0.999576, 295, 225, 310, 352
-0.999576, 137, 55, 152, 70
-0.999577, 361, 97, 376, 224
-0.999577, 435, 193, 450, 320
-0.999578, 159, 93, 174, 108
-0.999579, 203, 33, 218, 160
-0.99958, 193, 1, 208, 128
-0.99958, 245, 145, 260, 272
-0.999581, 87, 47, 102, 62
-0.999582, 241, 1, 368, 32
-0.999584, 221, 81, 236, 208
-0.999591, 81, 29, 208, 60
-0.999591, 225, 129, 240, 256
-0.999595, 173, 111, 188, 126
-0.999599, 65, 301, 192, 332
-0.999602, 139, 91, 154, 106
-0.99961, 257, 65, 272, 192
-0.999613, 269, 161, 284, 288
-0.999615, 167, 103, 182, 118
-0.99962, 339, 81, 354, 208
-0.999622, 171, 193, 186, 320
-0.999626, 135, 121, 150, 136
-0.999628, 205, 145, 220, 272
-0.99963, 207, 97, 222, 224
-0.999632, 177, 193, 192, 320
-0.999641, 181, 145, 196, 272
-0.999644, 367, 97, 382, 224
-0.999644, 169, 121, 184, 136
-0.999645, 167, 111, 182, 126
-0.999645, 241, 325, 368, 356
-0.999647, 117, 1, 132, 128
-0.999647, 137, 161, 152, 288
-0.999647, 329, 81, 344, 208
-0.999648, 417, 129, 448, 375
-0.999648, 209, 81, 336, 112
-0.99965, 77, 129, 108, 375
-0.999652, 301, 177, 316, 304
-0.999654, 91, 145, 106, 272
-0.999657, 85, 113, 100, 240
-0.99966, 383, 113, 398, 240
-0.99966, 391, 129, 406, 256
-0.99966, 129, 161, 144, 288
-0.999668, 161, 1, 288, 32
-0.999674, 89, 1, 104, 128
-0.999676, 453, 241, 468, 368
-0.999679, 479, 209, 494, 336
-0.999681, 461, 209, 476, 336
-0.999683, 299, 65, 314, 192
-0.999685, 345, 81, 360, 208
-0.999685, 471, 209, 486, 336
-0.999686, 183, 193, 198, 320
-0.999691, 293, 177, 308, 304
-0.999771, 285, 1, 316, 256
-0.999821, 89, 289, 152, 352
-0.999843, 1, 1, 256, 64
-0.999851, 357, 193, 388, 320
-0.999864, 161, 201, 224, 264
-0.999871, 369, 313, 432, 375
-0.999905, 437, 129, 468, 375
-0.999919, 1, 9, 500, 72
-0.999926, 129, 9, 384, 72
-0.999969, 41, 193, 104, 320
-0.999985, 433, 201, 496, 264
-1.00012, 385, 33, 416, 288
-1.00018, 69, 1, 100, 256
-1.00024, 289, 81, 416, 144
-1.0003, 225, 1, 480, 64
-1.0004, 401, 33, 432, 288
-1.00045, 49, 1, 112, 64
-1.0005, 273, 57, 400, 120
-1.00059, 217, 33, 248, 160
-1.00061, 345, 297, 408, 360
-1.00069, 1, 97, 32, 352
-1.00071, 13, 97, 44, 352
-1.00082, 41, 97, 72, 352
-1.00088, 25, 97, 56, 352
-1.0009, 41, 97, 104, 352
-1.0009, 57, 97, 88, 352
-1.00091, 465, 129, 496, 375
-1.00093, 449, 129, 480, 375
-1.00106, 369, 89, 496, 152
-1.00108, 257, 25, 500, 88
-1.00115, 425, 33, 456, 288
-1.00116, 5, 193, 36, 320
-1.00117, 413, 33, 444, 288
-1.00117, 453, 1, 484, 256
-1.00121, 469, 1, 500, 256
-1.00121, 25, 193, 56, 320
-1.00127, 305, 25, 432, 88
-1.00128, 469, 161, 500, 288
-1.00136, 441, 1, 472, 256
-1.00137, 417, 145, 448, 272
-1.00143, 369, 25, 496, 88
-1.00156, 1, 1, 32, 256
-1.00156, 257, 73, 500, 136
-1.00157, 13, 1, 44, 256
-1.00157, 57, 1, 88, 256
-1.00158, 45, 1, 76, 256
-1.0016, 33, 1, 64, 256
-1.00162, 353, 241, 384, 368
-1.00171, 257, 49, 500, 112
-1.00178, 329, 225, 360, 352
-1.00192, 393, 33, 456, 288
-1.00203, 69, 1, 100, 128
-1.00205, 45, 193, 76, 320
-1.00206, 49, 265, 176, 328
-1.00223, 25, 241, 88, 368
-1.00236, 353, 65, 480, 192
-1.00247, 101, 241, 132, 368
-1.00252, 1, 265, 128, 328
-1.00258, 25, 1, 88, 375
-1.00259, 369, 65, 496, 128
-1.00263, 81, 193, 112, 320
-1.00273, 377, 81, 440, 208
-1.00273, 321, 57, 448, 120
-1.00277, 69, 193, 100, 320
-1.0028, 353, 65, 416, 192
-1.00306, 57, 193, 88, 320
-1.00317, 93, 177, 124, 304
-1.0034, 429, 145, 460, 272
-1.00349, 1, 1, 64, 375
-1.00363, 69, 241, 100, 368
-1.00367, 49, 241, 80, 368
-1.00368, 17, 97, 80, 352
-1.00429, 57, 241, 120, 368
-1.00446, 249, 17, 280, 144
-1.00455, 37, 241, 68, 368
-1.00456, 85, 241, 116, 368
-1.00464, 1, 241, 64, 368
-1.00521, 57, 1, 88, 128
-1.00524, 9, 241, 40, 368
-1.00531, 457, 145, 488, 272
-1.00535, 25, 241, 56, 368
-1.00554, 317, 33, 348, 160
-1.00557, 33, 1, 96, 128
-1.00578, 361, 65, 392, 192
-1.0058, 25, 145, 56, 272
-1.00586, 5, 145, 36, 272
-1.00596, 229, 1, 260, 128
-1.00621, 445, 129, 476, 256
-1.00632, 49, 145, 80, 272
-1.00644, 381, 81, 412, 208
-1.00645, 37, 145, 68, 272
-1.00646, 393, 81, 424, 208
-1.00652, 265, 17, 296, 144
-1.00653, 369, 1, 496, 128
-1.00653, 329, 49, 392, 176
-1.00675, 345, 49, 376, 176
-1.00696, 417, 1, 480, 256
-1.00698, 257, 17, 500, 144
-1.00766, 9, 145, 72, 272
-1.0084, 273, 1, 336, 128
-1.00873, 9, 1, 72, 256
-1.00948, 1, 1, 64, 128
-1.01002, 33, 145, 96, 272
-1.01065, 433, 1, 496, 128
-1.01081, 313, 1, 376, 128
-1.01153, 425, 81, 488, 208
-1.01169, 409, 17, 472, 144
-1.01195, 17, 65, 80, 192
-1.01211, 385, 33, 448, 160
-1.01247, 345, 1, 408, 128
-1.01306, 401, 97, 464, 224
