1947
-0.130073, 1, 1, 500, 375
-0.2458, 1, 65, 500, 320
-0.330785, 225, 1, 480, 375
-0.421911, 97, 1, 352, 375
-0.476712, 1, 1, 256, 375
-0.538217, 33, 65, 288, 320
-0.549779, 129, 97, 384, 352
-0.578922, 225, 33, 480, 288
-0.683919, 225, 129, 480, 375
-0.69135, 129, 1, 384, 256
-0.805722, 81, 97, 208, 352
-0.836688, 1, 97, 128, 352
-0.837769, 161, 1, 288, 375
-0.840977, 1, 177, 500, 304
-0.847447, 1, 1, 128, 375
-0.848673, 225, 1, 352, 256
-0.852127, 145, 65, 272, 320
-0.852427, 369, 1, 496, 256
-0.852938, 241, 1, 368, 375
-0.856061, 321, 1, 448, 375
-0.85738, 113, 1, 240, 375
-0.858335, 369, 1, 496, 375
-0.858431, 1, 1, 128, 256
-0.864006, 305, 97, 432, 352
-0.865947, 49, 1, 176, 375
-0.866575, 1, 65, 500, 192
-0.868391, 321, 1, 448, 256
-0.871387, 1, 225, 500, 352
-0.871947, 81, 1, 208, 256
-0.872039, 193, 97, 320, 352
-0.880856, 1, 113, 500, 240
-0.88192, 1, 1, 500, 128
-0.882065, 273, 1, 400, 256
-0.882074, 241, 97, 368, 352
-0.890534, 65, 225, 320, 352
-0.895541, 369, 129, 496, 375
-0.915208, 129, 1, 384, 128
-0.916032, 65, 113, 320, 240
-0.916884, 1, 161, 256, 288
-0.917019, 161, 241, 416, 368
-0.91917, 257, 17, 500, 144
-0.919494, 161, 209, 288, 336
-0.920194, 1, 65, 256, 192
-0.921132, 225, 193, 480, 320
-0.923197, 129, 65, 384, 192
-0.924668, 81, 113, 208, 240
-0.924905, 97, 241, 224, 368
-0.926051, 257, 241, 500, 368
-0.927273, 225, 65, 480, 192
-0.928111, 73, 145, 136, 272
-0.928196, 17, 145, 144, 272
-0.928546, 65, 193, 192, 320
-0.928881, 169, 209, 232, 336
-0.930278, 49, 129, 112, 256
-0.930588, 137, 225, 200, 352
-0.930647, 49, 209, 112, 336
-0.931842, 81, 65, 208, 192
-0.932403, 193, 225, 256, 352
-0.933168, 25, 145, 88, 272
-0.9346, 129, 65, 256, 192
-0.935321, 153, 249, 216, 312
-0.937931, 241, 1, 368, 128
-0.938208, 225, 113, 480, 240
-0.938231, 121, 81, 184, 208
-0.938395, 129, 161, 384, 288
-0.938569, 89, 225, 152, 352
-0.938671, 129, 129, 192, 256
-0.938747, 17, 225, 144, 352
-0.940512, 177, 81, 240, 208
-0.941083, 1, 17, 256, 144
-0.941926, 113, 193, 240, 320
-0.942222, 369, 225, 496, 352
-0.94406, 265, 49, 328, 176
-0.94406, 145, 81, 208, 208
-0.944174, 337, 1, 400, 128
-0.944487, 433, 1, 496, 128
-0.944843, 57, 153, 120, 216
-0.944942, 89, 97, 152, 224
-0.945028, 409, 97, 472, 224
-0.945334, 409, 1, 472, 128
-0.945414, 1, 65, 128, 192
-0.94577, 217, 33, 280, 160
-0.946418, 169, 161, 232, 288
-0.946475, 145, 113, 272, 240
-0.946642, 361, 17, 424, 144
-0.947328, 17, 81, 80, 208
-0.947347, 305, 33, 432, 160
-0.947986, 137, 1, 200, 128
-0.948047, 257, 1, 320, 128
-0.948086, 177, 49, 304, 176
-0.948112, 289, 177, 416, 304
-0.948126, 425, 145, 488, 272
-0.948299, 433, 65, 496, 192
-0.948308, 49, 65, 112, 192
-0.948504, 185, 1, 248, 128
-0.948889, 177, 225, 240, 288
-0.948975, 377, 241, 440, 368
-0.949109, 369, 1, 496, 128
-0.949183, 217, 225, 280, 352
-0.949193, 129, 1, 256, 128
-0.949215, 313, 49, 376, 176
-0.949374, 369, 81, 496, 208
-0.949374, 289, 1, 352, 128
-0.949458, 209, 241, 336, 368
-0.949499, 169, 289, 232, 352
-0.95005, 225, 81, 288, 208
-0.950162, 113, 177, 176, 304
-0.950692, 121, 265, 184, 328
-0.950886, 25, 193, 88, 320
-0.950979, 25, 185, 88, 248
-0.951181, 273, 65, 336, 128
-0.951222, 81, 137, 144, 200
-0.951578, 401, 177, 464, 304
-0.951792, 49, 225, 112, 288
-0.952054, 153, 225, 216, 288
-0.95214, 241, 81, 368, 208
-0.952213, 1, 161, 64, 288
-0.952217, 161, 161, 288, 288
-0.952475, 121, 137, 184, 200
-0.952665, 137, 289, 200, 352
-0.952681, 241, 193, 368, 320
-0.952929, 169, 201, 232, 264
-0.953159, 81, 169, 144, 232
-0.953255, 209, 305, 272, 368
-0.953671, 81, 1, 208, 128
-0.953749, 193, 1, 320, 128
-0.953958, 313, 1, 376, 128
-0.95413, 401, 161, 464, 224
-0.954178, 25, 209, 88, 272
-0.954345, 369, 161, 496, 288
-0.954725, 329, 225, 392, 352
-0.954865, 97, 249, 160, 312
-0.954947, 385, 33, 448, 160
-0.955109, 257, 241, 384, 368
-0.955132, 297, 65, 360, 128
-0.955295, 209, 145, 336, 272
-0.955551, 113, 225, 176, 352
-0.955957, 401, 241, 464, 304
-0.956009, 49, 129, 112, 192
-0.95659, 161, 129, 224, 192
-0.956756, 185, 249, 248, 312
-0.956853, 201, 81, 264, 208
-0.956922, 9, 145, 72, 208
-0.957154, 81, 1, 144, 128
-0.957196, 409, 49, 472, 176
-0.957874, 41, 249, 104, 312
-0.957888, 113, 1, 176, 128
-0.95801, 161, 1, 224, 128
-0.958118, 161, 161, 224, 224
-0.958203, 289, 81, 352, 208
-0.9583, 241, 273, 304, 336
-0.95836, 169, 313, 232, 375
-0.958376, 257, 209, 320, 336
-0.958386, 73, 241, 136, 304
-0.958535, 281, 89, 344, 152
-0.958804, 33, 153, 96, 216
-0.958912, 249, 81, 312, 144
-0.95909, 17, 1, 144, 128
-0.959206, 41, 97, 104, 352
-0.959682, 193, 161, 256, 288
-0.959738, 425, 201, 488, 264
-0.959979, 177, 57, 240, 120
-0.960041, 185, 153, 248, 216
-0.960179, 385, 97, 448, 224
-0.960331, 369, 257, 432, 320
-0.960399, 97, 49, 160, 176
-0.960437, 401, 73, 464, 136
-0.960563, 73, 193, 136, 256
-0.960607, 49, 177, 112, 240
-0.960975, 17, 33, 80, 160
-0.96132, 257, 97, 320, 224
-0.961354, 73, 217, 136, 280
-0.961481, 137, 73, 200, 136
-0.961687, 321, 241, 448, 368
-0.961755, 97, 273, 160, 336
-0.962022, 137, 177, 200, 304
-0.96247, 97, 89, 160, 152
-0.962751, 129, 241, 192, 304
-0.962929, 289, 225, 352, 352
-0.963339, 193, 281, 256, 344
-0.963482, 361, 161, 424, 288
-0.963503, 425, 153, 488, 216
-0.963688, 433, 225, 496, 352
-0.963697, 249, 57, 312, 120
-0.963975, 177, 249, 208, 312
-0.964023, 185, 1, 248, 64
-0.964094, 65, 65, 128, 128
-0.964119, 185, 81, 248, 144
-0.964146, 49, 201, 112, 264
-0.964243, 73, 265, 136, 328
-0.964301, 121, 161, 184, 224
-0.964789, 169, 129, 232, 375
-0.964908, 337, 49, 400, 176
-0.964944, 201, 225, 264, 288
-0.964945, 353, 241, 416, 368
-0.964947, 257, 297, 320, 360
-0.965102, 345, 241, 408, 304
-0.965146, 177, 209, 208, 336
-0.965236, 329, 73, 392, 136
-0.965291, 85, 137, 116, 200
-0.965391, 121, 97, 184, 352
-0.965439, 17, 241, 80, 304
-0.965441, 217, 281, 280, 344
-0.965508, 145, 65, 208, 320
-0.965607, 321, 81, 448, 208
-0.965637, 305, 265, 368, 328
-0.965648, 209, 249, 272, 312
-0.965682, 25, 241, 88, 368
-0.965689, 97, 257, 224, 320
-0.965689, 401, 225, 464, 352
-0.965827, 137, 97, 200, 160
-0.965961, 425, 1, 488, 64
-0.966061, 225, 1, 288, 64
-0.966072, 1, 177, 64, 240
-0.966151, 233, 129, 296, 256
-0.966172, 401, 217, 464, 280
-0.966286, 401, 185, 464, 248
-0.966372, 217, 65, 280, 128
-0.966421, 165, 225, 196, 352
-0.966629, 81, 129, 112, 256
-0.966669, 425, 225, 488, 288
-0.966803, 369, 281, 432, 344
-0.966812, 73, 129, 136, 375
-0.966843, 17, 1, 80, 64
-0.967129, 73, 49, 136, 176
-0.96739, 377, 169, 440, 232
-0.967627, 161, 105, 224, 168
-0.96764, 265, 273, 328, 336
-0.967893, 161, 81, 224, 144
-0.96805, 17, 177, 144, 240
-0.968205, 89, 169, 120, 232
-0.96826, 321, 129, 448, 256
-0.96829, 93, 129, 124, 256
-0.968379, 201, 41, 264, 104
-0.968422, 217, 121, 280, 184
-0.968666, 81, 113, 144, 176
-0.968677, 77, 177, 108, 304
-0.9687, 33, 105, 96, 168
-0.968727, 185, 1, 248, 256
-0.968784, 401, 65, 464, 320
-0.968938, 193, 97, 320, 224
-0.969089, 33, 233, 160, 296
-0.969089, 161, 273, 288, 336
-0.969214, 345, 273, 408, 336
-0.969415, 225, 177, 288, 304
-0.969429, 81, 137, 208, 200
-0.969516, 173, 281, 204, 344
-0.969527, 185, 289, 216, 352
-0.969549, 209, 1, 272, 256
-0.969557, 185, 225, 216, 288
-0.969688, 29, 193, 60, 256
-0.969711, 57, 1, 120, 128
-0.969736, 377, 65, 440, 128
-0.969797, 173, 225, 204, 288
-0.969805, 97, 225, 160, 288
-0.96986, 97, 1, 160, 64
-0.969943, 161, 249, 192, 312
-0.970114, 65, 41, 128, 104
-0.970195, 249, 105, 312, 168
-0.970198, 361, 65, 424, 192
-0.970226, 113, 281, 240, 344
-0.970321, 385, 1, 448, 64
-0.970449, 273, 1, 336, 256
-0.970589, 193, 241, 224, 368
-0.970604, 185, 113, 248, 176
-0.970674, 217, 145, 280, 208
-0.970871, 1, 209, 64, 272
-0.970902, 297, 1, 360, 64
-0.971031, 65, 17, 128, 80
-0.971109, 401, 273, 464, 336
-0.971292, 177, 57, 304, 120
-0.971514, 193, 177, 256, 240
-0.97162, 337, 297, 400, 360
-0.971643, 57, 105, 120, 168
-0.971722, 129, 217, 192, 280
-0.971773, 329, 177, 392, 304
-0.97181, 425, 249, 488, 312
-0.971828, 361, 1, 424, 256
-0.971832, 17, 145, 144, 208
-0.971861, 65, 169, 192, 232
-0.971947, 89, 233, 120, 296
-0.972019, 73, 193, 104, 256
-0.97215, 17, 177, 48, 240
-0.972344, 61, 177, 92, 304
-0.972521, 161, 217, 288, 280
-0.972556, 21, 161, 52, 288
-0.972557, 337, 265, 464, 328
-0.972579, 121, 265, 152, 328
-0.972622, 201, 209, 232, 272
-0.972655, 361, 33, 424, 96
-0.972673, 145, 241, 272, 304
-0.972676, 69, 169, 100, 232
-0.972746, 33, 41, 96, 104
-0.972775, 1, 121, 64, 184
-0.972811, 377, 233, 440, 296
-0.972813, 213, 305, 244, 368
-0.972841, 97, 233, 224, 296
-0.972948, 433, 89, 496, 152
-0.973008, 81, 97, 208, 160
-0.973074, 401, 137, 464, 200
-0.97316, 193, 1, 224, 128
-0.97328, 145, 313, 208, 375
-0.973281, 425, 153, 456, 216
-0.973298, 265, 81, 296, 208
-0.973376, 457, 1, 488, 128
-0.973406, 137, 49, 200, 112
-0.973542, 433, 65, 496, 128
-0.97356, 425, 177, 488, 240
-0.973613, 417, 25, 480, 88
-0.973684, 105, 33, 168, 96
-0.97373, 273, 273, 400, 336
-0.973799, 161, 281, 192, 344
-0.973808, 241, 129, 304, 192
-0.973827, 41, 1, 104, 64
-0.973856, 1, 209, 64, 336
-0.973916, 409, 97, 472, 160
-0.973949, 137, 97, 168, 224
-0.973957, 53, 241, 84, 304
-0.973982, 17, 201, 144, 264
-0.974046, 101, 145, 132, 208
-0.974064, 97, 129, 160, 375
-0.974095, 297, 41, 360, 104
-0.97413, 193, 313, 320, 375
-0.974144, 113, 305, 240, 368
-0.974147, 265, 97, 296, 160
-0.974151, 145, 129, 176, 192
-0.974173, 361, 9, 424, 72
-0.974215, 33, 257, 160, 320
-0.974249, 161, 9, 224, 72
-0.9743, 77, 225, 108, 288
-0.97438, 249, 1, 312, 64
-0.974413, 265, 249, 328, 312
-0.974431, 129, 73, 256, 136
-0.974457, 397, 249, 428, 312
-0.974491, 401, 49, 464, 112
-0.974604, 65, 209, 192, 272
-0.974637, 409, 249, 440, 312
-0.974649, 441, 81, 472, 208
-0.974741, 225, 41, 288, 104
-0.974812, 217, 97, 280, 160
-0.974819, 285, 65, 316, 128
-0.974948, 97, 57, 160, 120
-0.975005, 281, 297, 344, 360
-0.975041, 321, 1, 384, 64
-0.975058, 425, 97, 488, 352
-0.975186, 429, 97, 460, 224
-0.975217, 321, 49, 384, 112
-0.975273, 273, 41, 336, 104
-0.975275, 413, 161, 444, 224
-0.975297, 109, 209, 140, 336
-0.975314, 97, 1, 160, 256
-0.975323, 17, 65, 80, 320
-0.97533, 129, 129, 256, 192
-0.97534, 221, 241, 252, 368
-0.975361, 33, 177, 64, 304
-0.975363, 233, 305, 296, 368
-0.97559, 261, 273, 292, 336
-0.975602, 189, 201, 220, 264
-0.975623, 229, 273, 260, 336
-0.975648, 337, 169, 464, 232
-0.975656, 385, 265, 416, 328
-0.975689, 129, 145, 160, 208
-0.975693, 189, 249, 220, 312
-0.975694, 41, 241, 72, 304
-0.975724, 165, 97, 196, 224
-0.975732, 305, 97, 368, 160
-0.975808, 9, 73, 72, 136
-0.975828, 249, 1, 312, 256
-0.97583, 321, 25, 384, 88
-0.975838, 109, 257, 140, 320
-0.975846, 69, 145, 100, 208
-0.975871, 177, 33, 240, 96
-0.975913, 425, 225, 456, 288
-0.975918, 33, 65, 160, 128
-0.976089, 329, 1, 392, 256
-0.976129, 413, 177, 444, 304
-0.976133, 177, 81, 304, 144
-0.976194, 89, 177, 120, 304
-0.976204, 193, 313, 224, 375
-0.976219, 61, 201, 92, 264
-0.976377, 173, 145, 204, 272
-0.976381, 309, 65, 340, 128
-0.976395, 173, 305, 204, 368
-0.976425, 161, 161, 288, 224
-0.976457, 145, 49, 176, 176
-0.97646, 169, 153, 200, 216
-0.976479, 369, 241, 496, 304
-0.97653, 129, 105, 256, 168
-0.976548, 285, 49, 316, 176
-0.976586, 453, 81, 484, 208
-0.976655, 189, 161, 220, 288
-0.976679, 197, 281, 228, 344
-0.976689, 257, 297, 384, 360
-0.976712, 193, 9, 320, 72
-0.976774, 241, 81, 368, 144
-0.976812, 225, 41, 352, 104
-0.976814, 21, 113, 52, 240
-0.976848, 209, 233, 240, 296
-0.976882, 49, 169, 80, 232
-0.976905, 49, 281, 176, 344
-0.976969, 49, 1, 112, 256
-0.977013, 125, 81, 156, 208
-0.977018, 49, 225, 80, 352
-0.977084, 245, 1, 276, 128
-0.977088, 93, 225, 124, 352
-0.977104, 69, 129, 100, 256
-0.97728, 101, 81, 132, 208
-0.977289, 65, 233, 96, 296
-0.977293, 129, 89, 160, 152
-0.977534, 49, 145, 80, 272
-0.977564, 241, 97, 304, 352
-0.97757, 177, 1, 240, 375
-0.977601, 289, 1, 416, 64
-0.977608, 65, 225, 96, 352
-0.977625, 401, 161, 432, 224
-0.977731, 213, 1, 244, 128
-0.977753, 249, 265, 280, 328
-0.977754, 305, 177, 368, 304
-0.977755, 133, 265, 164, 328
-0.97785, 469, 1, 500, 128
-0.977873, 77, 225, 108, 352
-0.977895, 205, 209, 236, 336
-0.977953, 177, 81, 208, 208
-0.977958, 153, 225, 184, 352
-0.978047, 421, 17, 452, 144
-0.978047, 97, 257, 128, 320
-0.978105, 225, 65, 256, 192
-0.978118, 413, 185, 444, 248
-0.978148, 17, 121, 144, 184
-0.978148, 453, 145, 484, 272
-0.978217, 65, 33, 192, 96
-0.978271, 433, 145, 464, 272
-0.978275, 285, 89, 316, 152
-0.978279, 41, 209, 72, 272
-0.978284, 273, 273, 304, 336
-0.978553, 413, 81, 444, 208
-0.978592, 241, 225, 272, 352
-0.978596, 113, 169, 240, 232
-0.978649, 465, 65, 496, 192
-0.978655, 117, 177, 148, 240
-0.978799, 297, 1, 328, 128
-0.978812, 117, 145, 148, 272
-0.978855, 353, 97, 416, 352
-0.978866, 189, 65, 220, 192
-0.97887, 129, 49, 256, 112
-0.978881, 337, 1, 464, 64
-0.978894, 29, 169, 60, 232
-0.978938, 173, 201, 204, 264
-0.978959, 97, 1, 224, 64
-0.979001, 1, 25, 128, 88
-0.979003, 317, 49, 348, 176
-0.979011, 61, 81, 92, 208
-0.979056, 201, 65, 232, 128
-0.979056, 469, 153, 500, 216
-0.979103, 73, 33, 136, 288
-0.979112, 217, 1, 248, 64
-0.979144, 433, 1, 496, 256
-0.97922, 109, 233, 140, 296
-0.979224, 449, 65, 480, 128
-0.979248, 277, 1, 308, 128
-0.979261, 445, 17, 476, 144
-0.979311, 113, 193, 240, 256
-0.979382, 177, 129, 304, 192
-0.979384, 413, 65, 444, 128
-0.979426, 149, 97, 180, 224
-0.979484, 377, 97, 440, 352
-0.979501, 77, 257, 108, 320
-0.979526, 101, 169, 132, 232
-0.979552, 149, 249, 180, 312
-0.979557, 141, 105, 172, 168
-0.979596, 177, 33, 304, 96
-0.979606, 209, 129, 272, 375
-0.979657, 157, 137, 188, 200
-0.979741, 337, 65, 368, 128
-0.979786, 257, 1, 288, 128
-0.97981, 9, 145, 40, 272
-0.979812, 33, 89, 160, 152
-0.979867, 297, 65, 328, 128
-0.979878, 113, 137, 144, 200
-0.97988, 165, 49, 196, 176
-0.979902, 173, 129, 204, 192
-0.979906, 209, 289, 336, 352
-0.979919, 321, 241, 448, 304
-0.979927, 145, 153, 176, 216
-0.979938, 433, 1, 496, 375
-0.979952, 177, 97, 208, 160
-0.979976, 93, 193, 124, 256
-0.98002, 13, 201, 44, 264
-0.980022, 305, 1, 368, 256
-0.980028, 213, 41, 244, 104
-0.980124, 261, 225, 292, 352
-0.980175, 65, 1, 128, 375
-0.980265, 5, 97, 36, 224
-0.98028, 377, 1, 440, 375
-0.980344, 105, 161, 136, 288
-0.980351, 361, 1, 392, 128
-0.980387, 469, 41, 500, 104
-0.980399, 81, 65, 112, 192
-0.980404, 81, 73, 208, 136
-0.980413, 201, 17, 232, 80
-0.980445, 181, 65, 212, 128
-0.980455, 313, 97, 376, 352
-0.980499, 341, 1, 372, 128
-0.980511, 245, 81, 276, 208
-0.980528, 225, 265, 352, 328
-0.980532, 469, 145, 500, 272
-0.980585, 273, 49, 400, 112
-0.980598, 201, 41, 232, 104
-0.980617, 129, 241, 160, 304
-0.980624, 321, 65, 448, 128
-0.980645, 161, 225, 192, 288
-0.980652, 449, 161, 480, 224
-0.980676, 465, 209, 496, 336
-0.980683, 421, 249, 452, 312
-0.980742, 181, 1, 212, 128
-0.980751, 401, 1, 432, 128
-0.98077, 265, 121, 296, 184
-0.98078, 189, 161, 220, 224
-0.980791, 469, 65, 500, 128
-0.980806, 29, 225, 60, 288
-0.980823, 193, 241, 320, 304
-0.980851, 189, 89, 220, 152
-0.980901, 209, 153, 240, 216
-0.980961, 93, 1, 124, 64
-0.981, 325, 1, 356, 128
-0.981153, 77, 1, 108, 128
-0.981153, 145, 1, 272, 64
-0.981257, 201, 65, 232, 192
-0.981299, 453, 1, 484, 64
-0.981318, 241, 1, 368, 64
-0.981353, 89, 1, 120, 128
-0.981481, 229, 41, 260, 104
-0.981516, 117, 1, 148, 64
-0.981533, 245, 289, 276, 352
-0.981554, 5, 177, 36, 240
-0.981593, 437, 169, 468, 232
-0.981598, 125, 113, 156, 176
-0.981635, 369, 25, 496, 88
-0.981715, 217, 1, 280, 375
-0.981779, 293, 273, 324, 336
-0.981793, 225, 17, 256, 144
-0.981804, 385, 241, 416, 368
-0.98181, 401, 161, 432, 288
-0.981823, 357, 265, 388, 328
-0.981835, 257, 129, 384, 256
-0.981875, 249, 129, 280, 192
-0.981973, 273, 249, 400, 312
-0.982004, 313, 1, 376, 375
-0.982118, 41, 1, 104, 375
-0.982119, 229, 65, 260, 128
-0.982121, 49, 105, 80, 168
-0.982156, 253, 65, 284, 128
-0.98225, 209, 185, 336, 248
-0.982295, 321, 57, 352, 120
-0.982332, 257, 297, 288, 360
-0.982335, 341, 257, 372, 320
-0.982348, 129, 25, 256, 88
-0.982386, 369, 289, 496, 352
-0.982417, 377, 1, 408, 128
-0.982448, 413, 225, 444, 288
-0.982541, 201, 257, 232, 320
-0.98255, 105, 1, 136, 128
-0.982555, 257, 1, 320, 375
-0.982585, 433, 33, 464, 160
-0.9826, 237, 105, 268, 168
-0.982643, 89, 41, 120, 104
-0.982669, 49, 97, 80, 224
-0.982669, 49, 1, 176, 64
-0.982697, 25, 145, 56, 208
-0.982747, 113, 89, 144, 152
-0.982804, 121, 225, 152, 352
-0.982821, 273, 65, 304, 128
-0.982828, 425, 65, 456, 128
-0.98283, 153, 1, 216, 375
-0.982883, 389, 17, 420, 144
-0.98289, 429, 193, 460, 320
-0.982906, 417, 129, 448, 256
-0.982929, 9, 153, 40, 216
-0.982935, 213, 113, 244, 240
-0.982974, 329, 49, 360, 176
-0.983008, 201, 185, 232, 248
-0.983048, 281, 297, 312, 360
-0.983061, 229, 113, 260, 240
-0.983074, 209, 161, 336, 224
-0.983095, 305, 273, 336, 336
-0.98311, 433, 89, 464, 152
-0.983112, 421, 89, 452, 152
-0.983132, 305, 49, 336, 176
-0.983184, 461, 233, 492, 296
-0.983214, 113, 81, 144, 208
-0.98324, 305, 297, 432, 360
-0.983273, 321, 33, 448, 96
-0.983297, 273, 193, 400, 256
-0.983309, 253, 1, 284, 64
-0.983334, 137, 241, 168, 368
-0.98334, 373, 273, 404, 336
-0.983351, 29, 249, 60, 312
-0.983354, 157, 81, 188, 144
-0.98338, 297, 89, 328, 152
-0.983408, 37, 129, 68, 256
-0.983435, 445, 89, 476, 152
-0.983495, 17, 1, 80, 375
-0.983569, 397, 225, 428, 352
-0.983594, 165, 1, 196, 128
-0.983727, 213, 65, 244, 192
-0.983753, 177, 105, 304, 168
-0.983824, 89, 1, 152, 375
-0.983849, 145, 1, 176, 128
-0.983863, 113, 1, 176, 375
-0.983978, 37, 225, 68, 352
-0.984033, 449, 193, 480, 320
-0.984153, 1, 1, 128, 64
-0.98416, 337, 209, 464, 272
-0.984241, 409, 1, 472, 375
-0.984246, 193, 113, 224, 240
-0.98446, 241, 105, 368, 168
-0.984499, 345, 1, 408, 375
-0.984659, 273, 25, 400, 88
-0.98486, 345, 113, 408, 240
-0.984892, 273, 225, 304, 352
-0.984916, 281, 1, 344, 375
-0.984978, 305, 97, 336, 224
-0.985101, 293, 225, 324, 352
-0.985175, 281, 177, 344, 304
-0.985248, 201, 161, 232, 288
-0.985375, 401, 97, 432, 224
-0.985408, 145, 145, 176, 272
-0.985479, 213, 161, 244, 288
-0.985499, 321, 209, 352, 336
-0.985529, 369, 57, 496, 120
-0.98557, 161, 193, 288, 256
-0.985606, 345, 49, 376, 176
-0.985884, 369, 97, 496, 160
-0.985919, 313, 1, 344, 128
-0.985956, 157, 161, 188, 288
-0.986166, 289, 89, 416, 152
-0.986187, 289, 97, 320, 224
-0.986313, 17, 1, 48, 128
-0.986326, 369, 145, 496, 208
-0.986355, 5, 17, 36, 144
-0.986431, 121, 1, 184, 256
-0.986556, 33, 81, 64, 208
-0.986586, 257, 161, 320, 288
-0.986747, 417, 225, 448, 352
-0.986783, 125, 1, 156, 128
-0.986794, 225, 129, 352, 192
-0.986872, 257, 217, 384, 280
-0.9869, 257, 169, 384, 232
-0.986923, 209, 217, 336, 280
-0.987107, 17, 209, 48, 336
-0.987266, 129, 161, 160, 288
-0.987606, 401, 49, 432, 176
-0.987661, 373, 241, 404, 368
-0.987786, 33, 233, 288, 296
-0.987885, 241, 177, 272, 304
-0.988038, 89, 165, 152, 196
-0.988109, 1, 249, 500, 312
-0.988138, 161, 241, 224, 272
-0.988141, 437, 241, 468, 368
-0.988177, 193, 297, 448, 360
-0.988286, 121, 93, 184, 124
-0.988311, 33, 133, 96, 164
-0.988348, 169, 221, 232, 252
-0.988399, 153, 265, 216, 296
-0.988407, 309, 177, 340, 304
-0.988454, 65, 305, 192, 368
-0.988501, 357, 49, 388, 176
-0.988533, 33, 241, 96, 272
-0.988567, 177, 161, 240, 192
-0.988569, 153, 161, 216, 192
-0.988601, 57, 173, 120, 204
-0.988638, 1, 281, 128, 344
-0.988703, 129, 153, 192, 184
-0.988706, 81, 181, 144, 212
-0.988724, 33, 181, 96, 212
-0.988725, 25, 201, 88, 232
-0.98876, 281, 89, 344, 120
-0.98876, 169, 305, 232, 336
-0.988782, 145, 81, 208, 112
-0.98881, 169, 293, 232, 324
-0.988858, 409, 161, 472, 192
-0.988985, 401, 93, 464, 124
-0.989031, 357, 241, 388, 368
-0.989051, 145, 93, 208, 124
-0.989082, 305, 93, 368, 124
-0.989112, 341, 177, 372, 304
-0.989125, 353, 313, 480, 375
-0.989149, 309, 225, 340, 352
-0.98916, 305, 277, 368, 308
-0.989175, 273, 101, 336, 132
-0.989213, 185, 249, 248, 280
-0.989265, 385, 173, 448, 204
-0.989276, 33, 221, 96, 252
-0.989319, 209, 305, 272, 336
-0.989325, 65, 241, 128, 272
-0.989327, 185, 233, 248, 264
-0.989357, 97, 265, 352, 328
-0.98938, 113, 265, 176, 296
-0.989409, 129, 73, 384, 136
-0.989418, 153, 253, 216, 284
-0.98943, 53, 33, 84, 160
-0.989434, 57, 145, 120, 176
-0.989464, 249, 297, 312, 328
-0.989464, 145, 277, 208, 308
-0.989477, 137, 105, 200, 136
-0.989513, 41, 253, 104, 284
-0.989554, 97, 141, 160, 172
-0.989555, 129, 165, 192, 196
-0.989559, 169, 93, 232, 124
-0.989559, 57, 133, 120, 164
-0.989561, 65, 193, 128, 224
-0.989642, 393, 257, 456, 288
-0.989651, 329, 285, 392, 316
-0.989661, 17, 101, 80, 132
-0.989672, 289, 97, 352, 352
-0.989693, 385, 1, 448, 32
-0.989711, 169, 281, 232, 312
-0.989729, 121, 177, 184, 208
-0.989733, 361, 101, 424, 132
-0.989742, 73, 209, 136, 240
-0.989791, 241, 81, 304, 112
-0.989811, 169, 173, 232, 204
-0.989819, 145, 297, 208, 328
-0.989829, 281, 293, 344, 324
-0.989857, 169, 317, 232, 348
-0.98986, 273, 281, 336, 312
-0.989863, 177, 209, 240, 240
-0.989866, 185, 81, 248, 112
-0.989871, 177, 69, 240, 100
-0.989885, 57, 157, 120, 188
-0.98989, 129, 249, 192, 280
-0.989906, 277, 97, 308, 224
-0.989914, 121, 81, 184, 112
-0.98992, 65, 61, 128, 92
-0.989937, 1, 273, 500, 336
-0.989938, 153, 145, 216, 176
-0.989939, 201, 317, 264, 348
-0.989954, 337, 261, 400, 292
-0.989956, 9, 165, 72, 196
-0.989968, 89, 153, 152, 184
-0.989974, 97, 89, 160, 120
-0.989976, 377, 269, 440, 300
-0.989982, 57, 229, 120, 260
-0.989984, 113, 281, 176, 312
-0.989995, 433, 161, 496, 192
-0.990001, 97, 253, 160, 284
-0.990028, 1, 133, 64, 164
-0.990036, 209, 73, 272, 104
-0.99008, 121, 133, 184, 164
-0.990099, 17, 65, 48, 192
-0.9901, 57, 1, 120, 32
-0.990105, 425, 173, 488, 204
-0.990111, 425, 93, 488, 124
-0.990118, 201, 165, 264, 196
-0.99013, 385, 161, 448, 192
-0.99014, 145, 309, 208, 340
-0.99017, 57, 93, 120, 124
-0.990183, 321, 297, 384, 328
-0.990189, 49, 209, 112, 240
-0.990251, 161, 105, 224, 136
-0.990258, 9, 189, 72, 220
-0.990267, 417, 241, 480, 272
-0.990284, 425, 1, 488, 32
-0.990298, 273, 73, 336, 104
-0.990302, 297, 1, 360, 32
-0.990335, 73, 261, 136, 292
-0.990339, 281, 129, 344, 256
-0.990357, 377, 237, 440, 268
-0.990372, 241, 13, 304, 44
-0.990407, 241, 285, 304, 316
-0.99042, 193, 57, 256, 88
-0.990424, 409, 269, 472, 300
-0.990426, 193, 261, 256, 292
-0.990439, 385, 185, 448, 216
-0.990443, 353, 277, 416, 308
-0.990455, 433, 149, 496, 180
-0.990469, 185, 149, 248, 180
-0.990475, 97, 101, 160, 132
-0.990478, 209, 13, 272, 44
-0.990478, 433, 65, 496, 96
-0.990482, 433, 53, 496, 84
-0.990492, 401, 221, 464, 252
-0.990504, 9, 89, 72, 120
-0.990508, 177, 9, 240, 40
-0.990524, 81, 1, 144, 32
-0.990529, 425, 17, 488, 48
-0.990545, 273, 1, 336, 32
-0.990557, 217, 293, 280, 324
-0.990563, 41, 33, 72, 160
-0.990564, 241, 309, 304, 340
-0.990573, 233, 265, 296, 296
-0.990575, 9, 145, 72, 176
-0.99058, 177, 329, 240, 360
-0.9906, 161, 241, 416, 304
-0.990611, 137, 229, 200, 260
-0.990611, 401, 73, 464, 104
-0.990614, 33, 161, 288, 224
-0.990628, 425, 209, 488, 240
-0.99063, 401, 53, 464, 84
-0.99063, 89, 277, 152, 308
-0.990662, 9, 177, 72, 208
-0.990667, 153, 69, 216, 100
-0.990674, 1, 209, 64, 240
-0.99068, 217, 33, 280, 64
-0.990689, 401, 105, 464, 136
-0.990699, 273, 265, 336, 296
-0.990705, 345, 181, 408, 212
-0.990713, 305, 145, 432, 208
-0.990714, 1, 169, 500, 232
-0.990813, 1, 257, 256, 320
-0.990827, 313, 97, 376, 224
-0.991128, 1, 193, 256, 256
-0.991219, 265, 97, 328, 352
-0.991355, 161, 17, 416, 80
-0.991397, 225, 265, 480, 328
-0.991418, 65, 129, 320, 192
-0.991804, 1, 81, 500, 144
-0.99182, 1, 225, 500, 288
-0.991867, 225, 169, 480, 232
-0.991887, 33, 49, 288, 112
-0.991914, 173, 277, 204, 308
-0.991969, 177, 253, 208, 284
-0.99197, 225, 193, 480, 256
-0.99197, 81, 173, 112, 204
-0.991984, 17, 189, 48, 220
-0.991986, 257, 65, 500, 128
-0.992097, 185, 237, 216, 268
-0.992098, 153, 93, 184, 124
-0.992108, 173, 265, 204, 296
-0.992125, 189, 249, 220, 280
-0.992127, 1, 105, 256, 168
-0.992135, 97, 249, 224, 280
-0.992175, 69, 173, 100, 204
-0.992179, 165, 245, 196, 276
-0.992189, 193, 317, 224, 348
-0.99219, 1, 57, 500, 120
-0.992208, 25, 201, 56, 232
-0.992214, 317, 89, 348, 120
-0.992245, 185, 269, 216, 300
-0.992252, 81, 185, 112, 216
-0.99226, 173, 225, 204, 256
-0.992265, 161, 269, 192, 300
-0.992267, 141, 273, 172, 304
-0.992275, 177, 157, 208, 188
-0.992283, 261, 293, 292, 324
-0.992286, 141, 93, 172, 124
-0.992294, 1, 33, 500, 96
-0.992303, 45, 245, 76, 276
-0.992337, 209, 165, 240, 196
-0.992337, 105, 165, 136, 196
-0.992338, 157, 81, 188, 112
-0.992341, 161, 281, 192, 312
-0.992343, 281, 297, 312, 328
-0.992351, 193, 217, 224, 248
-0.992355, 73, 201, 104, 232
-0.992368, 85, 141, 116, 172
-0.99237, 121, 265, 152, 296
-0.992375, 393, 265, 424, 296
-0.992379, 177, 97, 208, 128
-0.99239, 129, 141, 160, 172
-0.992395, 189, 157, 220, 188
-0.992396, 209, 237, 240, 268
-0.992397, 137, 157, 168, 188
-0.99241, 145, 129, 176, 160
-0.992422, 333, 285, 364, 316
-0.992423, 125, 89, 156, 120
-0.992428, 217, 309, 248, 340
-0.992431, 305, 85, 336, 116
-0.992433, 441, 101, 472, 132
-0.992433, 181, 297, 212, 328
-0.992434, 413, 93, 444, 124
-0.992435, 1, 137, 500, 200
-0.992437, 157, 105, 188, 136
-0.992465, 453, 89, 484, 120
-0.992471, 177, 73, 208, 104
-0.99248, 161, 257, 192, 288
-0.992482, 289, 97, 320, 128
-0.992491, 181, 209, 212, 240
-0.992496, 321, 273, 352, 304
-0.992499, 161, 49, 416, 112
-0.992506, 413, 165, 444, 196
-0.992507, 125, 161, 156, 192
-0.992511, 405, 253, 436, 284
-0.992514, 93, 169, 124, 200
-0.992519, 105, 149, 136, 180
-0.992522, 197, 229, 228, 260
-0.992523, 109, 257, 140, 288
-0.99253, 165, 93, 196, 124
-0.992531, 33, 305, 288, 368
-0.992533, 177, 309, 208, 340
-0.992541, 125, 177, 156, 208
-0.992545, 1, 297, 500, 360
-0.992557, 413, 269, 444, 300
-0.992563, 177, 85, 208, 116
-0.992566, 113, 269, 240, 300
-0.992571, 49, 233, 80, 264
-0.992575, 353, 289, 384, 320
-0.992576, 381, 101, 412, 132
-0.99258, 253, 117, 284, 148
-0.992581, 161, 217, 416, 280
-0.992582, 305, 285, 336, 316
-0.992584, 157, 145, 188, 176
-0.992585, 205, 321, 236, 352
-0.992587, 269, 277, 300, 308
-0.992589, 401, 1, 432, 32
-0.99259, 201, 305, 232, 336
-0.992599, 369, 101, 400, 132
-0.99261, 373, 261, 404, 292
-0.99261, 433, 233, 464, 264
-0.992613, 265, 129, 296, 160
-0.992616, 57, 177, 88, 208
-0.992616, 197, 77, 228, 108
-0.992618, 1, 81, 256, 144
-0.992618, 185, 281, 216, 312
-0.992619, 417, 253, 448, 284
-0.992628, 141, 81, 172, 112
-0.992629, 1, 193, 500, 256
-0.992632, 425, 97, 456, 128
-0.992638, 109, 93, 140, 124
-0.992652, 101, 181, 132, 212
-0.992656, 413, 241, 444, 272
-0.992656, 413, 193, 444, 224
-0.99266, 457, 1, 488, 32
-0.992661, 57, 249, 88, 280
-0.992662, 61, 237, 92, 268
-0.992663, 81, 129, 112, 160
-0.992663, 17, 249, 144, 280
-0.992663, 197, 169, 228, 200
-0.992667, 329, 93, 360, 124
-0.992668, 65, 137, 96, 168
-0.992672, 57, 221, 88, 252
-0.992672, 241, 137, 272, 168
-0.992684, 77, 213, 108, 244
-0.992688, 469, 77, 500, 108
-0.99269, 289, 81, 320, 112
-0.992691, 189, 65, 220, 96
-0.992691, 85, 1, 116, 32
-0.992695, 393, 253, 424, 284
-0.992701, 29, 189, 60, 220
-0.992704, 97, 97, 352, 160
-0.992705, 293, 297, 324, 328
-0.992709, 413, 181, 444, 212
-0.992712, 253, 277, 284, 308
-0.992714, 23, 169, 38, 232
-0.992721, 113, 181, 144, 212
-0.992726, 161, 157, 192, 188
-0.992727, 437, 89, 468, 120
-0.992728, 77, 53, 108, 84
-0.992732, 165, 301, 196, 332
-0.992735, 237, 69, 268, 100
-0.992735, 69, 185, 100, 216
-0.992737, 85, 249, 116, 280
-0.99274, 33, 213, 64, 244
-0.992742, 193, 205, 224, 236
-0.992746, 401, 101, 432, 132
-0.992752, 245, 17, 276, 48
-0.992753, 145, 145, 176, 176
-0.992754, 97, 205, 128, 236
-0.992755, 57, 209, 88, 240
-0.992756, 29, 229, 60, 260
-0.992757, 61, 161, 92, 192
-0.992759, 105, 137, 136, 168
-0.99276, 261, 105, 292, 136
-0.992761, 13, 201, 44, 232
-0.992766, 93, 269, 124, 300
-0.992769, 33, 25, 288, 88
-0.992772, 17, 213, 48, 244
-0.992779, 93, 157, 124, 188
-0.992897, 1, 209, 128, 240
-0.993036, 257, 289, 384, 320
-0.993078, 185, 241, 200, 304
-0.993083, 257, 1, 500, 64
-0.9931, 129, 85, 256, 116
-0.993116, 369, 121, 496, 184
-0.993269, 1, 281, 256, 344
-0.993342, 65, 265, 192, 296
-0.993369, 289, 277, 416, 308
-0.993392, 81, 137, 208, 168
-0.993409, 129, 153, 384, 216
-0.993416, 197, 289, 212, 352
-0.993421, 81, 165, 208, 196
-0.993433, 145, 289, 272, 320
-0.993436, 1, 177, 128, 208
-0.993487, 33, 1, 288, 64
-0.993506, 179, 257, 194, 320
-0.993521, 1, 197, 128, 228
-0.993522, 97, 285, 224, 316
-0.993533, 185, 265, 200, 328
-0.993557, 145, 237, 272, 268
-0.993566, 49, 177, 176, 208
-0.993578, 49, 93, 176, 124
-0.993586, 183, 217, 198, 280
-0.993614, 77, 177, 92, 240
-0.993615, 221, 305, 236, 368
-0.993621, 257, 97, 500, 160
-0.993637, 257, 41, 500, 104
-0.993642, 215, 305, 230, 368
-0.993716, 97, 149, 224, 180
-0.993756, 273, 301, 400, 332
-0.993819, 191, 289, 206, 352
-0.993821, 87, 161, 102, 224
-0.993835, 29, 177, 44, 240
-0.993836, 337, 281, 464, 312
-0.993837, 17, 149, 144, 180
-0.993845, 105, 169, 120, 232
-0.993864, 95, 137, 110, 200
-0.993878, 193, 225, 208, 288
-0.993926, 161, 121, 288, 152
-0.993938, 133, 153, 148, 216
-0.99394, 177, 217, 192, 280
-0.993954, 305, 265, 432, 296
-0.993979, 143, 265, 158, 328
-0.993986, 177, 317, 304, 348
-0.994015, 141, 137, 156, 200
-0.994021, 215, 217, 230, 280
-0.994024, 425, 153, 440, 216
-0.994033, 177, 301, 304, 332
-0.994039, 129, 185, 384, 248
-0.994055, 129, 161, 256, 192
-0.994064, 125, 257, 140, 320
-0.994104, 177, 261, 304, 292
-0.994128, 81, 233, 96, 296
-0.994155, 195, 265, 210, 328
-0.994155, 185, 289, 200, 352
-0.994164, 369, 269, 496, 300
-0.994174, 161, 249, 288, 280
-0.994175, 201, 225, 216, 288
-0.994183, 65, 237, 192, 268
-0.994187, 169, 233, 184, 296
-0.994193, 485, 41, 500, 104
-0.994205, 257, 217, 500, 280
-0.994275, 17, 237, 144, 268
-0.994301, 131, 257, 146, 320
-0.994311, 225, 277, 352, 308
-0.994313, 75, 217, 90, 280
-0.994316, 177, 277, 304, 308
-0.994334, 93, 169, 108, 232
-0.994337, 97, 109, 224, 140
-0.994357, 67, 241, 82, 304
-0.994373, 47, 233, 62, 296
-0.9944, 301, 65, 316, 128
-0.99441, 137, 265, 152, 328
-0.994412, 283, 273, 298, 336
-0.994434, 1, 105, 500, 168
-0.994454, 99, 225, 114, 288
-0.994455, 177, 85, 304, 116
-0.994455, 257, 101, 384, 132
-0.994458, 81, 129, 96, 192
-0.994467, 83, 185, 98, 248
-0.994473, 419, 161, 434, 224
-0.994483, 423, 249, 438, 312
-0.994499, 109, 249, 124, 312
-0.994521, 17, 261, 144, 292
-0.994532, 209, 209, 224, 272
-0.994532, 1, 165, 128, 196
-0.994553, 147, 129, 162, 192
-0.994576, 415, 249, 430, 312
-0.994589, 105, 145, 120, 208
-0.994599, 93, 233, 108, 296
-0.994611, 225, 145, 480, 208
-0.994613, 99, 169, 114, 232
-0.994617, 369, 249, 496, 280
-0.994644, 203, 313, 218, 375
-0.994648, 333, 89, 348, 152
-0.994651, 353, 185, 480, 216
-0.994671, 39, 193, 54, 256
-0.994689, 273, 273, 288, 336
-0.9947, 337, 173, 464, 204
-0.994706, 405, 249, 420, 312
-0.99471, 179, 297, 194, 360
-0.994719, 191, 201, 206, 264
-0.994725, 173, 153, 188, 216
-0.994729, 119, 257, 134, 320
-0.994749, 97, 221, 224, 252
-0.994757, 207, 249, 222, 312
-0.994774, 413, 161, 428, 224
-0.994775, 353, 93, 480, 124
-0.994775, 425, 177, 440, 240
-0.994806, 87, 233, 102, 296
-0.994824, 57, 225, 72, 288
-0.994834, 435, 161, 450, 224
-0.994846, 161, 73, 288, 104
-0.994871, 75, 145, 90, 208
-0.994896, 197, 201, 212, 264
-0.994907, 311, 65, 326, 128
-0.994907, 209, 65, 224, 128
-0.994917, 295, 65, 310, 128
-0.994924, 177, 129, 208, 375
-0.994931, 27, 201, 42, 264
-0.994939, 81, 153, 96, 216
-0.99494, 399, 249, 414, 312
-0.99494, 97, 305, 224, 336
-0.994942, 199, 81, 214, 144
-0.994953, 267, 81, 282, 144
-0.994954, 113, 73, 240, 104
-0.994958, 161, 121, 416, 184
-0.994965, 129, 137, 256, 168
-0.994981, 113, 317, 240, 348
-0.994987, 187, 177, 202, 240
-0.994991, 153, 265, 168, 328
-0.995008, 75, 249, 90, 312
-0.995026, 289, 97, 304, 160
-0.995036, 97, 201, 224, 232
-0.995036, 281, 89, 296, 152
-0.99505, 477, 145, 492, 208
-0.995058, 17, 161, 32, 224
-0.99506, 149, 105, 164, 168
-0.99506, 167, 137, 182, 200
-0.995071, 21, 193, 36, 256
-0.995079, 121, 233, 136, 296
-0.99508, 141, 73, 156, 136
-0.995081, 89, 137, 104, 200
-0.995086, 431, 225, 446, 288
-0.995089, 451, 89, 466, 152
-0.9951, 47, 209, 62, 272
-0.995107, 23, 145, 38, 208
-0.995111, 267, 289, 282, 352
-0.995123, 259, 113, 274, 176
-0.995126, 69, 209, 84, 272
-0.99514, 191, 89, 206, 152
-0.995144, 181, 153, 196, 216
-0.995145, 203, 49, 218, 112
-0.995145, 201, 249, 216, 312
-0.995164, 337, 65, 352, 128
-0.995168, 481, 65, 496, 128
-0.995172, 257, 241, 500, 304
-0.995186, 321, 253, 448, 284
-0.995189, 281, 65, 296, 128
-0.995192, 183, 97, 198, 160
-0.995192, 359, 249, 374, 312
-0.995193, 429, 249, 444, 312
-0.995199, 97, 177, 224, 208
-0.995201, 91, 1, 106, 64
-0.995211, 353, 257, 368, 320
-0.995212, 49, 105, 176, 136
-0.995222, 129, 97, 256, 128
-0.995223, 81, 209, 96, 272
-0.995241, 67, 153, 82, 216
-0.995251, 225, 69, 352, 100
-0.995261, 209, 305, 224, 368
-0.995277, 85, 129, 116, 375
-0.995283, 281, 121, 296, 184
-0.995284, 289, 57, 304, 120
-0.995308, 177, 21, 304, 52
-0.995309, 273, 105, 288, 168
-0.995318, 65, 125, 192, 156
-0.995322, 105, 113, 120, 176
-0.995326, 407, 161, 422, 224
-0.995335, 105, 225, 120, 288
-0.995336, 57, 145, 72, 208
-0.995338, 17, 221, 144, 252
-0.995342, 159, 145, 174, 208
-0.995345, 193, 289, 320, 320
-0.995346, 33, 73, 160, 104
-0.995354, 483, 17, 498, 80
-0.995357, 203, 289, 218, 352
-0.995365, 99, 257, 114, 320
-0.995365, 1, 137, 128, 168
-0.995385, 111, 209, 126, 272
-0.995386, 485, 137, 500, 200
-0.995391, 65, 177, 80, 240
-0.995398, 141, 97, 156, 160
-0.995423, 439, 233, 454, 296
-0.995431, 419, 225, 434, 288
-0.995446, 93, 209, 108, 272
-0.99545, 445, 89, 460, 152
-0.995461, 257, 33, 384, 64
-0.995465, 39, 217, 54, 280
-0.995467, 177, 217, 304, 248
-0.995478, 65, 97, 96, 352
-0.995486, 177, 37, 304, 68
-0.99549, 289, 273, 304, 336
-0.995491, 377, 281, 392, 344
-0.995495, 225, 309, 352, 340
-0.995499, 49, 277, 176, 308
-0.9955, 353, 105, 480, 136
-0.995583, 41, 97, 72, 352
-0.995594, 225, 89, 352, 120
-0.995599, 49, 61, 176, 92
-0.99561, 209, 249, 336, 280
-0.995617, 369, 237, 496, 268
-0.995629, 49, 205, 176, 236
-0.995632, 257, 261, 384, 292
-0.995638, 369, 161, 496, 192
-0.995655, 161, 109, 288, 140
-0.995683, 209, 105, 336, 136
-0.9957, 225, 1, 352, 32
-0.995708, 337, 41, 464, 72
-0.995724, 25, 65, 56, 320
-0.995734, 305, 185, 432, 216
-0.995741, 65, 49, 192, 80
-0.995786, 97, 29, 224, 60
-0.995799, 225, 197, 352, 228
-0.995821, 177, 149, 304, 180
-0.995833, 81, 33, 112, 288
-0.99585, 237, 1, 268, 256
-0.995859, 1, 13, 128, 44
-0.995875, 369, 1, 496, 32
-0.995909, 321, 241, 448, 272
-0.995917, 161, 177, 288, 208
-0.995937, 305, 101, 432, 132
-0.995946, 49, 9, 176, 40
-0.99595, 189, 1, 220, 256
-0.995952, 9, 65, 40, 320
-0.995982, 289, 113, 416, 176
-0.995996, 225, 49, 352, 80
-0.996005, 289, 89, 416, 120
-0.996013, 65, 189, 192, 220
-0.996018, 273, 57, 400, 88
-0.996022, 369, 225, 496, 256
-0.996037, 289, 1, 416, 32
-0.996055, 273, 197, 400, 228
-0.996075, 353, 29, 480, 60
-0.996089, 1, 1, 500, 64
-0.996094, 165, 97, 196, 352
-0.996099, 461, 1, 492, 256
-0.996104, 1, 85, 128, 116
-0.99612, 421, 65, 452, 320
-0.996152, 113, 1, 240, 32
-0.996159, 101, 65, 132, 320
-0.996196, 1, 41, 128, 72
-0.9962, 49, 289, 176, 320
-0.996223, 129, 129, 160, 375
-0.99624, 129, 329, 256, 360
-0.996256, 113, 125, 240, 156
-0.996263, 153, 129, 184, 375
-0.99628, 337, 201, 464, 232
-0.996291, 129, 17, 256, 48
-0.996305, 141, 65, 172, 320
-0.996333, 1, 101, 128, 132
-0.996345, 289, 21, 416, 52
-0.99635, 113, 1, 144, 256
-0.996357, 193, 237, 320, 268
-0.996375, 177, 161, 304, 192
-0.996377, 209, 177, 336, 208
-0.996399, 1, 25, 128, 56
-0.996436, 85, 173, 100, 204
-0.996491, 53, 97, 84, 352
-0.99652, 261, 1, 292, 256
-0.996523, 369, 53, 496, 84
-0.996538, 197, 97, 228, 352
-0.996544, 177, 193, 304, 224
-0.996555, 225, 13, 352, 44
-0.996573, 145, 61, 272, 92
-0.996601, 177, 205, 304, 236
-0.996629, 409, 65, 440, 320
-0.996639, 353, 293, 480, 324
-0.996641, 177, 137, 304, 168
-0.996675, 257, 121, 500, 184
-0.996679, 1, 117, 128, 148
-0.996726, 77, 197, 92, 228
-0.99673, 49, 33, 176, 64
-0.996734, 177, 1, 304, 32
-0.996738, 1, 57, 128, 88
-0.996765, 257, 177, 384, 208
-0.996776, 21, 189, 36, 220
-0.996792, 393, 1, 424, 256
-0.996811, 273, 45, 400, 76
-0.996815, 217, 65, 248, 320
-0.996853, 177, 33, 208, 288
-0.996859, 195, 217, 210, 248
-0.996877, 171, 93, 186, 124
-0.996879, 193, 329, 320, 360
-0.996886, 161, 93, 176, 124
-0.996916, 209, 117, 336, 148
-0.996938, 177, 49, 304, 80
-0.99694, 333, 97, 364, 352
-0.996962, 321, 53, 448, 84
-0.996978, 191, 309, 206, 340
-0.996989, 441, 1, 472, 256
-0.997011, 113, 41, 240, 72
-0.997017, 289, 1, 320, 256
-0.997018, 337, 1, 368, 256
-0.997032, 185, 237, 200, 268
-0.997044, 257, 249, 384, 280
-0.997047, 161, 1, 192, 256
-0.99705, 337, 213, 464, 244
-0.997054, 205, 241, 220, 272
-0.99706, 377, 1, 408, 256
-0.997071, 383, 101, 398, 132
-0.997078, 211, 317, 226, 348
-0.99709, 113, 129, 144, 375
-0.997093, 49, 241, 64, 272
-0.997095, 149, 273, 164, 304
-0.997114, 193, 157, 208, 188
-0.997116, 449, 97, 464, 128
-0.997123, 79, 185, 94, 216
-0.997132, 249, 65, 280, 320
-0.997133, 153, 93, 168, 124
-0.997145, 177, 265, 192, 296
-0.99715, 145, 145, 160, 176
-0.997166, 197, 317, 212, 348
-0.997186, 95, 137, 110, 168
-0.997188, 119, 165, 134, 196
-0.997195, 305, 1, 336, 256
-0.997207, 441, 129, 472, 375
-0.997228, 197, 237, 212, 268
-0.99723, 29, 197, 44, 228
-0.997235, 309, 89, 324, 120
-0.997257, 219, 297, 234, 328
-0.997262, 189, 249, 204, 280
-0.997271, 201, 1, 232, 256
-0.997274, 287, 297, 302, 328
-0.997275, 93, 169, 108, 200
-0.997289, 133, 173, 148, 204
-0.997294, 117, 257, 132, 288
-0.997297, 327, 89, 342, 120
-0.997303, 405, 253, 420, 284
-0.997306, 203, 321, 218, 352
-0.997307, 169, 237, 184, 268
-0.997312, 181, 97, 196, 128
-0.997313, 171, 105, 186, 136
-0.997323, 179, 245, 194, 276
-0.99734, 129, 265, 144, 296
-0.99734, 139, 269, 154, 300
-0.997353, 483, 41, 498, 72
-0.997365, 187, 225, 202, 256
-0.997369, 129, 161, 144, 192
-0.99737, 187, 297, 202, 328
-0.997373, 189, 81, 204, 112
-0.997373, 139, 153, 154, 184
-0.997379, 179, 85, 194, 116
-0.997394, 209, 217, 224, 248
-0.997399, 109, 249, 124, 280
-0.997403, 101, 165, 116, 196
-0.997406, 57, 1, 88, 256
-0.997407, 171, 81, 186, 112
-0.99741, 207, 253, 222, 284
-0.997413, 275, 105, 290, 136
-0.997414, 435, 221, 450, 252
-0.997419, 417, 265, 432, 296
-0.997426, 181, 285, 196, 316
-0.997428, 399, 265, 414, 296
-0.997431, 193, 273, 208, 304
-0.997435, 425, 177, 440, 208
-0.997439, 215, 241, 230, 272
-0.997443, 73, 181, 88, 212
-0.997445, 79, 137, 94, 168
-0.997448, 349, 1, 380, 256
-0.99745, 151, 149, 166, 180
-0.997463, 425, 161, 440, 192
-0.997463, 281, 121, 296, 152
-0.99747, 23, 177, 38, 208
-0.997476, 277, 1, 308, 256
-0.997482, 123, 261, 138, 292
-0.997484, 191, 69, 206, 100
-0.997488, 411, 269, 426, 300
-0.997491, 141, 89, 156, 120
-0.997491, 201, 225, 216, 256
-0.997504, 87, 185, 102, 216
-0.997512, 79, 173, 94, 204
-0.997513, 147, 93, 162, 124
-0.997516, 417, 253, 432, 284
-0.99752, 357, 97, 388, 352
-0.997527, 61, 177, 76, 208
-0.997528, 21, 201, 36, 232
-0.997532, 279, 293, 294, 324
-0.997534, 189, 213, 204, 244
-0.997535, 229, 97, 260, 352
-0.997536, 163, 81, 178, 112
-0.997537, 201, 209, 216, 240
-0.99754, 131, 85, 146, 116
-0.997543, 157, 81, 172, 112
-0.997544, 69, 141, 84, 172
-0.997561, 269, 297, 284, 328
-0.997562, 187, 277, 202, 308
-0.997564, 293, 297, 308, 328
-0.997574, 105, 149, 120, 180
-0.997578, 269, 109, 284, 140
-0.997579, 251, 121, 266, 152
-0.99759, 443, 97, 458, 128
-0.997591, 211, 329, 226, 360
-0.997594, 139, 169, 154, 200
-0.997596, 427, 241, 442, 272
-0.997597, 123, 149, 138, 180
-0.9976, 419, 161, 434, 192
-0.997606, 185, 265, 200, 296
-0.997611, 177, 225, 192, 256
-0.997614, 197, 261, 212, 292
-0.997615, 217, 321, 232, 352
-0.997618, 195, 205, 210, 236
-0.997621, 457, 97, 488, 352
-0.997624, 243, 125, 258, 156
-0.997625, 317, 1, 348, 256
-0.997633, 197, 249, 212, 280
-0.997636, 475, 1, 490, 32
-0.997638, 295, 81, 310, 112
-0.997639, 339, 285, 354, 316
-0.997639, 263, 297, 278, 328
-0.997644, 195, 81, 210, 112
-0.997644, 31, 185, 46, 216
-0.997645, 317, 89, 332, 120
-0.997645, 365, 1, 396, 256
-0.997646, 41, 133, 56, 164
-0.997647, 267, 277, 282, 308
-0.997648, 217, 309, 232, 340
-0.99765, 155, 273, 170, 304
-0.997651, 61, 233, 76, 264
-0.997657, 187, 157, 202, 188
-0.997671, 139, 137, 154, 168
-0.997673, 309, 285, 324, 316
-0.997674, 435, 165, 450, 196
-0.997677, 37, 189, 52, 220
-0.997678, 147, 81, 162, 112
-0.997684, 285, 277, 300, 308
-0.997688, 455, 97, 470, 128
-0.997689, 147, 129, 162, 160
-0.99769, 387, 261, 402, 292
-0.997694, 469, 129, 500, 375
-0.997696, 433, 101, 448, 132
-0.997703, 107, 161, 122, 192
-0.997705, 235, 141, 250, 172
-0.997708, 101, 249, 116, 280
-0.997708, 125, 1, 156, 256
-0.99771, 219, 221, 234, 252
-0.99787, 69, 1, 100, 256
-0.997907, 345, 97, 376, 352
-0.997921, 385, 129, 416, 375
-0.997927, 397, 97, 428, 352
-0.99798, 269, 97, 300, 352
-0.99804, 321, 97, 352, 352
-0.998259, 45, 1, 76, 256
-0.998332, 95, 129, 110, 256
-0.998371, 33, 255, 96, 270
-0.998374, 161, 239, 224, 254
-0.998376, 57, 175, 120, 190
-0.998377, 97, 171, 160, 186
-0.99838, 179, 209, 194, 336
-0.9984, 289, 95, 352, 110
-0.998402, 105, 97, 168, 112
-0.998403, 177, 317, 240, 332
-0.998409, 113, 271, 176, 286
-0.998411, 273, 101, 336, 116
-0.998412, 153, 271, 216, 286
-0.998415, 79, 129, 94, 256
-0.998416, 81, 177, 144, 192
-0.998419, 169, 295, 232, 310
-0.998424, 85, 129, 100, 256
-0.998425, 81, 183, 144, 198
-0.998432, 377, 277, 440, 292
-0.998434, 177, 163, 240, 178
-0.998436, 177, 175, 240, 190
-0.998438, 113, 89, 176, 104
-0.998438, 169, 251, 232, 266
-0.998443, 161, 169, 224, 184
-0.998445, 33, 247, 96, 262
-0.998447, 137, 169, 200, 184
-0.998449, 57, 241, 120, 256
-0.99845, 401, 99, 464, 114
-0.99845, 161, 231, 224, 246
-0.998451, 281, 295, 344, 310
-0.998451, 289, 89, 352, 104
-0.998452, 249, 301, 312, 316
-0.998454, 137, 263, 200, 278
-0.998456, 25, 209, 88, 224
-0.998457, 361, 107, 424, 122
-0.998459, 169, 301, 232, 316
-0.99846, 129, 95, 192, 110
-0.998461, 89, 261, 152, 276
-0.998462, 185, 223, 248, 238
-0.998462, 385, 179, 448, 194
-0.998463, 153, 281, 216, 296
-0.998463, 401, 167, 464, 182
-0.998463, 153, 257, 216, 272
-0.998464, 145, 107, 208, 122
-0.998464, 49, 215, 112, 230
-0.998469, 169, 217, 232, 232
-0.998469, 73, 217, 136, 232
-0.998469, 193, 9, 256, 24
-0.99847, 161, 245, 224, 260
-0.998472, 169, 307, 232, 322
-0.998474, 185, 169, 248, 184
-0.998475, 145, 85, 208, 100
-0.998476, 33, 221, 96, 236
-0.998476, 121, 149, 184, 164
-0.998478, 369, 97, 400, 352
-0.998479, 97, 153, 160, 168
-0.998479, 425, 97, 488, 112
-0.99848, 337, 107, 400, 122
-0.99848, 177, 81, 240, 96
-0.998481, 297, 101, 360, 116
-0.998482, 73, 253, 136, 268
-0.998483, 305, 291, 368, 306
-0.998483, 25, 187, 88, 202
-0.998484, 137, 135, 200, 150
-0.998486, 377, 269, 440, 284
-0.998487, 57, 147, 120, 162
-0.998488, 209, 311, 272, 326
-0.998489, 417, 247, 480, 262
-0.998492, 241, 131, 304, 146
-0.998493, 417, 241, 480, 256
-0.998493, 153, 287, 216, 302
-0.998494, 321, 301, 384, 316
-0.998495, 73, 223, 136, 238
-0.998495, 329, 287, 392, 302
-0.998495, 401, 105, 464, 120
-0.998496, 161, 265, 224, 280
-0.998496, 25, 235, 88, 250
-0.998496, 209, 301, 272, 316
-0.998496, 145, 101, 208, 116
-0.998496, 25, 215, 88, 230
-0.998496, 81, 189, 144, 204
-0.998497, 185, 233, 248, 248
-0.998497, 97, 103, 160, 118
-0.998498, 217, 319, 280, 334
-0.998499, 25, 177, 88, 192
-0.9985, 417, 173, 480, 188
-0.9985, 129, 277, 192, 292
-0.9985, 413, 97, 444, 112
-0.998501, 73, 209, 104, 224
-0.998501, 129, 255, 192, 270
-0.998501, 137, 245, 200, 260
-0.998502, 433, 61, 496, 76
-0.998502, 177, 217, 208, 232
-0.998503, 193, 81, 224, 96
-0.998504, 173, 159, 204, 174
-0.998505, 153, 315, 216, 330
-0.998505, 9, 195, 72, 210
-0.998505, 153, 167, 184, 182
-0.998505, 453, 103, 484, 118
-0.998505, 121, 163, 184, 178
-0.998505, 65, 203, 128, 218
-0.998506, 33, 227, 96, 242
-0.998506, 177, 97, 208, 112
-0.998506, 429, 227, 460, 242
-0.998506, 57, 181, 120, 196
-0.998507, 41, 195, 104, 210
-0.998507, 177, 83, 208, 98
-0.998507, 377, 237, 440, 252
-0.998507, 373, 107, 404, 122
-0.998508, 97, 213, 128, 228
-0.998508, 165, 93, 196, 108
-0.998508, 297, 279, 360, 294
-0.998509, 25, 201, 88, 216
-0.998509, 197, 229, 228, 244
-0.998509, 417, 163, 448, 178
-0.998509, 401, 257, 432, 272
-0.99851, 173, 309, 204, 324
-0.99851, 181, 73, 212, 88
-0.99851, 57, 251, 88, 266
-0.99851, 141, 159, 172, 174
-0.99851, 57, 155, 120, 170
-0.998511, 161, 263, 192, 278
-0.998511, 417, 247, 448, 262
-0.998511, 321, 279, 352, 294
-0.998511, 113, 177, 176, 192
-0.998511, 117, 89, 148, 104
-0.998511, 417, 253, 448, 268
-0.998512, 209, 245, 240, 260
-0.998512, 73, 229, 136, 244
-0.998512, 209, 167, 272, 182
-0.998513, 177, 323, 240, 338
-0.998513, 301, 87, 332, 102
-0.998514, 193, 247, 256, 262
-0.998514, 33, 151, 96, 166
-0.998514, 293, 297, 324, 312
-0.998514, 345, 281, 408, 296
-0.998514, 129, 101, 160, 116
-0.998514, 29, 211, 60, 226
-0.998515, 65, 247, 128, 262
-0.998515, 89, 1, 120, 16
-0.998515, 153, 155, 184, 170
-0.998515, 397, 263, 428, 278
-0.998515, 129, 95, 160, 110
-0.998515, 161, 105, 192, 120
-0.998516, 329, 107, 360, 122
-0.998517, 465, 59, 496, 74
-0.998517, 241, 137, 304, 152
-0.998517, 385, 173, 448, 188
-0.998517, 49, 209, 112, 224
-0.998517, 217, 71, 280, 86
-0.998517, 305, 1, 368, 16
-0.998518, 217, 111, 280, 126
-0.998518, 89, 165, 152, 180
-0.998518, 329, 101, 360, 116
-0.998519, 425, 189, 488, 204
-0.998519, 401, 233, 464, 248
-0.99852, 33, 241, 96, 256
-0.99852, 105, 99, 136, 114
-0.99852, 341, 107, 372, 122
-0.998521, 145, 133, 176, 148
-0.998521, 117, 1, 148, 16
-0.998521, 101, 145, 132, 160
-0.998522, 213, 175, 244, 190
-0.998522, 209, 163, 240, 178
-0.998523, 401, 1, 432, 16
-0.998523, 177, 75, 240, 90
-0.998523, 169, 211, 232, 226
-0.998524, 209, 169, 240, 184
-0.998524, 197, 67, 228, 82
-0.998525, 377, 261, 408, 276
-0.998525, 153, 91, 216, 106
-0.998525, 185, 281, 216, 296
-0.998525, 85, 147, 116, 162
-0.998525, 413, 275, 444, 290
-0.998527, 165, 169, 196, 184
-0.998527, 185, 265, 216, 280
-0.998527, 273, 279, 336, 294
-0.998527, 261, 137, 292, 152
-0.998528, 33, 137, 96, 152
-0.998528, 277, 299, 308, 314
-0.998528, 353, 267, 416, 282
-0.998528, 69, 173, 100, 188
-0.998528, 49, 233, 112, 248
-0.998528, 145, 155, 208, 170
-0.998529, 385, 259, 448, 274
-0.998529, 129, 289, 192, 304
-0.99853, 353, 259, 416, 274
-0.99853, 141, 277, 172, 292
-0.99853, 185, 267, 248, 282
-0.998531, 305, 101, 336, 116
-0.998531, 321, 99, 384, 114
-0.998532, 417, 161, 480, 176
-0.998532, 429, 247, 460, 262
-0.998532, 233, 105, 296, 120
-0.998533, 169, 225, 184, 352
-0.998533, 393, 251, 456, 266
-0.998533, 141, 85, 172, 100
-0.998534, 125, 141, 156, 156
-0.998534, 425, 103, 456, 118
-0.998534, 425, 195, 488, 210
-0.998535, 413, 183, 444, 198
-0.998535, 29, 201, 60, 216
-0.998535, 45, 253, 76, 268
-0.998537, 69, 197, 100, 212
-0.998538, 185, 161, 216, 176
-0.99854, 417, 173, 448, 188
-0.998541, 469, 65, 500, 80
-0.998542, 17, 217, 48, 232
-0.998542, 397, 269, 428, 284
-0.998543, 125, 165, 156, 180
-0.998544, 133, 171, 164, 186
-0.998547, 93, 181, 124, 196
-0.998547, 81, 139, 112, 154
-0.998549, 197, 163, 228, 178
-0.99855, 133, 149, 164, 164
-0.99855, 393, 275, 424, 290
-0.998551, 241, 139, 272, 154
-0.998551, 141, 95, 172, 110
-0.998551, 105, 151, 136, 166
-0.998552, 105, 171, 136, 186
-0.998553, 77, 215, 108, 230
-0.998556, 73, 203, 104, 218
-0.998557, 177, 297, 208, 312
-0.998557, 89, 177, 104, 304
-0.998558, 317, 95, 348, 110
-0.998558, 129, 87, 160, 102
-0.998559, 169, 245, 200, 260
-0.99856, 397, 179, 428, 194
-0.998562, 93, 165, 124, 180
-0.998564, 201, 313, 232, 328
-0.998567, 193, 211, 224, 226
-0.99857, 413, 103, 444, 118
-0.998573, 165, 257, 196, 272
-0.998573, 305, 93, 336, 108
-0.998575, 161, 271, 192, 286
-0.998576, 125, 177, 156, 192
-0.998577, 309, 97, 340, 352
-0.998578, 197, 221, 228, 236
-0.998579, 81, 191, 112, 206
-0.998581, 437, 99, 468, 114
-0.998584, 149, 105, 180, 120
-0.998584, 217, 311, 248, 326
-0.998592, 177, 259, 208, 274
-0.998592, 181, 167, 212, 182
-0.998594, 77, 177, 92, 304
-0.998594, 177, 253, 208, 268
-0.998595, 41, 247, 72, 262
-0.998596, 185, 275, 216, 290
-0.998596, 317, 101, 348, 116
-0.998597, 185, 315, 216, 330
-0.998613, 189, 241, 204, 368
-0.998613, 161, 277, 192, 292
-0.998616, 185, 237, 216, 252
-0.998618, 165, 251, 196, 266
-0.998619, 81, 185, 112, 200
-0.998625, 193, 251, 224, 266
-0.998633, 161, 283, 192, 298
-0.99864, 117, 95, 148, 110
-0.998642, 83, 177, 98, 304
-0.998642, 177, 291, 208, 306
-0.998642, 17, 191, 48, 206
-0.998643, 193, 321, 224, 336
-0.998648, 69, 145, 84, 272
-0.998648, 61, 179, 92, 194
-0.998649, 173, 281, 204, 296
-0.998651, 197, 169, 228, 184
-0.998651, 81, 175, 112, 190
-0.998656, 17, 201, 48, 216
-0.998661, 289, 99, 320, 114
-0.998662, 177, 229, 208, 244
-0.998664, 269, 131, 300, 146
-0.998665, 145, 97, 160, 224
-0.998673, 173, 265, 204, 280
-0.998673, 173, 273, 204, 288
-0.998674, 95, 177, 110, 304
-0.998714, 185, 193, 200, 320
-0.998726, 29, 145, 44, 272
-0.998757, 21, 113, 36, 240
-0.998771, 103, 97, 118, 224
-0.998776, 321, 33, 336, 160
-0.998797, 185, 49, 200, 176
-0.998801, 105, 145, 120, 272
-0.998801, 23, 161, 38, 288
-0.998805, 445, 65, 460, 192
-0.998812, 197, 1, 212, 128
-0.998816, 453, 97, 468, 224
-0.998823, 425, 145, 440, 272
-0.998823, 217, 1, 232, 128
-0.998829, 71, 193, 86, 320
-0.998832, 49, 193, 64, 320
-0.998841, 197, 209, 212, 336
-0.998842, 137, 81, 152, 208
-0.998853, 39, 177, 54, 304
-0.998854, 287, 49, 302, 176
-0.998863, 153, 17, 168, 144
-0.998866, 327, 1, 342, 128
-0.998869, 297, 1, 312, 128
-0.998877, 101, 193, 116, 320
-0.998881, 205, 177, 220, 304
-0.998884, 147, 49, 162, 176
-0.998885, 433, 97, 448, 224
-0.998886, 225, 17, 240, 144
-0.998889, 463, 1, 478, 128
-0.998891, 207, 241, 222, 368
-0.998895, 463, 145, 478, 272
-0.998897, 79, 225, 94, 352
-0.998897, 57, 129, 72, 256
-0.9989, 95, 81, 110, 208
-0.998902, 119, 209, 134, 336
-0.998903, 425, 17, 440, 144
-0.99891, 469, 1, 484, 128
-0.998913, 263, 225, 278, 352
-0.998921, 155, 65, 170, 192
-0.998922, 415, 97, 430, 224
-0.998927, 1, 1, 16, 128
-0.998928, 185, 145, 200, 272
-0.998931, 281, 1, 296, 128
-0.998931, 11, 1, 26, 128
-0.998934, 191, 161, 206, 288
-0.99894, 113, 209, 128, 336
-0.998942, 89, 225, 104, 352
-0.998942, 439, 113, 454, 240
-0.998943, 267, 1, 282, 128
-0.998944, 177, 49, 192, 176
-0.998944, 177, 129, 192, 256
-0.998946, 269, 81, 284, 208
-0.998949, 41, 113, 56, 240
-0.998951, 433, 145, 448, 272
-0.998955, 195, 65, 210, 192
-0.998957, 203, 1, 218, 128
-0.998962, 459, 65, 474, 192
-0.998969, 481, 65, 496, 192
-0.99897, 381, 17, 396, 144
-0.998975, 219, 241, 234, 368
-0.998981, 451, 1, 466, 128
-0.998983, 451, 145, 466, 272
-0.998986, 243, 49, 258, 176
-0.998987, 167, 81, 182, 208
-0.998988, 163, 225, 178, 352
-0.998988, 419, 161, 434, 288
-0.99899, 291, 1, 306, 128
-0.998993, 115, 161, 130, 288
-0.998996, 107, 225, 122, 352
-0.999002, 473, 81, 488, 208
-0.999002, 309, 1, 324, 128
-0.999004, 277, 81, 292, 208
-0.999004, 89, 81, 104, 208
-0.999004, 469, 145, 484, 272
-0.999005, 211, 33, 226, 160
-0.999005, 259, 65, 274, 192
-0.999007, 477, 17, 492, 144
-0.999011, 315, 33, 330, 160
-0.999013, 171, 161, 186, 288
-0.999014, 355, 1, 370, 128
-0.99902, 229, 65, 244, 192
-0.99902, 91, 1, 106, 128
-0.999021, 227, 241, 242, 368
-0.999021, 183, 97, 198, 224
-0.999025, 235, 49, 250, 176
-0.999025, 273, 1, 288, 128
-0.999032, 211, 193, 226, 320
-0.999033, 303, 1, 318, 128
-0.999037, 327, 49, 342, 176
-0.999044, 371, 17, 386, 144
-0.999044, 131, 113, 146, 240
-0.999047, 65, 65, 80, 192
-0.999054, 259, 1, 274, 128
-0.999062, 481, 129, 496, 256
-0.999063, 343, 1, 358, 128
-0.99907, 73, 81, 88, 208
-0.999074, 125, 209, 140, 336
-0.999082, 97, 1, 112, 128
-0.999086, 299, 49, 314, 176
-0.999089, 423, 81, 438, 208
-0.999091, 27, 97, 42, 224
-0.999097, 161, 65, 176, 192
-0.999097, 51, 145, 66, 272
-0.999098, 467, 65, 482, 192
-0.999098, 475, 145, 490, 272
-0.999098, 483, 17, 498, 144
-0.999101, 415, 17, 430, 144
-0.999105, 457, 145, 472, 272
-0.999105, 61, 193, 76, 320
-0.999105, 15, 113, 30, 240
-0.999107, 59, 81, 74, 208
-0.99911, 103, 49, 118, 176
-0.999111, 335, 1, 350, 128
-0.999111, 223, 65, 238, 192
-0.999112, 95, 225, 110, 352
-0.999117, 217, 161, 232, 288
-0.999117, 217, 65, 232, 192
-0.999118, 159, 17, 174, 144
-0.999119, 413, 177, 428, 304
-0.999135, 297, 97, 328, 352
-0.99915, 281, 97, 312, 352
-0.999152, 17, 305, 144, 368
-0.99967, 405, 259, 420, 274
-0.99967, 287, 101, 302, 116
-0.99967, 261, 137, 276, 152
-0.99967, 203, 173, 218, 188
-0.999671, 103, 187, 118, 202
-0.999672, 425, 179, 440, 194
-0.999672, 219, 161, 234, 176
-0.999672, 251, 141, 266, 156
-0.999673, 411, 179, 426, 194
-0.999673, 253, 117, 268, 132
-0.999673, 261, 113, 276, 128
-0.999674, 245, 141, 260, 156
-0.999674, 477, 57, 492, 72
-0.999675, 191, 315, 206, 330
-0.999676, 297, 89, 312, 104
-0.999676, 417, 269, 432, 284
-0.999676, 467, 13, 482, 28
-0.999677, 391, 107, 406, 122
-0.999677, 91, 175, 106, 190
-0.999678, 205, 67, 220, 82
-0.999679, 431, 103, 446, 118
-0.999679, 193, 209, 208, 224
-0.99968, 483, 57, 498, 72
-0.99968, 197, 235, 212, 250
-0.99968, 287, 299, 302, 314
-0.99968, 23, 215, 38, 230
-0.99968, 155, 105, 170, 120
-0.99968, 151, 149, 166, 164
-0.999681, 183, 75, 198, 90
-0.999681, 211, 69, 226, 84
-0.999682, 211, 165, 226, 180
-0.999682, 61, 249, 76, 264
-0.999682, 185, 273, 200, 288
-0.999682, 427, 247, 442, 262
-0.999683, 393, 277, 408, 292
-0.999683, 71, 177, 86, 192
-0.999684, 181, 169, 196, 184
-0.999685, 177, 259, 192, 274
-0.999685, 407, 275, 422, 290
-0.999685, 75, 205, 90, 220
-0.999686, 149, 95, 164, 110
-0.999687, 427, 161, 442, 176
-0.999687, 201, 213, 216, 228
-0.999688, 393, 271, 408, 286
-0.999688, 183, 89, 198, 104
-0.999688, 23, 183, 38, 198
-0.999688, 421, 249, 436, 264
-0.999689, 477, 35, 492, 50
-0.999689, 331, 95, 346, 110
-0.99969, 123, 259, 138, 274
-0.99969, 435, 223, 450, 238
-0.999691, 191, 295, 206, 310
-0.999693, 301, 101, 316, 116
-0.999693, 433, 231, 448, 246
-0.999694, 145, 149, 160, 164
-0.999694, 55, 181, 70, 196
-0.999694, 77, 193, 92, 208
-0.999695, 181, 249, 196, 264
-0.999696, 19, 195, 34, 210
-0.999697, 271, 109, 286, 124
-0.999697, 133, 169, 148, 184
-0.999697, 187, 309, 202, 324
-0.999697, 193, 273, 208, 288
-0.999698, 191, 71, 206, 86
-0.999698, 119, 91, 134, 106
-0.999698, 187, 227, 202, 242
-0.999699, 325, 95, 340, 110
-0.999699, 139, 165, 154, 180
-0.9997, 181, 297, 196, 312
-0.9997, 189, 255, 204, 270
-0.999701, 187, 289, 202, 304
-0.999701, 479, 67, 494, 82
-0.999701, 193, 219, 208, 234
-0.999702, 281, 103, 296, 118
-0.999702, 313, 101, 328, 116
-0.999702, 139, 171, 154, 186
-0.999703, 177, 275, 192, 290
-0.999703, 93, 187, 108, 202
-0.999703, 449, 99, 464, 114
-0.999703, 201, 227, 216, 242
-0.999703, 133, 89, 148, 104
-0.999704, 239, 143, 254, 158
-0.999705, 127, 89, 142, 104
-0.999705, 213, 317, 228, 332
-0.999707, 179, 289, 194, 304
-0.999708, 85, 191, 100, 206
-0.999708, 95, 139, 110, 154
-0.999709, 107, 249, 122, 264
-0.999709, 171, 105, 186, 120
-0.99971, 217, 227, 232, 242
-0.999712, 203, 249, 218, 264
-0.999713, 177, 265, 192, 280
-0.999714, 183, 303, 198, 318
-0.999717, 115, 97, 130, 112
-0.999717, 385, 107, 400, 122
-0.999719, 205, 167, 220, 182
-0.999721, 197, 169, 212, 184
-0.999722, 99, 243, 114, 258
-0.999723, 101, 163, 116, 178
-0.999724, 177, 281, 192, 296
-0.999724, 485, 63, 500, 78
-0.999724, 379, 107, 394, 122
-0.999726, 213, 171, 228, 186
-0.999727, 21, 203, 36, 218
-0.999727, 483, 41, 498, 56
-0.999728, 319, 103, 334, 118
-0.999728, 85, 175, 100, 190
-0.999728, 193, 81, 208, 96
-0.99973, 109, 97, 124, 112
-0.999731, 333, 101, 348, 116
-0.999732, 291, 95, 306, 110
-0.999738, 93, 181, 108, 196
-0.99974, 221, 307, 236, 322
-0.99974, 193, 229, 208, 244
-0.999742, 149, 107, 164, 122
-0.999746, 399, 269, 414, 284
-0.999747, 51, 245, 66, 260
-0.999748, 29, 199, 44, 214
-0.999748, 197, 249, 212, 264
-0.999753, 191, 167, 206, 182
-0.999754, 129, 177, 144, 192
-0.999755, 483, 51, 498, 66
-0.999756, 219, 169, 234, 184
-0.999756, 85, 185, 100, 200
-0.999771, 207, 255, 222, 270
-0.999774, 77, 199, 92, 214
-0.999786, 61, 177, 76, 192
-0.999795, 23, 189, 38, 204
-0.999803, 283, 127, 298, 142
-0.999816, 297, 95, 312, 110
