1962
-0.171265, 1, 1, 500, 375
-0.339806, 33, 1, 288, 375
-0.342376, 1, 1, 500, 256
-0.381863, 225, 1, 480, 375
-0.411283, 129, 1, 384, 375
-0.427773, 1, 97, 500, 352
-0.536664, 33, 129, 288, 375
-0.57423, 97, 1, 352, 256
-0.610436, 1, 33, 256, 288
-0.612453, 257, 1, 500, 256
-0.61761, 193, 97, 448, 352
-0.817983, 33, 1, 160, 375
-0.822519, 81, 1, 208, 375
-0.830632, 113, 1, 240, 256
-0.837231, 49, 1, 176, 256
-0.839454, 1, 1, 128, 256
-0.840879, 129, 1, 256, 375
-0.842529, 225, 1, 352, 375
-0.848417, 305, 1, 432, 256
-0.849247, 129, 97, 256, 352
-0.850491, 225, 65, 352, 320
-0.855264, 49, 97, 176, 352
-0.862601, 1, 33, 500, 160
-0.862828, 177, 1, 304, 375
-0.869447, 1, 225, 500, 352
-0.869881, 1, 97, 500, 224
-0.870522, 1, 129, 128, 375
-0.87162, 161, 1, 288, 256
-0.87308, 273, 97, 400, 352
-0.884995, 321, 97, 448, 352
-0.885826, 321, 1, 448, 375
-0.893858, 273, 1, 400, 375
-0.894174, 353, 1, 480, 256
-0.895539, 1, 177, 500, 304
-0.900596, 33, 145, 288, 272
-0.900773, 177, 129, 304, 375
-0.903618, 369, 1, 496, 375
-0.908208, 33, 81, 288, 208
-0.909455, 97, 225, 352, 352
-0.90986, 369, 97, 496, 352
-0.91032, 33, 17, 288, 144
-0.911049, 129, 65, 384, 192
-0.912977, 1, 225, 256, 352
-0.915968, 193, 209, 448, 336
-0.916181, 49, 225, 176, 352
-0.916925, 17, 1, 144, 128
-0.918233, 129, 17, 384, 144
-0.919572, 257, 49, 500, 176
-0.924533, 129, 1, 192, 128
-0.924626, 225, 1, 480, 128
-0.926367, 193, 65, 320, 192
-0.927193, 1, 241, 128, 368
-0.927387, 65, 49, 192, 176
-0.927714, 1, 1, 64, 128
-0.92799, 17, 145, 144, 272
-0.928519, 9, 65, 72, 192
-0.928708, 129, 113, 256, 240
-0.92886, 329, 193, 392, 320
-0.929479, 337, 193, 464, 320
-0.929504, 129, 113, 192, 240
-0.929546, 161, 33, 224, 160
-0.929578, 193, 129, 448, 256
-0.92997, 105, 65, 168, 192
-0.930359, 209, 209, 336, 336
-0.931267, 177, 129, 240, 256
-0.931356, 81, 1, 208, 128
-0.931685, 25, 1, 88, 128
-0.93186, 289, 193, 416, 320
-0.932398, 129, 1, 256, 128
-0.932485, 9, 129, 72, 256
-0.932798, 1, 177, 64, 304
-0.933007, 137, 49, 200, 176
-0.933404, 49, 33, 112, 160
-0.93357, 121, 225, 184, 352
-0.934162, 177, 145, 304, 272
-0.934324, 145, 49, 272, 176
-0.934575, 201, 177, 264, 304
-0.934792, 105, 1, 168, 128
-0.934983, 17, 241, 80, 368
-0.935011, 1, 97, 128, 224
-0.935214, 57, 129, 120, 256
-0.935313, 273, 1, 400, 128
-0.93548, 225, 17, 352, 144
-0.935733, 129, 161, 256, 288
-0.936193, 17, 49, 144, 176
-0.936897, 113, 209, 240, 336
-0.937195, 81, 49, 144, 176
-0.93742, 337, 1, 464, 128
-0.938179, 249, 225, 312, 352
-0.938184, 321, 1, 384, 128
-0.938818, 89, 209, 152, 336
-0.939303, 289, 17, 352, 144
-0.93938, 89, 145, 152, 272
-0.939463, 65, 145, 192, 272
-0.939667, 297, 209, 360, 336
-0.939939, 177, 1, 304, 128
-0.940216, 41, 81, 104, 208
-0.940416, 1, 193, 128, 320
-0.940509, 81, 97, 208, 224
-0.940734, 41, 193, 104, 320
-0.940986, 161, 225, 288, 352
-0.941678, 225, 113, 352, 240
-0.941914, 273, 161, 336, 288
-0.942651, 193, 1, 256, 128
-0.943371, 241, 65, 368, 192
-0.943552, 161, 33, 224, 96
-0.943648, 369, 241, 496, 368
-0.943739, 305, 49, 432, 176
-0.943988, 41, 65, 104, 128
-0.944007, 289, 241, 416, 368
-0.944095, 345, 49, 408, 176
-0.944247, 81, 1, 144, 128
-0.944317, 297, 97, 360, 224
-0.944328, 153, 97, 216, 224
-0.944368, 385, 193, 448, 320
-0.944382, 289, 113, 416, 240
-0.945623, 321, 129, 384, 256
-0.945812, 129, 129, 192, 192
-0.946579, 65, 225, 128, 352
-0.946808, 369, 49, 496, 176
-0.946823, 321, 193, 384, 256
-0.947181, 65, 17, 128, 80
-0.94743, 17, 305, 80, 368
-0.947438, 433, 193, 496, 320
-0.947522, 105, 145, 168, 208
-0.947599, 377, 33, 440, 160
-0.94765, 33, 129, 96, 256
-0.947773, 57, 89, 120, 152
-0.948029, 1, 65, 64, 128
-0.948054, 225, 225, 288, 288
-0.948168, 353, 193, 416, 320
-0.948203, 361, 129, 424, 256
-0.948434, 121, 89, 184, 152
-0.949026, 153, 145, 216, 272
-0.949343, 57, 313, 120, 375
-0.949346, 193, 185, 256, 248
-0.949565, 121, 41, 184, 104
-0.94961, 129, 161, 192, 288
-0.949726, 41, 241, 104, 368
-0.949782, 81, 305, 144, 368
-0.950001, 209, 65, 272, 192
-0.950076, 73, 65, 136, 128
-0.950203, 9, 193, 72, 256
-0.950283, 185, 129, 248, 192
-0.950382, 201, 225, 264, 288
-0.950901, 1, 169, 64, 232
-0.95095, 201, 33, 264, 96
-0.95096, 105, 113, 168, 176
-0.951285, 81, 97, 144, 224
-0.951382, 337, 113, 464, 240
-0.951467, 81, 129, 144, 192
-0.951508, 241, 1, 304, 128
-0.951582, 161, 105, 224, 168
-0.951656, 17, 105, 80, 168
-0.9519, 153, 129, 216, 192
-0.951953, 41, 289, 104, 352
-0.952122, 225, 209, 288, 336
-0.952188, 121, 305, 184, 368
-0.952292, 297, 185, 360, 248
-0.952474, 177, 209, 240, 336
-0.952539, 65, 41, 128, 104
-0.952722, 257, 217, 320, 280
-0.952828, 49, 137, 112, 200
-0.952887, 409, 49, 472, 176
-0.953174, 9, 145, 72, 208
-0.953237, 225, 161, 352, 288
-0.953619, 353, 1, 416, 128
-0.953874, 201, 225, 264, 352
-0.953938, 97, 1, 160, 64
-0.954027, 97, 65, 160, 128
-0.954095, 281, 161, 344, 224
-0.954102, 89, 217, 152, 280
-0.954109, 409, 241, 472, 368
-0.954484, 177, 217, 240, 280
-0.954571, 225, 145, 288, 272
-0.954599, 217, 1, 280, 128
-0.954915, 297, 233, 360, 296
-0.95502, 249, 41, 312, 104
-0.955366, 169, 185, 232, 248
-0.955511, 65, 177, 128, 304
-0.955551, 409, 1, 472, 128
-0.955604, 161, 297, 224, 360
-0.955654, 153, 161, 216, 224
-0.955894, 17, 1, 80, 64
-0.955984, 57, 217, 120, 280
-0.95616, 121, 65, 184, 128
-0.956204, 41, 185, 104, 248
-0.956358, 81, 153, 144, 216
-0.956373, 161, 9, 224, 72
-0.956556, 81, 89, 144, 152
-0.956787, 353, 241, 416, 368
-0.956822, 321, 65, 384, 192
-0.957121, 409, 193, 472, 320
-0.95718, 193, 1, 256, 64
-0.95744, 137, 17, 200, 80
-0.957508, 177, 257, 240, 320
-0.957626, 201, 57, 264, 120
-0.957636, 417, 145, 480, 272
-0.957648, 201, 129, 264, 256
-0.957798, 169, 57, 232, 120
-0.957934, 41, 41, 104, 104
-0.95801, 185, 81, 248, 208
-0.958337, 329, 1, 392, 64
-0.958436, 57, 113, 120, 176
-0.958522, 1, 41, 64, 104
-0.958981, 201, 265, 264, 328
-0.959114, 417, 265, 480, 328
-0.959286, 129, 153, 192, 216
-0.959336, 217, 201, 280, 264
-0.959457, 313, 129, 376, 192
-0.95949, 297, 209, 360, 272
-0.959561, 297, 25, 360, 88
-0.959639, 377, 265, 440, 328
-0.959661, 257, 65, 320, 192
-0.959729, 433, 241, 496, 368
-0.959858, 177, 153, 240, 216
-0.960096, 153, 217, 216, 280
-0.960191, 121, 1, 184, 256
-0.960232, 321, 161, 384, 224
-0.960361, 329, 233, 392, 296
-0.960543, 153, 209, 216, 336
-0.960588, 401, 1, 464, 64
-0.96073, 297, 161, 360, 288
-0.960789, 65, 193, 128, 256
-0.961042, 249, 241, 312, 304
-0.961188, 393, 57, 456, 120
-0.961428, 97, 25, 160, 88
-0.961504, 161, 1, 224, 256
-0.96152, 321, 241, 384, 368
-0.961559, 353, 281, 416, 344
-0.961589, 17, 257, 80, 320
-0.961688, 33, 225, 96, 288
-0.961745, 369, 73, 432, 136
-0.961849, 225, 33, 288, 96
-0.962076, 385, 81, 448, 208
-0.962146, 185, 289, 248, 352
-0.962273, 417, 121, 480, 184
-0.962285, 49, 161, 112, 224
-0.962313, 377, 297, 440, 360
-0.962462, 225, 57, 288, 120
-0.962515, 313, 273, 376, 336
-0.962724, 353, 25, 416, 88
-0.962752, 1, 217, 64, 280
-0.962895, 225, 249, 288, 312
-0.962996, 345, 193, 408, 256
-0.96303, 65, 1, 128, 256
-0.963057, 89, 177, 152, 240
-0.96308, 289, 257, 352, 320
-0.963112, 249, 177, 312, 304
-0.96342, 281, 49, 344, 112
-0.963586, 185, 97, 248, 352
-0.963612, 41, 249, 104, 312
-0.963695, 393, 89, 456, 152
-0.963872, 129, 241, 192, 304
-0.963915, 353, 97, 416, 160
-0.963945, 265, 17, 328, 80
-0.96398, 289, 73, 352, 136
-0.964, 153, 113, 184, 176
-0.964038, 137, 281, 200, 344
-0.964157, 145, 97, 208, 352
-0.964252, 297, 97, 360, 160
-0.964392, 297, 97, 360, 352
-0.964495, 305, 1, 368, 64
-0.964602, 25, 65, 88, 320
-0.964677, 129, 201, 192, 264
-0.964971, 265, 193, 328, 256
-0.96498, 65, 1, 96, 128
-0.965073, 41, 1, 104, 64
-0.965098, 377, 33, 440, 96
-0.965143, 289, 1, 352, 256
-0.965147, 145, 9, 272, 72
-0.965234, 425, 193, 488, 256
-0.965317, 169, 81, 232, 144
-0.96554, 161, 1, 192, 128
-0.965549, 353, 153, 416, 216
-0.965566, 97, 1, 160, 256
-0.96561, 393, 145, 456, 272
-0.965645, 145, 73, 208, 136
-0.965908, 249, 265, 312, 328
-0.965922, 129, 33, 256, 96
-0.965927, 289, 121, 352, 184
-0.965935, 1, 281, 64, 344
-0.966107, 265, 1, 328, 128
-0.966128, 273, 209, 336, 336
-0.966135, 49, 137, 176, 200
-0.9662, 33, 305, 64, 368
-0.966394, 377, 241, 440, 368
-0.96657, 197, 113, 228, 240
-0.966625, 329, 1, 392, 256
-0.966629, 249, 65, 312, 128
-0.966693, 49, 49, 176, 112
-0.966776, 417, 97, 480, 224
-0.96678, 329, 57, 392, 120
-0.966781, 13, 129, 44, 256
-0.966787, 81, 49, 112, 112
-0.966831, 1, 49, 128, 112
-0.967141, 241, 9, 304, 72
-0.967234, 353, 1, 416, 64
-0.967259, 433, 41, 496, 104
-0.967277, 81, 281, 144, 344
-0.967294, 217, 289, 280, 352
-0.967299, 97, 121, 224, 184
-0.967339, 17, 113, 144, 176
-0.967479, 329, 305, 392, 368
-0.967482, 65, 241, 128, 304
-0.967494, 401, 217, 464, 280
-0.967507, 65, 89, 192, 152
-0.967518, 1, 1, 64, 256
-0.967533, 69, 89, 100, 152
-0.967624, 1, 305, 128, 368
-0.96768, 217, 177, 248, 304
-0.967767, 257, 305, 320, 368
-0.967954, 81, 217, 208, 280
-0.967974, 5, 65, 36, 128
-0.968087, 169, 297, 200, 360
-0.968097, 329, 97, 392, 160
-0.968221, 1, 25, 128, 88
-0.968231, 293, 49, 324, 112
-0.968351, 221, 193, 252, 256
-0.968465, 1, 113, 32, 240
-0.968499, 105, 217, 136, 280
-0.968524, 333, 201, 364, 264
-0.968605, 89, 145, 120, 272
-0.968611, 89, 241, 152, 304
-0.968647, 361, 233, 424, 296
-0.968728, 201, 105, 264, 168
-0.96874, 209, 57, 336, 120
-0.968818, 337, 257, 400, 320
-0.968859, 361, 65, 424, 320
-0.968976, 321, 97, 352, 224
-0.969007, 157, 17, 188, 80
-0.969016, 265, 129, 328, 375
-0.969346, 13, 17, 44, 144
-0.969375, 69, 65, 100, 192
-0.969387, 89, 25, 120, 88
-0.969396, 141, 129, 172, 192
-0.969421, 125, 209, 156, 272
-0.969644, 85, 1, 116, 128
-0.969694, 53, 1, 84, 128
-0.969715, 69, 65, 100, 128
-0.969748, 225, 97, 288, 352
-0.969873, 121, 17, 152, 144
-0.969879, 81, 297, 208, 360
-0.969883, 45, 313, 76, 375
-0.969959, 1, 273, 128, 336
-0.969982, 333, 177, 364, 304
-0.970143, 105, 65, 136, 192
-0.970177, 173, 129, 204, 192
-0.970422, 21, 185, 52, 248
-0.970425, 369, 273, 496, 336
-0.970589, 105, 65, 136, 128
-0.970671, 81, 25, 208, 88
-0.970682, 17, 313, 48, 375
-0.970831, 237, 209, 268, 336
-0.970854, 129, 121, 160, 184
-0.970856, 321, 17, 352, 144
-0.97094, 177, 233, 304, 296
-0.971035, 189, 113, 220, 176
-0.971202, 121, 193, 152, 320
-0.97123, 1, 73, 128, 136
-0.97124, 49, 57, 80, 120
-0.971292, 269, 225, 300, 288
-0.971412, 181, 9, 212, 72
-0.971423, 97, 145, 224, 208
-0.971458, 33, 161, 160, 224
-0.971466, 229, 25, 260, 88
-0.971541, 185, 1, 248, 256
-0.971598, 149, 89, 180, 152
-0.971615, 329, 97, 360, 160
-0.971675, 301, 17, 332, 144
-0.971708, 201, 129, 232, 192
-0.971734, 197, 41, 228, 104
-0.971753, 49, 97, 112, 352
-0.971837, 1, 129, 64, 375
-0.97186, 141, 33, 172, 160
-0.971869, 1, 193, 128, 256
-0.971875, 197, 1, 228, 128
-0.971895, 393, 193, 424, 320
-0.971933, 217, 49, 248, 112
-0.97199, 121, 145, 152, 208
-0.972096, 69, 129, 100, 192
-0.972133, 33, 217, 160, 280
-0.972135, 273, 49, 400, 112
-0.972154, 101, 9, 132, 72
-0.972208, 25, 153, 56, 216
-0.972238, 17, 81, 48, 208
-0.97229, 153, 49, 184, 176
-0.972295, 89, 49, 120, 176
-0.972303, 1, 1, 32, 128
-0.97232, 89, 97, 152, 352
-0.972344, 89, 209, 120, 336
-0.97242, 1, 1, 128, 64
-0.972425, 101, 1, 132, 128
-0.972455, 61, 129, 92, 256
-0.972465, 85, 313, 116, 375
-0.972482, 53, 49, 84, 176
-0.972512, 1, 1, 32, 64
-0.97252, 93, 57, 124, 120
-0.972558, 5, 25, 36, 88
-0.972608, 133, 145, 164, 272
-0.972611, 257, 209, 384, 272
-0.97263, 185, 313, 216, 375
-0.972635, 89, 121, 120, 184
-0.972647, 193, 185, 224, 248
-0.972685, 313, 73, 344, 136
-0.972728, 193, 33, 320, 96
-0.972734, 341, 129, 372, 192
-0.972771, 401, 241, 432, 368
-0.972837, 433, 49, 496, 176
-0.97285, 321, 201, 352, 264
-0.972912, 173, 33, 204, 96
-0.972951, 201, 65, 232, 192
-0.972989, 1, 313, 32, 375
-0.973049, 233, 97, 296, 224
-0.973066, 153, 113, 184, 240
-0.973074, 233, 209, 264, 272
-0.973115, 305, 113, 432, 176
-0.973134, 89, 145, 120, 208
-0.973168, 129, 193, 256, 256
-0.97318, 433, 1, 496, 128
-0.973226, 1, 137, 128, 200
-0.973252, 9, 169, 40, 232
-0.973323, 373, 281, 404, 344
-0.973336, 69, 17, 100, 80
-0.973345, 9, 289, 40, 352
-0.973356, 69, 249, 100, 312
-0.973359, 385, 1, 448, 256
-0.973395, 45, 185, 76, 248
-0.973414, 333, 81, 364, 208
-0.973425, 161, 289, 288, 352
-0.973443, 225, 281, 256, 344
-0.973455, 45, 113, 76, 240
-0.973493, 113, 97, 240, 160
-0.973537, 81, 81, 112, 144
-0.973563, 289, 25, 416, 88
-0.973711, 397, 1, 428, 128
-0.973745, 69, 177, 100, 304
-0.973773, 49, 241, 80, 368
-0.973791, 85, 217, 116, 280
-0.973858, 1, 65, 32, 192
-0.97388, 129, 313, 256, 375
-0.973908, 305, 89, 432, 152
-0.973917, 161, 73, 288, 136
-0.973923, 165, 49, 196, 176
-0.973984, 249, 1, 312, 256
-0.974029, 185, 129, 216, 256
-0.974042, 109, 97, 140, 160
-0.974059, 49, 161, 80, 288
-0.97413, 161, 41, 192, 104
-0.974137, 129, 241, 256, 304
-0.974235, 273, 57, 304, 120
-0.974255, 313, 225, 344, 288
-0.974334, 37, 161, 68, 224
-0.97434, 353, 65, 480, 128
-0.974389, 129, 97, 160, 160
-0.97442, 97, 57, 224, 120
-0.974513, 165, 113, 196, 240
-0.974539, 109, 137, 140, 200
-0.974581, 1, 193, 32, 256
-0.974602, 101, 209, 132, 336
-0.974615, 229, 161, 260, 288
-0.974624, 145, 297, 176, 360
-0.974641, 193, 1, 320, 64
-0.974703, 25, 129, 56, 256
-0.97474, 49, 81, 80, 144
-0.974782, 153, 225, 184, 352
-0.974804, 201, 225, 232, 288
-0.974893, 165, 73, 196, 136
-0.974918, 105, 145, 136, 272
-0.974949, 193, 209, 320, 272
-0.975143, 205, 225, 236, 352
-0.975146, 257, 1, 288, 128
-0.975167, 137, 97, 168, 224
-0.975178, 209, 201, 240, 264
-0.975219, 325, 225, 356, 352
-0.975231, 225, 1, 256, 128
-0.975286, 209, 129, 240, 256
-0.975315, 145, 145, 272, 208
-0.975343, 49, 225, 80, 288
-0.975361, 221, 169, 252, 232
-0.975363, 213, 49, 244, 176
-0.975374, 205, 17, 236, 80
-0.975386, 185, 161, 216, 224
-0.975389, 49, 241, 176, 304
-0.975403, 369, 9, 400, 72
-0.975407, 249, 233, 280, 296
-0.975412, 117, 145, 148, 272
-0.975459, 149, 49, 180, 112
-0.975461, 413, 177, 444, 304
-0.975487, 369, 1, 496, 64
-0.975496, 25, 73, 56, 136
-0.975519, 325, 177, 356, 240
-0.975525, 5, 193, 36, 320
-0.975535, 1, 89, 32, 152
-0.975537, 265, 209, 296, 336
-0.975575, 205, 73, 236, 136
-0.975613, 37, 177, 68, 304
-0.975625, 357, 49, 388, 112
-0.975652, 81, 1, 208, 64
-0.975656, 33, 49, 64, 176
-0.975661, 293, 73, 324, 136
-0.975673, 209, 257, 240, 320
-0.975678, 329, 241, 360, 304
-0.97569, 133, 241, 164, 368
-0.975705, 109, 33, 140, 96
-0.975709, 373, 193, 404, 320
-0.975731, 21, 1, 52, 64
-0.975748, 353, 33, 480, 96
-0.975759, 321, 97, 384, 352
-0.975812, 305, 193, 432, 256
-0.975861, 337, 1, 368, 128
-0.975875, 337, 313, 464, 375
-0.975875, 225, 1, 288, 256
-0.975898, 5, 113, 36, 176
-0.975904, 421, 1, 452, 128
-0.975957, 89, 1, 120, 64
-0.975994, 141, 225, 172, 288
-0.976038, 121, 81, 152, 208
-0.976043, 341, 129, 372, 256
-0.976048, 161, 137, 192, 200
-0.976062, 353, 201, 480, 264
-0.976076, 45, 289, 76, 352
-0.976155, 57, 33, 88, 96
-0.976166, 317, 113, 348, 176
-0.976172, 257, 105, 384, 168
-0.976204, 21, 241, 52, 368
-0.976221, 225, 233, 352, 296
-0.976255, 417, 273, 448, 336
-0.97629, 209, 273, 336, 336
-0.976302, 45, 1, 76, 64
-0.976307, 181, 1, 212, 128
-0.976315, 321, 1, 448, 64
-0.976316, 289, 241, 320, 368
-0.976348, 385, 33, 416, 96
-0.976379, 101, 297, 132, 360
-0.976401, 225, 169, 352, 232
-0.976422, 113, 169, 240, 232
-0.976462, 133, 297, 164, 360
-0.976508, 1, 249, 128, 312
-0.976528, 321, 153, 352, 216
-0.97653, 145, 25, 176, 88
-0.976598, 177, 177, 304, 240
-0.976607, 377, 49, 408, 176
-0.976645, 37, 1, 68, 128
-0.976647, 297, 265, 328, 328
-0.976657, 309, 41, 340, 104
-0.97669, 113, 305, 144, 368
-0.976694, 145, 265, 272, 328
-0.97676, 169, 9, 200, 72
-0.976762, 409, 57, 440, 120
-0.976771, 369, 193, 400, 256
-0.976773, 305, 145, 432, 208
-0.976775, 49, 185, 176, 248
-0.976789, 145, 121, 272, 184
-0.976843, 57, 305, 88, 368
-0.976852, 233, 161, 264, 224
-0.976882, 297, 225, 328, 288
-0.976884, 37, 241, 68, 368
-0.976898, 445, 273, 476, 336
-0.976968, 57, 129, 88, 192
-0.976973, 357, 1, 388, 128
-0.97698, 129, 217, 256, 280
-0.977015, 397, 273, 428, 336
-0.977018, 413, 169, 444, 232
-0.977067, 97, 97, 128, 160
-0.977088, 225, 1, 256, 64
-0.977094, 401, 81, 432, 144
-0.977111, 41, 1, 104, 375
-0.977117, 273, 113, 336, 240
-0.977138, 249, 33, 280, 96
-0.977145, 289, 281, 416, 344
-0.97715, 237, 17, 268, 144
-0.977157, 121, 129, 184, 375
-0.97734, 69, 41, 100, 104
-0.977342, 237, 233, 268, 296
-0.977399, 321, 233, 448, 296
-0.977437, 181, 89, 212, 152
-0.977448, 157, 297, 188, 360
-0.977451, 461, 217, 492, 280
-0.977463, 317, 249, 348, 312
-0.977477, 25, 1, 56, 128
-0.97765, 289, 257, 416, 320
-0.977652, 409, 193, 440, 256
-0.97769, 61, 225, 92, 352
-0.977702, 17, 177, 48, 304
-0.977709, 109, 193, 140, 256
-0.977713, 213, 233, 244, 296
-0.977722, 97, 193, 128, 256
-0.977758, 205, 177, 236, 304
-0.977793, 237, 57, 268, 120
-0.977925, 89, 97, 120, 224
-0.977991, 73, 129, 104, 256
-0.978004, 209, 97, 336, 160
-0.978017, 177, 65, 208, 192
-0.978064, 241, 25, 368, 88
-0.978066, 285, 161, 316, 288
-0.97816, 297, 177, 328, 304
-0.978237, 297, 65, 328, 192
-0.978266, 257, 1, 384, 64
-0.978279, 177, 313, 304, 375
-0.978327, 361, 49, 392, 176
-0.978358, 97, 265, 224, 328
-0.978365, 345, 193, 376, 320
-0.978374, 257, 73, 384, 136
-0.978394, 285, 49, 316, 176
-0.978489, 121, 241, 152, 368
-0.978701, 213, 1, 244, 128
-0.978747, 353, 121, 480, 184
-0.978849, 65, 1, 128, 375
-0.978853, 277, 209, 308, 336
-0.978955, 249, 225, 280, 352
-0.979087, 177, 241, 208, 368
-0.979139, 469, 193, 500, 320
-0.979156, 305, 169, 432, 232
-0.979226, 309, 81, 340, 208
-0.979235, 225, 225, 256, 352
-0.9794, 369, 89, 496, 152
-0.979404, 369, 241, 400, 368
-0.979453, 165, 161, 196, 288
-0.979486, 393, 97, 456, 352
-0.979611, 317, 145, 348, 272
-0.979649, 281, 1, 344, 375
-0.979654, 309, 193, 340, 320
-0.979667, 1, 1, 64, 375
-0.979708, 353, 161, 480, 224
-0.97991, 429, 241, 460, 368
-0.979974, 417, 129, 448, 256
-0.979995, 113, 1, 176, 375
-0.980137, 337, 241, 368, 368
-0.980246, 353, 145, 384, 272
-0.980303, 89, 1, 152, 375
-0.980342, 401, 49, 432, 176
-0.980404, 377, 1, 408, 128
-0.980432, 49, 273, 176, 336
-0.980604, 77, 241, 108, 368
-0.980699, 409, 1, 472, 256
-0.980712, 417, 225, 448, 352
-0.980716, 257, 305, 384, 368
-0.980886, 193, 145, 320, 208
-0.980915, 249, 1, 312, 375
-0.981011, 193, 1, 256, 375
-0.981068, 5, 241, 36, 368
-0.981117, 221, 113, 252, 240
-0.981253, 433, 97, 496, 352
-0.981266, 273, 233, 400, 296
-0.981381, 185, 177, 216, 304
-0.981509, 381, 145, 412, 272
-0.981568, 393, 113, 424, 240
-0.981686, 409, 1, 440, 128
-0.981686, 357, 209, 388, 336
-0.981866, 273, 1, 304, 128
-0.981932, 345, 49, 376, 176
-0.981968, 381, 97, 412, 224
-0.982015, 457, 225, 488, 352
-0.98228, 189, 49, 220, 176
-0.982348, 165, 225, 196, 352
-0.982378, 233, 49, 296, 176
-0.982497, 169, 1, 232, 375
-0.982541, 381, 241, 412, 368
-0.982763, 137, 1, 200, 375
-0.982785, 433, 177, 464, 304
-0.982802, 145, 177, 176, 304
-0.982831, 369, 249, 496, 312
-0.982967, 437, 1, 468, 128
-0.983092, 241, 137, 368, 200
-0.983248, 413, 81, 444, 208
-0.983301, 161, 97, 288, 160
-0.983394, 369, 97, 400, 224
-0.983471, 429, 49, 460, 176
-0.983861, 193, 225, 224, 352
-0.984317, 305, 1, 368, 375
-0.984434, 369, 225, 496, 288
-0.984678, 369, 1, 432, 375
-0.984734, 409, 1, 472, 375
-0.985204, 225, 1, 288, 375
-0.985779, 433, 1, 496, 256
-0.986627, 329, 1, 392, 375
-0.987834, 57, 93, 120, 124
-0.987843, 105, 145, 168, 176
-0.987863, 65, 49, 128, 80
-0.987932, 41, 81, 104, 112
-0.987938, 193, 121, 320, 184
-0.988006, 129, 57, 192, 88
-0.988046, 9, 341, 72, 372
-0.988067, 9, 321, 72, 352
-0.988079, 41, 61, 104, 92
-0.98809, 81, 321, 144, 352
-0.988099, 137, 137, 200, 168
-0.988223, 161, 41, 224, 72
-0.988318, 265, 221, 328, 252
-0.988337, 241, 233, 304, 264
-0.988359, 177, 257, 240, 288
-0.988388, 217, 233, 280, 264
-0.988397, 57, 325, 120, 356
-0.988436, 161, 53, 224, 84
-0.988439, 25, 101, 88, 132
-0.988451, 65, 41, 320, 104
-0.988462, 249, 61, 312, 92
-0.988475, 121, 121, 184, 152
-0.988507, 217, 61, 280, 92
-0.988511, 89, 65, 152, 96
-0.988513, 369, 289, 432, 320
-0.988529, 57, 129, 120, 160
-0.988561, 121, 109, 184, 140
-0.988587, 57, 105, 120, 136
-0.988638, 153, 157, 216, 188
-0.988641, 193, 1, 256, 32
-0.988646, 201, 277, 264, 308
-0.988672, 1, 153, 256, 216
-0.988684, 97, 217, 160, 248
-0.988687, 97, 53, 160, 84
-0.988688, 329, 5, 392, 36
-0.988691, 65, 81, 128, 112
-0.988711, 121, 309, 184, 340
-0.988725, 217, 249, 280, 280
-0.988726, 113, 157, 176, 188
-0.98879, 313, 209, 376, 240
-0.988792, 9, 89, 72, 120
-0.988799, 145, 301, 208, 332
-0.9888, 17, 5, 80, 36
-0.98881, 321, 221, 384, 252
-0.988842, 1, 173, 64, 204
-0.988885, 257, 249, 320, 280
-0.988905, 81, 149, 144, 180
-0.988911, 41, 309, 104, 340
-0.988924, 153, 77, 216, 108
-0.988926, 289, 237, 352, 268
-0.988929, 161, 113, 224, 144
-0.988935, 249, 77, 312, 108
-0.988939, 137, 25, 200, 56
-0.988969, 401, 205, 464, 236
-0.988995, 33, 201, 96, 232
-0.989032, 17, 65, 80, 96
-0.989039, 1, 193, 64, 224
-0.98912, 185, 137, 248, 168
-0.989126, 121, 321, 184, 352
-0.989132, 273, 57, 336, 88
-0.989157, 329, 197, 392, 228
-0.989174, 33, 329, 96, 360
-0.989197, 137, 37, 200, 68
-0.989201, 81, 109, 144, 140
-0.989208, 289, 265, 352, 296
-0.989215, 105, 41, 168, 72
-0.98922, 81, 309, 144, 340
-0.989223, 417, 285, 480, 316
-0.989249, 241, 49, 304, 80
-0.989254, 65, 17, 320, 80
-0.989255, 337, 273, 400, 304
-0.98926, 121, 97, 184, 128
-0.989264, 65, 69, 128, 100
-0.989288, 161, 141, 224, 172
-0.989307, 81, 333, 144, 364
-0.989321, 401, 345, 464, 375
-0.989322, 193, 157, 256, 188
-0.989326, 209, 221, 272, 252
-0.98933, 1, 77, 64, 108
-0.989333, 153, 245, 216, 276
-0.989368, 81, 93, 144, 124
-0.98939, 89, 161, 152, 192
-0.989391, 129, 249, 192, 280
-0.989397, 193, 205, 256, 236
-0.989412, 353, 201, 416, 232
-0.989413, 209, 289, 272, 320
-0.989413, 185, 49, 248, 80
-0.989419, 281, 161, 344, 192
-0.989419, 233, 213, 296, 244
-0.98942, 289, 225, 352, 256
-0.989422, 145, 169, 208, 200
-0.989443, 329, 109, 392, 140
-0.989445, 17, 213, 80, 244
-0.989447, 177, 289, 240, 320
-0.989449, 153, 101, 216, 132
-0.989464, 9, 309, 72, 340
-0.989465, 25, 145, 88, 176
-0.989467, 57, 217, 120, 248
-0.989467, 1, 65, 256, 128
-0.989474, 57, 141, 120, 172
-0.989475, 289, 97, 352, 128
-0.989485, 17, 121, 80, 152
-0.989494, 377, 273, 440, 304
-0.989501, 201, 73, 264, 104
-0.989504, 161, 65, 224, 96
-0.989511, 105, 133, 168, 164
-0.989514, 329, 241, 392, 272
-0.989534, 393, 289, 456, 320
-0.989542, 161, 17, 224, 48
-0.989542, 193, 61, 256, 92
-0.989543, 9, 289, 72, 320
-0.989556, 305, 125, 368, 156
-0.989561, 193, 193, 256, 224
-0.989565, 289, 69, 352, 100
-0.989567, 169, 125, 232, 156
-0.989571, 1, 153, 64, 184
-0.989573, 1, 65, 500, 128
-0.989578, 97, 9, 160, 40
-0.989585, 289, 253, 352, 284
-0.989593, 161, 313, 224, 344
-0.989598, 369, 149, 432, 180
-0.989602, 65, 37, 128, 68
-0.989607, 193, 245, 256, 276
-0.98963, 65, 17, 128, 48
-0.989651, 41, 245, 104, 276
-0.989651, 41, 257, 104, 288
-0.989679, 313, 181, 376, 212
-0.989702, 1, 101, 64, 132
-0.989712, 377, 9, 440, 40
-0.989713, 329, 133, 392, 164
-0.989715, 361, 41, 424, 72
-0.989716, 401, 61, 464, 92
-0.98972, 345, 73, 408, 104
-0.989723, 65, 253, 128, 284
-0.989734, 329, 345, 392, 375
-0.989747, 361, 301, 424, 332
-0.989761, 33, 225, 288, 288
-0.990008, 129, 225, 384, 288
-0.99009, 1, 97, 256, 160
-0.99013, 257, 265, 500, 328
-0.990195, 65, 313, 320, 375
-0.990392, 1, 121, 256, 184
-0.990524, 161, 49, 416, 112
-0.990577, 33, 177, 288, 240
-0.990838, 129, 97, 384, 160
-0.990913, 1, 289, 256, 352
-0.990991, 1, 249, 256, 312
-0.991041, 161, 1, 416, 64
-0.991148, 161, 289, 416, 352
-0.991177, 257, 217, 500, 280
-0.991221, 129, 257, 384, 320
-0.99133, 1, 1, 500, 64
-0.9914, 1, 233, 500, 296
-0.991403, 161, 185, 416, 248
-0.99142, 1, 97, 500, 160
-0.991548, 33, 201, 288, 264
-0.991629, 433, 1, 496, 375
-0.991644, 129, 73, 384, 136
-0.991644, 1, 41, 500, 104
-0.991649, 97, 137, 352, 200
-0.991697, 1, 145, 500, 208
-0.991811, 33, 309, 64, 340
-0.991827, 257, 65, 500, 128
-0.991883, 77, 53, 108, 84
-0.991904, 45, 325, 76, 356
-0.991919, 121, 217, 152, 248
-0.991935, 17, 325, 48, 356
-0.991937, 257, 17, 500, 80
-0.991964, 53, 93, 84, 124
-0.991966, 97, 49, 128, 80
-0.992, 337, 205, 368, 236
-0.992, 29, 321, 60, 352
-0.992004, 225, 241, 480, 304
-0.992023, 81, 93, 112, 124
-0.992032, 1, 185, 500, 248
-0.992052, 197, 193, 228, 224
-0.99206, 129, 157, 160, 188
-0.99207, 33, 145, 160, 176
-0.992085, 153, 117, 184, 148
-0.992103, 133, 145, 164, 176
-0.992106, 117, 61, 148, 92
-0.992108, 17, 297, 48, 328
-0.992109, 69, 89, 100, 120
-0.992112, 81, 41, 112, 72
-0.992113, 149, 133, 180, 164
-0.992133, 41, 305, 56, 368
-0.992134, 109, 325, 140, 356
-0.992137, 101, 217, 132, 248
-0.992142, 153, 21, 184, 52
-0.992142, 257, 289, 500, 352
-0.99215, 293, 229, 324, 260
-0.992151, 381, 205, 412, 236
-0.992157, 21, 309, 52, 340
-0.992165, 113, 141, 240, 172
-0.992168, 17, 49, 144, 80
-0.992171, 173, 41, 204, 72
-0.992174, 281, 53, 312, 84
-0.992177, 41, 145, 72, 176
-0.992177, 81, 237, 112, 268
-0.992179, 101, 69, 132, 100
-0.992186, 329, 121, 360, 152
-0.992188, 85, 81, 116, 112
-0.99219, 173, 137, 204, 168
-0.992197, 233, 233, 264, 264
-0.992197, 321, 105, 352, 136
-0.992198, 293, 65, 324, 96
-0.992201, 53, 145, 84, 176
-0.992213, 69, 21, 100, 52
-0.992214, 149, 93, 180, 124
-0.992215, 89, 317, 120, 348
-0.992217, 61, 105, 92, 136
-0.992219, 229, 273, 260, 304
-0.992223, 165, 53, 196, 84
-0.992224, 213, 225, 244, 256
-0.992229, 29, 1, 60, 32
-0.99223, 329, 249, 360, 280
-0.992238, 133, 125, 164, 156
-0.992245, 173, 9, 204, 40
-0.992247, 269, 229, 300, 260
-0.992257, 105, 229, 136, 260
-0.992258, 69, 253, 100, 284
-0.992258, 1, 141, 32, 172
-0.992265, 81, 65, 112, 96
-0.99227, 321, 213, 352, 244
-0.992274, 53, 61, 84, 92
-0.992277, 225, 209, 256, 240
-0.992278, 253, 241, 284, 272
-0.99228, 273, 65, 304, 96
-0.992284, 77, 317, 108, 348
-0.992287, 393, 201, 424, 232
-0.992291, 21, 153, 52, 184
-0.992297, 205, 241, 236, 272
-0.992299, 61, 133, 92, 164
-0.992299, 1, 53, 32, 84
-0.9923, 109, 37, 140, 68
-0.9923, 141, 157, 172, 188
-0.992303, 181, 97, 212, 128
-0.992304, 109, 101, 140, 132
-0.992307, 145, 305, 176, 336
-0.992308, 301, 93, 332, 124
-0.99231, 25, 209, 56, 240
-0.992311, 29, 97, 60, 128
-0.992312, 21, 337, 52, 368
-0.992316, 65, 313, 96, 344
-0.992318, 409, 273, 440, 304
-0.992318, 1, 97, 32, 128
-0.992319, 93, 93, 124, 124
-0.992322, 349, 125, 380, 156
-0.992323, 193, 53, 224, 84
-0.992325, 121, 205, 152, 236
-0.992325, 193, 121, 224, 152
-0.992325, 341, 193, 372, 224
-0.992327, 293, 81, 324, 112
-0.992327, 149, 105, 180, 136
-0.99233, 5, 33, 36, 64
-0.992333, 357, 1, 388, 32
-0.992334, 105, 145, 136, 176
-0.992337, 157, 41, 188, 72
-0.99234, 137, 109, 168, 140
-0.992343, 165, 301, 196, 332
-0.992344, 257, 89, 500, 152
-0.992344, 281, 229, 312, 260
-0.992346, 329, 185, 360, 216
-0.99235, 65, 61, 96, 92
-0.99235, 5, 329, 36, 360
-0.992352, 197, 1, 228, 32
-0.992354, 337, 101, 368, 132
-0.992356, 121, 141, 152, 172
-0.992357, 337, 133, 368, 164
-0.992358, 233, 29, 264, 60
-0.992358, 117, 49, 148, 80
-0.99236, 345, 1, 376, 32
-0.99236, 161, 153, 192, 184
-0.992361, 45, 81, 76, 112
-0.992363, 381, 285, 412, 316
-0.992363, 13, 185, 44, 216
-0.992367, 293, 53, 324, 84
-0.992367, 49, 105, 80, 136
-0.992371, 225, 9, 256, 40
-0.992373, 209, 233, 336, 264
-0.992375, 437, 273, 468, 304
-0.992375, 233, 77, 264, 108
-0.99238, 9, 117, 40, 148
-0.992381, 125, 345, 156, 375
-0.992382, 1, 1, 32, 32
-0.992384, 193, 65, 224, 96
-0.992387, 1, 345, 32, 375
-0.992389, 369, 277, 400, 308
-0.992391, 421, 293, 452, 324
-0.992392, 5, 317, 36, 348
-0.992396, 173, 149, 204, 180
-0.992398, 61, 49, 92, 80
-0.992402, 161, 105, 192, 136
-0.992404, 229, 293, 260, 324
-0.992409, 245, 285, 276, 316
-0.992409, 61, 273, 92, 304
-0.99241, 353, 53, 384, 84
-0.992412, 125, 109, 156, 140
-0.992414, 41, 193, 72, 224
-0.992415, 401, 305, 432, 336
-0.992417, 5, 21, 36, 52
-0.992419, 189, 173, 220, 204
-0.992472, 49, 133, 176, 164
-0.992584, 81, 61, 208, 92
-0.99268, 33, 89, 160, 120
-0.992685, 1, 313, 128, 344
-0.992694, 1, 121, 500, 184
-0.992713, 85, 65, 100, 128
-0.992774, 49, 217, 176, 248
-0.992802, 65, 113, 192, 144
-0.992825, 161, 9, 288, 40
-0.992843, 113, 213, 240, 244
-0.992907, 273, 217, 288, 280
-0.992915, 69, 65, 84, 128
-0.992946, 65, 49, 192, 80
-0.992962, 161, 25, 416, 88
-0.992973, 97, 129, 224, 160
-0.992988, 167, 121, 182, 184
-0.99299, 203, 113, 218, 176
-0.992995, 193, 61, 320, 92
-0.993004, 1, 37, 128, 68
-0.993038, 173, 297, 188, 360
-0.993052, 49, 305, 64, 368
-0.993071, 33, 61, 160, 92
-0.993077, 17, 337, 144, 368
-0.993089, 17, 325, 144, 356
-0.993099, 165, 89, 180, 152
-0.993117, 145, 73, 272, 104
-0.993152, 49, 33, 176, 64
-0.993172, 257, 193, 500, 256
-0.993184, 1, 73, 128, 104
-0.993187, 145, 233, 272, 264
-0.993221, 145, 61, 272, 92
-0.993232, 241, 249, 368, 280
-0.993251, 83, 25, 98, 88
-0.993273, 145, 45, 272, 76
-0.993273, 217, 201, 232, 264
-0.993292, 145, 245, 272, 276
-0.993312, 79, 49, 94, 112
-0.993319, 257, 237, 384, 268
-0.993351, 81, 101, 208, 132
-0.99337, 105, 9, 120, 72
-0.993374, 265, 233, 280, 296
-0.99339, 109, 57, 124, 120
-0.993392, 209, 221, 336, 252
-0.993413, 1, 313, 500, 375
-0.99342, 343, 185, 358, 248
-0.99344, 167, 17, 182, 80
-0.993449, 335, 201, 350, 264
-0.993452, 257, 137, 500, 200
-0.993482, 97, 305, 224, 336
-0.993482, 89, 145, 104, 208
-0.993483, 33, 185, 48, 248
-0.993506, 369, 277, 496, 308
-0.993515, 207, 177, 222, 240
-0.993516, 65, 229, 192, 260
-0.993517, 157, 121, 172, 184
-0.99352, 63, 57, 78, 120
-0.993544, 95, 113, 110, 176
-0.993552, 93, 49, 108, 112
-0.993556, 113, 33, 128, 96
-0.99356, 173, 9, 188, 72
-0.993589, 337, 337, 464, 368
-0.993599, 161, 93, 288, 124
-0.993601, 219, 169, 234, 232
-0.993602, 1, 1, 16, 64
-0.993602, 1, 257, 500, 320
-0.993613, 77, 233, 92, 296
-0.993618, 337, 97, 352, 160
-0.993638, 89, 25, 104, 88
-0.993649, 71, 33, 86, 96
-0.993661, 1, 89, 16, 152
-0.993672, 49, 157, 176, 188
-0.993695, 63, 113, 78, 176
-0.993701, 97, 157, 224, 188
-0.993702, 81, 81, 208, 112
-0.993738, 3, 41, 18, 104
-0.99376, 49, 309, 176, 340
-0.993787, 79, 89, 94, 152
-0.9938, 257, 41, 500, 104
-0.993812, 161, 161, 416, 224
-0.993824, 295, 49, 310, 112
-0.993836, 179, 33, 194, 96
-0.99384, 209, 25, 336, 56
-0.993843, 183, 9, 198, 72
-0.993848, 229, 169, 244, 232
-0.99385, 1, 17, 128, 48
-0.993878, 23, 297, 38, 360
-0.993884, 197, 177, 212, 240
-0.993927, 97, 37, 224, 68
-0.99393, 327, 233, 342, 296
-0.993939, 85, 89, 100, 152
-0.993945, 227, 193, 242, 256
-0.993947, 103, 57, 118, 120
-0.993949, 161, 285, 288, 316
-0.993954, 241, 265, 256, 328
-0.993974, 337, 201, 464, 232
-0.993975, 65, 249, 192, 280
-0.993976, 131, 209, 146, 272
-0.993988, 237, 153, 252, 216
-0.993994, 321, 1, 448, 32
-0.993995, 179, 129, 194, 192
-0.993996, 211, 25, 226, 88
-0.994002, 1, 1, 128, 32
-0.994006, 1, 101, 128, 132
-0.99401, 193, 49, 320, 80
-0.994038, 93, 89, 108, 152
-0.994039, 189, 145, 204, 208
-0.994041, 239, 17, 254, 80
-0.994044, 237, 201, 252, 264
-0.994045, 3, 65, 18, 128
-0.994046, 145, 21, 272, 52
-0.994047, 225, 313, 480, 375
-0.99405, 125, 305, 140, 368
-0.994054, 161, 25, 176, 88
-0.994067, 7, 1, 22, 64
-0.994085, 147, 121, 162, 184
-0.994088, 289, 105, 416, 136
-0.994102, 411, 273, 426, 336
-0.994114, 329, 105, 344, 168
-0.994136, 307, 49, 322, 112
-0.994137, 225, 85, 352, 116
-0.994138, 55, 73, 70, 136
-0.994141, 9, 25, 24, 88
-0.994143, 245, 217, 260, 280
-0.994143, 439, 265, 454, 328
-0.994145, 15, 1, 30, 64
-0.994146, 123, 57, 138, 120
-0.994151, 373, 185, 388, 248
-0.994152, 193, 245, 320, 276
-0.994158, 349, 121, 364, 184
-0.994172, 55, 305, 70, 368
-0.994188, 103, 33, 118, 96
-0.994188, 339, 121, 354, 184
-0.994221, 49, 9, 176, 40
-0.994225, 15, 313, 30, 375
-0.994226, 205, 33, 220, 96
-0.99423, 251, 305, 266, 368
-0.994231, 273, 45, 400, 76
-0.994244, 381, 273, 396, 336
-0.994262, 169, 41, 184, 104
-0.994263, 101, 105, 116, 168
-0.994271, 111, 209, 126, 272
-0.994273, 423, 281, 438, 344
-0.994287, 97, 25, 224, 56
-0.994289, 273, 1, 400, 32
-0.994292, 215, 233, 230, 296
-0.994302, 3, 121, 18, 184
-0.994304, 233, 257, 248, 320
-0.994306, 299, 153, 314, 216
-0.994309, 87, 113, 102, 176
-0.994316, 107, 89, 122, 152
-0.994319, 131, 81, 146, 144
-0.994324, 225, 101, 352, 132
-0.994329, 159, 81, 174, 144
-0.994331, 247, 281, 262, 344
-0.99434, 167, 145, 182, 208
-0.99434, 59, 273, 74, 336
-0.994341, 193, 73, 320, 104
-0.994341, 93, 217, 108, 280
-0.99435, 27, 1, 42, 64
-0.994357, 309, 217, 324, 280
-0.994358, 257, 233, 272, 296
-0.994361, 251, 233, 266, 296
-0.99437, 173, 129, 188, 192
-0.994384, 297, 265, 312, 328
-0.994385, 289, 25, 416, 56
-0.994388, 95, 137, 110, 200
-0.99439, 227, 265, 242, 328
-0.994394, 33, 173, 160, 204
-0.9944, 171, 97, 186, 160
-0.994405, 273, 65, 400, 96
-0.994411, 289, 205, 416, 236
-0.994411, 17, 245, 144, 276
-0.994414, 133, 1, 164, 256
-0.994416, 103, 137, 118, 200
-0.994416, 179, 297, 194, 360
-0.994423, 211, 201, 226, 264
-0.994428, 339, 145, 354, 208
-0.994429, 203, 137, 218, 200
-0.99445, 345, 249, 360, 312
-0.99445, 177, 153, 304, 184
-0.994458, 131, 105, 146, 168
-0.994469, 257, 169, 500, 232
-0.994476, 49, 57, 64, 120
-0.994478, 147, 97, 162, 160
-0.994484, 337, 53, 464, 84
-0.994513, 209, 277, 336, 308
-0.994515, 113, 321, 240, 352
-0.994518, 21, 73, 36, 136
-0.994524, 29, 297, 44, 360
-0.994538, 159, 225, 174, 288
-0.994545, 53, 233, 68, 296
-0.994545, 233, 49, 248, 112
-0.994557, 363, 1, 378, 64
-0.994558, 257, 113, 500, 176
-0.994562, 39, 161, 54, 224
-0.994566, 195, 153, 210, 216
-0.994571, 167, 297, 182, 360
-0.994572, 77, 25, 92, 88
-0.994577, 289, 285, 416, 316
-0.994577, 115, 65, 130, 128
-0.994577, 109, 129, 124, 192
-0.994578, 85, 249, 100, 312
-0.994583, 119, 297, 134, 360
-0.994584, 257, 13, 384, 44
-0.994586, 11, 65, 26, 128
-0.994589, 197, 9, 212, 72
-0.994592, 413, 297, 428, 360
-0.994612, 1, 133, 128, 164
-0.994625, 257, 225, 384, 256
-0.994641, 17, 121, 144, 152
-0.994706, 17, 185, 144, 216
-0.994757, 369, 41, 496, 72
-0.994763, 1, 221, 128, 252
-0.994764, 1, 301, 128, 332
-0.994788, 321, 257, 448, 288
-0.994792, 97, 345, 224, 375
-0.994796, 1, 285, 128, 316
-0.99481, 1, 205, 128, 236
-0.994828, 161, 217, 288, 248
-0.994833, 321, 37, 448, 68
-0.994838, 113, 169, 240, 200
-0.99485, 209, 13, 336, 44
-0.994859, 289, 89, 416, 120
-0.994868, 81, 285, 208, 316
-0.994874, 241, 265, 368, 296
-0.994899, 177, 297, 304, 328
-0.994901, 289, 269, 416, 300
-0.994912, 113, 113, 240, 144
-0.994937, 177, 1, 208, 256
-0.994974, 113, 333, 240, 364
-0.99499, 305, 121, 432, 152
-0.994993, 165, 1, 196, 256
-0.995007, 369, 289, 496, 320
-0.995024, 305, 241, 432, 272
-0.99505, 65, 333, 192, 364
-0.995063, 1, 209, 500, 272
-0.995065, 145, 125, 272, 156
-0.995072, 65, 321, 192, 352
-0.995103, 189, 1, 220, 256
-0.995142, 145, 33, 272, 64
-0.995153, 353, 213, 480, 244
-0.995171, 241, 333, 368, 364
-0.995186, 321, 313, 448, 344
-0.995195, 289, 77, 416, 108
-0.995218, 337, 325, 464, 356
-0.995235, 145, 309, 272, 340
-0.995256, 289, 189, 416, 220
-0.995281, 209, 113, 336, 144
-0.995297, 1, 289, 500, 352
-0.995336, 193, 97, 224, 352
-0.995341, 49, 21, 176, 52
-0.995345, 129, 265, 256, 296
-0.995355, 89, 1, 120, 256
-0.995356, 5, 1, 36, 256
-0.995391, 17, 233, 144, 264
-0.995394, 337, 225, 464, 256
-0.995412, 45, 1, 76, 256
-0.995431, 325, 97, 356, 352
-0.995455, 353, 177, 480, 208
-0.995459, 301, 33, 332, 288
-0.995463, 193, 265, 320, 296
-0.995464, 321, 157, 448, 188
-0.995473, 25, 65, 56, 320
-0.995487, 49, 205, 176, 236
-0.995495, 97, 9, 224, 40
-0.995521, 113, 201, 240, 232
-0.995548, 317, 1, 348, 256
-0.995553, 209, 173, 336, 204
-0.995562, 153, 1, 184, 256
-0.995568, 241, 345, 368, 375
-0.995578, 225, 205, 352, 236
-0.995592, 353, 301, 480, 332
-0.995593, 289, 333, 416, 364
-0.995597, 353, 17, 480, 48
-0.995603, 209, 1, 336, 32
-0.995606, 161, 109, 288, 140
-0.995615, 369, 5, 496, 36
-0.995621, 161, 137, 288, 168
-0.995636, 353, 85, 480, 116
-0.995639, 177, 205, 304, 236
-0.995646, 333, 1, 364, 256
-0.995665, 205, 1, 236, 256
-0.995665, 305, 141, 432, 172
-0.995881, 141, 97, 172, 352
-0.995919, 45, 97, 76, 352
-0.995966, 101, 1, 132, 256
-0.996026, 77, 1, 108, 256
-0.996039, 225, 129, 256, 375
-0.996061, 209, 129, 240, 375
-0.996085, 121, 33, 152, 288
-0.996145, 349, 65, 380, 320
-0.99615, 57, 33, 88, 288
-0.996173, 181, 129, 212, 375
-0.996216, 313, 97, 344, 352
-0.996272, 13, 129, 44, 375
-0.996273, 79, 241, 94, 272
-0.996289, 285, 97, 316, 352
-0.996366, 39, 313, 54, 344
-0.996377, 165, 129, 196, 375
-0.996393, 409, 1, 440, 256
-0.996393, 417, 97, 448, 352
-0.996428, 249, 129, 280, 375
-0.996479, 385, 1, 416, 256
-0.996535, 73, 257, 88, 288
-0.996604, 125, 129, 156, 375
-0.99661, 83, 49, 98, 80
-0.996621, 47, 97, 62, 128
-0.996624, 289, 1, 320, 256
-0.99663, 63, 133, 78, 164
-0.996662, 73, 97, 88, 128
-0.996665, 289, 61, 304, 92
-0.996679, 359, 1, 374, 32
-0.996699, 303, 93, 318, 124
-0.996716, 31, 1, 46, 32
-0.996716, 89, 53, 104, 84
-0.996742, 155, 109, 170, 140
-0.996749, 31, 325, 46, 356
-0.996749, 47, 313, 62, 344
-0.996771, 329, 233, 344, 264
-0.996774, 347, 133, 362, 164
-0.996775, 217, 1, 248, 256
-0.996788, 205, 125, 220, 156
-0.996798, 237, 65, 268, 320
-0.996811, 335, 105, 350, 136
-0.996833, 233, 277, 248, 308
-0.996844, 19, 333, 34, 364
-0.996852, 339, 205, 354, 236
-0.996853, 123, 49, 138, 80
-0.996853, 237, 165, 252, 196
-0.996872, 361, 1, 392, 256
-0.996878, 57, 325, 72, 356
-0.996883, 273, 97, 304, 352
-0.99689, 19, 293, 34, 324
-0.996892, 161, 121, 176, 152
-0.996896, 77, 97, 108, 352
-0.996903, 273, 225, 288, 256
-0.996904, 337, 97, 368, 352
-0.996905, 93, 65, 108, 96
-0.996912, 165, 149, 180, 180
-0.996914, 41, 97, 56, 128
-0.996925, 373, 1, 404, 256
-0.996929, 337, 245, 352, 276
-0.996932, 63, 173, 78, 204
-0.996933, 329, 257, 344, 288
-0.996955, 211, 237, 226, 268
-0.996957, 97, 85, 112, 116
-0.996958, 43, 1, 58, 32
-0.996961, 295, 157, 310, 188
-0.996965, 57, 129, 88, 375
-0.99697, 241, 273, 256, 304
-0.996972, 213, 61, 228, 92
-0.996973, 53, 97, 68, 128
-0.996974, 67, 109, 82, 140
-0.996978, 43, 325, 58, 356
-0.996984, 71, 21, 86, 52
-0.996986, 81, 257, 96, 288
-0.996989, 295, 53, 310, 84
-0.996994, 83, 89, 98, 120
-0.997001, 177, 41, 192, 72
-0.997001, 351, 121, 366, 152
-0.997009, 3, 1, 18, 32
-0.997011, 405, 201, 420, 232
-0.997016, 103, 53, 118, 84
-0.997028, 423, 305, 438, 336
-0.997035, 77, 53, 92, 84
-0.997035, 263, 237, 278, 268
-0.997036, 333, 213, 348, 244
-0.99704, 195, 169, 210, 200
-0.997041, 425, 1, 456, 256
-0.997046, 59, 273, 74, 304
-0.997048, 217, 185, 232, 216
-0.99705, 1, 53, 16, 84
-0.99705, 11, 289, 26, 320
-0.997055, 13, 341, 28, 372
-0.997056, 241, 77, 256, 108
-0.997057, 91, 317, 106, 348
-0.997072, 203, 217, 218, 248
-0.997074, 147, 121, 162, 152
-0.997075, 191, 149, 206, 180
-0.997077, 89, 97, 120, 352
-0.997077, 105, 101, 120, 132
-0.997078, 295, 233, 310, 264
-0.997078, 163, 101, 178, 132
-0.997085, 165, 73, 180, 104
-0.997088, 79, 313, 94, 344
-0.997089, 255, 245, 270, 276
-0.997091, 173, 53, 188, 84
-0.997092, 29, 153, 44, 184
-0.997092, 73, 245, 88, 276
-0.997093, 133, 53, 148, 84
-0.997093, 219, 201, 234, 232
-0.997097, 169, 137, 184, 168
-0.997103, 391, 281, 406, 312
-0.997105, 299, 253, 314, 284
-0.997109, 211, 345, 226, 375
-0.997112, 99, 109, 114, 140
-0.997119, 159, 237, 174, 268
-0.997125, 149, 97, 164, 128
-0.997126, 153, 97, 184, 352
-0.997128, 133, 117, 148, 148
-0.997132, 297, 129, 328, 375
-0.997132, 301, 225, 316, 256
-0.997134, 281, 57, 296, 88
-0.997137, 163, 21, 178, 52
-0.997141, 13, 125, 28, 156
-0.997146, 57, 177, 72, 208
-0.997149, 101, 69, 116, 100
-0.997154, 1, 97, 32, 352
-0.997154, 167, 113, 182, 144
-0.997155, 227, 273, 242, 304
-0.997157, 337, 265, 352, 296
-0.99716, 211, 125, 226, 156
-0.99716, 41, 85, 56, 116
-0.997163, 335, 329, 350, 360
-0.997164, 177, 137, 192, 168
-0.997164, 101, 217, 116, 248
-0.997166, 57, 61, 72, 92
-0.997167, 295, 169, 310, 200
-0.997168, 153, 137, 168, 168
-0.997174, 71, 61, 86, 92
-0.997175, 109, 321, 124, 352
-0.997176, 157, 89, 172, 120
-0.997178, 61, 105, 76, 136
-0.997178, 395, 205, 410, 236
-0.997179, 19, 321, 34, 352
-0.997179, 417, 189, 432, 220
-0.99718, 205, 1, 220, 32
-0.997181, 205, 113, 220, 144
-0.997182, 25, 305, 40, 336
-0.997183, 251, 289, 266, 320
-0.997185, 423, 1, 438, 32
-0.997186, 145, 157, 160, 188
-0.997189, 37, 1, 52, 32
-0.997192, 175, 97, 190, 128
-0.997194, 111, 101, 126, 132
-0.997197, 51, 85, 66, 116
-0.997201, 345, 185, 360, 216
-0.997207, 65, 149, 80, 180
-0.99721, 257, 321, 272, 352
-0.997211, 149, 301, 164, 332
-0.997214, 221, 237, 236, 268
-0.997214, 77, 85, 92, 116
-0.997215, 115, 37, 130, 68
-0.997216, 207, 45, 222, 76
-0.99722, 171, 17, 186, 48
-0.997221, 173, 113, 188, 144
-0.997324, 105, 97, 136, 352
-0.997462, 405, 97, 436, 352
-0.997727, 429, 97, 460, 352
-0.997749, 397, 1, 428, 256
-0.997761, 253, 1, 284, 256
-0.997818, 385, 97, 416, 352
-0.997842, 361, 97, 392, 352
-0.997993, 465, 33, 496, 288
-0.998144, 445, 129, 476, 375
-0.998233, 277, 1, 308, 256
-0.998341, 57, 107, 120, 122
-0.998357, 113, 61, 176, 76
-0.998363, 233, 233, 296, 248
-0.998372, 329, 203, 392, 218
-0.998374, 353, 45, 416, 60
-0.998374, 217, 241, 280, 256
-0.998376, 73, 47, 136, 62
-0.998382, 65, 325, 128, 340
-0.998384, 17, 107, 80, 122
-0.998385, 137, 141, 200, 156
-0.998385, 273, 227, 336, 242
-0.998389, 169, 47, 232, 62
-0.998391, 145, 53, 208, 68
-0.998393, 41, 67, 104, 82
-0.998393, 1, 3, 64, 18
-0.998395, 265, 1, 296, 256
-0.998396, 161, 361, 224, 375
-0.998398, 193, 215, 256, 230
-0.998398, 57, 113, 120, 128
-0.998399, 161, 139, 224, 154
-0.9984, 89, 165, 152, 180
-0.998401, 89, 107, 152, 122
-0.998402, 81, 215, 144, 230
-0.998403, 41, 323, 104, 338
-0.998404, 145, 95, 208, 110
-0.998405, 153, 157, 216, 172
-0.998405, 121, 159, 184, 174
-0.998406, 97, 55, 160, 70
-0.998407, 57, 97, 120, 112
-0.998408, 105, 113, 168, 128
-0.998408, 169, 129, 232, 144
-0.998408, 209, 233, 272, 248
-0.99841, 73, 57, 136, 72
-0.998415, 129, 103, 192, 118
-0.998415, 121, 119, 184, 134
-0.998418, 137, 305, 200, 320
-0.998419, 81, 63, 144, 78
-0.998419, 105, 149, 168, 164
-0.99842, 217, 287, 280, 302
-0.99842, 261, 97, 292, 352
-0.998424, 329, 17, 392, 32
-0.998424, 65, 335, 128, 350
-0.998425, 9, 81, 24, 208
-0.998425, 9, 345, 72, 360
-0.998425, 417, 351, 480, 366
-0.998425, 41, 315, 104, 330
-0.998428, 25, 329, 88, 344
-0.998429, 225, 227, 288, 242
-0.99843, 361, 205, 424, 220
-0.99843, 57, 91, 120, 106
-0.998432, 137, 135, 200, 150
-0.998432, 145, 147, 208, 162
-0.998432, 193, 3, 256, 18
-0.998434, 13, 129, 28, 256
-0.998434, 17, 213, 80, 228
-0.998434, 193, 287, 256, 302
-0.998435, 33, 97, 96, 112
-0.998435, 281, 75, 344, 90
-0.998436, 331, 17, 346, 144
-0.998437, 17, 175, 80, 190
-0.998438, 33, 339, 96, 354
-0.998438, 241, 69, 304, 84
-0.998439, 97, 159, 160, 174
-0.998439, 313, 191, 376, 206
-0.998439, 1, 77, 64, 92
-0.998441, 185, 53, 248, 68
-0.998441, 153, 75, 216, 90
-0.998442, 1, 317, 64, 332
-0.998443, 257, 239, 320, 254
-0.998443, 313, 185, 376, 200
-0.998444, 241, 53, 304, 68
-0.998444, 393, 281, 456, 296
-0.998444, 153, 13, 216, 28
-0.998445, 89, 71, 152, 86
-0.998445, 97, 221, 160, 236
-0.998446, 377, 287, 440, 302
-0.998446, 121, 355, 184, 370
-0.998446, 121, 55, 184, 70
-0.998446, 265, 173, 328, 188
-0.998449, 153, 21, 216, 36
-0.998449, 297, 249, 360, 264
-0.998449, 385, 215, 448, 230
-0.998449, 129, 165, 192, 180
-0.99845, 121, 127, 184, 142
-0.998451, 369, 279, 432, 294
-0.998452, 249, 63, 312, 78
-0.998452, 33, 259, 96, 274
-0.998453, 81, 307, 144, 322
-0.998453, 65, 19, 128, 34
-0.998454, 105, 139, 168, 154
-0.998455, 177, 261, 240, 276
-0.998456, 161, 39, 224, 54
-0.998457, 41, 249, 104, 264
-0.998457, 193, 75, 256, 90
-0.998458, 297, 261, 360, 276
-0.998458, 89, 329, 152, 344
-0.998458, 201, 69, 264, 84
-0.998459, 377, 299, 440, 314
-0.998462, 65, 39, 128, 54
-0.998463, 185, 153, 248, 168
-0.998463, 353, 55, 416, 70
-0.998463, 241, 245, 304, 260
-0.998464, 41, 215, 104, 230
-0.998464, 233, 177, 296, 192
-0.998464, 257, 77, 320, 92
-0.998465, 161, 59, 224, 74
-0.998465, 105, 49, 168, 64
-0.998465, 9, 359, 72, 374
-0.998466, 185, 293, 248, 308
-0.998466, 281, 167, 344, 182
-0.998466, 49, 85, 112, 100
-0.998467, 297, 269, 360, 284
-0.998468, 305, 127, 368, 142
-0.998468, 17, 151, 80, 166
-0.998468, 305, 221, 368, 236
-0.998469, 161, 355, 224, 370
-0.998469, 321, 343, 384, 358
-0.998469, 121, 311, 184, 326
-0.998471, 65, 255, 128, 270
-0.998471, 81, 313, 144, 328
-0.998472, 105, 171, 168, 186
-0.998473, 361, 217, 424, 232
-0.998474, 1, 323, 64, 338
-0.998475, 313, 235, 376, 250
-0.998475, 265, 255, 328, 270
-0.998475, 1, 91, 64, 106
-0.998476, 1, 195, 64, 210
-0.998476, 257, 233, 320, 248
-0.998476, 137, 35, 200, 50
-0.998476, 129, 153, 192, 168
-0.998477, 25, 85, 88, 100
-0.998478, 121, 97, 184, 112
-0.99848, 201, 223, 264, 238
-0.99848, 9, 183, 72, 198
-0.99848, 385, 207, 448, 222
-0.998491, 335, 81, 350, 208
-0.998494, 437, 1, 468, 256
-0.998508, 373, 129, 404, 375
-0.998535, 9, 17, 24, 144
-0.998541, 15, 1, 30, 128
-0.998558, 171, 1, 186, 128
-0.998561, 69, 1, 84, 128
-0.998564, 57, 177, 72, 304
-0.998576, 219, 177, 234, 304
-0.998579, 133, 131, 164, 146
-0.998579, 89, 113, 120, 128
-0.998579, 241, 23, 272, 38
-0.99858, 79, 1, 94, 128
-0.998581, 141, 225, 172, 240
-0.998581, 337, 13, 368, 28
-0.998581, 377, 211, 408, 226
-0.998582, 201, 127, 232, 142
-0.998582, 197, 199, 228, 214
-0.998583, 141, 217, 172, 232
-0.998583, 177, 51, 208, 66
-0.998586, 225, 215, 256, 230
-0.998586, 397, 281, 428, 296
-0.998587, 69, 251, 100, 266
-0.998587, 101, 73, 132, 88
-0.998587, 105, 109, 136, 124
-0.998587, 5, 127, 36, 142
-0.998587, 1, 195, 32, 210
-0.998588, 77, 221, 108, 236
-0.998588, 193, 217, 224, 232
-0.998588, 405, 199, 436, 214
-0.998588, 201, 185, 232, 200
-0.998589, 429, 57, 460, 72
-0.998589, 181, 159, 212, 174
-0.998589, 369, 279, 400, 294
-0.998589, 61, 51, 92, 66
-0.99859, 137, 111, 168, 126
-0.99859, 193, 141, 224, 156
-0.998591, 269, 75, 300, 90
-0.998591, 73, 41, 104, 56
-0.998593, 273, 231, 304, 246
-0.998593, 105, 357, 136, 372
-0.998593, 97, 325, 128, 340
-0.998594, 209, 287, 240, 302
-0.998594, 149, 23, 180, 38
-0.998595, 25, 211, 56, 226
-0.998595, 9, 185, 40, 200
-0.998595, 185, 135, 216, 150
-0.998595, 377, 45, 408, 60
-0.998596, 69, 21, 100, 36
-0.998596, 29, 151, 60, 166
-0.998596, 33, 319, 64, 334
-0.998597, 93, 107, 124, 122
-0.998597, 131, 193, 146, 320
-0.998597, 205, 47, 236, 62
-0.998598, 289, 73, 320, 88
-0.998598, 17, 321, 48, 336
-0.998598, 129, 159, 160, 174
-0.998599, 165, 113, 196, 128
-0.998599, 341, 195, 372, 210
-0.9986, 339, 177, 354, 304
-0.998601, 161, 155, 192, 170
-0.998601, 69, 67, 100, 82
-0.998601, 165, 303, 196, 318
-0.998604, 97, 55, 128, 70
-0.998604, 213, 225, 244, 240
-0.998604, 297, 227, 328, 242
-0.998604, 153, 93, 184, 108
-0.998605, 329, 121, 360, 136
-0.998606, 85, 17, 116, 32
-0.998606, 73, 61, 104, 76
-0.998606, 277, 173, 308, 188
-0.998606, 349, 129, 380, 144
-0.998607, 173, 133, 204, 148
-0.998607, 409, 277, 440, 292
-0.998607, 173, 139, 204, 154
-0.998607, 69, 129, 100, 144
-0.998608, 57, 143, 88, 158
-0.99861, 69, 149, 100, 164
-0.998611, 169, 57, 200, 72
-0.998611, 17, 345, 48, 360
-0.998612, 85, 1, 100, 128
-0.998613, 181, 213, 212, 228
-0.998613, 225, 285, 256, 300
-0.998613, 237, 283, 268, 298
-0.998615, 9, 179, 40, 194
-0.998615, 241, 209, 256, 336
-0.998615, 441, 283, 472, 298
-0.998616, 329, 351, 360, 366
-0.998616, 273, 225, 304, 240
-0.998617, 173, 13, 204, 28
-0.998617, 153, 119, 184, 134
-0.998617, 57, 225, 72, 352
-0.998617, 31, 1, 46, 128
-0.998619, 17, 313, 48, 328
-0.998619, 173, 45, 204, 60
-0.99862, 117, 63, 148, 78
-0.99862, 1, 97, 16, 224
-0.99862, 65, 97, 96, 112
-0.99862, 53, 109, 84, 124
-0.998621, 337, 205, 368, 220
-0.998621, 303, 17, 318, 144
-0.998622, 45, 335, 76, 350
-0.998623, 105, 213, 136, 228
-0.998623, 5, 293, 36, 308
-0.998624, 1, 351, 32, 366
-0.998624, 85, 61, 116, 76
-0.998624, 101, 219, 132, 234
-0.998626, 33, 7, 64, 22
-0.998626, 289, 59, 320, 74
-0.998627, 361, 193, 392, 208
-0.998628, 301, 101, 332, 116
-0.998628, 265, 237, 296, 252
-0.998628, 293, 233, 324, 248
-0.998629, 29, 327, 60, 342
-0.998629, 429, 277, 460, 292
-0.998631, 53, 63, 84, 78
-0.998632, 37, 313, 68, 328
-0.998632, 329, 225, 344, 352
-0.998633, 325, 127, 356, 142
-0.998633, 93, 93, 124, 108
-0.998633, 123, 33, 138, 160
-0.998635, 77, 95, 108, 110
-0.998635, 125, 351, 156, 366
-0.998635, 77, 109, 108, 124
-0.998636, 29, 105, 60, 120
-0.998639, 173, 49, 188, 176
-0.998639, 19, 129, 34, 256
-0.998642, 225, 193, 240, 320
-0.998642, 321, 105, 352, 120
-0.998642, 229, 233, 260, 248
-0.998643, 73, 89, 104, 104
-0.998645, 389, 207, 420, 222
-0.998645, 215, 1, 230, 128
-0.998646, 13, 1, 44, 16
-0.998646, 53, 95, 84, 110
-0.998649, 45, 165, 76, 180
-0.998652, 41, 329, 72, 344
-0.998652, 285, 65, 316, 80
-0.998653, 17, 307, 48, 322
-0.998655, 69, 257, 100, 272
-0.998655, 69, 103, 100, 118
-0.998661, 7, 129, 22, 256
-0.998661, 377, 203, 408, 218
-0.998663, 1, 49, 16, 176
-0.998664, 155, 17, 170, 144
-0.998664, 245, 241, 276, 256
-0.998666, 141, 245, 172, 260
-0.998666, 253, 235, 284, 250
-0.998667, 363, 1, 378, 128
-0.998669, 205, 113, 220, 240
-0.99867, 173, 361, 204, 375
-0.99868, 81, 49, 96, 176
-0.998683, 233, 177, 248, 304
-0.998686, 89, 45, 120, 60
-0.998686, 1, 1, 16, 128
-0.998687, 29, 1, 60, 16
-0.998687, 77, 55, 108, 70
-0.998689, 121, 55, 152, 70
-0.998691, 53, 97, 68, 224
-0.998694, 153, 135, 184, 150
-0.998695, 153, 97, 168, 224
-0.998696, 145, 305, 176, 320
-0.998698, 45, 103, 76, 118
-0.998699, 205, 1, 220, 128
-0.998699, 21, 81, 36, 208
-0.9987, 141, 225, 156, 352
-0.998709, 181, 1, 196, 128
-0.998709, 121, 219, 152, 234
-0.998715, 187, 129, 202, 256
-0.998716, 111, 1, 126, 128
-0.998717, 165, 1, 180, 128
-0.998725, 161, 97, 176, 224
-0.998729, 213, 49, 228, 176
-0.99873, 323, 17, 338, 144
-0.998732, 241, 1, 256, 128
-0.998736, 93, 145, 108, 272
-0.998737, 213, 161, 228, 288
-0.998738, 161, 49, 176, 176
-0.998739, 335, 225, 350, 352
-0.998743, 61, 17, 76, 144
-0.998748, 89, 65, 104, 192
-0.998748, 103, 209, 118, 336
-0.998749, 205, 65, 220, 192
-0.998751, 139, 1, 154, 128
-0.998751, 297, 49, 312, 176
-0.998752, 199, 97, 214, 224
-0.998757, 291, 225, 306, 352
-0.998758, 221, 1, 236, 128
-0.99876, 51, 33, 66, 160
-0.99877, 469, 129, 500, 375
-0.998773, 291, 1, 306, 128
-0.998773, 15, 81, 30, 208
-0.998773, 41, 241, 56, 368
-0.998779, 341, 97, 356, 224
-0.998779, 21, 1, 36, 128
-0.99878, 345, 145, 360, 272
-0.998786, 145, 17, 160, 144
-0.998787, 329, 65, 344, 192
-0.998793, 25, 161, 40, 288
-0.998796, 261, 1, 276, 128
-0.998799, 91, 1, 106, 128
-0.998799, 227, 145, 242, 272
-0.998801, 69, 241, 84, 368
-0.998802, 37, 161, 52, 288
-0.998802, 65, 129, 80, 256
-0.998803, 217, 225, 232, 352
-0.998803, 95, 193, 110, 320
-0.998806, 107, 49, 122, 176
-0.998812, 193, 129, 208, 256
-0.998835, 345, 241, 360, 368
-0.998836, 399, 1, 414, 128
-0.998839, 167, 97, 182, 224
-0.998839, 355, 129, 370, 256
-0.99884, 117, 49, 132, 176
-0.998842, 425, 1, 440, 128
-0.998842, 125, 225, 140, 352
-0.998843, 47, 177, 62, 304
-0.998846, 19, 193, 34, 320
-0.998846, 101, 129, 116, 256
-0.998846, 315, 17, 330, 144
-0.998847, 87, 161, 102, 288
-0.998851, 143, 65, 158, 192
-0.998853, 141, 145, 156, 272
-0.998854, 375, 193, 390, 320
-0.998859, 73, 65, 88, 192
-0.998862, 129, 145, 144, 272
-0.998863, 181, 113, 196, 240
-0.998863, 235, 1, 250, 128
-0.99887, 253, 1, 268, 128
-0.998877, 251, 225, 266, 352
-0.998878, 97, 33, 112, 160
-0.998883, 165, 241, 180, 368
-0.998884, 37, 65, 52, 192
-0.998884, 333, 177, 348, 304
-0.998886, 297, 225, 312, 352
-0.998886, 51, 225, 66, 352
-0.998889, 435, 1, 450, 128
-0.998889, 7, 177, 22, 304
-0.99889, 299, 177, 314, 304
-0.998896, 373, 49, 388, 176
-0.998897, 349, 97, 364, 224
-0.998905, 229, 241, 244, 368
-0.998905, 159, 225, 174, 352
-0.998906, 59, 113, 74, 240
-0.998913, 211, 113, 226, 240
-0.998913, 79, 145, 94, 272
-0.998924, 367, 193, 382, 320
-0.998925, 47, 81, 62, 208
-0.998928, 431, 209, 446, 336
-0.998933, 411, 241, 426, 368
-0.998935, 77, 225, 92, 352
-0.998936, 323, 81, 338, 208
-0.998938, 207, 161, 222, 288
-0.998943, 71, 177, 86, 304
-0.998943, 105, 1, 120, 128
-0.998944, 339, 1, 354, 128
-0.998944, 7, 225, 22, 352
-0.998945, 27, 113, 42, 240
-0.998947, 135, 145, 150, 272
-0.99895, 123, 145, 138, 272
-0.999099, 457, 129, 488, 375
-0.999309, 453, 1, 484, 256
-0.999736, 9, 193, 24, 208
-0.999737, 103, 73, 118, 88
-0.999737, 33, 209, 48, 224
-0.999737, 63, 271, 78, 286
-0.999737, 239, 287, 254, 302
-0.999738, 47, 315, 62, 330
-0.999738, 441, 345, 456, 360
-0.999738, 19, 125, 34, 140
-0.999738, 217, 193, 232, 208
-0.999738, 203, 225, 218, 240
-0.999739, 91, 319, 106, 334
-0.999739, 235, 275, 250, 290
-0.99974, 365, 49, 380, 64
-0.99974, 289, 57, 304, 72
-0.99974, 71, 101, 86, 116
-0.99974, 167, 147, 182, 162
-0.99974, 55, 329, 70, 344
-0.999741, 113, 67, 128, 82
-0.999741, 427, 109, 442, 124
-0.999741, 237, 161, 252, 176
-0.999741, 9, 131, 24, 146
-0.999742, 63, 139, 78, 154
-0.999742, 265, 259, 280, 274
-0.999742, 335, 185, 350, 200
-0.999743, 79, 97, 94, 112
-0.999743, 51, 5, 66, 20
-0.999744, 447, 351, 462, 366
-0.999745, 329, 361, 344, 375
-0.999746, 75, 89, 90, 104
-0.999746, 85, 325, 100, 340
-0.999747, 253, 91, 268, 106
-0.999747, 235, 235, 250, 250
-0.999747, 211, 127, 226, 142
-0.999747, 97, 91, 112, 106
-0.999748, 293, 247, 308, 262
-0.999749, 147, 161, 162, 176
-0.99975, 17, 177, 32, 192
-0.999751, 349, 193, 364, 208
-0.999751, 259, 89, 274, 104
-0.999752, 171, 51, 186, 66
-0.999752, 401, 215, 416, 230
-0.999752, 451, 281, 466, 296
-0.999753, 245, 233, 260, 248
-0.999753, 185, 11, 200, 26
-0.999753, 295, 229, 310, 244
-0.999754, 349, 127, 364, 142
-0.999755, 159, 115, 174, 130
-0.999756, 131, 161, 146, 176
-0.999756, 41, 99, 56, 114
-0.999756, 53, 107, 68, 122
-0.999756, 433, 275, 448, 290
-0.999756, 43, 329, 58, 344
-0.999756, 295, 73, 310, 88
-0.999757, 219, 203, 234, 218
-0.999757, 47, 167, 62, 182
-0.999758, 81, 59, 96, 74
-0.999758, 423, 323, 438, 338
-0.999759, 83, 67, 98, 82
-0.999759, 31, 153, 46, 168
-0.99976, 141, 1, 156, 16
-0.99976, 259, 239, 274, 254
-0.999761, 105, 107, 120, 122
-0.999761, 335, 105, 350, 120
-0.999762, 195, 213, 210, 228
-0.999763, 57, 59, 72, 74
-0.999763, 101, 45, 116, 60
-0.999763, 27, 1, 42, 16
-0.999764, 99, 219, 114, 234
-0.999764, 205, 127, 220, 142
-0.999764, 275, 225, 290, 240
-0.999764, 265, 85, 280, 100
-0.999765, 11, 289, 26, 304
-0.999765, 29, 7, 44, 22
-0.999767, 155, 245, 170, 260
-0.999767, 267, 239, 282, 254
-0.999767, 13, 349, 28, 364
-0.99977, 93, 53, 108, 68
-0.999772, 69, 279, 84, 294
-0.999772, 171, 93, 186, 108
-0.999773, 61, 167, 76, 182
-0.999773, 167, 123, 182, 138
-0.999773, 337, 211, 352, 226
-0.999773, 83, 49, 98, 64
-0.999774, 141, 145, 156, 160
-0.999774, 213, 67, 228, 82
-0.999774, 49, 101, 64, 116
-0.999774, 149, 303, 164, 318
-0.999775, 229, 209, 244, 224
-0.999775, 71, 263, 86, 278
-0.999775, 381, 279, 396, 294
-0.999777, 199, 219, 214, 234
-0.999777, 307, 225, 322, 240
-0.999778, 189, 361, 204, 375
-0.999778, 59, 173, 74, 188
-0.999778, 177, 47, 192, 62
-0.999778, 165, 153, 180, 168
-0.999778, 67, 111, 82, 126
-0.999779, 159, 93, 174, 108
-0.99978, 161, 131, 176, 146
-0.99978, 59, 335, 74, 350
-0.999781, 421, 305, 436, 320
-0.999783, 79, 249, 94, 264
-0.999784, 261, 245, 276, 260
-0.999785, 399, 207, 414, 222
-0.999786, 93, 63, 108, 78
-0.999787, 295, 55, 310, 70
-0.999788, 297, 163, 312, 178
-0.99979, 17, 19, 32, 34
-0.99979, 131, 217, 146, 232
-0.999793, 345, 135, 360, 150
-0.999794, 3, 197, 18, 212
-0.999794, 97, 107, 112, 122
-0.999794, 173, 127, 188, 142
-0.999797, 249, 239, 264, 254
-0.999798, 87, 59, 102, 74
-0.999798, 81, 257, 96, 272
-0.999798, 337, 265, 352, 280
-0.9998, 79, 243, 94, 258
-0.999802, 281, 69, 296, 84
-0.999804, 179, 353, 194, 368
-0.999805, 99, 113, 114, 128
-0.999806, 19, 295, 34, 310
-0.999811, 341, 199, 356, 214
-0.999816, 305, 99, 320, 114
-0.999817, 289, 63, 304, 78
-0.999825, 41, 311, 56, 326
-0.999829, 35, 317, 50, 332
-0.999831, 75, 255, 90, 270
-0.999836, 39, 1, 54, 16
-0.999873, 33, 1, 48, 16
