1950
-0.351727, 193, 1, 448, 375
-0.400804, 1, 97, 500, 352
-0.462731, 1, 1, 500, 375
-0.474052, 193, 65, 448, 320
-0.576805, 1, 1, 500, 256
-0.633229, 97, 1, 352, 375
-0.729044, 97, 1, 352, 256
-0.729442, 1, 1, 256, 375
-0.78352, 33, 129, 288, 375
-0.835944, 193, 1, 320, 375
-0.859374, 1, 33, 256, 288
-0.864765, 193, 33, 320, 288
-0.867946, 289, 1, 416, 375
-0.87937, 305, 97, 432, 352
-0.885182, 1, 113, 500, 240
-0.891024, 257, 65, 384, 320
-0.89663, 161, 65, 416, 192
-0.897533, 241, 1, 368, 375
-0.902296, 1, 225, 500, 352
-0.903353, 193, 129, 320, 375
-0.903967, 193, 113, 448, 240
-0.908285, 129, 1, 256, 375
-0.908832, 1, 161, 500, 288
-0.914829, 1, 49, 500, 176
-0.920327, 337, 1, 464, 375
-0.922771, 145, 65, 272, 320
-0.925731, 369, 33, 496, 288
-0.929034, 177, 33, 304, 160
-0.929121, 193, 177, 448, 304
-0.930548, 305, 1, 432, 256
-0.93122, 225, 33, 288, 160
-0.932683, 193, 17, 448, 144
-0.941291, 65, 1, 320, 128
-0.943351, 65, 49, 320, 176
-0.943609, 97, 65, 224, 320
-0.946838, 185, 49, 248, 176
-0.949041, 257, 65, 384, 192
-0.949498, 33, 97, 288, 224
-0.951245, 361, 145, 424, 272
-0.951865, 209, 81, 336, 208
-0.952094, 257, 241, 500, 368
-0.954411, 217, 33, 280, 96
-0.955863, 33, 161, 288, 288
-0.955914, 193, 129, 320, 256
-0.957015, 353, 129, 480, 375
-0.957821, 177, 89, 240, 152
-0.957856, 201, 113, 264, 240
-0.958698, 129, 65, 256, 192
-0.959279, 249, 33, 312, 160
-0.959661, 33, 209, 288, 336
-0.959683, 305, 97, 432, 224
-0.961009, 321, 193, 448, 320
-0.961315, 81, 1, 208, 375
-0.962198, 257, 65, 500, 192
-0.962217, 113, 193, 240, 320
-0.962775, 161, 241, 416, 368
-0.962881, 353, 241, 480, 368
-0.963072, 1, 1, 500, 128
-0.964347, 353, 65, 480, 192
-0.964511, 313, 81, 376, 208
-0.96465, 33, 1, 160, 375
-0.964882, 273, 81, 336, 208
-0.965407, 337, 97, 400, 224
-0.965712, 161, 97, 224, 224
-0.965969, 201, 241, 264, 368
-0.966277, 201, 1, 264, 128
-0.966367, 305, 145, 432, 272
-0.966876, 225, 17, 352, 144
-0.967084, 193, 241, 320, 368
-0.967128, 433, 1, 496, 128
-0.969131, 209, 121, 272, 184
-0.969345, 241, 57, 304, 120
-0.969411, 97, 113, 224, 240
-0.969679, 49, 1, 176, 256
-0.969777, 225, 1, 288, 256
-0.969973, 193, 49, 320, 112
-0.969986, 169, 177, 232, 304
-0.970183, 265, 65, 328, 128
-0.97053, 273, 17, 400, 144
-0.971484, 281, 17, 344, 144
-0.972071, 369, 81, 432, 208
-0.972188, 209, 57, 272, 120
-0.972241, 289, 81, 352, 144
-0.972245, 145, 113, 272, 240
-0.972327, 193, 177, 320, 304
-0.97238, 353, 153, 416, 216
-0.972509, 177, 65, 240, 128
-0.972643, 433, 1, 496, 64
-0.972699, 377, 209, 440, 336
-0.972948, 369, 105, 432, 168
-0.973051, 221, 33, 252, 160
-0.973119, 321, 97, 384, 160
-0.973665, 225, 81, 288, 208
-0.973694, 225, 89, 288, 152
-0.973793, 201, 145, 264, 208
-0.973919, 241, 89, 368, 152
-0.974773, 385, 145, 416, 272
-0.974822, 353, 129, 416, 375
-0.975243, 201, 193, 264, 256
-0.975404, 129, 97, 256, 160
-0.975649, 369, 161, 496, 288
-0.975786, 201, 1, 264, 256
-0.975976, 201, 97, 264, 160
-0.976135, 401, 145, 464, 272
-0.97614, 161, 121, 224, 184
-0.976181, 1, 65, 128, 320
-0.976374, 233, 1, 264, 128
-0.976386, 289, 57, 352, 120
-0.976579, 193, 73, 320, 136
-0.976814, 377, 233, 440, 296
-0.976843, 257, 33, 288, 160
-0.976942, 401, 241, 464, 368
-0.976979, 389, 161, 420, 224
-0.977246, 401, 193, 464, 256
-0.977593, 361, 185, 424, 248
-0.977647, 221, 57, 252, 120
-0.977668, 205, 241, 236, 368
-0.977707, 161, 169, 224, 232
-0.977816, 273, 65, 304, 128
-0.978291, 345, 49, 408, 176
-0.978317, 385, 257, 448, 320
-0.978492, 201, 257, 264, 320
-0.978493, 233, 25, 264, 88
-0.978551, 129, 17, 256, 144
-0.978635, 209, 129, 240, 256
-0.978738, 201, 65, 232, 128
-0.978771, 353, 73, 416, 136
-0.978909, 321, 17, 448, 144
-0.978938, 169, 233, 232, 296
-0.979035, 329, 65, 392, 320
-0.979102, 273, 49, 304, 176
-0.97921, 361, 209, 424, 272
-0.979241, 401, 73, 464, 136
-0.979522, 245, 17, 276, 144
-0.979524, 217, 1, 280, 375
-0.979538, 417, 313, 480, 375
-0.979592, 205, 265, 236, 328
-0.979618, 201, 97, 264, 352
-0.979621, 393, 169, 456, 232
-0.979809, 337, 121, 400, 184
-0.980049, 201, 193, 264, 320
-0.980186, 205, 89, 236, 152
-0.980212, 265, 89, 328, 152
-0.980321, 221, 105, 252, 168
-0.980449, 241, 33, 304, 96
-0.980669, 257, 41, 288, 104
-0.980681, 249, 33, 312, 288
-0.980885, 177, 1, 240, 128
-0.980903, 221, 97, 252, 224
-0.980928, 401, 41, 464, 104
-0.981219, 145, 81, 208, 144
-0.981219, 401, 281, 464, 344
-0.981263, 193, 313, 256, 375
-0.981426, 209, 81, 240, 208
-0.981488, 193, 137, 320, 200
-0.981591, 249, 81, 312, 208
-0.981603, 353, 297, 480, 360
-0.981654, 353, 113, 480, 240
-0.981728, 321, 73, 448, 136
-0.981912, 161, 281, 224, 344
-0.981924, 193, 281, 256, 344
-0.982085, 369, 129, 400, 256
-0.982195, 349, 105, 380, 168
-0.982323, 321, 233, 448, 296
-0.98234, 373, 65, 404, 192
-0.982487, 145, 73, 272, 136
-0.982497, 209, 137, 240, 200
-0.982508, 393, 81, 456, 208
-0.98252, 193, 25, 320, 88
-0.982691, 177, 113, 304, 176
-0.982781, 257, 65, 384, 128
-0.98282, 449, 1, 480, 128
-0.983222, 169, 225, 232, 352
-0.983301, 313, 33, 376, 160
-0.983337, 305, 161, 432, 224
-0.983402, 425, 193, 488, 320
-0.983406, 393, 17, 456, 144
-0.983426, 169, 209, 232, 272
-0.983487, 229, 1, 260, 64
-0.983501, 353, 97, 384, 224
-0.983571, 305, 65, 368, 320
-0.9838, 353, 97, 480, 160
-0.983801, 113, 225, 240, 288
-0.983816, 185, 41, 248, 104
-0.983937, 313, 73, 376, 136
-0.984007, 245, 25, 276, 88
-0.984009, 321, 73, 352, 136
-0.984061, 113, 185, 240, 248
-0.9841, 369, 89, 400, 152
-0.98416, 409, 225, 440, 352
-0.98418, 129, 241, 256, 368
-0.984192, 217, 9, 280, 72
-0.984254, 405, 225, 436, 288
-0.984272, 377, 145, 408, 208
-0.984281, 333, 81, 364, 208
-0.984407, 385, 97, 416, 224
-0.984409, 209, 193, 240, 256
-0.984551, 209, 233, 272, 296
-0.984682, 221, 33, 252, 96
-0.985012, 305, 137, 432, 200
-0.985078, 405, 177, 436, 304
-0.985083, 201, 169, 264, 232
-0.985117, 129, 49, 256, 112
-0.985291, 289, 97, 416, 160
-0.985291, 193, 241, 320, 304
-0.985383, 169, 97, 232, 352
-0.985437, 441, 297, 472, 360
-0.985468, 273, 65, 336, 320
-0.985485, 289, 81, 320, 208
-0.98555, 361, 33, 424, 288
-0.985583, 337, 265, 464, 328
-0.985591, 381, 73, 412, 136
-0.98569, 193, 1, 256, 64
-0.985698, 441, 1, 472, 64
-0.985831, 329, 313, 392, 375
-0.985884, 265, 17, 328, 80
-0.985886, 193, 193, 320, 256
-0.986239, 241, 1, 304, 375
-0.986249, 201, 233, 232, 296
-0.98627, 193, 265, 320, 328
-0.986311, 113, 153, 240, 216
-0.986475, 161, 1, 288, 64
-0.986543, 201, 33, 232, 160
-0.986661, 409, 1, 472, 64
-0.986671, 369, 1, 496, 128
-0.986679, 289, 89, 320, 152
-0.98681, 177, 161, 304, 224
-0.986931, 305, 81, 336, 208
-0.986994, 201, 193, 232, 320
-0.986996, 321, 209, 448, 272
-0.987068, 233, 89, 264, 152
-0.987285, 113, 129, 240, 192
-0.987294, 189, 97, 220, 224
-0.987318, 377, 65, 440, 128
-0.987422, 257, 41, 384, 104
-0.987445, 365, 137, 396, 200
-0.987473, 353, 169, 480, 232
-0.987495, 193, 217, 320, 280
-0.987522, 217, 1, 248, 64
-0.987522, 425, 249, 488, 312
-0.987715, 321, 65, 352, 192
-0.98772, 333, 89, 364, 152
-0.987724, 361, 313, 392, 375
-0.987724, 393, 193, 424, 320
-0.987744, 301, 89, 332, 152
-0.987873, 269, 1, 300, 128
-0.987919, 177, 305, 304, 368
-0.987929, 353, 1, 416, 375
-0.987968, 417, 225, 480, 288
-0.988143, 409, 185, 440, 248
-0.988149, 113, 281, 240, 344
-0.988379, 377, 113, 408, 176
-0.988428, 369, 193, 496, 256
-0.98851, 393, 209, 424, 272
-0.988558, 453, 1, 484, 64
-0.988621, 185, 121, 248, 184
-0.988624, 429, 281, 460, 344
-0.988626, 393, 65, 424, 128
-0.988757, 413, 249, 444, 312
-0.988779, 193, 89, 448, 152
-0.988935, 169, 145, 232, 208
-0.989064, 233, 81, 264, 208
-0.989094, 189, 169, 220, 232
-0.989119, 225, 37, 288, 68
-0.989167, 225, 1, 352, 64
-0.989272, 393, 145, 456, 208
-0.989316, 369, 73, 496, 136
-0.989381, 137, 113, 200, 176
-0.989422, 145, 25, 272, 88
-0.989506, 305, 185, 432, 248
-0.98952, 193, 121, 448, 184
-0.989528, 269, 41, 300, 104
-0.989591, 113, 305, 240, 368
-0.9896, 137, 65, 200, 192
-0.989616, 181, 73, 212, 136
-0.989633, 353, 121, 480, 184
-0.989743, 313, 1, 376, 375
-0.989817, 121, 81, 184, 144
-0.989886, 285, 65, 316, 128
-0.989926, 185, 105, 248, 136
-0.989948, 185, 289, 216, 352
-0.98996, 165, 89, 196, 152
-0.989985, 377, 1, 440, 375
-0.990025, 245, 1, 276, 64
-0.990075, 277, 89, 308, 152
-0.990083, 205, 289, 236, 352
-0.99016, 153, 305, 216, 368
-0.990166, 265, 1, 328, 375
-0.990224, 169, 1, 232, 256
-0.990246, 401, 65, 464, 320
-0.990293, 401, 81, 464, 112
-0.990296, 397, 65, 428, 192
-0.990305, 201, 313, 232, 375
-0.990385, 193, 1, 256, 375
-0.990428, 161, 65, 416, 128
-0.990451, 209, 161, 240, 224
-0.990506, 193, 145, 448, 208
-0.990545, 361, 109, 424, 140
-0.990582, 289, 93, 352, 124
-0.990597, 377, 129, 440, 375
-0.990627, 185, 89, 248, 120
-0.990634, 1, 105, 64, 168
-0.990643, 257, 85, 320, 116
-0.990647, 177, 77, 240, 108
-0.990648, 289, 1, 352, 375
-0.990713, 241, 61, 304, 92
-0.990731, 281, 77, 344, 108
-0.99076, 361, 129, 424, 192
-0.990826, 293, 17, 324, 144
-0.990827, 217, 249, 248, 312
-0.990878, 401, 193, 464, 320
-0.990899, 201, 33, 232, 96
-0.990902, 241, 1, 304, 64
-0.990915, 209, 81, 272, 112
-0.991029, 209, 133, 272, 164
-0.991058, 209, 69, 272, 100
-0.991061, 265, 41, 328, 104
-0.991117, 353, 161, 416, 192
-0.991195, 241, 73, 304, 104
-0.991197, 361, 49, 392, 176
-0.99122, 345, 93, 408, 124
-0.991224, 321, 325, 384, 356
-0.991236, 113, 249, 240, 312
-0.99126, 361, 185, 424, 216
-0.991273, 421, 241, 452, 368
-0.991274, 305, 49, 432, 112
-0.991344, 201, 209, 264, 240
-0.991359, 217, 93, 280, 124
-0.991391, 361, 197, 424, 228
-0.991418, 389, 185, 420, 248
-0.991457, 217, 53, 280, 84
-0.991463, 309, 65, 340, 128
-0.991484, 401, 193, 464, 224
-0.991489, 201, 229, 264, 260
-0.991507, 361, 173, 424, 204
-0.991523, 377, 245, 440, 276
-0.991566, 193, 105, 224, 168
-0.991569, 185, 117, 248, 148
-0.991581, 417, 1, 480, 32
-0.991592, 161, 49, 224, 176
-0.991619, 321, 101, 384, 132
-0.99167, 17, 33, 144, 160
-0.991679, 201, 149, 264, 180
-0.991709, 309, 33, 340, 160
-0.99174, 369, 233, 432, 264
-0.991748, 81, 17, 208, 144
-0.991796, 225, 113, 288, 144
-0.991831, 177, 241, 240, 272
-0.991833, 361, 217, 424, 248
-0.99184, 241, 49, 304, 80
-0.99186, 329, 81, 392, 112
-0.991871, 385, 49, 416, 176
-0.991871, 177, 65, 240, 96
-0.991886, 385, 265, 448, 296
-0.991895, 161, 101, 224, 132
-0.991896, 337, 141, 400, 172
-0.991907, 393, 177, 456, 208
-0.991911, 177, 49, 240, 80
-0.991914, 201, 273, 264, 304
-0.991924, 209, 241, 272, 272
-0.991935, 201, 165, 264, 196
-0.991958, 417, 257, 480, 288
-0.991966, 321, 117, 384, 148
-0.991971, 161, 181, 224, 212
-0.991987, 193, 329, 256, 360
-0.992007, 201, 197, 264, 228
-0.992029, 161, 297, 224, 328
-0.992038, 393, 205, 456, 236
-0.992049, 209, 253, 272, 284
-0.992073, 169, 193, 232, 224
-0.992083, 393, 89, 424, 152
-0.992107, 169, 217, 232, 248
-0.992138, 193, 285, 256, 316
-0.992141, 393, 281, 456, 312
-0.992169, 81, 81, 208, 144
-0.992189, 193, 301, 256, 332
-0.992205, 297, 65, 328, 128
-0.992205, 193, 317, 256, 348
-0.992212, 193, 193, 448, 256
-0.992218, 161, 41, 416, 104
-0.992221, 385, 97, 448, 128
-0.992221, 409, 301, 472, 332
-0.992228, 437, 81, 468, 144
-0.992237, 345, 329, 408, 360
-0.992242, 369, 77, 432, 108
-0.99225, 337, 345, 400, 375
-0.992273, 185, 345, 248, 375
-0.992273, 329, 129, 392, 160
-0.992288, 361, 121, 424, 152
-0.992298, 193, 201, 224, 264
-0.9923, 273, 49, 336, 80
-0.992308, 137, 117, 200, 148
-0.992312, 161, 1, 224, 375
-0.992341, 417, 321, 480, 352
-0.992343, 161, 169, 224, 200
-0.992351, 225, 25, 288, 56
-0.992361, 201, 177, 264, 208
-0.992376, 153, 341, 216, 372
-0.992387, 265, 33, 328, 64
-0.992402, 161, 129, 224, 160
-0.992403, 393, 69, 456, 100
-0.99244, 169, 229, 232, 260
-0.99244, 217, 1, 280, 32
-0.992443, 161, 281, 224, 312
-0.992455, 281, 65, 344, 96
-0.992458, 177, 253, 240, 284
-0.992464, 425, 341, 488, 372
-0.992494, 437, 1, 468, 128
-0.992499, 161, 89, 224, 120
-0.992537, 161, 309, 224, 340
-0.992541, 201, 29, 264, 60
-0.992544, 161, 157, 224, 188
-0.992557, 201, 41, 264, 72
-0.992561, 453, 313, 484, 375
-0.992562, 169, 141, 232, 172
-0.992579, 193, 169, 448, 232
-0.992586, 361, 113, 392, 176
-0.992604, 357, 325, 388, 356
-0.992606, 401, 217, 464, 248
-0.992622, 425, 269, 488, 300
-0.992634, 237, 29, 268, 60
-0.992635, 273, 81, 304, 112
-0.99264, 177, 257, 240, 320
-0.992656, 353, 317, 416, 348
-0.992665, 225, 113, 352, 176
-0.992682, 329, 49, 392, 112
-0.992683, 369, 133, 432, 164
-0.992699, 393, 165, 456, 196
-0.992728, 321, 313, 384, 344
-0.992761, 369, 1, 496, 64
-0.992762, 201, 69, 232, 100
-0.992778, 417, 245, 480, 276
-0.992781, 281, 1, 312, 128
-0.992796, 361, 337, 392, 368
-0.992811, 205, 273, 236, 304
-0.992812, 361, 149, 424, 180
-0.992815, 269, 61, 300, 92
-0.992819, 169, 205, 232, 236
-0.992828, 201, 85, 232, 116
-0.992833, 193, 9, 256, 40
-0.992835, 409, 233, 472, 264
-0.992847, 433, 57, 496, 120
-0.992859, 137, 89, 200, 120
-0.992865, 385, 1, 416, 128
-0.992887, 221, 85, 252, 116
-0.992887, 369, 109, 400, 140
-0.992888, 433, 81, 464, 112
-0.992888, 221, 61, 252, 92
-0.992889, 161, 113, 224, 144
-0.992907, 369, 145, 496, 208
-0.992909, 57, 177, 120, 208
-0.992932, 153, 329, 216, 360
-0.992934, 377, 345, 408, 375
-0.992939, 253, 37, 284, 68
-0.99295, 449, 9, 480, 40
-0.992954, 213, 105, 244, 136
-0.992958, 185, 129, 248, 160
-0.992968, 345, 321, 376, 352
-0.992975, 289, 93, 320, 124
-0.992983, 121, 101, 184, 132
-0.992988, 289, 77, 320, 108
-0.993004, 261, 49, 292, 80
-0.993004, 345, 105, 376, 136
-0.99301, 221, 125, 252, 156
-0.993011, 321, 89, 352, 120
-0.993012, 1, 97, 500, 160
-0.993012, 389, 169, 420, 200
-0.993013, 305, 81, 368, 112
-0.993043, 201, 57, 232, 88
-0.993058, 437, 5, 468, 36
-0.993059, 233, 105, 264, 136
-0.993063, 177, 269, 240, 300
-0.993064, 433, 281, 496, 312
-0.993068, 265, 97, 328, 128
-0.993074, 393, 153, 456, 184
-0.993078, 301, 93, 332, 124
-0.993084, 209, 213, 240, 244
-0.993092, 201, 249, 232, 280
-0.993095, 385, 345, 448, 375
-0.993096, 257, 21, 320, 52
-0.993108, 401, 233, 432, 264
-0.99311, 177, 37, 240, 68
-0.993114, 217, 73, 248, 104
-0.993121, 413, 265, 444, 296
-0.993124, 381, 157, 412, 188
-0.993127, 389, 213, 420, 244
-0.993128, 225, 45, 256, 76
-0.993131, 381, 97, 412, 128
-0.993132, 393, 181, 424, 212
-0.993134, 273, 313, 400, 375
-0.993162, 425, 85, 488, 116
-0.99317, 405, 209, 436, 240
-0.993171, 397, 97, 428, 128
-0.993176, 429, 49, 460, 112
-0.993179, 201, 97, 232, 128
-0.993188, 209, 201, 240, 232
-0.993191, 65, 65, 320, 128
-0.993192, 369, 145, 400, 176
-0.993193, 193, 57, 320, 88
-0.993194, 333, 97, 364, 128
-0.993201, 357, 125, 388, 156
-0.993205, 209, 149, 240, 180
-0.993206, 461, 1, 492, 32
-0.993219, 213, 137, 244, 168
-0.993221, 409, 249, 440, 280
-0.993221, 433, 69, 496, 100
-0.993229, 33, 97, 288, 160
-0.993232, 197, 333, 228, 364
-0.993233, 429, 289, 460, 320
-0.993233, 185, 297, 216, 328
-0.993241, 369, 241, 496, 304
-0.993245, 201, 285, 232, 316
-0.993246, 205, 309, 236, 340
-0.993248, 437, 305, 468, 336
-0.993256, 209, 165, 240, 196
-0.993262, 189, 177, 220, 304
-0.993272, 453, 337, 484, 368
-0.993273, 373, 121, 404, 152
-0.993281, 241, 97, 304, 128
-0.993285, 381, 77, 412, 108
-0.993287, 201, 321, 232, 352
-0.993288, 397, 73, 428, 104
-0.99329, 173, 105, 204, 136
-0.993294, 393, 41, 456, 72
-0.993298, 389, 193, 420, 224
-0.993299, 445, 89, 476, 120
-0.993306, 213, 261, 244, 292
-0.993308, 193, 181, 224, 212
-0.99331, 49, 129, 176, 375
-0.993312, 317, 77, 348, 108
-0.993315, 261, 89, 292, 120
-0.993325, 393, 1, 456, 32
-0.993325, 201, 45, 232, 76
-0.993329, 193, 229, 224, 260
-0.993331, 213, 225, 244, 256
-0.993332, 33, 185, 96, 216
-0.993332, 189, 77, 220, 108
-0.99334, 421, 277, 452, 308
-0.993348, 277, 93, 308, 124
-0.99335, 217, 81, 248, 144
-0.993351, 377, 65, 408, 96
-0.993358, 193, 345, 224, 375
-0.993359, 233, 93, 264, 124
-0.99336, 445, 317, 476, 348
-0.993362, 25, 97, 88, 128
-0.993363, 421, 41, 452, 72
-0.993369, 433, 293, 496, 324
-0.99337, 433, 13, 496, 44
-0.99337, 1, 97, 64, 128
-0.993373, 361, 65, 424, 96
-0.993376, 185, 93, 216, 124
-0.993389, 449, 73, 480, 104
-0.993391, 209, 189, 240, 220
-0.993395, 281, 45, 312, 76
-0.993397, 361, 97, 392, 128
-0.993398, 221, 129, 252, 192
-0.993402, 189, 157, 220, 188
-0.993403, 429, 193, 460, 320
-0.993405, 409, 181, 440, 212
-0.99341, 369, 65, 400, 128
-0.993412, 193, 193, 224, 224
-0.993412, 189, 169, 220, 200
-0.993413, 389, 225, 420, 256
-0.993424, 185, 285, 216, 316
-0.993425, 385, 109, 448, 140
-0.993425, 213, 45, 244, 76
-0.993429, 221, 249, 252, 280
-0.99343, 177, 345, 208, 375
-0.993433, 137, 73, 200, 104
-0.993435, 165, 117, 196, 148
-0.993435, 225, 33, 256, 64
-0.993436, 233, 121, 264, 152
-0.993437, 337, 1, 400, 128
-0.993442, 189, 217, 220, 248
-0.993444, 205, 297, 236, 328
-0.993446, 429, 261, 460, 292
-0.993446, 153, 109, 184, 140
-0.993449, 209, 177, 240, 208
-0.993454, 357, 137, 388, 168
-0.993457, 233, 1, 264, 32
-0.993459, 409, 193, 440, 224
-0.993465, 221, 1, 252, 32
-0.993466, 249, 237, 312, 268
-0.993466, 329, 69, 392, 100
-0.993467, 117, 217, 148, 248
-0.993467, 345, 333, 376, 364
-0.993468, 217, 237, 248, 268
-0.993469, 433, 197, 464, 228
-0.993479, 169, 93, 200, 124
-0.993481, 133, 201, 164, 232
-0.993491, 1, 161, 500, 224
-0.993497, 205, 237, 236, 268
-0.9935, 353, 193, 416, 320
-0.993513, 257, 77, 288, 108
-0.993516, 361, 313, 392, 344
-0.993519, 385, 109, 416, 140
-0.993524, 185, 113, 216, 144
-0.993529, 333, 9, 364, 40
-0.993533, 409, 165, 440, 196
-0.993534, 245, 81, 276, 112
-0.993535, 305, 81, 336, 112
-0.993554, 469, 333, 500, 364
-0.99356, 1, 129, 500, 192
-0.993566, 185, 317, 216, 348
-0.993571, 361, 345, 424, 375
-0.993574, 5, 133, 36, 164
-0.993581, 53, 189, 84, 220
-0.993584, 425, 237, 456, 268
-0.993589, 289, 57, 320, 88
-0.99359, 453, 293, 484, 324
-0.993598, 97, 229, 128, 260
-0.9936, 393, 85, 424, 116
-0.9936, 333, 85, 364, 116
-0.993608, 97, 161, 160, 224
-0.993679, 217, 209, 248, 336
-0.993704, 369, 217, 496, 280
-0.993759, 193, 217, 448, 280
-0.993775, 381, 49, 412, 112
-0.993807, 181, 33, 212, 160
-0.993827, 425, 25, 488, 88
-0.993867, 225, 105, 240, 168
-0.994011, 261, 81, 292, 144
-0.994017, 193, 77, 320, 108
-0.994057, 153, 97, 184, 160
-0.994129, 257, 49, 500, 112
-0.994147, 193, 45, 320, 76
-0.994198, 361, 41, 424, 104
-0.994277, 285, 65, 300, 128
-0.994312, 361, 297, 424, 360
-0.994335, 345, 33, 376, 160
-0.99438, 33, 201, 288, 264
-0.994442, 177, 97, 208, 160
-0.994491, 209, 89, 336, 120
-0.994536, 129, 89, 160, 152
-0.994553, 329, 17, 360, 144
-0.994573, 369, 33, 432, 160
-0.994573, 409, 129, 440, 256
-0.994574, 207, 273, 222, 336
-0.994637, 221, 225, 252, 288
-0.994645, 401, 1, 464, 375
-0.994696, 223, 49, 238, 112
-0.994707, 169, 65, 200, 192
-0.994708, 25, 89, 88, 152
-0.994714, 215, 241, 230, 304
-0.994743, 257, 93, 384, 124
-0.994748, 425, 289, 488, 352
-0.994755, 233, 121, 264, 184
-0.994806, 345, 97, 408, 160
-0.994847, 425, 257, 456, 320
-0.99488, 145, 105, 272, 136
-0.994882, 81, 65, 208, 192
-0.994925, 161, 241, 416, 304
-0.994928, 337, 145, 400, 272
-0.994947, 1, 185, 500, 248
-0.994977, 273, 49, 288, 112
-0.994978, 233, 1, 248, 64
-0.994979, 261, 81, 292, 208
-0.994984, 279, 57, 294, 120
-0.994999, 289, 41, 320, 104
-0.995034, 401, 161, 416, 224
-0.995045, 429, 1, 460, 64
-0.995094, 33, 153, 288, 216
-0.995115, 337, 65, 368, 128
-0.995132, 245, 65, 276, 192
-0.995143, 1, 233, 500, 296
-0.995268, 161, 313, 416, 375
-0.995268, 369, 49, 496, 112
-0.995282, 65, 33, 320, 96
-0.995289, 1, 209, 500, 272
-0.995297, 257, 17, 288, 80
-0.995314, 219, 97, 234, 160
-0.995323, 1, 257, 500, 320
-0.995382, 57, 177, 120, 240
-0.995471, 33, 129, 288, 192
-0.995511, 1, 65, 500, 128
-0.995528, 161, 265, 416, 328
-0.995545, 33, 177, 288, 240
-0.99557, 211, 145, 226, 208
-0.995577, 33, 225, 288, 288
-0.995617, 421, 241, 436, 304
-0.995642, 425, 225, 456, 288
-0.995652, 229, 33, 244, 96
-0.995674, 249, 25, 264, 88
-0.995685, 257, 281, 500, 344
-0.995774, 241, 25, 256, 88
-0.995776, 81, 57, 208, 120
-0.995787, 257, 241, 500, 304
-0.995794, 465, 1, 496, 64
-0.995851, 241, 1, 256, 64
-0.99586, 389, 153, 404, 216
-0.995864, 385, 113, 400, 176
-0.995886, 235, 25, 250, 88
-0.995892, 209, 33, 336, 64
-0.995935, 381, 145, 396, 208
-0.995936, 425, 81, 488, 144
-0.995939, 33, 257, 288, 320
-0.995956, 337, 93, 464, 124
-0.995964, 441, 241, 472, 368
-0.995976, 217, 129, 232, 192
-0.995977, 417, 65, 480, 192
-0.996042, 247, 1, 262, 64
-0.996059, 267, 41, 282, 104
-0.996074, 145, 117, 272, 148
-0.996086, 233, 113, 296, 176
-0.996089, 369, 345, 496, 375
-0.9961, 413, 233, 428, 296
-0.99611, 407, 193, 422, 256
-0.996121, 375, 137, 390, 200
-0.996139, 257, 161, 384, 288
-0.996149, 217, 265, 232, 328
-0.996164, 445, 1, 460, 64
-0.996167, 321, 81, 448, 112
-0.996185, 193, 145, 224, 208
-0.996194, 113, 193, 240, 224
-0.996194, 369, 205, 496, 236
-0.996198, 137, 57, 200, 120
-0.996201, 113, 209, 240, 240
-0.996218, 261, 33, 276, 96
-0.996218, 453, 1, 468, 64
-0.996226, 409, 161, 440, 224
-0.996227, 193, 141, 320, 172
-0.996228, 33, 281, 288, 344
-0.996246, 33, 169, 160, 232
-0.99626, 231, 105, 246, 168
-0.996265, 193, 241, 320, 272
-0.996332, 1, 281, 500, 344
-0.996337, 369, 121, 384, 184
-0.996337, 313, 289, 376, 352
-0.996392, 353, 317, 480, 348
-0.996404, 257, 73, 384, 104
-0.996416, 305, 161, 432, 192
-0.996423, 49, 217, 176, 280
-0.996428, 437, 193, 468, 256
-0.996433, 145, 89, 272, 120
-0.996448, 321, 241, 448, 272
-0.99645, 129, 129, 256, 160
-0.996467, 407, 225, 422, 288
-0.996477, 209, 233, 224, 296
-0.996499, 337, 81, 352, 144
-0.996511, 89, 185, 152, 248
-0.996511, 161, 33, 288, 64
-0.996598, 445, 73, 460, 136
-0.996607, 463, 1, 478, 64
-0.99661, 205, 305, 220, 368
-0.996616, 361, 105, 376, 168
-0.996636, 213, 193, 228, 256
-0.996639, 161, 289, 416, 352
-0.996642, 295, 89, 310, 152
-0.996675, 385, 73, 400, 136
-0.996678, 255, 25, 270, 88
-0.996687, 209, 117, 336, 148
-0.996692, 349, 97, 364, 160
-0.996693, 225, 97, 288, 352
-0.996696, 129, 49, 256, 80
-0.996701, 129, 77, 256, 108
-0.996704, 337, 253, 464, 284
-0.996709, 349, 313, 380, 375
-0.996714, 301, 89, 316, 152
-0.996714, 457, 313, 472, 375
-0.996721, 179, 89, 194, 152
-0.99673, 435, 281, 450, 344
-0.996732, 121, 1, 184, 375
-0.99674, 369, 333, 496, 364
-0.996742, 289, 149, 416, 180
-0.996751, 193, 225, 320, 256
-0.996757, 361, 321, 376, 352
-0.996769, 379, 113, 394, 176
-0.996793, 113, 221, 240, 252
-0.996808, 257, 61, 384, 92
-0.996809, 113, 181, 240, 212
-0.996813, 393, 81, 408, 144
-0.996819, 233, 1, 264, 256
-0.996832, 121, 193, 184, 256
-0.996844, 153, 257, 216, 320
-0.996845, 311, 89, 326, 152
-0.996853, 215, 65, 230, 128
-0.996858, 427, 257, 442, 320
-0.996862, 461, 289, 492, 352
-0.99688, 331, 81, 346, 144
-0.996898, 257, 105, 384, 136
-0.996905, 193, 273, 320, 304
-0.996912, 357, 73, 388, 136
-0.996921, 113, 153, 240, 184
-0.996927, 343, 97, 358, 160
-0.996929, 1, 305, 256, 368
-0.996932, 361, 313, 376, 375
-0.996949, 445, 297, 460, 360
-0.996952, 1, 81, 64, 208
-0.996959, 395, 161, 410, 224
-0.996994, 177, 337, 304, 368
-0.997, 305, 217, 432, 248
-0.997009, 321, 229, 448, 260
-0.997013, 199, 313, 214, 375
-0.997022, 177, 153, 304, 184
-0.997036, 221, 73, 236, 136
-0.997037, 173, 89, 188, 152
-0.997038, 181, 241, 212, 368
-0.997044, 237, 97, 252, 160
-0.997046, 203, 169, 218, 232
-0.997052, 231, 81, 246, 144
-0.997053, 253, 1, 284, 256
-0.997053, 273, 17, 304, 80
-0.997057, 113, 113, 176, 176
-0.997058, 353, 193, 480, 224
-0.99706, 451, 297, 466, 360
-0.997065, 209, 101, 336, 132
-0.997068, 129, 237, 256, 268
-0.997068, 413, 201, 428, 264
-0.997068, 353, 301, 480, 332
-0.997078, 193, 129, 320, 160
-0.997086, 113, 165, 240, 196
-0.997088, 221, 1, 252, 256
-0.997093, 407, 65, 422, 128
-0.997098, 193, 81, 208, 144
-0.997099, 249, 89, 280, 152
-0.997099, 257, 321, 384, 352
-0.997106, 355, 105, 370, 168
-0.997115, 113, 285, 240, 316
-0.997116, 381, 33, 412, 288
-0.997125, 201, 65, 216, 128
-0.997134, 337, 113, 464, 144
-0.997134, 337, 281, 464, 312
-0.997137, 177, 197, 304, 228
-0.997141, 129, 81, 160, 208
-0.997142, 193, 253, 320, 284
-0.997146, 273, 129, 400, 160
-0.997149, 177, 301, 304, 332
-0.997166, 213, 97, 244, 352
-0.997171, 177, 165, 304, 196
-0.997202, 65, 9, 320, 72
-0.997211, 321, 173, 448, 204
-0.997213, 405, 65, 436, 128
-0.997222, 177, 213, 304, 244
-0.997231, 325, 73, 340, 136
-0.997253, 433, 1, 496, 256
-0.997254, 245, 57, 276, 120
-0.997273, 295, 57, 310, 120
-0.997283, 177, 313, 304, 344
-0.997295, 177, 177, 304, 208
-0.997297, 305, 333, 432, 364
-0.997299, 197, 289, 212, 352
-0.997305, 1, 193, 128, 256
-0.997308, 185, 89, 200, 152
-0.997309, 319, 89, 334, 152
-0.99731, 257, 49, 384, 80
-0.997334, 209, 49, 224, 112
-0.997347, 1, 81, 128, 208
-0.99735, 129, 65, 256, 96
-0.997356, 227, 9, 242, 72
-0.99736, 129, 249, 256, 280
-0.997362, 177, 289, 304, 320
-0.997369, 377, 341, 392, 372
-0.997388, 337, 265, 464, 296
-0.997392, 97, 345, 224, 375
-0.997394, 177, 325, 304, 356
-0.997395, 257, 313, 500, 375
-0.997427, 113, 317, 240, 348
-0.99743, 205, 209, 220, 272
-0.997434, 113, 305, 240, 336
-0.997445, 97, 25, 224, 88
-0.997456, 401, 65, 416, 128
-0.99746, 439, 1, 454, 64
-0.997475, 33, 97, 160, 160
-0.997494, 207, 277, 222, 308
-0.997496, 461, 1, 492, 128
-0.997498, 289, 89, 304, 152
-0.997511, 1, 81, 64, 144
-0.997521, 269, 33, 300, 288
-0.997522, 383, 345, 398, 375
-0.997532, 283, 69, 298, 100
-0.997532, 223, 249, 238, 312
-0.997534, 389, 129, 420, 375
-0.997558, 273, 17, 400, 80
-0.997566, 113, 81, 176, 208
-0.997569, 447, 49, 462, 112
-0.997572, 305, 189, 432, 220
-0.997594, 275, 81, 290, 144
-0.997598, 223, 129, 238, 192
-0.99761, 367, 325, 382, 356
-0.997617, 449, 81, 480, 144
-0.997641, 209, 113, 240, 176
-0.997643, 451, 81, 466, 144
-0.997643, 257, 289, 384, 352
-0.997646, 121, 201, 152, 264
-0.997648, 169, 121, 200, 184
-0.997649, 355, 313, 370, 375
-0.997652, 425, 1, 488, 375
-0.997661, 353, 137, 480, 168
-0.997665, 1, 305, 500, 368
-0.997685, 401, 201, 416, 264
-0.997717, 271, 45, 286, 76
-0.997733, 343, 73, 358, 136
-0.997734, 257, 37, 384, 68
-0.997751, 445, 77, 460, 108
-0.997764, 371, 313, 386, 375
-0.997768, 401, 169, 416, 200
-0.997771, 225, 105, 240, 136
-0.997773, 369, 149, 496, 180
-0.997775, 305, 313, 368, 375
-0.997783, 303, 65, 318, 128
-0.997789, 391, 105, 406, 168
-0.9978, 379, 89, 394, 152
-0.997815, 353, 125, 480, 156
-0.997829, 195, 105, 210, 168
-0.997851, 257, 25, 500, 88
-0.997851, 221, 65, 236, 96
-0.997872, 49, 121, 176, 184
-0.997872, 373, 329, 388, 360
-0.997875, 273, 17, 288, 80
-0.997888, 267, 17, 282, 80
-0.997889, 369, 73, 496, 104
-0.997891, 361, 97, 392, 352
-0.997892, 97, 117, 224, 148
-0.997897, 305, 201, 432, 232
-0.997926, 189, 313, 220, 375
-0.997928, 437, 81, 468, 208
-0.99793, 241, 29, 256, 60
-0.997934, 449, 49, 480, 112
-0.997936, 201, 129, 232, 375
-0.997936, 369, 1, 496, 32
-0.997942, 355, 321, 370, 352
-0.997945, 209, 1, 240, 256
-0.997947, 229, 41, 244, 72
-0.997975, 185, 265, 216, 328
-0.997978, 407, 169, 422, 232
-0.997981, 231, 117, 246, 148
-0.997983, 213, 89, 228, 152
-0.997985, 437, 41, 452, 104
-0.997993, 277, 53, 292, 84
-0.99801, 445, 193, 476, 320
-0.998017, 219, 133, 234, 164
-0.998017, 273, 117, 400, 148
-0.998022, 229, 57, 244, 120
-0.998029, 391, 157, 406, 188
-0.998031, 289, 257, 416, 320
-0.998031, 215, 253, 230, 284
-0.998036, 309, 65, 324, 128
-0.99805, 279, 33, 294, 96
-0.998052, 415, 237, 430, 268
-0.998058, 449, 5, 464, 36
-0.998062, 333, 65, 364, 320
-0.998069, 113, 261, 240, 292
-0.99807, 1, 97, 64, 352
-0.998072, 305, 241, 432, 368
-0.998074, 217, 269, 232, 300
-0.998075, 173, 113, 204, 240
-0.998077, 243, 89, 258, 152
-0.998082, 265, 41, 280, 72
-0.998082, 383, 149, 398, 180
-0.998083, 257, 169, 384, 232
-0.998089, 253, 1, 268, 64
-0.998091, 257, 113, 384, 240
-0.998096, 439, 65, 454, 128
-0.998111, 281, 33, 312, 288
-0.99812, 185, 113, 200, 176
-0.998123, 363, 113, 378, 144
-0.998124, 97, 329, 224, 360
-0.998126, 293, 65, 324, 320
-0.998129, 235, 105, 250, 136
-0.998135, 399, 89, 414, 152
-0.998136, 241, 21, 368, 52
-0.99814, 293, 77, 308, 108
-0.998144, 357, 81, 372, 144
-0.998145, 237, 121, 252, 184
-0.998146, 337, 217, 400, 280
-0.998147, 225, 125, 240, 156
-0.99815, 395, 137, 410, 200
-0.998153, 321, 65, 352, 320
-0.998159, 193, 33, 224, 288
-0.998164, 305, 65, 336, 320
-0.998164, 211, 169, 226, 232
-0.998167, 451, 85, 466, 116
-0.998174, 385, 97, 400, 128
-0.998174, 97, 105, 224, 136
-0.998174, 113, 273, 240, 304
-0.99818, 295, 93, 310, 124
-0.998181, 349, 73, 364, 136
-0.998181, 409, 205, 424, 236
-0.998182, 463, 329, 478, 360
-0.998183, 143, 89, 158, 152
-0.998186, 377, 313, 392, 375
-0.998186, 285, 81, 300, 112
-0.99819, 199, 337, 214, 368
-0.998191, 433, 249, 448, 312
-0.998192, 449, 301, 464, 332
-0.998197, 403, 181, 418, 212
-0.998213, 259, 1, 274, 64
-0.998213, 269, 81, 284, 144
-0.998216, 301, 93, 316, 124
-0.998217, 211, 165, 226, 196
-0.998219, 359, 333, 374, 364
-0.998222, 377, 141, 392, 172
-0.998226, 179, 113, 194, 176
-0.998226, 235, 33, 250, 64
-0.998233, 459, 9, 474, 40
-0.99824, 369, 221, 496, 252
-0.998247, 213, 205, 228, 236
-0.99825, 383, 313, 398, 375
-0.998251, 315, 65, 330, 128
-0.998252, 219, 25, 234, 88
-0.998252, 331, 57, 346, 120
-0.998253, 247, 29, 262, 60
-0.998258, 357, 109, 372, 140
-0.998259, 201, 89, 216, 152
-0.998261, 253, 33, 268, 64
-0.998264, 13, 105, 44, 168
-0.998264, 337, 185, 400, 248
-0.998268, 383, 49, 398, 112
-0.998269, 465, 5, 480, 36
-0.998272, 407, 225, 422, 256
-0.998272, 403, 213, 418, 244
-0.998272, 213, 137, 228, 168
-0.998278, 149, 113, 164, 176
-0.998284, 389, 137, 420, 200
-0.998285, 337, 57, 352, 120
-0.998288, 441, 273, 456, 336
-0.99829, 205, 317, 220, 348
-0.99829, 439, 289, 454, 320
-0.998291, 273, 209, 400, 272
-0.998297, 225, 53, 240, 84
-0.998321, 129, 141, 256, 172
-0.998322, 369, 329, 400, 344
-0.998322, 193, 353, 224, 368
-0.998322, 185, 85, 216, 100
-0.998322, 189, 159, 220, 174
-0.998322, 189, 171, 220, 186
-0.998323, 469, 343, 500, 358
-0.998323, 97, 93, 224, 124
-0.998323, 209, 39, 240, 54
-0.998323, 105, 227, 136, 242
-0.998324, 409, 189, 440, 204
-0.998324, 177, 347, 208, 362
-0.998325, 353, 129, 384, 144
-0.998325, 201, 297, 232, 312
-0.998325, 257, 85, 288, 100
-0.998325, 405, 209, 436, 224
-0.998326, 209, 227, 240, 242
-0.998326, 397, 75, 428, 90
-0.998327, 389, 217, 420, 232
-0.998327, 213, 81, 228, 112
-0.998329, 221, 99, 252, 114
-0.99833, 453, 17, 484, 32
-0.99833, 425, 291, 456, 306
-0.99833, 221, 265, 252, 280
-0.998331, 225, 51, 256, 66
-0.998331, 209, 55, 240, 70
-0.998331, 425, 265, 440, 296
-0.998331, 173, 107, 204, 122
-0.998332, 393, 199, 424, 214
-0.998332, 201, 251, 232, 266
-0.998333, 413, 177, 428, 240
-0.998333, 213, 241, 244, 256
-0.998333, 375, 113, 390, 144
-0.998334, 161, 115, 192, 130
-0.998334, 389, 225, 420, 240
-0.998335, 193, 359, 224, 374
-0.998337, 373, 121, 404, 136
-0.998337, 377, 345, 408, 360
-0.998338, 185, 303, 216, 318
-0.998338, 259, 37, 274, 68
-0.998338, 205, 257, 236, 272
-0.998338, 205, 173, 236, 188
-0.998339, 209, 197, 240, 212
-0.998339, 193, 187, 224, 202
-0.99834, 433, 81, 464, 96
-0.99834, 221, 1, 252, 16
-0.998341, 429, 263, 460, 278
-0.998341, 177, 97, 208, 112
-0.998342, 209, 209, 240, 224
-0.998343, 225, 45, 256, 60
-0.998343, 357, 137, 388, 152
-0.998344, 317, 85, 348, 100
-0.998344, 433, 201, 464, 216
-0.998345, 409, 181, 440, 196
-0.998345, 421, 245, 436, 276
-0.998345, 201, 327, 232, 342
-0.998345, 397, 99, 428, 114
-0.998346, 257, 49, 288, 64
-0.998346, 205, 167, 236, 182
-0.998349, 345, 109, 376, 124
-0.998349, 349, 117, 380, 132
-0.99835, 381, 97, 412, 112
-0.99835, 393, 193, 424, 208
-0.998351, 209, 149, 240, 164
-0.998351, 465, 3, 496, 18
-0.998352, 403, 193, 418, 224
-0.998352, 377, 71, 408, 86
-0.998352, 201, 291, 232, 306
-0.998353, 257, 225, 384, 352
-0.998354, 289, 77, 320, 92
-0.998354, 385, 355, 416, 370
-0.998355, 195, 89, 210, 120
-0.998356, 321, 249, 384, 312
-0.998357, 401, 241, 432, 256
-0.998357, 373, 153, 404, 168
-0.998357, 229, 39, 260, 54
-0.998358, 361, 143, 392, 158
-0.998358, 205, 311, 236, 326
-0.998358, 361, 1, 392, 128
-0.998359, 443, 1, 458, 32
-0.99836, 405, 249, 436, 264
-0.99836, 197, 341, 228, 356
-0.998361, 213, 139, 244, 154
-0.998361, 409, 267, 440, 282
-0.998362, 201, 283, 232, 298
-0.998362, 337, 103, 368, 118
-0.998363, 249, 39, 280, 54
-0.998364, 229, 121, 260, 136
-0.998365, 393, 231, 424, 246
-0.998366, 217, 133, 248, 148
-0.998367, 221, 87, 252, 102
-0.998367, 305, 95, 336, 110
-0.998368, 213, 117, 244, 132
-0.99837, 405, 215, 436, 230
-0.99837, 169, 121, 200, 136
-0.998371, 305, 345, 432, 375
-0.998371, 191, 101, 206, 132
-0.998372, 229, 111, 260, 126
-0.998373, 385, 169, 416, 184
-0.998373, 329, 91, 360, 106
-0.998374, 289, 85, 320, 100
-0.998374, 209, 155, 240, 170
-0.998376, 261, 57, 292, 72
-0.998377, 441, 7, 472, 22
-0.998379, 289, 95, 320, 110
-0.998381, 409, 255, 440, 270
-0.998385, 351, 105, 366, 136
-0.998386, 221, 57, 252, 72
-0.998386, 389, 177, 420, 192
-0.99839, 217, 75, 248, 90
-0.998391, 285, 41, 300, 104
-0.998391, 273, 73, 304, 88
-0.998393, 393, 185, 424, 200
-0.998394, 209, 215, 240, 230
-0.998394, 369, 125, 384, 156
-0.998395, 377, 159, 408, 174
-0.998395, 357, 323, 388, 338
-0.998396, 205, 103, 236, 118
-0.998396, 335, 85, 350, 116
-0.998398, 367, 97, 382, 160
-0.998398, 265, 63, 296, 78
-0.9984, 17, 49, 144, 112
-0.998401, 273, 93, 304, 108
-0.998402, 201, 61, 232, 76
-0.998403, 205, 275, 236, 290
-0.998403, 365, 343, 396, 358
-0.998404, 221, 93, 252, 108
-0.998405, 453, 9, 484, 24
-0.998406, 217, 69, 248, 84
-0.998407, 211, 153, 226, 184
-0.998408, 357, 335, 388, 350
-0.998417, 431, 277, 446, 308
-0.998417, 433, 87, 464, 102
-0.998419, 177, 101, 192, 132
-0.998419, 369, 161, 496, 192
-0.99842, 273, 81, 304, 96
-0.998422, 311, 93, 326, 124
-0.998427, 201, 81, 232, 96
-0.99843, 325, 97, 356, 112
-0.998432, 377, 129, 408, 375
-0.998432, 207, 289, 222, 320
-0.998434, 201, 97, 232, 112
-0.998434, 207, 305, 222, 336
-0.998434, 381, 105, 412, 120
-0.998436, 449, 1, 480, 16
-0.998437, 221, 77, 236, 108
-0.998438, 241, 145, 368, 208
-0.998439, 455, 313, 470, 344
-0.99844, 391, 109, 406, 140
-0.99844, 225, 127, 256, 142
-0.998443, 365, 109, 396, 124
-0.998444, 225, 39, 288, 54
-0.998451, 345, 325, 376, 340
-0.998451, 201, 87, 232, 102
-0.998457, 341, 93, 356, 124
-0.998459, 373, 353, 404, 368
-0.998459, 221, 63, 252, 78
-0.99846, 217, 81, 248, 96
-0.998461, 197, 75, 228, 90
-0.998461, 369, 115, 400, 130
-0.998463, 447, 197, 462, 228
-0.998464, 317, 91, 348, 106
-0.998465, 433, 37, 448, 68
-0.998466, 349, 65, 380, 320
-0.998466, 217, 93, 232, 124
-0.998472, 117, 217, 132, 248
-0.998478, 325, 73, 340, 104
-0.998479, 221, 257, 236, 288
-0.998486, 183, 93, 198, 124
-0.99849, 353, 113, 416, 128
-0.998493, 205, 221, 220, 252
-0.998496, 201, 67, 232, 82
-0.998499, 389, 113, 420, 176
-0.998504, 177, 101, 240, 116
-0.998505, 225, 33, 288, 48
-0.998506, 439, 77, 454, 108
-0.99851, 273, 85, 288, 116
-0.998519, 289, 95, 352, 110
-0.99852, 241, 241, 368, 304
-0.998523, 357, 329, 388, 344
-0.998526, 225, 45, 288, 60
-0.998527, 257, 91, 320, 106
-0.998531, 129, 21, 256, 52
-0.998533, 369, 1, 400, 256
-0.998536, 381, 361, 412, 375
-0.998538, 177, 89, 240, 104
-0.998538, 213, 193, 228, 224
-0.998539, 417, 49, 448, 112
-0.998542, 185, 115, 248, 130
-0.998543, 353, 361, 416, 375
-0.998545, 177, 83, 240, 98
-0.998546, 223, 49, 238, 176
-0.998548, 205, 185, 220, 216
-0.998555, 281, 87, 344, 102
-0.998556, 141, 65, 172, 128
-0.998559, 177, 107, 240, 122
-0.998561, 217, 87, 280, 102
-0.998564, 401, 85, 464, 100
-0.998565, 281, 81, 344, 96
-0.998565, 237, 33, 268, 48
-0.998567, 325, 89, 340, 120
-0.998569, 209, 69, 224, 100
-0.998569, 289, 93, 304, 124
-0.998569, 353, 107, 416, 122
-0.998569, 399, 97, 414, 128
-0.998571, 273, 87, 304, 102
-0.998574, 233, 59, 296, 74
-0.998576, 199, 293, 214, 324
-0.998577, 177, 95, 240, 110
-0.99858, 209, 135, 272, 150
-0.998581, 317, 89, 332, 120
-0.998583, 329, 331, 392, 346
-0.998583, 161, 41, 224, 104
-0.998586, 211, 237, 226, 268
-0.998599, 201, 215, 264, 230
-0.998599, 337, 313, 368, 375
-0.9986, 177, 77, 240, 92
-0.998601, 321, 325, 384, 340
-0.998606, 237, 1, 252, 32
-0.998608, 353, 165, 416, 180
-0.998608, 241, 67, 304, 82
-0.998609, 217, 79, 280, 94
-0.998609, 361, 181, 424, 196
-0.998609, 249, 75, 312, 90
-0.99861, 217, 53, 280, 68
-0.99861, 209, 69, 272, 84
-0.99861, 361, 199, 424, 214
-0.998611, 383, 69, 398, 100
-0.998611, 383, 333, 398, 364
-0.998611, 211, 57, 226, 88
-0.998612, 249, 85, 312, 100
-0.998612, 467, 341, 482, 372
-0.998613, 401, 199, 464, 214
-0.998614, 425, 33, 456, 160
-0.998617, 161, 17, 416, 80
-0.998617, 201, 77, 216, 108
-0.998619, 201, 239, 264, 254
-0.99862, 177, 69, 240, 84
-0.99862, 425, 1, 488, 16
-0.998621, 225, 121, 288, 136
-0.998622, 201, 107, 264, 122
-0.998623, 401, 77, 464, 92
-0.998623, 281, 75, 344, 90
-0.998624, 361, 187, 424, 202
-0.998624, 389, 345, 404, 375
-0.998626, 177, 125, 240, 140
-0.998626, 377, 253, 440, 268
-0.998627, 217, 129, 280, 144
-0.998627, 177, 47, 240, 62
-0.998629, 361, 175, 424, 190
-0.998629, 329, 89, 392, 104
-0.99863, 393, 179, 456, 194
-0.998631, 217, 99, 280, 114
-0.998632, 345, 101, 408, 116
-0.998634, 173, 113, 188, 144
-0.998634, 153, 107, 216, 122
-0.998634, 225, 111, 288, 126
-0.998635, 393, 189, 456, 204
-0.998635, 217, 93, 280, 108
-0.998637, 201, 155, 264, 170
-0.998637, 361, 231, 424, 246
-0.998639, 343, 1, 358, 32
-0.99864, 145, 119, 208, 134
-0.998641, 201, 233, 264, 248
-0.998641, 211, 225, 226, 352
-0.998642, 337, 95, 400, 110
-0.998643, 161, 113, 224, 128
-0.998644, 353, 159, 416, 174
-0.998645, 209, 245, 272, 260
-0.998645, 177, 59, 240, 74
-0.998646, 361, 217, 424, 232
-0.998647, 329, 107, 392, 122
-0.998647, 371, 137, 386, 168
-0.998648, 201, 143, 264, 158
-0.99865, 361, 193, 424, 208
-0.99865, 305, 101, 368, 116
-0.99865, 209, 253, 272, 268
-0.998651, 201, 209, 264, 224
-0.998651, 401, 205, 464, 220
-0.998652, 265, 51, 328, 66
-0.998652, 209, 63, 272, 78
-0.998653, 393, 171, 456, 186
-0.998653, 201, 33, 264, 48
-0.998653, 201, 273, 264, 288
-0.998654, 201, 221, 264, 236
-0.998654, 361, 223, 424, 238
-0.998654, 377, 241, 440, 256
-0.998655, 417, 7, 480, 22
-0.998655, 361, 207, 424, 222
-0.998655, 321, 119, 384, 134
-0.998655, 193, 331, 256, 346
-0.998656, 361, 119, 424, 134
-0.998656, 369, 181, 496, 212
-0.998657, 201, 149, 264, 164
-0.998657, 385, 277, 448, 292
-0.998659, 201, 227, 264, 242
-0.99866, 201, 191, 264, 206
-0.99866, 193, 173, 256, 188
-0.998661, 385, 267, 448, 282
-0.998661, 201, 203, 264, 218
-0.998662, 177, 249, 240, 264
-0.998662, 169, 189, 232, 204
-0.998663, 193, 289, 256, 304
-0.998663, 193, 167, 256, 182
-0.998663, 337, 355, 400, 370
-0.998663, 185, 361, 248, 375
-0.998664, 409, 91, 472, 106
-0.998664, 193, 283, 256, 298
-0.998664, 337, 149, 400, 164
-0.998665, 185, 345, 248, 360
-0.998665, 353, 329, 416, 344
-0.998666, 385, 259, 448, 274
-0.998666, 209, 267, 272, 282
-0.998666, 401, 299, 464, 314
-0.998667, 209, 259, 272, 274
-0.998667, 127, 213, 142, 244
-0.998667, 193, 317, 256, 332
-0.998667, 169, 131, 232, 146
-0.998667, 217, 1, 280, 16
-0.998668, 377, 247, 440, 262
-0.998668, 409, 245, 472, 260
-0.998669, 369, 85, 432, 100
-0.998669, 329, 139, 392, 154
-0.998669, 161, 159, 224, 174
-0.998669, 185, 339, 248, 354
-0.998669, 185, 353, 248, 368
-0.99867, 305, 89, 368, 104
-0.99867, 201, 41, 264, 56
-0.99867, 201, 197, 264, 212
-0.99867, 161, 221, 224, 236
-0.998671, 193, 325, 256, 340
-0.998671, 393, 289, 456, 304
-0.998671, 273, 61, 336, 76
-0.998671, 161, 299, 224, 314
-0.998673, 193, 311, 256, 326
-0.998673, 417, 259, 480, 274
-0.998673, 161, 183, 224, 198
-0.998673, 369, 75, 432, 90
-0.998674, 169, 205, 232, 220
-0.998674, 279, 81, 294, 112
-0.998688, 179, 113, 194, 144
-0.998699, 413, 273, 444, 336
-0.998704, 199, 325, 214, 356
-0.998717, 401, 65, 432, 320
-0.998722, 391, 97, 406, 128
-0.998726, 231, 93, 246, 124
-0.998736, 349, 93, 364, 124
-0.998738, 215, 221, 230, 252
-0.998751, 31, 109, 46, 140
-0.998753, 203, 65, 218, 96
-0.998765, 229, 33, 244, 160
-0.998772, 397, 157, 412, 188
-0.998775, 445, 89, 460, 120
-0.998777, 305, 321, 432, 352
-0.99878, 277, 65, 292, 96
-0.998781, 331, 73, 346, 104
-0.998787, 385, 109, 400, 140
-0.998791, 201, 89, 216, 120
-0.9988, 397, 145, 412, 272
-0.998806, 127, 201, 142, 232
-0.998813, 107, 221, 122, 252
-0.998826, 413, 193, 428, 224
-0.998831, 211, 265, 226, 296
-0.998834, 411, 181, 426, 212
-0.998839, 185, 49, 216, 112
-0.998839, 457, 325, 472, 356
-0.998844, 229, 1, 244, 32
-0.998848, 223, 93, 238, 124
-0.998848, 321, 69, 448, 100
-0.998855, 369, 241, 496, 272
-0.998859, 273, 33, 288, 160
-0.998862, 235, 1, 250, 128
-0.998884, 213, 129, 228, 256
-0.998907, 113, 65, 176, 320
-0.998916, 189, 129, 220, 375
-0.998918, 233, 65, 264, 128
-0.998918, 283, 49, 298, 176
-0.998929, 407, 177, 422, 304
-0.998936, 321, 25, 448, 88
-0.998938, 97, 209, 160, 272
-0.99894, 137, 17, 200, 144
-0.998977, 217, 81, 232, 208
-0.998986, 225, 97, 256, 352
-0.999007, 413, 97, 444, 352
-0.999035, 267, 33, 282, 160
-0.999036, 257, 17, 272, 144
-0.999063, 457, 1, 472, 128
-0.999065, 223, 1, 238, 128
-0.999073, 251, 17, 266, 144
-0.999081, 429, 129, 460, 375
-0.999109, 405, 137, 436, 200
-0.999113, 29, 97, 60, 160
-0.999124, 33, 73, 160, 136
-0.999129, 245, 17, 260, 144
-0.99913, 113, 37, 240, 68
-0.999153, 379, 129, 394, 256
-0.999162, 33, 185, 160, 216
-0.999166, 1, 129, 128, 192
-0.999167, 387, 97, 402, 224
-0.999172, 217, 241, 232, 368
-0.999182, 381, 65, 396, 192
-0.999194, 419, 225, 434, 352
-0.999194, 361, 97, 376, 224
-0.999204, 177, 313, 208, 375
-0.999206, 393, 81, 408, 208
-0.999218, 209, 177, 224, 304
-0.999225, 391, 145, 406, 272
-0.999226, 343, 81, 358, 208
-0.999228, 257, 129, 320, 192
-0.999238, 193, 1, 320, 32
-0.99924, 369, 113, 384, 240
-0.99925, 17, 105, 144, 136
-0.999256, 451, 1, 466, 128
-0.999265, 303, 81, 318, 208
-0.999265, 317, 81, 332, 208
-0.999267, 49, 117, 176, 148
-0.99928, 413, 17, 444, 144
-0.999281, 205, 241, 220, 368
-0.999295, 223, 97, 238, 224
-0.999302, 333, 81, 348, 208
-0.999303, 293, 81, 308, 208
-0.999314, 355, 97, 370, 224
-0.999314, 1, 93, 128, 124
-0.99932, 309, 81, 324, 208
-0.999325, 327, 65, 342, 192
-0.999325, 397, 17, 428, 144
-0.999332, 203, 65, 218, 192
-0.999333, 105, 217, 136, 280
-0.999335, 257, 309, 384, 340
-0.999343, 217, 1, 232, 128
-0.999346, 373, 313, 404, 375
-0.999349, 153, 73, 184, 136
-0.999349, 233, 137, 296, 200
-0.999356, 385, 145, 400, 272
-0.999367, 413, 225, 428, 352
-0.999368, 349, 81, 364, 208
-0.999369, 375, 65, 390, 192
-0.999375, 191, 33, 206, 160
-0.99938, 425, 241, 440, 368
-0.999391, 387, 49, 402, 176
-0.999393, 237, 81, 252, 208
-0.999403, 403, 129, 418, 256
-0.999406, 211, 65, 226, 192
-0.999406, 157, 81, 188, 208
-0.999414, 279, 1, 294, 128
-0.999416, 369, 61, 496, 92
-0.999416, 273, 9, 400, 40
-0.999423, 229, 97, 244, 224
-0.999426, 203, 177, 218, 304
-0.999448, 305, 57, 432, 88
-0.999466, 309, 33, 324, 160
-0.999466, 217, 177, 232, 304
-0.999484, 413, 177, 428, 304
-0.999499, 305, 29, 432, 60
-0.999502, 195, 81, 210, 208
-0.999503, 57, 153, 120, 216
-0.999505, 353, 21, 480, 52
-0.999511, 113, 1, 240, 64
-0.99952, 81, 1, 144, 375
-0.999528, 295, 33, 310, 160
-0.999543, 343, 1, 358, 128
-0.999545, 401, 217, 416, 232
-0.999546, 213, 193, 228, 208
-0.999546, 211, 157, 226, 172
-0.999546, 365, 127, 380, 142
-0.999546, 377, 147, 392, 162
-0.999547, 215, 97, 230, 112
-0.999547, 221, 83, 236, 98
-0.999548, 229, 101, 244, 116
-0.999549, 107, 227, 122, 242
-0.999549, 215, 145, 230, 160
-0.999549, 403, 189, 418, 204
-0.999549, 207, 313, 222, 328
-0.99955, 177, 107, 192, 122
-0.99955, 293, 85, 308, 100
-0.999552, 459, 329, 474, 344
-0.999552, 381, 69, 396, 84
-0.999552, 207, 287, 222, 302
-0.999553, 377, 25, 392, 40
-0.999553, 285, 1, 300, 128
-0.999554, 455, 17, 470, 32
-0.999554, 195, 105, 210, 120
-0.999554, 369, 133, 384, 148
-0.999555, 221, 267, 236, 282
-0.999555, 321, 89, 336, 104
-0.999556, 217, 139, 232, 154
-0.999556, 189, 349, 204, 364
-0.999556, 269, 47, 284, 62
-0.999556, 417, 247, 432, 262
-0.999556, 219, 103, 234, 118
-0.999557, 117, 227, 132, 242
-0.999557, 433, 45, 448, 60
-0.999557, 405, 65, 420, 192
-0.999557, 213, 151, 228, 166
-0.999557, 303, 33, 318, 160
-0.999558, 227, 53, 242, 68
-0.999559, 211, 73, 226, 88
-0.999559, 337, 97, 352, 112
-0.999559, 211, 85, 226, 100
-0.999559, 447, 197, 462, 212
-0.99956, 203, 333, 218, 348
-0.99956, 137, 201, 152, 216
-0.99956, 221, 71, 236, 86
-0.999561, 403, 199, 418, 214
-0.999561, 315, 17, 330, 144
-0.999561, 399, 81, 414, 208
-0.999562, 431, 261, 446, 276
-0.999562, 379, 111, 394, 126
-0.999563, 479, 361, 494, 375
-0.999563, 445, 1, 460, 128
-0.999564, 229, 47, 244, 62
-0.999564, 185, 81, 200, 208
-0.999564, 433, 39, 448, 54
-0.999564, 385, 103, 400, 118
-0.999565, 205, 295, 220, 310
-0.999565, 381, 361, 396, 375
-0.999565, 211, 167, 226, 182
-0.999565, 207, 281, 222, 296
-0.999566, 429, 279, 444, 294
-0.999566, 177, 121, 192, 136
-0.999567, 445, 299, 460, 314
-0.999567, 117, 221, 132, 236
-0.999569, 311, 95, 326, 110
-0.999569, 289, 91, 304, 106
-0.999569, 393, 359, 408, 374
-0.99957, 443, 85, 458, 100
-0.99957, 225, 59, 240, 74
-0.99957, 463, 1, 478, 128
-0.99957, 375, 141, 390, 156
-0.999571, 391, 111, 406, 126
-0.999572, 409, 215, 424, 230
-0.999573, 423, 267, 438, 282
-0.999575, 227, 115, 242, 130
-0.999575, 391, 159, 406, 174
-0.999575, 265, 41, 280, 56
-0.999575, 217, 257, 232, 272
-0.999575, 65, 1, 192, 64
-0.999575, 345, 7, 360, 22
-0.999576, 301, 95, 316, 110
-0.999576, 401, 223, 416, 238
-0.999577, 383, 151, 398, 166
-0.999578, 183, 93, 198, 108
-0.999578, 415, 241, 430, 256
-0.999578, 273, 53, 288, 68
-0.999579, 223, 65, 238, 80
-0.99958, 391, 105, 406, 120
-0.99958, 275, 81, 290, 208
-0.999581, 343, 101, 358, 116
-0.999582, 355, 325, 370, 340
-0.999582, 407, 233, 422, 248
-0.999583, 237, 33, 252, 48
-0.999584, 211, 217, 226, 232
-0.999585, 197, 343, 212, 358
-0.999586, 239, 1, 254, 16
-0.999586, 463, 11, 478, 26
-0.999586, 273, 83, 288, 98
-0.999587, 403, 181, 418, 196
-0.999587, 221, 77, 236, 92
-0.999588, 283, 71, 298, 86
-0.999588, 355, 333, 370, 348
-0.999589, 367, 325, 382, 340
-0.99959, 421, 253, 436, 268
-0.99959, 389, 1, 404, 128
-0.999591, 335, 33, 350, 160
-0.999591, 443, 241, 458, 368
-0.999592, 295, 95, 310, 110
-0.999592, 233, 39, 248, 54
-0.999592, 353, 107, 368, 122
-0.999592, 173, 115, 188, 130
-0.999592, 469, 1, 484, 16
-0.999592, 437, 289, 452, 304
-0.999592, 401, 173, 416, 188
-0.999593, 459, 1, 474, 16
-0.999594, 251, 33, 266, 48
-0.999596, 431, 241, 446, 368
-0.999597, 225, 107, 240, 122
-0.999597, 179, 99, 194, 114
-0.999599, 447, 203, 462, 218
-0.999599, 321, 33, 336, 160
-0.999601, 231, 125, 246, 140
-0.999601, 221, 131, 236, 146
-0.999606, 277, 61, 292, 76
-0.999609, 259, 37, 274, 52
-0.999609, 327, 89, 342, 104
-0.99961, 335, 91, 350, 106
-0.999613, 357, 49, 372, 176
-0.999614, 449, 7, 464, 22
-0.999614, 449, 91, 464, 106
-0.999615, 257, 1, 500, 64
-0.999615, 397, 165, 412, 180
-0.999615, 427, 193, 442, 320
-0.999616, 359, 111, 374, 126
-0.999616, 373, 337, 388, 352
-0.999616, 401, 209, 416, 336
-0.999617, 243, 65, 258, 192
-0.999617, 285, 79, 300, 94
-0.999617, 17, 217, 144, 248
-0.999624, 233, 107, 248, 122
-0.999624, 419, 177, 434, 304
-0.999626, 377, 343, 392, 358
-0.999628, 367, 65, 382, 192
-0.999636, 33, 201, 160, 232
-0.999636, 285, 85, 300, 100
-0.999638, 249, 65, 264, 192
-0.999639, 349, 33, 364, 160
-0.99964, 407, 225, 422, 352
-0.99964, 377, 353, 392, 368
-0.999641, 449, 85, 464, 100
-0.999642, 437, 225, 452, 352
-0.999642, 329, 17, 344, 144
-0.999643, 215, 271, 230, 286
-0.999646, 385, 109, 400, 124
-0.999649, 373, 17, 404, 144
-0.99965, 209, 275, 224, 290
-0.999652, 353, 45, 480, 76
-0.999656, 405, 89, 436, 152
-0.99966, 361, 331, 376, 346
-0.999667, 453, 241, 468, 368
-0.999668, 445, 79, 460, 94
-0.999673, 197, 33, 212, 160
-0.999682, 243, 31, 258, 46
-0.999682, 225, 225, 240, 352
-0.999684, 269, 81, 284, 208
-0.999687, 211, 17, 226, 144
-0.999688, 447, 65, 462, 192
-0.99969, 65, 41, 192, 72
-0.999692, 383, 347, 398, 362
-0.999702, 257, 333, 384, 364
-0.999708, 179, 81, 194, 208
-0.999717, 201, 129, 216, 256
-0.999722, 469, 1, 484, 128
-0.999722, 459, 241, 474, 368
-0.999723, 397, 17, 412, 144
-0.999723, 207, 129, 222, 256
-0.999725, 387, 355, 402, 370
-0.999727, 241, 241, 368, 272
-0.999731, 125, 129, 140, 256
-0.999735, 33, 65, 96, 128
-0.999737, 367, 331, 382, 346
-0.999737, 177, 21, 304, 52
-0.999745, 181, 33, 196, 160
-0.999748, 449, 193, 464, 320
-0.999748, 195, 241, 210, 368
-0.999749, 255, 65, 270, 192
-0.999751, 33, 165, 160, 196
-0.999761, 49, 25, 176, 88
-0.999763, 411, 129, 426, 256
-0.999768, 385, 17, 448, 80
-0.999772, 407, 17, 422, 144
-0.999777, 33, 65, 96, 192
-0.999781, 129, 81, 144, 208
-0.999785, 273, 177, 400, 208
-0.999786, 203, 1, 218, 128
-0.999789, 433, 17, 448, 144
-0.999793, 261, 65, 276, 192
-0.999795, 349, 1, 380, 64
-0.9998, 321, 1, 448, 32
-0.999801, 469, 313, 500, 375
-0.999807, 133, 113, 164, 176
-0.999812, 65, 217, 192, 248
-0.999813, 33, 81, 48, 208
-0.999813, 411, 65, 426, 192
-0.999818, 241, 253, 368, 284
-0.999822, 453, 65, 468, 192
-0.999824, 289, 261, 416, 292
-0.999827, 49, 53, 176, 84
-0.999832, 173, 81, 188, 208
-0.99984, 361, 325, 376, 340
-0.999843, 241, 161, 368, 192
-0.999854, 245, 113, 260, 240
-0.99986, 341, 241, 356, 368
-0.999862, 65, 129, 192, 160
-0.999867, 443, 193, 458, 320
-0.999867, 439, 1, 454, 128
-0.999869, 19, 81, 34, 208
-0.999878, 139, 65, 154, 192
-0.999881, 427, 17, 442, 144
-0.999892, 329, 145, 392, 208
-0.999898, 379, 17, 394, 144
-0.999898, 11, 81, 26, 208
-0.9999, 147, 49, 162, 176
-0.999901, 475, 1, 490, 128
-0.999901, 373, 17, 388, 144
-0.999901, 225, 177, 240, 304
-0.999908, 33, 229, 160, 260
-0.999908, 135, 129, 150, 256
-0.999913, 267, 129, 282, 256
-0.999916, 441, 49, 456, 176
-0.999919, 1, 117, 128, 148
-0.999922, 151, 113, 166, 240
-0.999929, 119, 113, 134, 240
-0.99994, 417, 49, 432, 176
-0.999945, 167, 97, 182, 224
-0.999953, 181, 1, 212, 256
-0.999967, 353, 33, 480, 64
-0.999979, 449, 1, 480, 256
-0.999987, 65, 153, 192, 184
-0.999992, 1, 81, 128, 112
-0.999997, 49, 93, 176, 124
-1.00002, 441, 25, 472, 88
-1.00005, 305, 309, 432, 340
-1.00005, 305, 289, 432, 352
-1.00005, 441, 129, 472, 375
-1.00005, 49, 193, 176, 256
-1.00007, 81, 81, 208, 112
-1.00008, 1, 41, 500, 104
-1.00009, 297, 161, 360, 224
-1.00009, 297, 145, 360, 272
-1.00011, 141, 33, 172, 160
-1.00012, 449, 193, 480, 256
-1.00015, 117, 177, 148, 240
-1.00017, 437, 1, 468, 256
-1.00018, 433, 129, 496, 375
-1.00018, 225, 313, 352, 375
-1.00019, 437, 249, 468, 312
-1.00029, 145, 1, 208, 256
-1.00029, 17, 145, 144, 272
-1.00031, 333, 1, 364, 64
-1.00035, 237, 97, 268, 352
-1.00036, 297, 257, 360, 320
-1.00037, 453, 49, 484, 176
-1.00039, 337, 241, 368, 368
-1.00042, 113, 129, 144, 256
-1.00042, 133, 201, 164, 264
-1.00042, 225, 193, 288, 320
-1.00043, 453, 129, 484, 375
-1.00043, 169, 17, 232, 80
-1.00043, 33, 185, 96, 248
-1.00048, 253, 97, 284, 352
-1.00049, 65, 145, 192, 208
-1.0005, 121, 137, 184, 200
-1.0005, 241, 209, 304, 272
-1.0005, 449, 265, 480, 328
-1.00052, 129, 65, 160, 320
-1.00054, 329, 257, 360, 320
-1.00054, 417, 1, 448, 256
-1.00057, 33, 1, 96, 375
-1.00058, 361, 33, 392, 96
-1.00059, 277, 97, 308, 224
-1.00059, 97, 89, 160, 152
-1.0006, 393, 41, 424, 104
-1.00066, 329, 1, 392, 64
-1.00067, 417, 177, 448, 304
-1.00068, 369, 25, 496, 88
-1.00068, 1, 137, 64, 200
-1.00074, 257, 129, 288, 192
-1.00078, 1, 17, 128, 80
-1.00079, 385, 313, 448, 375
-1.00082, 17, 97, 48, 352
-1.00085, 109, 65, 140, 320
-1.00088, 33, 1, 64, 256
-1.0009, 9, 1, 40, 256
-1.0009, 165, 65, 196, 320
-1.00091, 1, 1, 64, 375
-1.00092, 141, 33, 172, 288
-1.00094, 273, 241, 336, 304
-1.00095, 245, 113, 276, 176
-1.00097, 469, 1, 500, 256
-1.00097, 453, 241, 484, 368
-1.00098, 265, 129, 296, 375
-1.00098, 377, 193, 408, 256
-1.00099, 81, 33, 112, 288
-1.00102, 393, 233, 424, 296
-1.00102, 97, 1, 128, 256
-1.00102, 193, 241, 224, 368
-1.00104, 389, 313, 420, 375
-1.00106, 325, 49, 356, 112
-1.00106, 29, 97, 60, 352
-1.00107, 25, 113, 88, 176
-1.00108, 305, 41, 336, 104
-1.0011, 153, 1, 184, 256
-1.00113, 5, 81, 36, 208
-1.00113, 337, 289, 400, 352
-1.00118, 5, 129, 36, 375
-1.00122, 21, 1, 52, 256
-1.00129, 153, 97, 184, 352
-1.0013, 381, 193, 412, 320
-1.00131, 397, 129, 428, 256
-1.00133, 97, 97, 128, 352
-1.00134, 65, 33, 96, 288
-1.00134, 81, 129, 112, 375
-1.00136, 53, 1, 84, 256
-1.00145, 433, 193, 496, 256
-1.00147, 17, 161, 80, 224
-1.00149, 73, 1, 136, 256
-1.00151, 145, 145, 208, 208
-1.00152, 465, 129, 496, 375
-1.00153, 281, 129, 312, 375
-1.00157, 177, 97, 208, 352
-1.00158, 1, 1, 500, 64
-1.00159, 137, 113, 200, 240
-1.00159, 57, 129, 88, 375
-1.00161, 141, 129, 172, 375
-1.00162, 41, 97, 72, 352
-1.00163, 289, 217, 352, 280
-1.00165, 69, 129, 100, 375
-1.00168, 257, 153, 320, 216
-1.00174, 121, 169, 184, 232
-1.00175, 57, 1, 120, 375
-1.00178, 17, 81, 48, 208
-1.00179, 81, 137, 144, 200
-1.00182, 73, 25, 136, 88
-1.00188, 1, 225, 128, 288
-1.0019, 321, 241, 384, 368
-1.00191, 365, 177, 396, 304
-1.00194, 261, 129, 292, 256
-1.00201, 297, 241, 360, 368
-1.00208, 245, 113, 276, 240
-1.00211, 289, 281, 352, 344
-1.00211, 1, 1, 64, 256
-1.00217, 1, 305, 128, 368
-1.00223, 289, 33, 352, 96
-1.00224, 249, 129, 312, 256
-1.00231, 1, 57, 64, 120
-1.00233, 321, 1, 448, 64
-1.00237, 157, 33, 188, 160
-1.00248, 1, 281, 128, 344
-1.0025, 33, 137, 96, 200
-1.00252, 313, 121, 376, 184
-1.00258, 33, 33, 96, 288
-1.00262, 65, 249, 192, 312
-1.00263, 141, 97, 172, 224
-1.00269, 29, 97, 60, 224
-1.00277, 57, 161, 88, 288
-1.00278, 249, 233, 312, 296
-1.00279, 241, 265, 368, 328
-1.0028, 321, 241, 352, 368
-1.00284, 329, 25, 392, 88
-1.00286, 465, 241, 496, 368
-1.00287, 225, 169, 288, 232
-1.00289, 25, 113, 88, 240
-1.0029, 297, 9, 360, 72
-1.00291, 49, 289, 176, 352
-1.00291, 49, 313, 176, 375
-1.00295, 1, 257, 128, 320
-1.003, 433, 241, 496, 368
-1.00302, 329, 193, 392, 320
-1.00302, 401, 97, 464, 160
-1.00306, 57, 49, 120, 112
-1.00308, 89, 65, 152, 192
-1.00314, 9, 129, 40, 256
-1.0032, 125, 161, 156, 288
-1.00321, 121, 33, 152, 160
-1.00326, 361, 241, 392, 368
-1.00327, 453, 145, 484, 272
-1.0033, 393, 121, 456, 184
-1.0034, 409, 81, 440, 208
-1.00345, 345, 249, 408, 312
-1.00349, 313, 225, 376, 288
-1.0036, 225, 129, 288, 256
-1.00364, 265, 177, 328, 304
-1.00369, 449, 97, 480, 224
-1.00379, 73, 1, 136, 64
-1.00383, 169, 17, 200, 144
-1.0039, 249, 161, 280, 288
-1.00392, 61, 113, 92, 240
-1.00397, 145, 241, 208, 368
-1.00398, 309, 241, 340, 368
-1.004, 353, 161, 384, 288
-1.00405, 229, 209, 260, 336
-1.00406, 81, 1, 112, 128
-1.00425, 49, 193, 176, 320
-1.00425, 341, 161, 372, 288
-1.00426, 317, 113, 348, 240
-1.00427, 221, 161, 252, 288
-1.00435, 233, 129, 264, 256
-1.00442, 249, 129, 312, 375
-1.00445, 69, 33, 100, 160
-1.00453, 117, 81, 148, 208
-1.00454, 1, 33, 64, 160
-1.00459, 281, 193, 312, 320
-1.00462, 301, 145, 332, 272
-1.00464, 433, 129, 464, 256
-1.00472, 353, 241, 416, 368
-1.0048, 45, 113, 76, 240
-1.00481, 17, 33, 48, 160
-1.00483, 261, 177, 292, 304
-1.00486, 325, 161, 356, 288
-1.0049, 41, 161, 104, 288
-1.00493, 153, 129, 184, 256
-1.00499, 113, 193, 144, 320
-1.00503, 57, 113, 120, 240
-1.00506, 137, 97, 200, 352
-1.00516, 105, 65, 136, 192
-1.00516, 45, 161, 76, 288
-1.00525, 349, 225, 380, 352
-1.00545, 77, 161, 108, 288
-1.00548, 141, 177, 172, 304
-1.00551, 45, 49, 76, 176
-1.00556, 81, 145, 144, 272
-1.00556, 121, 161, 184, 288
-1.00559, 29, 49, 60, 176
-1.00561, 33, 17, 96, 144
-1.00566, 73, 209, 104, 336
-1.00575, 381, 241, 412, 368
-1.00583, 89, 97, 152, 352
-1.00584, 113, 33, 176, 160
-1.00591, 101, 129, 132, 256
-1.00605, 277, 145, 308, 272
-1.00607, 81, 17, 144, 144
-1.00607, 249, 209, 280, 336
-1.00617, 261, 225, 292, 352
-1.00618, 1, 129, 64, 256
-1.00643, 81, 241, 208, 368
-1.00647, 25, 145, 56, 272
-1.00652, 101, 177, 132, 304
-1.00654, 81, 49, 112, 176
-1.00655, 313, 161, 344, 288
-1.00657, 93, 1, 124, 128
-1.00661, 289, 129, 320, 256
-1.00664, 1, 33, 32, 160
-1.00666, 57, 1, 88, 128
-1.00728, 257, 225, 320, 352
-1.00755, 41, 129, 104, 375
-1.00756, 297, 193, 360, 320
-1.00766, 57, 33, 120, 160
-1.00836, 65, 129, 128, 375
-1.00841, 81, 193, 144, 320
-1.00898, 1, 241, 128, 368
-1.00958, 433, 113, 496, 240
-1.00979, 1, 193, 128, 320
-1.01045, 273, 129, 336, 256
-1.0113, 113, 209, 176, 336
-1.01169, 9, 177, 72, 304
-1.01186, 57, 209, 120, 336
-1.01228, 233, 241, 296, 368
-1.01334, 1, 241, 64, 368
-1.01344, 33, 209, 96, 336
-1.01422, 145, 161, 208, 288
-1.01471, 89, 241, 152, 368
