1956
-0.460156, 1, 1, 500, 375
-0.498142, 97, 1, 352, 375
-0.534073, 1, 33, 500, 288
-0.535812, 1, 129, 500, 375
-0.551282, 1, 1, 256, 375
-0.597801, 65, 129, 320, 375
-0.625347, 225, 1, 480, 375
-0.70826, 161, 129, 416, 375
-0.773913, 257, 129, 500, 375
-0.780334, 97, 33, 352, 288
-0.834394, 1, 33, 256, 288
-0.844778, 81, 129, 208, 375
-0.86445, 225, 33, 480, 288
-0.872926, 161, 129, 288, 375
-0.874285, 161, 1, 288, 375
-0.885037, 49, 1, 176, 375
-0.888117, 97, 1, 224, 375
-0.889587, 257, 129, 384, 375
-0.894687, 1, 225, 500, 352
-0.897298, 161, 193, 416, 320
-0.898963, 273, 1, 400, 375
-0.901878, 225, 1, 352, 375
-0.904503, 65, 161, 320, 288
-0.904822, 65, 209, 320, 336
-0.905654, 1, 177, 500, 304
-0.90948, 161, 241, 416, 368
-0.91134, 1, 1, 128, 375
-0.914545, 81, 33, 208, 288
-0.919295, 17, 65, 144, 320
-0.920917, 177, 225, 304, 352
-0.920954, 161, 33, 288, 288
-0.921464, 177, 177, 304, 304
-0.924696, 97, 145, 224, 272
-0.925881, 353, 129, 480, 375
-0.927778, 225, 33, 352, 288
-0.928054, 321, 1, 448, 375
-0.928899, 209, 129, 336, 375
-0.936642, 257, 225, 500, 352
-0.937068, 305, 65, 432, 320
-0.937827, 225, 177, 288, 304
-0.938881, 1, 129, 500, 256
-0.939175, 97, 241, 224, 368
-0.939998, 257, 193, 384, 320
-0.942362, 185, 161, 248, 288
-0.942455, 369, 1, 496, 375
-0.942646, 153, 225, 216, 352
-0.943243, 1, 65, 500, 192
-0.949101, 105, 145, 168, 272
-0.949498, 1, 17, 500, 144
-0.949514, 185, 177, 248, 240
-0.950033, 97, 193, 224, 320
-0.950337, 233, 225, 296, 352
-0.950455, 17, 177, 144, 304
-0.950573, 273, 177, 336, 304
-0.951748, 353, 33, 480, 288
-0.953393, 145, 145, 208, 272
-0.955399, 177, 209, 240, 336
-0.955672, 273, 241, 400, 368
-0.955822, 73, 161, 136, 288
-0.957341, 161, 145, 416, 272
-0.957399, 1, 113, 256, 240
-0.957585, 249, 177, 312, 304
-0.959974, 233, 225, 296, 288
-0.96027, 233, 185, 296, 248
-0.960491, 33, 241, 160, 368
-0.96107, 169, 225, 232, 288
-0.961084, 113, 305, 176, 368
-0.961405, 225, 145, 352, 272
-0.961506, 153, 281, 216, 344
-0.961563, 113, 241, 176, 368
-0.962929, 89, 241, 152, 368
-0.963568, 257, 177, 500, 304
-0.964805, 193, 201, 256, 264
-0.965067, 161, 129, 288, 256
-0.965481, 337, 225, 400, 352
-0.966753, 145, 161, 208, 224
-0.967413, 89, 169, 152, 232
-0.967464, 225, 241, 352, 368
-0.968605, 161, 225, 288, 288
-0.968632, 65, 193, 128, 256
-0.969132, 201, 209, 264, 336
-0.969348, 89, 313, 152, 375
-0.970352, 17, 113, 144, 240
-0.970357, 145, 241, 208, 304
-0.970528, 177, 249, 240, 312
-0.970539, 49, 145, 112, 272
-0.971006, 177, 185, 304, 248
-0.972288, 81, 161, 208, 224
-0.972726, 181, 209, 212, 336
-0.972842, 181, 233, 212, 296
-0.972984, 177, 281, 304, 344
-0.973026, 233, 273, 296, 336
-0.97316, 253, 177, 284, 304
-0.973224, 105, 265, 168, 328
-0.973224, 233, 177, 264, 304
-0.973298, 73, 225, 136, 288
-0.973522, 97, 233, 224, 296
-0.973681, 177, 249, 304, 312
-0.973772, 225, 193, 352, 256
-0.973836, 81, 249, 144, 312
-0.97408, 97, 273, 224, 336
-0.974562, 233, 249, 296, 312
-0.974683, 241, 313, 304, 375
-0.974705, 209, 225, 272, 288
-0.974865, 137, 305, 200, 368
-0.975051, 353, 241, 480, 368
-0.975165, 257, 193, 320, 256
-0.975329, 241, 185, 272, 248
-0.975567, 353, 177, 480, 304
-0.975658, 173, 145, 204, 272
-0.975736, 241, 129, 304, 256
-0.975925, 297, 193, 360, 320
-0.976014, 273, 241, 336, 368
-0.976035, 313, 209, 376, 272
-0.976065, 281, 313, 344, 375
-0.976096, 65, 313, 128, 375
-0.976202, 113, 313, 240, 375
-0.976458, 257, 129, 500, 256
-0.976592, 65, 209, 128, 336
-0.976656, 121, 161, 184, 224
-0.976794, 89, 289, 152, 352
-0.97708, 185, 113, 248, 240
-0.977111, 161, 97, 416, 224
-0.977311, 193, 273, 256, 336
-0.977325, 225, 129, 288, 375
-0.977367, 129, 193, 192, 320
-0.977418, 137, 129, 200, 375
-0.977453, 65, 169, 128, 232
-0.977698, 17, 193, 80, 320
-0.978091, 261, 233, 292, 296
-0.97827, 265, 177, 296, 304
-0.978365, 181, 281, 212, 344
-0.978389, 97, 209, 224, 272
-0.978448, 265, 225, 296, 352
-0.978454, 169, 201, 232, 264
-0.978509, 209, 177, 272, 240
-0.978958, 113, 129, 176, 375
-0.979206, 169, 225, 200, 352
-0.97943, 233, 209, 264, 272
-0.979515, 129, 281, 192, 344
-0.979522, 73, 113, 136, 240
-0.979606, 1, 33, 256, 160
-0.979687, 17, 201, 144, 264
-0.979874, 161, 313, 224, 375
-0.979884, 41, 225, 104, 352
-0.980031, 265, 257, 328, 320
-0.980034, 49, 305, 176, 368
-0.980056, 185, 297, 248, 360
-0.980182, 121, 313, 152, 375
-0.980219, 245, 225, 276, 288
-0.980403, 129, 169, 256, 232
-0.980441, 93, 201, 124, 264
-0.98048, 177, 305, 304, 368
-0.980499, 213, 169, 244, 232
-0.980565, 257, 217, 384, 280
-0.980638, 97, 169, 128, 232
-0.980681, 225, 33, 480, 160
-0.980682, 121, 241, 152, 368
-0.980711, 101, 161, 132, 288
-0.980868, 265, 129, 328, 375
-0.980868, 377, 209, 440, 336
-0.980943, 65, 289, 128, 352
-0.981085, 173, 161, 204, 224
-0.981268, 177, 153, 240, 216
-0.981376, 257, 289, 384, 352
-0.981456, 277, 177, 308, 304
-0.981568, 25, 145, 88, 272
-0.981705, 337, 265, 400, 328
-0.981745, 145, 209, 208, 272
-0.981776, 329, 313, 392, 375
-0.981868, 229, 185, 260, 248
-0.982094, 97, 33, 352, 160
-0.982134, 49, 241, 112, 304
-0.982235, 217, 153, 280, 216
-0.98229, 17, 177, 144, 240
-0.982315, 361, 225, 392, 352
-0.982392, 125, 289, 156, 352
-0.982523, 193, 177, 224, 240
-0.982767, 193, 177, 224, 304
-0.982795, 201, 249, 264, 312
-0.98282, 33, 265, 96, 328
-0.98293, 217, 129, 280, 256
-0.983223, 289, 193, 352, 256
-0.983241, 141, 305, 172, 368
-0.983263, 221, 177, 252, 304
-0.983505, 181, 209, 212, 272
-0.983513, 1, 257, 64, 320
-0.983687, 193, 129, 256, 375
-0.983712, 109, 209, 140, 336
-0.983743, 49, 281, 176, 344
-0.983747, 113, 145, 144, 272
-0.983794, 33, 185, 96, 248
-0.98387, 273, 249, 400, 312
-0.983901, 321, 177, 384, 304
-0.983902, 113, 225, 176, 288
-0.98404, 97, 97, 224, 224
-0.98409, 225, 313, 352, 375
-0.984116, 41, 297, 104, 360
-0.984283, 17, 225, 144, 288
-0.984423, 105, 225, 136, 288
-0.984428, 265, 129, 328, 256
-0.984429, 377, 281, 440, 344
-0.984497, 353, 297, 416, 360
-0.98454, 337, 241, 400, 304
-0.98458, 253, 225, 284, 352
-0.984608, 161, 241, 192, 304
-0.984706, 261, 273, 292, 336
-0.984724, 105, 97, 168, 224
-0.984749, 277, 249, 308, 312
-0.98485, 97, 193, 160, 320
-0.984941, 89, 201, 152, 264
-0.985016, 85, 169, 116, 232
-0.985037, 9, 241, 72, 368
-0.985283, 49, 257, 176, 320
-0.985575, 161, 145, 192, 272
-0.985673, 81, 193, 112, 256
-0.985702, 181, 257, 212, 320
-0.98589, 193, 257, 224, 320
-0.985905, 109, 249, 140, 312
-0.985945, 177, 161, 304, 224
-0.985972, 169, 265, 200, 328
-0.985995, 193, 225, 224, 352
-0.98601, 265, 185, 296, 248
-0.986094, 225, 169, 352, 232
-0.986174, 241, 225, 272, 352
-0.986235, 109, 169, 140, 232
-0.986253, 89, 193, 120, 320
-0.986279, 1, 313, 128, 375
-0.986283, 41, 217, 104, 280
-0.98629, 81, 185, 208, 248
-0.986314, 33, 153, 96, 216
-0.986317, 161, 129, 224, 375
-0.986359, 145, 185, 208, 248
-0.986416, 49, 65, 176, 192
-0.986509, 145, 97, 208, 224
-0.98652, 153, 289, 184, 352
-0.986525, 121, 265, 152, 328
-0.986566, 109, 313, 140, 375
-0.986754, 221, 233, 252, 296
-0.986897, 241, 1, 304, 375
-0.986904, 17, 217, 80, 280
-0.98694, 297, 129, 360, 256
-0.986972, 81, 145, 144, 208
-0.987014, 85, 145, 116, 272
-0.9873, 377, 241, 440, 304
-0.987343, 137, 281, 168, 344
-0.987431, 129, 145, 160, 272
-0.98746, 225, 249, 352, 312
-0.987502, 149, 145, 180, 272
-0.987535, 137, 33, 200, 288
-0.987594, 273, 313, 304, 375
-0.987609, 273, 313, 400, 375
-0.987853, 201, 281, 232, 344
-0.987865, 253, 185, 284, 248
-0.987979, 89, 129, 152, 375
-0.988086, 137, 241, 168, 368
-0.988105, 17, 137, 144, 200
-0.988121, 353, 281, 480, 344
-0.988153, 97, 305, 352, 368
-0.988162, 321, 313, 448, 375
-0.988274, 93, 313, 124, 375
-0.988359, 125, 161, 156, 224
-0.98836, 113, 33, 176, 288
-0.988361, 153, 161, 184, 224
-0.988407, 353, 201, 416, 264
-0.988422, 145, 1, 208, 375
-0.98845, 65, 225, 320, 288
-0.988457, 305, 193, 432, 320
-0.988496, 1, 169, 64, 232
-0.988531, 65, 169, 320, 232
-0.988567, 353, 257, 480, 320
-0.988578, 193, 201, 224, 264
-0.988658, 113, 33, 240, 160
-0.988735, 209, 225, 336, 288
-0.988805, 73, 145, 104, 272
-0.988853, 161, 201, 416, 264
-0.988891, 297, 177, 328, 304
-0.988898, 353, 225, 384, 288
-0.988898, 97, 273, 352, 336
-0.988916, 57, 225, 88, 352
-0.988938, 121, 1, 184, 375
-0.988952, 341, 217, 372, 280
-0.988985, 185, 33, 248, 288
-0.988995, 193, 1, 256, 375
-0.989, 113, 201, 176, 264
-0.989029, 161, 81, 288, 208
-0.989044, 73, 169, 104, 232
-0.989083, 1, 33, 128, 160
-0.989092, 305, 145, 432, 272
-0.989119, 53, 177, 84, 304
-0.989239, 17, 297, 80, 360
-0.98931, 49, 17, 176, 144
-0.989433, 281, 289, 344, 352
-0.989471, 265, 161, 328, 224
-0.989488, 297, 193, 328, 256
-0.98949, 361, 161, 424, 288
-0.989569, 353, 209, 480, 272
-0.989579, 97, 1, 160, 375
-0.989592, 217, 1, 280, 375
-0.989677, 233, 245, 296, 276
-0.989793, 185, 181, 248, 212
-0.989796, 245, 129, 276, 256
-0.98981, 353, 233, 480, 296
-0.98992, 41, 1, 104, 375
-0.989958, 209, 161, 240, 288
-0.989978, 113, 137, 176, 200
-0.989989, 97, 249, 352, 312
-0.989994, 65, 1, 128, 375
-0.990033, 193, 33, 320, 160
-0.9901, 333, 193, 364, 320
-0.990174, 1, 145, 64, 272
-0.990186, 105, 289, 136, 352
-0.99019, 169, 233, 232, 264
-0.990219, 169, 1, 232, 375
-0.990289, 193, 225, 224, 288
-0.990317, 365, 257, 396, 320
-0.990323, 217, 225, 280, 256
-0.99035, 161, 289, 224, 320
-0.990365, 41, 241, 72, 368
-0.99038, 233, 189, 296, 220
-0.99039, 177, 265, 240, 296
-0.990399, 265, 33, 328, 288
-0.990412, 1, 249, 128, 312
-0.990422, 65, 201, 320, 264
-0.990441, 49, 193, 112, 224
-0.990446, 225, 225, 256, 352
-0.990485, 49, 201, 80, 264
-0.990486, 161, 225, 416, 288
-0.990536, 217, 193, 248, 256
-0.990561, 157, 225, 188, 352
-0.990568, 73, 193, 104, 320
-0.990575, 153, 169, 216, 200
-0.990585, 113, 313, 176, 344
-0.990592, 101, 113, 132, 240
-0.990598, 73, 173, 136, 204
-0.990639, 185, 193, 248, 224
-0.99065, 169, 245, 232, 276
-0.990658, 193, 265, 448, 328
-0.990665, 317, 201, 348, 264
-0.990694, 121, 165, 184, 196
-0.990698, 313, 65, 376, 320
-0.990732, 233, 273, 296, 304
-0.990757, 281, 1, 344, 375
-0.990778, 241, 161, 304, 224
-0.990791, 137, 265, 200, 296
-0.990808, 53, 225, 84, 288
-0.99082, 137, 237, 200, 268
-0.9909, 153, 277, 216, 308
-0.990923, 177, 221, 240, 252
-0.990924, 257, 289, 320, 352
-0.990983, 25, 97, 88, 224
-0.990986, 281, 341, 344, 372
-0.991014, 349, 209, 380, 336
-0.991016, 281, 325, 344, 356
-0.991016, 89, 33, 152, 288
-0.991063, 89, 325, 152, 356
-0.991099, 193, 205, 256, 236
-0.991127, 73, 229, 136, 260
-0.99115, 233, 129, 264, 256
-0.991173, 65, 205, 128, 236
-0.991179, 193, 145, 224, 208
-0.991195, 97, 345, 160, 375
-0.991212, 289, 201, 352, 232
-0.991216, 129, 145, 256, 208
-0.991234, 113, 289, 176, 320
-0.991235, 273, 225, 336, 288
-0.991281, 89, 301, 152, 332
-0.991294, 153, 301, 216, 332
-0.991297, 49, 181, 112, 212
-0.991348, 73, 313, 136, 344
-0.991351, 233, 285, 296, 316
-0.991367, 241, 233, 304, 264
-0.991415, 329, 201, 360, 264
-0.991416, 193, 281, 256, 312
-0.99151, 241, 317, 304, 348
-0.991518, 277, 193, 308, 256
-0.991549, 81, 265, 144, 296
-0.991576, 277, 225, 308, 352
-0.991592, 73, 245, 136, 276
-0.991605, 369, 65, 496, 192
-0.991613, 289, 169, 352, 232
-0.991638, 1, 193, 64, 256
-0.991653, 65, 129, 128, 375
-0.991661, 129, 333, 192, 364
-0.991679, 193, 293, 256, 324
-0.991681, 1, 265, 256, 328
-0.99172, 241, 345, 304, 375
-0.991729, 209, 97, 336, 224
-0.991731, 209, 181, 272, 212
-0.991736, 233, 257, 296, 288
-0.991749, 233, 297, 296, 328
-0.991811, 153, 325, 216, 356
-0.991827, 37, 193, 68, 256
-0.991859, 241, 33, 304, 288
-0.991883, 97, 165, 160, 196
-0.991913, 65, 329, 128, 360
-0.991914, 265, 265, 328, 296
-0.991942, 209, 245, 272, 276
-0.991964, 241, 49, 368, 176
-0.991976, 309, 177, 340, 304
-0.991979, 193, 305, 256, 336
-0.991987, 245, 249, 276, 312
-0.991997, 25, 189, 88, 220
-0.992026, 61, 185, 92, 248
-0.992028, 193, 313, 224, 375
-0.992039, 57, 265, 120, 328
-0.99204, 137, 253, 200, 284
-0.992045, 257, 193, 320, 224
-0.992057, 249, 329, 312, 360
-0.992062, 193, 233, 256, 264
-0.992116, 141, 161, 172, 224
-0.992118, 337, 321, 400, 352
-0.992149, 177, 317, 240, 348
-0.992161, 105, 269, 168, 300
-0.992178, 385, 281, 416, 344
-0.992202, 129, 301, 192, 332
-0.992221, 41, 229, 104, 260
-0.992224, 185, 169, 248, 200
-0.992227, 225, 161, 256, 224
-0.992229, 153, 221, 216, 252
-0.992238, 201, 261, 264, 292
-0.992242, 265, 281, 328, 312
-0.992255, 33, 325, 96, 356
-0.992299, 25, 173, 88, 204
-0.992327, 73, 217, 136, 248
-0.992337, 137, 313, 200, 344
-0.99235, 113, 249, 176, 280
-0.992358, 1, 269, 64, 300
-0.992358, 233, 241, 264, 304
-0.992372, 377, 293, 440, 324
-0.992383, 25, 289, 88, 320
-0.992385, 321, 185, 448, 248
-0.992387, 273, 249, 336, 280
-0.992389, 281, 313, 344, 344
-0.992399, 313, 213, 376, 244
-0.992408, 145, 209, 208, 240
-0.992428, 265, 129, 296, 256
-0.992435, 25, 241, 88, 304
-0.992441, 161, 181, 224, 212
-0.992446, 177, 233, 208, 264
-0.992452, 73, 345, 136, 375
-0.992466, 69, 209, 100, 272
-0.992476, 313, 329, 376, 360
-0.992476, 377, 281, 440, 312
-0.992478, 185, 113, 216, 240
-0.992504, 273, 301, 336, 332
-0.992539, 161, 193, 224, 224
-0.992539, 233, 201, 296, 232
-0.992542, 49, 245, 112, 276
-0.992547, 321, 229, 384, 260
-0.992551, 129, 277, 192, 308
-0.992554, 25, 205, 88, 236
-0.992563, 57, 33, 120, 288
-0.992563, 365, 305, 396, 368
-0.99257, 113, 229, 176, 260
-0.992576, 329, 1, 392, 375
-0.992588, 25, 277, 88, 308
-0.992592, 321, 193, 352, 320
-0.992606, 289, 65, 352, 320
-0.992617, 165, 233, 196, 264
-0.992627, 49, 289, 112, 320
-0.992628, 361, 313, 424, 344
-0.99263, 369, 253, 432, 284
-0.99264, 129, 345, 192, 375
-0.992641, 337, 261, 400, 292
-0.99265, 161, 229, 288, 260
-0.992655, 1, 289, 256, 352
-0.992658, 217, 213, 280, 244
-0.992658, 105, 213, 168, 244
-0.992676, 253, 229, 284, 260
-0.99268, 329, 245, 392, 276
-0.99269, 77, 181, 108, 212
-0.992695, 153, 137, 216, 200
-0.992707, 233, 177, 296, 208
-0.992707, 73, 289, 136, 320
-0.992713, 97, 189, 160, 220
-0.992724, 265, 245, 296, 276
-0.992737, 337, 277, 400, 308
-0.992747, 305, 345, 368, 375
-0.99276, 185, 345, 248, 375
-0.992768, 241, 189, 272, 220
-0.992773, 49, 273, 112, 304
-0.992784, 205, 257, 236, 320
-0.992785, 33, 305, 96, 336
-0.992792, 377, 265, 440, 296
-0.992813, 165, 217, 196, 280
-0.992815, 237, 221, 268, 252
-0.992819, 145, 157, 208, 188
-0.992825, 361, 241, 424, 272
-0.992833, 1, 205, 64, 236
-0.992847, 17, 229, 80, 260
-0.99285, 57, 301, 120, 332
-0.992866, 181, 257, 212, 288
-0.992867, 173, 169, 204, 200
-0.99287, 125, 317, 156, 348
-0.992888, 65, 137, 192, 200
-0.992895, 121, 153, 184, 184
-0.992897, 205, 225, 236, 352
-0.992897, 81, 277, 144, 308
-0.992899, 181, 221, 212, 252
-0.992901, 209, 177, 240, 208
-0.992923, 33, 261, 96, 292
-0.992939, 265, 225, 328, 256
-0.992943, 257, 181, 320, 212
-0.992944, 25, 217, 88, 248
-0.992944, 1, 281, 64, 312
-0.992947, 117, 329, 148, 360
-0.992955, 65, 185, 96, 216
-0.992959, 273, 265, 304, 296
-0.992968, 185, 289, 216, 320
-0.992972, 109, 341, 140, 372
-0.992984, 225, 205, 256, 236
-0.992989, 9, 245, 72, 276
-0.992991, 181, 245, 212, 276
-0.992994, 197, 177, 228, 208
-0.993003, 189, 233, 220, 264
-0.993007, 181, 269, 212, 300
-0.993007, 97, 225, 128, 256
-0.993009, 225, 289, 480, 352
-0.993017, 89, 173, 120, 204
-0.993019, 193, 193, 224, 224
-0.993022, 209, 193, 272, 224
-0.993024, 73, 193, 136, 224
-0.993035, 1, 181, 64, 212
-0.993037, 85, 197, 116, 228
-0.99304, 153, 165, 184, 196
-0.993041, 221, 181, 252, 212
-0.993052, 257, 277, 288, 308
-0.993053, 9, 1, 72, 375
-0.993061, 293, 341, 324, 372
-0.993088, 201, 281, 232, 312
-0.993089, 173, 313, 204, 375
-0.993091, 97, 321, 128, 352
-0.993093, 361, 229, 424, 260
-0.993098, 345, 209, 408, 240
-0.993099, 129, 165, 160, 196
-0.993102, 169, 245, 200, 276
-0.993108, 237, 245, 268, 276
-0.993112, 177, 281, 304, 312
-0.993113, 93, 209, 124, 240
-0.993119, 117, 269, 148, 300
-0.993119, 241, 213, 304, 244
-0.993135, 305, 1, 368, 375
-0.993144, 105, 309, 136, 340
-0.993145, 169, 281, 200, 312
-0.993146, 329, 209, 360, 240
-0.993168, 185, 177, 216, 208
-0.993172, 141, 161, 172, 192
-0.993173, 273, 321, 304, 352
-0.993175, 105, 241, 136, 272
-0.993181, 169, 157, 232, 188
-0.993183, 137, 309, 168, 340
-0.993193, 17, 337, 80, 368
-0.993196, 169, 205, 232, 236
-0.993204, 193, 269, 224, 300
-0.993209, 161, 265, 192, 296
-0.99321, 125, 293, 156, 324
-0.993211, 345, 221, 376, 252
-0.993218, 257, 257, 288, 288
-0.993223, 265, 305, 296, 336
-0.993231, 281, 189, 344, 220
-0.993231, 49, 341, 112, 372
-0.993233, 261, 289, 292, 320
-0.993239, 289, 197, 320, 228
-0.993252, 101, 173, 132, 204
-0.993252, 181, 321, 212, 352
-0.993257, 145, 333, 176, 364
-0.993262, 69, 241, 100, 368
-0.993271, 225, 221, 256, 252
-0.993273, 53, 189, 84, 220
-0.993276, 161, 177, 416, 240
-0.993276, 237, 209, 268, 240
-0.993282, 117, 165, 148, 196
-0.993283, 305, 201, 336, 232
-0.993297, 193, 221, 224, 252
-0.993307, 317, 337, 348, 368
-0.993309, 329, 333, 360, 364
-0.993312, 129, 281, 160, 312
-0.993314, 213, 277, 244, 308
-0.993319, 113, 297, 144, 328
-0.993327, 317, 205, 348, 236
-0.993329, 129, 345, 160, 375
-0.993334, 201, 301, 232, 332
-0.993334, 93, 241, 124, 368
-0.993336, 221, 261, 252, 292
-0.993338, 193, 313, 224, 344
-0.993342, 225, 233, 256, 264
-0.993347, 277, 193, 308, 224
-0.993365, 109, 253, 140, 284
-0.993365, 149, 301, 180, 332
-0.993368, 145, 289, 176, 320
-0.99337, 381, 301, 412, 332
-0.993373, 169, 325, 200, 356
-0.993376, 289, 97, 416, 224
-0.993379, 365, 313, 396, 344
-0.993381, 305, 217, 432, 280
-0.993381, 193, 205, 224, 236
-0.993383, 221, 193, 252, 224
-0.993383, 273, 333, 304, 364
-0.993385, 1, 269, 32, 300
-0.993387, 49, 237, 80, 268
-0.993396, 89, 333, 120, 364
-0.9934, 193, 165, 224, 196
-0.993402, 253, 189, 284, 220
-0.993404, 209, 189, 240, 220
-0.993408, 85, 229, 116, 260
-0.993409, 353, 321, 384, 352
-0.99343, 257, 1, 384, 128
-0.99343, 353, 17, 480, 144
-0.99343, 281, 253, 312, 284
-0.993433, 349, 233, 380, 264
-0.993439, 221, 249, 252, 280
-0.993439, 69, 225, 100, 256
-0.993441, 341, 325, 372, 356
-0.993454, 69, 241, 100, 304
-0.993454, 369, 273, 400, 304
-0.993456, 173, 185, 204, 216
-0.993462, 169, 221, 200, 252
-0.993464, 265, 193, 296, 224
-0.993466, 265, 233, 296, 264
-0.993473, 69, 245, 100, 276
-0.993476, 357, 249, 388, 280
-0.993478, 241, 269, 272, 300
-0.993479, 105, 209, 136, 240
-0.993481, 385, 289, 416, 320
-0.993482, 365, 261, 396, 292
-0.993483, 29, 277, 60, 308
-0.993486, 201, 257, 232, 288
-0.993488, 245, 345, 276, 375
-0.99349, 105, 157, 136, 188
-0.99349, 173, 205, 204, 236
-0.993493, 165, 157, 196, 188
-0.993493, 125, 253, 156, 284
-0.993497, 49, 225, 80, 256
-0.993509, 129, 265, 160, 296
-0.993509, 157, 329, 188, 360
-0.993517, 385, 277, 416, 308
-0.993524, 49, 201, 80, 232
-0.993524, 277, 277, 308, 308
-0.993528, 49, 325, 80, 356
-0.993529, 281, 289, 312, 320
-0.993533, 49, 253, 80, 284
-0.993534, 181, 305, 212, 336
-0.993534, 109, 225, 140, 256
-0.993537, 233, 341, 264, 372
-0.993537, 49, 97, 112, 224
-0.99354, 233, 257, 264, 288
-0.99354, 133, 333, 164, 364
-0.993541, 85, 241, 116, 272
-0.993541, 77, 281, 108, 344
-0.993544, 113, 281, 144, 312
-0.993574, 37, 281, 68, 344
-0.993588, 185, 233, 200, 296
-0.993592, 273, 193, 400, 256
-0.993593, 217, 257, 248, 320
-0.993601, 361, 129, 424, 375
-0.993636, 241, 161, 272, 224
-0.993683, 1, 289, 128, 352
-0.993801, 1, 241, 500, 304
-0.993825, 53, 265, 84, 328
-0.993856, 373, 241, 404, 368
-0.99392, 1, 209, 500, 272
-0.993977, 257, 241, 500, 304
-0.993977, 209, 193, 336, 224
-0.993983, 233, 265, 264, 328
-0.99399, 161, 1, 224, 256
-0.994043, 97, 165, 224, 196
-0.99406, 105, 201, 136, 264
-0.99408, 1, 145, 64, 208
-0.994117, 57, 137, 120, 200
-0.994141, 257, 81, 500, 208
-0.994214, 81, 17, 144, 144
-0.994215, 177, 241, 304, 272
-0.994218, 289, 49, 416, 176
-0.994224, 181, 185, 212, 248
-0.994249, 57, 1, 120, 128
-0.994256, 97, 233, 224, 264
-0.994299, 93, 145, 124, 208
-0.994301, 85, 225, 116, 288
-0.994333, 177, 293, 304, 324
-0.994342, 117, 201, 148, 264
-0.994362, 179, 225, 194, 288
-0.99438, 69, 313, 100, 375
-0.994381, 1, 313, 500, 375
-0.994407, 161, 257, 288, 288
-0.994439, 113, 301, 240, 332
-0.994459, 161, 217, 288, 248
-0.994469, 33, 129, 96, 192
-0.99449, 1, 177, 500, 240
-0.994508, 277, 241, 292, 304
-0.994521, 337, 129, 400, 375
-0.994528, 385, 209, 416, 336
-0.99457, 177, 137, 304, 200
-0.994614, 1, 265, 32, 328
-0.994627, 337, 177, 400, 240
-0.994672, 247, 185, 262, 248
-0.994718, 273, 289, 304, 352
-0.994727, 321, 145, 352, 272
-0.994786, 33, 113, 160, 176
-0.994802, 225, 33, 288, 160
-0.994825, 193, 305, 320, 336
-0.994831, 113, 269, 240, 300
-0.994831, 353, 161, 384, 288
-0.994836, 177, 269, 304, 300
-0.9949, 1, 265, 500, 328
-0.994911, 105, 145, 136, 208
-0.994947, 113, 289, 240, 320
-0.994966, 257, 313, 500, 375
-0.99497, 113, 97, 144, 224
-0.995022, 97, 253, 224, 284
-0.995025, 271, 241, 286, 304
-0.995027, 1, 313, 256, 375
-0.995038, 261, 225, 276, 288
-0.995062, 257, 217, 500, 280
-0.995103, 237, 185, 252, 248
-0.995136, 221, 129, 252, 256
-0.995136, 49, 289, 80, 352
-0.99515, 293, 313, 324, 375
-0.995176, 1, 289, 500, 352
-0.995176, 241, 209, 256, 272
-0.995202, 313, 177, 376, 240
-0.995209, 109, 209, 124, 272
-0.995245, 133, 257, 164, 320
-0.995281, 99, 169, 114, 232
-0.995287, 193, 317, 320, 348
-0.995314, 125, 225, 156, 288
-0.995316, 265, 209, 296, 272
-0.99532, 165, 97, 196, 224
-0.99532, 353, 1, 416, 375
-0.995373, 113, 313, 240, 344
-0.995443, 205, 193, 236, 256
-0.99545, 177, 181, 304, 212
-0.99545, 25, 1, 88, 128
-0.995456, 195, 281, 210, 344
-0.995465, 305, 273, 432, 336
-0.99548, 33, 193, 64, 320
-0.995497, 193, 169, 208, 232
-0.9955, 97, 209, 224, 240
-0.995512, 173, 233, 188, 296
-0.995559, 25, 305, 56, 368
-0.995575, 195, 193, 210, 256
-0.995592, 257, 309, 384, 340
-0.995613, 97, 221, 224, 252
-0.995614, 121, 193, 152, 320
-0.995636, 133, 273, 148, 336
-0.995676, 187, 201, 202, 264
-0.99569, 1, 89, 128, 152
-0.995737, 41, 257, 72, 320
-0.995745, 247, 217, 262, 280
-0.995756, 257, 185, 272, 248
-0.995758, 49, 321, 176, 352
-0.995803, 123, 313, 138, 375
-0.995824, 257, 221, 384, 252
-0.995846, 113, 329, 240, 360
-0.995888, 377, 225, 408, 288
-0.995899, 33, 241, 160, 272
-0.995913, 273, 245, 400, 276
-0.995914, 341, 145, 372, 272
-0.995926, 255, 225, 270, 288
-0.995957, 17, 169, 48, 232
-0.995971, 289, 161, 416, 224
-0.995984, 1, 189, 128, 220
-0.995993, 129, 177, 256, 208
-0.996034, 121, 241, 136, 304
-0.996035, 209, 33, 336, 96
-0.99604, 161, 201, 288, 232
-0.996053, 25, 273, 56, 336
-0.996064, 279, 265, 294, 328
-0.996085, 179, 249, 194, 312
-0.996101, 273, 41, 400, 104
-0.996102, 1, 225, 32, 352
-0.996121, 145, 305, 160, 368
-0.996125, 137, 305, 152, 368
-0.996135, 217, 169, 232, 232
-0.996142, 181, 161, 196, 224
-0.996153, 229, 177, 244, 240
-0.996172, 101, 201, 116, 264
-0.996196, 273, 265, 288, 328
-0.996198, 105, 169, 120, 232
-0.996246, 273, 321, 400, 352
-0.996248, 225, 205, 352, 236
-0.996262, 183, 281, 198, 344
-0.99627, 65, 273, 192, 304
-0.996274, 177, 129, 240, 192
-0.996284, 149, 97, 180, 224
-0.996288, 191, 225, 206, 288
-0.996305, 89, 289, 120, 352
-0.996318, 317, 177, 348, 240
-0.996333, 97, 197, 224, 228
-0.996335, 281, 169, 312, 232
-0.996352, 365, 177, 396, 304
-0.99638, 287, 313, 302, 375
-0.996382, 93, 169, 108, 232
-0.996394, 65, 285, 192, 316
-0.996408, 257, 233, 384, 264
-0.996413, 113, 169, 128, 232
-0.996426, 33, 301, 160, 332
-0.996435, 123, 265, 138, 328
-0.996456, 187, 161, 202, 224
-0.996456, 95, 193, 110, 256
-0.996471, 353, 41, 480, 104
-0.996475, 285, 281, 316, 344
-0.996493, 81, 65, 144, 192
-0.996496, 33, 25, 160, 88
-0.996496, 33, 261, 160, 292
-0.9965, 225, 341, 352, 372
-0.996502, 49, 225, 176, 256
-0.996503, 17, 205, 144, 236
-0.996516, 57, 49, 120, 176
-0.996531, 353, 33, 416, 288
-0.996535, 235, 209, 250, 272
-0.996558, 37, 161, 68, 224
-0.99659, 199, 169, 214, 232
-0.996593, 179, 233, 194, 264
-0.996601, 65, 289, 96, 352
-0.996602, 115, 225, 130, 288
-0.996608, 341, 193, 372, 256
-0.996611, 153, 297, 168, 360
-0.996613, 273, 297, 400, 328
-0.99663, 9, 129, 72, 375
-0.996641, 61, 113, 92, 240
-0.996644, 197, 257, 212, 320
-0.996655, 33, 49, 160, 112
-0.996662, 193, 329, 320, 360
-0.996664, 131, 305, 146, 368
-0.99667, 161, 137, 192, 200
-0.996676, 279, 289, 294, 352
-0.996677, 33, 333, 160, 364
-0.996679, 21, 193, 52, 320
-0.996689, 87, 177, 102, 240
-0.996702, 167, 161, 182, 224
-0.996719, 189, 289, 204, 352
-0.996723, 17, 177, 144, 208
-0.996742, 203, 281, 218, 344
-0.996743, 379, 265, 394, 328
-0.996744, 261, 297, 292, 360
-0.996762, 173, 161, 188, 224
-0.996768, 209, 33, 272, 288
-0.996776, 113, 41, 240, 104
-0.996779, 191, 257, 206, 320
-0.996815, 425, 1, 488, 375
-0.996825, 125, 97, 156, 224
-0.99683, 257, 265, 384, 296
-0.996843, 385, 1, 448, 375
-0.996848, 249, 17, 312, 144
-0.996854, 349, 313, 380, 375
-0.996862, 223, 169, 238, 232
-0.996867, 41, 145, 72, 272
-0.996872, 129, 121, 256, 184
-0.996913, 65, 181, 192, 212
-0.996915, 209, 297, 272, 360
-0.996917, 129, 161, 144, 224
-0.99692, 269, 185, 284, 248
-0.996955, 37, 233, 68, 296
-0.996961, 1, 145, 256, 208
-0.996997, 81, 105, 208, 168
-0.997004, 337, 129, 400, 256
-0.997017, 273, 333, 400, 364
-0.997017, 81, 345, 208, 375
-0.997046, 149, 265, 180, 328
-0.997047, 17, 157, 144, 188
-0.997068, 283, 241, 298, 304
-0.99707, 5, 201, 36, 264
-0.99709, 159, 289, 174, 352
-0.997091, 169, 129, 200, 375
-0.997102, 161, 161, 176, 224
-0.997119, 235, 241, 250, 304
-0.997131, 137, 97, 168, 224
-0.997139, 181, 129, 212, 375
-0.997185, 197, 129, 228, 256
-0.997187, 187, 237, 202, 268
-0.997192, 389, 257, 420, 320
-0.997195, 369, 305, 496, 368
-0.997197, 1, 1, 128, 64
-0.997203, 205, 257, 220, 320
-0.997217, 263, 185, 278, 248
-0.997218, 309, 193, 324, 256
-0.997232, 207, 169, 222, 232
-0.997239, 169, 185, 200, 248
-0.997246, 73, 25, 136, 88
-0.997253, 197, 313, 212, 375
-0.997257, 109, 313, 124, 375
-0.997259, 185, 257, 200, 320
-0.99726, 147, 281, 162, 344
-0.997269, 81, 169, 96, 232
-0.997272, 197, 217, 212, 280
-0.997273, 125, 129, 156, 375
-0.997276, 369, 241, 384, 304
-0.997322, 331, 201, 346, 264
-0.997324, 241, 241, 256, 304
-0.997325, 343, 209, 358, 272
-0.997342, 49, 73, 176, 136
-0.997353, 279, 193, 294, 256
-0.997354, 273, 285, 400, 316
-0.997372, 123, 161, 138, 224
-0.997374, 351, 217, 366, 280
-0.997376, 277, 129, 308, 256
-0.997393, 25, 201, 56, 264
-0.997395, 5, 177, 36, 304
-0.997401, 363, 233, 378, 296
-0.997411, 229, 225, 244, 288
-0.997418, 153, 161, 168, 224
-0.997422, 161, 33, 288, 96
-0.997431, 377, 305, 408, 368
-0.997444, 309, 129, 340, 256
-0.997453, 115, 305, 130, 368
-0.997468, 141, 281, 156, 344
-0.997473, 209, 257, 336, 288
-0.997483, 381, 297, 396, 360
-0.99749, 57, 193, 72, 256
-0.99749, 71, 209, 86, 272
-0.997503, 65, 233, 80, 296
-0.997505, 25, 1, 88, 256
-0.997511, 181, 137, 212, 200
-0.997511, 229, 201, 244, 264
-0.997528, 165, 289, 180, 352
-0.997537, 225, 245, 352, 276
-0.997544, 33, 345, 160, 375
-0.997551, 285, 225, 316, 288
-0.997555, 369, 121, 496, 184
-0.997584, 265, 161, 296, 224
-0.997589, 305, 297, 368, 360
-0.997597, 277, 245, 292, 276
-0.9976, 45, 241, 60, 304
-0.997606, 71, 241, 86, 304
-0.997608, 353, 241, 480, 272
-0.997609, 293, 129, 324, 256
-0.997611, 1, 113, 64, 176
-0.997653, 137, 161, 152, 224
-0.997654, 101, 129, 132, 375
-0.997655, 177, 201, 192, 264
-0.997656, 147, 161, 162, 224
-0.997689, 75, 177, 90, 240
-0.997694, 209, 229, 336, 260
-0.997697, 273, 217, 288, 280
-0.997701, 387, 281, 402, 344
-0.997701, 269, 129, 300, 375
-0.997704, 329, 177, 360, 240
-0.997704, 153, 265, 168, 328
-0.997706, 247, 241, 262, 304
-0.997709, 357, 217, 372, 280
-0.997723, 279, 269, 294, 300
-0.997724, 1, 217, 128, 248
-0.997748, 321, 321, 448, 352
-0.997751, 317, 201, 332, 264
-0.997751, 353, 257, 480, 288
-0.997757, 209, 225, 240, 288
-0.997774, 257, 193, 500, 256
-0.997775, 65, 201, 80, 264
-0.997785, 125, 137, 156, 200
-0.997787, 103, 313, 118, 375
-0.997787, 187, 221, 202, 252
-0.997791, 125, 289, 140, 352
-0.997793, 249, 129, 280, 375
-0.997793, 181, 165, 196, 196
-0.997801, 81, 217, 96, 280
-0.997802, 337, 229, 464, 260
-0.997806, 273, 345, 400, 375
-0.997807, 365, 201, 396, 264
-0.997809, 285, 265, 300, 328
-0.997813, 263, 233, 278, 264
-0.997817, 297, 193, 312, 256
-0.997819, 353, 309, 480, 340
-0.997819, 369, 89, 496, 152
-0.99782, 3, 265, 18, 328
-0.997828, 337, 201, 352, 264
-0.997831, 239, 221, 254, 252
-0.997832, 129, 341, 256, 372
-0.997847, 325, 201, 340, 264
-0.997851, 223, 193, 238, 256
-0.997856, 303, 193, 318, 256
-0.997857, 183, 253, 198, 284
-0.997861, 77, 181, 92, 212
-0.997864, 225, 153, 480, 216
-0.997867, 87, 177, 102, 208
-0.997871, 107, 209, 122, 240
-0.997872, 89, 249, 120, 312
-0.997875, 87, 153, 102, 216
-0.997878, 253, 225, 268, 256
-0.997898, 153, 313, 184, 375
-0.997902, 269, 237, 284, 268
-0.997917, 237, 205, 252, 236
-0.997949, 157, 129, 188, 375
-0.997952, 237, 265, 252, 328
-0.997956, 117, 145, 132, 208
-0.997966, 117, 245, 132, 276
-0.997976, 79, 241, 94, 304
-0.997977, 353, 289, 480, 320
-0.997979, 59, 217, 74, 280
-0.997984, 217, 281, 248, 344
-0.997987, 353, 269, 480, 300
-0.997994, 175, 245, 190, 276
-0.997995, 125, 265, 140, 296
-0.997997, 193, 177, 208, 208
-0.99801, 267, 217, 282, 280
-0.998023, 203, 305, 218, 368
-0.998027, 333, 313, 364, 375
-0.998028, 55, 241, 70, 304
-0.998031, 245, 225, 260, 256
-0.998036, 281, 129, 312, 375
-0.998041, 197, 289, 212, 320
-0.998042, 81, 17, 208, 80
-0.998044, 233, 129, 264, 375
-0.998077, 285, 193, 300, 256
-0.998086, 221, 257, 236, 320
-0.998088, 223, 233, 238, 296
-0.99809, 1, 105, 256, 168
-0.998091, 245, 189, 260, 220
-0.998092, 337, 213, 464, 244
-0.998092, 225, 289, 352, 320
-0.998095, 305, 1, 432, 128
-0.998099, 271, 281, 286, 312
-0.9981, 71, 297, 86, 360
-0.998107, 99, 201, 114, 232
-0.998109, 353, 65, 480, 128
-0.99811, 373, 281, 404, 344
-0.998112, 137, 137, 168, 200
-0.998114, 161, 157, 288, 188
-0.998114, 173, 233, 188, 264
-0.998125, 213, 241, 228, 304
-0.998125, 293, 169, 324, 232
-0.998128, 43, 193, 58, 256
-0.998128, 81, 281, 96, 344
-0.99813, 133, 277, 148, 308
-0.998131, 239, 189, 254, 220
-0.998138, 215, 265, 230, 328
-0.998141, 273, 289, 288, 352
-0.998143, 201, 177, 216, 208
-0.998143, 203, 193, 218, 256
-0.998152, 81, 193, 96, 256
-0.998167, 41, 9, 104, 72
-0.998179, 89, 97, 120, 224
-0.998193, 245, 209, 260, 240
-0.998201, 161, 97, 288, 160
-0.998203, 1, 1, 64, 256
-0.998217, 1, 229, 128, 260
-0.998219, 169, 289, 200, 352
-0.998228, 189, 273, 204, 304
-0.998248, 231, 181, 246, 212
-0.998269, 109, 221, 124, 252
-0.99828, 225, 145, 352, 208
-0.998298, 183, 269, 198, 300
-0.998302, 129, 347, 160, 362
-0.998302, 195, 221, 210, 252
-0.998303, 69, 247, 100, 262
-0.998303, 377, 311, 408, 326
-0.998304, 97, 333, 128, 348
-0.998304, 153, 303, 184, 318
-0.998304, 121, 307, 152, 322
-0.998304, 333, 331, 364, 346
-0.998306, 269, 269, 284, 300
-0.998306, 201, 307, 232, 322
-0.998306, 53, 243, 84, 258
-0.998306, 129, 269, 160, 284
-0.998307, 193, 169, 224, 184
-0.998307, 161, 275, 192, 290
-0.998307, 197, 319, 228, 334
-0.998307, 157, 167, 188, 182
-0.998307, 189, 205, 220, 220
-0.998308, 49, 203, 80, 218
-0.998309, 277, 289, 308, 304
-0.99831, 193, 33, 256, 160
-0.998311, 349, 325, 380, 340
-0.998312, 241, 213, 272, 228
-0.998313, 213, 279, 244, 294
-0.998314, 205, 295, 236, 310
-0.998316, 169, 163, 200, 178
-0.998317, 97, 231, 128, 246
-0.998317, 1, 241, 32, 304
-0.998317, 109, 323, 140, 338
-0.998318, 161, 269, 192, 284
-0.998319, 205, 289, 236, 304
-0.99832, 109, 253, 140, 268
-0.99832, 161, 331, 192, 346
-0.998321, 293, 355, 324, 370
-0.998321, 225, 277, 352, 308
-0.998321, 69, 239, 100, 254
-0.998322, 97, 327, 128, 342
-0.998324, 201, 301, 232, 316
-0.998325, 277, 197, 308, 212
-0.998327, 329, 213, 360, 228
-0.998328, 105, 353, 136, 368
-0.998329, 241, 271, 272, 286
-0.998329, 173, 287, 204, 302
-0.998329, 273, 333, 304, 348
-0.998332, 121, 317, 152, 332
-0.998332, 265, 305, 296, 320
-0.998334, 193, 211, 224, 226
-0.998336, 61, 185, 92, 200
-0.998336, 85, 177, 116, 192
-0.998336, 161, 165, 176, 196
-0.998337, 157, 237, 188, 252
-0.998338, 193, 195, 224, 210
-0.99834, 129, 313, 144, 344
-0.99834, 145, 335, 176, 350
-0.99834, 161, 263, 192, 278
-0.99834, 165, 281, 196, 296
-0.998341, 101, 241, 132, 256
-0.998341, 273, 267, 304, 282
-0.998341, 181, 175, 212, 190
-0.998341, 201, 313, 232, 328
-0.998342, 121, 329, 152, 344
-0.998343, 141, 307, 172, 322
-0.998343, 253, 193, 284, 208
-0.998344, 265, 311, 296, 326
-0.998345, 225, 263, 256, 278
-0.998346, 225, 215, 256, 230
-0.998346, 97, 225, 128, 240
-0.998346, 265, 195, 296, 210
-0.998347, 93, 211, 124, 226
-0.998347, 181, 325, 212, 340
-0.998348, 109, 313, 140, 328
-0.998349, 193, 221, 224, 236
-0.998349, 289, 199, 320, 214
-0.998349, 109, 173, 140, 188
-0.998349, 287, 325, 302, 356
-0.998349, 97, 219, 128, 234
-0.99835, 109, 261, 140, 276
-0.99835, 45, 197, 76, 212
-0.998351, 293, 361, 324, 375
-0.998351, 133, 313, 164, 328
-0.998352, 261, 295, 292, 310
-0.998352, 269, 317, 300, 332
-0.998353, 273, 327, 304, 342
-0.998354, 237, 243, 268, 258
-0.998354, 117, 335, 148, 350
-0.998355, 49, 193, 176, 224
-0.998356, 71, 181, 86, 212
-0.998357, 229, 231, 260, 246
-0.998358, 139, 313, 154, 344
-0.998358, 229, 191, 260, 206
-0.998359, 185, 281, 216, 296
-0.998359, 209, 177, 224, 208
-0.998359, 53, 191, 84, 206
-0.99836, 257, 285, 288, 300
-0.99836, 201, 265, 232, 280
-0.998361, 181, 253, 212, 268
-0.998364, 91, 193, 106, 224
-0.998366, 221, 185, 252, 200
-0.998366, 129, 145, 384, 208
-0.998369, 121, 169, 152, 184
-0.998369, 225, 205, 256, 220
-0.998369, 265, 257, 296, 272
-0.998369, 93, 177, 108, 208
-0.99837, 81, 199, 112, 214
-0.99837, 245, 357, 276, 372
-0.99837, 193, 179, 224, 194
-0.99837, 309, 203, 340, 218
-0.998371, 193, 233, 208, 264
-0.998371, 117, 275, 148, 290
-0.998371, 217, 177, 232, 208
-0.998372, 171, 169, 186, 200
-0.998373, 109, 267, 140, 282
-0.998374, 229, 223, 260, 238
-0.998375, 281, 309, 296, 340
-0.998375, 425, 65, 488, 192
-0.998377, 293, 349, 324, 364
-0.998377, 97, 175, 128, 190
-0.998378, 105, 247, 136, 262
-0.99838, 155, 161, 170, 192
-0.998381, 253, 271, 284, 286
-0.998382, 321, 207, 352, 222
-0.998383, 273, 273, 304, 288
-0.998386, 113, 341, 144, 356
-0.998387, 113, 65, 240, 128
-0.998388, 109, 347, 140, 362
-0.998389, 185, 227, 216, 242
-0.99839, 257, 277, 288, 292
-0.99839, 261, 265, 292, 280
-0.998395, 201, 283, 232, 298
-0.998395, 133, 165, 164, 180
-0.998397, 29, 241, 60, 368
-0.998398, 89, 205, 120, 220
-0.9984, 305, 17, 432, 80
-0.998401, 173, 229, 204, 244
-0.998402, 277, 297, 292, 328
-0.998403, 241, 249, 272, 264
-0.998403, 321, 197, 448, 228
-0.998405, 357, 225, 372, 256
-0.998407, 181, 269, 212, 284
-0.998409, 185, 243, 216, 258
-0.998409, 69, 193, 100, 208
-0.998415, 249, 231, 280, 246
-0.998418, 73, 183, 104, 198
-0.99842, 181, 275, 212, 290
-0.998421, 185, 291, 216, 306
-0.998424, 181, 259, 212, 274
-0.998424, 97, 33, 160, 96
-0.998432, 145, 165, 176, 180
-0.998438, 241, 191, 272, 206
-0.998438, 209, 179, 240, 194
-0.998443, 207, 281, 222, 312
-0.998444, 133, 345, 148, 375
-0.998449, 225, 177, 240, 208
-0.998455, 275, 257, 290, 288
-0.998455, 265, 251, 296, 266
-0.998456, 111, 341, 126, 372
-0.998456, 253, 239, 284, 254
-0.998464, 179, 221, 194, 252
-0.998465, 241, 9, 368, 72
-0.998465, 261, 245, 292, 260
-0.998465, 177, 345, 304, 375
-0.998466, 113, 129, 144, 375
-0.998471, 169, 235, 232, 250
-0.998471, 233, 357, 264, 372
-0.998474, 135, 165, 150, 196
-0.998478, 127, 169, 142, 200
-0.998483, 283, 253, 298, 284
-0.998488, 183, 281, 198, 312
-0.998493, 121, 325, 136, 356
-0.998494, 123, 253, 138, 284
-0.998496, 253, 161, 284, 224
-0.998503, 241, 225, 272, 240
-0.998504, 195, 269, 210, 300
-0.998504, 243, 241, 258, 272
-0.998507, 233, 247, 296, 262
-0.998508, 121, 167, 184, 182
-0.998508, 161, 33, 192, 288
-0.998508, 165, 243, 196, 258
-0.998508, 195, 193, 210, 224
-0.998509, 363, 233, 378, 264
-0.998513, 159, 289, 174, 320
-0.998513, 169, 169, 200, 184
-0.998514, 185, 237, 216, 252
-0.998527, 381, 273, 396, 304
-0.998536, 99, 173, 114, 204
-0.998538, 45, 241, 60, 272
-0.998543, 253, 189, 268, 220
-0.998545, 185, 179, 248, 194
-0.998545, 193, 9, 320, 72
-0.998546, 113, 233, 128, 264
-0.998547, 273, 209, 400, 240
-0.998547, 131, 301, 146, 332
-0.998547, 161, 291, 224, 306
-0.998548, 57, 195, 120, 210
-0.998552, 185, 195, 248, 210
-0.998556, 233, 193, 296, 208
-0.998556, 235, 257, 250, 288
-0.99856, 177, 265, 240, 280
-0.998561, 137, 243, 200, 258
-0.998561, 1, 317, 128, 348
-0.998563, 289, 41, 352, 104
-0.998564, 337, 209, 352, 240
-0.998567, 353, 129, 480, 256
-0.99857, 225, 233, 288, 248
-0.998571, 73, 193, 88, 224
-0.998571, 393, 65, 456, 192
-0.998572, 233, 241, 296, 256
-0.998576, 193, 185, 256, 200
-0.998576, 349, 217, 364, 248
-0.998577, 161, 297, 224, 312
-0.998579, 285, 193, 300, 224
-0.998582, 233, 253, 296, 268
-0.998583, 65, 211, 128, 226
-0.998585, 177, 241, 240, 256
-0.998585, 303, 197, 318, 228
-0.998586, 147, 161, 162, 192
-0.998587, 169, 273, 232, 288
-0.998587, 57, 201, 120, 216
-0.998587, 145, 169, 208, 184
-0.99859, 125, 297, 140, 328
-0.99859, 169, 259, 232, 274
-0.998592, 127, 277, 142, 308
-0.998593, 241, 353, 304, 368
-0.998594, 281, 331, 344, 346
-0.998599, 281, 347, 344, 362
-0.9986, 217, 227, 280, 242
-0.998601, 177, 229, 240, 244
-0.998601, 193, 219, 256, 234
-0.998601, 233, 259, 296, 274
-0.998602, 177, 249, 240, 264
-0.998602, 281, 341, 344, 356
-0.998603, 233, 275, 296, 290
-0.998603, 185, 201, 248, 216
-0.998605, 145, 237, 208, 252
-0.998607, 21, 145, 52, 272
-0.998607, 139, 297, 154, 328
-0.998609, 193, 287, 256, 302
-0.99861, 187, 225, 202, 352
-0.998612, 113, 327, 176, 342
-0.998614, 153, 303, 216, 318
-0.998615, 233, 281, 296, 296
-0.998617, 89, 309, 152, 324
-0.998617, 225, 269, 288, 284
-0.998617, 1, 153, 500, 216
-0.998618, 173, 235, 204, 250
-0.998619, 161, 179, 224, 194
-0.99862, 225, 359, 288, 374
-0.998621, 153, 285, 216, 300
-0.998622, 81, 175, 144, 190
-0.998622, 129, 271, 192, 286
-0.998623, 105, 339, 168, 354
-0.998624, 265, 197, 328, 212
-0.998624, 233, 297, 296, 312
-0.998625, 233, 291, 296, 306
-0.998626, 177, 279, 240, 294
-0.998626, 73, 325, 136, 340
-0.998628, 33, 187, 96, 202
-0.998628, 65, 265, 96, 328
-0.99863, 281, 353, 344, 368
-0.998633, 73, 333, 136, 348
-0.998633, 195, 321, 210, 352
-0.998634, 89, 355, 152, 370
-0.998634, 185, 213, 248, 228
-0.998635, 97, 347, 160, 362
-0.998636, 121, 313, 184, 328
-0.998636, 241, 321, 304, 336
-0.998638, 73, 247, 136, 262
-0.998639, 209, 191, 272, 206
-0.998639, 241, 309, 304, 324
-0.998639, 73, 229, 88, 260
-0.998641, 81, 241, 144, 256
-0.998642, 137, 265, 200, 280
-0.998642, 319, 201, 334, 232
-0.998643, 369, 245, 384, 276
-0.998644, 201, 263, 264, 278
-0.998645, 193, 293, 256, 308
-0.998645, 249, 359, 312, 374
-0.998646, 241, 303, 304, 318
-0.998647, 113, 299, 176, 314
-0.998647, 205, 301, 220, 332
-0.998648, 73, 233, 136, 248
-0.998649, 193, 299, 256, 314
-0.998649, 81, 315, 144, 330
-0.998649, 37, 305, 68, 368
-0.99865, 121, 293, 184, 308
-0.99865, 265, 273, 328, 288
-0.998651, 241, 315, 304, 330
-0.998651, 289, 205, 352, 220
-0.998651, 281, 359, 344, 374
-0.998651, 259, 189, 274, 220
-0.998654, 65, 181, 128, 196
-0.998654, 329, 205, 344, 236
-0.998655, 61, 237, 76, 268
-0.998657, 25, 205, 88, 220
-0.998657, 81, 265, 144, 280
-0.998657, 193, 315, 256, 330
-0.998658, 121, 169, 136, 200
-0.998658, 177, 273, 192, 304
-0.998658, 273, 251, 336, 266
-0.998658, 377, 309, 392, 340
-0.998659, 161, 325, 224, 340
-0.998659, 249, 333, 312, 348
-0.998659, 41, 237, 104, 252
-0.998659, 343, 213, 358, 244
-0.99866, 249, 327, 312, 342
-0.99866, 73, 227, 136, 242
-0.998661, 73, 219, 136, 234
-0.998662, 247, 177, 262, 304
-0.998662, 137, 279, 200, 294
-0.998663, 321, 105, 448, 168
-0.998664, 201, 207, 264, 222
-0.998665, 97, 169, 160, 184
-0.998665, 65, 339, 128, 354
-0.998665, 129, 307, 192, 322
-0.998665, 265, 287, 328, 302
-0.998666, 193, 305, 256, 320
-0.998667, 273, 49, 336, 176
-0.998667, 249, 339, 312, 354
-0.998667, 81, 259, 144, 274
-0.998668, 185, 321, 248, 336
-0.998669, 319, 345, 334, 375
-0.998669, 113, 255, 176, 270
-0.99867, 273, 257, 336, 272
-0.99867, 409, 65, 472, 320
-0.99867, 193, 359, 256, 374
-0.998671, 1, 289, 128, 320
-0.998671, 265, 281, 328, 296
-0.998671, 249, 345, 312, 360
-0.998672, 233, 215, 296, 230
-0.998672, 185, 171, 248, 186
-0.998672, 25, 199, 88, 214
-0.998674, 375, 261, 390, 292
-0.998676, 153, 331, 216, 346
-0.998676, 273, 305, 336, 320
-0.998676, 209, 249, 272, 264
-0.998676, 377, 295, 440, 310
-0.998677, 81, 241, 112, 368
-0.998679, 49, 245, 112, 260
-0.998679, 97, 333, 160, 348
-0.998679, 137, 253, 200, 268
-0.99868, 41, 329, 104, 344
-0.998681, 153, 221, 216, 236
-0.998681, 209, 113, 240, 240
-0.998681, 177, 207, 240, 222
-0.998681, 33, 177, 96, 192
-0.998682, 233, 229, 248, 260
-0.998683, 327, 337, 342, 368
-0.998683, 137, 259, 200, 274
-0.998684, 273, 313, 336, 328
-0.998684, 249, 267, 312, 282
-0.998684, 81, 361, 144, 375
-0.998684, 25, 293, 88, 308
-0.998686, 57, 189, 120, 204
-0.998686, 289, 325, 352, 340
-0.998686, 25, 193, 88, 208
-0.998686, 145, 231, 208, 246
-0.998687, 137, 337, 200, 352
-0.998687, 25, 277, 88, 292
-0.998688, 49, 251, 112, 266
-0.998689, 121, 321, 184, 336
-0.998689, 17, 273, 144, 304
-0.998689, 89, 301, 152, 316
-0.9987, 185, 325, 200, 356
-0.998703, 187, 173, 202, 204
-0.998703, 85, 193, 100, 224
-0.998704, 209, 65, 336, 128
-0.998705, 289, 185, 416, 216
-0.998705, 259, 177, 274, 304
-0.998707, 113, 173, 128, 204
-0.998708, 145, 333, 160, 364
-0.998713, 235, 345, 250, 375
-0.998715, 79, 193, 94, 224
-0.998719, 73, 245, 88, 276
-0.998721, 287, 337, 302, 368
-0.998727, 119, 305, 134, 336
-0.998735, 111, 321, 126, 352
-0.998736, 383, 301, 398, 332
-0.998742, 193, 129, 224, 375
-0.998743, 181, 145, 196, 272
-0.998746, 249, 33, 312, 96
-0.99875, 1, 273, 16, 304
-0.99876, 141, 165, 156, 196
-0.998761, 239, 177, 254, 304
-0.998771, 255, 249, 270, 280
-0.998775, 65, 189, 80, 220
-0.998777, 99, 229, 114, 260
-0.998779, 213, 261, 228, 292
-0.998784, 65, 153, 192, 184
-0.998784, 73, 1, 104, 128
-0.998787, 271, 177, 286, 304
-0.99879, 237, 245, 252, 276
-0.99879, 265, 177, 280, 304
-0.998794, 109, 33, 140, 288
-0.998794, 253, 177, 268, 304
-0.998794, 293, 197, 308, 228
-0.998799, 139, 337, 154, 368
-0.998805, 265, 193, 280, 224
-0.998807, 137, 129, 168, 375
-0.998808, 105, 173, 120, 204
-0.998815, 231, 205, 246, 236
-0.998816, 269, 257, 284, 288
-0.998822, 67, 237, 82, 268
-0.998822, 159, 301, 174, 332
-0.998824, 149, 293, 164, 324
-0.998824, 149, 305, 164, 336
-0.998831, 311, 201, 326, 232
-0.998833, 189, 289, 204, 320
-0.998847, 193, 225, 208, 352
-0.998852, 177, 169, 304, 200
-0.998858, 9, 49, 72, 176
-0.998881, 225, 181, 352, 212
-0.998895, 189, 33, 220, 288
-0.998908, 121, 33, 152, 288
-0.998914, 123, 241, 138, 368
-0.998915, 209, 217, 336, 248
-0.998927, 353, 17, 480, 80
-0.998927, 269, 33, 300, 288
-0.99893, 277, 177, 292, 304
-0.998932, 1, 97, 500, 160
-0.998934, 181, 225, 196, 352
-0.998949, 107, 161, 122, 288
-0.998956, 277, 225, 292, 352
-0.998957, 365, 129, 396, 375
-0.998968, 117, 161, 132, 288
-0.998992, 1, 113, 128, 144
-0.998993, 187, 161, 202, 288
-0.99902, 133, 1, 164, 256
-0.999029, 177, 33, 208, 288
-0.999034, 271, 225, 286, 352
-0.999036, 1, 97, 64, 224
-0.999037, 305, 257, 432, 288
-0.999061, 233, 161, 248, 288
-0.999081, 1, 81, 256, 144
-0.999083, 161, 33, 416, 96
-0.999095, 149, 33, 180, 288
-0.999104, 17, 133, 144, 164
-0.999113, 257, 65, 384, 128
-0.999123, 313, 65, 344, 320
-0.999124, 301, 33, 332, 288
-0.999128, 341, 65, 372, 320
-0.99913, 305, 273, 432, 304
-0.999131, 233, 33, 264, 288
-0.999142, 321, 333, 448, 364
-0.999144, 375, 241, 390, 368
-0.999156, 225, 169, 352, 200
-0.999168, 283, 177, 298, 304
-0.999168, 129, 241, 144, 368
-0.999171, 195, 145, 210, 272
-0.999182, 65, 1, 128, 64
-0.999192, 353, 129, 384, 375
-0.999202, 213, 129, 244, 375
-0.999207, 209, 89, 336, 152
-0.999213, 113, 209, 128, 336
-0.999219, 101, 161, 116, 288
-0.999221, 257, 33, 288, 288
-0.999238, 247, 225, 262, 352
-0.999242, 369, 225, 384, 352
-0.999244, 175, 145, 190, 272
-0.999252, 17, 145, 144, 176
-0.999252, 123, 161, 138, 288
-0.999252, 233, 209, 248, 336
-0.999283, 265, 225, 280, 352
-0.999284, 289, 33, 320, 288
-0.999293, 257, 41, 500, 104
-0.999294, 227, 161, 242, 288
-0.999311, 283, 225, 298, 352
-0.99933, 105, 113, 120, 240
-0.999342, 175, 225, 190, 352
-0.999344, 129, 145, 144, 272
-0.999345, 1, 33, 500, 96
-0.999348, 89, 129, 120, 375
-0.999353, 199, 193, 214, 320
-0.999358, 159, 145, 174, 272
-0.999359, 1, 13, 128, 44
-0.99937, 167, 145, 182, 272
-0.999374, 311, 177, 326, 304
-0.999376, 239, 129, 254, 256
-0.999386, 139, 241, 154, 368
-0.999388, 95, 145, 110, 272
-0.999388, 253, 225, 268, 352
-0.999395, 57, 177, 72, 304
-0.999396, 81, 33, 112, 288
-0.999407, 325, 65, 356, 320
-0.999411, 1, 121, 500, 184
-0.999415, 149, 145, 164, 272
-0.999415, 79, 145, 94, 272
-0.999416, 293, 129, 324, 375
-0.99942, 253, 129, 268, 256
-0.999423, 363, 225, 378, 352
-0.999429, 79, 193, 94, 320
-0.999429, 89, 145, 104, 272
-0.999432, 337, 45, 464, 76
-0.999444, 289, 177, 304, 304
-0.999446, 409, 193, 472, 320
-0.999454, 241, 225, 256, 352
-0.999455, 199, 241, 214, 368
-0.999455, 61, 225, 76, 352
-0.999459, 51, 241, 66, 368
-0.999461, 201, 145, 216, 272
-0.999466, 1, 17, 256, 80
-0.999467, 145, 241, 160, 368
-0.999468, 305, 177, 320, 304
-0.999469, 93, 1, 124, 256
-0.999469, 205, 225, 220, 352
-0.99947, 87, 193, 102, 320
-0.999472, 297, 177, 312, 304
-0.999485, 113, 113, 128, 240
-0.999486, 357, 209, 372, 336
-0.99949, 343, 193, 358, 320
-0.999494, 259, 129, 274, 256
-0.999495, 327, 193, 342, 320
-0.999495, 247, 129, 262, 256
-0.999495, 129, 121, 384, 184
-0.999496, 151, 241, 166, 368
-0.999498, 241, 113, 368, 176
-0.999498, 369, 145, 496, 208
-0.9995, 317, 177, 332, 304
-0.999502, 227, 209, 242, 336
-0.999505, 193, 37, 320, 68
-0.999505, 93, 193, 108, 320
-0.999509, 289, 45, 416, 76
-0.999514, 107, 209, 122, 336
-0.999515, 111, 231, 126, 246
-0.999515, 71, 177, 86, 304
-0.999515, 61, 237, 76, 252
-0.999516, 361, 235, 376, 250
-0.999517, 187, 173, 202, 188
-0.999517, 237, 189, 252, 204
-0.999518, 293, 197, 308, 212
-0.999518, 47, 245, 62, 260
-0.999519, 315, 203, 330, 218
-0.999519, 95, 197, 110, 212
-0.999519, 235, 263, 250, 278
-0.999519, 287, 197, 302, 212
-0.999519, 161, 303, 176, 318
-0.99952, 389, 295, 404, 310
-0.99952, 125, 325, 140, 340
-0.999521, 205, 311, 220, 326
-0.999522, 177, 279, 192, 294
-0.999522, 139, 145, 154, 272
-0.999524, 239, 249, 254, 264
-0.999524, 187, 325, 202, 340
-0.999526, 107, 175, 122, 190
-0.999526, 275, 301, 290, 316
-0.999528, 307, 201, 322, 216
-0.999528, 381, 241, 396, 368
-0.999529, 321, 205, 336, 220
-0.999529, 147, 165, 162, 180
-0.999529, 357, 229, 372, 244
-0.99953, 207, 295, 222, 310
-0.99953, 133, 347, 148, 362
-0.99953, 249, 191, 264, 206
-0.999531, 295, 361, 310, 375
-0.999531, 259, 225, 274, 352
-0.999531, 263, 193, 278, 208
-0.999531, 337, 193, 352, 320
-0.999532, 299, 199, 314, 214
-0.999532, 347, 217, 362, 232
-0.999533, 87, 181, 102, 196
-0.999534, 201, 181, 216, 196
-0.999535, 235, 229, 250, 244
-0.999536, 195, 217, 210, 232
-0.999536, 195, 225, 210, 240
-0.999536, 171, 171, 186, 186
-0.999537, 95, 177, 110, 192
-0.999537, 119, 317, 134, 332
-0.999537, 223, 179, 238, 194
-0.999538, 279, 195, 294, 210
-0.999538, 107, 219, 122, 234
-0.999538, 67, 187, 82, 202
-0.999538, 229, 359, 244, 374
-0.999539, 287, 331, 302, 346
-0.99954, 279, 257, 294, 272
-0.99954, 277, 307, 292, 322
-0.99954, 133, 279, 148, 294
-0.99954, 121, 173, 136, 188
-0.999541, 163, 167, 178, 182
-0.999541, 335, 209, 350, 224
-0.999542, 241, 243, 256, 258
-0.999542, 147, 311, 162, 326
-0.999543, 141, 313, 156, 328
-0.999545, 283, 323, 298, 338
-0.999545, 207, 289, 222, 304
-0.999546, 247, 245, 262, 260
-0.999546, 189, 247, 204, 262
-0.999547, 245, 217, 260, 232
-0.999548, 283, 265, 298, 280
-0.999548, 155, 307, 170, 322
-0.999548, 275, 295, 290, 310
-0.999548, 135, 315, 150, 330
-0.999549, 353, 223, 368, 238
-0.999549, 281, 317, 296, 332
-0.999549, 185, 287, 200, 302
-0.99955, 199, 285, 214, 300
-0.999551, 133, 193, 164, 320
-0.999551, 205, 283, 220, 298
-0.999552, 267, 277, 282, 292
-0.999553, 329, 207, 344, 222
-0.999554, 267, 271, 282, 286
-0.999554, 269, 129, 284, 256
-0.999554, 221, 177, 236, 304
-0.999554, 117, 249, 132, 264
-0.999555, 157, 165, 172, 180
-0.999555, 141, 165, 156, 180
-0.999555, 273, 289, 288, 304
-0.999556, 71, 245, 86, 260
-0.999556, 183, 259, 198, 274
-0.999558, 69, 193, 84, 208
-0.999559, 89, 195, 104, 210
-0.99956, 195, 233, 210, 248
-0.999561, 109, 225, 124, 240
-0.999562, 237, 217, 252, 232
-0.999562, 101, 175, 116, 190
-0.999562, 209, 179, 224, 194
-0.999563, 235, 353, 250, 368
-0.999565, 119, 257, 134, 272
-0.999565, 69, 225, 84, 352
-0.999565, 217, 177, 232, 192
-0.999565, 273, 267, 288, 282
-0.999566, 229, 181, 244, 196
-0.999566, 341, 213, 356, 228
-0.999566, 57, 195, 72, 210
-0.999571, 191, 283, 206, 298
-0.999573, 185, 253, 200, 268
-0.999574, 193, 177, 208, 192
-0.999574, 57, 105, 120, 168
-0.999574, 183, 273, 198, 288
-0.999575, 133, 167, 148, 182
-0.999575, 235, 359, 250, 374
-0.999577, 271, 283, 286, 298
-0.999579, 171, 239, 186, 254
-0.99958, 127, 169, 142, 184
-0.999581, 129, 319, 144, 334
-0.999581, 183, 245, 198, 260
-0.999582, 127, 275, 142, 290
-0.999584, 243, 191, 258, 206
-0.999588, 161, 73, 288, 136
-0.999588, 269, 239, 284, 254
-0.999589, 183, 267, 198, 282
-0.99959, 351, 209, 366, 336
-0.999593, 241, 355, 256, 370
-0.999594, 119, 113, 134, 240
-0.999594, 99, 203, 114, 218
-0.999595, 275, 245, 290, 260
-0.999597, 251, 227, 266, 242
-0.999598, 81, 25, 208, 56
-0.999599, 113, 153, 240, 184
-0.999599, 193, 239, 208, 254
-0.999602, 105, 211, 120, 226
-0.999603, 123, 269, 138, 284
-0.999604, 241, 37, 368, 68
-0.999612, 279, 251, 294, 266
-0.999612, 265, 233, 280, 248
-0.999616, 121, 263, 136, 278
-0.999619, 77, 183, 92, 198
-0.999624, 313, 41, 376, 104
-0.999624, 237, 207, 252, 222
-0.999626, 239, 223, 254, 238
-0.99963, 177, 97, 192, 224
-0.999632, 47, 193, 62, 320
-0.999632, 247, 355, 262, 370
-0.999634, 187, 229, 202, 244
-0.999637, 409, 17, 472, 144
-0.999638, 257, 229, 272, 244
-0.999638, 245, 225, 260, 240
-0.99964, 207, 145, 222, 272
-0.999641, 355, 161, 370, 288
-0.999642, 33, 129, 96, 375
-0.999643, 245, 33, 276, 288
-0.999647, 187, 113, 202, 240
-0.999647, 323, 145, 338, 272
-0.999648, 387, 225, 402, 352
-0.999649, 277, 273, 292, 288
-0.99965, 33, 41, 288, 104
-0.999655, 197, 291, 212, 306
-0.999657, 193, 97, 208, 224
-0.999659, 367, 161, 382, 288
-0.999665, 275, 129, 290, 256
-0.999667, 273, 197, 400, 228
-0.999668, 45, 241, 60, 368
-0.999668, 41, 129, 72, 375
-0.999671, 13, 241, 44, 368
-0.999673, 377, 129, 408, 375
-0.999674, 81, 241, 96, 368
-0.999676, 17, 1, 48, 256
-0.999677, 1, 101, 128, 132
-0.999679, 63, 177, 78, 304
-0.99968, 179, 239, 194, 254
-0.99968, 349, 161, 364, 288
-0.999682, 379, 193, 394, 320
-0.999687, 187, 239, 202, 254
-0.999687, 329, 145, 344, 272
-0.999688, 157, 241, 172, 368
-0.999689, 161, 145, 288, 176
-0.99969, 305, 309, 432, 340
-0.999693, 343, 145, 358, 272
-0.999697, 181, 167, 196, 182
-0.999698, 229, 113, 244, 240
-0.9997, 295, 129, 310, 256
-0.9997, 337, 145, 352, 272
-0.999704, 215, 145, 230, 272
-0.999712, 373, 177, 388, 304
-0.999716, 307, 129, 322, 256
-0.999717, 171, 97, 186, 224
-0.999718, 301, 129, 316, 256
-0.999718, 283, 129, 298, 256
-0.999719, 33, 25, 160, 56
-0.999724, 37, 177, 52, 304
-0.999724, 17, 241, 32, 368
-0.999727, 29, 129, 60, 375
-0.999728, 129, 193, 144, 320
-0.999728, 177, 245, 192, 260
-0.999728, 125, 97, 140, 224
-0.999728, 1, 209, 16, 336
-0.999728, 225, 65, 480, 128
-0.99973, 99, 209, 114, 336
-0.999732, 163, 97, 178, 224
-0.999734, 49, 113, 176, 144
-0.999735, 155, 97, 170, 224
-0.999737, 17, 177, 32, 304
-0.999737, 67, 129, 82, 256
-0.999741, 145, 97, 160, 224
-0.999746, 53, 129, 84, 375
-0.999749, 317, 129, 332, 256
-0.999749, 133, 97, 148, 224
-0.999749, 169, 225, 184, 352
-0.99975, 139, 97, 154, 224
-0.999754, 27, 209, 42, 336
-0.99976, 11, 177, 26, 304
-0.999765, 221, 225, 236, 352
-0.999767, 213, 209, 228, 336
-0.999772, 45, 145, 60, 272
-0.999772, 217, 33, 248, 288
-0.999788, 361, 161, 376, 288
-0.999799, 17, 97, 48, 224
-0.999803, 353, 49, 416, 176
-0.99982, 177, 233, 192, 248
-0.999852, 377, 41, 440, 104
-0.999856, 97, 65, 160, 128
-0.999856, 29, 1, 60, 256
-0.999865, 49, 97, 176, 128
-0.999874, 13, 129, 44, 375
-0.999878, 305, 81, 432, 144
-0.999884, 61, 33, 92, 288
-0.999884, 161, 117, 288, 148
-0.999888, 113, 37, 240, 68
-0.999889, 369, 185, 496, 248
-0.999891, 33, 69, 160, 100
-0.999913, 49, 37, 176, 68
-0.999917, 145, 9, 272, 72
-0.999943, 41, 33, 72, 288
-0.999944, 257, 105, 500, 168
-0.999945, 17, 17, 80, 80
-0.999945, 401, 41, 464, 104
-0.999947, 177, 25, 304, 56
-0.999951, 369, 129, 496, 160
-0.999955, 81, 125, 208, 156
-0.999959, 73, 129, 104, 375
-0.99996, 97, 89, 352, 152
-0.999964, 1, 57, 500, 120
-0.99997, 33, 53, 160, 84
-0.99997, 97, 137, 224, 168
-1, 385, 129, 448, 375
-1.00001, 433, 65, 496, 320
-1.00002, 97, 65, 352, 128
-1.00002, 257, 57, 384, 88
-1.00002, 365, 33, 396, 288
-1.00003, 225, 1, 480, 64
-1.00004, 205, 33, 236, 288
-1.00004, 369, 61, 496, 92
-1.00004, 273, 65, 336, 128
-1.00005, 97, 1, 352, 64
-1.00006, 193, 49, 320, 80
-1.00006, 129, 17, 192, 144
-1.00006, 321, 121, 448, 152
-1.00008, 369, 117, 496, 148
-1.00009, 257, 17, 384, 48
-1.00009, 413, 65, 444, 320
-1.00009, 257, 89, 384, 152
-1.0001, 33, 81, 160, 112
-1.0001, 161, 105, 288, 136
-1.00011, 81, 121, 144, 184
-1.00012, 113, 49, 240, 80
-1.00013, 353, 33, 384, 288
-1.00013, 329, 17, 392, 144
-1.00013, 113, 101, 240, 132
-1.00014, 289, 33, 416, 64
-1.00015, 369, 337, 496, 368
-1.00015, 5, 1, 36, 256
-1.00016, 49, 13, 176, 44
-1.00017, 241, 141, 368, 172
-1.00018, 1, 1, 128, 32
-1.00018, 113, 113, 240, 144
-1.00019, 369, 105, 496, 136
-1.0002, 425, 65, 456, 320
-1.00022, 1, 41, 128, 72
-1.00022, 449, 65, 480, 320
-1.00022, 161, 17, 224, 144
-1.00022, 369, 73, 496, 104
-1.00022, 57, 49, 120, 112
-1.00023, 437, 65, 468, 320
-1.00025, 401, 65, 432, 320
-1.00027, 417, 257, 480, 320
-1.00029, 225, 33, 288, 96
-1.00029, 161, 33, 224, 96
-1.00032, 321, 129, 448, 192
-1.00033, 1, 129, 32, 375
-1.00033, 85, 1, 116, 128
-1.00036, 469, 65, 500, 320
-1.00037, 389, 129, 420, 375
-1.00038, 225, 89, 288, 152
-1.00039, 305, 17, 368, 144
-1.0004, 257, 33, 288, 160
-1.00041, 337, 41, 400, 104
-1.00043, 409, 217, 472, 280
-1.00047, 425, 49, 488, 112
-1.00048, 329, 289, 392, 352
-1.00049, 61, 1, 92, 128
-1.00051, 1, 9, 500, 72
-1.00052, 201, 41, 264, 104
-1.00054, 105, 33, 168, 160
-1.00059, 389, 1, 420, 256
-1.00061, 377, 33, 408, 288
-1.00063, 25, 105, 88, 168
-1.00079, 41, 97, 72, 224
-1.00087, 97, 17, 128, 144
-1.00091, 257, 1, 320, 64
-1.00097, 229, 33, 260, 160
-1.00098, 121, 33, 184, 96
-1.001, 1, 1, 64, 128
-1.00103, 277, 33, 308, 160
-1.00118, 49, 33, 80, 160
-1.00127, 257, 129, 500, 192
-1.0013, 217, 81, 280, 208
-1.0013, 185, 65, 216, 192
-1.00133, 5, 129, 36, 256
-1.0014, 289, 17, 352, 80
-1.00145, 217, 33, 248, 160
-1.00155, 169, 65, 232, 192
-1.00156, 417, 305, 480, 368
-1.00165, 73, 73, 136, 136
-1.00165, 257, 105, 320, 168
-1.00169, 433, 209, 496, 336
-1.00172, 201, 33, 232, 160
-1.00177, 413, 65, 444, 192
-1.00181, 273, 1, 336, 128
-1.00181, 377, 17, 440, 144
-1.00183, 37, 1, 68, 128
-1.00186, 241, 57, 304, 120
-1.00188, 377, 305, 440, 368
-1.00189, 101, 65, 132, 192
-1.00193, 417, 193, 480, 256
-1.00197, 289, 17, 320, 144
-1.00199, 365, 49, 396, 176
-1.00202, 393, 121, 456, 184
-1.00204, 377, 161, 408, 288
-1.00207, 77, 97, 108, 224
-1.00214, 33, 41, 96, 104
-1.00216, 273, 137, 400, 200
-1.00218, 425, 145, 488, 272
-1.00219, 145, 193, 176, 320
-1.00221, 433, 49, 464, 176
-1.00223, 409, 281, 472, 344
-1.00223, 241, 33, 272, 160
-1.00223, 97, 97, 160, 160
-1.00233, 389, 65, 420, 192
-1.00234, 445, 49, 476, 176
-1.00236, 409, 17, 440, 144
-1.00239, 385, 1, 448, 256
-1.00241, 185, 17, 248, 80
-1.00242, 177, 17, 208, 144
-1.00244, 337, 241, 368, 368
-1.00246, 25, 65, 88, 128
-1.00247, 325, 17, 356, 144
-1.00248, 225, 9, 288, 72
-1.00248, 313, 233, 376, 296
-1.00251, 121, 57, 184, 120
-1.00251, 69, 49, 100, 176
-1.00259, 125, 17, 156, 144
-1.0026, 329, 65, 392, 192
-1.00266, 353, 17, 384, 144
-1.00272, 337, 17, 368, 144
-1.00273, 1, 89, 64, 152
-1.0028, 137, 17, 168, 144
-1.00281, 289, 241, 320, 368
-1.00284, 401, 65, 432, 192
-1.00285, 353, 65, 384, 192
-1.00288, 385, 17, 416, 144
-1.0029, 337, 17, 400, 80
-1.0029, 409, 97, 472, 160
-1.00291, 33, 49, 96, 176
-1.00294, 25, 1, 56, 128
-1.00298, 401, 145, 464, 272
-1.00299, 433, 169, 496, 232
-1.003, 29, 97, 60, 224
-1.00301, 157, 17, 188, 144
-1.00306, 457, 49, 488, 176
-1.00307, 461, 193, 492, 320
-1.00312, 421, 17, 452, 144
-1.00323, 189, 17, 220, 144
-1.00326, 109, 17, 140, 144
-1.00327, 309, 17, 340, 144
-1.00328, 29, 49, 60, 176
-1.00333, 437, 193, 468, 320
-1.00344, 369, 97, 432, 224
-1.0035, 397, 17, 428, 144
-1.0035, 341, 65, 372, 192
-1.00357, 13, 1, 44, 128
-1.00368, 1, 1, 32, 128
-1.00402, 433, 17, 496, 144
-1.00475, 297, 241, 360, 368
-1.00493, 353, 1, 416, 128
-1.0051, 409, 241, 472, 368
-1.00633, 241, 81, 304, 208
-1.00704, 305, 65, 368, 192
