1970
-0.399107, 1, 1, 500, 375
-0.433276, 1, 65, 500, 320
-0.465174, 193, 1, 448, 375
-0.560565, 1, 1, 256, 375
-0.635625, 129, 97, 384, 352
-0.647652, 97, 1, 352, 375
-0.651733, 1, 97, 256, 352
-0.657738, 257, 1, 500, 256
-0.67516, 33, 1, 288, 256
-0.80003, 257, 97, 500, 352
-0.834955, 161, 1, 416, 256
-0.867725, 305, 1, 432, 375
-0.8721, 17, 1, 144, 375
-0.876371, 369, 97, 496, 352
-0.878863, 33, 65, 160, 320
-0.880544, 81, 129, 208, 375
-0.88683, 177, 97, 304, 352
-0.887123, 1, 161, 500, 288
-0.887451, 129, 1, 256, 375
-0.889904, 305, 1, 432, 256
-0.890562, 65, 1, 192, 375
-0.891117, 369, 1, 496, 375
-0.891144, 81, 1, 208, 256
-0.893468, 193, 1, 320, 375
-0.895021, 129, 129, 256, 375
-0.898858, 129, 1, 256, 256
-0.899222, 1, 225, 500, 352
-0.90158, 353, 1, 480, 256
-0.901629, 1, 17, 500, 144
-0.903872, 241, 1, 368, 375
-0.909864, 193, 1, 320, 256
-0.911929, 273, 129, 400, 375
-0.914981, 225, 97, 352, 352
-0.920546, 1, 65, 500, 192
-0.925815, 257, 1, 384, 256
-0.926663, 193, 225, 448, 352
-0.927258, 129, 177, 384, 304
-0.932027, 33, 33, 288, 160
-0.932214, 1, 225, 256, 352
-0.936875, 57, 33, 120, 160
-0.937853, 1, 113, 256, 240
-0.938274, 1, 113, 500, 240
-0.93837, 129, 1, 384, 128
-0.940365, 113, 225, 176, 352
-0.941487, 129, 97, 384, 224
-0.943516, 33, 161, 288, 288
-0.944984, 257, 33, 500, 160
-0.946078, 1, 17, 128, 144
-0.946109, 321, 1, 448, 128
-0.946194, 321, 97, 448, 352
-0.946985, 1, 177, 64, 304
-0.947312, 65, 225, 192, 352
-0.947757, 33, 17, 96, 144
-0.948129, 97, 241, 352, 368
-0.948757, 369, 193, 496, 320
-0.948786, 73, 209, 136, 336
-0.948827, 257, 145, 500, 272
-0.949299, 113, 241, 240, 368
-0.953981, 169, 281, 232, 344
-0.954402, 217, 305, 280, 368
-0.954464, 209, 1, 336, 128
-0.954586, 1, 193, 128, 320
-0.955822, 137, 241, 200, 368
-0.955909, 193, 97, 320, 224
-0.95616, 81, 17, 144, 144
-0.956332, 409, 33, 472, 96
-0.957532, 145, 97, 272, 224
-0.957901, 273, 177, 400, 304
-0.957968, 425, 113, 488, 240
-0.958096, 241, 313, 304, 375
-0.958382, 17, 81, 144, 208
-0.958779, 137, 289, 200, 352
-0.958866, 65, 81, 128, 208
-0.959372, 25, 177, 88, 304
-0.959472, 321, 209, 448, 336
-0.959587, 425, 49, 488, 176
-0.959993, 129, 161, 256, 288
-0.960127, 81, 129, 208, 256
-0.96041, 289, 1, 352, 128
-0.960545, 57, 73, 120, 136
-0.96096, 49, 33, 176, 160
-0.961251, 257, 97, 500, 224
-0.96145, 377, 193, 440, 320
-0.961476, 209, 225, 336, 352
-0.961485, 33, 49, 96, 112
-0.961534, 369, 1, 496, 128
-0.962147, 305, 1, 368, 64
-0.962295, 1, 193, 64, 256
-0.962314, 329, 17, 392, 144
-0.962381, 113, 305, 176, 368
-0.962641, 73, 33, 136, 96
-0.962848, 113, 249, 176, 312
-0.963443, 329, 17, 392, 80
-0.963475, 353, 209, 416, 336
-0.963573, 193, 161, 320, 288
-0.96366, 113, 49, 240, 176
-0.964338, 177, 305, 240, 368
-0.964357, 433, 1, 496, 128
-0.964471, 289, 177, 352, 304
-0.964696, 1, 241, 128, 368
-0.964712, 433, 17, 496, 80
-0.964845, 65, 1, 128, 64
-0.96512, 137, 313, 200, 375
-0.965199, 353, 1, 416, 128
-0.96567, 273, 225, 400, 352
-0.96601, 369, 145, 496, 272
-0.96602, 433, 193, 496, 320
-0.966366, 113, 273, 176, 336
-0.966417, 49, 209, 112, 272
-0.966618, 89, 233, 152, 296
-0.966632, 17, 17, 80, 80
-0.967028, 169, 241, 232, 368
-0.96707, 89, 65, 152, 192
-0.9677, 113, 17, 176, 144
-0.967835, 25, 193, 88, 256
-0.96788, 49, 193, 112, 320
-0.967971, 73, 257, 136, 320
-0.967997, 161, 1, 288, 128
-0.968089, 57, 33, 120, 288
-0.968141, 9, 17, 72, 144
-0.96819, 145, 265, 208, 328
-0.968227, 409, 193, 472, 320
-0.968478, 433, 49, 496, 112
-0.968559, 345, 233, 408, 296
-0.96871, 177, 81, 240, 208
-0.968724, 369, 97, 496, 224
-0.968967, 401, 33, 464, 160
-0.969032, 209, 81, 272, 208
-0.969242, 73, 281, 136, 344
-0.970436, 257, 1, 384, 128
-0.970609, 257, 177, 320, 304
-0.970746, 85, 225, 116, 288
-0.970905, 353, 17, 416, 80
-0.971065, 81, 57, 144, 120
-0.971309, 249, 113, 312, 240
-0.971545, 73, 97, 136, 160
-0.971654, 369, 49, 496, 176
-0.971803, 209, 241, 272, 368
-0.972055, 49, 25, 112, 88
-0.972143, 145, 289, 272, 352
-0.972352, 433, 145, 496, 208
-0.972435, 49, 241, 112, 368
-0.972447, 257, 49, 384, 176
-0.972725, 265, 1, 328, 128
-0.972741, 33, 1, 96, 256
-0.972788, 281, 1, 344, 64
-0.973103, 145, 161, 208, 288
-0.973254, 289, 225, 352, 352
-0.973393, 249, 313, 280, 375
-0.973464, 185, 1, 248, 128
-0.97358, 217, 97, 280, 160
-0.973655, 33, 97, 96, 224
-0.973733, 1, 25, 128, 88
-0.973826, 153, 289, 184, 352
-0.973895, 41, 1, 104, 64
-0.974133, 417, 1, 480, 256
-0.974158, 385, 201, 448, 264
-0.974199, 33, 129, 160, 256
-0.974373, 89, 305, 152, 368
-0.974377, 129, 49, 384, 176
-0.974395, 233, 1, 296, 128
-0.974408, 161, 65, 224, 128
-0.974483, 409, 105, 472, 168
-0.974665, 9, 65, 72, 192
-0.97473, 217, 297, 248, 360
-0.974848, 57, 17, 88, 144
-0.974885, 337, 1, 368, 64
-0.974904, 17, 241, 80, 368
-0.974922, 329, 225, 392, 352
-0.974947, 97, 1, 224, 128
-0.975022, 161, 17, 224, 144
-0.975065, 229, 313, 260, 375
-0.975246, 433, 217, 496, 280
-0.975314, 169, 161, 232, 288
-0.975356, 65, 81, 192, 208
-0.9754, 273, 1, 400, 64
-0.975702, 125, 305, 156, 368
-0.975902, 201, 129, 264, 256
-0.975982, 121, 41, 184, 104
-0.97622, 109, 281, 140, 344
-0.976224, 313, 41, 376, 104
-0.976295, 145, 313, 272, 375
-0.976338, 9, 65, 72, 320
-0.97639, 289, 209, 352, 272
-0.97652, 417, 97, 480, 352
-0.976771, 249, 201, 312, 264
-0.976825, 425, 177, 488, 240
-0.976892, 33, 97, 96, 160
-0.976922, 385, 33, 448, 96
-0.976933, 377, 17, 440, 144
-0.977072, 65, 233, 128, 296
-0.977114, 9, 73, 72, 136
-0.977145, 401, 113, 464, 240
-0.977185, 81, 177, 208, 304
-0.977204, 77, 249, 108, 312
-0.977273, 201, 281, 264, 344
-0.97732, 437, 33, 468, 96
-0.977392, 433, 273, 496, 336
-0.977419, 401, 57, 464, 120
-0.977434, 65, 209, 96, 272
-0.977526, 85, 209, 116, 336
-0.977581, 97, 113, 160, 240
-0.977827, 1, 241, 32, 368
-0.977884, 209, 313, 336, 375
-0.97797, 109, 225, 140, 352
-0.977973, 121, 81, 184, 208
-0.978087, 109, 313, 140, 375
-0.978125, 97, 33, 128, 160
-0.978159, 321, 241, 384, 304
-0.978173, 433, 73, 496, 136
-0.978247, 81, 81, 112, 144
-0.978378, 409, 81, 472, 144
-0.978387, 125, 225, 156, 352
-0.978512, 1, 129, 64, 256
-0.978575, 273, 201, 400, 264
-0.978715, 457, 129, 488, 256
-0.97881, 385, 9, 448, 72
-0.978823, 81, 17, 112, 144
-0.978882, 81, 65, 144, 320
-0.978971, 97, 17, 160, 80
-0.978999, 197, 281, 228, 344
-0.979067, 305, 49, 368, 176
-0.979098, 65, 233, 192, 296
-0.9792, 17, 257, 80, 320
-0.979246, 433, 121, 496, 184
-0.979264, 281, 185, 344, 248
-0.979286, 305, 25, 432, 88
-0.979382, 73, 161, 136, 288
-0.979445, 145, 41, 208, 104
-0.979453, 1, 257, 32, 320
-0.979474, 81, 305, 208, 368
-0.979532, 57, 1, 120, 375
-0.979564, 165, 265, 196, 328
-0.979574, 145, 9, 208, 72
-0.979646, 145, 241, 176, 368
-0.979724, 145, 249, 176, 312
-0.979796, 161, 241, 288, 368
-0.979831, 289, 233, 352, 296
-0.979875, 425, 33, 456, 96
-0.979879, 273, 313, 336, 375
-0.979881, 185, 169, 248, 232
-0.979903, 321, 1, 448, 64
-0.979939, 453, 33, 484, 96
-0.979979, 369, 33, 496, 96
-0.980002, 165, 313, 196, 375
-0.98004, 281, 129, 344, 256
-0.980094, 97, 265, 224, 328
-0.980164, 65, 305, 128, 368
-0.980275, 1, 297, 64, 360
-0.980293, 369, 217, 496, 280
-0.980304, 153, 313, 184, 375
-0.980315, 193, 49, 320, 176
-0.98047, 49, 25, 176, 88
-0.980477, 385, 257, 448, 320
-0.980519, 17, 209, 144, 272
-0.980592, 113, 233, 144, 296
-0.980996, 49, 257, 112, 320
-0.980999, 313, 177, 376, 304
-0.981039, 401, 177, 464, 240
-0.981117, 33, 73, 96, 136
-0.98129, 289, 233, 416, 296
-0.981297, 97, 209, 128, 336
-0.981351, 433, 241, 496, 368
-0.981352, 161, 145, 224, 208
-0.981367, 1, 1, 128, 64
-0.98146, 73, 193, 104, 320
-0.981589, 377, 1, 408, 64
-0.981615, 217, 1, 280, 64
-0.981673, 409, 241, 472, 368
-0.981723, 169, 25, 232, 88
-0.981755, 193, 89, 256, 152
-0.981858, 97, 225, 128, 288
-0.981865, 305, 49, 432, 176
-0.981905, 17, 1, 48, 128
-0.98193, 289, 33, 352, 96
-0.98194, 85, 25, 116, 88
-0.982039, 321, 145, 448, 272
-0.982068, 121, 129, 184, 375
-0.982116, 61, 193, 92, 320
-0.982132, 161, 177, 224, 240
-0.982137, 225, 1, 352, 64
-0.982279, 77, 65, 108, 192
-0.982346, 1, 217, 64, 280
-0.982412, 369, 1, 496, 64
-0.982418, 1, 289, 128, 352
-0.982423, 105, 81, 136, 144
-0.982508, 145, 129, 208, 375
-0.98257, 369, 225, 432, 288
-0.982628, 1, 169, 64, 232
-0.982645, 177, 1, 240, 256
-0.982755, 61, 65, 92, 128
-0.98279, 97, 121, 160, 184
-0.982809, 377, 145, 440, 272
-0.982871, 469, 17, 500, 80
-0.98298, 97, 105, 128, 168
-0.982987, 141, 313, 172, 375
-0.983003, 241, 129, 368, 256
-0.98304, 233, 49, 296, 176
-0.983081, 453, 57, 484, 120
-0.983132, 1, 97, 128, 160
-0.983177, 33, 97, 96, 352
-0.983207, 161, 241, 192, 368
-0.983219, 437, 17, 468, 144
-0.983373, 381, 209, 412, 336
-0.983447, 81, 1, 112, 64
-0.983503, 165, 289, 196, 352
-0.98354, 81, 1, 208, 64
-0.983546, 141, 281, 172, 344
-0.98355, 5, 193, 36, 320
-0.983558, 73, 25, 104, 88
-0.983583, 301, 1, 332, 128
-0.983593, 273, 49, 336, 176
-0.983607, 109, 105, 140, 168
-0.983646, 97, 49, 128, 112
-0.983741, 121, 105, 184, 168
-0.983791, 201, 65, 264, 320
-0.983798, 209, 153, 272, 216
-0.983801, 97, 89, 160, 152
-0.983828, 73, 241, 104, 368
-0.983962, 121, 161, 184, 288
-0.983967, 89, 209, 152, 272
-0.984, 5, 209, 36, 272
-0.984031, 261, 313, 292, 375
-0.984094, 89, 297, 120, 360
-0.984108, 241, 97, 304, 352
-0.984132, 393, 281, 456, 344
-0.984192, 409, 9, 472, 72
-0.984242, 453, 49, 484, 176
-0.984264, 97, 273, 128, 336
-0.984265, 265, 225, 328, 288
-0.984296, 93, 81, 124, 208
-0.984386, 257, 241, 320, 368
-0.984405, 469, 137, 500, 200
-0.984472, 137, 161, 200, 224
-0.984503, 113, 1, 176, 256
-0.984562, 437, 89, 468, 152
-0.984598, 65, 265, 96, 328
-0.984599, 1, 233, 32, 296
-0.984601, 409, 257, 472, 320
-0.984651, 369, 193, 496, 256
-0.984679, 25, 193, 56, 256
-0.984697, 169, 1, 232, 64
-0.984755, 317, 1, 348, 64
-0.984773, 1, 265, 128, 328
-0.984775, 193, 97, 320, 160
-0.984828, 33, 65, 160, 128
-0.984843, 161, 1, 288, 64
-0.984854, 21, 17, 52, 80
-0.984861, 357, 1, 388, 64
-0.984912, 69, 1, 100, 128
-0.984935, 81, 57, 208, 120
-0.984985, 109, 81, 140, 208
-0.985027, 401, 193, 432, 320
-0.985051, 209, 121, 336, 184
-0.985082, 137, 241, 200, 304
-0.98509, 193, 169, 320, 232
-0.985168, 421, 33, 452, 160
-0.985241, 205, 169, 236, 232
-0.98525, 69, 1, 100, 64
-0.985312, 209, 1, 272, 128
-0.985368, 437, 57, 468, 120
-0.985411, 241, 1, 304, 64
-0.985424, 177, 297, 208, 360
-0.985461, 289, 57, 352, 120
-0.985492, 153, 1, 216, 256
-0.985505, 5, 177, 36, 240
-0.985511, 433, 1, 496, 375
-0.985527, 293, 177, 324, 304
-0.985538, 113, 97, 240, 160
-0.985554, 369, 257, 496, 320
-0.985594, 353, 1, 416, 375
-0.985629, 129, 169, 256, 232
-0.985636, 293, 201, 324, 264
-0.985655, 433, 241, 496, 304
-0.98566, 345, 161, 408, 288
-0.985725, 325, 25, 356, 88
-0.985734, 313, 1, 376, 375
-0.985761, 193, 1, 256, 64
-0.985767, 369, 105, 496, 168
-0.985777, 469, 177, 500, 304
-0.985794, 249, 177, 312, 240
-0.985801, 313, 217, 376, 280
-0.985849, 321, 257, 448, 320
-0.985883, 161, 49, 192, 112
-0.9859, 413, 41, 444, 104
-0.985926, 97, 177, 160, 304
-0.985952, 329, 1, 360, 128
-0.986007, 205, 81, 236, 208
-0.986038, 381, 1, 412, 128
-0.986083, 457, 209, 488, 336
-0.986113, 449, 113, 480, 176
-0.986117, 25, 177, 56, 304
-0.986151, 465, 41, 496, 104
-0.986188, 77, 57, 108, 120
-0.986197, 97, 33, 224, 96
-0.986262, 49, 273, 176, 336
-0.986271, 249, 121, 312, 184
-0.986286, 217, 121, 280, 184
-0.986289, 129, 129, 256, 192
-0.986297, 129, 241, 160, 304
-0.986347, 381, 225, 412, 288
-0.986379, 169, 129, 232, 375
-0.986421, 65, 289, 96, 352
-0.986441, 469, 1, 500, 128
-0.986442, 349, 241, 380, 304
-0.986513, 273, 129, 336, 375
-0.986564, 369, 233, 400, 296
-0.986587, 89, 1, 152, 375
-0.9866, 1, 313, 128, 375
-0.986612, 173, 241, 204, 368
-0.986715, 241, 289, 304, 352
-0.986725, 33, 1, 96, 375
-0.986733, 1, 1, 64, 375
-0.986747, 469, 129, 500, 256
-0.986784, 369, 241, 496, 368
-0.986788, 193, 289, 320, 352
-0.986813, 145, 265, 272, 328
-0.986843, 125, 281, 156, 344
-0.986851, 241, 225, 368, 288
-0.986927, 193, 145, 320, 208
-0.986962, 61, 241, 92, 368
-0.987006, 137, 33, 200, 160
-0.987013, 1, 241, 128, 304
-0.987039, 169, 1, 232, 375
-0.987051, 369, 57, 496, 120
-0.987068, 5, 297, 36, 360
-0.987079, 221, 89, 252, 152
-0.987139, 33, 297, 96, 360
-0.987152, 273, 313, 304, 375
-0.987164, 9, 41, 72, 104
-0.987223, 377, 241, 440, 368
-0.987244, 229, 289, 260, 352
-0.987247, 277, 177, 308, 304
-0.987255, 345, 1, 408, 256
-0.987318, 257, 81, 320, 144
-0.987489, 361, 257, 424, 320
-0.987533, 153, 113, 216, 240
-0.987561, 205, 305, 236, 368
-0.987605, 65, 89, 192, 152
-0.987645, 181, 273, 212, 336
-0.987656, 393, 65, 456, 320
-0.987725, 369, 169, 496, 232
-0.987809, 257, 25, 384, 88
-0.987897, 433, 97, 496, 160
-0.987951, 65, 137, 192, 200
-0.987974, 409, 1, 472, 375
-0.987979, 457, 145, 488, 208
-0.987996, 177, 113, 240, 176
-0.98806, 129, 65, 256, 128
-0.988121, 193, 209, 320, 272
-0.988173, 169, 257, 232, 320
-0.988231, 109, 1, 140, 128
-0.98825, 93, 81, 124, 144
-0.988315, 57, 9, 88, 72
-0.988361, 409, 201, 472, 264
-0.988366, 57, 129, 120, 375
-0.9884, 41, 233, 104, 296
-0.988437, 113, 225, 176, 288
-0.988487, 277, 193, 308, 256
-0.988493, 457, 217, 488, 280
-0.988537, 469, 257, 500, 320
-0.988578, 321, 1, 384, 256
-0.988607, 105, 65, 168, 128
-0.988617, 265, 25, 328, 88
-0.98867, 221, 81, 252, 208
-0.988679, 409, 137, 472, 200
-0.988704, 249, 1, 312, 375
-0.988706, 201, 161, 232, 288
-0.988728, 37, 177, 68, 304
-0.988757, 273, 105, 336, 168
-0.988775, 105, 9, 136, 72
-0.988776, 289, 1, 352, 375
-0.988803, 457, 9, 488, 72
-0.988858, 61, 33, 92, 96
-0.988867, 345, 225, 376, 352
-0.988882, 17, 225, 48, 352
-0.988929, 177, 57, 208, 120
-0.988947, 61, 233, 92, 296
-0.988962, 17, 65, 48, 128
-0.988963, 369, 209, 400, 336
-0.988968, 441, 65, 472, 192
-0.988984, 197, 73, 228, 136
-0.98902, 277, 1, 308, 64
-0.989048, 249, 1, 312, 256
-0.989073, 77, 273, 108, 336
-0.989089, 341, 1, 372, 128
-0.989154, 401, 193, 432, 256
-0.989239, 193, 17, 224, 144
-0.989242, 217, 329, 280, 360
-0.989303, 49, 193, 80, 320
-0.989314, 169, 289, 232, 320
-0.989314, 209, 309, 272, 340
-0.989341, 53, 201, 84, 264
-0.989385, 305, 177, 432, 240
-0.989423, 105, 317, 168, 348
-0.989424, 37, 193, 68, 256
-0.989445, 245, 289, 276, 352
-0.989464, 281, 345, 344, 375
-0.989525, 209, 81, 240, 144
-0.98959, 137, 301, 200, 332
-0.989609, 49, 145, 112, 272
-0.989617, 445, 209, 476, 336
-0.989654, 305, 1, 336, 64
-0.989678, 17, 41, 48, 104
-0.989686, 241, 341, 304, 372
-0.989699, 337, 241, 368, 304
-0.989724, 129, 137, 192, 200
-0.989727, 209, 341, 272, 372
-0.98973, 117, 129, 148, 192
-0.989733, 9, 197, 72, 228
-0.989763, 73, 93, 136, 124
-0.989768, 149, 41, 180, 104
-0.98977, 17, 9, 80, 40
-0.989786, 233, 177, 296, 304
-0.989801, 409, 37, 472, 68
-0.989802, 9, 129, 40, 256
-0.989868, 177, 301, 240, 332
-0.989902, 145, 317, 208, 348
-0.98991, 5, 17, 36, 144
-0.989912, 97, 305, 352, 368
-0.98994, 57, 33, 120, 64
-0.989941, 241, 321, 304, 352
-0.989946, 421, 193, 452, 320
-0.989989, 273, 333, 336, 364
-0.990003, 77, 201, 108, 264
-0.990025, 421, 73, 452, 136
-0.990074, 81, 161, 208, 224
-0.990081, 33, 17, 64, 144
-0.990082, 281, 161, 344, 224
-0.990095, 369, 145, 496, 208
-0.990109, 113, 277, 176, 308
-0.990128, 393, 17, 424, 80
-0.990183, 113, 241, 240, 304
-0.990213, 161, 89, 224, 152
-0.990215, 73, 265, 136, 296
-0.990219, 241, 177, 368, 240
-0.990227, 409, 53, 472, 84
-0.990239, 145, 61, 208, 92
-0.990266, 357, 209, 388, 336
-0.990279, 469, 217, 500, 280
-0.990299, 441, 9, 472, 72
-0.990321, 5, 49, 36, 112
-0.990323, 101, 129, 132, 192
-0.990341, 121, 337, 184, 368
-0.990348, 145, 1, 208, 375
-0.990355, 329, 25, 392, 56
-0.990356, 73, 77, 136, 108
-0.99039, 49, 85, 112, 116
-0.990405, 145, 25, 272, 88
-0.990414, 113, 41, 176, 72
-0.990421, 21, 65, 52, 192
-0.990446, 57, 21, 120, 52
-0.990471, 89, 237, 152, 268
-0.990471, 45, 17, 76, 144
-0.990471, 185, 177, 216, 304
-0.990471, 293, 225, 324, 352
-0.990473, 33, 73, 96, 104
-0.990482, 433, 29, 496, 60
-0.990491, 329, 225, 360, 352
-0.990497, 65, 57, 128, 88
-0.99051, 249, 1, 280, 64
-0.990516, 105, 145, 168, 208
-0.99054, 113, 305, 176, 336
-0.990554, 113, 245, 176, 276
-0.99058, 241, 289, 368, 352
-0.990606, 465, 65, 496, 192
-0.990607, 73, 253, 136, 284
-0.990624, 285, 1, 316, 128
-0.990695, 289, 1, 352, 32
-0.990699, 345, 1, 408, 32
-0.990702, 121, 1, 184, 375
-0.990716, 73, 289, 136, 320
-0.990738, 177, 313, 240, 344
-0.990754, 37, 89, 68, 152
-0.990764, 145, 269, 208, 300
-0.990782, 121, 289, 184, 320
-0.990785, 377, 169, 440, 232
-0.990785, 305, 345, 368, 375
-0.990792, 49, 1, 112, 32
-0.990804, 57, 105, 120, 136
-0.990814, 17, 21, 80, 52
-0.990829, 321, 49, 448, 112
-0.99083, 93, 201, 124, 264
-0.990837, 45, 1, 76, 64
-0.990853, 353, 81, 480, 144
-0.990855, 461, 185, 492, 248
-0.990856, 353, 29, 416, 60
-0.990858, 201, 93, 264, 124
-0.990866, 89, 305, 152, 336
-0.990889, 17, 249, 48, 312
-0.990912, 145, 289, 208, 320
-0.990913, 129, 217, 256, 280
-0.990932, 337, 209, 400, 272
-0.990935, 161, 77, 224, 108
-0.990956, 81, 325, 144, 356
-0.990976, 129, 257, 192, 288
-0.990989, 9, 33, 72, 64
-0.991012, 1, 209, 64, 240
-0.991044, 49, 97, 80, 224
-0.991064, 97, 293, 160, 324
-0.991065, 145, 341, 208, 372
-0.991074, 321, 209, 448, 272
-0.991086, 417, 125, 480, 156
-0.991091, 293, 313, 324, 375
-0.991098, 173, 161, 204, 288
-0.99111, 169, 329, 232, 360
-0.991122, 425, 269, 488, 300
-0.991125, 57, 277, 120, 308
-0.991142, 289, 233, 320, 296
-0.991143, 93, 249, 124, 312
-0.991149, 393, 209, 456, 240
-0.991167, 337, 241, 400, 272
-0.991171, 81, 21, 144, 52
-0.991174, 297, 97, 360, 352
-0.991174, 65, 45, 128, 76
-0.991186, 185, 341, 248, 372
-0.991192, 457, 1, 488, 128
-0.991193, 393, 265, 456, 296
-0.991198, 65, 221, 128, 252
-0.991202, 189, 241, 220, 368
-0.991219, 213, 1, 244, 128
-0.991244, 329, 13, 392, 44
-0.991244, 145, 329, 208, 360
-0.991264, 433, 65, 496, 96
-0.991273, 313, 1, 376, 32
-0.991273, 213, 273, 244, 336
-0.991275, 261, 113, 292, 240
-0.991299, 217, 109, 280, 140
-0.991303, 49, 113, 176, 176
-0.991317, 201, 297, 264, 328
-0.991341, 73, 121, 136, 184
-0.991345, 401, 49, 432, 112
-0.99136, 33, 97, 96, 128
-0.991382, 41, 49, 104, 80
-0.991395, 273, 33, 336, 288
-0.991426, 433, 153, 496, 184
-0.991437, 9, 49, 72, 80
-0.991442, 337, 25, 368, 88
-0.991451, 193, 1, 256, 375
-0.991451, 377, 1, 440, 375
-0.991461, 409, 109, 472, 140
-0.991464, 109, 257, 140, 320
-0.991468, 261, 1, 292, 128
-0.99147, 361, 201, 424, 264
-0.99148, 353, 17, 416, 48
-0.991486, 357, 25, 388, 88
-0.991491, 369, 281, 496, 344
-0.991504, 25, 61, 88, 92
-0.991504, 65, 313, 128, 344
-0.991548, 425, 197, 488, 228
-0.991552, 109, 33, 140, 96
-0.991552, 81, 33, 144, 64
-0.991554, 397, 257, 428, 320
-0.99156, 241, 309, 304, 340
-0.991571, 293, 1, 324, 64
-0.991602, 137, 33, 168, 96
-0.99161, 185, 173, 248, 204
-0.991611, 281, 197, 344, 228
-0.991611, 281, 213, 344, 244
-0.991629, 17, 281, 80, 312
-0.991637, 433, 53, 496, 84
-0.991649, 313, 45, 376, 76
-0.991651, 445, 113, 476, 240
-0.991652, 169, 277, 232, 308
-0.991652, 57, 301, 120, 332
-0.991653, 121, 53, 184, 84
-0.991662, 257, 313, 384, 375
-0.991668, 309, 161, 340, 288
-0.991683, 105, 265, 168, 296
-0.9917, 81, 109, 144, 140
-0.99171, 65, 345, 128, 375
-0.991725, 193, 329, 256, 360
-0.991726, 153, 33, 216, 64
-0.991728, 189, 177, 220, 240
-0.991728, 457, 273, 488, 336
-0.991736, 161, 181, 224, 212
-0.991744, 49, 245, 112, 276
-0.991748, 49, 209, 112, 240
-0.99175, 105, 29, 168, 60
-0.991785, 385, 41, 448, 72
-0.991788, 385, 21, 448, 52
-0.991807, 433, 137, 496, 168
-0.991815, 233, 121, 296, 152
-0.991821, 1, 181, 64, 212
-0.991826, 1, 345, 64, 375
-0.991837, 1, 185, 128, 248
-0.991851, 289, 241, 352, 272
-0.991856, 97, 341, 160, 372
-0.991865, 233, 97, 264, 160
-0.991874, 33, 37, 96, 68
-0.991878, 433, 17, 496, 48
-0.991889, 289, 41, 352, 72
-0.99189, 409, 97, 472, 128
-0.991901, 249, 197, 312, 228
-0.991904, 93, 1, 124, 64
-0.991927, 177, 9, 240, 40
-0.991929, 81, 9, 144, 40
-0.99193, 177, 25, 208, 88
-0.991942, 225, 1, 480, 64
-0.991954, 169, 161, 232, 192
-0.991967, 273, 57, 336, 88
-0.991968, 121, 17, 184, 80
-0.991968, 89, 65, 152, 96
-0.991973, 413, 257, 444, 320
-0.99199, 9, 89, 72, 120
-0.992002, 433, 185, 496, 216
-0.992017, 265, 109, 328, 140
-0.992022, 81, 185, 208, 248
-0.992029, 105, 129, 136, 256
-0.992031, 369, 229, 432, 260
-0.992064, 49, 233, 112, 264
-0.992069, 433, 165, 496, 196
-0.992075, 433, 81, 496, 112
-0.992086, 137, 21, 200, 52
-0.992095, 1, 317, 64, 348
-0.992099, 433, 41, 496, 72
-0.992117, 249, 209, 312, 240
-0.99214, 441, 185, 472, 248
-0.992154, 353, 1, 384, 128
-0.992188, 313, 49, 344, 176
-0.992215, 445, 161, 476, 288
-0.992228, 257, 97, 384, 160
-0.992238, 33, 281, 288, 344
-0.992249, 309, 345, 340, 375
-0.992268, 273, 97, 304, 224
-0.992313, 217, 301, 248, 332
-0.992317, 217, 73, 280, 136
-0.992324, 89, 233, 120, 264
-0.992333, 1, 209, 500, 272
-0.992341, 209, 265, 336, 328
-0.992346, 249, 313, 280, 344
-0.992354, 257, 49, 384, 112
-0.992362, 217, 193, 280, 256
-0.99241, 193, 57, 256, 120
-0.992416, 217, 341, 248, 372
-0.992419, 225, 1, 288, 256
-0.992459, 249, 325, 280, 356
-0.992471, 237, 309, 268, 340
-0.992503, 233, 325, 264, 356
-0.992528, 57, 185, 120, 248
-0.992534, 121, 313, 152, 344
-0.992553, 225, 313, 256, 344
-0.992562, 185, 145, 248, 208
-0.992574, 209, 73, 336, 136
-0.992582, 113, 237, 144, 268
-0.992605, 181, 1, 212, 128
-0.992617, 73, 217, 104, 248
-0.992621, 109, 313, 140, 344
-0.992623, 397, 145, 428, 272
-0.99263, 269, 329, 300, 360
-0.992664, 249, 341, 280, 372
-0.992668, 417, 41, 448, 72
-0.99267, 1, 65, 256, 128
-0.992671, 161, 53, 192, 84
-0.992672, 37, 81, 68, 208
-0.992695, 109, 301, 140, 332
-0.9927, 109, 325, 140, 356
-0.992712, 97, 253, 128, 284
-0.992713, 153, 321, 184, 352
-0.992715, 321, 1, 352, 32
-0.992733, 197, 289, 228, 320
-0.992743, 161, 285, 192, 316
-0.992745, 161, 301, 192, 332
-0.992756, 193, 81, 224, 112
-0.992765, 81, 81, 112, 112
-0.992767, 133, 313, 164, 344
-0.992767, 73, 1, 104, 32
-0.992769, 85, 29, 116, 60
-0.992771, 437, 37, 468, 68
-0.992775, 85, 245, 116, 276
-0.992784, 77, 261, 108, 292
-0.992785, 229, 337, 260, 368
-0.992812, 81, 93, 112, 124
-0.992813, 161, 161, 192, 288
-0.992818, 73, 229, 104, 260
-0.992821, 149, 289, 180, 320
-0.992831, 29, 197, 60, 228
-0.992835, 261, 317, 292, 348
-0.992835, 233, 225, 296, 352
-0.992837, 85, 221, 116, 252
-0.992839, 273, 341, 304, 372
-0.992858, 105, 341, 136, 372
-0.992861, 1, 265, 32, 296
-0.992866, 109, 117, 140, 148
-0.992871, 217, 329, 248, 360
-0.992872, 465, 149, 496, 180
-0.992878, 433, 57, 464, 88
-0.992879, 97, 293, 128, 324
-0.992883, 137, 329, 168, 360
-0.992885, 205, 241, 236, 368
-0.992886, 213, 145, 244, 272
-0.992887, 5, 209, 36, 240
-0.992892, 293, 337, 324, 368
-0.992897, 105, 273, 136, 304
-0.992905, 149, 301, 180, 332
-0.992905, 205, 301, 236, 332
-0.992914, 457, 33, 488, 64
-0.992916, 109, 289, 140, 320
-0.992922, 169, 65, 200, 96
-0.992923, 145, 257, 176, 288
-0.992923, 1, 237, 32, 268
-0.992931, 73, 245, 104, 276
-0.992936, 181, 73, 212, 104
-0.992937, 445, 49, 476, 80
-0.992937, 89, 49, 120, 80
-0.992939, 93, 73, 124, 104
-0.99294, 9, 185, 40, 216
-0.992941, 329, 33, 360, 64
-0.992942, 341, 5, 372, 36
-0.992943, 25, 1, 56, 32
-0.992944, 269, 121, 300, 152
-0.992957, 469, 29, 500, 60
-0.992957, 97, 117, 128, 148
-0.992957, 261, 341, 292, 372
-0.99296, 453, 65, 484, 96
-0.992962, 405, 45, 436, 76
-0.992966, 121, 277, 152, 308
-0.992967, 165, 317, 196, 348
-0.992967, 321, 345, 352, 375
-0.992968, 469, 45, 500, 76
-0.992969, 205, 173, 236, 204
-0.992971, 9, 197, 40, 228
-0.992975, 1, 233, 500, 296
-0.99298, 273, 129, 336, 192
-0.992981, 205, 89, 236, 120
-0.992983, 217, 1, 280, 375
-0.992986, 1, 277, 32, 308
-0.992987, 77, 17, 108, 48
-0.992987, 121, 325, 152, 356
-0.992995, 437, 73, 468, 104
-0.993001, 97, 89, 128, 120
-0.993001, 77, 61, 108, 92
-0.993002, 181, 293, 212, 324
-0.993002, 169, 269, 200, 300
-0.993004, 153, 337, 184, 368
-0.993007, 349, 245, 380, 276
-0.993009, 209, 289, 240, 320
-0.993009, 125, 337, 156, 368
-0.99301, 69, 37, 100, 68
-0.99301, 117, 261, 148, 292
-0.993011, 341, 17, 372, 48
-0.99302, 5, 225, 36, 256
-0.993023, 437, 89, 468, 120
-0.993023, 381, 17, 412, 48
-0.993032, 329, 129, 392, 375
-0.993032, 57, 1, 88, 32
-0.993035, 413, 57, 444, 88
-0.993039, 393, 41, 424, 72
-0.993039, 65, 285, 96, 316
-0.993044, 149, 45, 180, 76
-0.993045, 437, 105, 468, 136
-0.993047, 321, 45, 352, 76
-0.993048, 17, 37, 48, 68
-0.993048, 53, 205, 84, 236
-0.993062, 133, 245, 164, 276
-0.993063, 97, 305, 128, 336
-0.993074, 369, 129, 432, 375
-0.993075, 141, 269, 172, 300
-0.993076, 93, 277, 124, 308
-0.993078, 217, 89, 248, 120
-0.993079, 465, 133, 496, 164
-0.993083, 1, 289, 32, 320
-0.993086, 89, 61, 120, 92
-0.993095, 109, 105, 140, 136
-0.993102, 93, 345, 124, 375
-0.993103, 457, 201, 488, 232
-0.99311, 61, 257, 92, 288
-0.993111, 1, 253, 32, 284
-0.993113, 1, 325, 32, 356
-0.993113, 365, 237, 396, 268
-0.993115, 1, 305, 256, 368
-0.993117, 89, 321, 120, 352
-0.993117, 65, 13, 96, 44
-0.993119, 73, 49, 104, 80
-0.993119, 425, 81, 456, 208
-0.993121, 357, 25, 388, 56
-0.993127, 465, 17, 496, 48
-0.993127, 393, 265, 424, 296
-0.993128, 97, 13, 128, 44
-0.993187, 65, 209, 192, 272
-0.993251, 233, 241, 264, 368
-0.993264, 225, 1, 256, 128
-0.993276, 177, 49, 304, 112
-0.99348, 1, 249, 256, 312
-0.993625, 85, 161, 116, 288
-0.993634, 165, 33, 196, 160
-0.993658, 325, 49, 356, 176
-0.993689, 137, 145, 168, 272
-0.993713, 129, 233, 384, 296
-0.993731, 429, 241, 460, 368
-0.993745, 57, 145, 88, 272
-0.99376, 145, 305, 272, 336
-0.993778, 393, 1, 424, 128
-0.99388, 65, 89, 320, 152
-0.993909, 125, 145, 156, 272
-0.993926, 169, 297, 184, 360
-0.993942, 257, 201, 500, 264
-0.993965, 233, 81, 264, 208
-0.993972, 65, 65, 96, 192
-0.994057, 227, 297, 242, 360
-0.994074, 313, 209, 344, 336
-0.994103, 87, 217, 102, 280
-0.994116, 263, 313, 278, 375
-0.99418, 129, 145, 384, 208
-0.994349, 9, 297, 24, 360
-0.994357, 243, 313, 258, 375
-0.994363, 145, 193, 176, 320
-0.994373, 257, 49, 500, 112
-0.994375, 385, 161, 416, 288
-0.994392, 241, 153, 368, 216
-0.994422, 109, 177, 140, 304
-0.994447, 1, 41, 256, 104
-0.994449, 405, 241, 436, 368
-0.994461, 225, 129, 288, 256
-0.994463, 121, 81, 152, 208
-0.994466, 225, 129, 256, 256
-0.994485, 157, 113, 188, 240
-0.994533, 97, 209, 352, 272
-0.994538, 161, 289, 176, 352
-0.994577, 249, 305, 264, 368
-0.994584, 1, 1, 500, 64
-0.9946, 129, 293, 256, 324
-0.994606, 83, 241, 98, 304
-0.994615, 289, 145, 416, 208
-0.994637, 305, 313, 432, 375
-0.994667, 99, 225, 114, 288
-0.994671, 329, 177, 360, 304
-0.99475, 129, 121, 384, 184
-0.994753, 217, 241, 248, 368
-0.994802, 129, 317, 256, 348
-0.994802, 129, 1, 384, 64
-0.994823, 161, 241, 288, 304
-0.994867, 257, 225, 500, 288
-0.994875, 225, 341, 352, 372
-0.994876, 409, 17, 440, 144
-0.994901, 1, 161, 256, 224
-0.99492, 129, 169, 384, 232
-0.994933, 255, 313, 270, 375
-0.994939, 273, 257, 400, 320
-0.994973, 257, 97, 500, 160
-0.994984, 89, 1, 104, 64
-0.995068, 49, 245, 176, 276
-0.995083, 1, 37, 128, 68
-0.99511, 201, 177, 264, 304
-0.995123, 257, 177, 500, 240
-0.995127, 179, 297, 194, 360
-0.995148, 193, 257, 448, 320
-0.995161, 457, 33, 472, 96
-0.99519, 17, 153, 144, 216
-0.995224, 89, 241, 104, 304
-0.995225, 221, 297, 236, 360
-0.995232, 193, 305, 448, 368
-0.995248, 97, 277, 224, 308
-0.995271, 285, 129, 316, 256
-0.995276, 1, 25, 128, 56
-0.995287, 17, 229, 144, 260
-0.995313, 1, 225, 256, 288
-0.995328, 257, 25, 500, 88
-0.995329, 483, 153, 498, 216
-0.995332, 105, 73, 120, 136
-0.995338, 81, 209, 96, 272
-0.995359, 441, 33, 456, 96
-0.995365, 97, 25, 112, 88
-0.995372, 167, 273, 182, 336
-0.995387, 81, 337, 208, 368
-0.995395, 305, 1, 432, 32
-0.995395, 193, 325, 320, 356
-0.995395, 97, 265, 224, 296
-0.995409, 433, 193, 464, 320
-0.995419, 1, 169, 16, 232
-0.995426, 145, 337, 272, 368
-0.995433, 433, 129, 464, 256
-0.99544, 145, 17, 176, 144
-0.99545, 111, 273, 126, 336
-0.995465, 257, 121, 384, 184
-0.995474, 129, 305, 144, 368
-0.995483, 1, 49, 500, 112
-0.995489, 1, 273, 16, 336
-0.995492, 97, 305, 224, 336
-0.995495, 281, 225, 312, 352
-0.995514, 305, 33, 432, 64
-0.995516, 65, 325, 192, 356
-0.995532, 417, 241, 448, 368
-0.995537, 369, 1, 432, 256
-0.995596, 345, 1, 360, 64
-0.995599, 111, 233, 126, 296
-0.99561, 1, 9, 128, 40
-0.995615, 475, 145, 490, 208
-0.995622, 117, 265, 132, 328
-0.995647, 93, 217, 108, 280
-0.995662, 77, 257, 92, 320
-0.995688, 469, 225, 500, 352
-0.995692, 351, 1, 366, 64
-0.995705, 159, 249, 174, 312
-0.995723, 431, 33, 446, 96
-0.995727, 85, 57, 100, 120
-0.995736, 109, 97, 124, 160
-0.995738, 71, 281, 86, 344
-0.995738, 121, 313, 136, 375
-0.995753, 241, 9, 368, 40
-0.99576, 233, 313, 248, 375
-0.995771, 1, 185, 500, 248
-0.995784, 245, 97, 276, 224
-0.995799, 289, 49, 320, 176
-0.995829, 71, 1, 86, 64
-0.995843, 369, 209, 496, 240
-0.995844, 117, 233, 132, 296
-0.995869, 33, 113, 288, 176
-0.995876, 257, 73, 384, 136
-0.995877, 129, 281, 384, 344
-0.995888, 369, 41, 496, 72
-0.995924, 147, 313, 162, 375
-0.995933, 75, 209, 90, 272
-0.995938, 209, 25, 336, 88
-0.995941, 77, 25, 92, 88
-0.995954, 451, 25, 466, 88
-0.995972, 1, 257, 500, 320
-0.995977, 113, 305, 128, 368
-0.995991, 353, 313, 480, 375
-0.996011, 1, 81, 500, 144
-0.996015, 103, 49, 118, 112
-0.99603, 273, 221, 400, 252
-0.996034, 141, 305, 156, 368
-0.99604, 273, 345, 400, 375
-0.996046, 101, 281, 116, 344
-0.996096, 129, 49, 384, 112
-0.996104, 239, 289, 254, 352
-0.996104, 1, 293, 128, 324
-0.996117, 103, 305, 118, 368
-0.996128, 369, 1, 496, 32
-0.996134, 101, 249, 116, 312
-0.996137, 151, 249, 166, 312
-0.996161, 3, 313, 18, 375
-0.996162, 83, 1, 98, 64
-0.996188, 391, 9, 406, 72
-0.996189, 463, 33, 478, 96
-0.996193, 425, 33, 440, 96
-0.9962, 483, 129, 498, 192
-0.996208, 157, 313, 172, 375
-0.996218, 123, 289, 138, 352
-0.99622, 353, 53, 480, 84
-0.99623, 95, 1, 110, 64
-0.996232, 333, 1, 348, 64
-0.996237, 73, 65, 88, 128
-0.996242, 65, 29, 192, 60
-0.996243, 153, 289, 168, 352
-0.996243, 193, 97, 224, 224
-0.996243, 409, 113, 440, 240
-0.996249, 173, 265, 188, 328
-0.996254, 33, 185, 288, 248
-0.996254, 97, 257, 352, 320
-0.996284, 181, 113, 212, 240
-0.996291, 329, 33, 344, 96
-0.996301, 145, 241, 160, 304
-0.996308, 285, 313, 300, 375
-0.99631, 77, 233, 92, 296
-0.996312, 57, 1, 88, 256
-0.996323, 225, 281, 480, 344
-0.996334, 11, 273, 26, 336
-0.996341, 447, 57, 462, 120
-0.996346, 193, 313, 320, 344
-0.99635, 97, 13, 224, 44
-0.996357, 419, 33, 434, 96
-0.996361, 179, 265, 194, 328
-0.996363, 91, 65, 106, 128
-0.996375, 273, 313, 288, 375
-0.996382, 335, 25, 350, 88
-0.996385, 365, 17, 396, 144
-0.996396, 135, 305, 150, 368
-0.996412, 447, 89, 462, 152
-0.996426, 297, 129, 328, 256
-0.99643, 27, 1, 42, 64
-0.996454, 19, 33, 34, 96
-0.996462, 17, 217, 144, 248
-0.996462, 469, 25, 484, 88
-0.996462, 163, 313, 178, 375
-0.996482, 249, 1, 280, 128
-0.996495, 65, 233, 192, 264
-0.9965, 391, 225, 406, 288
-0.996529, 1, 273, 128, 304
-0.996534, 27, 193, 42, 256
-0.996539, 185, 305, 200, 368
-0.996553, 115, 113, 130, 176
-0.996557, 369, 13, 496, 44
-0.99656, 257, 21, 384, 52
-0.996562, 383, 1, 398, 64
-0.996564, 357, 1, 372, 64
-0.996573, 193, 113, 320, 144
-0.996594, 107, 1, 122, 64
-0.996594, 1, 1, 256, 64
-0.996602, 1, 289, 500, 352
-0.996631, 341, 25, 356, 88
-0.996645, 481, 17, 496, 80
-0.99665, 33, 93, 160, 124
-0.996669, 305, 17, 432, 48
-0.996669, 97, 61, 224, 92
-0.996678, 369, 265, 496, 296
-0.996678, 127, 233, 142, 296
-0.996679, 295, 201, 310, 264
-0.99668, 177, 289, 304, 320
-0.996682, 161, 25, 416, 88
-0.996696, 65, 289, 192, 320
-0.996696, 479, 241, 494, 304
-0.996697, 453, 81, 468, 144
-0.996701, 351, 241, 366, 304
-0.996704, 215, 289, 230, 352
-0.996706, 209, 281, 224, 344
-0.99671, 369, 117, 496, 148
-0.996711, 1, 261, 128, 292
-0.996714, 181, 41, 196, 104
-0.996719, 49, 41, 176, 72
-0.996722, 17, 73, 144, 104
-0.996723, 289, 97, 416, 224
-0.996736, 453, 33, 484, 288
-0.99675, 49, 301, 176, 332
-0.99675, 221, 89, 236, 152
-0.996754, 15, 297, 30, 360
-0.996758, 385, 225, 400, 288
-0.996781, 457, 57, 472, 120
-0.996786, 57, 97, 88, 352
-0.99679, 1, 313, 128, 344
-0.996803, 123, 265, 138, 328
-0.996827, 113, 73, 240, 104
-0.996832, 459, 121, 474, 184
-0.996832, 369, 1, 384, 64
-0.996835, 339, 1, 354, 64
-0.996843, 471, 265, 486, 328
-0.996846, 441, 81, 456, 144
-0.996862, 323, 1, 338, 64
-0.996866, 207, 169, 222, 232
-0.996872, 189, 273, 204, 336
-0.996877, 431, 57, 446, 120
-0.996881, 257, 233, 384, 264
-0.996895, 49, 193, 64, 256
-0.996902, 11, 201, 26, 264
-0.996912, 161, 165, 288, 196
-0.996913, 129, 153, 256, 184
-0.996926, 133, 241, 148, 304
-0.996935, 97, 81, 112, 144
-0.996938, 77, 1, 108, 256
-0.996964, 305, 241, 432, 272
-0.996967, 105, 65, 136, 320
-0.996982, 81, 121, 208, 152
-0.996984, 103, 113, 118, 176
-0.99699, 5, 249, 20, 312
-0.997003, 105, 225, 120, 288
-0.997013, 485, 249, 500, 312
-0.997019, 369, 221, 496, 252
-0.997021, 111, 33, 126, 96
-0.997033, 377, 1, 392, 64
-0.997035, 193, 101, 320, 132
-0.997036, 21, 9, 36, 72
-0.997039, 121, 97, 136, 160
-0.99705, 33, 345, 160, 375
-0.997053, 113, 105, 240, 136
-0.997056, 257, 153, 500, 216
-0.99706, 193, 301, 320, 332
-0.997061, 117, 65, 132, 128
-0.997062, 371, 233, 386, 296
-0.997064, 9, 225, 24, 288
-0.997064, 1, 113, 500, 176
-0.997064, 321, 281, 448, 344
-0.997066, 99, 229, 114, 260
-0.997079, 209, 133, 336, 164
-0.99708, 241, 329, 368, 360
-0.997094, 1, 49, 128, 80
-0.997099, 1, 249, 128, 280
-0.997107, 265, 177, 296, 304
-0.997107, 97, 253, 224, 284
-0.997111, 233, 337, 248, 368
-0.997124, 345, 177, 376, 304
-0.997133, 263, 317, 278, 348
-0.997136, 111, 117, 126, 148
-0.997148, 87, 245, 102, 276
-0.997154, 469, 1, 500, 256
-0.997183, 87, 221, 102, 252
-0.99719, 109, 245, 124, 276
-0.997202, 161, 1, 288, 32
-0.997207, 97, 49, 224, 80
-0.997222, 353, 25, 480, 56
-0.997235, 369, 197, 496, 228
-0.997247, 1, 25, 500, 88
-0.99725, 227, 301, 242, 332
-0.997252, 269, 49, 300, 176
-0.997257, 49, 313, 176, 344
-0.997261, 249, 309, 264, 340
-0.997281, 127, 305, 142, 336
-0.997286, 17, 205, 144, 236
-0.997289, 93, 33, 124, 288
-0.99729, 249, 241, 280, 368
-0.997298, 9, 301, 24, 332
-0.997303, 49, 17, 176, 48
-0.997305, 255, 309, 270, 340
-0.997314, 49, 257, 176, 288
-0.997319, 239, 325, 254, 356
-0.997322, 111, 261, 126, 292
-0.997337, 369, 129, 496, 160
-0.997361, 93, 233, 108, 264
-0.99737, 7, 317, 22, 348
-0.997376, 353, 81, 480, 112
-0.997378, 305, 45, 432, 76
-0.997388, 129, 141, 256, 172
-0.997388, 257, 121, 500, 184
-0.997388, 193, 13, 320, 44
-0.997413, 273, 209, 400, 240
-0.997416, 437, 1, 468, 256
-0.99742, 145, 85, 272, 116
-0.997426, 73, 145, 104, 272
-0.997426, 269, 241, 300, 368
-0.99743, 219, 293, 234, 324
-0.997435, 1, 61, 128, 92
-0.997455, 149, 65, 180, 192
-0.997455, 305, 253, 432, 284
-0.997472, 117, 293, 132, 324
-0.997477, 321, 341, 336, 372
-0.997485, 273, 1, 304, 128
-0.99749, 257, 73, 500, 136
-0.997494, 245, 325, 260, 356
-0.9975, 17, 105, 144, 136
-0.997511, 257, 33, 384, 64
-0.997528, 33, 33, 64, 288
-0.997529, 171, 305, 186, 336
-0.997559, 117, 265, 132, 296
-0.997559, 97, 1, 224, 32
-0.997571, 273, 329, 288, 360
-0.997581, 81, 165, 208, 196
-0.997583, 161, 177, 288, 208
-0.997584, 83, 257, 98, 288
-0.997596, 257, 249, 384, 280
-0.997602, 305, 121, 432, 184
-0.997607, 87, 233, 102, 264
-0.997611, 49, 53, 176, 84
-0.997616, 239, 313, 254, 344
-0.997622, 33, 129, 64, 256
-0.997631, 81, 133, 208, 164
-0.997636, 119, 277, 134, 308
-0.997642, 17, 329, 144, 360
-0.997643, 321, 229, 448, 260
-0.997655, 369, 65, 496, 96
-0.997655, 129, 193, 256, 256
-0.997668, 287, 329, 302, 360
-0.99768, 425, 1, 456, 256
-0.997685, 7, 329, 22, 360
-0.997686, 229, 321, 244, 352
-0.997689, 111, 277, 126, 308
-0.997692, 121, 309, 136, 340
-0.997694, 117, 233, 132, 264
-0.997705, 485, 153, 500, 184
-0.997705, 241, 317, 368, 348
-0.997706, 21, 65, 52, 320
-0.997707, 369, 253, 496, 284
-0.99771, 193, 217, 320, 248
-0.997728, 161, 285, 176, 316
-0.997728, 417, 45, 432, 76
-0.99773, 281, 325, 296, 356
-0.997739, 313, 345, 328, 375
-0.997744, 177, 309, 192, 340
-0.997754, 171, 317, 186, 348
-0.997757, 45, 65, 76, 320
-0.99776, 221, 333, 236, 364
-0.99776, 255, 321, 270, 352
-0.997763, 321, 209, 448, 240
-0.997776, 439, 89, 454, 120
-0.997779, 145, 117, 272, 148
-0.997791, 87, 1, 102, 32
-0.997791, 265, 341, 280, 372
-0.997806, 65, 217, 192, 248
-0.99782, 9, 33, 40, 288
-0.997837, 163, 301, 178, 332
-0.997845, 145, 129, 176, 375
-0.997846, 169, 285, 184, 316
-0.997856, 129, 25, 256, 56
-0.997857, 469, 137, 484, 168
-0.997864, 7, 341, 22, 372
-0.997864, 193, 153, 320, 184
-0.997865, 113, 313, 128, 344
-0.997867, 161, 129, 192, 375
-0.997869, 97, 29, 112, 60
-0.997873, 1, 285, 16, 316
-0.997873, 113, 177, 240, 208
-0.997873, 447, 77, 462, 108
-0.997887, 321, 265, 448, 296
-0.99789, 241, 337, 256, 368
-0.997891, 29, 1, 44, 32
-0.997893, 305, 81, 432, 144
-0.997909, 75, 213, 90, 244
-0.997911, 143, 313, 158, 344
-0.997913, 111, 289, 126, 320
-0.997928, 81, 245, 96, 276
-0.997929, 209, 229, 336, 260
-0.997936, 241, 113, 368, 144
-0.99794, 11, 289, 26, 320
-0.997944, 71, 281, 86, 312
-0.997948, 81, 93, 208, 124
-0.997954, 77, 265, 92, 296
-0.997954, 227, 337, 242, 368
-0.997959, 441, 97, 472, 352
-0.997965, 213, 289, 228, 320
-0.997969, 1, 137, 256, 200
-0.997973, 477, 149, 492, 180
-0.997979, 461, 129, 492, 375
-0.997983, 209, 165, 336, 196
-0.997987, 219, 305, 234, 336
-0.997993, 485, 169, 500, 200
-0.998, 353, 277, 480, 308
-0.998001, 433, 81, 448, 112
-0.998001, 177, 321, 192, 352
-0.998007, 209, 129, 240, 375
-0.99801, 177, 277, 304, 308
-0.99801, 425, 41, 440, 72
-0.998012, 481, 21, 496, 52
-0.998017, 123, 293, 138, 324
-0.998017, 49, 273, 176, 304
-0.998018, 105, 269, 120, 300
-0.998039, 193, 277, 208, 308
-0.99804, 421, 57, 436, 88
-0.998049, 27, 13, 42, 44
-0.998053, 207, 81, 222, 112
-0.998054, 91, 13, 106, 44
-0.998054, 165, 53, 180, 84
-0.998054, 241, 193, 368, 224
-0.998059, 223, 321, 238, 352
-0.998072, 329, 345, 344, 375
-0.998074, 441, 37, 456, 68
-0.998075, 183, 313, 198, 344
-0.998082, 137, 313, 152, 344
-0.998082, 281, 121, 296, 152
-0.998091, 3, 181, 18, 212
-0.998093, 109, 233, 124, 264
-0.998094, 29, 197, 44, 228
-0.998095, 185, 1, 216, 256
-0.998096, 147, 329, 162, 360
-0.998101, 193, 193, 320, 224
-0.998107, 129, 337, 144, 368
-0.998114, 161, 129, 288, 160
-0.998116, 459, 49, 474, 80
-0.998117, 435, 37, 450, 68
-0.998119, 13, 313, 28, 344
-0.998127, 369, 173, 496, 204
-0.998128, 257, 45, 384, 76
-0.998128, 93, 221, 108, 252
-0.998133, 103, 325, 118, 356
-0.998133, 353, 97, 480, 128
-0.998135, 185, 301, 200, 332
-0.998142, 451, 37, 466, 68
-0.998145, 251, 333, 266, 364
-0.998146, 433, 57, 448, 88
-0.998146, 157, 321, 172, 352
-0.998146, 241, 305, 368, 336
-0.998147, 177, 337, 192, 368
-0.998148, 119, 321, 134, 352
-0.998148, 177, 61, 192, 92
-0.998151, 93, 129, 124, 375
-0.998154, 133, 129, 164, 375
-0.998155, 111, 301, 126, 332
-0.998158, 209, 1, 240, 256
-0.998161, 103, 297, 118, 328
-0.998164, 189, 69, 204, 100
-0.998164, 273, 117, 288, 148
-0.998165, 149, 249, 164, 280
-0.998165, 447, 101, 462, 132
-0.998171, 127, 321, 142, 352
-0.998173, 65, 77, 192, 108
-0.998179, 393, 21, 408, 52
-0.998179, 103, 117, 118, 148
-0.998179, 1, 333, 16, 364
-0.998181, 369, 185, 496, 216
-0.998182, 107, 93, 122, 124
-0.998182, 481, 33, 496, 64
-0.998183, 81, 225, 96, 256
-0.998184, 427, 57, 442, 88
-0.998186, 471, 273, 486, 304
-0.998194, 33, 117, 160, 148
-0.998199, 195, 73, 210, 104
-0.9982, 233, 301, 248, 332
-0.998202, 353, 241, 480, 272
-0.998207, 81, 93, 96, 124
-0.998208, 103, 285, 118, 316
-0.998216, 99, 341, 114, 372
-0.998217, 183, 65, 198, 96
-0.998219, 287, 125, 302, 156
-0.998219, 219, 345, 234, 375
-0.998225, 333, 37, 348, 68
-0.998226, 333, 1, 348, 32
-0.998229, 171, 57, 186, 88
-0.99823, 411, 45, 426, 76
-0.998238, 177, 65, 304, 96
-0.998251, 33, 133, 160, 164
-0.998264, 65, 105, 192, 136
-0.998269, 145, 45, 272, 76
-0.99827, 277, 129, 308, 375
-0.99829, 289, 197, 416, 228
-0.998314, 305, 129, 336, 375
-0.998338, 1, 129, 32, 375
-0.998377, 193, 97, 224, 352
-0.998401, 161, 57, 192, 72
-0.998401, 149, 305, 180, 320
-0.998401, 425, 41, 456, 56
-0.998402, 77, 261, 108, 276
-0.998402, 105, 273, 136, 288
-0.998402, 73, 63, 104, 78
-0.998402, 121, 305, 152, 320
-0.998402, 1, 253, 32, 268
-0.998403, 381, 23, 412, 38
-0.998403, 361, 27, 392, 42
-0.998403, 97, 121, 128, 136
-0.998404, 73, 251, 104, 266
-0.998404, 81, 105, 112, 120
-0.998405, 109, 123, 140, 138
-0.998405, 81, 31, 112, 46
-0.998405, 437, 277, 468, 292
-0.998406, 97, 255, 128, 270
-0.998407, 77, 267, 108, 282
-0.998407, 113, 361, 144, 375
-0.998408, 349, 245, 380, 260
-0.998408, 341, 9, 372, 24
-0.998409, 1, 293, 32, 308
-0.998409, 229, 361, 260, 375
-0.998409, 249, 339, 280, 354
-0.99841, 97, 95, 128, 110
-0.99841, 265, 323, 296, 338
-0.99841, 129, 281, 160, 296
-0.998411, 433, 73, 464, 88
-0.998412, 217, 355, 248, 370
-0.998412, 77, 15, 108, 30
-0.998412, 173, 317, 204, 332
-0.998413, 109, 291, 140, 306
-0.998413, 1, 241, 32, 256
-0.998413, 97, 291, 128, 306
-0.998413, 97, 281, 128, 296
-0.998414, 5, 221, 36, 236
-0.998414, 149, 257, 180, 272
-0.998414, 293, 335, 324, 350
-0.998415, 97, 297, 128, 312
-0.998416, 233, 315, 264, 330
-0.998417, 81, 87, 112, 102
-0.998419, 61, 9, 92, 24
-0.99842, 109, 323, 140, 338
-0.99842, 205, 295, 236, 310
-0.998421, 161, 307, 192, 322
-0.998423, 141, 317, 172, 332
-0.998423, 109, 331, 140, 346
-0.998424, 325, 349, 356, 364
-0.998424, 217, 335, 248, 350
-0.998424, 289, 361, 320, 375
-0.998427, 77, 227, 108, 242
-0.998428, 305, 361, 336, 375
-0.998428, 89, 67, 120, 82
-0.998429, 109, 349, 140, 364
-0.998429, 225, 177, 352, 208
-0.998429, 249, 351, 280, 366
-0.99843, 93, 355, 124, 370
-0.99843, 93, 75, 124, 90
-0.998431, 97, 267, 128, 282
-0.998432, 353, 357, 384, 372
-0.998432, 121, 325, 152, 340
-0.998433, 161, 331, 192, 346
-0.998433, 1, 247, 32, 262
-0.998433, 9, 199, 40, 214
-0.998434, 437, 79, 468, 94
-0.998434, 197, 289, 228, 304
-0.998434, 133, 331, 164, 346
-0.998435, 321, 3, 352, 18
-0.998435, 273, 343, 304, 358
-0.998437, 273, 349, 304, 364
-0.998437, 465, 141, 496, 156
-0.998438, 465, 149, 496, 164
-0.998439, 97, 361, 128, 375
-0.998442, 161, 315, 192, 330
-0.998442, 241, 321, 272, 336
-0.998443, 453, 69, 484, 84
-0.998444, 161, 63, 192, 78
-0.998444, 233, 341, 264, 356
-0.998445, 293, 345, 324, 360
-0.998445, 5, 215, 36, 230
-0.998446, 145, 287, 176, 302
-0.998447, 93, 237, 124, 252
-0.998448, 269, 361, 300, 375
-0.998448, 257, 359, 288, 374
-0.998448, 109, 355, 140, 370
-0.99845, 109, 117, 140, 132
-0.998451, 161, 297, 192, 312
-0.998452, 149, 297, 180, 312
-0.998453, 421, 57, 452, 72
-0.998453, 321, 345, 448, 375
-0.998453, 73, 217, 104, 232
-0.998455, 81, 95, 112, 110
-0.998455, 457, 273, 488, 288
-0.998456, 5, 209, 36, 224
-0.998457, 269, 355, 300, 370
-0.998458, 161, 289, 192, 304
-0.99846, 269, 337, 300, 352
-0.998461, 117, 275, 148, 290
-0.998461, 273, 349, 336, 364
-0.998462, 205, 301, 236, 316
-0.998463, 221, 1, 252, 256
-0.998464, 273, 343, 336, 358
-0.998465, 17, 201, 80, 216
-0.998466, 261, 345, 292, 360
-0.998467, 217, 313, 280, 328
-0.998468, 217, 297, 248, 312
-0.998469, 233, 335, 264, 350
-0.998469, 109, 297, 140, 312
-0.99847, 161, 323, 192, 338
-0.998472, 369, 161, 496, 192
-0.998475, 17, 17, 80, 32
-0.998477, 237, 309, 268, 324
-0.998478, 93, 245, 124, 260
-0.998478, 273, 359, 336, 374
-0.998479, 229, 347, 260, 362
-0.99848, 273, 127, 304, 142
-0.99848, 221, 313, 252, 328
-0.998481, 125, 319, 156, 334
-0.998482, 145, 13, 272, 44
-0.998483, 81, 153, 208, 184
-0.998484, 109, 305, 140, 320
-0.998485, 253, 329, 284, 344
-0.998485, 49, 5, 176, 36
-0.998487, 137, 307, 200, 322
-0.998487, 325, 357, 356, 372
-0.998487, 225, 321, 256, 336
-0.998487, 233, 339, 296, 354
-0.998488, 217, 333, 280, 348
-0.998489, 241, 325, 304, 340
-0.99849, 161, 97, 416, 160
-0.998492, 141, 1, 172, 256
-0.998492, 77, 97, 108, 352
-0.998495, 29, 199, 60, 214
-0.998498, 69, 1, 100, 16
-0.998503, 85, 251, 116, 266
-0.998504, 249, 345, 280, 360
-0.998504, 161, 73, 416, 136
-0.998509, 65, 105, 128, 120
-0.998511, 309, 343, 340, 358
-0.998511, 233, 327, 264, 342
-0.998511, 245, 315, 276, 330
-0.998511, 121, 301, 184, 316
-0.998513, 57, 35, 120, 50
-0.998513, 209, 345, 272, 360
-0.998514, 113, 319, 176, 334
-0.998514, 113, 237, 144, 252
-0.998519, 217, 343, 248, 358
-0.99852, 241, 357, 304, 372
-0.99852, 97, 311, 160, 326
-0.998521, 109, 317, 140, 332
-0.998522, 217, 327, 280, 342
-0.998523, 329, 27, 392, 42
-0.998525, 73, 97, 136, 112
-0.998525, 241, 333, 304, 348
-0.998529, 309, 353, 340, 368
-0.998531, 217, 361, 280, 375
-0.998531, 177, 313, 240, 328
-0.998531, 297, 353, 360, 368
-0.998533, 269, 329, 300, 344
-0.998535, 177, 303, 240, 318
-0.998536, 113, 281, 176, 296
-0.998538, 261, 119, 292, 134
-0.998538, 49, 11, 112, 26
-0.998543, 129, 313, 192, 328
-0.998544, 49, 99, 112, 114
-0.998548, 65, 71, 128, 86
-0.998548, 425, 277, 488, 292
-0.998548, 233, 347, 296, 362
-0.998549, 197, 1, 228, 256
-0.998549, 409, 43, 472, 58
-0.998551, 73, 291, 136, 306
-0.998552, 265, 337, 328, 352
-0.998552, 89, 241, 152, 256
-0.998556, 57, 41, 120, 56
-0.998556, 109, 311, 140, 326
-0.998557, 121, 337, 184, 352
-0.998557, 17, 11, 80, 26
-0.998557, 17, 207, 80, 222
-0.998559, 65, 63, 128, 78
-0.99856, 73, 91, 136, 106
-0.99856, 169, 289, 232, 304
-0.998561, 209, 321, 272, 336
-0.998563, 25, 5, 88, 20
-0.998563, 57, 111, 120, 126
-0.998564, 225, 117, 288, 132
-0.998565, 125, 313, 156, 328
-0.998566, 89, 317, 152, 332
-0.998567, 217, 303, 248, 318
-0.998568, 297, 5, 360, 20
-0.998569, 49, 5, 112, 20
-0.998569, 73, 81, 136, 96
-0.998571, 17, 23, 80, 38
-0.998572, 161, 295, 224, 310
-0.998572, 345, 33, 408, 48
-0.998574, 137, 321, 200, 336
-0.998574, 201, 307, 264, 322
-0.998575, 113, 289, 176, 304
-0.998576, 65, 47, 128, 62
-0.998578, 93, 231, 124, 246
-0.998579, 433, 35, 496, 50
-0.99858, 73, 283, 136, 298
-0.99858, 425, 55, 488, 70
-0.998581, 113, 253, 176, 268
-0.998582, 297, 359, 360, 374
-0.998582, 185, 297, 248, 312
-0.998583, 73, 297, 136, 312
-0.998584, 353, 27, 416, 42
-0.998585, 97, 359, 160, 374
-0.998585, 329, 359, 392, 374
-0.998585, 145, 289, 208, 304
-0.998586, 17, 29, 80, 44
-0.998586, 185, 359, 248, 374
-0.998587, 345, 1, 408, 16
-0.998588, 113, 295, 176, 310
-0.998588, 153, 281, 216, 296
-0.998588, 97, 325, 160, 340
-0.998589, 169, 323, 232, 338
-0.99859, 97, 301, 160, 316
-0.998592, 121, 343, 184, 358
-0.998592, 253, 323, 284, 338
-0.998593, 121, 331, 184, 346
-0.998594, 97, 37, 160, 52
-0.998594, 201, 103, 264, 118
-0.998594, 9, 49, 72, 64
-0.998594, 65, 263, 128, 278
-0.998595, 33, 105, 96, 120
-0.998595, 209, 339, 272, 354
-0.998595, 49, 93, 112, 108
-0.998595, 41, 53, 104, 68
-0.998597, 117, 129, 148, 375
-0.998598, 145, 331, 208, 346
-0.998598, 241, 319, 304, 334
-0.998599, 113, 275, 176, 290
-0.9986, 297, 347, 360, 362
-0.998602, 153, 71, 216, 86
-0.998603, 57, 29, 120, 44
-0.998604, 417, 133, 480, 148
-0.998604, 17, 35, 80, 50
-0.998605, 393, 213, 456, 228
-0.998606, 65, 57, 128, 72
-0.998606, 49, 219, 112, 234
-0.998606, 33, 83, 96, 98
-0.998607, 97, 247, 160, 262
-0.998608, 217, 111, 280, 126
-0.99861, 137, 271, 200, 286
-0.99861, 393, 269, 456, 284
-0.998611, 73, 275, 136, 290
-0.998613, 289, 59, 352, 74
-0.998613, 57, 17, 120, 32
-0.998615, 41, 23, 104, 38
-0.998615, 1, 195, 64, 210
-0.998616, 201, 351, 264, 366
-0.998617, 9, 43, 72, 58
-0.998618, 113, 45, 176, 60
-0.998618, 33, 75, 96, 90
-0.998621, 193, 331, 256, 346
-0.998622, 233, 123, 296, 138
-0.998622, 145, 65, 208, 80
-0.998622, 89, 105, 152, 120
-0.998623, 161, 343, 224, 358
-0.998623, 385, 129, 416, 375
-0.998624, 65, 319, 128, 334
-0.998624, 337, 247, 400, 262
-0.998624, 81, 269, 144, 284
-0.998624, 17, 291, 80, 306
-0.998624, 73, 307, 136, 322
-0.998625, 249, 117, 312, 132
-0.998625, 153, 313, 216, 328
-0.998625, 1, 213, 64, 228
-0.998626, 73, 253, 136, 268
-0.998626, 161, 77, 224, 92
-0.998627, 161, 181, 224, 196
-0.998629, 281, 211, 344, 226
-0.998629, 121, 261, 184, 276
-0.998642, 173, 1, 204, 256
-0.998651, 333, 1, 364, 256
-0.99874, 293, 65, 324, 320
-0.998747, 115, 209, 130, 336
-0.998773, 1, 313, 500, 375
-0.998824, 173, 129, 204, 375
-0.998843, 101, 209, 116, 336
-0.998853, 83, 193, 98, 320
-0.998862, 401, 129, 432, 375
-0.99889, 353, 1, 384, 256
-0.998908, 89, 1, 104, 128
-0.998912, 1, 241, 16, 368
-0.998916, 429, 97, 460, 352
-0.998925, 105, 49, 120, 176
-0.998927, 297, 1, 360, 256
-0.998945, 75, 17, 90, 144
-0.998949, 265, 33, 296, 288
-0.998959, 413, 33, 444, 288
-0.998968, 123, 225, 138, 352
-0.998972, 95, 17, 110, 144
-0.998975, 109, 225, 124, 352
-0.999019, 377, 1, 408, 256
-0.999024, 473, 129, 488, 256
-0.999033, 175, 241, 190, 368
-0.999044, 9, 177, 24, 304
-0.999087, 233, 65, 264, 320
-0.999089, 75, 193, 90, 320
-0.99909, 221, 129, 252, 375
-0.999093, 21, 1, 36, 128
-0.999106, 249, 97, 280, 352
-0.999111, 483, 129, 498, 256
-0.999114, 81, 17, 96, 144
-0.999123, 89, 209, 104, 336
-0.999133, 69, 49, 84, 176
-0.999147, 67, 193, 82, 320
-0.999148, 1, 137, 500, 200
-0.999154, 153, 33, 184, 288
-0.999154, 27, 1, 42, 128
-0.999156, 335, 1, 350, 128
-0.999156, 75, 241, 90, 368
-0.999162, 433, 33, 448, 160
-0.999173, 63, 17, 78, 144
-0.999189, 475, 177, 490, 304
-0.99919, 133, 225, 148, 352
-0.999192, 1, 145, 16, 272
-0.999203, 393, 1, 408, 128
-0.999205, 217, 81, 232, 208
-0.999209, 297, 161, 312, 288
-0.999212, 7, 225, 22, 352
-0.999223, 119, 65, 134, 192
-0.999225, 401, 33, 432, 288
-0.999231, 387, 209, 402, 336
-0.999237, 1, 129, 128, 192
-0.99925, 153, 241, 168, 368
-0.999254, 147, 225, 162, 352
-0.999254, 21, 209, 36, 336
-0.999256, 139, 225, 154, 352
-0.999258, 397, 193, 412, 320
-0.99926, 111, 65, 126, 192
-0.99926, 161, 241, 176, 368
-0.999265, 95, 209, 110, 336
-0.999274, 101, 1, 116, 128
-0.999278, 69, 1, 84, 128
-0.999281, 459, 33, 474, 160
-0.999292, 467, 129, 482, 256
-0.999294, 51, 177, 66, 304
-0.999298, 341, 1, 356, 128
-0.999298, 117, 33, 148, 288
-0.999303, 27, 177, 42, 304
-0.999307, 13, 241, 28, 368
-0.99932, 459, 113, 474, 240
-0.99933, 75, 65, 90, 192
-0.999342, 83, 241, 98, 368
-0.999346, 33, 129, 64, 375
-0.999348, 461, 209, 476, 336
-0.999353, 475, 1, 490, 128
-0.999355, 381, 209, 396, 336
-0.999356, 87, 49, 102, 176
-0.999367, 93, 65, 108, 192
-0.999369, 411, 193, 426, 320
-0.999371, 111, 1, 126, 128
-0.999372, 425, 49, 440, 176
-0.999374, 109, 129, 124, 256
-0.999382, 167, 241, 182, 368
-0.999389, 439, 17, 454, 144
-0.999389, 465, 49, 480, 176
-0.999392, 351, 209, 366, 336
-0.999395, 193, 1, 208, 128
-0.999403, 453, 65, 468, 192
-0.999404, 419, 193, 434, 320
-0.999413, 57, 1, 72, 128
-0.999413, 413, 129, 444, 375
-0.99942, 57, 193, 72, 320
-0.999422, 23, 49, 38, 176
-0.999423, 403, 161, 418, 288
-0.999426, 329, 17, 344, 144
-0.999426, 467, 209, 482, 336
-0.999429, 219, 241, 234, 368
-0.999429, 261, 129, 292, 375
-0.99943, 301, 1, 316, 128
-0.999434, 425, 193, 440, 320
-0.999437, 101, 97, 116, 224
-0.999438, 197, 177, 212, 304
-0.999438, 345, 225, 360, 352
-0.999439, 277, 33, 308, 288
-0.999449, 291, 193, 306, 320
-0.999451, 181, 241, 196, 368
-0.999454, 15, 17, 30, 144
-0.999456, 69, 241, 84, 368
-0.999458, 481, 1, 496, 128
-0.999466, 211, 97, 226, 224
-0.999467, 187, 1, 202, 128
-0.999467, 375, 225, 390, 352
-0.999467, 33, 1, 48, 128
-0.999468, 221, 145, 236, 272
-0.99947, 455, 209, 470, 336
-0.999471, 313, 1, 328, 128
-0.999471, 227, 113, 242, 240
-0.999482, 207, 161, 222, 288
-0.999484, 57, 97, 72, 224
-0.999484, 485, 81, 500, 208
-0.999487, 213, 1, 228, 128
-0.999488, 41, 177, 56, 304
-0.99949, 357, 225, 372, 352
-0.999494, 307, 1, 322, 128
-0.999494, 419, 17, 434, 144
-0.999496, 289, 129, 304, 256
-0.999496, 477, 65, 492, 192
-0.999496, 365, 1, 396, 256
-0.999498, 303, 161, 318, 288
-0.999499, 107, 177, 122, 304
-0.999502, 481, 177, 496, 304
-0.999505, 89, 161, 104, 288
-0.999506, 81, 65, 96, 192
-0.999508, 451, 161, 466, 288
-0.999519, 187, 161, 202, 288
-0.999527, 453, 113, 468, 240
-0.999527, 329, 193, 344, 320
-0.999528, 235, 1, 250, 128
-0.999528, 443, 209, 458, 336
-0.999529, 369, 209, 384, 336
-0.999529, 295, 1, 310, 128
-0.99953, 471, 65, 486, 192
-0.999532, 43, 17, 58, 144
-0.999535, 297, 225, 312, 352
-0.999537, 189, 241, 204, 368
-0.999537, 177, 161, 192, 288
-0.999538, 387, 1, 402, 128
-0.999541, 283, 161, 298, 288
-0.999541, 15, 145, 30, 272
-0.999543, 33, 49, 48, 176
-0.999544, 363, 209, 378, 336
-0.999545, 137, 145, 152, 272
-0.999546, 359, 1, 374, 128
-0.999553, 339, 241, 354, 368
-0.999584, 365, 129, 396, 375
-0.999597, 237, 313, 252, 328
-0.999598, 467, 223, 482, 238
-0.999599, 109, 271, 124, 286
-0.999599, 107, 245, 122, 260
-0.999599, 173, 349, 188, 364
-0.999599, 391, 1, 406, 16
-0.9996, 209, 177, 224, 192
-0.999601, 169, 285, 184, 300
-0.999601, 485, 161, 500, 176
-0.999602, 245, 313, 260, 328
-0.999602, 67, 293, 82, 308
-0.999602, 485, 171, 500, 186
-0.999602, 113, 321, 128, 336
-0.999603, 323, 355, 338, 370
-0.999603, 217, 297, 232, 312
-0.999604, 91, 21, 106, 36
-0.999605, 133, 319, 148, 334
-0.999606, 219, 347, 234, 362
-0.999606, 221, 89, 236, 104
-0.999609, 31, 199, 46, 214
-0.999609, 423, 57, 438, 72
-0.999609, 177, 325, 192, 340
-0.999609, 117, 283, 132, 298
-0.999609, 119, 319, 134, 334
-0.99961, 103, 291, 118, 306
-0.99961, 97, 33, 112, 48
-0.99961, 89, 9, 104, 24
-0.999611, 159, 287, 174, 302
-0.999613, 289, 127, 304, 142
-0.999613, 239, 307, 254, 322
-0.999613, 111, 127, 126, 142
-0.999614, 233, 333, 248, 348
-0.999614, 139, 313, 154, 328
-0.999615, 1, 293, 16, 308
-0.999615, 27, 11, 42, 26
-0.999615, 91, 241, 106, 256
-0.999615, 233, 361, 248, 375
-0.999616, 447, 93, 462, 108
-0.999616, 273, 119, 288, 134
-0.999616, 281, 361, 296, 375
-0.999616, 81, 263, 96, 278
-0.999616, 313, 349, 328, 364
-0.999617, 267, 117, 282, 132
-0.999617, 5, 337, 20, 352
-0.999618, 227, 359, 242, 374
-0.999618, 191, 279, 206, 294
-0.999618, 221, 335, 236, 350
-0.99962, 239, 339, 254, 354
-0.99962, 239, 319, 254, 334
-0.99962, 229, 327, 244, 342
-0.999621, 151, 253, 166, 268
-0.999622, 287, 339, 302, 354
-0.999622, 263, 325, 278, 340
-0.999623, 261, 313, 276, 328
-0.999623, 173, 299, 188, 314
-0.999623, 255, 325, 270, 340
-0.999625, 99, 235, 114, 250
-0.999625, 111, 287, 126, 302
-0.999626, 93, 235, 108, 250
-0.999627, 239, 331, 254, 346
-0.999627, 85, 239, 100, 254
-0.999628, 121, 355, 136, 370
-0.999628, 227, 337, 242, 352
-0.99963, 271, 361, 286, 375
-0.99963, 229, 307, 244, 322
-0.99963, 273, 325, 288, 340
-0.999631, 171, 323, 186, 338
-0.999633, 233, 345, 248, 360
-0.999633, 177, 317, 192, 332
-0.999633, 5, 331, 20, 346
-0.999634, 87, 261, 102, 276
-0.999635, 119, 305, 134, 320
-0.999635, 247, 319, 262, 334
-0.999636, 281, 123, 296, 138
-0.999636, 415, 49, 430, 64
-0.999637, 477, 149, 492, 164
-0.999638, 113, 293, 128, 308
-0.999639, 469, 143, 484, 158
-0.999639, 271, 333, 286, 348
-0.99964, 483, 155, 498, 170
-0.999642, 127, 321, 142, 336
-0.999645, 469, 273, 484, 288
-0.999645, 315, 341, 330, 356
-0.999648, 97, 27, 112, 42
-0.999649, 263, 345, 278, 360
-0.999649, 281, 333, 296, 348
-0.99965, 87, 233, 102, 248
-0.999653, 119, 277, 134, 292
-0.999656, 79, 217, 94, 232
-0.999658, 273, 339, 288, 354
-0.999658, 173, 307, 188, 322
-0.999659, 115, 235, 130, 250
-0.999661, 87, 3, 102, 18
-0.999663, 329, 359, 344, 374
-0.999663, 321, 343, 336, 358
-0.999666, 261, 115, 276, 130
-0.999668, 287, 333, 302, 348
-0.999669, 255, 319, 270, 334
-0.99967, 9, 309, 24, 324
-0.99967, 85, 245, 100, 260
-0.999673, 163, 295, 178, 310
-0.999673, 7, 319, 22, 334
-0.999676, 111, 277, 126, 292
-0.999678, 119, 313, 134, 328
-0.999679, 233, 339, 248, 354
-0.999681, 281, 327, 296, 342
-0.999681, 121, 297, 136, 312
-0.999687, 11, 295, 26, 310
-0.999688, 9, 303, 24, 318
-0.999691, 127, 307, 142, 322
-0.999691, 167, 301, 182, 316
-0.999692, 85, 255, 100, 270
-0.999692, 219, 303, 234, 318
-0.999694, 229, 301, 244, 316
-0.999694, 111, 263, 126, 278
-0.999696, 239, 325, 254, 340
-0.999697, 7, 325, 22, 340
-0.999698, 109, 257, 124, 272
-0.999698, 321, 1, 352, 256
-0.9997, 255, 313, 270, 328
-0.999701, 97, 229, 112, 244
-0.999703, 109, 251, 124, 266
-0.999703, 133, 313, 148, 328
-0.999709, 249, 325, 264, 340
-0.999709, 245, 307, 260, 322
-0.999723, 223, 297, 238, 312
-0.999726, 111, 119, 126, 134
-0.999726, 87, 223, 102, 238
-0.999729, 115, 269, 130, 284
-0.999744, 127, 315, 142, 330
-0.999765, 263, 319, 278, 334
-0.999803, 253, 1, 284, 256
-0.999855, 1, 161, 500, 224
-0.999872, 353, 129, 384, 375
-0.999911, 317, 129, 348, 375
-0.999924, 389, 1, 420, 256
-1.00003, 333, 129, 364, 375
-1.00017, 129, 1, 160, 256
-1.00094, 309, 33, 340, 288
-1.00136, 377, 65, 440, 192
-1.00393, 305, 129, 368, 256
-1.0053, 353, 113, 416, 240
-1.01341, 329, 65, 392, 192
-1.01432, 353, 65, 416, 192
-1.01731, 329, 113, 392, 240
