1971
-0.382155, 1, 161, 375, 416
-0.400924, 1, 1, 375, 500
-0.486323, 1, 65, 375, 320
-0.48907, 129, 1, 375, 500
-0.514007, 1, 257, 375, 500
-0.543382, 1, 1, 256, 500
-0.603789, 129, 225, 375, 480
-0.615143, 33, 161, 288, 416
-0.649492, 129, 129, 375, 384
-0.700893, 1, 257, 256, 500
-0.704896, 1, 65, 256, 320
-0.774009, 97, 33, 352, 288
-0.862996, 113, 161, 240, 416
-0.865277, 129, 257, 256, 500
-0.873849, 1, 257, 375, 384
-0.880601, 193, 225, 320, 480
-0.883596, 241, 129, 368, 384
-0.884889, 113, 65, 240, 320
-0.887651, 113, 1, 240, 500
-0.899324, 33, 257, 288, 384
-0.902277, 177, 97, 304, 352
-0.90308, 49, 161, 176, 416
-0.903635, 161, 1, 288, 500
-0.905654, 241, 1, 368, 500
-0.908442, 1, 1, 128, 500
-0.90879, 49, 1, 176, 500
-0.909924, 129, 289, 375, 416
-0.910197, 1, 305, 375, 432
-0.91117, 241, 225, 368, 480
-0.911855, 129, 241, 375, 368
-0.913442, 33, 65, 160, 320
-0.91497, 1, 129, 375, 256
-0.917575, 81, 257, 208, 500
-0.920204, 1, 81, 375, 208
-0.922923, 129, 257, 256, 384
-0.926339, 1, 209, 375, 336
-0.926949, 177, 1, 304, 256
-0.93053, 209, 273, 336, 400
-0.93218, 129, 129, 375, 256
-0.932679, 1, 161, 128, 416
-0.9369, 33, 257, 160, 500
-0.940222, 1, 305, 256, 432
-0.940908, 153, 273, 216, 400
-0.942109, 97, 81, 352, 208
-0.942465, 97, 337, 352, 464
-0.942653, 185, 257, 248, 384
-0.943355, 273, 273, 336, 400
-0.94339, 1, 273, 64, 400
-0.946362, 129, 257, 192, 384
-0.947142, 305, 289, 368, 416
-0.947669, 209, 225, 336, 352
-0.948262, 81, 257, 208, 384
-0.948469, 1, 81, 256, 208
-0.948959, 209, 321, 336, 448
-0.950729, 25, 289, 88, 416
-0.951245, 305, 313, 368, 376
-0.952241, 113, 249, 176, 312
-0.952389, 209, 249, 272, 312
-0.953528, 129, 305, 192, 432
-0.95431, 105, 241, 168, 368
-0.954847, 249, 257, 312, 384
-0.955151, 241, 129, 368, 256
-0.955246, 241, 33, 368, 288
-0.955541, 129, 305, 256, 432
-0.955765, 1, 353, 375, 480
-0.955805, 33, 161, 288, 288
-0.956015, 297, 241, 360, 368
-0.956913, 217, 241, 280, 368
-0.957133, 297, 337, 360, 464
-0.957211, 33, 257, 160, 384
-0.957646, 257, 257, 320, 320
-0.958578, 161, 289, 224, 352
-0.959223, 129, 337, 192, 400
-0.960505, 1, 273, 64, 336
-0.961129, 73, 257, 136, 384
-0.961379, 281, 289, 344, 352
-0.961448, 185, 289, 248, 352
-0.961927, 281, 321, 344, 384
-0.962004, 129, 209, 256, 336
-0.962129, 297, 129, 360, 256
-0.9623, 273, 321, 336, 448
-0.963133, 33, 209, 288, 336
-0.963188, 113, 81, 240, 208
-0.963492, 169, 81, 232, 208
-0.963933, 25, 289, 88, 352
-0.964033, 193, 337, 256, 464
-0.964265, 305, 337, 368, 400
-0.964762, 169, 313, 232, 376
-0.965245, 1, 305, 128, 432
-0.965779, 193, 313, 256, 376
-0.965787, 129, 177, 375, 304
-0.965904, 145, 97, 208, 224
-0.965912, 153, 257, 216, 320
-0.96596, 217, 305, 280, 432
-0.966344, 137, 297, 200, 360
-0.966956, 305, 289, 368, 352
-0.967131, 105, 305, 168, 432
-0.967275, 217, 273, 280, 336
-0.967292, 177, 257, 304, 320
-0.967591, 177, 81, 304, 208
-0.968079, 233, 249, 296, 312
-0.968415, 177, 249, 240, 312
-0.968719, 205, 257, 236, 384
-0.968955, 129, 289, 256, 352
-0.96896, 153, 337, 216, 400
-0.969163, 49, 305, 176, 432
-0.969749, 129, 273, 192, 336
-0.96997, 1, 1, 375, 128
-0.970157, 209, 281, 336, 344
-0.970258, 157, 257, 188, 384
-0.970308, 153, 321, 216, 448
-0.97045, 297, 265, 360, 328
-0.97054, 309, 329, 340, 392
-0.970549, 217, 305, 280, 368
-0.970693, 153, 225, 216, 352
-0.9709, 145, 289, 176, 416
-0.970931, 113, 81, 176, 208
-0.970935, 129, 249, 256, 312
-0.971018, 113, 161, 240, 288
-0.971119, 177, 129, 304, 256
-0.971234, 281, 345, 344, 408
-0.971499, 89, 265, 152, 328
-0.971509, 1, 353, 256, 480
-0.971908, 249, 209, 312, 336
-0.971963, 113, 305, 176, 368
-0.972501, 25, 225, 88, 352
-0.972716, 217, 297, 248, 360
-0.972833, 17, 257, 48, 384
-0.973323, 161, 161, 224, 416
-0.973466, 289, 273, 320, 400
-0.973469, 9, 337, 72, 464
-0.973515, 193, 337, 256, 400
-0.973526, 117, 249, 148, 312
-0.973599, 265, 129, 328, 256
-0.973708, 145, 305, 176, 368
-0.973756, 133, 329, 164, 392
-0.973848, 257, 297, 320, 360
-0.973899, 81, 257, 208, 320
-0.973998, 273, 249, 304, 312
-0.974047, 17, 209, 144, 336
-0.97409, 185, 273, 216, 400
-0.974179, 305, 361, 368, 424
-0.974216, 221, 249, 252, 312
-0.974262, 129, 353, 256, 480
-0.974425, 113, 161, 176, 416
-0.97444, 145, 329, 176, 392
-0.974466, 325, 289, 356, 416
-0.974544, 297, 137, 360, 200
-0.974603, 197, 289, 228, 352
-0.974611, 325, 305, 356, 368
-0.974808, 113, 161, 176, 288
-0.974872, 169, 89, 232, 152
-0.974915, 1, 137, 64, 200
-0.974952, 1, 297, 64, 360
-0.974955, 225, 313, 352, 376
-0.974965, 205, 257, 236, 320
-0.975098, 153, 257, 216, 500
-0.975127, 145, 313, 272, 376
-0.975181, 273, 225, 336, 352
-0.975188, 145, 249, 176, 312
-0.975188, 49, 289, 112, 416
-0.97524, 137, 97, 200, 160
-0.975431, 49, 97, 176, 224
-0.975664, 177, 209, 240, 336
-0.975959, 241, 177, 368, 304
-0.976158, 221, 273, 252, 400
-0.976327, 157, 257, 188, 320
-0.976399, 25, 129, 88, 256
-0.976451, 1, 129, 128, 256
-0.976668, 105, 337, 168, 400
-0.976669, 273, 241, 304, 368
-0.976697, 217, 193, 280, 320
-0.976786, 169, 129, 232, 192
-0.976848, 221, 225, 252, 352
-0.976946, 113, 337, 240, 400
-0.977059, 305, 321, 336, 448
-0.977276, 169, 161, 232, 288
-0.977429, 257, 329, 320, 392
-0.977651, 89, 241, 152, 304
-0.97768, 309, 305, 340, 368
-0.977778, 133, 273, 164, 400
-0.97791, 133, 305, 164, 368
-0.977917, 225, 369, 352, 496
-0.978085, 17, 337, 80, 400
-0.978224, 289, 297, 320, 360
-0.97836, 281, 273, 312, 336
-0.978393, 297, 193, 360, 320
-0.978414, 177, 257, 240, 500
-0.978456, 177, 289, 208, 352
-0.978531, 1, 129, 64, 256
-0.978599, 25, 305, 56, 432
-0.978676, 241, 249, 272, 312
-0.978829, 297, 129, 360, 384
-0.978878, 65, 289, 128, 352
-0.978903, 273, 137, 336, 200
-0.978918, 205, 313, 236, 376
-0.978983, 217, 225, 280, 288
-0.979039, 249, 305, 312, 432
-0.979164, 129, 17, 375, 144
-0.979178, 161, 65, 224, 320
-0.979221, 137, 161, 200, 416
-0.979286, 133, 249, 164, 312
-0.979306, 113, 129, 176, 192
-0.979309, 173, 289, 204, 416
-0.979486, 25, 265, 88, 328
-0.979531, 169, 65, 232, 128
-0.979564, 5, 273, 36, 400
-0.97962, 49, 305, 176, 368
-0.979643, 157, 297, 188, 360
-0.97967, 137, 137, 200, 200
-0.979817, 265, 225, 328, 480
-0.980013, 37, 273, 68, 400
-0.980035, 5, 273, 36, 336
-0.980228, 65, 161, 192, 288
-0.980257, 65, 265, 128, 328
-0.980258, 145, 241, 176, 368
-0.980277, 161, 305, 192, 432
-0.980341, 41, 313, 104, 376
-0.980349, 125, 81, 156, 208
-0.980411, 1, 281, 128, 344
-0.980495, 321, 329, 352, 392
-0.980565, 293, 321, 324, 448
-0.980581, 337, 305, 368, 368
-0.980654, 1, 129, 64, 384
-0.981012, 25, 145, 88, 208
-0.981105, 309, 257, 340, 384
-0.981118, 113, 353, 176, 480
-0.981171, 129, 225, 256, 288
-0.981201, 113, 73, 176, 136
-0.981476, 209, 233, 240, 296
-0.981499, 81, 209, 208, 336
-0.981503, 1, 209, 64, 336
-0.981509, 1, 33, 256, 160
-0.981579, 233, 225, 296, 480
-0.981595, 69, 289, 100, 352
-0.981623, 49, 49, 176, 176
-0.981632, 261, 241, 292, 304
-0.981798, 105, 249, 136, 312
-0.981902, 217, 329, 280, 392
-0.981905, 129, 361, 192, 424
-0.981909, 301, 281, 332, 344
-0.982022, 185, 313, 216, 376
-0.982118, 33, 257, 160, 320
-0.982121, 137, 49, 200, 176
-0.982147, 193, 337, 320, 400
-0.982186, 289, 337, 320, 400
-0.982215, 157, 329, 188, 392
-0.982222, 225, 257, 352, 320
-0.982225, 1, 313, 128, 376
-0.982327, 21, 273, 52, 336
-0.982351, 25, 329, 56, 392
-0.982507, 241, 225, 304, 288
-0.982527, 137, 65, 200, 128
-0.982783, 33, 337, 96, 464
-0.982959, 25, 353, 56, 480
-0.983133, 201, 193, 264, 448
-0.983151, 221, 273, 252, 336
-0.983191, 209, 305, 240, 432
-0.983227, 25, 297, 56, 360
-0.983269, 113, 97, 176, 160
-0.983278, 261, 225, 292, 352
-0.98336, 189, 81, 220, 208
-0.983533, 161, 1, 224, 500
-0.983536, 261, 265, 292, 328
-0.983595, 317, 337, 348, 464
-0.983644, 145, 273, 176, 336
-0.983706, 241, 145, 368, 208
-0.983768, 193, 265, 224, 328
-0.983814, 265, 233, 328, 296
-0.983842, 65, 329, 192, 392
-0.984008, 221, 321, 252, 448
-0.984019, 169, 241, 200, 368
-0.984042, 305, 257, 368, 500
-0.984048, 337, 289, 368, 416
-0.984071, 289, 241, 352, 304
-0.984187, 241, 225, 368, 288
-0.984213, 177, 177, 304, 304
-0.984237, 329, 129, 360, 256
-0.984262, 241, 257, 272, 384
-0.984267, 153, 233, 216, 296
-0.984314, 145, 145, 208, 272
-0.984352, 113, 65, 176, 320
-0.984422, 129, 257, 192, 500
-0.984447, 201, 113, 264, 240
-0.984455, 129, 225, 192, 288
-0.984702, 121, 1, 184, 500
-0.984834, 1, 145, 128, 208
-0.98484, 205, 337, 236, 400
-0.984892, 25, 137, 56, 200
-0.98491, 113, 129, 240, 192
-0.984926, 313, 113, 375, 176
-0.984948, 49, 281, 176, 344
-0.984982, 169, 153, 232, 216
-0.98521, 129, 209, 192, 336
-0.985307, 329, 281, 360, 344
-0.985534, 81, 353, 208, 480
-0.985684, 101, 273, 132, 336
-0.985694, 13, 313, 44, 376
-0.98572, 113, 65, 240, 128
-0.985745, 129, 321, 160, 448
-0.98576, 57, 289, 88, 416
-0.985799, 333, 329, 364, 392
-0.985834, 137, 81, 168, 208
-0.985978, 305, 369, 336, 432
-0.986008, 285, 225, 316, 352
-0.986021, 301, 137, 332, 200
-0.986055, 257, 129, 320, 384
-0.986186, 177, 233, 304, 296
-0.986245, 169, 313, 200, 376
-0.98627, 113, 89, 240, 152
-0.986339, 281, 369, 344, 432
-0.986397, 33, 129, 96, 384
-0.986409, 1, 353, 128, 480
-0.986422, 153, 81, 184, 208
-0.986485, 113, 153, 176, 216
-0.986507, 177, 137, 304, 200
-0.986518, 105, 361, 168, 424
-0.986527, 133, 273, 164, 336
-0.986583, 201, 209, 232, 336
-0.986653, 221, 321, 252, 384
-0.986719, 285, 249, 316, 312
-0.986749, 265, 81, 328, 208
-0.986777, 37, 321, 68, 448
-0.986792, 177, 225, 240, 288
-0.986886, 241, 353, 368, 416
-0.98691, 169, 97, 200, 224
-0.986959, 329, 337, 360, 464
-0.986964, 61, 313, 92, 376
-0.987007, 133, 225, 164, 352
-0.987125, 121, 257, 152, 384
-0.987127, 185, 97, 248, 352
-0.987203, 49, 137, 176, 200
-0.98721, 169, 265, 200, 328
-0.987227, 305, 81, 368, 208
-0.987273, 137, 353, 168, 416
-0.987289, 25, 1, 88, 500
-0.987336, 313, 281, 344, 344
-0.987343, 125, 129, 156, 192
-0.987472, 137, 65, 200, 320
-0.987479, 241, 177, 368, 240
-0.987502, 149, 337, 180, 464
-0.987505, 269, 305, 300, 368
-0.987532, 185, 361, 248, 424
-0.987544, 9, 321, 40, 448
-0.987568, 301, 257, 332, 320
-0.987639, 297, 1, 360, 500
-0.987646, 41, 145, 72, 208
-0.987702, 1, 313, 32, 376
-0.987743, 53, 281, 84, 344
-0.987786, 189, 129, 220, 192
-0.987793, 233, 273, 264, 336
-0.987796, 345, 281, 375, 344
-0.987818, 301, 129, 332, 256
-0.987928, 113, 153, 240, 216
-0.988029, 89, 289, 152, 352
-0.988039, 317, 353, 348, 416
-0.988203, 297, 177, 360, 240
-0.988213, 9, 369, 72, 432
-0.988303, 185, 1, 248, 500
-0.988309, 177, 97, 208, 160
-0.988352, 193, 161, 224, 288
-0.988367, 165, 97, 196, 160
-0.988371, 137, 137, 168, 200
-0.988374, 249, 145, 312, 208
-0.988457, 41, 337, 104, 400
-0.988508, 1, 257, 64, 500
-0.988512, 17, 337, 144, 400
-0.988518, 329, 145, 360, 208
-0.988525, 129, 257, 192, 288
-0.98853, 193, 361, 320, 424
-0.988555, 217, 257, 280, 288
-0.988573, 281, 225, 312, 288
-0.988695, 217, 433, 280, 496
-0.988706, 233, 305, 264, 432
-0.988797, 113, 33, 240, 160
-0.988852, 105, 257, 136, 384
-0.988865, 221, 225, 252, 288
-0.988867, 273, 177, 336, 304
-0.988893, 121, 81, 152, 144
-0.988934, 305, 321, 368, 352
-0.988935, 201, 129, 264, 192
-0.988957, 65, 257, 320, 320
-0.98897, 33, 121, 96, 184
-0.989008, 277, 129, 308, 256
-0.989042, 277, 289, 308, 416
-0.989051, 113, 269, 176, 300
-0.989142, 105, 257, 168, 500
-0.989351, 41, 281, 72, 344
-0.989363, 317, 129, 348, 256
-0.989381, 345, 241, 375, 368
-0.989436, 13, 137, 44, 200
-0.989475, 105, 257, 168, 288
-0.989552, 189, 81, 220, 144
-0.989572, 161, 33, 224, 160
-0.989605, 257, 269, 320, 300
-0.989644, 197, 305, 228, 432
-0.989666, 89, 273, 120, 336
-0.989706, 225, 417, 352, 480
-0.989745, 177, 137, 208, 200
-0.989747, 113, 361, 240, 424
-0.989765, 273, 369, 336, 496
-0.98979, 161, 293, 224, 324
-0.989851, 25, 297, 88, 328
-0.989858, 49, 113, 176, 176
-0.989892, 193, 305, 256, 336
-0.989916, 297, 309, 360, 340
-0.989926, 333, 241, 364, 368
-0.989951, 289, 289, 352, 320
-0.98996, 317, 145, 348, 208
-0.989965, 125, 353, 156, 416
-0.990019, 37, 129, 68, 256
-0.99002, 137, 301, 200, 332
-0.990104, 1, 289, 256, 352
-0.990124, 1, 281, 64, 312
-0.990145, 49, 169, 176, 232
-0.990255, 25, 177, 88, 304
-0.990259, 65, 313, 128, 376
-0.990286, 305, 365, 368, 396
-0.990286, 1, 81, 128, 208
-0.990317, 241, 257, 304, 288
-0.990323, 137, 369, 200, 496
-0.990346, 193, 337, 224, 400
-0.990354, 345, 329, 375, 392
-0.990361, 297, 333, 360, 364
-0.990382, 17, 233, 144, 296
-0.990384, 265, 317, 328, 348
-0.99039, 169, 253, 232, 284
-0.990408, 169, 269, 232, 300
-0.990426, 257, 281, 320, 312
-0.990428, 129, 321, 375, 384
-0.99043, 133, 225, 164, 288
-0.990448, 129, 337, 192, 368
-0.990461, 1, 129, 32, 256
-0.990466, 1, 1, 64, 500
-0.990469, 193, 321, 256, 352
-0.9905, 289, 277, 352, 308
-0.990528, 49, 305, 80, 368
-0.990532, 21, 361, 52, 424
-0.990549, 241, 129, 304, 256
-0.990611, 273, 301, 336, 332
-0.990624, 97, 1, 160, 500
-0.990631, 121, 329, 152, 392
-0.990652, 281, 361, 344, 392
-0.990657, 313, 297, 375, 328
-0.99066, 217, 273, 280, 304
-0.990678, 49, 241, 112, 368
-0.990702, 13, 337, 44, 400
-0.990718, 17, 309, 80, 340
-0.990721, 209, 97, 272, 352
-0.990748, 161, 329, 224, 360
-0.990757, 145, 317, 208, 348
-0.99076, 169, 317, 232, 348
-0.990763, 73, 129, 136, 192
-0.990767, 137, 377, 168, 440
-0.990791, 129, 349, 192, 380
-0.990822, 153, 341, 216, 372
-0.990825, 25, 337, 88, 368
-0.990842, 49, 1, 176, 128
-0.990848, 21, 129, 52, 256
-0.990849, 241, 417, 304, 480
-0.990855, 145, 425, 272, 488
-0.990861, 305, 349, 368, 380
-0.990921, 281, 349, 344, 380
-0.99093, 137, 273, 200, 304
-0.990991, 49, 129, 80, 256
-0.990994, 137, 113, 168, 176
-0.990995, 193, 273, 256, 304
-0.991007, 233, 321, 296, 352
-0.991026, 89, 269, 152, 300
-0.991068, 69, 273, 100, 400
-0.99109, 1, 333, 64, 364
-0.991095, 345, 369, 375, 496
-0.99111, 193, 253, 256, 284
-0.991116, 37, 329, 68, 392
-0.99113, 1, 293, 64, 324
-0.991143, 169, 281, 232, 312
-0.991172, 169, 89, 232, 120
-0.991175, 185, 293, 248, 324
-0.991186, 105, 333, 168, 364
-0.99119, 9, 145, 72, 176
-0.991207, 137, 161, 168, 288
-0.991218, 193, 341, 256, 372
-0.991219, 265, 257, 328, 288
-0.991241, 137, 89, 168, 152
-0.991241, 129, 297, 375, 360
-0.991252, 153, 353, 216, 384
-0.991259, 177, 113, 304, 176
-0.991262, 17, 209, 48, 336
-0.99127, 233, 313, 264, 376
-0.991281, 153, 161, 184, 288
-0.991289, 285, 177, 316, 304
-0.991296, 57, 297, 120, 328
-0.991305, 129, 157, 192, 188
-0.991312, 129, 285, 192, 316
-0.991313, 313, 417, 375, 480
-0.991317, 149, 137, 180, 200
-0.991323, 145, 97, 208, 128
-0.991347, 273, 333, 336, 364
-0.991357, 193, 153, 224, 216
-0.991361, 1, 265, 375, 328
-0.991366, 193, 153, 256, 216
-0.991394, 65, 273, 128, 304
-0.991395, 161, 89, 288, 152
-0.991398, 33, 353, 64, 416
-0.991416, 161, 157, 224, 188
-0.991444, 65, 353, 192, 416
-0.991455, 241, 81, 368, 208
-0.991463, 33, 285, 96, 316
-0.991476, 9, 349, 72, 380
-0.991482, 161, 305, 224, 336
-0.9915, 265, 1, 328, 500
-0.991519, 133, 369, 164, 496
-0.991528, 313, 377, 375, 408
-0.991545, 81, 305, 144, 432
-0.991555, 33, 57, 160, 120
-0.991565, 225, 385, 352, 448
-0.991572, 65, 241, 128, 304
-0.991595, 297, 225, 328, 352
-0.991597, 169, 105, 232, 136
-0.991605, 193, 105, 224, 168
-0.991641, 217, 309, 280, 340
-0.991649, 49, 81, 176, 144
-0.99165, 217, 285, 280, 316
-0.991651, 169, 137, 232, 168
-0.991653, 289, 141, 352, 172
-0.991677, 1, 297, 375, 360
-0.991681, 37, 209, 68, 336
-0.991713, 41, 325, 104, 356
-0.991713, 169, 117, 232, 148
-0.991717, 313, 149, 375, 180
-0.991719, 313, 285, 375, 316
-0.991742, 125, 105, 156, 168
-0.991776, 121, 153, 152, 216
-0.991798, 233, 129, 296, 384
-0.991808, 169, 169, 232, 200
-0.991825, 113, 141, 176, 172
-0.991834, 281, 145, 312, 208
-0.991834, 1, 321, 64, 352
-0.991838, 33, 349, 96, 380
-0.991839, 289, 377, 352, 408
-0.991852, 25, 193, 88, 256
-0.991858, 261, 177, 292, 304
-0.991872, 289, 265, 352, 296
-0.991872, 25, 257, 88, 500
-0.991886, 193, 353, 256, 384
-0.991919, 169, 77, 232, 108
-0.991932, 113, 77, 176, 108
-0.991933, 189, 225, 220, 352
-0.991934, 265, 113, 328, 176
-0.991936, 249, 301, 312, 332
-0.991936, 257, 217, 288, 280
-0.991939, 217, 337, 280, 368
-0.991939, 161, 137, 192, 200
-0.991943, 121, 225, 152, 288
-0.991955, 201, 241, 264, 272
-0.991955, 121, 321, 184, 352
-0.991957, 225, 241, 288, 272
-0.991974, 185, 321, 216, 448
-0.991993, 113, 245, 176, 276
-0.992005, 105, 353, 168, 384
-0.992005, 241, 201, 368, 264
-0.992007, 265, 145, 328, 176
-0.992037, 73, 81, 136, 208
-0.992058, 249, 353, 312, 480
-0.99206, 89, 313, 152, 376
-0.992088, 181, 345, 212, 408
-0.992088, 113, 89, 176, 120
-0.992098, 297, 201, 360, 264
-0.992106, 81, 285, 144, 316
-0.99214, 41, 313, 104, 344
-0.992148, 113, 409, 176, 472
-0.992184, 137, 141, 200, 172
-0.992211, 129, 361, 192, 392
-0.992215, 145, 77, 208, 108
-0.992216, 145, 337, 176, 368
-0.992224, 313, 133, 375, 164
-0.992227, 149, 97, 180, 160
-0.992229, 121, 169, 184, 200
-0.992238, 33, 361, 96, 424
-0.992245, 121, 161, 152, 288
-0.992261, 321, 241, 352, 368
-0.992265, 65, 309, 128, 340
-0.99228, 257, 349, 320, 380
-0.992281, 329, 313, 360, 344
-0.992283, 145, 121, 208, 152
-0.992311, 181, 265, 212, 328
-0.992336, 145, 109, 208, 140
-0.992382, 153, 257, 184, 288
-0.992415, 205, 253, 236, 284
-0.992417, 265, 269, 296, 300
-0.992418, 1, 145, 32, 208
-0.992428, 153, 301, 184, 332
-0.992429, 193, 209, 320, 272
-0.992445, 145, 169, 208, 200
-0.992459, 325, 325, 356, 356
-0.992464, 81, 257, 144, 288
-0.992469, 133, 353, 164, 384
-0.992475, 181, 293, 212, 324
-0.99249, 49, 113, 112, 240
-0.992496, 89, 129, 152, 384
-0.992518, 133, 333, 164, 364
-0.992521, 209, 353, 240, 480
-0.992526, 281, 285, 312, 316
-0.992527, 117, 257, 148, 288
-0.992528, 129, 145, 375, 208
-0.992546, 313, 273, 375, 304
-0.992554, 133, 257, 164, 288
-0.992557, 305, 329, 336, 360
-0.992558, 265, 257, 296, 288
-0.992571, 17, 361, 80, 392
-0.992578, 217, 461, 280, 492
-0.992579, 205, 297, 236, 328
-0.992579, 113, 305, 176, 336
-0.992589, 309, 349, 340, 380
-0.992612, 241, 257, 272, 288
-0.992614, 113, 129, 176, 160
-0.992624, 105, 261, 136, 292
-0.992629, 221, 257, 252, 288
-0.992636, 297, 285, 328, 316
-0.992637, 221, 313, 252, 344
-0.992639, 165, 301, 196, 332
-0.992646, 257, 245, 320, 276
-0.992652, 57, 285, 120, 316
-0.992656, 113, 101, 176, 132
-0.992671, 313, 317, 344, 348
-0.992672, 289, 273, 320, 304
-0.992675, 105, 365, 168, 396
-0.992696, 341, 361, 372, 424
-0.992696, 93, 257, 124, 384
-0.992697, 277, 257, 308, 288
-0.992698, 25, 209, 88, 240
-0.992702, 29, 333, 60, 364
-0.992713, 345, 317, 375, 348
-0.992715, 61, 293, 92, 324
-0.99272, 193, 297, 224, 328
-0.992724, 213, 269, 244, 300
-0.992727, 33, 149, 96, 180
-0.992728, 253, 261, 284, 292
-0.992737, 185, 365, 248, 396
-0.99274, 205, 337, 236, 368
-0.992746, 21, 345, 52, 376
-0.992755, 61, 305, 92, 336
-0.992766, 201, 265, 232, 296
-0.992767, 161, 289, 192, 320
-0.992768, 193, 157, 256, 188
-0.992771, 97, 165, 160, 196
-0.992781, 105, 273, 136, 304
-0.992782, 177, 313, 208, 344
-0.99279, 197, 317, 228, 348
-0.99279, 289, 129, 320, 256
-0.992794, 225, 297, 288, 328
-0.992794, 281, 301, 312, 332
-0.992794, 201, 285, 232, 316
-0.992797, 105, 281, 168, 312
-0.9928, 309, 361, 340, 392
-0.992804, 217, 349, 280, 380
-0.992806, 153, 365, 216, 396
-0.992807, 277, 273, 308, 304
-0.992812, 305, 305, 336, 336
-0.992812, 157, 337, 188, 368
-0.992821, 289, 341, 320, 372
-0.992824, 73, 313, 104, 376
-0.992827, 305, 369, 336, 496
-0.99283, 33, 129, 96, 160
-0.992836, 217, 301, 248, 332
-0.992852, 345, 297, 375, 328
-0.992853, 257, 361, 320, 392
-0.992867, 113, 117, 176, 148
-0.992873, 281, 313, 312, 344
-0.99288, 117, 269, 148, 300
-0.992883, 161, 241, 224, 272
-0.992885, 321, 337, 352, 368
-0.992885, 145, 225, 176, 288
-0.992886, 25, 141, 56, 172
-0.992888, 297, 221, 360, 252
-0.992905, 293, 317, 324, 348
-0.992908, 105, 293, 168, 324
-0.992913, 97, 321, 160, 352
-0.992913, 209, 241, 240, 272
-0.992917, 293, 297, 324, 328
-0.992918, 29, 297, 60, 328
-0.992931, 153, 273, 184, 304
-0.992934, 301, 141, 332, 172
-0.992935, 249, 333, 312, 364
-0.992945, 189, 157, 220, 188
-0.992946, 129, 373, 192, 404
-0.992957, 129, 157, 160, 188
-0.992958, 213, 325, 244, 356
-0.99296, 165, 93, 196, 124
-0.992966, 201, 349, 232, 380
-0.992985, 129, 65, 192, 96
-0.992987, 21, 277, 52, 308
-0.992997, 329, 301, 360, 332
-0.993001, 325, 349, 356, 380
-0.993002, 145, 349, 176, 380
-0.993011, 337, 329, 368, 360
-0.993016, 17, 313, 48, 344
-0.993017, 177, 33, 304, 160
-0.993024, 25, 357, 56, 388
-0.993031, 97, 345, 352, 408
-0.993035, 53, 145, 84, 208
-0.993048, 73, 297, 104, 328
-0.993053, 309, 373, 340, 404
-0.993061, 45, 297, 76, 328
-0.993071, 293, 329, 324, 360
-0.993071, 153, 353, 184, 416
-0.993072, 145, 321, 176, 352
-0.993073, 165, 277, 196, 308
-0.993075, 81, 233, 208, 296
-0.993077, 141, 305, 172, 336
-0.993083, 225, 273, 256, 304
-0.993085, 325, 365, 356, 396
-0.993085, 265, 245, 296, 276
-0.993086, 213, 285, 244, 316
-0.993101, 49, 309, 80, 340
-0.993101, 41, 337, 72, 368
-0.993108, 141, 157, 172, 188
-0.993116, 157, 313, 188, 344
-0.993119, 133, 269, 164, 300
-0.99312, 93, 273, 124, 304
-0.993137, 17, 333, 48, 364
-0.993142, 253, 273, 284, 304
-0.993144, 177, 157, 208, 188
-0.993145, 117, 245, 148, 276
-0.993146, 65, 265, 96, 328
-0.993147, 193, 337, 224, 368
-0.993162, 225, 245, 256, 276
-0.993163, 5, 325, 36, 356
-0.993175, 61, 317, 92, 348
-0.993186, 121, 85, 152, 116
-0.993189, 209, 313, 240, 344
-0.993195, 165, 265, 196, 296
-0.9932, 185, 357, 216, 388
-0.9932, 153, 93, 184, 124
-0.993203, 49, 325, 80, 356
-0.993204, 49, 1, 112, 500
-0.993205, 153, 361, 216, 424
-0.993205, 161, 325, 192, 356
-0.993209, 293, 357, 324, 388
-0.993209, 133, 321, 164, 352
-0.993212, 137, 433, 200, 496
-0.993215, 317, 305, 348, 336
-0.993217, 121, 349, 152, 380
-0.993217, 37, 145, 68, 176
-0.993221, 121, 305, 152, 368
-0.993224, 301, 269, 332, 300
-0.993224, 177, 89, 208, 120
-0.99323, 89, 145, 152, 272
-0.993231, 309, 285, 340, 316
-0.993232, 129, 365, 160, 396
-0.993233, 157, 349, 188, 380
-0.993234, 121, 137, 152, 168
-0.993239, 217, 353, 280, 480
-0.99324, 193, 169, 224, 200
-0.99324, 137, 169, 200, 232
-0.993242, 321, 149, 352, 180
-0.993242, 261, 317, 292, 348
-0.993244, 5, 309, 36, 340
-0.993245, 281, 325, 312, 356
-0.993246, 201, 361, 232, 392
-0.993255, 105, 249, 136, 280
-0.993258, 13, 141, 44, 172
-0.993264, 165, 165, 196, 196
-0.993265, 137, 89, 168, 120
-0.993268, 193, 145, 224, 176
-0.99328, 165, 105, 196, 136
-0.993281, 337, 341, 368, 372
-0.993282, 185, 281, 216, 312
-0.993283, 217, 337, 248, 368
-0.993283, 5, 281, 36, 312
-0.993296, 33, 321, 288, 384
-0.993325, 293, 361, 324, 424
-0.993328, 129, 257, 256, 288
-0.99341, 109, 81, 140, 208
-0.993455, 81, 337, 144, 400
-0.993462, 217, 353, 280, 416
-0.993471, 217, 345, 248, 408
-0.993484, 193, 241, 224, 304
-0.993512, 207, 257, 222, 320
-0.993548, 5, 209, 36, 336
-0.993551, 201, 73, 264, 136
-0.993585, 117, 321, 148, 448
-0.993615, 45, 257, 76, 320
-0.993617, 245, 273, 276, 336
-0.993652, 205, 97, 236, 224
-0.993657, 241, 1, 304, 500
-0.993689, 17, 1, 80, 256
-0.993704, 167, 257, 182, 320
-0.993706, 1, 121, 128, 184
-0.993726, 17, 81, 80, 208
-0.993773, 65, 193, 128, 320
-0.99378, 341, 97, 372, 224
-0.993783, 213, 289, 228, 352
-0.993802, 233, 225, 264, 288
-0.993823, 129, 297, 256, 328
-0.993842, 147, 329, 162, 392
-0.99385, 177, 49, 208, 176
-0.993896, 157, 297, 172, 360
-0.993899, 177, 257, 304, 288
-0.993927, 329, 305, 344, 368
-0.993944, 225, 297, 240, 360
-0.993973, 147, 305, 162, 368
-0.993999, 217, 241, 232, 304
-0.994004, 177, 273, 304, 304
-0.994021, 257, 289, 288, 352
-0.994038, 129, 269, 256, 300
-0.994038, 329, 353, 360, 416
-0.994039, 145, 393, 272, 456
-0.994062, 73, 97, 136, 160
-0.994079, 125, 57, 156, 120
-0.994088, 1, 249, 64, 312
-0.99412, 185, 57, 216, 120
-0.994123, 161, 249, 176, 312
-0.994187, 161, 65, 192, 128
-0.994191, 279, 257, 294, 320
-0.994207, 241, 121, 368, 184
-0.994238, 177, 161, 304, 224
-0.99425, 1, 137, 375, 200
-0.994287, 161, 65, 288, 128
-0.994296, 165, 49, 196, 176
-0.994332, 113, 273, 144, 336
-0.994338, 209, 285, 336, 316
-0.994369, 145, 325, 272, 356
-0.994395, 17, 433, 144, 496
-0.994411, 199, 289, 214, 352
-0.994422, 201, 65, 264, 192
-0.994445, 89, 353, 152, 480
-0.994461, 225, 313, 352, 344
-0.994461, 209, 1, 272, 500
-0.994489, 109, 209, 140, 336
-0.994516, 313, 385, 375, 448
-0.994519, 137, 385, 200, 448
-0.994533, 159, 329, 174, 392
-0.99454, 233, 81, 296, 208
-0.994541, 193, 409, 256, 472
-0.994562, 225, 301, 352, 332
-0.994571, 97, 121, 352, 184
-0.994572, 89, 153, 152, 216
-0.994577, 265, 129, 296, 256
-0.994579, 293, 273, 308, 336
-0.99458, 289, 113, 352, 176
-0.994624, 181, 129, 212, 256
-0.994629, 1, 121, 256, 184
-0.994633, 257, 353, 320, 416
-0.994637, 313, 321, 328, 384
-0.994665, 265, 393, 328, 456
-0.994692, 113, 33, 176, 160
-0.994702, 337, 297, 352, 360
-0.994721, 223, 265, 238, 328
-0.994723, 49, 33, 176, 96
-0.994732, 173, 273, 188, 336
-0.994741, 251, 249, 266, 312
-0.994746, 97, 177, 224, 240
-0.99477, 205, 137, 236, 200
-0.994776, 25, 425, 88, 488
-0.994794, 141, 65, 172, 128
-0.994814, 141, 305, 156, 368
-0.99482, 141, 329, 156, 392
-0.994834, 33, 97, 96, 160
-0.994835, 81, 261, 208, 292
-0.994845, 205, 313, 220, 376
-0.994845, 1, 369, 128, 432
-0.994869, 299, 265, 314, 328
-0.994873, 113, 337, 240, 368
-0.994879, 193, 161, 256, 288
-0.994891, 177, 369, 304, 496
-0.994893, 345, 257, 375, 320
-0.994905, 9, 113, 72, 176
-0.994908, 163, 281, 178, 344
-0.99491, 13, 369, 44, 496
-0.99493, 109, 137, 140, 200
-0.994951, 135, 345, 150, 408
-0.994955, 265, 289, 296, 416
-0.994959, 81, 225, 144, 480
-0.994978, 49, 225, 80, 352
-0.994986, 289, 401, 352, 464
-0.994989, 125, 241, 140, 304
-0.995007, 29, 337, 44, 400
-0.995013, 97, 233, 352, 296
-0.995016, 361, 297, 375, 360
-0.995033, 345, 433, 375, 496
-0.995062, 113, 349, 240, 380
-0.995085, 217, 265, 232, 328
-0.995093, 325, 177, 356, 304
-0.995094, 217, 321, 232, 384
-0.995153, 209, 329, 336, 360
-0.995155, 201, 257, 216, 320
-0.995159, 231, 305, 246, 368
-0.99519, 299, 297, 314, 360
-0.995196, 137, 249, 152, 312
-0.995198, 131, 241, 146, 304
-0.995234, 1, 345, 256, 408
-0.99524, 169, 305, 184, 368
-0.995262, 155, 249, 170, 312
-0.995265, 209, 341, 336, 372
-0.995287, 319, 329, 334, 392
-0.9953, 223, 241, 238, 304
-0.995304, 201, 97, 264, 160
-0.995308, 153, 409, 216, 472
-0.995338, 23, 313, 38, 376
-0.995341, 17, 209, 144, 272
-0.995352, 323, 305, 338, 368
-0.995402, 265, 209, 328, 272
-0.995405, 129, 309, 256, 340
-0.995415, 1, 177, 64, 240
-0.995422, 205, 145, 236, 272
-0.995434, 241, 269, 368, 300
-0.995449, 207, 289, 222, 352
-0.995452, 245, 249, 260, 312
-0.995463, 153, 329, 168, 392
-0.995509, 229, 249, 244, 312
-0.995526, 191, 281, 206, 344
-0.995535, 65, 333, 192, 364
-0.995568, 35, 273, 50, 336
-0.995571, 73, 1, 136, 500
-0.995578, 257, 257, 272, 320
-0.995579, 183, 289, 198, 352
-0.995581, 235, 249, 250, 312
-0.995614, 209, 1, 272, 256
-0.995617, 285, 249, 300, 312
-0.995622, 27, 265, 42, 328
-0.995626, 33, 225, 96, 288
-0.995641, 67, 289, 82, 352
-0.995654, 73, 289, 88, 352
-0.995658, 33, 169, 288, 232
-0.995663, 107, 265, 122, 328
-0.995676, 1, 177, 128, 240
-0.99569, 1, 401, 128, 464
-0.995695, 197, 353, 228, 480
-0.995699, 329, 329, 344, 392
-0.995705, 343, 297, 358, 360
-0.995708, 241, 209, 272, 336
-0.99571, 113, 157, 240, 188
-0.995735, 305, 297, 320, 360
-0.99574, 125, 33, 156, 160
-0.995745, 145, 249, 160, 312
-0.995777, 277, 233, 292, 296
-0.995796, 269, 249, 284, 312
-0.995797, 313, 345, 328, 408
-0.995822, 117, 257, 132, 320
-0.995836, 209, 337, 224, 400
-0.995837, 7, 281, 22, 344
-0.995846, 303, 337, 318, 400
-0.995848, 89, 33, 152, 288
-0.995864, 257, 169, 320, 232
-0.99587, 173, 337, 204, 464
-0.995903, 73, 33, 136, 160
-0.995907, 1, 145, 256, 208
-0.995913, 335, 321, 350, 384
-0.995928, 309, 209, 340, 336
-0.995967, 177, 309, 304, 340
-0.995967, 161, 177, 224, 240
-0.995972, 1, 393, 64, 456
-0.995989, 17, 313, 32, 376
-0.996008, 241, 253, 368, 284
-0.996067, 161, 337, 288, 368
-0.996069, 35, 329, 50, 392
-0.996077, 73, 217, 136, 280
-0.996093, 89, 73, 152, 136
-0.996108, 179, 265, 194, 328
-0.996115, 211, 233, 226, 296
-0.996125, 177, 297, 304, 328
-0.996133, 219, 297, 234, 360
-0.996134, 241, 149, 368, 180
-0.996153, 329, 281, 344, 344
-0.996154, 129, 285, 256, 316
-0.996177, 137, 33, 168, 160
-0.996177, 79, 289, 94, 352
-0.996182, 113, 73, 240, 104
-0.996191, 129, 245, 256, 276
-0.996191, 29, 297, 44, 360
-0.996248, 211, 313, 226, 376
-0.99625, 173, 249, 188, 312
-0.996269, 199, 313, 214, 376
-0.996288, 1, 113, 375, 176
-0.996293, 297, 1, 360, 256
-0.996302, 81, 285, 208, 316
-0.996312, 1, 321, 375, 384
-0.996323, 355, 305, 370, 368
-0.996339, 199, 345, 214, 408
-0.996343, 193, 385, 256, 448
-0.996347, 143, 353, 158, 416
-0.996365, 1, 313, 128, 344
-0.996382, 203, 129, 218, 192
-0.996416, 113, 169, 240, 200
-0.996417, 81, 305, 208, 336
-0.996421, 97, 65, 352, 128
-0.996444, 193, 161, 224, 416
-0.996463, 305, 273, 320, 336
-0.996493, 347, 321, 362, 384
-0.996507, 129, 169, 375, 232
-0.996508, 139, 137, 154, 200
-0.996551, 241, 41, 368, 104
-0.996563, 1, 65, 256, 128
-0.996579, 225, 121, 288, 184
-0.996587, 173, 193, 204, 320
-0.996608, 341, 321, 356, 384
-0.996609, 321, 369, 336, 432
-0.996622, 49, 145, 112, 208
-0.996629, 179, 97, 194, 160
-0.996631, 33, 349, 160, 380
-0.996634, 169, 145, 200, 272
-0.996643, 49, 385, 176, 448
-0.996646, 129, 265, 144, 328
-0.996647, 17, 145, 32, 208
-0.996682, 165, 329, 180, 392
-0.996691, 229, 329, 244, 392
-0.9967, 293, 297, 308, 360
-0.996704, 97, 89, 352, 152
-0.996708, 277, 253, 292, 284
-0.996709, 327, 353, 342, 416
-0.99671, 157, 273, 172, 336
-0.996718, 57, 97, 120, 352
-0.996734, 81, 273, 208, 304
-0.996743, 135, 321, 150, 384
-0.996747, 241, 33, 368, 160
-0.99675, 111, 241, 126, 304
-0.996753, 323, 281, 338, 344
-0.996769, 313, 369, 328, 432
-0.996791, 163, 305, 178, 368
-0.9968, 193, 185, 320, 248
-0.996812, 207, 261, 222, 292
-0.996813, 223, 321, 238, 384
-0.996818, 129, 129, 144, 192
-0.996831, 51, 145, 66, 208
-0.996837, 121, 369, 152, 496
-0.996851, 177, 161, 208, 416
-0.996857, 41, 329, 56, 392
-0.99686, 193, 137, 208, 200
-0.99687, 205, 65, 220, 128
-0.996872, 287, 281, 302, 344
-0.996885, 175, 297, 190, 360
-0.996886, 317, 297, 332, 360
-0.996899, 149, 273, 164, 336
-0.996901, 159, 337, 174, 368
-0.996919, 193, 353, 320, 384
-0.996922, 119, 233, 134, 296
-0.99693, 145, 193, 176, 448
-0.996931, 1, 293, 128, 324
-0.996937, 167, 261, 182, 292
-0.996943, 193, 433, 256, 496
-0.996946, 113, 385, 176, 448
-0.996949, 43, 297, 58, 360
-0.996951, 1, 241, 375, 304
-0.996952, 137, 369, 152, 432
-0.996952, 23, 337, 38, 400
-0.996953, 75, 313, 90, 376
-0.996953, 253, 273, 284, 400
-0.996956, 1, 169, 375, 232
-0.996958, 343, 145, 358, 208
-0.996963, 17, 273, 32, 336
-0.996967, 307, 361, 322, 424
-0.996976, 329, 81, 360, 208
-0.99699, 311, 137, 326, 200
-0.997012, 235, 273, 250, 336
-0.997036, 113, 89, 240, 120
-0.997041, 273, 1, 336, 256
-0.997044, 11, 145, 26, 208
-0.997045, 131, 153, 146, 216
-0.997049, 149, 137, 164, 200
-0.997052, 193, 245, 320, 276
-0.997068, 11, 313, 26, 376
-0.997072, 129, 345, 144, 408
-0.997074, 305, 137, 320, 200
-0.997076, 101, 265, 116, 328
-0.997077, 239, 313, 254, 376
-0.997087, 123, 265, 138, 328
-0.997089, 185, 1, 248, 256
-0.997092, 37, 353, 52, 416
-0.997107, 49, 169, 112, 232
-0.997129, 65, 317, 192, 348
-0.99713, 337, 193, 368, 320
-0.997135, 1, 233, 256, 296
-0.997137, 205, 257, 236, 500
-0.997141, 213, 249, 228, 280
-0.997201, 33, 269, 160, 300
-0.997214, 97, 369, 352, 432
-0.997245, 241, 357, 368, 388
-0.997247, 133, 193, 164, 448
-0.997271, 49, 249, 176, 280
-0.997283, 113, 137, 240, 168
-0.997303, 113, 361, 240, 392
-0.997305, 49, 157, 176, 188
-0.997305, 177, 157, 304, 188
-0.997322, 1, 145, 128, 176
-0.997323, 297, 281, 312, 312
-0.997324, 125, 249, 140, 280
-0.997336, 331, 309, 346, 340
-0.997348, 107, 269, 122, 300
-0.997356, 175, 297, 190, 328
-0.997366, 151, 333, 166, 364
-0.997367, 165, 193, 196, 448
-0.997374, 157, 97, 188, 352
-0.997383, 97, 385, 224, 448
-0.997383, 49, 409, 176, 472
-0.997384, 49, 137, 176, 168
-0.997387, 201, 297, 216, 328
-0.997389, 65, 169, 192, 200
-0.997407, 301, 265, 316, 296
-0.997429, 215, 297, 230, 328
-0.997432, 161, 257, 176, 288
-0.997435, 125, 33, 156, 288
-0.997442, 209, 285, 224, 316
-0.997452, 229, 369, 260, 496
-0.997459, 113, 41, 240, 104
-0.997483, 189, 33, 220, 288
-0.997486, 337, 309, 352, 340
-0.997488, 121, 161, 152, 416
-0.997493, 241, 393, 304, 456
-0.997496, 167, 297, 182, 328
-0.997512, 225, 177, 256, 304
-0.997515, 135, 257, 150, 288
-0.997525, 227, 257, 242, 288
-0.997525, 1, 97, 256, 160
-0.997536, 67, 305, 82, 336
-0.997543, 161, 297, 176, 328
-0.997566, 189, 257, 220, 500
-0.997593, 291, 277, 306, 308
-0.997596, 119, 257, 134, 288
-0.997601, 149, 345, 164, 376
-0.997611, 169, 273, 184, 304
-0.997615, 269, 257, 284, 288
-0.997621, 181, 297, 196, 328
-0.997643, 327, 325, 342, 356
-0.997648, 209, 337, 224, 368
-0.997651, 261, 193, 292, 448
-0.997653, 113, 121, 240, 152
-0.997656, 281, 161, 312, 416
-0.997659, 217, 261, 232, 292
-0.997666, 21, 129, 52, 384
-0.997672, 1, 281, 128, 312
-0.997673, 299, 321, 314, 352
-0.997678, 141, 333, 156, 364
-0.997684, 215, 281, 230, 312
-0.997694, 309, 341, 324, 372
-0.997696, 257, 261, 272, 292
-0.997698, 17, 337, 144, 368
-0.997701, 219, 241, 234, 272
-0.997704, 49, 77, 176, 108
-0.99771, 113, 101, 240, 132
-0.997725, 201, 49, 264, 112
-0.99773, 209, 297, 224, 328
-0.99773, 135, 349, 150, 380
-0.997754, 209, 273, 224, 304
-0.997765, 253, 321, 284, 448
-0.997766, 281, 257, 312, 500
-0.997768, 177, 309, 192, 340
-0.997769, 1, 325, 128, 356
-0.997772, 191, 285, 206, 316
-0.997774, 25, 345, 40, 376
-0.997775, 73, 49, 136, 112
-0.997777, 313, 325, 328, 356
-0.997777, 341, 325, 356, 356
-0.99778, 73, 293, 88, 324
-0.997782, 251, 257, 266, 288
-0.997801, 289, 289, 304, 320
-0.997808, 125, 261, 140, 292
-0.997811, 115, 269, 130, 300
-0.997811, 323, 345, 338, 376
-0.997816, 201, 357, 216, 388
-0.997825, 173, 285, 188, 316
-0.997826, 313, 241, 375, 304
-0.997833, 217, 193, 248, 448
-0.99785, 113, 257, 128, 288
-0.997864, 33, 61, 160, 92
-0.997864, 279, 269, 294, 300
-0.99787, 361, 309, 375, 340
-0.99788, 147, 305, 162, 336
-0.997882, 177, 41, 304, 104
-0.997889, 217, 401, 280, 464
-0.997891, 201, 273, 216, 304
-0.997891, 105, 305, 136, 432
-0.997895, 323, 313, 338, 344
-0.997909, 189, 33, 220, 160
-0.997915, 73, 309, 88, 340
-0.997916, 345, 313, 360, 344
-0.997917, 135, 157, 150, 188
-0.997917, 221, 301, 236, 332
-0.997917, 317, 361, 332, 392
-0.997921, 81, 273, 112, 400
-0.997921, 155, 257, 170, 288
-0.997921, 159, 273, 174, 304
-0.997928, 209, 317, 224, 348
-0.997937, 113, 373, 240, 404
-0.997941, 319, 329, 334, 360
-0.997944, 333, 329, 348, 360
-0.997944, 33, 333, 48, 364
-0.997961, 191, 313, 206, 344
-0.997964, 173, 261, 188, 292
-0.997964, 193, 157, 208, 188
-0.997969, 193, 469, 320, 500
-0.99797, 37, 281, 52, 312
-0.997972, 199, 285, 214, 316
-0.997974, 177, 257, 208, 500
-0.99798, 65, 225, 96, 352
-0.997981, 67, 293, 82, 324
-0.997982, 201, 309, 216, 340
-0.997988, 303, 293, 318, 324
-0.997992, 241, 209, 368, 240
-0.998003, 169, 309, 184, 340
-0.998013, 183, 309, 198, 340
-0.998022, 167, 285, 182, 316
-0.998029, 153, 301, 168, 332
-0.998035, 273, 193, 304, 320
-0.998039, 341, 145, 372, 272
-0.99804, 177, 137, 304, 168
-0.99804, 355, 317, 370, 348
-0.99804, 45, 161, 76, 416
-0.99804, 361, 297, 375, 328
-0.998046, 297, 305, 312, 336
-0.998053, 193, 365, 320, 396
-0.998055, 223, 273, 238, 304
-0.998058, 41, 333, 56, 364
-0.99806, 143, 257, 158, 288
-0.99807, 229, 305, 244, 336
-0.998075, 1, 433, 64, 496
-0.99808, 309, 137, 324, 168
-0.99808, 177, 169, 304, 200
-0.99808, 41, 297, 56, 328
-0.998083, 303, 277, 318, 308
-0.998083, 241, 241, 368, 272
-0.998094, 241, 257, 256, 288
-0.9981, 137, 33, 168, 288
-0.998104, 141, 353, 156, 384
-0.998107, 149, 257, 164, 288
-0.998113, 5, 129, 36, 384
-0.998116, 273, 81, 304, 208
-0.998121, 33, 401, 96, 464
-0.99813, 281, 337, 312, 464
-0.998134, 215, 317, 230, 348
-0.998135, 241, 169, 368, 200
-0.998137, 215, 333, 230, 364
-0.998138, 235, 257, 250, 288
-0.998143, 37, 369, 68, 496
-0.99815, 145, 157, 160, 188
-0.998153, 301, 225, 332, 480
-0.998158, 21, 309, 36, 340
-0.99816, 187, 297, 202, 328
-0.998163, 39, 345, 54, 376
-0.998164, 203, 157, 218, 188
-0.998171, 305, 305, 320, 336
-0.998178, 177, 93, 192, 124
-0.998178, 327, 361, 342, 392
-0.99819, 241, 221, 368, 252
-0.998191, 33, 361, 160, 392
-0.998194, 33, 129, 64, 384
-0.998203, 129, 157, 144, 188
-0.998204, 205, 161, 236, 416
-0.998208, 203, 329, 218, 360
-0.998213, 307, 329, 322, 360
-0.998225, 23, 329, 38, 360
-0.998231, 17, 33, 80, 160
-0.998231, 313, 373, 328, 404
-0.99824, 209, 349, 224, 380
-0.998256, 173, 65, 204, 320
-0.998276, 303, 341, 318, 372
-0.998277, 157, 325, 172, 356
-0.998278, 305, 317, 320, 348
-0.998291, 317, 305, 332, 336
-0.998292, 285, 261, 300, 292
-0.998292, 321, 373, 336, 404
-0.998296, 13, 321, 28, 352
-0.998298, 141, 313, 156, 344
-0.998301, 311, 361, 326, 392
-0.99831, 283, 281, 298, 312
-0.998317, 349, 325, 364, 356
-0.998319, 195, 297, 210, 328
-0.998321, 317, 349, 332, 380
-0.998322, 165, 337, 180, 368
-0.998328, 267, 269, 282, 300
-0.998338, 231, 329, 246, 360
-0.998341, 311, 285, 326, 316
-0.998345, 295, 337, 310, 368
-0.998352, 241, 137, 368, 168
-0.998359, 145, 437, 272, 468
-0.998365, 145, 453, 272, 484
-0.998375, 213, 279, 244, 294
-0.998375, 45, 291, 76, 306
-0.998376, 305, 307, 336, 322
-0.998376, 101, 261, 132, 276
-0.998377, 197, 341, 228, 356
-0.998377, 193, 157, 224, 172
-0.998379, 49, 309, 80, 324
-0.998379, 125, 335, 156, 350
-0.99838, 297, 297, 328, 312
-0.99838, 225, 251, 256, 266
-0.998381, 193, 323, 224, 338
-0.998383, 241, 377, 368, 408
-0.998384, 193, 329, 224, 344
-0.998384, 145, 353, 176, 368
-0.998385, 309, 379, 340, 394
-0.998387, 345, 301, 375, 316
-0.998387, 193, 275, 224, 290
-0.998388, 213, 285, 244, 300
-0.998389, 305, 347, 336, 362
-0.998389, 325, 337, 356, 352
-0.99839, 125, 165, 156, 180
-0.99839, 205, 323, 236, 338
-0.99839, 309, 359, 340, 374
-0.99839, 165, 103, 196, 118
-0.99839, 69, 303, 100, 318
-0.998394, 101, 267, 132, 282
-0.998394, 221, 327, 252, 342
-0.998394, 177, 327, 208, 342
-0.998395, 325, 373, 356, 388
-0.998395, 345, 323, 375, 338
-0.998397, 133, 343, 164, 358
-0.998398, 25, 369, 56, 384
-0.998398, 245, 225, 276, 480
-0.998399, 257, 253, 288, 268
-0.998399, 177, 311, 208, 326
-0.998401, 241, 259, 272, 274
-0.998401, 113, 259, 176, 274
-0.998402, 253, 97, 284, 224
-0.998402, 293, 319, 324, 334
-0.998402, 137, 361, 168, 376
-0.998403, 329, 307, 360, 322
-0.998404, 273, 291, 304, 306
-0.998405, 33, 343, 64, 358
-0.998405, 205, 309, 236, 324
-0.998407, 157, 209, 188, 336
-0.998409, 313, 337, 344, 352
-0.998412, 245, 277, 276, 292
-0.998412, 285, 297, 316, 312
-0.998413, 157, 345, 188, 360
-0.998413, 253, 265, 284, 280
-0.998414, 193, 335, 224, 350
-0.998414, 297, 271, 328, 286
-0.998415, 273, 253, 304, 268
-0.998416, 293, 325, 324, 340
-0.998416, 61, 319, 92, 334
-0.998416, 189, 165, 220, 180
-0.998417, 153, 261, 184, 276
-0.998417, 101, 279, 132, 294
-0.998418, 257, 273, 288, 288
-0.99842, 277, 283, 308, 298
-0.99842, 165, 95, 196, 110
-0.998425, 301, 277, 332, 292
-0.998425, 49, 125, 176, 156
-0.998425, 117, 269, 148, 284
-0.998425, 345, 317, 375, 332
-0.99843, 181, 289, 212, 304
-0.99843, 285, 339, 316, 354
-0.99843, 221, 321, 252, 336
-0.99843, 209, 247, 240, 262
-0.99843, 169, 257, 184, 384
-0.99843, 313, 315, 375, 330
-0.998431, 153, 267, 184, 282
-0.998431, 321, 347, 352, 362
-0.998432, 193, 281, 224, 296
-0.998432, 277, 263, 308, 278
-0.998433, 5, 311, 36, 326
-0.998433, 305, 331, 368, 346
-0.998434, 153, 275, 184, 290
-0.998434, 61, 297, 92, 312
-0.998438, 21, 349, 52, 364
-0.998439, 337, 339, 368, 354
-0.99844, 21, 143, 52, 158
-0.998441, 193, 311, 224, 326
-0.998441, 57, 337, 120, 464
-0.998441, 133, 349, 164, 364
-0.998442, 161, 1, 192, 256
-0.998443, 281, 317, 312, 332
-0.998444, 29, 335, 60, 350
-0.998447, 317, 81, 348, 208
-0.998448, 1, 161, 128, 192
-0.998449, 217, 307, 248, 322
-0.99845, 213, 267, 244, 282
-0.998451, 325, 129, 356, 384
-0.998452, 17, 277, 48, 292
-0.998452, 301, 283, 332, 298
-0.998452, 221, 315, 252, 330
-0.998453, 221, 257, 252, 272
-0.998456, 165, 301, 196, 316
-0.998456, 205, 295, 236, 310
-0.998457, 285, 291, 316, 306
-0.998458, 201, 261, 232, 276
-0.998458, 317, 331, 348, 346
-0.99846, 309, 353, 340, 368
-0.998461, 289, 319, 352, 334
-0.998461, 333, 321, 364, 336
-0.998465, 309, 373, 340, 388
-0.998465, 165, 311, 196, 326
-0.998465, 137, 311, 200, 326
-0.998465, 309, 365, 340, 380
-0.998468, 333, 331, 364, 346
-0.998468, 297, 143, 328, 158
-0.998469, 29, 299, 60, 314
-0.998469, 113, 273, 176, 288
-0.99847, 213, 333, 244, 348
-0.998472, 165, 291, 196, 306
-0.998472, 241, 181, 368, 212
-0.998472, 105, 273, 136, 288
-0.998474, 97, 417, 352, 480
-0.998477, 129, 265, 192, 280
-0.998482, 257, 273, 320, 288
-0.998482, 137, 41, 200, 104
-0.998484, 301, 331, 332, 346
-0.998484, 281, 291, 344, 306
-0.998484, 145, 307, 176, 322
-0.998485, 113, 263, 144, 278
-0.998487, 309, 317, 340, 332
-0.998487, 301, 291, 332, 306
-0.998489, 217, 259, 280, 274
-0.998489, 281, 269, 312, 284
-0.99849, 145, 347, 176, 362
-0.99849, 137, 337, 168, 352
-0.998492, 317, 325, 348, 340
-0.998492, 281, 281, 344, 296
-0.998494, 201, 253, 264, 268
-0.998494, 133, 355, 164, 370
-0.998495, 177, 297, 240, 312
-0.998495, 177, 317, 208, 332
-0.998496, 193, 287, 224, 302
-0.998496, 133, 259, 164, 274
-0.998496, 209, 339, 240, 354
-0.9985, 117, 253, 148, 268
-0.998506, 61, 309, 92, 324
-0.998508, 163, 257, 178, 384
-0.998509, 265, 265, 296, 280
-0.998512, 209, 301, 240, 316
-0.998514, 301, 341, 332, 356
-0.998515, 305, 325, 368, 340
-0.998519, 269, 273, 300, 288
-0.99852, 153, 299, 216, 314
-0.998523, 185, 307, 248, 322
-0.998524, 213, 273, 244, 288
-0.998524, 225, 425, 352, 456
-0.998525, 25, 301, 88, 316
-0.998529, 25, 225, 56, 480
-0.998529, 169, 267, 232, 282
-0.99853, 1, 353, 375, 416
-0.99853, 197, 317, 228, 332
-0.998531, 201, 267, 232, 282
-0.998532, 169, 369, 232, 496
-0.998533, 337, 225, 368, 480
-0.998535, 193, 319, 256, 334
-0.998537, 153, 301, 184, 316
-0.998538, 305, 337, 368, 352
-0.998538, 265, 325, 328, 340
-0.99854, 185, 297, 216, 312
-0.99854, 121, 337, 184, 352
-0.998541, 129, 345, 192, 360
-0.998541, 313, 309, 375, 324
-0.998542, 193, 313, 256, 328
-0.998542, 137, 305, 200, 320
-0.998543, 257, 283, 320, 298
-0.998546, 305, 373, 368, 388
-0.998547, 209, 253, 240, 268
-0.998547, 149, 339, 180, 354
-0.99855, 153, 287, 216, 302
-0.998553, 225, 457, 352, 488
-0.998555, 193, 325, 256, 340
-0.998557, 305, 365, 368, 380
-0.99856, 149, 273, 164, 400
-0.998562, 1, 369, 256, 432
-0.998563, 289, 285, 320, 300
-0.998564, 89, 271, 152, 286
-0.998567, 161, 315, 224, 330
-0.998567, 201, 17, 264, 144
-0.998567, 265, 259, 296, 274
-0.998568, 281, 363, 344, 378
-0.998569, 1, 305, 64, 320
-0.998571, 1, 283, 64, 298
-0.998572, 41, 295, 104, 310
-0.998573, 281, 307, 344, 322
-0.998575, 193, 289, 256, 304
-0.998575, 129, 351, 192, 366
-0.998575, 161, 89, 288, 120
-0.998576, 329, 313, 360, 328
-0.998578, 161, 333, 224, 348
-0.998578, 257, 289, 320, 304
-0.998578, 169, 261, 232, 276
-0.99858, 193, 333, 256, 348
-0.998581, 17, 347, 80, 362
-0.998581, 257, 267, 320, 282
-0.998582, 49, 93, 176, 124
-0.998583, 153, 341, 216, 356
-0.998583, 89, 265, 152, 280
-0.998583, 289, 313, 352, 328
-0.998584, 305, 291, 368, 306
-0.998584, 49, 301, 112, 316
-0.998585, 297, 297, 360, 312
-0.998586, 281, 341, 344, 356
-0.998586, 281, 357, 344, 372
-0.998587, 265, 259, 328, 274
-0.998588, 137, 1, 200, 128
-0.998588, 169, 321, 232, 336
-0.998588, 177, 69, 304, 100
-0.99859, 201, 273, 264, 288
-0.998593, 113, 253, 176, 268
-0.998593, 17, 145, 80, 160
-0.998595, 145, 101, 208, 116
-0.998596, 161, 255, 224, 270
-0.998596, 161, 167, 224, 182
-0.998596, 219, 257, 234, 384
-0.998598, 17, 311, 80, 326
-0.9986, 233, 277, 296, 292
-0.998602, 265, 319, 328, 334
-0.998602, 161, 307, 224, 322
-0.998602, 217, 265, 280, 280
-0.998603, 193, 339, 256, 354
-0.998603, 1, 295, 64, 310
-0.998604, 137, 327, 200, 342
-0.998605, 153, 351, 216, 366
-0.998607, 153, 293, 216, 308
-0.998608, 289, 279, 320, 294
-0.998609, 233, 323, 296, 338
-0.998609, 241, 259, 304, 274
-0.998609, 121, 167, 184, 182
-0.99861, 297, 275, 360, 290
-0.998615, 233, 317, 296, 332
-0.998615, 225, 251, 288, 266
-0.998615, 297, 347, 360, 362
-0.998617, 305, 359, 368, 374
-0.998618, 129, 281, 192, 296
-0.998619, 153, 281, 216, 296
-0.998619, 121, 357, 184, 372
-0.99862, 193, 377, 320, 408
-0.99862, 281, 331, 344, 346
-0.99862, 305, 285, 368, 300
-0.998623, 9, 337, 72, 352
-0.998623, 233, 311, 296, 326
-0.998625, 65, 279, 128, 294
-0.998625, 281, 369, 344, 384
-0.998625, 169, 273, 232, 288
-0.998626, 289, 143, 352, 158
-0.99863, 225, 341, 288, 356
-0.998631, 225, 335, 288, 350
-0.998632, 137, 317, 200, 332
-0.998634, 169, 103, 232, 118
-0.998634, 53, 49, 84, 176
-0.998638, 65, 273, 128, 288
-0.998639, 257, 349, 320, 364
-0.998639, 193, 351, 256, 366
-0.998641, 89, 277, 152, 292
-0.998641, 313, 303, 375, 318
-0.998641, 41, 307, 104, 322
-0.998641, 265, 299, 328, 314
-0.998642, 193, 125, 320, 156
-0.998642, 169, 97, 232, 112
-0.998642, 313, 379, 375, 394
-0.998644, 313, 151, 375, 166
-0.998645, 33, 329, 96, 344
-0.998646, 153, 357, 216, 372
-0.998646, 169, 109, 232, 124
-0.998647, 137, 275, 200, 290
-0.998649, 193, 361, 256, 376
-0.998649, 113, 157, 176, 172
-0.99865, 1, 289, 64, 304
-0.99865, 217, 329, 280, 344
-0.99865, 145, 95, 208, 110
-0.998651, 217, 287, 280, 302
-0.998651, 41, 289, 104, 304
-0.998652, 97, 283, 160, 298
-0.998656, 129, 209, 375, 272
-0.998656, 169, 145, 232, 160
-0.998659, 9, 355, 72, 370
-0.998659, 169, 87, 232, 102
-0.998659, 169, 117, 232, 132
-0.99866, 1, 277, 64, 292
-0.998661, 33, 355, 96, 370
-0.998662, 209, 307, 272, 322
-0.998662, 17, 317, 80, 332
-0.998662, 97, 351, 160, 366
-0.998663, 217, 297, 280, 312
-0.998664, 169, 133, 232, 148
-0.998664, 313, 139, 375, 154
-0.998665, 33, 139, 96, 154
-0.998674, 303, 257, 318, 384
-0.998675, 211, 257, 226, 384
-0.998727, 129, 41, 375, 104
-0.998732, 65, 109, 192, 140
-0.998744, 225, 413, 352, 444
-0.998751, 313, 321, 328, 448
-0.998751, 33, 393, 288, 456
-0.998752, 297, 257, 312, 384
-0.998756, 157, 273, 172, 400
-0.998763, 225, 445, 352, 476
-0.998766, 31, 289, 46, 416
-0.99878, 109, 129, 140, 256
-0.99878, 261, 97, 292, 352
-0.998788, 187, 273, 202, 400
-0.998801, 241, 469, 368, 500
-0.998807, 225, 257, 240, 384
-0.998821, 97, 409, 224, 472
-0.998822, 175, 257, 190, 384
-0.998831, 297, 81, 328, 208
-0.998841, 129, 393, 375, 456
-0.998844, 39, 273, 54, 400
-0.998849, 331, 289, 346, 416
-0.998856, 161, 101, 288, 132
-0.998863, 199, 273, 214, 400
-0.998866, 5, 257, 36, 500
-0.998877, 205, 65, 236, 320
-0.99888, 193, 273, 208, 400
-0.998887, 279, 241, 294, 368
-0.998897, 301, 129, 332, 384
-0.998907, 321, 321, 336, 448
-0.998918, 325, 257, 356, 500
-0.998919, 145, 413, 272, 444
-0.998925, 33, 193, 288, 256
-0.998925, 23, 257, 38, 384
-0.998935, 145, 465, 272, 496
-0.998937, 181, 289, 196, 416
-0.99894, 143, 305, 158, 432
-0.998946, 297, 177, 328, 304
-0.998948, 1, 73, 375, 136
-0.998954, 113, 61, 240, 92
-0.998955, 205, 257, 220, 384
-0.998971, 29, 337, 44, 464
-0.998974, 313, 161, 344, 416
-0.998981, 109, 161, 140, 416
-0.998983, 193, 233, 320, 264
-0.998992, 289, 257, 304, 384
-0.999004, 231, 289, 246, 416
-0.999004, 307, 321, 322, 448
-0.999023, 233, 193, 264, 448
-0.999039, 61, 129, 92, 256
-0.999039, 155, 225, 170, 352
-0.999043, 145, 425, 272, 456
-0.999049, 175, 305, 190, 432
-0.999053, 311, 273, 326, 400
-0.999063, 17, 273, 32, 400
-0.999065, 339, 289, 354, 416
-0.999066, 193, 397, 320, 428
-0.999069, 337, 129, 368, 384
-0.999071, 121, 257, 152, 500
-0.999082, 241, 197, 368, 228
-0.999084, 221, 305, 236, 432
-0.999088, 1, 205, 128, 236
-0.999102, 113, 65, 144, 320
-0.999104, 301, 305, 316, 432
-0.999105, 149, 321, 164, 448
-0.999106, 149, 33, 180, 160
-0.99911, 149, 225, 164, 352
-0.999114, 73, 273, 88, 400
-0.999127, 169, 305, 184, 432
-0.99913, 129, 385, 256, 416
-0.999134, 1, 417, 256, 480
-0.999138, 241, 17, 368, 80
-0.999139, 11, 257, 26, 384
-0.999161, 321, 273, 336, 400
-0.999164, 203, 81, 218, 208
-0.999166, 217, 209, 232, 336
-0.999176, 141, 81, 156, 208
-0.999178, 159, 321, 174, 448
-0.999182, 237, 257, 252, 384
-0.999199, 31, 241, 46, 368
-0.999199, 1, 133, 128, 164
-0.999202, 137, 273, 152, 400
-0.999205, 227, 337, 242, 464
-0.999223, 37, 321, 52, 448
-0.999232, 343, 113, 358, 240
-0.999236, 231, 241, 246, 368
-0.999237, 65, 257, 96, 500
-0.999241, 205, 305, 220, 432
-0.999245, 313, 257, 344, 500
-0.999247, 245, 257, 260, 384
-0.999249, 237, 305, 252, 432
-0.999256, 45, 289, 60, 416
-0.999258, 295, 305, 310, 432
-0.999262, 337, 129, 352, 256
-0.999269, 151, 97, 166, 224
-0.999271, 211, 209, 226, 336
-0.999274, 223, 209, 238, 336
-0.999275, 129, 81, 144, 208
-0.999278, 179, 97, 194, 224
-0.999278, 107, 257, 122, 384
-0.99928, 305, 129, 320, 256
-0.999284, 51, 129, 66, 256
-0.99929, 141, 225, 156, 352
-0.99929, 149, 1, 180, 256
-0.999293, 273, 257, 288, 384
-0.999294, 283, 289, 298, 416
-0.999299, 1, 209, 375, 272
-0.999303, 49, 49, 176, 80
-0.999303, 41, 209, 56, 336
-0.999312, 63, 289, 78, 416
-0.999315, 1, 177, 128, 208
-0.999315, 23, 305, 38, 432
-0.999321, 157, 97, 172, 224
-0.999322, 197, 113, 212, 240
-0.999327, 361, 289, 375, 416
-0.99934, 1, 373, 128, 404
-0.99934, 135, 225, 150, 352
-0.999343, 57, 129, 88, 384
-0.99935, 327, 337, 342, 464
-0.999351, 211, 305, 226, 432
-0.999356, 143, 353, 158, 480
-0.999359, 287, 209, 302, 336
-0.999364, 299, 209, 314, 336
-0.999366, 345, 289, 360, 416
-0.999371, 1, 457, 128, 488
-0.999375, 299, 129, 314, 256
-0.999378, 181, 241, 196, 368
-0.99938, 191, 81, 206, 208
-0.99938, 311, 369, 326, 496
-0.999383, 135, 81, 150, 208
-0.999388, 355, 289, 370, 416
-0.999391, 331, 129, 346, 256
-0.999394, 167, 209, 182, 336
-0.9994, 177, 57, 304, 88
-0.9994, 33, 417, 160, 448
-0.999401, 253, 225, 268, 352
-0.999403, 39, 129, 54, 256
-0.999416, 277, 129, 292, 256
-0.999417, 53, 33, 84, 288
-0.999418, 339, 241, 354, 368
-0.999428, 199, 337, 214, 464
-0.999429, 45, 257, 76, 500
-0.999431, 161, 113, 288, 144
-0.999433, 163, 97, 178, 224
-0.999434, 23, 209, 38, 336
-0.999438, 323, 129, 338, 256
-0.999438, 185, 97, 200, 224
-0.999443, 353, 97, 368, 224
-0.999445, 207, 161, 222, 288
-0.999446, 171, 97, 186, 224
-0.99945, 121, 241, 136, 368
-0.999451, 273, 177, 288, 304
-0.999453, 1, 129, 16, 256
-0.999453, 241, 389, 368, 420
-0.999462, 133, 129, 148, 256
-0.999465, 141, 161, 156, 288
-0.999465, 11, 129, 26, 256
-0.999468, 125, 161, 140, 288
-0.999473, 293, 209, 308, 336
-0.999473, 131, 321, 146, 448
-0.999475, 23, 129, 38, 256
-0.999475, 127, 257, 142, 384
-0.999477, 151, 145, 166, 272
-0.99948, 199, 225, 214, 352
-0.999481, 61, 129, 76, 256
-0.999489, 33, 129, 48, 256
-0.99949, 315, 129, 330, 256
-0.999491, 189, 321, 204, 448
-0.999493, 329, 1, 360, 256
-0.999494, 161, 209, 176, 336
-0.999498, 245, 129, 276, 384
-0.999499, 17, 225, 32, 352
-0.9995, 287, 129, 302, 256
-0.999501, 241, 401, 368, 432
-0.999502, 193, 221, 320, 252
-0.999506, 1, 1, 128, 64
-0.999507, 259, 257, 274, 384
-0.999514, 45, 129, 60, 256
-0.999515, 333, 241, 348, 368
-0.999516, 341, 337, 356, 464
-0.999517, 115, 225, 130, 352
-0.999518, 137, 321, 152, 448
-0.99952, 17, 129, 32, 256
-0.999525, 271, 129, 286, 256
-0.999525, 5, 273, 20, 400
-0.999528, 33, 189, 160, 220
-0.999531, 49, 449, 176, 480
-0.999584, 33, 429, 160, 460
-0.999586, 43, 337, 58, 352
-0.999586, 197, 327, 212, 342
-0.999586, 209, 343, 224, 358
-0.999586, 327, 373, 342, 388
-0.999587, 361, 307, 375, 322
-0.999587, 177, 315, 192, 330
-0.999588, 157, 275, 172, 290
-0.999588, 223, 305, 238, 320
-0.999588, 235, 327, 250, 342
-0.999589, 285, 271, 300, 286
-0.999589, 345, 315, 360, 330
-0.99959, 303, 283, 318, 298
-0.999591, 113, 259, 128, 274
-0.999591, 213, 277, 228, 292
-0.999592, 301, 263, 316, 278
-0.999592, 1, 81, 32, 208
-0.999592, 259, 277, 274, 292
-0.999592, 331, 343, 346, 358
-0.999593, 199, 317, 214, 332
-0.999594, 159, 307, 174, 322
-0.999595, 199, 299, 214, 314
-0.999595, 279, 249, 294, 264
-0.999595, 201, 361, 216, 376
-0.999596, 313, 361, 328, 376
-0.999597, 347, 321, 362, 336
-0.999597, 157, 259, 172, 274
-0.999598, 207, 277, 222, 292
-0.9996, 201, 269, 216, 284
-0.9996, 209, 259, 224, 274
-0.999602, 199, 287, 214, 302
-0.999602, 217, 271, 232, 286
-0.999602, 297, 339, 312, 354
-0.999602, 319, 369, 334, 384
-0.999603, 231, 333, 246, 348
-0.999603, 111, 265, 126, 280
-0.999603, 139, 355, 154, 370
-0.999605, 219, 243, 234, 258
-0.999607, 309, 289, 324, 304
-0.999607, 185, 315, 200, 330
-0.999607, 191, 327, 206, 342
-0.999608, 1, 217, 128, 248
-0.999609, 73, 307, 88, 322
-0.99961, 303, 333, 318, 348
-0.99961, 213, 311, 228, 326
-0.999611, 215, 259, 230, 274
-0.999612, 219, 251, 234, 266
-0.999612, 297, 299, 312, 314
-0.999613, 181, 307, 196, 322
-0.999613, 211, 317, 226, 332
-0.999614, 67, 317, 82, 332
-0.999614, 189, 297, 204, 312
-0.999615, 169, 313, 184, 328
-0.999615, 319, 375, 334, 390
-0.999615, 199, 371, 214, 386
-0.999616, 211, 337, 226, 352
-0.999616, 177, 1, 304, 64
-0.999617, 333, 327, 348, 342
-0.999618, 117, 273, 132, 288
-0.999619, 133, 259, 148, 274
-0.999619, 323, 349, 338, 364
-0.999621, 141, 157, 156, 172
-0.999621, 211, 283, 226, 298
-0.999622, 335, 309, 350, 324
-0.999622, 307, 343, 322, 358
-0.999622, 289, 295, 304, 310
-0.999624, 193, 285, 208, 300
-0.999625, 217, 297, 232, 312
-0.999626, 215, 303, 230, 318
-0.999626, 149, 349, 164, 364
-0.999627, 309, 141, 324, 156
-0.999627, 201, 311, 216, 326
-0.999628, 341, 323, 356, 338
-0.999628, 167, 295, 182, 310
-0.999628, 223, 273, 238, 288
-0.999628, 205, 317, 220, 332
-0.999628, 67, 309, 82, 324
-0.999628, 313, 373, 328, 388
-0.99963, 25, 347, 40, 362
-0.999631, 359, 319, 374, 334
-0.999632, 163, 269, 178, 284
-0.999633, 39, 297, 54, 312
-0.999633, 327, 323, 342, 338
-0.999635, 303, 323, 318, 338
-0.999635, 205, 335, 220, 350
-0.999635, 287, 287, 302, 302
-0.999636, 119, 267, 134, 282
-0.999636, 121, 259, 136, 274
-0.999636, 147, 309, 162, 324
-0.999641, 171, 275, 186, 290
-0.999646, 209, 291, 224, 306
-0.999646, 191, 317, 206, 332
-0.999647, 163, 275, 178, 290
-0.999648, 163, 259, 178, 274
-0.999649, 299, 271, 314, 286
-0.999649, 211, 253, 226, 268
-0.99965, 207, 307, 222, 322
-0.99965, 159, 345, 174, 360
-0.999651, 107, 279, 122, 294
-0.999651, 353, 317, 368, 332
-0.999651, 127, 253, 142, 268
-0.999653, 181, 299, 196, 314
-0.999655, 145, 401, 272, 432
-0.999657, 173, 293, 188, 308
-0.999661, 37, 33, 68, 288
-0.999661, 199, 293, 214, 308
-0.999664, 169, 301, 184, 316
-0.999664, 225, 257, 240, 272
-0.999665, 313, 331, 328, 346
-0.999668, 153, 305, 168, 320
-0.999668, 267, 261, 282, 276
-0.999668, 133, 353, 148, 368
-0.999669, 107, 273, 122, 288
-0.999675, 175, 309, 190, 324
-0.999676, 297, 287, 312, 302
-0.999676, 301, 277, 316, 292
-0.999676, 269, 269, 284, 284
-0.99968, 1, 401, 128, 432
-0.999682, 297, 319, 312, 334
-0.999684, 193, 209, 320, 240
-0.999689, 191, 291, 206, 306
-0.999691, 215, 265, 230, 280
-0.999691, 277, 263, 292, 278
-0.999694, 1, 33, 32, 288
-0.999694, 159, 339, 174, 354
-0.999695, 175, 299, 190, 314
-0.999695, 329, 313, 344, 328
-0.999699, 205, 299, 220, 314
-0.999702, 361, 313, 375, 328
-0.999705, 1, 249, 128, 280
-0.999708, 125, 265, 140, 280
-0.99971, 151, 337, 166, 352
-0.999712, 241, 41, 368, 72
-0.999713, 65, 201, 192, 264
-0.999714, 273, 1, 304, 256
-0.999719, 305, 33, 368, 160
-0.999723, 1, 81, 128, 144
-0.999724, 163, 301, 178, 316
-0.999726, 121, 209, 152, 336
-0.999727, 211, 297, 226, 312
-0.999728, 49, 469, 176, 500
-0.999729, 169, 307, 184, 322
-0.999731, 1, 389, 128, 420
-0.999737, 207, 271, 222, 286
-0.999742, 293, 279, 308, 294
-0.999752, 277, 255, 292, 270
-0.999757, 169, 265, 184, 280
-0.999781, 113, 233, 240, 264
-0.999786, 207, 265, 222, 280
-0.999809, 17, 237, 144, 268
-0.999813, 97, 453, 224, 484
-0.999826, 109, 257, 140, 500
-0.999846, 25, 33, 56, 288
-0.999866, 241, 89, 368, 152
-0.999887, 97, 469, 224, 500
-0.999891, 49, 209, 176, 240
-0.999893, 97, 413, 224, 444
-0.999929, 81, 385, 208, 416
-0.999932, 285, 81, 316, 208
-0.999943, 1, 33, 256, 96
-0.999946, 1, 33, 128, 96
-1.00002, 241, 121, 368, 152
-1.00005, 221, 97, 252, 352
-1.00005, 1, 425, 375, 488
-1.00006, 81, 225, 112, 352
-1.00006, 13, 1, 44, 256
-1.00006, 241, 65, 368, 128
-1.00007, 209, 49, 240, 176
-1.00007, 241, 53, 368, 84
-1.00007, 65, 433, 192, 496
-1.00009, 97, 397, 224, 428
-1.00011, 1, 469, 128, 500
-1.00011, 313, 1, 344, 256
-1.00012, 21, 81, 52, 208
-1.00012, 341, 1, 372, 256
-1.00012, 69, 161, 100, 416
-1.00013, 1, 41, 128, 72
-1.00016, 49, 405, 176, 436
-1.00016, 81, 429, 208, 460
-1.00018, 49, 37, 176, 68
-1.00019, 1, 441, 128, 472
-1.00025, 285, 65, 316, 320
-1.00025, 101, 1, 132, 256
-1.00026, 65, 33, 96, 288
-1.00028, 49, 65, 112, 192
-1.00031, 297, 1, 328, 256
-1.00039, 1, 377, 375, 440
-1.00039, 97, 257, 128, 500
-1.00045, 261, 1, 292, 256
-1.00046, 77, 257, 108, 500
-1.0005, 233, 97, 264, 352
-1.0006, 249, 33, 280, 288
-1.00069, 97, 129, 128, 384
-1.0007, 65, 1, 128, 256
-1.00071, 97, 9, 352, 72
-1.00072, 65, 9, 192, 72
-1.00074, 1, 9, 256, 72
-1.0008, 113, 201, 240, 264
-1.00081, 81, 161, 112, 416
-1.00084, 57, 257, 120, 500
-1.00089, 89, 193, 152, 320
-1.00092, 1, 33, 375, 96
-1.00099, 217, 1, 248, 256
-1.0011, 129, 1, 256, 64
-1.00123, 77, 1, 108, 256
-1.00123, 241, 33, 304, 288
-1.00135, 89, 1, 120, 256
-1.00138, 237, 1, 268, 256
-1.00153, 1, 401, 375, 464
-1.00164, 1, 9, 375, 72
-1.00182, 41, 1, 104, 256
-1.00308, 1, 33, 128, 160
-1.00338, 265, 33, 328, 160
-1.00571, 225, 1, 288, 128
-1.00828, 49, 1, 112, 128
