1967
-0.519266, 1, 97, 500, 352
-0.592353, 1, 1, 500, 256
-0.617496, 1, 1, 500, 375
-0.642774, 1, 1, 256, 375
-0.712381, 97, 1, 352, 375
-0.742399, 1, 65, 256, 320
-0.784593, 97, 97, 352, 352
-0.814239, 225, 1, 480, 375
-0.87891, 97, 1, 352, 256
-0.89032, 33, 1, 160, 375
-0.899956, 81, 1, 208, 375
-0.901285, 49, 65, 176, 320
-0.90317, 257, 129, 500, 375
-0.912829, 1, 209, 500, 336
-0.914734, 97, 65, 224, 320
-0.916975, 177, 129, 304, 375
-0.922896, 1, 145, 500, 272
-0.928915, 177, 1, 304, 375
-0.931938, 1, 65, 128, 320
-0.933001, 129, 1, 256, 375
-0.935346, 225, 209, 480, 336
-0.940001, 257, 129, 384, 375
-0.942269, 97, 177, 352, 304
-0.942894, 1, 33, 500, 160
-0.943213, 65, 225, 320, 352
-0.945007, 1, 97, 500, 224
-0.945523, 1, 97, 256, 224
-0.950915, 81, 193, 208, 320
-0.951898, 145, 1, 272, 256
-0.953262, 257, 1, 384, 375
-0.954549, 17, 193, 144, 320
-0.955949, 257, 209, 384, 336
-0.956525, 337, 1, 464, 375
-0.956967, 89, 177, 152, 304
-0.956998, 321, 129, 448, 375
-0.957924, 369, 129, 496, 375
-0.958383, 1, 161, 256, 288
-0.959008, 177, 161, 304, 288
-0.959143, 105, 65, 168, 192
-0.960114, 257, 193, 320, 320
-0.960528, 1, 33, 256, 160
-0.960711, 49, 49, 176, 176
-0.96205, 57, 49, 120, 176
-0.96257, 49, 81, 112, 144
-0.963017, 49, 97, 176, 224
-0.963208, 89, 241, 152, 304
-0.963277, 97, 17, 160, 144
-0.963571, 49, 193, 112, 320
-0.964152, 33, 241, 160, 368
-0.96428, 97, 81, 160, 144
-0.96431, 73, 225, 136, 352
-0.965377, 177, 241, 304, 368
-0.965494, 1, 49, 128, 176
-0.965634, 97, 129, 352, 256
-0.965698, 9, 49, 72, 176
-0.967527, 97, 225, 160, 352
-0.968705, 193, 33, 320, 288
-0.970214, 81, 241, 208, 368
-0.970308, 113, 177, 176, 304
-0.97057, 33, 145, 160, 272
-0.971553, 41, 57, 104, 120
-0.971931, 89, 57, 152, 120
-0.972362, 353, 209, 480, 336
-0.972393, 129, 193, 256, 320
-0.972587, 297, 313, 360, 375
-0.972658, 113, 145, 240, 272
-0.972687, 17, 97, 80, 160
-0.972692, 97, 65, 352, 192
-0.972787, 45, 65, 76, 128
-0.972881, 201, 129, 264, 256
-0.973634, 121, 225, 184, 352
-0.973675, 97, 17, 352, 144
-0.973746, 41, 97, 104, 224
-0.973873, 97, 65, 224, 192
-0.974117, 17, 1, 144, 128
-0.974329, 201, 153, 264, 216
-0.974362, 193, 161, 448, 288
-0.974411, 137, 73, 200, 136
-0.974615, 17, 73, 80, 136
-0.974931, 185, 177, 248, 304
-0.975122, 121, 241, 184, 304
-0.975193, 161, 225, 224, 352
-0.975457, 161, 225, 224, 288
-0.975527, 1, 97, 128, 224
-0.975598, 65, 57, 128, 120
-0.975916, 97, 233, 224, 296
-0.97628, 209, 177, 272, 304
-0.97628, 217, 241, 280, 368
-0.976324, 97, 241, 128, 304
-0.976353, 257, 209, 320, 272
-0.976756, 137, 17, 200, 144
-0.977167, 93, 193, 124, 320
-0.9772, 97, 105, 160, 168
-0.97726, 81, 65, 144, 192
-0.977669, 49, 1, 112, 256
-0.977692, 65, 249, 128, 312
-0.977975, 17, 73, 144, 136
-0.978096, 241, 33, 368, 288
-0.978238, 109, 241, 140, 304
-0.978363, 145, 49, 272, 176
-0.978601, 289, 209, 352, 336
-0.97881, 273, 305, 336, 368
-0.978937, 97, 49, 128, 176
-0.979005, 105, 225, 136, 352
-0.979018, 17, 97, 80, 224
-0.979166, 137, 73, 168, 136
-0.979453, 97, 201, 160, 264
-0.979536, 137, 65, 200, 192
-0.980015, 289, 33, 416, 288
-0.980139, 137, 209, 200, 272
-0.980439, 49, 1, 112, 128
-0.98098, 89, 113, 152, 240
-0.981109, 137, 97, 168, 160
-0.981269, 257, 217, 384, 280
-0.981349, 41, 105, 104, 168
-0.98139, 97, 65, 128, 128
-0.981405, 89, 273, 152, 336
-0.981486, 121, 177, 152, 304
-0.981633, 49, 145, 112, 272
-0.981717, 25, 177, 88, 304
-0.982023, 185, 225, 248, 288
-0.982305, 105, 1, 168, 256
-0.982315, 305, 209, 432, 336
-0.98232, 225, 161, 352, 288
-0.982442, 129, 241, 256, 368
-0.982464, 49, 97, 176, 160
-0.982653, 137, 177, 200, 304
-0.982775, 97, 17, 224, 144
-0.982987, 73, 81, 136, 144
-0.983172, 45, 65, 76, 192
-0.983451, 121, 97, 184, 160
-0.983531, 249, 305, 312, 368
-0.983597, 161, 249, 224, 312
-0.983678, 281, 217, 344, 280
-0.983684, 161, 161, 224, 288
-0.983691, 177, 225, 304, 288
-0.983785, 1, 249, 128, 312
-0.983927, 33, 201, 160, 264
-0.983985, 329, 209, 392, 336
-0.984025, 81, 97, 144, 352
-0.984066, 337, 313, 400, 375
-0.984104, 313, 217, 376, 280
-0.984119, 53, 97, 84, 160
-0.984159, 17, 65, 80, 320
-0.984315, 105, 177, 136, 304
-0.984334, 113, 57, 176, 120
-0.98435, 257, 313, 384, 375
-0.984379, 137, 65, 200, 320
-0.984381, 393, 209, 456, 336
-0.984412, 361, 209, 424, 336
-0.98448, 89, 33, 152, 96
-0.984707, 385, 225, 448, 288
-0.984864, 97, 97, 128, 224
-0.984898, 145, 1, 272, 128
-0.984904, 89, 97, 120, 160
-0.984951, 201, 81, 264, 208
-0.98498, 117, 225, 148, 352
-0.985074, 41, 97, 72, 160
-0.985095, 49, 33, 112, 96
-0.985191, 65, 65, 192, 128
-0.985247, 233, 193, 296, 320
-0.98527, 49, 241, 176, 304
-0.985294, 65, 105, 128, 168
-0.985553, 93, 241, 124, 368
-0.985556, 177, 193, 304, 256
-0.985731, 417, 233, 480, 296
-0.98586, 17, 121, 80, 184
-0.985917, 353, 225, 416, 288
-0.986078, 89, 1, 152, 375
-0.98612, 289, 161, 416, 288
-0.986141, 101, 97, 132, 160
-0.986208, 185, 225, 216, 288
-0.986227, 49, 241, 112, 368
-0.986278, 149, 73, 180, 136
-0.986283, 233, 129, 296, 256
-0.98645, 337, 33, 464, 288
-0.986457, 265, 209, 296, 272
-0.986525, 73, 193, 104, 320
-0.986539, 81, 209, 208, 272
-0.986632, 225, 273, 288, 336
-0.986639, 313, 313, 344, 375
-0.986667, 1, 105, 128, 168
-0.986722, 177, 265, 304, 328
-0.986781, 217, 185, 280, 248
-0.987053, 53, 113, 84, 240
-0.987062, 249, 241, 312, 368
-0.987511, 249, 241, 312, 304
-0.987569, 73, 201, 136, 264
-0.987612, 329, 289, 392, 352
-0.987655, 1, 49, 64, 112
-0.987675, 141, 97, 172, 224
-0.9878, 193, 113, 320, 240
-0.98781, 57, 129, 120, 192
-0.987878, 193, 185, 256, 248
-0.987896, 49, 97, 112, 352
-0.987924, 33, 65, 64, 192
-0.987945, 33, 161, 160, 224
-0.988025, 417, 225, 480, 352
-0.988051, 193, 1, 256, 128
-0.988131, 97, 257, 224, 320
-0.988139, 33, 73, 64, 136
-0.988175, 233, 145, 296, 208
-0.98826, 145, 97, 272, 224
-0.988319, 257, 257, 384, 320
-0.988329, 137, 49, 168, 176
-0.988409, 93, 145, 124, 272
-0.98844, 265, 193, 296, 320
-0.988453, 93, 33, 124, 96
-0.988489, 33, 49, 96, 176
-0.988491, 129, 241, 160, 304
-0.988527, 97, 1, 128, 128
-0.988714, 129, 73, 256, 136
-0.988725, 85, 73, 116, 136
-0.988729, 337, 161, 464, 288
-0.988736, 321, 225, 448, 288
-0.988793, 9, 1, 72, 375
-0.988825, 17, 49, 144, 112
-0.988896, 9, 161, 72, 224
-0.988916, 49, 129, 176, 192
-0.988929, 305, 313, 432, 375
-0.988998, 209, 129, 272, 375
-0.989095, 65, 1, 128, 375
-0.989109, 97, 129, 160, 192
-0.989116, 49, 273, 176, 336
-0.989121, 241, 169, 304, 232
-0.989142, 149, 97, 180, 160
-0.989181, 185, 257, 248, 320
-0.989216, 125, 81, 156, 144
-0.989295, 97, 97, 224, 160
-0.989369, 113, 177, 240, 240
-0.989399, 49, 201, 112, 264
-0.989399, 361, 313, 424, 375
-0.989429, 257, 145, 320, 272
-0.989451, 173, 217, 204, 280
-0.98946, 57, 93, 120, 124
-0.989464, 217, 249, 280, 312
-0.989552, 81, 253, 144, 284
-0.989608, 233, 153, 264, 216
-0.989714, 257, 281, 320, 344
-0.989754, 97, 85, 160, 116
-0.989764, 145, 97, 208, 160
-0.989817, 121, 265, 184, 328
-0.989841, 137, 1, 200, 375
-0.989949, 41, 161, 104, 224
-0.990042, 129, 185, 192, 248
-0.990125, 209, 305, 336, 368
-0.990136, 113, 1, 176, 375
-0.990185, 97, 101, 160, 132
-0.990222, 85, 49, 116, 176
-0.990228, 305, 321, 368, 352
-0.990259, 65, 273, 128, 336
-0.990279, 73, 1, 136, 128
-0.990286, 357, 297, 388, 360
-0.99031, 17, 93, 80, 124
-0.990339, 137, 49, 200, 112
-0.99042, 377, 341, 440, 372
-0.990461, 9, 1, 72, 128
-0.990471, 257, 193, 384, 256
-0.99048, 337, 329, 400, 360
-0.990503, 81, 249, 112, 312
-0.990556, 97, 177, 160, 240
-0.990559, 201, 177, 232, 304
-0.990567, 41, 77, 104, 108
-0.990617, 121, 129, 184, 256
-0.990657, 45, 17, 76, 144
-0.990683, 85, 97, 116, 224
-0.990688, 113, 273, 144, 336
-0.990698, 161, 161, 224, 224
-0.990709, 297, 217, 328, 280
-0.990711, 273, 317, 336, 348
-0.990748, 369, 201, 432, 264
-0.990748, 433, 209, 496, 272
-0.990774, 109, 73, 140, 136
-0.990809, 249, 241, 280, 368
-0.99081, 137, 77, 200, 108
-0.990858, 113, 97, 176, 352
-0.990874, 177, 169, 304, 232
-0.990946, 41, 105, 104, 136
-0.990957, 121, 193, 152, 256
-0.990979, 289, 289, 416, 352
-0.991053, 153, 65, 184, 192
-0.991058, 129, 225, 160, 352
-0.991072, 81, 241, 112, 368
-0.991086, 121, 245, 184, 276
-0.991121, 81, 241, 144, 272
-0.991175, 89, 69, 152, 100
-0.99118, 113, 73, 176, 104
-0.991289, 353, 341, 416, 372
-0.991354, 257, 213, 320, 244
-0.991362, 161, 229, 224, 260
-0.991363, 313, 161, 376, 288
-0.99139, 17, 73, 80, 104
-0.991406, 121, 97, 184, 128
-0.991409, 113, 153, 240, 216
-0.991411, 201, 169, 264, 200
-0.991425, 401, 345, 464, 375
-0.991437, 305, 193, 368, 256
-0.991448, 197, 225, 228, 288
-0.99145, 245, 145, 276, 272
-0.991455, 33, 113, 64, 240
-0.991492, 1, 225, 128, 288
-0.991494, 65, 69, 128, 100
-0.991495, 41, 65, 104, 96
-0.991508, 129, 209, 256, 272
-0.991539, 65, 81, 128, 112
-0.991561, 141, 121, 172, 184
-0.991568, 53, 193, 84, 320
-0.991573, 353, 201, 480, 264
-0.991618, 97, 201, 160, 232
-0.991631, 17, 109, 80, 140
-0.991695, 93, 273, 124, 336
-0.991697, 65, 105, 128, 136
-0.991703, 337, 313, 368, 375
-0.991716, 193, 145, 320, 208
-0.991737, 1, 61, 64, 92
-0.991781, 81, 265, 144, 296
-0.991845, 137, 229, 200, 260
-0.991863, 353, 209, 384, 336
-0.99187, 161, 249, 224, 280
-0.991876, 185, 241, 248, 368
-0.991886, 433, 177, 496, 304
-0.991902, 161, 81, 224, 208
-0.991912, 169, 209, 200, 336
-0.991913, 49, 225, 112, 288
-0.991956, 45, 121, 76, 184
-0.991956, 353, 313, 480, 375
-0.991972, 81, 1, 144, 256
-0.991978, 57, 117, 120, 148
-0.992008, 189, 209, 220, 336
-0.992018, 21, 57, 52, 120
-0.992024, 281, 281, 344, 344
-0.992042, 369, 209, 400, 336
-0.992051, 337, 225, 400, 256
-0.992051, 369, 229, 432, 260
-0.992085, 401, 233, 464, 264
-0.992104, 369, 233, 496, 296
-0.992109, 125, 217, 156, 280
-0.992116, 433, 237, 496, 268
-0.992168, 305, 221, 368, 252
-0.99218, 153, 89, 216, 120
-0.992183, 105, 233, 168, 264
-0.992226, 201, 157, 264, 188
-0.992276, 313, 333, 376, 364
-0.992298, 89, 121, 120, 184
-0.992309, 309, 209, 340, 336
-0.992318, 57, 265, 120, 296
-0.992327, 45, 69, 76, 100
-0.992329, 81, 281, 144, 312
-0.992355, 25, 193, 88, 256
-0.992362, 409, 209, 472, 272
-0.992363, 49, 53, 112, 84
-0.992368, 57, 249, 120, 280
-0.992375, 165, 241, 196, 304
-0.992399, 265, 305, 328, 336
-0.992401, 97, 113, 160, 144
-0.992401, 29, 97, 60, 160
-0.992418, 325, 313, 356, 375
-0.992438, 281, 217, 344, 248
-0.992443, 65, 201, 128, 232
-0.992448, 49, 149, 112, 180
-0.992448, 109, 97, 140, 224
-0.992469, 81, 141, 144, 172
-0.992477, 233, 157, 296, 188
-0.992509, 161, 185, 224, 248
-0.992524, 193, 1, 320, 128
-0.99254, 93, 241, 124, 272
-0.992541, 249, 329, 312, 360
-0.992558, 105, 269, 168, 300
-0.992561, 297, 209, 328, 336
-0.992568, 393, 221, 456, 252
-0.992576, 25, 121, 88, 152
-0.992584, 425, 225, 488, 256
-0.992594, 337, 289, 464, 352
-0.992598, 41, 93, 72, 124
-0.992609, 9, 249, 72, 312
-0.992609, 97, 93, 128, 124
-0.992613, 209, 129, 240, 256
-0.992623, 369, 217, 432, 248
-0.992626, 101, 121, 132, 184
-0.992633, 201, 181, 264, 212
-0.992638, 17, 197, 80, 228
-0.992643, 425, 345, 488, 375
-0.99265, 53, 97, 84, 128
-0.992678, 137, 217, 200, 248
-0.992695, 97, 189, 160, 220
-0.9927, 225, 345, 288, 375
-0.992701, 49, 189, 112, 220
-0.992701, 97, 57, 160, 88
-0.992714, 109, 253, 140, 284
-0.992715, 369, 329, 432, 360
-0.992719, 193, 1, 448, 128
-0.992724, 41, 81, 72, 112
-0.992724, 345, 213, 408, 244
-0.992728, 141, 93, 172, 124
-0.99273, 185, 229, 248, 260
-0.992735, 209, 225, 272, 288
-0.992739, 105, 257, 168, 288
-0.992753, 209, 145, 240, 208
-0.992761, 141, 105, 172, 136
-0.992781, 137, 73, 168, 104
-0.992784, 49, 109, 80, 140
-0.992787, 313, 209, 376, 240
-0.992788, 201, 145, 264, 176
-0.992822, 345, 201, 408, 264
-0.992837, 329, 317, 392, 348
-0.992842, 1, 241, 64, 368
-0.992846, 129, 193, 192, 224
-0.992848, 349, 329, 380, 360
-0.992852, 201, 129, 264, 192
-0.992856, 93, 69, 124, 100
-0.992862, 281, 329, 344, 360
-0.992864, 225, 273, 288, 304
-0.99287, 361, 333, 392, 364
-0.992877, 265, 269, 328, 300
-0.992878, 373, 337, 404, 368
-0.992881, 405, 345, 436, 375
-0.992886, 137, 109, 200, 140
-0.992887, 309, 317, 340, 348
-0.992889, 333, 325, 364, 356
-0.992902, 185, 261, 248, 292
-0.992909, 97, 105, 128, 136
-0.99291, 137, 49, 168, 112
-0.992911, 321, 321, 352, 352
-0.992912, 281, 205, 344, 236
-0.992912, 225, 49, 288, 176
-0.992913, 97, 129, 160, 160
-0.992918, 85, 93, 116, 124
-0.99292, 393, 341, 424, 372
-0.992929, 233, 285, 296, 316
-0.992941, 129, 93, 160, 124
-0.992942, 393, 313, 456, 375
-0.992947, 257, 201, 320, 232
-0.992952, 65, 41, 192, 104
-0.992952, 41, 1, 104, 375
-0.992954, 265, 213, 296, 244
-0.99297, 1, 129, 128, 192
-0.992973, 29, 93, 60, 124
-0.992973, 249, 245, 312, 276
-0.992978, 305, 309, 368, 340
-0.99298, 101, 81, 132, 112
-0.992985, 65, 89, 96, 152
-0.992986, 185, 225, 216, 256
-0.992995, 41, 249, 104, 312
-0.993008, 233, 213, 296, 244
-0.993023, 125, 245, 156, 276
-0.993035, 41, 205, 104, 236
-0.993065, 117, 93, 148, 124
-0.993078, 161, 173, 224, 204
-0.993084, 1, 345, 64, 375
-0.993094, 201, 69, 264, 100
-0.993099, 53, 85, 84, 116
-0.993102, 161, 217, 224, 248
-0.993103, 209, 245, 272, 276
-0.993111, 233, 305, 296, 336
-0.993131, 285, 209, 316, 272
-0.993139, 417, 345, 448, 375
-0.993142, 401, 333, 464, 364
-0.993144, 17, 25, 144, 88
-0.993152, 137, 65, 200, 96
-0.993153, 253, 193, 284, 320
-0.993154, 293, 313, 324, 344
-0.993156, 21, 49, 52, 176
-0.993156, 25, 61, 56, 92
-0.993161, 225, 281, 352, 344
-0.993164, 57, 129, 120, 160
-0.993165, 121, 81, 152, 112
-0.993166, 109, 265, 140, 296
-0.993171, 9, 181, 72, 212
-0.993185, 105, 241, 136, 272
-0.993185, 41, 161, 104, 192
-0.993187, 257, 217, 500, 280
-0.99319, 93, 253, 124, 284
-0.993203, 173, 237, 204, 268
-0.993205, 261, 289, 292, 352
-0.993213, 125, 49, 156, 176
-0.993226, 257, 285, 320, 316
-0.99323, 233, 345, 264, 375
-0.993237, 233, 209, 296, 272
-0.993249, 173, 225, 204, 256
-0.993252, 149, 81, 180, 112
-0.993258, 25, 149, 88, 180
-0.993258, 241, 169, 304, 200
-0.993262, 237, 153, 268, 184
-0.99327, 225, 333, 288, 364
-0.993271, 37, 109, 68, 140
-0.993278, 241, 257, 304, 288
-0.993284, 105, 153, 168, 184
-0.993289, 57, 277, 120, 308
-0.99329, 81, 81, 112, 112
-0.993291, 201, 313, 264, 375
-0.993296, 201, 345, 264, 375
-0.993297, 153, 97, 184, 128
-0.993311, 113, 121, 240, 184
-0.993312, 429, 345, 460, 375
-0.993314, 65, 93, 96, 124
-0.993315, 105, 281, 168, 312
-0.993322, 217, 261, 280, 292
-0.993325, 249, 341, 312, 372
-0.993326, 305, 201, 432, 264
-0.993333, 121, 197, 152, 228
-0.993336, 177, 185, 240, 216
-0.993336, 413, 225, 444, 288
-0.993337, 333, 221, 364, 252
-0.993339, 145, 117, 176, 148
-0.99334, 397, 229, 428, 260
-0.993344, 93, 57, 124, 88
-0.993345, 93, 269, 124, 300
-0.993347, 429, 233, 460, 264
-0.993347, 29, 81, 60, 112
-0.993348, 365, 225, 396, 256
-0.993349, 465, 237, 496, 268
-0.993351, 105, 141, 136, 172
-0.993356, 217, 193, 280, 224
-0.993363, 89, 141, 120, 172
-0.993364, 109, 105, 140, 136
-0.993367, 349, 217, 380, 280
-0.993371, 201, 325, 264, 356
-0.993377, 53, 161, 84, 224
-0.993379, 185, 245, 216, 276
-0.99338, 93, 37, 124, 68
-0.993381, 301, 217, 332, 248
-0.993383, 81, 41, 144, 72
-0.993389, 281, 313, 312, 344
-0.993395, 209, 221, 272, 252
-0.993396, 93, 129, 124, 160
-0.993405, 121, 233, 152, 264
-0.993407, 249, 337, 280, 368
-0.993409, 53, 129, 84, 160
-0.993413, 47, 73, 62, 136
-0.993416, 17, 133, 80, 164
-0.993419, 245, 261, 276, 292
-0.99342, 89, 117, 120, 148
-0.993422, 413, 233, 444, 264
-0.993422, 57, 237, 120, 268
-0.993432, 109, 285, 140, 316
-0.993436, 225, 69, 288, 100
-0.993437, 249, 233, 312, 264
-0.993437, 233, 69, 264, 100
-0.993437, 73, 189, 136, 220
-0.993438, 417, 221, 448, 252
-0.99344, 385, 217, 416, 248
-0.993441, 97, 201, 128, 264
-0.993444, 249, 317, 312, 348
-0.993446, 205, 173, 236, 204
-0.993448, 381, 229, 412, 260
-0.993451, 161, 237, 192, 268
-0.993451, 77, 249, 108, 280
-0.993459, 453, 225, 484, 256
-0.993463, 113, 141, 176, 172
-0.993464, 441, 233, 472, 264
-0.993465, 37, 197, 68, 228
-0.993468, 349, 225, 380, 256
-0.993472, 453, 237, 484, 268
-0.993478, 33, 185, 64, 216
-0.99348, 173, 249, 204, 280
-0.993482, 53, 185, 84, 216
-0.993483, 353, 213, 384, 244
-0.993484, 253, 273, 284, 304
-0.993489, 185, 249, 248, 280
-0.99349, 193, 313, 448, 375
-0.993494, 129, 105, 160, 136
-0.993497, 321, 209, 352, 240
-0.993501, 313, 221, 344, 252
-0.993502, 261, 329, 292, 360
-0.993502, 41, 57, 72, 88
-0.993502, 201, 57, 264, 88
-0.993505, 281, 161, 344, 288
-0.993505, 69, 205, 100, 236
-0.993506, 277, 213, 308, 244
-0.993507, 193, 257, 224, 288
-0.993507, 237, 169, 268, 200
-0.99351, 97, 281, 128, 312
-0.993511, 105, 125, 136, 156
-0.993515, 281, 297, 312, 328
-0.993517, 233, 145, 296, 176
-0.993521, 9, 169, 72, 200
-0.993525, 57, 205, 88, 236
-0.993526, 161, 225, 192, 256
-0.993527, 245, 201, 276, 232
-0.993532, 125, 137, 156, 168
-0.993533, 121, 121, 184, 152
-0.993537, 85, 105, 116, 136
-0.993545, 289, 217, 320, 248
-0.993555, 249, 325, 280, 356
-0.993555, 117, 65, 148, 96
-0.993556, 265, 201, 296, 232
-0.993556, 77, 265, 108, 296
-0.993556, 385, 329, 416, 360
-0.993556, 65, 105, 96, 136
-0.993558, 397, 217, 428, 248
-0.993559, 133, 121, 164, 152
-0.99356, 53, 149, 84, 180
-0.993564, 429, 221, 460, 252
-0.993565, 373, 325, 404, 356
-0.993567, 129, 269, 160, 300
-0.993572, 197, 225, 228, 256
-0.993572, 101, 201, 132, 232
-0.993574, 257, 285, 288, 316
-0.993575, 93, 25, 124, 56
-0.993575, 65, 81, 96, 112
-0.993581, 293, 205, 324, 236
-0.993581, 457, 345, 488, 375
-0.993581, 9, 253, 72, 284
-0.993582, 1, 157, 64, 188
-0.993583, 137, 145, 168, 176
-0.993583, 141, 237, 172, 268
-0.993586, 1, 145, 64, 272
-0.993589, 245, 213, 276, 244
-0.993591, 137, 61, 168, 92
-0.993608, 137, 121, 200, 184
-0.99361, 241, 1, 304, 128
-0.993638, 193, 249, 224, 312
-0.993669, 161, 73, 224, 136
-0.993691, 97, 233, 352, 296
-0.993714, 429, 233, 460, 296
-0.993745, 145, 97, 272, 160
-0.993796, 145, 49, 272, 112
-0.9938, 85, 1, 116, 128
-0.993805, 237, 49, 268, 176
-0.993809, 57, 73, 72, 136
-0.993849, 61, 65, 92, 128
-0.993861, 233, 129, 264, 256
-0.993885, 253, 265, 284, 328
-0.993897, 353, 161, 416, 288
-0.993897, 81, 145, 112, 272
-0.993913, 361, 225, 392, 288
-0.993932, 1, 81, 256, 144
-0.993984, 1, 273, 128, 336
-0.993997, 153, 17, 184, 144
-0.994069, 281, 305, 312, 368
-0.99408, 161, 1, 224, 375
-0.994088, 245, 177, 276, 240
-0.994103, 141, 225, 172, 352
-0.994119, 113, 241, 128, 304
-0.99421, 301, 313, 332, 375
-0.994215, 245, 241, 276, 304
-0.994244, 193, 57, 256, 120
-0.994269, 1, 217, 500, 280
-0.99427, 265, 129, 328, 375
-0.994319, 281, 193, 344, 256
-0.994402, 265, 145, 296, 272
-0.994418, 317, 217, 348, 280
-0.994506, 189, 161, 220, 288
-0.994641, 25, 241, 88, 368
-0.994646, 209, 257, 240, 320
-0.994666, 141, 145, 172, 272
-0.994683, 289, 333, 416, 364
-0.994709, 261, 241, 292, 368
-0.994716, 225, 297, 288, 360
-0.99476, 1, 313, 128, 375
-0.994782, 161, 129, 224, 375
-0.994787, 209, 1, 272, 375
-0.994811, 119, 241, 134, 304
-0.994816, 97, 209, 352, 272
-0.994832, 185, 129, 248, 375
-0.994842, 17, 73, 144, 104
-0.994892, 101, 97, 116, 160
-0.9949, 65, 177, 128, 240
-0.994941, 97, 257, 352, 320
-0.994961, 193, 65, 320, 192
-0.994975, 81, 249, 208, 280
-0.994978, 381, 225, 412, 288
-0.994986, 149, 97, 164, 160
-0.995017, 41, 161, 72, 288
-0.995064, 141, 217, 172, 280
-0.995071, 57, 97, 72, 160
-0.995093, 225, 169, 352, 232
-0.9951, 333, 209, 364, 336
-0.995128, 17, 93, 144, 124
-0.995132, 81, 201, 112, 264
-0.99516, 281, 193, 312, 320
-0.995162, 401, 225, 432, 288
-0.995162, 305, 289, 368, 352
-0.995168, 393, 161, 456, 288
-0.995211, 125, 105, 156, 168
-0.99523, 389, 313, 420, 375
-0.995242, 113, 33, 176, 96
-0.995313, 257, 217, 384, 248
-0.995316, 97, 177, 352, 240
-0.995325, 153, 241, 184, 304
-0.995348, 445, 233, 476, 296
-0.995351, 51, 97, 66, 160
-0.995369, 321, 209, 352, 336
-0.995371, 161, 217, 192, 280
-0.995414, 73, 49, 104, 176
-0.995417, 65, 1, 192, 64
-0.995427, 113, 17, 144, 144
-0.995433, 33, 161, 64, 224
-0.995441, 141, 65, 156, 128
-0.995456, 465, 233, 496, 296
-0.995459, 57, 65, 88, 192
-0.99548, 337, 345, 464, 375
-0.995529, 241, 317, 368, 348
-0.99556, 95, 73, 110, 136
-0.995605, 141, 241, 172, 304
-0.99564, 65, 93, 192, 124
-0.995658, 213, 177, 244, 304
-0.995662, 113, 229, 240, 260
-0.995691, 273, 257, 336, 320
-0.995692, 97, 9, 128, 72
-0.995702, 109, 65, 124, 128
-0.995708, 147, 65, 162, 128
-0.995718, 449, 209, 480, 336
-0.995733, 1, 105, 256, 168
-0.995742, 233, 1, 264, 128
-0.995765, 49, 105, 176, 136
-0.995773, 353, 289, 416, 352
-0.995787, 105, 241, 120, 304
-0.995811, 1, 241, 256, 304
-0.995835, 129, 305, 256, 368
-0.995843, 109, 201, 140, 264
-0.995871, 237, 241, 268, 368
-0.995958, 1, 145, 256, 208
-0.995969, 265, 233, 296, 296
-0.995972, 177, 73, 304, 136
-0.995974, 129, 97, 160, 224
-0.99598, 329, 217, 360, 280
-0.99599, 107, 89, 122, 152
-0.995997, 33, 201, 160, 232
-0.996003, 125, 265, 156, 328
-0.996014, 99, 241, 114, 304
-0.996052, 33, 253, 160, 284
-0.996083, 1, 201, 256, 264
-0.996096, 245, 145, 276, 208
-0.996115, 225, 97, 480, 224
-0.99614, 195, 217, 210, 280
-0.996146, 155, 81, 170, 144
-0.996167, 33, 57, 288, 120
-0.996229, 45, 97, 60, 160
-0.996233, 9, 49, 40, 176
-0.996247, 369, 313, 400, 375
-0.996261, 117, 49, 148, 112
-0.996274, 33, 49, 64, 112
-0.996279, 113, 289, 176, 352
-0.996299, 161, 229, 288, 260
-0.996328, 33, 129, 64, 192
-0.996332, 217, 73, 280, 136
-0.996349, 469, 225, 500, 352
-0.99635, 139, 89, 154, 152
-0.996352, 49, 305, 176, 368
-0.996359, 145, 25, 272, 88
-0.99639, 65, 81, 192, 112
-0.996402, 185, 217, 200, 280
-0.996406, 157, 209, 188, 336
-0.99643, 161, 17, 224, 144
-0.996434, 17, 1, 144, 64
-0.996469, 181, 249, 212, 312
-0.996491, 265, 313, 296, 375
-0.996492, 421, 209, 452, 336
-0.9965, 101, 57, 116, 120
-0.996549, 65, 145, 96, 272
-0.996589, 233, 129, 296, 375
-0.996589, 201, 185, 232, 248
-0.996636, 47, 49, 62, 112
-0.996654, 65, 69, 192, 100
-0.99666, 437, 209, 468, 336
-0.996698, 97, 297, 352, 360
-0.996705, 433, 209, 464, 272
-0.996741, 63, 89, 78, 152
-0.996765, 233, 1, 296, 375
-0.996782, 1, 193, 64, 320
-0.996822, 267, 209, 282, 272
-0.996827, 97, 281, 224, 344
-0.996835, 241, 193, 272, 320
-0.996843, 125, 249, 140, 312
-0.996849, 297, 129, 360, 375
-0.996871, 177, 241, 304, 272
-0.996894, 55, 49, 70, 112
-0.996914, 161, 81, 192, 144
-0.996938, 17, 61, 144, 92
-0.996941, 33, 33, 288, 96
-0.996942, 241, 329, 368, 360
-0.996945, 121, 161, 152, 224
-0.996953, 281, 145, 312, 272
-0.996965, 101, 25, 116, 88
-0.996977, 41, 73, 56, 136
-0.996979, 203, 225, 218, 288
-0.996989, 221, 145, 252, 208
-0.997016, 55, 97, 70, 128
-0.997053, 179, 217, 194, 280
-0.997082, 33, 241, 160, 272
-0.997115, 33, 265, 160, 296
-0.997116, 289, 321, 416, 352
-0.99712, 369, 233, 496, 264
-0.997132, 33, 17, 64, 144
-0.997136, 1, 105, 128, 136
-0.997144, 233, 121, 296, 184
-0.997151, 193, 241, 448, 304
-0.997153, 373, 201, 404, 264
-0.997158, 305, 225, 432, 256
-0.997187, 93, 241, 108, 304
-0.997215, 1, 313, 64, 375
-0.997223, 309, 289, 340, 352
-0.997228, 369, 289, 384, 352
-0.997232, 257, 193, 500, 256
-0.997241, 177, 217, 304, 248
-0.997244, 327, 313, 342, 375
-0.997261, 53, 201, 84, 264
-0.997263, 95, 97, 110, 160
-0.99729, 37, 185, 68, 248
-0.997293, 369, 289, 400, 352
-0.997306, 161, 1, 224, 256
-0.99731, 119, 249, 134, 280
-0.997311, 193, 241, 208, 304
-0.997333, 293, 289, 324, 352
-0.99734, 49, 117, 176, 148
-0.997347, 77, 33, 108, 96
-0.997349, 105, 93, 120, 124
-0.99735, 63, 113, 78, 176
-0.997357, 81, 261, 208, 292
-0.997371, 297, 305, 312, 368
-0.997374, 147, 93, 162, 124
-0.997382, 33, 313, 96, 375
-0.99739, 185, 241, 200, 304
-0.997396, 95, 121, 110, 184
-0.997423, 57, 129, 72, 192
-0.997433, 63, 65, 78, 128
-0.997453, 273, 169, 304, 232
-0.997455, 95, 49, 110, 112
-0.997464, 143, 121, 158, 184
-0.997468, 89, 81, 104, 144
-0.997479, 99, 93, 114, 124
-0.997481, 177, 265, 304, 296
-0.997508, 35, 57, 50, 120
-0.997547, 33, 185, 160, 216
-0.99755, 177, 253, 304, 284
-0.997553, 201, 225, 232, 352
-0.997557, 135, 193, 150, 256
-0.997567, 225, 121, 352, 184
-0.997569, 445, 209, 476, 272
-0.997575, 109, 113, 124, 176
-0.997579, 245, 217, 276, 280
-0.99758, 237, 145, 252, 208
-0.997581, 337, 333, 464, 364
-0.997593, 155, 105, 170, 168
-0.997597, 119, 281, 134, 344
-0.997604, 47, 69, 62, 100
-0.997606, 333, 313, 348, 375
-0.997616, 101, 273, 116, 336
-0.997625, 265, 257, 296, 320
-0.997626, 97, 153, 160, 216
-0.997627, 173, 225, 188, 288
-0.99763, 349, 313, 364, 375
-0.997634, 361, 201, 392, 264
-0.99764, 49, 137, 176, 168
-0.997642, 113, 201, 128, 264
-0.997642, 257, 241, 272, 304
-0.997665, 311, 217, 326, 280
-0.997667, 103, 121, 118, 184
-0.997669, 93, 1, 124, 256
-0.997679, 129, 161, 192, 224
-0.997691, 225, 257, 352, 288
-0.997695, 141, 65, 172, 320
-0.997703, 87, 241, 102, 304
-0.997703, 95, 265, 110, 328
-0.997722, 111, 93, 126, 124
-0.997726, 277, 241, 308, 368
-0.997737, 305, 217, 320, 280
-0.997741, 107, 33, 122, 96
-0.997754, 289, 313, 304, 375
-0.997757, 161, 81, 176, 144
-0.997767, 129, 93, 256, 124
-0.997774, 145, 77, 272, 108
-0.997774, 73, 65, 104, 128
-0.997778, 261, 265, 276, 328
-0.997782, 153, 93, 168, 124
-0.997797, 53, 109, 68, 140
-0.9978, 297, 209, 312, 272
-0.997801, 1, 169, 256, 232
-0.997802, 1, 117, 128, 148
-0.997814, 111, 281, 126, 344
-0.997818, 45, 85, 60, 116
-0.997819, 243, 153, 258, 216
-0.997827, 197, 225, 212, 256
-0.997834, 97, 97, 128, 352
-0.997837, 225, 341, 352, 372
-0.997843, 105, 33, 136, 96
-0.997849, 343, 313, 358, 375
-0.997852, 315, 305, 330, 368
-0.997857, 21, 1, 52, 128
-0.997859, 41, 49, 56, 112
-0.997864, 113, 245, 128, 276
-0.997865, 103, 201, 118, 264
-0.997866, 41, 65, 72, 320
-0.997868, 65, 305, 128, 368
-0.997873, 209, 225, 224, 288
-0.997873, 203, 249, 218, 312
-0.997876, 1, 193, 500, 256
-0.997889, 33, 277, 160, 308
-0.997896, 153, 57, 168, 120
-0.997898, 189, 241, 204, 272
-0.997901, 97, 105, 224, 136
-0.997904, 319, 217, 334, 280
-0.997911, 409, 209, 440, 336
-0.997915, 129, 249, 256, 280
-0.997918, 63, 105, 78, 136
-0.997919, 257, 137, 288, 200
-0.997923, 45, 41, 76, 104
-0.997926, 109, 105, 124, 136
-0.997936, 237, 265, 268, 328
-0.997939, 139, 93, 154, 124
-0.997943, 381, 209, 412, 336
-0.997945, 93, 201, 108, 264
-0.997951, 113, 213, 240, 244
-0.997952, 353, 221, 480, 252
-0.997958, 195, 237, 210, 268
-0.99796, 153, 297, 216, 360
-0.997961, 321, 305, 336, 368
-0.997963, 131, 241, 146, 304
-0.997975, 253, 1, 284, 128
-0.997986, 113, 89, 128, 152
-0.997995, 189, 225, 204, 256
-0.997997, 177, 313, 240, 375
-0.998001, 177, 121, 304, 184
-0.998002, 221, 129, 252, 256
-0.998006, 395, 225, 410, 288
-0.998007, 287, 209, 302, 272
-0.998026, 427, 225, 442, 288
-0.998029, 361, 217, 376, 280
-0.998031, 149, 105, 164, 136
-0.998038, 101, 109, 116, 140
-0.998046, 211, 145, 226, 208
-0.998063, 281, 1, 344, 375
-0.998064, 257, 205, 384, 236
-0.998065, 309, 193, 340, 256
-0.99807, 193, 173, 320, 204
-0.998071, 133, 73, 148, 136
-0.998074, 105, 241, 120, 272
-0.998083, 49, 153, 176, 184
-0.998086, 203, 225, 218, 256
-0.998087, 371, 225, 386, 288
-0.998088, 439, 233, 454, 296
-0.998089, 1, 73, 500, 136
-0.998091, 47, 101, 62, 132
-0.998097, 237, 313, 268, 375
-0.998098, 113, 193, 240, 224
-0.998099, 313, 317, 328, 348
-0.998103, 101, 1, 116, 64
-0.998104, 125, 273, 140, 336
-0.998105, 137, 81, 152, 112
-0.998108, 177, 185, 304, 216
-0.99811, 373, 333, 388, 364
-0.998111, 359, 329, 374, 360
-0.998113, 55, 69, 70, 100
-0.998115, 327, 217, 342, 280
-0.998118, 61, 81, 76, 112
-0.99812, 347, 325, 362, 356
-0.99812, 69, 241, 100, 304
-0.998121, 419, 345, 434, 375
-0.998124, 89, 1, 152, 64
-0.998135, 209, 225, 240, 288
-0.998137, 233, 177, 264, 240
-0.998139, 81, 273, 112, 336
-0.998149, 257, 289, 384, 320
-0.998151, 445, 233, 460, 296
-0.998152, 287, 281, 302, 344
-0.998153, 143, 105, 158, 136
-0.998154, 179, 225, 194, 256
-0.998156, 275, 289, 290, 352
-0.998158, 333, 321, 348, 352
-0.998162, 257, 273, 384, 304
-0.998163, 421, 225, 436, 288
-0.998164, 209, 1, 336, 64
-0.998167, 95, 245, 110, 276
-0.998168, 207, 185, 222, 248
-0.998168, 123, 217, 138, 280
-0.998169, 183, 237, 198, 268
-0.998172, 81, 273, 208, 304
-0.998172, 97, 81, 352, 144
-0.998175, 281, 209, 296, 272
-0.998177, 319, 317, 334, 348
-0.998183, 225, 265, 480, 328
-0.998183, 177, 205, 304, 236
-0.998188, 377, 217, 392, 280
-0.998189, 217, 1, 280, 128
-0.998191, 305, 213, 432, 244
-0.998191, 451, 233, 466, 296
-0.998199, 399, 341, 414, 372
-0.998199, 405, 341, 420, 372
-0.998206, 387, 337, 402, 368
-0.998206, 177, 153, 304, 184
-0.998207, 363, 297, 378, 360
-0.998214, 39, 97, 54, 160
-0.998215, 355, 217, 370, 280
-0.998218, 355, 313, 370, 375
-0.998219, 249, 145, 264, 208
-0.99822, 65, 93, 80, 124
-0.99822, 55, 85, 70, 116
-0.998222, 185, 1, 248, 375
-0.998222, 217, 241, 248, 368
-0.998224, 389, 225, 404, 288
-0.998225, 115, 65, 130, 128
-0.998226, 277, 265, 308, 328
-0.998233, 117, 93, 132, 124
-0.998239, 353, 329, 368, 360
-0.998246, 367, 333, 382, 364
-0.998253, 157, 77, 172, 108
-0.998253, 167, 241, 182, 304
-0.998257, 203, 241, 218, 272
-0.998265, 47, 121, 62, 184
-0.998268, 327, 321, 342, 352
-0.998269, 413, 345, 428, 375
-0.998273, 415, 225, 430, 288
-0.998276, 341, 325, 356, 356
-0.998279, 383, 225, 398, 288
-0.998281, 379, 333, 394, 364
-0.998285, 405, 225, 420, 288
-0.998285, 459, 233, 474, 296
-0.998294, 53, 65, 84, 320
-0.998294, 113, 263, 144, 278
-0.998296, 265, 273, 296, 288
-0.998297, 225, 347, 256, 362
-0.998298, 121, 257, 152, 272
-0.998298, 369, 345, 400, 360
-0.998298, 117, 75, 148, 90
-0.998299, 89, 113, 104, 176
-0.998299, 321, 331, 352, 346
-0.998299, 93, 39, 124, 54
-0.998299, 57, 209, 88, 224
-0.9983, 25, 79, 56, 94
-0.9983, 129, 273, 160, 288
-0.998301, 237, 163, 268, 178
-0.998301, 37, 111, 68, 126
-0.998301, 153, 249, 184, 264
-0.998302, 73, 155, 104, 170
-0.998302, 349, 339, 380, 354
-0.998303, 393, 337, 408, 368
-0.998303, 141, 117, 172, 132
-0.998303, 153, 103, 184, 118
-0.998303, 85, 155, 116, 170
-0.998304, 57, 201, 88, 216
-0.998304, 433, 233, 448, 296
-0.998304, 55, 161, 70, 224
-0.998304, 93, 267, 124, 282
-0.998304, 361, 337, 392, 352
-0.998306, 93, 63, 124, 78
-0.998306, 125, 149, 156, 164
-0.998306, 65, 105, 96, 120
-0.998308, 257, 331, 288, 346
-0.998309, 173, 243, 204, 258
-0.99831, 133, 91, 164, 106
-0.99831, 113, 181, 240, 212
-0.998311, 53, 121, 84, 136
-0.998311, 109, 269, 140, 284
-0.998312, 277, 217, 308, 232
-0.998312, 65, 229, 192, 260
-0.998312, 245, 269, 276, 284
-0.998312, 469, 241, 500, 256
-0.998313, 265, 241, 280, 304
-0.998313, 145, 65, 272, 96
-0.998313, 29, 63, 60, 78
-0.998314, 293, 219, 324, 234
-0.998315, 245, 71, 276, 86
-0.998316, 109, 81, 124, 112
-0.998316, 157, 93, 188, 108
-0.998317, 65, 91, 96, 106
-0.998318, 309, 327, 340, 342
-0.998318, 467, 233, 482, 296
-0.998319, 437, 237, 468, 252
-0.998321, 245, 275, 276, 290
-0.998322, 309, 221, 340, 236
-0.998323, 189, 253, 220, 268
-0.998323, 93, 277, 124, 292
-0.998323, 101, 121, 132, 136
-0.998324, 325, 223, 356, 238
-0.998324, 453, 239, 484, 254
-0.998327, 121, 243, 152, 258
-0.998327, 229, 359, 260, 374
-0.998328, 237, 151, 268, 166
-0.998329, 421, 235, 452, 250
-0.99833, 53, 127, 84, 142
-0.998331, 405, 233, 436, 248
-0.998331, 357, 227, 388, 242
-0.998332, 181, 235, 212, 250
-0.998333, 341, 225, 372, 240
-0.998333, 373, 229, 404, 244
-0.998334, 53, 91, 84, 106
-0.998335, 165, 249, 196, 264
-0.998336, 101, 113, 132, 128
-0.998336, 85, 87, 116, 102
-0.998337, 109, 149, 140, 164
-0.998338, 89, 119, 120, 134
-0.998339, 337, 321, 464, 352
-0.998339, 281, 313, 312, 328
-0.998339, 109, 285, 140, 300
-0.998339, 141, 79, 172, 94
-0.99834, 65, 99, 96, 114
-0.998341, 105, 245, 136, 260
-0.998341, 125, 103, 156, 118
-0.998341, 293, 311, 324, 326
-0.998342, 29, 91, 60, 106
-0.998343, 389, 231, 420, 246
-0.998346, 465, 361, 496, 375
-0.998347, 89, 127, 120, 142
-0.998347, 93, 77, 108, 108
-0.998349, 241, 351, 272, 366
-0.998349, 129, 261, 256, 292
-0.998349, 89, 113, 120, 128
-0.99835, 257, 217, 272, 280
-0.99835, 159, 93, 174, 124
-0.998353, 121, 201, 152, 216
-0.998354, 89, 105, 120, 120
-0.998355, 485, 233, 500, 296
-0.998355, 93, 257, 124, 272
-0.998357, 1, 313, 500, 375
-0.998358, 129, 141, 256, 172
-0.998359, 101, 127, 132, 142
-0.998363, 177, 237, 192, 268
-0.998363, 45, 65, 76, 80
-0.998364, 41, 83, 72, 98
-0.99837, 93, 75, 124, 90
-0.998373, 267, 213, 282, 244
-0.998375, 97, 313, 160, 375
-0.998376, 145, 89, 176, 104
-0.998377, 81, 99, 112, 114
-0.998379, 229, 353, 260, 368
-0.998382, 141, 105, 172, 120
-0.998383, 233, 71, 264, 86
-0.998385, 89, 57, 104, 120
-0.998386, 33, 105, 64, 120
-0.998387, 89, 149, 120, 164
-0.998387, 33, 99, 64, 114
-0.998388, 101, 81, 116, 112
-0.998389, 91, 93, 106, 124
-0.998391, 473, 233, 488, 296
-0.998393, 93, 69, 124, 84
-0.998394, 177, 281, 304, 312
-0.998396, 341, 329, 372, 344
-0.9984, 109, 275, 140, 290
-0.9984, 93, 251, 124, 266
-0.9984, 117, 89, 148, 104
-0.998401, 193, 229, 224, 244
-0.998401, 381, 313, 396, 375
-0.998401, 353, 265, 480, 328
-0.998404, 281, 169, 296, 232
-0.998406, 347, 217, 362, 280
-0.998407, 113, 101, 144, 116
-0.998407, 437, 355, 468, 370
-0.998409, 41, 91, 72, 106
-0.998412, 425, 351, 456, 366
-0.998413, 393, 343, 424, 358
-0.998417, 141, 69, 156, 100
-0.998417, 453, 359, 484, 374
-0.998419, 333, 217, 348, 280
-0.998419, 341, 217, 356, 280
-0.998419, 373, 337, 404, 352
-0.998421, 409, 347, 440, 362
-0.998421, 101, 107, 132, 122
-0.998422, 353, 331, 384, 346
-0.998422, 231, 145, 246, 208
-0.998423, 173, 227, 204, 242
-0.998423, 265, 215, 296, 230
-0.998424, 137, 73, 168, 88
-0.998425, 479, 233, 494, 296
-0.998425, 329, 325, 360, 340
-0.998426, 125, 249, 156, 264
-0.998428, 225, 49, 352, 112
-0.998429, 307, 313, 322, 375
-0.998432, 109, 257, 140, 272
-0.998435, 293, 317, 324, 332
-0.998443, 309, 319, 340, 334
-0.998448, 97, 65, 112, 96
-0.998451, 81, 93, 112, 108
-0.998451, 193, 305, 320, 336
-0.998452, 45, 77, 76, 92
-0.998453, 141, 111, 172, 126
-0.998453, 149, 73, 164, 104
-0.998461, 53, 103, 84, 118
-0.998463, 49, 113, 80, 128
-0.998464, 225, 177, 256, 304
-0.998464, 97, 89, 128, 104
-0.99847, 65, 95, 128, 110
-0.998472, 155, 105, 170, 136
-0.998476, 133, 97, 164, 112
-0.998479, 9, 25, 72, 88
-0.998489, 117, 95, 148, 110
-0.998489, 37, 61, 52, 92
-0.998493, 101, 101, 132, 116
-0.998495, 97, 121, 352, 184
-0.998499, 109, 251, 140, 266
-0.9985, 221, 1, 252, 128
-0.998502, 241, 145, 368, 208
-0.998503, 425, 345, 440, 375
-0.998504, 41, 95, 104, 110
-0.998505, 81, 253, 144, 268
-0.998508, 93, 245, 124, 260
-0.998509, 41, 97, 56, 128
-0.99851, 57, 103, 120, 118
-0.99851, 1, 185, 64, 248
-0.998512, 145, 169, 272, 200
-0.998514, 45, 71, 76, 86
-0.998516, 95, 105, 110, 136
-0.998517, 125, 249, 140, 280
-0.998523, 97, 93, 160, 108
-0.99853, 97, 101, 160, 116
-0.998531, 289, 345, 416, 375
-0.998536, 161, 337, 288, 368
-0.99854, 81, 247, 144, 262
-0.99854, 105, 1, 136, 256
-0.998545, 369, 281, 384, 312
-0.998547, 241, 345, 256, 375
-0.998548, 61, 117, 76, 148
-0.998549, 81, 259, 144, 274
-0.998553, 145, 95, 176, 110
-0.998556, 237, 65, 268, 128
-0.998561, 121, 249, 184, 264
-0.998565, 109, 125, 124, 156
-0.99857, 17, 97, 80, 112
-0.998574, 97, 87, 160, 102
-0.998575, 45, 97, 76, 112
-0.998575, 253, 65, 284, 192
-0.998576, 385, 345, 448, 360
-0.998578, 193, 293, 320, 324
-0.998579, 257, 217, 320, 232
-0.998582, 17, 103, 80, 118
-0.998584, 409, 351, 472, 366
-0.998585, 49, 217, 176, 248
-0.998587, 137, 95, 200, 110
-0.998588, 57, 89, 120, 104
-0.998588, 41, 109, 104, 124
-0.998589, 321, 327, 384, 342
-0.99859, 99, 129, 114, 160
-0.998592, 433, 359, 496, 374
-0.998592, 297, 323, 360, 338
-0.998594, 41, 69, 104, 84
-0.998595, 89, 267, 152, 282
-0.998596, 385, 1, 448, 375
-0.998596, 97, 201, 160, 216
-0.998597, 57, 119, 120, 134
-0.998601, 33, 173, 160, 204
-0.998602, 17, 113, 80, 128
-0.998602, 113, 77, 176, 92
-0.998603, 33, 89, 96, 104
-0.998603, 161, 227, 224, 242
-0.998603, 345, 333, 408, 348
-0.998605, 41, 75, 104, 90
-0.998606, 361, 339, 424, 354
-0.99861, 431, 345, 446, 375
-0.998611, 397, 209, 428, 336
-0.99862, 1, 97, 500, 160
-0.998623, 135, 197, 150, 228
-0.998623, 273, 321, 336, 336
-0.998623, 53, 57, 68, 88
-0.998623, 201, 181, 264, 196
-0.998624, 225, 65, 256, 192
-0.998628, 33, 81, 96, 96
-0.998628, 129, 313, 192, 375
-0.998629, 89, 273, 152, 288
-0.99863, 113, 113, 176, 128
-0.998632, 97, 107, 160, 122
-0.998633, 89, 71, 152, 86
-0.998633, 281, 315, 344, 330
-0.998635, 153, 89, 216, 104
-0.998638, 361, 229, 424, 244
-0.998638, 209, 173, 224, 204
-0.99864, 393, 233, 456, 248
-0.998642, 89, 77, 152, 92
-0.998643, 329, 225, 392, 240
-0.998643, 97, 119, 160, 134
-0.998644, 81, 1, 112, 256
-0.998644, 123, 261, 138, 292
-0.998645, 113, 71, 176, 86
-0.998645, 417, 129, 480, 375
-0.998645, 425, 237, 488, 252
-0.998646, 97, 95, 128, 110
-0.998646, 321, 309, 448, 340
-0.998646, 161, 251, 224, 266
-0.998648, 321, 333, 384, 348
-0.998648, 297, 221, 360, 236
-0.99865, 193, 171, 256, 186
-0.998651, 65, 111, 128, 126
-0.998652, 297, 329, 360, 344
-0.998653, 137, 77, 200, 92
-0.998654, 1, 63, 64, 78
-0.998655, 49, 63, 112, 78
-0.998657, 65, 73, 128, 88
-0.99866, 1, 153, 500, 216
-0.998661, 49, 199, 112, 214
-0.998661, 137, 231, 200, 246
-0.998662, 49, 251, 112, 266
-0.998662, 1, 91, 64, 106
-0.998662, 65, 81, 128, 96
-0.998663, 137, 101, 200, 116
-0.998663, 161, 235, 224, 250
-0.998663, 81, 151, 144, 166
-0.998663, 273, 327, 336, 342
-0.998664, 169, 259, 232, 274
-0.998666, 137, 83, 200, 98
-0.998667, 137, 243, 200, 258
-0.998668, 73, 205, 136, 220
-0.998668, 201, 151, 264, 166
-0.998669, 103, 277, 118, 308
-0.99867, 65, 277, 128, 292
-0.998671, 41, 159, 104, 174
-0.998671, 361, 345, 424, 360
-0.998672, 257, 1, 320, 375
-0.998673, 49, 207, 112, 222
-0.998674, 173, 225, 188, 256
-0.998674, 247, 345, 262, 375
-0.998677, 201, 71, 264, 86
-0.998678, 1, 265, 256, 328
-0.998678, 89, 241, 152, 256
-0.998678, 409, 357, 472, 372
-0.99868, 17, 71, 80, 86
-0.998681, 25, 203, 88, 218
-0.998681, 385, 351, 448, 366
-0.998682, 337, 339, 400, 354
-0.998682, 57, 127, 120, 142
-0.998683, 113, 243, 176, 258
-0.998684, 201, 165, 264, 180
-0.998685, 233, 165, 296, 180
-0.998686, 249, 331, 312, 346
-0.998687, 105, 255, 168, 270
-0.998687, 297, 313, 312, 344
-0.998688, 97, 283, 160, 298
-0.998689, 1, 345, 128, 375
-0.998689, 217, 361, 280, 375
-0.998689, 17, 121, 80, 136
-0.99869, 115, 105, 130, 136
-0.99869, 201, 187, 264, 202
-0.998691, 121, 89, 184, 104
-0.998693, 161, 245, 224, 260
-0.998694, 241, 113, 368, 240
-0.998695, 89, 113, 152, 128
-0.998696, 257, 315, 320, 330
-0.998697, 89, 65, 152, 80
-0.998698, 225, 279, 288, 294
-0.9987, 97, 117, 224, 148
-0.9987, 41, 153, 104, 168
-0.9987, 55, 125, 70, 156
-0.998701, 155, 117, 170, 148
-0.998702, 303, 305, 318, 336
-0.998702, 203, 253, 218, 284
-0.998702, 129, 223, 192, 238
-0.998704, 233, 159, 296, 174
-0.998704, 137, 113, 200, 128
-0.998704, 257, 211, 320, 226
-0.998704, 305, 215, 368, 230
-0.998705, 185, 229, 248, 244
-0.998706, 57, 269, 120, 284
-0.998706, 209, 259, 272, 274
-0.998708, 137, 71, 200, 86
-0.998708, 1, 79, 64, 94
-0.998708, 361, 351, 424, 366
-0.998711, 129, 195, 192, 210
-0.998711, 121, 275, 184, 290
-0.998711, 337, 219, 400, 234
-0.998713, 121, 263, 184, 278
-0.998713, 369, 223, 432, 238
-0.998715, 225, 73, 288, 88
-0.998715, 337, 345, 400, 360
-0.998715, 113, 153, 240, 184
-0.998716, 281, 213, 344, 228
-0.998716, 115, 81, 130, 112
-0.998716, 297, 335, 360, 350
-0.998717, 101, 25, 116, 56
-0.998717, 401, 227, 464, 242
-0.998718, 385, 357, 448, 372
-0.998719, 257, 275, 320, 290
-0.998719, 49, 143, 112, 158
-0.998719, 111, 257, 126, 288
-0.998719, 193, 159, 256, 174
-0.99872, 57, 245, 120, 260
-0.99872, 105, 155, 168, 170
-0.99872, 233, 215, 296, 230
-0.99872, 225, 351, 288, 366
-0.998721, 49, 263, 112, 278
-0.998721, 1, 129, 128, 160
-0.998725, 113, 269, 128, 300
-0.998728, 225, 245, 352, 276
-0.998735, 377, 225, 392, 256
-0.998735, 437, 345, 452, 375
-0.998739, 39, 85, 54, 116
-0.998741, 87, 81, 102, 112
-0.998744, 307, 317, 322, 348
-0.998746, 121, 129, 152, 375
-0.998746, 119, 237, 134, 268
-0.998753, 149, 117, 164, 148
-0.998754, 87, 249, 102, 280
-0.998755, 165, 17, 196, 144
-0.998756, 257, 269, 272, 300
-0.998759, 411, 229, 426, 260
-0.998764, 107, 69, 122, 100
-0.998774, 235, 345, 250, 375
-0.998779, 95, 117, 110, 148
-0.998782, 263, 325, 278, 356
-0.998784, 365, 161, 396, 288
-0.998787, 313, 161, 344, 288
-0.998795, 61, 17, 92, 144
-0.998796, 143, 193, 158, 224
-0.998809, 117, 225, 132, 352
-0.998812, 57, 137, 72, 168
-0.998819, 113, 285, 128, 316
-0.99882, 475, 237, 490, 268
-0.99882, 209, 229, 224, 260
-0.998821, 441, 233, 456, 264
-0.998825, 345, 221, 360, 252
-0.998827, 131, 245, 146, 276
-0.998835, 113, 137, 128, 168
-0.998839, 101, 53, 116, 84
-0.998842, 121, 281, 136, 312
-0.998842, 371, 225, 386, 256
-0.998843, 99, 257, 114, 288
-0.998843, 405, 229, 420, 260
-0.998847, 93, 141, 108, 172
-0.998847, 51, 197, 66, 228
-0.998847, 195, 249, 210, 280
-0.998851, 41, 73, 56, 104
-0.998851, 47, 57, 62, 88
-0.998863, 249, 153, 264, 184
-0.998866, 265, 269, 280, 300
-0.998869, 313, 217, 328, 248
-0.998871, 65, 57, 192, 88
-0.998871, 257, 253, 272, 284
-0.998872, 97, 153, 352, 216
-0.998875, 447, 233, 462, 264
-0.998877, 105, 137, 120, 168
-0.998904, 109, 97, 140, 352
-0.998935, 145, 105, 272, 136
-0.998937, 329, 289, 360, 352
-0.998939, 81, 285, 208, 316
-0.99896, 99, 33, 114, 160
-0.998977, 153, 1, 184, 256
-0.998989, 1, 141, 128, 172
-0.998993, 107, 49, 122, 176
-0.999013, 161, 325, 288, 356
-0.999014, 29, 1, 60, 256
-0.999015, 109, 193, 124, 320
-0.99902, 241, 129, 272, 375
-0.999024, 129, 57, 384, 120
-0.999026, 225, 289, 480, 352
-0.999042, 141, 1, 172, 128
-0.999042, 65, 1, 128, 64
-0.999044, 53, 49, 68, 176
-0.999059, 47, 65, 62, 192
-0.999063, 65, 201, 96, 264
-0.999072, 97, 9, 352, 72
-0.999074, 149, 49, 164, 176
-0.999084, 97, 209, 112, 336
-0.99909, 413, 313, 444, 375
-0.999096, 421, 201, 452, 264
-0.9991, 161, 137, 224, 200
-0.999117, 17, 49, 144, 80
-0.999119, 103, 193, 118, 320
-0.999133, 225, 157, 352, 188
-0.999138, 129, 33, 160, 288
-0.999143, 119, 177, 134, 304
-0.999147, 57, 97, 72, 224
-0.999157, 1, 281, 64, 344
-0.999162, 273, 301, 400, 332
-0.999167, 257, 233, 384, 264
-0.999172, 145, 25, 208, 88
-0.999182, 143, 49, 158, 176
-0.999182, 93, 49, 108, 176
-0.999183, 225, 145, 352, 176
-0.999195, 145, 129, 272, 160
-0.999206, 9, 57, 40, 120
-0.99921, 269, 129, 300, 375
-0.999216, 17, 177, 48, 304
-0.999231, 141, 185, 172, 248
-0.999239, 123, 241, 138, 368
-0.999243, 97, 129, 224, 160
-0.999252, 125, 129, 156, 192
-0.999265, 59, 49, 74, 176
-0.999267, 185, 201, 216, 264
-0.999277, 85, 97, 116, 352
-0.999278, 25, 225, 88, 288
-0.99928, 113, 65, 128, 192
-0.99929, 1, 49, 500, 112
-0.999297, 109, 241, 124, 368
-0.999299, 17, 229, 144, 260
-0.999302, 241, 49, 304, 112
-0.999303, 101, 81, 116, 208
-0.999305, 145, 117, 272, 148
-0.999306, 65, 21, 192, 52
-0.999309, 95, 97, 110, 224
-0.999315, 207, 177, 222, 304
-0.999331, 385, 201, 416, 264
-0.999331, 267, 193, 282, 320
-0.999332, 409, 1, 472, 375
-0.999335, 125, 177, 140, 304
-0.999344, 91, 193, 106, 320
-0.999348, 151, 97, 166, 224
-0.999358, 85, 193, 100, 320
-0.999359, 117, 1, 148, 256
-0.999362, 469, 177, 500, 304
-0.999363, 337, 285, 464, 316
-0.999365, 233, 129, 264, 192
-0.999378, 241, 1, 368, 128
-0.999379, 193, 129, 224, 375
-0.999379, 65, 65, 80, 192
-0.999381, 1, 153, 128, 184
-0.999384, 133, 177, 148, 304
-0.999386, 105, 1, 120, 128
-0.999386, 69, 113, 100, 176
-0.999389, 257, 241, 272, 368
-0.99939, 143, 97, 158, 224
-0.999393, 397, 201, 428, 264
-0.999402, 209, 229, 336, 260
-0.999405, 107, 97, 122, 224
-0.999413, 1, 225, 64, 288
-0.999414, 369, 209, 496, 240
-0.999425, 103, 241, 118, 368
-0.999425, 155, 49, 170, 176
-0.999426, 173, 209, 188, 336
-0.999432, 179, 209, 194, 336
-0.999438, 199, 209, 214, 336
-0.999438, 329, 1, 392, 375
-0.999439, 193, 73, 320, 104
-0.99944, 113, 113, 128, 240
-0.999452, 103, 145, 118, 272
-0.99946, 191, 209, 206, 336
-0.999465, 91, 241, 106, 368
-0.999466, 177, 141, 304, 172
-0.999467, 41, 49, 56, 176
-0.99947, 297, 193, 328, 256
-0.999474, 1, 241, 500, 304
-0.999475, 185, 209, 200, 336
-0.999483, 205, 97, 236, 352
-0.999485, 261, 193, 276, 320
-0.999492, 361, 209, 376, 336
-0.999497, 305, 201, 432, 232
-0.9995, 449, 161, 480, 288
-0.9995, 51, 113, 66, 240
-0.999504, 47, 17, 62, 144
-0.999509, 369, 209, 384, 336
-0.999511, 97, 161, 112, 288
-0.999519, 129, 225, 144, 352
-0.999525, 101, 153, 132, 216
-0.999527, 143, 151, 158, 166
-0.999527, 85, 1, 116, 64
-0.999528, 121, 101, 136, 116
-0.999529, 257, 361, 272, 375
-0.999529, 141, 75, 156, 90
-0.999529, 151, 89, 166, 104
-0.999529, 237, 345, 252, 360
-0.99953, 57, 129, 72, 144
-0.999532, 93, 149, 108, 164
-0.999532, 167, 249, 182, 264
-0.999532, 111, 125, 126, 140
-0.999533, 45, 81, 60, 96
-0.999533, 285, 313, 300, 328
-0.999534, 93, 117, 108, 132
-0.999534, 177, 249, 192, 264
-0.999534, 133, 201, 148, 216
-0.999535, 69, 193, 84, 320
-0.999536, 103, 277, 118, 292
-0.999536, 259, 273, 274, 288
-0.999536, 129, 249, 144, 264
-0.999536, 107, 249, 122, 264
-0.999538, 183, 249, 198, 264
-0.999539, 63, 193, 78, 320
-0.99954, 63, 113, 78, 240
-0.999541, 87, 95, 102, 110
-0.999542, 249, 65, 264, 192
-0.999543, 203, 253, 218, 268
-0.999544, 241, 71, 256, 86
-0.999544, 149, 71, 164, 86
-0.999544, 105, 113, 120, 128
-0.999545, 465, 361, 480, 375
-0.999545, 97, 69, 112, 84
-0.999545, 129, 53, 256, 84
-0.999546, 375, 209, 390, 336
-0.999546, 105, 133, 120, 148
-0.999546, 75, 193, 90, 320
-0.999547, 99, 87, 114, 102
-0.999547, 177, 243, 192, 258
-0.999549, 451, 357, 466, 372
-0.999549, 435, 353, 450, 368
-0.999549, 55, 63, 70, 78
-0.999549, 201, 237, 216, 252
-0.99955, 105, 119, 120, 134
-0.99955, 263, 361, 278, 375
-0.99955, 201, 243, 216, 258
-0.999551, 311, 209, 326, 336
-0.999551, 457, 359, 472, 374
-0.999552, 139, 89, 154, 104
-0.999552, 143, 145, 158, 272
-0.999553, 303, 317, 318, 332
-0.999553, 149, 119, 164, 134
-0.999554, 443, 355, 458, 370
-0.999556, 157, 87, 172, 102
-0.999556, 91, 87, 106, 102
-0.999557, 121, 95, 136, 110
-0.999557, 427, 351, 442, 366
-0.999557, 255, 177, 270, 304
-0.999557, 119, 245, 134, 260
-0.999559, 419, 349, 434, 364
-0.999559, 103, 243, 118, 258
-0.999559, 51, 177, 66, 304
-0.999561, 189, 227, 204, 242
-0.999562, 93, 101, 108, 116
-0.999563, 63, 117, 78, 132
-0.999564, 393, 341, 408, 356
-0.999564, 309, 317, 324, 332
-0.999564, 265, 241, 280, 368
-0.999564, 57, 193, 72, 320
-0.999564, 41, 99, 56, 114
-0.999566, 107, 255, 122, 270
-0.999566, 205, 229, 220, 244
-0.999567, 413, 347, 428, 362
-0.999567, 43, 89, 58, 104
-0.999568, 267, 215, 282, 230
-0.999568, 141, 103, 156, 118
-0.999569, 363, 333, 378, 348
-0.999569, 407, 345, 422, 360
-0.99957, 59, 123, 74, 138
-0.99957, 99, 121, 114, 136
-0.99957, 189, 235, 204, 250
-0.999572, 99, 111, 114, 126
-0.999573, 163, 95, 178, 110
-0.999573, 369, 285, 384, 300
-0.999573, 147, 111, 162, 126
-0.999574, 149, 105, 164, 120
-0.999574, 399, 343, 414, 358
-0.999575, 99, 127, 114, 142
-0.999575, 247, 351, 262, 366
-0.999576, 357, 331, 372, 346
-0.999576, 157, 101, 172, 116
-0.999577, 183, 241, 198, 256
-0.999577, 109, 87, 124, 102
-0.999578, 201, 161, 216, 288
-0.999578, 175, 227, 190, 242
-0.999579, 233, 351, 248, 366
-0.999579, 385, 339, 400, 354
-0.999579, 247, 69, 262, 84
-0.999579, 213, 129, 228, 256
-0.999581, 351, 329, 366, 344
-0.999581, 293, 193, 308, 320
-0.999582, 51, 113, 66, 128
-0.999582, 377, 337, 392, 352
-0.999583, 67, 103, 82, 118
-0.999584, 291, 313, 306, 328
-0.999585, 57, 115, 72, 130
-0.999586, 341, 327, 356, 342
-0.999586, 301, 193, 316, 320
-0.999587, 371, 335, 386, 350
-0.999587, 155, 111, 170, 126
-0.999588, 89, 145, 104, 272
-0.999588, 67, 97, 82, 112
-0.99959, 121, 257, 136, 272
-0.999591, 33, 289, 160, 320
-0.999594, 139, 193, 154, 320
-0.999595, 321, 321, 336, 336
-0.999597, 319, 209, 334, 336
-0.999597, 183, 235, 198, 250
-0.999597, 47, 75, 62, 90
-0.9996, 335, 325, 350, 340
-0.9996, 195, 243, 210, 258
-0.999601, 167, 225, 182, 352
-0.999602, 139, 95, 154, 110
-0.999603, 235, 357, 250, 372
-0.999603, 327, 323, 342, 338
-0.999604, 93, 245, 108, 260
-0.999606, 189, 241, 204, 256
-0.999606, 215, 177, 230, 304
-0.999608, 115, 101, 130, 116
-0.999611, 55, 69, 70, 84
-0.999614, 281, 129, 312, 375
-0.999615, 113, 17, 128, 144
-0.999616, 251, 241, 266, 368
-0.999617, 109, 107, 124, 122
-0.99962, 113, 255, 128, 270
-0.99962, 297, 313, 312, 328
-0.999621, 49, 69, 64, 84
-0.999624, 355, 209, 370, 336
-0.999624, 195, 237, 210, 252
-0.999624, 253, 97, 284, 352
-0.999625, 241, 353, 256, 368
-0.999626, 105, 127, 120, 142
-0.999627, 97, 33, 224, 64
-0.999631, 315, 319, 330, 334
-0.999632, 35, 49, 50, 176
-0.999634, 349, 209, 364, 336
-0.999636, 99, 105, 114, 120
-0.999636, 109, 243, 124, 258
-0.999637, 57, 109, 72, 124
-0.999641, 113, 341, 240, 372
-0.999645, 249, 113, 264, 240
-0.999645, 281, 193, 296, 320
-0.999646, 137, 49, 152, 176
-0.999649, 57, 121, 88, 184
-0.999652, 339, 209, 354, 336
-0.999653, 93, 1, 108, 128
-0.999653, 119, 97, 134, 224
-0.999654, 5, 241, 36, 368
-0.999655, 57, 145, 72, 272
-0.999656, 157, 93, 172, 108
-0.999657, 299, 241, 314, 368
-0.999658, 149, 1, 164, 128
-0.999661, 273, 193, 288, 320
-0.999662, 239, 129, 254, 256
-0.999662, 113, 249, 128, 264
-0.999663, 245, 1, 260, 128
-0.999665, 449, 209, 464, 336
-0.999668, 145, 1, 272, 64
-0.999668, 159, 225, 174, 352
-0.999669, 287, 193, 302, 320
-0.999671, 47, 105, 62, 120
-0.999671, 49, 95, 64, 110
-0.999674, 325, 209, 340, 336
-0.999676, 93, 95, 108, 110
-0.999676, 205, 241, 220, 368
-0.999678, 109, 93, 124, 108
-0.99968, 255, 65, 270, 192
-0.99968, 283, 145, 298, 272
-0.999681, 11, 49, 26, 176
-0.999685, 469, 209, 484, 336
-0.999686, 153, 225, 168, 352
-0.999688, 333, 209, 348, 336
-0.999693, 69, 145, 84, 272
-0.999693, 57, 103, 72, 118
-0.999694, 1, 305, 256, 368
-0.999695, 109, 101, 124, 116
-0.999698, 383, 209, 398, 336
-0.999699, 133, 129, 148, 256
-0.999699, 145, 225, 160, 352
-0.9997, 17, 21, 144, 52
-0.999702, 463, 209, 478, 336
-0.999704, 435, 209, 450, 336
-0.999705, 455, 209, 470, 336
-0.999706, 225, 185, 352, 216
-0.999707, 239, 1, 254, 128
-0.99971, 153, 273, 216, 336
-0.999711, 147, 95, 162, 110
-0.999711, 143, 1, 158, 128
-0.999713, 157, 97, 172, 224
-0.999716, 41, 97, 56, 224
-0.999716, 441, 209, 456, 336
-0.999717, 155, 1, 170, 128
-0.999719, 257, 129, 272, 256
-0.99972, 249, 177, 264, 304
-0.999722, 221, 177, 236, 304
-0.999723, 99, 93, 114, 108
-0.999724, 485, 225, 500, 352
-0.999724, 81, 145, 96, 272
-0.99973, 97, 165, 224, 196
-0.99973, 475, 209, 490, 336
-0.999733, 57, 1, 72, 128
-0.999734, 57, 97, 72, 112
-0.999738, 277, 145, 292, 272
-0.999739, 429, 209, 444, 336
-0.99974, 119, 33, 134, 160
-0.99974, 161, 17, 176, 144
-0.999743, 115, 95, 130, 110
-0.999744, 129, 285, 256, 316
-0.999744, 233, 113, 248, 240
-0.999745, 85, 241, 100, 368
-0.999745, 129, 1, 160, 128
-0.999748, 21, 49, 36, 176
-0.99975, 3, 49, 18, 176
-0.999751, 219, 129, 234, 256
-0.999751, 389, 209, 404, 336
-0.999755, 223, 241, 238, 368
-0.999756, 217, 241, 232, 368
-0.999757, 209, 61, 336, 92
-0.999766, 119, 251, 134, 266
-0.99977, 103, 99, 118, 114
-0.99977, 17, 33, 48, 288
-0.999815, 65, 1, 192, 32
-0.999818, 353, 1, 416, 375
-0.999821, 297, 161, 328, 288
-0.999833, 17, 329, 144, 360
-0.999836, 17, 5, 144, 36
-0.999838, 73, 129, 104, 375
-0.999855, 325, 161, 356, 288
-0.999878, 17, 301, 144, 332
-0.999891, 81, 297, 208, 328
-0.999899, 433, 1, 496, 375
-0.99991, 1, 1, 32, 256
-0.999922, 153, 97, 184, 352
-0.999925, 273, 257, 400, 288
-0.999925, 217, 129, 248, 375
-0.999943, 369, 129, 432, 375
-0.999951, 129, 297, 256, 328
-0.999951, 337, 161, 368, 288
-0.99996, 1, 317, 128, 348
-0.999963, 145, 313, 272, 344
-0.999964, 353, 161, 384, 288
-0.999979, 321, 297, 448, 328
-0.999992, 17, 37, 144, 68
-0.999995, 225, 133, 352, 164
-0.999996, 81, 309, 208, 340
-1.00001, 321, 129, 384, 375
-1.00002, 177, 17, 304, 48
-1.00005, 73, 1, 104, 128
-1.00005, 65, 1, 96, 256
-1.00005, 1, 121, 500, 184
-1.00006, 201, 25, 264, 88
-1.00006, 129, 273, 256, 304
-1.00006, 97, 325, 224, 356
-1.00007, 181, 129, 212, 375
-1.00008, 225, 5, 352, 36
-1.00008, 417, 313, 480, 375
-1.00012, 241, 169, 368, 200
-1.00012, 325, 129, 356, 375
-1.00012, 433, 161, 464, 288
-1.00013, 145, 29, 272, 60
-1.00014, 177, 89, 304, 120
-1.00014, 45, 241, 76, 368
-1.00016, 65, 337, 192, 368
-1.00016, 173, 161, 204, 288
-1.00018, 353, 273, 480, 304
-1.00018, 1, 9, 256, 72
-1.0002, 301, 129, 332, 375
-1.0002, 257, 1, 384, 64
-1.0002, 337, 177, 464, 240
-1.00021, 289, 245, 416, 276
-1.00021, 65, 45, 192, 76
-1.00023, 345, 129, 376, 375
-1.00024, 169, 129, 200, 375
-1.00025, 265, 1, 328, 64
-1.00027, 1, 1, 32, 128
-1.00027, 313, 129, 344, 375
-1.00027, 225, 49, 352, 80
-1.00028, 193, 145, 448, 208
-1.00028, 369, 129, 400, 375
-1.00031, 273, 1, 400, 32
-1.00033, 453, 129, 484, 375
-1.00034, 153, 161, 184, 288
-1.00034, 305, 1, 368, 375
-1.00034, 433, 129, 464, 375
-1.00035, 205, 1, 236, 256
-1.00037, 193, 33, 256, 288
-1.00038, 9, 129, 40, 256
-1.00039, 257, 1, 288, 256
-1.0004, 29, 97, 60, 352
-1.0004, 229, 97, 260, 352
-1.00041, 185, 33, 216, 288
-1.00041, 225, 73, 352, 136
-1.00042, 229, 1, 260, 256
-1.00044, 193, 1, 448, 64
-1.00046, 193, 17, 224, 144
-1.00047, 25, 289, 88, 352
-1.00048, 469, 97, 500, 352
-1.00049, 1, 177, 32, 304
-1.00051, 225, 169, 480, 232
-1.00052, 25, 241, 56, 368
-1.00052, 405, 129, 436, 375
-1.00054, 1, 281, 500, 344
-1.00055, 421, 97, 452, 352
-1.00056, 357, 129, 388, 375
-1.00058, 225, 97, 352, 160
-1.00061, 201, 289, 264, 352
-1.00062, 129, 33, 384, 96
-1.00062, 17, 129, 48, 375
-1.00065, 393, 97, 424, 352
-1.00068, 165, 1, 196, 256
-1.00069, 289, 33, 320, 288
-1.00072, 385, 161, 416, 288
-1.00073, 381, 97, 412, 352
-1.00074, 177, 1, 208, 128
-1.0008, 361, 265, 424, 328
-1.00081, 1, 129, 32, 375
-1.00081, 245, 1, 276, 256
-1.0009, 217, 1, 248, 256
-1.0009, 273, 169, 400, 232
-1.00093, 397, 161, 428, 288
-1.00096, 337, 33, 368, 288
-1.00099, 225, 121, 480, 184
-1.001, 353, 33, 384, 288
-1.001, 225, 25, 352, 88
-1.00102, 421, 161, 452, 288
-1.00102, 177, 281, 240, 344
-1.00103, 325, 33, 356, 288
-1.00104, 365, 33, 396, 288
-1.00112, 309, 33, 340, 288
-1.00113, 73, 153, 136, 216
-1.00113, 277, 33, 308, 288
-1.0012, 305, 249, 432, 312
-1.00124, 405, 33, 436, 288
-1.00125, 225, 33, 480, 96
-1.00132, 169, 25, 232, 88
-1.00138, 29, 161, 60, 288
-1.00142, 409, 161, 440, 288
-1.00146, 161, 49, 224, 112
-1.00147, 313, 257, 376, 320
-1.00163, 225, 81, 480, 144
-1.00171, 453, 33, 484, 288
-1.00173, 225, 57, 480, 120
-1.00173, 433, 33, 464, 288
-1.00177, 385, 1, 416, 256
-1.00178, 189, 97, 220, 224
-1.00179, 393, 97, 456, 352
-1.00182, 265, 169, 328, 232
-1.00183, 417, 1, 448, 256
-1.00183, 469, 1, 500, 256
-1.00197, 217, 49, 280, 112
-1.002, 273, 137, 336, 200
-1.002, 225, 33, 288, 288
-1.00201, 1, 25, 500, 88
-1.00202, 61, 241, 92, 368
-1.00207, 369, 1, 496, 64
-1.00208, 209, 81, 240, 208
-1.00216, 21, 113, 52, 240
-1.00225, 69, 97, 100, 224
-1.00229, 209, 1, 240, 128
-1.00233, 177, 65, 208, 192
-1.00246, 1, 1, 500, 64
-1.00262, 369, 25, 496, 88
-1.00274, 241, 73, 304, 136
-1.00275, 165, 65, 196, 192
-1.00277, 273, 89, 400, 152
-1.00283, 241, 1, 304, 64
-1.00288, 185, 1, 248, 64
-1.00289, 273, 113, 400, 176
-1.00291, 273, 25, 400, 88
-1.00291, 321, 25, 448, 88
-1.00291, 305, 49, 432, 112
-1.00291, 353, 49, 480, 112
-1.00291, 321, 73, 448, 136
-1.00291, 369, 73, 496, 136
-1.00291, 321, 97, 448, 160
-1.00291, 369, 97, 496, 160
-1.00291, 321, 121, 448, 184
-1.00291, 369, 121, 496, 184
-1.00291, 321, 145, 448, 208
-1.00291, 369, 145, 496, 208
-1.00302, 161, 1, 224, 64
-1.00307, 201, 105, 264, 168
-1.00314, 281, 33, 344, 288
-1.0032, 321, 1, 448, 64
-1.00372, 345, 97, 408, 352
-1.00418, 265, 1, 296, 128
-1.00428, 225, 49, 480, 176
-1.00458, 257, 33, 320, 288
-1.00461, 265, 97, 296, 224
-1.00488, 277, 1, 308, 128
-1.00491, 241, 65, 368, 192
-1.00505, 321, 33, 384, 288
-1.00572, 193, 33, 448, 288
-1.00639, 293, 113, 324, 240
-1.00649, 289, 1, 320, 128
-1.00686, 369, 33, 432, 288
-1.00689, 289, 113, 416, 240
-1.00721, 281, 113, 344, 240
-1.00731, 153, 113, 184, 240
-1.00736, 305, 113, 336, 240
-1.0077, 281, 97, 312, 224
-1.00783, 265, 1, 328, 128
-1.00786, 465, 1, 496, 128
-1.00835, 417, 129, 480, 256
-1.00861, 417, 33, 480, 288
-1.00904, 369, 1, 496, 128
-1.00924, 321, 1, 448, 128
-1.00937, 257, 81, 320, 208
-1.01038, 321, 65, 448, 192
-1.01038, 369, 65, 496, 192
-1.01066, 345, 1, 408, 256
-1.01088, 393, 1, 456, 256
-1.01173, 425, 1, 488, 128
-1.01182, 305, 113, 368, 240
-1.01189, 353, 113, 480, 240
-1.01228, 401, 1, 464, 128
-1.0125, 289, 1, 352, 128
-1.01299, 313, 1, 376, 128
-1.01335, 369, 1, 432, 128
-1.01406, 281, 49, 344, 176
-1.01435, 345, 1, 408, 128
-1.01471, 433, 49, 496, 176
-1.01478, 313, 65, 376, 192
-1.01478, 337, 65, 400, 192
-1.01478, 361, 65, 424, 192
-1.01478, 385, 65, 448, 192
-1.01478, 409, 81, 472, 208
-1.01501, 337, 113, 400, 240
-1.01575, 369, 113, 432, 240
