2127
-0.347036, 1, 1, 500, 488
-0.37126, 1, 97, 500, 352
-0.387177, 65, 1, 320, 488
-0.447474, 1, 193, 500, 448
-0.470785, 161, 1, 416, 488
-0.489793, 33, 97, 288, 352
-0.505513, 1, 1, 500, 256
-0.542018, 257, 1, 500, 488
-0.577881, 161, 97, 416, 352
-0.613974, 1, 193, 256, 448
-0.651893, 257, 97, 500, 352
-0.708596, 97, 1, 352, 256
-0.737499, 97, 193, 352, 448
-0.750486, 193, 1, 448, 256
-0.754472, 193, 193, 448, 448
-0.789029, 1, 1, 256, 256
-0.822343, 65, 97, 192, 352
-0.838846, 81, 1, 208, 488
-0.842105, 161, 97, 288, 352
-0.849993, 33, 1, 160, 488
-0.853949, 113, 97, 240, 352
-0.855386, 161, 1, 288, 488
-0.859613, 257, 97, 384, 352
-0.872074, 17, 129, 144, 384
-0.874034, 1, 129, 500, 256
-0.874531, 209, 1, 336, 488
-0.879697, 209, 129, 336, 384
-0.886501, 33, 129, 288, 256
-0.888131, 97, 1, 224, 256
-0.888422, 305, 65, 432, 320
-0.888648, 273, 1, 400, 488
-0.889661, 1, 225, 128, 480
-0.890011, 1, 193, 500, 320
-0.892083, 65, 193, 192, 448
-0.893243, 129, 193, 256, 448
-0.895365, 209, 1, 336, 256
-0.896437, 17, 1, 144, 256
-0.900706, 129, 129, 384, 256
-0.903028, 369, 1, 496, 488
-0.904037, 353, 65, 480, 320
-0.910417, 89, 113, 152, 240
-0.910451, 161, 1, 288, 256
-0.910749, 1, 177, 256, 304
-0.910782, 257, 1, 384, 256
-0.914331, 1, 305, 500, 432
-0.914641, 321, 1, 448, 488
-0.915564, 65, 129, 192, 256
-0.919116, 1, 353, 500, 480
-0.922759, 1, 241, 500, 368
-0.923117, 1, 81, 500, 208
-0.924816, 193, 177, 448, 304
-0.926605, 177, 225, 304, 480
-0.926695, 145, 129, 272, 256
-0.927071, 169, 129, 232, 256
-0.927725, 321, 161, 448, 416
-0.927929, 217, 145, 280, 272
-0.92819, 97, 177, 352, 304
-0.931021, 257, 129, 500, 256
-0.932347, 193, 129, 256, 256
-0.932581, 33, 225, 288, 352
-0.93259, 145, 113, 208, 240
-0.933179, 97, 81, 352, 208
-0.933958, 225, 145, 352, 272
-0.938555, 257, 145, 320, 272
-0.939238, 65, 161, 128, 288
-0.939562, 113, 129, 176, 256
-0.939933, 281, 129, 344, 256
-0.940456, 225, 225, 352, 480
-0.942555, 305, 113, 432, 240
-0.942915, 193, 225, 448, 352
-0.943698, 161, 129, 224, 192
-0.943717, 129, 177, 192, 304
-0.94423, 65, 177, 192, 304
-0.944604, 65, 113, 128, 240
-0.944873, 129, 137, 192, 200
-0.945027, 1, 33, 500, 160
-0.945095, 81, 121, 144, 184
-0.945226, 9, 273, 72, 400
-0.946384, 369, 225, 496, 480
-0.94647, 1, 97, 128, 224
-0.946537, 345, 97, 408, 224
-0.947491, 185, 193, 248, 320
-0.947662, 161, 177, 288, 304
-0.947739, 57, 321, 120, 448
-0.9481, 321, 113, 384, 240
-0.948318, 209, 145, 272, 208
-0.949492, 249, 145, 312, 208
-0.950015, 209, 193, 272, 320
-0.950277, 17, 321, 80, 448
-0.950385, 17, 337, 144, 464
-0.950534, 225, 169, 288, 232
-0.950697, 33, 337, 288, 464
-0.950718, 1, 81, 256, 208
-0.951066, 81, 153, 144, 216
-0.951349, 257, 81, 500, 208
-0.951469, 153, 177, 216, 304
-0.951851, 1, 177, 128, 304
-0.95228, 33, 225, 160, 352
-0.952912, 225, 353, 480, 480
-0.953277, 185, 137, 248, 200
-0.954016, 65, 273, 320, 400
-0.954263, 105, 193, 168, 320
-0.954587, 145, 161, 208, 224
-0.954708, 225, 97, 352, 224
-0.954791, 105, 137, 168, 200
-0.955044, 105, 161, 168, 224
-0.955076, 113, 177, 240, 304
-0.955128, 81, 81, 208, 208
-0.95552, 81, 225, 208, 352
-0.955738, 273, 161, 400, 288
-0.956456, 121, 81, 184, 208
-0.956999, 337, 105, 400, 168
-0.957261, 297, 137, 360, 200
-0.957389, 369, 97, 432, 224
-0.957476, 161, 225, 288, 352
-0.958322, 169, 81, 232, 208
-0.958961, 153, 225, 216, 352
-0.95913, 361, 105, 424, 168
-0.959438, 65, 177, 128, 240
-0.959472, 217, 97, 280, 224
-0.959481, 153, 233, 216, 296
-0.959818, 41, 161, 104, 288
-0.959913, 81, 209, 144, 336
-0.960026, 177, 81, 304, 208
-0.960512, 129, 81, 256, 208
-0.960744, 57, 209, 120, 336
-0.960972, 1, 113, 64, 240
-0.961243, 1, 273, 128, 400
-0.961302, 169, 177, 232, 240
-0.961376, 249, 97, 312, 224
-0.96144, 177, 97, 240, 352
-0.962251, 33, 257, 96, 384
-0.962334, 153, 97, 216, 352
-0.96287, 345, 129, 408, 192
-0.963026, 353, 97, 480, 224
-0.9632, 217, 353, 280, 480
-0.963294, 57, 153, 120, 216
-0.963365, 17, 337, 80, 400
-0.963433, 225, 273, 480, 400
-0.963443, 57, 257, 120, 384
-0.963715, 193, 209, 256, 272
-0.963862, 129, 337, 384, 464
-0.96406, 89, 97, 152, 352
-0.964245, 273, 193, 400, 448
-0.964553, 97, 321, 160, 448
-0.964624, 209, 193, 336, 320
-0.964682, 321, 145, 384, 208
-0.964972, 121, 209, 184, 272
-0.965012, 273, 153, 336, 216
-0.965327, 201, 169, 264, 232
-0.965443, 65, 129, 192, 192
-0.965645, 113, 97, 176, 352
-0.965888, 93, 113, 124, 240
-0.966039, 129, 185, 192, 248
-0.96619, 129, 137, 256, 200
-0.966227, 145, 137, 176, 200
-0.966503, 329, 161, 392, 288
-0.966506, 261, 145, 292, 208
-0.966524, 193, 81, 256, 208
-0.966821, 121, 129, 152, 192
-0.967033, 133, 129, 164, 256
-0.967143, 329, 169, 392, 232
-0.967237, 73, 129, 104, 192
-0.967332, 57, 209, 120, 272
-0.967551, 49, 273, 176, 400
-0.967635, 97, 121, 128, 184
-0.967671, 81, 209, 144, 272
-0.967878, 249, 169, 312, 232
-0.967992, 265, 193, 328, 320
-0.968016, 129, 113, 192, 176
-0.968384, 241, 145, 368, 208
-0.968507, 65, 153, 192, 216
-0.968514, 121, 113, 152, 240
-0.968752, 225, 145, 256, 272
-0.968805, 197, 129, 228, 256
-0.968989, 169, 201, 232, 264
-0.9691, 157, 153, 188, 216
-0.969635, 233, 417, 296, 480
-0.969684, 365, 97, 396, 160
-0.969692, 225, 129, 288, 384
-0.969701, 213, 137, 244, 200
-0.969719, 257, 209, 384, 336
-0.96973, 97, 353, 224, 480
-0.969764, 57, 321, 120, 384
-0.969965, 177, 241, 240, 368
-0.969975, 273, 65, 400, 192
-0.969998, 25, 209, 88, 336
-0.970275, 269, 145, 300, 272
-0.970337, 177, 121, 208, 184
-0.970461, 77, 145, 108, 272
-0.970513, 173, 113, 204, 240
-0.970747, 105, 113, 136, 240
-0.970755, 65, 129, 128, 384
-0.970924, 233, 193, 296, 256
-0.970984, 157, 129, 188, 256
-0.97121, 133, 161, 164, 224
-0.971459, 417, 369, 480, 432
-0.971539, 201, 129, 264, 384
-0.971615, 133, 129, 164, 192
-0.971669, 273, 145, 304, 208
-0.971701, 281, 145, 312, 272
-0.971808, 41, 97, 104, 224
-0.971929, 289, 81, 352, 208
-0.972074, 369, 49, 496, 176
-0.972235, 321, 65, 384, 192
-0.972307, 257, 145, 288, 272
-0.972372, 369, 353, 496, 480
-0.972421, 249, 161, 280, 224
-0.972485, 145, 129, 176, 256
-0.972613, 257, 129, 320, 384
-0.972752, 209, 353, 336, 480
-0.972821, 273, 129, 336, 192
-0.972874, 25, 305, 88, 368
-0.973093, 9, 161, 72, 288
-0.973145, 353, 97, 384, 224
-0.973247, 177, 145, 304, 208
-0.973315, 9, 113, 40, 176
-0.973397, 197, 137, 228, 200
-0.973562, 209, 145, 240, 272
-0.973563, 333, 137, 364, 200
-0.9736, 225, 121, 288, 184
-0.973698, 81, 153, 112, 216
-0.973847, 129, 225, 192, 352
-0.973973, 433, 321, 496, 448
-0.974028, 193, 33, 448, 160
-0.974071, 305, 129, 336, 256
-0.974135, 305, 113, 368, 176
-0.974167, 293, 129, 324, 256
-0.974197, 321, 161, 448, 288
-0.974198, 65, 177, 192, 240
-0.974438, 41, 129, 104, 192
-0.974582, 129, 353, 192, 480
-0.974595, 81, 257, 144, 384
-0.974647, 241, 257, 368, 384
-0.974651, 237, 153, 268, 216
-0.974689, 9, 113, 40, 240
-0.974739, 161, 353, 288, 480
-0.974758, 41, 233, 104, 296
-0.975032, 233, 225, 296, 352
-0.975125, 9, 113, 72, 176
-0.975196, 49, 201, 176, 264
-0.975242, 353, 113, 384, 176
-0.975316, 97, 65, 160, 192
-0.975317, 113, 113, 240, 176
-0.975364, 129, 161, 256, 224
-0.975443, 237, 145, 268, 272
-0.975445, 305, 209, 432, 336
-0.975459, 1, 297, 64, 360
-0.975478, 1, 137, 64, 200
-0.975581, 1, 49, 128, 176
-0.975582, 113, 193, 176, 448
-0.975587, 185, 113, 216, 240
-0.975671, 85, 121, 116, 184
-0.975747, 305, 97, 368, 352
-0.975773, 177, 177, 304, 240
-0.975778, 373, 81, 404, 208
-0.975783, 141, 177, 172, 304
-0.975886, 217, 169, 248, 232
-0.975903, 225, 145, 256, 208
-0.975927, 205, 177, 236, 240
-0.976078, 41, 185, 104, 248
-0.976133, 297, 161, 360, 224
-0.976228, 401, 337, 464, 464
-0.976239, 177, 249, 240, 312
-0.97625, 329, 97, 392, 352
-0.976321, 261, 177, 292, 240
-0.976368, 105, 393, 168, 456
-0.976375, 193, 353, 256, 480
-0.976405, 33, 153, 96, 216
-0.976438, 181, 161, 212, 288
-0.97645, 17, 129, 144, 192
-0.976459, 345, 257, 408, 384
-0.976693, 25, 281, 88, 344
-0.97672, 281, 97, 344, 352
-0.97674, 305, 257, 432, 384
-0.976797, 41, 161, 104, 416
-0.977025, 73, 177, 104, 240
-0.977037, 209, 193, 240, 320
-0.977059, 305, 113, 432, 176
-0.977158, 153, 193, 216, 448
-0.977312, 285, 145, 316, 208
-0.977436, 65, 177, 96, 304
-0.97745, 241, 169, 368, 232
-0.977541, 37, 289, 68, 416
-0.977663, 73, 65, 136, 192
-0.977733, 17, 65, 80, 192
-0.977752, 233, 273, 296, 400
-0.977785, 329, 273, 392, 336
-0.977836, 105, 185, 168, 248
-0.977881, 97, 225, 224, 288
-0.977947, 17, 273, 48, 400
-0.978155, 249, 33, 312, 288
-0.978236, 337, 305, 464, 432
-0.978391, 129, 185, 256, 248
-0.978421, 97, 417, 160, 480
-0.978467, 257, 201, 320, 264
-0.978492, 353, 65, 416, 320
-0.978504, 97, 273, 224, 400
-0.978607, 65, 241, 128, 304
-0.978626, 353, 137, 384, 200
-0.978665, 197, 177, 228, 304
-0.978789, 57, 345, 120, 408
-0.978814, 385, 89, 448, 152
-0.978822, 305, 193, 368, 320
-0.978951, 165, 233, 196, 296
-0.978999, 185, 401, 248, 464
-0.979019, 169, 105, 232, 168
-0.979099, 105, 113, 168, 176
-0.979145, 73, 1, 136, 488
-0.979181, 145, 161, 176, 224
-0.979203, 97, 1, 160, 488
-0.979221, 225, 33, 288, 288
-0.979283, 201, 33, 264, 288
-0.979294, 177, 249, 304, 312
-0.979309, 157, 129, 188, 192
-0.979392, 177, 161, 208, 224
-0.97941, 217, 217, 280, 280
-0.979447, 185, 225, 216, 288
-0.979509, 321, 129, 352, 256
-0.979581, 129, 1, 192, 256
-0.979618, 333, 113, 364, 240
-0.979659, 209, 209, 240, 272
-0.979741, 433, 17, 496, 144
-0.979792, 81, 97, 112, 224
-0.979809, 33, 369, 96, 432
-0.979857, 145, 217, 272, 280
-0.979949, 393, 369, 456, 432
-0.980047, 113, 153, 144, 216
-0.98007, 433, 393, 496, 456
-0.98008, 369, 49, 432, 176
-0.980148, 157, 177, 188, 240
-0.980167, 65, 129, 96, 256
-0.9802, 377, 97, 408, 160
-0.980272, 249, 121, 312, 184
-0.980292, 1, 393, 64, 456
-0.980319, 153, 177, 184, 304
-0.980406, 377, 209, 440, 336
-0.980469, 185, 209, 216, 336
-0.980474, 145, 65, 208, 192
-0.980489, 145, 209, 208, 272
-0.980547, 337, 161, 368, 224
-0.980585, 17, 153, 144, 216
-0.980654, 137, 185, 168, 248
-0.980749, 65, 225, 128, 480
-0.980767, 17, 257, 80, 320
-0.980851, 153, 1, 216, 256
-0.980868, 297, 145, 328, 208
-0.980889, 105, 1, 168, 256
-0.98096, 321, 353, 448, 480
-0.980985, 33, 321, 160, 384
-0.980997, 153, 273, 216, 336
-0.981021, 273, 177, 336, 240
-0.981103, 177, 121, 304, 184
-0.981138, 209, 417, 272, 480
-0.981139, 401, 65, 464, 192
-0.981216, 189, 249, 220, 312
-0.981284, 1, 97, 64, 352
-0.981346, 177, 1, 240, 488
-0.981466, 169, 161, 200, 288
-0.981483, 273, 177, 304, 240
-0.981488, 89, 233, 152, 296
-0.981488, 137, 417, 200, 480
-0.981602, 57, 161, 88, 224
-0.981685, 209, 385, 272, 448
-0.981735, 109, 121, 140, 184
-0.981755, 105, 241, 168, 368
-0.981825, 169, 353, 232, 480
-0.981828, 1, 345, 128, 408
-0.981837, 73, 425, 136, 488
-0.981926, 153, 1, 216, 488
-0.981936, 257, 121, 384, 184
-0.98194, 273, 273, 336, 336
-0.981973, 17, 177, 80, 240
-0.981981, 213, 97, 244, 224
-0.981998, 89, 313, 152, 376
-0.982011, 241, 417, 272, 480
-0.982014, 321, 353, 384, 480
-0.982032, 257, 353, 384, 480
-0.982051, 49, 241, 176, 304
-0.982066, 129, 249, 192, 312
-0.982119, 305, 273, 368, 336
-0.982152, 49, 425, 176, 488
-0.982317, 345, 49, 408, 176
-0.982359, 129, 377, 192, 440
-0.982368, 313, 153, 344, 216
-0.98237, 125, 209, 156, 272
-0.982397, 305, 137, 432, 200
-0.98252, 9, 137, 40, 200
-0.982548, 209, 305, 336, 432
-0.982554, 173, 209, 204, 336
-0.982619, 173, 209, 204, 272
-0.982641, 261, 97, 292, 224
-0.982644, 233, 249, 296, 312
-0.982651, 297, 185, 360, 248
-0.982718, 69, 209, 100, 272
-0.98279, 249, 273, 312, 336
-0.982822, 209, 201, 336, 264
-0.982828, 221, 201, 252, 264
-0.982836, 353, 281, 416, 344
-0.982846, 121, 1, 184, 488
-0.982852, 161, 425, 288, 488
-0.982879, 329, 209, 392, 336
-0.982881, 177, 1, 240, 256
-0.982885, 113, 209, 144, 336
-0.982898, 5, 273, 36, 400
-0.98291, 9, 225, 72, 480
-0.982922, 81, 1, 144, 256
-0.982926, 49, 345, 176, 408
-0.982932, 249, 137, 280, 200
-0.982996, 101, 161, 132, 288
-0.983073, 369, 225, 496, 352
-0.983122, 245, 97, 276, 224
-0.983127, 257, 417, 320, 480
-0.983152, 105, 65, 136, 192
-0.983241, 325, 177, 356, 240
-0.983301, 369, 257, 432, 384
-0.983315, 261, 193, 292, 320
-0.983438, 353, 105, 480, 168
-0.983442, 1, 177, 128, 240
-0.983446, 25, 33, 88, 288
-0.983528, 433, 337, 496, 400
-0.983584, 41, 337, 72, 400
-0.983595, 365, 129, 396, 256
-0.983619, 121, 177, 152, 240
-0.983628, 377, 337, 440, 464
-0.983665, 61, 321, 92, 448
-0.983715, 217, 1, 280, 488
-0.983788, 33, 209, 96, 272
-0.98381, 241, 353, 304, 480
-0.983853, 305, 177, 432, 240
-0.983864, 253, 417, 284, 480
-0.983957, 201, 113, 264, 176
-0.983957, 17, 377, 144, 440
-0.983969, 197, 209, 228, 272
-0.98399, 121, 161, 152, 288
-0.984026, 49, 1, 112, 488
-0.984048, 89, 225, 152, 480
-0.984055, 1, 105, 128, 168
-0.984071, 65, 105, 192, 168
-0.984113, 1, 225, 64, 352
-0.984134, 201, 241, 232, 304
-0.984149, 49, 321, 80, 448
-0.984156, 309, 129, 340, 192
-0.98417, 129, 249, 256, 312
-0.984202, 57, 265, 120, 328
-0.984305, 401, 345, 464, 408
-0.984332, 1, 321, 32, 448
-0.984364, 49, 273, 80, 400
-0.984396, 49, 297, 112, 360
-0.984448, 369, 377, 496, 440
-0.984468, 257, 257, 320, 384
-0.984509, 53, 177, 84, 304
-0.984594, 177, 225, 240, 480
-0.984599, 185, 193, 216, 256
-0.984631, 137, 81, 168, 208
-0.984699, 257, 201, 288, 264
-0.984711, 21, 113, 52, 240
-0.984751, 257, 193, 384, 256
-0.984812, 81, 337, 144, 400
-0.984828, 93, 153, 124, 216
-0.984923, 25, 417, 88, 480
-0.984962, 37, 241, 68, 368
-0.984966, 101, 209, 132, 336
-0.984986, 1, 249, 128, 312
-0.985061, 189, 169, 220, 232
-0.985099, 61, 257, 92, 384
-0.985161, 273, 193, 304, 320
-0.98517, 365, 129, 396, 192
-0.985247, 361, 145, 424, 272
-0.985261, 145, 225, 176, 288
-0.98537, 241, 265, 368, 328
-0.985417, 201, 257, 264, 384
-0.985464, 289, 1, 352, 256
-0.985522, 1, 289, 128, 352
-0.985527, 61, 137, 92, 200
-0.985538, 281, 337, 344, 464
-0.985541, 209, 241, 272, 304
-0.985601, 389, 105, 420, 168
-0.985668, 369, 257, 432, 320
-0.985682, 1, 401, 128, 464
-0.985721, 53, 217, 84, 280
-0.985808, 197, 81, 228, 208
-0.985832, 85, 225, 116, 352
-0.985852, 5, 289, 36, 352
-0.985879, 161, 273, 288, 400
-0.985894, 81, 401, 208, 464
-0.985934, 225, 97, 256, 224
-0.985937, 321, 1, 384, 256
-0.985967, 1, 217, 128, 280
-0.986001, 161, 225, 192, 352
-0.986093, 341, 105, 372, 168
-0.986161, 273, 1, 336, 488
-0.986169, 161, 401, 224, 464
-0.986202, 281, 97, 312, 224
-0.986265, 249, 225, 312, 288
-0.986274, 149, 81, 180, 208
-0.986313, 313, 257, 376, 384
-0.986336, 117, 65, 148, 192
-0.986376, 97, 361, 160, 424
-0.986417, 13, 321, 44, 448
-0.986526, 33, 137, 288, 200
-0.986552, 221, 193, 252, 320
-0.986574, 377, 65, 440, 320
-0.986618, 61, 321, 92, 384
-0.986625, 177, 65, 208, 192
-0.98663, 29, 305, 60, 368
-0.986657, 233, 225, 296, 480
-0.986669, 81, 97, 144, 160
-0.986763, 81, 241, 112, 304
-0.986815, 57, 377, 120, 440
-0.986864, 93, 65, 124, 192
-0.986914, 81, 265, 208, 328
-0.986968, 353, 81, 480, 144
-0.987018, 241, 1, 304, 488
-0.987022, 349, 161, 380, 224
-0.987069, 321, 81, 352, 208
-0.987076, 345, 337, 408, 464
-0.987084, 41, 313, 72, 376
-0.987186, 305, 281, 432, 344
-0.987204, 185, 425, 248, 488
-0.987206, 37, 337, 68, 464
-0.987209, 433, 361, 464, 424
-0.987281, 229, 177, 260, 240
-0.987296, 265, 121, 296, 184
-0.987311, 25, 1, 88, 488
-0.98734, 189, 113, 220, 176
-0.987357, 21, 129, 52, 192
-0.987395, 245, 209, 276, 272
-0.987408, 265, 249, 328, 312
-0.987436, 353, 153, 416, 216
-0.987439, 73, 225, 104, 352
-0.987458, 353, 209, 416, 336
-0.987504, 169, 185, 200, 248
-0.987519, 233, 393, 296, 456
-0.987527, 101, 257, 132, 384
-0.987529, 369, 129, 432, 192
-0.98753, 61, 185, 92, 248
-0.987582, 89, 177, 120, 304
-0.987638, 33, 169, 288, 232
-0.98765, 1, 1, 64, 488
-0.987668, 129, 153, 384, 216
-0.987706, 393, 289, 456, 416
-0.987749, 93, 177, 124, 240
-0.987791, 17, 273, 48, 336
-0.987797, 49, 185, 80, 248
-0.987801, 117, 337, 148, 464
-0.987809, 129, 209, 160, 336
-0.98787, 289, 89, 416, 152
-0.987908, 225, 417, 352, 480
-0.987959, 25, 321, 56, 448
-0.987999, 245, 353, 276, 480
-0.98802, 149, 201, 180, 264
-0.988023, 361, 81, 424, 144
-0.988074, 197, 225, 228, 352
-0.988141, 377, 121, 408, 184
-0.988183, 313, 89, 376, 152
-0.98819, 1, 361, 64, 424
-0.988211, 85, 209, 116, 272
-0.988225, 161, 129, 224, 160
-0.988255, 369, 177, 496, 304
-0.988274, 257, 153, 320, 184
-0.988285, 129, 385, 256, 448
-0.988293, 265, 393, 328, 456
-0.98837, 177, 273, 240, 336
-0.988375, 57, 33, 120, 288
-0.988393, 33, 193, 288, 256
-0.988414, 193, 225, 320, 288
-0.988429, 289, 257, 352, 384
-0.988448, 249, 209, 280, 336
-0.988481, 329, 193, 392, 256
-0.988493, 369, 265, 400, 328
-0.988495, 17, 297, 48, 360
-0.988519, 321, 1, 384, 488
-0.988569, 225, 393, 352, 456
-0.988579, 337, 1, 464, 128
-0.988586, 101, 321, 132, 448
-0.988595, 81, 125, 144, 156
-0.988597, 53, 345, 84, 408
-0.988619, 149, 225, 180, 352
-0.988652, 369, 265, 496, 328
-0.988676, 209, 305, 272, 432
-0.9887, 25, 393, 88, 456
-0.988705, 49, 225, 80, 352
-0.988746, 285, 121, 316, 184
-0.988804, 97, 161, 160, 192
-0.988823, 281, 105, 344, 168
-0.988824, 373, 257, 404, 384
-0.988828, 225, 337, 256, 464
-0.988862, 69, 233, 100, 296
-0.988869, 129, 89, 192, 152
-0.988935, 97, 33, 224, 160
-0.988951, 129, 273, 256, 336
-0.988986, 73, 161, 136, 192
-0.989006, 297, 1, 360, 488
-0.989074, 145, 113, 176, 176
-0.989093, 17, 233, 80, 296
-0.989153, 261, 241, 292, 368
-0.989217, 313, 385, 376, 448
-0.98922, 121, 141, 184, 172
-0.98923, 385, 97, 416, 224
-0.989254, 337, 249, 400, 312
-0.989256, 1, 33, 256, 160
-0.989265, 309, 81, 340, 208
-0.989266, 53, 369, 84, 432
-0.989296, 121, 161, 184, 192
-0.989303, 217, 353, 280, 416
-0.989319, 25, 225, 56, 352
-0.989328, 105, 337, 168, 400
-0.989341, 345, 109, 408, 140
-0.989359, 129, 289, 192, 416
-0.98936, 417, 57, 480, 120
-0.989374, 233, 153, 296, 184
-0.989376, 345, 273, 376, 336
-0.989416, 237, 129, 268, 192
-0.989434, 113, 209, 144, 272
-0.989467, 133, 353, 164, 480
-0.989469, 337, 81, 400, 144
-0.989501, 193, 145, 256, 176
-0.989525, 345, 161, 376, 288
-0.98954, 161, 141, 224, 172
-0.989575, 73, 289, 136, 352
-0.98958, 225, 177, 288, 208
-0.989606, 377, 345, 440, 408
-0.989614, 261, 225, 292, 288
-0.989616, 161, 81, 192, 208
-0.989693, 21, 345, 52, 408
-0.989729, 293, 81, 324, 208
-0.989734, 9, 65, 40, 192
-0.989753, 145, 353, 272, 416
-0.989787, 201, 165, 264, 196
-0.989894, 297, 153, 360, 184
-0.989898, 193, 97, 320, 160
-0.989914, 105, 173, 168, 204
-0.989929, 129, 177, 384, 240
-0.989953, 177, 169, 240, 200
-0.989954, 353, 49, 384, 176
-0.989956, 97, 209, 128, 272
-0.990003, 177, 393, 304, 456
-0.990014, 1, 125, 64, 156
-0.990031, 201, 225, 264, 480
-0.990044, 169, 205, 232, 236
-0.990063, 153, 169, 216, 200
-0.990066, 73, 329, 104, 392
-0.990072, 281, 273, 312, 336
-0.990081, 97, 425, 224, 488
-0.990083, 161, 209, 192, 272
-0.990087, 153, 153, 216, 184
-0.990116, 337, 121, 400, 152
-0.990145, 161, 237, 224, 268
-0.990151, 17, 349, 80, 380
-0.990168, 33, 105, 96, 168
-0.99017, 425, 1, 488, 488
-0.990175, 49, 409, 112, 472
-0.99019, 101, 313, 132, 376
-0.990205, 337, 353, 464, 416
-0.990208, 73, 173, 136, 204
-0.990223, 201, 113, 232, 176
-0.990236, 65, 149, 128, 180
-0.99024, 97, 33, 352, 160
-0.99024, 445, 369, 476, 432
-0.990246, 289, 257, 416, 320
-0.990253, 185, 193, 248, 224
-0.990271, 21, 393, 52, 456
-0.990278, 209, 201, 272, 232
-0.990288, 137, 121, 200, 152
-0.990309, 209, 213, 272, 244
-0.990315, 193, 273, 320, 336
-0.990319, 261, 273, 292, 336
-0.990322, 153, 181, 216, 212
-0.990325, 129, 173, 192, 204
-0.990391, 81, 289, 208, 352
-0.990399, 89, 137, 152, 168
-0.990419, 57, 213, 120, 244
-0.990421, 257, 169, 320, 200
-0.990441, 337, 133, 400, 164
-0.990451, 313, 177, 344, 240
-0.990459, 85, 273, 116, 400
-0.990494, 329, 177, 392, 208
-0.990512, 1, 145, 500, 208
-0.990517, 177, 157, 240, 188
-0.990533, 321, 129, 352, 192
-0.990534, 209, 369, 336, 432
-0.990549, 401, 1, 464, 488
-0.990559, 269, 201, 300, 264
-0.990559, 5, 353, 36, 416
-0.990598, 57, 333, 120, 364
-0.990623, 369, 33, 400, 160
-0.990683, 265, 417, 296, 480
-0.990687, 185, 133, 248, 164
-0.990688, 33, 173, 96, 204
-0.990688, 9, 401, 40, 464
-0.990694, 249, 141, 312, 172
-0.990702, 217, 401, 248, 464
-0.990712, 129, 129, 384, 192
-0.990748, 225, 165, 288, 196
-0.990763, 161, 249, 224, 280
-0.990771, 17, 309, 80, 340
-0.990788, 273, 141, 336, 172
-0.990789, 297, 121, 328, 184
-0.990795, 297, 141, 360, 172
-0.99081, 289, 281, 352, 312
-0.990834, 433, 33, 496, 96
-0.99085, 321, 165, 384, 196
-0.990855, 469, 1, 500, 128
-0.990862, 225, 429, 288, 460
-0.990864, 361, 121, 424, 152
-0.990868, 45, 281, 76, 344
-0.990872, 249, 189, 312, 220
-0.99088, 329, 337, 360, 464
-0.990882, 217, 189, 280, 220
-0.990908, 89, 313, 120, 376
-0.990932, 65, 197, 128, 228
-0.990938, 41, 161, 104, 192
-0.99097, 281, 165, 344, 196
-0.990986, 129, 209, 192, 240
-0.990994, 313, 281, 376, 312
-0.991001, 465, 377, 496, 440
-0.991004, 29, 265, 60, 328
-0.991061, 9, 281, 72, 312
-0.991087, 105, 209, 168, 240
-0.991119, 177, 257, 208, 320
-0.991137, 49, 321, 112, 352
-0.991173, 17, 337, 80, 368
-0.991179, 241, 185, 272, 248
-0.991186, 433, 1, 496, 256
-0.991197, 73, 317, 136, 348
-0.991213, 321, 49, 448, 176
-0.991215, 137, 221, 200, 252
-0.991221, 89, 337, 120, 464
-0.991228, 65, 185, 128, 216
-0.991252, 129, 185, 192, 216
-0.991254, 417, 369, 480, 400
-0.991255, 261, 249, 292, 312
-0.991282, 137, 241, 200, 272
-0.991316, 337, 277, 400, 308
-0.991321, 233, 201, 296, 232
-0.991326, 145, 197, 208, 228
-0.991339, 49, 237, 112, 268
-0.991356, 377, 233, 440, 296
-0.991359, 57, 241, 88, 304
-0.991364, 257, 277, 320, 308
-0.99138, 185, 217, 248, 248
-0.99139, 289, 193, 352, 224
-0.991397, 73, 321, 104, 448
-0.991404, 161, 117, 224, 148
-0.991404, 369, 1, 432, 488
-0.991413, 357, 281, 388, 344
-0.991426, 345, 161, 408, 192
-0.991432, 225, 425, 256, 488
-0.991442, 133, 385, 164, 448
-0.991453, 429, 337, 460, 464
-0.991475, 81, 321, 208, 384
-0.991476, 37, 161, 68, 288
-0.991481, 185, 181, 248, 212
-0.99151, 25, 361, 88, 392
-0.991549, 49, 137, 112, 168
-0.991556, 321, 153, 384, 184
-0.991562, 257, 201, 320, 232
-0.991588, 89, 149, 152, 180
-0.991594, 217, 141, 280, 172
-0.991595, 93, 233, 124, 296
-0.991599, 89, 229, 152, 260
-0.991599, 37, 385, 68, 448
-0.991611, 25, 125, 88, 156
-0.991613, 385, 225, 416, 352
-0.991614, 1, 293, 64, 324
-0.991622, 105, 185, 168, 216
-0.991625, 1, 225, 32, 352
-0.991656, 49, 369, 112, 400
-0.991664, 9, 113, 72, 144
-0.991673, 33, 217, 288, 280
-0.991682, 257, 305, 384, 432
-0.991693, 313, 121, 376, 152
-0.991708, 113, 229, 176, 260
-0.991724, 193, 413, 256, 444
-0.991737, 161, 261, 224, 292
-0.991742, 73, 401, 136, 464
-0.991743, 81, 213, 144, 244
-0.991749, 281, 177, 344, 208
-0.991758, 97, 333, 160, 364
-0.991793, 233, 417, 296, 448
-0.991801, 413, 337, 444, 464
-0.991808, 161, 221, 224, 252
-0.99182, 49, 225, 112, 256
-0.991822, 433, 397, 496, 428
-0.991864, 113, 433, 176, 464
-0.991875, 65, 157, 192, 188
-0.991881, 345, 1, 408, 488
-0.991882, 25, 385, 88, 416
-0.991884, 201, 393, 264, 424
-0.99189, 113, 241, 176, 272
-0.991893, 153, 273, 216, 304
-0.991918, 33, 253, 96, 284
-0.991919, 1, 405, 64, 436
-0.991939, 121, 197, 184, 228
-0.991943, 257, 217, 320, 248
-0.991957, 265, 153, 296, 184
-0.991966, 305, 201, 432, 264
-0.991976, 397, 81, 428, 208
-0.991983, 129, 209, 384, 272
-0.991988, 9, 117, 40, 148
-0.99199, 409, 381, 472, 412
-0.991999, 305, 269, 368, 300
-0.992, 169, 413, 232, 444
-0.992001, 57, 349, 120, 380
-0.992001, 113, 273, 144, 400
-0.992003, 369, 105, 432, 136
-0.992004, 393, 365, 456, 396
-0.992005, 49, 121, 112, 152
-0.992006, 249, 257, 280, 384
-0.992007, 361, 133, 424, 164
-0.992009, 53, 129, 84, 256
-0.99201, 301, 209, 332, 336
-0.992029, 329, 201, 392, 232
-0.992074, 345, 145, 408, 176
-0.992087, 121, 33, 184, 160
-0.992088, 145, 425, 208, 456
-0.99209, 233, 213, 296, 244
-0.992095, 89, 425, 152, 456
-0.992109, 201, 249, 264, 280
-0.992114, 65, 133, 192, 164
-0.99213, 225, 441, 288, 472
-0.992133, 225, 153, 480, 216
-0.992136, 233, 233, 296, 264
-0.99214, 105, 413, 168, 444
-0.992141, 321, 109, 384, 140
-0.992145, 73, 133, 104, 164
-0.992146, 49, 381, 112, 412
-0.992148, 33, 205, 96, 236
-0.992148, 257, 421, 320, 452
-0.992162, 257, 217, 384, 280
-0.992169, 1, 177, 500, 240
-0.992194, 317, 177, 348, 304
-0.992222, 369, 105, 400, 136
-0.99224, 137, 165, 168, 196
-0.992245, 141, 141, 172, 172
-0.992254, 77, 153, 108, 184
-0.992263, 173, 121, 204, 152
-0.992289, 245, 157, 276, 188
-0.992294, 213, 141, 244, 172
-0.992311, 89, 125, 120, 156
-0.992322, 233, 153, 264, 184
-0.992391, 213, 165, 244, 196
-0.992439, 153, 141, 184, 172
-0.992453, 153, 153, 184, 184
-0.992485, 77, 121, 108, 152
-0.992489, 289, 153, 320, 184
-0.992493, 289, 385, 416, 448
-0.992499, 337, 169, 368, 200
-0.9925, 117, 161, 148, 192
-0.992507, 9, 129, 40, 160
-0.992508, 265, 169, 296, 200
-0.99251, 253, 169, 284, 200
-0.992514, 201, 137, 232, 168
-0.99252, 201, 153, 232, 184
-0.992521, 469, 337, 500, 464
-0.992527, 365, 177, 396, 304
-0.992547, 65, 145, 192, 176
-0.99256, 133, 205, 164, 236
-0.992589, 213, 201, 244, 232
-0.992594, 93, 161, 124, 192
-0.992599, 353, 125, 384, 156
-0.992604, 201, 185, 232, 216
-0.992607, 277, 153, 308, 184
-0.992619, 105, 161, 136, 192
-0.992626, 153, 177, 184, 208
-0.992627, 61, 173, 92, 204
-0.992634, 365, 117, 396, 148
-0.99264, 237, 193, 268, 320
-0.992649, 353, 137, 480, 200
-0.992654, 61, 217, 92, 248
-0.992656, 141, 185, 172, 216
-0.992661, 349, 161, 380, 192
-0.992661, 185, 129, 216, 160
-0.992663, 169, 157, 200, 188
-0.992666, 213, 153, 244, 184
-0.99268, 129, 153, 160, 184
-0.992682, 197, 169, 228, 200
-0.992698, 189, 149, 220, 180
-0.992705, 13, 281, 44, 312
-0.992712, 149, 165, 180, 196
-0.992719, 141, 153, 172, 184
-0.992721, 73, 181, 104, 212
-0.99273, 165, 145, 196, 176
-0.992733, 201, 209, 232, 240
-0.992748, 189, 229, 220, 260
-0.99275, 269, 185, 300, 216
-0.992755, 345, 113, 376, 144
-0.992759, 241, 289, 368, 352
-0.992764, 129, 137, 160, 168
-0.992772, 365, 137, 396, 168
-0.992781, 1, 241, 256, 304
-0.992793, 381, 105, 412, 136
-0.992799, 145, 201, 176, 232
-0.992804, 281, 169, 312, 200
-0.992812, 337, 157, 368, 188
-0.992815, 237, 429, 268, 460
-0.992816, 429, 365, 460, 396
-0.992817, 321, 305, 384, 432
-0.992817, 101, 333, 132, 364
-0.99282, 177, 233, 208, 264
-0.992827, 197, 249, 228, 280
-0.992831, 81, 377, 208, 440
-0.992836, 189, 261, 220, 292
-0.992838, 301, 149, 332, 180
-0.992838, 325, 177, 356, 208
-0.992841, 361, 193, 424, 448
-0.992845, 85, 173, 116, 204
-0.992861, 125, 173, 156, 204
-0.992862, 145, 145, 272, 176
-0.992867, 297, 281, 328, 312
-0.992876, 117, 133, 148, 164
-0.992878, 147, 145, 162, 208
-0.992885, 137, 129, 152, 192
-0.992896, 185, 169, 216, 200
-0.9929, 213, 181, 244, 212
-0.992902, 313, 277, 344, 308
-0.992904, 285, 141, 316, 172
-0.992905, 257, 185, 288, 216
-0.99291, 345, 141, 376, 172
-0.992918, 257, 441, 288, 472
-0.992922, 169, 209, 200, 240
-0.992934, 377, 125, 408, 156
-0.992937, 217, 213, 248, 244
-0.992937, 9, 145, 40, 176
-0.992942, 73, 217, 104, 248
-0.992944, 41, 337, 72, 368
-0.992961, 57, 325, 88, 356
-0.992962, 325, 277, 356, 308
-0.992981, 173, 133, 204, 164
-0.992983, 185, 249, 216, 280
-0.992984, 397, 105, 428, 136
-0.992985, 13, 269, 44, 300
-0.992993, 225, 169, 256, 200
-0.992994, 149, 213, 180, 244
-0.993007, 25, 281, 56, 312
-0.99301, 333, 161, 364, 288
-0.993013, 225, 177, 480, 240
-0.993013, 153, 229, 184, 260
-0.993013, 257, 153, 384, 184
-0.993017, 101, 125, 132, 156
-0.993019, 223, 137, 238, 200
-0.993022, 341, 181, 372, 212
-0.993025, 185, 201, 216, 232
-0.993032, 245, 181, 276, 212
-0.993033, 337, 277, 368, 308
-0.993036, 325, 153, 356, 184
-0.993038, 225, 141, 256, 172
-0.993039, 357, 105, 388, 136
-0.993047, 129, 185, 160, 216
-0.993049, 1, 425, 128, 488
-0.993049, 253, 145, 284, 176
-0.993059, 157, 129, 188, 160
-0.993063, 165, 233, 196, 264
-0.993064, 425, 273, 488, 400
-0.993064, 17, 297, 48, 328
-0.993065, 65, 181, 192, 212
-0.993072, 157, 193, 188, 224
-0.99308, 229, 201, 260, 232
-0.99308, 165, 169, 196, 200
-0.993081, 269, 213, 300, 244
-0.993087, 249, 201, 280, 232
-0.993088, 121, 205, 152, 236
-0.99309, 249, 425, 280, 456
-0.993093, 61, 161, 92, 192
-0.993096, 341, 353, 372, 480
-0.993097, 229, 189, 260, 220
-0.9931, 73, 197, 104, 228
-0.993104, 5, 293, 36, 324
-0.993106, 89, 145, 120, 176
-0.993106, 21, 309, 52, 340
-0.993108, 69, 229, 100, 260
-0.99311, 65, 145, 96, 176
-0.993112, 269, 421, 300, 452
-0.993117, 1, 409, 32, 440
-0.993118, 17, 349, 48, 380
-0.993121, 61, 365, 92, 396
-0.993122, 277, 201, 308, 232
-0.993122, 5, 357, 36, 388
-0.993123, 1, 277, 32, 308
-0.993123, 273, 145, 288, 208
-0.993124, 41, 305, 72, 336
-0.993124, 265, 141, 296, 172
-0.993125, 57, 81, 88, 208
-0.993146, 385, 161, 448, 416
-0.993155, 225, 49, 352, 176
-0.993158, 17, 105, 32, 168
-0.99319, 285, 209, 316, 336
-0.993217, 153, 137, 168, 200
-0.993248, 113, 133, 240, 164
-0.993261, 129, 165, 256, 196
-0.993269, 77, 129, 92, 192
-0.993277, 49, 169, 176, 200
-0.993291, 369, 105, 384, 168
-0.993291, 225, 129, 480, 192
-0.993292, 145, 353, 176, 480
-0.993337, 265, 49, 328, 176
-0.993355, 401, 241, 464, 368
-0.993379, 33, 113, 288, 176
-0.99338, 177, 169, 304, 200
-0.993387, 209, 345, 336, 408
-0.993395, 267, 145, 282, 208
-0.993398, 97, 257, 352, 320
-0.993404, 167, 137, 182, 200
-0.993447, 177, 113, 192, 176
-0.993451, 17, 125, 144, 156
-0.993469, 95, 121, 110, 184
-0.993474, 273, 241, 304, 368
-0.993482, 139, 161, 154, 224
-0.993532, 193, 157, 320, 188
-0.993558, 1, 201, 500, 264
-0.993567, 241, 165, 368, 196
-0.993593, 21, 65, 52, 192
-0.993594, 131, 129, 146, 192
-0.993623, 69, 81, 100, 208
-0.993651, 375, 105, 390, 168
-0.993662, 261, 145, 276, 208
-0.993702, 209, 129, 224, 192
-0.993717, 1, 121, 500, 184
-0.99374, 215, 153, 230, 216
-0.993752, 281, 145, 296, 208
-0.993764, 341, 65, 372, 192
-0.993778, 123, 129, 138, 192
-0.993796, 13, 225, 44, 352
-0.993817, 241, 241, 368, 304
-0.99382, 219, 177, 234, 240
-0.993869, 73, 273, 104, 400
-0.993885, 65, 425, 320, 488
-0.993921, 353, 193, 480, 256
-0.993931, 159, 153, 174, 216
-0.993986, 239, 145, 254, 208
-0.99401, 81, 121, 208, 152
-0.994026, 1, 329, 256, 392
-0.99405, 417, 225, 480, 480
-0.994051, 193, 105, 448, 168
-0.994088, 185, 257, 216, 384
-0.994152, 129, 329, 256, 392
-0.994165, 381, 97, 396, 160
-0.994168, 273, 409, 400, 472
-0.994193, 247, 153, 262, 216
-0.994203, 1, 1, 64, 256
-0.994252, 361, 257, 392, 384
-0.994253, 49, 217, 176, 248
-0.994254, 73, 193, 88, 256
-0.994356, 1, 369, 256, 432
-0.994408, 203, 129, 218, 192
-0.994411, 109, 121, 124, 184
-0.99442, 65, 201, 192, 232
-0.994443, 409, 33, 472, 288
-0.994466, 445, 337, 476, 464
-0.994484, 321, 233, 448, 296
-0.994493, 129, 181, 256, 212
-0.994539, 369, 1, 496, 64
-0.994548, 23, 113, 38, 176
-0.99456, 317, 337, 348, 464
-0.994575, 401, 337, 432, 464
-0.994579, 155, 177, 170, 240
-0.994602, 261, 177, 276, 240
-0.994604, 257, 353, 384, 416
-0.994609, 101, 121, 116, 184
-0.994616, 209, 313, 336, 376
-0.994641, 191, 225, 206, 288
-0.994657, 129, 297, 256, 360
-0.994718, 363, 105, 378, 168
-0.994721, 255, 153, 270, 216
-0.994733, 191, 121, 206, 184
-0.994738, 93, 153, 108, 216
-0.994752, 165, 161, 180, 224
-0.994773, 289, 145, 304, 208
-0.994786, 89, 121, 104, 184
-0.994806, 289, 109, 416, 140
-0.994849, 233, 145, 248, 208
-0.994881, 341, 137, 356, 200
-0.994885, 295, 145, 310, 208
-0.994917, 161, 129, 176, 192
-0.994933, 65, 401, 320, 464
-0.994949, 349, 137, 364, 200
-0.994958, 171, 161, 186, 224
-0.994967, 79, 177, 94, 240
-0.99497, 369, 241, 496, 304
-0.994975, 65, 237, 192, 268
-0.994991, 201, 241, 216, 304
-0.995008, 83, 129, 98, 192
-0.995062, 81, 81, 208, 144
-0.995066, 177, 181, 304, 212
-0.995076, 129, 205, 256, 236
-0.995095, 257, 177, 384, 208
-0.995101, 11, 121, 26, 184
-0.995101, 225, 217, 480, 280
-0.995105, 129, 233, 384, 296
-0.995107, 353, 169, 480, 232
-0.995112, 305, 65, 432, 128
-0.995131, 185, 121, 200, 184
-0.995133, 225, 249, 480, 312
-0.995134, 353, 289, 480, 352
-0.995143, 115, 121, 130, 184
-0.995153, 113, 97, 144, 352
-0.995156, 369, 321, 496, 384
-0.995166, 273, 17, 400, 144
-0.995167, 173, 137, 188, 200
-0.995204, 223, 201, 238, 264
-0.995225, 227, 169, 242, 232
-0.995229, 213, 185, 228, 248
-0.995259, 267, 185, 282, 248
-0.995268, 387, 97, 402, 160
-0.99527, 129, 193, 256, 224
-0.995292, 185, 97, 216, 352
-0.995299, 337, 193, 400, 448
-0.995318, 357, 113, 372, 176
-0.995329, 143, 121, 158, 184
-0.99534, 145, 177, 160, 240
-0.995362, 133, 153, 148, 216
-0.995385, 217, 129, 232, 192
-0.995398, 275, 177, 290, 240
-0.995404, 197, 209, 212, 272
-0.995416, 209, 1, 336, 128
-0.995438, 193, 145, 320, 176
-0.995449, 23, 137, 38, 200
-0.995453, 49, 49, 112, 176
-0.995479, 337, 109, 464, 140
-0.995494, 311, 129, 326, 192
-0.995534, 17, 137, 32, 200
-0.995541, 173, 97, 204, 352
-0.995545, 335, 145, 350, 208
-0.995553, 289, 133, 416, 164
-0.99556, 209, 153, 224, 216
-0.995566, 197, 129, 212, 192
-0.995614, 241, 141, 368, 172
-0.995619, 205, 97, 236, 352
-0.995624, 133, 65, 164, 320
-0.995632, 71, 153, 86, 216
-0.995658, 207, 225, 222, 288
-0.995664, 17, 81, 144, 144
-0.995707, 255, 177, 270, 240
-0.995712, 209, 205, 336, 236
-0.995722, 135, 209, 150, 272
-0.995739, 283, 169, 298, 232
-0.995757, 1, 281, 256, 344
-0.995772, 327, 145, 342, 208
-0.995776, 63, 217, 78, 280
-0.9958, 257, 281, 384, 312
-0.995812, 289, 121, 416, 152
-0.995829, 183, 201, 198, 264
-0.995829, 97, 353, 224, 416
-0.995837, 393, 97, 408, 160
-0.995851, 129, 229, 256, 260
-0.995878, 305, 153, 320, 216
-0.995919, 1, 137, 128, 168
-0.995923, 1, 249, 500, 312
-0.995923, 321, 329, 448, 392
-0.995927, 359, 137, 374, 200
-0.995933, 1, 349, 128, 380
-0.995938, 217, 209, 232, 272
-0.995948, 101, 97, 132, 352
-0.995949, 157, 97, 188, 352
-0.995949, 261, 129, 292, 384
-0.995952, 169, 33, 232, 160
-0.995962, 85, 153, 100, 216
-0.995964, 65, 437, 192, 468
-0.995975, 1, 369, 500, 432
-0.995978, 89, 97, 120, 352
-0.99599, 351, 161, 366, 224
-0.996001, 367, 137, 382, 200
-0.996025, 145, 97, 176, 352
-0.996028, 33, 457, 160, 488
-0.996029, 205, 185, 220, 248
-0.996043, 1, 149, 128, 180
-0.996052, 177, 169, 192, 232
-0.996058, 65, 129, 96, 384
-0.99606, 225, 289, 480, 352
-0.99607, 49, 369, 176, 400
-0.99608, 145, 253, 272, 284
-0.996083, 333, 177, 348, 240
-0.996086, 1, 173, 128, 204
-0.996092, 233, 129, 264, 384
-0.996094, 1, 97, 500, 160
-0.996098, 63, 185, 78, 248
-0.996099, 81, 425, 208, 456
-0.996107, 261, 201, 276, 264
-0.99612, 277, 129, 308, 384
-0.996124, 63, 353, 78, 416
-0.996157, 383, 265, 398, 328
-0.996162, 345, 161, 360, 224
-0.996167, 131, 177, 146, 240
-0.996168, 305, 129, 320, 192
-0.996179, 29, 121, 44, 184
-0.99618, 337, 121, 464, 152
-0.996186, 193, 193, 320, 224
-0.996198, 183, 161, 198, 224
-0.996202, 349, 113, 364, 176
-0.996204, 217, 97, 248, 352
-0.996236, 99, 153, 114, 216
-0.996238, 229, 201, 244, 264
-0.996246, 233, 169, 248, 232
-0.996258, 91, 209, 106, 272
-0.996264, 65, 249, 192, 280
-0.996266, 139, 185, 154, 248
-0.996277, 353, 57, 480, 120
-0.996282, 191, 169, 206, 232
-0.996295, 147, 201, 162, 264
-0.996302, 97, 217, 224, 248
-0.996308, 113, 153, 128, 216
-0.99632, 1, 161, 128, 192
-0.99633, 401, 129, 464, 256
-0.996333, 193, 249, 208, 312
-0.996336, 119, 153, 134, 216
-0.996337, 265, 425, 280, 488
-0.996344, 113, 241, 240, 272
-0.996349, 69, 217, 84, 280
-0.996356, 249, 129, 280, 384
-0.996356, 201, 153, 216, 216
-0.99636, 255, 417, 270, 480
-0.996387, 161, 133, 288, 164
-0.996389, 305, 181, 432, 212
-0.99639, 321, 153, 336, 216
-0.996397, 153, 305, 216, 432
-0.996405, 225, 49, 288, 176
-0.996423, 21, 281, 36, 344
-0.996427, 101, 177, 116, 240
-0.996441, 53, 337, 68, 400
-0.996442, 193, 393, 448, 456
-0.996451, 165, 225, 180, 288
-0.996457, 353, 25, 480, 88
-0.996458, 77, 97, 108, 352
-0.996463, 45, 313, 60, 376
-0.996467, 161, 425, 288, 456
-0.996495, 309, 97, 340, 352
-0.9965, 145, 413, 272, 444
-0.996503, 133, 161, 164, 416
-0.996508, 369, 401, 496, 464
-0.996525, 241, 193, 368, 224
-0.996536, 107, 153, 122, 216
-0.996547, 181, 233, 196, 296
-0.996559, 265, 225, 280, 288
-0.996572, 97, 369, 352, 432
-0.996574, 265, 113, 280, 176
-0.996579, 305, 277, 432, 308
-0.996595, 145, 217, 272, 248
-0.996598, 33, 381, 160, 412
-0.99661, 177, 209, 192, 272
-0.996611, 81, 217, 96, 280
-0.996624, 255, 201, 270, 264
-0.996633, 225, 421, 352, 452
-0.996638, 321, 113, 336, 176
-0.99664, 289, 193, 352, 448
-0.996649, 161, 437, 288, 468
-0.996655, 357, 65, 388, 320
-0.996662, 321, 161, 448, 192
-0.99668, 129, 201, 144, 264
-0.996693, 155, 201, 170, 264
-0.996698, 207, 249, 222, 312
-0.996702, 1, 401, 128, 432
-0.996704, 241, 97, 368, 160
-0.996799, 241, 269, 368, 300
-0.996834, 145, 165, 160, 196
-0.996853, 17, 237, 144, 268
-0.996858, 333, 97, 364, 352
-0.996859, 17, 333, 144, 364
-0.996876, 257, 225, 320, 480
-0.996897, 157, 141, 172, 172
-0.996917, 177, 121, 192, 152
-0.996952, 145, 265, 272, 296
-0.996953, 161, 1, 288, 128
-0.996964, 289, 129, 320, 384
-0.996965, 1, 309, 128, 340
-0.996965, 145, 121, 272, 152
-0.99697, 257, 369, 500, 432
-0.996986, 177, 237, 304, 268
-0.996986, 321, 409, 448, 472
-0.996986, 65, 305, 320, 368
-0.996991, 75, 141, 90, 172
-0.996996, 113, 401, 240, 432
-0.997008, 49, 357, 176, 388
-0.997016, 267, 169, 282, 200
-0.997024, 289, 197, 416, 228
-0.997031, 321, 97, 352, 352
-0.997032, 209, 161, 224, 192
-0.997051, 81, 137, 96, 168
-0.99706, 1, 253, 128, 284
-0.997061, 1, 113, 128, 144
-0.997064, 1, 225, 500, 288
-0.997073, 137, 161, 152, 192
-0.997074, 1, 189, 128, 220
-0.997085, 65, 265, 192, 296
-0.99709, 213, 137, 228, 168
-0.997102, 289, 153, 304, 184
-0.997109, 401, 177, 464, 304
-0.997109, 209, 217, 336, 248
-0.997125, 219, 161, 234, 192
-0.997136, 77, 125, 92, 156
-0.997138, 369, 65, 400, 320
-0.99714, 225, 417, 480, 480
-0.997142, 369, 217, 496, 280
-0.997142, 1, 281, 128, 312
-0.997173, 385, 109, 400, 140
-0.997187, 349, 161, 364, 192
-0.997209, 425, 65, 488, 192
-0.997215, 129, 381, 256, 412
-0.997216, 257, 157, 272, 188
-0.997216, 209, 129, 336, 160
-0.997221, 265, 33, 296, 288
-0.99723, 53, 193, 84, 448
-0.99724, 177, 401, 304, 432
-0.997241, 205, 133, 220, 164
-0.997252, 213, 149, 228, 180
-0.997261, 15, 113, 30, 144
-0.997263, 221, 141, 236, 172
-0.997292, 145, 89, 272, 152
-0.997295, 151, 173, 166, 204
-0.997296, 49, 345, 176, 376
-0.9973, 85, 125, 100, 156
-0.997317, 97, 281, 352, 344
-0.997318, 395, 109, 410, 140
-0.997321, 167, 141, 182, 172
-0.997325, 13, 97, 44, 352
-0.997331, 345, 97, 376, 352
-0.99735, 367, 105, 382, 136
-0.997368, 173, 193, 204, 448
-0.997374, 95, 121, 110, 152
-0.997378, 157, 165, 172, 196
-0.997383, 281, 153, 296, 184
-0.997385, 147, 185, 162, 216
-0.997388, 295, 153, 310, 184
-0.997391, 245, 33, 276, 288
-0.997402, 197, 129, 212, 160
-0.997422, 151, 141, 166, 172
-0.997424, 23, 117, 38, 148
-0.997425, 373, 101, 388, 132
-0.997437, 235, 149, 250, 180
-0.997438, 107, 161, 122, 192
-0.997438, 165, 153, 180, 184
-0.997444, 117, 1, 148, 256
-0.997454, 49, 321, 176, 352
-0.997456, 203, 149, 218, 180
-0.99746, 23, 129, 38, 160
-0.997464, 267, 153, 282, 184
-0.997472, 189, 125, 204, 156
-0.997518, 121, 193, 152, 448
-0.997527, 243, 153, 258, 184
-0.997532, 1, 225, 128, 256
-0.997533, 321, 149, 448, 180
-0.997535, 225, 205, 240, 236
-0.997537, 257, 329, 384, 392
-0.997537, 283, 169, 298, 200
-0.997549, 227, 145, 242, 176
-0.99756, 275, 153, 290, 184
-0.99756, 289, 33, 320, 288
-0.997564, 37, 193, 68, 448
-0.997564, 201, 245, 216, 276
-0.997577, 349, 149, 364, 180
-0.997585, 353, 97, 480, 128
-0.997595, 343, 165, 358, 196
-0.997599, 75, 153, 90, 184
-0.9976, 13, 125, 28, 156
-0.997611, 145, 137, 160, 168
-0.997613, 1, 445, 128, 476
-0.997617, 139, 173, 154, 204
-0.99762, 353, 277, 480, 308
-0.997623, 159, 177, 174, 208
-0.997628, 193, 249, 320, 280
-0.997631, 217, 173, 232, 204
-0.997639, 249, 153, 264, 184
-0.997642, 17, 201, 144, 232
-0.997649, 161, 1, 192, 256
-0.99765, 353, 369, 480, 400
-0.99767, 81, 413, 208, 444
-0.997678, 105, 225, 136, 480
-0.997679, 193, 257, 208, 288
-0.99769, 369, 397, 496, 428
-0.99769, 225, 165, 240, 196
-0.997699, 229, 33, 260, 288
-0.997706, 225, 329, 480, 392
-0.997713, 95, 161, 110, 192
-0.997717, 101, 1, 132, 256
-0.997719, 369, 137, 384, 168
-0.99772, 277, 33, 308, 288
-0.997721, 143, 201, 158, 232
-0.997721, 337, 133, 464, 164
-0.997722, 143, 153, 158, 184
-0.997723, 75, 173, 90, 204
-0.997732, 151, 161, 166, 192
-0.997734, 217, 185, 232, 216
-0.99775, 65, 217, 80, 248
-0.997762, 335, 177, 350, 208
-0.997762, 303, 153, 318, 184
-0.997767, 131, 161, 146, 192
-0.997767, 359, 161, 374, 192
-0.997772, 231, 165, 246, 196
-0.997774, 139, 137, 154, 168
-0.997777, 209, 433, 336, 464
-0.997783, 257, 213, 384, 244
-0.997784, 259, 177, 274, 208
-0.997786, 385, 65, 416, 320
-0.997789, 185, 1, 216, 256
-0.997793, 183, 121, 198, 152
-0.997795, 359, 125, 374, 156
-0.997802, 1, 369, 128, 400
-0.99781, 271, 185, 286, 216
-0.997819, 153, 185, 168, 216
-0.99783, 1, 321, 128, 352
-0.997831, 81, 181, 96, 212
-0.997832, 175, 137, 190, 168
-0.997842, 71, 213, 86, 244
-0.997844, 289, 265, 416, 296
-0.997851, 125, 161, 140, 192
-0.997857, 113, 437, 240, 468
-0.997863, 291, 169, 306, 200
-0.997864, 329, 1, 360, 256
-0.997873, 257, 17, 500, 80
-0.997886, 183, 157, 198, 188
-0.997887, 367, 117, 382, 148
-0.997889, 33, 421, 160, 452
-0.997898, 101, 161, 116, 192
-0.997898, 201, 1, 232, 256
-0.997901, 145, 277, 272, 308
-0.997905, 27, 277, 42, 308
-0.997905, 159, 153, 174, 184
-0.99791, 213, 193, 244, 448
-0.997911, 341, 153, 356, 184
-0.997916, 127, 133, 142, 164
-0.997923, 197, 153, 212, 184
-0.997927, 25, 225, 56, 480
-0.997929, 369, 381, 496, 412
-0.997931, 193, 261, 320, 292
-0.99794, 85, 153, 100, 184
-0.99794, 133, 133, 148, 164
-0.99794, 265, 189, 280, 220
-0.997941, 201, 193, 232, 448
-0.997945, 17, 269, 144, 300
-0.997947, 269, 205, 284, 236
-0.997949, 219, 197, 234, 228
-0.997953, 1, 129, 32, 384
-0.997962, 305, 305, 432, 368
-0.997966, 81, 1, 112, 256
-0.997966, 137, 205, 152, 236
-0.997968, 207, 253, 222, 284
-0.997969, 11, 281, 26, 312
-0.997984, 375, 137, 390, 168
-0.997985, 329, 177, 344, 208
-0.997989, 193, 385, 320, 416
-0.997996, 277, 177, 292, 208
-0.998, 209, 173, 224, 204
-0.998003, 261, 209, 276, 240
-0.998004, 115, 161, 130, 192
-0.998005, 193, 229, 208, 260
-0.998009, 25, 129, 56, 384
-0.998015, 87, 141, 102, 172
-0.998015, 267, 433, 282, 464
-0.998024, 165, 233, 180, 264
-0.998025, 145, 193, 176, 448
-0.998028, 161, 193, 192, 448
-0.998033, 13, 225, 44, 480
-0.998034, 301, 1, 332, 256
-0.998037, 327, 281, 342, 312
-0.998038, 305, 289, 432, 320
-0.998056, 311, 137, 326, 168
-0.998056, 105, 333, 120, 364
-0.998057, 141, 185, 156, 216
-0.99806, 49, 1, 176, 128
-0.998065, 225, 409, 352, 440
-0.998071, 145, 1, 176, 256
-0.998071, 97, 277, 224, 308
-0.998077, 75, 189, 90, 220
-0.998078, 1, 345, 500, 408
-0.998079, 391, 121, 406, 152
-0.99808, 359, 137, 374, 168
-0.99809, 157, 197, 172, 228
-0.99809, 199, 165, 214, 196
-0.998095, 309, 149, 324, 180
-0.998096, 191, 169, 206, 200
-0.9981, 97, 329, 352, 392
-0.9981, 265, 141, 280, 172
-0.998104, 121, 129, 136, 160
-0.998115, 149, 201, 164, 232
-0.998115, 289, 141, 304, 172
-0.998118, 177, 161, 192, 192
-0.998124, 379, 105, 394, 136
-0.998128, 349, 173, 364, 204
-0.998132, 105, 125, 120, 156
-0.998132, 1, 225, 32, 480
-0.998132, 307, 281, 322, 312
-0.998136, 201, 257, 216, 288
-0.998144, 261, 425, 276, 456
-0.998146, 85, 169, 100, 200
-0.99815, 177, 449, 304, 480
-0.998165, 305, 209, 432, 240
-0.998172, 1, 433, 128, 464
-0.998173, 213, 1, 244, 256
-0.99818, 317, 1, 348, 256
-0.998194, 341, 1, 372, 256
-0.998196, 337, 265, 464, 296
-0.998197, 185, 193, 216, 448
-0.998212, 273, 409, 400, 440
-0.998228, 65, 401, 192, 432
-0.99823, 225, 297, 352, 328
-0.998244, 49, 309, 176, 340
-0.998267, 173, 1, 204, 256
-0.998271, 65, 109, 192, 140
-0.998298, 49, 65, 80, 320
-0.998311, 321, 357, 448, 388
-0.998321, 209, 281, 336, 312
-0.998336, 89, 225, 120, 480
-0.998351, 69, 225, 100, 480
-0.998361, 129, 369, 256, 400
-0.998366, 241, 393, 368, 424
-0.998373, 257, 65, 500, 128
-0.998399, 257, 155, 320, 170
-0.998407, 1, 417, 500, 480
-0.998407, 129, 177, 192, 192
-0.998408, 349, 113, 380, 128
-0.998409, 261, 457, 292, 472
-0.99841, 289, 147, 320, 162
-0.998411, 185, 229, 216, 244
-0.998412, 105, 161, 136, 176
-0.998413, 349, 175, 380, 190
-0.998414, 197, 411, 228, 426
-0.998414, 161, 135, 224, 150
-0.998416, 345, 161, 376, 176
-0.998417, 157, 135, 188, 150
-0.998418, 161, 183, 192, 198
-0.998418, 245, 453, 276, 468
-0.998419, 201, 215, 232, 230
-0.998419, 189, 251, 220, 266
-0.998419, 61, 229, 92, 244
-0.99842, 333, 167, 364, 182
-0.998421, 137, 217, 168, 232
-0.998422, 277, 153, 308, 168
-0.998422, 81, 129, 144, 144
-0.998422, 77, 187, 108, 202
-0.998423, 277, 181, 308, 196
-0.998423, 169, 143, 200, 158
-0.998423, 1, 279, 32, 294
-0.998424, 17, 299, 48, 314
-0.998424, 1, 297, 128, 328
-0.998424, 169, 233, 200, 248
-0.998424, 125, 161, 156, 176
-0.998425, 209, 151, 240, 166
-0.998426, 209, 345, 336, 376
-0.998426, 221, 173, 252, 188
-0.998427, 257, 183, 288, 198
-0.998427, 289, 275, 320, 290
-0.998427, 185, 261, 216, 276
-0.998428, 257, 443, 288, 458
-0.998429, 301, 155, 332, 170
-0.998429, 153, 177, 216, 192
-0.998431, 365, 131, 396, 146
-0.998431, 93, 239, 124, 254
-0.998432, 249, 149, 280, 164
-0.998433, 73, 173, 136, 188
-0.998433, 381, 107, 412, 122
-0.998434, 337, 179, 368, 194
-0.998434, 257, 211, 288, 226
-0.998437, 121, 211, 152, 226
-0.998437, 233, 155, 264, 170
-0.998438, 185, 211, 216, 226
-0.998438, 361, 181, 392, 196
-0.998439, 177, 179, 208, 194
-0.998441, 345, 127, 376, 142
-0.998442, 145, 163, 176, 178
-0.998443, 365, 119, 396, 134
-0.998443, 213, 157, 244, 172
-0.998446, 289, 97, 416, 128
-0.998448, 213, 189, 244, 204
-0.998449, 429, 369, 460, 384
-0.998449, 265, 177, 296, 192
-0.998451, 353, 113, 416, 128
-0.998451, 289, 153, 320, 168
-0.998451, 105, 177, 168, 192
-0.998452, 165, 151, 196, 166
-0.998452, 305, 277, 336, 292
-0.998452, 61, 223, 92, 238
-0.998453, 245, 427, 276, 442
-0.998453, 257, 167, 320, 182
-0.998455, 85, 179, 116, 194
-0.998456, 349, 119, 380, 134
-0.998456, 109, 131, 140, 146
-0.998457, 41, 341, 72, 356
-0.998458, 325, 179, 356, 194
-0.998462, 137, 183, 168, 198
-0.998463, 257, 161, 320, 176
-0.998464, 201, 179, 232, 194
-0.998464, 353, 119, 416, 134
-0.998465, 205, 137, 236, 152
-0.998466, 177, 175, 240, 190
-0.998467, 169, 207, 200, 222
-0.998467, 341, 153, 372, 168
-0.998467, 361, 113, 392, 128
-0.998468, 65, 163, 128, 178
-0.998468, 181, 173, 212, 188
-0.998469, 141, 171, 172, 186
-0.99847, 65, 333, 192, 364
-0.998471, 137, 207, 168, 222
-0.998472, 69, 217, 100, 232
-0.998472, 221, 149, 252, 164
-0.998472, 209, 153, 272, 168
-0.998474, 81, 179, 144, 194
-0.998475, 217, 165, 280, 180
-0.998476, 153, 153, 216, 168
-0.998476, 209, 203, 240, 218
-0.998477, 61, 177, 92, 192
-0.998477, 197, 185, 228, 200
-0.998478, 377, 113, 408, 128
-0.998479, 145, 129, 160, 256
-0.99848, 129, 141, 192, 156
-0.99848, 157, 157, 188, 172
-0.998481, 213, 165, 244, 180
-0.998486, 129, 137, 160, 152
-0.998487, 161, 129, 224, 144
-0.998488, 93, 163, 124, 178
-0.998488, 9, 139, 40, 154
-0.998489, 81, 123, 112, 138
-0.99849, 365, 137, 396, 152
-0.99849, 337, 125, 400, 140
-0.998491, 185, 211, 248, 226
-0.998492, 161, 81, 416, 144
-0.998494, 253, 177, 284, 192
-0.998496, 141, 141, 172, 156
-0.998497, 269, 187, 300, 202
-0.998498, 169, 157, 200, 172
-0.998499, 13, 283, 44, 298
-0.998502, 105, 173, 136, 188
-0.998502, 161, 159, 224, 174
-0.998502, 1, 213, 128, 244
-0.998504, 165, 213, 196, 228
-0.998504, 185, 205, 248, 220
-0.998506, 193, 165, 224, 180
-0.998506, 169, 141, 232, 156
-0.998508, 101, 333, 132, 348
-0.998509, 181, 159, 212, 174
-0.998509, 233, 157, 296, 172
-0.99851, 185, 129, 216, 144
-0.99851, 129, 161, 192, 176
-0.99851, 249, 167, 280, 182
-0.998513, 73, 167, 104, 182
-0.998513, 285, 161, 316, 176
-0.998513, 125, 113, 140, 240
-0.998513, 89, 161, 152, 176
-0.998514, 197, 153, 228, 168
-0.998515, 369, 107, 400, 122
-0.998515, 129, 449, 256, 480
-0.998515, 173, 121, 204, 136
-0.998517, 89, 135, 152, 150
-0.998519, 149, 179, 180, 194
-0.998519, 145, 155, 176, 170
-0.998521, 225, 177, 288, 192
-0.998522, 225, 171, 288, 186
-0.998523, 265, 171, 296, 186
-0.998523, 65, 157, 128, 172
-0.998523, 365, 125, 396, 140
-0.998524, 265, 161, 296, 176
-0.998524, 19, 97, 34, 224
-0.998525, 353, 133, 384, 148
-0.998525, 203, 113, 218, 240
-0.998527, 245, 157, 276, 172
-0.998528, 149, 215, 180, 230
-0.998528, 209, 203, 272, 218
-0.998528, 337, 135, 400, 150
-0.998529, 313, 193, 376, 448
-0.998529, 205, 173, 236, 188
-0.998532, 153, 183, 216, 198
-0.998532, 153, 145, 184, 160
-0.998533, 201, 147, 264, 162
-0.998533, 129, 215, 192, 230
-0.998534, 97, 171, 160, 186
-0.998535, 161, 147, 224, 162
-0.998536, 57, 217, 120, 232
-0.998536, 49, 177, 112, 192
-0.998537, 193, 169, 256, 184
-0.998538, 201, 175, 264, 190
-0.998539, 129, 129, 192, 144
-0.99854, 321, 175, 384, 190
-0.998542, 1, 133, 64, 148
-0.998542, 1, 393, 500, 456
-0.998543, 193, 135, 224, 150
-0.998543, 297, 159, 360, 174
-0.998544, 1, 127, 64, 142
-0.998545, 305, 165, 368, 180
-0.998545, 153, 209, 216, 224
-0.998545, 313, 153, 376, 168
-0.998547, 153, 215, 216, 230
-0.998547, 129, 205, 192, 220
-0.998549, 17, 351, 80, 366
-0.998549, 1, 279, 64, 294
-0.998551, 209, 211, 272, 226
-0.998551, 73, 155, 104, 170
-0.998552, 361, 107, 424, 122
-0.998552, 159, 129, 174, 256
-0.998554, 85, 173, 116, 188
-0.998554, 225, 185, 288, 200
-0.998554, 285, 167, 316, 182
-0.998554, 9, 125, 40, 140
-0.998555, 337, 173, 368, 188
-0.998555, 121, 155, 184, 170
-0.998557, 257, 225, 288, 480
-0.998558, 69, 145, 100, 160
-0.99856, 321, 183, 384, 198
-0.99856, 281, 153, 344, 168
-0.998562, 249, 173, 312, 188
-0.998562, 97, 113, 112, 240
-0.998563, 165, 177, 196, 192
-0.998563, 41, 171, 104, 186
-0.998563, 225, 429, 288, 444
-0.998564, 177, 217, 240, 232
-0.998569, 125, 177, 156, 192
-0.998569, 225, 145, 240, 272
-0.99857, 121, 171, 184, 186
-0.99857, 97, 219, 160, 234
-0.998571, 185, 199, 248, 214
-0.998572, 161, 249, 224, 264
-0.998572, 1, 121, 64, 136
-0.998573, 161, 169, 224, 184
-0.998574, 115, 113, 130, 240
-0.998575, 153, 221, 216, 236
-0.998576, 185, 161, 248, 176
-0.998576, 17, 309, 80, 324
-0.998577, 185, 181, 248, 196
-0.998577, 103, 113, 118, 240
-0.998578, 129, 135, 192, 150
-0.998579, 13, 277, 44, 292
-0.99858, 73, 335, 136, 350
-0.998582, 9, 133, 40, 148
-0.998583, 213, 129, 228, 256
-0.998583, 209, 145, 240, 160
-0.998583, 281, 167, 344, 182
-0.998583, 401, 17, 464, 144
-0.998585, 113, 185, 176, 200
-0.998585, 361, 131, 424, 146
-0.998586, 233, 151, 296, 166
-0.998587, 249, 189, 312, 204
-0.998588, 129, 227, 192, 242
-0.998588, 213, 211, 244, 226
-0.998589, 361, 125, 424, 140
-0.99859, 129, 147, 192, 162
-0.998591, 73, 327, 136, 342
-0.998591, 373, 81, 388, 208
-0.998593, 131, 113, 146, 240
-0.998593, 219, 145, 234, 272
-0.998594, 217, 217, 280, 232
-0.998594, 321, 111, 384, 126
-0.998595, 153, 271, 216, 286
-0.998596, 213, 181, 244, 196
-0.998597, 297, 135, 360, 150
-0.998597, 161, 123, 224, 138
-0.998597, 201, 159, 232, 174
-0.998599, 233, 211, 296, 226
-0.998599, 105, 211, 168, 226
-0.998601, 161, 259, 224, 274
-0.998601, 305, 279, 368, 294
-0.998601, 401, 369, 464, 384
-0.998604, 265, 153, 296, 168
-0.998604, 73, 151, 136, 166
-0.998606, 337, 105, 400, 120
-0.998606, 9, 119, 40, 134
-0.998606, 225, 193, 288, 208
-0.998608, 73, 239, 136, 254
-0.998608, 97, 333, 160, 348
-0.998608, 185, 193, 248, 208
-0.998609, 257, 277, 320, 292
-0.99861, 145, 235, 208, 250
-0.998613, 297, 145, 360, 160
-0.998613, 73, 123, 136, 138
-0.998614, 1, 301, 64, 316
-0.998614, 49, 127, 112, 142
-0.998614, 273, 147, 336, 162
-0.998615, 73, 187, 136, 202
-0.998615, 1, 139, 64, 154
-0.998616, 57, 223, 120, 238
-0.998616, 121, 241, 184, 256
-0.998616, 321, 117, 384, 132
-0.998617, 145, 199, 208, 214
-0.998617, 1, 285, 64, 300
-0.998618, 185, 155, 248, 170
-0.998618, 65, 33, 96, 288
-0.998619, 57, 229, 120, 244
-0.998619, 225, 441, 288, 456
-0.998619, 201, 411, 264, 426
-0.998619, 265, 183, 328, 198
-0.998622, 109, 113, 124, 240
-0.998623, 65, 201, 128, 216
-0.998624, 49, 329, 112, 344
-0.998625, 49, 141, 112, 156
-0.998625, 185, 187, 248, 202
-0.998626, 89, 145, 152, 160
-0.998628, 49, 185, 112, 200
-0.99863, 137, 177, 168, 192
-0.99863, 289, 209, 352, 224
-0.998631, 193, 405, 256, 420
-0.998631, 65, 195, 128, 210
-0.998631, 169, 415, 232, 430
-0.998634, 93, 127, 124, 142
-0.998636, 73, 135, 104, 150
-0.998641, 241, 113, 368, 144
-0.998644, 267, 145, 282, 272
-0.998651, 173, 127, 204, 142
-0.998654, 153, 129, 168, 256
-0.998658, 241, 449, 368, 480
-0.998659, 137, 129, 152, 256
-0.998659, 193, 117, 320, 148
-0.998683, 177, 97, 192, 224
-0.998688, 365, 97, 380, 224
-0.998695, 225, 373, 352, 404
-0.998697, 77, 113, 92, 240
-0.998699, 231, 145, 246, 272
-0.998704, 283, 145, 298, 272
-0.998712, 81, 453, 208, 484
-0.998717, 191, 113, 206, 240
-0.998729, 293, 145, 308, 272
-0.998738, 73, 129, 104, 144
-0.998751, 193, 33, 256, 160
-0.998754, 261, 145, 276, 272
-0.998755, 239, 129, 254, 256
-0.99876, 161, 357, 288, 388
-0.998762, 91, 129, 106, 256
-0.998766, 249, 145, 264, 272
-0.998776, 165, 145, 180, 272
-0.998778, 155, 177, 170, 304
-0.998788, 277, 129, 292, 256
-0.998791, 255, 145, 270, 272
-0.998792, 311, 129, 326, 256
-0.998804, 191, 193, 206, 320
-0.99882, 85, 145, 100, 272
-0.99882, 13, 97, 28, 224
-0.998834, 25, 97, 40, 224
-0.998851, 365, 161, 396, 416
-0.998877, 241, 225, 272, 480
-0.99889, 25, 33, 56, 288
-0.998894, 219, 193, 234, 320
-0.998895, 461, 1, 492, 256
-0.998899, 1, 281, 500, 344
-0.998904, 75, 177, 90, 304
-0.998915, 303, 145, 318, 272
-0.998929, 69, 177, 84, 304
-0.998929, 197, 113, 212, 240
-0.998939, 359, 81, 374, 208
-0.998943, 325, 129, 340, 256
-0.998943, 225, 225, 256, 480
-0.998957, 379, 81, 394, 208
-0.998959, 349, 113, 364, 240
-0.998968, 203, 161, 218, 288
-0.998973, 385, 81, 400, 208
-0.998977, 171, 145, 186, 272
-0.998982, 185, 113, 200, 240
-0.998985, 209, 177, 224, 304
-0.998994, 71, 129, 86, 256
-0.998998, 197, 193, 212, 320
-0.999003, 53, 321, 68, 448
-0.99901, 183, 161, 198, 288
-0.999023, 335, 129, 350, 256
-0.999024, 183, 209, 198, 336
-0.999048, 59, 305, 74, 432
-0.999049, 343, 129, 358, 256
-0.999063, 171, 97, 186, 224
-0.999079, 263, 193, 278, 320
-0.999092, 35, 273, 50, 400
-0.999094, 27, 257, 42, 384
-0.999095, 397, 65, 428, 320
-0.999095, 121, 65, 136, 192
-0.999095, 319, 129, 334, 256
-0.999098, 103, 225, 118, 352
-0.999104, 7, 257, 22, 384
-0.999107, 273, 193, 288, 320
-0.999122, 149, 193, 164, 320
-0.999124, 225, 193, 240, 320
-0.999126, 115, 65, 130, 192
-0.999133, 115, 193, 130, 320
-0.999136, 137, 81, 152, 208
-0.999138, 11, 337, 26, 464
-0.999146, 3, 321, 18, 448
-0.999152, 109, 65, 124, 192
-0.999153, 125, 161, 140, 288
-0.999156, 127, 65, 142, 192
-0.999161, 43, 289, 58, 416
-0.999162, 261, 97, 276, 224
-0.999166, 209, 81, 224, 208
-0.99917, 257, 41, 500, 104
-0.999172, 109, 225, 124, 352
-0.999179, 103, 65, 118, 192
-0.99918, 371, 129, 386, 256
-0.99918, 61, 257, 76, 384
-0.999183, 267, 97, 282, 224
-0.999184, 17, 257, 32, 384
-0.999191, 37, 97, 68, 352
-0.999201, 165, 97, 180, 224
-0.999203, 95, 177, 110, 304
-0.999204, 53, 273, 68, 400
-0.999208, 105, 161, 120, 288
-0.99921, 61, 353, 76, 480
-0.999213, 219, 97, 234, 224
-0.999214, 121, 209, 136, 336
-0.99922, 225, 65, 352, 128
-0.999224, 285, 97, 300, 224
-0.999228, 63, 193, 78, 320
-0.999234, 143, 177, 158, 304
-0.999241, 177, 209, 192, 336
-0.999242, 45, 241, 60, 368
-0.999254, 425, 225, 456, 480
-0.999256, 135, 209, 150, 336
-0.999258, 165, 209, 180, 336
-0.99926, 299, 97, 314, 224
-0.999262, 127, 209, 142, 336
-0.999263, 233, 97, 248, 224
-0.999264, 1, 321, 500, 384
-0.999268, 131, 161, 146, 288
-0.999278, 367, 49, 382, 176
-0.999281, 203, 209, 218, 336
-0.999282, 67, 321, 82, 448
-0.99929, 17, 321, 32, 448
-0.99929, 7, 113, 22, 240
-0.999291, 291, 97, 306, 224
-0.999298, 377, 129, 392, 256
-0.999299, 81, 193, 96, 320
-0.999302, 257, 305, 320, 432
-0.999313, 245, 97, 260, 224
-0.999313, 253, 97, 268, 224
-0.999315, 1, 257, 16, 384
-0.999319, 385, 241, 400, 368
-0.99932, 315, 81, 330, 208
-0.999321, 119, 337, 134, 464
-0.999323, 97, 65, 112, 192
-0.999327, 1, 1, 32, 256
-0.999328, 143, 81, 158, 208
-0.99933, 197, 65, 212, 192
-0.999334, 37, 321, 52, 448
-0.999343, 391, 97, 406, 224
-0.999345, 177, 145, 192, 272
-0.999346, 183, 65, 198, 192
-0.999349, 19, 49, 34, 176
-0.999354, 27, 337, 42, 464
-0.999355, 225, 97, 240, 224
-0.999363, 105, 305, 120, 432
-0.999367, 417, 65, 448, 320
-0.999448, 65, 89, 320, 152
-0.999468, 437, 225, 468, 480
-0.99951, 209, 1, 336, 64
-0.999562, 449, 225, 480, 480
-0.99961, 13, 1, 44, 256
-0.999616, 257, 1, 384, 64
-0.999618, 269, 225, 300, 480
-0.999621, 291, 153, 306, 168
-0.999621, 181, 205, 196, 220
-0.999621, 9, 279, 24, 294
-0.999622, 353, 155, 368, 170
-0.999623, 25, 121, 40, 136
-0.999623, 367, 139, 382, 154
-0.999623, 175, 155, 190, 170
-0.999623, 87, 155, 102, 170
-0.999624, 219, 211, 234, 226
-0.999624, 349, 175, 364, 190
-0.999625, 223, 203, 238, 218
-0.999626, 11, 129, 26, 144
-0.999627, 113, 333, 128, 348
-0.999627, 131, 135, 146, 150
-0.999628, 485, 407, 500, 422
-0.999628, 299, 155, 314, 170
-0.999628, 149, 185, 164, 200
-0.999629, 153, 217, 168, 232
-0.999629, 257, 153, 272, 168
-0.99963, 123, 133, 138, 148
-0.999631, 261, 179, 276, 194
-0.999631, 261, 211, 276, 226
-0.999631, 359, 129, 374, 144
-0.999631, 265, 189, 280, 204
-0.999632, 71, 217, 86, 232
-0.999633, 477, 407, 492, 422
-0.999635, 201, 259, 216, 274
-0.999635, 393, 105, 408, 120
-0.999635, 359, 157, 374, 172
-0.999635, 9, 289, 24, 304
-0.999635, 211, 135, 226, 150
-0.999636, 381, 193, 412, 448
-0.999638, 3, 285, 18, 300
-0.999641, 97, 173, 112, 188
-0.999642, 285, 161, 300, 176
-0.999643, 137, 211, 152, 226
-0.999643, 369, 133, 384, 148
-0.999643, 277, 185, 292, 200
-0.999643, 199, 159, 214, 174
-0.999645, 75, 155, 90, 170
-0.999646, 111, 173, 126, 188
-0.999646, 23, 137, 38, 152
-0.999646, 191, 263, 206, 278
-0.999647, 175, 141, 190, 156
-0.999647, 193, 161, 208, 176
-0.999648, 177, 129, 192, 144
-0.999649, 271, 153, 286, 168
-0.99965, 359, 123, 374, 138
-0.99965, 211, 173, 226, 188
-0.999651, 95, 163, 110, 178
-0.999651, 389, 113, 404, 128
-0.999652, 139, 161, 154, 176
-0.999654, 159, 153, 174, 168
-0.999655, 137, 137, 152, 152
-0.999655, 367, 117, 382, 132
-0.999655, 247, 155, 262, 170
-0.999656, 157, 143, 172, 158
-0.999657, 163, 215, 178, 230
-0.999658, 307, 279, 322, 294
-0.999658, 145, 179, 160, 194
-0.999659, 383, 107, 398, 122
-0.99966, 85, 181, 100, 196
-0.999661, 203, 153, 218, 168
-0.999662, 285, 167, 300, 182
-0.999663, 217, 151, 232, 166
-0.999663, 81, 139, 96, 154
-0.999664, 163, 179, 178, 194
-0.999664, 207, 147, 222, 162
-0.999665, 271, 189, 286, 204
-0.999666, 207, 159, 222, 174
-0.999669, 267, 173, 282, 188
-0.999669, 449, 1, 480, 256
-0.99967, 203, 165, 218, 180
-0.999671, 265, 155, 280, 170
-0.999671, 225, 211, 240, 226
-0.999672, 105, 173, 120, 188
-0.999673, 87, 139, 102, 154
-0.999673, 271, 183, 286, 198
-0.999675, 297, 161, 312, 176
-0.999675, 281, 153, 296, 168
-0.999677, 25, 129, 40, 144
-0.999677, 171, 175, 186, 190
-0.999678, 373, 139, 388, 154
-0.99968, 213, 181, 228, 196
-0.999681, 367, 103, 382, 118
-0.999681, 217, 187, 232, 202
-0.999683, 63, 223, 78, 238
-0.999683, 77, 177, 92, 192
-0.999685, 229, 147, 244, 162
-0.999685, 257, 159, 272, 174
-0.999686, 17, 115, 32, 130
-0.999688, 219, 159, 234, 174
-0.999689, 429, 33, 460, 288
-0.99969, 107, 331, 122, 346
-0.999692, 241, 153, 256, 168
-0.999695, 183, 125, 198, 140
-0.999696, 349, 165, 364, 180
-0.999698, 223, 173, 238, 188
-0.999699, 15, 281, 30, 296
-0.999699, 25, 277, 40, 292
-0.9997, 143, 205, 158, 220
-0.9997, 75, 149, 90, 164
-0.9997, 77, 133, 92, 148
-0.999704, 225, 163, 240, 178
-0.999705, 335, 177, 350, 192
-0.999706, 199, 133, 214, 148
-0.999706, 167, 157, 182, 172
-0.999708, 395, 111, 410, 126
-0.999709, 213, 157, 228, 172
-0.99971, 179, 177, 194, 192
-0.999711, 291, 163, 306, 178
-0.999714, 401, 161, 432, 416
-0.999718, 189, 127, 204, 142
-0.999719, 377, 105, 392, 120
-0.999722, 261, 169, 276, 184
-0.999722, 217, 173, 232, 188
-0.999725, 145, 173, 160, 188
-0.99973, 223, 145, 238, 160
-0.99973, 133, 177, 148, 192
-0.99973, 1, 73, 500, 136
-0.999731, 219, 165, 234, 180
-0.999735, 165, 147, 180, 162
-0.999735, 75, 139, 90, 154
-0.999738, 81, 145, 96, 160
-0.999745, 205, 135, 220, 150
-0.999745, 153, 177, 168, 192
-0.999753, 223, 179, 238, 194
-0.999763, 95, 125, 110, 140
-0.999768, 233, 1, 296, 128
-0.99977, 367, 109, 382, 124
-0.999775, 215, 141, 230, 156
-0.999784, 139, 177, 154, 192
-0.999788, 213, 163, 228, 178
-0.999794, 77, 127, 92, 142
-0.999802, 85, 129, 100, 144
-0.999803, 177, 121, 192, 136
-0.99982, 177, 305, 240, 432
-0.999836, 145, 65, 272, 128
-0.999854, 193, 25, 320, 88
-0.999857, 301, 193, 332, 448
-0.999859, 413, 161, 444, 416
-0.99988, 329, 193, 360, 448
-0.999965, 409, 129, 472, 384
-0.999978, 469, 225, 500, 480
-0.999999, 313, 193, 344, 448
-1.00004, 353, 193, 384, 448
-1.00005, 241, 25, 368, 88
-1.00008, 145, 25, 272, 88
-1.00012, 321, 17, 384, 144
-1.0002, 289, 225, 320, 480
-1.00023, 37, 1, 68, 256
-1.00028, 289, 25, 416, 88
-1.00031, 1, 49, 500, 112
-1.00032, 145, 1, 272, 64
-1.00032, 341, 193, 372, 448
-1.00038, 49, 17, 176, 80
-1.00047, 89, 1, 152, 128
-1.00048, 429, 129, 460, 384
-1.00052, 129, 1, 384, 64
-1.00061, 445, 129, 476, 384
-1.00063, 1, 1, 64, 128
-1.00065, 1, 17, 500, 80
-1.0007, 1, 1, 128, 64
-1.00073, 369, 425, 496, 488
-1.00074, 81, 49, 208, 112
-1.00083, 161, 25, 416, 88
-1.00085, 97, 25, 224, 88
-1.00086, 457, 129, 488, 384
-1.00098, 33, 49, 288, 112
-1.00099, 305, 1, 432, 64
-1.00104, 469, 129, 500, 384
-1.0011, 377, 1, 440, 128
-1.00112, 33, 1, 288, 64
-1.00116, 161, 57, 416, 120
-1.00117, 97, 1, 224, 64
-1.00119, 33, 25, 288, 88
-1.00123, 1, 49, 128, 112
-1.00135, 1, 25, 128, 88
-1.00207, 433, 225, 496, 352
-1.00298, 433, 129, 496, 384
-1.0035, 297, 33, 360, 160
-1.0044, 265, 1, 328, 128
-1.0049, 425, 161, 488, 288
-1.00564, 49, 1, 112, 128
-1.00569, 25, 17, 88, 144
-1.00615, 1, 1, 128, 128
-1.00651, 145, 1, 208, 128
-1.00909, 425, 113, 488, 240
-1.01014, 353, 1, 416, 128
