2114
-0.561284, 1, 257, 488, 500
-0.57265, 1, 1, 488, 500
-0.596815, 1, 65, 488, 320
-0.631499, 1, 161, 488, 416
-0.692279, 1, 1, 256, 500
-0.7554, 225, 1, 480, 500
-0.762148, 97, 1, 352, 500
-0.782223, 1, 257, 256, 500
-0.83039, 129, 257, 384, 500
-0.872168, 225, 225, 480, 480
-0.872249, 65, 161, 320, 416
-0.884898, 97, 1, 352, 256
-0.910023, 1, 1, 256, 256
-0.917341, 225, 1, 480, 256
-0.918174, 225, 129, 480, 384
-0.918193, 113, 257, 240, 500
-0.919351, 1, 1, 128, 500
-0.920275, 65, 257, 192, 500
-0.920692, 289, 1, 416, 500
-0.920722, 113, 1, 240, 500
-0.925731, 17, 257, 144, 500
-0.926883, 337, 1, 464, 500
-0.930499, 193, 225, 320, 480
-0.932609, 1, 337, 488, 464
-0.933124, 241, 257, 368, 500
-0.935148, 225, 1, 352, 500
-0.936649, 353, 225, 480, 480
-0.937504, 97, 1, 224, 256
-0.938521, 65, 1, 192, 500
-0.939331, 33, 97, 160, 352
-0.94279, 1, 337, 256, 464
-0.942926, 337, 129, 464, 384
-0.943856, 1, 1, 128, 256
-0.945959, 1, 273, 488, 400
-0.946541, 161, 1, 288, 500
-0.947068, 353, 1, 480, 256
-0.947222, 241, 161, 368, 416
-0.947264, 1, 129, 488, 256
-0.947504, 305, 225, 432, 480
-0.949339, 161, 1, 288, 256
-0.949406, 209, 1, 336, 256
-0.950868, 1, 289, 256, 416
-0.951748, 1, 1, 488, 128
-0.954902, 161, 129, 288, 384
-0.95518, 97, 161, 224, 416
-0.955347, 305, 33, 432, 288
-0.955661, 49, 1, 176, 256
-0.955765, 161, 337, 416, 464
-0.957999, 257, 1, 384, 256
-0.960232, 1, 81, 488, 208
-0.960235, 289, 129, 416, 384
-0.96103, 113, 353, 240, 480
-0.962691, 1, 177, 488, 304
-0.963498, 97, 1, 352, 128
-0.966873, 1, 225, 488, 352
-0.96735, 129, 289, 384, 416
-0.967464, 129, 289, 256, 416
-0.967884, 169, 353, 232, 480
-0.96798, 193, 321, 320, 448
-0.968616, 33, 369, 160, 496
-0.970488, 169, 393, 232, 456
-0.9707, 193, 337, 256, 464
-0.97118, 1, 97, 128, 224
-0.972131, 225, 33, 480, 160
-0.97228, 305, 321, 432, 448
-0.972655, 113, 353, 176, 480
-0.972768, 33, 321, 160, 448
-0.973701, 193, 393, 256, 456
-0.974043, 33, 321, 96, 448
-0.97441, 1, 49, 128, 176
-0.97447, 73, 369, 136, 496
-0.974595, 337, 273, 464, 400
-0.974652, 337, 1, 464, 128
-0.975772, 73, 393, 136, 456
-0.976228, 129, 1, 256, 128
-0.976237, 225, 97, 480, 224
-0.976515, 89, 305, 152, 432
-0.976535, 33, 369, 96, 432
-0.97666, 1, 129, 256, 256
-0.976664, 81, 305, 208, 432
-0.976706, 225, 289, 480, 416
-0.977083, 1, 49, 256, 176
-0.977236, 169, 369, 232, 432
-0.977341, 33, 209, 288, 336
-0.977619, 257, 321, 384, 448
-0.977812, 1, 1, 128, 128
-0.978013, 33, 369, 96, 496
-0.978022, 145, 393, 208, 456
-0.978282, 121, 393, 184, 456
-0.978307, 193, 369, 256, 432
-0.978311, 177, 369, 304, 496
-0.978351, 65, 305, 128, 432
-0.978974, 217, 337, 280, 464
-0.978994, 225, 273, 352, 400
-0.979065, 193, 289, 256, 416
-0.97916, 17, 145, 144, 272
-0.979376, 225, 241, 480, 368
-0.979414, 81, 49, 208, 176
-0.979632, 17, 273, 144, 400
-0.979903, 225, 177, 480, 304
-0.980101, 65, 113, 192, 240
-0.980364, 1, 209, 128, 336
-0.98046, 49, 1, 176, 128
-0.980602, 145, 353, 208, 480
-0.980793, 337, 97, 464, 224
-0.980864, 57, 1, 120, 128
-0.981602, 289, 1, 416, 128
-0.981612, 9, 129, 72, 256
-0.981723, 33, 393, 96, 456
-0.981732, 1, 1, 256, 128
-0.981945, 273, 273, 400, 400
-0.982258, 393, 313, 456, 376
-0.982354, 33, 385, 160, 448
-0.982431, 97, 65, 352, 192
-0.982566, 329, 321, 392, 448
-0.982616, 217, 393, 280, 456
-0.982731, 129, 401, 160, 464
-0.982769, 161, 1, 224, 64
-0.98286, 33, 345, 96, 408
-0.982891, 177, 401, 208, 464
-0.98342, 97, 393, 160, 456
-0.983575, 217, 1, 280, 64
-0.983654, 153, 289, 216, 416
-0.983733, 193, 1, 256, 128
-0.983737, 177, 257, 304, 384
-0.983755, 97, 369, 224, 432
-0.983821, 321, 49, 448, 176
-0.983888, 113, 393, 240, 456
-0.984018, 353, 321, 480, 448
-0.984347, 241, 1, 368, 128
-0.984423, 117, 385, 148, 448
-0.984429, 177, 417, 240, 480
-0.984462, 137, 369, 200, 432
-0.984594, 425, 257, 488, 384
-0.984603, 305, 273, 368, 400
-0.984698, 165, 401, 196, 464
-0.984885, 401, 257, 464, 384
-0.984903, 49, 193, 176, 320
-0.985065, 337, 193, 464, 320
-0.985176, 49, 409, 176, 472
-0.985248, 33, 337, 160, 400
-0.98537, 193, 345, 256, 408
-0.985463, 289, 97, 416, 224
-0.985476, 197, 369, 228, 496
-0.98552, 197, 377, 228, 440
-0.985739, 1, 337, 64, 464
-0.985839, 105, 1, 168, 128
-0.986048, 113, 369, 176, 432
-0.986157, 425, 49, 488, 176
-0.986242, 145, 377, 176, 440
-0.986362, 257, 337, 320, 464
-0.986523, 345, 273, 408, 400
-0.986604, 153, 345, 216, 408
-0.986664, 153, 417, 216, 480
-0.986679, 33, 1, 96, 128
-0.986723, 393, 337, 456, 464
-0.986754, 169, 1, 232, 128
-0.986802, 177, 1, 304, 64
-0.986817, 53, 385, 84, 448
-0.986821, 217, 313, 280, 376
-0.986875, 257, 1, 320, 128
-0.986902, 129, 241, 384, 368
-0.986951, 81, 241, 208, 368
-0.987162, 33, 257, 96, 384
-0.987256, 181, 353, 212, 480
-0.987293, 409, 177, 472, 304
-0.987353, 193, 1, 256, 64
-0.987503, 129, 129, 384, 256
-0.987544, 137, 369, 168, 496
-0.98755, 65, 369, 128, 432
-0.987559, 337, 33, 400, 160
-0.987593, 217, 369, 280, 432
-0.987779, 177, 1, 304, 128
-0.987797, 37, 377, 68, 440
-0.987803, 129, 257, 192, 500
-0.987815, 49, 177, 112, 304
-0.987846, 129, 193, 384, 320
-0.987866, 177, 209, 304, 336
-0.987874, 113, 345, 240, 408
-0.987905, 305, 145, 432, 272
-0.987936, 353, 145, 480, 272
-0.987946, 305, 321, 368, 448
-0.987993, 369, 305, 432, 368
-0.988021, 209, 321, 240, 448
-0.988041, 17, 177, 80, 304
-0.988046, 401, 65, 464, 192
-0.988072, 129, 49, 256, 176
-0.98811, 109, 409, 140, 472
-0.988138, 201, 417, 264, 480
-0.988164, 45, 321, 76, 448
-0.988271, 425, 153, 488, 216
-0.988298, 89, 49, 152, 176
-0.988298, 369, 257, 432, 384
-0.988356, 289, 209, 416, 336
-0.988364, 1, 145, 64, 208
-0.988364, 1, 329, 64, 392
-0.988402, 213, 401, 244, 464
-0.988407, 177, 353, 304, 416
-0.988431, 97, 161, 224, 288
-0.988435, 105, 417, 168, 480
-0.988468, 129, 33, 192, 160
-0.988468, 89, 97, 152, 224
-0.98852, 73, 393, 104, 456
-0.988593, 1, 153, 128, 216
-0.98862, 425, 321, 488, 448
-0.988639, 249, 289, 312, 416
-0.988658, 273, 49, 400, 176
-0.988685, 137, 313, 200, 376
-0.988707, 17, 201, 80, 264
-0.988716, 273, 257, 336, 384
-0.988741, 73, 369, 104, 496
-0.988778, 425, 49, 488, 112
-0.988815, 97, 305, 224, 368
-0.988821, 417, 113, 480, 240
-0.988871, 401, 17, 464, 80
-0.988882, 53, 369, 84, 496
-0.988912, 161, 393, 288, 456
-0.988947, 17, 361, 144, 424
-0.989082, 1, 289, 64, 416
-0.989085, 129, 417, 192, 480
-0.989139, 89, 257, 152, 500
-0.989167, 425, 313, 488, 376
-0.989171, 89, 313, 152, 376
-0.989238, 41, 65, 104, 192
-0.989247, 369, 81, 432, 208
-0.989264, 165, 353, 196, 480
-0.989273, 9, 81, 72, 208
-0.989331, 1, 361, 64, 424
-0.989367, 41, 353, 72, 416
-0.989373, 177, 313, 304, 376
-0.98943, 97, 385, 128, 448
-0.989439, 73, 257, 136, 384
-0.989548, 185, 257, 248, 500
-0.989557, 41, 305, 104, 368
-0.9896, 225, 289, 288, 416
-0.989612, 121, 321, 152, 448
-0.989669, 257, 145, 384, 272
-0.989796, 17, 305, 144, 368
-0.989902, 209, 145, 336, 272
-0.989933, 129, 417, 256, 480
-0.989956, 241, 1, 304, 64
-0.989987, 57, 129, 120, 256
-0.990018, 141, 401, 172, 464
-0.990023, 353, 209, 480, 272
-0.990027, 113, 369, 144, 496
-0.990055, 33, 257, 96, 500
-0.990087, 393, 113, 456, 240
-0.990113, 89, 369, 152, 432
-0.99012, 369, 65, 432, 128
-0.990127, 289, 49, 416, 112
-0.99016, 65, 337, 128, 400
-0.990162, 281, 337, 344, 464
-0.990188, 33, 129, 96, 256
-0.990228, 353, 17, 416, 80
-0.990283, 313, 1, 376, 128
-0.990296, 241, 305, 304, 368
-0.990296, 345, 305, 408, 368
-0.990296, 193, 321, 256, 384
-0.990327, 401, 89, 464, 152
-0.990346, 161, 257, 224, 500
-0.990368, 225, 225, 352, 352
-0.990481, 393, 289, 456, 352
-0.990483, 353, 305, 480, 368
-0.990544, 289, 1, 352, 128
-0.990615, 161, 161, 288, 288
-0.990642, 401, 121, 464, 184
-0.990645, 225, 337, 288, 400
-0.990688, 17, 305, 80, 368
-0.990746, 161, 113, 288, 240
-0.990806, 81, 57, 144, 120
-0.990829, 209, 257, 272, 500
-0.990874, 417, 265, 480, 328
-0.990908, 161, 281, 288, 344
-0.991018, 113, 305, 176, 432
-0.99103, 129, 241, 256, 368
-0.991052, 241, 25, 368, 88
-0.99106, 225, 281, 288, 344
-0.991061, 201, 401, 232, 464
-0.99124, 169, 401, 232, 432
-0.99126, 221, 353, 252, 480
-0.99127, 417, 201, 480, 264
-0.991281, 193, 401, 256, 432
-0.991314, 65, 65, 128, 192
-0.991324, 185, 1, 216, 64
-0.991338, 25, 153, 88, 216
-0.991394, 61, 305, 92, 432
-0.991395, 321, 17, 448, 80
-0.991456, 153, 281, 216, 344
-0.99147, 33, 369, 64, 496
-0.991485, 361, 321, 424, 448
-0.99149, 69, 369, 100, 432
-0.9915, 241, 297, 368, 360
-0.991502, 337, 57, 400, 120
-0.991508, 197, 321, 228, 448
-0.991533, 153, 401, 184, 464
-0.991554, 9, 17, 72, 144
-0.991555, 225, 337, 352, 400
-0.991575, 193, 413, 256, 444
-0.991613, 393, 153, 456, 216
-0.991616, 377, 113, 440, 176
-0.991631, 105, 337, 168, 400
-0.991638, 377, 33, 440, 96
-0.991641, 165, 377, 196, 440
-0.991641, 113, 281, 176, 344
-0.991643, 21, 321, 52, 448
-0.991683, 153, 369, 184, 496
-0.991752, 1, 177, 64, 240
-0.991757, 153, 413, 216, 444
-0.991769, 305, 337, 432, 400
-0.99179, 353, 129, 480, 192
-0.991794, 1, 409, 128, 472
-0.991806, 49, 281, 176, 344
-0.991867, 385, 17, 448, 144
-0.991872, 33, 49, 160, 112
-0.991891, 393, 217, 456, 280
-0.991907, 189, 353, 220, 416
-0.991925, 33, 185, 160, 248
-0.991934, 33, 377, 96, 408
-0.991944, 249, 345, 312, 408
-0.991953, 121, 409, 184, 440
-0.991958, 189, 401, 220, 464
-0.99198, 209, 345, 240, 408
-0.991984, 73, 397, 136, 428
-0.99202, 205, 1, 236, 64
-0.992034, 393, 337, 456, 400
-0.992049, 425, 1, 488, 64
-0.99213, 33, 389, 96, 420
-0.992148, 49, 65, 112, 128
-0.992153, 97, 401, 160, 432
-0.992168, 237, 321, 268, 448
-0.992176, 97, 25, 224, 88
-0.992216, 321, 33, 384, 96
-0.99223, 145, 401, 208, 432
-0.992244, 329, 329, 392, 392
-0.992262, 73, 89, 136, 152
-0.992262, 113, 305, 176, 368
-0.992267, 169, 389, 232, 420
-0.992299, 1, 149, 64, 180
-0.99233, 17, 265, 80, 328
-0.992337, 121, 397, 184, 428
-0.99236, 161, 1, 224, 256
-0.992369, 209, 389, 272, 420
-0.992378, 121, 425, 184, 456
-0.992378, 9, 129, 40, 256
-0.992387, 85, 393, 116, 456
-0.992395, 177, 297, 240, 360
-0.992405, 225, 417, 288, 480
-0.992424, 177, 1, 240, 32
-0.992429, 217, 409, 280, 440
-0.99244, 113, 97, 240, 224
-0.99246, 113, 81, 176, 208
-0.992468, 73, 385, 136, 416
-0.992481, 353, 249, 480, 312
-0.992491, 353, 329, 480, 392
-0.992528, 33, 365, 96, 396
-0.992532, 1, 241, 128, 304
-0.992541, 185, 425, 248, 456
-0.992556, 321, 305, 384, 368
-0.992603, 161, 425, 224, 456
-0.99261, 209, 377, 272, 408
-0.992622, 97, 389, 160, 420
-0.992627, 417, 177, 480, 240
-0.992651, 1, 25, 128, 88
-0.992651, 1, 209, 128, 272
-0.992652, 169, 1, 200, 64
-0.99266, 441, 257, 472, 384
-0.992671, 193, 365, 256, 396
-0.992671, 393, 329, 456, 360
-0.992674, 73, 421, 136, 452
-0.992677, 241, 97, 368, 224
-0.992689, 161, 369, 224, 400
-0.992701, 161, 41, 224, 104
-0.992705, 33, 1, 96, 64
-0.992716, 233, 1, 296, 128
-0.99272, 425, 289, 488, 352
-0.992726, 377, 1, 440, 64
-0.992742, 217, 1, 280, 32
-0.992746, 401, 1, 464, 500
-0.992752, 81, 325, 144, 356
-0.992769, 137, 1, 200, 64
-0.992773, 193, 349, 256, 380
-0.992798, 337, 81, 464, 144
-0.992798, 49, 1, 112, 500
-0.992802, 329, 329, 392, 360
-0.99281, 425, 341, 488, 372
-0.992813, 57, 177, 120, 240
-0.992827, 153, 357, 216, 388
-0.992833, 273, 1, 400, 64
-0.992846, 1, 365, 64, 396
-0.992849, 49, 1, 176, 64
-0.992862, 33, 81, 160, 144
-0.992869, 9, 401, 72, 464
-0.992886, 17, 113, 144, 176
-0.992886, 353, 161, 480, 224
-0.992901, 25, 141, 88, 172
-0.992911, 137, 385, 200, 416
-0.992929, 241, 57, 368, 120
-0.992954, 177, 401, 208, 432
-0.992968, 33, 353, 96, 384
-0.992976, 73, 409, 136, 440
-0.99298, 225, 1, 352, 64
-0.992986, 33, 401, 96, 432
-0.992987, 49, 333, 112, 364
-0.99299, 393, 341, 456, 372
-0.992999, 53, 393, 84, 424
-0.993015, 117, 397, 148, 428
-0.993023, 361, 89, 424, 152
-0.993023, 57, 145, 120, 208
-0.993025, 161, 17, 224, 48
-0.99303, 129, 409, 160, 440
-0.993031, 377, 57, 440, 88
-0.993033, 213, 369, 244, 432
-0.993058, 1, 353, 256, 416
-0.993059, 49, 281, 112, 344
-0.99307, 185, 377, 248, 408
-0.993071, 177, 49, 304, 176
-0.993072, 49, 421, 112, 452
-0.993083, 137, 341, 200, 372
-0.993088, 305, 313, 432, 376
-0.993098, 145, 1, 208, 32
-0.993101, 69, 385, 100, 416
-0.993101, 165, 405, 196, 436
-0.993106, 73, 289, 136, 352
-0.993109, 113, 437, 176, 468
-0.993116, 161, 33, 224, 64
-0.993117, 97, 425, 160, 456
-0.993117, 209, 425, 272, 456
-0.993119, 33, 321, 96, 352
-0.993122, 217, 337, 280, 368
-0.993126, 57, 1, 88, 128
-0.993128, 145, 397, 176, 428
-0.99313, 17, 209, 80, 240
-0.99314, 337, 41, 464, 104
-0.993148, 33, 21, 96, 52
-0.993165, 297, 321, 360, 384
-0.993172, 197, 401, 228, 432
-0.993179, 313, 1, 376, 32
-0.993184, 193, 389, 224, 420
-0.993186, 77, 397, 108, 428
-0.993193, 129, 1, 256, 64
-0.993195, 177, 417, 304, 480
-0.9932, 37, 389, 68, 420
-0.993204, 361, 33, 424, 160
-0.99321, 97, 397, 128, 428
-0.993214, 129, 421, 160, 452
-0.993216, 113, 281, 240, 344
-0.993218, 177, 1, 240, 500
-0.993223, 81, 133, 144, 164
-0.993226, 97, 341, 160, 372
-0.993229, 1, 137, 64, 168
-0.99323, 125, 369, 156, 496
-0.993235, 425, 225, 488, 480
-0.993239, 353, 193, 416, 320
-0.993241, 353, 41, 416, 72
-0.993244, 129, 49, 256, 112
-0.993247, 57, 17, 120, 48
-0.993247, 73, 109, 136, 140
-0.99325, 257, 13, 320, 44
-0.993255, 417, 205, 480, 236
-0.993255, 1, 313, 64, 344
-0.993255, 113, 409, 144, 440
-0.993261, 185, 1, 216, 32
-0.993265, 377, 73, 440, 104
-0.993266, 369, 321, 432, 352
-0.993268, 201, 413, 232, 444
-0.993279, 121, 25, 184, 56
-0.993285, 177, 413, 208, 444
-0.993291, 49, 141, 112, 172
-0.993292, 109, 425, 140, 456
-0.993299, 129, 257, 192, 384
-0.993301, 353, 53, 416, 84
-0.993302, 241, 1, 304, 32
-0.993314, 393, 317, 456, 348
-0.993317, 353, 333, 416, 364
-0.993318, 157, 433, 188, 464
-0.993327, 41, 377, 72, 408
-0.99333, 169, 209, 232, 336
-0.993333, 177, 337, 240, 368
-0.993333, 321, 13, 384, 44
-0.993333, 65, 313, 128, 344
-0.993343, 233, 421, 296, 452
-0.993345, 425, 325, 488, 356
-0.993346, 177, 377, 208, 440
-0.993353, 385, 45, 448, 76
-0.993359, 9, 377, 72, 408
-0.993362, 305, 329, 368, 360
-0.993363, 129, 393, 160, 424
-0.993364, 113, 325, 176, 356
-0.993364, 1, 81, 64, 112
-0.993369, 49, 301, 112, 332
-0.993371, 157, 421, 188, 452
-0.993374, 49, 405, 80, 436
-0.993374, 393, 249, 456, 280
-0.993375, 193, 13, 256, 44
-0.993378, 65, 397, 96, 428
-0.993385, 361, 13, 424, 44
-0.99339, 9, 165, 72, 196
-0.99339, 209, 241, 272, 368
-0.993391, 57, 433, 120, 464
-0.993393, 401, 185, 464, 216
-0.993393, 409, 261, 472, 292
-0.993397, 37, 401, 68, 432
-0.993397, 197, 1, 228, 32
-0.993397, 97, 413, 160, 444
-0.993398, 417, 117, 480, 148
-0.993404, 213, 1, 244, 32
-0.993405, 141, 409, 172, 440
-0.993407, 185, 425, 216, 456
-0.993413, 345, 25, 408, 56
-0.993418, 213, 389, 244, 420
-0.993419, 417, 229, 480, 260
-0.993419, 337, 65, 400, 96
-0.993419, 17, 145, 48, 176
-0.993421, 425, 161, 488, 192
-0.993424, 1, 349, 64, 380
-0.993433, 165, 393, 196, 424
-0.993434, 145, 425, 176, 456
-0.993437, 57, 201, 120, 264
-0.993438, 385, 1, 448, 32
-0.993442, 225, 321, 288, 352
-0.993443, 345, 77, 408, 108
-0.993445, 41, 225, 104, 256
-0.993447, 49, 153, 112, 184
-0.99345, 417, 53, 480, 84
-0.993452, 57, 381, 88, 412
-0.993453, 257, 65, 320, 96
-0.993453, 33, 33, 96, 64
-0.993455, 113, 377, 176, 408
-0.993455, 97, 409, 128, 440
-0.993455, 425, 77, 488, 108
-0.993458, 113, 81, 176, 112
-0.993459, 401, 57, 464, 120
-0.993459, 1, 65, 64, 128
-0.99346, 81, 385, 112, 416
-0.993468, 17, 261, 80, 292
-0.993471, 417, 1, 480, 32
-0.993474, 169, 293, 232, 324
-0.993476, 213, 425, 244, 456
-0.993479, 249, 333, 312, 364
-0.993481, 25, 341, 88, 372
-0.993484, 81, 417, 144, 480
-0.993484, 169, 53, 232, 84
-0.993484, 201, 437, 264, 468
-0.993486, 137, 437, 200, 468
-0.993489, 289, 1, 352, 32
-0.993489, 401, 77, 464, 108
-0.993491, 33, 189, 96, 220
-0.993494, 225, 309, 288, 340
-0.993494, 145, 61, 208, 92
-0.993497, 33, 97, 96, 128
-0.993497, 177, 309, 240, 340
-0.993497, 177, 389, 208, 420
-0.993497, 65, 105, 192, 168
-0.9935, 33, 433, 96, 464
-0.993512, 73, 85, 136, 116
-0.993515, 213, 401, 244, 432
-0.993515, 9, 389, 72, 420
-0.993518, 137, 313, 200, 344
-0.993519, 185, 365, 216, 396
-0.993519, 137, 13, 200, 44
-0.99352, 41, 213, 104, 244
-0.993521, 133, 433, 164, 464
-0.993529, 173, 1, 204, 32
-0.993535, 441, 313, 472, 376
-0.993536, 181, 13, 212, 44
-0.993541, 213, 377, 244, 408
-0.993544, 97, 385, 128, 416
-0.993547, 369, 329, 400, 360
-0.993548, 21, 361, 52, 392
-0.993551, 105, 81, 168, 144
-0.993552, 201, 353, 232, 384
-0.993554, 53, 9, 84, 40
-0.993555, 273, 329, 336, 392
-0.993559, 1, 149, 32, 180
-0.99356, 109, 385, 140, 416
-0.993563, 221, 413, 252, 444
-0.993564, 49, 1, 80, 64
-0.993567, 117, 325, 148, 356
-0.993568, 137, 333, 168, 364
-0.993576, 189, 377, 220, 408
-0.993576, 145, 385, 176, 416
-0.993582, 349, 333, 380, 364
-0.993585, 9, 169, 40, 200
-0.993585, 1, 181, 32, 212
-0.993592, 69, 373, 100, 404
-0.993593, 37, 141, 68, 172
-0.993594, 41, 365, 72, 396
-0.9936, 229, 329, 260, 360
-0.993601, 145, 441, 176, 472
-0.993601, 425, 321, 456, 352
-0.993606, 73, 1, 104, 32
-0.993607, 209, 365, 240, 396
-0.993614, 121, 433, 152, 464
-0.993615, 181, 353, 212, 384
-0.993618, 29, 345, 60, 376
-0.993618, 289, 333, 320, 364
-0.993619, 65, 409, 96, 440
-0.993619, 49, 425, 80, 456
-0.993624, 117, 337, 148, 368
-0.993625, 197, 25, 228, 56
-0.993626, 417, 1, 480, 128
-0.993627, 81, 305, 112, 432
-0.993629, 61, 325, 92, 356
-0.993632, 77, 321, 108, 352
-0.993636, 369, 341, 400, 372
-0.993638, 197, 433, 228, 464
-0.993639, 209, 333, 240, 364
-0.99364, 381, 73, 412, 104
-0.993645, 397, 5, 428, 36
-0.993648, 169, 433, 200, 464
-0.993649, 189, 41, 220, 72
-0.993649, 389, 1, 420, 128
-0.993657, 329, 341, 360, 372
-0.993658, 9, 341, 40, 372
-0.99366, 13, 181, 44, 212
-0.99366, 45, 353, 76, 384
-0.99366, 437, 201, 468, 232
-0.993662, 25, 377, 56, 408
-0.993665, 101, 321, 132, 352
-0.993665, 69, 17, 100, 48
-0.993665, 429, 341, 460, 372
-0.993666, 161, 49, 224, 176
-0.993667, 181, 25, 212, 56
-0.993669, 77, 333, 108, 364
-0.993669, 65, 137, 192, 200
-0.99367, 441, 325, 472, 356
-0.99367, 425, 21, 456, 52
-0.993672, 397, 121, 428, 152
-0.993673, 101, 105, 132, 136
-0.993674, 49, 145, 80, 176
-0.993674, 33, 305, 64, 432
-0.993675, 337, 329, 368, 360
-0.993676, 185, 337, 216, 368
-0.993677, 285, 17, 316, 48
-0.993678, 37, 205, 68, 236
-0.993679, 233, 401, 264, 432
-0.99368, 197, 13, 228, 44
-0.99368, 333, 1, 364, 32
-0.99368, 65, 421, 96, 452
-0.993681, 165, 305, 196, 336
-0.993684, 397, 321, 428, 352
-0.993685, 169, 349, 200, 380
-0.993686, 253, 329, 284, 360
-0.993687, 153, 409, 184, 440
-0.993688, 381, 117, 412, 148
-0.993689, 441, 337, 472, 368
-0.99369, 109, 117, 140, 148
-0.993691, 433, 33, 464, 64
-0.993691, 413, 5, 444, 36
-0.993691, 49, 221, 80, 252
-0.993693, 441, 49, 472, 80
-0.993702, 101, 133, 132, 164
-0.993702, 165, 337, 196, 368
-0.993703, 17, 157, 48, 188
-0.993704, 137, 313, 168, 344
-0.993705, 389, 337, 420, 368
-0.993708, 89, 325, 120, 356
-0.993708, 453, 49, 484, 80
-0.993709, 417, 121, 448, 152
-0.993709, 13, 193, 44, 224
-0.993713, 17, 133, 48, 164
-0.993805, 265, 17, 328, 80
-0.993878, 241, 273, 368, 336
-0.993942, 1, 281, 128, 344
-0.993958, 193, 25, 320, 88
-0.993967, 321, 1, 384, 500
-0.993968, 49, 257, 176, 320
-0.993969, 297, 33, 360, 96
-0.993972, 337, 209, 400, 272
-0.993981, 25, 1, 88, 500
-0.993994, 417, 337, 480, 400
-0.994012, 425, 129, 488, 192
-0.994026, 65, 257, 128, 500
-0.99403, 265, 297, 328, 360
-0.994037, 313, 57, 376, 120
-0.994058, 409, 241, 472, 304
-0.994091, 89, 369, 120, 496
-0.994105, 129, 33, 192, 96
-0.994108, 225, 65, 288, 128
-0.994127, 313, 193, 376, 448
-0.99413, 369, 329, 432, 392
-0.994142, 81, 73, 208, 136
-0.994174, 49, 433, 176, 496
-0.994176, 305, 225, 368, 288
-0.994191, 21, 353, 52, 416
-0.994194, 33, 193, 64, 320
-0.994208, 233, 257, 296, 500
-0.994233, 377, 1, 440, 500
-0.994245, 145, 1, 208, 500
-0.99426, 421, 313, 452, 376
-0.994269, 57, 225, 120, 288
-0.994274, 97, 257, 160, 384
-0.994318, 213, 305, 244, 368
-0.994332, 353, 161, 416, 416
-0.994354, 241, 369, 368, 496
-0.994356, 169, 305, 200, 432
-0.994357, 33, 377, 288, 440
-0.99436, 297, 1, 360, 500
-0.994362, 233, 25, 296, 88
-0.99441, 185, 289, 216, 416
-0.994426, 33, 113, 96, 176
-0.994445, 345, 1, 408, 500
-0.994522, 249, 65, 312, 128
-0.994526, 289, 225, 416, 288
-0.994541, 49, 217, 176, 280
-0.994547, 9, 17, 72, 80
-0.994572, 41, 417, 104, 480
-0.994583, 389, 305, 420, 368
-0.994588, 217, 1, 248, 64
-0.99461, 129, 377, 160, 440
-0.994615, 369, 137, 432, 200
-0.994631, 337, 105, 464, 168
-0.994657, 305, 177, 432, 240
-0.994677, 157, 425, 188, 488
-0.99468, 401, 225, 464, 480
-0.994683, 281, 209, 344, 272
-0.994684, 353, 273, 480, 336
-0.994686, 417, 49, 448, 176
-0.994693, 341, 289, 372, 416
-0.994711, 97, 169, 160, 232
-0.994712, 305, 145, 432, 208
-0.994715, 1, 257, 64, 500
-0.994728, 273, 97, 400, 160
-0.99473, 113, 57, 176, 120
-0.99473, 257, 225, 320, 480
-0.994758, 57, 409, 88, 472
-0.994763, 369, 1, 432, 256
-0.994779, 25, 225, 88, 288
-0.994787, 121, 1, 184, 500
-0.994847, 49, 25, 112, 88
-0.994852, 89, 1, 152, 500
-0.994854, 205, 273, 236, 400
-0.994862, 385, 193, 448, 256
-0.994873, 401, 305, 432, 368
-0.994884, 145, 321, 176, 448
-0.994887, 81, 129, 144, 192
-0.994887, 25, 177, 88, 240
-0.994896, 225, 49, 352, 176
-0.994915, 9, 41, 72, 104
-0.994925, 429, 49, 460, 176
-0.994937, 425, 97, 488, 160
-0.99495, 113, 113, 240, 176
-0.99495, 209, 185, 336, 248
-0.994961, 257, 41, 320, 104
-0.99498, 297, 297, 360, 360
-0.99499, 193, 129, 320, 192
-0.994995, 129, 353, 160, 416
-0.994999, 1, 1, 128, 64
-0.995001, 49, 25, 176, 88
-0.995029, 241, 217, 368, 280
-0.995042, 209, 377, 336, 440
-0.995054, 281, 233, 344, 296
-0.995081, 81, 169, 208, 232
-0.995091, 305, 281, 432, 344
-0.9951, 337, 257, 400, 500
-0.995111, 129, 193, 256, 256
-0.995118, 81, 49, 208, 112
-0.995127, 249, 1, 312, 256
-0.995162, 209, 153, 336, 216
-0.995199, 69, 1, 100, 128
-0.995211, 357, 273, 388, 400
-0.995217, 425, 1, 488, 500
-0.99522, 361, 337, 392, 464
-0.995258, 97, 81, 128, 208
-0.995264, 225, 1, 288, 500
-0.995265, 381, 289, 412, 416
-0.995275, 385, 161, 448, 288
-0.99534, 25, 81, 56, 208
-0.99535, 1, 433, 128, 496
-0.995385, 181, 329, 212, 392
-0.995399, 101, 369, 132, 496
-0.995404, 65, 401, 320, 464
-0.995414, 177, 81, 304, 144
-0.995425, 289, 289, 320, 416
-0.995425, 369, 289, 400, 416
-0.995452, 97, 409, 128, 472
-0.995478, 113, 313, 144, 376
-0.995479, 177, 49, 304, 112
-0.995479, 225, 81, 352, 144
-0.995485, 265, 1, 296, 128
-0.995502, 329, 321, 360, 448
-0.995504, 277, 289, 308, 416
-0.995516, 161, 113, 224, 240
-0.995518, 129, 73, 256, 136
-0.995525, 209, 369, 240, 496
-0.995537, 81, 1, 144, 128
-0.995542, 97, 289, 128, 416
-0.995545, 161, 153, 288, 216
-0.995584, 241, 249, 368, 312
-0.995611, 1, 225, 64, 352
-0.995616, 393, 289, 424, 416
-0.995661, 193, 233, 320, 296
-0.995675, 441, 177, 472, 304
-0.995715, 289, 249, 416, 312
-0.995725, 113, 257, 240, 320
-0.995729, 41, 401, 72, 464
-0.995737, 85, 369, 116, 432
-0.995739, 277, 1, 308, 128
-0.995739, 261, 337, 292, 464
-0.995755, 257, 145, 384, 208
-0.995756, 137, 305, 168, 368
-0.995764, 225, 273, 256, 400
-0.995772, 117, 361, 148, 424
-0.995794, 305, 201, 432, 264
-0.995808, 257, 193, 384, 256
-0.995821, 317, 1, 348, 128
-0.99585, 453, 113, 484, 240
-0.995866, 453, 313, 484, 376
-0.995866, 229, 329, 260, 392
-0.995874, 129, 217, 256, 280
-0.995876, 81, 193, 208, 256
-0.995886, 193, 257, 320, 320
-0.9959, 397, 113, 428, 240
-0.995907, 29, 321, 60, 384
-0.995919, 241, 409, 368, 472
-0.995925, 41, 257, 72, 384
-0.995933, 89, 161, 152, 288
-0.995938, 233, 49, 296, 176
-0.996033, 113, 137, 240, 200
-0.996036, 141, 401, 156, 464
-0.996046, 257, 121, 384, 184
-0.996051, 429, 257, 460, 384
-0.996064, 289, 209, 352, 336
-0.996068, 273, 65, 336, 192
-0.996121, 189, 393, 204, 456
-0.996145, 265, 1, 328, 500
-0.996146, 353, 185, 480, 248
-0.996147, 57, 361, 88, 424
-0.996154, 9, 321, 40, 448
-0.996171, 289, 257, 352, 500
-0.996184, 397, 65, 428, 192
-0.996184, 417, 113, 448, 240
-0.996199, 313, 49, 376, 176
-0.996218, 257, 289, 288, 416
-0.996232, 177, 105, 304, 168
-0.996274, 393, 129, 456, 384
-0.996285, 25, 393, 56, 456
-0.996288, 25, 257, 56, 384
-0.99631, 289, 73, 416, 136
-0.996311, 441, 201, 472, 264
-0.996326, 5, 137, 36, 200
-0.99633, 167, 393, 182, 456
-0.996331, 421, 337, 452, 464
-0.996336, 349, 337, 380, 464
-0.996355, 385, 209, 448, 336
-0.996381, 409, 289, 440, 416
-0.99639, 9, 161, 40, 224
-0.996416, 257, 169, 384, 232
-0.99643, 213, 393, 228, 456
-0.996438, 129, 329, 160, 392
-0.996442, 329, 225, 392, 352
-0.99645, 413, 1, 444, 128
-0.996453, 325, 257, 356, 384
-0.996453, 1, 161, 64, 416
-0.996477, 137, 1, 200, 256
-0.996485, 93, 33, 124, 160
-0.996486, 433, 289, 464, 352
-0.996496, 145, 25, 272, 88
-0.996521, 161, 313, 416, 376
-0.996524, 63, 385, 78, 448
-0.996529, 269, 1, 300, 64
-0.996531, 149, 297, 180, 360
-0.996534, 185, 161, 248, 416
-0.996549, 297, 1, 360, 256
-0.996551, 225, 193, 288, 320
-0.996564, 17, 389, 144, 420
-0.996577, 137, 425, 168, 488
-0.996639, 193, 209, 320, 272
-0.996656, 113, 389, 240, 420
-0.996687, 65, 97, 128, 352
-0.996691, 49, 405, 176, 436
-0.996711, 225, 393, 256, 456
-0.996718, 161, 305, 192, 368
-0.996724, 441, 321, 472, 448
-0.996729, 173, 1, 204, 128
-0.996729, 135, 409, 150, 472
-0.996739, 429, 161, 460, 288
-0.99675, 189, 1, 204, 64
-0.996761, 329, 1, 360, 128
-0.996776, 1, 33, 64, 288
-0.996778, 17, 105, 48, 168
-0.996793, 313, 289, 344, 416
-0.996794, 65, 1, 320, 64
-0.996794, 109, 305, 140, 432
-0.996805, 301, 273, 332, 400
-0.99681, 133, 385, 148, 448
-0.99682, 25, 1, 56, 128
-0.996832, 181, 401, 196, 464
-0.996864, 89, 209, 152, 336
-0.996869, 249, 241, 312, 368
-0.996882, 201, 129, 264, 256
-0.996883, 75, 393, 90, 456
-0.996884, 43, 361, 58, 424
-0.996898, 353, 305, 384, 368
-0.9969, 105, 97, 136, 160
-0.996904, 289, 321, 320, 384
-0.996964, 49, 417, 176, 448
-0.996989, 51, 377, 66, 440
-0.996994, 209, 1, 272, 256
-0.996994, 71, 369, 86, 432
-0.997013, 201, 369, 216, 432
-0.997019, 129, 377, 384, 440
-0.997049, 197, 321, 228, 384
-0.997058, 185, 425, 216, 488
-0.997068, 377, 225, 440, 480
-0.99707, 173, 393, 188, 456
-0.997072, 409, 89, 440, 152
-0.997077, 441, 1, 472, 128
-0.997079, 5, 177, 36, 304
-0.997097, 1, 345, 488, 408
-0.997113, 65, 313, 320, 376
-0.997126, 245, 273, 276, 400
-0.99713, 377, 305, 408, 368
-0.997139, 185, 49, 248, 176
-0.997141, 457, 321, 488, 448
-0.997154, 53, 337, 84, 400
-0.997162, 177, 353, 208, 416
-0.997163, 257, 1, 288, 64
-0.997171, 117, 33, 148, 160
-0.997171, 57, 209, 88, 336
-0.997187, 97, 361, 128, 424
-0.9972, 145, 209, 208, 336
-0.997206, 237, 393, 268, 456
-0.997206, 409, 1, 472, 256
-0.997211, 389, 329, 420, 392
-0.997227, 297, 337, 328, 464
-0.997229, 161, 401, 416, 464
-0.997259, 397, 113, 428, 176
-0.997271, 225, 161, 288, 416
-0.997273, 281, 9, 312, 72
-0.997294, 1, 81, 32, 208
-0.997294, 389, 241, 420, 368
-0.997297, 289, 297, 320, 360
-0.9973, 233, 305, 264, 368
-0.997307, 41, 329, 72, 392
-0.997322, 97, 353, 352, 416
-0.997346, 45, 161, 76, 288
-0.997348, 183, 1, 198, 64
-0.997362, 127, 393, 142, 456
-0.997381, 125, 425, 156, 488
-0.997381, 89, 129, 152, 384
-0.997393, 437, 177, 468, 240
-0.997398, 49, 329, 176, 360
-0.997399, 97, 409, 224, 440
-0.997427, 13, 49, 44, 176
-0.997436, 111, 393, 126, 456
-0.997447, 285, 337, 316, 464
-0.997459, 373, 97, 404, 224
-0.997461, 145, 161, 208, 288
-0.99747, 159, 409, 174, 472
-0.997472, 77, 321, 108, 384
-0.997472, 65, 257, 96, 384
-0.997474, 139, 377, 154, 440
-0.997474, 249, 1, 280, 128
-0.997484, 177, 297, 208, 360
-0.997498, 113, 377, 240, 408
-0.997505, 97, 305, 128, 368
-0.99752, 153, 393, 168, 456
-0.997526, 161, 1, 192, 128
-0.997534, 93, 57, 124, 120
-0.997538, 229, 1, 260, 128
-0.997541, 349, 1, 380, 128
-0.997548, 105, 385, 120, 448
-0.997561, 257, 145, 320, 272
-0.997565, 269, 33, 300, 96
-0.997586, 129, 425, 256, 456
-0.99759, 409, 337, 440, 464
-0.997592, 337, 81, 400, 208
-0.997592, 129, 353, 256, 384
-0.9976, 21, 129, 52, 256
-0.9976, 453, 273, 484, 400
-0.997601, 81, 1, 144, 256
-0.99762, 65, 393, 192, 424
-0.99762, 45, 385, 60, 448
-0.997625, 53, 401, 68, 464
-0.997625, 449, 153, 480, 216
-0.997652, 129, 365, 256, 396
-0.997667, 1, 1, 64, 500
-0.997669, 201, 1, 232, 128
-0.997669, 49, 369, 176, 400
-0.997687, 325, 17, 356, 80
-0.997688, 305, 417, 432, 480
-0.997706, 345, 41, 376, 104
-0.997706, 225, 417, 256, 480
-0.997711, 437, 97, 468, 224
-0.997712, 69, 401, 84, 464
-0.997713, 195, 401, 210, 464
-0.997718, 81, 385, 96, 448
-0.99772, 389, 57, 420, 120
-0.997752, 25, 73, 56, 136
-0.997753, 65, 381, 192, 412
-0.997754, 197, 425, 228, 488
-0.997763, 117, 393, 132, 456
-0.997767, 225, 433, 352, 496
-0.997778, 105, 33, 136, 160
-0.99778, 129, 425, 144, 488
-0.997781, 133, 321, 164, 448
-0.997783, 177, 161, 240, 288
-0.997792, 161, 401, 288, 432
-0.997802, 55, 353, 70, 416
-0.997809, 179, 377, 194, 440
-0.997822, 399, 313, 414, 376
-0.99783, 105, 1, 168, 256
-0.997845, 213, 425, 244, 488
-0.997845, 353, 401, 480, 464
-0.997852, 157, 305, 188, 432
-0.997853, 313, 145, 376, 272
-0.997862, 215, 1, 230, 64
-0.997869, 177, 369, 304, 400
-0.997884, 117, 337, 148, 400
-0.997894, 49, 429, 176, 460
-0.997895, 61, 1, 76, 64
-0.997897, 125, 305, 140, 368
-0.997904, 81, 257, 112, 384
-0.997924, 337, 321, 368, 384
-0.997937, 147, 377, 162, 440
-0.997945, 129, 341, 256, 372
-0.99795, 417, 57, 448, 120
-0.997953, 85, 297, 116, 360
-0.997973, 177, 1, 304, 32
-0.997978, 377, 241, 408, 368
-0.997979, 273, 1, 336, 256
-0.997981, 257, 305, 288, 368
-0.997985, 81, 97, 112, 224
-0.998007, 199, 1, 214, 64
-0.998009, 177, 357, 304, 388
-0.998017, 213, 1, 244, 128
-0.998028, 189, 337, 204, 400
-0.998031, 97, 329, 224, 360
-0.998031, 177, 381, 304, 412
-0.998037, 227, 401, 242, 464
-0.998037, 1, 121, 256, 184
-0.998043, 65, 57, 320, 120
-0.998043, 33, 349, 160, 380
-0.998056, 219, 401, 234, 464
-0.998056, 201, 297, 232, 360
-0.99806, 113, 57, 144, 120
-0.998077, 405, 305, 420, 368
-0.998077, 13, 201, 44, 264
-0.998077, 365, 313, 396, 376
-0.998079, 429, 209, 460, 336
-0.998089, 421, 89, 452, 152
-0.998089, 317, 297, 348, 360
-0.998091, 429, 129, 460, 192
-0.998094, 425, 305, 440, 368
-0.998095, 189, 401, 204, 432
-0.998111, 373, 49, 404, 176
-0.998125, 417, 121, 448, 184
-0.998141, 305, 341, 432, 372
-0.998146, 281, 161, 344, 416
-0.998148, 141, 405, 156, 436
-0.99815, 389, 337, 420, 464
-0.998151, 53, 313, 84, 376
-0.998167, 41, 1, 104, 256
-0.998173, 1, 405, 128, 436
-0.998174, 349, 305, 364, 368
-0.998174, 205, 1, 220, 64
-0.998174, 195, 361, 210, 424
-0.998175, 171, 401, 186, 432
-0.998179, 63, 389, 78, 420
-0.998182, 373, 337, 404, 464
-0.998182, 47, 329, 62, 392
-0.998185, 207, 393, 222, 456
-0.998186, 177, 345, 304, 376
-0.998194, 393, 305, 408, 368
-0.998199, 225, 289, 480, 352
-0.9982, 97, 25, 352, 88
-0.998208, 37, 369, 52, 432
-0.998214, 1, 289, 256, 352
-0.998216, 437, 313, 452, 376
-0.998217, 97, 425, 352, 488
-0.998229, 91, 393, 106, 456
-0.99823, 241, 329, 272, 392
-0.998233, 97, 401, 112, 464
-0.998234, 419, 305, 434, 368
-0.998238, 31, 353, 46, 416
-0.998238, 61, 337, 92, 352
-0.998238, 373, 55, 404, 70
-0.998239, 413, 323, 444, 338
-0.998239, 297, 331, 328, 346
-0.998239, 37, 339, 68, 354
-0.998241, 349, 325, 380, 340
-0.998242, 37, 409, 68, 424
-0.998242, 329, 331, 360, 346
-0.998242, 153, 335, 184, 350
-0.998243, 285, 17, 316, 32
-0.998243, 193, 385, 224, 400
-0.998244, 341, 337, 372, 352
-0.998244, 13, 159, 44, 174
-0.998244, 81, 349, 208, 380
-0.998244, 345, 33, 408, 288
-0.998244, 237, 1, 268, 16
-0.998245, 185, 371, 216, 386
-0.998246, 209, 331, 240, 346
-0.998246, 281, 325, 312, 340
-0.998248, 213, 433, 244, 448
-0.998248, 225, 345, 480, 408
-0.998249, 121, 1, 152, 16
-0.998249, 189, 379, 220, 394
-0.998249, 117, 441, 148, 456
-0.99825, 181, 11, 212, 26
-0.998252, 29, 351, 60, 366
-0.998252, 253, 335, 284, 350
-0.998252, 53, 155, 84, 170
-0.998252, 197, 9, 228, 24
-0.998253, 85, 325, 116, 340
-0.998254, 9, 145, 40, 160
-0.998254, 105, 325, 136, 340
-0.998254, 129, 321, 160, 336
-0.998255, 111, 369, 126, 432
-0.998255, 237, 281, 268, 344
-0.998255, 293, 325, 324, 340
-0.998255, 177, 17, 208, 32
-0.998256, 65, 437, 96, 452
-0.998256, 213, 419, 244, 434
-0.998256, 1, 141, 128, 172
-0.998256, 97, 417, 128, 432
-0.998257, 281, 331, 312, 346
-0.998257, 353, 335, 384, 350
-0.998257, 57, 17, 88, 32
-0.998257, 189, 349, 220, 364
-0.998258, 1, 183, 32, 198
-0.998259, 73, 337, 104, 352
-0.998259, 137, 341, 168, 356
-0.998259, 53, 435, 84, 450
-0.998259, 65, 325, 96, 340
-0.99826, 113, 309, 240, 340
-0.99826, 69, 383, 100, 398
-0.99826, 41, 383, 72, 398
-0.99826, 97, 411, 128, 426
-0.998261, 341, 331, 372, 346
-0.998261, 49, 415, 80, 430
-0.998261, 185, 429, 216, 444
-0.998261, 269, 325, 300, 340
-0.998262, 41, 147, 72, 162
-0.998263, 1, 153, 32, 168
-0.998263, 157, 431, 188, 446
-0.998264, 25, 361, 56, 376
-0.998264, 97, 337, 128, 352
-0.998265, 209, 381, 240, 396
-0.998265, 145, 437, 176, 452
-0.998265, 441, 337, 472, 352
-0.998266, 185, 423, 216, 438
-0.998267, 41, 375, 72, 390
-0.998267, 305, 329, 432, 360
-0.998269, 209, 3, 240, 18
-0.998269, 213, 389, 244, 404
-0.998269, 93, 391, 124, 406
-0.998269, 377, 335, 408, 350
-0.998269, 21, 147, 52, 162
-0.99827, 1, 377, 488, 440
-0.99827, 201, 423, 232, 438
-0.998272, 269, 331, 300, 346
-0.998274, 145, 429, 176, 444
-0.998274, 109, 331, 140, 346
-0.998274, 221, 413, 252, 428
-0.998274, 413, 305, 428, 368
-0.998275, 361, 329, 392, 344
-0.998277, 121, 395, 152, 410
-0.998277, 93, 405, 124, 420
-0.998277, 77, 407, 108, 422
-0.998279, 225, 89, 480, 152
-0.998279, 257, 325, 288, 340
-0.99828, 109, 425, 140, 440
-0.998283, 131, 329, 146, 392
-0.998285, 149, 395, 180, 410
-0.998285, 13, 153, 44, 168
-0.998286, 13, 161, 28, 224
-0.998287, 113, 339, 144, 354
-0.998287, 117, 325, 148, 340
-0.998288, 85, 97, 116, 160
-0.998288, 65, 331, 96, 346
-0.998289, 157, 423, 188, 438
-0.998289, 213, 405, 244, 420
-0.998289, 117, 419, 148, 434
-0.998293, 177, 417, 208, 432
-0.998293, 85, 337, 116, 352
-0.998295, 313, 337, 344, 464
-0.998297, 113, 435, 144, 450
-0.998297, 169, 1, 200, 16
-0.998298, 1, 159, 32, 174
-0.9983, 37, 389, 68, 404
-0.998304, 177, 397, 208, 412
-0.998304, 201, 417, 232, 432
-0.998304, 85, 331, 116, 346
-0.998307, 145, 419, 176, 434
-0.998309, 213, 395, 244, 410
-0.998313, 197, 1, 228, 16
-0.998313, 129, 425, 160, 440
-0.998317, 57, 409, 88, 424
-0.998318, 51, 389, 66, 420
-0.998319, 133, 435, 164, 450
-0.998319, 157, 437, 188, 452
-0.99832, 165, 417, 180, 480
-0.998321, 117, 401, 148, 416
-0.998322, 37, 403, 68, 418
-0.998322, 193, 397, 224, 412
-0.998322, 181, 305, 196, 368
-0.998323, 129, 331, 160, 346
-0.998323, 41, 49, 72, 176
-0.998325, 181, 1, 212, 16
-0.998328, 165, 415, 196, 430
-0.998328, 77, 401, 108, 416
-0.998331, 37, 395, 68, 410
-0.998331, 145, 401, 176, 416
-0.998333, 201, 411, 232, 426
-0.998336, 141, 409, 172, 424
-0.998337, 57, 403, 88, 418
-0.998338, 69, 389, 100, 404
-0.998338, 235, 393, 250, 456
-0.998339, 221, 1, 236, 64
-0.998339, 117, 413, 148, 428
-0.99834, 445, 57, 476, 120
-0.998347, 129, 417, 160, 432
-0.99835, 39, 393, 54, 456
-0.99835, 57, 397, 88, 412
-0.998351, 177, 411, 208, 426
-0.998353, 123, 417, 138, 480
-0.998356, 129, 403, 160, 418
-0.998361, 257, 325, 384, 356
-0.998365, 1, 329, 128, 360
-0.998366, 85, 389, 100, 420
-0.998366, 287, 321, 302, 384
-0.998367, 233, 369, 264, 432
-0.998368, 157, 403, 188, 418
-0.998369, 353, 233, 480, 264
-0.998369, 297, 25, 328, 88
-0.998372, 165, 409, 196, 424
-0.998373, 181, 405, 212, 420
-0.998375, 117, 407, 148, 422
-0.998376, 97, 399, 128, 414
-0.998377, 1, 177, 128, 208
-0.99838, 197, 403, 228, 418
-0.998383, 129, 409, 160, 424
-0.998383, 275, 1, 290, 64
-0.998383, 33, 201, 64, 264
-0.998387, 49, 391, 80, 406
-0.998389, 361, 305, 376, 368
-0.99839, 453, 313, 468, 376
-0.998391, 57, 377, 72, 440
-0.998393, 81, 395, 112, 410
-0.998394, 1, 401, 488, 464
-0.998402, 453, 1, 484, 64
-0.998403, 69, 395, 100, 410
-0.998403, 225, 225, 480, 288
-0.998412, 73, 381, 88, 412
-0.998413, 1, 25, 488, 88
-0.998419, 301, 321, 332, 384
-0.998421, 65, 97, 320, 160
-0.998422, 129, 433, 144, 464
-0.998429, 147, 401, 162, 464
-0.998431, 61, 1, 92, 64
-0.998435, 259, 305, 274, 368
-0.998436, 5, 185, 20, 248
-0.99844, 47, 305, 62, 368
-0.998441, 135, 305, 150, 368
-0.998444, 323, 1, 338, 64
-0.998444, 165, 257, 196, 500
-0.998451, 133, 393, 148, 424
-0.998457, 225, 129, 480, 192
-0.998461, 169, 403, 200, 418
-0.998462, 9, 321, 40, 384
-0.998462, 377, 337, 408, 400
-0.998466, 225, 97, 288, 224
-0.998467, 33, 309, 160, 340
-0.998469, 195, 329, 210, 392
-0.998473, 133, 417, 148, 448
-0.998473, 49, 353, 64, 416
-0.998473, 129, 1, 256, 32
-0.99848, 139, 353, 154, 416
-0.998486, 11, 137, 26, 200
-0.998488, 191, 1, 206, 32
-0.998491, 447, 321, 462, 384
-0.998492, 1, 417, 128, 448
-0.998493, 177, 25, 208, 88
-0.998495, 129, 289, 384, 352
-0.998496, 1, 229, 128, 260
-0.998498, 191, 305, 206, 368
-0.998506, 117, 257, 148, 500
-0.998511, 355, 305, 370, 368
-0.998518, 293, 321, 308, 384
-0.998519, 273, 9, 400, 40
-0.99852, 353, 353, 480, 416
-0.998521, 177, 13, 304, 44
-0.998524, 69, 305, 84, 368
-0.998524, 55, 1, 70, 64
-0.998528, 249, 49, 280, 176
-0.998532, 211, 345, 226, 408
-0.998536, 225, 65, 480, 128
-0.998536, 137, 113, 200, 240
-0.998537, 165, 329, 196, 392
-0.998539, 433, 153, 464, 216
-0.998539, 401, 329, 432, 392
-0.998541, 1, 185, 32, 248
-0.998541, 69, 417, 100, 480
-0.998544, 265, 57, 280, 120
-0.998545, 353, 377, 480, 440
-0.998553, 257, 385, 384, 448
-0.998553, 393, 89, 424, 152
-0.998554, 145, 53, 272, 84
-0.998561, 395, 337, 410, 400
-0.998566, 241, 337, 368, 368
-0.998566, 213, 401, 228, 432
-0.998567, 41, 337, 56, 400
-0.998568, 161, 1, 416, 64
-0.998568, 1, 145, 16, 208
-0.998577, 107, 397, 122, 428
-0.998578, 367, 305, 382, 368
-0.998579, 339, 321, 354, 384
-0.998579, 123, 369, 138, 432
-0.998581, 321, 1, 384, 256
-0.998581, 353, 221, 480, 252
-0.998581, 315, 25, 330, 88
-0.998587, 183, 329, 198, 392
-0.998587, 45, 209, 76, 336
-0.998593, 87, 369, 102, 432
-0.998597, 155, 281, 170, 344
-0.998598, 209, 433, 224, 496
-0.9986, 389, 337, 404, 400
-0.9986, 201, 409, 216, 472
-0.998601, 177, 437, 304, 468
-0.998602, 233, 305, 248, 368
-0.998607, 141, 33, 172, 160
-0.998607, 159, 385, 174, 448
-0.998607, 1, 21, 128, 52
-0.998607, 213, 1, 228, 32
-0.998608, 269, 1, 284, 64
-0.99861, 193, 413, 256, 428
-0.998612, 471, 153, 486, 216
-0.998614, 353, 265, 480, 296
-0.998618, 19, 177, 34, 240
-0.998618, 345, 17, 376, 80
-0.998619, 21, 209, 52, 336
-0.998622, 111, 417, 126, 480
-0.998625, 225, 369, 480, 432
-0.998626, 169, 401, 232, 416
-0.998626, 75, 289, 90, 352
-0.998627, 233, 425, 248, 488
-0.998631, 431, 305, 446, 368
-0.998635, 205, 345, 220, 408
-0.998636, 403, 121, 418, 184
-0.998637, 385, 49, 416, 176
-0.998638, 97, 377, 112, 440
-0.998639, 193, 407, 256, 422
-0.998641, 225, 369, 240, 432
-0.998641, 193, 33, 448, 96
-0.998642, 225, 313, 240, 376
-0.998642, 161, 293, 288, 324
-0.998643, 153, 413, 216, 428
-0.998644, 17, 137, 32, 200
-0.998646, 177, 401, 192, 432
-0.998651, 161, 413, 288, 444
-0.998652, 71, 393, 86, 424
-0.998655, 241, 21, 368, 52
-0.998655, 73, 399, 136, 414
-0.998657, 33, 397, 96, 412
-0.99866, 409, 129, 424, 192
-0.99866, 165, 297, 180, 360
-0.998661, 425, 225, 456, 288
-0.998662, 67, 421, 82, 452
-0.998663, 59, 409, 74, 472
-0.998664, 353, 329, 480, 360
-0.998666, 377, 305, 392, 368
-0.998666, 97, 401, 160, 416
-0.998666, 407, 89, 422, 152
-0.998667, 153, 425, 168, 488
-0.998667, 147, 353, 162, 416
-0.998667, 193, 419, 256, 434
-0.998669, 9, 273, 40, 400
-0.99867, 1, 157, 128, 188
-0.998671, 193, 401, 256, 416
-0.998671, 129, 405, 144, 436
-0.998674, 169, 419, 232, 434
-0.998675, 121, 405, 184, 420
-0.998677, 49, 221, 176, 252
-0.998678, 81, 331, 144, 346
-0.998678, 177, 1, 240, 16
-0.998679, 67, 1, 82, 64
-0.99868, 129, 411, 192, 426
-0.998682, 49, 331, 112, 346
-0.998682, 171, 417, 186, 480
-0.998684, 217, 409, 280, 424
-0.998684, 1, 377, 128, 408
-0.998685, 209, 393, 272, 408
-0.998687, 33, 383, 96, 398
-0.998689, 57, 337, 120, 352
-0.998689, 81, 337, 144, 352
-0.998691, 247, 1, 262, 64
-0.998691, 33, 377, 96, 392
-0.998693, 153, 407, 216, 422
-0.998693, 193, 427, 256, 442
-0.998693, 219, 305, 234, 368
-0.998693, 73, 405, 136, 420
-0.998693, 201, 377, 264, 392
-0.998694, 169, 395, 232, 410
-0.998696, 1, 147, 64, 162
-0.998698, 1, 161, 256, 224
-0.998698, 217, 417, 280, 432
-0.9987, 233, 329, 248, 392
-0.998701, 233, 325, 296, 340
-0.998701, 329, 333, 392, 348
-0.998703, 337, 317, 464, 348
-0.998703, 353, 17, 368, 80
-0.998704, 117, 369, 132, 432
-0.998704, 25, 391, 88, 406
-0.998704, 33, 201, 288, 264
-0.998705, 217, 3, 280, 18
-0.998705, 153, 425, 216, 440
-0.998705, 105, 411, 168, 426
-0.998705, 57, 393, 120, 408
-0.998707, 129, 395, 192, 410
-0.998708, 81, 9, 208, 40
-0.998709, 347, 33, 362, 96
-0.99871, 33, 371, 96, 386
-0.99871, 153, 1, 216, 16
-0.99871, 121, 431, 184, 446
-0.99871, 121, 437, 184, 452
-0.99871, 45, 369, 60, 400
-0.998711, 193, 371, 256, 386
-0.998712, 265, 325, 328, 340
-0.998712, 209, 387, 272, 402
-0.998713, 217, 403, 280, 418
-0.998713, 33, 15, 96, 30
-0.998715, 81, 325, 144, 340
-0.998715, 129, 417, 192, 432
-0.998716, 1, 217, 128, 248
-0.998718, 73, 435, 136, 450
-0.998718, 81, 49, 112, 176
-0.99872, 145, 401, 208, 416
-0.998721, 1, 153, 64, 168
-0.998721, 425, 339, 488, 354
-0.998722, 73, 419, 136, 434
-0.998722, 161, 375, 224, 390
-0.998722, 297, 1, 328, 128
-0.998723, 353, 325, 416, 340
-0.998723, 121, 423, 184, 438
-0.998723, 161, 33, 224, 48
-0.998724, 393, 339, 456, 354
-0.998724, 225, 319, 288, 334
-0.998724, 25, 337, 88, 352
-0.998724, 33, 143, 96, 158
-0.998724, 97, 395, 160, 410
-0.998725, 193, 9, 256, 24
-0.998729, 193, 365, 256, 380
-0.99873, 305, 331, 368, 346
-0.99873, 393, 59, 456, 74
-0.998731, 153, 23, 216, 38
-0.998732, 257, 331, 320, 346
-0.998732, 393, 345, 456, 360
-0.998732, 169, 381, 232, 396
-0.998732, 41, 325, 104, 340
-0.998733, 33, 21, 96, 36
-0.998734, 73, 111, 136, 126
-0.998734, 73, 425, 136, 440
-0.998734, 105, 443, 168, 458
-0.998734, 217, 423, 280, 438
-0.998735, 49, 1, 112, 16
-0.998735, 209, 329, 272, 344
-0.998735, 105, 331, 168, 346
-0.998735, 33, 403, 96, 418
-0.998735, 25, 149, 88, 164
-0.998736, 105, 417, 168, 432
-0.998736, 377, 75, 440, 90
-0.998736, 233, 335, 296, 350
-0.998736, 289, 337, 352, 352
-0.998738, 33, 1, 160, 32
-0.998738, 9, 163, 72, 178
-0.998739, 177, 349, 240, 364
-0.998739, 97, 437, 160, 452
-0.998739, 33, 365, 96, 380
-0.998739, 361, 65, 424, 80
-0.998739, 329, 327, 392, 342
-0.998739, 79, 393, 94, 424
-0.99874, 169, 9, 232, 24
-0.998741, 25, 331, 88, 346
-0.998741, 121, 337, 184, 352
-0.998742, 161, 437, 224, 452
-0.998743, 193, 357, 256, 372
-0.998744, 49, 343, 112, 358
-0.998745, 33, 435, 96, 450
-0.998745, 185, 389, 248, 404
-0.998746, 289, 325, 352, 340
-0.998747, 73, 105, 136, 120
-0.998747, 113, 325, 176, 340
-0.998747, 1, 367, 64, 382
-0.998748, 129, 443, 192, 458
-0.998748, 345, 339, 408, 354
-0.998748, 401, 259, 464, 274
-0.998748, 153, 367, 216, 382
-0.998748, 181, 389, 196, 420
-0.998749, 409, 267, 472, 282
-0.998749, 17, 249, 80, 264
-0.998749, 57, 217, 120, 232
-0.99875, 185, 435, 248, 450
-0.99875, 25, 345, 88, 360
-0.99875, 65, 21, 192, 52
-0.998751, 73, 119, 136, 134
-0.998751, 9, 209, 72, 224
-0.998752, 57, 21, 120, 36
-0.998752, 217, 345, 280, 360
-0.998752, 289, 233, 352, 248
-0.998753, 65, 53, 192, 84
-0.998753, 393, 325, 456, 340
-0.998753, 17, 81, 144, 112
-0.998754, 17, 351, 80, 366
-0.998754, 353, 55, 416, 70
-0.998755, 137, 39, 200, 54
-0.998755, 257, 13, 320, 28
-0.998755, 265, 319, 328, 334
-0.998756, 425, 177, 488, 192
-0.998756, 9, 141, 72, 156
-0.998756, 193, 15, 256, 30
-0.998756, 417, 345, 480, 360
-0.998756, 41, 307, 104, 322
-0.998756, 163, 429, 178, 460
-0.998756, 1, 87, 64, 102
-0.998756, 121, 343, 184, 358
-0.998757, 73, 411, 136, 426
-0.998766, 305, 29, 432, 60
-0.998767, 321, 5, 448, 36
-0.998768, 97, 389, 112, 420
-0.998769, 145, 257, 176, 500
-0.99877, 49, 277, 176, 308
-0.998772, 43, 381, 58, 412
-0.998776, 33, 205, 160, 236
-0.998777, 181, 413, 196, 444
-0.998779, 49, 129, 176, 160
-0.99878, 91, 397, 106, 428
-0.998783, 165, 405, 180, 436
-0.998784, 373, 161, 404, 288
-0.998792, 353, 85, 480, 116
-0.998795, 161, 309, 288, 340
-0.998795, 219, 1, 234, 32
-0.998798, 337, 41, 464, 72
-0.998802, 97, 101, 224, 132
-0.998806, 113, 97, 176, 352
-0.998807, 123, 429, 138, 460
-0.998808, 49, 141, 176, 172
-0.998809, 53, 401, 68, 432
-0.99881, 81, 1, 112, 128
-0.998811, 193, 333, 320, 364
-0.998813, 353, 73, 480, 104
-0.998817, 179, 425, 194, 456
-0.99882, 353, 169, 480, 200
-0.998823, 1, 189, 128, 220
-0.998833, 55, 377, 70, 408
-0.998836, 1, 425, 256, 488
-0.998837, 13, 149, 28, 180
-0.998837, 49, 233, 176, 264
-0.998837, 209, 425, 336, 456
-0.99884, 61, 405, 76, 436
-0.998843, 65, 181, 192, 212
-0.998847, 353, 425, 480, 488
-0.998855, 321, 157, 448, 188
-0.998856, 353, 117, 480, 148
-0.998856, 1, 433, 128, 464
-0.998856, 41, 393, 56, 424
-0.998856, 123, 417, 138, 448
-0.998864, 47, 401, 62, 432
-0.998864, 145, 321, 272, 352
-0.998872, 1, 285, 128, 316
-0.998873, 197, 365, 212, 396
-0.998877, 123, 405, 138, 436
-0.998878, 353, 253, 480, 284
-0.998879, 1, 129, 128, 160
-0.998879, 157, 425, 172, 456
-0.998888, 121, 393, 136, 424
-0.998891, 129, 13, 256, 44
-0.998895, 65, 13, 80, 44
-0.998901, 135, 329, 150, 360
-0.998907, 205, 1, 220, 32
-0.99891, 273, 337, 304, 464
-0.998925, 157, 437, 172, 468
-0.998929, 205, 381, 220, 412
-0.998935, 113, 37, 240, 68
-0.998936, 185, 1, 200, 32
-0.998939, 117, 409, 132, 440
-0.99894, 149, 389, 164, 420
-0.998942, 9, 1, 40, 128
-0.998944, 151, 409, 166, 440
-0.998945, 265, 193, 328, 320
-0.998945, 183, 401, 198, 432
-0.998946, 199, 1, 214, 32
-0.998948, 241, 309, 368, 340
-0.998948, 113, 65, 240, 96
-0.998949, 139, 421, 154, 452
-0.998949, 19, 173, 34, 204
-0.998953, 71, 405, 86, 436
-0.998957, 257, 221, 384, 252
-0.998958, 225, 245, 352, 276
-0.998958, 225, 257, 352, 288
-0.998961, 19, 189, 34, 220
-0.998964, 305, 61, 432, 92
-0.998966, 1, 97, 128, 128
-0.998969, 187, 353, 202, 384
-0.99897, 1, 257, 256, 320
-0.998971, 67, 377, 82, 408
-0.998973, 181, 337, 196, 368
-0.998974, 241, 273, 368, 304
-0.998976, 35, 357, 50, 388
-0.998977, 305, 253, 432, 284
-0.998983, 353, 193, 480, 224
-0.998983, 257, 117, 384, 148
-0.998986, 205, 433, 220, 464
-0.998986, 289, 81, 416, 112
-0.998995, 193, 25, 320, 56
-0.998996, 353, 205, 480, 236
-0.998998, 165, 417, 180, 448
-0.999002, 257, 145, 384, 176
-0.999002, 7, 129, 22, 160
-0.999004, 187, 341, 202, 372
-0.999007, 97, 129, 128, 256
-0.999007, 189, 257, 220, 500
-0.999007, 113, 397, 128, 428
-0.999009, 321, 129, 448, 160
-0.999014, 113, 421, 128, 452
-0.999014, 101, 401, 116, 432
-0.999023, 47, 357, 62, 388
-0.999023, 385, 333, 400, 364
-0.999023, 193, 321, 320, 352
-0.999024, 365, 329, 380, 360
-0.999027, 111, 409, 126, 440
-0.99903, 143, 393, 158, 424
-0.999035, 13, 189, 28, 220
-0.999037, 19, 161, 34, 192
-0.999039, 457, 161, 488, 288
-0.999041, 159, 401, 174, 432
-0.999041, 81, 321, 96, 352
-0.999047, 23, 141, 38, 172
-0.999049, 129, 325, 144, 356
-0.999049, 1, 117, 128, 148
-0.999049, 1, 97, 488, 160
-0.99905, 213, 257, 244, 500
-0.999052, 1, 241, 128, 272
-0.999053, 65, 89, 192, 120
-0.999053, 129, 437, 256, 468
-0.999055, 225, 177, 480, 240
-0.999057, 343, 329, 358, 360
-0.999059, 177, 97, 304, 128
-0.999059, 41, 129, 104, 384
-0.99906, 1, 33, 256, 96
-0.999061, 233, 321, 248, 352
-0.999064, 61, 377, 76, 408
-0.999067, 185, 13, 200, 44
-0.999068, 205, 353, 220, 384
-0.999069, 113, 137, 240, 168
-0.999071, 313, 209, 344, 336
-0.999071, 135, 433, 150, 464
-0.999074, 31, 145, 46, 176
-0.999076, 113, 117, 240, 148
-0.999076, 251, 1, 266, 32
-0.999077, 397, 41, 412, 72
-0.999078, 65, 113, 192, 144
-0.999078, 33, 265, 160, 296
-0.99908, 45, 25, 60, 56
-0.999081, 133, 257, 164, 500
-0.999083, 159, 413, 174, 444
-0.999085, 225, 61, 352, 92
-0.999086, 341, 341, 356, 372
-0.999088, 123, 321, 138, 352
-0.999088, 431, 341, 446, 372
-0.999089, 171, 389, 186, 420
-0.99909, 13, 177, 28, 208
-0.999092, 225, 333, 240, 364
-0.999093, 287, 325, 302, 356
-0.999094, 441, 325, 456, 356
-0.9991, 65, 33, 192, 64
-0.999101, 191, 13, 206, 44
-0.999103, 151, 425, 166, 456
-0.999103, 225, 5, 352, 36
-0.999103, 187, 413, 202, 444
-0.999105, 195, 409, 210, 440
-0.999106, 197, 425, 212, 456
-0.999107, 13, 137, 28, 168
-0.999108, 49, 441, 176, 472
-0.99911, 57, 389, 72, 420
-0.999111, 193, 133, 320, 164
-0.999113, 71, 17, 86, 48
-0.999113, 257, 37, 384, 68
-0.999114, 111, 385, 126, 416
-0.999114, 129, 153, 384, 216
-0.999116, 65, 65, 192, 96
-0.999118, 57, 209, 72, 240
-0.999118, 293, 329, 308, 360
-0.99912, 65, 193, 192, 224
-0.999126, 161, 277, 288, 308
-0.999127, 79, 333, 94, 364
-0.999129, 241, 293, 368, 324
-0.999131, 231, 333, 246, 364
-0.999132, 231, 1, 246, 32
-0.999133, 175, 413, 190, 444
-0.999133, 225, 1, 240, 32
-0.999133, 51, 417, 66, 448
-0.999135, 195, 25, 210, 56
-0.999135, 405, 317, 420, 348
-0.999138, 217, 425, 232, 456
-0.999142, 13, 161, 28, 192
-0.999144, 37, 85, 52, 116
-0.999145, 349, 333, 364, 364
-0.999145, 207, 397, 222, 428
-0.999146, 65, 153, 192, 184
-0.999146, 129, 341, 144, 372
-0.999147, 225, 425, 240, 456
-0.999148, 391, 341, 406, 372
-0.999151, 111, 321, 126, 352
-0.999152, 79, 405, 94, 436
-0.999153, 87, 321, 102, 352
-0.999154, 97, 257, 128, 500
-0.999155, 1, 41, 128, 72
-0.999155, 289, 105, 416, 136
-0.999155, 129, 217, 256, 248
-0.999155, 7, 145, 22, 176
-0.999157, 1, 57, 488, 120
-0.999159, 371, 333, 386, 364
-0.999159, 213, 413, 228, 444
-0.999163, 1, 177, 488, 240
-0.999165, 393, 193, 424, 320
-0.999168, 353, 341, 480, 372
-0.999171, 113, 25, 240, 56
-0.999174, 337, 97, 464, 128
-0.999177, 129, 77, 256, 108
-0.99918, 225, 97, 352, 128
-0.999189, 1, 305, 488, 368
-0.999209, 117, 257, 148, 384
-0.999243, 225, 201, 480, 264
-0.999253, 437, 225, 468, 480
-0.999258, 305, 385, 432, 448
-0.999259, 429, 1, 460, 128
-0.999261, 129, 177, 384, 240
-0.999312, 203, 353, 218, 480
-0.999312, 201, 257, 232, 500
-0.999325, 137, 369, 152, 496
-0.99934, 129, 129, 384, 192
-0.999353, 57, 257, 88, 500
-0.999357, 133, 321, 148, 448
-0.999362, 189, 353, 204, 480
-0.99938, 1, 225, 256, 288
-0.999383, 167, 369, 182, 496
-0.999385, 225, 153, 480, 216
-0.999385, 129, 265, 384, 328
-0.999403, 193, 425, 448, 488
-0.999409, 177, 257, 208, 500
-0.999413, 75, 337, 90, 464
-0.99942, 181, 353, 196, 480
-0.999422, 43, 337, 58, 464
-0.999422, 1, 137, 488, 200
-0.999425, 65, 369, 80, 496
-0.999443, 225, 249, 480, 312
-0.99945, 209, 353, 224, 480
-0.99946, 233, 257, 264, 500
-0.999465, 73, 257, 104, 500
-0.999466, 53, 1, 84, 256
-0.999468, 59, 13, 74, 28
-0.999468, 179, 7, 194, 22
-0.999469, 193, 25, 208, 40
-0.999469, 267, 331, 282, 346
-0.999469, 191, 349, 206, 364
-0.999469, 59, 413, 74, 428
-0.999469, 365, 329, 380, 344
-0.999469, 103, 331, 118, 346
-0.999469, 23, 155, 38, 170
-0.999469, 201, 7, 216, 22
-0.999469, 225, 337, 240, 464
-0.99947, 157, 431, 172, 446
-0.99947, 349, 333, 364, 348
-0.99947, 193, 413, 208, 428
-0.99947, 37, 361, 52, 376
-0.99947, 205, 435, 220, 450
-0.99947, 11, 151, 26, 166
-0.999471, 341, 341, 356, 356
-0.999471, 183, 353, 198, 368
-0.999471, 385, 335, 400, 350
-0.999471, 273, 331, 288, 346
-0.999472, 229, 325, 244, 340
-0.999472, 85, 325, 100, 340
-0.999472, 343, 331, 358, 346
-0.999472, 203, 421, 218, 436
-0.999472, 61, 405, 76, 420
-0.999473, 71, 335, 86, 350
-0.999473, 11, 145, 26, 160
-0.999473, 127, 443, 142, 458
-0.999473, 333, 239, 348, 254
-0.999473, 33, 149, 48, 164
-0.999473, 89, 403, 104, 418
-0.999474, 153, 425, 168, 440
-0.999474, 133, 1, 148, 16
-0.999474, 305, 325, 320, 340
-0.999475, 71, 17, 86, 32
-0.999475, 181, 343, 196, 358
-0.999475, 177, 1, 192, 16
-0.999475, 13, 187, 28, 202
-0.999476, 123, 415, 138, 430
-0.999476, 135, 337, 150, 352
-0.999477, 57, 393, 72, 408
-0.999477, 163, 427, 178, 442
-0.999478, 283, 341, 298, 356
-0.999478, 191, 13, 206, 28
-0.999478, 161, 403, 176, 418
-0.99948, 97, 337, 112, 352
-0.99948, 43, 377, 58, 392
-0.99948, 357, 327, 372, 342
-0.999481, 41, 257, 72, 500
-0.999482, 163, 435, 178, 450
-0.999483, 103, 337, 118, 352
-0.999483, 121, 395, 136, 410
-0.999483, 41, 397, 56, 412
-0.999484, 73, 391, 88, 406
-0.999484, 187, 343, 202, 358
-0.999484, 357, 335, 372, 350
-0.999485, 69, 403, 84, 418
-0.999485, 247, 1, 262, 16
-0.999485, 293, 325, 308, 340
-0.999485, 97, 331, 112, 346
-0.999486, 349, 341, 364, 356
-0.999486, 81, 401, 96, 416
-0.999486, 121, 401, 136, 416
-0.999486, 139, 421, 154, 436
-0.999486, 21, 145, 36, 160
-0.999487, 47, 389, 62, 404
-0.999487, 7, 157, 22, 172
-0.999487, 223, 327, 238, 342
-0.999487, 289, 331, 304, 346
-0.999489, 95, 401, 110, 416
-0.99949, 71, 381, 86, 396
-0.99949, 283, 331, 298, 346
-0.999491, 217, 337, 232, 464
-0.999491, 51, 401, 66, 416
-0.999491, 321, 193, 352, 448
-0.999491, 165, 417, 180, 432
-0.999491, 147, 401, 162, 416
-0.999491, 283, 325, 298, 340
-0.999492, 15, 161, 30, 176
-0.999492, 159, 419, 174, 434
-0.999492, 199, 1, 214, 16
-0.999492, 89, 337, 104, 352
-0.999494, 133, 325, 148, 340
-0.999494, 41, 389, 56, 404
-0.999494, 209, 1, 224, 16
-0.999495, 69, 409, 84, 424
-0.999496, 157, 437, 172, 452
-0.999498, 67, 425, 82, 440
-0.999498, 71, 397, 86, 412
-0.9995, 135, 331, 150, 346
-0.999501, 127, 325, 142, 340
-0.999501, 273, 325, 288, 340
-0.999501, 123, 433, 138, 448
-0.999501, 145, 161, 208, 416
-0.999502, 43, 383, 58, 398
-0.999503, 135, 435, 150, 450
-0.999503, 189, 305, 204, 432
-0.999503, 91, 331, 106, 346
-0.999503, 53, 407, 68, 422
-0.999505, 17, 153, 32, 168
-0.999506, 63, 397, 78, 412
-0.999506, 171, 407, 186, 422
-0.999506, 133, 417, 148, 432
-0.999507, 189, 7, 204, 22
-0.999507, 79, 327, 94, 342
-0.999507, 153, 369, 168, 496
-0.999508, 221, 1, 236, 16
-0.999508, 267, 325, 282, 340
-0.999509, 181, 413, 196, 428
-0.999511, 215, 7, 230, 22
-0.999511, 51, 395, 66, 410
-0.999511, 197, 353, 212, 480
-0.999512, 129, 331, 144, 346
-0.999512, 125, 337, 140, 352
-0.999512, 133, 425, 148, 440
-0.999512, 201, 1, 264, 500
-0.999514, 85, 331, 100, 346
-0.999514, 95, 395, 110, 410
-0.999516, 135, 401, 150, 416
-0.99952, 181, 407, 196, 422
-0.999521, 213, 403, 228, 418
-0.999522, 189, 407, 204, 422
-0.999526, 215, 1, 230, 16
-0.999526, 55, 387, 70, 402
-0.999526, 181, 397, 196, 412
-0.999527, 129, 369, 144, 496
-0.999528, 129, 431, 144, 446
-0.99953, 65, 1, 80, 128
-0.99953, 37, 321, 52, 448
-0.999532, 29, 257, 60, 500
-0.999534, 79, 333, 94, 348
-0.999537, 49, 353, 64, 480
-0.999539, 109, 399, 124, 414
-0.999543, 105, 369, 120, 496
-0.999546, 141, 413, 156, 428
-0.999546, 131, 407, 146, 422
-0.99955, 183, 1, 198, 16
-0.999558, 237, 321, 252, 448
-0.999559, 111, 353, 126, 480
-0.99956, 81, 369, 96, 496
-0.99956, 129, 437, 144, 452
-0.999562, 59, 369, 74, 496
-0.999564, 81, 305, 96, 432
-0.999564, 87, 289, 102, 416
-0.999574, 257, 257, 288, 500
-0.999575, 73, 1, 88, 128
-0.999579, 143, 407, 158, 422
-0.999579, 143, 353, 158, 480
-0.999582, 63, 391, 78, 406
-0.999582, 19, 145, 34, 272
-0.999582, 339, 305, 354, 432
-0.999588, 199, 305, 214, 432
-0.999592, 189, 401, 204, 416
-0.999596, 1, 1, 488, 64
-0.999597, 175, 353, 190, 480
-0.999598, 189, 1, 204, 16
-0.9996, 449, 193, 480, 448
-0.999601, 443, 257, 458, 384
-0.999606, 67, 321, 82, 448
-0.999608, 73, 289, 88, 416
-0.999609, 171, 401, 186, 416
-0.999611, 55, 321, 70, 448
-0.999611, 373, 193, 404, 448
-0.999614, 185, 1, 200, 128
-0.999615, 451, 273, 466, 400
-0.999617, 85, 395, 100, 410
-0.999622, 85, 257, 116, 500
-0.99963, 181, 305, 196, 432
-0.999631, 347, 257, 362, 384
-0.999631, 97, 289, 112, 416
-0.999636, 353, 321, 368, 448
-0.999636, 333, 225, 364, 480
-0.999642, 87, 369, 102, 496
-0.999642, 117, 369, 132, 496
-0.999642, 7, 113, 22, 240
-0.999646, 103, 289, 118, 416
-0.999646, 305, 225, 336, 480
-0.999647, 111, 65, 126, 192
-0.999648, 363, 321, 378, 448
-0.999649, 181, 1, 212, 256
-0.999651, 427, 97, 442, 224
-0.999656, 409, 65, 424, 192
-0.999657, 81, 1, 96, 128
-0.999657, 23, 289, 38, 416
-0.999659, 293, 193, 324, 448
-0.999661, 425, 161, 456, 416
-0.999662, 31, 289, 46, 416
-0.999662, 215, 289, 230, 416
-0.999663, 127, 305, 142, 432
-0.999663, 215, 1, 230, 128
-0.999665, 123, 369, 138, 496
-0.999666, 253, 305, 268, 432
-0.999668, 281, 1, 296, 128
-0.999672, 101, 97, 116, 224
-0.999672, 13, 129, 28, 256
-0.999673, 371, 289, 386, 416
-0.999673, 179, 257, 194, 384
-0.999675, 95, 337, 110, 464
-0.999676, 377, 321, 392, 448
-0.999677, 1, 161, 16, 288
-0.999679, 431, 49, 446, 176
-0.999681, 43, 193, 58, 320
-0.999681, 129, 233, 384, 296
-0.999682, 125, 1, 156, 256
-0.999683, 345, 321, 360, 448
-0.999684, 231, 369, 246, 496
-0.999687, 381, 1, 412, 256
-0.999688, 207, 305, 222, 432
-0.999692, 391, 321, 406, 448
-0.999692, 45, 289, 60, 416
-0.999692, 161, 369, 176, 496
-0.999693, 103, 49, 118, 176
-0.999693, 437, 337, 452, 464
-0.999696, 273, 273, 288, 400
-0.999697, 293, 273, 308, 400
-0.9997, 429, 337, 444, 464
-0.999701, 407, 289, 422, 416
-0.999702, 13, 33, 44, 288
-0.999702, 29, 337, 44, 464
-0.999702, 153, 1, 184, 256
-0.999702, 109, 305, 124, 432
-0.999703, 29, 241, 44, 368
-0.999703, 383, 321, 398, 448
-0.999703, 229, 1, 244, 128
-0.999703, 263, 337, 278, 464
-0.999704, 333, 257, 348, 384
-0.999704, 387, 273, 402, 400
-0.999705, 401, 257, 416, 384
-0.999706, 461, 1, 476, 128
-0.999707, 459, 305, 474, 432
-0.999708, 281, 193, 312, 448
-0.99971, 287, 289, 302, 416
-0.99971, 165, 1, 196, 256
-0.999711, 7, 177, 22, 304
-0.999711, 225, 273, 240, 400
-0.999711, 119, 33, 134, 160
-0.999712, 37, 257, 52, 384
-0.999712, 37, 369, 52, 496
-0.999713, 435, 145, 450, 272
-0.999713, 267, 1, 282, 128
-0.999716, 61, 321, 76, 448
-0.999717, 259, 289, 274, 416
-0.999717, 233, 273, 248, 400
-0.999717, 121, 321, 136, 448
-0.999718, 465, 305, 480, 432
-0.999718, 287, 1, 302, 128
-0.999718, 357, 273, 372, 400
-0.99972, 139, 305, 154, 432
-0.999721, 393, 1, 408, 128
-0.999721, 437, 273, 452, 400
-0.999721, 243, 321, 258, 448
-0.999726, 339, 257, 354, 384
-0.999728, 407, 1, 422, 128
-0.999728, 365, 273, 380, 400
-0.999729, 379, 273, 394, 400
-0.999729, 297, 1, 312, 128
-0.99973, 47, 49, 62, 176
-0.99973, 119, 81, 134, 208
-0.999731, 359, 1, 374, 128
-0.999731, 189, 257, 204, 384
-0.999731, 437, 65, 452, 192
-0.999732, 473, 289, 488, 416
-0.999732, 283, 337, 298, 464
-0.999733, 305, 361, 432, 424
-0.999734, 57, 193, 72, 320
-0.999734, 1, 193, 32, 448
-0.999735, 47, 241, 62, 368
-0.999735, 429, 1, 444, 128
-0.999736, 445, 305, 460, 432
-0.999736, 415, 97, 430, 224
-0.999737, 397, 321, 412, 448
-0.999739, 37, 193, 52, 320
-0.99974, 23, 49, 38, 176
-0.999741, 185, 1, 248, 256
-0.999749, 129, 209, 384, 272
-0.999753, 193, 1, 224, 256
-0.999773, 385, 225, 416, 480
-0.999776, 17, 225, 48, 480
-0.999799, 357, 193, 388, 448
-0.999821, 65, 1, 96, 256
-0.999826, 397, 257, 428, 500
-0.999834, 345, 193, 376, 448
-0.999837, 113, 1, 144, 256
-0.999839, 33, 65, 64, 320
-0.999854, 201, 161, 232, 416
-0.999892, 257, 161, 288, 416
-0.999907, 109, 129, 140, 384
-0.999914, 245, 257, 276, 500
-0.999915, 449, 1, 480, 256
-0.999926, 1, 201, 488, 264
-0.999928, 413, 1, 444, 256
-0.999966, 77, 97, 108, 352
-0.999981, 413, 161, 444, 416
-0.999981, 141, 1, 172, 256
-0.999986, 89, 65, 120, 320
-1.00001, 393, 1, 424, 256
-1.00002, 269, 193, 300, 448
-1.00002, 429, 1, 460, 256
-1.00004, 425, 257, 456, 500
-1.00005, 213, 1, 244, 256
-1.00005, 277, 1, 308, 256
-1.00006, 401, 161, 432, 416
-1.00006, 113, 129, 176, 256
-1.00008, 221, 161, 252, 416
-1.00008, 261, 1, 292, 256
-1.0001, 97, 161, 128, 416
-1.00012, 101, 33, 132, 288
-1.00012, 289, 1, 320, 256
-1.00013, 49, 129, 80, 384
-1.00013, 65, 129, 96, 384
-1.00013, 29, 161, 60, 416
-1.00014, 17, 129, 48, 384
-1.00014, 1, 65, 32, 320
-1.00015, 409, 257, 440, 500
-1.00017, 249, 1, 280, 256
-1.00017, 309, 1, 340, 256
-1.00019, 281, 145, 344, 272
-1.00019, 373, 97, 404, 352
-1.00019, 417, 129, 480, 384
-1.0002, 125, 129, 156, 384
-1.00022, 321, 369, 448, 496
-1.00024, 245, 161, 276, 416
-1.00026, 361, 1, 392, 256
-1.00028, 173, 129, 204, 384
-1.0003, 1, 225, 488, 288
-1.0003, 257, 129, 320, 384
-1.00031, 189, 161, 220, 416
-1.00031, 233, 161, 264, 416
-1.00033, 233, 1, 264, 256
-1.00033, 325, 1, 356, 256
-1.00036, 389, 129, 420, 384
-1.00038, 449, 97, 480, 352
-1.0004, 337, 1, 368, 256
-1.0004, 145, 161, 176, 416
-1.00042, 353, 145, 416, 272
-1.00043, 437, 129, 468, 384
-1.00045, 1, 425, 488, 488
-1.00047, 333, 129, 364, 384
-1.00048, 305, 129, 336, 384
-1.00049, 1, 281, 488, 344
-1.00054, 157, 97, 188, 352
-1.00059, 77, 1, 108, 256
-1.00062, 277, 97, 308, 352
-1.00063, 289, 97, 320, 352
-1.00065, 297, 97, 360, 224
-1.00071, 209, 49, 272, 176
-1.00075, 345, 97, 376, 352
-1.0008, 1, 249, 488, 312
-1.00094, 317, 97, 348, 352
-1.00094, 361, 97, 392, 352
-1.00097, 349, 1, 380, 256
-1.00113, 257, 361, 384, 424
-1.0012, 225, 145, 288, 272
-1.00161, 121, 209, 184, 336
-1.00213, 201, 193, 264, 320
-1.00285, 313, 97, 376, 352
-1.00522, 249, 97, 312, 224
-1.00601, 369, 369, 432, 496
-1.00682, 425, 369, 488, 496
-1.00744, 329, 369, 392, 496
-1.00912, 305, 369, 368, 496
