1969
-0.153848, 1, 1, 500, 375
-0.240473, 1, 33, 500, 288
-0.344573, 1, 129, 500, 375
-0.361358, 161, 1, 416, 375
-0.407121, 33, 1, 288, 375
-0.494725, 65, 33, 320, 288
-0.496219, 257, 1, 500, 375
-0.511811, 193, 1, 448, 256
-0.622701, 161, 97, 416, 352
-0.658491, 257, 97, 500, 352
-0.694567, 65, 129, 320, 375
-0.82199, 145, 33, 272, 288
-0.834947, 145, 1, 272, 375
-0.836657, 81, 33, 208, 288
-0.839041, 257, 1, 384, 375
-0.847685, 193, 33, 320, 288
-0.852171, 257, 33, 384, 288
-0.858025, 305, 1, 432, 375
-0.859031, 209, 1, 336, 375
-0.861924, 305, 1, 432, 256
-0.862633, 1, 145, 500, 272
-0.864624, 369, 97, 496, 352
-0.865531, 97, 1, 224, 375
-0.870371, 17, 65, 144, 320
-0.871152, 353, 1, 480, 256
-0.874064, 321, 97, 448, 352
-0.877112, 225, 129, 352, 375
-0.877175, 369, 1, 496, 375
-0.880257, 273, 129, 400, 375
-0.881112, 49, 1, 176, 375
-0.886733, 1, 49, 500, 176
-0.889502, 113, 129, 240, 375
-0.891859, 1, 97, 500, 224
-0.900797, 1, 193, 500, 320
-0.902204, 1, 1, 128, 375
-0.902361, 65, 49, 320, 176
-0.905401, 65, 113, 320, 240
-0.906194, 161, 129, 288, 375
-0.907712, 225, 145, 480, 272
-0.917975, 161, 81, 416, 208
-0.919266, 257, 97, 500, 224
-0.919915, 65, 161, 320, 288
-0.921249, 1, 1, 500, 128
-0.924902, 65, 129, 192, 375
-0.925264, 225, 113, 352, 240
-0.92859, 305, 145, 432, 272
-0.928752, 177, 49, 240, 176
-0.929904, 145, 49, 272, 176
-0.933427, 321, 97, 448, 224
-0.933615, 65, 33, 192, 160
-0.933721, 81, 97, 208, 224
-0.934409, 265, 129, 328, 256
-0.935358, 129, 113, 256, 240
-0.935445, 177, 113, 304, 240
-0.936448, 153, 49, 216, 176
-0.936777, 161, 33, 416, 160
-0.936798, 161, 193, 416, 320
-0.937516, 65, 1, 320, 128
-0.938093, 393, 113, 456, 240
-0.939255, 329, 161, 392, 288
-0.939344, 273, 97, 400, 224
-0.939376, 257, 161, 384, 288
-0.941632, 177, 113, 240, 240
-0.941748, 209, 65, 336, 192
-0.941884, 369, 113, 496, 240
-0.942241, 257, 193, 500, 320
-0.942406, 281, 81, 344, 208
-0.942517, 369, 153, 432, 216
-0.942532, 305, 145, 368, 272
-0.942723, 369, 97, 432, 224
-0.942891, 257, 33, 500, 160
-0.943647, 369, 145, 432, 272
-0.943673, 321, 97, 384, 224
-0.944039, 201, 97, 264, 224
-0.944467, 17, 81, 144, 208
-0.944516, 209, 161, 336, 288
-0.944883, 145, 97, 208, 224
-0.945578, 369, 177, 496, 304
-0.946003, 241, 145, 304, 272
-0.94608, 201, 49, 264, 176
-0.946402, 121, 97, 184, 224
-0.94675, 129, 33, 192, 160
-0.947418, 401, 169, 464, 232
-0.947694, 89, 81, 152, 208
-0.9479, 105, 33, 168, 160
-0.948644, 241, 65, 304, 192
-0.948689, 185, 113, 248, 176
-0.948898, 97, 161, 224, 288
-0.950631, 1, 241, 500, 368
-0.950687, 241, 209, 368, 336
-0.951413, 81, 33, 144, 160
-0.951477, 265, 129, 328, 192
-0.951791, 57, 65, 120, 192
-0.952351, 257, 241, 500, 368
-0.952398, 241, 129, 304, 192
-0.952483, 313, 145, 376, 208
-0.953654, 65, 161, 128, 288
-0.954188, 345, 145, 408, 208
-0.954293, 1, 33, 128, 160
-0.954555, 289, 193, 352, 320
-0.954777, 417, 177, 480, 304
-0.9551, 337, 225, 464, 352
-0.955909, 161, 161, 288, 288
-0.95613, 209, 1, 336, 128
-0.956778, 425, 113, 488, 240
-0.95741, 329, 209, 392, 336
-0.957611, 393, 177, 456, 304
-0.957842, 305, 33, 432, 160
-0.958059, 33, 65, 96, 192
-0.958482, 49, 161, 176, 288
-0.95853, 353, 193, 416, 320
-0.959228, 273, 153, 336, 216
-0.959577, 89, 129, 152, 256
-0.959621, 161, 105, 224, 168
-0.959862, 305, 33, 368, 160
-0.960235, 217, 121, 280, 184
-0.96032, 201, 193, 264, 256
-0.960685, 201, 145, 264, 272
-0.960947, 121, 161, 184, 288
-0.961117, 257, 33, 384, 160
-0.961127, 353, 177, 416, 240
-0.961627, 41, 65, 104, 128
-0.961954, 345, 97, 408, 224
-0.962026, 337, 241, 400, 304
-0.962085, 233, 1, 296, 128
-0.96223, 329, 169, 392, 232
-0.962465, 425, 177, 488, 240
-0.962933, 225, 201, 288, 264
-0.963113, 241, 169, 304, 232
-0.963258, 289, 225, 416, 352
-0.963378, 193, 89, 256, 152
-0.963397, 129, 1, 256, 128
-0.963405, 273, 33, 336, 288
-0.96346, 289, 129, 352, 192
-0.964415, 265, 177, 328, 304
-0.964544, 273, 1, 336, 128
-0.964828, 369, 65, 496, 192
-0.964863, 193, 1, 256, 256
-0.965032, 177, 33, 240, 96
-0.965047, 377, 177, 440, 240
-0.96505, 433, 201, 496, 264
-0.965313, 161, 33, 224, 288
-0.965343, 137, 41, 200, 104
-0.965366, 137, 33, 200, 288
-0.966107, 289, 233, 352, 296
-0.966145, 33, 209, 288, 336
-0.966185, 249, 209, 312, 272
-0.966571, 1, 145, 128, 272
-0.96696, 401, 193, 464, 256
-0.967068, 113, 105, 176, 168
-0.967161, 65, 81, 128, 144
-0.967254, 281, 201, 344, 264
-0.967379, 97, 1, 160, 256
-0.967608, 305, 209, 368, 272
-0.967718, 81, 49, 144, 112
-0.967748, 217, 145, 280, 208
-0.967807, 105, 169, 168, 232
-0.967992, 57, 113, 120, 240
-0.96806, 17, 209, 144, 336
-0.968528, 201, 49, 232, 176
-0.968589, 193, 65, 256, 128
-0.968688, 173, 49, 204, 176
-0.968763, 177, 185, 240, 248
-0.969121, 177, 161, 240, 288
-0.969201, 193, 137, 256, 200
-0.969576, 353, 17, 416, 144
-0.969589, 209, 121, 336, 184
-0.969713, 305, 145, 432, 208
-0.969741, 41, 1, 104, 128
-0.969798, 313, 1, 376, 256
-0.969802, 329, 273, 392, 336
-0.969956, 9, 49, 72, 176
-0.970056, 49, 209, 112, 336
-0.970061, 305, 169, 368, 232
-0.970227, 377, 145, 408, 208
-0.970272, 297, 129, 360, 375
-0.970377, 65, 49, 192, 112
-0.970532, 277, 129, 308, 256
-0.970977, 313, 241, 376, 304
-0.971099, 161, 57, 224, 120
-0.971186, 137, 113, 200, 176
-0.971302, 185, 49, 216, 176
-0.971575, 17, 161, 80, 288
-0.97158, 273, 169, 400, 232
-0.971625, 161, 121, 288, 184
-0.971727, 89, 97, 152, 160
-0.971805, 145, 177, 208, 240
-0.971824, 161, 241, 416, 368
-0.971873, 281, 49, 344, 112
-0.971898, 177, 145, 304, 208
-0.972014, 217, 169, 280, 232
-0.972327, 225, 145, 352, 208
-0.972365, 329, 49, 392, 176
-0.97241, 385, 113, 448, 176
-0.972438, 201, 97, 232, 160
-0.972746, 153, 145, 216, 272
-0.97275, 161, 49, 192, 176
-0.972784, 65, 169, 128, 232
-0.972816, 377, 1, 440, 256
-0.972839, 329, 97, 392, 352
-0.972906, 353, 161, 480, 224
-0.973072, 433, 65, 496, 192
-0.973337, 233, 65, 296, 320
-0.97337, 369, 129, 432, 375
-0.973448, 209, 169, 336, 232
-0.973572, 113, 185, 240, 248
-0.973588, 281, 177, 344, 240
-0.973731, 161, 129, 224, 192
-0.973809, 285, 121, 316, 184
-0.973838, 213, 49, 244, 176
-0.973961, 241, 193, 304, 320
-0.974022, 369, 185, 496, 248
-0.974091, 433, 97, 496, 352
-0.974192, 97, 113, 224, 176
-0.974303, 145, 97, 272, 160
-0.974365, 209, 1, 272, 128
-0.974367, 389, 153, 420, 216
-0.974436, 353, 1, 480, 128
-0.974463, 57, 65, 120, 320
-0.974483, 365, 161, 396, 224
-0.974535, 97, 177, 160, 304
-0.974541, 229, 105, 260, 168
-0.974617, 321, 185, 448, 248
-0.974645, 193, 161, 256, 224
-0.974682, 153, 1, 216, 128
-0.974711, 369, 201, 432, 264
-0.974804, 425, 113, 456, 240
-0.974862, 297, 97, 360, 160
-0.975087, 337, 105, 400, 168
-0.97512, 417, 169, 448, 232
-0.975173, 401, 153, 432, 216
-0.975227, 257, 81, 320, 144
-0.975233, 317, 145, 348, 272
-0.975278, 285, 65, 316, 192
-0.975329, 1, 81, 128, 144
-0.975408, 153, 97, 184, 224
-0.97547, 409, 113, 440, 240
-0.975783, 253, 121, 284, 184
-0.975823, 393, 97, 424, 224
-0.975827, 393, 1, 456, 128
-0.975872, 377, 225, 440, 352
-0.975888, 33, 113, 96, 240
-0.975953, 257, 129, 288, 256
-0.976065, 409, 97, 472, 352
-0.976105, 137, 33, 168, 160
-0.976154, 77, 73, 108, 136
-0.976236, 409, 65, 472, 192
-0.976392, 185, 1, 248, 128
-0.976408, 361, 161, 392, 288
-0.976497, 169, 161, 232, 224
-0.976576, 337, 1, 400, 256
-0.976582, 9, 81, 72, 144
-0.976606, 305, 241, 368, 368
-0.976643, 241, 1, 304, 64
-0.97665, 113, 49, 176, 112
-0.97666, 393, 145, 456, 208
-0.976668, 161, 193, 288, 256
-0.976916, 401, 1, 464, 256
-0.976978, 225, 49, 288, 112
-0.977002, 377, 129, 408, 256
-0.977168, 225, 81, 352, 144
-0.977357, 405, 177, 436, 240
-0.977438, 185, 57, 216, 120
-0.977538, 389, 145, 420, 272
-0.97758, 265, 65, 296, 192
-0.977678, 229, 137, 260, 200
-0.977861, 65, 137, 128, 200
-0.977926, 65, 209, 192, 336
-0.977966, 333, 145, 364, 272
-0.977975, 321, 241, 352, 304
-0.978008, 209, 65, 240, 128
-0.978022, 333, 81, 364, 208
-0.978047, 309, 145, 340, 208
-0.97806, 181, 121, 212, 184
-0.978095, 65, 169, 192, 232
-0.978147, 333, 153, 364, 216
-0.978161, 65, 193, 128, 256
-0.978168, 201, 33, 264, 96
-0.978171, 33, 169, 96, 232
-0.978171, 361, 265, 424, 328
-0.978219, 273, 129, 304, 192
-0.978241, 305, 241, 432, 304
-0.978263, 117, 97, 148, 224
-0.97828, 49, 97, 176, 160
-0.978293, 249, 41, 312, 104
-0.978401, 369, 129, 496, 192
-0.978425, 453, 169, 484, 232
-0.978443, 93, 33, 124, 160
-0.978482, 65, 65, 96, 128
-0.978498, 225, 65, 256, 192
-0.978526, 341, 241, 372, 304
-0.978634, 353, 81, 384, 208
-0.978636, 217, 193, 280, 320
-0.978646, 97, 145, 160, 208
-0.978791, 189, 97, 220, 160
-0.978819, 409, 121, 472, 184
-0.978845, 149, 49, 180, 176
-0.978853, 209, 193, 336, 256
-0.978874, 273, 153, 304, 216
-0.978937, 165, 113, 196, 240
-0.979163, 9, 169, 72, 232
-0.979189, 205, 97, 236, 224
-0.979256, 289, 105, 416, 168
-0.979258, 257, 105, 320, 168
-0.979272, 93, 169, 124, 232
-0.979322, 137, 17, 200, 80
-0.979344, 185, 113, 216, 240
-0.979379, 89, 145, 120, 272
-0.979382, 329, 217, 392, 280
-0.979392, 33, 89, 96, 152
-0.9794, 229, 129, 260, 256
-0.979498, 153, 81, 216, 144
-0.979507, 337, 241, 368, 368
-0.979516, 185, 1, 248, 375
-0.979522, 325, 193, 356, 320
-0.979529, 193, 209, 320, 336
-0.979537, 125, 33, 156, 160
-0.979537, 429, 169, 460, 232
-0.979561, 137, 137, 200, 200
-0.979633, 141, 97, 172, 224
-0.979652, 113, 25, 176, 88
-0.979702, 265, 233, 328, 296
-0.979742, 281, 17, 344, 80
-0.979801, 297, 137, 328, 200
-0.979867, 261, 145, 292, 208
-0.979913, 193, 121, 224, 184
-0.979933, 161, 169, 288, 232
-0.980022, 25, 41, 88, 104
-0.980024, 313, 1, 376, 375
-0.980082, 401, 177, 432, 304
-0.980176, 129, 33, 256, 96
-0.980214, 101, 81, 132, 208
-0.98024, 89, 97, 152, 352
-0.98025, 257, 201, 384, 264
-0.98031, 329, 25, 392, 88
-0.980336, 353, 169, 384, 232
-0.980368, 441, 113, 472, 240
-0.980418, 233, 73, 296, 136
-0.980484, 49, 217, 112, 280
-0.98049, 241, 113, 272, 176
-0.980511, 85, 49, 116, 112
-0.980628, 73, 49, 104, 176
-0.980652, 469, 201, 500, 264
-0.980667, 69, 145, 100, 272
-0.980706, 361, 241, 424, 304
-0.980711, 349, 225, 380, 352
-0.980746, 245, 113, 276, 240
-0.980754, 433, 1, 496, 256
-0.980766, 441, 177, 472, 304
-0.980774, 345, 137, 376, 200
-0.980827, 201, 97, 264, 352
-0.980864, 353, 1, 416, 375
-0.980872, 217, 97, 280, 160
-0.98092, 445, 193, 476, 256
-0.980925, 329, 193, 392, 256
-0.980944, 301, 81, 332, 208
-0.980955, 1, 57, 128, 120
-0.980977, 305, 161, 336, 288
-0.980988, 317, 81, 348, 208
-0.981109, 229, 193, 260, 256
-0.981138, 209, 185, 240, 248
-0.981284, 225, 33, 352, 96
-0.981356, 17, 177, 144, 240
-0.981413, 361, 113, 424, 176
-0.981417, 393, 89, 456, 152
-0.98147, 365, 137, 396, 200
-0.981533, 241, 65, 272, 192
-0.981566, 357, 241, 388, 304
-0.98161, 413, 177, 444, 304
-0.981713, 177, 73, 304, 136
-0.981717, 153, 1, 216, 375
-0.981722, 425, 153, 488, 216
-0.981738, 353, 73, 416, 136
-0.981738, 169, 41, 200, 104
-0.981785, 441, 169, 472, 232
-0.981866, 221, 65, 252, 128
-0.981906, 289, 113, 320, 240
-0.981917, 89, 121, 152, 184
-0.981924, 209, 217, 336, 280
-0.981925, 353, 241, 416, 368
-0.981979, 401, 225, 464, 352
-0.982011, 209, 121, 240, 184
-0.982019, 281, 1, 344, 375
-0.982048, 113, 97, 176, 352
-0.982071, 373, 177, 404, 304
-0.982151, 329, 1, 392, 128
-0.982202, 321, 297, 384, 360
-0.982244, 453, 177, 484, 304
-0.982263, 113, 161, 240, 224
-0.982392, 189, 25, 220, 88
-0.982447, 337, 273, 368, 336
-0.982488, 81, 145, 112, 208
-0.982511, 157, 113, 188, 176
-0.982518, 153, 49, 184, 112
-0.982597, 177, 49, 304, 112
-0.982625, 353, 209, 480, 272
-0.982626, 417, 97, 480, 160
-0.982745, 305, 41, 368, 104
-0.982754, 161, 129, 224, 375
-0.982763, 209, 1, 272, 375
-0.982789, 217, 113, 248, 240
-0.982841, 113, 33, 144, 160
-0.982885, 249, 1, 312, 375
-0.982996, 433, 129, 496, 192
-0.983038, 457, 201, 488, 264
-0.983135, 257, 209, 288, 272
-0.983193, 61, 65, 92, 192
-0.983227, 105, 161, 136, 224
-0.983266, 289, 257, 352, 320
-0.983296, 145, 105, 176, 168
-0.983348, 201, 41, 232, 104
-0.983353, 65, 145, 192, 208
-0.983371, 1, 97, 64, 224
-0.983371, 25, 209, 88, 336
-0.983475, 101, 161, 132, 288
-0.983511, 469, 113, 500, 240
-0.983518, 349, 161, 380, 288
-0.983535, 241, 201, 272, 264
-0.983551, 153, 201, 216, 264
-0.983567, 177, 17, 304, 80
-0.983586, 129, 65, 256, 128
-0.983648, 321, 161, 352, 224
-0.983675, 337, 105, 464, 168
-0.983718, 285, 145, 316, 208
-0.983801, 33, 201, 160, 264
-0.983811, 469, 193, 500, 320
-0.983812, 25, 201, 88, 264
-0.983865, 361, 9, 424, 72
-0.983884, 57, 105, 120, 168
-0.9839, 393, 113, 424, 176
-0.983942, 25, 97, 88, 352
-0.983958, 433, 273, 496, 336
-0.983962, 209, 1, 272, 64
-0.983969, 425, 177, 456, 304
-0.98405, 465, 177, 496, 240
-0.984119, 89, 201, 152, 264
-0.984146, 389, 177, 420, 240
-0.984164, 257, 225, 384, 288
-0.984169, 113, 137, 240, 200
-0.984308, 293, 225, 324, 288
-0.984315, 365, 97, 396, 224
-0.9844, 217, 97, 248, 160
-0.984411, 137, 129, 200, 375
-0.984483, 1, 57, 64, 120
-0.984507, 433, 225, 496, 352
-0.984508, 321, 137, 352, 200
-0.984581, 197, 185, 228, 248
-0.984603, 49, 25, 176, 88
-0.984623, 305, 65, 368, 128
-0.984646, 85, 81, 116, 208
-0.984662, 257, 249, 384, 312
-0.984674, 45, 49, 76, 176
-0.984738, 321, 265, 448, 328
-0.98474, 237, 161, 268, 224
-0.984765, 289, 17, 320, 80
-0.984805, 305, 233, 336, 296
-0.984877, 129, 1, 192, 375
-0.984934, 273, 241, 336, 368
-0.98501, 309, 33, 340, 160
-0.985056, 105, 1, 168, 375
-0.985058, 377, 49, 440, 176
-0.98506, 265, 185, 296, 248
-0.985068, 377, 81, 408, 208
-0.985111, 377, 1, 440, 375
-0.985178, 129, 97, 160, 224
-0.985303, 297, 113, 328, 176
-0.985321, 277, 193, 308, 256
-0.985461, 113, 209, 176, 272
-0.985566, 61, 217, 92, 280
-0.985584, 329, 65, 392, 128
-0.985593, 225, 9, 352, 72
-0.985644, 253, 185, 284, 248
-0.985683, 217, 145, 248, 208
-0.985694, 105, 97, 136, 160
-0.985704, 309, 169, 340, 232
-0.98576, 273, 217, 304, 280
-0.985834, 225, 25, 288, 88
-0.98588, 325, 305, 356, 368
-0.985898, 117, 145, 148, 272
-0.985904, 289, 1, 320, 128
-0.985957, 285, 49, 316, 112
-0.985969, 93, 193, 124, 256
-0.986014, 273, 129, 336, 375
-0.986044, 69, 185, 100, 248
-0.986049, 169, 105, 200, 168
-0.98608, 273, 41, 400, 104
-0.986081, 265, 177, 296, 304
-0.986102, 401, 1, 464, 375
-0.986174, 353, 241, 480, 304
-0.986238, 17, 153, 144, 216
-0.986243, 1, 105, 128, 168
-0.986298, 285, 81, 316, 144
-0.986333, 65, 73, 192, 136
-0.986338, 337, 217, 368, 280
-0.986344, 129, 161, 160, 288
-0.986349, 41, 81, 72, 144
-0.986358, 313, 225, 344, 352
-0.986399, 453, 113, 484, 240
-0.986419, 181, 177, 212, 240
-0.986454, 325, 33, 356, 160
-0.986525, 393, 17, 456, 80
-0.986562, 81, 225, 144, 352
-0.986572, 377, 169, 408, 232
-0.986579, 433, 193, 464, 256
-0.986652, 333, 129, 364, 192
-0.98673, 49, 209, 80, 272
-0.986783, 297, 41, 328, 104
-0.986788, 293, 201, 324, 264
-0.986812, 113, 209, 240, 336
-0.986852, 57, 1, 120, 375
-0.986883, 81, 185, 112, 248
-0.986907, 305, 9, 368, 72
-0.986958, 309, 209, 340, 272
-0.987014, 345, 33, 376, 160
-0.987028, 385, 241, 448, 304
-0.987037, 253, 65, 284, 192
-0.98707, 417, 193, 448, 256
-0.987104, 113, 209, 240, 272
-0.987231, 129, 9, 256, 72
-0.987338, 305, 209, 432, 272
-0.987384, 321, 209, 352, 272
-0.987386, 185, 145, 216, 208
-0.987404, 277, 17, 308, 144
-0.987406, 361, 225, 392, 352
-0.987408, 65, 25, 128, 88
-0.98753, 133, 105, 164, 168
-0.987556, 53, 49, 84, 112
-0.987578, 417, 65, 448, 192
-0.987612, 229, 17, 260, 144
-0.987685, 389, 193, 420, 320
-0.987736, 1, 241, 128, 304
-0.987768, 129, 33, 160, 96
-0.987828, 405, 201, 436, 264
-0.987994, 221, 169, 252, 232
-0.988015, 81, 193, 112, 320
-0.988023, 41, 161, 104, 288
-0.988046, 9, 105, 72, 168
-0.988047, 273, 41, 304, 104
-0.988107, 321, 1, 448, 64
-0.988187, 161, 185, 192, 248
-0.988302, 197, 65, 228, 128
-0.988302, 121, 169, 152, 232
-0.988324, 369, 241, 400, 304
-0.988392, 257, 129, 320, 160
-0.988435, 65, 49, 320, 112
-0.988438, 57, 241, 120, 304
-0.988438, 409, 273, 472, 336
-0.988468, 345, 97, 376, 160
-0.988504, 361, 157, 424, 188
-0.988524, 201, 1, 232, 128
-0.988555, 213, 161, 244, 288
-0.988565, 193, 125, 256, 156
-0.988566, 265, 153, 328, 184
-0.98857, 353, 181, 416, 212
-0.988596, 177, 209, 240, 272
-0.988628, 121, 97, 152, 160
-0.988671, 273, 65, 400, 128
-0.988686, 141, 161, 172, 288
-0.988687, 181, 1, 212, 128
-0.988734, 225, 145, 288, 176
-0.988749, 313, 169, 376, 200
-0.988786, 253, 1, 284, 128
-0.9888, 329, 1, 392, 64
-0.98881, 409, 249, 472, 312
-0.988832, 361, 33, 392, 160
-0.988884, 297, 169, 328, 232
-0.988898, 401, 181, 464, 212
-0.988903, 49, 121, 176, 184
-0.988907, 405, 65, 436, 192
-0.988912, 313, 121, 376, 184
-0.988965, 165, 161, 196, 288
-0.988968, 417, 1, 480, 128
-0.98897, 289, 141, 352, 172
-0.988994, 369, 273, 496, 336
-0.988995, 393, 169, 456, 200
-0.989012, 33, 65, 64, 192
-0.989015, 69, 97, 100, 160
-0.989025, 225, 57, 352, 120
-0.989089, 401, 197, 464, 228
-0.989096, 273, 9, 400, 72
-0.989097, 337, 193, 368, 320
-0.989114, 69, 1, 100, 128
-0.98915, 297, 89, 328, 152
-0.989183, 225, 153, 480, 216
-0.989194, 321, 25, 448, 88
-0.989218, 249, 145, 280, 208
-0.989219, 337, 33, 368, 96
-0.989237, 21, 97, 52, 224
-0.989242, 145, 121, 208, 152
-0.989267, 33, 241, 96, 304
-0.989287, 81, 1, 144, 375
-0.989322, 141, 161, 172, 224
-0.989399, 17, 145, 80, 208
-0.989415, 217, 113, 280, 144
-0.989515, 369, 169, 432, 200
-0.989519, 113, 81, 176, 144
-0.989525, 289, 193, 320, 320
-0.989538, 377, 225, 408, 352
-0.989548, 193, 113, 256, 144
-0.989557, 241, 73, 272, 136
-0.989596, 193, 97, 256, 128
-0.989641, 93, 137, 124, 200
-0.989643, 69, 161, 100, 224
-0.989653, 433, 205, 496, 236
-0.989666, 277, 177, 308, 304
-0.989674, 153, 193, 216, 320
-0.989677, 49, 73, 112, 104
-0.989709, 89, 89, 120, 152
-0.989716, 1, 1, 64, 128
-0.989723, 241, 1, 272, 128
-0.989746, 225, 129, 288, 160
-0.989749, 9, 225, 72, 288
-0.989765, 321, 145, 384, 176
-0.989777, 257, 165, 320, 196
-0.989922, 201, 137, 264, 168
-0.989926, 153, 1, 184, 128
-0.989937, 25, 1, 88, 256
-0.989961, 257, 177, 500, 240
-0.989963, 57, 17, 88, 144
-0.98997, 57, 177, 88, 240
-0.989973, 201, 149, 264, 180
-0.990062, 413, 145, 444, 208
-0.990078, 45, 169, 76, 232
-0.99008, 385, 273, 448, 336
-0.990082, 41, 129, 104, 192
-0.990089, 145, 25, 176, 88
-0.990097, 213, 41, 244, 104
-0.990113, 289, 289, 352, 352
-0.990116, 169, 129, 232, 160
-0.990132, 289, 153, 352, 184
-0.990143, 113, 109, 176, 140
-0.990147, 273, 273, 400, 336
-0.990148, 325, 241, 356, 368
-0.990162, 209, 197, 272, 228
-0.990169, 361, 105, 392, 168
-0.990171, 225, 161, 288, 192
-0.990209, 369, 17, 496, 80
-0.990217, 325, 97, 356, 160
-0.990222, 65, 193, 96, 320
-0.990231, 281, 121, 344, 152
-0.990287, 381, 113, 412, 176
-0.99029, 281, 173, 344, 204
-0.990291, 269, 81, 300, 144
-0.990291, 309, 89, 340, 152
-0.990305, 141, 49, 172, 112
-0.990309, 433, 1, 496, 64
-0.990325, 369, 145, 432, 176
-0.99033, 417, 169, 480, 200
-0.990331, 369, 265, 400, 328
-0.990344, 17, 169, 80, 200
-0.990354, 89, 73, 152, 136
-0.990361, 33, 85, 96, 116
-0.990362, 417, 121, 448, 184
-0.990367, 49, 193, 80, 320
-0.990377, 201, 217, 264, 280
-0.990396, 161, 109, 224, 140
-0.990425, 33, 105, 288, 168
-0.990429, 9, 49, 40, 176
-0.990438, 265, 141, 328, 172
-0.990467, 377, 181, 440, 212
-0.990468, 281, 73, 344, 136
-0.990481, 425, 185, 488, 216
-0.990503, 401, 17, 432, 144
-0.990546, 57, 169, 120, 200
-0.99057, 185, 189, 248, 220
-0.990572, 129, 53, 192, 84
-0.990583, 257, 217, 320, 248
-0.990594, 253, 177, 284, 304
-0.990596, 209, 209, 272, 240
-0.990634, 313, 189, 376, 220
-0.990635, 369, 73, 496, 136
-0.990641, 57, 85, 120, 116
-0.990679, 73, 53, 136, 84
-0.990682, 377, 201, 440, 232
-0.990714, 329, 277, 392, 308
-0.990784, 177, 141, 240, 172
-0.990802, 433, 1, 496, 375
-0.990821, 305, 233, 368, 264
-0.990855, 81, 93, 144, 124
-0.990873, 233, 209, 296, 240
-0.990874, 345, 145, 408, 176
-0.990915, 97, 129, 352, 192
-0.990917, 33, 161, 288, 224
-0.990939, 25, 53, 88, 84
-0.990958, 145, 137, 208, 168
-0.990998, 281, 233, 344, 264
-0.991014, 469, 65, 500, 192
-0.991016, 21, 33, 52, 160
-0.991049, 161, 189, 224, 220
-0.991055, 241, 117, 304, 148
-0.991063, 49, 105, 112, 136
-0.991063, 321, 249, 384, 280
-0.991066, 65, 201, 320, 264
-0.991085, 113, 41, 176, 72
-0.991116, 337, 197, 400, 228
-0.991123, 185, 65, 248, 96
-0.991132, 197, 145, 228, 272
-0.991145, 193, 33, 448, 96
-0.991164, 49, 181, 112, 212
-0.991164, 225, 97, 480, 160
-0.991228, 65, 217, 128, 248
-0.991262, 105, 125, 168, 156
-0.991299, 329, 157, 392, 188
-0.9913, 289, 245, 352, 276
-0.99132, 97, 169, 160, 200
-0.991326, 257, 229, 320, 260
-0.991343, 177, 49, 240, 80
-0.991348, 161, 169, 224, 200
-0.991354, 81, 113, 144, 144
-0.991378, 329, 133, 392, 164
-0.991383, 233, 185, 296, 216
-0.991414, 153, 145, 184, 272
-0.991448, 33, 1, 96, 375
-0.991461, 165, 1, 196, 128
-0.991467, 265, 17, 296, 144
-0.991491, 413, 1, 444, 128
-0.991495, 17, 181, 80, 212
-0.991515, 9, 93, 72, 124
-0.991535, 185, 201, 248, 232
-0.991538, 209, 57, 272, 88
-0.991547, 137, 177, 200, 208
-0.991556, 161, 61, 224, 92
-0.99157, 81, 181, 144, 212
-0.991573, 289, 185, 352, 216
-0.991573, 145, 113, 272, 144
-0.9916, 65, 197, 128, 228
-0.991605, 369, 273, 432, 304
-0.991623, 425, 217, 488, 248
-0.991641, 121, 165, 184, 196
-0.991644, 185, 177, 248, 208
-0.99165, 385, 157, 448, 188
-0.991651, 161, 177, 416, 240
-0.991685, 337, 169, 400, 200
-0.991687, 297, 217, 360, 248
-0.991737, 257, 205, 320, 236
-0.99174, 305, 129, 368, 160
-0.99176, 233, 221, 296, 252
-0.991782, 153, 45, 216, 76
-0.991785, 369, 113, 432, 144
-0.991802, 281, 29, 344, 60
-0.991816, 345, 245, 408, 276
-0.99182, 17, 105, 80, 136
-0.991862, 265, 73, 328, 104
-0.991868, 233, 197, 296, 228
-0.991874, 65, 237, 128, 268
-0.99189, 345, 89, 408, 120
-0.991896, 281, 49, 344, 80
-0.991922, 401, 209, 464, 240
-0.991923, 1, 81, 500, 144
-0.991926, 209, 181, 272, 212
-0.991931, 321, 101, 384, 132
-0.991935, 389, 17, 420, 144
-0.991945, 89, 205, 152, 236
-0.991947, 241, 105, 304, 136
-0.991958, 329, 233, 392, 264
-0.992004, 97, 157, 160, 188
-0.992007, 241, 5, 304, 36
-0.99201, 409, 225, 440, 352
-0.992021, 393, 121, 456, 152
-0.992051, 161, 97, 224, 128
-0.992062, 1, 97, 32, 224
-0.992068, 1, 25, 128, 88
-0.992068, 411, 161, 426, 224
-0.992071, 81, 141, 144, 172
-0.992095, 445, 173, 476, 204
-0.992112, 41, 121, 104, 152
-0.992112, 369, 161, 400, 192
-0.992116, 1, 177, 500, 240
-0.992134, 301, 209, 332, 336
-0.992146, 89, 225, 152, 256
-0.992149, 201, 93, 232, 124
-0.992152, 225, 77, 288, 108
-0.992153, 405, 189, 436, 220
-0.992157, 289, 117, 320, 148
-0.992165, 281, 205, 344, 236
-0.992173, 417, 173, 448, 204
-0.99218, 357, 177, 388, 208
-0.992194, 49, 61, 112, 92
-0.992199, 389, 157, 420, 188
-0.992214, 9, 81, 72, 112
-0.992225, 285, 129, 316, 160
-0.992237, 161, 201, 224, 232
-0.992238, 129, 153, 384, 216
-0.992244, 373, 149, 404, 180
-0.992263, 345, 105, 408, 136
-0.992276, 305, 265, 368, 296
-0.99228, 121, 153, 184, 184
-0.992287, 273, 153, 304, 184
-0.99229, 41, 221, 104, 252
-0.992299, 257, 177, 320, 208
-0.9923, 249, 37, 312, 68
-0.99231, 209, 17, 272, 48
-0.992315, 325, 145, 356, 176
-0.992325, 197, 105, 228, 136
-0.99233, 305, 41, 368, 72
-0.992335, 313, 165, 344, 196
-0.992336, 1, 153, 500, 216
-0.99237, 229, 137, 260, 168
-0.992373, 241, 161, 272, 288
-0.992386, 239, 105, 254, 168
-0.992386, 213, 1, 244, 128
-0.992388, 429, 177, 460, 208
-0.992393, 161, 201, 416, 264
-0.9924, 157, 117, 188, 148
-0.992406, 177, 161, 208, 288
-0.992408, 405, 161, 436, 192
-0.992408, 313, 137, 344, 168
-0.992411, 449, 185, 480, 216
-0.992415, 449, 201, 480, 232
-0.992421, 245, 133, 276, 164
-0.992432, 405, 177, 436, 208
-0.992437, 189, 129, 220, 160
-0.992442, 73, 77, 104, 108
-0.992445, 1, 129, 128, 192
-0.99246, 245, 117, 276, 148
-0.992489, 229, 149, 260, 180
-0.992499, 1, 65, 64, 320
-0.992505, 429, 165, 460, 196
-0.992514, 257, 201, 500, 264
-0.99252, 225, 109, 256, 140
-0.992522, 233, 125, 264, 156
-0.992528, 385, 145, 416, 176
-0.992555, 1, 57, 500, 120
-0.992557, 213, 109, 244, 140
-0.992564, 199, 105, 214, 168
-0.992584, 301, 129, 332, 160
-0.992595, 313, 153, 344, 184
-0.992644, 145, 113, 176, 144
-0.992654, 329, 133, 360, 164
-0.992659, 209, 129, 240, 160
-0.992661, 393, 169, 424, 200
-0.992681, 185, 109, 216, 140
-0.992684, 381, 181, 412, 212
-0.992688, 333, 157, 364, 188
-0.992691, 369, 181, 400, 212
-0.992697, 1, 1, 64, 375
-0.992701, 353, 165, 480, 196
-0.992703, 305, 165, 432, 196
-0.992712, 381, 169, 412, 200
-0.992718, 49, 225, 176, 288
-0.99272, 161, 49, 192, 80
-0.992723, 469, 209, 500, 240
-0.992727, 197, 117, 228, 148
-0.992731, 421, 193, 452, 224
-0.992744, 349, 145, 380, 176
-0.992759, 133, 109, 164, 140
-0.992777, 337, 169, 368, 200
-0.992781, 173, 61, 204, 92
-0.992782, 249, 145, 280, 176
-0.992784, 97, 173, 128, 204
-0.992787, 173, 121, 204, 152
-0.992801, 253, 161, 284, 192
-0.992804, 293, 141, 324, 172
-0.992807, 233, 201, 264, 232
-0.992809, 261, 121, 292, 152
-0.99281, 81, 89, 112, 120
-0.99282, 61, 69, 92, 100
-0.992826, 305, 297, 432, 360
-0.992837, 249, 209, 280, 240
-0.99284, 229, 177, 260, 304
-0.992841, 161, 73, 416, 136
-0.992842, 129, 37, 160, 68
-0.992845, 357, 193, 388, 224
-0.992847, 265, 165, 296, 196
-0.992852, 289, 153, 320, 184
-0.992852, 325, 245, 356, 276
-0.992854, 225, 133, 352, 164
-0.992855, 213, 149, 244, 180
-0.992869, 305, 177, 336, 208
-0.992882, 261, 149, 292, 180
-0.992897, 341, 253, 372, 284
-0.992898, 145, 41, 176, 72
-0.9929, 213, 193, 244, 224
-0.992908, 273, 133, 304, 164
-0.992908, 41, 85, 72, 116
-0.992908, 345, 189, 376, 220
-0.992915, 77, 57, 108, 88
-0.992924, 433, 197, 464, 228
-0.992928, 341, 277, 372, 308
-0.992929, 185, 141, 216, 172
-0.99293, 393, 185, 424, 216
-0.99293, 293, 229, 324, 260
-0.992935, 149, 129, 180, 160
-0.992937, 417, 161, 448, 192
-0.992941, 405, 201, 436, 232
-0.992942, 61, 89, 92, 120
-0.992943, 101, 221, 132, 252
-0.992948, 1, 81, 256, 144
-0.992951, 265, 217, 296, 248
-0.992955, 109, 101, 140, 132
-0.992963, 277, 221, 308, 252
-0.992968, 201, 189, 232, 220
-0.992971, 193, 129, 448, 192
-0.992972, 317, 181, 348, 212
-0.992977, 313, 241, 344, 272
-0.992982, 173, 137, 204, 168
-0.992986, 277, 169, 308, 200
-0.992986, 357, 165, 388, 196
-0.992992, 301, 161, 332, 192
-0.992999, 185, 61, 216, 92
-0.992999, 161, 225, 416, 288
-0.993001, 149, 53, 180, 84
-0.993002, 205, 65, 236, 96
-0.993007, 205, 49, 236, 80
-0.993008, 373, 137, 404, 168
-0.993023, 65, 101, 96, 132
-0.993032, 225, 57, 256, 88
-0.993041, 89, 137, 120, 168
-0.993057, 389, 201, 420, 232
-0.993061, 293, 173, 324, 204
-0.993064, 373, 153, 388, 216
-0.993069, 129, 49, 160, 80
-0.993072, 85, 185, 116, 216
-0.993075, 121, 105, 152, 136
-0.993093, 353, 245, 384, 276
-0.993094, 329, 185, 360, 216
-0.993095, 197, 145, 228, 176
-0.993097, 325, 169, 356, 200
-0.993101, 97, 97, 128, 128
-0.993107, 137, 125, 168, 156
-0.993107, 101, 233, 132, 264
-0.993114, 369, 197, 400, 228
-0.993115, 213, 97, 244, 128
-0.993119, 37, 169, 68, 200
-0.99312, 113, 229, 144, 260
-0.993121, 429, 1, 460, 128
-0.993125, 293, 17, 324, 48
-0.993126, 53, 177, 84, 208
-0.993126, 345, 89, 376, 120
-0.993134, 77, 105, 108, 136
-0.993134, 241, 157, 272, 188
-0.993137, 361, 149, 392, 180
-0.99314, 317, 125, 348, 156
-0.993143, 333, 293, 364, 324
-0.993146, 353, 273, 384, 304
-0.993148, 89, 221, 120, 252
-0.993149, 327, 137, 342, 200
-0.993183, 427, 161, 442, 224
-0.993206, 353, 177, 480, 208
-0.993226, 145, 125, 272, 156
-0.993279, 321, 57, 448, 120
-0.993297, 459, 177, 474, 240
-0.993306, 113, 193, 144, 320
-0.993386, 383, 137, 398, 200
-0.993443, 275, 145, 290, 208
-0.993477, 273, 153, 400, 184
-0.993489, 65, 53, 192, 84
-0.993504, 457, 49, 488, 176
-0.993529, 45, 145, 76, 272
-0.993542, 45, 1, 76, 128
-0.993569, 97, 9, 352, 72
-0.993623, 321, 81, 448, 144
-0.993625, 369, 189, 496, 220
-0.993634, 29, 161, 60, 288
-0.993652, 233, 113, 248, 176
-0.993703, 419, 161, 434, 224
-0.993752, 129, 105, 384, 168
-0.993763, 467, 177, 482, 240
-0.993782, 421, 225, 452, 352
-0.993785, 303, 129, 318, 192
-0.993835, 313, 137, 328, 200
-0.993846, 289, 121, 304, 184
-0.993872, 337, 153, 464, 184
-0.993912, 1, 201, 500, 264
-0.993957, 209, 121, 336, 152
-0.993975, 441, 161, 456, 224
-0.994097, 73, 97, 104, 224
-0.994106, 177, 209, 304, 240
-0.994131, 377, 17, 408, 144
-0.994136, 449, 177, 464, 240
-0.994173, 409, 185, 424, 248
-0.994181, 225, 145, 352, 176
-0.994196, 283, 129, 298, 192
-0.994213, 129, 197, 256, 228
-0.994263, 247, 113, 262, 176
-0.994269, 337, 145, 352, 208
-0.994279, 161, 217, 288, 280
-0.994282, 345, 145, 360, 208
-0.994336, 85, 73, 100, 136
-0.994389, 193, 209, 256, 336
-0.994412, 257, 241, 500, 304
-0.994424, 97, 113, 224, 144
-0.994427, 225, 113, 240, 176
-0.99444, 305, 185, 432, 216
-0.994441, 211, 65, 226, 128
-0.994442, 49, 97, 80, 224
-0.994465, 17, 273, 144, 336
-0.994472, 85, 49, 100, 112
-0.994486, 33, 17, 64, 144
-0.994498, 403, 153, 418, 216
-0.994504, 441, 65, 472, 192
-0.994539, 381, 161, 396, 224
-0.994547, 389, 145, 404, 208
-0.994566, 367, 153, 382, 216
-0.994589, 17, 89, 144, 120
-0.994605, 273, 229, 400, 260
-0.994611, 1, 129, 256, 192
-0.994629, 177, 149, 304, 180
-0.99465, 319, 129, 334, 192
-0.994697, 1, 209, 64, 336
-0.994714, 205, 89, 220, 152
-0.994722, 261, 121, 276, 184
-0.994752, 193, 121, 208, 184
-0.994776, 239, 129, 254, 192
-0.99478, 415, 185, 430, 248
-0.994789, 397, 161, 412, 224
-0.994793, 211, 97, 226, 160
-0.994799, 97, 125, 224, 156
-0.994834, 49, 1, 176, 64
-0.994888, 99, 169, 114, 232
-0.994896, 435, 161, 450, 224
-0.994927, 177, 137, 304, 168
-0.994985, 247, 137, 262, 200
-0.995018, 257, 165, 384, 196
-0.995033, 177, 185, 304, 216
-0.995049, 347, 249, 362, 312
-0.995082, 193, 9, 448, 72
-0.99512, 49, 109, 176, 140
-0.995131, 289, 141, 416, 172
-0.995169, 329, 169, 344, 232
-0.995174, 333, 241, 348, 304
-0.995186, 79, 65, 94, 128
-0.995199, 465, 201, 480, 264
-0.995211, 321, 153, 336, 216
-0.995215, 1, 33, 500, 96
-0.99526, 1, 113, 500, 176
-0.995263, 205, 1, 236, 256
-0.995277, 177, 1, 208, 256
-0.995279, 295, 113, 310, 176
-0.995305, 49, 165, 176, 196
-0.995313, 305, 245, 432, 276
-0.995322, 209, 225, 336, 256
-0.995334, 49, 177, 176, 208
-0.995353, 1, 233, 500, 296
-0.995364, 221, 65, 236, 128
-0.995377, 253, 121, 268, 184
-0.995388, 361, 169, 376, 232
-0.995406, 157, 33, 188, 288
-0.99541, 241, 213, 368, 244
-0.995411, 305, 197, 432, 228
-0.995435, 197, 57, 212, 120
-0.995438, 369, 201, 496, 232
-0.99549, 157, 105, 172, 168
-0.995511, 341, 249, 356, 312
-0.995512, 177, 197, 304, 228
-0.995522, 225, 201, 352, 232
-0.995531, 241, 153, 256, 216
-0.995535, 145, 33, 176, 288
-0.995598, 203, 57, 218, 120
-0.99561, 97, 169, 224, 200
-0.995612, 97, 185, 224, 216
-0.995614, 225, 177, 352, 208
-0.995616, 335, 289, 350, 352
-0.99564, 267, 121, 282, 184
-0.99564, 193, 1, 224, 256
-0.995651, 283, 153, 298, 216
-0.995672, 217, 105, 232, 168
-0.995674, 145, 61, 272, 92
-0.995685, 359, 241, 374, 304
-0.995688, 177, 161, 304, 192
-0.99569, 289, 41, 304, 104
-0.995712, 465, 97, 496, 352
-0.995739, 321, 273, 448, 304
-0.995765, 393, 113, 408, 176
-0.995768, 355, 137, 370, 200
-0.995782, 369, 41, 496, 104
-0.995807, 175, 41, 190, 104
-0.995816, 281, 33, 312, 288
-0.995821, 33, 225, 160, 256
-0.995823, 193, 97, 208, 160
-0.995824, 93, 177, 108, 240
-0.995827, 239, 193, 254, 256
-0.995841, 213, 185, 228, 248
-0.995853, 377, 129, 392, 192
-0.995856, 205, 25, 220, 88
-0.995857, 113, 137, 240, 168
-0.995862, 297, 89, 312, 152
-0.995896, 341, 281, 356, 344
-0.995903, 129, 1, 160, 256
-0.995917, 1, 173, 128, 204
-0.995927, 225, 49, 352, 80
-0.99594, 129, 149, 256, 180
-0.995961, 353, 241, 368, 304
-0.995985, 97, 97, 224, 128
-0.995985, 93, 49, 108, 112
-0.995992, 421, 185, 436, 248
-0.996008, 395, 137, 410, 200
-0.996024, 255, 201, 270, 264
-0.996026, 105, 161, 120, 224
-0.99606, 225, 189, 352, 220
-0.996068, 269, 145, 284, 208
-0.996072, 65, 41, 192, 72
-0.996074, 275, 121, 290, 184
-0.996079, 289, 217, 304, 280
-0.996089, 301, 33, 332, 288
-0.996092, 355, 169, 370, 232
-0.996105, 1, 77, 128, 108
-0.996124, 319, 233, 334, 296
-0.996135, 459, 201, 474, 264
-0.99614, 325, 1, 356, 256
-0.996142, 63, 209, 78, 272
-0.996159, 251, 177, 266, 240
-0.996162, 199, 129, 214, 192
-0.996166, 241, 241, 368, 272
-0.996166, 219, 185, 234, 248
-0.996179, 89, 145, 104, 208
-0.996183, 303, 105, 318, 168
-0.99619, 233, 193, 248, 256
-0.996197, 273, 209, 288, 272
-0.996197, 303, 225, 318, 288
-0.996201, 239, 73, 254, 136
-0.996202, 1, 25, 256, 88
-0.996208, 403, 177, 418, 240
-0.996214, 169, 41, 184, 104
-0.996229, 209, 121, 224, 184
-0.996238, 365, 241, 380, 304
-0.996246, 91, 81, 106, 144
-0.99628, 335, 121, 350, 184
-0.996281, 329, 305, 344, 368
-0.996297, 233, 137, 248, 200
-0.996307, 193, 109, 320, 140
-0.996314, 225, 29, 352, 60
-0.996315, 117, 1, 148, 256
-0.996321, 129, 41, 256, 72
-0.996326, 269, 185, 284, 248
-0.996336, 209, 241, 336, 304
-0.996346, 289, 145, 304, 208
-0.996348, 145, 173, 272, 204
-0.996352, 391, 149, 406, 180
-0.996353, 449, 173, 464, 204
-0.996366, 373, 129, 404, 375
-0.996368, 387, 113, 402, 176
-0.996376, 401, 1, 432, 256
-0.996383, 257, 265, 500, 328
-0.996389, 229, 33, 260, 288
-0.996396, 187, 121, 202, 184
-0.996398, 221, 161, 236, 224
-0.996399, 291, 17, 306, 80
-0.996399, 485, 201, 500, 264
-0.996412, 161, 249, 416, 312
-0.996429, 233, 169, 248, 232
-0.996433, 285, 193, 300, 256
-0.996433, 189, 57, 204, 120
-0.996436, 211, 41, 226, 104
-0.99644, 471, 201, 486, 264
-0.996447, 295, 137, 310, 200
-0.996468, 193, 73, 320, 104
-0.996469, 245, 177, 260, 240
-0.996474, 73, 57, 88, 120
-0.996482, 375, 241, 390, 304
-0.996534, 199, 25, 214, 88
-0.996539, 261, 185, 276, 248
-0.996551, 329, 217, 344, 280
-0.996554, 413, 1, 444, 256
-0.99656, 375, 157, 390, 188
-0.99657, 247, 73, 262, 136
-0.99657, 193, 9, 320, 40
-0.996573, 65, 205, 192, 236
-0.996577, 283, 41, 298, 104
-0.996577, 49, 249, 176, 312
-0.996587, 109, 201, 124, 264
-0.996592, 249, 201, 264, 264
-0.996608, 453, 97, 484, 352
-0.996611, 443, 185, 458, 248
-0.996619, 277, 169, 292, 232
-0.996627, 163, 113, 178, 176
-0.99663, 333, 145, 348, 176
-0.99663, 225, 313, 352, 375
-0.996636, 399, 113, 414, 176
-0.996655, 313, 1, 344, 256
-0.996665, 1, 257, 500, 320
-0.996681, 353, 213, 480, 244
-0.996682, 1, 185, 128, 216
-0.996684, 235, 105, 250, 136
-0.996686, 419, 165, 434, 196
-0.996693, 301, 121, 316, 152
-0.996709, 401, 129, 432, 375
-0.996724, 1, 1, 500, 64
-0.996728, 455, 177, 470, 208
-0.996733, 321, 141, 336, 172
-0.996739, 257, 57, 500, 120
-0.996744, 217, 1, 248, 256
-0.996753, 249, 121, 264, 152
-0.996758, 205, 97, 220, 128
-0.996767, 255, 121, 270, 152
-0.996772, 289, 113, 416, 144
-0.996802, 1, 105, 128, 136
-0.996826, 425, 173, 440, 204
-0.996831, 295, 117, 310, 148
-0.996833, 1, 57, 128, 88
-0.996835, 385, 153, 400, 184
-0.99684, 433, 173, 448, 204
-0.996846, 1, 161, 128, 192
-0.996851, 269, 65, 300, 320
-0.996857, 379, 145, 394, 176
-0.996892, 413, 169, 428, 200
-0.9969, 441, 173, 456, 204
-0.996905, 273, 129, 400, 160
-0.996906, 177, 45, 304, 76
-0.996911, 353, 117, 480, 148
-0.996912, 145, 101, 272, 132
-0.996937, 73, 65, 104, 320
-0.996948, 337, 89, 464, 120
-0.996951, 391, 161, 406, 192
-0.996952, 403, 157, 418, 188
-0.99696, 425, 1, 456, 256
-0.99696, 273, 25, 400, 56
-0.996963, 235, 121, 250, 152
-0.996984, 197, 109, 212, 140
-0.996993, 361, 1, 392, 256
-0.997014, 371, 177, 386, 208
-0.997014, 385, 97, 416, 352
-0.997026, 311, 137, 326, 168
-0.997045, 221, 113, 236, 144
-0.997047, 85, 77, 100, 108
-0.99705, 257, 69, 384, 100
-0.997075, 89, 97, 120, 352
-0.997077, 199, 129, 214, 160
-0.997093, 1, 297, 128, 360
-0.997097, 239, 141, 254, 172
-0.997097, 243, 121, 258, 152
-0.99711, 289, 101, 416, 132
-0.997111, 389, 1, 420, 256
-0.997113, 325, 129, 356, 375
-0.997118, 385, 141, 400, 172
-0.997125, 101, 1, 132, 256
-0.997128, 305, 37, 432, 68
-0.997141, 445, 185, 460, 216
-0.997143, 327, 153, 342, 184
-0.997144, 343, 141, 358, 172
-0.997145, 397, 149, 412, 180
-0.99715, 437, 1, 468, 256
-0.997163, 1, 233, 256, 296
-0.997167, 289, 121, 304, 152
-0.997198, 409, 189, 424, 220
-0.997201, 337, 1, 368, 256
-0.997221, 429, 97, 460, 352
-0.997223, 241, 257, 368, 288
-0.997228, 281, 153, 296, 184
-0.997245, 97, 217, 224, 248
-0.997256, 363, 177, 378, 208
-0.997266, 49, 65, 176, 96
-0.997266, 263, 121, 278, 152
-0.997275, 305, 133, 320, 164
-0.997279, 229, 105, 244, 136
-0.997284, 227, 117, 242, 148
-0.997286, 185, 97, 216, 352
-0.997289, 33, 121, 160, 152
-0.997294, 241, 109, 256, 140
-0.997306, 331, 133, 346, 164
-0.997313, 157, 117, 172, 148
-0.997322, 415, 189, 430, 220
-0.997323, 319, 165, 334, 196
-0.997331, 431, 161, 446, 192
-0.997338, 289, 217, 416, 248
-0.997338, 441, 97, 472, 352
-0.99734, 225, 281, 352, 344
-0.99735, 313, 129, 344, 375
-0.997355, 349, 1, 380, 256
-0.99739, 397, 161, 412, 192
-0.997391, 89, 1, 120, 256
-0.997409, 455, 201, 470, 232
-0.99741, 169, 49, 184, 80
-0.997412, 253, 33, 284, 288
-0.997414, 285, 133, 300, 164
-0.997417, 215, 109, 230, 140
-0.997424, 369, 133, 496, 164
-0.997441, 357, 97, 388, 352
-0.997451, 209, 109, 224, 140
-0.997455, 325, 165, 340, 196
-0.997458, 337, 129, 368, 375
-0.997475, 97, 233, 224, 296
-0.997482, 247, 109, 262, 140
-0.997487, 49, 77, 176, 108
-0.997491, 419, 177, 434, 208
-0.997501, 461, 185, 476, 216
-0.997523, 275, 149, 290, 180
-0.997531, 233, 137, 248, 168
-0.997538, 17, 241, 144, 272
-0.997544, 345, 153, 360, 184
-0.997549, 407, 173, 422, 204
-0.99755, 169, 97, 200, 352
-0.997571, 105, 225, 168, 352
-0.997576, 49, 153, 176, 184
-0.997582, 321, 233, 448, 264
-0.997589, 213, 93, 228, 124
-0.99759, 291, 133, 306, 164
-0.997591, 225, 85, 352, 116
-0.997601, 17, 197, 144, 228
-0.99761, 65, 273, 192, 336
-0.997625, 193, 125, 208, 156
-0.997627, 381, 165, 396, 196
-0.99763, 413, 129, 444, 375
-0.997632, 17, 213, 144, 244
-0.997642, 199, 97, 214, 128
-0.997643, 129, 29, 256, 60
-0.997658, 299, 137, 314, 168
-0.997663, 99, 177, 114, 208
-0.997669, 209, 61, 336, 92
-0.997697, 411, 157, 426, 188
-0.997708, 373, 1, 404, 256
-0.997726, 163, 117, 178, 148
-0.997739, 175, 57, 190, 88
-0.997741, 213, 97, 244, 352
-0.997746, 425, 161, 440, 192
-0.997761, 257, 269, 384, 300
-0.997765, 453, 189, 468, 220
-0.997775, 369, 273, 496, 304
-0.997784, 369, 225, 496, 256
-0.997788, 245, 141, 260, 172
-0.997802, 369, 101, 496, 132
-0.997802, 205, 129, 220, 160
-0.997803, 381, 177, 396, 208
-0.997821, 113, 5, 240, 36
-0.997825, 461, 201, 476, 232
-0.997826, 321, 25, 448, 56
-0.997834, 241, 33, 272, 288
-0.997836, 371, 193, 386, 224
-0.997847, 373, 145, 388, 176
-0.997856, 369, 161, 384, 192
-0.99786, 203, 109, 218, 140
-0.997867, 427, 193, 442, 224
-0.997867, 177, 29, 304, 60
-0.997872, 231, 149, 246, 180
-0.997873, 79, 77, 94, 108
-0.99788, 461, 173, 476, 204
-0.997881, 319, 129, 334, 160
-0.997918, 321, 257, 448, 288
-0.997921, 129, 97, 160, 352
-0.997928, 219, 97, 234, 128
-0.997928, 117, 225, 132, 256
-0.997928, 403, 193, 418, 224
-0.99795, 65, 209, 80, 240
-0.997963, 93, 185, 108, 216
-0.997973, 441, 161, 456, 192
-0.997975, 17, 253, 144, 284
-0.997977, 287, 153, 302, 184
-0.99798, 467, 205, 482, 236
-0.997989, 105, 97, 136, 352
-0.997994, 331, 165, 346, 196
-0.997995, 213, 121, 228, 152
-0.997999, 89, 145, 104, 176
-0.998001, 149, 41, 164, 72
-0.998002, 241, 153, 256, 184
-0.998005, 237, 201, 252, 232
-0.998006, 279, 133, 294, 164
-0.998023, 251, 141, 266, 172
-0.998029, 83, 57, 98, 88
-0.998034, 227, 137, 242, 168
-0.998043, 73, 69, 88, 100
-0.998044, 185, 61, 200, 92
-0.998045, 151, 113, 166, 144
-0.998046, 357, 85, 372, 116
-0.998047, 161, 221, 288, 252
-0.998053, 247, 205, 262, 236
-0.998063, 321, 153, 336, 184
-0.998064, 455, 165, 470, 196
-0.998066, 49, 81, 64, 112
-0.99807, 351, 149, 366, 180
-0.998071, 257, 109, 272, 140
-0.998077, 319, 177, 334, 208
-0.998084, 281, 129, 312, 375
-0.998084, 255, 209, 270, 240
-0.998089, 453, 1, 484, 256
-0.998094, 201, 141, 216, 172
-0.998097, 335, 249, 350, 280
-0.998103, 139, 37, 154, 68
-0.998105, 187, 125, 202, 156
-0.998126, 421, 193, 436, 224
-0.998127, 209, 97, 336, 128
-0.998128, 265, 213, 280, 244
-0.998133, 283, 165, 298, 196
-0.998148, 293, 153, 308, 184
-0.998154, 291, 225, 306, 256
-0.998156, 269, 153, 284, 184
-0.99816, 85, 89, 100, 120
-0.998161, 145, 17, 272, 48
-0.998163, 363, 189, 378, 220
-0.998202, 157, 129, 188, 375
-0.998218, 17, 133, 144, 164
-0.998237, 369, 1, 496, 32
-0.998283, 273, 49, 400, 80
-0.998295, 353, 245, 480, 276
-0.998296, 321, 1, 448, 32
-0.998303, 65, 237, 192, 268
-0.99831, 197, 97, 228, 352
-0.99836, 369, 29, 496, 60
-0.998365, 393, 179, 456, 194
-0.998366, 297, 139, 360, 154
-0.998386, 409, 171, 472, 186
-0.998397, 145, 73, 272, 104
-0.998397, 201, 111, 264, 126
-0.998399, 65, 137, 192, 168
-0.998404, 361, 157, 424, 172
-0.998407, 257, 127, 320, 142
-0.99841, 389, 153, 420, 168
-0.998414, 105, 167, 136, 182
-0.998414, 229, 107, 260, 122
-0.998416, 173, 63, 204, 78
-0.998416, 353, 249, 384, 264
-0.998416, 77, 57, 108, 72
-0.998417, 57, 87, 88, 102
-0.998418, 357, 199, 388, 214
-0.99842, 377, 181, 408, 196
-0.998421, 69, 105, 100, 120
-0.998422, 201, 123, 264, 138
-0.998422, 405, 197, 436, 212
-0.998424, 425, 195, 456, 210
-0.998424, 265, 219, 296, 234
-0.998425, 289, 231, 320, 246
-0.998426, 161, 139, 192, 154
-0.998427, 77, 187, 108, 202
-0.998428, 417, 183, 480, 198
-0.998428, 73, 85, 104, 100
-0.998429, 145, 49, 176, 64
-0.99843, 129, 49, 160, 64
-0.998431, 237, 207, 268, 222
-0.998431, 137, 123, 168, 138
-0.998432, 321, 157, 352, 172
-0.998433, 101, 173, 132, 188
-0.998434, 329, 179, 392, 194
-0.998434, 357, 187, 388, 202
-0.998435, 61, 97, 92, 352
-0.998436, 277, 225, 308, 240
-0.998438, 197, 191, 228, 206
-0.998439, 153, 133, 184, 148
-0.998439, 189, 137, 220, 152
-0.998443, 401, 177, 432, 192
-0.998444, 249, 127, 280, 142
-0.998446, 293, 179, 324, 194
-0.998446, 341, 185, 372, 200
-0.998448, 237, 123, 268, 138
-0.998449, 445, 219, 476, 234
-0.99845, 205, 153, 236, 168
-0.99845, 201, 119, 232, 134
-0.998451, 157, 119, 188, 134
-0.998452, 385, 171, 416, 186
-0.998453, 389, 199, 420, 214
-0.998453, 185, 111, 216, 126
-0.998453, 85, 223, 116, 238
-0.998454, 225, 147, 288, 162
-0.998454, 333, 191, 364, 206
-0.998455, 281, 145, 344, 160
-0.998455, 177, 133, 240, 148
-0.998456, 313, 185, 344, 200
-0.998457, 257, 159, 288, 174
-0.998459, 233, 161, 264, 176
-0.998459, 245, 137, 276, 152
-0.998459, 245, 161, 276, 176
-0.99846, 377, 163, 440, 178
-0.99846, 233, 131, 296, 146
-0.998462, 45, 85, 76, 100
-0.998462, 289, 325, 416, 356
-0.998463, 353, 157, 384, 172
-0.998463, 229, 149, 260, 164
-0.998463, 433, 217, 464, 232
-0.998464, 293, 143, 324, 158
-0.998465, 201, 141, 264, 156
-0.998465, 273, 173, 304, 188
-0.998466, 217, 119, 248, 134
-0.998467, 225, 125, 256, 140
-0.998472, 353, 165, 416, 180
-0.998475, 369, 199, 400, 214
-0.998476, 321, 159, 384, 174
-0.998476, 297, 171, 328, 186
-0.998476, 281, 137, 312, 152
-0.998477, 313, 191, 376, 206
-0.998477, 265, 133, 296, 148
-0.998478, 273, 133, 336, 148
-0.998478, 177, 117, 240, 132
-0.998479, 333, 157, 364, 172
-0.99848, 385, 165, 416, 180
-0.99848, 297, 129, 328, 144
-0.998481, 217, 147, 248, 162
-0.998482, 273, 179, 336, 194
-0.998483, 305, 171, 368, 186
-0.998483, 353, 185, 416, 200
-0.998484, 153, 55, 184, 70
-0.998485, 249, 155, 312, 170
-0.998486, 377, 173, 440, 188
-0.998486, 305, 149, 336, 164
-0.998487, 345, 143, 408, 158
-0.998488, 197, 147, 228, 162
-0.99849, 141, 129, 172, 144
-0.99849, 281, 165, 344, 180
-0.998492, 337, 149, 400, 164
-0.998492, 369, 191, 432, 206
-0.998493, 41, 87, 104, 102
-0.998497, 213, 113, 244, 128
-0.998497, 401, 199, 464, 214
-0.998498, 285, 173, 316, 188
-0.9985, 449, 205, 480, 220
-0.9985, 433, 185, 464, 200
-0.9985, 281, 159, 344, 174
-0.998501, 173, 139, 204, 154
-0.998501, 305, 77, 432, 108
-0.998501, 45, 97, 76, 352
-0.998501, 325, 185, 356, 200
-0.998502, 161, 127, 224, 142
-0.998505, 417, 181, 448, 196
-0.998505, 225, 165, 288, 180
-0.998505, 193, 105, 224, 120
-0.998506, 373, 167, 404, 182
-0.998508, 353, 149, 384, 164
-0.998509, 233, 119, 296, 134
-0.99851, 405, 205, 436, 220
-0.998512, 121, 115, 184, 130
-0.998513, 185, 105, 248, 120
-0.998514, 381, 143, 412, 158
-0.998514, 317, 147, 348, 162
-0.998516, 305, 145, 368, 160
-0.998516, 1, 45, 128, 76
-0.998518, 413, 163, 444, 178
-0.998519, 329, 185, 392, 200
-0.998519, 141, 129, 172, 375
-0.998521, 413, 175, 444, 190
-0.998522, 285, 119, 316, 134
-0.998522, 289, 185, 352, 200
-0.998522, 197, 113, 228, 128
-0.998523, 257, 139, 320, 154
-0.998524, 193, 155, 256, 170
-0.998524, 145, 121, 208, 136
-0.998524, 257, 121, 320, 136
-0.998525, 189, 129, 220, 144
-0.998525, 165, 53, 196, 68
-0.998526, 249, 173, 312, 188
-0.998527, 401, 165, 464, 180
-0.998527, 393, 193, 456, 208
-0.998528, 237, 129, 268, 144
-0.998528, 73, 79, 104, 94
-0.998531, 361, 203, 424, 218
-0.998532, 337, 199, 400, 214
-0.998532, 317, 179, 348, 194
-0.998532, 101, 227, 132, 242
-0.998533, 217, 107, 248, 122
-0.998533, 161, 145, 224, 160
-0.998536, 361, 179, 392, 194
-0.998536, 369, 197, 432, 212
-0.998536, 49, 79, 112, 94
-0.998538, 269, 167, 300, 182
-0.998538, 281, 171, 344, 186
-0.99854, 137, 55, 200, 70
-0.998542, 229, 155, 260, 170
-0.998545, 433, 219, 496, 234
-0.998546, 425, 177, 488, 192
-0.998547, 313, 167, 344, 182
-0.998547, 21, 97, 52, 352
-0.998548, 401, 213, 464, 228
-0.998548, 273, 155, 304, 170
-0.99855, 57, 181, 120, 196
-0.998552, 397, 169, 428, 184
-0.998552, 145, 135, 208, 150
-0.998554, 201, 147, 264, 162
-0.998555, 65, 225, 128, 240
-0.998556, 393, 205, 456, 220
-0.998558, 229, 141, 260, 156
-0.998559, 201, 117, 264, 132
-0.99856, 369, 209, 432, 224
-0.998561, 305, 141, 336, 156
-0.998562, 249, 161, 312, 176
-0.998562, 425, 207, 488, 222
-0.998563, 445, 183, 476, 198
-0.998564, 177, 67, 240, 82
-0.998565, 393, 205, 424, 220
-0.998567, 433, 171, 464, 186
-0.998568, 17, 173, 80, 188
-0.998569, 305, 245, 368, 260
-0.998569, 169, 111, 232, 126
-0.998569, 33, 53, 96, 68
-0.998569, 237, 117, 268, 132
-0.99857, 337, 193, 400, 208
-0.998572, 377, 149, 408, 164
-0.998573, 129, 49, 192, 64
-0.998575, 185, 99, 248, 114
-0.998577, 249, 167, 312, 182
-0.998577, 201, 99, 232, 114
-0.998578, 305, 177, 368, 192
-0.998579, 185, 143, 216, 158
-0.99858, 209, 49, 224, 176
-0.99858, 417, 189, 480, 204
-0.998583, 409, 169, 440, 184
-0.998584, 233, 211, 296, 226
-0.998584, 49, 217, 112, 232
-0.998584, 105, 127, 168, 142
-0.998585, 49, 109, 112, 124
-0.998585, 217, 153, 280, 168
-0.998586, 269, 127, 300, 142
-0.998587, 193, 197, 256, 212
-0.998588, 273, 1, 400, 32
-0.998589, 409, 221, 472, 236
-0.998589, 361, 151, 424, 166
-0.99859, 161, 51, 224, 66
-0.99859, 265, 75, 328, 90
-0.998591, 177, 139, 240, 154
-0.998592, 217, 153, 248, 168
-0.998592, 405, 191, 436, 206
-0.998593, 257, 165, 288, 180
-0.998593, 57, 175, 120, 190
-0.998594, 301, 135, 332, 150
-0.998594, 357, 193, 388, 208
-0.998594, 333, 149, 364, 164
-0.998594, 281, 123, 344, 138
-0.998594, 217, 203, 280, 218
-0.998595, 337, 137, 400, 152
-0.998599, 333, 143, 364, 158
-0.998599, 369, 161, 400, 176
-0.9986, 73, 55, 136, 70
-0.9986, 177, 189, 240, 204
-0.998601, 225, 159, 288, 174
-0.998601, 277, 129, 292, 256
-0.998601, 249, 217, 312, 232
-0.998602, 65, 91, 128, 106
-0.998603, 281, 151, 344, 166
-0.998603, 305, 153, 368, 168
-0.998605, 345, 191, 376, 206
-0.998605, 273, 229, 336, 244
-0.998606, 225, 49, 240, 176
-0.998607, 437, 177, 468, 192
-0.998607, 105, 109, 168, 124
-0.998608, 81, 101, 144, 116
-0.998608, 329, 173, 392, 188
-0.998609, 121, 133, 184, 148
-0.998609, 285, 125, 316, 140
-0.998609, 345, 247, 408, 262
-0.99861, 313, 251, 376, 266
-0.998611, 1, 129, 64, 144
-0.998611, 225, 113, 256, 128
-0.998612, 169, 151, 232, 166
-0.998613, 225, 141, 288, 156
-0.998614, 9, 107, 72, 122
-0.998616, 321, 239, 384, 254
-0.998616, 369, 145, 432, 160
-0.998616, 17, 87, 80, 102
-0.998616, 65, 115, 128, 130
-0.998617, 25, 123, 88, 138
-0.998618, 41, 103, 104, 118
-0.998619, 217, 63, 280, 78
-0.99862, 105, 49, 168, 64
-0.99862, 449, 177, 480, 192
-0.99862, 201, 135, 264, 150
-0.998621, 281, 235, 344, 250
-0.998623, 41, 73, 104, 88
-0.998623, 353, 179, 416, 194
-0.998623, 317, 139, 348, 154
-0.998624, 153, 61, 216, 76
-0.998624, 81, 121, 144, 136
-0.998625, 265, 223, 328, 238
-0.998625, 329, 279, 392, 294
-0.998626, 249, 121, 280, 136
-0.998627, 305, 179, 336, 194
-0.998628, 433, 225, 496, 240
-0.998629, 193, 203, 256, 218
-0.998632, 153, 189, 216, 204
-0.998632, 297, 45, 360, 60
-0.998634, 117, 97, 148, 352
-0.998635, 205, 107, 236, 122
-0.998639, 165, 33, 180, 160
-0.998642, 327, 129, 342, 256
-0.998643, 203, 49, 218, 176
-0.998652, 193, 237, 320, 268
-0.998656, 321, 13, 448, 44
-0.998661, 257, 13, 384, 44
-0.998663, 465, 1, 496, 256
-0.998664, 401, 163, 432, 178
-0.998666, 197, 49, 212, 176
-0.998668, 421, 169, 452, 184
-0.998688, 285, 131, 316, 146
-0.99869, 373, 155, 404, 170
-0.998707, 305, 285, 432, 316
-0.998716, 159, 49, 174, 176
-0.998733, 217, 49, 232, 176
-0.998737, 191, 49, 206, 176
-0.99874, 429, 113, 444, 240
-0.998761, 235, 97, 250, 224
-0.998768, 159, 97, 174, 224
-0.998773, 385, 159, 416, 174
-0.998775, 177, 49, 192, 176
-0.998784, 271, 129, 286, 256
-0.998787, 185, 49, 200, 176
-0.998792, 231, 49, 246, 176
-0.998793, 283, 113, 298, 240
-0.998806, 423, 113, 438, 240
-0.998822, 409, 97, 424, 224
-0.998824, 417, 113, 432, 240
-0.998826, 303, 113, 318, 240
-0.998843, 435, 113, 450, 240
-0.998843, 243, 65, 258, 192
-0.998848, 97, 85, 224, 116
-0.998849, 353, 297, 480, 360
-0.998859, 393, 97, 408, 224
-0.998861, 273, 89, 400, 120
-0.998866, 147, 33, 162, 160
-0.998867, 319, 113, 334, 240
-0.998867, 369, 77, 496, 108
-0.998878, 401, 97, 416, 224
-0.998879, 241, 325, 368, 356
-0.998887, 345, 81, 360, 208
-0.998891, 381, 97, 396, 224
-0.998891, 251, 65, 266, 192
-0.998898, 153, 49, 168, 176
-0.998898, 25, 1, 56, 256
-0.99891, 371, 161, 386, 288
-0.998923, 17, 285, 144, 316
-0.998924, 333, 81, 348, 208
-0.998926, 171, 49, 186, 176
-0.998926, 49, 29, 176, 60
-0.998927, 293, 65, 308, 192
-0.998929, 343, 129, 358, 256
-0.998933, 277, 65, 292, 192
-0.998937, 333, 129, 348, 256
-0.998938, 199, 97, 214, 224
-0.998939, 411, 145, 426, 272
-0.998939, 165, 97, 180, 224
-0.998942, 461, 177, 476, 304
-0.998944, 219, 97, 234, 224
-0.998949, 441, 113, 456, 240
-0.99896, 9, 65, 40, 320
-0.998972, 353, 81, 368, 208
-0.998972, 393, 145, 408, 272
-0.998973, 265, 97, 280, 224
-0.99898, 301, 65, 316, 192
-0.99898, 381, 177, 396, 304
-0.99898, 289, 337, 416, 368
-0.998991, 227, 97, 242, 224
-0.998993, 353, 45, 480, 76
-0.999001, 287, 65, 302, 192
-0.999004, 95, 33, 110, 160
-0.999006, 243, 145, 258, 272
-0.999007, 327, 177, 342, 304
-0.999008, 309, 81, 324, 208
-0.999011, 141, 33, 156, 160
-0.999013, 365, 97, 380, 224
-0.999016, 237, 49, 252, 176
-0.999017, 469, 113, 484, 240
-0.999018, 171, 97, 186, 224
-0.999034, 447, 177, 462, 304
-0.99904, 97, 113, 112, 240
-0.999043, 257, 97, 272, 224
-0.999051, 321, 161, 336, 288
-0.999053, 423, 177, 438, 304
-0.999054, 399, 145, 414, 272
-0.999056, 249, 113, 264, 240
-0.999061, 455, 113, 470, 240
-0.999064, 119, 33, 134, 160
-0.999066, 311, 33, 326, 160
-0.99907, 361, 161, 376, 288
-0.999073, 349, 225, 364, 352
-0.999078, 153, 97, 168, 224
-0.999088, 301, 129, 332, 375
-0.99909, 419, 65, 434, 192
-0.999095, 257, 281, 384, 312
-0.999098, 127, 33, 142, 160
-0.999104, 129, 97, 144, 224
-0.999105, 209, 113, 224, 240
-0.999105, 417, 177, 432, 304
-0.999107, 337, 241, 352, 368
-0.99911, 357, 225, 372, 352
-0.999118, 335, 193, 350, 320
-0.999118, 101, 33, 116, 160
-0.999118, 363, 225, 378, 352
-0.999121, 369, 13, 496, 44
-0.999121, 325, 81, 340, 208
-0.999121, 193, 97, 208, 224
-0.999125, 123, 81, 138, 208
-0.999129, 271, 65, 286, 192
-0.99913, 355, 161, 370, 288
-0.999132, 471, 193, 486, 320
-0.999133, 257, 129, 288, 375
-0.999138, 405, 177, 420, 304
-0.999142, 229, 129, 260, 375
-0.999142, 83, 49, 98, 176
-0.999143, 109, 33, 124, 160
-0.999145, 117, 81, 132, 208
-0.999148, 305, 61, 432, 92
-0.999152, 375, 113, 390, 240
-0.99916, 297, 113, 312, 240
-0.999162, 313, 145, 328, 272
-0.999166, 485, 193, 500, 320
-0.999171, 257, 49, 272, 176
-0.999172, 455, 177, 470, 304
-0.999172, 65, 65, 80, 192
-0.999174, 485, 129, 500, 256
-0.999175, 429, 177, 444, 304
-0.999175, 87, 129, 102, 256
-0.999177, 439, 177, 454, 304
-0.999177, 387, 145, 402, 272
-0.999178, 111, 81, 126, 208
-0.999178, 133, 33, 148, 160
-0.99918, 103, 161, 118, 288
-0.999182, 177, 97, 192, 224
-0.999184, 73, 49, 88, 176
-0.999184, 387, 97, 402, 224
-0.999186, 185, 113, 200, 240
-0.999187, 141, 97, 156, 224
-0.999188, 91, 81, 106, 208
-0.999197, 447, 113, 462, 240
-0.999197, 245, 129, 276, 375
-0.999209, 1, 269, 128, 300
-0.999209, 137, 161, 152, 288
-0.99921, 97, 161, 112, 288
-0.999218, 425, 65, 440, 192
-0.999228, 81, 249, 208, 280
-0.999237, 285, 17, 300, 144
-0.99924, 343, 225, 358, 352
-0.999246, 353, 65, 480, 96
-0.999246, 265, 145, 280, 272
-0.99925, 33, 97, 64, 352
-0.999251, 479, 193, 494, 320
-0.999266, 339, 81, 354, 208
-0.999272, 461, 113, 476, 240
-0.999274, 147, 97, 162, 224
-0.999275, 61, 17, 76, 144
-0.999278, 105, 81, 120, 208
-0.999279, 289, 129, 304, 256
-0.99928, 119, 129, 134, 256
-0.999418, 61, 1, 92, 256
-0.99943, 1, 257, 256, 320
-0.999452, 45, 1, 76, 256
-0.999498, 145, 241, 272, 304
-0.999551, 129, 209, 192, 336
-0.999563, 257, 297, 500, 360
-0.999643, 165, 53, 180, 68
-0.999644, 347, 191, 362, 206
-0.999645, 207, 149, 222, 164
-0.999645, 221, 153, 236, 168
-0.999646, 215, 151, 230, 166
-0.999646, 255, 163, 270, 178
-0.999647, 391, 169, 406, 184
-0.999647, 103, 173, 118, 188
-0.999648, 461, 221, 476, 236
-0.999649, 261, 117, 276, 132
-0.99965, 195, 127, 210, 142
-0.999654, 341, 189, 356, 204
-0.999654, 373, 165, 388, 180
-0.999655, 327, 155, 342, 170
-0.999655, 335, 187, 350, 202
-0.999656, 301, 177, 316, 192
-0.999657, 203, 113, 218, 128
-0.99966, 305, 143, 320, 158
-0.99966, 289, 173, 304, 188
-0.999661, 409, 189, 424, 204
-0.999661, 295, 175, 310, 190
-0.999663, 241, 125, 256, 140
-0.999663, 457, 173, 472, 188
-0.999665, 241, 143, 256, 158
-0.999665, 337, 151, 352, 166
-0.999667, 435, 179, 450, 194
-0.999668, 353, 189, 368, 204
-0.999669, 253, 115, 268, 130
-0.99967, 381, 141, 396, 156
-0.999672, 373, 153, 388, 168
-0.999676, 235, 139, 250, 154
-0.999677, 363, 175, 378, 190
-0.999678, 383, 165, 398, 180
-0.999678, 455, 185, 470, 200
-0.99968, 157, 129, 172, 144
-0.99968, 401, 203, 416, 218
-0.99968, 269, 163, 284, 178
-0.999681, 343, 141, 358, 156
-0.999684, 413, 161, 428, 176
-0.999684, 205, 101, 220, 116
-0.999684, 227, 151, 242, 166
-0.999688, 329, 137, 344, 152
-0.999691, 287, 131, 302, 146
-0.999691, 177, 49, 192, 64
-0.999699, 193, 141, 208, 156
-0.9997, 413, 207, 428, 222
-0.9997, 423, 163, 438, 178
-0.9997, 267, 123, 282, 138
-0.999702, 381, 149, 396, 164
-0.999705, 157, 119, 172, 134
-0.999706, 301, 123, 316, 138
-0.999707, 103, 223, 118, 238
-0.999709, 207, 107, 222, 122
-0.999713, 199, 143, 214, 158
-0.999713, 263, 129, 278, 144
-0.999716, 409, 171, 424, 186
-0.999718, 389, 149, 404, 164
-0.999718, 345, 153, 360, 168
-0.999721, 235, 105, 250, 120
-0.999722, 355, 147, 370, 162
-0.999724, 389, 157, 404, 172
-0.999727, 359, 191, 374, 206
-0.999727, 309, 131, 324, 146
-0.999727, 111, 227, 126, 242
-0.999731, 293, 123, 308, 138
-0.999731, 209, 95, 224, 110
-0.999732, 465, 177, 480, 192
-0.999734, 281, 167, 296, 182
-0.999736, 407, 205, 422, 220
-0.99974, 311, 143, 326, 158
-0.999741, 371, 195, 386, 210
-0.999741, 297, 117, 312, 132
-0.999742, 241, 155, 256, 170
-0.999747, 255, 127, 270, 142
-0.999748, 313, 177, 328, 192
-0.999748, 295, 131, 310, 146
-0.999752, 233, 153, 248, 168
-0.999753, 337, 139, 352, 154
-0.999753, 225, 115, 240, 130
-0.999755, 321, 149, 336, 164
-0.999755, 435, 167, 450, 182
-0.999759, 387, 143, 402, 158
-0.999759, 417, 173, 432, 188
-0.999762, 209, 113, 224, 128
-0.999765, 275, 165, 290, 180
-0.999765, 461, 185, 476, 200
-0.999768, 171, 51, 186, 66
-0.999768, 395, 155, 410, 170
-0.99977, 449, 185, 464, 200
-0.999772, 423, 175, 438, 190
-0.999773, 365, 193, 380, 208
-0.999781, 401, 167, 416, 182
-0.999781, 217, 115, 232, 130
-0.999785, 303, 131, 318, 146
-0.999786, 85, 79, 100, 94
-0.999787, 231, 111, 246, 126
-0.999788, 325, 181, 340, 196
-0.999789, 331, 149, 346, 164
-0.999791, 441, 179, 456, 194
-0.999793, 429, 175, 444, 190
-0.999798, 239, 119, 254, 134
-0.999802, 319, 179, 334, 194
-0.999806, 249, 123, 264, 138
-0.999809, 161, 273, 416, 336
-0.999811, 223, 109, 238, 124
-0.999814, 383, 159, 398, 174
-0.999815, 237, 111, 252, 126
-0.999817, 261, 123, 276, 138
-0.999817, 375, 159, 390, 174
-0.999819, 389, 163, 404, 178
-0.999829, 199, 107, 214, 122
-0.999831, 309, 137, 324, 152
-0.999838, 255, 121, 270, 136
-0.999839, 345, 147, 360, 162
-0.999846, 217, 109, 232, 124
-0.999846, 233, 117, 248, 132
-0.999849, 447, 179, 462, 194
-0.999851, 247, 117, 262, 132
-0.999851, 435, 173, 450, 188
-0.999852, 451, 173, 466, 188
-0.999852, 301, 137, 316, 152
-0.999854, 445, 173, 460, 188
-0.999858, 329, 143, 344, 158
-0.999858, 405, 161, 420, 176
-0.999859, 1, 289, 500, 352
-0.999864, 337, 145, 352, 160
-0.999867, 319, 137, 334, 152
-0.999874, 429, 169, 444, 184
-0.99988, 423, 169, 438, 184
-0.999896, 395, 161, 410, 176
-0.999913, 415, 167, 430, 182
-0.999922, 457, 179, 472, 194
-1.00013, 161, 305, 416, 368
-1.0005, 1, 1, 256, 64
-1.00061, 177, 265, 304, 328
-1.00098, 1, 281, 256, 344
-1.00126, 1, 1, 128, 64
-1.00127, 49, 297, 176, 360
-1.00141, 129, 265, 256, 328
-1.00146, 1, 313, 256, 375
-1.00176, 177, 289, 304, 352
-1.00233, 113, 289, 240, 352
-1.00253, 1, 313, 500, 375
-1.00291, 97, 313, 224, 375
-1.00291, 145, 313, 272, 375
-1.0101, 241, 241, 304, 368
-1.01133, 217, 241, 280, 368
-1.01137, 169, 241, 232, 368
