1893
-0.337841, 1, 1, 500, 333
-0.390327, 1, 1, 500, 256
-0.405024, 225, 1, 480, 333
-0.427923, 129, 1, 384, 333
-0.481946, 97, 1, 352, 256
-0.546982, 1, 1, 256, 333
-0.593781, 257, 1, 500, 256
-0.684544, 1, 1, 256, 256
-0.849997, 177, 1, 304, 333
-0.852286, 161, 1, 288, 256
-0.859481, 129, 1, 256, 333
-0.862471, 369, 1, 496, 256
-0.864906, 97, 33, 224, 288
-0.869041, 1, 1, 500, 128
-0.870742, 209, 1, 336, 256
-0.870933, 1, 145, 500, 272
-0.873347, 225, 1, 352, 333
-0.874584, 273, 1, 400, 256
-0.87574, 49, 65, 176, 320
-0.876495, 321, 1, 448, 333
-0.878947, 321, 1, 448, 256
-0.881311, 369, 1, 496, 333
-0.893193, 1, 65, 500, 192
-0.895687, 273, 1, 400, 333
-0.897147, 17, 1, 144, 333
-0.897546, 65, 1, 192, 333
-0.902646, 1, 1, 256, 128
-0.903219, 257, 17, 500, 144
-0.90323, 1, 33, 128, 288
-0.907381, 97, 1, 352, 128
-0.908306, 97, 65, 352, 192
-0.919867, 385, 1, 448, 128
-0.924933, 97, 1, 224, 128
-0.925251, 257, 81, 500, 208
-0.926601, 17, 1, 144, 128
-0.929721, 321, 17, 448, 144
-0.932254, 369, 1, 496, 128
-0.932302, 193, 129, 448, 256
-0.93279, 361, 17, 424, 144
-0.934664, 145, 1, 208, 128
-0.934685, 393, 65, 456, 192
-0.935323, 289, 65, 416, 192
-0.937819, 97, 65, 224, 192
-0.938147, 209, 1, 336, 128
-0.938177, 65, 1, 128, 128
-0.938786, 105, 1, 168, 128
-0.938797, 289, 49, 352, 176
-0.939407, 1, 193, 500, 320
-0.941852, 257, 209, 500, 333
-0.942355, 409, 17, 472, 144
-0.942763, 257, 17, 320, 144
-0.942923, 369, 65, 496, 192
-0.942943, 369, 97, 432, 224
-0.942944, 49, 49, 176, 176
-0.944088, 321, 17, 384, 144
-0.94423, 97, 129, 352, 256
-0.944301, 1, 113, 256, 240
-0.94465, 161, 1, 288, 128
-0.944822, 393, 265, 456, 328
-0.945758, 225, 1, 288, 128
-0.945789, 257, 17, 384, 144
-0.945811, 217, 1, 280, 64
-0.94608, 113, 49, 176, 176
-0.94626, 177, 1, 240, 128
-0.946453, 385, 209, 448, 333
-0.946617, 145, 161, 208, 288
-0.946813, 25, 1, 88, 128
-0.946893, 337, 1, 400, 64
-0.947096, 289, 1, 352, 64
-0.947154, 353, 33, 416, 96
-0.947169, 1, 49, 256, 176
-0.947275, 385, 9, 448, 72
-0.948135, 393, 41, 456, 104
-0.949094, 121, 177, 184, 304
-0.95122, 193, 25, 256, 88
-0.951229, 177, 49, 304, 176
-0.952178, 321, 25, 384, 88
-0.9526, 281, 1, 344, 128
-0.952877, 361, 1, 424, 64
-0.95358, 369, 145, 432, 272
-0.954081, 265, 81, 328, 208
-0.954198, 425, 25, 488, 88
-0.954585, 337, 65, 400, 192
-0.954933, 249, 1, 312, 64
-0.955079, 241, 33, 304, 96
-0.955296, 217, 33, 280, 96
-0.955599, 97, 113, 224, 240
-0.955679, 393, 73, 456, 136
-0.955966, 289, 33, 352, 96
-0.956491, 313, 65, 376, 192
-0.956787, 153, 65, 216, 192
-0.957145, 369, 73, 432, 136
-0.957515, 369, 273, 432, 333
-0.95752, 105, 113, 168, 240
-0.957593, 289, 113, 416, 240
-0.957696, 161, 209, 416, 333
-0.957966, 209, 97, 336, 224
-0.958199, 397, 1, 428, 128
-0.958292, 153, 1, 216, 64
-0.958537, 129, 97, 192, 224
-0.958565, 433, 1, 496, 128
-0.958623, 193, 49, 256, 112
-0.959592, 321, 209, 448, 333
-0.95997, 313, 1, 376, 64
-0.960758, 193, 49, 256, 176
-0.961893, 129, 161, 256, 288
-0.961915, 201, 1, 264, 128
-0.961917, 193, 1, 256, 64
-0.961982, 397, 1, 428, 64
-0.962376, 121, 177, 184, 240
-0.962378, 393, 241, 456, 304
-0.962749, 265, 33, 328, 96
-0.962848, 121, 137, 184, 200
-0.962974, 393, 145, 456, 272
-0.963132, 81, 161, 208, 288
-0.963219, 305, 65, 368, 128
-0.963228, 1, 177, 256, 304
-0.963545, 145, 209, 208, 333
-0.963788, 89, 49, 152, 176
-0.963834, 377, 145, 440, 208
-0.963906, 49, 113, 176, 240
-0.964271, 289, 129, 352, 192
-0.964583, 145, 169, 208, 232
-0.964886, 385, 97, 448, 160
-0.964908, 1, 49, 128, 176
-0.965151, 369, 25, 496, 88
-0.965229, 425, 65, 488, 192
-0.965513, 369, 113, 496, 240
-0.965933, 249, 129, 312, 192
-0.966188, 417, 33, 448, 96
-0.966251, 217, 65, 280, 192
-0.966263, 321, 1, 448, 64
-0.966429, 401, 65, 432, 128
-0.966538, 129, 209, 256, 333
-0.966613, 1, 1, 64, 128
-0.96671, 161, 265, 224, 328
-0.966769, 153, 113, 216, 240
-0.967242, 377, 177, 440, 240
-0.967322, 353, 153, 416, 216
-0.967547, 305, 161, 432, 288
-0.967585, 389, 41, 420, 104
-0.96784, 153, 33, 216, 288
-0.967895, 425, 65, 488, 128
-0.967954, 41, 49, 104, 176
-0.968018, 265, 57, 328, 120
-0.968297, 153, 161, 184, 288
-0.968341, 289, 97, 352, 224
-0.968479, 381, 17, 412, 144
-0.968676, 289, 41, 416, 104
-0.968699, 145, 241, 208, 304
-0.968807, 409, 17, 440, 144
-0.969106, 393, 201, 456, 264
-0.969159, 241, 273, 304, 333
-0.969171, 281, 81, 344, 144
-0.969264, 153, 33, 216, 96
-0.969747, 337, 265, 464, 328
-0.969787, 225, 1, 352, 64
-0.969825, 409, 1, 472, 64
-0.969975, 397, 65, 428, 192
-0.969999, 405, 209, 436, 333
-0.970139, 145, 97, 272, 224
-0.970173, 225, 145, 288, 208
-0.970305, 393, 1, 456, 256
-0.970324, 169, 161, 232, 288
-0.970408, 273, 153, 336, 216
-0.970473, 201, 145, 264, 208
-0.970748, 233, 57, 296, 120
-0.970788, 153, 65, 216, 128
-0.970846, 329, 49, 392, 112
-0.970861, 369, 121, 432, 184
-0.970935, 65, 49, 128, 176
-0.970951, 149, 1, 180, 128
-0.971064, 353, 209, 416, 333
-0.971166, 193, 265, 256, 328
-0.971234, 349, 25, 380, 88
-0.971292, 409, 9, 440, 72
-0.971427, 185, 1, 248, 256
-0.971447, 69, 1, 100, 128
-0.971454, 333, 1, 364, 64
-0.971505, 65, 1, 128, 64
-0.971528, 269, 1, 300, 64
-0.971748, 369, 33, 400, 96
-0.971815, 121, 33, 184, 288
-0.971866, 149, 169, 180, 232
-0.971893, 385, 17, 416, 80
-0.971953, 345, 73, 408, 136
-0.97199, 369, 1, 400, 64
-0.972105, 217, 273, 280, 333
-0.972123, 25, 25, 88, 88
-0.972124, 177, 1, 304, 64
-0.972139, 401, 41, 432, 104
-0.97238, 17, 1, 80, 64
-0.972401, 425, 265, 456, 328
-0.97243, 121, 201, 184, 264
-0.972444, 321, 1, 384, 256
-0.972472, 209, 25, 336, 88
-0.972477, 81, 209, 208, 333
-0.972583, 345, 1, 376, 64
-0.972589, 329, 25, 360, 88
-0.97263, 217, 1, 280, 256
-0.972715, 105, 1, 168, 64
-0.972841, 345, 129, 408, 256
-0.972846, 145, 145, 208, 208
-0.972851, 313, 129, 376, 256
-0.972928, 281, 33, 312, 96
-0.973074, 397, 145, 428, 272
-0.973165, 265, 273, 328, 333
-0.973187, 165, 1, 196, 128
-0.973283, 433, 25, 464, 88
-0.973315, 369, 209, 496, 333
-0.973432, 277, 17, 308, 144
-0.973535, 289, 65, 416, 128
-0.973603, 225, 1, 256, 64
-0.973682, 97, 1, 128, 128
-0.973759, 129, 65, 192, 128
-0.973784, 137, 1, 168, 128
-0.973827, 97, 1, 224, 64
-0.973852, 457, 25, 488, 88
-0.973862, 377, 65, 408, 128
-0.973924, 401, 153, 432, 216
-0.974016, 181, 1, 212, 128
-0.974021, 297, 49, 328, 176
-0.974027, 433, 1, 496, 64
-0.974067, 249, 25, 280, 88
-0.974204, 241, 65, 304, 192
-0.974372, 329, 145, 392, 208
-0.974491, 409, 249, 440, 312
-0.974917, 369, 33, 432, 288
-0.974922, 337, 49, 464, 112
-0.974934, 97, 65, 224, 128
-0.974946, 241, 1, 304, 256
-0.974983, 121, 233, 184, 296
-0.975109, 117, 1, 148, 128
-0.975221, 445, 25, 476, 88
-0.975226, 265, 1, 328, 256
-0.97528, 421, 17, 452, 144
-0.975323, 369, 1, 496, 64
-0.975343, 401, 185, 432, 248
-0.975352, 249, 1, 280, 64
-0.975381, 129, 113, 160, 240
-0.975406, 137, 49, 168, 176
-0.975407, 129, 1, 192, 64
-0.975555, 313, 273, 376, 333
-0.975558, 105, 65, 168, 128
-0.975586, 317, 41, 348, 104
-0.975706, 57, 1, 88, 128
-0.975772, 417, 273, 480, 333
-0.975787, 81, 1, 112, 128
-0.975793, 249, 153, 312, 216
-0.976148, 369, 161, 496, 288
-0.976214, 145, 193, 208, 256
-0.976233, 289, 145, 352, 272
-0.976322, 353, 177, 416, 240
-0.976375, 161, 25, 288, 88
-0.976439, 273, 1, 400, 64
-0.976451, 369, 201, 432, 264
-0.976611, 125, 49, 156, 176
-0.976716, 413, 65, 444, 192
-0.976756, 17, 49, 80, 176
-0.976757, 313, 1, 344, 64
-0.97677, 409, 193, 472, 320
-0.976877, 405, 217, 436, 280
-0.976879, 389, 73, 420, 136
-0.9769, 297, 1, 328, 64
-0.976995, 225, 129, 352, 192
-0.977001, 361, 97, 424, 160
-0.977146, 369, 73, 496, 136
-0.97715, 177, 145, 304, 272
-0.977185, 133, 129, 164, 192
-0.977262, 297, 57, 328, 120
-0.977269, 265, 129, 328, 256
-0.97729, 193, 273, 320, 333
-0.977309, 209, 49, 336, 112
-0.97731, 313, 81, 344, 208
-0.977366, 289, 105, 352, 168
-0.977376, 385, 65, 416, 192
-0.977781, 73, 65, 136, 128
-0.977842, 209, 209, 336, 333
-0.977996, 289, 137, 416, 200
-0.978091, 157, 241, 188, 304
-0.978332, 45, 1, 76, 128
-0.978367, 357, 1, 388, 64
-0.978375, 393, 273, 424, 333
-0.978381, 329, 17, 360, 144
-0.978458, 177, 1, 208, 64
-0.978524, 145, 217, 208, 280
-0.978552, 229, 1, 260, 128
-0.978616, 253, 1, 284, 128
-0.978619, 153, 217, 184, 280
-0.978665, 401, 113, 432, 176
-0.978687, 169, 209, 232, 333
-0.978717, 153, 209, 184, 333
-0.978801, 137, 113, 200, 176
-0.978814, 113, 97, 176, 160
-0.97891, 161, 145, 288, 208
-0.978994, 385, 153, 416, 216
-0.979115, 269, 33, 300, 96
-0.979121, 237, 1, 268, 64
-0.979164, 281, 1, 312, 64
-0.979192, 145, 265, 272, 328
-0.979312, 389, 177, 420, 240
-0.979332, 225, 33, 256, 96
-0.979362, 317, 17, 348, 144
-0.97937, 49, 41, 112, 104
-0.979426, 369, 33, 400, 160
-0.979533, 401, 153, 464, 216
-0.979536, 185, 113, 248, 240
-0.979625, 353, 17, 384, 144
-0.979672, 209, 113, 272, 240
-0.979768, 133, 177, 164, 304
-0.979864, 25, 1, 56, 128
-0.979866, 113, 129, 240, 192
-0.979875, 49, 1, 176, 64
-0.97996, 301, 129, 332, 192
-0.979975, 369, 225, 432, 288
-0.980013, 153, 1, 216, 333
-0.980038, 305, 153, 368, 216
-0.980076, 401, 89, 432, 152
-0.980077, 33, 73, 160, 136
-0.980144, 149, 49, 180, 176
-0.980224, 245, 137, 276, 200
-0.980231, 289, 89, 416, 152
-0.980275, 313, 121, 376, 184
-0.9803, 297, 1, 360, 256
-0.980341, 145, 49, 272, 112
-0.980424, 97, 33, 160, 288
-0.980664, 433, 17, 464, 144
-0.980669, 281, 129, 312, 192
-0.980981, 25, 49, 88, 112
-0.981015, 265, 145, 296, 208
-0.981025, 241, 161, 368, 288
-0.981079, 181, 33, 212, 96
-0.981135, 313, 129, 344, 192
-0.981289, 289, 113, 416, 176
-0.981296, 393, 121, 456, 184
-0.981314, 225, 121, 288, 184
-0.981367, 1, 25, 64, 88
-0.98137, 129, 41, 192, 104
-0.981419, 97, 41, 224, 104
-0.981453, 177, 1, 240, 333
-0.981497, 345, 1, 408, 256
-0.981499, 241, 265, 368, 328
-0.981503, 289, 273, 352, 333
-0.981538, 137, 265, 200, 328
-0.981586, 149, 193, 180, 256
-0.981615, 145, 97, 176, 224
-0.981721, 385, 129, 416, 256
-0.981748, 193, 73, 256, 136
-0.981796, 401, 177, 464, 240
-0.981846, 417, 225, 480, 288
-0.981846, 225, 153, 352, 216
-0.981874, 293, 1, 324, 128
-0.981897, 353, 249, 416, 312
-0.982069, 185, 121, 248, 184
-0.982079, 49, 65, 112, 128
-0.982131, 305, 161, 432, 224
-0.982215, 249, 1, 312, 333
-0.982229, 161, 145, 192, 208
-0.982247, 145, 129, 176, 192
-0.982328, 385, 177, 416, 304
-0.982341, 409, 97, 472, 160
-0.982355, 325, 65, 356, 192
-0.982431, 233, 113, 296, 240
-0.982443, 369, 145, 496, 208
-0.982457, 81, 97, 144, 224
-0.982458, 241, 1, 272, 128
-0.982518, 181, 65, 212, 192
-0.982552, 97, 177, 160, 304
-0.982576, 417, 1, 480, 256
-0.982588, 393, 1, 456, 333
-0.982622, 421, 1, 452, 64
-0.982669, 233, 145, 264, 208
-0.982741, 133, 153, 164, 216
-0.982777, 97, 137, 160, 200
-0.982865, 369, 1, 432, 333
-0.98294, 225, 105, 352, 168
-0.982985, 121, 113, 152, 176
-0.983029, 413, 81, 444, 144
-0.983058, 289, 273, 416, 333
-0.983086, 165, 145, 196, 272
-0.98316, 349, 49, 380, 112
-0.983162, 165, 1, 196, 64
-0.983237, 409, 161, 440, 288
-0.983244, 317, 73, 348, 136
-0.983407, 389, 129, 420, 192
-0.983469, 217, 249, 280, 312
-0.983513, 217, 1, 280, 333
-0.983663, 337, 273, 400, 333
-0.983692, 169, 241, 232, 304
-0.983693, 169, 257, 200, 320
-0.9837, 101, 49, 132, 176
-0.983702, 73, 1, 136, 256
-0.98373, 1, 1, 128, 64
-0.983745, 381, 273, 412, 333
-0.983758, 429, 49, 460, 112
-0.983776, 341, 49, 372, 176
-0.98382, 161, 65, 192, 128
-0.983828, 265, 33, 296, 160
-0.983852, 57, 49, 88, 176
-0.983859, 105, 41, 168, 104
-0.983952, 313, 89, 376, 152
-0.984033, 177, 153, 240, 216
-0.984054, 17, 25, 144, 88
-0.984134, 161, 113, 224, 176
-0.984174, 49, 1, 112, 256
-0.984215, 89, 49, 120, 176
-0.984373, 221, 65, 252, 192
-0.984386, 369, 97, 496, 160
-0.984424, 345, 121, 408, 184
-0.984476, 145, 73, 272, 136
-0.984578, 73, 49, 104, 176
-0.984588, 161, 49, 192, 176
-0.984605, 209, 73, 336, 136
-0.984676, 405, 273, 436, 333
-0.984694, 193, 161, 256, 288
-0.984716, 273, 1, 336, 333
-0.984724, 181, 73, 212, 136
-0.984733, 413, 57, 444, 120
-0.984765, 89, 113, 152, 176
-0.984784, 253, 273, 284, 333
-0.984842, 125, 65, 156, 128
-0.984851, 97, 161, 160, 224
-0.984867, 297, 81, 328, 144
-0.984908, 129, 1, 192, 333
-0.984974, 25, 1, 88, 256
-0.985043, 237, 41, 268, 104
-0.985083, 81, 41, 144, 104
-0.98513, 41, 1, 104, 64
-0.985168, 165, 209, 196, 333
-0.985193, 113, 49, 144, 176
-0.985266, 285, 81, 316, 208
-0.98533, 217, 1, 248, 128
-0.985376, 305, 1, 336, 128
-0.985397, 17, 49, 144, 112
-0.985428, 337, 241, 464, 304
-0.985436, 129, 241, 256, 304
-0.985553, 457, 17, 488, 144
-0.985767, 313, 129, 344, 256
-0.985809, 425, 65, 456, 192
-0.985814, 193, 1, 224, 128
-0.985851, 357, 65, 388, 192
-0.98587, 265, 105, 328, 168
-0.985961, 205, 265, 236, 328
-0.985978, 265, 273, 296, 333
-0.985993, 277, 273, 308, 333
-0.985996, 417, 209, 448, 333
-0.986063, 329, 49, 360, 112
-0.98613, 249, 249, 312, 312
-0.986136, 193, 209, 256, 333
-0.986144, 241, 273, 272, 333
-0.986254, 145, 1, 176, 64
-0.986282, 89, 65, 120, 128
-0.986317, 121, 89, 152, 152
-0.986346, 297, 33, 328, 96
-0.986352, 469, 17, 500, 80
-0.986353, 113, 105, 240, 168
-0.986366, 97, 265, 224, 328
-0.986391, 81, 241, 208, 304
-0.98641, 209, 25, 240, 88
-0.986415, 393, 209, 424, 272
-0.986454, 369, 121, 496, 184
-0.986501, 341, 1, 372, 128
-0.986503, 273, 209, 400, 333
-0.986526, 417, 249, 480, 312
-0.986617, 81, 185, 208, 248
-0.986651, 133, 177, 164, 240
-0.986678, 373, 153, 404, 216
-0.986686, 437, 1, 468, 64
-0.986713, 445, 1, 476, 128
-0.986737, 217, 265, 248, 328
-0.986807, 105, 65, 136, 128
-0.986843, 205, 1, 236, 64
-0.986859, 289, 249, 416, 312
-0.98694, 1, 1, 64, 256
-0.986981, 33, 161, 160, 288
-0.98701, 305, 153, 336, 216
-0.987132, 193, 265, 224, 328
-0.98718, 293, 153, 324, 216
-0.987183, 301, 105, 332, 168
-0.987217, 369, 81, 400, 208
-0.987243, 457, 1, 488, 64
-0.987271, 193, 57, 224, 120
-0.98729, 213, 49, 244, 112
-0.98729, 257, 81, 320, 144
-0.987304, 21, 1, 52, 64
-0.987327, 113, 153, 240, 216
-0.987444, 433, 209, 496, 333
-0.987465, 193, 1, 224, 64
-0.987475, 117, 97, 148, 224
-0.987526, 129, 1, 160, 64
-0.987567, 425, 73, 456, 136
-0.987582, 1, 57, 64, 120
-0.9876, 417, 201, 480, 264
-0.987626, 193, 249, 320, 312
-0.98764, 145, 89, 208, 152
-0.987661, 229, 265, 260, 328
-0.987708, 233, 49, 264, 176
-0.98771, 49, 153, 176, 216
-0.98772, 221, 145, 252, 208
-0.987745, 389, 97, 420, 160
-0.987747, 81, 1, 112, 64
-0.987791, 57, 33, 88, 96
-0.987797, 65, 9, 96, 72
-0.987801, 417, 145, 480, 272
-0.987801, 281, 209, 344, 333
-0.987815, 313, 105, 344, 168
-0.987882, 145, 65, 176, 128
-0.988108, 369, 169, 496, 232
-0.988119, 301, 97, 332, 224
-0.98812, 293, 273, 324, 333
-0.988136, 445, 49, 476, 176
-0.988137, 321, 29, 384, 60
-0.988167, 157, 97, 188, 224
-0.988207, 441, 49, 472, 112
-0.988257, 257, 1, 500, 64
-0.988321, 145, 241, 176, 304
-0.988324, 361, 65, 392, 128
-0.988358, 257, 41, 500, 104
-0.988404, 89, 89, 152, 152
-0.988404, 377, 21, 440, 52
-0.988465, 393, 233, 424, 296
-0.988546, 253, 49, 284, 176
-0.988556, 273, 153, 336, 184
-0.988561, 137, 97, 168, 160
-0.988607, 165, 169, 196, 232
-0.988683, 413, 153, 444, 216
-0.988694, 193, 241, 256, 304
-0.988709, 225, 65, 256, 128
-0.988727, 265, 121, 296, 184
-0.988798, 277, 57, 308, 120
-0.988836, 249, 29, 312, 60
-0.988843, 161, 1, 416, 64
-0.988847, 209, 149, 272, 180
-0.988889, 305, 273, 336, 333
-0.988892, 393, 273, 456, 304
-0.988893, 77, 65, 108, 128
-0.9889, 369, 289, 432, 320
-0.988962, 117, 1, 148, 64
-0.988968, 341, 97, 372, 224
-0.988976, 205, 1, 236, 128
-0.988978, 197, 25, 228, 88
-0.98902, 353, 157, 416, 188
-0.989061, 161, 269, 224, 300
-0.989104, 413, 193, 444, 256
-0.989122, 409, 25, 472, 56
-0.989155, 393, 261, 456, 292
-0.989157, 385, 9, 448, 40
-0.989194, 193, 29, 256, 60
-0.989237, 93, 1, 124, 64
-0.989267, 97, 1, 160, 333
-0.989285, 329, 157, 392, 188
-0.989305, 217, 41, 280, 72
-0.989345, 193, 53, 256, 84
-0.989353, 393, 73, 456, 104
-0.989355, 297, 1, 360, 333
-0.989358, 373, 129, 404, 256
-0.989362, 129, 177, 256, 240
-0.98937, 281, 65, 344, 96
-0.989381, 273, 285, 336, 316
-0.989387, 377, 157, 440, 188
-0.98939, 233, 273, 296, 304
-0.989391, 305, 153, 368, 184
-0.989412, 217, 29, 280, 60
-0.989462, 193, 273, 256, 304
-0.989502, 249, 153, 312, 184
-0.989524, 337, 293, 400, 324
-0.989546, 273, 29, 336, 60
-0.989581, 385, 33, 448, 64
-0.989585, 313, 289, 376, 320
-0.989627, 177, 161, 208, 288
-0.98968, 161, 25, 416, 88
-0.989689, 393, 45, 456, 76
-0.989769, 305, 69, 368, 100
-0.989787, 121, 181, 184, 212
-0.989797, 385, 89, 448, 120
-0.9898, 33, 113, 160, 176
-0.9898, 81, 217, 208, 280
-0.989887, 145, 257, 208, 288
-0.989907, 233, 141, 296, 172
-0.98997, 45, 49, 76, 176
-0.990024, 353, 65, 416, 96
-0.99007, 113, 257, 176, 320
-0.990082, 345, 1, 408, 32
-0.990101, 361, 169, 424, 200
-0.990132, 121, 133, 184, 164
-0.990141, 337, 217, 464, 280
-0.990144, 353, 45, 416, 76
-0.990156, 393, 241, 456, 272
-0.990159, 121, 169, 184, 200
-0.990166, 369, 77, 432, 108
-0.99018, 353, 33, 416, 64
-0.990186, 257, 49, 320, 80
-0.990225, 393, 285, 456, 316
-0.990254, 13, 1, 44, 128
-0.990257, 145, 173, 208, 204
-0.990283, 289, 41, 352, 72
-0.990286, 369, 145, 432, 176
-0.990286, 329, 69, 392, 100
-0.990325, 217, 53, 280, 84
-0.990353, 281, 77, 344, 108
-0.990356, 129, 217, 256, 280
-0.990389, 393, 61, 456, 92
-0.99039, 1, 1, 500, 64
-0.990423, 425, 69, 488, 100
-0.990466, 377, 301, 440, 332
-0.990524, 33, 1, 288, 64
-0.990533, 353, 89, 416, 120
-0.990552, 185, 65, 248, 96
-0.990601, 409, 13, 472, 44
-0.990628, 193, 41, 256, 72
-0.990635, 425, 45, 488, 76
-0.990656, 73, 1, 136, 333
-0.990677, 153, 9, 216, 40
-0.990681, 257, 141, 320, 172
-0.990706, 257, 273, 320, 304
-0.990712, 185, 17, 248, 48
-0.990733, 433, 25, 496, 56
-0.990733, 297, 29, 360, 60
-0.990755, 409, 113, 440, 240
-0.990766, 385, 101, 448, 132
-0.990774, 113, 65, 176, 96
-0.990797, 393, 189, 456, 220
-0.990812, 393, 229, 456, 260
-0.99082, 65, 9, 128, 40
-0.990829, 377, 213, 440, 244
-0.990844, 129, 49, 384, 112
-0.990857, 409, 1, 472, 32
-0.990895, 469, 1, 500, 128
-0.990899, 121, 205, 184, 236
-0.990902, 153, 49, 216, 80
-0.990906, 369, 193, 496, 256
-0.990926, 25, 9, 88, 40
-0.990964, 121, 193, 184, 224
-0.990968, 185, 149, 248, 180
-0.990981, 393, 201, 456, 232
-0.991012, 417, 1, 480, 333
-0.991021, 361, 277, 424, 308
-0.991053, 97, 185, 160, 248
-0.99106, 97, 73, 352, 136
-0.99106, 193, 145, 448, 208
-0.991062, 225, 209, 288, 333
-0.991086, 321, 1, 384, 32
-0.991095, 289, 165, 352, 196
-0.991097, 305, 57, 368, 88
-0.991102, 417, 289, 480, 320
-0.991108, 121, 157, 184, 188
-0.991135, 145, 193, 208, 224
-0.991142, 385, 169, 448, 200
-0.991155, 217, 5, 280, 36
-0.991195, 385, 117, 448, 148
-0.991196, 249, 61, 312, 92
-0.991201, 289, 141, 352, 172
-0.99123, 257, 265, 500, 328
-0.991238, 321, 1, 384, 333
-0.991281, 217, 69, 280, 100
-0.991296, 353, 13, 416, 44
-0.99131, 297, 277, 360, 308
-0.991322, 249, 285, 312, 316
-0.991351, 1, 153, 500, 216
-0.991372, 337, 281, 400, 312
-0.99138, 281, 53, 344, 84
-0.991398, 161, 105, 288, 168
-0.991405, 145, 205, 208, 236
-0.991453, 469, 49, 500, 176
-0.991455, 257, 65, 500, 128
-0.991461, 185, 261, 248, 292
-0.991462, 217, 161, 280, 192
-0.991471, 121, 257, 184, 288
-0.991471, 369, 181, 432, 212
-0.991472, 145, 225, 208, 256
-0.991482, 17, 33, 80, 64
-0.991484, 145, 245, 208, 276
-0.991492, 113, 113, 176, 144
-0.991511, 345, 145, 408, 176
-0.991533, 137, 65, 200, 96
-0.991533, 17, 21, 80, 52
-0.991537, 417, 277, 480, 308
-0.991543, 273, 249, 336, 312
-0.991552, 281, 117, 344, 148
-0.991558, 1, 1, 64, 333
-0.991559, 193, 5, 256, 36
-0.991574, 189, 161, 220, 288
-0.991583, 121, 245, 184, 276
-0.991585, 369, 197, 432, 228
-0.991591, 161, 69, 224, 100
-0.9916, 369, 241, 432, 272
-0.991619, 313, 45, 376, 76
-0.991641, 137, 269, 200, 300
-0.991642, 289, 17, 352, 48
-0.991648, 97, 1, 160, 32
-0.991653, 161, 157, 224, 188
-0.991653, 121, 233, 184, 264
-0.991673, 153, 37, 216, 68
-0.991679, 121, 221, 184, 252
-0.991683, 217, 17, 280, 48
-0.991684, 297, 1, 360, 32
-0.991689, 121, 1, 184, 32
-0.991705, 81, 65, 144, 96
-0.991715, 409, 85, 472, 116
-0.991743, 209, 261, 272, 292
-0.991747, 345, 1, 408, 333
-0.991835, 301, 145, 332, 272
-0.991919, 1, 97, 128, 224
-0.991933, 97, 145, 352, 208
-0.992025, 205, 113, 236, 240
-0.992059, 97, 273, 352, 333
-0.992074, 401, 77, 432, 108
-0.992074, 33, 25, 288, 88
-0.992169, 149, 173, 180, 204
-0.992194, 229, 149, 260, 180
-0.992203, 389, 65, 420, 96
-0.992212, 289, 153, 320, 184
-0.992216, 249, 29, 280, 60
-0.992217, 405, 237, 436, 268
-0.992226, 397, 5, 428, 36
-0.992268, 177, 169, 304, 232
-0.992274, 301, 153, 332, 184
-0.992275, 385, 157, 416, 188
-0.992292, 369, 29, 400, 60
-0.992305, 397, 157, 428, 188
-0.992314, 277, 29, 308, 60
-0.992318, 297, 69, 328, 100
-0.992319, 413, 33, 444, 64
-0.992326, 429, 25, 460, 56
-0.992337, 425, 277, 456, 308
-0.992348, 457, 65, 488, 192
-0.992359, 401, 189, 432, 220
-0.99236, 265, 149, 296, 180
-0.992362, 321, 185, 448, 248
-0.992364, 377, 73, 408, 104
-0.992365, 373, 157, 404, 188
-0.992381, 157, 257, 188, 288
-0.992407, 241, 149, 272, 180
-0.992422, 381, 29, 412, 60
-0.992423, 313, 153, 344, 184
-0.992423, 277, 153, 308, 184
-0.992438, 401, 213, 432, 244
-0.992445, 369, 293, 400, 324
-0.992449, 217, 149, 248, 180
-0.992466, 153, 201, 184, 232
-0.992482, 49, 1, 112, 333
-0.99249, 329, 29, 360, 60
-0.992493, 409, 249, 440, 280
-0.992496, 249, 277, 280, 308
-0.9925, 317, 69, 348, 100
-0.992501, 401, 65, 432, 96
-0.992504, 401, 169, 432, 200
-0.992507, 385, 293, 416, 324
-0.99251, 369, 41, 400, 72
-0.992512, 341, 157, 372, 188
-0.992514, 305, 285, 336, 316
-0.992519, 25, 73, 88, 136
-0.992523, 401, 201, 432, 232
-0.992528, 353, 157, 384, 188
-0.992528, 149, 185, 180, 216
-0.992529, 381, 169, 412, 200
-0.992534, 397, 89, 428, 120
-0.992539, 169, 265, 200, 296
-0.99254, 281, 281, 312, 312
-0.992545, 133, 129, 164, 160
-0.992551, 333, 289, 364, 320
-0.992557, 401, 25, 432, 56
-0.992564, 153, 225, 184, 256
-0.992568, 233, 273, 264, 304
-0.99257, 349, 29, 380, 60
-0.992577, 221, 273, 252, 304
-0.992594, 253, 153, 284, 184
-0.992596, 189, 269, 220, 300
-0.992603, 389, 45, 420, 76
-0.99261, 265, 277, 296, 308
-0.992619, 345, 289, 376, 320
-0.99262, 317, 285, 348, 316
-0.992636, 389, 77, 420, 108
-0.992638, 329, 153, 360, 184
-0.992645, 293, 281, 324, 312
-0.992649, 357, 293, 388, 324
-0.992657, 153, 213, 184, 244
-0.992657, 425, 289, 456, 320
-0.992673, 201, 269, 232, 300
-0.992679, 409, 41, 424, 104
-0.992687, 265, 37, 296, 68
-0.992694, 133, 161, 164, 192
-0.9927, 225, 37, 256, 68
-0.992703, 337, 29, 464, 60
-0.992711, 117, 65, 148, 96
-0.992718, 401, 101, 432, 132
-0.992722, 229, 53, 260, 84
-0.992729, 413, 1, 428, 64
-0.992741, 273, 81, 304, 208
-0.992745, 281, 41, 312, 72
-0.992753, 153, 237, 184, 268
-0.992754, 397, 117, 428, 148
-0.992756, 401, 141, 432, 172
-0.992764, 125, 141, 156, 172
-0.992767, 401, 45, 432, 76
-0.992776, 85, 65, 116, 96
-0.992778, 377, 1, 408, 32
-0.99283, 421, 1, 452, 32
-0.99283, 417, 65, 448, 96
-0.992832, 369, 61, 400, 92
-0.992836, 425, 265, 456, 296
-0.992837, 389, 201, 420, 232
-0.992839, 413, 13, 444, 44
-0.992839, 289, 157, 416, 188
-0.992844, 353, 129, 384, 256
-0.992851, 97, 65, 128, 96
-0.992853, 145, 65, 176, 96
-0.992859, 417, 45, 448, 76
-0.992859, 277, 129, 308, 256
-0.992861, 297, 81, 328, 112
-0.992884, 281, 141, 312, 172
-0.992884, 297, 57, 328, 88
-0.992888, 205, 153, 236, 184
-0.992889, 409, 277, 440, 308
-0.992895, 265, 161, 296, 192
-0.992895, 377, 85, 408, 116
-0.9929, 193, 153, 320, 184
-0.992901, 401, 225, 432, 256
-0.992901, 395, 41, 410, 104
-0.992906, 293, 141, 324, 172
-0.992915, 269, 49, 300, 80
-0.992919, 289, 129, 320, 256
-0.992923, 133, 177, 164, 208
-0.992926, 389, 181, 420, 212
-0.992933, 225, 121, 480, 184
-0.992935, 121, 125, 152, 156
-0.992939, 457, 25, 488, 56
-0.99294, 309, 121, 340, 152
-0.992941, 253, 141, 284, 172
-0.992946, 325, 113, 356, 240
-0.992951, 29, 49, 60, 176
-0.992954, 69, 65, 100, 96
-0.992959, 241, 41, 272, 72
-0.992968, 401, 265, 432, 296
-0.992969, 389, 281, 420, 312
-0.99297, 145, 161, 176, 192
-0.992972, 381, 145, 412, 176
-0.992972, 413, 261, 444, 292
-0.992975, 349, 69, 380, 100
-0.992983, 253, 49, 284, 80
-0.992984, 437, 65, 468, 96
-0.992991, 97, 77, 128, 108
-0.992992, 445, 25, 476, 56
-0.992992, 401, 129, 432, 160
-0.992993, 225, 5, 256, 36
-0.992994, 349, 49, 380, 80
-0.992995, 317, 85, 348, 116
-0.992997, 261, 25, 292, 56
-0.993, 57, 65, 88, 96
-0.993005, 225, 73, 256, 104
-0.993007, 413, 289, 444, 320
-0.993009, 185, 49, 216, 80
-0.993013, 457, 45, 488, 76
-0.993016, 121, 113, 152, 144
-0.993024, 305, 209, 368, 333
-0.993026, 413, 77, 444, 108
-0.993119, 403, 73, 418, 136
-0.993134, 1, 25, 500, 88
-0.993164, 429, 209, 460, 333
-0.993231, 403, 41, 418, 104
-0.993254, 117, 145, 148, 272
-0.993258, 329, 169, 392, 232
-0.993331, 177, 273, 304, 304
-0.993372, 33, 49, 288, 112
-0.993383, 321, 289, 448, 320
-0.99344, 169, 89, 232, 152
-0.993444, 177, 209, 208, 333
-0.993452, 339, 1, 354, 64
-0.993457, 333, 1, 348, 64
-0.993482, 209, 65, 240, 192
-0.993496, 241, 153, 368, 184
-0.99351, 289, 29, 416, 60
-0.993512, 337, 69, 464, 100
-0.993514, 97, 65, 224, 96
-0.993575, 241, 113, 272, 240
-0.993622, 397, 1, 412, 64
-0.993622, 1, 57, 500, 120
-0.993624, 181, 113, 212, 240
-0.993642, 155, 169, 170, 232
-0.99365, 389, 25, 404, 88
-0.993685, 361, 1, 376, 64
-0.993698, 351, 1, 366, 64
-0.993711, 363, 25, 378, 88
-0.993741, 421, 113, 452, 240
-0.993786, 1, 129, 500, 192
-0.993789, 257, 285, 384, 316
-0.993821, 273, 1, 288, 64
-0.993822, 413, 65, 428, 128
-0.993826, 435, 25, 450, 88
-0.993828, 193, 89, 448, 152
-0.993829, 333, 25, 348, 88
-0.993856, 257, 169, 500, 232
-0.993865, 421, 161, 452, 288
-0.993872, 291, 1, 306, 64
-0.993898, 337, 277, 464, 308
-0.993938, 345, 1, 360, 64
-0.994011, 383, 41, 398, 104
-0.994022, 209, 29, 336, 60
-0.994033, 97, 105, 352, 168
-0.994039, 263, 1, 278, 64
-0.994045, 351, 25, 366, 88
-0.994051, 197, 209, 228, 333
-0.994065, 129, 269, 256, 300
-0.994068, 193, 113, 224, 240
-0.994072, 289, 45, 416, 76
-0.994101, 369, 41, 496, 72
-0.994102, 427, 257, 442, 320
-0.994103, 369, 9, 496, 40
-0.994119, 193, 65, 224, 192
-0.994145, 407, 1, 422, 64
-0.994152, 341, 25, 356, 88
-0.994222, 105, 97, 136, 224
-0.994322, 441, 25, 456, 88
-0.994362, 471, 25, 486, 88
-0.994367, 451, 25, 466, 88
-0.994377, 457, 25, 472, 88
-0.994385, 433, 265, 448, 328
-0.994391, 227, 1, 242, 64
-0.99444, 289, 1, 416, 32
-0.994454, 373, 1, 388, 64
-0.994473, 225, 81, 288, 144
-0.994474, 385, 1, 400, 64
-0.994494, 289, 69, 416, 100
-0.994531, 263, 25, 278, 88
-0.994538, 357, 25, 372, 88
-0.994542, 1, 129, 256, 192
-0.994557, 419, 41, 434, 104
-0.994605, 397, 153, 412, 216
-0.99462, 25, 1, 88, 333
-0.994627, 235, 1, 250, 64
-0.994633, 33, 209, 160, 333
-0.994693, 257, 1, 272, 64
-0.994727, 465, 25, 480, 88
-0.994738, 327, 1, 342, 64
-0.994795, 303, 1, 318, 64
-0.994812, 417, 129, 480, 192
-0.994815, 209, 57, 336, 88
-0.994858, 249, 209, 312, 333
-0.994878, 193, 241, 448, 304
-0.994895, 321, 1, 336, 64
-0.994896, 229, 33, 244, 96
-0.994908, 249, 1, 264, 64
-0.994916, 209, 285, 336, 316
-0.994937, 145, 49, 272, 80
-0.994952, 393, 81, 408, 144
-0.994971, 285, 1, 300, 64
-0.99498, 1, 249, 256, 312
-0.995026, 401, 177, 416, 240
-0.995048, 321, 17, 448, 48
-0.995055, 439, 273, 454, 333
-0.99507, 273, 297, 400, 328
-0.995105, 149, 137, 164, 200
-0.99514, 325, 65, 340, 128
-0.995149, 253, 113, 284, 240
-0.995151, 161, 233, 176, 296
-0.995167, 209, 209, 240, 333
-0.995168, 391, 1, 406, 64
-0.995172, 1, 73, 256, 136
-0.995182, 145, 149, 272, 180
-0.995185, 49, 65, 176, 96
-0.995216, 327, 41, 342, 104
-0.995228, 221, 113, 252, 240
-0.995233, 411, 161, 426, 224
-0.995234, 169, 97, 200, 224
-0.995247, 311, 65, 326, 128
-0.995264, 321, 81, 448, 112
-0.995268, 429, 41, 444, 104
-0.995279, 319, 89, 334, 152
-0.995332, 169, 257, 184, 320
-0.995333, 403, 153, 418, 216
-0.995342, 195, 41, 210, 104
-0.995345, 145, 61, 272, 92
-0.99535, 419, 241, 434, 304
-0.99536, 279, 1, 294, 64
-0.995369, 369, 85, 496, 116
-0.995402, 189, 1, 204, 64
-0.995435, 143, 137, 158, 200
-0.995466, 283, 25, 298, 88
-0.995474, 201, 97, 264, 160
-0.995494, 289, 145, 416, 176
-0.995523, 337, 157, 464, 188
-0.995531, 425, 1, 440, 64
-0.995546, 371, 33, 386, 96
-0.995549, 401, 1, 432, 256
-0.995554, 137, 129, 152, 192
-0.995558, 243, 1, 258, 64
-0.995569, 419, 17, 434, 80
-0.99557, 369, 289, 496, 320
-0.995587, 295, 33, 310, 96
-0.995588, 1, 105, 500, 168
-0.995591, 269, 25, 284, 88
-0.995603, 297, 1, 312, 64
-0.995624, 297, 249, 360, 312
-0.995624, 405, 233, 420, 296
-0.99563, 337, 57, 464, 88
-0.995635, 113, 137, 240, 168
-0.995641, 169, 177, 232, 240
-0.99565, 49, 9, 176, 40
-0.995681, 97, 169, 352, 232
-0.995685, 305, 129, 320, 192
-0.995704, 269, 145, 284, 208
-0.995707, 413, 201, 428, 264
-0.995709, 97, 9, 224, 40
-0.99571, 283, 129, 298, 192
-0.995713, 429, 73, 444, 136
-0.995727, 1, 177, 500, 240
-0.995727, 195, 1, 210, 64
-0.995728, 367, 1, 382, 64
-0.99575, 399, 265, 414, 328
-0.99575, 161, 29, 288, 60
-0.995766, 137, 65, 152, 128
-0.995771, 395, 129, 410, 192
-0.995775, 403, 97, 418, 160
-0.995793, 159, 209, 174, 272
-0.995801, 157, 33, 188, 288
-0.995805, 289, 273, 416, 304
-0.99582, 321, 169, 448, 200
-0.995839, 209, 41, 336, 72
-0.995855, 289, 57, 416, 88
-0.995861, 289, 25, 304, 88
-0.995863, 281, 1, 312, 256
-0.995884, 407, 185, 422, 248
-0.9959, 17, 49, 48, 176
-0.995914, 337, 145, 368, 272
-0.995921, 1, 273, 500, 333
-0.995925, 201, 161, 232, 288
-0.99594, 177, 5, 304, 36
-0.995962, 193, 141, 320, 172
-0.995976, 143, 105, 158, 168
-0.996024, 301, 57, 316, 120
-0.996032, 253, 25, 268, 88
-0.996042, 17, 77, 144, 108
-0.996049, 435, 49, 450, 112
-0.99605, 319, 41, 334, 104
-0.996051, 209, 69, 336, 100
-0.996079, 1, 169, 256, 232
-0.996107, 239, 41, 254, 104
-0.996108, 159, 1, 174, 64
-0.99611, 363, 49, 378, 112
-0.996113, 249, 1, 280, 256
-0.996119, 379, 1, 394, 64
-0.996127, 289, 101, 416, 132
-0.996132, 317, 129, 332, 192
-0.996138, 377, 25, 392, 88
-0.996146, 289, 217, 416, 280
-0.996171, 407, 129, 422, 192
-0.996177, 241, 165, 368, 196
-0.996178, 299, 145, 314, 208
-0.996183, 97, 149, 224, 180
-0.996199, 97, 249, 352, 312
-0.996201, 337, 249, 464, 280
-0.996207, 257, 209, 500, 272
-0.99622, 89, 57, 104, 120
-0.996236, 275, 145, 290, 208
-0.996237, 225, 273, 352, 304
-0.996246, 177, 33, 208, 288
-0.996263, 129, 33, 160, 288
-0.996273, 213, 265, 228, 328
-0.996281, 353, 301, 480, 332
-0.996294, 161, 169, 176, 232
-0.996299, 391, 169, 406, 232
-0.996299, 257, 273, 272, 333
-0.996314, 389, 49, 404, 112
-0.996316, 265, 129, 296, 256
-0.996321, 183, 1, 198, 64
-0.996327, 27, 1, 42, 64
-0.996329, 337, 265, 464, 296
-0.99633, 169, 1, 184, 64
-0.996335, 255, 129, 270, 192
-0.99634, 163, 257, 178, 320
-0.996341, 189, 41, 204, 104
-0.996352, 145, 73, 272, 104
-0.996363, 221, 1, 236, 64
-0.996365, 97, 53, 224, 84
-0.99637, 245, 145, 260, 208
-0.996376, 383, 65, 398, 128
-0.99639, 289, 129, 304, 192
-0.996404, 369, 97, 496, 128
-0.996404, 1, 25, 128, 56
-0.996413, 369, 145, 496, 176
-0.996413, 131, 129, 146, 192
-0.996419, 247, 25, 262, 88
-0.99642, 165, 145, 180, 208
-0.996436, 161, 257, 288, 288
-0.996439, 33, 177, 160, 240
-0.996439, 97, 77, 224, 108
-0.99644, 147, 1, 162, 64
-0.996441, 1, 65, 128, 96
-0.996452, 437, 1, 452, 64
-0.996458, 81, 257, 208, 288
-0.996471, 331, 73, 346, 136
-0.996485, 327, 129, 342, 192
-0.996492, 1, 9, 128, 40
-0.996507, 309, 1, 324, 64
-0.99651, 441, 209, 472, 333
-0.996512, 389, 1, 420, 256
-0.996514, 49, 53, 176, 84
-0.996514, 477, 17, 492, 80
-0.996525, 263, 273, 278, 333
-0.996529, 409, 273, 424, 333
-0.996596, 289, 113, 416, 144
-0.996637, 113, 125, 240, 156
-0.996641, 113, 169, 240, 200
-0.996735, 177, 17, 304, 48
-0.996761, 1, 225, 256, 288
-0.996787, 97, 33, 224, 64
-0.996801, 403, 77, 418, 108
-0.996825, 225, 209, 256, 333
-0.996837, 241, 17, 368, 48
-0.99687, 293, 33, 324, 288
-0.996876, 97, 21, 224, 52
-0.996891, 225, 117, 352, 148
-0.996916, 329, 1, 360, 256
-0.996972, 49, 265, 176, 328
-0.996992, 305, 153, 320, 184
-0.996998, 97, 113, 224, 144
-0.997003, 161, 165, 288, 196
-0.997027, 241, 1, 368, 32
-0.997031, 145, 65, 176, 320
-0.997045, 413, 1, 444, 256
-0.997045, 233, 149, 248, 180
-0.997067, 1, 193, 256, 256
-0.997074, 349, 1, 380, 256
-0.997083, 299, 153, 314, 184
-0.99709, 397, 157, 412, 188
-0.997103, 413, 9, 428, 40
-0.997106, 81, 185, 208, 216
-0.997128, 217, 1, 248, 256
-0.997133, 241, 141, 368, 172
-0.997148, 227, 149, 242, 180
-0.99715, 155, 169, 170, 200
-0.997153, 369, 169, 496, 200
-0.997155, 439, 277, 454, 308
-0.997175, 385, 157, 400, 188
-0.997184, 229, 1, 260, 256
-0.997209, 1, 161, 64, 288
-0.997213, 403, 65, 418, 96
-0.997214, 311, 153, 326, 184
-0.997224, 97, 217, 352, 280
-0.997229, 387, 25, 402, 56
-0.99723, 97, 101, 224, 132
-0.997234, 245, 149, 260, 180
-0.997236, 269, 149, 284, 180
-0.997272, 411, 77, 426, 108
-0.997291, 397, 169, 412, 200
-0.997294, 143, 121, 158, 152
-0.997299, 241, 241, 368, 304
-0.997315, 239, 149, 254, 180
-0.997319, 399, 1, 414, 32
-0.99732, 189, 1, 220, 256
-0.99733, 279, 153, 294, 184
-0.997336, 317, 153, 332, 184
-0.997339, 49, 165, 176, 196
-0.997344, 81, 221, 208, 252
-0.997344, 273, 81, 400, 112
-0.997359, 259, 153, 274, 184
-0.99736, 363, 29, 378, 60
-0.997369, 287, 153, 302, 184
-0.997379, 405, 1, 420, 32
-0.997398, 381, 293, 396, 324
-0.997403, 293, 153, 308, 184
-0.997403, 355, 157, 370, 188
-0.997404, 81, 237, 208, 268
-0.997407, 321, 125, 448, 156
-0.997407, 425, 33, 440, 64
-0.997408, 81, 201, 208, 232
-0.997409, 369, 109, 496, 140
-0.997415, 403, 157, 418, 188
-0.997418, 435, 25, 450, 56
-0.997418, 273, 41, 288, 72
-0.997435, 269, 1, 300, 256
-0.99746, 409, 65, 424, 96
-0.997475, 129, 241, 256, 272
-0.997485, 171, 265, 186, 296
-0.997488, 257, 277, 272, 308
-0.997499, 285, 33, 300, 64
-0.997506, 409, 237, 424, 268
-0.99751, 391, 157, 406, 188
-0.997512, 263, 29, 278, 60
-0.997518, 251, 277, 266, 308
-0.997523, 287, 281, 302, 312
-0.997524, 411, 45, 426, 76
-0.997531, 49, 121, 176, 152
-0.997534, 321, 69, 336, 100
-0.997536, 403, 201, 418, 232
-0.997537, 33, 233, 160, 296
-0.997555, 327, 73, 342, 104
-0.997557, 1, 81, 500, 144
-0.997565, 281, 281, 296, 312
-0.997574, 433, 269, 448, 300
-0.997574, 313, 285, 328, 316
-0.997577, 265, 277, 280, 308
-0.997579, 293, 209, 324, 333
-0.997584, 373, 157, 388, 188
-0.997593, 343, 289, 358, 320
-0.997598, 157, 197, 172, 228
-0.997599, 133, 141, 148, 172
-0.9976, 375, 293, 390, 324
-0.997602, 293, 281, 308, 312
-0.997607, 319, 285, 334, 316
-0.997607, 395, 65, 410, 96
-0.99761, 333, 153, 348, 184
-0.997614, 243, 273, 258, 304
-0.997618, 327, 153, 342, 184
-0.997619, 1, 273, 256, 333
-0.997623, 393, 85, 408, 116
-0.997625, 427, 281, 442, 312
-0.997626, 237, 273, 252, 304
-0.997636, 309, 69, 324, 100
-0.997636, 225, 177, 352, 240
-0.997639, 251, 149, 266, 180
-0.997641, 227, 29, 242, 60
-0.997642, 271, 277, 286, 308
-0.997644, 387, 37, 402, 68
-0.997644, 307, 285, 322, 316
-0.997653, 197, 269, 212, 300
-0.997655, 89, 65, 104, 96
-0.997659, 369, 293, 384, 324
-0.997665, 365, 157, 380, 188
-0.997669, 137, 125, 152, 156
-0.997669, 329, 285, 344, 316
-0.997671, 161, 257, 176, 288
-0.997673, 379, 157, 394, 188
-0.997675, 157, 209, 172, 240
-0.997679, 291, 29, 306, 60
-0.997681, 399, 181, 414, 212
-0.997686, 407, 169, 422, 200
-0.997686, 409, 213, 424, 244
-0.997687, 337, 289, 352, 320
-0.997689, 349, 289, 364, 320
-0.997696, 231, 273, 246, 304
-0.9977, 81, 269, 208, 300
-0.997701, 415, 25, 430, 56
-0.997701, 225, 129, 352, 160
-0.997707, 221, 149, 236, 180
-0.997707, 49, 21, 176, 52
-0.997711, 213, 161, 244, 288
-0.997714, 299, 281, 314, 312
-0.997721, 177, 265, 192, 296
-0.997726, 223, 273, 238, 304
-0.997727, 195, 49, 210, 80
-0.997727, 207, 269, 222, 300
-0.997728, 375, 29, 390, 60
-0.997729, 419, 241, 434, 272
-0.997739, 97, 193, 352, 256
-0.997744, 225, 105, 352, 136
-0.997749, 359, 289, 374, 320
-0.997756, 393, 45, 408, 76
-0.997758, 331, 29, 346, 60
-0.997771, 191, 269, 206, 300
-0.997783, 185, 265, 200, 296
-0.99779, 381, 25, 396, 56
-0.997792, 405, 45, 420, 76
-0.997793, 129, 229, 256, 260
-0.997797, 305, 33, 336, 288
-0.997802, 349, 157, 364, 188
-0.997808, 377, 33, 408, 288
-0.997811, 209, 261, 336, 292
-0.997816, 1, 53, 128, 84
-0.997826, 159, 237, 174, 268
-0.997826, 403, 89, 418, 120
-0.997834, 317, 1, 348, 256
-0.997854, 369, 125, 496, 156
-0.997854, 129, 281, 256, 312
-0.997856, 427, 257, 442, 288
-0.997856, 391, 169, 406, 200
-0.997857, 213, 269, 228, 300
-0.997858, 1, 201, 500, 264
-0.997863, 129, 201, 256, 232
-0.997864, 419, 37, 434, 68
-0.997871, 429, 77, 444, 108
-0.997875, 109, 33, 140, 288
-0.997884, 401, 213, 416, 244
-0.99789, 399, 45, 414, 76
-0.997897, 305, 209, 336, 333
-0.997905, 213, 149, 228, 180
-0.997906, 307, 141, 322, 172
-0.99791, 25, 1, 56, 256
-0.997912, 393, 25, 408, 56
-0.997924, 423, 1, 438, 32
-0.997926, 105, 65, 120, 96
-0.99793, 339, 157, 354, 188
-0.997935, 273, 29, 288, 60
-0.99794, 17, 41, 144, 72
-0.997941, 405, 185, 420, 216
-0.997942, 65, 89, 192, 120
-0.997949, 149, 177, 164, 208
-0.997949, 389, 293, 404, 324
-0.997953, 1, 17, 32, 144
-0.997955, 425, 17, 440, 48
-0.997959, 161, 173, 176, 204
-0.997972, 383, 65, 398, 96
-0.997973, 145, 113, 272, 144
-0.997978, 389, 1, 404, 32
-0.997982, 65, 133, 192, 164
-0.997986, 279, 141, 294, 172
-0.997988, 187, 65, 202, 96
-0.997998, 369, 237, 496, 268
-0.997999, 117, 65, 132, 96
-0.998003, 369, 181, 496, 212
-0.998023, 167, 201, 182, 232
-0.998024, 33, 209, 160, 272
-0.99805, 225, 93, 352, 124
-0.998081, 209, 81, 336, 112
-0.998115, 129, 217, 256, 248
-0.99813, 321, 181, 448, 212
-0.998157, 361, 1, 392, 256
-0.99817, 53, 1, 84, 256
-0.998174, 129, 181, 256, 212
-0.998195, 413, 1, 428, 128
-0.998208, 33, 109, 160, 140
-0.998234, 337, 225, 464, 256
-0.998251, 369, 193, 496, 224
-0.998265, 425, 1, 456, 256
-0.998281, 97, 1, 128, 256
-0.99829, 369, 205, 496, 236
-0.998327, 33, 153, 160, 184
-0.998329, 305, 237, 432, 268
-0.998334, 145, 85, 272, 116
-0.998339, 201, 1, 232, 256
-0.99834, 157, 161, 172, 288
-0.998343, 321, 193, 448, 224
-0.998375, 217, 153, 280, 168
-0.998399, 257, 157, 320, 172
-0.998412, 77, 33, 108, 288
-0.998414, 289, 157, 352, 172
-0.998414, 385, 23, 448, 38
-0.998415, 461, 1, 492, 256
-0.998427, 153, 269, 216, 284
-0.99843, 369, 161, 432, 176
-0.998434, 257, 35, 320, 50
-0.998443, 297, 67, 328, 82
-0.998444, 253, 161, 284, 176
-0.998446, 401, 133, 432, 148
-0.998447, 237, 161, 268, 176
-0.998447, 229, 39, 260, 54
-0.998447, 289, 261, 416, 292
-0.998449, 321, 209, 448, 240
-0.998451, 425, 293, 456, 308
-0.998452, 89, 77, 120, 92
-0.998452, 145, 69, 176, 84
-0.998452, 321, 31, 384, 46
-0.998453, 233, 29, 264, 44
-0.998455, 209, 277, 272, 292
-0.998456, 153, 233, 184, 248
-0.998456, 249, 283, 312, 298
-0.998457, 201, 155, 232, 170
-0.998457, 309, 165, 340, 180
-0.998458, 297, 289, 360, 304
-0.998458, 377, 29, 440, 44
-0.998459, 409, 87, 440, 102
-0.99846, 401, 187, 432, 202
-0.99846, 133, 177, 164, 192
-0.99846, 401, 209, 432, 224
-0.998461, 249, 41, 280, 56
-0.998462, 281, 79, 344, 94
-0.998462, 377, 39, 440, 54
-0.998463, 281, 69, 344, 84
-0.998464, 153, 213, 184, 228
-0.998464, 349, 29, 380, 44
-0.998465, 389, 87, 420, 102
-0.998465, 405, 223, 436, 238
-0.998465, 349, 69, 380, 84
-0.998465, 399, 1, 414, 128
-0.998467, 401, 177, 432, 192
-0.998468, 437, 69, 468, 84
-0.998468, 273, 285, 336, 300
-0.998468, 405, 1, 420, 128
-0.998469, 329, 293, 392, 308
-0.998469, 385, 25, 416, 40
-0.998469, 145, 171, 176, 186
-0.99847, 121, 133, 152, 148
-0.998471, 393, 69, 456, 84
-0.998471, 401, 107, 432, 122
-0.998471, 333, 165, 364, 180
-0.998473, 261, 47, 292, 62
-0.998473, 385, 175, 416, 190
-0.998473, 341, 159, 372, 174
-0.998474, 329, 157, 360, 172
-0.998474, 345, 169, 408, 184
-0.998475, 413, 257, 444, 272
-0.998475, 317, 85, 348, 100
-0.998475, 273, 193, 400, 256
-0.998476, 421, 19, 452, 34
-0.998477, 281, 41, 312, 56
-0.998477, 385, 83, 448, 98
-0.998477, 185, 273, 248, 288
-0.998477, 153, 245, 184, 260
-0.998478, 13, 1, 44, 256
-0.998478, 145, 97, 272, 128
-0.998479, 281, 49, 312, 64
-0.998479, 401, 45, 432, 60
-0.998479, 265, 161, 296, 176
-0.998479, 369, 65, 400, 80
-0.998479, 385, 317, 416, 332
-0.998479, 385, 169, 416, 184
-0.99848, 405, 239, 436, 254
-0.998481, 169, 269, 200, 284
-0.998481, 269, 41, 300, 56
-0.998481, 285, 163, 316, 178
-0.998483, 381, 69, 412, 84
-0.998483, 149, 189, 180, 204
-0.998484, 225, 159, 256, 174
-0.998484, 121, 181, 184, 196
-0.998485, 401, 153, 432, 168
-0.998485, 281, 33, 344, 48
-0.998485, 397, 163, 428, 178
-0.998485, 381, 47, 412, 62
-0.998486, 313, 157, 376, 172
-0.998486, 393, 269, 456, 284
-0.998486, 337, 293, 368, 308
-0.998487, 205, 275, 236, 290
-0.998487, 393, 279, 456, 294
-0.998487, 385, 89, 448, 104
-0.998488, 305, 69, 368, 84
-0.998489, 413, 37, 444, 52
-0.99849, 377, 13, 440, 28
-0.99849, 345, 159, 408, 174
-0.99849, 397, 3, 428, 18
-0.998493, 417, 69, 448, 84
-0.998493, 353, 295, 384, 310
-0.998494, 397, 125, 428, 140
-0.998495, 273, 163, 336, 178
-0.998495, 225, 277, 256, 292
-0.998496, 193, 157, 256, 172
-0.998496, 385, 289, 448, 304
-0.998496, 369, 77, 400, 92
-0.998497, 369, 297, 400, 312
-0.998498, 225, 33, 288, 48
-0.998499, 153, 225, 184, 240
-0.998499, 309, 289, 340, 304
-0.998499, 193, 67, 256, 82
-0.998499, 377, 301, 440, 316
-0.998501, 181, 271, 212, 286
-0.998502, 369, 47, 400, 62
-0.998503, 145, 263, 208, 278
-0.998503, 325, 291, 356, 306
-0.998503, 401, 101, 432, 116
-0.998503, 217, 41, 280, 56
-0.998504, 381, 39, 412, 54
-0.998505, 193, 273, 224, 288
-0.998505, 121, 175, 184, 190
-0.998507, 393, 17, 408, 144
-0.998507, 361, 69, 424, 84
-0.998508, 409, 29, 472, 44
-0.998509, 185, 35, 248, 50
-0.998509, 429, 281, 460, 296
-0.998509, 393, 45, 456, 60
-0.998509, 157, 261, 188, 276
-0.99851, 89, 69, 120, 84
-0.998512, 397, 81, 428, 96
-0.998513, 393, 75, 456, 90
-0.998514, 281, 285, 312, 300
-0.998515, 297, 163, 328, 178
-0.998516, 393, 19, 424, 34
-0.998516, 269, 35, 300, 50
-0.998516, 253, 35, 284, 50
-0.998517, 269, 283, 300, 298
-0.998518, 373, 161, 404, 176
-0.998518, 409, 25, 440, 40
-0.998518, 289, 45, 352, 60
-0.998518, 377, 85, 408, 100
-0.998519, 329, 71, 392, 86
-0.998519, 237, 279, 268, 294
-0.998519, 233, 49, 296, 64
-0.998519, 133, 131, 164, 146
-0.998523, 353, 83, 416, 98
-0.998523, 153, 205, 184, 220
-0.998523, 385, 95, 448, 110
-0.998523, 77, 71, 108, 86
-0.998524, 409, 77, 440, 92
-0.998525, 393, 263, 456, 278
-0.998527, 421, 29, 452, 44
-0.998527, 377, 171, 440, 186
-0.998528, 293, 287, 324, 302
-0.998528, 249, 281, 280, 296
-0.998528, 265, 155, 296, 170
-0.998529, 321, 39, 384, 54
-0.998529, 433, 71, 496, 86
-0.99853, 121, 139, 184, 154
-0.99853, 353, 159, 384, 174
-0.99853, 369, 295, 432, 310
-0.998531, 297, 79, 328, 94
-0.998531, 425, 287, 456, 302
-0.998532, 185, 29, 248, 44
-0.998534, 317, 73, 348, 88
-0.998534, 393, 245, 456, 260
-0.998536, 153, 219, 184, 234
-0.998536, 353, 89, 416, 104
-0.998536, 403, 65, 418, 192
-0.998537, 121, 195, 184, 210
-0.998537, 233, 277, 296, 292
-0.998537, 193, 53, 256, 68
-0.998539, 153, 239, 184, 254
-0.998539, 121, 187, 184, 202
-0.998539, 145, 177, 208, 192
-0.99854, 305, 75, 368, 90
-0.99854, 257, 41, 320, 56
-0.998541, 361, 47, 424, 62
-0.998541, 409, 39, 472, 54
-0.998542, 289, 39, 352, 54
-0.998542, 405, 251, 436, 266
-0.998542, 397, 93, 428, 108
-0.998544, 193, 43, 256, 58
-0.998545, 281, 35, 312, 50
-0.998545, 297, 73, 328, 88
-0.998545, 389, 75, 420, 90
-0.998546, 369, 75, 432, 90
-0.998547, 257, 47, 320, 62
-0.998548, 217, 161, 280, 176
-0.998549, 157, 267, 188, 282
-0.99855, 297, 165, 360, 180
-0.998552, 345, 29, 408, 44
-0.998553, 193, 151, 256, 166
-0.998554, 393, 1, 456, 16
-0.998555, 393, 193, 456, 208
-0.998556, 353, 3, 416, 18
-0.998556, 397, 169, 428, 184
-0.998558, 377, 309, 440, 324
-0.998559, 121, 169, 184, 184
-0.99856, 317, 79, 348, 94
-0.99856, 393, 205, 456, 220
-0.998562, 17, 25, 80, 40
-0.998563, 369, 155, 432, 170
-0.998564, 369, 71, 400, 86
-0.998564, 393, 219, 456, 234
-0.998564, 257, 29, 320, 44
-0.998569, 393, 63, 456, 78
-0.998569, 385, 101, 448, 116
-0.99857, 281, 85, 344, 100
-0.99857, 201, 59, 264, 74
-0.998571, 353, 175, 416, 190
-0.998572, 149, 177, 180, 192
-0.998572, 401, 217, 432, 232
-0.998572, 113, 131, 176, 146
-0.998572, 337, 303, 400, 318
-0.998573, 353, 39, 416, 54
-0.998574, 401, 203, 432, 218
-0.998574, 305, 63, 368, 78
-0.998575, 393, 257, 456, 272
-0.998576, 393, 239, 456, 254
-0.998577, 217, 147, 280, 162
-0.998577, 409, 23, 472, 38
-0.99858, 145, 187, 208, 202
-0.998581, 249, 163, 312, 178
-0.998583, 9, 31, 72, 46
-0.998584, 149, 183, 180, 198
-0.998585, 113, 69, 176, 84
-0.998585, 377, 213, 440, 228
-0.998586, 145, 193, 208, 208
-0.998586, 293, 157, 324, 172
-0.998587, 425, 49, 488, 64
-0.998588, 257, 53, 320, 68
-0.998588, 409, 285, 472, 300
-0.998589, 121, 1, 184, 16
-0.998589, 377, 251, 440, 266
-0.998589, 97, 1, 160, 16
-0.99859, 373, 167, 404, 182
-0.99859, 249, 151, 312, 166
-0.99859, 361, 287, 424, 302
-0.998591, 377, 225, 440, 240
-0.998591, 169, 69, 232, 84
-0.998592, 393, 199, 456, 214
-0.998592, 265, 63, 328, 78
-0.998592, 217, 27, 280, 42
-0.998594, 277, 155, 308, 170
-0.998595, 145, 277, 208, 292
-0.998595, 317, 157, 348, 172
-0.998595, 413, 43, 444, 58
-0.998596, 385, 107, 448, 122
-0.998597, 145, 171, 208, 186
-0.998597, 377, 7, 440, 22
-0.998597, 217, 71, 280, 86
-0.998598, 377, 177, 440, 192
-0.998599, 397, 69, 428, 84
-0.9986, 321, 287, 384, 302
-0.998601, 329, 65, 392, 80
-0.998601, 409, 291, 472, 306
-0.998601, 361, 95, 424, 110
-0.998602, 405, 245, 436, 260
-0.998603, 145, 205, 208, 220
-0.998604, 121, 221, 184, 236
-0.998604, 321, 167, 384, 182
-0.998607, 369, 41, 400, 56
-0.998608, 369, 31, 400, 46
-0.998609, 401, 193, 432, 208
-0.998618, 1, 97, 256, 160
-0.99862, 397, 9, 428, 24
-0.998622, 385, 161, 416, 176
-0.998624, 305, 157, 336, 172
-0.998633, 149, 195, 180, 210
-0.998635, 245, 153, 276, 168
-0.998641, 213, 153, 244, 168
-0.998652, 225, 153, 256, 168
-0.99868, 179, 1, 194, 128
-0.998699, 419, 17, 434, 144
-0.998709, 273, 129, 400, 160
-0.998715, 449, 1, 480, 256
-0.99872, 413, 49, 428, 176
-0.99873, 143, 1, 158, 128
-0.998733, 97, 1, 112, 128
-0.998747, 151, 1, 166, 128
-0.998752, 165, 1, 180, 128
-0.998756, 81, 1, 96, 128
-0.998769, 111, 1, 126, 128
-0.998803, 71, 1, 86, 128
-0.998807, 41, 1, 72, 256
-0.99881, 325, 65, 340, 192
-0.998811, 437, 1, 468, 256
-0.998815, 159, 1, 174, 128
-0.998821, 195, 1, 210, 128
-0.998822, 321, 209, 352, 333
-0.998827, 185, 1, 200, 128
-0.998828, 9, 97, 72, 224
-0.99883, 65, 1, 96, 256
-0.998831, 61, 1, 76, 128
-0.998833, 17, 89, 144, 120
-0.998835, 395, 81, 410, 208
-0.998857, 137, 1, 152, 128
-0.998858, 173, 1, 188, 128
-0.99886, 149, 177, 164, 304
-0.998865, 329, 209, 392, 333
-0.998869, 131, 1, 146, 128
-0.998873, 399, 129, 414, 256
-0.998883, 141, 49, 156, 176
-0.998885, 405, 209, 420, 333
-0.998887, 91, 1, 106, 128
-0.998891, 417, 209, 432, 333
-0.998898, 317, 81, 332, 208
-0.998903, 161, 209, 176, 333
-0.998912, 119, 1, 134, 128
-0.998913, 303, 49, 318, 176
-0.998913, 413, 161, 428, 288
-0.998916, 131, 49, 146, 176
-0.998922, 333, 17, 348, 144
-0.998924, 55, 1, 70, 128
-0.998929, 153, 49, 168, 176
-0.998969, 1, 241, 500, 304
-0.998973, 105, 1, 120, 128
-0.998977, 233, 1, 248, 128
-0.998978, 435, 17, 450, 144
-0.998984, 49, 1, 64, 128
-0.998988, 311, 49, 326, 176
-0.99901, 169, 49, 184, 176
-0.999017, 125, 1, 140, 128
-0.999018, 133, 113, 148, 240
-0.999023, 409, 113, 424, 240
-0.999031, 293, 17, 308, 144
-0.999041, 469, 97, 500, 224
-0.999043, 425, 1, 440, 128
-0.999046, 363, 17, 378, 144
-0.999047, 37, 1, 52, 128
-0.99905, 383, 17, 398, 144
-0.999052, 31, 1, 46, 128
-0.999055, 149, 113, 164, 240
-0.999061, 285, 17, 300, 144
-0.999069, 227, 1, 242, 128
-0.999074, 239, 1, 254, 128
-0.99908, 399, 177, 414, 304
-0.999089, 147, 49, 162, 176
-0.999091, 123, 49, 138, 176
-0.999093, 245, 1, 260, 128
-0.999095, 419, 65, 434, 192
-0.99912, 33, 97, 96, 224
-0.999121, 43, 1, 58, 128
-0.999123, 89, 49, 104, 176
-0.999146, 427, 65, 442, 192
-0.999169, 167, 161, 182, 288
-0.999179, 373, 17, 388, 144
-0.999183, 255, 1, 270, 128
-0.999186, 155, 113, 170, 240
-0.999191, 289, 249, 416, 280
-0.999192, 273, 1, 288, 128
-0.999193, 143, 113, 158, 240
-0.999194, 351, 49, 366, 176
-0.999199, 185, 49, 200, 176
-0.999209, 227, 65, 242, 192
-0.999209, 299, 1, 314, 128
-0.99921, 167, 209, 182, 333
-0.999211, 33, 177, 160, 208
-0.999212, 341, 1, 356, 128
-0.999219, 225, 297, 352, 328
-0.999221, 117, 49, 132, 176
-0.999224, 275, 49, 290, 176
-0.999233, 389, 65, 404, 192
-0.999233, 461, 1, 476, 128
-0.999234, 327, 17, 342, 144
-0.999236, 407, 161, 422, 288
-0.999237, 331, 65, 346, 192
-0.999237, 321, 1, 336, 128
-0.999238, 267, 1, 282, 128
-0.999239, 393, 129, 408, 256
-0.999239, 281, 209, 312, 333
-0.999243, 175, 49, 190, 176
-0.999249, 297, 81, 312, 208
-0.999252, 111, 49, 126, 176
-0.999253, 161, 65, 176, 192
-0.999256, 373, 177, 404, 304
-0.999258, 103, 49, 118, 176
-0.999273, 345, 49, 360, 176
-0.999275, 73, 49, 88, 176
-0.999277, 441, 17, 456, 144
-0.99928, 261, 1, 276, 128
-0.99928, 357, 17, 372, 144
-0.999281, 363, 65, 378, 192
-0.999285, 461, 49, 476, 176
-0.99929, 307, 97, 322, 224
-0.999291, 233, 65, 248, 192
-0.999291, 25, 1, 40, 128
-0.999296, 447, 17, 462, 144
-0.999298, 305, 1, 320, 128
-0.999301, 473, 1, 488, 128
-0.999306, 143, 161, 158, 288
-0.999306, 371, 65, 386, 192
-0.999311, 429, 209, 444, 333
-0.999324, 317, 129, 332, 256
-0.999328, 339, 49, 354, 176
-0.999333, 65, 49, 80, 176
-0.999336, 161, 113, 176, 240
-0.999342, 351, 1, 366, 128
-0.999345, 455, 49, 470, 176
-0.99935, 279, 1, 294, 128
-0.999358, 191, 49, 206, 176
-0.999361, 433, 65, 448, 192
-0.999366, 453, 1, 468, 128
-0.999368, 221, 1, 236, 128
-0.999371, 467, 17, 482, 144
-0.999373, 291, 81, 306, 208
-0.999378, 125, 129, 140, 256
-0.999385, 269, 49, 284, 176
-0.999386, 81, 65, 96, 192
-0.999389, 383, 97, 398, 224
-0.99939, 423, 209, 438, 333
-0.999394, 377, 65, 392, 192
-0.9994, 345, 97, 360, 224
-0.999497, 17, 133, 144, 164
-0.999502, 217, 161, 280, 288
-0.999586, 1, 137, 128, 200
-0.999618, 359, 295, 374, 310
-0.999618, 375, 159, 390, 174
-0.999619, 345, 165, 360, 180
-0.999619, 327, 289, 342, 304
-0.999619, 287, 155, 302, 170
-0.99962, 419, 43, 434, 58
-0.999621, 393, 47, 408, 62
-0.999622, 315, 289, 330, 304
-0.999622, 193, 271, 208, 286
-0.999622, 351, 293, 366, 308
-0.999622, 241, 277, 256, 292
-0.999623, 381, 41, 396, 56
-0.999624, 365, 295, 380, 310
-0.999624, 229, 277, 244, 292
-0.999624, 399, 211, 414, 226
-0.999624, 373, 43, 388, 58
-0.999625, 411, 47, 426, 62
-0.999625, 399, 193, 414, 208
-0.999625, 159, 233, 174, 248
-0.999625, 221, 275, 236, 290
-0.999625, 407, 9, 422, 24
-0.999626, 439, 287, 454, 302
-0.999626, 287, 285, 302, 300
-0.999627, 319, 71, 334, 86
-0.999628, 425, 25, 440, 40
-0.999628, 411, 193, 426, 208
-0.999628, 377, 297, 392, 312
-0.99963, 335, 291, 350, 306
-0.999631, 161, 193, 176, 208
-0.999631, 383, 297, 398, 312
-0.999631, 399, 47, 414, 62
-0.999632, 327, 79, 342, 94
-0.999633, 345, 293, 360, 308
-0.999634, 345, 157, 360, 172
-0.999634, 105, 71, 120, 86
-0.999634, 265, 31, 280, 46
-0.999635, 209, 273, 224, 288
-0.999635, 383, 69, 398, 84
-0.999635, 187, 271, 202, 286
-0.999636, 143, 131, 158, 146
-0.999636, 313, 163, 328, 178
-0.999637, 235, 277, 250, 292
-0.999638, 265, 281, 280, 296
-0.999638, 229, 159, 244, 174
-0.999638, 363, 29, 378, 44
-0.999638, 309, 287, 324, 302
-0.999639, 159, 239, 174, 254
-0.999639, 381, 31, 396, 46
-0.999639, 269, 161, 284, 176
-0.99964, 427, 289, 442, 304
-0.99964, 253, 153, 268, 168
-0.99964, 171, 269, 186, 284
-0.999641, 413, 217, 428, 232
-0.999641, 215, 275, 230, 290
-0.999641, 161, 129, 288, 160
-0.999642, 319, 77, 334, 92
-0.999642, 403, 95, 418, 110
-0.999643, 335, 157, 350, 172
-0.999643, 409, 1, 424, 16
-0.999643, 321, 289, 336, 304
-0.999644, 253, 279, 268, 294
-0.999645, 415, 241, 430, 256
-0.999646, 161, 187, 176, 202
-0.999646, 373, 37, 388, 52
-0.999647, 201, 273, 216, 288
-0.999647, 283, 35, 298, 50
-0.999649, 425, 31, 440, 46
-0.999649, 275, 283, 290, 298
-0.999649, 275, 33, 290, 48
-0.99965, 293, 285, 308, 300
-0.99965, 173, 145, 188, 160
-0.99965, 187, 69, 202, 84
-0.999651, 281, 283, 296, 298
-0.999653, 405, 47, 420, 62
-0.999653, 403, 87, 418, 102
-0.999653, 303, 287, 318, 302
-0.999653, 387, 29, 402, 44
-0.999654, 395, 75, 410, 90
-0.999655, 155, 195, 170, 210
-0.999655, 247, 279, 262, 294
-0.999655, 385, 47, 400, 62
-0.999656, 409, 69, 424, 84
-0.999657, 403, 1, 418, 16
-0.999659, 319, 83, 334, 98
-0.999659, 209, 155, 224, 170
-0.99966, 89, 69, 104, 84
-0.99966, 301, 163, 316, 178
-0.99966, 411, 77, 426, 92
-0.999661, 157, 213, 172, 228
-0.999661, 259, 281, 274, 296
-0.999662, 405, 169, 420, 184
-0.999662, 327, 85, 342, 100
-0.999664, 419, 249, 434, 264
-0.999666, 425, 283, 440, 298
-0.999666, 355, 159, 370, 174
-0.999668, 401, 161, 416, 176
-0.99967, 399, 199, 414, 214
-0.999671, 275, 43, 290, 58
-0.999671, 391, 169, 406, 184
-0.999671, 393, 87, 408, 102
-0.999672, 399, 205, 414, 220
-0.999672, 405, 191, 420, 206
-0.999673, 235, 159, 250, 174
-0.999678, 293, 31, 308, 46
-0.999679, 269, 155, 284, 170
-0.999681, 307, 163, 322, 178
-0.999682, 155, 175, 170, 190
-0.999683, 143, 125, 158, 140
-0.999684, 259, 153, 274, 168
-0.999686, 309, 69, 324, 84
-0.999686, 385, 161, 400, 176
-0.999688, 401, 7, 416, 22
-0.999695, 387, 39, 402, 54
-0.999696, 133, 131, 148, 146
-0.999698, 215, 155, 230, 170
-0.999701, 405, 215, 420, 230
-0.999705, 279, 155, 294, 170
-0.999705, 297, 155, 312, 170
-0.999707, 397, 177, 412, 192
-0.999712, 385, 167, 400, 182
-0.99972, 1, 1, 32, 256
-0.999727, 425, 37, 440, 52
-0.999734, 395, 161, 410, 176
-0.999736, 413, 11, 428, 26
-0.999736, 409, 243, 424, 258
-0.999737, 403, 81, 418, 96
-0.999737, 397, 169, 412, 184
-0.99974, 317, 157, 332, 172
-0.999768, 289, 221, 416, 252
-0.999775, 245, 153, 260, 168
-0.999793, 235, 153, 250, 168
-0.999796, 225, 153, 240, 168
-0.999798, 1, 201, 128, 232
-0.999804, 307, 157, 322, 172
-0.999892, 33, 233, 160, 264
-0.99995, 177, 245, 304, 276
-0.999953, 33, 253, 160, 284
-0.999969, 25, 177, 88, 304
-0.999981, 361, 177, 392, 304
-0.999996, 177, 217, 304, 280
-1.00004, 225, 209, 352, 272
-1.00017, 225, 161, 256, 288
-1.00024, 445, 97, 476, 224
-1.00042, 241, 161, 304, 288
-1.00055, 325, 161, 356, 288
-1.00082, 1, 273, 128, 333
-1.00102, 237, 209, 268, 333
-1.00106, 21, 97, 52, 224
-1.0011, 177, 193, 304, 256
-1.00113, 253, 161, 284, 288
-1.0014, 65, 209, 128, 333
-1.00337, 57, 97, 120, 224
-1.00405, 73, 145, 136, 272
-1.005, 49, 161, 112, 288
-1.00695, 1, 209, 64, 333
