1889
-0.173817, 1, 1, 500, 333
-0.297863, 1, 1, 500, 256
-0.358859, 33, 1, 288, 333
-0.383856, 193, 1, 448, 333
-0.423339, 65, 65, 320, 320
-0.531955, 225, 1, 480, 256
-0.817972, 241, 1, 368, 256
-0.819322, 81, 65, 208, 320
-0.829247, 161, 65, 288, 320
-0.830433, 33, 65, 160, 320
-0.835634, 289, 1, 416, 256
-0.837357, 1, 81, 500, 208
-0.844587, 49, 1, 176, 333
-0.850566, 209, 1, 336, 333
-0.853044, 161, 1, 288, 333
-0.853714, 97, 1, 224, 333
-0.854066, 273, 1, 400, 333
-0.858467, 1, 1, 128, 333
-0.864462, 321, 1, 448, 333
-0.8654, 353, 1, 480, 256
-0.866136, 1, 177, 500, 304
-0.86659, 1, 129, 500, 256
-0.876477, 129, 113, 384, 240
-0.877718, 33, 161, 288, 288
-0.884843, 225, 97, 480, 224
-0.889679, 1, 97, 256, 224
-0.890018, 369, 1, 496, 333
-0.895836, 129, 65, 384, 192
-0.903067, 1, 17, 500, 144
-0.906266, 225, 97, 352, 224
-0.911693, 241, 129, 304, 256
-0.911858, 161, 161, 416, 288
-0.913406, 33, 97, 160, 224
-0.913716, 65, 161, 192, 288
-0.914706, 113, 97, 240, 224
-0.91574, 273, 113, 336, 240
-0.916646, 177, 129, 304, 256
-0.916893, 41, 161, 104, 288
-0.917726, 145, 97, 208, 224
-0.920216, 17, 145, 144, 272
-0.920913, 113, 145, 240, 272
-0.921105, 289, 81, 416, 208
-0.922162, 257, 1, 500, 128
-0.922704, 49, 97, 112, 224
-0.924802, 177, 81, 304, 208
-0.925029, 201, 145, 264, 272
-0.925216, 209, 81, 272, 208
-0.926161, 257, 145, 500, 272
-0.92646, 225, 145, 352, 272
-0.9269, 297, 81, 360, 208
-0.927061, 89, 97, 152, 224
-0.927642, 161, 145, 224, 272
-0.927962, 337, 1, 464, 128
-0.928597, 289, 129, 416, 256
-0.929247, 185, 97, 248, 224
-0.929581, 225, 49, 480, 176
-0.929996, 137, 145, 200, 272
-0.930967, 225, 33, 352, 160
-0.931249, 17, 161, 80, 288
-0.932391, 41, 209, 104, 333
-0.93286, 65, 161, 128, 288
-0.932916, 121, 97, 184, 224
-0.933734, 33, 49, 288, 176
-0.934745, 89, 177, 152, 304
-0.934776, 337, 65, 400, 192
-0.935969, 57, 153, 120, 216
-0.937064, 9, 113, 72, 240
-0.937393, 65, 209, 320, 333
-0.937758, 1, 209, 128, 333
-0.937879, 273, 121, 336, 184
-0.938312, 273, 65, 336, 192
-0.938564, 305, 129, 368, 256
-0.939691, 337, 113, 400, 240
-0.939982, 297, 89, 360, 152
-0.940455, 273, 33, 400, 160
-0.940517, 145, 153, 208, 216
-0.941325, 177, 193, 304, 320
-0.941779, 113, 145, 176, 272
-0.941907, 369, 1, 432, 128
-0.942761, 233, 81, 296, 208
-0.942803, 337, 65, 464, 192
-0.942823, 17, 145, 80, 208
-0.943751, 241, 105, 304, 168
-0.943849, 169, 129, 232, 192
-0.944319, 281, 161, 344, 288
-0.944555, 33, 217, 96, 280
-0.944951, 297, 33, 360, 160
-0.944972, 249, 33, 312, 160
-0.945309, 121, 153, 184, 216
-0.945415, 225, 161, 288, 224
-0.945491, 145, 97, 208, 160
-0.94552, 177, 193, 240, 320
-0.946237, 193, 185, 256, 248
-0.947139, 225, 177, 288, 304
-0.947516, 49, 185, 112, 248
-0.947557, 81, 153, 144, 216
-0.948112, 185, 161, 248, 224
-0.948205, 249, 185, 312, 248
-0.948338, 273, 97, 336, 160
-0.948543, 401, 49, 464, 176
-0.948719, 193, 89, 256, 152
-0.948737, 65, 209, 128, 333
-0.948783, 81, 129, 144, 192
-0.948907, 297, 113, 360, 176
-0.949497, 273, 177, 336, 240
-0.950069, 185, 49, 248, 176
-0.950417, 361, 113, 424, 240
-0.950566, 129, 49, 256, 176
-0.95109, 25, 185, 88, 248
-0.951385, 161, 49, 224, 176
-0.952026, 161, 209, 416, 333
-0.952478, 329, 81, 392, 144
-0.952546, 385, 129, 448, 256
-0.95272, 121, 81, 184, 144
-0.95281, 113, 193, 240, 320
-0.952952, 361, 65, 424, 192
-0.953651, 297, 145, 360, 208
-0.953678, 161, 177, 224, 240
-0.953722, 337, 113, 400, 176
-0.953751, 49, 209, 176, 333
-0.953835, 145, 73, 208, 136
-0.953891, 225, 185, 288, 248
-0.954176, 337, 113, 464, 240
-0.954652, 217, 105, 280, 168
-0.954778, 169, 89, 232, 152
-0.954887, 73, 217, 136, 280
-0.954905, 33, 1, 288, 128
-0.954932, 25, 121, 88, 184
-0.955378, 17, 209, 80, 333
-0.955523, 153, 193, 216, 320
-0.955795, 121, 113, 184, 176
-0.95587, 129, 17, 384, 144
-0.955889, 1, 65, 64, 192
-0.955967, 137, 65, 200, 320
-0.95612, 249, 137, 312, 200
-0.956162, 249, 177, 312, 304
-0.956302, 49, 105, 112, 168
-0.956587, 353, 73, 416, 136
-0.956973, 97, 177, 160, 240
-0.957049, 1, 49, 128, 176
-0.957798, 193, 129, 256, 192
-0.957906, 297, 169, 360, 232
-0.958497, 329, 17, 392, 144
-0.958659, 65, 49, 192, 176
-0.958759, 49, 129, 112, 192
-0.958961, 225, 193, 352, 320
-0.958988, 97, 65, 160, 320
-0.959574, 73, 185, 136, 248
-0.95973, 97, 89, 160, 152
-0.959801, 225, 137, 288, 200
-0.95983, 57, 65, 120, 320
-0.959841, 177, 33, 304, 160
-0.960314, 201, 193, 264, 320
-0.960716, 209, 33, 272, 160
-0.960726, 185, 209, 248, 272
-0.960729, 73, 241, 136, 304
-0.961001, 225, 129, 352, 192
-0.961013, 273, 177, 400, 304
-0.961405, 1, 121, 64, 184
-0.96148, 153, 97, 184, 224
-0.961535, 49, 161, 176, 224
-0.962161, 301, 81, 332, 208
-0.962197, 273, 17, 336, 144
-0.962313, 121, 177, 184, 240
-0.962724, 269, 129, 300, 256
-0.962831, 177, 65, 240, 320
-0.963068, 281, 113, 312, 176
-0.963139, 305, 121, 432, 184
-0.963225, 49, 137, 176, 200
-0.963305, 105, 49, 168, 176
-0.963413, 249, 161, 312, 224
-0.963497, 257, 129, 288, 256
-0.963503, 217, 57, 280, 120
-0.963567, 97, 145, 224, 208
-0.963732, 241, 105, 368, 168
-0.963893, 289, 89, 416, 152
-0.963903, 73, 145, 104, 208
-0.963916, 81, 177, 112, 304
-0.96392, 273, 145, 336, 208
-0.963997, 193, 161, 320, 224
-0.964, 301, 113, 332, 176
-0.964097, 377, 1, 440, 64
-0.964313, 161, 201, 224, 264
-0.964476, 393, 1, 456, 128
-0.964482, 145, 129, 208, 192
-0.964507, 433, 49, 496, 112
-0.964603, 305, 1, 368, 256
-0.964671, 61, 145, 92, 208
-0.964735, 49, 241, 112, 304
-0.964838, 121, 193, 184, 320
-0.964882, 281, 97, 312, 224
-0.965077, 361, 105, 424, 168
-0.965085, 245, 145, 276, 272
-0.965272, 433, 33, 496, 160
-0.965285, 129, 153, 160, 216
-0.96537, 73, 97, 136, 160
-0.965463, 229, 145, 260, 272
-0.965561, 85, 153, 116, 216
-0.965594, 9, 217, 72, 280
-0.965609, 377, 65, 440, 128
-0.96563, 1, 169, 64, 232
-0.965671, 109, 161, 140, 224
-0.965819, 321, 137, 384, 200
-0.965858, 65, 161, 96, 288
-0.965973, 245, 97, 276, 224
-0.96618, 257, 73, 320, 136
-0.96621, 393, 145, 456, 208
-0.966379, 233, 33, 296, 288
-0.966399, 317, 97, 348, 224
-0.966414, 165, 97, 196, 224
-0.966424, 177, 65, 240, 128
-0.966574, 173, 145, 204, 272
-0.966685, 57, 33, 120, 160
-0.966801, 53, 177, 84, 304
-0.966886, 229, 81, 260, 208
-0.966943, 17, 225, 144, 288
-0.966945, 129, 105, 256, 168
-0.966997, 321, 25, 384, 88
-0.967034, 33, 65, 96, 320
-0.967151, 213, 145, 244, 272
-0.96726, 177, 97, 208, 224
-0.9675, 353, 1, 416, 256
-0.967523, 253, 105, 284, 168
-0.967562, 1, 145, 128, 208
-0.967593, 309, 89, 340, 152
-0.967602, 229, 161, 260, 224
-0.967859, 297, 49, 360, 112
-0.967875, 97, 161, 128, 288
-0.967896, 49, 185, 176, 248
-0.967998, 209, 65, 272, 320
-0.968138, 153, 105, 184, 168
-0.968287, 97, 113, 128, 240
-0.968333, 145, 161, 272, 224
-0.96855, 45, 177, 76, 240
-0.968555, 273, 1, 336, 256
-0.968727, 81, 209, 112, 272
-0.969053, 273, 41, 336, 104
-0.969129, 301, 137, 332, 200
-0.969182, 201, 161, 232, 224
-0.969213, 153, 145, 184, 208
-0.969269, 217, 81, 280, 144
-0.969277, 161, 185, 288, 248
-0.969327, 113, 1, 240, 128
-0.969387, 177, 105, 304, 168
-0.969481, 173, 153, 204, 216
-0.969535, 257, 193, 500, 320
-0.969553, 49, 153, 80, 216
-0.969678, 137, 49, 200, 176
-0.969699, 241, 161, 368, 224
-0.969705, 57, 217, 88, 280
-0.969711, 141, 97, 172, 224
-0.969758, 185, 145, 216, 272
-0.969875, 177, 137, 304, 200
-0.969949, 321, 121, 352, 184
-0.969993, 221, 185, 252, 248
-0.970002, 189, 97, 220, 224
-0.970098, 213, 161, 244, 224
-0.970387, 329, 161, 392, 288
-0.970399, 241, 161, 272, 224
-0.970532, 301, 129, 332, 256
-0.970567, 97, 161, 128, 224
-0.970671, 133, 145, 164, 272
-0.970797, 193, 193, 224, 256
-0.970823, 33, 177, 64, 240
-0.970909, 417, 145, 480, 208
-0.970977, 1, 193, 64, 256
-0.970982, 41, 161, 72, 288
-0.970995, 209, 185, 336, 248
-0.971061, 285, 89, 316, 152
-0.971094, 321, 161, 384, 224
-0.971129, 37, 217, 68, 280
-0.971254, 233, 137, 264, 200
-0.971273, 153, 161, 184, 288
-0.971279, 293, 177, 324, 240
-0.971299, 337, 89, 368, 152
-0.971299, 201, 97, 232, 160
-0.971303, 369, 129, 432, 192
-0.971418, 245, 137, 276, 200
-0.971492, 393, 121, 456, 184
-0.971495, 409, 25, 472, 88
-0.97157, 329, 1, 392, 256
-0.971574, 81, 185, 112, 248
-0.971615, 273, 137, 304, 200
-0.971634, 133, 81, 164, 144
-0.971728, 109, 121, 140, 184
-0.971885, 305, 177, 368, 304
-0.971999, 217, 97, 248, 224
-0.972027, 133, 129, 164, 192
-0.972048, 185, 169, 216, 232
-0.972055, 253, 185, 284, 248
-0.97212, 65, 81, 192, 144
-0.972125, 25, 65, 88, 192
-0.972146, 197, 161, 228, 288
-0.972199, 129, 65, 256, 128
-0.972256, 241, 49, 272, 176
-0.972256, 97, 169, 224, 232
-0.972266, 85, 129, 116, 256
-0.972309, 209, 209, 272, 272
-0.972341, 337, 161, 464, 288
-0.972354, 93, 185, 124, 248
-0.972364, 81, 81, 112, 208
-0.972455, 25, 145, 56, 208
-0.972509, 285, 145, 316, 272
-0.97252, 1, 201, 128, 264
-0.972533, 337, 113, 368, 240
-0.972563, 273, 185, 304, 248
-0.972624, 181, 97, 212, 160
-0.972635, 109, 129, 140, 256
-0.972641, 357, 81, 388, 144
-0.972693, 209, 81, 336, 144
-0.972711, 409, 57, 472, 120
-0.972781, 97, 225, 160, 288
-0.97288, 241, 41, 304, 104
-0.972979, 241, 185, 272, 248
-0.973203, 85, 233, 116, 296
-0.973604, 93, 129, 124, 192
-0.973676, 25, 249, 88, 312
-0.973742, 253, 161, 284, 224
-0.973756, 65, 1, 192, 128
-0.973929, 405, 1, 436, 128
-0.973996, 189, 129, 220, 192
-0.974, 265, 105, 296, 168
-0.974023, 13, 129, 44, 192
-0.974037, 65, 217, 192, 280
-0.974057, 201, 97, 232, 224
-0.974068, 57, 177, 88, 240
-0.974106, 209, 185, 240, 248
-0.974142, 33, 113, 160, 176
-0.974272, 433, 17, 496, 80
-0.974304, 257, 81, 288, 208
-0.974315, 321, 89, 352, 152
-0.974413, 113, 193, 240, 256
-0.974456, 257, 129, 288, 192
-0.97451, 69, 217, 100, 280
-0.97459, 37, 129, 68, 192
-0.974669, 209, 57, 336, 120
-0.974669, 1, 177, 128, 240
-0.974671, 297, 33, 328, 160
-0.974683, 345, 9, 408, 72
-0.974757, 241, 105, 272, 168
-0.974763, 97, 201, 160, 264
-0.974855, 305, 177, 336, 240
-0.974884, 289, 145, 416, 208
-0.974983, 65, 209, 96, 333
-0.974986, 317, 145, 348, 272
-0.975025, 169, 105, 200, 168
-0.975052, 1, 113, 32, 240
-0.975057, 337, 73, 464, 136
-0.975137, 125, 97, 156, 224
-0.975218, 61, 97, 92, 224
-0.975233, 77, 121, 108, 184
-0.975319, 353, 113, 384, 176
-0.975322, 349, 49, 380, 176
-0.975357, 333, 49, 364, 176
-0.97536, 205, 129, 236, 192
-0.975367, 121, 249, 184, 312
-0.975692, 409, 113, 472, 240
-0.975706, 105, 185, 136, 248
-0.975767, 49, 97, 80, 224
-0.97584, 25, 97, 88, 160
-0.975842, 337, 9, 464, 72
-0.975961, 233, 209, 296, 272
-0.97621, 81, 33, 144, 160
-0.97626, 137, 225, 200, 288
-0.976299, 73, 241, 104, 304
-0.976312, 157, 73, 188, 136
-0.976344, 225, 89, 256, 152
-0.976397, 297, 89, 328, 152
-0.976422, 93, 209, 124, 333
-0.976547, 173, 129, 204, 192
-0.976584, 81, 113, 208, 176
-0.976618, 297, 25, 360, 88
-0.976826, 29, 145, 60, 272
-0.976862, 109, 177, 140, 304
-0.97687, 37, 153, 68, 216
-0.976897, 1, 241, 64, 304
-0.976963, 69, 185, 100, 248
-0.977018, 161, 233, 224, 296
-0.97707, 197, 49, 228, 176
-0.977168, 401, 1, 464, 64
-0.977198, 349, 97, 380, 224
-0.9772, 97, 225, 128, 288
-0.977399, 173, 177, 204, 240
-0.977428, 141, 161, 172, 224
-0.977459, 381, 97, 412, 224
-0.977674, 377, 169, 440, 232
-0.977715, 145, 1, 208, 128
-0.977721, 1, 249, 128, 312
-0.977817, 369, 105, 400, 168
-0.977858, 397, 129, 428, 256
-0.97796, 9, 1, 72, 256
-0.977974, 185, 233, 248, 296
-0.978045, 281, 49, 312, 176
-0.978078, 265, 177, 296, 304
-0.97809, 321, 49, 384, 112
-0.978107, 289, 153, 320, 216
-0.978128, 393, 65, 424, 192
-0.978136, 205, 73, 236, 136
-0.978191, 141, 105, 172, 168
-0.978277, 193, 217, 320, 280
-0.978282, 353, 121, 480, 184
-0.978292, 109, 81, 140, 208
-0.978343, 417, 121, 480, 184
-0.978398, 369, 145, 496, 208
-0.978474, 433, 273, 496, 333
-0.978501, 317, 161, 348, 224
-0.978557, 353, 41, 416, 104
-0.978614, 121, 177, 152, 304
-0.978681, 345, 153, 408, 216
-0.978742, 25, 225, 56, 288
-0.978813, 393, 1, 424, 128
-0.978884, 333, 129, 364, 192
-0.978962, 121, 129, 152, 192
-0.979001, 429, 25, 460, 88
-0.97902, 169, 193, 200, 320
-0.979085, 125, 177, 156, 240
-0.97924, 353, 161, 416, 288
-0.979297, 433, 137, 464, 200
-0.979391, 257, 33, 384, 96
-0.979605, 213, 105, 244, 168
-0.979737, 373, 73, 404, 136
-0.979751, 389, 137, 420, 200
-0.979816, 413, 49, 444, 176
-0.979852, 209, 193, 240, 320
-0.979899, 417, 1, 448, 128
-0.979928, 369, 49, 496, 112
-0.97995, 221, 137, 252, 200
-0.979983, 161, 169, 192, 232
-0.979997, 93, 97, 124, 160
-0.980005, 313, 193, 376, 256
-0.98007, 97, 257, 160, 320
-0.980089, 49, 129, 80, 192
-0.980151, 29, 209, 60, 333
-0.980196, 257, 193, 384, 256
-0.980215, 273, 161, 304, 224
-0.980255, 329, 25, 360, 88
-0.980307, 249, 17, 312, 80
-0.980355, 405, 145, 436, 208
-0.980364, 433, 129, 496, 256
-0.980388, 41, 209, 72, 333
-0.98045, 57, 105, 88, 168
-0.980481, 225, 113, 256, 176
-0.980564, 181, 49, 212, 176
-0.980566, 89, 1, 152, 333
-0.980628, 425, 49, 456, 112
-0.980651, 205, 209, 236, 272
-0.980809, 181, 193, 212, 320
-0.98081, 385, 41, 448, 104
-0.980826, 325, 49, 356, 112
-0.980874, 365, 65, 396, 192
-0.980923, 353, 177, 416, 240
-0.98099, 289, 1, 352, 333
-0.981076, 305, 169, 432, 232
-0.981124, 21, 97, 52, 224
-0.981211, 25, 121, 56, 184
-0.981232, 113, 89, 144, 152
-0.981315, 273, 201, 336, 264
-0.981348, 321, 1, 384, 333
-0.981358, 193, 1, 256, 333
-0.981423, 381, 105, 412, 168
-0.981609, 145, 81, 176, 144
-0.98169, 409, 129, 440, 256
-0.98171, 105, 1, 168, 128
-0.981722, 269, 65, 300, 192
-0.981789, 333, 153, 364, 216
-0.981793, 65, 241, 192, 304
-0.981808, 169, 209, 200, 272
-0.98185, 309, 17, 340, 144
-0.981876, 49, 1, 112, 333
-0.981906, 25, 17, 88, 144
-0.981916, 257, 65, 384, 128
-0.982012, 233, 193, 264, 320
-0.982046, 229, 65, 260, 128
-0.982105, 353, 169, 480, 232
-0.982108, 13, 177, 44, 304
-0.982113, 417, 1, 448, 64
-0.982113, 273, 33, 304, 96
-0.982196, 5, 153, 36, 216
-0.982209, 213, 49, 244, 176
-0.982264, 273, 81, 304, 144
-0.982311, 217, 57, 248, 120
-0.982319, 345, 65, 376, 128
-0.982354, 61, 241, 92, 304
-0.982398, 353, 1, 384, 128
-0.982475, 369, 113, 400, 240
-0.98285, 169, 81, 200, 144
-0.982898, 365, 1, 396, 128
-0.982954, 469, 33, 500, 160
-0.983009, 421, 145, 452, 208
-0.98303, 345, 1, 408, 333
-0.983055, 377, 273, 440, 333
-0.983086, 409, 1, 472, 256
-0.983123, 401, 273, 464, 333
-0.983171, 113, 241, 240, 304
-0.983287, 1, 129, 32, 192
-0.983338, 33, 97, 64, 224
-0.983362, 385, 73, 416, 136
-0.98338, 313, 25, 344, 88
-0.983452, 137, 185, 168, 248
-0.983485, 181, 209, 212, 272
-0.983547, 253, 41, 284, 104
-0.983625, 401, 169, 464, 232
-0.983648, 189, 65, 220, 128
-0.983702, 385, 33, 448, 288
-0.983718, 1, 1, 128, 128
-0.983764, 261, 65, 292, 128
-0.983781, 21, 169, 52, 232
-0.983846, 73, 97, 104, 160
-0.983876, 297, 41, 328, 104
-0.983897, 113, 1, 176, 333
-0.98397, 229, 33, 260, 160
-0.984103, 265, 1, 328, 333
-0.984177, 397, 57, 428, 120
-0.984193, 217, 1, 280, 333
-0.984235, 401, 113, 432, 176
-0.98427, 321, 49, 448, 112
-0.984337, 369, 1, 432, 333
-0.984507, 1, 97, 64, 160
-0.984528, 321, 49, 352, 176
-0.984705, 169, 49, 200, 176
-0.984768, 97, 65, 128, 192
-0.984948, 185, 1, 248, 128
-0.985063, 393, 97, 456, 160
-0.985115, 409, 1, 472, 333
-0.985118, 241, 1, 304, 333
-0.985169, 17, 89, 144, 152
-0.985328, 221, 193, 252, 320
-0.985416, 137, 201, 200, 264
-0.985543, 337, 97, 464, 160
-0.985769, 25, 1, 88, 333
-0.98591, 141, 49, 172, 176
-0.986044, 1, 137, 500, 200
-0.986102, 273, 17, 336, 80
-0.986111, 129, 105, 384, 168
-0.986142, 249, 193, 280, 320
-0.986147, 277, 193, 308, 320
-0.986154, 33, 161, 288, 224
-0.986177, 305, 177, 336, 304
-0.98632, 345, 161, 376, 288
-0.986393, 161, 161, 416, 224
-0.986396, 97, 65, 160, 128
-0.986424, 425, 49, 456, 176
-0.986488, 161, 1, 224, 333
-0.986505, 33, 97, 288, 160
-0.986531, 65, 265, 128, 328
-0.986576, 157, 209, 188, 333
-0.986601, 145, 217, 272, 280
-0.986606, 253, 33, 284, 160
-0.986866, 129, 129, 384, 192
-0.986945, 257, 121, 500, 184
-0.986954, 305, 1, 368, 64
-0.987032, 129, 141, 192, 172
-0.987156, 145, 109, 208, 140
-0.987203, 209, 33, 336, 96
-0.987238, 289, 129, 352, 160
-0.987346, 65, 193, 320, 256
-0.987356, 97, 161, 160, 192
-0.98739, 81, 33, 112, 160
-0.987424, 297, 117, 360, 148
-0.987428, 333, 161, 364, 288
-0.987444, 137, 1, 200, 333
-0.987459, 185, 41, 248, 104
-0.987463, 433, 1, 496, 333
-0.987466, 49, 173, 112, 204
-0.987511, 153, 49, 184, 176
-0.98757, 265, 125, 328, 156
-0.987571, 57, 149, 120, 180
-0.987586, 457, 33, 488, 160
-0.987615, 33, 121, 288, 184
-0.987654, 49, 265, 176, 328
-0.987728, 145, 157, 208, 188
-0.98774, 57, 161, 120, 192
-0.987773, 105, 173, 168, 204
-0.987818, 1, 1, 64, 333
-0.987822, 33, 73, 96, 136
-0.98783, 193, 189, 256, 220
-0.987879, 381, 49, 412, 176
-0.987885, 233, 133, 296, 164
-0.987932, 1, 1, 64, 128
-0.987934, 17, 165, 80, 196
-0.988007, 289, 9, 416, 72
-0.988046, 9, 49, 40, 176
-0.98805, 193, 89, 256, 120
-0.9881, 273, 141, 336, 172
-0.988142, 169, 105, 232, 136
-0.988168, 385, 145, 416, 272
-0.988192, 185, 149, 248, 180
-0.988218, 65, 65, 128, 128
-0.988301, 81, 129, 144, 160
-0.988309, 1, 177, 32, 304
-0.988322, 265, 113, 328, 144
-0.988322, 217, 33, 280, 96
-0.988327, 49, 213, 112, 244
-0.988421, 169, 129, 232, 160
-0.988435, 17, 185, 80, 216
-0.988437, 121, 153, 184, 184
-0.988465, 161, 145, 224, 176
-0.988466, 17, 141, 80, 172
-0.988581, 25, 217, 88, 248
-0.988612, 377, 9, 440, 40
-0.988626, 33, 153, 96, 184
-0.988628, 337, 117, 400, 148
-0.988633, 153, 177, 216, 208
-0.988657, 145, 97, 208, 128
-0.988682, 81, 177, 144, 208
-0.988685, 185, 169, 248, 200
-0.98873, 33, 237, 96, 268
-0.988776, 273, 97, 336, 128
-0.98882, 193, 209, 224, 333
-0.988833, 313, 129, 376, 160
-0.98885, 65, 245, 128, 276
-0.988861, 129, 177, 192, 208
-0.988866, 97, 145, 160, 176
-0.988876, 425, 53, 488, 84
-0.988903, 257, 185, 320, 216
-0.988936, 1, 97, 500, 160
-0.988963, 249, 149, 312, 180
-0.988971, 297, 97, 360, 128
-0.988973, 377, 1, 408, 128
-0.988982, 225, 145, 288, 176
-0.989028, 281, 37, 344, 68
-0.989088, 281, 177, 344, 208
-0.98909, 341, 1, 372, 128
-0.989104, 169, 193, 232, 224
-0.989108, 105, 121, 168, 152
-0.989137, 41, 253, 104, 284
-0.989228, 385, 65, 448, 96
-0.989319, 193, 209, 256, 240
-0.989326, 1, 153, 64, 184
-0.989355, 25, 201, 88, 232
-0.989391, 233, 197, 296, 228
-0.989408, 9, 121, 72, 152
-0.989424, 57, 137, 120, 168
-0.989439, 105, 89, 168, 120
-0.98944, 377, 117, 440, 148
-0.989454, 225, 53, 288, 84
-0.989479, 225, 97, 480, 160
-0.98953, 17, 41, 144, 104
-0.989551, 249, 45, 312, 76
-0.989582, 217, 97, 280, 128
-0.989585, 145, 77, 208, 108
-0.989633, 321, 89, 384, 120
-0.989657, 193, 101, 256, 132
-0.989667, 401, 49, 464, 80
-0.989668, 201, 137, 264, 168
-0.989673, 369, 273, 496, 333
-0.989703, 133, 193, 164, 320
-0.989735, 421, 129, 452, 256
-0.989746, 217, 185, 280, 216
-0.989783, 345, 77, 408, 108
-0.989799, 313, 169, 376, 200
-0.989817, 169, 93, 232, 124
-0.989819, 321, 25, 384, 56
-0.989866, 73, 213, 136, 244
-0.98987, 209, 165, 272, 196
-0.989885, 105, 185, 168, 216
-0.989896, 57, 185, 120, 216
-0.989911, 49, 201, 112, 232
-0.989923, 17, 253, 80, 284
-0.989926, 409, 65, 472, 96
-0.989938, 337, 129, 400, 160
-0.989958, 49, 225, 112, 256
-0.99, 185, 65, 248, 96
-0.990004, 241, 105, 304, 136
-0.990014, 321, 73, 384, 104
-0.990028, 129, 73, 384, 136
-0.990036, 313, 141, 376, 172
-0.990075, 33, 129, 96, 160
-0.990077, 129, 189, 192, 220
-0.990099, 321, 101, 384, 132
-0.990195, 353, 105, 416, 136
-0.990202, 369, 77, 432, 108
-0.990216, 193, 125, 256, 156
-0.99023, 345, 17, 408, 48
-0.990255, 273, 153, 336, 184
-0.990256, 257, 169, 320, 200
-0.990298, 233, 161, 296, 192
-0.990307, 353, 273, 416, 333
-0.990309, 209, 233, 272, 296
-0.990363, 233, 77, 296, 108
-0.990375, 9, 73, 72, 136
-0.990408, 409, 137, 472, 168
-0.990408, 401, 1, 464, 32
-0.990409, 361, 61, 424, 92
-0.990439, 73, 225, 136, 256
-0.990466, 9, 237, 72, 268
-0.9905, 121, 109, 184, 140
-0.990501, 1, 217, 256, 280
-0.990512, 169, 205, 232, 236
-0.990519, 273, 209, 336, 333
-0.990525, 1, 185, 500, 248
-0.990546, 369, 133, 432, 164
-0.990574, 297, 81, 360, 112
-0.990582, 145, 129, 208, 160
-0.990597, 57, 33, 88, 160
-0.99063, 169, 117, 232, 148
-0.99065, 289, 165, 352, 196
-0.990678, 1, 65, 128, 128
-0.990697, 329, 1, 360, 128
-0.990711, 249, 89, 312, 120
-0.990753, 433, 41, 496, 72
-0.990764, 33, 109, 96, 140
-0.990771, 241, 129, 368, 160
-0.990792, 393, 149, 456, 180
-0.990813, 425, 149, 488, 180
-0.990907, 89, 237, 152, 268
-0.990909, 161, 41, 288, 104
-0.990914, 425, 249, 488, 312
-0.990976, 1, 161, 500, 224
-0.990979, 313, 157, 376, 188
-0.990983, 357, 177, 388, 304
-0.990998, 161, 221, 224, 252
-0.991013, 269, 17, 300, 144
-0.991065, 65, 97, 128, 128
-0.991078, 217, 109, 280, 140
-0.991083, 137, 249, 200, 280
-0.991095, 97, 221, 160, 252
-0.991134, 289, 53, 352, 84
-0.991143, 177, 145, 304, 176
-0.991145, 117, 33, 148, 160
-0.991164, 1, 221, 64, 252
-0.991166, 65, 141, 192, 172
-0.991169, 369, 297, 432, 328
-0.991192, 369, 177, 432, 208
-0.991205, 57, 121, 120, 152
-0.991271, 97, 161, 224, 192
-0.991284, 241, 121, 304, 152
-0.991298, 45, 49, 76, 176
-0.991321, 193, 113, 256, 144
-0.991337, 297, 25, 360, 56
-0.991339, 433, 277, 496, 308
-0.99134, 209, 225, 272, 256
-0.991355, 131, 153, 146, 216
-0.991373, 129, 1, 160, 128
-0.991422, 25, 49, 56, 176
-0.991529, 257, 177, 500, 240
-0.991548, 93, 17, 124, 144
-0.991569, 193, 105, 320, 136
-0.991601, 129, 1, 192, 64
-0.99162, 161, 185, 416, 248
-0.991621, 137, 49, 200, 112
-0.991628, 305, 125, 432, 156
-0.991663, 57, 153, 88, 184
-0.991664, 257, 25, 500, 88
-0.991697, 285, 117, 316, 148
-0.991719, 369, 249, 496, 312
-0.991758, 141, 141, 172, 172
-0.991763, 129, 169, 160, 200
-0.991764, 257, 145, 500, 208
-0.991781, 377, 177, 440, 304
-0.991804, 277, 129, 308, 160
-0.991823, 321, 129, 352, 160
-0.991839, 89, 161, 120, 192
-0.991842, 45, 177, 60, 240
-0.991867, 73, 141, 104, 172
-0.991871, 153, 137, 184, 168
-0.991873, 297, 117, 328, 148
-0.991874, 161, 241, 288, 304
-0.991892, 117, 161, 148, 192
-0.991907, 109, 177, 140, 208
-0.99191, 201, 105, 232, 136
-0.991912, 301, 129, 332, 160
-0.991919, 133, 157, 164, 188
-0.991942, 129, 105, 256, 136
-0.991945, 105, 17, 136, 144
-0.99195, 285, 105, 316, 136
-0.991954, 33, 241, 288, 304
-0.991955, 321, 193, 448, 256
-0.991956, 41, 165, 72, 196
-0.991968, 241, 9, 368, 72
-0.991975, 225, 185, 352, 216
-0.991986, 257, 73, 500, 136
-0.991989, 89, 133, 120, 164
-0.992016, 81, 213, 112, 244
-0.992026, 49, 173, 176, 204
-0.992031, 101, 165, 132, 196
-0.992031, 257, 141, 288, 172
-0.992042, 309, 109, 340, 140
-0.992064, 217, 85, 248, 116
-0.992083, 329, 117, 360, 148
-0.992101, 125, 145, 156, 176
-0.992106, 301, 97, 332, 128
-0.992107, 261, 129, 292, 160
-0.992116, 305, 141, 336, 172
-0.992127, 69, 165, 100, 196
-0.992134, 273, 117, 304, 148
-0.992138, 41, 205, 72, 236
-0.992151, 53, 181, 84, 212
-0.992159, 69, 33, 100, 160
-0.992166, 35, 153, 50, 216
-0.992187, 197, 169, 228, 200
-0.992194, 153, 153, 184, 184
-0.992207, 49, 217, 80, 248
-0.992208, 221, 153, 252, 184
-0.992219, 181, 105, 212, 136
-0.992221, 161, 205, 288, 236
-0.992225, 165, 137, 196, 168
-0.992233, 161, 181, 288, 212
-0.992251, 117, 161, 132, 224
-0.992253, 181, 185, 212, 216
-0.992254, 57, 249, 88, 280
-0.992255, 45, 149, 76, 180
-0.992256, 205, 149, 236, 180
-0.992262, 225, 189, 256, 220
-0.992283, 417, 1, 448, 32
-0.992284, 277, 141, 308, 172
-0.992308, 245, 149, 276, 180
-0.992311, 381, 109, 412, 140
-0.992316, 241, 133, 272, 164
-0.992323, 289, 113, 416, 144
-0.992324, 177, 157, 208, 188
-0.992326, 221, 97, 252, 128
-0.992331, 245, 185, 276, 216
-0.992333, 193, 153, 224, 184
-0.992334, 77, 245, 108, 276
-0.992338, 61, 141, 92, 172
-0.992343, 433, 45, 464, 76
-0.992344, 445, 113, 476, 240
-0.99236, 365, 109, 396, 140
-0.992364, 33, 221, 64, 252
-0.992365, 25, 145, 56, 176
-0.992373, 225, 153, 352, 184
-0.992378, 89, 177, 120, 208
-0.992397, 193, 49, 448, 112
-0.992398, 81, 225, 112, 256
-0.9924, 373, 13, 404, 44
-0.992401, 85, 149, 116, 180
-0.992405, 41, 193, 72, 224
-0.992416, 1, 153, 32, 184
-0.992417, 229, 137, 260, 168
-0.992417, 41, 181, 72, 212
-0.992428, 421, 49, 452, 80
-0.99243, 297, 165, 328, 196
-0.992431, 61, 213, 92, 244
-0.992431, 61, 201, 92, 232
-0.992433, 93, 213, 124, 244
-0.992434, 213, 189, 244, 220
-0.992446, 141, 105, 172, 136
-0.992447, 337, 73, 368, 104
-0.992448, 445, 57, 476, 88
-0.99245, 69, 153, 100, 184
-0.992458, 345, 121, 376, 152
-0.992461, 57, 169, 88, 200
-0.992462, 169, 109, 200, 140
-0.992465, 125, 181, 156, 212
-0.992467, 393, 65, 424, 96
-0.992471, 273, 101, 304, 132
-0.992471, 309, 173, 340, 204
-0.992477, 1, 149, 128, 180
-0.992482, 49, 157, 176, 188
-0.992485, 313, 93, 344, 124
-0.992485, 17, 125, 48, 156
-0.992486, 205, 89, 236, 120
-0.99249, 177, 173, 208, 204
-0.992493, 329, 89, 360, 120
-0.992498, 285, 1, 316, 128
-0.9925, 29, 185, 60, 216
-0.992501, 317, 29, 348, 60
-0.992503, 229, 85, 260, 116
-0.992505, 273, 41, 304, 72
-0.99251, 109, 149, 140, 180
-0.992511, 201, 117, 232, 148
-0.992512, 45, 253, 76, 284
-0.992516, 41, 237, 72, 268
-0.992517, 373, 121, 404, 152
-0.992518, 233, 149, 264, 180
-0.992521, 273, 185, 304, 216
-0.992525, 405, 69, 436, 100
-0.992535, 289, 93, 320, 124
-0.992537, 157, 105, 188, 136
-0.992537, 17, 221, 144, 252
-0.992538, 141, 177, 172, 208
-0.992542, 281, 169, 312, 200
-0.992542, 457, 53, 488, 84
-0.992548, 41, 137, 72, 168
-0.992549, 73, 177, 104, 208
-0.992549, 321, 105, 352, 136
-0.99255, 433, 61, 464, 92
-0.992551, 297, 145, 312, 208
-0.992553, 469, 49, 500, 80
-0.992554, 109, 125, 140, 156
-0.992554, 437, 49, 468, 176
-0.992557, 417, 65, 448, 96
-0.992566, 213, 169, 244, 200
-0.992572, 201, 193, 232, 224
-0.992573, 261, 113, 292, 144
-0.992575, 241, 217, 368, 280
-0.992584, 341, 109, 372, 140
-0.992587, 301, 33, 332, 64
-0.992592, 133, 121, 164, 152
-0.992592, 333, 129, 364, 160
-0.992592, 153, 173, 184, 204
-0.992593, 173, 93, 204, 124
-0.992599, 165, 181, 196, 212
-0.9926, 21, 169, 52, 200
-0.992604, 393, 117, 424, 148
-0.992612, 13, 137, 44, 168
-0.992615, 361, 17, 392, 48
-0.992624, 181, 205, 212, 236
-0.992633, 169, 209, 200, 240
-0.992634, 49, 241, 176, 272
-0.992637, 377, 73, 408, 104
-0.992639, 325, 141, 356, 172
-0.992667, 129, 49, 160, 176
-0.99269, 273, 101, 400, 132
-0.99269, 107, 161, 122, 224
-0.992699, 305, 105, 320, 168
-0.99272, 83, 145, 98, 208
-0.992725, 65, 41, 192, 104
-0.992762, 1, 73, 256, 136
-0.992788, 129, 149, 256, 180
-0.992812, 71, 137, 86, 200
-0.992815, 239, 161, 254, 224
-0.992816, 95, 145, 110, 208
-0.99284, 233, 161, 248, 224
-0.992889, 267, 105, 282, 168
-0.992902, 125, 161, 140, 224
-0.992906, 177, 169, 304, 200
-0.992975, 209, 169, 224, 232
-0.993039, 167, 153, 182, 216
-0.993048, 1, 169, 128, 200
-0.993057, 55, 153, 70, 216
-0.993076, 145, 257, 208, 320
-0.993092, 241, 113, 368, 144
-0.993112, 201, 97, 216, 160
-0.993148, 65, 93, 192, 124
-0.993157, 273, 173, 400, 204
-0.993167, 285, 105, 300, 168
-0.993175, 129, 93, 256, 124
-0.993204, 75, 217, 90, 280
-0.993212, 295, 169, 310, 232
-0.993218, 311, 97, 326, 160
-0.993228, 195, 97, 210, 160
-0.993245, 173, 129, 188, 192
-0.993249, 59, 177, 74, 240
-0.993269, 321, 273, 448, 333
-0.993291, 49, 185, 176, 216
-0.993303, 295, 113, 310, 176
-0.993312, 193, 133, 320, 164
-0.993346, 89, 145, 104, 208
-0.993365, 227, 161, 242, 224
-0.993379, 141, 1, 172, 128
-0.993394, 163, 105, 178, 168
-0.993395, 305, 137, 432, 168
-0.993402, 1, 9, 128, 72
-0.993431, 101, 153, 116, 216
-0.993458, 201, 161, 216, 224
-0.993472, 145, 153, 160, 216
-0.993475, 93, 209, 108, 272
-0.993481, 97, 185, 112, 248
-0.993519, 65, 137, 80, 200
-0.993545, 235, 185, 250, 248
-0.993551, 401, 209, 464, 333
-0.993579, 195, 121, 210, 184
-0.993628, 107, 185, 122, 248
-0.993639, 245, 161, 260, 224
-0.993648, 251, 105, 266, 168
-0.993649, 17, 133, 144, 164
-0.993653, 329, 273, 392, 333
-0.993658, 321, 121, 336, 184
-0.993661, 139, 129, 154, 192
-0.993673, 253, 161, 268, 224
-0.993678, 343, 105, 358, 168
-0.993679, 1, 25, 500, 88
-0.993694, 53, 177, 68, 240
-0.993694, 193, 169, 208, 232
-0.993695, 279, 105, 294, 168
-0.993701, 177, 153, 192, 216
-0.993701, 305, 161, 320, 224
-0.993717, 1, 181, 128, 212
-0.993725, 303, 137, 318, 200
-0.993742, 243, 185, 258, 248
-0.993757, 337, 77, 464, 108
-0.993785, 97, 173, 224, 204
-0.99379, 327, 121, 342, 184
-0.9938, 17, 209, 144, 240
-0.993802, 39, 193, 54, 256
-0.993805, 247, 137, 262, 200
-0.993832, 317, 89, 332, 152
-0.993837, 373, 161, 404, 288
-0.993855, 1, 225, 500, 288
-0.99387, 209, 193, 224, 256
-0.993883, 433, 209, 496, 333
-0.993883, 237, 137, 252, 200
-0.993898, 97, 117, 224, 148
-0.993908, 87, 209, 102, 272
-0.993912, 249, 185, 264, 248
-0.993922, 169, 105, 184, 168
-0.99393, 215, 169, 230, 232
-0.993937, 369, 81, 384, 144
-0.993941, 77, 241, 92, 304
-0.993943, 137, 153, 152, 216
-0.993949, 257, 141, 384, 172
-0.993954, 221, 161, 236, 224
-0.993957, 77, 145, 92, 208
-0.99397, 65, 177, 80, 240
-0.993974, 151, 153, 166, 216
-0.993975, 161, 209, 416, 272
-0.993976, 279, 185, 294, 248
-0.993982, 129, 77, 256, 108
-0.993998, 261, 137, 276, 200
-0.994026, 289, 89, 416, 120
-0.994037, 25, 41, 88, 104
-0.994042, 177, 177, 192, 240
-0.994046, 177, 117, 304, 148
-0.994053, 323, 89, 338, 152
-0.994066, 259, 161, 274, 224
-0.994078, 69, 217, 84, 280
-0.99408, 269, 185, 284, 248
-0.994131, 133, 129, 148, 192
-0.994142, 183, 209, 198, 272
-0.994176, 207, 129, 222, 192
-0.99418, 257, 105, 272, 168
-0.994182, 39, 225, 54, 288
-0.994194, 229, 185, 244, 248
-0.994199, 41, 145, 56, 208
-0.9942, 47, 217, 62, 280
-0.994206, 321, 169, 336, 232
-0.994238, 217, 129, 232, 192
-0.994244, 1, 113, 128, 144
-0.994247, 287, 185, 302, 248
-0.99426, 209, 85, 336, 116
-0.994278, 175, 105, 190, 168
-0.994298, 255, 185, 270, 248
-0.994302, 305, 161, 432, 192
-0.994309, 337, 113, 464, 144
-0.994312, 129, 137, 256, 168
-0.994312, 199, 193, 214, 256
-0.994342, 333, 121, 348, 184
-0.994342, 337, 17, 464, 48
-0.994346, 311, 161, 326, 224
-0.99436, 95, 241, 110, 304
-0.994378, 49, 153, 64, 216
-0.994389, 105, 65, 136, 320
-0.994389, 89, 121, 104, 184
-0.994402, 225, 165, 352, 196
-0.994423, 65, 41, 128, 104
-0.994426, 229, 89, 244, 152
-0.99444, 341, 81, 356, 144
-0.994454, 33, 17, 96, 80
-0.994465, 225, 45, 352, 76
-0.994465, 81, 209, 96, 272
-0.994468, 103, 225, 118, 288
-0.994477, 81, 1, 208, 64
-0.99448, 97, 189, 224, 220
-0.994486, 1, 253, 128, 284
-0.994503, 297, 89, 312, 152
-0.994509, 17, 197, 144, 228
-0.994509, 55, 201, 70, 264
-0.994514, 315, 121, 330, 184
-0.994535, 85, 233, 100, 296
-0.994546, 97, 265, 224, 328
-0.994551, 353, 89, 368, 152
-0.994551, 27, 161, 42, 224
-0.994551, 265, 161, 280, 224
-0.994575, 71, 193, 86, 256
-0.994587, 161, 193, 288, 224
-0.99459, 33, 177, 48, 240
-0.994605, 253, 129, 268, 192
-0.994637, 35, 129, 50, 192
-0.99465, 93, 65, 124, 320
-0.994667, 345, 129, 360, 192
-0.994672, 181, 81, 196, 144
-0.994678, 227, 137, 242, 200
-0.994699, 261, 185, 276, 248
-0.994706, 1, 73, 500, 136
-0.994712, 217, 97, 232, 160
-0.994715, 71, 161, 86, 224
-0.99472, 221, 185, 236, 248
-0.99472, 243, 105, 258, 168
-0.994722, 97, 217, 224, 248
-0.994739, 81, 229, 208, 260
-0.994744, 215, 193, 230, 256
-0.994745, 33, 217, 48, 280
-0.994761, 91, 185, 106, 248
-0.994777, 61, 209, 76, 272
-0.994777, 183, 185, 198, 248
-0.994793, 335, 89, 350, 152
-0.994794, 145, 209, 176, 333
-0.994798, 273, 137, 288, 200
-0.994814, 155, 113, 170, 176
-0.994851, 187, 161, 202, 224
-0.994858, 369, 65, 496, 96
-0.994859, 113, 41, 240, 104
-0.994867, 49, 105, 176, 136
-0.994876, 177, 65, 208, 320
-0.994893, 157, 153, 172, 216
-0.994896, 117, 137, 132, 200
-0.994899, 285, 129, 300, 192
-0.994902, 81, 177, 96, 240
-0.994923, 393, 249, 456, 312
-0.995002, 177, 157, 304, 188
-0.995016, 157, 65, 188, 320
-0.995038, 289, 193, 320, 320
-0.995114, 289, 21, 416, 52
-0.995213, 65, 129, 192, 160
-0.995263, 97, 49, 352, 112
-0.995291, 305, 1, 336, 256
-0.995294, 69, 65, 100, 320
-0.99537, 241, 73, 368, 104
-0.995414, 305, 53, 432, 84
-0.995424, 305, 149, 432, 180
-0.995442, 289, 77, 416, 108
-0.995456, 241, 33, 368, 64
-0.995491, 177, 57, 304, 88
-0.995504, 317, 1, 348, 256
-0.995504, 1, 233, 128, 264
-0.995506, 433, 81, 496, 208
-0.995529, 145, 65, 176, 320
-0.995539, 433, 1, 496, 256
-0.995568, 333, 1, 364, 256
-0.995583, 97, 201, 224, 232
-0.995584, 1, 49, 500, 112
-0.995605, 225, 33, 256, 288
-0.995645, 161, 17, 288, 80
-0.995687, 369, 141, 496, 172
-0.995696, 337, 5, 464, 36
-0.995712, 461, 97, 492, 224
-0.995733, 129, 65, 160, 320
-0.995753, 213, 65, 244, 320
-0.995759, 317, 193, 348, 320
-0.995777, 41, 1, 72, 128
-0.995848, 281, 65, 312, 320
-0.995865, 189, 65, 220, 320
-0.99588, 81, 81, 208, 112
-0.995903, 257, 1, 288, 256
-0.995935, 117, 65, 148, 320
-0.995939, 365, 1, 396, 256
-0.995957, 201, 65, 232, 320
-0.99597, 257, 61, 384, 92
-0.996004, 81, 65, 112, 320
-0.996015, 237, 33, 268, 288
-0.996027, 209, 197, 336, 228
-0.996051, 193, 221, 320, 252
-0.99615, 1, 41, 256, 104
-0.996163, 201, 1, 232, 128
-0.996167, 345, 1, 376, 256
-0.996169, 381, 1, 412, 256
-0.996173, 129, 65, 256, 96
-0.996182, 369, 165, 496, 196
-0.996195, 139, 145, 154, 176
-0.996246, 353, 49, 480, 80
-0.996254, 57, 65, 88, 320
-0.996284, 441, 1, 472, 128
-0.996285, 65, 257, 192, 288
-0.996298, 145, 169, 160, 200
-0.996319, 97, 9, 352, 72
-0.99632, 283, 117, 298, 148
-0.996348, 59, 161, 74, 192
-0.996362, 299, 113, 314, 144
-0.996373, 151, 137, 166, 168
-0.99638, 297, 149, 312, 180
-0.996421, 113, 173, 128, 204
-0.996426, 55, 201, 70, 232
-0.99644, 117, 161, 132, 192
-0.996457, 129, 169, 144, 200
-0.996458, 369, 293, 496, 324
-0.996471, 45, 65, 76, 320
-0.996485, 1, 273, 128, 333
-0.996513, 119, 173, 134, 204
-0.996516, 157, 141, 172, 172
-0.996519, 63, 149, 78, 180
-0.996547, 105, 161, 120, 192
-0.996549, 289, 33, 416, 64
-0.996553, 145, 141, 160, 172
-0.996556, 297, 137, 312, 168
-0.996574, 129, 233, 384, 296
-0.996577, 45, 157, 60, 188
-0.996578, 305, 65, 432, 96
-0.99659, 277, 125, 292, 156
-0.996602, 269, 1, 300, 256
-0.996603, 139, 157, 154, 188
-0.996605, 337, 177, 464, 208
-0.996611, 61, 181, 76, 212
-0.996648, 145, 157, 160, 188
-0.996652, 191, 105, 206, 136
-0.996667, 305, 97, 320, 128
-0.996668, 215, 105, 230, 136
-0.996678, 313, 117, 328, 148
-0.996686, 171, 137, 186, 168
-0.996712, 135, 169, 150, 200
-0.99673, 209, 209, 336, 240
-0.996753, 155, 153, 170, 184
-0.996772, 321, 121, 336, 152
-0.996784, 133, 141, 148, 172
-0.996788, 369, 129, 496, 160
-0.996804, 169, 149, 184, 180
-0.996805, 81, 145, 96, 176
-0.996809, 129, 241, 256, 272
-0.996813, 289, 125, 304, 156
-0.996813, 43, 221, 58, 252
-0.99683, 289, 105, 304, 136
-0.996845, 69, 153, 84, 184
-0.996857, 165, 137, 180, 168
-0.99686, 53, 169, 68, 200
-0.996861, 321, 109, 336, 140
-0.996865, 1, 249, 500, 312
-0.996871, 91, 133, 106, 164
-0.996881, 209, 105, 224, 136
-0.996884, 63, 205, 78, 236
-0.996911, 123, 161, 138, 192
-0.996916, 131, 153, 146, 184
-0.996918, 43, 185, 58, 216
-0.996919, 99, 209, 114, 240
-0.996924, 237, 145, 252, 176
-0.996927, 199, 157, 214, 188
-0.99694, 197, 109, 212, 140
-0.996951, 369, 153, 496, 184
-0.99696, 277, 113, 292, 144
-0.996978, 289, 189, 416, 220
-0.99698, 269, 129, 284, 160
-0.99699, 301, 161, 316, 192
-0.997035, 331, 89, 346, 120
-0.997048, 327, 113, 342, 144
-0.99705, 257, 133, 272, 164
-0.997052, 107, 173, 122, 204
-0.997054, 343, 117, 358, 148
-0.997054, 163, 153, 178, 184
-0.997057, 233, 89, 248, 120
-0.997074, 125, 149, 140, 180
-0.997075, 35, 209, 50, 240
-0.997087, 305, 121, 320, 152
-0.997089, 295, 101, 310, 132
-0.997091, 55, 149, 70, 180
-0.997093, 295, 173, 310, 204
-0.997094, 229, 149, 244, 180
-0.997097, 49, 201, 64, 232
-0.997106, 217, 149, 232, 180
-0.997116, 391, 117, 406, 148
-0.997117, 227, 85, 242, 116
-0.997127, 55, 181, 70, 212
-0.997127, 347, 129, 362, 160
-0.99713, 33, 149, 48, 180
-0.997133, 87, 213, 102, 244
-0.997134, 239, 85, 254, 116
-0.997134, 293, 1, 324, 256
-0.997135, 17, 65, 48, 320
-0.997139, 201, 97, 216, 128
-0.997139, 209, 149, 224, 180
-0.997141, 313, 129, 328, 160
-0.997143, 73, 141, 88, 172
-0.997146, 317, 93, 332, 124
-0.997157, 243, 189, 258, 220
-0.997162, 251, 141, 266, 172
-0.997174, 75, 249, 90, 280
-0.997187, 69, 173, 84, 204
-0.997189, 185, 205, 200, 236
-0.997197, 259, 145, 274, 176
-0.997198, 251, 185, 266, 216
-0.997205, 337, 125, 352, 156
-0.997209, 349, 117, 364, 148
-0.997211, 311, 165, 326, 196
-0.997217, 93, 153, 108, 184
-0.997219, 35, 189, 50, 220
-0.997228, 385, 117, 400, 148
-0.997232, 37, 221, 52, 252
-0.997236, 221, 105, 236, 136
-0.997239, 431, 61, 446, 92
-0.99724, 177, 69, 304, 100
-0.997241, 235, 189, 250, 220
-0.997249, 417, 65, 432, 96
-0.997252, 75, 161, 90, 192
-0.997262, 333, 109, 348, 140
-0.997264, 41, 201, 56, 232
-0.997278, 73, 217, 88, 248
-0.997279, 221, 93, 236, 124
-0.997281, 257, 185, 272, 216
-0.997282, 97, 133, 112, 164
-0.997288, 215, 89, 230, 120
-0.997289, 379, 109, 394, 140
-0.997289, 403, 69, 418, 100
-0.997298, 273, 273, 400, 333
-0.997309, 223, 169, 238, 200
-0.997314, 17, 265, 144, 296
-0.997315, 445, 57, 460, 88
-0.997316, 1, 265, 256, 328
-0.997322, 337, 37, 464, 68
-0.997325, 295, 125, 310, 156
-0.997328, 265, 185, 280, 216
-0.99733, 457, 53, 472, 84
-0.997342, 35, 137, 50, 168
-0.997344, 441, 45, 456, 76
-0.997344, 267, 141, 282, 172
-0.997347, 179, 153, 194, 184
-0.997348, 173, 177, 188, 208
-0.997356, 83, 165, 98, 196
-0.997357, 69, 197, 84, 228
-0.997358, 175, 197, 190, 228
-0.997358, 51, 213, 66, 244
-0.997363, 471, 49, 486, 80
-0.997367, 1, 101, 128, 132
-0.997369, 203, 113, 218, 144
-0.997373, 47, 241, 62, 272
-0.997378, 211, 117, 226, 148
-0.997378, 157, 101, 172, 132
-0.997387, 177, 209, 192, 240
-0.997391, 305, 109, 320, 140
-0.997395, 257, 1, 500, 64
-0.997399, 145, 217, 272, 248
-0.997445, 257, 201, 384, 232
-0.997516, 33, 65, 64, 320
-0.997582, 393, 33, 424, 288
-0.99759, 113, 253, 240, 284
-0.997631, 177, 233, 304, 264
-0.997672, 321, 301, 448, 332
-0.997723, 49, 117, 176, 148
-0.997733, 337, 89, 464, 120
-0.997753, 241, 13, 368, 44
-0.997838, 5, 65, 36, 320
-0.997888, 1, 1, 500, 64
-0.997982, 257, 201, 500, 264
-0.997986, 369, 101, 496, 132
-0.998028, 1, 81, 128, 112
-0.998052, 369, 281, 496, 312
-0.998057, 433, 1, 464, 256
-0.998131, 321, 101, 448, 132
-0.998139, 289, 9, 416, 40
-0.998233, 257, 213, 384, 244
-0.998235, 1, 17, 256, 80
-0.998235, 93, 177, 108, 304
-0.998274, 101, 145, 116, 272
-0.998281, 157, 97, 172, 224
-0.998289, 353, 269, 480, 300
-0.998289, 273, 301, 400, 332
-0.998317, 265, 129, 328, 144
-0.998323, 161, 37, 288, 68
-0.998323, 57, 177, 120, 192
-0.998324, 337, 125, 400, 140
-0.998327, 57, 151, 120, 166
-0.99833, 297, 121, 360, 136
-0.998335, 97, 163, 160, 178
-0.998337, 167, 97, 182, 224
-0.998344, 145, 113, 208, 128
-0.99835, 97, 175, 160, 190
-0.998354, 81, 181, 144, 196
-0.99837, 49, 217, 112, 232
-0.998371, 297, 131, 360, 146
-0.998371, 129, 159, 192, 174
-0.998372, 225, 137, 288, 152
-0.99838, 253, 97, 268, 224
-0.99838, 129, 145, 192, 160
-0.998383, 249, 135, 312, 150
-0.998383, 33, 187, 96, 202
-0.998387, 209, 99, 272, 114
-0.998388, 53, 161, 68, 288
-0.998389, 261, 97, 276, 224
-0.99839, 305, 289, 432, 320
-0.99839, 169, 169, 232, 184
-0.998393, 297, 109, 360, 124
-0.998394, 263, 145, 278, 272
-0.998394, 41, 163, 104, 178
-0.998395, 337, 189, 464, 220
-0.998395, 233, 147, 296, 162
-0.998398, 87, 177, 102, 304
-0.998398, 273, 143, 336, 158
-0.998398, 57, 157, 120, 172
-0.998402, 337, 113, 400, 128
-0.998403, 169, 209, 232, 224
-0.998403, 17, 149, 80, 164
-0.998404, 57, 183, 120, 198
-0.998407, 33, 193, 96, 208
-0.998407, 17, 171, 80, 186
-0.998408, 193, 171, 256, 186
-0.998408, 281, 39, 344, 54
-0.998408, 81, 169, 144, 184
-0.998409, 105, 181, 168, 196
-0.998411, 105, 187, 168, 202
-0.998412, 33, 209, 96, 224
-0.998417, 273, 149, 336, 164
-0.998419, 235, 145, 250, 272
-0.998419, 129, 229, 256, 260
-0.998422, 265, 111, 328, 126
-0.998423, 129, 173, 192, 188
-0.998424, 185, 103, 248, 118
-0.998425, 169, 109, 232, 124
-0.998426, 329, 25, 392, 40
-0.998428, 145, 107, 208, 122
-0.998431, 97, 151, 160, 166
-0.998432, 145, 165, 208, 180
-0.998434, 153, 155, 216, 170
-0.998434, 315, 129, 330, 256
-0.998435, 47, 177, 62, 304
-0.998435, 255, 145, 270, 272
-0.998435, 33, 157, 96, 172
-0.998435, 169, 163, 232, 178
-0.998437, 281, 177, 344, 192
-0.998439, 209, 105, 272, 120
-0.998441, 33, 255, 96, 270
-0.998442, 385, 9, 448, 24
-0.998442, 417, 1, 448, 256
-0.998443, 273, 137, 336, 152
-0.998445, 129, 153, 192, 168
-0.998446, 153, 183, 216, 198
-0.998446, 49, 231, 112, 246
-0.998447, 225, 187, 288, 202
-0.998447, 57, 169, 120, 184
-0.998449, 297, 145, 360, 160
-0.998449, 41, 145, 104, 160
-0.998452, 249, 103, 312, 118
-0.998452, 33, 181, 96, 196
-0.998452, 1, 123, 64, 138
-0.998459, 137, 139, 200, 154
-0.998459, 1, 157, 64, 172
-0.99846, 209, 143, 272, 158
-0.998461, 281, 171, 344, 186
-0.998462, 161, 137, 224, 152
-0.998462, 25, 203, 88, 218
-0.998463, 295, 97, 310, 224
-0.998464, 297, 115, 360, 130
-0.998464, 273, 129, 288, 256
-0.998465, 409, 151, 472, 166
-0.998468, 129, 179, 192, 194
-0.998469, 369, 119, 432, 134
-0.99847, 77, 161, 92, 288
-0.99847, 25, 223, 88, 238
-0.99847, 241, 49, 304, 64
-0.99847, 185, 121, 248, 136
-0.998471, 185, 97, 248, 112
-0.998471, 273, 123, 336, 138
-0.998471, 281, 129, 296, 256
-0.998474, 17, 143, 80, 158
-0.998475, 185, 91, 248, 106
-0.998475, 249, 141, 312, 156
-0.998476, 81, 135, 144, 150
-0.998477, 281, 163, 344, 178
-0.998479, 17, 215, 80, 230
-0.998481, 361, 15, 424, 30
-0.998482, 73, 141, 136, 156
-0.998483, 89, 157, 152, 172
-0.998484, 105, 89, 168, 104
-0.998484, 33, 249, 96, 264
-0.998486, 177, 115, 240, 130
-0.998487, 161, 189, 224, 204
-0.998487, 249, 153, 312, 168
-0.998487, 105, 169, 168, 184
-0.998488, 153, 101, 216, 116
-0.99849, 9, 185, 72, 200
-0.998491, 129, 119, 192, 134
-0.998492, 225, 55, 288, 70
-0.998492, 65, 163, 128, 178
-0.998493, 385, 23, 448, 38
-0.998493, 209, 87, 272, 102
-0.998494, 305, 171, 368, 186
-0.998494, 281, 103, 344, 118
-0.998494, 9, 191, 72, 206
-0.998496, 245, 145, 260, 272
-0.9985, 209, 149, 272, 164
-0.998501, 297, 81, 360, 96
-0.998501, 209, 163, 272, 178
-0.998501, 265, 183, 328, 198
-0.998503, 73, 193, 136, 208
-0.998505, 153, 177, 216, 192
-0.998505, 393, 143, 456, 158
-0.998506, 233, 161, 296, 176
-0.998507, 265, 117, 328, 132
-0.998508, 393, 53, 456, 68
-0.998509, 97, 129, 160, 144
-0.998509, 73, 215, 136, 230
-0.99851, 185, 153, 248, 168
-0.998511, 289, 129, 304, 256
-0.998511, 297, 137, 360, 152
-0.998512, 73, 245, 136, 260
-0.998512, 177, 147, 240, 162
-0.998513, 193, 193, 256, 208
-0.998513, 241, 181, 304, 196
-0.998515, 337, 119, 400, 134
-0.998515, 17, 41, 144, 72
-0.998516, 257, 161, 320, 176
-0.998517, 289, 51, 352, 66
-0.998518, 9, 133, 72, 148
-0.998518, 345, 131, 408, 146
-0.998519, 417, 47, 480, 62
-0.998519, 89, 223, 152, 238
-0.998521, 33, 243, 96, 258
-0.998521, 377, 293, 440, 308
-0.998522, 177, 129, 240, 144
-0.998526, 225, 159, 256, 174
-0.998526, 41, 185, 72, 200
-0.998529, 125, 123, 156, 138
-0.998529, 73, 245, 104, 260
-0.99853, 85, 223, 116, 238
-0.998532, 369, 209, 496, 333
-0.998532, 461, 269, 492, 284
-0.998533, 29, 157, 60, 172
-0.998533, 301, 171, 332, 186
-0.998533, 85, 179, 116, 194
-0.998534, 53, 203, 84, 218
-0.998535, 381, 75, 412, 90
-0.998535, 69, 229, 100, 244
-0.998535, 241, 81, 256, 208
-0.998535, 189, 97, 204, 224
-0.998535, 225, 147, 256, 162
-0.998535, 113, 127, 144, 142
-0.998536, 137, 119, 168, 134
-0.998537, 277, 153, 308, 168
-0.998537, 181, 191, 212, 206
-0.998537, 53, 179, 84, 194
-0.998538, 401, 291, 432, 306
-0.998538, 257, 187, 288, 202
-0.998538, 117, 183, 148, 198
-0.998539, 9, 139, 40, 154
-0.998539, 241, 199, 272, 214
-0.99854, 133, 175, 164, 190
-0.998541, 177, 183, 208, 198
-0.998542, 361, 125, 392, 140
-0.998543, 345, 117, 376, 132
-0.998545, 341, 75, 372, 90
-0.998545, 57, 189, 88, 204
-0.998546, 45, 255, 76, 270
-0.998546, 149, 145, 180, 160
-0.998547, 217, 141, 248, 156
-0.998548, 41, 153, 72, 168
-0.998548, 173, 97, 188, 224
-0.998548, 73, 143, 104, 158
-0.998549, 277, 143, 308, 158
-0.998549, 289, 89, 320, 104
-0.99855, 233, 139, 264, 154
-0.99855, 33, 133, 64, 148
-0.998552, 61, 249, 92, 264
-0.998552, 221, 205, 252, 220
-0.998553, 273, 125, 304, 140
-0.998553, 177, 173, 208, 188
-0.998553, 101, 97, 116, 224
-0.998554, 189, 119, 220, 134
-0.998556, 161, 137, 192, 152
-0.998557, 69, 177, 84, 304
-0.998557, 183, 145, 198, 272
-0.998558, 433, 49, 464, 64
-0.998559, 101, 159, 132, 174
-0.998559, 345, 125, 376, 140
-0.99856, 329, 55, 360, 70
-0.99856, 217, 105, 248, 120
-0.998564, 313, 109, 344, 124
-0.998564, 193, 25, 320, 56
-0.998564, 77, 151, 108, 166
-0.998565, 1, 157, 32, 172
-0.998566, 169, 113, 200, 128
-0.998567, 237, 147, 268, 162
-0.998567, 13, 127, 44, 142
-0.99857, 325, 115, 356, 130
-0.99857, 293, 101, 324, 116
-0.998571, 321, 81, 336, 208
-0.998572, 97, 175, 128, 190
-0.998573, 37, 201, 68, 216
-0.998574, 297, 115, 328, 130
-0.998576, 421, 19, 452, 34
-0.998577, 133, 169, 164, 184
-0.998577, 345, 97, 360, 224
-0.99858, 199, 161, 214, 288
-0.998581, 45, 195, 76, 210
-0.998582, 41, 179, 72, 194
-0.998583, 21, 147, 52, 162
-0.998584, 247, 97, 262, 224
-0.998585, 37, 165, 68, 180
-0.998587, 181, 97, 196, 224
-0.998587, 301, 131, 332, 146
-0.998587, 419, 1, 434, 128
-0.998587, 245, 141, 276, 156
-0.998588, 63, 161, 78, 288
-0.998589, 197, 109, 228, 124
-0.998592, 211, 113, 226, 240
-0.998594, 325, 131, 356, 146
-0.998595, 117, 171, 148, 186
-0.998596, 285, 107, 316, 122
-0.998597, 45, 171, 76, 186
-0.998599, 85, 213, 116, 228
-0.9986, 173, 145, 188, 272
-0.998601, 101, 165, 132, 180
-0.998602, 21, 137, 52, 152
-0.998603, 85, 139, 116, 154
-0.998603, 333, 123, 364, 138
-0.998605, 313, 121, 344, 136
-0.998605, 145, 129, 160, 256
-0.998607, 277, 183, 308, 198
-0.998609, 213, 91, 244, 106
-0.998609, 173, 107, 204, 122
-0.998609, 173, 215, 204, 230
-0.998609, 285, 135, 316, 150
-0.998611, 145, 113, 176, 128
-0.998612, 209, 165, 240, 180
-0.998613, 109, 177, 140, 192
-0.998614, 185, 103, 216, 118
-0.998614, 29, 217, 60, 232
-0.998615, 53, 153, 84, 168
-0.998618, 165, 153, 196, 168
-0.998618, 257, 145, 288, 160
-0.998619, 293, 181, 324, 196
-0.998621, 213, 99, 244, 114
-0.998622, 307, 81, 322, 208
-0.998623, 157, 111, 188, 126
-0.998624, 97, 133, 128, 148
-0.998625, 309, 177, 340, 192
-0.998626, 85, 185, 116, 200
-0.998629, 381, 119, 412, 134
-0.99863, 197, 113, 212, 240
-0.998634, 87, 129, 102, 256
-0.998635, 57, 255, 88, 270
-0.998638, 133, 149, 164, 164
-0.998638, 163, 161, 178, 288
-0.998641, 129, 143, 160, 158
-0.998641, 225, 65, 240, 192
-0.998642, 221, 145, 236, 272
-0.998642, 45, 213, 76, 228
-0.998644, 193, 167, 224, 182
-0.998645, 149, 139, 180, 154
-0.998646, 273, 137, 304, 152
-0.998647, 151, 97, 166, 224
-0.998649, 273, 111, 304, 126
-0.99865, 81, 157, 112, 172
-0.99865, 317, 49, 348, 64
-0.998651, 197, 103, 228, 118
-0.998653, 69, 175, 100, 190
-0.998655, 89, 167, 120, 182
-0.998655, 39, 161, 54, 288
-0.998658, 229, 99, 260, 114
-0.998658, 219, 97, 234, 224
-0.998658, 129, 181, 160, 196
-0.998659, 301, 143, 332, 158
-0.998662, 111, 97, 126, 224
-0.998665, 65, 149, 96, 164
-0.998667, 113, 165, 144, 180
-0.998668, 201, 117, 232, 132
-0.998671, 145, 157, 176, 172
-0.998672, 289, 123, 320, 138
-0.998678, 155, 161, 170, 288
-0.998679, 95, 129, 110, 256
-0.998682, 193, 273, 448, 333
-0.998685, 185, 109, 216, 124
-0.998686, 81, 229, 112, 244
-0.998687, 273, 105, 304, 120
-0.99869, 131, 129, 146, 256
-0.998696, 57, 159, 88, 174
-0.998701, 229, 145, 244, 272
-0.998701, 125, 161, 156, 176
-0.998703, 253, 135, 284, 150
-0.998707, 267, 97, 282, 224
-0.998708, 121, 145, 136, 272
-0.998712, 313, 81, 328, 208
-0.998723, 207, 177, 222, 304
-0.998724, 285, 113, 316, 128
-0.99873, 205, 97, 220, 224
-0.99873, 273, 131, 304, 146
-0.99873, 41, 159, 72, 174
-0.998732, 189, 145, 204, 272
-0.998736, 99, 193, 114, 320
-0.998737, 105, 183, 136, 198
-0.998754, 303, 129, 318, 256
-0.998755, 307, 33, 322, 160
-0.99876, 213, 161, 228, 288
-0.998765, 411, 1, 426, 128
-0.998771, 301, 81, 316, 208
-0.998772, 469, 1, 500, 256
-0.998773, 81, 209, 96, 333
-0.998779, 235, 65, 250, 192
-0.998802, 75, 97, 90, 224
-0.998803, 327, 81, 342, 208
-0.998814, 105, 193, 120, 320
-0.998815, 49, 69, 176, 100
-0.998815, 51, 113, 66, 240
-0.998815, 95, 81, 110, 208
-0.998819, 113, 161, 128, 288
-0.99882, 139, 145, 154, 272
-0.998829, 321, 145, 336, 272
-0.998831, 107, 145, 122, 272
-0.998835, 351, 81, 366, 208
-0.998843, 271, 177, 286, 304
-0.998843, 33, 145, 48, 272
-0.998843, 341, 49, 356, 176
-0.998844, 253, 49, 268, 176
-0.998848, 75, 209, 90, 333
-0.998851, 279, 177, 294, 304
-0.998853, 201, 49, 216, 176
-0.998862, 295, 145, 310, 272
-0.998868, 289, 81, 304, 208
-0.998868, 183, 193, 198, 320
-0.998871, 195, 49, 210, 176
-0.99888, 145, 81, 160, 208
-0.998886, 45, 129, 60, 256
-0.998895, 391, 97, 406, 224
-0.998898, 59, 113, 74, 240
-0.998898, 247, 49, 262, 176
-0.9989, 309, 161, 324, 288
-0.998902, 177, 193, 192, 320
-0.998905, 137, 97, 152, 224
-0.99891, 339, 113, 354, 240
-0.998912, 149, 177, 164, 304
-0.998914, 89, 81, 104, 208
-0.998915, 297, 33, 312, 160
-0.998921, 405, 33, 436, 288
-0.998926, 399, 129, 414, 256
-0.998937, 405, 1, 420, 128
-0.998954, 59, 209, 74, 333
-0.998957, 127, 177, 142, 304
-0.998963, 357, 65, 372, 192
-0.998969, 413, 129, 428, 256
-0.998973, 333, 97, 348, 224
-0.998976, 425, 1, 440, 128
-0.998984, 121, 97, 136, 224
-0.998985, 69, 113, 84, 240
-0.998988, 193, 193, 208, 320
-0.999001, 363, 17, 378, 144
-0.999006, 213, 65, 228, 192
-0.999006, 335, 49, 350, 176
-0.999012, 17, 53, 144, 84
-0.999017, 273, 81, 288, 208
-0.999021, 347, 33, 362, 160
-0.999025, 53, 209, 68, 333
-0.999027, 41, 209, 56, 333
-0.999033, 403, 81, 418, 208
-0.999038, 357, 113, 372, 240
-0.999042, 285, 177, 300, 304
-0.999045, 313, 17, 328, 144
-0.999046, 11, 113, 26, 240
-0.999047, 385, 97, 400, 224
-0.999051, 133, 177, 148, 304
-0.999052, 33, 209, 48, 333
-0.999065, 1, 25, 128, 56
-0.999066, 413, 49, 428, 176
-0.999067, 351, 129, 366, 256
-0.999069, 83, 81, 98, 208
-0.999076, 129, 81, 144, 208
-0.999081, 27, 177, 42, 304
-0.99909, 229, 193, 244, 320
-0.999092, 5, 113, 20, 240
-0.999092, 259, 49, 274, 176
-0.999097, 113, 49, 240, 80
-0.999163, 369, 257, 496, 288
-0.999187, 321, 249, 448, 312
-0.999215, 409, 161, 472, 288
-0.999266, 17, 13, 144, 44
-0.999272, 445, 1, 476, 256
-0.999292, 65, 29, 192, 60
-0.999296, 1, 273, 500, 333
-0.999368, 113, 9, 240, 40
-0.999435, 305, 201, 432, 232
-0.999449, 65, 269, 192, 300
-0.999471, 177, 265, 304, 328
-0.99952, 65, 57, 192, 88
-0.999572, 65, 17, 192, 48
-0.999594, 1, 1, 128, 32
-0.999596, 1, 69, 128, 100
-0.999702, 49, 1, 176, 32
-0.999712, 29, 135, 44, 150
-0.999713, 237, 97, 252, 112
-0.999713, 337, 113, 352, 128
-0.999714, 473, 51, 488, 66
-0.999714, 73, 255, 88, 270
-0.999714, 33, 227, 48, 242
-0.999714, 399, 133, 414, 148
-0.999715, 299, 135, 314, 150
-0.999715, 179, 209, 194, 224
-0.999715, 63, 181, 78, 196
-0.999716, 433, 17, 448, 32
-0.999716, 113, 21, 240, 52
-0.999716, 191, 103, 206, 118
-0.999717, 239, 147, 254, 162
-0.999717, 97, 213, 112, 228
-0.999718, 55, 153, 70, 168
-0.999718, 339, 129, 354, 144
-0.999718, 163, 145, 178, 160
-0.999719, 229, 149, 244, 164
-0.999719, 273, 237, 400, 268
-0.999719, 179, 109, 194, 124
-0.999719, 55, 209, 70, 224
-0.99972, 47, 217, 62, 232
-0.99972, 97, 185, 112, 200
-0.99972, 327, 47, 342, 62
-0.999721, 267, 139, 282, 154
-0.999723, 421, 21, 436, 36
-0.999725, 213, 165, 228, 180
-0.999725, 25, 147, 40, 162
-0.999725, 85, 171, 100, 186
-0.999726, 319, 177, 334, 192
-0.999726, 303, 125, 318, 140
-0.999726, 41, 157, 56, 172
-0.999726, 49, 195, 64, 210
-0.999727, 227, 165, 242, 180
-0.999727, 311, 173, 326, 188
-0.999727, 61, 159, 76, 174
-0.999728, 173, 187, 188, 202
-0.999729, 135, 149, 150, 164
-0.99973, 145, 167, 160, 182
-0.99973, 59, 195, 74, 210
-0.999731, 141, 149, 156, 164
-0.999732, 105, 159, 120, 174
-0.999732, 169, 153, 184, 168
-0.999732, 43, 193, 58, 208
-0.999733, 53, 159, 68, 174
-0.999733, 309, 167, 324, 182
-0.999734, 47, 255, 62, 270
-0.999734, 105, 185, 120, 200
-0.999735, 83, 139, 98, 154
-0.999735, 271, 187, 286, 202
-0.999736, 65, 175, 80, 190
-0.999736, 129, 171, 144, 186
-0.999737, 49, 181, 64, 196
-0.999739, 131, 163, 146, 178
-0.999741, 297, 173, 312, 188
-0.999743, 145, 115, 160, 130
-0.999744, 289, 123, 304, 138
-0.999744, 307, 115, 322, 130
-0.999744, 157, 113, 172, 128
-0.999744, 297, 181, 312, 196
-0.999745, 283, 107, 298, 122
-0.999746, 201, 121, 216, 136
-0.999746, 43, 163, 58, 178
-0.999749, 427, 19, 442, 34
-0.99975, 299, 109, 314, 124
-0.999751, 221, 167, 236, 182
-0.999751, 197, 103, 212, 118
-0.999752, 295, 103, 310, 118
-0.999752, 299, 141, 314, 156
-0.999753, 41, 219, 56, 234
-0.999754, 161, 137, 176, 152
-0.999755, 185, 105, 200, 120
-0.999756, 35, 189, 50, 204
-0.999757, 79, 149, 94, 164
-0.999759, 279, 183, 294, 198
-0.999759, 185, 215, 200, 230
-0.999762, 303, 175, 318, 190
-0.999764, 207, 101, 222, 116
-0.999765, 35, 195, 50, 210
-0.999765, 113, 165, 128, 180
-0.999765, 103, 131, 118, 146
-0.999767, 293, 133, 308, 148
-0.999767, 95, 227, 110, 242
-0.999767, 217, 99, 232, 114
-0.999768, 267, 133, 282, 148
-0.999769, 139, 159, 154, 174
-0.99977, 251, 141, 266, 156
-0.999771, 283, 123, 298, 138
-0.999772, 163, 155, 178, 170
-0.999776, 251, 135, 266, 150
-0.999777, 191, 111, 206, 126
-0.999777, 259, 137, 274, 152
-0.999777, 293, 111, 308, 126
-0.999779, 55, 203, 70, 218
-0.999781, 91, 135, 106, 150
-0.999783, 173, 211, 188, 226
-0.999783, 151, 113, 166, 128
-0.999784, 149, 139, 164, 154
-0.999785, 197, 109, 212, 124
-0.999786, 215, 117, 230, 132
-0.999786, 111, 183, 126, 198
-0.999787, 139, 165, 154, 180
-0.999788, 135, 171, 150, 186
-0.999788, 345, 123, 360, 138
-0.999792, 47, 157, 62, 172
-0.999792, 193, 121, 208, 136
-0.999793, 61, 201, 76, 216
-0.999795, 207, 107, 222, 122
-0.999801, 139, 143, 154, 158
-0.999803, 285, 129, 300, 144
-0.999803, 299, 115, 314, 130
-0.999804, 157, 155, 172, 170
-0.999804, 145, 173, 160, 188
-0.999807, 97, 133, 112, 148
-0.999809, 225, 99, 240, 114
-0.99981, 287, 113, 302, 128
-0.999813, 63, 151, 78, 166
-0.999816, 167, 137, 182, 152
-0.999818, 155, 139, 170, 154
-0.999818, 257, 249, 500, 312
-0.999825, 297, 153, 312, 168
-0.99983, 119, 165, 134, 180
-0.999834, 149, 157, 164, 172
-0.999834, 231, 97, 246, 112
-0.999836, 289, 105, 304, 120
-0.999836, 119, 179, 134, 194
-0.99984, 133, 143, 148, 158
-0.999841, 297, 147, 312, 162
-0.999857, 125, 163, 140, 178
-0.999858, 277, 131, 292, 146
-0.999861, 65, 45, 192, 76
-0.999867, 121, 171, 136, 186
-0.999873, 305, 277, 432, 308
-0.999882, 113, 173, 128, 188
-0.999894, 457, 1, 488, 256
-0.999897, 305, 225, 432, 256
-1.00003, 321, 217, 448, 280
-1.00005, 241, 241, 368, 304
-1.00032, 369, 201, 496, 264
-1.00049, 369, 225, 496, 288
-1.00098, 97, 265, 352, 328
-1.00177, 225, 265, 352, 328
-1.0018, 321, 209, 448, 333
-1.00321, 257, 225, 500, 288
-1.00776, 353, 209, 416, 333
-1.01446, 329, 209, 392, 333
