1926
-0.49792, 1, 33, 500, 288
-0.513751, 1, 129, 500, 372
-0.582233, 1, 1, 500, 372
-0.633649, 65, 1, 320, 372
-0.7529, 161, 1, 416, 372
-0.755337, 33, 65, 288, 320
-0.771552, 257, 1, 500, 372
-0.785489, 129, 65, 384, 320
-0.884969, 81, 1, 208, 372
-0.894666, 225, 65, 480, 320
-0.8948, 81, 65, 208, 320
-0.903384, 161, 1, 288, 372
-0.908735, 129, 65, 256, 320
-0.912197, 17, 1, 144, 372
-0.913543, 209, 65, 336, 320
-0.915371, 257, 1, 384, 372
-0.916194, 209, 1, 336, 372
-0.921338, 257, 97, 384, 352
-0.922197, 1, 81, 500, 208
-0.922754, 33, 97, 160, 352
-0.92803, 1, 161, 500, 288
-0.928448, 305, 129, 432, 372
-0.934456, 33, 1, 160, 256
-0.935789, 257, 1, 384, 256
-0.938284, 337, 1, 464, 372
-0.939186, 1, 225, 500, 352
-0.943354, 321, 33, 448, 288
-0.950231, 129, 81, 384, 208
-0.951883, 33, 113, 288, 240
-0.954339, 1, 33, 500, 160
-0.957716, 137, 209, 200, 336
-0.958285, 369, 65, 496, 320
-0.960667, 89, 81, 152, 208
-0.960752, 65, 33, 320, 160
-0.963517, 89, 97, 152, 160
-0.964269, 65, 81, 192, 208
-0.964921, 137, 257, 200, 320
-0.965842, 129, 145, 384, 272
-0.9671, 105, 73, 168, 136
-0.967921, 129, 225, 192, 288
-0.967961, 81, 65, 144, 128
-0.968821, 129, 193, 384, 320
-0.968955, 65, 97, 128, 224
-0.969325, 113, 81, 240, 208
-0.969587, 33, 161, 288, 288
-0.970139, 177, 161, 304, 288
-0.970609, 65, 97, 128, 160
-0.970726, 113, 209, 176, 336
-0.970938, 81, 33, 144, 160
-0.970957, 209, 81, 336, 208
-0.971169, 137, 161, 200, 288
-0.97126, 49, 145, 176, 272
-0.97133, 93, 97, 124, 160
-0.972003, 241, 161, 368, 288
-0.972111, 121, 81, 184, 208
-0.972297, 17, 65, 144, 192
-0.972834, 129, 129, 256, 256
-0.973364, 265, 193, 328, 320
-0.973719, 129, 65, 192, 128
-0.973991, 49, 73, 112, 136
-0.974019, 257, 129, 500, 256
-0.974047, 289, 161, 352, 288
-0.974243, 177, 161, 240, 288
-0.974917, 1, 209, 256, 336
-0.974952, 153, 81, 216, 208
-0.975445, 289, 97, 416, 224
-0.975505, 129, 201, 192, 264
-0.975738, 129, 193, 256, 320
-0.97594, 225, 81, 480, 208
-0.976572, 161, 241, 224, 304
-0.977255, 57, 49, 120, 176
-0.978065, 65, 33, 192, 160
-0.97818, 81, 225, 208, 352
-0.978462, 225, 177, 480, 304
-0.9785, 161, 241, 224, 368
-0.978928, 289, 209, 416, 336
-0.979221, 241, 33, 368, 160
-0.979298, 105, 97, 168, 352
-0.979569, 85, 65, 116, 192
-0.979609, 81, 65, 112, 128
-0.979654, 89, 41, 152, 104
-0.979745, 137, 281, 200, 344
-0.979756, 97, 209, 160, 272
-0.979767, 201, 161, 264, 288
-0.979863, 81, 89, 208, 152
-0.980194, 313, 209, 376, 336
-0.980581, 313, 81, 376, 208
-0.980723, 1, 113, 128, 240
-0.980727, 89, 121, 152, 184
-0.980751, 145, 209, 176, 336
-0.980769, 129, 81, 160, 144
-0.980834, 257, 1, 500, 128
-0.98089, 49, 57, 176, 120
-0.981021, 289, 161, 416, 288
-0.981071, 149, 265, 180, 328
-0.981163, 169, 217, 232, 280
-0.981354, 17, 193, 144, 320
-0.981375, 113, 17, 240, 144
-0.981642, 49, 65, 112, 320
-0.981673, 97, 161, 160, 288
-0.981703, 249, 145, 312, 272
-0.981839, 121, 33, 184, 160
-0.981859, 281, 217, 344, 280
-0.982189, 177, 209, 304, 336
-0.982318, 137, 209, 168, 272
-0.982355, 157, 209, 188, 336
-0.982459, 105, 65, 136, 128
-0.982944, 113, 289, 176, 352
-0.98309, 81, 1, 144, 256
-0.983166, 289, 185, 352, 248
-0.983234, 97, 81, 128, 208
-0.983261, 1, 17, 128, 144
-0.983301, 313, 129, 376, 256
-0.983363, 117, 81, 148, 144
-0.983406, 337, 49, 464, 176
-0.983559, 225, 209, 352, 336
-0.983606, 137, 65, 200, 320
-0.983724, 281, 241, 344, 368
-0.983738, 113, 217, 240, 280
-0.983798, 65, 121, 128, 184
-0.983897, 305, 241, 336, 368
-0.983926, 77, 97, 108, 160
-0.983976, 97, 257, 160, 320
-0.984089, 161, 33, 416, 160
-0.984091, 97, 233, 160, 296
-0.984106, 125, 65, 156, 192
-0.984274, 81, 97, 144, 352
-0.984276, 33, 97, 160, 160
-0.984289, 309, 257, 340, 320
-0.984348, 129, 89, 192, 152
-0.984382, 337, 177, 464, 304
-0.984614, 129, 241, 256, 368
-0.984729, 185, 209, 248, 336
-0.984744, 297, 273, 360, 336
-0.984781, 65, 121, 192, 184
-0.984815, 109, 49, 140, 176
-0.985093, 109, 97, 140, 224
-0.985211, 161, 241, 416, 368
-0.985262, 161, 81, 288, 208
-0.985287, 157, 233, 188, 296
-0.985312, 33, 81, 96, 208
-0.985342, 209, 81, 272, 208
-0.985422, 65, 161, 128, 288
-0.985482, 225, 161, 288, 288
-0.985614, 85, 113, 116, 240
-0.985676, 89, 185, 152, 248
-0.9857, 169, 225, 200, 352
-0.985804, 257, 209, 320, 272
-0.985975, 337, 113, 464, 240
-0.986036, 305, 1, 432, 128
-0.986287, 249, 65, 312, 192
-0.986308, 257, 65, 320, 320
-0.986322, 289, 81, 352, 208
-0.986394, 105, 97, 136, 160
-0.986431, 173, 241, 204, 304
-0.986653, 73, 49, 104, 176
-0.986736, 33, 193, 160, 256
-0.986745, 73, 97, 104, 224
-0.98675, 201, 201, 264, 264
-0.986798, 145, 193, 272, 256
-0.9868, 305, 89, 368, 152
-0.98681, 89, 225, 152, 352
-0.986815, 105, 1, 168, 256
-0.987053, 305, 281, 336, 344
-0.987189, 193, 169, 256, 232
-0.987201, 41, 97, 104, 160
-0.987209, 113, 65, 240, 128
-0.987269, 169, 193, 232, 256
-0.987365, 281, 161, 344, 224
-0.987393, 249, 185, 312, 248
-0.987408, 297, 33, 360, 288
-0.987455, 65, 81, 96, 144
-0.987652, 157, 201, 188, 264
-0.987757, 161, 257, 192, 320
-0.987786, 209, 161, 240, 288
-0.987807, 305, 217, 368, 280
-0.987884, 209, 65, 272, 320
-0.987893, 161, 65, 224, 320
-0.988013, 1, 65, 128, 128
-0.988085, 293, 177, 324, 304
-0.988153, 57, 1, 120, 128
-0.988214, 81, 1, 144, 372
-0.988293, 81, 145, 144, 208
-0.98833, 337, 225, 464, 352
-0.988335, 161, 17, 288, 144
-0.988372, 113, 241, 240, 304
-0.988599, 289, 33, 352, 160
-0.988682, 25, 65, 88, 128
-0.988695, 1, 129, 64, 256
-0.98872, 177, 81, 240, 208
-0.988758, 141, 241, 172, 304
-0.988859, 217, 81, 280, 144
-0.988914, 313, 185, 376, 248
-0.988977, 289, 49, 416, 176
-0.989179, 65, 41, 128, 104
-0.98926, 113, 129, 176, 192
-0.989281, 317, 209, 348, 336
-0.9893, 161, 281, 192, 344
-0.98935, 241, 81, 368, 144
-0.98936, 129, 225, 160, 352
-0.989414, 297, 129, 360, 372
-0.989446, 217, 169, 280, 232
-0.989447, 33, 241, 160, 368
-0.98947, 129, 97, 256, 160
-0.989535, 401, 305, 464, 368
-0.989539, 177, 57, 240, 120
-0.989588, 161, 273, 224, 336
-0.989749, 157, 161, 188, 288
-0.989755, 129, 265, 160, 328
-0.989839, 145, 169, 272, 232
-0.989863, 153, 145, 216, 208
-0.989906, 57, 185, 120, 248
-0.989915, 97, 169, 224, 232
-0.990068, 141, 289, 172, 352
-0.990089, 49, 145, 112, 208
-0.990188, 137, 273, 200, 304
-0.990206, 249, 161, 312, 224
-0.990235, 161, 265, 288, 328
-0.990238, 125, 225, 156, 288
-0.990271, 281, 249, 344, 312
-0.990349, 281, 297, 344, 360
-0.990366, 289, 265, 416, 328
-0.990371, 161, 1, 224, 372
-0.9904, 129, 177, 192, 240
-0.990442, 105, 1, 168, 372
-0.990476, 97, 193, 224, 256
-0.990481, 97, 145, 224, 208
-0.990507, 233, 65, 296, 320
-0.990531, 57, 209, 120, 272
-0.990549, 137, 1, 200, 372
-0.990565, 177, 241, 304, 304
-0.990605, 353, 145, 416, 272
-0.990628, 97, 89, 160, 120
-0.990644, 97, 33, 128, 160
-0.990659, 137, 237, 200, 268
-0.990678, 137, 261, 200, 292
-0.990736, 145, 145, 176, 272
-0.990763, 113, 265, 240, 328
-0.990791, 273, 65, 336, 128
-0.990803, 121, 89, 184, 120
-0.990809, 137, 305, 200, 368
-0.99082, 73, 105, 136, 136
-0.990871, 257, 241, 500, 368
-0.990892, 17, 153, 144, 216
-0.990907, 137, 41, 200, 104
-0.990929, 209, 177, 336, 240
-0.991089, 305, 145, 336, 272
-0.991159, 137, 293, 200, 324
-0.991197, 65, 217, 192, 280
-0.991258, 337, 193, 400, 320
-0.991265, 137, 249, 200, 280
-0.991295, 65, 89, 128, 120
-0.991365, 137, 65, 168, 192
-0.991366, 321, 297, 384, 360
-0.991461, 113, 25, 176, 88
-0.991466, 121, 77, 184, 108
-0.991475, 173, 265, 204, 328
-0.991485, 285, 225, 316, 352
-0.991501, 225, 225, 352, 288
-0.991514, 185, 1, 248, 372
-0.991515, 129, 225, 192, 256
-0.991518, 193, 81, 320, 144
-0.991523, 81, 121, 112, 184
-0.991545, 257, 289, 320, 352
-0.991549, 345, 97, 376, 224
-0.991582, 257, 1, 320, 372
-0.991662, 185, 65, 248, 320
-0.991691, 137, 57, 168, 120
-0.991704, 105, 101, 168, 132
-0.991733, 161, 257, 224, 288
-0.991748, 81, 65, 144, 96
-0.991765, 337, 81, 464, 144
-0.991786, 33, 81, 96, 112
-0.991803, 89, 121, 152, 152
-0.991833, 225, 281, 352, 344
-0.991878, 289, 1, 352, 372
-0.991895, 409, 65, 472, 128
-0.991902, 125, 57, 156, 120
-0.991959, 65, 77, 128, 108
-0.99196, 177, 217, 304, 280
-0.991963, 113, 253, 176, 284
-0.992012, 177, 241, 240, 272
-0.992019, 161, 57, 288, 120
-0.992024, 161, 169, 224, 232
-0.992106, 129, 213, 192, 244
-0.992123, 425, 281, 488, 344
-0.992132, 61, 81, 92, 208
-0.992138, 201, 145, 264, 208
-0.992202, 105, 121, 136, 184
-0.992205, 297, 289, 360, 320
-0.992211, 273, 249, 336, 280
-0.992231, 361, 97, 424, 160
-0.992234, 281, 209, 344, 240
-0.992238, 17, 193, 80, 256
-0.992238, 257, 17, 320, 144
-0.992255, 105, 289, 168, 320
-0.99226, 113, 269, 176, 300
-0.992289, 97, 97, 128, 128
-0.992294, 49, 101, 112, 132
-0.99232, 273, 185, 400, 248
-0.992337, 97, 237, 160, 268
-0.992373, 137, 305, 200, 336
-0.992426, 337, 113, 464, 176
-0.992459, 97, 77, 160, 108
-0.992466, 121, 153, 184, 216
-0.992474, 113, 305, 176, 336
-0.992479, 57, 65, 120, 96
-0.992479, 161, 289, 224, 320
-0.992481, 97, 225, 160, 256
-0.992497, 285, 201, 316, 264
-0.992511, 217, 89, 280, 120
-0.992512, 89, 137, 152, 168
-0.992541, 313, 65, 376, 128
-0.992541, 353, 121, 416, 184
-0.992558, 57, 1, 120, 372
-0.992559, 305, 241, 368, 304
-0.992586, 209, 1, 272, 372
-0.992595, 97, 109, 128, 140
-0.992599, 313, 145, 376, 208
-0.992613, 93, 73, 124, 136
-0.99263, 281, 197, 344, 228
-0.992643, 85, 97, 116, 128
-0.992655, 297, 221, 360, 252
-0.992656, 65, 185, 128, 216
-0.992658, 217, 57, 280, 120
-0.992679, 129, 85, 160, 116
-0.992686, 41, 145, 104, 272
-0.992701, 305, 241, 368, 272
-0.992702, 161, 209, 224, 240
-0.99272, 161, 221, 224, 252
-0.992742, 157, 257, 188, 288
-0.992748, 177, 89, 240, 152
-0.992749, 297, 269, 360, 300
-0.992754, 185, 177, 216, 304
-0.992769, 369, 161, 496, 224
-0.992773, 125, 161, 156, 288
-0.992778, 305, 57, 432, 120
-0.992808, 145, 289, 272, 352
-0.992815, 241, 81, 304, 112
-0.992825, 109, 93, 140, 124
-0.992832, 85, 109, 116, 140
-0.992833, 17, 129, 144, 192
-0.992834, 157, 273, 188, 304
-0.992834, 117, 105, 148, 168
-0.992835, 49, 121, 112, 152
-0.992837, 193, 233, 256, 296
-0.992843, 233, 1, 296, 372
-0.992848, 81, 149, 144, 180
-0.992862, 153, 89, 216, 152
-0.992886, 225, 257, 352, 320
-0.992898, 161, 157, 224, 188
-0.9929, 57, 133, 120, 164
-0.992911, 89, 197, 152, 228
-0.992912, 33, 17, 96, 144
-0.992917, 157, 245, 188, 276
-0.992921, 409, 321, 472, 352
-0.992927, 273, 285, 336, 316
-0.992931, 197, 145, 228, 272
-0.992932, 145, 261, 176, 292
-0.992935, 265, 233, 328, 264
-0.99294, 241, 81, 304, 144
-0.992952, 137, 65, 200, 96
-0.992957, 25, 69, 88, 100
-0.992966, 57, 157, 120, 188
-0.992966, 109, 105, 140, 136
-0.992971, 193, 177, 256, 208
-0.992972, 309, 289, 340, 320
-0.992974, 141, 229, 172, 260
-0.992982, 177, 85, 240, 116
-0.992986, 113, 197, 176, 228
-0.992988, 161, 269, 224, 300
-0.992994, 289, 241, 416, 304
-0.993003, 161, 301, 224, 332
-0.993008, 129, 73, 160, 104
-0.993011, 161, 289, 192, 320
-0.993012, 257, 241, 320, 368
-0.993016, 297, 93, 360, 124
-0.993025, 313, 209, 376, 240
-0.993031, 57, 145, 120, 176
-0.993036, 121, 149, 184, 180
-0.993043, 185, 225, 248, 256
-0.993045, 153, 81, 184, 208
-0.99305, 57, 77, 88, 108
-0.993061, 177, 253, 208, 284
-0.993075, 201, 201, 264, 232
-0.993077, 173, 81, 204, 208
-0.993079, 325, 225, 356, 288
-0.993088, 137, 217, 168, 248
-0.99309, 249, 205, 312, 236
-0.993097, 73, 93, 104, 124
-0.993098, 145, 77, 208, 108
-0.993099, 313, 1, 376, 372
-0.993106, 89, 181, 152, 212
-0.993116, 305, 197, 368, 228
-0.993119, 157, 233, 188, 264
-0.993126, 73, 105, 104, 136
-0.993127, 185, 165, 248, 196
-0.993132, 161, 173, 224, 204
-0.993137, 289, 185, 352, 216
-0.993141, 117, 73, 148, 104
-0.993142, 89, 213, 152, 244
-0.993143, 141, 245, 172, 276
-0.993145, 293, 289, 324, 352
-0.993148, 169, 237, 200, 268
-0.993151, 321, 285, 384, 316
-0.993152, 257, 161, 384, 224
-0.993164, 145, 281, 176, 312
-0.993167, 77, 77, 108, 108
-0.993169, 41, 169, 104, 200
-0.993171, 113, 41, 240, 104
-0.993176, 113, 193, 144, 256
-0.993188, 149, 297, 180, 328
-0.993193, 313, 257, 376, 288
-0.993195, 169, 269, 200, 300
-0.993202, 273, 221, 336, 252
-0.993203, 145, 97, 208, 128
-0.993204, 173, 217, 204, 280
-0.993205, 97, 297, 224, 360
-0.993207, 169, 185, 232, 216
-0.993211, 345, 93, 408, 124
-0.993227, 225, 193, 288, 256
-0.993231, 289, 77, 352, 108
-0.993233, 309, 277, 340, 308
-0.993242, 109, 117, 140, 148
-0.993244, 177, 197, 240, 228
-0.993244, 81, 161, 144, 192
-0.993249, 9, 141, 72, 172
-0.993252, 97, 145, 128, 272
-0.993258, 33, 149, 96, 180
-0.99327, 129, 293, 160, 324
-0.993272, 121, 165, 184, 196
-0.993272, 297, 301, 360, 332
-0.993275, 157, 217, 188, 248
-0.993276, 241, 49, 304, 112
-0.99328, 129, 289, 160, 352
-0.99328, 9, 169, 72, 232
-0.993287, 173, 289, 204, 320
-0.993288, 285, 209, 316, 240
-0.993288, 329, 285, 360, 316
-0.993291, 417, 337, 480, 368
-0.993296, 313, 73, 376, 104
-0.993297, 125, 253, 156, 284
-0.993299, 161, 313, 224, 344
-0.993302, 201, 241, 264, 272
-0.993304, 105, 81, 136, 112
-0.993305, 9, 197, 72, 228
-0.993305, 193, 97, 256, 128
-0.993316, 69, 65, 100, 96
-0.993318, 121, 233, 152, 264
-0.993319, 49, 209, 112, 240
-0.993323, 65, 229, 128, 260
-0.993331, 121, 101, 152, 132
-0.993335, 273, 265, 336, 296
-0.993341, 281, 161, 312, 288
-0.993344, 265, 85, 328, 116
-0.993344, 337, 225, 400, 256
-0.993346, 393, 305, 456, 336
-0.99335, 297, 293, 328, 324
-0.993351, 305, 257, 336, 288
-0.993355, 89, 121, 120, 152
-0.993358, 97, 53, 160, 84
-0.993359, 113, 121, 176, 152
-0.993359, 129, 281, 160, 312
-0.99336, 57, 53, 120, 84
-0.993363, 125, 269, 156, 300
-0.993363, 1, 41, 128, 104
-0.993367, 321, 149, 384, 180
-0.993369, 337, 217, 400, 280
-0.993372, 321, 161, 384, 192
-0.993376, 73, 117, 104, 148
-0.993384, 317, 241, 348, 272
-0.993386, 273, 297, 336, 328
-0.993391, 433, 185, 496, 248
-0.993395, 9, 177, 72, 208
-0.9934, 137, 305, 168, 336
-0.993401, 85, 133, 116, 164
-0.993403, 121, 137, 184, 168
-0.993414, 265, 313, 328, 344
-0.99342, 273, 297, 400, 360
-0.99342, 61, 89, 92, 120
-0.993423, 185, 241, 216, 272
-0.993424, 329, 241, 392, 272
-0.993425, 165, 301, 196, 332
-0.993431, 257, 69, 320, 100
-0.993434, 121, 185, 184, 216
-0.99344, 297, 245, 328, 276
-0.993441, 105, 65, 168, 96
-0.993441, 89, 253, 152, 284
-0.993442, 225, 161, 256, 288
-0.993444, 169, 225, 200, 256
-0.993444, 225, 57, 352, 120
-0.993445, 385, 337, 448, 368
-0.993448, 141, 77, 172, 108
-0.993455, 181, 225, 212, 352
-0.993462, 321, 273, 384, 304
-0.993463, 241, 189, 304, 220
-0.993466, 33, 197, 96, 228
-0.993466, 353, 205, 416, 236
-0.993472, 305, 217, 336, 248
-0.993473, 33, 181, 96, 212
-0.99348, 273, 1, 336, 32
-0.99348, 257, 265, 320, 328
-0.993481, 305, 185, 336, 248
-0.993484, 249, 177, 312, 208
-0.993492, 185, 229, 216, 260
-0.993493, 89, 61, 120, 92
-0.993497, 65, 173, 128, 204
-0.993499, 361, 145, 424, 176
-0.993507, 1, 157, 64, 188
-0.993508, 241, 85, 272, 116
-0.993509, 433, 201, 496, 232
-0.993511, 285, 289, 316, 320
-0.993512, 57, 341, 120, 372
-0.993518, 149, 205, 180, 236
-0.99352, 321, 253, 352, 284
-0.99352, 209, 197, 240, 228
-0.993525, 145, 189, 208, 220
-0.993529, 205, 177, 236, 208
-0.993531, 321, 177, 384, 208
-0.993535, 297, 305, 328, 336
-0.993535, 89, 273, 152, 304
-0.993542, 241, 253, 304, 284
-0.993545, 45, 73, 76, 104
-0.993546, 177, 301, 208, 332
-0.993553, 225, 81, 256, 112
-0.993558, 125, 61, 156, 92
-0.993562, 125, 113, 156, 144
-0.993563, 97, 197, 128, 228
-0.993564, 141, 65, 172, 96
-0.993568, 289, 229, 320, 260
-0.99357, 181, 277, 212, 308
-0.993573, 89, 85, 120, 116
-0.993574, 117, 221, 148, 252
-0.99358, 221, 93, 252, 124
-0.993584, 101, 133, 132, 164
-0.993586, 189, 189, 220, 220
-0.993588, 229, 237, 260, 268
-0.993589, 85, 145, 116, 176
-0.993595, 185, 241, 216, 304
-0.993598, 289, 193, 320, 224
-0.993598, 121, 305, 152, 336
-0.993606, 329, 229, 360, 260
-0.99361, 293, 269, 324, 300
-0.993617, 329, 297, 360, 328
-0.993617, 297, 281, 328, 312
-0.993621, 61, 101, 92, 132
-0.993624, 181, 265, 212, 296
-0.99363, 141, 93, 172, 124
-0.993631, 329, 97, 360, 128
-0.993632, 261, 81, 292, 112
-0.993633, 209, 165, 240, 196
-0.993633, 197, 201, 228, 232
-0.993639, 193, 165, 224, 196
-0.99364, 73, 129, 104, 160
-0.993641, 17, 41, 80, 104
-0.993642, 57, 65, 88, 96
-0.993643, 145, 153, 176, 184
-0.99365, 101, 61, 132, 92
-0.993659, 365, 133, 396, 164
-0.993669, 305, 177, 336, 208
-0.993673, 129, 141, 160, 172
-0.993673, 321, 81, 352, 112
-0.993674, 81, 185, 112, 216
-0.993678, 193, 177, 224, 208
-0.993678, 321, 273, 352, 304
-0.993683, 329, 213, 360, 244
-0.993683, 125, 205, 156, 236
-0.993685, 309, 301, 340, 332
-0.993691, 341, 105, 372, 136
-0.993691, 73, 297, 136, 360
-0.993692, 205, 241, 236, 272
-0.993696, 109, 153, 140, 184
-0.993696, 97, 173, 128, 204
-0.993696, 277, 81, 308, 112
-0.993697, 281, 301, 312, 332
-0.993697, 341, 225, 372, 256
-0.993701, 309, 77, 340, 108
-0.993701, 237, 73, 268, 104
-0.993702, 177, 93, 208, 124
-0.993702, 37, 337, 68, 368
-0.993702, 97, 185, 128, 216
-0.993703, 217, 185, 248, 216
-0.993705, 97, 81, 352, 144
-0.993707, 217, 233, 248, 264
-0.993707, 297, 89, 328, 120
-0.993709, 165, 185, 196, 216
-0.993709, 345, 301, 376, 332
-0.993712, 257, 69, 288, 100
-0.993715, 173, 313, 204, 344
-0.993716, 137, 205, 168, 236
-0.993721, 117, 193, 148, 224
-0.993722, 337, 97, 400, 224
-0.993726, 209, 225, 272, 352
-0.993744, 33, 225, 96, 288
-0.993829, 325, 81, 356, 208
-0.993856, 341, 201, 372, 264
-0.993868, 321, 97, 384, 352
-0.99389, 145, 145, 272, 208
-0.993909, 101, 89, 116, 152
-0.993923, 345, 305, 408, 368
-0.993978, 93, 121, 124, 184
-0.994028, 321, 289, 352, 352
-0.99403, 289, 225, 320, 288
-0.994036, 289, 121, 416, 184
-0.994065, 41, 305, 104, 368
-0.994117, 273, 209, 400, 272
-0.994155, 321, 121, 384, 184
-0.994185, 353, 137, 480, 200
-0.994185, 337, 193, 464, 256
-0.994222, 53, 65, 84, 128
-0.994241, 401, 281, 464, 344
-0.994249, 209, 17, 272, 144
-0.994269, 361, 153, 424, 216
-0.994289, 305, 145, 432, 208
-0.994317, 289, 97, 416, 160
-0.994318, 185, 217, 216, 280
-0.994378, 209, 161, 240, 224
-0.994434, 65, 265, 192, 328
-0.994461, 329, 209, 360, 336
-0.994477, 69, 57, 100, 120
-0.994519, 345, 73, 408, 136
-0.994533, 193, 153, 320, 216
-0.99457, 121, 113, 152, 240
-0.994598, 65, 33, 192, 96
-0.994606, 9, 177, 72, 304
-0.994656, 141, 81, 172, 144
-0.99466, 65, 105, 96, 168
-0.994673, 1, 225, 128, 288
-0.994674, 333, 273, 364, 336
-0.994691, 217, 201, 248, 264
-0.994792, 337, 249, 464, 312
-0.994854, 353, 33, 416, 288
-0.994865, 161, 297, 224, 360
-0.994872, 177, 33, 240, 160
-0.994912, 41, 121, 104, 184
-0.994937, 433, 217, 496, 280
-0.99494, 149, 145, 180, 208
-0.994952, 185, 81, 216, 208
-0.994967, 131, 73, 146, 136
-0.994988, 337, 305, 464, 368
-0.994993, 361, 241, 424, 368
-0.995014, 109, 97, 124, 160
-0.995024, 33, 57, 288, 120
-0.995029, 153, 65, 216, 128
-0.995076, 121, 1, 184, 64
-0.995079, 113, 17, 240, 80
-0.995125, 317, 161, 348, 288
-0.995132, 285, 177, 316, 240
-0.995135, 77, 161, 108, 288
-0.995191, 401, 1, 464, 372
-0.99521, 145, 1, 208, 128
-0.995215, 9, 121, 72, 184
-0.995233, 401, 41, 464, 104
-0.995244, 95, 89, 110, 152
-0.995255, 41, 25, 104, 88
-0.995258, 137, 113, 200, 176
-0.995262, 85, 17, 116, 144
-0.995295, 369, 49, 496, 112
-0.995313, 345, 105, 376, 168
-0.995314, 137, 185, 168, 248
-0.995351, 33, 169, 96, 232
-0.99536, 305, 193, 336, 320
-0.995447, 385, 81, 448, 144
-0.995472, 17, 249, 80, 312
-0.99549, 173, 257, 188, 320
-0.995557, 173, 297, 204, 360
-0.995559, 169, 161, 200, 288
-0.995565, 401, 209, 464, 272
-0.99561, 209, 305, 336, 368
-0.995719, 321, 265, 384, 328
-0.995752, 25, 1, 88, 256
-0.995774, 9, 113, 40, 240
-0.995789, 97, 193, 352, 256
-0.995807, 1, 17, 128, 80
-0.995846, 177, 225, 192, 288
-0.995856, 193, 89, 448, 152
-0.99586, 177, 281, 192, 344
-0.995893, 281, 89, 344, 152
-0.995901, 49, 65, 176, 96
-0.995907, 425, 193, 488, 320
-0.995917, 301, 209, 332, 272
-0.995927, 209, 97, 240, 224
-0.99593, 49, 85, 176, 116
-0.995961, 237, 161, 268, 288
-0.995997, 9, 305, 72, 368
-0.996015, 113, 121, 240, 184
-0.996033, 337, 241, 400, 368
-0.99605, 353, 1, 480, 64
-0.996058, 65, 241, 192, 304
-0.996075, 1, 89, 500, 152
-0.996077, 1, 81, 256, 144
-0.996091, 321, 249, 352, 312
-0.996113, 233, 169, 264, 232
-0.996179, 345, 193, 408, 256
-0.996183, 425, 257, 488, 320
-0.99619, 85, 65, 100, 128
-0.996207, 433, 57, 496, 120
-0.996254, 193, 169, 224, 232
-0.996266, 91, 113, 106, 176
-0.996282, 273, 1, 336, 64
-0.996295, 285, 265, 316, 328
-0.996305, 149, 177, 180, 240
-0.99631, 337, 273, 464, 336
-0.99631, 137, 81, 152, 144
-0.996311, 225, 25, 352, 88
-0.996322, 225, 81, 256, 208
-0.996329, 265, 177, 296, 304
-0.996349, 225, 201, 352, 264
-0.996361, 9, 161, 40, 288
-0.996362, 369, 297, 432, 360
-0.996375, 337, 217, 464, 280
-0.996381, 233, 1, 296, 128
-0.99639, 337, 145, 400, 208
-0.996408, 75, 65, 90, 128
-0.996433, 353, 1, 416, 372
-0.996436, 409, 9, 472, 72
-0.996438, 293, 81, 324, 208
-0.996438, 337, 145, 368, 272
-0.996454, 177, 137, 240, 200
-0.996477, 1, 177, 256, 240
-0.996507, 1, 81, 64, 208
-0.99652, 49, 1, 176, 64
-0.996552, 141, 57, 156, 120
-0.996559, 321, 169, 448, 232
-0.996575, 321, 25, 448, 88
-0.996579, 197, 81, 228, 208
-0.996583, 261, 65, 292, 192
-0.996583, 245, 81, 276, 144
-0.996596, 125, 17, 156, 144
-0.996613, 75, 89, 90, 152
-0.996616, 101, 113, 116, 176
-0.996638, 225, 85, 352, 116
-0.996643, 81, 89, 96, 152
-0.996646, 147, 289, 162, 352
-0.996648, 135, 233, 150, 296
-0.996652, 129, 217, 384, 280
-0.996661, 113, 229, 240, 260
-0.996672, 345, 297, 376, 360
-0.996681, 109, 1, 140, 128
-0.996705, 139, 265, 154, 328
-0.99673, 369, 129, 400, 192
-0.996748, 113, 89, 240, 120
-0.996749, 93, 209, 124, 272
-0.996754, 9, 145, 72, 208
-0.996754, 143, 209, 158, 272
-0.996764, 89, 89, 104, 152
-0.996771, 185, 129, 216, 256
-0.996778, 167, 265, 182, 328
-0.9968, 33, 289, 160, 352
-0.996847, 369, 273, 432, 336
-0.996872, 345, 281, 408, 344
-0.996878, 179, 257, 194, 320
-0.996887, 1, 129, 256, 192
-0.996893, 33, 281, 96, 344
-0.996899, 129, 57, 384, 120
-0.996902, 169, 89, 200, 152
-0.99691, 33, 1, 96, 372
-0.996918, 129, 161, 384, 224
-0.996922, 1, 225, 64, 288
-0.996934, 295, 201, 310, 264
-0.996943, 125, 81, 140, 144
-0.996958, 85, 113, 100, 176
-0.996961, 193, 185, 448, 248
-0.996962, 1, 217, 500, 280
-0.996964, 311, 249, 326, 312
-0.996976, 81, 185, 112, 248
-0.996979, 245, 49, 276, 112
-0.996979, 61, 193, 92, 256
-0.996999, 161, 9, 288, 72
-0.997001, 307, 281, 322, 344
-0.997015, 119, 73, 134, 136
-0.997031, 119, 105, 134, 168
-0.997041, 321, 1, 384, 256
-0.997051, 273, 41, 336, 104
-0.997053, 57, 33, 88, 160
-0.997054, 17, 97, 80, 160
-0.997072, 133, 49, 148, 112
-0.997079, 377, 57, 440, 120
-0.99708, 151, 217, 166, 280
-0.99708, 161, 249, 176, 312
-0.997082, 97, 129, 352, 192
-0.997084, 101, 57, 116, 120
-0.997084, 147, 265, 162, 328
-0.997098, 33, 217, 288, 280
-0.997107, 245, 81, 276, 208
-0.997108, 261, 57, 292, 120
-0.99713, 357, 177, 388, 240
-0.997134, 169, 217, 184, 280
-0.997136, 111, 121, 126, 184
-0.997141, 113, 77, 240, 108
-0.997165, 385, 225, 448, 352
-0.997185, 297, 249, 328, 312
-0.997194, 337, 225, 368, 288
-0.997205, 101, 93, 116, 124
-0.997217, 141, 289, 156, 352
-0.997223, 65, 65, 80, 128
-0.997265, 1, 105, 256, 168
-0.997291, 113, 217, 240, 248
-0.997295, 93, 41, 124, 104
-0.997304, 101, 169, 132, 232
-0.99731, 125, 193, 156, 256
-0.997331, 313, 1, 344, 128
-0.997354, 49, 109, 176, 140
-0.997366, 333, 89, 364, 152
-0.997381, 225, 57, 256, 120
-0.997382, 293, 177, 308, 240
-0.997386, 113, 101, 240, 132
-0.997394, 109, 105, 124, 136
-0.997395, 221, 81, 252, 144
-0.997424, 49, 125, 176, 156
-0.997429, 183, 233, 198, 296
-0.997435, 301, 289, 316, 352
-0.997439, 175, 289, 190, 320
-0.997443, 221, 161, 252, 224
-0.997453, 173, 185, 204, 248
-0.997456, 113, 241, 240, 272
-0.997471, 85, 33, 116, 288
-0.997474, 133, 209, 148, 272
-0.997475, 301, 217, 316, 280
-0.997476, 209, 89, 240, 152
-0.997495, 161, 193, 176, 256
-0.997496, 33, 153, 288, 216
-0.997497, 97, 185, 224, 216
-0.997498, 241, 137, 368, 200
-0.997537, 161, 225, 176, 288
-0.997539, 107, 65, 122, 128
-0.99754, 109, 41, 140, 104
-0.99754, 281, 137, 344, 200
-0.997543, 241, 1, 368, 64
-0.99755, 257, 161, 500, 224
-0.997561, 209, 33, 272, 96
-0.997562, 133, 85, 148, 116
-0.997571, 233, 233, 296, 296
-0.997573, 57, 177, 88, 304
-0.997585, 319, 257, 334, 320
-0.997609, 137, 65, 168, 320
-0.997627, 265, 177, 296, 240
-0.997636, 233, 281, 296, 344
-0.997649, 133, 113, 164, 240
-0.997654, 189, 233, 204, 296
-0.997657, 143, 81, 158, 144
-0.997666, 353, 1, 480, 128
-0.997676, 313, 209, 344, 272
-0.997679, 95, 105, 110, 136
-0.997684, 93, 193, 124, 320
-0.997685, 207, 169, 222, 232
-0.997687, 129, 121, 160, 184
-0.997687, 329, 201, 360, 264
-0.997691, 113, 261, 240, 292
-0.997697, 433, 161, 496, 224
-0.9977, 273, 257, 400, 288
-0.997726, 309, 65, 340, 192
-0.997733, 1, 113, 500, 176
-0.997746, 33, 233, 160, 264
-0.997747, 1, 97, 128, 128
-0.997748, 153, 265, 168, 328
-0.997753, 337, 49, 400, 176
-0.997764, 89, 145, 120, 208
-0.997768, 205, 201, 236, 264
-0.997769, 1, 81, 128, 112
-0.997773, 131, 73, 146, 104
-0.997774, 95, 65, 110, 128
-0.997774, 123, 49, 138, 112
-0.997786, 303, 177, 318, 240
-0.997791, 169, 289, 184, 352
-0.997796, 201, 289, 264, 352
-0.997807, 365, 97, 396, 160
-0.997818, 385, 241, 448, 304
-0.997818, 57, 273, 120, 336
-0.997821, 97, 197, 224, 228
-0.997821, 393, 113, 456, 176
-0.997837, 79, 113, 94, 176
-0.997871, 175, 273, 190, 304
-0.997874, 353, 161, 384, 288
-0.997876, 425, 1, 488, 372
-0.997901, 153, 193, 168, 256
-0.997904, 433, 305, 496, 368
-0.997909, 81, 225, 112, 288
-0.997911, 265, 81, 296, 144
-0.997913, 33, 205, 160, 236
-0.997917, 185, 257, 200, 320
-0.997936, 179, 201, 194, 264
-0.997943, 297, 33, 328, 160
-0.997943, 305, 129, 336, 372
-0.997952, 49, 97, 176, 128
-0.997957, 75, 89, 90, 120
-0.997967, 75, 77, 90, 108
-0.997973, 101, 109, 116, 140
-0.997983, 249, 161, 280, 288
-0.99799, 177, 241, 304, 272
-0.997996, 145, 181, 272, 212
-0.998, 215, 161, 230, 224
-0.998002, 65, 221, 192, 252
-0.998002, 89, 105, 104, 136
-0.998002, 305, 257, 320, 320
-0.998008, 293, 129, 324, 256
-0.998027, 185, 273, 216, 336
-0.99803, 211, 193, 226, 256
-0.998042, 307, 293, 322, 324
-0.998044, 359, 113, 374, 176
-0.998049, 365, 145, 396, 272
-0.998052, 125, 33, 156, 288
-0.998064, 171, 261, 186, 292
-0.998068, 175, 305, 190, 368
-0.998068, 297, 161, 328, 224
-0.99807, 149, 241, 164, 304
-0.998081, 17, 257, 144, 320
-0.998088, 177, 197, 304, 228
-0.998111, 341, 209, 372, 336
-0.998119, 119, 113, 134, 144
-0.99813, 225, 161, 240, 224
-0.99813, 65, 153, 192, 184
-0.998136, 289, 281, 416, 312
-0.998137, 161, 249, 416, 312
-0.998139, 113, 281, 240, 312
-0.998143, 235, 193, 250, 256
-0.998158, 273, 33, 400, 96
-0.998166, 197, 225, 228, 288
-0.998167, 95, 93, 110, 124
-0.998173, 179, 233, 194, 264
-0.998175, 345, 49, 376, 176
-0.998177, 181, 305, 196, 368
-0.99818, 63, 73, 78, 104
-0.998187, 1, 109, 128, 140
-0.998187, 137, 73, 152, 104
-0.998188, 301, 293, 316, 324
-0.99819, 377, 1, 440, 372
-0.998192, 185, 193, 216, 256
-0.9982, 161, 281, 288, 312
-0.998203, 225, 245, 352, 276
-0.998204, 147, 57, 162, 120
-0.998216, 87, 117, 102, 148
-0.998221, 225, 209, 480, 272
-0.998225, 1, 241, 500, 304
-0.99823, 189, 209, 204, 272
-0.998231, 153, 129, 184, 372
-0.998234, 309, 193, 324, 256
-0.998235, 149, 293, 164, 324
-0.998235, 129, 293, 256, 324
-0.998238, 313, 281, 328, 344
-0.998244, 113, 49, 128, 112
-0.998245, 83, 101, 98, 132
-0.998247, 141, 285, 156, 316
-0.998248, 209, 197, 240, 212
-0.998249, 329, 231, 360, 246
-0.998249, 97, 197, 128, 212
-0.99825, 309, 305, 340, 320
-0.99825, 1, 65, 500, 128
-0.998251, 185, 285, 216, 300
-0.998251, 205, 179, 236, 194
-0.998253, 313, 253, 328, 284
-0.998253, 1, 69, 128, 100
-0.998254, 117, 227, 148, 242
-0.998257, 229, 241, 260, 256
-0.998258, 329, 225, 360, 240
-0.998258, 213, 99, 244, 114
-0.998259, 209, 225, 240, 352
-0.99826, 261, 83, 292, 98
-0.99826, 113, 67, 144, 82
-0.99826, 173, 303, 204, 318
-0.998261, 121, 121, 152, 136
-0.998261, 329, 285, 360, 300
-0.998261, 81, 129, 112, 144
-0.998264, 65, 165, 192, 196
-0.998264, 337, 209, 368, 224
-0.998264, 309, 217, 324, 280
-0.998264, 173, 279, 204, 294
-0.998266, 161, 307, 192, 322
-0.998266, 73, 83, 104, 98
-0.998267, 329, 99, 360, 114
-0.998267, 9, 183, 40, 198
-0.998267, 189, 235, 220, 250
-0.998268, 125, 103, 156, 118
-0.998268, 357, 209, 388, 224
-0.998269, 117, 209, 148, 336
-0.99827, 57, 71, 88, 86
-0.998272, 109, 83, 140, 98
-0.998275, 177, 85, 304, 116
-0.998275, 237, 91, 268, 106
-0.998276, 65, 99, 96, 114
-0.998276, 141, 241, 156, 304
-0.998276, 209, 203, 240, 218
-0.998276, 89, 63, 120, 78
-0.998277, 321, 217, 336, 280
-0.998277, 157, 227, 188, 242
-0.998277, 321, 253, 352, 268
-0.998277, 225, 95, 256, 110
-0.998277, 183, 281, 198, 344
-0.998278, 317, 259, 348, 274
-0.998279, 161, 217, 288, 248
-0.998279, 125, 115, 156, 130
-0.99828, 305, 259, 336, 274
-0.99828, 309, 281, 340, 296
-0.998281, 249, 87, 280, 102
-0.998283, 113, 73, 128, 136
-0.998284, 69, 33, 100, 96
-0.998285, 125, 251, 156, 266
-0.998286, 185, 241, 216, 256
-0.998286, 129, 283, 160, 298
-0.998286, 289, 245, 416, 276
-0.998287, 45, 75, 76, 90
-0.998287, 297, 307, 328, 322
-0.998287, 173, 309, 204, 324
-0.998289, 149, 215, 180, 230
-0.998289, 285, 301, 316, 316
-0.998291, 183, 293, 198, 324
-0.998295, 29, 185, 60, 248
-0.998296, 305, 265, 336, 280
-0.998296, 121, 239, 152, 254
-0.998297, 81, 135, 112, 150
-0.998298, 133, 221, 164, 236
-0.9983, 293, 249, 324, 264
-0.9983, 137, 307, 168, 322
-0.9983, 167, 273, 182, 304
-0.998302, 125, 79, 156, 94
-0.998302, 125, 267, 156, 282
-0.998302, 313, 247, 344, 262
-0.998304, 69, 71, 100, 86
-0.998306, 121, 109, 152, 124
-0.998306, 173, 285, 204, 300
-0.998306, 61, 93, 92, 108
-0.998308, 125, 273, 156, 288
-0.998309, 117, 233, 148, 248
-0.99831, 293, 295, 324, 310
-0.99831, 113, 97, 144, 352
-0.998311, 157, 233, 188, 248
-0.998311, 177, 261, 192, 292
-0.998315, 293, 289, 324, 304
-0.998317, 305, 253, 336, 268
-0.99832, 329, 297, 360, 312
-0.99832, 285, 211, 316, 226
-0.99832, 125, 245, 156, 260
-0.998321, 377, 209, 408, 336
-0.998321, 353, 201, 384, 264
-0.998323, 169, 273, 200, 288
-0.998323, 125, 257, 156, 272
-0.998324, 139, 185, 154, 248
-0.998325, 169, 267, 200, 282
-0.998326, 129, 95, 160, 110
-0.998327, 169, 243, 200, 258
-0.998328, 73, 107, 104, 122
-0.998328, 369, 25, 496, 88
-0.998329, 1, 193, 500, 256
-0.99833, 109, 121, 140, 136
-0.998331, 159, 137, 174, 200
-0.998332, 161, 291, 192, 306
-0.998333, 137, 73, 168, 88
-0.998333, 161, 283, 192, 298
-0.998334, 175, 301, 190, 332
-0.998339, 161, 301, 192, 316
-0.998342, 331, 289, 346, 352
-0.998342, 89, 123, 120, 138
-0.998343, 305, 299, 336, 314
-0.998347, 129, 295, 160, 310
-0.998347, 65, 1, 96, 256
-0.998347, 177, 259, 208, 274
-0.998348, 77, 121, 108, 136
-0.998349, 145, 305, 160, 336
-0.99835, 329, 291, 360, 306
-0.998352, 145, 277, 176, 292
-0.998353, 17, 193, 144, 224
-0.998355, 65, 141, 192, 172
-0.998355, 1, 265, 500, 328
-0.998356, 129, 301, 160, 316
-0.998356, 145, 271, 176, 286
-0.998356, 77, 91, 108, 106
-0.998357, 103, 209, 118, 272
-0.998358, 157, 239, 188, 254
-0.998358, 173, 291, 204, 306
-0.998359, 149, 307, 180, 322
-0.998361, 145, 257, 176, 272
-0.998362, 137, 227, 168, 242
-0.998363, 137, 79, 168, 94
-0.998366, 129, 289, 160, 304
-0.998367, 309, 287, 340, 302
-0.998368, 93, 93, 124, 108
-0.99837, 149, 301, 180, 316
-0.998372, 205, 193, 220, 256
-0.998373, 69, 77, 100, 92
-0.998375, 113, 161, 240, 192
-0.998377, 73, 113, 104, 128
-0.998378, 53, 83, 84, 98
-0.998379, 213, 65, 244, 320
-0.99838, 289, 201, 304, 264
-0.99838, 237, 161, 252, 224
-0.998381, 299, 265, 314, 328
-0.998384, 177, 251, 208, 266
-0.998386, 109, 225, 140, 288
-0.998388, 109, 89, 140, 104
-0.998389, 107, 93, 122, 124
-0.99839, 285, 129, 316, 372
-0.99839, 157, 275, 188, 290
-0.998391, 225, 257, 352, 288
-0.998391, 141, 237, 172, 252
-0.998394, 65, 273, 192, 304
-0.998395, 141, 247, 172, 262
-0.998397, 125, 73, 156, 88
-0.998405, 293, 81, 324, 144
-0.998405, 57, 77, 88, 92
-0.998407, 125, 73, 140, 104
-0.99841, 73, 97, 104, 352
-0.99841, 193, 121, 448, 184
-0.998411, 169, 237, 200, 252
-0.998416, 149, 287, 180, 302
-0.998416, 257, 209, 384, 240
-0.998416, 149, 293, 180, 308
-0.998417, 157, 255, 188, 270
-0.998419, 241, 17, 272, 144
-0.998419, 157, 245, 188, 260
-0.99842, 159, 273, 174, 336
-0.998421, 93, 117, 108, 148
-0.998422, 81, 49, 208, 80
-0.998426, 225, 49, 480, 112
-0.998426, 65, 281, 320, 344
-0.998427, 145, 265, 176, 280
-0.998431, 157, 265, 188, 280
-0.998431, 229, 193, 260, 256
-0.998432, 319, 245, 334, 276
-0.998433, 101, 33, 132, 288
-0.998433, 313, 289, 328, 320
-0.998441, 229, 193, 244, 256
-0.998441, 257, 181, 384, 212
-0.998442, 87, 89, 102, 120
-0.998444, 317, 161, 332, 224
-0.998445, 109, 115, 140, 130
-0.998447, 77, 101, 108, 116
-0.99845, 309, 293, 340, 308
-0.998456, 79, 41, 94, 104
-0.99846, 331, 289, 346, 320
-0.99846, 193, 65, 224, 320
-0.998461, 135, 237, 150, 268
-0.998467, 109, 101, 140, 116
-0.998469, 175, 89, 190, 152
-0.998471, 129, 89, 160, 104
-0.998473, 109, 95, 140, 110
-0.998474, 109, 107, 140, 122
-0.998476, 161, 269, 288, 300
-0.998477, 143, 69, 158, 100
-0.998477, 225, 289, 352, 320
-0.998477, 305, 1, 432, 64
-0.998477, 337, 289, 352, 352
-0.998478, 85, 115, 116, 130
-0.998482, 173, 185, 188, 248
-0.998491, 97, 105, 128, 120
-0.998492, 201, 161, 216, 224
-0.998493, 89, 101, 152, 116
-0.998496, 99, 137, 114, 200
-0.998496, 361, 177, 376, 240
-0.998497, 171, 249, 186, 280
-0.998503, 273, 165, 400, 196
-0.998504, 325, 249, 340, 312
-0.998515, 181, 249, 196, 280
-0.998518, 97, 117, 128, 132
-0.99852, 149, 281, 164, 312
-0.998521, 181, 89, 196, 152
-0.998523, 81, 41, 112, 104
-0.998528, 85, 109, 116, 124
-0.998532, 217, 201, 232, 264
-0.998536, 93, 99, 124, 114
-0.998538, 257, 97, 384, 128
-0.998538, 307, 305, 322, 368
-0.998542, 181, 281, 196, 312
-0.998547, 151, 145, 166, 208
-0.998554, 153, 57, 168, 120
-0.998554, 243, 169, 258, 232
-0.998554, 89, 95, 152, 110
-0.998555, 89, 107, 152, 122
-0.99856, 137, 255, 200, 270
-0.998563, 261, 49, 276, 112
-0.998565, 65, 101, 128, 116
-0.998565, 127, 85, 142, 116
-0.998568, 185, 57, 200, 120
-0.998572, 161, 261, 176, 292
-0.998573, 69, 85, 84, 116
-0.998574, 137, 237, 200, 252
-0.998574, 121, 91, 184, 106
-0.998575, 127, 105, 142, 168
-0.998575, 49, 181, 176, 212
-0.998576, 137, 263, 200, 278
-0.998576, 145, 245, 208, 260
-0.998578, 69, 73, 84, 104
-0.998579, 97, 209, 112, 272
-0.998582, 161, 137, 192, 200
-0.998583, 81, 293, 208, 324
-0.998585, 137, 273, 200, 288
-0.998588, 65, 95, 128, 110
-0.998588, 137, 285, 200, 300
-0.998589, 305, 201, 432, 232
-0.998591, 167, 241, 182, 304
-0.998592, 273, 293, 400, 324
-0.998595, 321, 85, 448, 116
-0.998596, 119, 101, 134, 132
-0.998597, 97, 111, 128, 126
-0.998598, 137, 279, 200, 294
-0.998598, 129, 101, 144, 132
-0.998603, 137, 293, 200, 308
-0.998607, 137, 257, 152, 288
-0.99861, 81, 69, 96, 100
-0.998612, 169, 289, 184, 320
-0.998614, 161, 239, 224, 254
-0.998615, 357, 201, 372, 264
-0.998617, 137, 303, 200, 318
-0.998617, 1, 161, 500, 224
-0.998619, 121, 97, 184, 112
-0.998619, 225, 269, 352, 300
-0.998621, 87, 153, 102, 216
-0.998622, 65, 107, 128, 122
-0.998622, 89, 89, 152, 104
-0.998623, 283, 169, 298, 232
-0.998623, 177, 253, 304, 284
-0.998623, 93, 137, 108, 200
-0.998624, 79, 117, 94, 148
-0.998626, 81, 113, 144, 128
-0.998627, 81, 145, 96, 208
-0.998633, 305, 133, 432, 164
-0.998635, 97, 105, 352, 168
-0.998635, 193, 185, 320, 216
-0.998638, 309, 161, 324, 224
-0.998639, 49, 89, 112, 104
-0.99864, 223, 89, 238, 152
-0.998646, 81, 67, 144, 82
-0.998646, 89, 125, 152, 140
-0.998647, 97, 75, 160, 90
-0.998649, 129, 231, 192, 246
-0.998651, 49, 77, 112, 92
-0.998651, 245, 65, 276, 320
-0.998653, 161, 255, 224, 270
-0.998653, 121, 243, 184, 258
-0.998657, 141, 269, 156, 300
-0.998658, 139, 85, 154, 116
-0.998659, 315, 225, 330, 288
-0.99866, 91, 185, 106, 248
-0.998662, 113, 271, 176, 286
-0.998662, 297, 291, 360, 306
-0.998663, 281, 209, 344, 224
-0.998664, 77, 101, 92, 132
-0.998664, 143, 221, 158, 252
-0.998664, 113, 263, 176, 278
-0.998666, 301, 229, 316, 260
-0.998668, 89, 133, 152, 148
-0.998669, 241, 73, 368, 104
-0.998669, 325, 1, 356, 128
-0.998669, 351, 201, 366, 264
-0.998672, 121, 309, 184, 324
-0.998674, 121, 83, 184, 98
-0.998675, 325, 65, 356, 320
-0.998676, 113, 237, 176, 252
-0.998676, 121, 249, 184, 264
-0.998677, 129, 225, 192, 240
-0.998678, 265, 65, 296, 320
-0.998678, 283, 193, 298, 256
-0.998679, 249, 85, 312, 100
-0.998679, 81, 83, 144, 98
-0.998681, 327, 217, 342, 280
-0.998682, 113, 257, 176, 272
-0.998683, 305, 247, 368, 262
-0.998685, 239, 225, 254, 288
-0.998686, 313, 219, 376, 234
-0.998686, 89, 139, 152, 154
-0.998687, 193, 173, 320, 204
-0.998688, 297, 297, 360, 312
-0.998688, 109, 145, 140, 272
-0.998689, 57, 71, 120, 86
-0.998691, 163, 221, 178, 252
-0.998691, 105, 301, 168, 316
-0.998692, 153, 169, 168, 232
-0.998692, 273, 269, 400, 300
-0.998694, 273, 251, 336, 266
-0.998694, 33, 83, 96, 98
-0.998694, 41, 185, 72, 248
-0.998695, 97, 251, 160, 266
-0.998695, 25, 77, 88, 92
-0.998695, 169, 249, 232, 264
-0.998697, 89, 231, 152, 246
-0.998697, 133, 105, 148, 168
-0.998698, 281, 217, 344, 232
-0.998699, 129, 75, 192, 90
-0.998699, 113, 295, 176, 310
-0.998702, 113, 281, 176, 296
-0.998702, 185, 243, 248, 258
-0.998703, 105, 195, 168, 210
-0.998704, 89, 129, 104, 160
-0.998704, 253, 81, 268, 144
-0.998704, 49, 135, 112, 150
-0.998705, 185, 235, 248, 250
-0.998705, 177, 91, 240, 106
-0.998706, 305, 213, 368, 228
-0.998708, 153, 211, 216, 226
-0.998708, 341, 265, 356, 328
-0.998709, 241, 229, 368, 260
-0.99871, 273, 289, 336, 304
-0.998711, 161, 261, 224, 276
-0.998711, 121, 219, 184, 234
-0.998711, 161, 287, 224, 302
-0.998712, 97, 243, 160, 258
-0.998713, 121, 103, 184, 118
-0.998713, 273, 263, 336, 278
-0.998713, 89, 119, 152, 134
-0.998714, 57, 113, 120, 128
-0.998715, 49, 129, 112, 144
-0.998715, 153, 231, 216, 246
-0.998715, 209, 95, 272, 110
-0.998715, 97, 289, 160, 304
-0.998717, 193, 181, 256, 196
-0.998717, 1, 289, 500, 352
-0.998719, 289, 225, 352, 240
-0.998719, 161, 301, 224, 316
-0.998719, 161, 293, 224, 308
-0.99872, 167, 185, 182, 248
-0.99872, 169, 177, 232, 192
-0.998721, 161, 221, 224, 236
-0.998721, 225, 89, 288, 104
-0.998722, 137, 69, 200, 84
-0.998722, 273, 257, 336, 272
-0.998722, 65, 121, 128, 136
-0.998722, 385, 65, 448, 320
-0.998723, 301, 281, 316, 312
-0.998723, 369, 81, 432, 208
-0.998723, 111, 117, 126, 148
-0.998725, 89, 205, 152, 220
-0.998725, 81, 223, 144, 238
-0.998726, 49, 143, 112, 158
-0.998726, 81, 185, 144, 200
-0.998727, 33, 101, 96, 116
-0.998727, 273, 295, 336, 310
-0.998728, 161, 311, 224, 326
-0.998728, 141, 17, 172, 144
-0.998729, 73, 145, 136, 160
-0.998729, 297, 253, 360, 268
-0.998729, 321, 89, 384, 104
-0.99873, 137, 317, 200, 332
-0.998731, 161, 161, 224, 176
-0.998731, 81, 153, 144, 168
-0.998731, 281, 91, 344, 106
-0.998732, 313, 263, 376, 278
-0.998733, 289, 185, 352, 200
-0.998734, 169, 205, 232, 220
-0.998735, 129, 171, 192, 186
-0.998735, 33, 245, 160, 276
-0.998736, 145, 97, 208, 112
-0.998736, 297, 285, 360, 300
-0.998736, 129, 65, 256, 96
-0.998736, 425, 353, 488, 368
-0.998736, 305, 241, 368, 256
-0.998737, 89, 217, 152, 232
-0.998737, 169, 169, 232, 184
-0.998737, 121, 151, 184, 166
-0.998738, 337, 241, 400, 256
-0.998738, 193, 205, 256, 220
-0.998738, 163, 237, 178, 268
-0.998738, 161, 275, 224, 290
-0.998738, 127, 185, 142, 248
-0.998738, 313, 271, 376, 286
-0.998738, 147, 269, 162, 300
-0.998739, 65, 191, 128, 206
-0.998739, 297, 233, 360, 248
-0.998739, 161, 267, 224, 282
-0.99874, 169, 183, 232, 198
-0.99874, 193, 173, 256, 188
-0.99874, 73, 61, 136, 76
-0.998741, 25, 89, 88, 104
-0.998741, 121, 187, 184, 202
-0.998742, 305, 207, 368, 222
-0.998742, 281, 201, 344, 216
-0.998743, 345, 215, 408, 230
-0.998743, 25, 69, 88, 84
-0.998743, 201, 85, 264, 100
-0.998744, 81, 159, 144, 174
-0.998748, 33, 33, 288, 96
-0.998753, 145, 185, 160, 248
-0.998754, 231, 161, 246, 224
-0.998755, 465, 185, 480, 248
-0.998761, 311, 241, 326, 272
-0.998766, 285, 33, 316, 288
-0.998767, 181, 305, 196, 336
-0.998769, 149, 57, 180, 120
-0.998769, 245, 161, 276, 224
-0.998769, 97, 117, 224, 148
-0.99877, 291, 205, 306, 236
-0.99877, 149, 209, 164, 240
-0.998771, 181, 89, 212, 152
-0.998784, 301, 305, 316, 336
-0.998784, 357, 209, 388, 336
-0.998799, 33, 241, 288, 304
-0.998804, 289, 73, 416, 104
-0.998808, 353, 121, 480, 152
-0.998809, 189, 241, 204, 272
-0.99881, 307, 305, 322, 336
-0.998814, 145, 81, 160, 112
-0.998815, 193, 273, 448, 336
-0.998818, 1, 125, 128, 156
-0.998821, 113, 305, 240, 336
-0.998823, 297, 197, 312, 228
-0.99883, 321, 277, 336, 308
-0.998836, 319, 257, 334, 288
-0.998842, 139, 309, 154, 340
-0.998844, 159, 205, 174, 236
-0.998849, 75, 65, 90, 96
-0.998849, 177, 229, 304, 260
-0.99885, 225, 233, 256, 296
-0.998854, 309, 269, 324, 300
-0.998855, 153, 225, 168, 256
-0.998863, 161, 97, 288, 128
-0.998863, 21, 113, 52, 240
-0.998871, 211, 173, 226, 204
-0.998871, 169, 221, 184, 252
-0.998875, 353, 161, 480, 192
-0.998877, 225, 305, 480, 368
-0.998879, 165, 65, 196, 320
-0.998883, 183, 265, 198, 296
-0.998886, 17, 169, 144, 200
-0.99889, 17, 53, 144, 84
-0.998892, 299, 209, 314, 240
-0.998898, 257, 197, 384, 228
-0.998902, 305, 33, 336, 288
-0.998912, 81, 81, 96, 112
-0.998924, 349, 233, 380, 296
-0.998929, 337, 101, 464, 132
-0.99893, 203, 197, 218, 228
-0.998931, 189, 229, 204, 260
-0.998936, 303, 189, 318, 220
-0.998937, 159, 273, 174, 304
-0.99894, 295, 221, 310, 252
-0.998941, 149, 209, 164, 336
-0.998945, 169, 237, 184, 268
-0.998947, 337, 65, 368, 320
-0.998953, 145, 149, 272, 180
-0.998954, 201, 185, 216, 216
-0.998954, 305, 149, 432, 180
-0.998957, 147, 253, 162, 284
-0.998958, 225, 65, 256, 320
-0.99896, 161, 249, 176, 280
-0.998961, 211, 185, 226, 216
-0.998966, 1, 181, 128, 212
-0.998967, 211, 197, 226, 228
-0.998969, 187, 253, 202, 284
-0.998972, 153, 33, 184, 160
-0.99898, 353, 305, 480, 336
-0.998982, 257, 241, 500, 304
-0.998989, 65, 209, 128, 336
-0.998989, 305, 241, 320, 272
-0.998989, 337, 213, 464, 244
-0.998996, 305, 225, 432, 256
-0.998996, 97, 65, 112, 192
-0.998998, 125, 129, 156, 372
-0.998999, 99, 121, 114, 152
-0.999002, 101, 81, 116, 112
-0.999003, 315, 277, 330, 308
-0.999005, 131, 225, 146, 256
-0.999005, 57, 77, 72, 108
-0.999005, 175, 317, 190, 348
-0.999012, 137, 297, 152, 328
-0.999014, 135, 61, 150, 92
-0.999014, 325, 297, 340, 328
-0.999015, 337, 185, 464, 216
-0.999016, 69, 61, 84, 92
-0.999016, 1, 137, 500, 200
-0.999039, 265, 1, 296, 128
-0.999039, 209, 209, 336, 240
-0.999043, 337, 173, 464, 204
-0.999047, 157, 193, 172, 224
-0.999053, 177, 33, 304, 96
-0.999055, 113, 1, 144, 256
-0.999055, 239, 237, 254, 268
-0.999055, 187, 281, 202, 312
-0.999057, 89, 61, 104, 92
-0.999061, 9, 161, 40, 224
-0.999062, 149, 1, 180, 256
-0.999066, 273, 109, 400, 140
-0.999069, 33, 261, 160, 292
-0.999069, 137, 213, 152, 244
-0.999075, 307, 281, 322, 312
-0.999076, 295, 297, 310, 328
-0.99908, 175, 209, 190, 336
-0.999081, 181, 65, 212, 320
-0.999081, 161, 121, 288, 184
-0.999082, 69, 217, 100, 280
-0.999087, 179, 221, 194, 252
-0.999091, 1, 141, 128, 172
-0.999095, 221, 165, 236, 196
-0.999097, 113, 129, 240, 160
-0.999101, 327, 245, 342, 276
-0.999101, 257, 85, 272, 116
-0.999108, 307, 253, 322, 284
-0.999109, 285, 209, 300, 240
-0.999109, 325, 257, 340, 288
-0.999114, 263, 77, 278, 108
-0.99912, 157, 293, 172, 324
-0.999121, 167, 305, 182, 336
-0.999123, 453, 333, 468, 364
-0.999124, 341, 229, 356, 260
-0.999125, 169, 209, 184, 240
-0.999127, 125, 113, 140, 144
-0.99913, 85, 49, 100, 176
-0.999132, 321, 173, 336, 204
-0.999137, 347, 89, 362, 120
-0.999145, 89, 97, 104, 224
-0.999148, 369, 261, 496, 292
-0.999155, 309, 241, 324, 368
-0.999156, 85, 129, 116, 372
-0.999174, 353, 325, 480, 356
-0.999185, 1, 1, 64, 372
-0.999204, 103, 65, 118, 192
-0.999206, 257, 1, 384, 32
-0.999209, 337, 293, 464, 324
-0.99922, 417, 241, 480, 368
-0.99922, 17, 157, 144, 188
-0.999223, 205, 65, 236, 128
-0.999229, 225, 301, 352, 332
-0.999236, 337, 241, 464, 272
-0.99924, 21, 209, 52, 272
-0.999244, 79, 97, 94, 224
-0.999252, 233, 81, 264, 144
-0.999254, 353, 133, 480, 164
-0.99926, 241, 325, 368, 356
-0.999266, 305, 81, 336, 144
-0.999269, 353, 281, 480, 312
-0.999276, 161, 193, 176, 320
-0.999289, 81, 341, 208, 372
-0.999294, 289, 341, 416, 372
-0.999296, 117, 49, 132, 176
-0.999307, 109, 81, 124, 208
-0.99931, 299, 177, 314, 304
-0.99931, 277, 33, 308, 160
-0.999319, 1, 329, 128, 360
-0.999331, 17, 221, 144, 252
-0.999331, 99, 113, 114, 240
-0.999341, 127, 65, 142, 192
-0.999343, 65, 305, 192, 336
-0.999344, 91, 49, 106, 176
-0.999351, 177, 293, 304, 324
-0.999353, 181, 225, 196, 352
-0.999358, 161, 313, 288, 344
-0.99936, 169, 241, 184, 368
-0.99937, 321, 257, 448, 288
-0.999371, 241, 33, 368, 64
-0.999371, 193, 69, 320, 100
-0.999372, 17, 37, 144, 68
-0.999372, 141, 241, 156, 368
-0.999372, 365, 81, 396, 208
-0.999387, 161, 41, 288, 72
-0.99939, 1, 341, 128, 372
-0.999395, 211, 161, 226, 288
-0.999405, 281, 73, 312, 136
-0.999412, 139, 65, 154, 192
-0.999415, 133, 65, 148, 192
-0.999418, 143, 193, 158, 320
-0.999419, 225, 161, 352, 192
-0.999422, 345, 273, 376, 336
-0.999437, 305, 177, 320, 304
-0.999438, 161, 305, 192, 368
-0.999441, 273, 121, 400, 152
-0.99945, 291, 177, 306, 304
-0.999454, 299, 225, 314, 352
-0.999455, 225, 113, 352, 176
-0.999455, 5, 217, 36, 280
-0.999457, 193, 57, 320, 88
-0.999464, 353, 65, 480, 96
-0.999467, 65, 129, 96, 192
-0.999468, 109, 33, 124, 160
-0.999472, 101, 17, 116, 144
-0.999474, 315, 209, 330, 336
-0.999475, 117, 113, 132, 240
-0.999481, 265, 129, 296, 256
-0.999481, 79, 49, 94, 176
-0.999484, 187, 259, 202, 274
-0.999485, 297, 293, 312, 308
-0.999485, 25, 129, 88, 372
-0.999485, 313, 265, 328, 280
-0.999485, 257, 87, 272, 102
-0.999486, 193, 337, 320, 368
-0.999486, 297, 299, 312, 314
-0.999486, 147, 75, 162, 90
-0.999486, 163, 227, 178, 242
-0.999487, 87, 65, 102, 80
-0.999487, 123, 69, 138, 84
-0.999489, 173, 235, 188, 250
-0.99949, 181, 277, 196, 292
-0.99949, 309, 257, 324, 272
-0.99949, 323, 295, 338, 310
-0.999491, 173, 317, 188, 332
-0.999491, 159, 213, 174, 228
-0.999491, 307, 313, 322, 328
-0.999492, 209, 175, 224, 190
-0.999492, 337, 337, 464, 368
-0.999493, 217, 161, 232, 288
-0.999493, 143, 145, 158, 272
-0.999494, 189, 239, 204, 254
-0.999494, 55, 75, 70, 90
-0.999494, 331, 297, 346, 312
-0.999494, 135, 69, 150, 84
-0.999495, 149, 277, 164, 292
-0.999495, 289, 213, 304, 228
-0.999496, 165, 161, 196, 224
-0.999497, 155, 209, 170, 336
-0.999497, 153, 289, 168, 304
-0.999498, 141, 311, 156, 326
-0.999499, 241, 13, 368, 44
-0.9995, 85, 125, 100, 140
-0.9995, 79, 79, 94, 94
-0.9995, 319, 251, 334, 266
-0.9995, 181, 289, 196, 304
-0.999501, 147, 81, 162, 96
-0.999503, 71, 87, 86, 102
-0.999503, 161, 257, 176, 272
-0.999503, 73, 71, 88, 86
-0.999504, 73, 1, 104, 128
-0.999504, 167, 279, 182, 294
-0.999505, 147, 265, 162, 280
-0.999506, 315, 287, 330, 302
-0.999506, 163, 235, 178, 250
-0.999506, 139, 301, 154, 316
-0.999506, 137, 255, 152, 270
-0.999507, 129, 101, 144, 116
-0.999509, 85, 97, 100, 112
-0.999509, 127, 75, 142, 90
-0.999509, 141, 283, 156, 298
-0.999511, 137, 193, 152, 320
-0.999511, 193, 29, 320, 60
-0.999512, 85, 131, 100, 146
-0.999513, 179, 245, 194, 260
-0.999513, 309, 301, 324, 316
-0.999514, 139, 271, 154, 286
-0.999514, 295, 207, 310, 222
-0.999514, 301, 311, 316, 326
-0.999515, 125, 113, 140, 128
-0.999515, 57, 81, 72, 96
-0.999516, 321, 261, 336, 276
-0.999516, 161, 271, 176, 286
-0.999517, 149, 217, 164, 232
-0.999517, 17, 317, 144, 348
-0.999517, 49, 329, 176, 360
-0.999518, 109, 121, 124, 136
-0.999518, 181, 301, 196, 316
-0.999518, 153, 129, 168, 256
-0.999519, 297, 229, 312, 244
-0.999519, 131, 93, 146, 108
-0.999521, 179, 283, 194, 298
-0.999522, 181, 257, 196, 272
-0.999523, 171, 271, 186, 286
-0.999523, 151, 81, 166, 208
-0.999523, 129, 53, 256, 84
-0.999524, 289, 305, 416, 336
-0.999525, 137, 245, 152, 260
-0.999525, 171, 257, 186, 272
-0.999528, 165, 293, 180, 308
-0.999528, 133, 81, 148, 96
-0.99953, 141, 83, 156, 98
-0.99953, 91, 125, 106, 140
-0.999532, 121, 85, 136, 100
-0.999533, 309, 251, 324, 266
-0.999533, 353, 149, 480, 180
-0.999534, 353, 29, 480, 60
-0.999535, 169, 243, 184, 258
-0.999536, 161, 81, 176, 208
-0.999537, 133, 235, 148, 250
-0.999537, 81, 109, 96, 124
-0.999538, 171, 161, 186, 288
-0.999538, 311, 161, 326, 288
-0.999544, 163, 241, 178, 256
-0.999546, 149, 283, 164, 298
-0.999546, 307, 307, 322, 322
-0.999546, 425, 1, 488, 128
-0.999547, 175, 311, 190, 326
-0.999547, 137, 261, 152, 276
-0.999551, 327, 225, 342, 352
-0.999552, 315, 257, 330, 272
-0.999555, 81, 69, 96, 84
-0.999556, 129, 145, 160, 208
-0.999557, 173, 283, 188, 298
-0.999558, 141, 295, 156, 310
-0.999559, 95, 117, 110, 132
-0.999559, 305, 1, 432, 32
-0.999561, 115, 121, 130, 136
-0.999562, 315, 245, 330, 260
-0.999562, 223, 161, 238, 288
-0.999562, 369, 85, 496, 116
-0.999564, 181, 263, 196, 278
-0.999564, 159, 129, 174, 256
-0.999564, 17, 65, 48, 192
-0.999565, 147, 289, 162, 304
-0.999566, 301, 305, 316, 320
-0.999567, 171, 81, 186, 208
-0.999569, 179, 239, 194, 254
-0.999569, 175, 305, 190, 320
-0.999572, 357, 177, 372, 304
-0.999572, 241, 313, 368, 344
-0.999572, 313, 33, 376, 160
-0.999574, 173, 277, 188, 292
-0.999574, 77, 99, 92, 114
-0.999574, 321, 129, 336, 256
-0.999574, 181, 295, 196, 310
-0.999575, 201, 81, 216, 208
-0.999576, 141, 71, 156, 86
-0.999577, 331, 291, 346, 306
-0.999577, 171, 263, 186, 278
-0.999578, 73, 49, 88, 176
-0.999579, 63, 81, 78, 96
-0.99958, 151, 301, 166, 316
-0.99958, 309, 289, 324, 304
-0.999582, 289, 317, 416, 348
-0.999582, 177, 81, 192, 208
-0.999583, 177, 271, 192, 286
-0.999584, 179, 161, 194, 288
-0.999584, 75, 93, 90, 108
-0.999584, 145, 65, 160, 192
-0.999586, 321, 241, 336, 368
-0.999587, 103, 105, 118, 120
-0.999587, 105, 115, 120, 130
-0.999587, 85, 103, 100, 118
-0.999589, 67, 75, 82, 90
-0.999589, 357, 97, 372, 224
-0.999589, 157, 89, 188, 152
-0.99959, 119, 105, 134, 120
-0.999591, 141, 289, 156, 304
-0.999591, 83, 117, 98, 132
-0.999592, 151, 295, 166, 310
-0.999592, 109, 103, 124, 118
-0.999594, 65, 37, 192, 68
-0.999595, 145, 305, 160, 320
-0.999598, 133, 75, 148, 90
-0.9996, 237, 161, 252, 288
-0.9996, 61, 75, 76, 90
-0.999601, 303, 299, 318, 314
-0.999601, 209, 97, 224, 224
-0.999602, 73, 77, 88, 92
-0.999603, 303, 293, 318, 308
-0.999603, 349, 97, 380, 352
-0.999606, 93, 105, 108, 120
-0.999608, 119, 115, 134, 130
-0.999611, 179, 251, 194, 266
-0.999612, 141, 77, 156, 92
-0.999618, 89, 119, 104, 134
-0.999619, 87, 109, 102, 124
-0.999621, 331, 81, 346, 208
-0.999626, 123, 17, 138, 144
-0.999627, 175, 299, 190, 314
-0.999628, 309, 295, 324, 310
-0.999632, 337, 81, 352, 208
-0.999635, 1, 185, 32, 248
-0.999637, 161, 241, 176, 368
-0.999639, 321, 89, 352, 152
-0.999641, 221, 1, 252, 128
-0.999641, 185, 81, 200, 208
-0.999647, 111, 115, 126, 130
-0.999647, 333, 225, 348, 352
-0.99965, 343, 81, 358, 208
-0.999653, 285, 177, 300, 304
-0.99966, 203, 161, 218, 288
-0.999661, 133, 87, 148, 102
-0.999662, 229, 161, 244, 288
-0.999668, 187, 209, 202, 336
-0.999669, 133, 113, 148, 240
-0.99967, 235, 81, 250, 208
-0.999673, 89, 161, 104, 288
-0.999673, 277, 177, 292, 304
-0.999673, 11, 113, 26, 240
-0.999676, 305, 129, 320, 256
-0.999676, 133, 17, 148, 144
-0.999678, 327, 177, 342, 304
-0.999678, 267, 161, 282, 288
-0.999679, 339, 209, 354, 336
-0.999679, 309, 81, 324, 208
-0.99968, 319, 81, 334, 208
-0.999685, 135, 241, 150, 368
-0.999687, 191, 81, 206, 208
-0.999691, 101, 95, 116, 110
-0.999692, 257, 161, 272, 288
-0.999694, 175, 289, 190, 304
-0.999699, 243, 161, 258, 288
-0.999699, 117, 1, 132, 128
-0.999702, 245, 81, 260, 208
-0.999702, 49, 33, 80, 288
-0.999704, 185, 161, 200, 288
-0.999707, 251, 161, 266, 288
-0.99971, 293, 225, 308, 352
-0.999711, 105, 129, 120, 256
-0.999711, 297, 129, 312, 256
-0.999714, 273, 49, 304, 112
-0.999716, 99, 111, 114, 126
-0.999722, 1, 305, 256, 368
-0.999725, 17, 113, 32, 240
-0.999727, 177, 33, 208, 160
-0.999727, 215, 81, 230, 208
-0.999727, 287, 129, 302, 256
-0.999732, 71, 97, 86, 224
-0.999733, 123, 113, 138, 240
-0.999735, 349, 97, 364, 224
-0.999737, 83, 145, 98, 272
-0.999738, 165, 145, 180, 272
-0.99974, 221, 81, 236, 208
-0.99974, 95, 161, 110, 288
-0.99974, 345, 177, 376, 240
-0.999743, 319, 1, 334, 128
-0.999745, 293, 49, 324, 112
-0.999745, 21, 161, 52, 224
-0.999749, 317, 65, 348, 128
-0.999751, 93, 111, 108, 126
-0.999754, 303, 81, 318, 208
-0.999758, 351, 177, 366, 304
-0.999759, 57, 177, 72, 304
-0.99976, 325, 81, 340, 208
-0.99976, 255, 33, 270, 160
-0.999762, 353, 49, 368, 176
-0.999768, 279, 65, 294, 192
-0.99977, 479, 209, 494, 336
-0.999772, 165, 33, 196, 160
-0.999772, 223, 209, 238, 336
-0.999775, 321, 193, 336, 320
-0.999776, 31, 113, 46, 240
-0.999776, 85, 1, 100, 128
-0.999777, 3, 145, 18, 272
-0.999779, 13, 65, 28, 192
-0.999781, 305, 1, 320, 128
-0.999781, 17, 161, 32, 288
-0.999783, 161, 33, 176, 160
-0.999783, 151, 33, 166, 160
-0.999789, 105, 177, 120, 304
-0.999789, 367, 241, 382, 368
-0.999792, 23, 113, 38, 240
-0.999792, 185, 33, 200, 160
-0.999792, 263, 49, 278, 176
-0.999794, 377, 241, 392, 368
-0.999794, 257, 81, 272, 208
-0.999794, 9, 161, 24, 288
-0.999795, 109, 109, 124, 124
-0.999797, 327, 129, 342, 256
-0.999798, 117, 161, 132, 288
-0.999799, 71, 177, 86, 304
-0.999799, 229, 81, 244, 208
-0.999801, 97, 129, 128, 372
-0.999801, 299, 33, 314, 160
-0.999802, 225, 9, 480, 72
-0.999826, 465, 297, 496, 360
-0.999827, 1, 9, 256, 72
-0.999829, 393, 161, 456, 288
-0.999868, 197, 193, 228, 320
-0.999917, 221, 225, 252, 352
-0.999994, 409, 81, 472, 208
-1.00001, 37, 129, 68, 256
-1.00006, 97, 305, 352, 368
-1.00007, 61, 97, 92, 352
-1.00008, 373, 1, 404, 256
-1.00009, 385, 17, 448, 144
-1.00013, 209, 49, 240, 176
-1.00017, 361, 97, 392, 352
-1.00022, 129, 33, 384, 96
-1.00024, 361, 1, 392, 256
-1.00025, 41, 177, 72, 304
-1.00027, 57, 129, 88, 256
-1.00029, 33, 193, 96, 320
-1.00031, 129, 1, 384, 64
-1.00032, 349, 1, 380, 256
-1.00033, 37, 33, 68, 288
-1.00036, 385, 33, 416, 288
-1.00037, 13, 129, 44, 372
-1.00039, 437, 241, 468, 368
-1.00042, 373, 97, 404, 352
-1.00044, 417, 1, 448, 256
-1.00046, 449, 1, 480, 256
-1.00049, 389, 129, 420, 372
-1.00049, 233, 209, 264, 336
-1.00052, 9, 33, 72, 160
-1.00055, 405, 33, 436, 288
-1.00055, 421, 241, 452, 368
-1.0006, 465, 33, 496, 288
-1.0006, 449, 129, 480, 372
-1.0006, 377, 145, 408, 272
-1.00062, 429, 1, 460, 256
-1.00063, 1, 129, 32, 372
-1.00065, 269, 225, 300, 352
-1.00066, 1, 41, 500, 104
-1.00068, 189, 33, 220, 160
-1.00069, 417, 129, 448, 372
-1.00069, 17, 33, 48, 288
-1.00074, 405, 129, 436, 372
-1.00076, 1, 33, 32, 288
-1.00082, 41, 129, 72, 372
-1.00083, 21, 177, 52, 304
-1.00083, 429, 97, 460, 352
-1.00089, 465, 209, 496, 336
-1.0009, 245, 209, 276, 336
-1.00091, 5, 65, 36, 192
-1.00093, 465, 129, 496, 372
-1.00095, 281, 81, 312, 208
-1.001, 429, 97, 460, 224
-1.00101, 21, 241, 52, 368
-1.00102, 345, 129, 408, 372
-1.00104, 29, 129, 60, 372
-1.00106, 389, 177, 420, 304
-1.00124, 385, 1, 416, 128
-1.00126, 409, 65, 472, 320
-1.00127, 385, 97, 416, 224
-1.00132, 433, 145, 496, 272
-1.00133, 457, 97, 488, 224
-1.00143, 253, 17, 284, 144
-1.00148, 437, 193, 468, 320
-1.00148, 37, 49, 68, 176
-1.00161, 421, 145, 452, 272
-1.00181, 449, 33, 480, 160
-1.00183, 413, 49, 444, 176
-1.00184, 1, 97, 64, 352
-1.00188, 73, 209, 104, 336
-1.00195, 45, 241, 76, 368
-1.002, 397, 49, 428, 176
-1.00203, 357, 33, 388, 160
-1.00205, 1, 1, 500, 64
-1.00208, 437, 17, 468, 144
-1.0021, 397, 129, 428, 256
-1.0021, 105, 193, 136, 320
-1.00219, 337, 1, 368, 128
-1.00223, 449, 177, 480, 304
-1.00224, 257, 225, 288, 352
-1.00225, 209, 1, 240, 128
-1.00231, 413, 1, 444, 128
-1.00232, 469, 145, 500, 272
-1.00239, 433, 129, 496, 372
-1.00288, 433, 65, 496, 192
-1.00327, 233, 225, 296, 352
-1.00356, 17, 241, 80, 368
-1.0044, 433, 1, 496, 256
-1.0048, 361, 193, 424, 320
-1.00543, 337, 1, 400, 128
-1.006, 361, 33, 424, 160
-1.0063, 1, 1, 64, 256
-1.00788, 41, 241, 104, 368
