1882
-0.214056, 1, 1, 500, 333
-0.320424, 1, 65, 500, 320
-0.378263, 257, 1, 500, 333
-0.404553, 129, 1, 384, 333
-0.414778, 1, 1, 256, 333
-0.49812, 257, 65, 500, 320
-0.596425, 161, 33, 416, 288
-0.62544, 33, 65, 288, 320
-0.818395, 289, 1, 416, 333
-0.820503, 241, 1, 368, 333
-0.837659, 241, 33, 368, 288
-0.846432, 289, 33, 416, 288
-0.848198, 129, 1, 256, 333
-0.851236, 33, 1, 160, 333
-0.856318, 17, 1, 144, 256
-0.856675, 193, 65, 320, 320
-0.858047, 97, 33, 224, 288
-0.858063, 177, 1, 304, 333
-0.858581, 369, 1, 496, 333
-0.864337, 145, 33, 272, 288
-0.865048, 369, 1, 496, 256
-0.88182, 1, 209, 500, 333
-0.885037, 81, 1, 208, 333
-0.88599, 1, 81, 500, 208
-0.89115, 257, 81, 500, 208
-0.895981, 1, 161, 500, 288
-0.897319, 257, 209, 500, 333
-0.903806, 1, 1, 500, 128
-0.906008, 1, 1, 256, 128
-0.906728, 161, 81, 416, 208
-0.910237, 225, 129, 480, 256
-0.9126, 97, 33, 352, 160
-0.914046, 129, 193, 384, 320
-0.917278, 17, 1, 80, 128
-0.922358, 17, 1, 144, 128
-0.922792, 369, 81, 432, 208
-0.923189, 433, 113, 496, 240
-0.923702, 57, 1, 120, 128
-0.924162, 273, 65, 400, 192
-0.924617, 353, 81, 480, 208
-0.9254, 97, 33, 224, 160
-0.926526, 65, 81, 320, 208
-0.926553, 337, 65, 400, 192
-0.926709, 289, 49, 352, 176
-0.927645, 321, 209, 448, 333
-0.928459, 177, 49, 304, 176
-0.930849, 289, 129, 416, 256
-0.931422, 225, 49, 352, 176
-0.931445, 17, 49, 144, 176
-0.932701, 65, 129, 320, 256
-0.932986, 409, 193, 472, 320
-0.933758, 241, 177, 368, 304
-0.933803, 353, 145, 480, 272
-0.933892, 249, 97, 312, 224
-0.933954, 1, 209, 256, 333
-0.934797, 257, 33, 500, 160
-0.935564, 145, 97, 272, 224
-0.935571, 369, 193, 496, 320
-0.935828, 433, 65, 496, 192
-0.935937, 361, 209, 424, 333
-0.939089, 329, 113, 392, 240
-0.939992, 1, 49, 64, 176
-0.940274, 289, 161, 352, 288
-0.940717, 409, 81, 472, 208
-0.941009, 241, 113, 368, 240
-0.941079, 81, 1, 144, 128
-0.941391, 409, 145, 472, 272
-0.941632, 433, 161, 496, 288
-0.941727, 153, 33, 216, 160
-0.941944, 321, 209, 384, 333
-0.942784, 385, 129, 448, 256
-0.943124, 81, 49, 144, 176
-0.94315, 217, 49, 280, 176
-0.943725, 369, 1, 496, 128
-0.944004, 433, 209, 496, 333
-0.945313, 313, 65, 376, 192
-0.945836, 193, 97, 320, 224
-0.945947, 433, 137, 496, 200
-0.946089, 233, 145, 296, 272
-0.946339, 361, 129, 424, 256
-0.946361, 369, 81, 432, 144
-0.946999, 113, 81, 176, 208
-0.948154, 433, 1, 496, 128
-0.948385, 337, 121, 400, 184
-0.948551, 193, 145, 320, 272
-0.948551, 17, 17, 80, 80
-0.948563, 41, 49, 104, 112
-0.948639, 17, 41, 80, 104
-0.948919, 1, 193, 64, 320
-0.949006, 17, 209, 144, 333
-0.949052, 241, 49, 304, 176
-0.949192, 105, 1, 168, 128
-0.949388, 273, 113, 336, 240
-0.94998, 25, 193, 88, 320
-0.95009, 41, 49, 104, 176
-0.950853, 313, 137, 376, 200
-0.95091, 97, 81, 224, 208
-0.950927, 145, 1, 272, 128
-0.950969, 321, 33, 448, 160
-0.95104, 433, 97, 496, 160
-0.951096, 369, 105, 432, 168
-0.95161, 273, 129, 336, 192
-0.952077, 281, 65, 344, 128
-0.952417, 217, 73, 280, 136
-0.952775, 337, 161, 400, 288
-0.952849, 41, 9, 104, 72
-0.952892, 305, 113, 368, 240
-0.952935, 409, 105, 472, 168
-0.953505, 201, 97, 264, 224
-0.953631, 249, 145, 312, 208
-0.953757, 265, 33, 328, 160
-0.954006, 401, 257, 464, 320
-0.954383, 425, 201, 488, 264
-0.954566, 249, 169, 312, 232
-0.954585, 1, 145, 64, 272
-0.954683, 281, 153, 344, 216
-0.954702, 193, 33, 256, 160
-0.955005, 209, 105, 272, 168
-0.955462, 401, 177, 464, 240
-0.955691, 385, 209, 448, 333
-0.955726, 137, 81, 200, 208
-0.956357, 425, 177, 488, 240
-0.956426, 121, 209, 184, 333
-0.956436, 177, 89, 240, 152
-0.956617, 337, 17, 400, 144
-0.956733, 321, 73, 384, 136
-0.957167, 369, 137, 432, 200
-0.957375, 313, 17, 376, 144
-0.957532, 169, 113, 232, 240
-0.957772, 161, 209, 224, 333
-0.957936, 369, 201, 432, 264
-0.958115, 1, 65, 64, 128
-0.958279, 409, 153, 472, 216
-0.958529, 273, 17, 400, 144
-0.95856, 65, 1, 128, 64
-0.958757, 225, 1, 352, 128
-0.959135, 257, 105, 320, 168
-0.959444, 185, 193, 248, 320
-0.959967, 249, 57, 312, 120
-0.96032, 1, 201, 64, 264
-0.960413, 57, 73, 120, 136
-0.960706, 433, 249, 496, 312
-0.961045, 129, 33, 192, 160
-0.96117, 329, 217, 392, 280
-0.961271, 345, 73, 408, 136
-0.961485, 209, 177, 272, 304
-0.961717, 393, 129, 456, 192
-0.961874, 17, 97, 144, 224
-0.961882, 361, 33, 424, 160
-0.962152, 153, 65, 216, 128
-0.9623, 345, 97, 408, 160
-0.962341, 209, 185, 272, 248
-0.962709, 185, 209, 248, 272
-0.962873, 153, 25, 216, 88
-0.962951, 281, 177, 344, 240
-0.962999, 17, 97, 80, 224
-0.963028, 409, 1, 472, 128
-0.963145, 241, 81, 304, 144
-0.963468, 121, 265, 184, 328
-0.96355, 313, 65, 376, 320
-0.963677, 41, 33, 104, 288
-0.963948, 425, 1, 488, 64
-0.964162, 281, 33, 344, 288
-0.96423, 457, 177, 488, 304
-0.964291, 145, 209, 272, 333
-0.964381, 401, 81, 464, 144
-0.964688, 449, 105, 480, 168
-0.964738, 461, 81, 492, 208
-0.96481, 49, 209, 112, 333
-0.965006, 65, 25, 128, 88
-0.965148, 361, 273, 424, 333
-0.965262, 461, 89, 492, 152
-0.965368, 185, 113, 248, 176
-0.96555, 441, 129, 472, 256
-0.965683, 433, 1, 496, 256
-0.965718, 193, 41, 256, 104
-0.965791, 1, 177, 64, 240
-0.965871, 61, 1, 92, 128
-0.966005, 97, 65, 160, 128
-0.966235, 337, 33, 400, 288
-0.966566, 5, 1, 36, 64
-0.966864, 65, 129, 192, 256
-0.966869, 321, 217, 448, 280
-0.967053, 145, 1, 208, 256
-0.96713, 401, 201, 464, 264
-0.967189, 361, 65, 392, 192
-0.967229, 233, 193, 296, 256
-0.967301, 389, 81, 420, 144
-0.967342, 9, 1, 72, 256
-0.967553, 49, 1, 80, 128
-0.967602, 305, 113, 368, 176
-0.967721, 153, 105, 216, 168
-0.967826, 313, 161, 376, 288
-0.967998, 369, 249, 432, 312
-0.968019, 217, 49, 280, 112
-0.968051, 65, 49, 128, 112
-0.968153, 313, 265, 376, 328
-0.968271, 401, 1, 464, 64
-0.968299, 369, 177, 496, 240
-0.968319, 441, 145, 472, 208
-0.9684, 337, 145, 400, 208
-0.968437, 241, 193, 304, 320
-0.968566, 1, 41, 128, 104
-0.968813, 305, 161, 432, 224
-0.96882, 1, 161, 128, 288
-0.968876, 97, 17, 128, 144
-0.968893, 441, 209, 472, 333
-0.969047, 289, 273, 352, 333
-0.969113, 369, 105, 496, 168
-0.969153, 265, 193, 328, 320
-0.969195, 381, 105, 412, 168
-0.96922, 425, 273, 488, 333
-0.969271, 13, 1, 44, 128
-0.969384, 33, 217, 96, 280
-0.969529, 193, 65, 256, 128
-0.969625, 465, 1, 496, 128
-0.96964, 433, 225, 496, 288
-0.969696, 349, 209, 380, 333
-0.969785, 265, 97, 296, 160
-0.969786, 25, 73, 88, 136
-0.969795, 97, 241, 160, 304
-0.969826, 305, 241, 432, 304
-0.969974, 365, 105, 396, 168
-0.969975, 273, 81, 400, 144
-0.970054, 145, 161, 208, 288
-0.970107, 457, 129, 488, 192
-0.970247, 365, 129, 396, 256
-0.970385, 129, 81, 192, 144
-0.97063, 225, 145, 352, 208
-0.970687, 61, 17, 92, 80
-0.970725, 401, 233, 464, 296
-0.970807, 81, 209, 208, 333
-0.970908, 145, 161, 272, 288
-0.971027, 377, 81, 408, 144
-0.971052, 13, 41, 44, 104
-0.971074, 33, 1, 64, 64
-0.971098, 257, 193, 320, 256
-0.971191, 357, 73, 388, 136
-0.971229, 385, 1, 448, 128
-0.971315, 457, 185, 488, 248
-0.971363, 377, 225, 440, 288
-0.971386, 81, 1, 112, 128
-0.971533, 241, 121, 368, 184
-0.971541, 113, 97, 240, 160
-0.971639, 349, 81, 380, 208
-0.971764, 369, 161, 432, 224
-0.971823, 469, 121, 500, 184
-0.971855, 33, 193, 96, 256
-0.971871, 305, 121, 432, 184
-0.972051, 177, 65, 304, 128
-0.972079, 25, 1, 56, 128
-0.972081, 389, 129, 420, 192
-0.972109, 337, 81, 464, 144
-0.972198, 385, 65, 416, 192
-0.972201, 209, 169, 336, 232
-0.972256, 305, 49, 368, 112
-0.97231, 249, 145, 280, 272
-0.972311, 353, 145, 480, 208
-0.972329, 133, 49, 164, 176
-0.972364, 121, 57, 184, 120
-0.97243, 373, 209, 404, 333
-0.972581, 401, 89, 432, 152
-0.972753, 141, 81, 172, 144
-0.972817, 281, 153, 312, 216
-0.972857, 129, 41, 256, 104
-0.972867, 369, 257, 496, 320
-0.972874, 97, 209, 160, 333
-0.972914, 241, 1, 304, 128
-0.972916, 461, 129, 492, 256
-0.972968, 329, 65, 360, 192
-0.973022, 285, 121, 316, 184
-0.973036, 425, 73, 488, 136
-0.973103, 117, 65, 148, 192
-0.973185, 369, 201, 496, 264
-0.973198, 289, 49, 320, 176
-0.973205, 241, 81, 272, 144
-0.973284, 213, 97, 244, 160
-0.97329, 385, 113, 416, 240
-0.973296, 49, 49, 80, 112
-0.973341, 305, 161, 368, 224
-0.973368, 169, 33, 232, 288
-0.973395, 193, 105, 320, 168
-0.973395, 193, 209, 320, 333
-0.973477, 265, 73, 296, 136
-0.973505, 349, 113, 380, 176
-0.973692, 225, 153, 288, 216
-0.973786, 449, 81, 480, 208
-0.973917, 89, 97, 152, 224
-0.974006, 113, 33, 176, 288
-0.974097, 217, 217, 280, 280
-0.974139, 229, 193, 260, 256
-0.974205, 209, 33, 272, 288
-0.97424, 73, 1, 104, 64
-0.974315, 233, 1, 296, 256
-0.974369, 401, 65, 464, 320
-0.97439, 49, 161, 112, 288
-0.974431, 257, 185, 384, 248
-0.974508, 17, 1, 144, 64
-0.974528, 113, 65, 240, 128
-0.974653, 361, 65, 424, 320
-0.974661, 9, 65, 40, 128
-0.974759, 233, 105, 296, 168
-0.974783, 369, 225, 496, 288
-0.974831, 37, 1, 68, 128
-0.974836, 33, 73, 160, 136
-0.974844, 293, 161, 324, 224
-0.974878, 225, 81, 352, 144
-0.975043, 305, 153, 336, 216
-0.975076, 433, 25, 496, 88
-0.975107, 73, 209, 136, 333
-0.975115, 373, 81, 404, 208
-0.975129, 329, 129, 360, 256
-0.975156, 265, 121, 296, 184
-0.975202, 229, 57, 260, 120
-0.975212, 121, 121, 184, 184
-0.975243, 57, 225, 120, 288
-0.975247, 1, 209, 128, 272
-0.975324, 61, 41, 92, 104
-0.975513, 253, 65, 284, 128
-0.975542, 197, 89, 228, 152
-0.975583, 153, 241, 216, 304
-0.975616, 309, 65, 340, 192
-0.975645, 13, 49, 44, 176
-0.975653, 137, 57, 168, 120
-0.975693, 65, 33, 192, 96
-0.975704, 29, 25, 60, 88
-0.975732, 1, 1, 32, 128
-0.975748, 25, 145, 88, 272
-0.975753, 161, 273, 224, 333
-0.975787, 345, 169, 408, 232
-0.975797, 81, 89, 144, 152
-0.975807, 253, 137, 284, 200
-0.975936, 393, 209, 424, 333
-0.975963, 437, 121, 468, 184
-0.975968, 289, 273, 416, 333
-0.975996, 361, 273, 392, 333
-0.976022, 33, 193, 64, 320
-0.976034, 49, 25, 80, 88
-0.9761, 89, 161, 152, 288
-0.976101, 185, 17, 248, 80
-0.976118, 337, 265, 400, 328
-0.976158, 353, 217, 384, 280
-0.976261, 289, 1, 352, 128
-0.976269, 209, 193, 336, 256
-0.976289, 13, 161, 44, 288
-0.976317, 217, 1, 280, 128
-0.976337, 105, 89, 168, 152
-0.976341, 145, 121, 272, 184
-0.976469, 37, 201, 68, 264
-0.976486, 401, 129, 432, 192
-0.976556, 137, 105, 168, 168
-0.976562, 313, 241, 376, 304
-0.97662, 393, 201, 424, 264
-0.976677, 233, 49, 264, 176
-0.976678, 49, 49, 80, 176
-0.976768, 265, 129, 296, 256
-0.97681, 225, 57, 352, 120
-0.976829, 261, 177, 292, 240
-0.976831, 17, 177, 48, 240
-0.976869, 137, 217, 200, 280
-0.976889, 369, 1, 496, 64
-0.976895, 433, 265, 464, 328
-0.976915, 297, 129, 328, 256
-0.976926, 257, 65, 320, 320
-0.976933, 121, 241, 184, 304
-0.977103, 145, 65, 176, 192
-0.977209, 297, 57, 328, 120
-0.977269, 437, 177, 468, 240
-0.977286, 385, 57, 448, 120
-0.977345, 105, 73, 136, 136
-0.97739, 469, 65, 500, 128
-0.977392, 345, 193, 408, 256
-0.977513, 369, 129, 400, 192
-0.977599, 81, 249, 208, 312
-0.977664, 397, 113, 428, 240
-0.977737, 177, 41, 304, 104
-0.977768, 349, 137, 380, 200
-0.977827, 145, 1, 208, 333
-0.977829, 277, 81, 308, 208
-0.977862, 81, 57, 112, 120
-0.977914, 257, 49, 288, 176
-0.977917, 425, 209, 456, 333
-0.977969, 273, 41, 336, 104
-0.977977, 281, 89, 344, 152
-0.97803, 125, 65, 156, 128
-0.978137, 189, 65, 220, 192
-0.978279, 153, 1, 216, 64
-0.97828, 249, 33, 312, 96
-0.978286, 125, 97, 156, 160
-0.978298, 425, 161, 456, 288
-0.97831, 217, 129, 280, 192
-0.97836, 93, 41, 124, 104
-0.978372, 381, 161, 412, 288
-0.978432, 457, 209, 488, 272
-0.978435, 321, 65, 352, 128
-0.97847, 225, 217, 352, 280
-0.978495, 457, 153, 488, 216
-0.978498, 245, 81, 276, 208
-0.978523, 469, 9, 500, 72
-0.978545, 441, 201, 472, 264
-0.978698, 393, 177, 424, 240
-0.978839, 33, 57, 64, 120
-0.978899, 273, 49, 304, 112
-0.978908, 381, 193, 412, 256
-0.978935, 153, 137, 216, 200
-0.979019, 245, 113, 276, 176
-0.979046, 65, 9, 192, 72
-0.979048, 345, 73, 376, 136
-0.979094, 97, 17, 160, 80
-0.9791, 121, 129, 184, 256
-0.979152, 1, 1, 64, 333
-0.979172, 241, 41, 272, 104
-0.979228, 1, 25, 32, 88
-0.97923, 185, 185, 248, 248
-0.979248, 145, 209, 272, 272
-0.979299, 17, 97, 80, 160
-0.979317, 237, 145, 268, 272
-0.979332, 321, 193, 448, 256
-0.97937, 181, 1, 212, 128
-0.979398, 313, 113, 344, 240
-0.979531, 241, 161, 272, 224
-0.979555, 353, 129, 384, 256
-0.979688, 329, 137, 360, 200
-0.979825, 309, 161, 340, 288
-0.979881, 17, 9, 48, 72
-0.97989, 25, 1, 88, 333
-0.979912, 285, 81, 316, 144
-0.979951, 29, 49, 60, 176
-0.979962, 269, 145, 300, 208
-0.980035, 65, 65, 96, 128
-0.980073, 117, 17, 148, 144
-0.980076, 177, 145, 304, 208
-0.9801, 305, 129, 336, 192
-0.980105, 273, 57, 400, 120
-0.980285, 213, 57, 244, 120
-0.980399, 93, 1, 124, 64
-0.980403, 65, 97, 192, 160
-0.980403, 445, 249, 476, 312
-0.980413, 337, 1, 400, 333
-0.980449, 289, 1, 352, 333
-0.98047, 145, 17, 176, 144
-0.980537, 145, 265, 176, 328
-0.980538, 401, 153, 432, 216
-0.980547, 25, 201, 56, 264
-0.980547, 313, 265, 344, 328
-0.980566, 241, 217, 272, 280
-0.980653, 413, 145, 444, 272
-0.980702, 457, 1, 488, 64
-0.98072, 153, 81, 184, 144
-0.980736, 277, 145, 308, 272
-0.980821, 373, 33, 404, 160
-0.980877, 333, 225, 364, 288
-0.980885, 333, 209, 364, 333
-0.980891, 33, 233, 160, 296
-0.980947, 457, 249, 488, 312
-0.981017, 305, 185, 368, 248
-0.981044, 361, 1, 424, 333
-0.981057, 361, 49, 424, 112
-0.981095, 369, 249, 400, 312
-0.981129, 285, 57, 316, 120
-0.981132, 97, 41, 160, 104
-0.981138, 89, 217, 152, 280
-0.981156, 265, 1, 328, 333
-0.981183, 5, 201, 36, 264
-0.981224, 313, 1, 376, 333
-0.981244, 45, 1, 76, 64
-0.981296, 77, 25, 108, 88
-0.981313, 469, 233, 500, 296
-0.981449, 161, 177, 288, 240
-0.981453, 65, 33, 128, 288
-0.981458, 333, 81, 364, 144
-0.981473, 469, 161, 500, 224
-0.981496, 445, 81, 476, 144
-0.981507, 157, 33, 188, 96
-0.981542, 137, 129, 168, 192
-0.981547, 437, 81, 468, 208
-0.981576, 393, 257, 424, 320
-0.981652, 381, 161, 412, 224
-0.981675, 337, 105, 368, 168
-0.981688, 161, 201, 224, 264
-0.981719, 225, 97, 256, 160
-0.981746, 185, 97, 216, 160
-0.98176, 133, 97, 164, 224
-0.981833, 433, 1, 496, 333
-0.981862, 229, 33, 260, 96
-0.981887, 1, 225, 64, 288
-0.981905, 185, 233, 248, 296
-0.981979, 85, 49, 116, 176
-0.982042, 225, 97, 288, 224
-0.98206, 161, 177, 224, 240
-0.982068, 201, 161, 264, 224
-0.982093, 413, 249, 444, 312
-0.982118, 1, 65, 32, 192
-0.982157, 413, 209, 444, 333
-0.982174, 101, 65, 132, 192
-0.982196, 145, 33, 176, 96
-0.982198, 149, 105, 180, 168
-0.982279, 161, 265, 192, 328
-0.982439, 361, 209, 392, 333
-0.982439, 329, 41, 392, 104
-0.982478, 277, 185, 308, 248
-0.982527, 413, 121, 444, 184
-0.982545, 193, 1, 256, 333
-0.982554, 145, 17, 272, 80
-0.982559, 213, 209, 244, 272
-0.982686, 45, 81, 76, 144
-0.982691, 201, 65, 232, 192
-0.982718, 357, 17, 388, 144
-0.98283, 241, 217, 304, 280
-0.982911, 417, 1, 448, 64
-0.982971, 201, 113, 232, 176
-0.983043, 393, 161, 424, 288
-0.983088, 17, 153, 80, 216
-0.983113, 341, 129, 372, 256
-0.983116, 149, 209, 180, 333
-0.983182, 221, 33, 252, 160
-0.983186, 97, 217, 224, 280
-0.983206, 277, 1, 308, 128
-0.983227, 241, 193, 272, 256
-0.983251, 29, 81, 60, 144
-0.983269, 157, 57, 188, 120
-0.983271, 49, 1, 112, 333
-0.983309, 333, 57, 364, 120
-0.983323, 161, 233, 288, 296
-0.983369, 405, 177, 436, 240
-0.983373, 425, 177, 456, 240
-0.983381, 61, 49, 92, 176
-0.983496, 217, 25, 280, 88
-0.983498, 97, 121, 160, 184
-0.983505, 349, 273, 380, 333
-0.98357, 425, 233, 456, 296
-0.983686, 157, 33, 188, 160
-0.983714, 301, 273, 332, 333
-0.983726, 5, 209, 36, 333
-0.983727, 409, 81, 440, 208
-0.983729, 177, 17, 208, 80
-0.983784, 129, 33, 192, 96
-0.983788, 17, 209, 48, 333
-0.983801, 369, 57, 496, 120
-0.983841, 189, 113, 220, 240
-0.983855, 369, 209, 400, 272
-0.984026, 281, 217, 344, 280
-0.984031, 225, 161, 256, 288
-0.984076, 89, 65, 152, 320
-0.984084, 97, 121, 224, 184
-0.984092, 321, 17, 352, 144
-0.984094, 177, 137, 240, 200
-0.984184, 137, 209, 168, 333
-0.984188, 133, 1, 164, 128
-0.984247, 153, 113, 184, 240
-0.984353, 425, 49, 488, 112
-0.984394, 225, 33, 352, 96
-0.984483, 377, 1, 440, 64
-0.984601, 57, 201, 120, 264
-0.984604, 1, 121, 64, 184
-0.984804, 397, 65, 428, 192
-0.984831, 321, 57, 448, 120
-0.984899, 49, 209, 80, 333
-0.984945, 65, 273, 192, 333
-0.984994, 241, 1, 304, 333
-0.985104, 417, 1, 448, 128
-0.985169, 385, 1, 448, 333
-0.985172, 41, 97, 104, 224
-0.985223, 257, 249, 384, 312
-0.985285, 425, 81, 456, 208
-0.985304, 337, 17, 368, 144
-0.985372, 409, 1, 472, 333
-0.985551, 121, 1, 184, 333
-0.98564, 177, 65, 208, 192
-0.985657, 65, 209, 96, 333
-0.985855, 9, 113, 40, 240
-0.985896, 17, 185, 144, 248
-0.985924, 469, 209, 500, 333
-0.985997, 1, 97, 128, 160
-0.986173, 197, 17, 228, 144
-0.986279, 245, 33, 276, 160
-0.98639, 213, 81, 244, 208
-0.986463, 73, 49, 104, 176
-0.986661, 129, 153, 256, 216
-0.986674, 233, 97, 264, 224
-0.986916, 129, 9, 192, 72
-0.986994, 17, 121, 144, 184
-0.987064, 289, 209, 352, 333
-0.987092, 169, 1, 232, 333
-0.987129, 225, 273, 352, 333
-0.987189, 177, 113, 208, 240
-0.987214, 433, 149, 496, 180
-0.987266, 169, 209, 200, 333
-0.987561, 273, 217, 400, 280
-0.987561, 225, 137, 480, 200
-0.987562, 125, 209, 156, 333
-0.987597, 441, 17, 472, 144
-0.987611, 81, 1, 144, 333
-0.987665, 41, 73, 104, 104
-0.98769, 25, 1, 88, 32
-0.987693, 129, 145, 192, 208
-0.987737, 57, 25, 120, 56
-0.987771, 201, 193, 232, 320
-0.987823, 193, 1, 320, 64
-0.987849, 129, 273, 256, 333
-0.987856, 305, 33, 432, 96
-0.98799, 89, 209, 120, 333
-0.98802, 257, 89, 500, 152
-0.988056, 345, 81, 408, 112
-0.98808, 321, 177, 352, 304
-0.988109, 25, 17, 88, 48
-0.988185, 49, 13, 112, 44
-0.988302, 201, 113, 232, 240
-0.988322, 65, 193, 192, 256
-0.988337, 165, 113, 196, 240
-0.988358, 17, 45, 80, 76
-0.988366, 169, 1, 200, 128
-0.988377, 425, 181, 488, 212
-0.988435, 285, 193, 316, 320
-0.98844, 433, 113, 496, 144
-0.988502, 361, 205, 424, 236
-0.988518, 369, 89, 432, 120
-0.988536, 337, 121, 400, 152
-0.988541, 57, 53, 120, 84
-0.988565, 1, 73, 64, 104
-0.988594, 25, 113, 56, 240
-0.988636, 1, 205, 64, 236
-0.988642, 393, 153, 456, 184
-0.988704, 189, 193, 220, 320
-0.988716, 369, 101, 432, 132
-0.988729, 385, 193, 448, 224
-0.988747, 425, 197, 488, 228
-0.988762, 369, 133, 432, 164
-0.988767, 185, 97, 248, 128
-0.988871, 249, 137, 312, 168
-0.988883, 73, 73, 136, 104
-0.988885, 49, 1, 112, 32
-0.988893, 425, 97, 488, 128
-0.98891, 17, 33, 80, 64
-0.988962, 17, 161, 144, 224
-0.988963, 249, 61, 312, 92
-0.989013, 453, 17, 484, 144
-0.989021, 113, 81, 176, 112
-0.989046, 433, 253, 496, 284
-0.989058, 425, 169, 488, 200
-0.98906, 369, 145, 432, 176
-0.989067, 301, 17, 332, 144
-0.989072, 233, 173, 296, 204
-0.989082, 217, 1, 280, 333
-0.98922, 241, 193, 272, 320
-0.989225, 257, 113, 500, 176
-0.989236, 321, 153, 384, 184
-0.989238, 65, 97, 128, 224
-0.98924, 1, 13, 64, 44
-0.989243, 345, 101, 408, 132
-0.989244, 257, 257, 500, 320
-0.989249, 281, 137, 344, 168
-0.989265, 289, 65, 352, 96
-0.989281, 241, 189, 304, 220
-0.989283, 305, 141, 368, 172
-0.989301, 401, 269, 464, 300
-0.989318, 393, 105, 456, 136
-0.989356, 345, 149, 408, 180
-0.989373, 429, 1, 460, 128
-0.989373, 57, 37, 120, 68
-0.989386, 193, 61, 256, 92
-0.989391, 337, 133, 400, 164
-0.98943, 1, 61, 64, 92
-0.989455, 425, 137, 488, 168
-0.989492, 425, 213, 488, 244
-0.989492, 393, 181, 456, 212
-0.989533, 153, 33, 216, 64
-0.989547, 217, 113, 280, 144
-0.989564, 401, 205, 464, 236
-0.989569, 1, 1, 64, 32
-0.989586, 209, 17, 240, 144
-0.989606, 17, 217, 80, 248
-0.989621, 273, 169, 336, 200
-0.989626, 401, 1, 464, 32
-0.989628, 401, 93, 464, 124
-0.989645, 193, 213, 256, 244
-0.989647, 209, 241, 336, 304
-0.989658, 209, 185, 272, 216
-0.989692, 369, 277, 432, 308
-0.989695, 105, 69, 168, 100
-0.98971, 257, 161, 500, 224
-0.989722, 401, 121, 464, 152
-0.989724, 433, 125, 496, 156
-0.989729, 249, 125, 312, 156
-0.989735, 73, 13, 136, 44
-0.989738, 45, 161, 76, 288
-0.989838, 241, 105, 304, 136
-0.98985, 433, 1, 496, 32
-0.989852, 369, 117, 432, 148
-0.989885, 361, 217, 424, 248
-0.989893, 353, 289, 416, 320
-0.989896, 33, 61, 96, 92
-0.989916, 217, 197, 280, 228
-0.989931, 217, 49, 280, 80
-0.98994, 73, 85, 136, 116
-0.989954, 1, 81, 500, 144
-0.98996, 193, 109, 256, 140
-0.989969, 97, 37, 160, 68
-0.989987, 425, 85, 488, 116
-0.98999, 393, 165, 456, 196
-0.990014, 393, 133, 456, 164
-0.990023, 289, 81, 352, 112
-0.990025, 281, 157, 344, 188
-0.990113, 257, 149, 320, 180
-0.990133, 241, 161, 304, 192
-0.99014, 153, 45, 216, 76
-0.990166, 297, 193, 328, 320
-0.99017, 321, 81, 384, 112
-0.990171, 105, 25, 168, 56
-0.990177, 321, 93, 384, 124
-0.990213, 153, 61, 216, 92
-0.99022, 313, 69, 376, 100
-0.99022, 1, 85, 64, 116
-0.99024, 233, 1, 264, 128
-0.990245, 233, 93, 296, 124
-0.990291, 1, 241, 500, 304
-0.990307, 169, 109, 232, 140
-0.990308, 305, 121, 368, 152
-0.990311, 385, 257, 448, 288
-0.990362, 1, 161, 32, 288
-0.990366, 409, 257, 472, 288
-0.99037, 41, 85, 104, 116
-0.990406, 249, 73, 312, 104
-0.990408, 337, 217, 400, 248
-0.990424, 225, 61, 288, 92
-0.990425, 425, 13, 488, 44
-0.99044, 129, 145, 384, 208
-0.990499, 129, 241, 192, 272
-0.990528, 409, 281, 472, 312
-0.990542, 281, 185, 344, 216
-0.990549, 193, 37, 256, 68
-0.990551, 113, 177, 240, 240
-0.990577, 217, 209, 280, 240
-0.990581, 289, 289, 352, 320
-0.990587, 1, 273, 128, 333
-0.990597, 97, 245, 160, 276
-0.990599, 73, 1, 136, 32
-0.990604, 129, 109, 192, 140
-0.990619, 177, 201, 240, 232
-0.990629, 369, 301, 432, 332
-0.99065, 145, 121, 208, 152
-0.99066, 153, 21, 216, 52
-0.99067, 369, 157, 432, 188
-0.990687, 241, 213, 304, 244
-0.990705, 129, 261, 192, 292
-0.990711, 409, 245, 472, 276
-0.990712, 129, 97, 192, 128
-0.990753, 105, 49, 168, 80
-0.990759, 225, 81, 288, 112
-0.990772, 321, 105, 384, 136
-0.990789, 129, 273, 384, 333
-0.990809, 225, 193, 480, 256
-0.990811, 185, 49, 248, 80
-0.990819, 273, 125, 336, 156
-0.990873, 305, 277, 368, 308
-0.990878, 213, 193, 244, 320
-0.99089, 129, 225, 384, 288
-0.990892, 77, 209, 108, 333
-0.990893, 109, 193, 140, 320
-0.990923, 137, 73, 200, 104
-0.990931, 161, 89, 416, 152
-0.990945, 81, 57, 144, 88
-0.990957, 97, 93, 160, 124
-0.991012, 209, 97, 272, 128
-0.991014, 257, 225, 500, 288
-0.991027, 25, 205, 88, 236
-0.991069, 393, 1, 424, 128
-0.991117, 321, 1, 448, 64
-0.99115, 165, 161, 196, 288
-0.991189, 97, 121, 352, 184
-0.991236, 405, 1, 436, 128
-0.99132, 261, 177, 292, 304
-0.991359, 229, 209, 260, 333
-0.991485, 97, 65, 352, 128
-0.991859, 373, 101, 404, 132
-0.991875, 393, 89, 424, 120
-0.991907, 385, 201, 416, 232
-0.99195, 53, 21, 84, 52
-0.991959, 61, 161, 92, 288
-0.991972, 65, 25, 96, 56
-0.991978, 33, 193, 288, 256
-0.991995, 441, 145, 472, 176
-0.991998, 401, 157, 432, 188
-0.992024, 461, 153, 492, 184
-0.992025, 57, 1, 88, 32
-0.992038, 65, 13, 96, 44
-0.992038, 121, 113, 152, 240
-0.992061, 129, 77, 160, 108
-0.992087, 33, 205, 64, 236
-0.992099, 469, 109, 500, 140
-0.992157, 461, 93, 492, 124
-0.992161, 9, 49, 40, 80
-0.992168, 381, 85, 412, 116
-0.992183, 13, 13, 44, 44
-0.992195, 453, 109, 484, 140
-0.992196, 209, 97, 240, 128
-0.9922, 133, 65, 164, 96
-0.992201, 453, 125, 484, 156
-0.992206, 33, 1, 64, 32
-0.99221, 237, 177, 268, 208
-0.992219, 93, 69, 124, 100
-0.992235, 441, 109, 472, 140
-0.992258, 77, 21, 108, 52
-0.992266, 81, 145, 208, 208
-0.992267, 457, 181, 488, 212
-0.992269, 45, 65, 76, 96
-0.992274, 365, 117, 396, 148
-0.992274, 297, 65, 328, 96
-0.992291, 1, 217, 500, 280
-0.992303, 61, 69, 92, 100
-0.992306, 141, 77, 172, 108
-0.992306, 81, 73, 112, 104
-0.992306, 9, 73, 40, 104
-0.992314, 117, 81, 148, 112
-0.992317, 137, 109, 168, 140
-0.992324, 357, 105, 388, 136
-0.992325, 221, 105, 252, 136
-0.992326, 385, 105, 416, 136
-0.992327, 457, 205, 488, 236
-0.992335, 385, 125, 416, 156
-0.992343, 33, 17, 64, 48
-0.992347, 1, 9, 32, 40
-0.992353, 467, 89, 482, 152
-0.992359, 453, 137, 484, 168
-0.99237, 341, 137, 372, 168
-0.99237, 333, 73, 364, 104
-0.992384, 249, 61, 280, 92
-0.992386, 49, 49, 80, 80
-0.992388, 253, 149, 284, 180
-0.992391, 17, 61, 48, 92
-0.992397, 105, 73, 136, 104
-0.992424, 257, 137, 288, 168
-0.992426, 317, 65, 348, 96
-0.992428, 49, 33, 80, 64
-0.992435, 309, 153, 340, 184
-0.99245, 357, 77, 388, 108
-0.992451, 437, 121, 468, 152
-0.992456, 61, 57, 92, 88
-0.992466, 89, 53, 120, 84
-0.992471, 425, 1, 456, 32
-0.992473, 237, 213, 268, 244
-0.992478, 149, 117, 180, 148
-0.992479, 269, 85, 300, 116
-0.992482, 437, 197, 468, 228
-0.992482, 245, 189, 276, 220
-0.992485, 333, 89, 364, 120
-0.992485, 89, 17, 120, 48
-0.992487, 137, 89, 168, 120
-0.992492, 453, 193, 484, 224
-0.992493, 329, 145, 360, 176
-0.992493, 261, 109, 292, 140
-0.992494, 29, 33, 60, 64
-0.992497, 217, 57, 248, 88
-0.992501, 145, 57, 176, 88
-0.992504, 461, 5, 492, 36
-0.992505, 197, 93, 228, 124
-0.992505, 397, 105, 428, 136
-0.992507, 373, 157, 404, 188
-0.992508, 385, 137, 416, 168
-0.99251, 345, 117, 376, 148
-0.992517, 53, 49, 68, 112
-0.992519, 341, 105, 372, 136
-0.992526, 373, 205, 404, 236
-0.992531, 257, 169, 288, 200
-0.992535, 237, 69, 268, 100
-0.99254, 245, 161, 276, 192
-0.992544, 461, 165, 492, 196
-0.992549, 13, 25, 44, 56
-0.992554, 361, 129, 392, 160
-0.992574, 233, 201, 264, 232
-0.992577, 125, 241, 156, 272
-0.992578, 369, 25, 496, 88
-0.992583, 385, 149, 416, 180
-0.992584, 459, 105, 474, 168
-0.992589, 9, 37, 40, 68
-0.99259, 465, 137, 496, 168
-0.992593, 265, 97, 296, 128
-0.9926, 161, 169, 416, 232
-0.992603, 397, 201, 428, 232
-0.992611, 249, 217, 280, 248
-0.992617, 1, 265, 500, 328
-0.992621, 209, 109, 240, 140
-0.992621, 261, 73, 292, 104
-0.992628, 193, 65, 448, 128
-0.99263, 265, 61, 296, 92
-0.992632, 409, 93, 440, 124
-0.992634, 465, 121, 496, 152
-0.992637, 133, 121, 164, 152
-0.992642, 285, 193, 316, 224
-0.992646, 37, 49, 68, 80
-0.99265, 333, 125, 364, 156
-0.992653, 281, 177, 312, 208
-0.992659, 265, 125, 296, 156
-0.992659, 5, 205, 36, 236
-0.992659, 413, 149, 444, 180
-0.992661, 441, 157, 472, 188
-0.992661, 293, 169, 324, 200
-0.992662, 21, 45, 52, 76
-0.992667, 365, 145, 396, 176
-0.992667, 265, 149, 296, 180
-0.992668, 65, 37, 96, 68
-0.992668, 297, 133, 328, 164
-0.992676, 29, 77, 60, 108
-0.992676, 157, 269, 188, 300
-0.992678, 473, 121, 488, 184
-0.992678, 369, 89, 400, 120
-0.992679, 69, 1, 100, 32
-0.992684, 125, 93, 156, 124
-0.992687, 261, 181, 292, 212
-0.992688, 277, 149, 308, 180
-0.992689, 393, 189, 424, 220
-0.99269, 293, 293, 324, 324
-0.992694, 405, 133, 436, 164
-0.992695, 193, 105, 224, 136
-0.992696, 1, 65, 128, 96
-0.992696, 105, 85, 136, 116
-0.992696, 353, 217, 384, 248
-0.9927, 233, 109, 264, 140
-0.992711, 65, 97, 320, 160
-0.99276, 405, 97, 420, 160
-0.992785, 369, 105, 496, 136
-0.992872, 177, 265, 304, 328
-0.992953, 55, 9, 70, 72
-0.992978, 453, 105, 468, 168
-0.993099, 483, 89, 498, 152
-0.993115, 7, 1, 22, 64
-0.99313, 1, 21, 128, 52
-0.99319, 1, 137, 500, 200
-0.993196, 33, 25, 288, 88
-0.993247, 1, 9, 128, 40
-0.99329, 321, 221, 448, 252
-0.993298, 21, 9, 36, 72
-0.993299, 209, 181, 336, 212
-0.993349, 145, 117, 272, 148
-0.993369, 27, 41, 42, 104
-0.993386, 241, 65, 368, 96
-0.993404, 337, 141, 464, 172
-0.993415, 397, 81, 412, 144
-0.993421, 177, 73, 304, 104
-0.993422, 153, 73, 168, 136
-0.993433, 305, 153, 432, 184
-0.993445, 353, 201, 480, 232
-0.993453, 473, 89, 488, 152
-0.993456, 259, 129, 274, 192
-0.993517, 113, 85, 240, 116
-0.993541, 285, 97, 300, 160
-0.993571, 409, 193, 424, 256
-0.993571, 305, 89, 432, 120
-0.993634, 193, 117, 320, 148
-0.993647, 133, 65, 148, 128
-0.993699, 161, 249, 416, 312
-0.993721, 369, 117, 496, 148
-0.993726, 97, 73, 224, 104
-0.993752, 465, 137, 480, 200
-0.993771, 1, 53, 128, 84
-0.99379, 225, 157, 352, 188
-0.99379, 241, 137, 368, 168
-0.993793, 73, 1, 88, 64
-0.993801, 465, 177, 480, 240
-0.993812, 383, 89, 398, 152
-0.993822, 241, 109, 368, 140
-0.993835, 407, 129, 422, 192
-0.993861, 259, 49, 274, 112
-0.993861, 83, 57, 98, 120
-0.993869, 315, 273, 330, 333
-0.993879, 241, 85, 368, 116
-0.993894, 475, 1, 490, 64
-0.993911, 63, 9, 78, 72
-0.993942, 289, 273, 416, 304
-0.993946, 1, 49, 500, 112
-0.993951, 471, 145, 486, 208
-0.993958, 1, 249, 256, 312
-0.993974, 443, 121, 458, 184
-0.993981, 145, 61, 272, 92
-0.993986, 373, 105, 388, 168
-0.994014, 395, 105, 410, 168
-0.994027, 251, 153, 266, 216
-0.994031, 17, 33, 32, 96
-0.994031, 445, 257, 460, 320
-0.994048, 369, 241, 496, 272
-0.994049, 143, 89, 158, 152
-0.994069, 353, 93, 480, 124
-0.994074, 225, 89, 240, 152
-0.994089, 305, 121, 432, 152
-0.99409, 321, 241, 448, 272
-0.994099, 257, 185, 272, 248
-0.99412, 479, 129, 494, 192
-0.994124, 281, 145, 296, 208
-0.994137, 369, 73, 384, 136
-0.99414, 11, 25, 26, 88
-0.994164, 141, 57, 156, 120
-0.994178, 161, 97, 288, 128
-0.994186, 377, 81, 392, 144
-0.99419, 405, 169, 420, 232
-0.994192, 391, 81, 406, 144
-0.994195, 369, 257, 496, 288
-0.9942, 39, 201, 54, 264
-0.994206, 27, 17, 42, 80
-0.994209, 305, 261, 432, 292
-0.994227, 1, 1, 256, 64
-0.994251, 1, 105, 500, 168
-0.994252, 257, 73, 272, 136
-0.994253, 411, 89, 426, 152
-0.994293, 399, 185, 414, 248
-0.994301, 321, 77, 448, 108
-0.994312, 153, 97, 168, 160
-0.994315, 225, 169, 352, 200
-0.994318, 71, 25, 86, 88
-0.99432, 343, 81, 358, 144
-0.994327, 1, 193, 500, 256
-0.994331, 353, 153, 480, 184
-0.994332, 207, 89, 222, 152
-0.994374, 79, 9, 94, 72
-0.994424, 219, 97, 234, 160
-0.994434, 357, 121, 372, 184
-0.994503, 33, 217, 288, 280
-0.994518, 199, 65, 214, 128
-0.99452, 309, 153, 324, 216
-0.994528, 415, 161, 430, 224
-0.99453, 63, 49, 78, 112
-0.994536, 1, 41, 128, 72
-0.994568, 1, 49, 256, 112
-0.994572, 157, 41, 172, 104
-0.99458, 13, 1, 28, 64
-0.994589, 361, 73, 376, 136
-0.994594, 369, 273, 496, 304
-0.994601, 241, 121, 368, 152
-0.994604, 369, 229, 496, 260
-0.994613, 193, 85, 320, 116
-0.994622, 33, 89, 160, 120
-0.994629, 113, 101, 240, 132
-0.99463, 279, 169, 294, 232
-0.99463, 321, 165, 448, 196
-0.994672, 13, 57, 28, 120
-0.994675, 465, 113, 480, 176
-0.994679, 443, 145, 458, 208
-0.994683, 247, 185, 262, 248
-0.99469, 289, 285, 416, 316
-0.994705, 213, 89, 228, 152
-0.994723, 393, 193, 408, 256
-0.994733, 315, 145, 330, 208
-0.994733, 349, 137, 364, 200
-0.99475, 289, 73, 304, 136
-0.994762, 373, 265, 388, 328
-0.994775, 97, 61, 224, 92
-0.994782, 477, 161, 492, 224
-0.994789, 461, 1, 476, 64
-0.994791, 49, 29, 176, 60
-0.994793, 13, 201, 28, 264
-0.99481, 451, 137, 466, 200
-0.994821, 459, 129, 474, 192
-0.994821, 437, 265, 452, 328
-0.994839, 1, 1, 16, 64
-0.994843, 253, 49, 268, 112
-0.994844, 231, 97, 246, 160
-0.994848, 167, 265, 182, 328
-0.994848, 33, 9, 48, 72
-0.99485, 273, 165, 400, 196
-0.994853, 259, 105, 274, 168
-0.994873, 85, 25, 100, 88
-0.994881, 161, 213, 288, 244
-0.994902, 65, 9, 192, 40
-0.994904, 369, 129, 496, 160
-0.994904, 453, 33, 484, 288
-0.994908, 161, 41, 416, 104
-0.99491, 455, 177, 470, 240
-0.994914, 49, 69, 176, 100
-0.994928, 7, 73, 22, 136
-0.994929, 237, 185, 252, 248
-0.994929, 263, 73, 278, 136
-0.994936, 377, 209, 392, 272
-0.994963, 209, 53, 336, 84
-0.994966, 241, 97, 368, 128
-0.994974, 293, 153, 308, 216
-0.99498, 329, 65, 344, 128
-0.994984, 241, 65, 256, 128
-0.995017, 353, 185, 480, 216
-0.995025, 151, 49, 166, 112
-0.99503, 281, 121, 296, 184
-0.995034, 291, 105, 306, 168
-0.995037, 49, 41, 176, 72
-0.995039, 97, 21, 224, 52
-0.995048, 369, 217, 496, 248
-0.99505, 229, 57, 244, 120
-0.995051, 293, 33, 324, 288
-0.995065, 49, 25, 64, 88
-0.99508, 125, 81, 140, 144
-0.995082, 201, 89, 216, 152
-0.995095, 343, 121, 358, 184
-0.995096, 257, 153, 272, 216
-0.995104, 289, 109, 416, 140
-0.99511, 297, 57, 312, 120
-0.995136, 417, 185, 432, 248
-0.995145, 483, 17, 498, 80
-0.995146, 299, 121, 314, 184
-0.995151, 323, 153, 338, 216
-0.995171, 273, 9, 400, 72
-0.995173, 1, 57, 16, 120
-0.995177, 413, 129, 428, 192
-0.995182, 401, 129, 416, 192
-0.995188, 321, 265, 336, 328
-0.995193, 257, 209, 272, 272
-0.995197, 385, 193, 400, 256
-0.995204, 365, 265, 380, 328
-0.995206, 315, 57, 330, 120
-0.995224, 467, 1, 482, 64
-0.995226, 365, 121, 380, 184
-0.995233, 345, 65, 376, 320
-0.995239, 393, 169, 408, 232
-0.995245, 303, 161, 318, 224
-0.995249, 1, 229, 128, 260
-0.995254, 309, 129, 324, 192
-0.995256, 437, 177, 452, 240
-0.995258, 105, 65, 120, 128
-0.995265, 103, 1, 118, 64
-0.995281, 49, 1, 64, 64
-0.995295, 465, 1, 496, 256
-0.995297, 1, 73, 256, 136
-0.995297, 337, 73, 352, 136
-0.995303, 1, 137, 256, 200
-0.995303, 209, 193, 336, 224
-0.995311, 461, 81, 476, 144
-0.995339, 273, 177, 400, 208
-0.995346, 145, 129, 272, 160
-0.995358, 305, 297, 432, 328
-0.995365, 369, 1, 496, 32
-0.995389, 361, 33, 392, 288
-0.995399, 1, 161, 500, 224
-0.995432, 145, 37, 272, 68
-0.995433, 129, 201, 384, 264
-0.995441, 241, 213, 368, 244
-0.995451, 49, 53, 176, 84
-0.995467, 1, 77, 128, 108
-0.995499, 369, 169, 496, 200
-0.995518, 369, 285, 496, 316
-0.995548, 369, 301, 496, 332
-0.995551, 177, 169, 304, 200
-0.995559, 289, 133, 416, 164
-0.995566, 33, 1, 64, 256
-0.99558, 145, 49, 272, 80
-0.995591, 161, 141, 288, 172
-0.995599, 97, 129, 224, 160
-0.995684, 65, 169, 192, 232
-0.995689, 53, 1, 84, 256
-0.995695, 325, 33, 356, 288
-0.995712, 177, 157, 304, 188
-0.995749, 81, 265, 208, 296
-0.995763, 1, 273, 256, 333
-0.995815, 97, 33, 224, 64
-0.995816, 13, 33, 44, 288
-0.99584, 257, 1, 500, 64
-0.995864, 441, 65, 472, 320
-0.995883, 373, 65, 404, 320
-0.99592, 369, 17, 496, 48
-0.995985, 161, 229, 288, 260
-0.995985, 289, 65, 416, 96
-0.995993, 1, 169, 256, 232
-0.996001, 1, 1, 500, 64
-0.996056, 161, 201, 288, 232
-0.996068, 309, 33, 340, 288
-0.996068, 97, 49, 224, 80
-0.996072, 1, 217, 128, 248
-0.996076, 49, 249, 176, 280
-0.996113, 141, 33, 172, 288
-0.996143, 161, 1, 192, 256
-0.996197, 83, 69, 98, 100
-0.99622, 225, 225, 352, 256
-0.996279, 1, 201, 128, 232
-0.996305, 129, 249, 256, 280
-0.996325, 55, 17, 70, 48
-0.996334, 139, 65, 154, 96
-0.996341, 65, 301, 192, 332
-0.996342, 69, 13, 84, 44
-0.996356, 471, 97, 486, 128
-0.996359, 1, 25, 500, 88
-0.99647, 147, 73, 162, 104
-0.996488, 475, 153, 490, 184
-0.996498, 97, 113, 224, 144
-0.996512, 257, 1, 288, 256
-0.996521, 305, 197, 432, 228
-0.996544, 273, 65, 304, 320
-0.996562, 257, 41, 500, 104
-0.996578, 257, 301, 384, 332
-0.996582, 245, 33, 276, 288
-0.996601, 57, 29, 72, 60
-0.996608, 257, 241, 384, 272
-0.996625, 223, 101, 238, 132
-0.996668, 81, 221, 208, 252
-0.996673, 403, 189, 418, 220
-0.996676, 241, 177, 256, 208
-0.996702, 465, 105, 480, 136
-0.996707, 1, 1, 32, 256
-0.996736, 65, 1, 80, 32
-0.996746, 257, 149, 272, 180
-0.996756, 65, 1, 96, 256
-0.99678, 145, 25, 272, 56
-0.996782, 161, 181, 288, 212
-0.996785, 389, 201, 404, 232
-0.996793, 143, 93, 158, 124
-0.996796, 475, 133, 490, 164
-0.996799, 459, 105, 474, 136
-0.996799, 121, 81, 136, 112
-0.996825, 61, 53, 76, 84
-0.996832, 75, 9, 90, 40
-0.996837, 63, 21, 78, 52
-0.996838, 385, 101, 400, 132
-0.996857, 257, 197, 384, 228
-0.996866, 125, 65, 156, 320
-0.996871, 177, 1, 208, 256
-0.996873, 385, 33, 416, 288
-0.996894, 465, 181, 480, 212
-0.996905, 97, 233, 224, 264
-0.996912, 395, 201, 410, 232
-0.996916, 225, 289, 352, 320
-0.996919, 321, 1, 448, 32
-0.996922, 9, 9, 24, 40
-0.996924, 261, 133, 276, 164
-0.996926, 189, 33, 220, 288
-0.99695, 87, 17, 102, 48
-0.996954, 251, 165, 266, 196
-0.996959, 107, 21, 122, 52
-0.996964, 51, 45, 66, 76
-0.996965, 469, 149, 484, 180
-0.996967, 49, 209, 176, 240
-0.996971, 229, 105, 244, 136
-0.996989, 369, 73, 496, 104
-0.996996, 111, 73, 126, 104
-0.996996, 459, 145, 474, 176
-0.997, 337, 77, 352, 108
-0.997001, 401, 201, 416, 232
-0.99701, 253, 181, 268, 212
-0.997018, 475, 113, 490, 144
-0.997019, 469, 121, 484, 152
-0.997021, 449, 109, 464, 140
-0.99703, 255, 217, 270, 248
-0.997034, 399, 105, 414, 136
-0.997037, 135, 77, 150, 108
-0.997041, 39, 201, 54, 232
-0.997044, 481, 89, 496, 120
-0.997052, 65, 101, 192, 132
-0.997052, 79, 21, 94, 52
-0.997055, 379, 97, 394, 128
-0.997058, 465, 9, 480, 40
-0.997077, 209, 97, 224, 128
-0.997079, 359, 133, 374, 164
-0.997087, 3, 9, 18, 40
-0.99709, 149, 109, 164, 140
-0.997091, 69, 25, 84, 56
-0.997091, 141, 77, 156, 108
-0.997093, 257, 253, 384, 284
-0.997101, 11, 49, 26, 80
-0.997108, 153, 121, 168, 152
-0.997111, 89, 73, 104, 104
-0.997122, 283, 181, 298, 212
-0.997125, 143, 113, 158, 144
-0.997125, 393, 85, 408, 116
-0.997127, 465, 93, 480, 124
-0.99714, 405, 141, 420, 172
-0.997142, 469, 161, 484, 192
-0.997142, 49, 113, 176, 144
-0.997151, 453, 145, 468, 176
-0.99716, 199, 77, 214, 108
-0.997161, 299, 65, 314, 96
-0.997167, 249, 65, 264, 96
-0.997173, 81, 277, 208, 308
-0.997186, 201, 65, 232, 320
-0.997197, 469, 137, 484, 168
-0.997201, 305, 209, 432, 240
-0.997202, 257, 57, 272, 88
-0.997203, 405, 89, 420, 120
-0.997206, 259, 169, 274, 200
-0.997208, 101, 73, 116, 104
-0.997213, 223, 57, 238, 88
-0.997215, 129, 77, 144, 108
-0.997222, 351, 137, 366, 168
-0.997222, 193, 129, 320, 160
-0.997222, 29, 37, 44, 68
-0.997224, 459, 125, 474, 156
-0.997225, 3, 53, 18, 84
-0.997243, 407, 113, 422, 144
-0.997243, 129, 157, 256, 188
-0.997249, 409, 197, 424, 228
-0.99725, 65, 289, 192, 320
-0.997257, 481, 105, 496, 136
-0.99726, 459, 5, 474, 36
-0.997264, 409, 181, 424, 212
-0.997285, 47, 209, 62, 240
-0.997286, 425, 33, 456, 288
-0.997288, 349, 125, 364, 156
-0.997288, 285, 129, 300, 160
-0.997297, 355, 105, 370, 136
-0.997298, 217, 65, 248, 320
-0.997299, 481, 1, 496, 32
-0.997302, 17, 49, 32, 80
-0.997305, 283, 85, 298, 116
-0.997308, 389, 285, 404, 316
-0.997319, 235, 105, 250, 136
-0.997329, 411, 133, 426, 164
-0.997331, 137, 241, 152, 272
-0.997332, 259, 121, 274, 152
-0.997334, 377, 205, 392, 236
-0.997336, 359, 121, 374, 152
-0.997344, 413, 65, 444, 320
-0.997346, 445, 121, 460, 152
-0.997351, 443, 105, 458, 136
-0.997357, 483, 129, 498, 160
-0.997358, 385, 89, 400, 120
-0.997363, 363, 109, 378, 140
-0.997363, 393, 105, 408, 136
-0.997364, 217, 101, 232, 132
-0.997367, 325, 69, 340, 100
-0.997371, 251, 153, 266, 184
-0.997371, 283, 101, 298, 132
-0.997373, 475, 1, 490, 32
-0.997373, 15, 9, 30, 40
-0.997383, 247, 181, 262, 212
-0.997383, 7, 33, 22, 64
-0.997384, 309, 153, 324, 184
-0.997387, 447, 145, 462, 176
-0.997395, 343, 81, 358, 112
-0.997401, 459, 157, 474, 188
-0.997407, 313, 61, 328, 92
-0.997407, 233, 33, 264, 288
-0.997409, 265, 61, 280, 92
-0.997412, 59, 41, 74, 72
-0.99742, 357, 77, 372, 108
-0.997422, 407, 157, 422, 188
-0.997424, 35, 1, 50, 32
-0.997431, 331, 149, 346, 180
-0.997435, 273, 229, 400, 260
-0.997439, 245, 209, 260, 240
-0.997441, 465, 193, 480, 224
-0.997442, 475, 169, 490, 200
-0.997444, 49, 125, 176, 156
-0.997456, 261, 201, 276, 232
-0.997456, 251, 193, 266, 224
-0.997459, 383, 201, 398, 232
-0.997463, 373, 101, 388, 132
-0.997463, 17, 189, 144, 220
-0.9975, 225, 269, 352, 300
-0.997571, 113, 33, 144, 288
-0.997589, 161, 277, 288, 308
-0.997604, 161, 17, 416, 80
-0.997608, 97, 141, 224, 172
-0.997632, 49, 237, 176, 268
-0.997658, 129, 169, 256, 200
-0.997658, 161, 261, 288, 292
-0.997665, 17, 281, 144, 312
-0.997669, 1, 169, 128, 200
-0.997676, 401, 65, 432, 320
-0.997721, 321, 53, 448, 84
-0.997745, 1, 157, 128, 188
-0.997751, 17, 301, 144, 332
-0.997759, 77, 65, 108, 320
-0.997791, 113, 209, 240, 240
-0.997824, 113, 293, 240, 324
-0.997866, 1, 101, 128, 132
-0.997953, 113, 9, 240, 40
-0.997998, 1, 129, 128, 160
-0.998212, 17, 145, 144, 176
-0.998236, 53, 1, 68, 128
-0.99831, 89, 65, 120, 320
-0.998347, 41, 21, 104, 36
-0.998372, 425, 157, 488, 172
-0.998383, 433, 151, 496, 166
-0.998384, 393, 155, 456, 170
-0.998385, 337, 125, 400, 140
-0.99839, 425, 163, 488, 178
-0.998397, 113, 85, 176, 100
-0.998403, 41, 75, 104, 90
-0.998403, 63, 1, 78, 128
-0.998404, 425, 213, 488, 228
-0.998406, 49, 15, 112, 30
-0.998407, 57, 81, 120, 96
-0.998408, 337, 131, 400, 146
-0.998408, 241, 67, 304, 82
-0.99841, 289, 69, 352, 84
-0.998412, 361, 215, 424, 230
-0.998414, 393, 185, 456, 200
-0.998415, 1, 207, 64, 222
-0.998416, 425, 205, 488, 220
-0.998417, 369, 155, 432, 170
-0.998418, 417, 1, 480, 16
-0.998418, 473, 97, 488, 224
-0.99842, 345, 119, 408, 134
-0.998422, 345, 83, 408, 98
-0.998424, 425, 195, 488, 210
-0.998424, 141, 49, 156, 176
-0.998425, 57, 27, 120, 42
-0.998426, 17, 15, 80, 30
-0.998427, 25, 9, 88, 24
-0.99843, 25, 29, 88, 44
-0.998433, 393, 163, 456, 178
-0.998434, 329, 143, 392, 158
-0.998434, 289, 79, 352, 94
-0.998436, 433, 123, 496, 138
-0.998437, 385, 201, 448, 216
-0.998437, 193, 63, 256, 78
-0.998438, 201, 107, 264, 122
-0.998439, 345, 103, 408, 118
-0.99844, 465, 81, 480, 208
-0.998442, 65, 21, 128, 36
-0.998442, 483, 1, 498, 128
-0.998443, 217, 117, 280, 132
-0.998444, 57, 55, 120, 70
-0.998444, 1, 23, 64, 38
-0.998446, 233, 109, 296, 124
-0.998446, 425, 93, 488, 108
-0.998447, 17, 73, 80, 88
-0.998447, 249, 77, 312, 92
-0.998447, 433, 115, 496, 130
-0.998449, 425, 187, 488, 202
-0.99845, 409, 99, 472, 114
-0.99845, 33, 1, 96, 16
-0.998451, 345, 151, 408, 166
-0.998451, 369, 91, 432, 106
-0.998452, 217, 65, 280, 80
-0.998453, 1, 81, 64, 96
-0.998454, 233, 191, 296, 206
-0.998458, 89, 75, 152, 90
-0.998458, 321, 155, 384, 170
-0.998458, 1, 213, 64, 228
-0.99846, 81, 81, 144, 96
-0.99846, 385, 207, 448, 222
-0.998461, 25, 35, 88, 50
-0.998461, 369, 119, 432, 134
-0.998463, 27, 1, 42, 128
-0.998464, 425, 181, 488, 196
-0.998465, 233, 183, 296, 198
-0.998466, 17, 47, 80, 62
-0.998469, 425, 145, 488, 160
-0.99847, 401, 123, 464, 138
-0.998471, 385, 99, 448, 114
-0.998472, 249, 141, 312, 156
-0.998472, 193, 71, 256, 86
-0.998472, 57, 49, 120, 64
-0.998473, 249, 169, 312, 184
-0.998473, 105, 243, 168, 258
-0.998474, 345, 111, 408, 126
-0.998475, 329, 77, 392, 92
-0.998476, 373, 65, 388, 192
-0.998476, 113, 79, 176, 94
-0.998477, 241, 115, 304, 130
-0.998478, 321, 149, 384, 164
-0.998479, 425, 105, 488, 120
-0.998479, 153, 35, 216, 50
-0.998479, 17, 63, 80, 78
-0.99848, 17, 221, 80, 236
-0.998482, 9, 3, 72, 18
-0.998482, 369, 145, 432, 160
-0.998483, 369, 285, 432, 300
-0.998483, 369, 135, 432, 150
-0.998483, 209, 215, 272, 230
-0.998484, 65, 87, 128, 102
-0.998484, 255, 129, 270, 256
-0.998484, 49, 9, 112, 24
-0.998489, 369, 105, 432, 120
-0.99849, 89, 1, 104, 128
-0.998491, 353, 295, 416, 310
-0.998491, 241, 175, 304, 190
-0.998492, 273, 173, 336, 188
-0.998493, 401, 277, 464, 292
-0.998495, 401, 213, 464, 228
-0.998495, 337, 137, 400, 152
-0.998497, 185, 99, 248, 114
-0.998498, 361, 205, 424, 220
-0.998498, 297, 137, 360, 152
-0.998501, 393, 179, 456, 194
-0.998501, 425, 169, 488, 184
-0.998502, 177, 115, 240, 130
-0.998504, 65, 33, 128, 48
-0.998504, 369, 129, 432, 144
-0.998505, 153, 57, 216, 72
-0.998505, 385, 113, 448, 128
-0.998505, 289, 143, 352, 158
-0.998506, 193, 39, 256, 54
-0.998506, 417, 129, 480, 144
-0.998507, 273, 185, 336, 200
-0.998508, 257, 133, 320, 148
-0.998509, 289, 165, 352, 180
-0.998509, 265, 61, 328, 76
-0.998511, 1, 29, 64, 44
-0.998512, 89, 23, 152, 38
-0.998513, 393, 173, 456, 188
-0.998514, 433, 139, 496, 154
-0.998515, 297, 151, 360, 166
-0.998517, 41, 69, 104, 84
-0.998518, 209, 191, 272, 206
-0.998518, 33, 21, 64, 36
-0.998518, 249, 125, 312, 140
-0.998519, 17, 41, 80, 56
-0.998519, 257, 113, 288, 128
-0.998519, 293, 77, 324, 92
-0.998519, 109, 91, 140, 106
-0.99852, 385, 259, 448, 274
-0.99852, 45, 25, 76, 40
-0.99852, 105, 69, 168, 84
-0.99852, 53, 7, 84, 22
-0.998521, 145, 125, 208, 140
-0.998522, 233, 103, 296, 118
-0.998522, 409, 267, 472, 282
-0.998522, 177, 109, 240, 124
-0.998523, 365, 157, 396, 172
-0.998523, 233, 197, 296, 212
-0.998523, 265, 151, 296, 166
-0.998523, 401, 195, 464, 210
-0.998524, 265, 69, 328, 84
-0.998525, 25, 83, 88, 98
-0.998525, 393, 101, 424, 116
-0.998526, 153, 75, 216, 90
-0.998526, 1, 25, 32, 40
-0.998526, 33, 3, 64, 18
-0.998526, 345, 117, 376, 132
-0.998527, 289, 149, 320, 164
-0.998527, 261, 107, 292, 122
-0.998529, 277, 193, 308, 208
-0.99853, 149, 125, 180, 140
-0.99853, 453, 213, 484, 228
-0.99853, 5, 55, 36, 70
-0.99853, 97, 33, 128, 48
-0.998532, 417, 173, 448, 188
-0.998532, 457, 99, 488, 114
-0.998532, 385, 147, 416, 162
-0.998533, 349, 153, 380, 168
-0.998533, 451, 209, 466, 333
-0.998535, 465, 17, 496, 32
-0.998538, 121, 91, 152, 106
-0.998538, 309, 157, 340, 172
-0.998538, 483, 49, 498, 176
-0.998539, 253, 73, 284, 88
-0.998539, 249, 167, 280, 182
-0.998539, 133, 125, 164, 140
-0.99854, 141, 73, 172, 88
-0.998541, 393, 129, 424, 144
-0.998541, 381, 125, 412, 140
-0.998542, 89, 67, 120, 82
-0.998542, 405, 135, 436, 150
-0.998543, 253, 79, 284, 94
-0.998543, 89, 83, 120, 98
-0.998545, 357, 109, 388, 124
-0.998545, 357, 79, 388, 94
-0.998547, 457, 197, 488, 212
-0.998547, 61, 81, 92, 96
-0.998548, 61, 69, 92, 84
-0.998548, 17, 59, 48, 74
-0.998548, 229, 113, 260, 128
-0.998548, 453, 147, 484, 162
-0.998549, 365, 117, 396, 132
-0.998549, 281, 113, 296, 240
-0.998549, 65, 33, 96, 48
-0.99855, 137, 67, 168, 82
-0.99855, 257, 145, 288, 160
-0.998553, 369, 213, 400, 228
-0.998553, 425, 1, 456, 16
-0.998553, 453, 129, 484, 144
-0.998554, 393, 209, 424, 224
-0.998555, 465, 155, 496, 170
-0.998555, 1, 19, 32, 34
-0.998556, 365, 151, 396, 166
-0.998557, 245, 115, 276, 130
-0.998557, 457, 193, 472, 320
-0.998557, 445, 113, 476, 128
-0.998558, 377, 119, 408, 134
-0.998559, 9, 49, 40, 64
-0.998559, 241, 189, 272, 204
-0.99856, 189, 95, 220, 110
-0.99856, 137, 87, 168, 102
-0.99856, 437, 207, 468, 222
-0.998561, 1, 11, 32, 26
-0.998561, 53, 15, 84, 30
-0.998562, 233, 213, 264, 228
-0.998562, 379, 81, 394, 208
-0.998563, 341, 125, 372, 140
-0.998563, 61, 61, 92, 76
-0.998564, 107, 1, 122, 128
-0.998565, 345, 131, 376, 146
-0.998566, 109, 77, 140, 92
-0.998568, 441, 191, 472, 206
-0.998568, 45, 67, 76, 82
-0.99857, 385, 135, 416, 150
-0.998571, 241, 175, 272, 190
-0.998572, 301, 169, 332, 184
-0.998572, 141, 119, 172, 134
-0.998573, 349, 147, 380, 162
-0.998574, 137, 97, 168, 112
-0.998574, 13, 73, 44, 88
-0.998577, 37, 11, 68, 26
-0.998579, 373, 101, 404, 116
-0.998581, 93, 19, 124, 34
-0.998583, 375, 129, 390, 256
-0.998584, 253, 67, 284, 82
-0.998586, 329, 153, 360, 168
-0.998589, 467, 161, 482, 288
-0.99859, 385, 97, 400, 224
-0.998591, 129, 73, 160, 88
-0.998593, 313, 69, 344, 84
-0.998593, 249, 157, 280, 172
-0.998594, 389, 201, 420, 216
-0.998594, 341, 141, 372, 156
-0.998596, 465, 123, 496, 138
-0.998598, 457, 207, 488, 222
-0.998601, 93, 77, 124, 92
-0.998602, 49, 31, 80, 46
-0.998602, 333, 77, 364, 92
-0.998602, 209, 101, 240, 116
-0.998602, 217, 65, 248, 80
-0.998605, 229, 65, 260, 80
-0.998609, 441, 151, 472, 166
-0.998609, 237, 181, 268, 196
-0.998611, 77, 23, 108, 38
-0.998614, 453, 155, 484, 170
-0.998616, 129, 79, 160, 94
-0.998617, 457, 113, 488, 128
-0.998618, 453, 11, 484, 26
-0.998619, 221, 59, 252, 74
-0.998619, 113, 83, 144, 98
-0.99862, 441, 123, 472, 138
-0.998623, 13, 13, 44, 28
-0.998623, 101, 85, 132, 100
-0.998625, 241, 73, 272, 88
-0.998625, 33, 209, 64, 224
-0.998626, 81, 77, 112, 92
-0.998626, 469, 97, 500, 112
-0.998627, 445, 209, 460, 333
-0.99863, 313, 75, 344, 90
-0.99863, 141, 79, 172, 94
-0.998635, 373, 109, 404, 124
-0.998637, 389, 89, 420, 104
-0.99864, 385, 107, 416, 122
-0.998641, 461, 105, 492, 120
-0.998648, 457, 183, 488, 198
-0.998649, 221, 107, 252, 122
-0.998655, 19, 17, 34, 144
-0.998656, 61, 27, 92, 42
-0.998658, 149, 65, 164, 192
-0.998665, 297, 69, 328, 84
-0.998666, 11, 1, 26, 128
-0.998667, 69, 17, 100, 32
-0.99867, 329, 49, 344, 176
-0.998673, 113, 17, 128, 144
-0.998677, 461, 161, 492, 176
-0.998677, 363, 65, 378, 192
-0.998681, 125, 85, 156, 100
-0.998685, 407, 193, 422, 320
-0.998691, 363, 209, 378, 333
-0.998695, 381, 207, 412, 222
-0.998695, 147, 1, 162, 128
-0.998702, 407, 145, 422, 272
-0.998705, 261, 129, 276, 256
-0.998712, 241, 67, 272, 82
-0.998714, 57, 21, 88, 36
-0.998722, 3, 17, 18, 144
-0.998722, 439, 193, 454, 320
-0.998724, 197, 49, 212, 176
-0.998728, 475, 1, 490, 128
-0.998728, 375, 209, 390, 333
-0.99873, 245, 161, 260, 288
-0.998732, 443, 145, 458, 272
-0.998732, 349, 81, 364, 208
-0.998733, 451, 81, 466, 208
-0.998736, 479, 113, 494, 240
-0.998739, 157, 49, 172, 176
-0.99874, 53, 49, 68, 176
-0.998746, 253, 81, 268, 208
-0.998747, 97, 1, 112, 128
-0.99875, 369, 209, 384, 333
-0.998756, 455, 129, 470, 256
-0.998757, 53, 1, 84, 16
-0.998777, 341, 65, 356, 192
-0.998786, 401, 113, 416, 240
-0.998787, 449, 129, 464, 256
-0.998792, 101, 65, 132, 320
-0.998792, 287, 97, 302, 224
-0.998807, 293, 113, 308, 240
-0.998809, 459, 81, 474, 208
-0.99881, 369, 129, 384, 256
-0.998816, 303, 49, 318, 176
-0.998823, 69, 1, 84, 128
-0.998824, 355, 81, 370, 208
-0.998824, 119, 65, 134, 192
-0.998829, 381, 145, 396, 272
-0.998834, 393, 193, 408, 320
-0.998834, 135, 49, 150, 176
-0.998836, 59, 49, 74, 176
-0.998838, 471, 49, 486, 176
-0.998845, 293, 65, 308, 192
-0.998846, 303, 129, 318, 256
-0.998847, 79, 1, 94, 128
-0.998847, 335, 65, 350, 192
-0.998851, 391, 65, 406, 192
-0.998851, 309, 129, 324, 256
-0.998854, 469, 1, 484, 128
-0.998856, 351, 209, 366, 333
-0.998865, 445, 81, 460, 208
-0.99887, 47, 1, 62, 128
-0.998877, 391, 113, 406, 240
-0.998881, 439, 81, 454, 208
-0.998882, 397, 65, 412, 192
-0.998883, 409, 81, 424, 208
-0.998884, 381, 209, 396, 333
-0.9989, 237, 33, 252, 160
-0.998905, 259, 81, 274, 208
-0.998919, 477, 49, 492, 176
-0.99892, 413, 129, 428, 256
-0.998921, 39, 193, 54, 320
-0.998925, 417, 177, 432, 304
-0.998925, 139, 97, 154, 224
-0.998929, 141, 1, 156, 128
-0.998943, 247, 81, 262, 208
-0.998949, 461, 129, 476, 256
-0.998951, 207, 81, 222, 208
-0.998951, 119, 1, 134, 128
-0.998959, 99, 49, 114, 176
-0.998959, 35, 17, 50, 144
-0.99896, 45, 193, 60, 320
-0.998964, 315, 65, 330, 192
-0.998971, 385, 49, 400, 176
-0.998975, 351, 33, 366, 160
-0.998975, 217, 49, 232, 176
-0.998977, 361, 129, 376, 256
-0.998979, 425, 1, 440, 128
-0.99898, 287, 145, 302, 272
-0.998981, 471, 209, 486, 333
-0.998982, 343, 209, 358, 333
-0.998983, 485, 97, 500, 224
-0.998984, 329, 129, 344, 256
-0.998999, 277, 49, 292, 176
-0.999015, 27, 65, 42, 192
-0.999016, 253, 177, 268, 304
-0.999023, 477, 161, 492, 288
-0.999031, 333, 1, 348, 128
-0.999031, 21, 161, 36, 288
-0.999036, 243, 33, 258, 160
-0.999041, 81, 49, 96, 176
-0.999041, 87, 49, 102, 176
-0.999049, 323, 49, 338, 176
-0.999053, 15, 145, 30, 272
-0.999057, 403, 65, 418, 192
-0.999069, 287, 49, 302, 176
-0.999072, 125, 65, 140, 192
-0.999073, 239, 161, 254, 288
-0.999077, 203, 33, 218, 160
-0.999077, 461, 1, 476, 128
-0.999082, 337, 209, 352, 333
-0.999084, 309, 49, 324, 176
-0.999092, 379, 33, 394, 160
-0.9991, 131, 1, 146, 128
-0.999109, 249, 33, 264, 160
-0.999114, 323, 161, 338, 288
-0.999114, 191, 65, 206, 192
-0.999118, 357, 209, 372, 333
-0.999119, 433, 177, 448, 304
-0.99972, 133, 85, 148, 100
-0.999721, 201, 95, 216, 110
-0.999722, 465, 181, 480, 196
-0.999722, 481, 93, 496, 108
-0.999722, 253, 159, 268, 174
-0.999722, 261, 145, 276, 160
-0.999723, 467, 7, 482, 22
-0.999723, 401, 107, 416, 122
-0.999723, 473, 111, 488, 126
-0.999724, 407, 197, 422, 212
-0.999724, 123, 91, 138, 106
-0.999725, 259, 157, 274, 172
-0.999725, 469, 139, 484, 154
-0.999725, 1, 23, 16, 38
-0.999726, 447, 117, 462, 132
-0.999726, 459, 163, 474, 178
-0.999726, 55, 33, 70, 48
-0.999726, 435, 3, 450, 18
-0.999727, 409, 151, 424, 166
-0.999728, 113, 23, 128, 38
-0.999729, 197, 69, 212, 84
-0.999729, 73, 33, 88, 48
-0.99973, 149, 125, 164, 140
-0.999732, 39, 203, 54, 218
-0.999732, 377, 153, 392, 168
-0.999732, 11, 49, 26, 64
-0.999732, 355, 141, 370, 156
-0.999733, 315, 71, 330, 86
-0.999733, 139, 65, 154, 80
-0.999733, 481, 107, 496, 122
-0.999733, 241, 67, 256, 82
-0.999734, 27, 15, 42, 30
-0.999735, 289, 143, 304, 158
-0.999735, 349, 131, 364, 146
-0.999735, 305, 163, 320, 178
-0.999735, 265, 73, 280, 88
-0.999735, 221, 103, 236, 118
-0.999736, 255, 73, 270, 88
-0.999736, 123, 85, 138, 100
-0.999736, 59, 47, 74, 62
-0.999737, 409, 135, 424, 150
-0.999737, 465, 99, 480, 114
-0.999737, 459, 151, 474, 166
-0.999739, 447, 123, 462, 138
-0.999739, 253, 173, 268, 188
-0.999739, 7, 25, 22, 40
-0.999739, 263, 65, 278, 80
-0.999739, 79, 17, 94, 32
-0.999739, 1, 9, 16, 24
-0.99974, 257, 151, 272, 166
-0.999741, 141, 87, 156, 102
-0.999742, 229, 107, 244, 122
-0.999742, 455, 109, 470, 124
-0.999742, 223, 63, 238, 78
-0.999742, 245, 181, 260, 196
-0.999743, 155, 125, 170, 140
-0.999743, 213, 99, 228, 114
-0.999743, 377, 103, 392, 118
-0.999744, 385, 99, 400, 114
-0.999744, 451, 147, 466, 162
-0.999744, 1, 15, 16, 30
-0.999744, 333, 75, 348, 90
-0.999744, 385, 93, 400, 108
-0.999744, 85, 27, 100, 42
-0.999745, 465, 145, 480, 160
-0.999745, 151, 119, 166, 134
-0.999746, 103, 85, 118, 100
-0.999748, 237, 189, 252, 204
-0.999748, 111, 83, 126, 98
-0.999748, 77, 11, 92, 26
-0.999749, 7, 11, 22, 26
-0.999749, 389, 119, 404, 134
-0.99975, 83, 69, 98, 84
-0.99975, 357, 135, 372, 150
-0.999751, 257, 67, 272, 82
-0.999752, 145, 71, 160, 86
-0.999754, 235, 109, 250, 124
-0.999755, 473, 95, 488, 110
-0.999756, 465, 157, 480, 172
-0.999756, 157, 41, 172, 56
-0.999757, 219, 97, 234, 112
-0.999759, 387, 205, 402, 220
-0.99976, 407, 129, 422, 144
-0.99976, 467, 163, 482, 178
-0.999761, 59, 57, 74, 72
-0.999761, 11, 19, 26, 34
-0.999762, 139, 79, 154, 94
-0.999763, 55, 27, 70, 42
-0.999763, 55, 15, 70, 30
-0.999763, 245, 175, 260, 190
-0.999765, 473, 159, 488, 174
-0.999766, 223, 57, 238, 72
-0.999766, 261, 139, 276, 154
-0.999766, 329, 151, 344, 166
-0.999768, 143, 95, 158, 110
-0.999769, 345, 79, 360, 94
-0.999769, 393, 199, 408, 214
-0.999769, 407, 183, 422, 198
-0.999773, 53, 51, 68, 66
-0.999776, 93, 75, 108, 90
-0.999776, 339, 81, 354, 96
-0.999776, 227, 99, 242, 114
-0.999777, 467, 111, 482, 126
-0.999778, 77, 27, 92, 42
-0.999779, 109, 73, 124, 88
-0.999779, 485, 101, 500, 116
-0.999781, 465, 105, 480, 120
-0.999784, 457, 11, 472, 26
-0.999784, 137, 71, 152, 86
-0.999784, 69, 27, 84, 42
-0.999787, 249, 73, 264, 88
-0.99979, 401, 203, 416, 218
-0.999791, 57, 21, 72, 36
-0.999792, 253, 167, 268, 182
-0.999793, 61, 29, 76, 44
-0.999796, 117, 85, 132, 100
-0.999798, 65, 21, 80, 36
-0.9998, 151, 85, 166, 100
-0.999802, 131, 77, 146, 92
-0.999804, 85, 21, 100, 36
-0.999805, 425, 1, 440, 16
-0.999809, 247, 67, 262, 82
-0.999817, 145, 77, 160, 92
-0.999822, 387, 109, 402, 124
-0.999825, 475, 153, 490, 168
-0.999826, 151, 75, 166, 90
-0.999836, 107, 33, 122, 48
-0.999846, 467, 93, 482, 108
-0.999856, 83, 75, 98, 90
-0.99986, 473, 101, 488, 116
