1877
-0.484153, 1, 65, 500, 320
-0.516382, 1, 1, 500, 332
-0.597885, 257, 1, 500, 332
-0.60888, 33, 1, 288, 332
-0.665604, 161, 1, 416, 332
-0.684368, 193, 33, 448, 288
-0.739885, 97, 1, 352, 256
-0.753656, 1, 65, 256, 320
-0.883526, 113, 1, 240, 332
-0.885632, 1, 209, 500, 332
-0.885741, 33, 1, 160, 332
-0.887919, 337, 1, 464, 256
-0.893605, 129, 1, 256, 256
-0.895165, 1, 129, 500, 256
-0.898411, 321, 1, 448, 332
-0.903422, 369, 1, 496, 332
-0.903503, 161, 1, 288, 332
-0.903525, 241, 65, 368, 320
-0.907293, 49, 65, 176, 320
-0.912218, 257, 1, 384, 332
-0.912604, 177, 1, 304, 256
-0.912643, 289, 33, 416, 288
-0.917968, 209, 1, 336, 332
-0.921209, 1, 1, 500, 128
-0.922595, 1, 65, 128, 320
-0.93507, 97, 193, 352, 320
-0.936688, 225, 161, 480, 288
-0.937426, 1, 81, 500, 208
-0.938597, 33, 129, 288, 256
-0.939958, 1, 177, 256, 304
-0.940697, 1, 65, 256, 192
-0.942822, 161, 177, 288, 304
-0.944374, 225, 209, 480, 332
-0.944823, 209, 161, 272, 288
-0.946285, 81, 145, 144, 272
-0.946653, 209, 177, 336, 304
-0.948233, 1, 1, 256, 128
-0.950427, 225, 129, 352, 256
-0.950795, 161, 145, 224, 272
-0.951142, 257, 161, 320, 288
-0.95131, 129, 145, 384, 272
-0.951513, 145, 129, 272, 256
-0.953455, 97, 65, 352, 192
-0.955162, 225, 113, 480, 240
-0.955668, 337, 129, 464, 256
-0.957113, 81, 193, 208, 320
-0.957284, 57, 161, 120, 288
-0.957382, 33, 177, 160, 304
-0.957837, 185, 129, 248, 256
-0.958111, 217, 169, 280, 232
-0.958756, 385, 161, 448, 288
-0.95891, 129, 17, 384, 144
-0.958947, 257, 177, 384, 304
-0.96001, 281, 185, 344, 248
-0.960356, 225, 49, 480, 176
-0.961119, 233, 161, 296, 288
-0.961994, 433, 161, 496, 288
-0.962041, 369, 177, 496, 304
-0.962177, 97, 145, 224, 272
-0.962416, 121, 129, 184, 256
-0.962598, 409, 129, 472, 256
-0.962712, 241, 193, 304, 256
-0.962717, 297, 209, 360, 332
-0.962759, 57, 161, 120, 224
-0.963226, 193, 177, 256, 240
-0.96331, 321, 177, 448, 304
-0.963473, 241, 81, 304, 208
-0.963568, 33, 33, 160, 160
-0.963688, 281, 161, 344, 288
-0.963779, 97, 1, 224, 128
-0.964169, 209, 1, 336, 128
-0.964194, 129, 49, 256, 176
-0.964196, 129, 177, 192, 304
-0.964236, 17, 17, 80, 144
-0.964532, 185, 177, 248, 304
-0.964752, 241, 169, 304, 232
-0.964908, 49, 129, 176, 256
-0.96551, 209, 97, 272, 224
-0.965864, 385, 113, 448, 240
-0.96595, 305, 201, 368, 264
-0.965961, 97, 169, 160, 232
-0.966187, 417, 145, 480, 208
-0.966462, 393, 161, 456, 224
-0.966494, 145, 97, 208, 224
-0.966956, 265, 209, 328, 332
-0.967196, 57, 1, 120, 128
-0.967464, 417, 169, 480, 232
-0.967693, 225, 1, 480, 128
-0.968407, 241, 209, 304, 332
-0.968479, 73, 209, 136, 332
-0.968614, 33, 193, 96, 320
-0.96885, 89, 1, 152, 128
-0.969149, 401, 193, 464, 256
-0.96928, 1, 81, 128, 208
-0.969377, 161, 193, 224, 320
-0.969625, 225, 137, 288, 200
-0.96985, 257, 1, 384, 128
-0.970129, 81, 49, 208, 176
-0.970394, 73, 97, 136, 224
-0.970458, 145, 1, 272, 128
-0.970491, 241, 217, 304, 280
-0.97078, 233, 169, 264, 232
-0.971178, 49, 65, 112, 192
-0.971309, 305, 161, 368, 288
-0.971321, 89, 145, 152, 208
-0.971408, 177, 49, 304, 176
-0.971509, 377, 33, 440, 160
-0.971766, 129, 1, 192, 128
-0.97177, 201, 137, 264, 200
-0.971773, 433, 113, 496, 240
-0.971775, 1, 209, 64, 332
-0.972024, 361, 177, 424, 240
-0.972148, 281, 209, 344, 272
-0.972158, 409, 177, 472, 304
-0.972163, 41, 185, 104, 248
-0.972732, 177, 65, 240, 192
-0.972827, 121, 81, 184, 208
-0.973051, 217, 209, 280, 332
-0.973338, 121, 161, 184, 224
-0.973605, 201, 105, 264, 168
-0.97362, 105, 177, 168, 304
-0.973795, 353, 209, 416, 332
-0.973836, 217, 209, 280, 272
-0.973946, 97, 97, 224, 224
-0.973973, 281, 49, 344, 176
-0.974316, 33, 145, 96, 272
-0.974423, 145, 145, 208, 208
-0.974445, 265, 161, 328, 224
-0.974566, 9, 73, 72, 136
-0.974615, 81, 193, 144, 256
-0.974643, 377, 201, 440, 264
-0.974656, 329, 145, 392, 272
-0.974857, 353, 33, 416, 160
-0.975127, 209, 169, 336, 232
-0.975206, 161, 169, 288, 232
-0.975239, 361, 145, 424, 272
-0.97525, 305, 225, 368, 288
-0.975323, 305, 177, 368, 240
-0.975353, 49, 161, 176, 224
-0.975386, 129, 1, 192, 64
-0.975465, 121, 185, 184, 248
-0.975713, 297, 113, 360, 240
-0.975927, 245, 169, 276, 232
-0.975988, 417, 33, 480, 160
-0.975994, 329, 193, 392, 256
-0.976022, 57, 1, 120, 64
-0.9761, 97, 81, 160, 208
-0.976212, 233, 161, 264, 288
-0.976222, 25, 41, 88, 104
-0.976485, 17, 65, 80, 192
-0.976739, 409, 81, 472, 208
-0.976847, 169, 169, 232, 232
-0.976877, 129, 193, 256, 256
-0.977001, 409, 121, 472, 184
-0.977075, 305, 81, 432, 208
-0.97714, 177, 129, 240, 192
-0.977354, 17, 185, 80, 248
-0.977446, 9, 129, 72, 256
-0.977468, 385, 137, 448, 200
-0.977593, 337, 1, 464, 128
-0.977757, 241, 193, 368, 256
-0.977878, 265, 233, 328, 296
-0.977896, 25, 105, 88, 168
-0.978066, 317, 193, 348, 256
-0.978196, 225, 49, 352, 176
-0.978275, 433, 217, 496, 280
-0.978312, 121, 137, 184, 200
-0.978403, 49, 89, 112, 152
-0.978406, 201, 65, 264, 320
-0.978421, 257, 33, 320, 160
-0.978482, 193, 73, 256, 136
-0.978538, 369, 169, 496, 232
-0.978639, 245, 145, 276, 272
-0.978802, 49, 185, 80, 248
-0.978832, 89, 217, 152, 280
-0.978848, 49, 217, 176, 280
-0.978874, 329, 193, 392, 320
-0.978883, 305, 1, 368, 128
-0.978994, 217, 169, 248, 232
-0.978999, 17, 233, 80, 296
-0.979042, 169, 193, 232, 256
-0.979098, 229, 145, 260, 208
-0.979117, 145, 177, 208, 240
-0.97914, 153, 1, 216, 128
-0.97924, 233, 105, 296, 168
-0.979341, 129, 169, 160, 232
-0.979407, 57, 257, 120, 320
-0.979588, 233, 33, 296, 160
-0.979648, 177, 201, 304, 264
-0.979657, 1, 177, 128, 240
-0.979683, 113, 161, 240, 224
-0.979689, 297, 1, 360, 64
-0.979707, 145, 121, 208, 184
-0.979856, 57, 161, 88, 224
-0.979896, 393, 1, 456, 64
-0.979935, 81, 153, 112, 216
-0.979935, 33, 65, 96, 128
-0.979955, 249, 65, 312, 320
-0.980151, 81, 137, 208, 200
-0.980171, 361, 17, 424, 80
-0.980209, 289, 129, 416, 256
-0.980227, 161, 129, 288, 192
-0.980267, 33, 17, 96, 80
-0.980403, 81, 193, 208, 256
-0.980406, 369, 129, 496, 192
-0.980428, 161, 1, 224, 64
-0.98045, 321, 169, 448, 232
-0.980511, 377, 209, 440, 332
-0.980553, 353, 97, 416, 224
-0.980916, 285, 161, 316, 288
-0.980931, 241, 1, 304, 64
-0.980981, 153, 1, 216, 256
-0.981031, 305, 25, 368, 88
-0.981043, 1, 201, 128, 264
-0.981221, 1, 33, 64, 96
-0.981299, 337, 1, 400, 64
-0.981404, 117, 153, 148, 216
-0.981419, 1, 233, 128, 296
-0.981438, 201, 33, 264, 96
-0.981438, 417, 241, 480, 304
-0.981506, 409, 217, 472, 280
-0.981564, 329, 169, 392, 232
-0.981605, 289, 209, 416, 272
-0.981675, 225, 137, 352, 200
-0.981686, 401, 161, 432, 224
-0.981697, 233, 113, 264, 240
-0.981707, 65, 137, 128, 200
-0.981712, 241, 225, 368, 288
-0.981734, 225, 193, 256, 256
-0.981738, 9, 161, 72, 224
-0.981744, 265, 193, 296, 256
-0.981837, 385, 113, 448, 176
-0.98201, 65, 217, 128, 280
-0.982101, 245, 97, 276, 224
-0.982124, 1, 97, 64, 160
-0.982142, 445, 161, 476, 288
-0.982151, 265, 97, 328, 224
-0.982205, 433, 209, 496, 332
-0.982245, 217, 81, 280, 144
-0.98226, 433, 193, 496, 256
-0.982354, 253, 193, 284, 256
-0.982486, 421, 129, 452, 192
-0.982488, 257, 161, 288, 288
-0.982493, 177, 145, 208, 272
-0.982515, 297, 193, 328, 256
-0.98267, 297, 177, 328, 304
-0.9827, 369, 49, 496, 176
-0.98278, 409, 25, 472, 88
-0.982835, 281, 1, 344, 128
-0.982873, 425, 1, 488, 64
-0.982908, 225, 1, 288, 256
-0.982938, 89, 273, 152, 332
-0.982954, 177, 33, 240, 288
-0.98304, 329, 201, 360, 264
-0.98305, 413, 161, 444, 224
-0.983148, 221, 113, 252, 240
-0.983159, 5, 49, 36, 176
-0.98317, 161, 89, 224, 152
-0.983173, 129, 1, 192, 256
-0.983186, 1, 129, 128, 256
-0.983194, 169, 65, 232, 128
-0.983194, 353, 209, 416, 272
-0.98322, 113, 185, 144, 248
-0.983248, 201, 33, 264, 160
-0.983302, 309, 193, 340, 320
-0.983325, 453, 137, 484, 200
-0.983332, 81, 145, 112, 272
-0.983348, 1, 65, 128, 128
-0.983349, 57, 57, 120, 120
-0.983396, 221, 161, 252, 288
-0.983425, 257, 137, 320, 200
-0.983519, 17, 257, 80, 320
-0.98352, 205, 161, 236, 288
-0.983563, 249, 145, 280, 208
-0.983744, 157, 113, 188, 240
-0.983906, 153, 49, 216, 176
-0.983988, 189, 145, 220, 272
-0.984052, 97, 97, 128, 224
-0.984067, 141, 137, 172, 200
-0.984094, 433, 153, 464, 216
-0.984155, 225, 57, 288, 120
-0.984208, 57, 25, 120, 88
-0.984212, 121, 25, 184, 88
-0.984323, 161, 33, 224, 96
-0.984402, 25, 209, 88, 272
-0.98444, 193, 209, 256, 272
-0.984462, 93, 1, 124, 128
-0.984469, 369, 49, 432, 112
-0.984591, 1, 257, 128, 320
-0.984594, 329, 1, 392, 128
-0.984601, 385, 25, 448, 88
-0.984601, 137, 57, 200, 120
-0.984604, 329, 25, 392, 88
-0.98467, 65, 161, 96, 288
-0.984718, 237, 193, 268, 256
-0.984733, 209, 97, 336, 160
-0.984747, 369, 209, 496, 272
-0.984783, 121, 145, 152, 272
-0.984783, 105, 1, 168, 64
-0.984802, 33, 161, 96, 224
-0.98483, 81, 1, 144, 64
-0.984926, 421, 113, 452, 240
-0.985037, 177, 17, 240, 144
-0.985083, 89, 97, 152, 160
-0.985156, 69, 161, 100, 224
-0.985309, 433, 113, 496, 176
-0.985335, 65, 1, 192, 64
-0.985402, 301, 225, 332, 288
-0.985405, 265, 1, 328, 64
-0.985411, 257, 49, 320, 112
-0.985442, 161, 105, 288, 168
-0.985536, 1, 25, 128, 88
-0.985557, 425, 1, 488, 256
-0.985569, 281, 41, 344, 104
-0.985578, 461, 129, 492, 256
-0.985612, 321, 177, 352, 304
-0.985642, 173, 65, 204, 192
-0.985763, 89, 33, 152, 288
-0.985774, 321, 145, 448, 208
-0.985774, 309, 169, 340, 232
-0.985794, 297, 153, 360, 216
-0.985802, 1, 9, 64, 72
-0.98582, 21, 225, 52, 288
-0.985824, 417, 161, 448, 288
-0.985826, 269, 217, 300, 280
-0.985856, 313, 49, 376, 176
-0.985881, 105, 1, 136, 128
-0.985929, 105, 153, 136, 216
-0.985992, 49, 97, 176, 160
-0.986005, 245, 217, 276, 280
-0.986006, 89, 121, 152, 184
-0.986144, 17, 129, 80, 192
-0.986193, 137, 209, 200, 272
-0.986221, 41, 177, 72, 304
-0.98627, 289, 1, 416, 64
-0.98639, 53, 145, 84, 272
-0.986409, 41, 137, 104, 200
-0.986417, 141, 169, 172, 232
-0.986418, 257, 169, 384, 232
-0.986448, 185, 193, 216, 320
-0.986459, 1, 209, 64, 272
-0.986507, 321, 233, 448, 296
-0.986567, 273, 209, 304, 332
-0.986657, 393, 249, 456, 312
-0.986709, 453, 169, 484, 232
-0.986723, 273, 161, 304, 288
-0.986726, 97, 185, 128, 248
-0.98673, 405, 113, 436, 240
-0.986799, 17, 65, 48, 192
-0.986801, 1, 153, 128, 216
-0.986836, 77, 1, 108, 128
-0.98684, 249, 25, 312, 88
-0.986845, 393, 145, 424, 272
-0.986886, 97, 25, 160, 88
-0.986936, 329, 217, 392, 280
-0.987016, 129, 1, 160, 128
-0.987062, 177, 225, 304, 288
-0.987065, 225, 33, 288, 96
-0.987187, 29, 1, 60, 128
-0.987228, 17, 1, 80, 256
-0.987254, 49, 49, 176, 112
-0.987262, 273, 65, 336, 320
-0.987269, 145, 65, 272, 128
-0.987295, 1, 177, 32, 240
-0.987366, 257, 25, 384, 88
-0.987426, 197, 129, 228, 192
-0.987476, 257, 225, 288, 288
-0.987547, 305, 105, 432, 168
-0.987554, 113, 81, 176, 144
-0.987563, 49, 25, 176, 88
-0.9876, 425, 65, 488, 128
-0.987614, 433, 113, 464, 240
-0.987623, 37, 193, 68, 256
-0.987635, 153, 153, 184, 216
-0.987683, 225, 89, 256, 152
-0.987718, 97, 249, 160, 312
-0.987745, 233, 65, 264, 128
-0.987754, 157, 185, 188, 248
-0.987765, 369, 249, 496, 312
-0.987769, 109, 161, 140, 288
-0.987817, 41, 65, 104, 320
-0.987984, 193, 1, 256, 332
-0.987996, 393, 1, 456, 256
-0.988042, 193, 233, 256, 296
-0.988082, 97, 217, 224, 280
-0.988132, 273, 81, 336, 144
-0.988145, 225, 177, 288, 208
-0.988156, 13, 249, 44, 312
-0.988157, 113, 209, 176, 272
-0.988157, 333, 177, 364, 240
-0.988172, 97, 97, 224, 160
-0.98819, 205, 169, 236, 232
-0.988205, 285, 177, 316, 240
-0.98824, 385, 89, 448, 152
-0.988247, 433, 193, 464, 320
-0.988274, 181, 169, 212, 232
-0.98828, 313, 33, 376, 288
-0.988331, 237, 97, 268, 160
-0.98836, 213, 193, 244, 256
-0.988381, 165, 81, 196, 144
-0.98841, 369, 241, 432, 304
-0.988425, 157, 193, 188, 320
-0.988428, 345, 145, 408, 208
-0.988472, 137, 81, 200, 144
-0.988553, 225, 73, 352, 136
-0.988586, 449, 113, 480, 240
-0.988595, 285, 209, 316, 332
-0.988609, 93, 161, 124, 224
-0.988632, 13, 89, 44, 152
-0.988667, 433, 121, 464, 184
-0.988684, 9, 209, 40, 332
-0.988687, 53, 193, 84, 320
-0.988729, 297, 169, 328, 232
-0.988754, 381, 177, 412, 240
-0.988769, 317, 217, 348, 280
-0.988774, 1, 113, 128, 176
-0.988802, 337, 33, 400, 288
-0.988819, 233, 65, 264, 192
-0.988843, 113, 1, 240, 64
-0.988857, 353, 33, 480, 96
-0.988864, 441, 177, 472, 240
-0.988874, 25, 209, 56, 332
-0.988874, 449, 217, 480, 280
-0.988924, 169, 249, 232, 312
-0.988948, 49, 1, 112, 332
-0.988957, 409, 97, 472, 160
-0.98896, 81, 73, 144, 136
-0.988996, 209, 113, 240, 240
-0.989038, 49, 73, 176, 136
-0.989043, 113, 113, 176, 176
-0.989067, 193, 97, 224, 224
-0.98909, 285, 201, 316, 264
-0.989091, 129, 145, 160, 208
-0.989095, 257, 113, 384, 176
-0.989104, 205, 49, 236, 176
-0.989111, 89, 1, 152, 332
-0.989121, 65, 241, 192, 304
-0.989126, 257, 169, 288, 232
-0.989197, 17, 1, 144, 64
-0.9892, 49, 81, 80, 144
-0.989212, 13, 57, 44, 120
-0.989228, 93, 145, 124, 272
-0.989252, 357, 1, 388, 64
-0.989293, 337, 1, 464, 64
-0.989313, 469, 193, 500, 320
-0.98939, 161, 1, 224, 332
-0.989405, 77, 97, 108, 224
-0.989448, 33, 225, 64, 288
-0.989461, 249, 105, 280, 168
-0.989479, 241, 81, 304, 144
-0.989484, 273, 145, 400, 208
-0.989523, 57, 1, 88, 64
-0.989533, 137, 1, 200, 332
-0.989597, 409, 129, 440, 192
-0.989647, 293, 1, 324, 128
-0.989674, 313, 49, 376, 112
-0.989675, 241, 1, 368, 64
-0.989696, 9, 1, 72, 332
-0.989708, 321, 145, 384, 208
-0.989715, 445, 209, 476, 332
-0.989732, 237, 121, 268, 184
-0.98976, 257, 209, 288, 332
-0.989761, 265, 105, 328, 168
-0.98978, 273, 81, 400, 144
-0.989786, 213, 105, 244, 168
-0.98979, 265, 49, 296, 176
-0.989805, 225, 49, 352, 112
-0.989805, 145, 129, 176, 256
-0.989805, 25, 65, 56, 128
-0.989819, 201, 177, 264, 208
-0.989824, 389, 1, 420, 128
-0.989826, 385, 169, 448, 200
-0.989849, 65, 33, 128, 288
-0.989849, 129, 65, 160, 192
-0.989863, 329, 97, 392, 224
-0.989903, 281, 1, 312, 128
-0.989905, 417, 153, 480, 184
-0.98991, 393, 1, 456, 332
-0.989911, 117, 49, 148, 176
-0.989955, 97, 265, 224, 328
-0.989991, 85, 1, 116, 64
-0.990001, 309, 145, 340, 272
-0.990013, 81, 161, 144, 192
-0.99002, 149, 105, 180, 168
-0.990076, 185, 165, 248, 196
-0.990078, 445, 1, 476, 128
-0.99008, 369, 1, 432, 332
-0.99008, 141, 1, 172, 64
-0.990097, 197, 193, 228, 256
-0.990129, 265, 113, 296, 240
-0.990177, 49, 177, 112, 208
-0.990224, 369, 1, 400, 64
-0.99023, 305, 49, 432, 112
-0.990283, 133, 193, 164, 320
-0.990294, 165, 129, 196, 192
-0.990341, 65, 185, 96, 248
-0.990343, 57, 161, 120, 192
-0.990343, 217, 33, 248, 160
-0.990348, 225, 165, 288, 196
-0.990366, 1, 209, 32, 272
-0.990372, 245, 209, 276, 332
-0.990373, 193, 189, 256, 220
-0.990383, 345, 1, 408, 332
-0.990391, 45, 1, 76, 64
-0.990391, 45, 233, 76, 296
-0.990401, 269, 145, 300, 208
-0.990409, 1, 1, 32, 128
-0.990455, 225, 189, 288, 220
-0.990465, 321, 81, 448, 144
-0.990469, 425, 165, 488, 196
-0.990483, 257, 177, 320, 208
-0.990485, 345, 201, 376, 264
-0.990492, 305, 213, 368, 244
-0.990518, 169, 185, 200, 248
-0.990549, 49, 273, 176, 332
-0.990555, 1, 81, 32, 144
-0.990563, 129, 25, 256, 88
-0.990614, 53, 1, 84, 128
-0.990648, 289, 225, 320, 288
-0.99065, 281, 189, 344, 220
-0.990653, 41, 189, 104, 220
-0.990683, 177, 41, 304, 104
-0.990743, 453, 241, 484, 304
-0.990748, 257, 161, 320, 192
-0.990753, 273, 213, 336, 244
-0.990801, 153, 145, 216, 176
-0.990808, 437, 217, 468, 280
-0.990858, 233, 1, 296, 332
-0.990861, 337, 161, 368, 288
-0.990871, 169, 177, 232, 208
-0.990938, 181, 145, 212, 208
-0.990947, 193, 169, 224, 232
-0.990954, 293, 145, 324, 208
-0.990975, 273, 1, 304, 64
-0.990992, 469, 233, 500, 296
-0.991012, 185, 49, 216, 176
-0.991034, 273, 1, 336, 332
-0.991041, 225, 121, 256, 184
-0.991042, 113, 165, 176, 196
-0.991046, 153, 1, 184, 128
-0.991062, 193, 129, 256, 160
-0.991071, 465, 137, 496, 200
-0.9911, 29, 25, 60, 88
-0.991127, 373, 177, 404, 304
-0.991135, 129, 25, 160, 88
-0.991143, 233, 217, 296, 248
-0.991148, 117, 1, 148, 64
-0.991157, 73, 173, 136, 204
-0.991162, 465, 169, 496, 232
-0.991177, 41, 249, 104, 280
-0.99118, 305, 225, 368, 256
-0.991201, 101, 129, 132, 192
-0.991202, 57, 149, 120, 180
-0.99121, 397, 1, 428, 64
-0.991215, 17, 1, 48, 128
-0.991232, 193, 9, 320, 72
-0.991247, 305, 201, 368, 232
-0.991249, 417, 177, 480, 208
-0.991261, 273, 229, 336, 260
-0.991265, 453, 193, 484, 256
-0.991274, 393, 197, 456, 228
-0.991303, 289, 49, 320, 176
-0.99131, 105, 1, 168, 32
-0.991317, 105, 177, 168, 208
-0.99132, 145, 177, 176, 304
-0.99133, 133, 129, 164, 256
-0.991334, 113, 153, 176, 184
-0.991336, 357, 193, 388, 256
-0.991348, 9, 185, 72, 216
-0.991374, 1, 81, 64, 112
-0.99138, 29, 249, 60, 312
-0.99139, 425, 1, 488, 332
-0.991393, 1, 101, 64, 132
-0.991415, 421, 193, 452, 256
-0.991421, 385, 157, 448, 188
-0.991425, 209, 205, 272, 236
-0.991439, 89, 189, 152, 220
-0.991442, 61, 81, 92, 144
-0.991462, 249, 201, 312, 232
-0.991504, 289, 173, 352, 204
-0.991516, 161, 49, 192, 112
-0.991538, 161, 157, 224, 188
-0.991554, 393, 185, 456, 216
-0.991563, 1, 89, 128, 152
-0.991568, 137, 193, 168, 256
-0.991572, 469, 193, 500, 256
-0.991572, 65, 1, 96, 128
-0.991578, 81, 193, 112, 256
-0.991579, 137, 161, 200, 192
-0.991581, 169, 193, 200, 320
-0.99159, 225, 145, 288, 176
-0.991597, 185, 153, 248, 184
-0.991601, 137, 189, 200, 220
-0.991612, 89, 149, 152, 180
-0.991623, 333, 209, 364, 332
-0.991624, 261, 121, 292, 184
-0.991629, 233, 125, 296, 156
-0.991636, 397, 137, 428, 200
-0.991649, 321, 257, 448, 320
-0.991655, 273, 45, 336, 76
-0.991665, 9, 173, 72, 204
-0.991676, 41, 105, 72, 168
-0.991681, 17, 245, 80, 276
-0.991687, 369, 105, 496, 168
-0.991698, 245, 33, 276, 160
-0.991713, 413, 1, 444, 128
-0.991715, 425, 65, 456, 192
-0.991734, 161, 1, 192, 64
-0.991735, 97, 73, 224, 136
-0.991751, 201, 141, 264, 172
-0.991786, 65, 249, 128, 280
-0.991799, 249, 33, 312, 64
-0.991815, 49, 293, 112, 324
-0.991831, 41, 89, 104, 120
-0.991831, 65, 189, 128, 220
-0.991851, 81, 209, 144, 240
-0.991866, 409, 133, 472, 164
-0.991891, 121, 141, 184, 172
-0.991907, 457, 177, 488, 304
-0.991932, 369, 201, 432, 232
-0.991942, 405, 25, 436, 88
-0.991957, 433, 241, 496, 272
-0.991958, 377, 21, 440, 52
-0.991971, 145, 49, 176, 176
-0.991976, 29, 49, 60, 176
-0.991979, 73, 49, 136, 176
-0.991997, 17, 61, 80, 92
-0.992, 137, 49, 200, 80
-0.992, 129, 201, 192, 232
-0.992004, 177, 65, 240, 96
-0.992015, 97, 293, 160, 324
-0.992017, 217, 89, 280, 120
-0.992018, 137, 1, 200, 32
-0.992019, 57, 209, 120, 240
-0.992019, 169, 193, 232, 224
-0.99202, 329, 205, 392, 236
-0.992022, 385, 117, 448, 148
-0.992035, 369, 33, 432, 288
-0.992039, 229, 177, 260, 208
-0.992055, 269, 169, 300, 232
-0.992059, 73, 1, 104, 64
-0.992063, 65, 97, 96, 224
-0.992063, 281, 97, 312, 224
-0.992076, 321, 129, 352, 256
-0.992077, 81, 281, 144, 312
-0.992083, 289, 21, 352, 52
-0.992096, 33, 157, 96, 188
-0.992102, 113, 1, 176, 332
-0.99211, 257, 189, 320, 220
-0.992111, 417, 33, 480, 64
-0.992112, 93, 49, 124, 176
-0.992138, 305, 1, 368, 32
-0.99214, 181, 73, 212, 136
-0.992153, 33, 41, 96, 72
-0.992161, 249, 229, 312, 260
-0.992166, 49, 1, 112, 32
-0.992167, 53, 121, 84, 184
-0.992171, 369, 181, 432, 212
-0.992173, 1, 49, 32, 112
-0.992181, 17, 233, 80, 264
-0.992184, 385, 141, 448, 172
-0.992187, 137, 77, 200, 108
-0.992189, 401, 221, 464, 252
-0.99219, 305, 189, 368, 220
-0.992191, 313, 177, 376, 208
-0.992197, 313, 45, 376, 76
-0.992198, 65, 209, 96, 272
-0.9922, 177, 81, 240, 112
-0.992207, 401, 209, 464, 240
-0.99221, 417, 17, 480, 48
-0.992214, 433, 137, 496, 168
-0.992223, 249, 49, 312, 80
-0.992228, 313, 1, 376, 332
-0.992234, 433, 197, 496, 228
-0.992239, 385, 129, 448, 160
-0.992247, 281, 201, 344, 232
-0.992248, 273, 121, 304, 184
-0.992252, 65, 261, 128, 292
-0.992254, 185, 113, 216, 176
-0.992254, 137, 61, 200, 92
-0.992268, 17, 17, 80, 48
-0.992275, 105, 85, 168, 116
-0.992275, 161, 125, 224, 156
-0.992277, 65, 25, 96, 88
-0.992278, 425, 65, 488, 96
-0.99228, 245, 173, 276, 204
-0.992283, 49, 237, 112, 268
-0.992291, 161, 49, 224, 80
-0.9923, 257, 137, 320, 168
-0.992306, 1, 5, 64, 36
-0.992317, 25, 261, 88, 292
-0.992322, 409, 117, 472, 148
-0.992332, 49, 209, 80, 272
-0.99234, 57, 57, 120, 88
-0.99234, 305, 61, 368, 92
-0.99234, 97, 201, 352, 264
-0.992347, 461, 81, 492, 208
-0.992358, 225, 109, 288, 140
-0.992365, 221, 189, 252, 220
-0.992368, 117, 25, 148, 88
-0.99238, 65, 137, 96, 200
-0.992382, 369, 213, 432, 244
-0.992385, 205, 65, 236, 128
-0.992388, 25, 109, 88, 140
-0.992397, 221, 41, 252, 104
-0.992398, 25, 73, 88, 104
-0.9924, 137, 21, 200, 52
-0.992413, 385, 5, 448, 36
-0.992423, 209, 209, 240, 332
-0.992423, 273, 33, 336, 64
-0.992425, 81, 161, 112, 192
-0.992433, 401, 17, 432, 144
-0.992435, 137, 89, 200, 120
-0.992436, 113, 189, 176, 220
-0.992436, 97, 49, 224, 112
-0.992437, 241, 185, 272, 216
-0.992442, 185, 193, 216, 256
-0.992447, 49, 181, 80, 212
-0.992453, 337, 1, 368, 128
-0.992455, 305, 1, 336, 128
-0.992458, 345, 161, 408, 192
-0.99247, 201, 109, 264, 140
-0.992471, 369, 73, 496, 136
-0.992488, 305, 25, 432, 88
-0.99249, 257, 149, 320, 180
-0.992495, 41, 1, 72, 128
-0.992498, 129, 177, 192, 208
-0.99251, 281, 1, 344, 32
-0.99251, 417, 53, 480, 84
-0.992512, 433, 1, 464, 128
-0.992532, 273, 249, 400, 312
-0.992536, 61, 173, 92, 204
-0.992565, 257, 177, 500, 240
-0.992591, 349, 129, 380, 256
-0.992608, 157, 65, 188, 192
-0.992633, 117, 165, 148, 196
-0.992657, 129, 169, 160, 200
-0.992667, 217, 173, 248, 204
-0.992751, 121, 153, 152, 184
-0.99277, 449, 149, 480, 180
-0.992775, 409, 165, 440, 196
-0.992781, 449, 65, 480, 192
-0.992806, 33, 177, 288, 240
-0.992823, 229, 205, 260, 236
-0.992849, 309, 193, 340, 224
-0.992851, 101, 165, 132, 196
-0.992864, 233, 165, 264, 196
-0.992877, 113, 209, 144, 332
-0.992883, 209, 189, 240, 220
-0.992895, 225, 129, 256, 160
-0.992898, 433, 157, 464, 188
-0.992918, 321, 205, 352, 236
-0.992923, 61, 157, 92, 188
-0.992933, 253, 185, 284, 216
-0.992937, 289, 229, 320, 260
-0.992971, 113, 189, 144, 220
-0.992974, 141, 149, 172, 180
-0.992985, 249, 161, 280, 192
-0.992987, 397, 165, 428, 196
-0.992993, 205, 173, 236, 204
-0.993013, 49, 193, 80, 224
-0.993019, 165, 93, 196, 124
-0.993024, 309, 225, 340, 256
-0.993034, 177, 149, 208, 180
-0.99305, 429, 145, 460, 176
-0.993052, 117, 177, 148, 208
-0.993068, 269, 225, 300, 256
-0.993068, 37, 181, 68, 212
-0.993075, 265, 177, 296, 208
-0.993076, 97, 153, 128, 184
-0.993083, 297, 173, 328, 204
-0.993107, 241, 197, 272, 228
-0.993116, 237, 133, 268, 164
-0.993124, 221, 161, 252, 192
-0.993124, 149, 105, 180, 136
-0.993124, 301, 213, 332, 244
-0.993128, 97, 145, 352, 208
-0.993132, 141, 161, 172, 192
-0.993134, 417, 129, 448, 160
-0.993146, 97, 1, 128, 32
-0.993157, 265, 165, 296, 196
-0.993158, 49, 169, 80, 200
-0.993158, 53, 297, 84, 328
-0.993164, 413, 149, 444, 180
-0.993167, 389, 17, 420, 48
-0.993171, 241, 213, 272, 244
-0.993174, 77, 173, 108, 204
-0.993174, 225, 93, 256, 124
-0.993181, 193, 157, 224, 188
-0.993185, 409, 25, 440, 56
-0.993188, 433, 169, 464, 200
-0.993192, 245, 121, 276, 152
-0.993194, 293, 185, 324, 216
-0.993194, 73, 149, 104, 180
-0.993202, 401, 153, 432, 184
-0.993205, 385, 173, 416, 204
-0.993207, 321, 217, 352, 248
-0.993209, 129, 69, 160, 100
-0.993211, 453, 137, 484, 168
-0.993212, 145, 137, 176, 168
-0.993214, 61, 189, 92, 220
-0.993216, 233, 145, 264, 176
-0.993219, 37, 93, 68, 124
-0.99322, 245, 97, 276, 128
-0.993224, 45, 245, 76, 276
-0.993227, 421, 169, 452, 200
-0.993229, 97, 201, 128, 232
-0.993233, 253, 201, 284, 232
-0.993234, 209, 257, 336, 320
-0.993235, 301, 237, 332, 268
-0.99324, 137, 1, 168, 32
-0.993243, 321, 45, 352, 76
-0.993246, 169, 1, 200, 32
-0.993246, 425, 113, 456, 144
-0.993247, 101, 189, 132, 220
-0.993251, 313, 177, 344, 208
-0.993253, 229, 81, 260, 112
-0.993253, 61, 249, 92, 280
-0.993255, 449, 161, 480, 192
-0.993261, 113, 1, 144, 32
-0.993263, 289, 137, 320, 168
-0.993269, 285, 217, 316, 248
-0.99327, 25, 89, 56, 120
-0.993278, 301, 37, 332, 68
-0.993278, 425, 41, 456, 72
-0.993281, 33, 245, 64, 276
-0.993283, 217, 205, 248, 236
-0.993283, 321, 193, 352, 224
-0.993283, 197, 145, 228, 176
-0.993284, 333, 1, 364, 32
-0.993287, 105, 77, 136, 108
-0.993289, 65, 289, 96, 320
-0.993289, 77, 289, 108, 320
-0.993293, 457, 201, 488, 232
-0.993298, 273, 145, 304, 176
-0.9933, 157, 181, 188, 212
-0.993308, 145, 85, 176, 116
-0.993311, 45, 105, 76, 136
-0.993311, 261, 213, 292, 244
-0.993311, 37, 73, 68, 104
-0.993317, 441, 209, 472, 240
-0.993318, 165, 137, 196, 168
-0.993318, 377, 13, 408, 44
-0.993319, 369, 129, 400, 256
-0.993321, 269, 197, 300, 228
-0.993322, 281, 41, 312, 72
-0.993322, 1, 81, 32, 112
-0.993322, 165, 81, 196, 112
-0.993327, 173, 185, 204, 216
-0.99333, 465, 133, 496, 164
-0.99333, 333, 205, 364, 236
-0.99333, 185, 197, 216, 228
-0.993333, 89, 173, 120, 204
-0.993338, 181, 161, 212, 192
-0.993341, 129, 181, 160, 212
-0.993341, 29, 1, 60, 32
-0.993343, 1, 69, 32, 100
-0.993344, 229, 117, 260, 148
-0.993346, 193, 185, 224, 216
-0.993347, 93, 77, 124, 108
-0.993347, 133, 137, 164, 168
-0.993351, 297, 197, 328, 228
-0.993354, 469, 197, 500, 228
-0.993355, 281, 157, 312, 188
-0.993408, 405, 161, 436, 288
-0.993416, 53, 97, 84, 224
-0.993484, 361, 193, 392, 320
-0.993536, 129, 169, 384, 232
-0.993558, 221, 209, 252, 332
-0.99359, 1, 193, 500, 256
-0.993615, 369, 17, 400, 144
-0.993697, 73, 209, 104, 332
-0.993709, 117, 1, 148, 128
-0.993735, 161, 249, 288, 312
-0.993807, 201, 1, 232, 128
-0.993844, 161, 177, 288, 208
-0.993852, 173, 1, 204, 128
-0.993898, 1, 105, 256, 168
-0.993921, 349, 177, 380, 304
-0.993931, 229, 17, 260, 144
-0.994012, 141, 1, 172, 128
-0.994034, 385, 209, 416, 332
-0.994063, 297, 129, 328, 256
-0.994117, 237, 169, 252, 232
-0.99417, 265, 1, 296, 128
-0.994187, 113, 97, 144, 224
-0.994238, 245, 169, 260, 232
-0.994249, 5, 129, 36, 256
-0.994296, 381, 129, 412, 256
-0.994305, 225, 153, 480, 216
-0.994313, 349, 81, 380, 208
-0.994389, 225, 225, 480, 288
-0.994418, 113, 241, 240, 304
-0.994422, 401, 65, 432, 192
-0.994435, 247, 145, 262, 208
-0.994464, 231, 169, 246, 232
-0.994518, 33, 97, 64, 224
-0.994521, 1, 1, 256, 64
-0.994527, 257, 201, 500, 264
-0.994578, 1, 225, 256, 288
-0.99459, 51, 185, 66, 248
-0.994626, 1, 217, 500, 280
-0.994645, 225, 173, 352, 204
-0.994723, 209, 185, 336, 216
-0.994757, 129, 189, 256, 220
-0.994822, 225, 197, 352, 228
-0.994838, 1, 161, 500, 224
-0.994911, 33, 177, 160, 208
-0.99494, 129, 153, 144, 216
-0.994965, 97, 105, 352, 168
-0.994967, 93, 153, 108, 216
-0.995063, 253, 177, 268, 240
-0.995068, 369, 273, 496, 332
-0.995083, 423, 129, 438, 192
-0.995103, 57, 177, 72, 240
-0.995122, 121, 161, 136, 224
-0.995122, 97, 157, 224, 188
-0.99519, 419, 161, 434, 224
-0.995192, 135, 161, 150, 224
-0.995225, 1, 153, 256, 216
-0.995286, 1, 201, 256, 264
-0.995316, 437, 65, 468, 192
-0.995317, 233, 193, 248, 256
-0.995375, 309, 97, 340, 224
-0.995397, 325, 193, 340, 256
-0.995448, 57, 49, 88, 176
-0.995471, 105, 49, 136, 176
-0.995513, 161, 201, 288, 232
-0.995518, 225, 169, 240, 232
-0.995521, 85, 209, 116, 332
-0.99557, 241, 129, 256, 192
-0.995645, 143, 169, 158, 232
-0.995649, 161, 273, 288, 332
-0.995664, 413, 161, 428, 224
-0.995664, 129, 1, 384, 64
-0.995669, 1, 241, 500, 304
-0.995685, 253, 153, 268, 216
-0.995705, 49, 165, 176, 196
-0.99572, 317, 185, 332, 248
-0.995808, 273, 273, 400, 332
-0.995825, 1, 265, 256, 328
-0.995827, 257, 1, 500, 64
-0.995832, 267, 185, 282, 248
-0.995843, 49, 189, 176, 220
-0.995846, 209, 229, 336, 260
-0.995871, 313, 225, 328, 288
-0.995897, 161, 137, 288, 168
-0.995905, 309, 201, 324, 264
-0.995918, 103, 169, 118, 232
-0.995923, 225, 129, 480, 192
-0.99594, 61, 153, 76, 216
-0.995946, 17, 249, 144, 280
-0.995975, 73, 161, 88, 224
-0.995977, 321, 169, 448, 200
-0.996008, 113, 201, 240, 232
-0.996019, 257, 217, 384, 248
-0.996026, 261, 177, 276, 240
-0.996046, 115, 185, 130, 248
-0.996062, 97, 225, 352, 288
-0.996067, 161, 157, 288, 188
-0.996079, 259, 145, 274, 208
-0.996087, 333, 201, 348, 264
-0.996144, 113, 173, 240, 204
-0.996149, 319, 209, 334, 272
-0.996156, 281, 201, 296, 264
-0.996196, 257, 249, 500, 312
-0.996225, 451, 177, 466, 240
-0.996232, 145, 93, 272, 124
-0.996234, 227, 193, 242, 256
-0.996254, 63, 177, 78, 240
-0.99627, 149, 145, 164, 208
-0.99628, 159, 153, 174, 216
-0.996287, 67, 153, 82, 216
-0.996296, 457, 145, 472, 208
-0.996297, 1, 137, 500, 200
-0.996301, 369, 153, 496, 184
-0.996305, 65, 85, 192, 116
-0.996305, 369, 173, 496, 204
-0.99632, 273, 193, 288, 256
-0.99632, 121, 185, 136, 248
-0.996328, 417, 129, 432, 192
-0.99633, 259, 217, 274, 280
-0.996335, 1, 265, 500, 328
-0.996356, 1, 1, 500, 64
-0.996375, 33, 293, 160, 324
-0.996395, 65, 41, 320, 104
-0.996397, 1, 237, 128, 268
-0.996407, 127, 177, 142, 240
-0.996417, 191, 161, 206, 224
-0.99642, 257, 25, 500, 88
-0.996441, 443, 201, 458, 264
-0.996466, 199, 129, 214, 192
-0.996471, 209, 137, 336, 168
-0.996481, 85, 161, 100, 224
-0.996517, 305, 209, 432, 240
-0.996518, 79, 169, 94, 232
-0.996518, 97, 177, 112, 240
-0.996529, 429, 153, 444, 216
-0.996545, 449, 217, 464, 280
-0.996551, 225, 161, 352, 192
-0.996556, 209, 213, 336, 244
-0.99658, 275, 225, 290, 288
-0.996591, 97, 145, 224, 176
-0.996601, 219, 169, 234, 232
-0.996607, 441, 161, 456, 224
-0.996617, 247, 193, 262, 256
-0.996629, 185, 169, 200, 232
-0.996635, 399, 161, 414, 224
-0.996637, 235, 145, 250, 208
-0.99665, 129, 81, 384, 144
-0.996651, 225, 65, 480, 128
-0.99666, 105, 193, 120, 256
-0.996661, 289, 229, 416, 260
-0.996683, 185, 145, 200, 208
-0.996691, 225, 121, 352, 152
-0.996706, 65, 245, 192, 276
-0.996709, 161, 105, 176, 168
-0.996711, 1, 77, 128, 108
-0.996714, 451, 153, 466, 216
-0.996715, 97, 265, 352, 328
-0.996727, 237, 105, 252, 168
-0.99673, 289, 1, 304, 64
-0.996742, 49, 217, 176, 248
-0.996749, 37, 225, 52, 288
-0.996755, 11, 81, 26, 144
-0.996758, 455, 217, 470, 280
-0.996767, 17, 277, 144, 308
-0.996773, 49, 97, 176, 128
-0.996781, 265, 225, 280, 288
-0.996785, 31, 225, 46, 288
-0.996788, 145, 125, 272, 156
-0.996791, 307, 241, 322, 304
-0.996793, 331, 177, 346, 240
-0.99681, 43, 225, 58, 288
-0.996816, 339, 201, 354, 264
-0.996817, 325, 169, 340, 232
-0.996837, 161, 213, 288, 244
-0.996851, 143, 137, 158, 200
-0.996851, 21, 73, 36, 136
-0.996854, 239, 193, 254, 256
-0.996857, 113, 213, 240, 244
-0.996863, 157, 129, 172, 192
-0.996872, 405, 161, 420, 224
-0.996888, 387, 177, 402, 240
-0.99691, 3, 185, 18, 248
-0.996924, 457, 177, 472, 240
-0.996925, 247, 173, 262, 204
-0.996926, 229, 177, 244, 208
-0.996927, 15, 49, 30, 112
-0.996932, 49, 205, 176, 236
-0.996933, 199, 161, 214, 224
-0.996954, 1, 93, 128, 124
-0.996955, 165, 129, 180, 192
-0.996956, 55, 209, 70, 272
-0.996958, 171, 89, 186, 152
-0.996963, 27, 49, 42, 112
-0.996964, 69, 185, 84, 248
-0.99697, 225, 105, 480, 168
-0.996977, 113, 161, 128, 224
-0.996982, 369, 129, 496, 160
-0.996996, 49, 225, 64, 288
-0.997, 467, 169, 482, 232
-0.997002, 239, 173, 254, 204
-0.997012, 161, 41, 416, 104
-0.997016, 175, 177, 190, 240
-0.997017, 321, 197, 448, 228
-0.997025, 1, 165, 128, 196
-0.99704, 289, 185, 416, 216
-0.997041, 485, 121, 500, 184
-0.997045, 61, 1, 76, 64
-0.997046, 21, 217, 36, 280
-0.997055, 393, 177, 408, 240
-0.997057, 159, 81, 174, 144
-0.997057, 429, 113, 444, 176
-0.997069, 439, 137, 454, 200
-0.997071, 249, 121, 264, 184
-0.997086, 43, 193, 58, 256
-0.997091, 229, 89, 244, 152
-0.997097, 463, 137, 478, 200
-0.997101, 67, 1, 82, 64
-0.997101, 63, 217, 78, 280
-0.997103, 1, 65, 16, 128
-0.997108, 369, 141, 496, 172
-0.997114, 473, 233, 488, 296
-0.997122, 117, 273, 132, 332
-0.997123, 221, 201, 236, 264
-0.997129, 31, 257, 46, 320
-0.997131, 15, 249, 30, 312
-0.997138, 283, 225, 298, 288
-0.997138, 253, 217, 268, 280
-0.997143, 15, 217, 30, 280
-0.997145, 121, 161, 136, 192
-0.997179, 49, 153, 176, 184
-0.997184, 49, 105, 64, 168
-0.997187, 369, 185, 496, 216
-0.997195, 99, 201, 114, 264
-0.997199, 87, 9, 102, 72
-0.997201, 311, 177, 326, 240
-0.997206, 57, 81, 72, 144
-0.997211, 371, 1, 386, 64
-0.997216, 63, 81, 78, 144
-0.997222, 33, 81, 288, 144
-0.997225, 163, 1, 178, 64
-0.997228, 231, 189, 246, 220
-0.997229, 97, 105, 224, 136
-0.997232, 303, 217, 318, 280
-0.997236, 1, 261, 128, 292
-0.997244, 273, 173, 400, 204
-0.997246, 399, 1, 414, 64
-0.997254, 369, 205, 496, 236
-0.997256, 305, 157, 432, 188
-0.997256, 351, 209, 366, 272
-0.997267, 161, 41, 288, 72
-0.997268, 53, 181, 68, 212
-0.997271, 287, 201, 302, 264
-0.997272, 187, 121, 202, 184
-0.997304, 49, 229, 176, 260
-0.997316, 1, 41, 500, 104
-0.997341, 1, 197, 128, 228
-0.997346, 133, 165, 148, 196
-0.997409, 209, 149, 336, 180
-0.99741, 225, 53, 352, 84
-0.997421, 243, 185, 258, 216
-0.997462, 91, 157, 106, 188
-0.997487, 127, 153, 142, 184
-0.997492, 209, 105, 336, 136
-0.997539, 1, 129, 256, 192
-0.997542, 185, 33, 216, 288
-0.997544, 249, 65, 280, 320
-0.997558, 121, 173, 136, 204
-0.997574, 1, 113, 500, 176
-0.997579, 33, 17, 160, 48
-0.9976, 33, 5, 160, 36
-0.997609, 59, 173, 74, 204
-0.997615, 209, 33, 240, 288
-0.997625, 129, 33, 160, 288
-0.997629, 1, 65, 128, 96
-0.997652, 337, 237, 464, 268
-0.997672, 161, 249, 288, 280
-0.997674, 65, 261, 192, 292
-0.997696, 237, 189, 252, 220
-0.997713, 49, 41, 176, 72
-0.997717, 229, 65, 260, 320
-0.997723, 241, 241, 368, 272
-0.997737, 145, 105, 272, 136
-0.997741, 97, 1, 224, 32
-0.997744, 229, 165, 244, 196
-0.997747, 1, 225, 128, 256
-0.997747, 225, 189, 240, 220
-0.997754, 69, 157, 84, 188
-0.997755, 253, 169, 268, 200
-0.997764, 259, 169, 274, 200
-0.997767, 209, 41, 336, 72
-0.997776, 97, 17, 224, 48
-0.997779, 257, 81, 384, 112
-0.997799, 77, 1, 108, 256
-0.997809, 127, 169, 142, 200
-0.997827, 353, 29, 480, 60
-0.997829, 115, 189, 130, 220
-0.997839, 1, 105, 128, 136
-0.997846, 263, 181, 278, 212
-0.997846, 253, 181, 268, 212
-0.997855, 237, 129, 252, 160
-0.997865, 13, 1, 44, 256
-0.997868, 337, 73, 464, 104
-0.997882, 369, 257, 496, 288
-0.997885, 273, 137, 400, 168
-0.99789, 425, 117, 440, 148
-0.9979, 113, 29, 240, 60
-0.99791, 221, 177, 236, 208
-0.997913, 59, 189, 74, 220
-0.997922, 305, 41, 432, 72
-0.997926, 289, 5, 416, 36
-0.997931, 369, 225, 496, 256
-0.997939, 337, 13, 464, 44
-0.997946, 97, 161, 112, 192
-0.997948, 97, 53, 224, 84
-0.99795, 65, 73, 192, 104
-0.99795, 161, 73, 288, 104
-0.997956, 317, 189, 332, 220
-0.99796, 1, 149, 128, 180
-0.997964, 113, 237, 240, 268
-0.997984, 139, 169, 154, 200
-0.997986, 169, 1, 200, 256
-0.997988, 1, 213, 128, 244
-0.99799, 113, 253, 240, 284
-0.997999, 369, 45, 496, 76
-0.998005, 113, 41, 240, 72
-0.998007, 415, 165, 430, 196
-0.998007, 1, 29, 128, 60
-0.998031, 261, 65, 292, 320
-0.998037, 307, 221, 322, 252
-0.998052, 17, 53, 144, 84
-0.998053, 257, 97, 384, 128
-0.998064, 199, 149, 214, 180
-0.998071, 113, 81, 240, 112
-0.998072, 209, 85, 336, 116
-0.998075, 225, 65, 352, 96
-0.998075, 327, 197, 342, 228
-0.998081, 231, 205, 246, 236
-0.998084, 85, 161, 100, 192
-0.998086, 423, 129, 438, 160
-0.99811, 289, 53, 416, 84
-0.99812, 197, 1, 228, 256
-0.99812, 189, 149, 204, 180
-0.998121, 157, 33, 188, 288
-0.998131, 429, 169, 444, 200
-0.998132, 49, 137, 176, 168
-0.998132, 303, 237, 318, 268
-0.998136, 115, 169, 130, 200
-0.998138, 75, 173, 90, 204
-0.998143, 243, 137, 258, 168
-0.998149, 421, 165, 436, 196
-0.99815, 335, 205, 350, 236
-0.998165, 209, 1, 336, 32
-0.998167, 145, 157, 160, 188
-0.998173, 209, 29, 336, 60
-0.998174, 47, 185, 62, 216
-0.998186, 243, 197, 258, 228
-0.998188, 97, 173, 112, 204
-0.998195, 323, 209, 338, 240
-0.998197, 309, 233, 324, 264
-0.9982, 97, 285, 224, 316
-0.998202, 195, 161, 210, 192
-0.998206, 65, 173, 80, 204
-0.998209, 305, 113, 432, 144
-0.998228, 161, 225, 288, 256
-0.998237, 289, 241, 416, 272
-0.998248, 427, 157, 442, 188
-0.998253, 257, 37, 384, 68
-0.998259, 109, 293, 124, 324
-0.998263, 289, 65, 416, 96
-0.998271, 405, 1, 436, 256
-0.998275, 273, 197, 400, 228
-0.998285, 337, 85, 464, 116
-0.998286, 157, 149, 172, 180
-0.998286, 121, 185, 136, 216
-0.998288, 317, 65, 348, 320
-0.99829, 65, 29, 192, 60
-0.998294, 67, 293, 82, 324
-0.998295, 225, 273, 480, 332
-0.998309, 321, 125, 448, 156
-0.99831, 237, 161, 252, 192
-0.998321, 313, 221, 328, 252
-0.998321, 151, 137, 166, 168
-0.998327, 429, 1, 460, 256
-0.998331, 37, 245, 52, 276
-0.998337, 277, 231, 308, 246
-0.998337, 257, 145, 288, 160
-0.998337, 297, 141, 328, 156
-0.998338, 425, 125, 456, 140
-0.998338, 197, 163, 228, 178
-0.998338, 273, 153, 304, 168
-0.998339, 433, 33, 464, 48
-0.998339, 165, 149, 196, 164
-0.998339, 181, 157, 212, 172
-0.99834, 53, 305, 84, 320
-0.998341, 225, 95, 256, 110
-0.998342, 57, 289, 88, 304
-0.998342, 53, 247, 84, 262
-0.998343, 241, 213, 272, 228
-0.998344, 305, 173, 336, 188
-0.998345, 233, 79, 264, 94
-0.998345, 377, 15, 408, 30
-0.998348, 17, 105, 48, 120
-0.998348, 225, 107, 256, 122
-0.998348, 337, 61, 464, 92
-0.998349, 269, 45, 300, 60
-0.99835, 449, 169, 480, 184
-0.99835, 185, 145, 216, 160
-0.99835, 157, 143, 188, 158
-0.998351, 17, 93, 48, 108
-0.998352, 261, 173, 292, 188
-0.998352, 277, 223, 308, 238
-0.998352, 225, 167, 256, 182
-0.998355, 5, 99, 36, 114
-0.998356, 297, 243, 328, 258
-0.998356, 241, 99, 272, 114
-0.998356, 213, 127, 244, 142
-0.998357, 433, 145, 464, 160
-0.998359, 41, 105, 72, 120
-0.99836, 1, 91, 32, 106
-0.998361, 241, 93, 272, 108
-0.998364, 149, 107, 180, 122
-0.998364, 25, 77, 56, 92
-0.998365, 65, 273, 192, 304
-0.998365, 421, 39, 452, 54
-0.998366, 213, 169, 244, 184
-0.998366, 185, 73, 200, 104
-0.998366, 197, 151, 228, 166
-0.998366, 41, 111, 72, 126
-0.998367, 25, 249, 56, 264
-0.998367, 193, 169, 224, 184
-0.998368, 161, 105, 176, 136
-0.998369, 197, 199, 228, 214
-0.998369, 421, 149, 436, 180
-0.99837, 217, 203, 248, 218
-0.998371, 245, 167, 276, 182
-0.998371, 65, 185, 96, 200
-0.998372, 133, 177, 148, 208
-0.998372, 205, 191, 236, 206
-0.998372, 225, 89, 256, 104
-0.998372, 29, 255, 60, 270
-0.998373, 89, 293, 104, 324
-0.998373, 69, 175, 100, 190
-0.998373, 25, 99, 56, 114
-0.998373, 249, 219, 280, 234
-0.998374, 97, 157, 128, 172
-0.998374, 305, 229, 336, 244
-0.998377, 109, 185, 124, 216
-0.998377, 301, 225, 316, 256
-0.998377, 265, 229, 296, 244
-0.998378, 149, 137, 180, 152
-0.998379, 245, 139, 276, 154
-0.998381, 177, 193, 208, 208
-0.998381, 173, 141, 204, 156
-0.998382, 293, 169, 324, 184
-0.998382, 61, 65, 92, 320
-0.998382, 253, 185, 284, 200
-0.998383, 449, 161, 480, 176
-0.998383, 421, 131, 452, 146
-0.998385, 297, 189, 328, 204
-0.998386, 39, 97, 54, 128
-0.998387, 129, 179, 160, 194
-0.998387, 129, 155, 160, 170
-0.998387, 109, 191, 140, 206
-0.998388, 243, 161, 258, 192
-0.998391, 49, 109, 176, 140
-0.998391, 247, 121, 262, 152
-0.998392, 313, 201, 328, 232
-0.998392, 61, 191, 92, 206
-0.998392, 413, 163, 444, 178
-0.998393, 193, 157, 224, 172
-0.998393, 37, 309, 68, 324
-0.998395, 305, 235, 336, 250
-0.998397, 201, 183, 232, 198
-0.998398, 65, 157, 96, 172
-0.998399, 53, 115, 84, 130
-0.9984, 279, 225, 294, 256
-0.9984, 301, 217, 332, 232
-0.998402, 321, 207, 352, 222
-0.998402, 393, 23, 424, 38
-0.998402, 57, 229, 72, 260
-0.998403, 233, 143, 264, 158
-0.998403, 297, 223, 328, 238
-0.998403, 317, 217, 348, 232
-0.998404, 107, 1, 122, 32
-0.998405, 225, 101, 256, 116
-0.998405, 97, 133, 224, 164
-0.998405, 65, 249, 80, 280
-0.998405, 433, 155, 464, 170
-0.998405, 23, 77, 38, 108
-0.998405, 237, 201, 268, 216
-0.998406, 453, 151, 484, 166
-0.998406, 249, 153, 264, 184
-0.998407, 433, 171, 464, 186
-0.998409, 13, 253, 44, 268
-0.998409, 225, 173, 256, 188
-0.99841, 177, 151, 208, 166
-0.99841, 141, 163, 172, 178
-0.998412, 77, 159, 108, 174
-0.998412, 317, 173, 332, 204
-0.998412, 409, 31, 440, 46
-0.998413, 5, 85, 36, 100
-0.998414, 273, 65, 304, 320
-0.998415, 289, 229, 320, 244
-0.998415, 171, 93, 186, 124
-0.998415, 133, 153, 148, 184
-0.998418, 117, 185, 148, 200
-0.998418, 37, 187, 68, 202
-0.998418, 321, 141, 448, 172
-0.998418, 101, 163, 132, 178
-0.99842, 219, 189, 234, 220
-0.99842, 117, 179, 148, 194
-0.998423, 289, 237, 320, 252
-0.998424, 7, 81, 22, 112
-0.998425, 229, 211, 260, 226
-0.998429, 177, 17, 304, 48
-0.99843, 429, 161, 460, 176
-0.998431, 317, 199, 348, 214
-0.998433, 49, 193, 80, 208
-0.998433, 137, 169, 168, 184
-0.998436, 225, 181, 288, 196
-0.998442, 143, 181, 158, 212
-0.998444, 229, 191, 260, 206
-0.998445, 205, 153, 220, 184
-0.998445, 65, 167, 96, 182
-0.998446, 309, 191, 340, 206
-0.998449, 53, 193, 68, 224
-0.998449, 105, 175, 136, 190
-0.998451, 175, 77, 190, 108
-0.998455, 257, 109, 384, 140
-0.998455, 81, 171, 112, 186
-0.998455, 265, 49, 280, 80
-0.998459, 121, 293, 136, 324
-0.998461, 401, 165, 416, 196
-0.998461, 341, 209, 356, 240
-0.998462, 249, 173, 280, 188
-0.998462, 265, 169, 280, 200
-0.998462, 373, 1, 404, 256
-0.998462, 401, 169, 432, 184
-0.998463, 213, 175, 244, 190
-0.998466, 121, 161, 152, 176
-0.998467, 177, 181, 192, 212
-0.998467, 213, 185, 244, 200
-0.998468, 217, 175, 280, 190
-0.99847, 53, 181, 84, 196
-0.998471, 89, 167, 152, 182
-0.998472, 25, 1, 56, 256
-0.998473, 97, 289, 112, 320
-0.998474, 147, 49, 162, 80
-0.998479, 307, 169, 322, 200
-0.998481, 215, 177, 230, 208
-0.998482, 239, 209, 254, 240
-0.998486, 219, 165, 234, 196
-0.998486, 385, 169, 448, 184
-0.998486, 29, 93, 44, 124
-0.998488, 413, 169, 444, 184
-0.998488, 217, 191, 248, 206
-0.998489, 309, 189, 324, 220
-0.99849, 193, 179, 256, 194
-0.998491, 105, 1, 136, 256
-0.998492, 217, 187, 280, 202
-0.998493, 117, 1, 148, 256
-0.998494, 1, 1, 32, 256
-0.998497, 309, 245, 324, 276
-0.998498, 409, 165, 424, 196
-0.998499, 231, 133, 246, 164
-0.9985, 453, 149, 468, 180
-0.998502, 257, 21, 384, 52
-0.998504, 101, 169, 132, 184
-0.998505, 57, 175, 88, 190
-0.998505, 125, 173, 156, 188
-0.998505, 225, 133, 256, 148
-0.998507, 249, 197, 264, 228
-0.998511, 401, 213, 416, 244
-0.998513, 451, 213, 466, 244
-0.998516, 237, 117, 252, 148
-0.998516, 417, 163, 480, 178
-0.998517, 387, 173, 402, 204
-0.998517, 103, 181, 118, 212
-0.99852, 185, 165, 200, 196
-0.998522, 57, 167, 120, 182
-0.998526, 81, 165, 112, 180
-0.998526, 227, 89, 242, 120
-0.998527, 267, 221, 282, 252
-0.998527, 113, 65, 240, 96
-0.998529, 65, 185, 80, 216
-0.998529, 41, 187, 104, 202
-0.998529, 241, 185, 272, 200
-0.998531, 181, 85, 196, 116
-0.998533, 113, 1, 128, 32
-0.998534, 417, 125, 432, 156
-0.998536, 441, 161, 456, 192
-0.998537, 167, 105, 182, 136
-0.998539, 89, 161, 152, 176
-0.99854, 161, 53, 288, 84
-0.998541, 97, 173, 160, 188
-0.998544, 29, 81, 44, 112
-0.998544, 315, 233, 330, 264
-0.998545, 113, 167, 176, 182
-0.998546, 241, 175, 304, 190
-0.998549, 249, 179, 280, 194
-0.998553, 1, 41, 128, 72
-0.998555, 257, 205, 272, 236
-0.998555, 385, 175, 448, 190
-0.998555, 305, 25, 432, 56
-0.998556, 121, 167, 152, 182
-0.998557, 141, 33, 172, 288
-0.998559, 73, 173, 136, 188
-0.99856, 33, 105, 48, 136
-0.998561, 45, 101, 60, 132
-0.998562, 57, 161, 120, 176
-0.998564, 273, 225, 288, 256
-0.998568, 49, 179, 112, 194
-0.99857, 183, 145, 198, 176
-0.99857, 185, 185, 248, 200
-0.998572, 153, 147, 216, 162
-0.998573, 97, 297, 224, 328
-0.998574, 193, 171, 256, 186
-0.998575, 249, 133, 264, 164
-0.998576, 147, 1, 162, 32
-0.998576, 165, 141, 180, 172
-0.998577, 281, 193, 344, 208
-0.998578, 153, 157, 216, 172
-0.99858, 17, 189, 80, 204
-0.998584, 357, 1, 388, 256
-0.998588, 225, 193, 288, 208
-0.998589, 425, 171, 488, 186
-0.998592, 229, 185, 260, 200
-0.998595, 417, 157, 480, 172
-0.998595, 305, 217, 368, 232
-0.998598, 237, 175, 268, 190
-0.998598, 193, 191, 256, 206
-0.9986, 145, 141, 208, 156
-0.9986, 185, 159, 248, 174
-0.998602, 201, 141, 264, 156
-0.998603, 273, 223, 336, 238
-0.998605, 121, 173, 184, 188
-0.998605, 113, 161, 176, 176
-0.998606, 233, 133, 296, 148
-0.998606, 257, 185, 320, 200
-0.998606, 361, 23, 424, 38
-0.998608, 241, 139, 304, 154
-0.998608, 33, 309, 96, 324
-0.998611, 49, 187, 80, 202
-0.998611, 169, 167, 232, 182
-0.998612, 281, 201, 344, 216
-0.998613, 9, 107, 72, 122
-0.998617, 257, 231, 320, 246
-0.998617, 97, 179, 160, 194
-0.998618, 425, 151, 488, 166
-0.99862, 65, 185, 128, 200
-0.99862, 17, 249, 80, 264
-0.998621, 209, 213, 272, 228
-0.998622, 57, 305, 120, 320
-0.998624, 137, 167, 200, 182
-0.998625, 41, 193, 104, 208
-0.998625, 113, 185, 176, 200
-0.998625, 233, 201, 296, 216
-0.998626, 193, 147, 256, 162
-0.998626, 393, 201, 456, 216
-0.998626, 201, 203, 264, 218
-0.998627, 401, 149, 464, 164
-0.998628, 233, 97, 296, 112
-0.998629, 1, 83, 64, 98
-0.998629, 305, 1, 336, 256
-0.99863, 17, 257, 80, 272
-0.99863, 401, 21, 464, 36
-0.998631, 281, 233, 344, 248
-0.998631, 217, 169, 280, 184
-0.998632, 185, 153, 248, 168
-0.998632, 257, 169, 320, 184
-0.998634, 65, 193, 128, 208
-0.998635, 1, 91, 64, 106
-0.998635, 417, 177, 480, 192
-0.998637, 225, 179, 256, 194
-0.998637, 393, 207, 456, 222
-0.998637, 241, 145, 304, 160
-0.998638, 113, 155, 176, 170
-0.998639, 257, 163, 320, 178
-0.99864, 9, 183, 72, 198
-0.998642, 233, 227, 296, 242
-0.998642, 321, 197, 384, 212
-0.998643, 41, 53, 104, 68
-0.998644, 257, 191, 320, 206
-0.998644, 257, 217, 320, 232
-0.998644, 257, 47, 320, 62
-0.998644, 37, 1, 68, 256
-0.998645, 97, 121, 224, 152
-0.998645, 257, 157, 320, 172
-0.998645, 169, 173, 232, 188
-0.998646, 305, 233, 368, 248
-0.998647, 97, 1, 160, 16
-0.998647, 65, 5, 128, 20
-0.998647, 201, 135, 264, 150
-0.998647, 17, 57, 80, 72
-0.998649, 217, 221, 280, 236
-0.998649, 241, 207, 304, 222
-0.99865, 169, 179, 232, 194
-0.99865, 49, 173, 112, 188
-0.99865, 217, 151, 280, 166
-0.99865, 297, 223, 360, 238
-0.99865, 273, 175, 336, 190
-0.99865, 41, 213, 104, 228
-0.998651, 129, 191, 192, 206
-0.998651, 289, 207, 352, 222
-0.998651, 193, 165, 256, 180
-0.998651, 193, 197, 256, 212
-0.998651, 369, 201, 432, 216
-0.998652, 305, 189, 368, 204
-0.998653, 425, 145, 488, 160
-0.998653, 81, 213, 144, 228
-0.998654, 161, 187, 224, 202
-0.998655, 89, 193, 152, 208
-0.998656, 49, 265, 112, 280
-0.998657, 201, 127, 264, 142
-0.998657, 233, 109, 296, 124
-0.998658, 73, 179, 136, 194
-0.998658, 385, 31, 448, 46
-0.998658, 169, 193, 232, 208
-0.998659, 313, 207, 376, 222
-0.99866, 137, 3, 200, 18
-0.99866, 281, 49, 344, 64
-0.99866, 137, 9, 200, 24
-0.998661, 281, 217, 344, 232
-0.998661, 25, 1, 88, 16
-0.998661, 9, 309, 72, 324
-0.998662, 89, 203, 152, 218
-0.998662, 49, 203, 112, 218
-0.998662, 201, 91, 264, 106
-0.998663, 81, 311, 144, 326
-0.998664, 289, 241, 352, 256
-0.998665, 17, 121, 144, 152
-0.998665, 1, 99, 64, 114
-0.998665, 409, 131, 472, 146
-0.998667, 257, 237, 320, 252
-0.998667, 225, 163, 288, 178
-0.998667, 89, 155, 152, 170
-0.998667, 385, 163, 448, 178
-0.998667, 417, 37, 480, 52
-0.998667, 201, 101, 264, 116
-0.998722, 49, 65, 80, 320
-0.998723, 469, 1, 500, 256
-0.998724, 369, 101, 496, 132
-0.99873, 257, 149, 384, 180
-0.998732, 193, 265, 320, 296
-0.998782, 385, 1, 416, 256
-0.998871, 121, 145, 136, 272
-0.998896, 441, 1, 472, 256
-0.9989, 93, 33, 124, 288
-0.998924, 417, 33, 448, 288
-0.99894, 239, 161, 254, 288
-0.998946, 245, 129, 260, 256
-0.998976, 237, 113, 252, 240
-0.998995, 329, 65, 360, 320
-0.99904, 285, 65, 316, 320
-0.999081, 341, 65, 372, 320
-0.999082, 425, 113, 440, 240
-0.999085, 317, 209, 332, 332
-0.999091, 1, 65, 500, 128
-0.999093, 309, 177, 324, 304
-0.999098, 231, 145, 246, 272
-0.999116, 185, 129, 200, 256
-0.99913, 191, 129, 206, 256
-0.999135, 323, 177, 338, 304
-0.999137, 419, 113, 434, 240
-0.999147, 251, 145, 266, 272
-0.999155, 457, 129, 472, 256
-0.999157, 259, 161, 274, 288
-0.99916, 195, 177, 210, 304
-0.99916, 265, 177, 280, 304
-0.999168, 277, 177, 292, 304
-0.999173, 89, 129, 104, 256
-0.999184, 73, 145, 88, 272
-0.999198, 107, 1, 122, 128
-0.999199, 81, 161, 96, 288
-0.9992, 53, 177, 68, 304
-0.999203, 399, 145, 414, 272
-0.999208, 259, 97, 274, 224
-0.999209, 227, 193, 242, 320
-0.999209, 167, 113, 182, 240
-0.999231, 113, 1, 128, 128
-0.999236, 451, 161, 466, 288
-0.999243, 17, 49, 32, 176
-0.999244, 133, 1, 148, 128
-0.999245, 221, 161, 236, 288
-0.999249, 63, 145, 78, 272
-0.999253, 329, 177, 344, 304
-0.999253, 159, 113, 174, 240
-0.99926, 273, 129, 288, 256
-0.999272, 139, 1, 154, 128
-0.999273, 203, 177, 218, 304
-0.999279, 127, 145, 142, 272
-0.999281, 315, 161, 330, 288
-0.999286, 201, 113, 216, 240
-0.999286, 293, 145, 308, 272
-0.999293, 283, 161, 298, 288
-0.999299, 45, 177, 60, 304
-0.999304, 387, 145, 402, 272
-0.999305, 215, 161, 230, 288
-0.999305, 225, 113, 240, 240
-0.99931, 411, 145, 426, 272
-0.999316, 303, 177, 318, 304
-0.999319, 97, 145, 112, 272
-0.999323, 271, 177, 286, 304
-0.999326, 283, 209, 298, 332
-0.999327, 431, 113, 446, 240
-0.999328, 173, 113, 188, 240
-0.999329, 209, 161, 224, 288
-0.999334, 27, 49, 42, 176
-0.999344, 37, 209, 52, 332
-0.999347, 423, 161, 438, 288
-0.999352, 453, 1, 468, 128
-0.999354, 231, 97, 246, 224
-0.999358, 179, 97, 194, 224
-0.999358, 43, 17, 58, 144
-0.999358, 179, 145, 194, 272
-0.999359, 115, 161, 130, 288
-0.999367, 151, 145, 166, 272
-0.999371, 73, 1, 88, 128
-0.999371, 463, 129, 478, 256
-0.999373, 101, 97, 116, 224
-0.999381, 99, 1, 114, 128
-0.999384, 127, 1, 142, 128
-0.999389, 275, 33, 290, 160
-0.999389, 187, 177, 202, 304
-0.999392, 169, 65, 184, 192
-0.999396, 441, 193, 456, 320
-0.999399, 243, 65, 258, 192
-0.999402, 65, 193, 80, 320
-0.999402, 267, 49, 282, 176
-0.999404, 177, 193, 192, 320
-0.999414, 289, 193, 304, 320
-0.999416, 91, 81, 106, 208
-0.999418, 377, 193, 392, 320
-0.999418, 59, 209, 74, 332
-0.999418, 81, 1, 96, 128
-0.999418, 393, 145, 408, 272
-0.99942, 79, 97, 94, 224
-0.999425, 399, 1, 414, 128
-0.999426, 143, 177, 158, 304
-0.999426, 159, 65, 174, 192
-0.999428, 245, 177, 260, 304
-0.999428, 251, 97, 266, 224
-0.999429, 431, 177, 446, 304
-0.999429, 27, 209, 42, 332
-0.999429, 55, 17, 70, 144
-0.999434, 265, 129, 280, 256
-0.999434, 121, 97, 136, 224
-0.999438, 75, 193, 90, 320
-0.999439, 287, 81, 302, 208
-0.99944, 345, 1, 360, 128
-0.99944, 457, 177, 472, 304
-0.999442, 145, 129, 160, 256
-0.999443, 309, 33, 324, 160
-0.999446, 113, 97, 128, 224
-0.999448, 49, 17, 64, 144
-0.999448, 335, 161, 350, 288
-0.999448, 389, 193, 404, 320
-0.999449, 441, 129, 456, 256
-0.99945, 11, 49, 26, 176
-0.999452, 65, 65, 80, 192
-0.999452, 127, 97, 142, 224
-0.999455, 37, 33, 52, 160
-0.999455, 481, 193, 496, 320
-0.999455, 159, 17, 174, 144
-0.999456, 345, 161, 360, 288
-0.999456, 7, 1, 22, 128
-0.999457, 151, 33, 166, 160
-0.999458, 429, 33, 444, 160
-0.999459, 315, 33, 330, 160
-0.999462, 253, 49, 268, 176
-0.999464, 189, 65, 204, 192
-0.999465, 19, 209, 34, 332
-0.999466, 423, 17, 438, 144
-0.999467, 297, 209, 312, 332
-0.999469, 463, 177, 478, 304
-0.999471, 469, 161, 484, 288
-0.999473, 93, 1, 108, 128
-0.999476, 1, 129, 16, 256
-0.999477, 13, 209, 28, 332
-0.999482, 127, 209, 142, 332
-0.999483, 133, 65, 148, 192
-0.999483, 323, 129, 338, 256
-0.999557, 269, 227, 284, 242
-0.999558, 421, 163, 436, 178
-0.999558, 201, 199, 216, 214
-0.999558, 445, 159, 460, 174
-0.999558, 407, 169, 422, 184
-0.999558, 319, 53, 334, 68
-0.999558, 119, 307, 134, 322
-0.999559, 227, 93, 242, 108
-0.999559, 239, 201, 254, 216
-0.99956, 265, 159, 280, 174
-0.99956, 199, 167, 214, 182
-0.99956, 69, 185, 84, 200
-0.99956, 335, 207, 350, 222
-0.999561, 245, 169, 260, 184
-0.999561, 249, 137, 264, 152
-0.999561, 181, 143, 196, 158
-0.999561, 39, 309, 54, 324
-0.999562, 119, 193, 134, 208
-0.999562, 161, 107, 176, 122
-0.999563, 75, 181, 90, 196
-0.999563, 143, 163, 158, 178
-0.999563, 205, 159, 220, 174
-0.999563, 53, 307, 68, 322
-0.999563, 311, 189, 326, 204
-0.999564, 77, 159, 92, 174
-0.999565, 101, 167, 116, 182
-0.999565, 151, 43, 166, 58
-0.999565, 405, 25, 420, 40
-0.999566, 205, 153, 220, 168
-0.999567, 227, 197, 242, 212
-0.999567, 1, 89, 16, 104
-0.999567, 69, 179, 84, 194
-0.999567, 199, 153, 214, 168
-0.999567, 485, 125, 500, 140
-0.999568, 325, 195, 340, 210
-0.999568, 25, 253, 40, 268
-0.999569, 425, 121, 440, 136
-0.999569, 27, 99, 42, 114
-0.99957, 323, 213, 338, 228
-0.99957, 319, 223, 334, 238
-0.99957, 239, 145, 254, 160
-0.999571, 63, 113, 78, 128
-0.999571, 35, 255, 50, 270
-0.999571, 143, 157, 158, 172
-0.999572, 55, 111, 70, 126
-0.999572, 45, 189, 60, 204
-0.999575, 63, 247, 78, 262
-0.999576, 189, 147, 204, 162
-0.999577, 117, 171, 132, 186
-0.999578, 233, 89, 248, 104
-0.999579, 237, 185, 252, 200
-0.999579, 263, 185, 278, 200
-0.999579, 29, 79, 44, 94
-0.999579, 219, 181, 234, 196
-0.999579, 11, 85, 26, 100
-0.99958, 309, 247, 324, 262
-0.999583, 123, 187, 138, 202
-0.999583, 139, 175, 154, 190
-0.999584, 431, 41, 446, 56
-0.999584, 239, 173, 254, 188
-0.999586, 399, 23, 414, 38
-0.999588, 239, 191, 254, 206
-0.999588, 239, 93, 254, 108
-0.999588, 85, 167, 100, 182
-0.999588, 195, 147, 210, 162
-0.999588, 261, 221, 276, 236
-0.999589, 427, 163, 442, 178
-0.999592, 191, 153, 206, 168
-0.999593, 243, 101, 258, 116
-0.999595, 249, 187, 264, 202
-0.999595, 19, 99, 34, 114
-0.999599, 221, 191, 236, 206
-0.999601, 127, 179, 142, 194
-0.999601, 245, 143, 260, 158
-0.999601, 423, 169, 438, 184
-0.999601, 111, 191, 126, 206
-0.999602, 417, 169, 432, 184
-0.999603, 75, 175, 90, 190
-0.999603, 57, 193, 72, 208
-0.999604, 243, 213, 258, 228
-0.999604, 307, 241, 322, 256
-0.999605, 411, 25, 426, 40
-0.999606, 63, 181, 78, 196
-0.999607, 313, 219, 328, 234
-0.999609, 311, 229, 326, 244
-0.999609, 429, 169, 444, 184
-0.99961, 129, 173, 144, 188
-0.999611, 233, 97, 248, 112
-0.999613, 257, 173, 272, 188
-0.999615, 329, 201, 344, 216
-0.999618, 175, 141, 190, 156
-0.999619, 227, 191, 242, 206
-0.999621, 301, 239, 316, 254
-0.999621, 59, 187, 74, 202
-0.999622, 141, 169, 156, 184
-0.999622, 317, 191, 332, 206
-0.999622, 129, 167, 144, 182
-0.999622, 231, 207, 246, 222
-0.999622, 423, 129, 438, 144
-0.999626, 229, 171, 244, 186
-0.99963, 67, 157, 82, 172
-0.999632, 199, 159, 214, 174
-0.999636, 311, 235, 326, 250
-0.999641, 231, 185, 246, 200
-0.999643, 51, 191, 66, 206
-0.999643, 119, 165, 134, 180
-0.999643, 261, 179, 276, 194
-0.999644, 123, 171, 138, 186
-0.999645, 95, 161, 110, 176
-0.999647, 119, 177, 134, 192
-0.999648, 223, 175, 238, 190
-0.999648, 237, 131, 252, 146
-0.999649, 57, 181, 72, 196
-0.999657, 229, 179, 244, 194
-0.999662, 67, 173, 82, 188
-0.999666, 127, 161, 142, 176
-0.99967, 243, 185, 258, 200
-0.999672, 233, 191, 248, 206
-0.999672, 117, 187, 132, 202
-0.999673, 251, 173, 266, 188
-0.999677, 95, 169, 110, 184
-0.999688, 457, 1, 488, 256
-0.999695, 61, 175, 76, 190
-0.999701, 249, 181, 264, 196
-0.999715, 225, 185, 240, 200
-0.999717, 255, 179, 270, 194
-0.999727, 89, 161, 104, 176
-0.999728, 51, 185, 66, 200
-0.999729, 135, 169, 150, 184
-0.999742, 245, 175, 260, 190
-0.999758, 1, 89, 500, 152
-0.999779, 235, 179, 250, 194
