1920
-0.131933, 1, 1, 500, 359
-0.252744, 1, 1, 500, 256
-0.333198, 225, 1, 480, 359
-0.369189, 33, 1, 288, 359
-0.396075, 129, 1, 384, 359
-0.419467, 1, 97, 500, 352
-0.523853, 225, 33, 480, 288
-0.565359, 65, 33, 320, 288
-0.817394, 337, 1, 464, 256
-0.819608, 321, 1, 448, 359
-0.834319, 289, 33, 416, 288
-0.839907, 273, 1, 400, 359
-0.843569, 129, 1, 256, 359
-0.846458, 65, 1, 192, 359
-0.853331, 241, 97, 368, 352
-0.853832, 1, 65, 500, 192
-0.855947, 97, 1, 224, 256
-0.859324, 369, 1, 496, 359
-0.860124, 161, 33, 288, 288
-0.861126, 49, 1, 176, 256
-0.864581, 177, 1, 304, 359
-0.873084, 17, 1, 144, 359
-0.876883, 1, 113, 500, 240
-0.87959, 1, 161, 500, 288
-0.879604, 353, 97, 480, 352
-0.884122, 1, 17, 500, 144
-0.885614, 225, 1, 352, 359
-0.897721, 113, 97, 240, 352
-0.897729, 1, 33, 128, 288
-0.898934, 225, 1, 352, 256
-0.899265, 257, 49, 500, 176
-0.910001, 65, 97, 192, 352
-0.915219, 1, 209, 500, 336
-0.915729, 193, 129, 448, 256
-0.920145, 225, 193, 480, 320
-0.920549, 289, 49, 416, 176
-0.9216, 289, 113, 416, 240
-0.921767, 337, 49, 464, 176
-0.921892, 129, 193, 384, 320
-0.922992, 129, 65, 384, 192
-0.923924, 33, 33, 288, 160
-0.925764, 353, 145, 480, 272
-0.926274, 225, 1, 480, 128
-0.927288, 289, 65, 352, 192
-0.929175, 353, 145, 416, 272
-0.931872, 337, 97, 464, 224
-0.932294, 305, 113, 368, 240
-0.934169, 329, 49, 392, 176
-0.935485, 329, 129, 392, 256
-0.936903, 393, 49, 456, 176
-0.937522, 129, 1, 384, 128
-0.937819, 305, 177, 432, 304
-0.938807, 305, 161, 368, 288
-0.939484, 257, 193, 384, 320
-0.939661, 1, 81, 256, 208
-0.940474, 241, 129, 368, 256
-0.940939, 393, 97, 456, 224
-0.941408, 65, 17, 192, 144
-0.941419, 377, 145, 440, 272
-0.942492, 353, 161, 416, 224
-0.944051, 361, 97, 424, 224
-0.944102, 265, 209, 328, 336
-0.944648, 353, 33, 416, 160
-0.945387, 297, 105, 360, 168
-0.94678, 33, 177, 288, 304
-0.946847, 345, 193, 408, 320
-0.948079, 145, 49, 272, 176
-0.949022, 337, 1, 464, 128
-0.949426, 241, 81, 368, 208
-0.95046, 377, 161, 440, 224
-0.951168, 113, 1, 240, 128
-0.952122, 321, 209, 384, 336
-0.952324, 329, 169, 392, 232
-0.952371, 401, 161, 464, 288
-0.953093, 33, 129, 288, 256
-0.953651, 305, 217, 368, 280
-0.953657, 281, 113, 344, 240
-0.953755, 297, 73, 360, 136
-0.954481, 177, 209, 304, 336
-0.954582, 345, 201, 408, 264
-0.954784, 297, 17, 360, 144
-0.954886, 25, 97, 88, 224
-0.954887, 313, 137, 376, 200
-0.955192, 257, 81, 320, 208
-0.9556, 65, 161, 128, 288
-0.956059, 289, 1, 416, 128
-0.956078, 105, 161, 168, 288
-0.956623, 305, 193, 368, 256
-0.956657, 1, 225, 256, 352
-0.956736, 393, 65, 456, 128
-0.957314, 289, 153, 352, 216
-0.957723, 385, 1, 448, 128
-0.958098, 129, 65, 192, 192
-0.958294, 249, 281, 312, 344
-0.958756, 105, 17, 168, 144
-0.959167, 57, 57, 120, 120
-0.959261, 113, 177, 240, 304
-0.95937, 353, 41, 416, 104
-0.959514, 169, 1, 232, 128
-0.959543, 273, 89, 336, 152
-0.959614, 321, 57, 384, 120
-0.959713, 113, 113, 176, 240
-0.959883, 281, 161, 344, 288
-0.959925, 241, 17, 368, 144
-0.959988, 17, 49, 144, 176
-0.960408, 193, 65, 320, 192
-0.960439, 33, 193, 160, 320
-0.960522, 65, 49, 128, 176
-0.960607, 337, 1, 400, 256
-0.960716, 401, 169, 464, 232
-0.961049, 33, 145, 96, 272
-0.961203, 289, 129, 352, 192
-0.961308, 89, 209, 152, 336
-0.961803, 145, 1, 208, 128
-0.961879, 313, 65, 376, 320
-0.962405, 161, 1, 288, 128
-0.962536, 353, 193, 480, 320
-0.962794, 305, 225, 432, 352
-0.962878, 129, 225, 192, 352
-0.96328, 1, 113, 128, 240
-0.963359, 321, 81, 384, 144
-0.963634, 289, 209, 352, 336
-0.963645, 265, 225, 328, 288
-0.963755, 241, 209, 304, 336
-0.963856, 393, 1, 456, 256
-0.96438, 417, 113, 480, 240
-0.964634, 273, 281, 336, 344
-0.964752, 337, 137, 400, 200
-0.964803, 65, 209, 128, 336
-0.964818, 377, 185, 440, 248
-0.964938, 313, 33, 376, 96
-0.965065, 393, 89, 456, 152
-0.965136, 217, 209, 280, 336
-0.965486, 169, 49, 232, 176
-0.965604, 65, 225, 128, 288
-0.965676, 325, 65, 356, 192
-0.965735, 353, 153, 480, 216
-0.965944, 97, 129, 224, 256
-0.966009, 193, 1, 256, 128
-0.96613, 377, 129, 408, 256
-0.96633, 301, 65, 332, 192
-0.966632, 41, 129, 104, 192
-0.966871, 337, 113, 368, 240
-0.966987, 321, 113, 384, 176
-0.966997, 353, 97, 416, 160
-0.967083, 25, 105, 88, 168
-0.967211, 289, 65, 352, 320
-0.967362, 81, 41, 144, 104
-0.967434, 49, 97, 112, 224
-0.96747, 289, 129, 416, 192
-0.967598, 301, 129, 332, 192
-0.968081, 337, 97, 464, 160
-0.968122, 65, 201, 128, 264
-0.968149, 401, 161, 432, 224
-0.968293, 329, 225, 392, 288
-0.968374, 393, 145, 424, 272
-0.968404, 297, 297, 360, 359
-0.968546, 97, 225, 160, 288
-0.968818, 257, 201, 320, 264
-0.968888, 365, 161, 396, 224
-0.968904, 401, 121, 464, 184
-0.968957, 89, 113, 152, 240
-0.968971, 337, 49, 464, 112
-0.969023, 357, 145, 388, 272
-0.969075, 305, 153, 432, 216
-0.969354, 41, 49, 104, 176
-0.96939, 317, 145, 348, 272
-0.969681, 169, 49, 232, 112
-0.969752, 113, 129, 176, 192
-0.969837, 313, 81, 344, 208
-0.969902, 257, 145, 320, 272
-0.969946, 89, 65, 152, 192
-0.969985, 257, 225, 384, 288
-0.970005, 369, 193, 432, 320
-0.970039, 81, 161, 144, 224
-0.97005, 321, 97, 352, 160
-0.970085, 33, 81, 96, 144
-0.97048, 105, 161, 168, 224
-0.970507, 113, 225, 240, 352
-0.970509, 193, 193, 256, 320
-0.970541, 361, 1, 424, 256
-0.970556, 105, 1, 168, 256
-0.970688, 193, 49, 256, 176
-0.970747, 265, 249, 328, 312
-0.971031, 241, 257, 304, 320
-0.971063, 41, 185, 104, 248
-0.971073, 321, 177, 448, 240
-0.971145, 341, 49, 372, 176
-0.971264, 129, 1, 192, 256
-0.971312, 377, 137, 440, 200
-0.971339, 417, 1, 480, 128
-0.971558, 381, 177, 412, 240
-0.971591, 225, 289, 288, 352
-0.971789, 385, 33, 448, 96
-0.971802, 65, 65, 192, 192
-0.971873, 425, 153, 488, 216
-0.972021, 289, 73, 416, 136
-0.972156, 73, 1, 136, 256
-0.972405, 385, 153, 416, 216
-0.972481, 345, 73, 408, 136
-0.972596, 81, 129, 144, 192
-0.972634, 193, 49, 256, 112
-0.972642, 49, 145, 176, 272
-0.972904, 337, 161, 368, 288
-0.973045, 301, 113, 332, 240
-0.973068, 41, 209, 104, 336
-0.973256, 337, 169, 368, 232
-0.973395, 257, 273, 288, 336
-0.973489, 281, 185, 344, 248
-0.973555, 153, 193, 216, 320
-0.973787, 353, 129, 480, 192
-0.973808, 113, 25, 176, 88
-0.973824, 305, 81, 336, 144
-0.973903, 289, 201, 416, 264
-0.973941, 193, 145, 320, 272
-0.973991, 321, 249, 384, 312
-0.974093, 113, 257, 176, 320
-0.974156, 273, 177, 400, 240
-0.974175, 265, 65, 328, 320
-0.97419, 241, 201, 368, 264
-0.97426, 153, 145, 216, 272
-0.974398, 353, 17, 416, 80
-0.974453, 385, 9, 448, 72
-0.974836, 321, 1, 384, 128
-0.974843, 353, 185, 384, 248
-0.974998, 105, 201, 168, 264
-0.97502, 49, 105, 112, 168
-0.975214, 389, 97, 420, 224
-0.975233, 265, 129, 328, 192
-0.975321, 273, 17, 336, 144
-0.975372, 9, 137, 72, 200
-0.975396, 225, 161, 288, 288
-0.975419, 41, 161, 104, 224
-0.975445, 1, 129, 64, 256
-0.975765, 233, 225, 296, 288
-0.975819, 269, 289, 300, 352
-0.975898, 153, 25, 216, 88
-0.975957, 225, 281, 352, 344
-0.976032, 369, 97, 432, 352
-0.976044, 309, 225, 340, 288
-0.976045, 289, 105, 416, 168
-0.976055, 297, 273, 360, 336
-0.976182, 65, 41, 192, 104
-0.976192, 369, 177, 496, 240
-0.97657, 345, 225, 376, 288
-0.976622, 301, 161, 332, 288
-0.976665, 41, 209, 104, 272
-0.976721, 329, 201, 360, 264
-0.976846, 321, 1, 384, 359
-0.976922, 341, 41, 372, 104
-0.976951, 313, 153, 344, 216
-0.976961, 345, 121, 376, 184
-0.977061, 113, 73, 176, 136
-0.977109, 329, 57, 360, 120
-0.977222, 53, 65, 84, 128
-0.977235, 33, 65, 96, 320
-0.977238, 325, 17, 356, 144
-0.977343, 317, 281, 348, 344
-0.977465, 193, 25, 256, 88
-0.977516, 233, 1, 296, 128
-0.977552, 405, 145, 436, 272
-0.977599, 385, 1, 448, 359
-0.9776, 325, 137, 356, 200
-0.977612, 81, 1, 144, 359
-0.977631, 333, 105, 364, 168
-0.977636, 409, 33, 472, 96
-0.977672, 57, 81, 120, 144
-0.977838, 209, 233, 336, 296
-0.977843, 289, 49, 416, 112
-0.977936, 129, 49, 192, 112
-0.977939, 433, 81, 496, 144
-0.978004, 33, 57, 96, 120
-0.97802, 121, 281, 184, 344
-0.9781, 353, 161, 384, 224
-0.978144, 357, 193, 388, 320
-0.978216, 273, 65, 336, 128
-0.978254, 425, 57, 488, 120
-0.978353, 321, 289, 384, 352
-0.978356, 437, 113, 468, 240
-0.97836, 337, 209, 368, 336
-0.978375, 169, 33, 232, 288
-0.978394, 257, 249, 384, 312
-0.978425, 345, 1, 408, 359
-0.978475, 105, 97, 168, 352
-0.978479, 425, 65, 456, 192
-0.978489, 393, 185, 424, 248
-0.978676, 193, 33, 256, 288
-0.978731, 225, 65, 288, 192
-0.978826, 217, 33, 280, 288
-0.97892, 305, 225, 432, 288
-0.978981, 369, 177, 400, 304
-0.979128, 145, 57, 272, 120
-0.979133, 337, 201, 464, 264
-0.97924, 381, 177, 412, 304
-0.979241, 305, 105, 336, 168
-0.979276, 241, 81, 368, 144
-0.979295, 261, 225, 292, 352
-0.979313, 385, 97, 416, 160
-0.979321, 129, 97, 192, 160
-0.979346, 17, 161, 80, 224
-0.979367, 421, 65, 452, 128
-0.979513, 413, 169, 444, 232
-0.979667, 337, 73, 464, 136
-0.979685, 417, 17, 448, 144
-0.979749, 417, 65, 480, 192
-0.979774, 297, 225, 328, 288
-0.979776, 369, 201, 400, 264
-0.979902, 137, 257, 200, 320
-0.979915, 281, 193, 312, 320
-0.979949, 289, 81, 320, 208
-0.979963, 17, 193, 80, 320
-0.980027, 193, 209, 320, 272
-0.980055, 113, 25, 240, 88
-0.980066, 225, 41, 352, 104
-0.980101, 57, 1, 120, 128
-0.980141, 289, 129, 320, 256
-0.980151, 357, 209, 388, 272
-0.980303, 241, 145, 368, 208
-0.980355, 389, 49, 420, 176
-0.980456, 193, 217, 256, 280
-0.980467, 1, 81, 64, 208
-0.980476, 37, 89, 68, 152
-0.98053, 337, 17, 464, 80
-0.980546, 373, 137, 404, 200
-0.980592, 33, 209, 160, 272
-0.980602, 257, 297, 288, 359
-0.980622, 17, 97, 144, 160
-0.980626, 49, 65, 176, 128
-0.980765, 345, 97, 408, 352
-0.980775, 361, 97, 392, 224
-0.980778, 361, 33, 392, 160
-0.980795, 321, 225, 352, 352
-0.98082, 289, 297, 320, 359
-0.980845, 153, 73, 216, 136
-0.980851, 325, 25, 356, 88
-0.980879, 45, 81, 76, 208
-0.980908, 401, 145, 464, 208
-0.980909, 317, 73, 348, 136
-0.980935, 169, 1, 232, 64
-0.981052, 241, 65, 304, 320
-0.981103, 357, 129, 388, 192
-0.981113, 265, 153, 328, 216
-0.981193, 117, 129, 148, 256
-0.981223, 381, 1, 412, 128
-0.981224, 289, 241, 352, 304
-0.981282, 69, 49, 100, 112
-0.981309, 341, 201, 372, 264
-0.981317, 329, 289, 360, 352
-0.981325, 49, 89, 80, 152
-0.981336, 89, 105, 152, 168
-0.981434, 449, 137, 480, 200
-0.98144, 117, 137, 148, 200
-0.98176, 233, 193, 296, 256
-0.98181, 105, 1, 168, 359
-0.981837, 153, 233, 216, 296
-0.981858, 433, 153, 464, 216
-0.981894, 177, 289, 304, 352
-0.98192, 177, 265, 304, 328
-0.981942, 81, 65, 144, 128
-0.981955, 89, 257, 152, 320
-0.981968, 305, 289, 336, 352
-0.981986, 273, 297, 400, 359
-0.982013, 193, 1, 256, 359
-0.982074, 241, 105, 368, 168
-0.982086, 81, 1, 144, 128
-0.982095, 85, 57, 116, 120
-0.98221, 441, 73, 472, 136
-0.982214, 249, 81, 312, 144
-0.98222, 317, 201, 348, 264
-0.982222, 337, 81, 368, 144
-0.982232, 89, 17, 152, 80
-0.982281, 377, 17, 408, 80
-0.982285, 105, 49, 168, 112
-0.982292, 113, 169, 240, 232
-0.982392, 297, 1, 360, 359
-0.982398, 301, 225, 332, 352
-0.9825, 293, 201, 324, 264
-0.982535, 49, 33, 112, 96
-0.982607, 61, 49, 92, 176
-0.982726, 317, 177, 348, 240
-0.982751, 357, 41, 388, 104
-0.982761, 421, 41, 452, 104
-0.982784, 33, 233, 96, 296
-0.982836, 217, 65, 280, 128
-0.98287, 137, 1, 200, 359
-0.982978, 1, 137, 128, 200
-0.983135, 405, 49, 436, 176
-0.983161, 289, 89, 320, 152
-0.983197, 161, 1, 224, 359
-0.983214, 401, 97, 464, 352
-0.983263, 409, 33, 440, 96
-0.983264, 417, 161, 448, 288
-0.983282, 113, 193, 240, 256
-0.983404, 401, 97, 432, 224
-0.983441, 1, 113, 64, 176
-0.98349, 57, 1, 120, 359
-0.983544, 401, 193, 464, 256
-0.983591, 81, 49, 112, 176
-0.983682, 321, 9, 384, 72
-0.983779, 133, 65, 164, 192
-0.983821, 377, 113, 440, 176
-0.983867, 313, 129, 344, 192
-0.983926, 137, 25, 168, 88
-0.983926, 161, 1, 192, 128
-0.983943, 273, 209, 304, 272
-0.983945, 245, 289, 276, 352
-0.983953, 349, 97, 380, 224
-0.984019, 145, 1, 272, 64
-0.984048, 129, 113, 160, 176
-0.984092, 129, 177, 192, 304
-0.984406, 249, 209, 280, 336
-0.984407, 297, 161, 328, 224
-0.984455, 193, 1, 256, 64
-0.984468, 305, 57, 336, 120
-0.984574, 333, 225, 364, 288
-0.984597, 425, 113, 456, 240
-0.984619, 129, 153, 192, 216
-0.984623, 93, 33, 124, 160
-0.984747, 429, 113, 460, 176
-0.984821, 153, 281, 216, 344
-0.984892, 33, 185, 160, 248
-0.984906, 313, 33, 344, 160
-0.984969, 185, 193, 248, 256
-0.98511, 305, 249, 432, 312
-0.985148, 217, 265, 280, 328
-0.985163, 57, 97, 88, 224
-0.985223, 109, 161, 140, 224
-0.98523, 117, 17, 148, 144
-0.985244, 289, 25, 416, 88
-0.985328, 125, 209, 156, 336
-0.985339, 289, 41, 352, 104
-0.98542, 409, 1, 472, 359
-0.985433, 153, 169, 216, 232
-0.985446, 253, 249, 284, 312
-0.985451, 225, 41, 288, 104
-0.985457, 425, 161, 488, 288
-0.985464, 141, 257, 172, 320
-0.985523, 137, 225, 168, 352
-0.985538, 65, 81, 96, 144
-0.985573, 193, 185, 320, 248
-0.985602, 145, 129, 272, 256
-0.985606, 329, 249, 360, 312
-0.98566, 193, 145, 256, 272
-0.985779, 9, 281, 72, 344
-0.9858, 105, 145, 136, 272
-0.985849, 129, 17, 160, 144
-0.985874, 129, 225, 160, 288
-0.985892, 417, 1, 480, 256
-0.985896, 385, 129, 416, 192
-0.98599, 65, 233, 192, 296
-0.986014, 33, 81, 64, 208
-0.986044, 149, 17, 180, 144
-0.986063, 73, 161, 104, 288
-0.986193, 269, 177, 300, 304
-0.986201, 81, 97, 144, 352
-0.986216, 73, 185, 104, 248
-0.986242, 389, 33, 420, 96
-0.986278, 97, 281, 160, 344
-0.986297, 89, 209, 120, 272
-0.986307, 81, 145, 208, 208
-0.986319, 289, 17, 352, 80
-0.986381, 405, 57, 436, 120
-0.986402, 97, 41, 128, 104
-0.986463, 129, 97, 192, 352
-0.986491, 365, 17, 396, 80
-0.986532, 221, 49, 252, 176
-0.986556, 129, 113, 160, 240
-0.986568, 305, 249, 336, 312
-0.986587, 101, 81, 132, 208
-0.986618, 57, 121, 88, 184
-0.986649, 153, 97, 216, 224
-0.986672, 49, 145, 80, 272
-0.986675, 305, 273, 432, 336
-0.986736, 81, 33, 112, 96
-0.986754, 17, 1, 144, 128
-0.986786, 429, 161, 460, 288
-0.986787, 145, 1, 208, 64
-0.986806, 113, 233, 240, 296
-0.986815, 345, 257, 408, 320
-0.986833, 337, 1, 368, 128
-0.986837, 269, 265, 300, 328
-0.986869, 9, 81, 72, 144
-0.986916, 57, 209, 88, 272
-0.986952, 161, 65, 192, 192
-0.987007, 49, 121, 176, 184
-0.987021, 217, 1, 280, 359
-0.987027, 129, 257, 256, 320
-0.987078, 425, 177, 488, 240
-0.987192, 25, 257, 88, 320
-0.987201, 433, 129, 496, 192
-0.98729, 197, 49, 228, 112
-0.9873, 369, 209, 432, 272
-0.987334, 273, 1, 336, 359
-0.987394, 105, 33, 136, 160
-0.98748, 245, 225, 276, 288
-0.987505, 113, 193, 144, 320
-0.987534, 369, 41, 400, 104
-0.987675, 425, 177, 456, 240
-0.987678, 109, 185, 140, 248
-0.987713, 181, 57, 212, 120
-0.987733, 161, 25, 192, 88
-0.987741, 25, 1, 88, 359
-0.987769, 277, 81, 308, 208
-0.987796, 193, 17, 320, 80
-0.987825, 361, 157, 424, 188
-0.987846, 117, 25, 148, 88
-0.987876, 425, 89, 456, 152
-0.98791, 17, 241, 144, 304
-0.987934, 285, 225, 316, 288
-0.988023, 161, 233, 288, 296
-0.988032, 33, 161, 160, 224
-0.988091, 189, 1, 220, 128
-0.988144, 381, 201, 412, 264
-0.988146, 401, 1, 432, 128
-0.988147, 349, 97, 380, 160
-0.98815, 249, 57, 312, 120
-0.988157, 257, 57, 500, 120
-0.988183, 177, 1, 208, 128
-0.988239, 1, 65, 128, 128
-0.988323, 241, 1, 304, 359
-0.988332, 129, 161, 160, 288
-0.988349, 353, 185, 416, 216
-0.988367, 289, 129, 320, 192
-0.988391, 321, 225, 352, 288
-0.988415, 353, 257, 384, 320
-0.988418, 193, 65, 320, 128
-0.988445, 337, 169, 400, 200
-0.988467, 377, 169, 440, 200
-0.988487, 45, 113, 76, 176
-0.988507, 337, 145, 368, 208
-0.988571, 353, 233, 416, 296
-0.988579, 121, 233, 184, 296
-0.988593, 149, 225, 180, 352
-0.9886, 317, 257, 348, 320
-0.988647, 153, 57, 184, 120
-0.988677, 349, 73, 380, 136
-0.988721, 425, 97, 488, 352
-0.988738, 209, 25, 240, 88
-0.988741, 61, 161, 92, 288
-0.988817, 113, 257, 144, 320
-0.988818, 193, 249, 256, 312
-0.988846, 209, 1, 240, 128
-0.988847, 305, 221, 368, 252
-0.98885, 289, 1, 416, 64
-0.988876, 305, 117, 368, 148
-0.988904, 153, 209, 216, 272
-0.988936, 189, 177, 220, 304
-0.988951, 141, 49, 172, 112
-0.989006, 257, 113, 500, 176
-0.989013, 341, 281, 372, 344
-0.989059, 29, 129, 60, 192
-0.98907, 73, 225, 104, 288
-0.989113, 149, 81, 180, 208
-0.989133, 409, 9, 472, 72
-0.989152, 433, 49, 464, 112
-0.989239, 305, 201, 336, 264
-0.989259, 373, 81, 404, 208
-0.989264, 17, 41, 144, 104
-0.989273, 397, 137, 428, 200
-0.989285, 289, 101, 352, 132
-0.989309, 449, 97, 480, 224
-0.989313, 289, 133, 352, 164
-0.98934, 353, 45, 416, 76
-0.989348, 289, 85, 352, 116
-0.989355, 129, 265, 160, 328
-0.989367, 121, 65, 152, 128
-0.989398, 289, 145, 352, 176
-0.98943, 393, 101, 456, 132
-0.989436, 137, 129, 200, 192
-0.989442, 105, 105, 136, 168
-0.989492, 321, 185, 384, 216
-0.98957, 317, 49, 348, 112
-0.989575, 393, 193, 424, 320
-0.989584, 57, 97, 120, 352
-0.989605, 41, 65, 72, 128
-0.989614, 125, 193, 156, 256
-0.989631, 1, 257, 64, 320
-0.989649, 241, 281, 304, 312
-0.989672, 65, 97, 192, 160
-0.989678, 61, 185, 92, 248
-0.989688, 313, 61, 376, 92
-0.989698, 45, 193, 76, 320
-0.989703, 57, 249, 120, 312
-0.989712, 129, 161, 160, 224
-0.989721, 313, 149, 376, 180
-0.989733, 321, 137, 384, 168
-0.989752, 305, 73, 368, 104
-0.989752, 209, 57, 240, 120
-0.989827, 313, 169, 376, 200
-0.989828, 401, 181, 464, 212
-0.989877, 65, 17, 192, 80
-0.989879, 93, 137, 124, 200
-0.989882, 161, 257, 224, 320
-0.989901, 113, 81, 144, 208
-0.989916, 265, 305, 328, 336
-0.989936, 345, 205, 408, 236
-0.989939, 437, 49, 468, 176
-0.989975, 1, 65, 500, 128
-0.99003, 105, 209, 136, 272
-0.990053, 281, 273, 312, 336
-0.990057, 313, 237, 376, 268
-0.990068, 289, 233, 352, 264
-0.990088, 97, 121, 224, 184
-0.990124, 45, 169, 76, 232
-0.990129, 269, 241, 300, 304
-0.990135, 405, 193, 436, 256
-0.990141, 321, 201, 384, 232
-0.990165, 349, 17, 380, 80
-0.990165, 377, 197, 440, 228
-0.990167, 117, 225, 148, 288
-0.990186, 249, 293, 312, 324
-0.990192, 17, 97, 48, 224
-0.990252, 337, 101, 400, 132
-0.990257, 265, 317, 328, 348
-0.990258, 289, 165, 352, 196
-0.990288, 409, 161, 472, 192
-0.990291, 337, 157, 400, 188
-0.990357, 73, 209, 136, 240
-0.990366, 265, 233, 328, 264
-0.990369, 201, 177, 232, 304
-0.990389, 57, 61, 120, 92
-0.990396, 1, 105, 500, 168
-0.990403, 65, 229, 128, 260
-0.990418, 377, 181, 440, 212
-0.990436, 233, 225, 264, 352
-0.990439, 385, 57, 448, 88
-0.990451, 313, 105, 376, 136
-0.990454, 313, 49, 376, 80
-0.990521, 93, 145, 124, 272
-0.990548, 281, 293, 344, 324
-0.990551, 257, 89, 500, 152
-0.990601, 393, 77, 456, 108
-0.990603, 321, 85, 384, 116
-0.990629, 81, 57, 144, 88
-0.99065, 161, 49, 416, 112
-0.990681, 81, 189, 144, 220
-0.990683, 49, 217, 112, 248
-0.990693, 401, 149, 464, 180
-0.990694, 73, 41, 136, 72
-0.990706, 225, 169, 480, 232
-0.990706, 385, 33, 448, 64
-0.990721, 429, 1, 460, 128
-0.990726, 97, 265, 160, 296
-0.990733, 33, 265, 160, 328
-0.990734, 33, 93, 96, 124
-0.990741, 289, 193, 352, 224
-0.990753, 393, 89, 456, 120
-0.990756, 361, 97, 424, 128
-0.990765, 9, 65, 72, 320
-0.990775, 73, 157, 136, 188
-0.990778, 25, 125, 88, 156
-0.990814, 97, 73, 224, 136
-0.99084, 305, 309, 368, 340
-0.990844, 33, 49, 288, 112
-0.990865, 169, 57, 232, 88
-0.990873, 265, 65, 296, 192
-0.990874, 337, 225, 400, 256
-0.990893, 173, 49, 204, 176
-0.990925, 61, 209, 92, 336
-0.99094, 353, 225, 480, 288
-0.990953, 89, 133, 152, 164
-0.990974, 217, 193, 248, 320
-0.990998, 193, 57, 256, 88
-0.991002, 41, 105, 104, 136
-0.991018, 401, 193, 464, 224
-0.991019, 193, 153, 320, 216
-0.991021, 113, 145, 176, 176
-0.991028, 113, 33, 176, 64
-0.991056, 265, 329, 328, 359
-0.991103, 313, 33, 376, 64
-0.991121, 289, 33, 320, 160
-0.991124, 209, 49, 240, 176
-0.991132, 265, 89, 328, 120
-0.991144, 273, 245, 336, 276
-0.991145, 89, 145, 152, 176
-0.99115, 225, 293, 288, 324
-0.991172, 345, 125, 408, 156
-0.991174, 105, 193, 168, 224
-0.991205, 113, 281, 176, 312
-0.991212, 273, 113, 336, 144
-0.991219, 97, 217, 160, 248
-0.991228, 1, 169, 500, 232
-0.991233, 41, 81, 104, 112
-0.991263, 425, 177, 488, 208
-0.991271, 361, 145, 424, 176
-0.991282, 41, 149, 104, 180
-0.991291, 129, 269, 192, 300
-0.991296, 113, 157, 176, 188
-0.991303, 81, 177, 144, 208
-0.991304, 105, 45, 168, 76
-0.991328, 129, 65, 192, 96
-0.991328, 113, 129, 176, 160
-0.991342, 49, 205, 112, 236
-0.991361, 241, 305, 304, 336
-0.991365, 145, 129, 176, 256
-0.991367, 393, 45, 456, 76
-0.991374, 225, 209, 480, 272
-0.991381, 273, 209, 336, 240
-0.991385, 105, 205, 168, 236
-0.991391, 221, 1, 252, 128
-0.991395, 49, 137, 112, 168
-0.991398, 241, 325, 304, 356
-0.991432, 105, 169, 168, 200
-0.99144, 257, 221, 320, 252
-0.991444, 65, 81, 128, 112
-0.991448, 337, 57, 400, 88
-0.991466, 265, 157, 328, 188
-0.991477, 273, 277, 336, 308
-0.991481, 17, 105, 80, 136
-0.991501, 41, 189, 104, 220
-0.991517, 281, 73, 344, 104
-0.991517, 105, 233, 168, 264
-0.99153, 49, 165, 112, 196
-0.991531, 361, 109, 424, 140
-0.991536, 297, 209, 360, 240
-0.991539, 297, 325, 360, 356
-0.99157, 425, 85, 488, 116
-0.991572, 313, 273, 376, 304
-0.991574, 337, 25, 400, 56
-0.991582, 49, 33, 80, 160
-0.991601, 409, 57, 472, 88
-0.991603, 1, 129, 500, 192
-0.991614, 113, 253, 176, 284
-0.991635, 337, 237, 400, 268
-0.991648, 113, 81, 176, 112
-0.991673, 265, 145, 328, 176
-0.991697, 49, 45, 112, 76
-0.991724, 145, 53, 208, 84
-0.991728, 305, 297, 368, 328
-0.991734, 257, 125, 320, 156
-0.991734, 281, 221, 344, 252
-0.991735, 241, 269, 304, 300
-0.99176, 153, 265, 216, 296
-0.991779, 57, 93, 120, 124
-0.991786, 401, 125, 464, 156
-0.991792, 1, 153, 64, 184
-0.991796, 113, 289, 240, 352
-0.991796, 25, 173, 88, 204
-0.991805, 313, 249, 376, 280
-0.991812, 281, 177, 344, 208
-0.991814, 409, 137, 472, 168
-0.991829, 33, 69, 96, 100
-0.991861, 65, 289, 192, 352
-0.991863, 233, 49, 264, 176
-0.991895, 25, 161, 56, 288
-0.991958, 321, 177, 448, 208
-0.991974, 321, 297, 448, 359
-0.992022, 193, 89, 320, 152
-0.992136, 225, 233, 480, 296
-0.99215, 305, 85, 336, 116
-0.992156, 377, 153, 408, 184
-0.992173, 321, 101, 352, 132
-0.992201, 353, 249, 480, 312
-0.992207, 65, 217, 320, 280
-0.992214, 397, 165, 428, 196
-0.992222, 361, 161, 392, 192
-0.992234, 73, 113, 104, 240
-0.992282, 389, 97, 420, 128
-0.992337, 345, 225, 376, 256
-0.992341, 409, 177, 440, 208
-0.992342, 341, 53, 372, 84
-0.992347, 325, 113, 356, 144
-0.992353, 129, 281, 384, 344
-0.992397, 17, 33, 80, 160
-0.992404, 373, 173, 404, 204
-0.992428, 129, 73, 384, 136
-0.992437, 385, 189, 416, 220
-0.992467, 253, 285, 284, 316
-0.992505, 361, 45, 392, 76
-0.992521, 305, 225, 336, 256
-0.992526, 317, 73, 348, 104
-0.992545, 353, 161, 480, 192
-0.992553, 301, 133, 332, 164
-0.992553, 357, 205, 388, 236
-0.992553, 81, 45, 112, 76
-0.992557, 305, 97, 336, 128
-0.99256, 349, 165, 380, 196
-0.992584, 333, 137, 364, 168
-0.992586, 341, 197, 372, 228
-0.992625, 329, 181, 360, 212
-0.992644, 41, 101, 72, 132
-0.992649, 329, 205, 360, 236
-0.992674, 257, 225, 384, 256
-0.992679, 257, 297, 288, 328
-0.992691, 337, 121, 368, 152
-0.992693, 317, 153, 348, 184
-0.992694, 237, 1, 268, 128
-0.992711, 97, 193, 128, 320
-0.992712, 401, 53, 432, 84
-0.992726, 317, 225, 348, 256
-0.992727, 61, 109, 92, 140
-0.992731, 61, 61, 92, 92
-0.992732, 305, 109, 336, 140
-0.992734, 253, 273, 284, 304
-0.992734, 313, 125, 344, 156
-0.992741, 385, 45, 416, 76
-0.992744, 273, 297, 304, 328
-0.992746, 397, 189, 428, 220
-0.992749, 337, 65, 368, 96
-0.992752, 333, 225, 364, 256
-0.992759, 421, 57, 452, 88
-0.992768, 361, 193, 392, 224
-0.992772, 429, 173, 460, 204
-0.992776, 317, 289, 348, 320
-0.992776, 309, 237, 340, 268
-0.992782, 377, 33, 408, 64
-0.992782, 297, 145, 328, 176
-0.992786, 41, 89, 72, 120
-0.992787, 421, 69, 452, 100
-0.992789, 41, 113, 72, 144
-0.992789, 57, 81, 88, 112
-0.992791, 325, 85, 356, 116
-0.992793, 285, 233, 316, 264
-0.992794, 265, 285, 296, 316
-0.992802, 81, 57, 112, 88
-0.992807, 329, 237, 360, 268
-0.992829, 317, 165, 348, 196
-0.992831, 393, 201, 424, 232
-0.992842, 449, 153, 480, 184
-0.992842, 45, 77, 76, 108
-0.992846, 389, 153, 420, 184
-0.992848, 321, 305, 352, 336
-0.992849, 345, 213, 376, 244
-0.992857, 337, 169, 368, 200
-0.992858, 257, 137, 500, 200
-0.992867, 337, 53, 464, 84
-0.992873, 285, 93, 316, 124
-0.992876, 281, 221, 312, 252
-0.992878, 345, 133, 376, 164
-0.992883, 253, 309, 284, 340
-0.992888, 289, 329, 320, 359
-0.99289, 301, 321, 332, 352
-0.992891, 277, 317, 308, 348
-0.992891, 289, 317, 320, 348
-0.992893, 265, 309, 296, 340
-0.992893, 113, 145, 144, 176
-0.992894, 69, 45, 100, 76
-0.992898, 93, 53, 124, 84
-0.992902, 341, 237, 372, 268
-0.992905, 437, 137, 468, 168
-0.992924, 241, 161, 272, 288
-0.992925, 369, 205, 400, 236
-0.992939, 109, 185, 140, 216
-0.992942, 409, 165, 440, 196
-0.992943, 421, 185, 452, 216
-0.992946, 113, 157, 144, 188
-0.992954, 329, 293, 360, 324
-0.99296, 297, 165, 328, 196
-0.992968, 53, 93, 84, 124
-0.992969, 305, 73, 336, 104
-0.992969, 397, 41, 428, 72
-0.992973, 385, 177, 416, 208
-0.992973, 365, 149, 396, 180
-0.992974, 317, 193, 348, 224
-0.992975, 125, 225, 156, 256
-0.992985, 337, 89, 368, 120
-0.992988, 193, 53, 224, 84
-0.992997, 105, 45, 136, 76
-0.993, 125, 129, 156, 160
-0.993001, 357, 229, 388, 260
-0.993006, 417, 41, 448, 72
-0.993009, 41, 129, 72, 160
-0.993018, 65, 93, 96, 124
-0.993025, 245, 297, 276, 328
-0.993026, 301, 305, 332, 336
-0.993027, 317, 61, 348, 92
-0.993028, 409, 193, 440, 224
-0.993028, 61, 129, 92, 160
-0.993029, 289, 305, 320, 336
-0.993032, 93, 37, 124, 68
-0.993034, 77, 221, 108, 252
-0.993036, 385, 165, 416, 196
-0.993043, 389, 113, 420, 144
-0.993056, 137, 265, 168, 296
-0.993063, 349, 41, 380, 72
-0.993064, 317, 181, 348, 212
-0.993065, 149, 281, 180, 312
-0.993075, 89, 213, 120, 244
-0.993076, 437, 85, 468, 116
-0.993077, 265, 321, 296, 352
-0.99308, 349, 1, 380, 128
-0.993081, 425, 161, 456, 192
-0.993082, 113, 133, 144, 164
-0.993088, 77, 209, 108, 240
-0.993092, 205, 57, 236, 88
-0.993094, 381, 201, 412, 232
-0.993094, 221, 65, 252, 96
-0.993096, 57, 217, 88, 248
-0.993096, 293, 209, 324, 240
-0.993098, 129, 29, 160, 60
-0.993099, 81, 257, 208, 320
-0.9931, 125, 201, 156, 232
-0.993101, 377, 141, 408, 172
-0.993103, 373, 45, 404, 76
-0.993137, 33, 185, 288, 248
-0.993172, 225, 281, 480, 344
-0.993184, 301, 17, 332, 144
-0.993187, 413, 97, 444, 224
-0.993202, 129, 241, 384, 304
-0.993249, 225, 25, 480, 88
-0.993327, 273, 145, 400, 176
-0.993345, 305, 189, 432, 220
-0.993354, 409, 161, 424, 224
-0.993379, 359, 193, 374, 256
-0.993406, 361, 161, 376, 224
-0.993435, 337, 105, 464, 136
-0.99344, 81, 1, 112, 128
-0.993479, 441, 161, 472, 288
-0.993481, 17, 17, 144, 80
-0.993501, 365, 185, 380, 248
-0.993516, 177, 129, 304, 192
-0.993557, 273, 129, 400, 160
-0.993601, 349, 49, 364, 112
-0.99362, 399, 161, 414, 224
-0.993627, 373, 169, 388, 232
-0.993639, 113, 97, 240, 160
-0.993738, 1, 41, 500, 104
-0.993751, 161, 137, 416, 200
-0.993751, 1, 201, 500, 264
-0.993753, 225, 257, 480, 320
-0.993779, 1, 105, 256, 168
-0.993797, 189, 49, 220, 176
-0.993815, 261, 129, 292, 256
-0.993824, 257, 197, 384, 228
-0.993862, 379, 169, 394, 232
-0.993886, 161, 145, 192, 272
-0.993888, 321, 65, 448, 96
-0.993907, 305, 157, 432, 188
-0.993953, 257, 237, 384, 268
-0.993971, 353, 133, 480, 164
-0.993987, 321, 205, 448, 236
-0.994121, 33, 225, 64, 352
-0.99414, 393, 153, 408, 216
-0.994142, 387, 177, 402, 240
-0.994145, 339, 113, 354, 176
-0.994146, 129, 193, 384, 256
-0.994165, 289, 81, 416, 112
-0.994181, 327, 97, 342, 160
-0.994183, 1, 81, 256, 144
-0.994199, 303, 129, 318, 192
-0.994202, 141, 177, 172, 304
-0.994208, 451, 137, 466, 200
-0.994211, 9, 145, 40, 272
-0.994216, 65, 25, 320, 88
-0.994236, 335, 137, 350, 200
-0.994237, 241, 17, 368, 80
-0.994239, 289, 101, 416, 132
-0.994247, 37, 33, 68, 160
-0.994258, 421, 169, 436, 232
-0.994316, 241, 297, 368, 328
-0.994359, 353, 169, 368, 232
-0.994376, 353, 149, 480, 180
-0.994428, 433, 1, 496, 359
-0.994457, 225, 113, 288, 240
-0.99446, 309, 129, 324, 192
-0.994505, 321, 153, 336, 216
-0.99454, 177, 145, 208, 272
-0.994555, 33, 281, 288, 344
-0.994568, 415, 161, 430, 224
-0.994578, 89, 97, 120, 224
-0.994586, 393, 89, 408, 152
-0.994605, 241, 309, 368, 340
-0.994629, 317, 73, 332, 136
-0.994639, 353, 189, 480, 220
-0.994645, 305, 97, 320, 160
-0.994646, 367, 161, 382, 224
-0.994651, 343, 57, 358, 120
-0.994678, 369, 173, 496, 204
-0.994688, 245, 65, 276, 192
-0.994705, 349, 113, 364, 176
-0.994726, 337, 41, 464, 72
-0.994762, 37, 129, 68, 256
-0.994795, 161, 105, 416, 168
-0.994817, 395, 185, 410, 248
-0.994819, 319, 121, 334, 184
-0.994822, 355, 217, 370, 280
-0.994828, 255, 273, 270, 336
-0.994865, 273, 117, 400, 148
-0.994869, 355, 137, 370, 200
-0.994874, 327, 145, 342, 208
-0.994918, 123, 129, 138, 192
-0.994923, 387, 153, 402, 216
-0.994928, 337, 177, 352, 240
-0.994928, 309, 217, 324, 280
-0.994946, 209, 233, 336, 264
-0.994971, 241, 213, 368, 244
-0.994978, 311, 81, 326, 144
-0.994988, 325, 73, 340, 136
-0.995, 329, 65, 360, 320
-0.995001, 33, 161, 288, 224
-0.995015, 333, 65, 348, 128
-0.995018, 341, 137, 356, 200
-0.995023, 329, 289, 344, 352
-0.995052, 1, 241, 500, 304
-0.995056, 85, 193, 116, 320
-0.995092, 331, 177, 346, 240
-0.995095, 225, 285, 352, 316
-0.995112, 305, 237, 432, 268
-0.995118, 269, 257, 284, 320
-0.995139, 379, 137, 394, 200
-0.995146, 1, 129, 256, 192
-0.995154, 279, 289, 294, 352
-0.995185, 317, 217, 332, 280
-0.99519, 353, 1, 384, 256
-0.995198, 69, 1, 100, 128
-0.995198, 59, 105, 74, 168
-0.995206, 365, 1, 396, 256
-0.995207, 289, 45, 416, 76
-0.995246, 169, 225, 200, 352
-0.995252, 257, 249, 384, 280
-0.995266, 399, 89, 414, 152
-0.995267, 73, 177, 88, 240
-0.995276, 51, 89, 66, 152
-0.995301, 337, 77, 464, 108
-0.995307, 299, 89, 314, 152
-0.99531, 353, 121, 480, 152
-0.995343, 417, 1, 448, 256
-0.995354, 257, 321, 384, 352
-0.995355, 357, 41, 372, 104
-0.995376, 145, 61, 272, 92
-0.995397, 271, 289, 286, 352
-0.995412, 205, 129, 236, 256
-0.995424, 33, 177, 160, 208
-0.995445, 319, 97, 334, 160
-0.995451, 241, 65, 368, 96
-0.995464, 343, 81, 358, 144
-0.995481, 347, 217, 362, 280
-0.995483, 97, 41, 224, 72
-0.995484, 441, 105, 456, 168
-0.995498, 263, 265, 278, 328
-0.995499, 443, 73, 458, 136
-0.99553, 373, 145, 388, 208
-0.995534, 305, 225, 432, 256
-0.995546, 401, 185, 416, 248
-0.995554, 405, 193, 436, 320
-0.995564, 293, 289, 308, 352
-0.995578, 73, 41, 88, 104
-0.995582, 273, 173, 400, 204
-0.995583, 445, 129, 460, 192
-0.995584, 1, 17, 500, 80
-0.995604, 305, 65, 336, 320
-0.995622, 369, 93, 496, 124
-0.995631, 333, 105, 348, 168
-0.995633, 263, 289, 278, 352
-0.995639, 113, 181, 240, 212
-0.995643, 385, 1, 416, 256
-0.995652, 347, 169, 362, 232
-0.995652, 345, 193, 360, 256
-0.995683, 229, 177, 260, 304
-0.995683, 341, 33, 372, 288
-0.995685, 361, 225, 376, 288
-0.995727, 333, 201, 348, 264
-0.995732, 323, 281, 338, 344
-0.995751, 347, 137, 362, 200
-0.995752, 377, 193, 392, 256
-0.995777, 317, 65, 348, 320
-0.995786, 367, 137, 382, 200
-0.995798, 1, 1, 64, 359
-0.995812, 65, 81, 80, 144
-0.995821, 49, 57, 176, 88
-0.995822, 241, 85, 368, 116
-0.995825, 225, 1, 480, 64
-0.995832, 353, 193, 368, 256
-0.995836, 151, 241, 166, 304
-0.995869, 17, 113, 144, 144
-0.995887, 301, 297, 316, 359
-0.995888, 283, 201, 298, 264
-0.995896, 433, 65, 448, 128
-0.995902, 197, 225, 228, 352
-0.995915, 399, 113, 414, 176
-0.995916, 363, 41, 378, 104
-0.995924, 67, 57, 82, 120
-0.995924, 33, 217, 160, 248
-0.995928, 397, 1, 428, 256
-0.995933, 387, 1, 402, 64
-0.995936, 33, 189, 160, 220
-0.995948, 17, 297, 144, 359
-0.995949, 141, 241, 156, 304
-0.995962, 225, 141, 352, 172
-0.995968, 241, 97, 368, 128
-0.995974, 117, 145, 132, 208
-0.995997, 33, 241, 288, 304
-0.996, 329, 265, 344, 328
-0.996002, 381, 17, 396, 80
-0.996016, 97, 209, 112, 272
-0.996023, 311, 105, 326, 168
-0.996024, 427, 177, 442, 240
-0.996028, 225, 273, 352, 304
-0.996051, 445, 153, 460, 216
-0.996057, 303, 161, 318, 224
-0.996058, 423, 33, 438, 96
-0.996059, 193, 309, 320, 340
-0.996075, 93, 33, 108, 96
-0.996075, 81, 41, 96, 104
-0.996076, 73, 65, 88, 128
-0.996079, 57, 73, 72, 136
-0.996084, 129, 121, 144, 184
-0.996089, 371, 201, 386, 264
-0.996101, 335, 289, 350, 352
-0.996108, 241, 157, 368, 188
-0.99613, 417, 41, 432, 104
-0.996138, 349, 89, 364, 152
-0.99615, 353, 273, 480, 336
-0.996159, 303, 225, 318, 288
-0.996162, 361, 137, 376, 200
-0.996166, 105, 225, 120, 288
-0.996171, 17, 133, 144, 164
-0.996191, 285, 297, 300, 359
-0.996193, 305, 73, 320, 136
-0.99621, 129, 145, 256, 208
-0.996233, 113, 193, 240, 224
-0.996237, 241, 185, 368, 216
-0.996244, 49, 73, 176, 104
-0.996245, 385, 201, 400, 264
-0.996246, 429, 33, 444, 96
-0.996268, 253, 297, 268, 359
-0.99627, 427, 57, 442, 120
-0.996275, 145, 293, 272, 324
-0.996282, 73, 209, 88, 272
-0.996286, 177, 273, 304, 304
-0.996296, 305, 309, 432, 340
-0.996297, 325, 121, 340, 184
-0.9963, 441, 1, 472, 128
-0.996302, 193, 217, 320, 248
-0.996306, 323, 225, 338, 288
-0.996308, 65, 105, 80, 168
-0.996309, 65, 1, 320, 64
-0.996319, 83, 145, 98, 208
-0.996327, 387, 97, 402, 160
-0.996342, 337, 29, 464, 60
-0.99636, 33, 145, 160, 176
-0.996364, 341, 25, 356, 88
-0.996376, 429, 65, 460, 320
-0.996394, 129, 1, 160, 256
-0.996398, 297, 201, 312, 264
-0.996422, 17, 253, 144, 284
-0.996433, 113, 205, 240, 236
-0.996447, 57, 129, 72, 192
-0.996456, 393, 113, 408, 176
-0.99647, 209, 245, 336, 276
-0.996479, 289, 209, 304, 272
-0.99648, 141, 217, 156, 280
-0.996482, 289, 33, 416, 64
-0.99649, 433, 169, 448, 232
-0.996494, 369, 201, 496, 232
-0.996498, 109, 1, 140, 256
-0.996528, 83, 65, 98, 128
-0.996532, 145, 1, 272, 32
-0.996538, 307, 289, 322, 352
-0.996545, 111, 41, 126, 104
-0.996545, 131, 281, 146, 344
-0.996547, 387, 129, 402, 192
-0.996591, 129, 29, 256, 60
-0.996601, 225, 53, 352, 84
-0.996614, 81, 169, 208, 200
-0.99663, 17, 97, 144, 128
-0.996674, 293, 65, 324, 320
-0.996684, 129, 217, 256, 248
-0.996684, 33, 229, 160, 260
-0.996688, 161, 73, 288, 104
-0.99672, 193, 205, 320, 236
-0.996724, 129, 169, 384, 232
-0.996743, 209, 329, 336, 359
-0.996801, 81, 1, 112, 256
-0.996887, 145, 17, 272, 48
-0.99689, 369, 297, 496, 359
-0.996907, 377, 97, 408, 352
-0.996937, 225, 129, 352, 160
-0.996946, 277, 33, 308, 160
-0.996957, 161, 229, 288, 260
-0.996968, 49, 45, 176, 76
-0.996992, 97, 1, 128, 256
-0.997016, 449, 49, 480, 176
-0.997035, 65, 241, 192, 272
-0.997064, 109, 97, 140, 352
-0.997066, 349, 225, 364, 256
-0.997072, 33, 205, 160, 236
-0.997072, 305, 297, 432, 328
-0.997107, 353, 53, 368, 84
-0.997107, 165, 1, 196, 256
-0.99711, 145, 45, 272, 76
-0.997116, 113, 229, 240, 260
-0.997117, 257, 261, 384, 292
-0.997125, 33, 165, 160, 196
-0.997143, 393, 97, 408, 128
-0.997159, 359, 225, 374, 256
-0.99716, 399, 189, 414, 220
-0.99716, 97, 53, 224, 84
-0.99718, 1, 297, 500, 359
-0.997184, 45, 65, 76, 320
-0.997217, 193, 193, 320, 224
-0.997218, 17, 85, 144, 116
-0.997231, 141, 1, 172, 256
-0.997232, 311, 81, 326, 112
-0.997237, 177, 261, 304, 292
-0.997258, 81, 29, 208, 60
-0.997258, 357, 213, 372, 244
-0.997295, 373, 157, 388, 188
-0.997301, 363, 161, 378, 192
-0.997326, 389, 97, 420, 352
-0.997333, 309, 229, 324, 260
-0.997352, 303, 89, 318, 120
-0.997354, 81, 157, 208, 188
-0.997371, 69, 1, 100, 256
-0.997373, 327, 101, 342, 132
-0.997376, 351, 125, 366, 156
-0.997383, 353, 97, 384, 352
-0.997384, 65, 121, 192, 152
-0.997396, 225, 109, 352, 140
-0.997398, 337, 1, 464, 32
-0.9974, 217, 33, 248, 288
-0.997415, 315, 157, 330, 188
-0.997418, 193, 297, 320, 328
-0.997449, 197, 33, 228, 288
-0.99746, 225, 41, 352, 72
-0.997487, 17, 269, 144, 300
-0.997491, 401, 101, 416, 132
-0.997508, 97, 269, 224, 300
-0.997525, 337, 17, 464, 48
-0.997527, 161, 241, 288, 272
-0.997531, 423, 177, 438, 208
-0.997539, 63, 109, 78, 140
-0.99754, 57, 65, 88, 320
-0.997543, 79, 61, 94, 92
-0.997543, 253, 281, 268, 312
-0.99755, 409, 185, 424, 216
-0.997563, 441, 97, 472, 352
-0.997569, 389, 153, 404, 184
-0.99757, 335, 181, 350, 212
-0.997585, 339, 65, 354, 96
-0.997598, 321, 225, 336, 256
-0.997604, 277, 289, 292, 320
-0.997624, 411, 165, 426, 196
-0.997628, 359, 45, 374, 76
-0.997652, 229, 33, 260, 288
-0.997655, 71, 65, 86, 96
-0.997656, 365, 45, 380, 76
-0.99766, 113, 249, 240, 280
-0.997661, 345, 121, 360, 152
-0.997662, 305, 249, 432, 280
-0.997671, 81, 217, 208, 248
-0.997673, 1, 265, 500, 328
-0.997675, 321, 81, 336, 112
-0.997676, 303, 133, 318, 164
-0.997678, 17, 241, 144, 272
-0.99768, 355, 169, 370, 200
-0.997681, 379, 169, 394, 200
-0.997683, 321, 97, 336, 128
-0.997687, 225, 29, 352, 60
-0.997687, 387, 97, 402, 128
-0.997694, 281, 65, 312, 320
-0.997698, 323, 153, 338, 184
-0.997699, 337, 137, 352, 168
-0.997703, 57, 113, 72, 144
-0.997711, 441, 89, 456, 120
-0.997712, 121, 157, 136, 188
-0.997714, 379, 157, 394, 188
-0.997719, 303, 229, 318, 260
-0.997731, 333, 101, 348, 132
-0.997736, 273, 277, 400, 308
-0.997741, 1, 61, 128, 92
-0.997749, 451, 137, 466, 168
-0.997767, 405, 197, 420, 228
-0.997769, 361, 193, 376, 224
-0.99777, 351, 213, 366, 244
-0.997771, 391, 185, 406, 216
-0.997782, 263, 297, 278, 328
-0.997784, 57, 93, 72, 124
-0.997801, 97, 285, 224, 316
-0.997808, 63, 77, 78, 108
-0.997814, 81, 137, 208, 168
-0.997824, 417, 173, 432, 204
-0.997826, 125, 97, 156, 352
-0.997827, 177, 177, 304, 208
-0.99783, 357, 129, 372, 160
-0.997835, 293, 317, 308, 348
-0.997856, 363, 205, 378, 236
-0.997856, 365, 97, 396, 352
-0.997856, 355, 201, 370, 232
-0.997865, 429, 181, 444, 212
-0.997869, 265, 265, 280, 296
-0.997871, 177, 1, 208, 256
-0.997879, 395, 157, 410, 188
-0.997881, 377, 201, 392, 232
-0.997895, 331, 73, 346, 104
-0.997895, 399, 45, 414, 76
-0.997896, 339, 113, 354, 144
-0.9979, 305, 101, 320, 132
-0.997904, 127, 125, 142, 156
-0.997909, 95, 61, 110, 92
-0.99791, 437, 105, 452, 136
-0.997914, 225, 169, 352, 200
-0.997915, 403, 161, 418, 192
-0.997917, 385, 177, 400, 208
-0.997917, 315, 233, 330, 264
-0.99792, 135, 277, 150, 308
-0.997923, 57, 73, 72, 104
-0.997923, 315, 113, 330, 144
-0.997926, 71, 197, 86, 228
-0.997928, 1, 41, 128, 72
-0.997929, 271, 305, 286, 336
-0.99793, 381, 25, 396, 56
-0.997931, 49, 93, 64, 124
-0.997932, 319, 69, 334, 100
-0.997933, 311, 309, 326, 340
-0.997934, 65, 101, 192, 132
-0.997943, 451, 157, 466, 188
-0.997944, 97, 213, 112, 244
-0.997946, 289, 217, 304, 248
-0.997948, 253, 65, 284, 320
-0.997948, 331, 201, 346, 232
-0.997951, 345, 65, 360, 96
-0.997952, 305, 261, 432, 292
-0.997954, 315, 93, 330, 124
-0.997959, 329, 293, 344, 324
-0.997972, 121, 145, 136, 176
-0.997981, 329, 149, 344, 180
-0.997981, 283, 205, 298, 236
-0.997988, 315, 129, 330, 160
-0.997992, 59, 125, 74, 156
-0.997998, 417, 53, 432, 84
-0.997999, 371, 45, 386, 76
-0.998002, 303, 325, 318, 356
-0.998005, 67, 93, 82, 124
-0.998006, 343, 229, 358, 260
-0.998007, 317, 301, 332, 332
-0.998015, 393, 29, 408, 60
-0.998017, 425, 57, 440, 88
-0.998021, 255, 301, 270, 332
-0.998028, 347, 137, 362, 168
-0.998031, 435, 73, 450, 104
-0.998034, 271, 317, 286, 348
-0.998034, 265, 65, 296, 320
-0.998036, 383, 13, 398, 44
-0.998037, 63, 57, 78, 88
-0.998039, 73, 209, 88, 240
-0.998043, 363, 57, 378, 88
-0.998044, 265, 309, 280, 340
-0.998047, 47, 81, 62, 112
-0.99805, 73, 177, 88, 208
-0.998057, 347, 53, 362, 84
-0.998059, 71, 53, 86, 84
-0.99806, 303, 313, 318, 344
-0.998062, 145, 305, 272, 336
-0.998062, 329, 309, 344, 340
-0.998062, 189, 129, 220, 256
-0.998065, 297, 93, 312, 124
-0.998067, 85, 65, 100, 96
-0.99807, 347, 169, 362, 200
-0.998071, 431, 61, 446, 92
-0.998072, 153, 1, 184, 256
-0.998072, 303, 301, 318, 332
-0.998077, 315, 169, 330, 200
-0.998083, 295, 221, 310, 252
-0.998085, 381, 145, 396, 176
-0.998087, 393, 45, 408, 76
-0.998089, 41, 89, 56, 120
-0.998089, 303, 149, 318, 180
-0.998092, 303, 121, 318, 152
-0.998093, 193, 85, 320, 116
-0.998097, 297, 233, 312, 264
-0.998098, 383, 37, 398, 68
-0.998098, 103, 53, 118, 84
-0.998117, 241, 33, 272, 288
-0.998118, 289, 21, 416, 52
-0.99813, 369, 65, 496, 96
-0.998153, 353, 225, 480, 256
-0.998163, 73, 209, 104, 336
-0.998171, 229, 129, 260, 256
-0.998186, 65, 85, 192, 116
-0.998199, 305, 321, 432, 352
-0.998245, 405, 97, 436, 352
-0.998296, 289, 5, 416, 36
-0.998297, 97, 301, 224, 332
-0.998298, 177, 33, 304, 64
-0.998305, 1, 73, 128, 104
-0.998331, 193, 9, 320, 40
-0.99834, 17, 281, 144, 312
-0.998368, 361, 163, 424, 178
-0.998378, 113, 93, 240, 124
-0.998391, 361, 161, 376, 288
-0.998414, 33, 107, 64, 122
-0.998415, 301, 139, 332, 154
-0.998415, 53, 127, 84, 142
-0.998416, 373, 173, 404, 188
-0.998416, 41, 91, 72, 106
-0.998416, 441, 83, 472, 98
-0.998416, 325, 199, 356, 214
-0.998418, 49, 79, 80, 94
-0.998418, 81, 17, 208, 48
-0.998418, 69, 75, 100, 90
-0.998419, 389, 207, 420, 222
-0.998419, 305, 325, 336, 340
-0.998419, 313, 223, 344, 238
-0.998419, 249, 291, 280, 306
-0.998419, 425, 77, 456, 92
-0.998419, 253, 315, 284, 330
-0.99842, 125, 131, 156, 146
-0.998421, 57, 91, 88, 106
-0.998421, 421, 67, 452, 82
-0.998422, 377, 27, 408, 42
-0.998423, 325, 119, 356, 134
-0.998423, 429, 181, 460, 196
-0.998423, 393, 107, 456, 122
-0.998424, 305, 127, 336, 142
-0.998424, 305, 309, 336, 324
-0.998424, 313, 225, 376, 240
-0.998426, 361, 201, 392, 216
-0.998427, 317, 129, 348, 144
-0.998428, 253, 277, 284, 292
-0.998428, 337, 199, 368, 214
-0.998429, 353, 163, 384, 178
-0.998429, 305, 113, 336, 128
-0.998429, 317, 297, 348, 312
-0.99843, 277, 297, 308, 312
-0.99843, 341, 127, 372, 142
-0.99843, 301, 223, 332, 238
-0.99843, 385, 195, 416, 210
-0.99843, 369, 169, 432, 184
-0.998431, 109, 47, 140, 62
-0.998432, 317, 167, 348, 182
-0.998432, 289, 97, 320, 112
-0.998433, 377, 175, 440, 190
-0.998434, 113, 145, 144, 160
-0.998434, 337, 175, 400, 190
-0.998435, 337, 69, 368, 84
-0.998435, 281, 199, 312, 214
-0.998436, 85, 57, 116, 72
-0.998436, 405, 53, 436, 68
-0.998437, 385, 129, 400, 256
-0.998438, 345, 135, 376, 150
-0.998438, 73, 53, 104, 68
-0.998438, 197, 59, 228, 74
-0.998439, 437, 91, 468, 106
-0.998439, 305, 121, 336, 136
-0.998439, 285, 335, 316, 350
-0.998442, 61, 63, 92, 78
-0.998442, 409, 185, 440, 200
-0.998442, 61, 97, 92, 112
-0.998443, 377, 201, 408, 216
-0.998443, 121, 137, 152, 152
-0.998445, 317, 73, 348, 88
-0.998445, 361, 51, 392, 66
-0.998446, 337, 223, 368, 238
-0.998447, 289, 319, 320, 334
-0.998447, 93, 39, 124, 54
-0.998447, 257, 305, 288, 320
-0.998448, 253, 283, 284, 298
-0.998448, 321, 155, 352, 170
-0.998448, 385, 167, 416, 182
-0.998449, 409, 175, 440, 190
-0.998449, 273, 327, 304, 342
-0.998449, 265, 293, 296, 308
-0.998449, 329, 107, 360, 122
-0.998452, 289, 147, 352, 162
-0.998452, 429, 173, 460, 188
-0.998453, 185, 97, 248, 224
-0.998453, 53, 73, 84, 88
-0.998453, 377, 41, 408, 56
-0.998453, 305, 77, 336, 92
-0.998455, 297, 233, 360, 248
-0.998455, 85, 51, 116, 66
-0.998457, 45, 107, 76, 122
-0.998457, 301, 167, 332, 182
-0.998459, 53, 113, 84, 128
-0.998459, 385, 181, 448, 196
-0.998461, 421, 59, 452, 74
-0.998463, 353, 47, 416, 62
-0.998464, 349, 171, 380, 186
-0.998464, 357, 229, 388, 244
-0.998465, 241, 291, 304, 306
-0.998465, 329, 77, 360, 92
-0.998466, 345, 51, 376, 66
-0.998466, 389, 189, 420, 204
-0.998466, 405, 191, 436, 206
-0.998467, 389, 201, 420, 216
-0.998468, 293, 329, 324, 344
-0.998468, 305, 101, 336, 116
-0.998469, 401, 169, 432, 184
-0.998469, 381, 49, 412, 64
-0.998469, 353, 157, 416, 172
-0.998471, 309, 161, 340, 176
-0.998471, 333, 139, 364, 154
-0.998472, 365, 157, 396, 172
-0.998472, 405, 197, 436, 212
-0.998473, 353, 185, 416, 200
-0.998474, 361, 45, 392, 60
-0.998477, 301, 237, 332, 252
-0.998478, 297, 231, 328, 246
-0.998478, 49, 119, 80, 134
-0.998478, 305, 105, 368, 120
-0.998479, 297, 83, 360, 98
-0.99848, 337, 169, 400, 184
-0.998482, 313, 75, 376, 90
-0.998482, 85, 45, 116, 60
-0.998485, 397, 47, 428, 62
-0.998487, 329, 183, 360, 198
-0.998488, 49, 97, 80, 112
-0.998488, 309, 243, 340, 258
-0.998489, 349, 223, 380, 238
-0.998491, 289, 135, 352, 150
-0.998492, 297, 153, 328, 168
-0.998492, 321, 205, 384, 220
-0.998493, 265, 245, 328, 260
-0.998493, 309, 229, 340, 244
-0.998495, 289, 155, 352, 170
-0.998497, 401, 167, 464, 182
-0.998499, 313, 125, 376, 140
-0.998499, 69, 69, 100, 84
-0.998499, 77, 63, 108, 78
-0.998499, 313, 65, 328, 192
-0.998503, 317, 235, 348, 250
-0.998506, 365, 207, 396, 222
-0.998509, 329, 229, 360, 244
-0.99851, 393, 101, 456, 116
-0.998511, 401, 193, 464, 208
-0.998512, 353, 195, 416, 210
-0.998512, 389, 105, 420, 120
-0.998513, 305, 107, 336, 122
-0.998514, 253, 299, 284, 314
-0.998516, 341, 63, 372, 78
-0.998517, 317, 99, 348, 114
-0.998517, 329, 137, 392, 152
-0.998518, 289, 141, 352, 156
-0.998519, 289, 99, 352, 114
-0.998519, 305, 163, 368, 178
-0.99852, 401, 161, 464, 176
-0.99852, 313, 117, 376, 132
-0.99852, 361, 103, 424, 118
-0.998522, 337, 239, 368, 254
-0.998522, 341, 205, 372, 220
-0.998522, 297, 111, 360, 126
-0.998523, 265, 239, 328, 254
-0.998524, 265, 327, 328, 342
-0.998525, 321, 185, 384, 200
-0.998527, 65, 231, 128, 246
-0.998527, 313, 155, 376, 170
-0.998529, 377, 191, 440, 206
-0.998531, 401, 175, 464, 190
-0.998532, 341, 113, 356, 240
-0.998533, 313, 53, 376, 68
-0.998534, 337, 105, 400, 120
-0.998534, 265, 231, 328, 246
-0.998534, 249, 301, 312, 316
-0.998534, 289, 241, 352, 256
-0.998536, 65, 55, 128, 70
-0.998537, 393, 51, 456, 66
-0.998538, 337, 49, 352, 176
-0.998539, 373, 179, 404, 194
-0.998539, 337, 163, 400, 178
-0.99854, 361, 169, 392, 184
-0.99854, 401, 187, 464, 202
-0.998541, 305, 219, 368, 234
-0.998541, 241, 285, 304, 300
-0.998541, 353, 53, 416, 68
-0.998542, 273, 91, 336, 106
-0.998542, 393, 95, 456, 110
-0.998545, 89, 133, 152, 148
-0.998546, 385, 161, 416, 176
-0.998546, 81, 43, 144, 58
-0.998547, 321, 199, 384, 214
-0.998548, 257, 321, 320, 336
-0.998549, 377, 201, 440, 216
-0.998549, 25, 105, 88, 120
-0.998551, 329, 61, 392, 76
-0.998551, 349, 235, 380, 250
-0.998553, 321, 191, 384, 206
-0.998554, 65, 49, 128, 64
-0.998554, 57, 61, 120, 76
-0.998555, 169, 57, 232, 72
-0.998556, 305, 83, 336, 98
-0.998556, 297, 169, 360, 184
-0.998557, 321, 231, 384, 246
-0.998557, 113, 269, 176, 284
-0.998558, 305, 95, 336, 110
-0.998558, 321, 243, 384, 258
-0.99856, 353, 207, 416, 222
-0.99856, 317, 79, 348, 94
-0.99856, 301, 133, 332, 148
-0.998561, 273, 161, 336, 176
-0.998561, 289, 197, 352, 212
-0.998564, 265, 307, 328, 322
-0.998566, 385, 57, 448, 72
-0.998566, 313, 69, 376, 84
-0.998567, 41, 219, 104, 234
-0.998567, 417, 181, 480, 196
-0.998567, 273, 83, 336, 98
-0.998569, 313, 131, 376, 146
-0.998569, 89, 57, 152, 72
-0.998572, 265, 313, 328, 328
-0.998573, 41, 159, 104, 174
-0.998573, 289, 297, 352, 312
-0.998574, 319, 81, 334, 208
-0.998576, 337, 237, 400, 252
-0.998576, 41, 75, 104, 90
-0.998576, 297, 91, 360, 106
-0.998578, 329, 143, 392, 158
-0.998578, 289, 329, 352, 344
-0.998578, 361, 109, 424, 124
-0.998579, 73, 215, 136, 230
-0.99858, 393, 45, 456, 60
-0.998581, 345, 217, 408, 232
-0.998581, 113, 139, 176, 154
-0.998581, 97, 51, 160, 66
-0.998582, 89, 231, 152, 246
-0.998583, 321, 111, 384, 126
-0.998585, 49, 67, 112, 82
-0.998585, 65, 239, 128, 254
-0.998586, 265, 333, 328, 348
-0.998587, 377, 155, 408, 170
-0.998588, 89, 139, 152, 154
-0.998589, 391, 129, 406, 256
-0.998589, 289, 117, 352, 132
-0.998589, 353, 201, 416, 216
-0.99859, 313, 47, 376, 62
-0.99859, 305, 81, 320, 208
-0.99859, 25, 129, 88, 144
-0.99859, 81, 203, 144, 218
-0.99859, 25, 111, 88, 126
-0.99859, 297, 247, 360, 262
-0.998591, 89, 209, 152, 224
-0.998591, 313, 179, 376, 194
-0.998591, 329, 149, 392, 164
-0.998592, 325, 113, 356, 128
-0.998592, 57, 111, 120, 126
-0.998593, 345, 231, 408, 246
-0.998594, 121, 283, 184, 298
-0.998595, 281, 191, 344, 206
-0.998596, 145, 61, 208, 76
-0.998597, 353, 59, 416, 74
-0.998598, 73, 161, 136, 176
-0.998598, 81, 167, 144, 182
-0.998599, 33, 93, 96, 108
-0.9986, 289, 129, 352, 144
-0.9986, 273, 123, 336, 138
-0.9986, 317, 105, 348, 120
-0.9986, 41, 151, 104, 166
-0.9986, 289, 307, 352, 322
-0.9986, 409, 57, 472, 72
-0.9986, 81, 197, 144, 212
-0.998601, 225, 299, 288, 314
-0.998601, 33, 87, 96, 102
-0.998601, 337, 29, 400, 44
-0.998601, 41, 225, 104, 240
-0.998617, 305, 89, 336, 104
-0.998629, 345, 57, 376, 72
-0.998633, 365, 163, 396, 178
-0.998638, 345, 33, 360, 160
-0.998652, 409, 145, 424, 272
-0.998657, 327, 65, 342, 192
-0.998675, 345, 229, 376, 244
-0.998679, 351, 145, 366, 272
-0.998682, 89, 97, 120, 352
-0.998696, 385, 99, 416, 114
-0.998716, 357, 113, 372, 240
-0.998718, 351, 65, 366, 192
-0.998718, 445, 1, 476, 256
-0.998719, 397, 145, 412, 272
-0.998747, 375, 145, 390, 272
-0.998782, 335, 97, 350, 224
-0.998798, 441, 97, 456, 224
-0.998803, 403, 145, 418, 272
-0.998803, 311, 113, 326, 240
-0.998833, 401, 97, 416, 224
-0.998836, 331, 145, 346, 272
-0.99884, 369, 177, 384, 304
-0.998842, 311, 161, 326, 288
-0.998871, 305, 145, 320, 272
-0.998881, 367, 129, 382, 256
-0.998883, 317, 161, 332, 288
-0.998892, 355, 193, 370, 320
-0.998895, 165, 97, 196, 352
-0.998896, 345, 161, 360, 288
-0.998924, 265, 225, 280, 352
-0.998928, 323, 145, 338, 272
-0.998944, 395, 33, 410, 160
-0.998946, 415, 145, 430, 272
-0.998952, 123, 113, 138, 240
-0.998953, 393, 81, 408, 208
-0.998962, 33, 65, 64, 320
-0.998968, 359, 33, 374, 160
-0.998975, 115, 145, 130, 272
-0.998983, 339, 161, 354, 288
-0.998983, 389, 1, 404, 128
-0.998988, 383, 177, 398, 304
-0.999003, 69, 97, 100, 352
-0.999028, 447, 129, 462, 256
-0.99903, 153, 97, 184, 352
-0.999039, 57, 65, 72, 192
-0.99905, 299, 145, 314, 272
-0.999053, 407, 97, 422, 224
-0.999065, 435, 33, 450, 160
-0.999083, 429, 17, 444, 144
-0.999083, 299, 65, 314, 192
-0.99909, 137, 97, 168, 352
-0.999093, 327, 17, 342, 144
-0.999095, 333, 1, 348, 128
-0.999098, 47, 81, 62, 208
-0.999108, 379, 97, 394, 224
-0.99911, 401, 49, 416, 176
-0.999113, 317, 209, 332, 336
-0.999114, 305, 209, 320, 336
-0.999119, 391, 177, 406, 304
-0.999132, 333, 193, 348, 320
-0.999136, 347, 209, 362, 336
-0.999137, 387, 81, 402, 208
-0.999139, 323, 225, 338, 352
-0.999143, 149, 225, 164, 352
-0.999148, 383, 1, 398, 128
-0.99915, 285, 177, 300, 304
-0.999154, 75, 161, 90, 288
-0.999172, 271, 225, 286, 352
-0.999182, 129, 209, 144, 336
-0.999189, 435, 97, 450, 224
-0.99921, 377, 193, 392, 320
-0.99921, 441, 49, 456, 176
-0.999213, 425, 161, 440, 288
-0.999213, 277, 225, 292, 352
-0.999213, 173, 1, 188, 128
-0.999214, 121, 193, 136, 320
-0.999215, 141, 17, 156, 144
-0.99922, 257, 209, 272, 336
-0.99922, 411, 49, 426, 176
-0.99922, 351, 17, 366, 144
-0.999221, 83, 49, 98, 176
-0.999224, 311, 209, 326, 336
-0.999228, 417, 97, 448, 352
-0.99923, 141, 209, 156, 336
-0.99923, 147, 17, 162, 144
-0.999241, 339, 209, 354, 336
-0.999266, 295, 193, 310, 320
-0.999268, 247, 209, 262, 336
-0.99927, 319, 33, 334, 160
-0.999272, 421, 17, 436, 144
-0.999286, 135, 209, 150, 336
-0.99929, 105, 161, 120, 288
-0.999295, 377, 33, 392, 160
-0.999296, 89, 49, 104, 176
-0.999297, 205, 177, 220, 304
-0.9993, 71, 97, 86, 224
-0.9993, 63, 65, 78, 192
-0.9993, 129, 113, 144, 240
-0.999301, 365, 33, 380, 160
-0.999302, 161, 33, 176, 160
-0.999306, 433, 161, 448, 288
-0.999309, 447, 81, 462, 208
-0.999309, 135, 17, 150, 144
-0.999313, 453, 113, 468, 240
-0.999318, 153, 17, 168, 144
-0.999321, 69, 33, 84, 160
-0.999322, 339, 1, 354, 128
-0.999324, 291, 81, 306, 208
-0.999327, 209, 1, 224, 128
-0.99933, 233, 49, 248, 176
-0.999334, 63, 161, 78, 288
-0.999335, 41, 81, 56, 208
-0.999335, 127, 161, 142, 288
-0.999336, 105, 17, 120, 144
-0.999337, 81, 145, 96, 272
-0.99934, 65, 113, 80, 240
-0.999345, 421, 113, 436, 240
-0.999346, 75, 33, 90, 160
-0.999349, 57, 113, 72, 240
-0.999355, 87, 129, 102, 256
-0.999357, 457, 1, 488, 256
-0.999362, 179, 1, 194, 128
-0.999371, 441, 145, 456, 272
-0.999371, 271, 177, 286, 304
-0.999371, 135, 97, 150, 224
-0.999374, 403, 1, 418, 128
-0.999381, 95, 17, 110, 144
-0.999384, 69, 161, 84, 288
-0.999385, 117, 33, 132, 160
-0.999394, 279, 177, 294, 304
-0.999396, 129, 17, 144, 144
-0.999401, 95, 177, 110, 304
-0.999407, 155, 225, 170, 352
-0.999408, 211, 177, 226, 304
-0.999413, 373, 97, 388, 224
-0.999415, 361, 209, 376, 336
-0.99944, 21, 97, 52, 352
-0.999464, 185, 97, 216, 352
-0.999606, 53, 113, 68, 128
-0.999606, 331, 201, 346, 216
-0.999606, 323, 191, 338, 206
-0.999606, 79, 47, 94, 62
-0.999607, 343, 139, 358, 154
-0.999607, 393, 185, 408, 200
-0.999607, 345, 63, 360, 78
-0.999608, 183, 57, 198, 72
-0.999608, 329, 147, 344, 162
-0.999609, 283, 205, 298, 220
-0.99961, 73, 53, 88, 68
-0.99961, 123, 159, 138, 174
-0.99961, 331, 243, 346, 258
-0.99961, 289, 215, 304, 230
-0.99961, 291, 197, 306, 212
-0.999611, 295, 235, 310, 250
-0.999611, 117, 43, 132, 58
-0.999612, 351, 131, 366, 146
-0.999613, 439, 101, 454, 116
-0.999613, 151, 247, 166, 262
-0.999613, 67, 113, 82, 128
-0.999613, 327, 229, 342, 244
-0.999614, 425, 183, 440, 198
-0.999615, 359, 167, 374, 182
-0.999616, 353, 171, 368, 186
-0.999616, 127, 131, 142, 146
-0.999617, 391, 207, 406, 222
-0.999617, 399, 203, 414, 218
-0.999617, 343, 237, 358, 252
-0.999618, 327, 95, 342, 110
-0.999618, 361, 137, 376, 152
-0.999619, 357, 233, 372, 248
-0.999619, 379, 169, 394, 184
-0.999619, 295, 333, 310, 348
-0.999619, 57, 119, 72, 134
-0.99962, 141, 283, 156, 298
-0.99962, 313, 237, 328, 252
-0.99962, 265, 311, 280, 326
-0.999621, 267, 271, 282, 286
-0.999621, 73, 77, 88, 92
-0.999622, 85, 57, 100, 72
-0.999623, 57, 75, 72, 90
-0.999623, 391, 49, 406, 64
-0.999624, 301, 165, 316, 180
-0.999624, 403, 51, 418, 66
-0.999624, 437, 107, 452, 122
-0.999625, 381, 41, 396, 56
-0.999626, 365, 209, 380, 224
-0.999626, 365, 57, 380, 72
-0.999627, 383, 201, 398, 216
-0.999627, 431, 181, 446, 196
-0.999628, 373, 165, 388, 180
-0.999629, 381, 29, 396, 44
-0.99963, 305, 103, 320, 118
-0.999631, 331, 77, 346, 92
-0.999633, 383, 149, 398, 164
-0.999636, 335, 111, 350, 126
-0.999636, 331, 297, 346, 312
-0.999637, 301, 93, 316, 108
-0.999637, 131, 283, 146, 298
-0.999637, 341, 199, 356, 214
-0.999637, 319, 131, 334, 146
-0.999638, 277, 295, 292, 310
-0.999639, 257, 277, 272, 292
-0.99964, 55, 97, 70, 112
-0.99964, 355, 203, 370, 218
-0.999641, 83, 63, 98, 78
-0.999641, 97, 59, 112, 74
-0.999641, 423, 177, 438, 192
-0.999642, 285, 197, 300, 212
-0.999642, 399, 99, 414, 114
-0.999642, 321, 235, 336, 250
-0.999642, 439, 79, 454, 94
-0.999643, 301, 329, 316, 344
-0.999643, 315, 225, 330, 240
-0.999644, 349, 235, 364, 250
-0.999646, 77, 63, 92, 78
-0.999647, 73, 91, 88, 106
-0.999647, 363, 51, 378, 66
-0.999649, 313, 245, 328, 260
-0.99965, 313, 169, 328, 184
-0.99965, 441, 95, 456, 110
-0.999651, 417, 173, 432, 188
-0.999651, 321, 157, 336, 172
-0.999651, 387, 179, 402, 194
-0.999651, 315, 83, 330, 98
-0.999654, 355, 49, 370, 64
-0.999654, 65, 95, 80, 110
-0.999656, 339, 65, 354, 80
-0.999658, 403, 195, 418, 210
-0.999659, 331, 105, 346, 120
-0.999661, 307, 239, 322, 254
-0.999664, 337, 143, 352, 158
-0.999664, 349, 137, 364, 152
-0.999667, 51, 119, 66, 134
-0.99967, 321, 79, 336, 94
-0.999672, 303, 135, 318, 150
-0.999674, 345, 229, 360, 244
-0.999676, 357, 131, 372, 146
-0.999677, 357, 219, 372, 234
-0.999679, 317, 107, 332, 122
-0.999679, 365, 45, 380, 60
-0.99968, 373, 159, 388, 174
-0.999681, 319, 97, 334, 112
-0.999683, 407, 167, 422, 182
-0.999684, 359, 57, 374, 72
-0.999684, 309, 85, 324, 100
-0.999686, 399, 189, 414, 204
-0.999689, 65, 107, 80, 122
-0.999691, 379, 175, 394, 190
-0.999692, 313, 163, 328, 178
-0.999694, 351, 221, 366, 236
-0.999694, 379, 207, 394, 222
-0.999698, 403, 161, 418, 176
-0.9997, 405, 201, 420, 216
-0.999702, 397, 47, 412, 62
-0.999703, 321, 227, 336, 242
-0.999704, 389, 99, 404, 114
-0.999705, 397, 159, 412, 174
-0.999705, 71, 69, 86, 84
-0.999706, 305, 231, 320, 246
-0.999712, 409, 195, 424, 210
-0.999731, 59, 113, 74, 128
-0.999736, 389, 155, 404, 170
-0.999742, 313, 231, 328, 246
-0.999763, 365, 165, 380, 180
-0.999771, 351, 229, 366, 244
-0.999777, 325, 101, 340, 116
-0.999793, 353, 55, 368, 70
-0.999807, 361, 227, 376, 242
-1.0001, 453, 97, 484, 352
-1.00023, 417, 209, 480, 336
-1.00034, 21, 1, 52, 256
-1.00058, 1, 97, 32, 352
-1.00074, 469, 1, 500, 256
-1.001, 465, 97, 496, 352
-1.00102, 9, 1, 40, 256
-1.00658, 393, 225, 456, 352
