1957
-0.375786, 1, 1, 500, 375
-0.411475, 161, 1, 416, 375
-0.432102, 1, 129, 500, 375
-0.489721, 1, 33, 500, 288
-0.495398, 65, 1, 320, 375
-0.520063, 257, 1, 500, 375
-0.642766, 161, 129, 416, 375
-0.677018, 161, 33, 416, 288
-0.725361, 257, 1, 500, 256
-0.738108, 257, 129, 500, 375
-0.745858, 33, 129, 288, 375
-0.758316, 65, 33, 320, 288
-0.84541, 225, 1, 352, 375
-0.856434, 273, 1, 400, 375
-0.859994, 177, 1, 304, 375
-0.869842, 273, 129, 400, 375
-0.872304, 273, 1, 400, 256
-0.874328, 193, 65, 320, 320
-0.877637, 321, 1, 448, 375
-0.878702, 129, 1, 256, 375
-0.883014, 337, 1, 464, 256
-0.884167, 65, 1, 192, 375
-0.889035, 1, 161, 500, 288
-0.895038, 17, 1, 144, 375
-0.901788, 129, 129, 256, 375
-0.908165, 1, 241, 500, 368
-0.909357, 321, 129, 448, 375
-0.911996, 129, 225, 384, 352
-0.914174, 129, 33, 256, 288
-0.915386, 225, 209, 480, 336
-0.916957, 17, 1, 144, 256
-0.919163, 81, 33, 208, 288
-0.91956, 369, 97, 496, 352
-0.924644, 161, 161, 416, 288
-0.928349, 257, 161, 500, 288
-0.928355, 369, 1, 496, 375
-0.92856, 225, 225, 352, 352
-0.929952, 225, 17, 480, 144
-0.930587, 273, 161, 400, 288
-0.934264, 129, 33, 384, 160
-0.934566, 1, 17, 500, 144
-0.935771, 65, 129, 192, 375
-0.938368, 33, 209, 288, 336
-0.939988, 17, 97, 144, 352
-0.940616, 1, 81, 500, 208
-0.941345, 281, 209, 344, 336
-0.941445, 313, 161, 376, 288
-0.941827, 185, 161, 248, 288
-0.944938, 129, 113, 384, 240
-0.945189, 129, 225, 256, 352
-0.945876, 273, 1, 400, 128
-0.946502, 281, 161, 344, 288
-0.947029, 233, 241, 296, 368
-0.947737, 273, 209, 400, 336
-0.951037, 321, 193, 448, 320
-0.951204, 177, 241, 304, 368
-0.951756, 185, 209, 248, 336
-0.951938, 209, 177, 336, 304
-0.952166, 209, 1, 272, 128
-0.953246, 329, 1, 392, 128
-0.953567, 281, 225, 344, 288
-0.9537, 65, 161, 320, 288
-0.953974, 193, 33, 320, 160
-0.954662, 1, 33, 256, 160
-0.955796, 209, 225, 272, 352
-0.956668, 177, 169, 240, 232
-0.956897, 305, 161, 368, 224
-0.957213, 321, 1, 448, 128
-0.957607, 145, 1, 272, 128
-0.958252, 209, 161, 272, 288
-0.958342, 193, 81, 320, 208
-0.958963, 321, 241, 448, 368
-0.959069, 321, 209, 384, 336
-0.959248, 289, 17, 352, 144
-0.959756, 81, 193, 208, 320
-0.960988, 121, 289, 184, 352
-0.961365, 233, 249, 296, 312
-0.96191, 257, 145, 320, 272
-0.962522, 161, 161, 288, 288
-0.963872, 97, 297, 160, 360
-0.964049, 361, 209, 424, 336
-0.964205, 121, 241, 184, 368
-0.964251, 353, 145, 480, 272
-0.964495, 209, 129, 336, 256
-0.965181, 161, 161, 224, 288
-0.96582, 257, 241, 320, 368
-0.966256, 17, 209, 144, 336
-0.966654, 209, 233, 272, 296
-0.966769, 145, 241, 208, 368
-0.967121, 249, 65, 312, 192
-0.967299, 281, 65, 344, 192
-0.967348, 225, 49, 288, 176
-0.967632, 273, 153, 336, 216
-0.967972, 257, 97, 500, 224
-0.968332, 89, 265, 152, 328
-0.968457, 185, 225, 248, 288
-0.968626, 297, 113, 360, 240
-0.968732, 321, 217, 384, 280
-0.968735, 201, 145, 264, 208
-0.968836, 97, 193, 160, 320
-0.969149, 273, 81, 400, 208
-0.969224, 369, 209, 496, 336
-0.969237, 289, 1, 352, 256
-0.969319, 129, 193, 192, 320
-0.969438, 201, 113, 264, 240
-0.969684, 193, 305, 256, 368
-0.9699, 293, 161, 324, 288
-0.970635, 241, 193, 304, 320
-0.970765, 353, 1, 416, 128
-0.970785, 249, 217, 312, 280
-0.971094, 89, 241, 152, 368
-0.971114, 125, 281, 156, 344
-0.971246, 129, 49, 256, 176
-0.971295, 209, 17, 272, 80
-0.9715, 177, 33, 240, 160
-0.971749, 185, 129, 248, 375
-0.97177, 177, 193, 240, 256
-0.971984, 273, 177, 336, 240
-0.972117, 257, 65, 320, 320
-0.972177, 81, 241, 208, 368
-0.972234, 185, 265, 248, 328
-0.972511, 213, 225, 244, 352
-0.972711, 257, 1, 320, 128
-0.972867, 121, 265, 184, 328
-0.972869, 201, 177, 264, 240
-0.972893, 225, 241, 352, 304
-0.973035, 313, 193, 376, 256
-0.973089, 65, 33, 192, 160
-0.973373, 409, 209, 472, 336
-0.973379, 425, 217, 488, 280
-0.973982, 385, 209, 448, 336
-0.974108, 249, 145, 312, 208
-0.974194, 353, 145, 416, 272
-0.974415, 313, 129, 376, 375
-0.974635, 9, 209, 72, 336
-0.974726, 209, 1, 272, 256
-0.974975, 345, 17, 408, 80
-0.975081, 273, 233, 400, 296
-0.975351, 265, 57, 328, 120
-0.975454, 289, 249, 352, 312
-0.97549, 361, 225, 424, 288
-0.975518, 313, 9, 376, 72
-0.975568, 121, 313, 184, 375
-0.975647, 305, 305, 368, 368
-0.975808, 33, 81, 288, 208
-0.975861, 321, 249, 384, 312
-0.976009, 177, 113, 240, 240
-0.976015, 225, 57, 288, 120
-0.976222, 145, 297, 208, 360
-0.976237, 257, 177, 384, 240
-0.976364, 281, 129, 344, 375
-0.976368, 377, 33, 440, 160
-0.976744, 273, 201, 400, 264
-0.976748, 233, 225, 264, 352
-0.976875, 97, 297, 224, 360
-0.976926, 209, 153, 336, 216
-0.977008, 297, 225, 328, 288
-0.977012, 337, 1, 400, 256
-0.977145, 201, 65, 264, 192
-0.9772, 369, 1, 432, 64
-0.977362, 273, 201, 336, 264
-0.977589, 193, 25, 320, 88
-0.977604, 209, 217, 336, 280
-0.977652, 377, 33, 440, 96
-0.977714, 393, 225, 456, 288
-0.977733, 209, 209, 272, 272
-0.977742, 305, 161, 336, 288
-0.977742, 433, 161, 496, 288
-0.977878, 257, 241, 320, 304
-0.977985, 177, 241, 304, 304
-0.978006, 129, 257, 256, 320
-0.978015, 305, 137, 368, 200
-0.978209, 277, 225, 308, 288
-0.978572, 229, 241, 260, 304
-0.978717, 305, 209, 336, 336
-0.978777, 289, 17, 416, 80
-0.979039, 33, 193, 96, 320
-0.979179, 401, 1, 464, 128
-0.979233, 213, 169, 244, 232
-0.979235, 17, 33, 144, 160
-0.979243, 337, 313, 400, 375
-0.979455, 213, 161, 244, 288
-0.979479, 225, 1, 256, 128
-0.979788, 313, 1, 376, 256
-0.979801, 213, 265, 244, 328
-0.979811, 257, 17, 320, 80
-0.979824, 129, 97, 256, 224
-0.979861, 49, 273, 176, 336
-0.97989, 369, 1, 496, 128
-0.979955, 145, 289, 272, 352
-0.980026, 337, 97, 464, 224
-0.980394, 97, 193, 160, 256
-0.980425, 321, 225, 448, 288
-0.980458, 73, 193, 136, 320
-0.980486, 137, 33, 200, 160
-0.98055, 193, 65, 320, 128
-0.980588, 137, 201, 200, 264
-0.980654, 177, 313, 304, 375
-0.980661, 281, 121, 344, 184
-0.980669, 249, 81, 312, 144
-0.980678, 329, 273, 392, 336
-0.980691, 129, 41, 192, 104
-0.980756, 361, 1, 424, 256
-0.980813, 325, 145, 356, 272
-0.980839, 289, 1, 352, 375
-0.980875, 225, 265, 352, 328
-0.980963, 409, 1, 472, 64
-0.981066, 317, 153, 348, 216
-0.981088, 301, 177, 332, 240
-0.981447, 301, 145, 332, 208
-0.981452, 217, 233, 248, 296
-0.981601, 265, 1, 328, 375
-0.981659, 273, 73, 304, 136
-0.981757, 129, 233, 256, 296
-0.98176, 249, 121, 312, 184
-0.98192, 293, 209, 324, 336
-0.981934, 225, 161, 256, 288
-0.982047, 269, 225, 300, 352
-0.982118, 277, 249, 308, 312
-0.9822, 113, 33, 176, 160
-0.98221, 9, 17, 72, 144
-0.982257, 281, 241, 312, 368
-0.982301, 185, 41, 248, 104
-0.982442, 225, 1, 288, 375
-0.982534, 49, 241, 112, 368
-0.982646, 273, 153, 400, 216
-0.982669, 281, 33, 344, 96
-0.982674, 193, 161, 224, 224
-0.982734, 9, 273, 72, 336
-0.982753, 377, 161, 440, 288
-0.982816, 329, 1, 360, 128
-0.982881, 177, 1, 240, 375
-0.983084, 161, 129, 224, 375
-0.983134, 313, 185, 344, 248
-0.983149, 357, 1, 388, 128
-0.983157, 345, 97, 408, 224
-0.983197, 209, 129, 272, 375
-0.983241, 209, 97, 272, 160
-0.983376, 81, 33, 144, 160
-0.983423, 169, 289, 232, 352
-0.983488, 281, 161, 312, 288
-0.983545, 285, 57, 316, 120
-0.98358, 113, 145, 240, 272
-0.983612, 209, 265, 272, 328
-0.983617, 333, 305, 364, 368
-0.983634, 353, 201, 416, 264
-0.983725, 113, 273, 144, 336
-0.983729, 201, 161, 232, 288
-0.983749, 137, 145, 200, 272
-0.983893, 297, 201, 328, 264
-0.98392, 369, 1, 496, 64
-0.984024, 137, 289, 168, 352
-0.984042, 289, 177, 320, 240
-0.984094, 225, 289, 288, 352
-0.984106, 225, 97, 288, 224
-0.984129, 289, 153, 320, 216
-0.984251, 213, 201, 244, 264
-0.984353, 177, 145, 240, 208
-0.984423, 201, 1, 264, 375
-0.984532, 193, 129, 320, 192
-0.984579, 125, 305, 156, 368
-0.984598, 225, 161, 288, 224
-0.9846, 341, 1, 372, 128
-0.984603, 41, 17, 104, 144
-0.984605, 121, 1, 184, 375
-0.984614, 113, 305, 144, 368
-0.984675, 169, 33, 232, 288
-0.984755, 241, 297, 368, 360
-0.98478, 433, 193, 496, 256
-0.984804, 273, 49, 400, 112
-0.984896, 193, 89, 320, 152
-0.984916, 65, 265, 128, 328
-0.984923, 233, 129, 296, 375
-0.985016, 317, 241, 348, 368
-0.985076, 353, 193, 480, 256
-0.985095, 145, 257, 208, 320
-0.985102, 289, 9, 352, 72
-0.985141, 337, 169, 368, 232
-0.985204, 345, 161, 376, 288
-0.985215, 241, 25, 368, 88
-0.985305, 369, 225, 496, 288
-0.985321, 321, 273, 448, 336
-0.985418, 225, 1, 352, 64
-0.985448, 145, 17, 272, 80
-0.985494, 321, 113, 384, 240
-0.985658, 273, 89, 336, 152
-0.985725, 265, 241, 296, 304
-0.985775, 273, 65, 304, 192
-0.985801, 321, 1, 384, 375
-0.985928, 129, 169, 256, 232
-0.986036, 49, 297, 112, 360
-0.986119, 161, 217, 224, 280
-0.986137, 233, 33, 296, 96
-0.986251, 193, 193, 320, 256
-0.986299, 433, 217, 464, 280
-0.986311, 209, 97, 240, 224
-0.986314, 345, 145, 408, 208
-0.986422, 385, 201, 448, 264
-0.986507, 97, 201, 224, 264
-0.986513, 273, 257, 400, 320
-0.986527, 245, 241, 276, 368
-0.986552, 81, 1, 144, 375
-0.986571, 385, 1, 448, 256
-0.986624, 321, 297, 448, 360
-0.986638, 305, 17, 336, 144
-0.986665, 145, 41, 272, 104
-0.986665, 233, 1, 296, 128
-0.98673, 213, 1, 244, 128
-0.986765, 73, 289, 136, 352
-0.986843, 329, 169, 392, 232
-0.986846, 361, 1, 424, 375
-0.986879, 289, 57, 352, 120
-0.986888, 237, 1, 268, 128
-0.986894, 361, 97, 424, 352
-0.986914, 33, 273, 96, 336
-0.986927, 205, 225, 236, 288
-0.986941, 257, 89, 384, 152
-0.986944, 129, 33, 192, 288
-0.986987, 225, 137, 288, 200
-0.987004, 401, 25, 464, 88
-0.987061, 373, 193, 404, 320
-0.98708, 317, 1, 348, 128
-0.987118, 433, 1, 496, 64
-0.987118, 201, 73, 264, 136
-0.98714, 73, 1, 136, 256
-0.987142, 209, 145, 240, 208
-0.987237, 201, 121, 264, 184
-0.98725, 113, 217, 176, 280
-0.987268, 293, 49, 324, 176
-0.98729, 465, 209, 496, 272
-0.987325, 1, 1, 64, 256
-0.987388, 309, 225, 340, 288
-0.987401, 153, 177, 216, 240
-0.987499, 357, 193, 388, 320
-0.987569, 1, 281, 128, 344
-0.987576, 405, 1, 436, 128
-0.987591, 369, 1, 400, 128
-0.98763, 177, 265, 304, 328
-0.987668, 369, 217, 400, 280
-0.987713, 189, 145, 220, 272
-0.987757, 49, 305, 176, 368
-0.987865, 129, 169, 192, 232
-0.987939, 145, 1, 208, 375
-0.987946, 261, 65, 292, 128
-0.987984, 337, 153, 464, 216
-0.988061, 161, 49, 224, 112
-0.988091, 233, 33, 296, 288
-0.988093, 133, 257, 164, 320
-0.988101, 337, 97, 400, 352
-0.988128, 425, 97, 488, 352
-0.988188, 9, 25, 72, 88
-0.988197, 257, 225, 288, 352
-0.988213, 225, 65, 256, 192
-0.988321, 345, 313, 376, 375
-0.988346, 65, 33, 128, 96
-0.988354, 261, 49, 292, 176
-0.988368, 401, 161, 464, 288
-0.988435, 33, 209, 96, 272
-0.988461, 241, 129, 368, 192
-0.98849, 125, 241, 156, 368
-0.988539, 421, 217, 452, 280
-0.988566, 381, 17, 412, 144
-0.98857, 449, 217, 480, 280
-0.988603, 121, 177, 152, 304
-0.988609, 49, 1, 112, 375
-0.98864, 49, 193, 176, 256
-0.988655, 25, 1, 88, 375
-0.988679, 337, 25, 464, 88
-0.988689, 289, 273, 352, 336
-0.988705, 33, 161, 160, 288
-0.988726, 393, 193, 424, 320
-0.988734, 89, 129, 152, 375
-0.988737, 321, 249, 448, 312
-0.988739, 285, 201, 316, 264
-0.988743, 225, 185, 288, 248
-0.988757, 309, 17, 340, 80
-0.988787, 17, 33, 144, 96
-0.988825, 305, 165, 368, 196
-0.988845, 141, 209, 172, 336
-0.988862, 101, 305, 132, 368
-0.988893, 225, 177, 256, 240
-0.988919, 145, 209, 272, 272
-0.988951, 97, 41, 224, 104
-0.989048, 105, 33, 168, 288
-0.989074, 241, 249, 272, 312
-0.989077, 305, 177, 432, 240
-0.989131, 1, 1, 64, 375
-0.989156, 145, 313, 176, 375
-0.989202, 245, 49, 276, 176
-0.989235, 121, 185, 152, 248
-0.98934, 225, 313, 288, 375
-0.989386, 397, 217, 428, 280
-0.989445, 81, 249, 208, 312
-0.989465, 217, 17, 248, 80
-0.989486, 21, 209, 52, 336
-0.98958, 173, 241, 204, 368
-0.989583, 165, 193, 196, 320
-0.989634, 185, 173, 248, 204
-0.989673, 385, 33, 416, 96
-0.989692, 273, 241, 336, 272
-0.989718, 329, 9, 360, 72
-0.989731, 105, 49, 168, 112
-0.989738, 397, 1, 428, 64
-0.989753, 229, 145, 260, 208
-0.989753, 269, 177, 300, 304
-0.989772, 233, 17, 264, 80
-0.989792, 137, 225, 200, 288
-0.989792, 417, 209, 448, 336
-0.989807, 273, 313, 336, 375
-0.989841, 405, 193, 436, 320
-0.989872, 349, 201, 380, 264
-0.98995, 393, 17, 424, 144
-0.989978, 321, 129, 448, 192
-0.989987, 293, 33, 324, 96
-0.989992, 225, 249, 288, 280
-0.990018, 169, 313, 200, 375
-0.99002, 277, 145, 308, 208
-0.990025, 153, 289, 184, 352
-0.99007, 373, 17, 404, 80
-0.990072, 161, 233, 416, 296
-0.990072, 365, 145, 396, 272
-0.990083, 121, 297, 184, 328
-0.990084, 17, 217, 144, 280
-0.990088, 321, 297, 352, 360
-0.990099, 249, 41, 280, 104
-0.990125, 213, 49, 244, 176
-0.990162, 1, 225, 32, 352
-0.990231, 97, 297, 160, 328
-0.990248, 385, 1, 448, 375
-0.990256, 273, 49, 304, 112
-0.990258, 145, 129, 272, 192
-0.99026, 329, 145, 360, 208
-0.990267, 265, 105, 296, 168
-0.990321, 121, 285, 184, 316
-0.990329, 409, 225, 440, 288
-0.990333, 17, 281, 48, 344
-0.990343, 201, 225, 232, 352
-0.990345, 361, 229, 424, 260
-0.990373, 393, 225, 456, 256
-0.990414, 197, 33, 228, 160
-0.990419, 97, 281, 160, 312
-0.99044, 185, 229, 248, 260
-0.99046, 177, 73, 240, 136
-0.990483, 249, 249, 312, 280
-0.990505, 101, 281, 132, 344
-0.990535, 329, 193, 360, 320
-0.990538, 401, 97, 464, 352
-0.990547, 105, 309, 168, 340
-0.990551, 177, 185, 240, 216
-0.990554, 177, 197, 240, 228
-0.990556, 281, 229, 344, 260
-0.990571, 273, 157, 336, 188
-0.990584, 17, 249, 144, 312
-0.990645, 401, 97, 464, 160
-0.990649, 469, 161, 500, 288
-0.990654, 165, 201, 196, 264
-0.990704, 201, 49, 232, 112
-0.990713, 397, 41, 428, 104
-0.990717, 305, 33, 368, 96
-0.990758, 249, 193, 312, 256
-0.990769, 273, 177, 336, 208
-0.990771, 257, 225, 500, 288
-0.990789, 201, 241, 264, 272
-0.9908, 305, 345, 368, 375
-0.9908, 217, 305, 248, 368
-0.990825, 177, 209, 240, 240
-0.990826, 201, 161, 264, 192
-0.990831, 37, 209, 68, 336
-0.990834, 249, 73, 312, 104
-0.990846, 353, 169, 416, 232
-0.990847, 109, 249, 140, 312
-0.990874, 361, 249, 424, 312
-0.990908, 313, 177, 376, 208
-0.990948, 65, 257, 320, 320
-0.99095, 193, 289, 320, 352
-0.990964, 25, 1, 88, 256
-0.990974, 1, 1, 32, 128
-0.990984, 249, 237, 312, 268
-0.990985, 289, 253, 352, 284
-0.99099, 193, 313, 256, 344
-0.990992, 433, 1, 496, 128
-0.991052, 253, 241, 284, 304
-0.991071, 417, 225, 480, 256
-0.991071, 169, 121, 232, 184
-0.991072, 225, 57, 288, 88
-0.9911, 221, 57, 252, 120
-0.99111, 201, 185, 264, 216
-0.991159, 9, 217, 72, 280
-0.991195, 249, 149, 312, 180
-0.991202, 313, 221, 376, 252
-0.991204, 329, 121, 392, 184
-0.991211, 209, 25, 272, 56
-0.991239, 185, 265, 248, 296
-0.991243, 53, 193, 84, 320
-0.99125, 257, 61, 320, 92
-0.991257, 385, 217, 416, 280
-0.991281, 301, 97, 332, 224
-0.991283, 289, 1, 320, 128
-0.991291, 177, 253, 240, 284
-0.991386, 81, 269, 144, 300
-0.991386, 65, 297, 320, 360
-0.991432, 285, 81, 316, 144
-0.991434, 409, 17, 440, 80
-0.991446, 249, 169, 312, 232
-0.991509, 313, 189, 376, 220
-0.991526, 281, 265, 344, 296
-0.991527, 201, 213, 264, 244
-0.991563, 209, 229, 272, 260
-0.991575, 209, 37, 272, 68
-0.991586, 193, 285, 256, 316
-0.991593, 225, 69, 288, 100
-0.991599, 337, 17, 400, 48
-0.991607, 313, 17, 376, 48
-0.991629, 209, 173, 272, 204
-0.991639, 289, 145, 352, 176
-0.991641, 137, 205, 200, 236
-0.991643, 113, 197, 176, 228
-0.99165, 369, 29, 432, 60
-0.991661, 177, 49, 240, 80
-0.991663, 225, 209, 256, 272
-0.991701, 273, 337, 336, 368
-0.99171, 161, 309, 224, 340
-0.991711, 281, 61, 344, 92
-0.991718, 369, 17, 432, 48
-0.991732, 433, 209, 496, 336
-0.99174, 33, 33, 96, 96
-0.991749, 353, 217, 416, 248
-0.991758, 193, 257, 448, 320
-0.991761, 129, 273, 192, 304
-0.991773, 129, 313, 192, 344
-0.991778, 273, 197, 336, 228
-0.991779, 49, 1, 112, 256
-0.991781, 89, 325, 152, 356
-0.991784, 105, 225, 136, 352
-0.991792, 145, 65, 272, 128
-0.991842, 201, 197, 264, 228
-0.991842, 1, 297, 64, 360
-0.991844, 349, 177, 380, 240
-0.991849, 129, 261, 192, 292
-0.991853, 113, 241, 176, 304
-0.991861, 193, 301, 256, 332
-0.991894, 305, 333, 368, 364
-0.991896, 249, 313, 312, 375
-0.991896, 337, 229, 400, 260
-0.991898, 361, 273, 424, 336
-0.9919, 321, 257, 384, 288
-0.991905, 241, 137, 304, 168
-0.991934, 185, 17, 248, 80
-0.991949, 177, 241, 240, 272
-0.991955, 249, 45, 312, 76
-0.991955, 161, 161, 416, 224
-0.991979, 249, 101, 312, 132
-0.99199, 9, 281, 72, 312
-0.991996, 73, 297, 136, 328
-0.99201, 121, 45, 184, 76
-0.992013, 201, 57, 264, 88
-0.992014, 337, 329, 400, 360
-0.992016, 229, 113, 260, 240
-0.99203, 1, 281, 32, 344
-0.992033, 153, 241, 184, 368
-0.992041, 257, 225, 320, 256
-0.992042, 433, 49, 496, 176
-0.992046, 321, 245, 384, 276
-0.992047, 225, 301, 288, 332
-0.992061, 321, 285, 384, 316
-0.99209, 321, 273, 384, 304
-0.992091, 273, 77, 336, 108
-0.992098, 249, 113, 312, 144
-0.992113, 145, 345, 208, 375
-0.992118, 209, 149, 272, 180
-0.99213, 273, 213, 336, 244
-0.992135, 161, 173, 224, 204
-0.992143, 185, 329, 248, 360
-0.992149, 337, 341, 400, 372
-0.992151, 125, 297, 156, 328
-0.992174, 313, 209, 376, 240
-0.992181, 217, 89, 248, 152
-0.99219, 145, 41, 176, 104
-0.992207, 377, 41, 440, 72
-0.992209, 409, 193, 472, 256
-0.992212, 433, 213, 496, 244
-0.992232, 313, 113, 344, 240
-0.992259, 169, 313, 232, 375
-0.992264, 41, 213, 104, 244
-0.992269, 137, 193, 200, 224
-0.992277, 145, 297, 208, 328
-0.992277, 249, 165, 312, 196
-0.992304, 113, 341, 176, 372
-0.992306, 81, 313, 144, 344
-0.992314, 145, 325, 208, 356
-0.992327, 169, 297, 232, 328
-0.992339, 361, 241, 424, 272
-0.992354, 317, 161, 348, 192
-0.99237, 249, 261, 312, 292
-0.992392, 285, 113, 316, 240
-0.992393, 357, 17, 388, 80
-0.992399, 105, 209, 168, 240
-0.9924, 81, 337, 144, 368
-0.992401, 409, 21, 472, 52
-0.992411, 321, 65, 384, 192
-0.992413, 209, 113, 272, 144
-0.99243, 453, 193, 484, 256
-0.992435, 385, 237, 448, 268
-0.992435, 345, 9, 376, 72
-0.992439, 249, 85, 312, 116
-0.992447, 41, 277, 104, 308
-0.992448, 125, 281, 156, 312
-0.99245, 429, 193, 460, 320
-0.992452, 369, 5, 432, 36
-0.992458, 161, 221, 224, 252
-0.992461, 289, 21, 352, 52
-0.992462, 225, 161, 288, 192
-0.992469, 249, 33, 312, 64
-0.992474, 233, 145, 296, 272
-0.992476, 313, 153, 376, 184
-0.992477, 297, 229, 328, 260
-0.992498, 269, 249, 300, 280
-0.992498, 1, 305, 128, 368
-0.992509, 105, 269, 168, 300
-0.992509, 305, 317, 368, 348
-0.992513, 301, 161, 332, 192
-0.992518, 177, 69, 240, 100
-0.99253, 345, 305, 408, 336
-0.992531, 285, 237, 316, 268
-0.992547, 249, 333, 312, 364
-0.992576, 353, 205, 416, 236
-0.992579, 257, 265, 320, 328
-0.99258, 153, 49, 216, 80
-0.992586, 225, 241, 256, 272
-0.992606, 217, 321, 280, 352
-0.99261, 345, 29, 408, 60
-0.992614, 225, 81, 288, 112
-0.992635, 301, 181, 332, 212
-0.99264, 257, 25, 500, 88
-0.992643, 305, 305, 368, 336
-0.992653, 209, 101, 272, 132
-0.992656, 229, 121, 260, 184
-0.992661, 401, 1, 464, 32
-0.992662, 369, 129, 432, 192
-0.992663, 297, 241, 360, 272
-0.992663, 281, 89, 344, 120
-0.992667, 337, 49, 464, 176
-0.992668, 257, 185, 500, 248
-0.99267, 193, 169, 224, 200
-0.992695, 89, 25, 152, 88
-0.992709, 449, 209, 480, 336
-0.992712, 213, 177, 244, 208
-0.992728, 65, 209, 96, 336
-0.99273, 393, 129, 456, 192
-0.992741, 401, 225, 432, 256
-0.992745, 213, 265, 244, 296
-0.99275, 209, 165, 240, 196
-0.992764, 137, 285, 168, 316
-0.992766, 145, 105, 272, 168
-0.992768, 289, 177, 320, 208
-0.992779, 369, 229, 400, 260
-0.99279, 381, 229, 412, 260
-0.99285, 333, 337, 364, 368
-0.992859, 129, 129, 192, 375
-0.992866, 273, 69, 304, 100
-0.992869, 469, 1, 500, 128
-0.992875, 161, 289, 416, 352
-0.992876, 213, 189, 244, 220
-0.992886, 213, 225, 244, 256
-0.992888, 145, 257, 176, 320
-0.992896, 281, 249, 312, 280
-0.99291, 129, 265, 160, 296
-0.992914, 113, 277, 144, 308
-0.992924, 161, 209, 416, 272
-0.992939, 321, 341, 352, 372
-0.99294, 213, 309, 244, 340
-0.992942, 425, 225, 456, 256
-0.992944, 297, 217, 328, 248
-0.992952, 201, 185, 232, 248
-0.992954, 449, 225, 480, 256
-0.992958, 265, 209, 296, 272
-0.992967, 253, 105, 284, 168
-0.992974, 213, 205, 244, 236
-0.992977, 117, 313, 148, 344
-0.992987, 329, 161, 360, 192
-0.99299, 357, 225, 388, 288
-0.993001, 277, 261, 308, 292
-0.993005, 317, 173, 348, 204
-0.993008, 413, 225, 444, 256
-0.993009, 277, 149, 308, 180
-0.993015, 437, 225, 468, 256
-0.99302, 465, 221, 496, 252
-0.993044, 185, 97, 248, 160
-0.993046, 105, 313, 136, 344
-0.993053, 273, 237, 304, 268
-0.993055, 281, 225, 312, 256
-0.993066, 109, 265, 140, 296
-0.993075, 105, 301, 136, 332
-0.993076, 325, 13, 356, 44
-0.993079, 229, 149, 260, 180
-0.993095, 205, 25, 236, 88
-0.993096, 309, 217, 340, 248
-0.993103, 289, 61, 320, 92
-0.993106, 205, 253, 236, 284
-0.993108, 113, 145, 176, 272
-0.993117, 89, 241, 152, 304
-0.993121, 305, 337, 336, 368
-0.993129, 297, 145, 328, 176
-0.993144, 289, 201, 320, 232
-0.993149, 213, 237, 244, 268
-0.993153, 309, 233, 340, 264
-0.993161, 345, 341, 376, 372
-0.993165, 257, 249, 288, 280
-0.993166, 357, 229, 388, 260
-0.993167, 165, 205, 196, 236
-0.993169, 133, 313, 164, 344
-0.993172, 281, 81, 312, 112
-0.993178, 273, 101, 304, 132
-0.993181, 217, 277, 248, 308
-0.993183, 261, 73, 292, 104
-0.993195, 381, 29, 412, 60
-0.993205, 469, 1, 500, 64
-0.993211, 145, 45, 176, 76
-0.993214, 285, 213, 316, 244
-0.993223, 317, 193, 348, 320
-0.993229, 401, 25, 432, 56
-0.99323, 121, 193, 152, 224
-0.993235, 245, 57, 276, 88
-0.993238, 337, 173, 368, 204
-0.993239, 225, 181, 256, 212
-0.993245, 237, 249, 268, 280
-0.993247, 213, 53, 244, 84
-0.993248, 141, 297, 172, 328
-0.99325, 213, 289, 244, 320
-0.993251, 325, 217, 356, 280
-0.993251, 313, 193, 344, 224
-0.993252, 113, 17, 176, 80
-0.993261, 301, 197, 332, 228
-0.993266, 93, 337, 124, 368
-0.993266, 225, 165, 256, 196
-0.993267, 73, 313, 136, 375
-0.993268, 465, 5, 496, 36
-0.993272, 209, 153, 240, 184
-0.993272, 369, 217, 400, 248
-0.993275, 393, 237, 424, 268
-0.993281, 393, 41, 424, 72
-0.993281, 221, 65, 252, 96
-0.993282, 333, 309, 364, 340
-0.993283, 169, 337, 200, 368
-0.993286, 25, 281, 56, 312
-0.99329, 289, 161, 320, 192
-0.99329, 93, 325, 124, 356
-0.993291, 225, 317, 256, 348
-0.993293, 301, 21, 332, 52
-0.993298, 225, 193, 256, 224
-0.9933, 49, 281, 80, 312
-0.993307, 291, 217, 306, 280
-0.993309, 401, 49, 464, 176
-0.993309, 305, 89, 432, 152
-0.993311, 345, 193, 376, 224
-0.993313, 413, 1, 444, 32
-0.993314, 345, 329, 376, 360
-0.993317, 257, 57, 288, 88
-0.99332, 129, 273, 144, 336
-0.993325, 369, 17, 400, 48
-0.993326, 285, 189, 316, 220
-0.993326, 465, 209, 496, 240
-0.993328, 193, 181, 224, 212
-0.993334, 233, 57, 264, 88
-0.993334, 293, 249, 324, 280
-0.993335, 221, 17, 252, 48
-0.993351, 233, 301, 264, 332
-0.993355, 253, 237, 284, 268
-0.993358, 345, 17, 376, 48
-0.993359, 217, 253, 248, 284
-0.993366, 321, 149, 352, 180
-0.993367, 265, 113, 296, 144
-0.99337, 369, 241, 400, 272
-0.993372, 241, 145, 272, 176
-0.993374, 273, 57, 304, 88
-0.993374, 289, 333, 320, 364
-0.993379, 397, 13, 428, 44
-0.99339, 197, 97, 228, 224
-0.993391, 201, 241, 232, 272
-0.993392, 377, 241, 408, 304
-0.993402, 413, 33, 444, 64
-0.993402, 289, 33, 320, 64
-0.993411, 349, 209, 380, 240
-0.993412, 293, 73, 324, 104
-0.993415, 201, 205, 232, 236
-0.993418, 313, 25, 344, 56
-0.99342, 277, 333, 308, 364
-0.99342, 77, 313, 108, 344
-0.993428, 201, 313, 232, 344
-0.99343, 253, 109, 284, 140
-0.993432, 105, 289, 136, 320
-0.993435, 333, 285, 364, 316
-0.993436, 381, 217, 412, 248
-0.993439, 81, 225, 208, 288
-0.99344, 233, 289, 264, 352
-0.993445, 97, 49, 352, 112
-0.993454, 1, 209, 256, 272
-0.993599, 161, 313, 416, 375
-0.993706, 469, 185, 500, 248
-0.993748, 57, 129, 120, 375
-0.993759, 313, 89, 376, 152
-0.993762, 425, 241, 488, 304
-0.993773, 135, 281, 150, 344
-0.993787, 145, 145, 208, 208
-0.993803, 85, 193, 116, 320
-0.993841, 161, 9, 224, 72
-0.993845, 225, 245, 352, 276
-0.993858, 289, 249, 320, 312
-0.993878, 141, 33, 172, 160
-0.993893, 153, 33, 184, 160
-0.993913, 97, 17, 224, 80
-0.993919, 369, 249, 496, 312
-0.993922, 1, 201, 500, 264
-0.993933, 33, 273, 64, 336
-0.993933, 161, 185, 416, 248
-0.993938, 341, 113, 372, 240
-0.993938, 249, 177, 280, 304
-0.994042, 153, 193, 184, 320
-0.994076, 1, 129, 64, 375
-0.994102, 33, 233, 288, 296
-0.994121, 237, 177, 268, 304
-0.994217, 373, 241, 404, 368
-0.994222, 457, 161, 488, 288
-0.994315, 225, 233, 352, 264
-0.99432, 157, 313, 188, 375
-0.994331, 325, 81, 356, 208
-0.994347, 237, 41, 268, 104
-0.994372, 105, 33, 136, 160
-0.994413, 197, 313, 228, 375
-0.994419, 283, 241, 298, 304
-0.994436, 369, 105, 496, 168
-0.99449, 205, 289, 236, 352
-0.994507, 53, 273, 84, 336
-0.994512, 289, 229, 416, 260
-0.994515, 33, 17, 64, 144
-0.99454, 313, 265, 344, 328
-0.994548, 433, 113, 496, 240
-0.994567, 197, 137, 228, 200
-0.994567, 181, 169, 212, 232
-0.994571, 65, 273, 96, 336
-0.994641, 73, 17, 104, 144
-0.994642, 81, 241, 112, 368
-0.994658, 241, 113, 272, 176
-0.99467, 305, 113, 368, 176
-0.994711, 273, 217, 400, 248
-0.994726, 73, 177, 136, 240
-0.994739, 97, 137, 224, 200
-0.994801, 25, 297, 88, 360
-0.99483, 205, 73, 236, 136
-0.994876, 173, 33, 204, 160
-0.994887, 129, 25, 384, 88
-0.99489, 249, 217, 280, 280
-0.994893, 417, 129, 480, 192
-0.994919, 297, 57, 328, 120
-0.994932, 225, 257, 352, 288
-0.994941, 329, 241, 360, 368
-0.994946, 177, 249, 304, 280
-0.994948, 217, 113, 248, 176
-0.994959, 97, 313, 224, 344
-0.994977, 333, 273, 364, 336
-0.995001, 273, 173, 400, 204
-0.995012, 17, 257, 48, 320
-0.995014, 161, 81, 416, 144
-0.995047, 161, 137, 416, 200
-0.99506, 257, 49, 500, 112
-0.995062, 229, 233, 244, 296
-0.995071, 317, 161, 332, 224
-0.995079, 353, 81, 480, 144
-0.995081, 17, 9, 144, 72
-0.99509, 193, 65, 320, 96
-0.995097, 369, 97, 432, 160
-0.995099, 341, 137, 372, 200
-0.995109, 1, 313, 500, 375
-0.995113, 317, 129, 348, 192
-0.995147, 393, 249, 456, 312
-0.995162, 33, 249, 96, 312
-0.995172, 1, 289, 500, 352
-0.995172, 225, 153, 352, 184
-0.995187, 369, 273, 496, 336
-0.99523, 409, 1, 472, 375
-0.995232, 345, 241, 376, 368
-0.995257, 141, 281, 156, 344
-0.995261, 129, 33, 160, 160
-0.995263, 227, 265, 242, 328
-0.995265, 145, 217, 176, 280
-0.995304, 145, 177, 176, 240
-0.995304, 329, 249, 360, 312
-0.995315, 221, 249, 236, 312
-0.995328, 93, 241, 124, 368
-0.995335, 281, 113, 312, 176
-0.995375, 303, 177, 318, 240
-0.995438, 417, 161, 448, 288
-0.995459, 313, 185, 328, 248
-0.995471, 309, 209, 324, 272
-0.995471, 129, 261, 256, 292
-0.995475, 13, 17, 44, 144
-0.995479, 273, 245, 400, 276
-0.995486, 109, 177, 140, 304
-0.995517, 353, 225, 480, 256
-0.995528, 193, 41, 320, 72
-0.995545, 1, 257, 500, 320
-0.99556, 225, 269, 352, 300
-0.995563, 127, 297, 142, 360
-0.995569, 289, 21, 416, 52
-0.995606, 185, 209, 216, 336
-0.995609, 433, 1, 496, 256
-0.995653, 49, 57, 176, 120
-0.995656, 265, 1, 296, 128
-0.995668, 223, 225, 238, 288
-0.995675, 237, 217, 268, 280
-0.9957, 291, 57, 306, 120
-0.9957, 145, 297, 272, 328
-0.995723, 153, 81, 216, 208
-0.995736, 177, 237, 304, 268
-0.995763, 323, 153, 338, 216
-0.995764, 33, 129, 96, 375
-0.995765, 73, 201, 136, 264
-0.995772, 311, 153, 326, 216
-0.995775, 101, 33, 132, 96
-0.995819, 239, 241, 254, 304
-0.99582, 189, 41, 220, 104
-0.995842, 117, 49, 148, 176
-0.995858, 209, 21, 336, 52
-0.995865, 257, 161, 500, 224
-0.995867, 285, 65, 300, 128
-0.995895, 257, 1, 500, 64
-0.995901, 97, 277, 224, 308
-0.995913, 123, 273, 138, 336
-0.995936, 49, 33, 80, 160
-0.995953, 273, 185, 400, 216
-0.995959, 145, 309, 272, 340
-0.99596, 277, 169, 308, 232
-0.99598, 65, 113, 192, 240
-0.995996, 193, 53, 320, 84
-0.996006, 49, 297, 176, 328
-0.996017, 409, 201, 440, 264
-0.996019, 65, 185, 320, 248
-0.996021, 295, 241, 310, 304
-0.996025, 135, 257, 150, 320
-0.996039, 217, 161, 232, 224
-0.996055, 133, 41, 164, 104
-0.996057, 257, 89, 500, 152
-0.996065, 353, 145, 384, 208
-0.996069, 1, 177, 500, 240
-0.996081, 81, 161, 208, 224
-0.996083, 273, 257, 400, 288
-0.996087, 177, 321, 304, 352
-0.996126, 301, 225, 316, 288
-0.996127, 225, 265, 256, 328
-0.996135, 173, 289, 204, 352
-0.996159, 33, 273, 160, 304
-0.996189, 209, 165, 336, 196
-0.99622, 249, 81, 280, 144
-0.996235, 405, 49, 436, 176
-0.996247, 285, 217, 300, 280
-0.996253, 339, 305, 354, 368
-0.996258, 277, 17, 308, 144
-0.996269, 161, 105, 416, 168
-0.996289, 347, 313, 362, 375
-0.99629, 485, 193, 500, 256
-0.996297, 289, 33, 416, 64
-0.996297, 337, 49, 464, 112
-0.996299, 77, 297, 108, 360
-0.996299, 141, 305, 156, 368
-0.996314, 369, 313, 496, 375
-0.996318, 295, 153, 310, 216
-0.996346, 297, 193, 312, 256
-0.996366, 321, 9, 448, 40
-0.996377, 277, 65, 308, 320
-0.996393, 65, 329, 192, 360
-0.996425, 85, 17, 116, 144
-0.996453, 257, 121, 500, 184
-0.996459, 219, 193, 234, 256
-0.996461, 97, 301, 224, 332
-0.996462, 273, 197, 400, 228
-0.996465, 257, 337, 384, 368
-0.996472, 289, 241, 304, 304
-0.996472, 409, 113, 472, 240
-0.996472, 61, 17, 92, 144
-0.996479, 433, 1, 496, 375
-0.996508, 393, 145, 424, 272
-0.996517, 469, 209, 500, 336
-0.996519, 193, 77, 320, 108
-0.99652, 1, 193, 128, 256
-0.996544, 319, 233, 334, 296
-0.996581, 369, 13, 496, 44
-0.996599, 333, 297, 348, 360
-0.996599, 121, 297, 136, 360
-0.996614, 205, 161, 220, 224
-0.996615, 1, 41, 256, 104
-0.996615, 165, 129, 196, 256
-0.996622, 477, 209, 492, 272
-0.996627, 369, 129, 496, 192
-0.996632, 297, 1, 328, 256
-0.996638, 305, 153, 320, 216
-0.996662, 193, 221, 320, 252
-0.996678, 193, 109, 320, 140
-0.996686, 145, 45, 272, 76
-0.996688, 305, 273, 432, 304
-0.996727, 303, 201, 318, 264
-0.996727, 331, 153, 346, 216
-0.996729, 193, 121, 320, 152
-0.996744, 273, 161, 400, 192
-0.996747, 193, 133, 320, 164
-0.996762, 361, 241, 392, 368
-0.996786, 97, 289, 224, 320
-0.996801, 321, 241, 448, 272
-0.996805, 145, 285, 272, 316
-0.996805, 417, 1, 448, 128
-0.996808, 441, 161, 472, 288
-0.99681, 113, 249, 240, 280
-0.996812, 295, 33, 310, 96
-0.996813, 277, 241, 292, 304
-0.996818, 147, 289, 162, 352
-0.996826, 357, 97, 388, 224
-0.99683, 97, 209, 224, 240
-0.996842, 129, 249, 144, 312
-0.996847, 355, 177, 370, 240
-0.996858, 301, 17, 316, 80
-0.996863, 205, 129, 236, 375
-0.996874, 451, 217, 466, 280
-0.996914, 193, 93, 320, 124
-0.996916, 427, 225, 442, 288
-0.996924, 177, 265, 304, 296
-0.996926, 315, 209, 330, 272
-0.996928, 279, 73, 294, 136
-0.99693, 289, 237, 304, 268
-0.996932, 145, 33, 272, 64
-0.996938, 147, 265, 162, 328
-0.996946, 97, 65, 224, 128
-0.996949, 209, 185, 336, 216
-0.996954, 49, 285, 176, 316
-0.996959, 1, 9, 500, 72
-0.996967, 223, 73, 238, 136
-0.996968, 309, 1, 340, 256
-0.996991, 375, 225, 390, 288
-0.996997, 273, 57, 400, 88
-0.997016, 241, 33, 368, 64
-0.99706, 97, 197, 224, 228
-0.997072, 131, 281, 146, 312
-0.997077, 217, 129, 248, 375
-0.99708, 437, 217, 452, 280
-0.997083, 297, 57, 312, 120
-0.997086, 307, 17, 322, 80
-0.99709, 349, 169, 364, 232
-0.997102, 361, 201, 376, 264
-0.997117, 457, 217, 472, 280
-0.997122, 397, 217, 412, 280
-0.997134, 273, 113, 304, 240
-0.997143, 211, 233, 226, 296
-0.997146, 285, 105, 300, 168
-0.997166, 319, 185, 334, 248
-0.997167, 271, 249, 286, 312
-0.997169, 219, 137, 234, 200
-0.997173, 141, 145, 172, 272
-0.997195, 385, 217, 400, 280
-0.997196, 445, 217, 460, 280
-0.997198, 421, 225, 436, 288
-0.997199, 387, 25, 402, 88
-0.997213, 391, 217, 406, 280
-0.997216, 97, 341, 224, 372
-0.99722, 315, 17, 330, 80
-0.997229, 345, 1, 376, 256
-0.997234, 369, 225, 384, 288
-0.997238, 471, 209, 486, 272
-0.997247, 49, 261, 176, 292
-0.997254, 397, 33, 412, 96
-0.997275, 117, 265, 132, 328
-0.997286, 377, 9, 392, 72
-0.997297, 129, 237, 256, 268
-0.997298, 297, 129, 328, 375
-0.997299, 305, 285, 432, 316
-0.997303, 115, 289, 130, 352
-0.997305, 229, 297, 244, 360
-0.99731, 293, 225, 308, 256
-0.997314, 257, 89, 384, 120
-0.997315, 273, 45, 400, 76
-0.997323, 229, 169, 244, 232
-0.997325, 273, 65, 288, 128
-0.997326, 355, 9, 370, 72
-0.997327, 353, 213, 480, 244
-0.997332, 127, 297, 142, 328
-0.997334, 463, 209, 478, 272
-0.997336, 257, 313, 500, 375
-0.99735, 217, 81, 232, 144
-0.997351, 283, 245, 298, 276
-0.997353, 217, 1, 248, 256
-0.997355, 257, 313, 384, 344
-0.997362, 329, 129, 360, 375
-0.997366, 211, 49, 226, 112
-0.997371, 257, 77, 384, 108
-0.997376, 321, 325, 448, 356
-0.997376, 481, 9, 496, 72
-0.997376, 369, 25, 496, 56
-0.997382, 17, 213, 144, 244
-0.997383, 403, 41, 418, 104
-0.997393, 225, 281, 352, 312
-0.997395, 135, 305, 150, 368
-0.9974, 65, 81, 320, 144
-0.99741, 369, 1, 496, 32
-0.997412, 65, 129, 320, 192
-0.997414, 23, 281, 38, 344
-0.997424, 329, 9, 344, 72
-0.997426, 161, 173, 288, 204
-0.997428, 137, 281, 152, 312
-0.997432, 219, 25, 234, 88
-0.997432, 405, 217, 420, 280
-0.997435, 321, 261, 448, 292
-0.997437, 325, 129, 340, 192
-0.997438, 411, 217, 426, 280
-0.997439, 337, 161, 352, 224
-0.997445, 291, 253, 306, 284
-0.997454, 303, 41, 318, 104
-0.997456, 251, 249, 266, 312
-0.997469, 207, 185, 222, 248
-0.997475, 321, 17, 336, 80
-0.997478, 289, 145, 304, 208
-0.997479, 321, 161, 448, 192
-0.997492, 49, 313, 176, 344
-0.997496, 239, 9, 254, 72
-0.997497, 321, 297, 448, 328
-0.997499, 163, 297, 178, 360
-0.997502, 249, 17, 264, 80
-0.997514, 405, 145, 436, 272
-0.99752, 329, 217, 344, 280
-0.997526, 33, 273, 48, 336
-0.997532, 1, 297, 128, 328
-0.997537, 339, 9, 354, 72
-0.997542, 349, 9, 364, 72
-0.997542, 1, 41, 500, 104
-0.997548, 321, 161, 336, 192
-0.99755, 279, 97, 294, 160
-0.99755, 237, 281, 252, 344
-0.997556, 273, 149, 400, 180
-0.997557, 81, 145, 144, 272
-0.997558, 417, 17, 432, 80
-0.997566, 343, 161, 358, 224
-0.997571, 285, 185, 300, 248
-0.997573, 241, 97, 272, 224
-0.997575, 361, 1, 392, 256
-0.997583, 135, 293, 150, 324
-0.997586, 273, 137, 400, 168
-0.997586, 177, 153, 304, 184
-0.997591, 133, 185, 148, 248
-0.997593, 381, 1, 412, 256
-0.997609, 225, 293, 352, 324
-0.997618, 201, 33, 232, 288
-0.997618, 411, 17, 426, 80
-0.997623, 225, 9, 240, 72
-0.997625, 221, 257, 236, 288
-0.997631, 141, 257, 156, 320
-0.997639, 209, 333, 336, 364
-0.997643, 169, 313, 184, 375
-0.997647, 257, 249, 272, 312
-0.997661, 291, 193, 306, 256
-0.99767, 15, 281, 30, 344
-0.997687, 307, 181, 322, 212
-0.997687, 219, 105, 234, 168
-0.997688, 255, 41, 270, 104
-0.997689, 339, 137, 354, 200
-0.99769, 245, 241, 260, 304
-0.997694, 33, 17, 288, 80
-0.997704, 367, 17, 382, 80
-0.99771, 131, 269, 146, 300
-0.997716, 311, 165, 326, 196
-0.997718, 347, 137, 362, 200
-0.99772, 97, 313, 112, 375
-0.997721, 213, 209, 228, 272
-0.997725, 325, 1, 356, 256
-0.997726, 1, 285, 128, 316
-0.997728, 267, 113, 282, 176
-0.997745, 143, 285, 158, 316
-0.997746, 211, 161, 226, 224
-0.997751, 273, 109, 400, 140
-0.997781, 397, 1, 428, 256
-0.997782, 317, 129, 348, 375
-0.997805, 65, 105, 320, 168
-0.997807, 257, 325, 384, 356
-0.997813, 1, 161, 64, 288
-0.997827, 401, 225, 416, 256
-0.997829, 161, 345, 288, 375
-0.997831, 97, 53, 224, 84
-0.997863, 225, 9, 352, 40
-0.997865, 321, 313, 448, 344
-0.997878, 129, 325, 256, 356
-0.997887, 337, 185, 464, 216
-0.99789, 345, 345, 360, 375
-0.997904, 305, 229, 320, 260
-0.997905, 229, 269, 244, 300
-0.997911, 409, 1, 472, 256
-0.997912, 49, 241, 80, 368
-0.997912, 313, 181, 328, 212
-0.997914, 383, 229, 398, 260
-0.997916, 371, 229, 386, 260
-0.997921, 207, 165, 222, 196
-0.997944, 413, 225, 428, 256
-0.997957, 1, 309, 128, 340
-0.997958, 17, 169, 144, 232
-0.997966, 301, 177, 316, 208
-0.997967, 145, 65, 272, 96
-0.997974, 337, 337, 352, 368
-0.99798, 137, 265, 152, 296
-0.997984, 407, 225, 422, 256
-0.997993, 393, 229, 408, 260
-0.998008, 113, 177, 240, 208
-0.998018, 161, 197, 288, 228
-0.998032, 125, 273, 140, 304
-0.998047, 427, 225, 442, 256
-0.998049, 49, 201, 176, 232
-0.99805, 295, 241, 310, 272
-0.998053, 351, 345, 366, 375
-0.998061, 313, 217, 328, 248
-0.998069, 305, 345, 432, 375
-0.998069, 145, 133, 272, 164
-0.998075, 319, 173, 334, 204
-0.998075, 125, 313, 140, 344
-0.998092, 161, 21, 288, 52
-0.9981, 209, 305, 336, 336
-0.998101, 289, 73, 304, 104
-0.998105, 337, 201, 464, 232
-0.998107, 257, 289, 500, 352
-0.998132, 265, 65, 296, 320
-0.998137, 439, 225, 454, 256
-0.998141, 277, 249, 292, 280
-0.998141, 17, 345, 144, 375
-0.998143, 421, 225, 436, 256
-0.998143, 225, 237, 240, 268
-0.998147, 119, 305, 134, 336
-0.998147, 433, 225, 448, 256
-0.998149, 219, 165, 234, 196
-0.998158, 113, 221, 240, 252
-0.998164, 381, 145, 412, 272
-0.99817, 337, 173, 464, 204
-0.998176, 137, 305, 152, 336
-0.998177, 273, 121, 400, 152
-0.998177, 177, 161, 208, 288
-0.99818, 1, 225, 500, 288
-0.998183, 481, 221, 496, 252
-0.998184, 331, 341, 346, 372
-0.998185, 193, 129, 224, 375
-0.998186, 301, 161, 316, 192
-0.998188, 291, 153, 306, 184
-0.998195, 463, 225, 478, 256
-0.998204, 307, 217, 322, 248
-0.99821, 125, 285, 140, 316
-0.998219, 17, 325, 144, 356
-0.998222, 369, 237, 496, 268
-0.998225, 449, 225, 464, 256
-0.998226, 145, 209, 272, 240
-0.998231, 377, 229, 392, 260
-0.998235, 193, 209, 320, 240
-0.998244, 285, 257, 300, 288
-0.998245, 469, 1, 500, 256
-0.998246, 327, 161, 342, 192
-0.998248, 295, 57, 310, 88
-0.998254, 231, 241, 246, 272
-0.998267, 285, 85, 300, 116
-0.998271, 65, 153, 320, 216
-0.998283, 317, 233, 332, 264
-0.998291, 351, 173, 366, 204
-0.998301, 457, 225, 472, 256
-0.99831, 469, 225, 484, 256
-0.998321, 261, 97, 292, 224
-0.998323, 165, 207, 196, 222
-0.998324, 253, 331, 284, 346
-0.998324, 261, 75, 292, 90
-0.998324, 169, 343, 200, 358
-0.998325, 217, 291, 248, 306
-0.998325, 413, 1, 444, 16
-0.998325, 105, 291, 136, 306
-0.998325, 93, 337, 124, 352
-0.998327, 385, 39, 416, 54
-0.998328, 281, 173, 312, 188
-0.998328, 405, 237, 436, 252
-0.998328, 217, 307, 248, 322
-0.998328, 193, 183, 224, 198
-0.99833, 265, 247, 296, 262
-0.99833, 105, 301, 136, 316
-0.998331, 357, 231, 388, 246
-0.998331, 225, 175, 256, 190
-0.998332, 241, 251, 272, 266
-0.998333, 345, 17, 376, 32
-0.998334, 145, 309, 176, 324
-0.998334, 369, 241, 400, 256
-0.998335, 109, 311, 140, 326
-0.998335, 245, 149, 276, 164
-0.998337, 219, 217, 234, 248
-0.998338, 217, 205, 232, 236
-0.998338, 345, 317, 360, 348
-0.99834, 233, 325, 264, 340
-0.99834, 365, 21, 396, 36
-0.99834, 369, 37, 496, 68
-0.99834, 289, 39, 320, 54
-0.998341, 313, 177, 344, 192
-0.998342, 397, 29, 428, 44
-0.998342, 465, 13, 496, 28
-0.998342, 205, 253, 236, 268
-0.998342, 309, 215, 340, 230
-0.998343, 287, 225, 302, 256
-0.998344, 333, 171, 364, 186
-0.998344, 145, 47, 176, 62
-0.998345, 405, 35, 436, 50
-0.998349, 97, 325, 128, 340
-0.998349, 345, 337, 376, 352
-0.998349, 313, 193, 344, 208
-0.998349, 225, 69, 256, 84
-0.99835, 285, 77, 316, 92
-0.998351, 273, 9, 400, 40
-0.998352, 213, 299, 244, 314
-0.998354, 273, 109, 304, 124
-0.998354, 141, 299, 172, 314
-0.998354, 317, 341, 348, 356
-0.998354, 317, 171, 348, 186
-0.998355, 289, 259, 320, 274
-0.998355, 217, 319, 248, 334
-0.998356, 285, 189, 316, 204
-0.998357, 301, 27, 332, 42
-0.998358, 281, 207, 312, 222
-0.99836, 225, 181, 256, 196
-0.998362, 213, 201, 244, 216
-0.998364, 281, 267, 312, 282
-0.998366, 297, 223, 328, 238
-0.998367, 333, 337, 364, 352
-0.998367, 381, 239, 412, 254
-0.998368, 277, 255, 308, 270
-0.998369, 341, 347, 372, 362
-0.99837, 277, 83, 308, 98
-0.998371, 133, 313, 164, 328
-0.998372, 253, 247, 284, 262
-0.998372, 289, 253, 320, 268
-0.998372, 345, 357, 376, 372
-0.998373, 305, 339, 336, 354
-0.998376, 217, 285, 248, 300
-0.998376, 295, 173, 310, 204
-0.998377, 453, 225, 484, 240
-0.998379, 213, 221, 244, 236
-0.998379, 141, 285, 172, 300
-0.99838, 131, 313, 146, 344
-0.998381, 329, 15, 360, 30
-0.998382, 305, 187, 336, 202
-0.998382, 285, 225, 316, 240
-0.998382, 301, 239, 332, 254
-0.998383, 205, 213, 236, 228
-0.998383, 393, 237, 424, 252
-0.998383, 205, 259, 236, 274
-0.998384, 269, 67, 300, 82
-0.998384, 297, 197, 328, 212
-0.998384, 209, 233, 240, 248
-0.998388, 217, 273, 248, 288
-0.998388, 217, 161, 248, 176
-0.99839, 217, 279, 248, 294
-0.99839, 297, 155, 328, 170
-0.998393, 113, 273, 144, 288
-0.998394, 413, 227, 444, 242
-0.998396, 297, 211, 328, 226
-0.998396, 213, 227, 244, 242
-0.998397, 121, 317, 152, 332
-0.998399, 289, 63, 320, 78
-0.998401, 1, 153, 500, 216
-0.998402, 449, 17, 480, 144
-0.998404, 213, 207, 244, 222
-0.998406, 305, 21, 320, 52
-0.998406, 227, 309, 242, 340
-0.998408, 109, 317, 140, 332
-0.99841, 285, 237, 316, 252
-0.99841, 437, 227, 468, 242
-0.998411, 161, 1, 416, 64
-0.998411, 289, 217, 320, 232
-0.998412, 109, 317, 124, 348
-0.998413, 401, 229, 432, 244
-0.998414, 465, 225, 496, 240
-0.998419, 213, 173, 244, 188
-0.998423, 425, 227, 456, 242
-0.998427, 381, 231, 412, 246
-0.998428, 29, 361, 60, 375
-0.998429, 277, 151, 308, 166
-0.998429, 397, 241, 428, 368
-0.998432, 213, 313, 244, 328
-0.998435, 209, 185, 240, 200
-0.998437, 329, 343, 360, 358
-0.998438, 329, 165, 360, 180
-0.998438, 273, 77, 304, 92
-0.998439, 345, 169, 360, 200
-0.998439, 217, 239, 248, 254
-0.998446, 125, 275, 156, 290
-0.998447, 285, 243, 316, 258
-0.99845, 301, 181, 332, 196
-0.998452, 289, 231, 320, 246
-0.998454, 143, 305, 158, 336
-0.998455, 229, 97, 260, 352
-0.998457, 125, 287, 156, 302
-0.998458, 213, 191, 244, 206
-0.99846, 319, 337, 334, 368
-0.99846, 479, 209, 494, 240
-0.998461, 213, 267, 244, 282
-0.998462, 289, 163, 352, 178
-0.998462, 193, 175, 224, 190
-0.998462, 137, 317, 152, 348
-0.998463, 213, 179, 244, 194
-0.998465, 265, 253, 296, 268
-0.998466, 271, 249, 286, 280
-0.99847, 97, 41, 224, 72
-0.99847, 209, 167, 240, 182
-0.99847, 33, 37, 160, 68
-0.998473, 305, 173, 368, 188
-0.998473, 289, 179, 320, 194
-0.998474, 185, 173, 248, 188
-0.998476, 217, 177, 232, 208
-0.998479, 119, 277, 134, 308
-0.99848, 369, 231, 400, 246
-0.998481, 289, 61, 304, 92
-0.998481, 473, 213, 488, 244
-0.998482, 137, 291, 168, 306
-0.998487, 349, 333, 364, 364
-0.998488, 299, 229, 314, 260
-0.998491, 125, 307, 156, 322
-0.998496, 335, 161, 350, 192
-0.998503, 215, 249, 230, 280
-0.998505, 301, 171, 332, 186
-0.998507, 225, 245, 256, 260
-0.99851, 331, 13, 346, 44
-0.99851, 237, 245, 252, 276
-0.998512, 129, 121, 256, 152
-0.998516, 301, 165, 332, 180
-0.998516, 125, 281, 156, 296
-0.998519, 281, 243, 344, 258
-0.99852, 353, 231, 416, 246
-0.998522, 299, 217, 314, 248
-0.998523, 1, 121, 500, 184
-0.998524, 185, 179, 248, 194
-0.998526, 317, 163, 348, 178
-0.998527, 105, 317, 168, 332
-0.998528, 251, 253, 266, 284
-0.998528, 103, 317, 118, 348
-0.998529, 281, 237, 344, 252
-0.998529, 217, 193, 232, 224
-0.998531, 245, 249, 260, 280
-0.998531, 287, 189, 302, 220
-0.998538, 313, 167, 376, 182
-0.998539, 197, 169, 228, 184
-0.998539, 277, 249, 308, 264
-0.99854, 209, 249, 272, 264
-0.998541, 277, 261, 308, 276
-0.998545, 81, 97, 208, 160
-0.998553, 129, 149, 256, 180
-0.998553, 481, 13, 496, 44
-0.998553, 197, 169, 212, 200
-0.998555, 301, 233, 332, 248
-0.998557, 201, 165, 264, 180
-0.998558, 185, 229, 248, 244
-0.99856, 249, 247, 312, 262
-0.99856, 185, 185, 248, 200
-0.998564, 475, 225, 490, 256
-0.998567, 401, 227, 464, 242
-0.998572, 97, 325, 112, 356
-0.998573, 201, 243, 264, 258
-0.998574, 97, 297, 160, 312
-0.998574, 289, 261, 352, 276
-0.998575, 433, 225, 496, 240
-0.998579, 177, 209, 240, 224
-0.998579, 345, 129, 376, 375
-0.998579, 97, 307, 160, 322
-0.99858, 305, 343, 368, 358
-0.99858, 117, 317, 132, 348
-0.998582, 177, 223, 240, 238
-0.998584, 297, 253, 312, 284
-0.998585, 121, 291, 184, 306
-0.998585, 319, 221, 334, 252
-0.998585, 121, 297, 184, 312
-0.998587, 185, 313, 248, 328
-0.998587, 273, 231, 336, 246
-0.998588, 397, 37, 412, 68
-0.998588, 281, 179, 344, 194
-0.998588, 121, 297, 152, 312
-0.998589, 249, 253, 312, 268
-0.998589, 273, 249, 336, 264
-0.99859, 377, 229, 440, 244
-0.99859, 185, 235, 248, 250
-0.998593, 305, 197, 320, 228
-0.998594, 121, 309, 184, 324
-0.998595, 177, 217, 240, 232
-0.998596, 365, 97, 396, 352
-0.998596, 193, 323, 256, 338
-0.998598, 369, 269, 496, 300
-0.998601, 125, 33, 156, 288
-0.998601, 273, 171, 336, 186
-0.998602, 313, 25, 328, 56
-0.998604, 305, 179, 368, 194
-0.998605, 273, 297, 400, 328
-0.998605, 177, 191, 240, 206
-0.998606, 209, 39, 272, 54
-0.998606, 389, 29, 404, 60
-0.998607, 313, 17, 376, 32
-0.998607, 125, 261, 140, 292
-0.998607, 289, 157, 352, 172
-0.998611, 241, 241, 304, 256
-0.998612, 291, 265, 306, 296
-0.998613, 97, 281, 160, 296
-0.998613, 225, 17, 240, 48
-0.998613, 277, 77, 292, 108
-0.998614, 225, 63, 288, 78
-0.998615, 311, 229, 326, 260
-0.998615, 177, 253, 240, 268
-0.998616, 201, 191, 264, 206
-0.998617, 249, 151, 312, 166
-0.998618, 249, 77, 312, 92
-0.998618, 209, 171, 272, 186
-0.998618, 201, 217, 264, 232
-0.998619, 239, 9, 254, 40
-0.99862, 477, 1, 492, 32
-0.998621, 209, 31, 272, 46
-0.998621, 369, 19, 432, 34
-0.998623, 313, 191, 376, 206
-0.998624, 193, 305, 256, 320
-0.998624, 193, 273, 256, 288
-0.998624, 89, 289, 152, 304
-0.998625, 219, 49, 234, 80
-0.998626, 265, 69, 328, 84
-0.998626, 229, 53, 244, 84
-0.998626, 137, 33, 168, 288
-0.998626, 281, 267, 344, 282
-0.998627, 285, 145, 300, 176
-0.998627, 369, 25, 432, 40
-0.998629, 353, 109, 480, 140
-0.998629, 193, 299, 256, 314
-0.998631, 209, 185, 272, 200
-0.998632, 177, 197, 240, 212
-0.998632, 9, 361, 72, 375
-0.998632, 209, 179, 272, 194
-0.998633, 249, 109, 312, 124
-0.998634, 169, 307, 232, 322
-0.998634, 177, 259, 240, 274
-0.998635, 313, 229, 376, 244
-0.998635, 137, 211, 200, 226
-0.998636, 369, 31, 432, 46
-0.998636, 193, 287, 256, 302
-0.998637, 209, 25, 272, 40
-0.998637, 185, 267, 248, 282
-0.998638, 209, 231, 272, 246
-0.998638, 209, 45, 272, 60
-0.998638, 413, 33, 428, 64
-0.998639, 281, 61, 344, 76
-0.998639, 177, 203, 240, 218
-0.99864, 217, 69, 280, 84
-0.99864, 273, 207, 336, 222
-0.99864, 129, 285, 192, 300
-0.998641, 193, 293, 256, 308
-0.998642, 241, 57, 304, 72
-0.998642, 257, 63, 320, 78
-0.998642, 325, 337, 340, 368
-0.998643, 113, 207, 176, 222
-0.998643, 113, 275, 176, 290
-0.998644, 289, 255, 352, 270
-0.998644, 321, 235, 384, 250
-0.998644, 313, 209, 376, 224
-0.998644, 209, 237, 272, 252
-0.998645, 193, 279, 256, 294
-0.998645, 249, 157, 312, 172
-0.998646, 177, 247, 240, 262
-0.998646, 281, 217, 344, 232
-0.998648, 281, 337, 344, 352
-0.998648, 201, 197, 264, 212
-0.998648, 393, 235, 456, 250
-0.998649, 201, 211, 264, 226
-0.99865, 249, 259, 312, 274
-0.99865, 289, 197, 352, 212
-0.998651, 273, 185, 336, 200
-0.998651, 89, 325, 152, 340
-0.998651, 379, 17, 394, 48
-0.998651, 193, 63, 256, 78
-0.998652, 185, 97, 216, 224
-0.998653, 137, 205, 200, 220
-0.998653, 257, 51, 320, 66
-0.998654, 353, 239, 416, 254
-0.998654, 217, 255, 280, 270
-0.998654, 225, 197, 352, 228
-0.998655, 201, 223, 264, 238
-0.998655, 249, 333, 312, 348
-0.998656, 321, 267, 384, 282
-0.998656, 81, 271, 144, 286
-0.998656, 313, 185, 376, 200
-0.998657, 17, 285, 80, 300
-0.998657, 121, 303, 184, 318
-0.998659, 129, 51, 192, 66
-0.998659, 305, 333, 368, 348
-0.998659, 305, 349, 368, 364
-0.99866, 269, 57, 284, 88
-0.998661, 145, 347, 208, 362
-0.998662, 161, 185, 288, 216
-0.998662, 321, 273, 384, 288
-0.998662, 161, 313, 224, 328
-0.998663, 249, 265, 312, 280
-0.998664, 283, 73, 298, 104
-0.998664, 129, 317, 192, 332
-0.998664, 209, 53, 272, 68
-0.998664, 337, 357, 400, 372
-0.998664, 177, 241, 240, 256
-0.998664, 393, 35, 456, 50
-0.998665, 485, 209, 500, 240
-0.998665, 265, 163, 328, 178
-0.998665, 249, 31, 312, 46
-0.998666, 249, 115, 312, 130
-0.998666, 161, 177, 224, 192
-0.998666, 223, 69, 238, 100
-0.998667, 225, 111, 288, 126
-0.998667, 323, 149, 338, 180
-0.998667, 365, 229, 380, 260
-0.998668, 227, 189, 242, 220
-0.998668, 281, 233, 296, 264
-0.998671, 485, 193, 500, 224
-0.998673, 215, 237, 230, 268
-0.998675, 127, 193, 142, 224
-0.998677, 189, 33, 220, 288
-0.998677, 315, 197, 330, 228
-0.998682, 299, 145, 314, 176
-0.99869, 109, 33, 140, 288
-0.998701, 185, 33, 216, 160
-0.998715, 229, 1, 260, 256
-0.99874, 307, 161, 322, 288
-0.998745, 1, 105, 128, 168
-0.998747, 253, 33, 284, 288
-0.998754, 29, 1, 60, 256
-0.998781, 241, 129, 272, 375
-0.998783, 299, 161, 314, 288
-0.998789, 129, 81, 256, 112
-0.998792, 337, 129, 464, 160
-0.998793, 317, 161, 332, 288
-0.998801, 227, 225, 242, 352
-0.998805, 1, 225, 128, 256
-0.998807, 145, 109, 272, 140
-0.998814, 93, 1, 124, 256
-0.99882, 5, 1, 36, 256
-0.998822, 321, 149, 448, 180
-0.99883, 41, 1, 72, 256
-0.99883, 177, 33, 208, 288
-0.998833, 17, 25, 144, 56
-0.998852, 237, 225, 252, 352
-0.998881, 337, 93, 464, 124
-0.998889, 429, 97, 460, 352
-0.998894, 353, 281, 480, 312
-0.998905, 217, 129, 232, 256
-0.998912, 405, 97, 436, 352
-0.99892, 17, 1, 48, 256
-0.998936, 1, 261, 128, 292
-0.998944, 221, 177, 236, 304
-0.998947, 241, 1, 272, 256
-0.998965, 469, 97, 500, 352
-0.998973, 145, 97, 272, 128
-0.998978, 121, 129, 152, 375
-0.999, 429, 145, 460, 272
-0.999025, 165, 33, 196, 288
-0.999036, 17, 97, 144, 224
-0.99904, 149, 33, 180, 288
-0.999045, 293, 193, 308, 320
-0.999053, 409, 1, 440, 256
-0.999056, 221, 241, 236, 368
-0.999061, 353, 341, 480, 372
-0.999064, 389, 97, 420, 352
-0.999064, 281, 225, 296, 352
-0.999066, 377, 97, 408, 352
-0.999069, 223, 1, 238, 128
-0.999071, 287, 209, 302, 336
-0.999082, 323, 145, 338, 272
-0.999084, 69, 1, 100, 256
-0.999085, 417, 97, 448, 352
-0.999085, 293, 145, 308, 272
-0.999115, 327, 241, 342, 368
-0.999116, 335, 1, 350, 128
-0.999118, 231, 1, 246, 128
-0.999127, 81, 1, 112, 256
-0.999145, 53, 1, 84, 256
-0.999147, 241, 1, 256, 128
-0.999161, 457, 97, 488, 352
-0.99918, 371, 1, 386, 128
-0.999183, 215, 225, 230, 352
-0.999184, 229, 177, 244, 304
-0.999187, 367, 209, 382, 336
-0.999193, 351, 1, 366, 128
-0.999198, 211, 177, 226, 304
-0.999198, 411, 1, 426, 128
-0.999208, 285, 65, 300, 192
-0.999216, 343, 1, 358, 128
-0.999216, 243, 225, 258, 352
-0.999232, 485, 1, 500, 128
-0.999235, 445, 97, 476, 352
-0.999241, 359, 1, 374, 128
-0.999247, 97, 177, 128, 304
-0.999255, 275, 225, 290, 352
-0.999267, 131, 241, 146, 368
-0.999269, 329, 145, 344, 272
-0.99927, 73, 129, 104, 375
-0.999279, 217, 81, 232, 208
-0.999281, 365, 1, 380, 128
-0.999281, 305, 209, 320, 336
-0.999282, 329, 1, 344, 128
-0.999286, 323, 193, 338, 320
-0.99929, 251, 241, 266, 368
-0.999303, 377, 1, 392, 128
-0.99931, 309, 17, 324, 144
-0.999315, 375, 193, 390, 320
-0.999315, 109, 129, 140, 375
-0.999316, 257, 241, 272, 368
-0.999317, 293, 241, 308, 368
-0.99932, 295, 49, 310, 176
-0.999321, 361, 177, 376, 304
-0.999323, 311, 209, 326, 336
-0.999324, 253, 33, 268, 160
-0.999325, 207, 129, 222, 256
-0.999334, 299, 209, 314, 336
-0.999339, 181, 129, 212, 375
-0.999344, 381, 193, 396, 320
-0.999347, 317, 209, 332, 336
-0.999348, 403, 33, 418, 160
-0.999353, 395, 17, 410, 144
-0.999374, 265, 241, 280, 368
-0.999376, 147, 209, 162, 336
-0.999378, 217, 17, 232, 144
-0.999379, 411, 193, 426, 320
-0.999382, 337, 241, 352, 368
-0.999382, 343, 145, 358, 272
-0.999385, 141, 193, 156, 320
-0.999386, 403, 209, 418, 336
-0.99939, 229, 49, 244, 176
-0.99939, 279, 65, 294, 192
-0.99939, 253, 129, 284, 375
-0.999392, 261, 49, 276, 176
-0.999399, 249, 1, 280, 128
-0.999401, 135, 177, 150, 304
-0.999408, 315, 17, 330, 144
-0.999411, 397, 209, 412, 336
-0.999418, 25, 209, 40, 336
-0.99942, 247, 1, 262, 128
-0.999427, 387, 193, 402, 320
-0.99943, 323, 17, 338, 144
-0.999439, 159, 193, 174, 320
-0.999442, 419, 193, 434, 320
-0.999443, 301, 113, 316, 240
-0.999448, 235, 177, 250, 304
-0.999449, 351, 161, 366, 288
-0.99945, 223, 49, 238, 176
-0.999453, 137, 129, 168, 375
-0.999456, 61, 129, 92, 375
-0.999458, 485, 161, 500, 288
-0.999463, 385, 1, 400, 128
-0.999464, 281, 177, 296, 304
-0.999468, 333, 193, 348, 320
-0.999471, 141, 241, 156, 368
-0.999472, 3, 1, 18, 128
-0.999474, 335, 145, 350, 272
-0.999476, 425, 209, 440, 336
-0.999484, 39, 209, 54, 336
-0.999485, 127, 177, 142, 304
-0.999486, 431, 209, 446, 336
-0.999488, 17, 209, 32, 336
-0.99949, 287, 145, 302, 272
-0.999492, 479, 1, 494, 128
-0.999493, 211, 33, 226, 160
-0.999501, 273, 49, 288, 176
-0.999508, 53, 193, 68, 320
-0.999518, 397, 161, 412, 288
-0.999518, 7, 225, 22, 352
-0.999518, 449, 1, 480, 256
-0.999519, 479, 161, 494, 288
-0.999522, 369, 161, 384, 288
-0.999523, 33, 209, 48, 336
-0.999523, 291, 97, 306, 224
-0.999524, 303, 33, 318, 160
-0.999527, 119, 193, 134, 320
-0.999528, 1, 209, 16, 336
-0.999531, 351, 113, 366, 240
-0.999532, 225, 239, 240, 254
-0.999533, 231, 319, 246, 334
-0.999533, 319, 339, 334, 354
-0.999533, 65, 193, 80, 320
-0.999534, 417, 1, 432, 16
-0.999534, 217, 177, 232, 192
-0.999534, 167, 193, 182, 320
-0.999534, 437, 193, 452, 320
-0.999535, 313, 159, 328, 174
-0.999535, 309, 199, 324, 214
-0.999535, 215, 249, 230, 264
-0.999536, 217, 201, 232, 216
-0.999536, 217, 219, 232, 234
-0.999537, 219, 227, 234, 242
-0.999537, 213, 167, 228, 182
-0.999537, 293, 179, 308, 194
-0.999537, 447, 209, 462, 336
-0.999539, 165, 241, 180, 368
-0.999539, 303, 39, 318, 54
-0.999539, 349, 349, 364, 364
-0.99954, 311, 113, 326, 240
-0.99954, 421, 227, 436, 242
-0.99954, 273, 253, 288, 268
-0.99954, 367, 361, 382, 375
-0.999542, 179, 177, 194, 304
-0.999542, 397, 237, 412, 252
-0.999542, 297, 255, 312, 270
-0.999542, 217, 213, 232, 228
-0.999543, 147, 311, 162, 326
-0.999543, 293, 57, 308, 72
-0.999543, 319, 237, 334, 252
-0.999543, 291, 63, 306, 78
-0.999544, 211, 81, 226, 208
-0.999545, 229, 277, 244, 292
-0.999545, 385, 231, 400, 246
-0.999545, 283, 241, 298, 256
-0.999545, 287, 219, 302, 234
-0.999546, 247, 65, 262, 192
-0.999546, 319, 189, 334, 204
-0.999547, 131, 317, 146, 332
-0.999547, 123, 277, 138, 292
-0.999547, 321, 21, 336, 36
-0.999547, 249, 253, 264, 268
-0.999547, 89, 209, 104, 336
-0.999547, 117, 311, 132, 326
-0.999547, 305, 223, 320, 238
-0.999548, 197, 171, 212, 186
-0.999549, 417, 1, 432, 128
-0.999549, 347, 171, 362, 186
-0.99955, 225, 311, 240, 326
-0.99955, 397, 39, 412, 54
-0.999551, 239, 325, 254, 340
-0.999552, 307, 213, 322, 228
-0.999552, 305, 25, 320, 40
-0.999552, 285, 253, 300, 268
-0.999553, 41, 361, 56, 375
-0.999554, 455, 209, 470, 336
-0.999554, 9, 1, 24, 128
-0.999555, 285, 71, 300, 86
-0.999555, 405, 237, 420, 252
-0.999555, 463, 225, 478, 240
-0.999556, 301, 241, 316, 256
-0.999558, 323, 157, 338, 172
-0.999558, 159, 241, 174, 368
-0.999559, 299, 223, 314, 238
-0.99956, 343, 361, 358, 375
-0.99956, 103, 321, 118, 336
-0.999562, 139, 313, 154, 328
-0.999564, 83, 193, 98, 320
-0.999564, 315, 173, 330, 188
-0.999564, 289, 227, 304, 242
-0.999564, 221, 163, 236, 178
-0.999564, 281, 149, 296, 164
-0.999567, 311, 221, 326, 236
-0.999567, 453, 227, 468, 242
-0.999567, 325, 341, 340, 356
-0.999567, 297, 235, 312, 250
-0.999568, 241, 247, 256, 262
-0.999569, 237, 65, 252, 192
-0.999571, 47, 209, 62, 336
-0.999572, 469, 225, 484, 240
-0.999572, 49, 129, 112, 256
-0.999573, 335, 341, 350, 356
-0.999574, 481, 225, 496, 240
-0.999574, 405, 161, 420, 288
-0.999574, 341, 335, 356, 350
-0.999574, 221, 267, 236, 282
-0.999575, 391, 229, 406, 244
-0.999575, 145, 33, 160, 160
-0.999576, 189, 161, 204, 288
-0.999576, 411, 237, 426, 252
-0.999578, 447, 227, 462, 242
-0.999578, 135, 297, 150, 312
-0.999579, 409, 229, 424, 244
-0.999579, 219, 169, 234, 184
-0.99958, 353, 361, 368, 375
-0.99958, 137, 275, 152, 290
-0.99958, 481, 15, 496, 30
-0.999581, 235, 245, 250, 260
-0.999581, 287, 145, 302, 160
-0.999581, 335, 335, 350, 350
-0.999582, 123, 317, 138, 332
-0.999583, 311, 187, 326, 202
-0.999584, 291, 153, 306, 168
-0.999584, 379, 231, 394, 246
-0.999584, 75, 209, 90, 336
-0.999584, 427, 227, 442, 242
-0.999584, 125, 307, 140, 322
-0.999585, 341, 167, 356, 182
-0.999586, 313, 181, 328, 196
-0.999586, 97, 193, 112, 320
-0.999587, 331, 163, 346, 178
-0.999588, 137, 307, 152, 322
-0.999588, 295, 265, 310, 280
-0.999589, 475, 225, 490, 240
-0.999589, 97, 97, 128, 352
-0.999589, 295, 243, 310, 258
-0.999589, 415, 229, 430, 244
-0.999591, 201, 145, 216, 272
-0.999592, 153, 193, 168, 320
-0.999592, 313, 233, 328, 248
-0.999596, 441, 227, 456, 242
-0.999596, 217, 207, 232, 222
-0.999598, 433, 227, 448, 242
-0.999598, 267, 49, 282, 176
-0.999599, 343, 345, 358, 360
-0.9996, 229, 271, 244, 286
-0.9996, 341, 65, 372, 192
-0.999602, 1, 81, 128, 144
-0.999602, 295, 229, 310, 244
-0.999602, 143, 285, 158, 300
-0.999603, 127, 287, 142, 302
-0.999604, 1, 97, 500, 160
-0.999604, 289, 77, 304, 92
-0.999608, 293, 217, 308, 232
-0.999613, 321, 169, 336, 184
-0.999614, 291, 253, 306, 268
-0.999615, 283, 261, 298, 276
-0.999622, 371, 231, 386, 246
-0.999623, 217, 255, 232, 270
-0.999624, 313, 167, 328, 182
-0.999628, 313, 213, 328, 228
-0.999629, 41, 129, 72, 375
-0.999636, 325, 163, 340, 178
-0.999637, 207, 167, 222, 182
-0.999641, 401, 229, 416, 244
-0.999644, 299, 179, 314, 194
-0.999647, 307, 181, 322, 196
-0.999662, 221, 261, 236, 276
-0.999663, 129, 281, 144, 296
-0.999666, 133, 287, 148, 302
-0.999674, 307, 231, 322, 246
-0.999678, 129, 297, 144, 312
-0.999679, 289, 243, 304, 258
-0.999681, 283, 247, 298, 262
-0.999687, 139, 291, 154, 306
-0.99969, 137, 281, 152, 296
-0.999701, 469, 113, 500, 240
-0.999703, 319, 163, 334, 178
-0.999705, 85, 129, 116, 375
-0.999711, 129, 273, 144, 288
-0.999714, 291, 237, 306, 252
-0.99972, 25, 129, 56, 375
-0.999754, 289, 261, 304, 276
-0.999767, 385, 241, 416, 368
-0.999791, 1, 65, 500, 128
-0.999852, 1, 57, 128, 120
-0.99988, 385, 113, 448, 240
-0.999891, 1, 129, 32, 375
-0.999924, 429, 1, 460, 256
-0.999932, 13, 129, 44, 375
-0.999951, 117, 1, 148, 128
-0.999967, 153, 129, 184, 375
-1.00004, 165, 129, 196, 375
-1.00052, 313, 65, 344, 192
-1.00055, 425, 49, 456, 176
-1.00058, 49, 121, 176, 184
-1.00065, 105, 129, 136, 256
-1.00075, 121, 97, 184, 224
-1.001, 1, 129, 128, 192
-1.0019, 25, 145, 88, 272
-1.00194, 353, 49, 416, 176
-1.00299, 1, 65, 64, 192
-1.00315, 57, 65, 120, 192
-1.00662, 33, 65, 96, 192
-1.00712, 81, 97, 144, 224
-1.01011, 1, 113, 64, 240
