1974
-0.523002, 1, 65, 500, 320
-0.572954, 1, 1, 500, 375
-0.610437, 257, 1, 500, 375
-0.697338, 257, 65, 500, 320
-0.697663, 161, 1, 416, 375
-0.698275, 65, 1, 320, 375
-0.726322, 161, 65, 416, 320
-0.787988, 1, 97, 256, 352
-0.856637, 1, 1, 256, 256
-0.873168, 1, 129, 128, 375
-0.885987, 289, 97, 416, 352
-0.894079, 1, 1, 128, 375
-0.895974, 1, 33, 128, 288
-0.90007, 273, 1, 400, 375
-0.901458, 193, 1, 320, 375
-0.911318, 1, 177, 500, 304
-0.91378, 97, 177, 352, 304
-0.915239, 1, 225, 500, 352
-0.91555, 193, 33, 320, 288
-0.923399, 145, 1, 272, 375
-0.923843, 81, 129, 208, 375
-0.925811, 161, 129, 288, 375
-0.92754, 369, 1, 496, 375
-0.927969, 257, 129, 500, 256
-0.928011, 49, 1, 176, 375
-0.930473, 353, 33, 480, 288
-0.931986, 209, 129, 336, 375
-0.932633, 1, 241, 256, 368
-0.934307, 49, 33, 176, 288
-0.934361, 1, 65, 500, 192
-0.938557, 257, 81, 500, 208
-0.940458, 1, 161, 128, 288
-0.943915, 1, 145, 256, 272
-0.94395, 1, 113, 64, 240
-0.944227, 145, 33, 272, 288
-0.944836, 257, 1, 384, 256
-0.945146, 257, 177, 500, 304
-0.945259, 9, 177, 72, 304
-0.948124, 97, 1, 224, 375
-0.948637, 321, 1, 448, 375
-0.950021, 273, 81, 400, 208
-0.950489, 33, 161, 96, 288
-0.950619, 1, 1, 500, 128
-0.952559, 1, 113, 500, 240
-0.953493, 193, 161, 320, 288
-0.953813, 97, 225, 352, 352
-0.953882, 1, 241, 128, 368
-0.954175, 161, 129, 416, 256
-0.955873, 257, 241, 500, 368
-0.95609, 129, 81, 384, 208
-0.957871, 9, 185, 72, 248
-0.957942, 1, 97, 256, 224
-0.958656, 65, 193, 128, 320
-0.959269, 249, 177, 312, 304
-0.959351, 1, 121, 64, 184
-0.959624, 1, 193, 256, 320
-0.959706, 33, 241, 96, 368
-0.960338, 257, 33, 500, 160
-0.960802, 33, 153, 96, 216
-0.961243, 49, 225, 176, 352
-0.961272, 353, 129, 480, 375
-0.961511, 1, 17, 128, 144
-0.96216, 1, 225, 64, 352
-0.962339, 273, 129, 400, 256
-0.963473, 25, 113, 88, 240
-0.963758, 65, 241, 128, 368
-0.965175, 81, 161, 208, 288
-0.96602, 89, 209, 152, 336
-0.96647, 33, 97, 160, 224
-0.966473, 257, 241, 320, 368
-0.966821, 1, 1, 64, 128
-0.966923, 313, 65, 376, 192
-0.966944, 209, 241, 336, 368
-0.967161, 65, 217, 128, 280
-0.967462, 281, 113, 344, 240
-0.967668, 9, 153, 72, 216
-0.967678, 257, 241, 384, 368
-0.968077, 209, 49, 336, 176
-0.968467, 313, 81, 376, 144
-0.968552, 1, 65, 64, 192
-0.968705, 97, 33, 224, 288
-0.969597, 1, 1, 64, 256
-0.969756, 9, 97, 72, 352
-0.970249, 33, 177, 96, 240
-0.970417, 105, 161, 168, 288
-0.971593, 257, 129, 320, 256
-0.972192, 1, 49, 256, 176
-0.97262, 97, 209, 224, 336
-0.972645, 225, 241, 288, 368
-0.972822, 353, 65, 480, 192
-0.973115, 145, 177, 272, 304
-0.97349, 145, 209, 208, 336
-0.973641, 353, 113, 480, 240
-0.973645, 305, 1, 432, 256
-0.973749, 177, 113, 304, 240
-0.973836, 241, 161, 304, 224
-0.974001, 41, 225, 104, 288
-0.974421, 25, 17, 88, 144
-0.974527, 129, 33, 384, 160
-0.974708, 289, 177, 416, 304
-0.974824, 1, 89, 64, 152
-0.975174, 249, 65, 312, 192
-0.975218, 273, 33, 336, 160
-0.975465, 21, 137, 52, 200
-0.975976, 105, 241, 168, 304
-0.976121, 65, 257, 128, 320
-0.97617, 45, 153, 76, 216
-0.976322, 41, 257, 104, 320
-0.976375, 257, 185, 320, 248
-0.976994, 49, 81, 112, 208
-0.977001, 57, 145, 120, 272
-0.977051, 105, 217, 168, 280
-0.97708, 161, 241, 288, 368
-0.977143, 21, 113, 52, 240
-0.977673, 1, 201, 128, 264
-0.977719, 25, 65, 88, 192
-0.977782, 9, 129, 40, 256
-0.978843, 281, 225, 344, 352
-0.978844, 33, 161, 64, 288
-0.978943, 57, 185, 120, 248
-0.978995, 17, 177, 48, 304
-0.979112, 1, 1, 256, 128
-0.979304, 45, 177, 76, 304
-0.979417, 185, 297, 248, 360
-0.979466, 9, 97, 40, 160
-0.979553, 249, 313, 312, 375
-0.979657, 9, 209, 72, 272
-0.979778, 273, 137, 336, 200
-0.979863, 129, 161, 192, 288
-0.979985, 73, 297, 136, 360
-0.980001, 89, 193, 120, 320
-0.980071, 225, 281, 288, 344
-0.980265, 1, 81, 32, 208
-0.980316, 9, 17, 72, 80
-0.980356, 33, 97, 96, 352
-0.980492, 33, 97, 96, 160
-0.980532, 5, 169, 36, 232
-0.98061, 265, 89, 328, 152
-0.980669, 1, 305, 64, 368
-0.980681, 49, 297, 112, 360
-0.980705, 193, 169, 320, 232
-0.980784, 33, 113, 64, 176
-0.980859, 25, 1, 88, 256
-0.981186, 257, 81, 384, 144
-0.981208, 129, 97, 256, 224
-0.981216, 225, 81, 288, 208
-0.981259, 161, 289, 224, 352
-0.981407, 33, 225, 160, 288
-0.981427, 25, 161, 56, 224
-0.981608, 145, 113, 208, 240
-0.981691, 1, 33, 32, 160
-0.98176, 209, 305, 272, 368
-0.981787, 9, 121, 40, 184
-0.981809, 137, 281, 200, 344
-0.98186, 161, 49, 288, 176
-0.9819, 1, 137, 128, 200
-0.981939, 177, 49, 240, 176
-0.982001, 225, 113, 352, 240
-0.982027, 337, 17, 464, 144
-0.982056, 1, 177, 128, 240
-0.982127, 37, 241, 68, 368
-0.982165, 185, 161, 248, 288
-0.982167, 5, 145, 36, 208
-0.982313, 257, 289, 320, 352
-0.982505, 17, 257, 144, 320
-0.982517, 233, 257, 296, 320
-0.982587, 281, 177, 312, 304
-0.982614, 45, 129, 76, 256
-0.982727, 105, 193, 168, 256
-0.982759, 105, 273, 168, 336
-0.982763, 369, 161, 496, 288
-0.982952, 61, 241, 92, 368
-0.983105, 145, 209, 208, 272
-0.983133, 49, 289, 176, 352
-0.983258, 81, 225, 208, 288
-0.983315, 129, 177, 192, 240
-0.98332, 25, 129, 88, 192
-0.98334, 9, 241, 72, 304
-0.983344, 177, 185, 240, 248
-0.983392, 33, 185, 64, 248
-0.983537, 249, 97, 312, 352
-0.983574, 113, 225, 176, 352
-0.983636, 89, 257, 120, 320
-0.983637, 257, 225, 320, 288
-0.983701, 273, 57, 336, 120
-0.98389, 77, 193, 108, 320
-0.983915, 57, 161, 88, 288
-0.984054, 25, 313, 88, 375
-0.984203, 273, 113, 400, 176
-0.984237, 169, 225, 232, 352
-0.984248, 57, 161, 120, 224
-0.984378, 273, 153, 400, 216
-0.984387, 33, 97, 64, 224
-0.984508, 273, 265, 336, 328
-0.98458, 249, 113, 312, 176
-0.984764, 49, 33, 112, 160
-0.984802, 153, 169, 216, 232
-0.984863, 49, 169, 176, 232
-0.984924, 93, 241, 124, 368
-0.984927, 145, 313, 272, 375
-0.984969, 137, 257, 200, 320
-0.98498, 297, 113, 328, 240
-0.985065, 13, 65, 44, 192
-0.985175, 241, 177, 368, 304
-0.985294, 1, 313, 128, 375
-0.985333, 193, 241, 256, 368
-0.985538, 169, 97, 232, 224
-0.985615, 273, 97, 336, 352
-0.985666, 97, 177, 224, 240
-0.985702, 81, 249, 208, 312
-0.985708, 289, 113, 352, 176
-0.985734, 273, 177, 336, 304
-0.985866, 13, 201, 44, 264
-0.985928, 209, 97, 336, 160
-0.985961, 217, 57, 280, 120
-0.986157, 153, 161, 216, 288
-0.986264, 17, 113, 144, 176
-0.986301, 113, 313, 176, 375
-0.98636, 81, 201, 208, 264
-0.986439, 77, 241, 108, 368
-0.986485, 21, 113, 52, 176
-0.986491, 193, 305, 320, 368
-0.986539, 385, 161, 448, 288
-0.98666, 57, 97, 120, 352
-0.986687, 285, 185, 316, 248
-0.986707, 89, 217, 120, 280
-0.986719, 337, 97, 400, 224
-0.98672, 225, 57, 352, 120
-0.986749, 285, 241, 316, 368
-0.986793, 289, 209, 352, 272
-0.986802, 9, 33, 40, 96
-0.986819, 57, 185, 88, 248
-0.98691, 9, 225, 40, 352
-0.987004, 201, 177, 264, 240
-0.987079, 13, 17, 44, 144
-0.987088, 9, 1, 72, 375
-0.987117, 353, 129, 480, 192
-0.987118, 233, 81, 296, 144
-0.987232, 201, 33, 264, 160
-0.987233, 241, 305, 368, 368
-0.98726, 145, 185, 272, 248
-0.987297, 33, 41, 96, 104
-0.9873, 233, 137, 296, 200
-0.987307, 169, 105, 232, 168
-0.987307, 145, 289, 272, 352
-0.987318, 233, 129, 296, 256
-0.987318, 137, 313, 200, 375
-0.987378, 385, 225, 448, 288
-0.987393, 129, 137, 192, 200
-0.987417, 49, 225, 80, 352
-0.987438, 285, 129, 316, 256
-0.98746, 49, 225, 80, 288
-0.987493, 289, 201, 416, 264
-0.98771, 353, 81, 480, 144
-0.987718, 61, 257, 92, 320
-0.987718, 177, 265, 304, 328
-0.987809, 181, 185, 212, 248
-0.987812, 1, 65, 128, 128
-0.987855, 273, 161, 304, 224
-0.987921, 45, 185, 76, 248
-0.987984, 1, 281, 128, 344
-0.987993, 177, 81, 240, 144
-0.988082, 49, 65, 112, 128
-0.988092, 257, 273, 384, 336
-0.988156, 193, 225, 320, 288
-0.988163, 225, 1, 352, 128
-0.988186, 353, 105, 480, 168
-0.988198, 49, 145, 176, 208
-0.98822, 81, 113, 208, 240
-0.988322, 25, 225, 56, 352
-0.988415, 9, 65, 72, 128
-0.988453, 105, 153, 168, 216
-0.9885, 385, 201, 448, 264
-0.988556, 73, 81, 136, 144
-0.988573, 161, 97, 224, 352
-0.988594, 289, 137, 320, 200
-0.988616, 77, 265, 108, 328
-0.988632, 265, 297, 296, 360
-0.988663, 353, 153, 480, 216
-0.988665, 369, 241, 496, 368
-0.988674, 29, 1, 60, 128
-0.9887, 177, 257, 240, 320
-0.988752, 177, 145, 304, 208
-0.988912, 305, 89, 432, 152
-0.988947, 49, 313, 176, 375
-0.988961, 201, 113, 264, 240
-0.988962, 1, 141, 64, 172
-0.989001, 1, 33, 128, 96
-0.989004, 9, 73, 40, 136
-0.989093, 1, 41, 64, 104
-0.989183, 273, 177, 400, 240
-0.989227, 97, 289, 224, 352
-0.989238, 393, 209, 456, 336
-0.989366, 385, 257, 448, 320
-0.989391, 321, 73, 352, 136
-0.989409, 265, 1, 328, 256
-0.989444, 101, 249, 132, 312
-0.989452, 97, 153, 224, 216
-0.989563, 73, 313, 104, 375
-0.989566, 65, 225, 96, 288
-0.989569, 177, 57, 304, 120
-0.989573, 33, 49, 64, 176
-0.989659, 57, 105, 120, 168
-0.989845, 361, 193, 424, 320
-0.989894, 209, 193, 336, 256
-0.989984, 321, 225, 448, 352
-0.989987, 1, 89, 128, 152
-0.990006, 237, 313, 268, 375
-0.990074, 1, 177, 64, 208
-0.990138, 353, 313, 480, 375
-0.990139, 129, 209, 256, 272
-0.99016, 33, 17, 96, 80
-0.990223, 25, 181, 88, 212
-0.990233, 353, 177, 480, 240
-0.990234, 273, 129, 304, 256
-0.990281, 105, 209, 136, 336
-0.990311, 9, 129, 72, 160
-0.990318, 169, 129, 200, 256
-0.990331, 33, 165, 96, 196
-0.99037, 1, 281, 64, 344
-0.99041, 33, 1, 96, 375
-0.990442, 289, 81, 352, 144
-0.990533, 297, 65, 360, 320
-0.990549, 193, 121, 320, 184
-0.990584, 345, 145, 408, 272
-0.990621, 57, 153, 88, 216
-0.990624, 289, 241, 352, 304
-0.99068, 433, 1, 496, 128
-0.990683, 277, 233, 308, 296
-0.990704, 101, 225, 132, 288
-0.990737, 33, 137, 64, 200
-0.990795, 313, 85, 376, 116
-0.990847, 9, 165, 72, 196
-0.990864, 9, 193, 72, 224
-0.990875, 77, 217, 108, 280
-0.990884, 329, 113, 392, 176
-0.990892, 361, 241, 424, 368
-0.990899, 145, 233, 208, 296
-0.990998, 65, 221, 128, 252
-0.990998, 317, 65, 348, 192
-0.991064, 9, 153, 72, 184
-0.991072, 289, 225, 416, 288
-0.991078, 33, 201, 96, 264
-0.991089, 97, 313, 224, 375
-0.991092, 293, 193, 324, 320
-0.991128, 225, 33, 288, 160
-0.991153, 225, 1, 288, 375
-0.991207, 273, 249, 400, 312
-0.991265, 165, 169, 196, 232
-0.991278, 369, 209, 496, 272
-0.99128, 33, 153, 96, 184
-0.991283, 145, 221, 208, 252
-0.991284, 1, 209, 64, 240
-0.991285, 225, 129, 288, 375
-0.991291, 137, 289, 200, 320
-0.991293, 401, 1, 464, 128
-0.991295, 105, 245, 168, 276
-0.991306, 1, 101, 64, 132
-0.991349, 73, 81, 136, 208
-0.991355, 277, 281, 308, 344
-0.991372, 209, 33, 272, 288
-0.991431, 225, 193, 288, 320
-0.991538, 105, 225, 168, 256
-0.991552, 285, 81, 316, 208
-0.991557, 81, 177, 144, 240
-0.99156, 25, 289, 88, 352
-0.991567, 193, 49, 256, 112
-0.991609, 105, 281, 168, 312
-0.991679, 45, 129, 76, 192
-0.991684, 241, 173, 304, 204
-0.991699, 357, 97, 388, 224
-0.991705, 269, 225, 300, 352
-0.991709, 169, 209, 232, 272
-0.991715, 265, 97, 328, 128
-0.991718, 217, 313, 280, 344
-0.991719, 257, 145, 500, 208
-0.991729, 73, 57, 104, 120
-0.991738, 197, 185, 228, 248
-0.991757, 81, 17, 208, 144
-0.991782, 145, 185, 208, 216
-0.991791, 57, 181, 120, 212
-0.991838, 81, 289, 144, 320
-0.99184, 49, 1, 112, 256
-0.991846, 181, 161, 212, 288
-0.991848, 273, 161, 336, 224
-0.991856, 9, 221, 72, 252
-0.991858, 177, 185, 240, 216
-0.991863, 33, 249, 64, 312
-0.991875, 113, 233, 144, 296
-0.991877, 289, 97, 320, 160
-0.99188, 257, 197, 320, 228
-0.991913, 1, 117, 64, 148
-0.991916, 361, 305, 424, 368
-0.991921, 249, 185, 312, 216
-0.991938, 57, 265, 120, 296
-0.991944, 201, 333, 264, 364
-0.991972, 313, 17, 376, 144
-0.991976, 17, 21, 80, 52
-0.992002, 297, 177, 360, 304
-0.992018, 61, 313, 92, 375
-0.992021, 265, 109, 328, 140
-0.992022, 21, 89, 52, 152
-0.992025, 25, 141, 88, 172
-0.992025, 89, 257, 152, 288
-0.992028, 225, 289, 288, 320
-0.992033, 97, 213, 160, 244
-0.992038, 313, 97, 376, 128
-0.992054, 337, 57, 464, 120
-0.992068, 141, 225, 172, 352
-0.992089, 257, 225, 320, 256
-0.992094, 89, 345, 152, 375
-0.9921, 257, 241, 288, 368
-0.992106, 225, 301, 288, 332
-0.99211, 65, 337, 128, 368
-0.992114, 153, 345, 216, 375
-0.992127, 241, 89, 304, 120
-0.992155, 273, 81, 336, 112
-0.992156, 129, 173, 192, 204
-0.992161, 1, 241, 64, 272
-0.992181, 209, 289, 240, 352
-0.992187, 185, 297, 248, 328
-0.992192, 49, 209, 112, 240
-0.992212, 37, 217, 68, 280
-0.992221, 385, 237, 448, 268
-0.992233, 1, 41, 64, 72
-0.99224, 9, 309, 72, 340
-0.992251, 185, 129, 248, 375
-0.992252, 33, 105, 96, 136
-0.992268, 33, 117, 96, 148
-0.99227, 249, 325, 312, 356
-0.992272, 337, 97, 400, 352
-0.992284, 41, 309, 104, 340
-0.992291, 409, 9, 472, 72
-0.992294, 157, 281, 188, 344
-0.992315, 1, 137, 32, 168
-0.992335, 33, 193, 96, 224
-0.992343, 241, 345, 304, 375
-0.992344, 65, 33, 96, 160
-0.992347, 53, 81, 84, 208
-0.992358, 177, 205, 240, 236
-0.992383, 385, 205, 448, 236
-0.992387, 225, 325, 288, 356
-0.992389, 269, 257, 300, 320
-0.992389, 145, 197, 208, 228
-0.992421, 33, 257, 96, 288
-0.992432, 257, 209, 320, 240
-0.992435, 101, 161, 132, 288
-0.992451, 45, 257, 76, 320
-0.992475, 161, 89, 288, 152
-0.992478, 129, 277, 192, 308
-0.992498, 17, 129, 48, 160
-0.992506, 153, 137, 216, 200
-0.99251, 225, 69, 288, 100
-0.992516, 33, 229, 96, 260
-0.992517, 153, 333, 216, 364
-0.992527, 201, 345, 264, 375
-0.992527, 89, 329, 152, 360
-0.992567, 145, 233, 208, 264
-0.992574, 1, 149, 32, 180
-0.992578, 301, 121, 332, 184
-0.992578, 257, 249, 320, 280
-0.992584, 113, 297, 176, 328
-0.992601, 33, 137, 64, 168
-0.992603, 161, 293, 224, 324
-0.992612, 273, 157, 336, 188
-0.992631, 105, 269, 168, 300
-0.992638, 225, 101, 288, 132
-0.992648, 385, 249, 448, 280
-0.99265, 177, 333, 240, 364
-0.992654, 249, 273, 312, 304
-0.992658, 249, 77, 312, 108
-0.992663, 257, 313, 320, 344
-0.992663, 25, 177, 56, 208
-0.992664, 185, 1, 248, 375
-0.992664, 257, 97, 288, 224
-0.992671, 1, 125, 32, 156
-0.992671, 69, 81, 100, 144
-0.992678, 169, 173, 232, 204
-0.992682, 41, 329, 104, 360
-0.992682, 1, 101, 32, 132
-0.992688, 1, 173, 32, 204
-0.992692, 177, 161, 240, 224
-0.992693, 221, 297, 252, 360
-0.9927, 169, 109, 232, 140
-0.992705, 1, 113, 32, 144
-0.992713, 113, 337, 176, 368
-0.992719, 289, 33, 416, 160
-0.992726, 57, 169, 120, 200
-0.992727, 321, 333, 384, 364
-0.992734, 217, 85, 280, 116
-0.992755, 153, 209, 216, 240
-0.992767, 265, 297, 328, 328
-0.992781, 25, 33, 88, 64
-0.992784, 265, 121, 328, 152
-0.992788, 21, 141, 52, 172
-0.992792, 9, 185, 40, 216
-0.992795, 137, 97, 200, 352
-0.992796, 49, 245, 112, 276
-0.99282, 297, 49, 328, 176
-0.992824, 253, 313, 284, 375
-0.992827, 1, 161, 32, 192
-0.992828, 273, 285, 336, 316
-0.992831, 385, 261, 448, 292
-0.992834, 161, 193, 192, 256
-0.992834, 133, 273, 164, 336
-0.992838, 289, 221, 352, 252
-0.992844, 185, 161, 216, 224
-0.992851, 281, 69, 344, 100
-0.992853, 189, 297, 220, 360
-0.992853, 249, 161, 312, 192
-0.992861, 57, 193, 120, 224
-0.992861, 49, 85, 112, 116
-0.992879, 1, 161, 256, 224
-0.992882, 201, 185, 264, 216
-0.992888, 185, 33, 248, 288
-0.992897, 149, 161, 180, 288
-0.992907, 145, 313, 176, 375
-0.992912, 257, 237, 320, 268
-0.992921, 281, 273, 344, 304
-0.992923, 185, 61, 248, 92
-0.992924, 249, 261, 312, 292
-0.992927, 41, 185, 72, 216
-0.992932, 349, 89, 380, 152
-0.992933, 401, 345, 464, 375
-0.992942, 177, 289, 208, 352
-0.992944, 45, 149, 76, 180
-0.992945, 57, 73, 120, 104
-0.992946, 65, 325, 128, 356
-0.992958, 89, 185, 152, 216
-0.99296, 177, 281, 240, 312
-0.992963, 57, 97, 120, 128
-0.99297, 193, 313, 256, 344
-0.992973, 25, 93, 88, 124
-0.992974, 97, 169, 352, 232
-0.992981, 121, 313, 184, 344
-0.992984, 137, 141, 200, 172
-0.992991, 385, 221, 448, 252
-0.993002, 9, 253, 72, 284
-0.993004, 105, 173, 168, 204
-0.993006, 289, 333, 352, 364
-0.993006, 41, 161, 72, 192
-0.993009, 209, 173, 272, 204
-0.993014, 81, 289, 112, 352
-0.993015, 289, 121, 352, 152
-0.993016, 81, 277, 144, 308
-0.993017, 453, 1, 484, 128
-0.993021, 17, 321, 80, 352
-0.993021, 1, 89, 32, 120
-0.993023, 377, 161, 440, 224
-0.993023, 289, 97, 352, 128
-0.993025, 73, 209, 136, 240
-0.993033, 129, 209, 192, 240
-0.993041, 297, 209, 360, 240
-0.993043, 129, 325, 192, 356
-0.993043, 13, 105, 44, 136
-0.993046, 161, 321, 224, 352
-0.99305, 33, 305, 64, 368
-0.993063, 21, 117, 52, 148
-0.993081, 321, 81, 352, 112
-0.993095, 85, 261, 116, 292
-0.993095, 29, 193, 60, 224
-0.993124, 105, 129, 168, 375
-0.993125, 277, 185, 308, 216
-0.993131, 269, 169, 300, 200
-0.993143, 265, 81, 296, 144
-0.993144, 241, 317, 272, 348
-0.993156, 13, 161, 44, 192
-0.993161, 269, 93, 300, 124
-0.993161, 97, 229, 128, 260
-0.993166, 113, 161, 144, 288
-0.993183, 181, 193, 212, 224
-0.993199, 9, 209, 40, 240
-0.993201, 53, 181, 84, 212
-0.993203, 257, 193, 500, 256
-0.993207, 177, 217, 208, 248
-0.993227, 161, 213, 192, 244
-0.993232, 305, 313, 432, 375
-0.99324, 65, 265, 96, 296
-0.993241, 81, 217, 112, 248
-0.993247, 33, 117, 64, 148
-0.99325, 9, 37, 40, 68
-0.993267, 469, 345, 500, 375
-0.99327, 201, 265, 264, 328
-0.993272, 21, 241, 52, 304
-0.993277, 281, 157, 312, 188
-0.993287, 265, 77, 296, 108
-0.993296, 97, 253, 128, 284
-0.9933, 337, 85, 368, 116
-0.993311, 137, 253, 168, 284
-0.993318, 149, 229, 180, 260
-0.993325, 285, 201, 316, 232
-0.993326, 13, 173, 44, 204
-0.993332, 129, 289, 160, 320
-0.993338, 169, 185, 200, 216
-0.993342, 261, 153, 292, 216
-0.993344, 53, 213, 84, 244
-0.993346, 21, 305, 52, 368
-0.99335, 25, 165, 56, 196
-0.993351, 337, 137, 400, 200
-0.993352, 81, 73, 208, 136
-0.993358, 249, 305, 280, 336
-0.993363, 185, 205, 216, 236
-0.993369, 181, 181, 212, 212
-0.993374, 105, 285, 136, 316
-0.993375, 253, 321, 284, 352
-0.993376, 345, 193, 408, 256
-0.993379, 245, 61, 276, 92
-0.993381, 5, 49, 36, 80
-0.993383, 233, 333, 264, 364
-0.993383, 77, 301, 108, 332
-0.993383, 165, 197, 196, 228
-0.993384, 65, 101, 96, 132
-0.993389, 53, 261, 84, 292
-0.993392, 41, 257, 72, 288
-0.993396, 57, 313, 88, 344
-0.993399, 265, 309, 296, 340
-0.993408, 225, 321, 256, 352
-0.993408, 101, 273, 132, 336
-0.993414, 25, 245, 56, 276
-0.993415, 105, 345, 136, 375
-0.993419, 245, 89, 276, 120
-0.99342, 21, 309, 52, 340
-0.99342, 17, 197, 48, 228
-0.993424, 33, 149, 64, 180
-0.993427, 257, 97, 288, 128
-0.993428, 285, 225, 316, 256
-0.993431, 153, 289, 184, 320
-0.993433, 289, 113, 320, 144
-0.993434, 297, 177, 360, 240
-0.993435, 137, 233, 168, 296
-0.993435, 225, 301, 256, 332
-0.993436, 61, 169, 92, 200
-0.993437, 209, 293, 240, 324
-0.99344, 277, 133, 308, 164
-0.99344, 277, 253, 308, 284
-0.993442, 209, 337, 240, 368
-0.99345, 121, 337, 152, 368
-0.99345, 273, 81, 304, 208
-0.993451, 85, 285, 116, 316
-0.993453, 277, 293, 308, 324
-0.993457, 69, 325, 100, 356
-0.99346, 101, 209, 132, 240
-0.993461, 41, 173, 72, 204
-0.993464, 253, 73, 284, 104
-0.993464, 89, 341, 120, 372
-0.993465, 77, 337, 108, 368
-0.993467, 97, 241, 352, 304
-0.993473, 285, 257, 316, 320
-0.993473, 113, 233, 144, 264
-0.993474, 137, 273, 168, 304
-0.993474, 77, 69, 108, 100
-0.993475, 137, 241, 168, 272
-0.993476, 293, 141, 324, 172
-0.993478, 9, 305, 40, 336
-0.993478, 13, 93, 44, 124
-0.993481, 293, 101, 324, 132
-0.993481, 149, 217, 180, 248
-0.993482, 45, 133, 76, 164
-0.993482, 385, 1, 448, 375
-0.993482, 177, 113, 208, 144
-0.993484, 109, 249, 140, 280
-0.993485, 161, 173, 192, 204
-0.993487, 225, 145, 352, 208
-0.99349, 185, 337, 216, 368
-0.993491, 157, 345, 188, 375
-0.993495, 149, 177, 180, 208
-0.993498, 37, 309, 68, 340
-0.993501, 205, 185, 236, 216
-0.993501, 265, 321, 296, 352
-0.993504, 117, 281, 148, 312
-0.993504, 69, 221, 100, 252
-0.993512, 113, 221, 144, 252
-0.993513, 1, 65, 32, 96
-0.993513, 45, 229, 76, 260
-0.993515, 33, 89, 64, 152
-0.993516, 169, 289, 200, 320
-0.993519, 69, 285, 100, 316
-0.993521, 9, 77, 40, 108
-0.993521, 173, 329, 204, 360
-0.993522, 73, 313, 104, 344
-0.993522, 257, 121, 500, 184
-0.993523, 245, 173, 276, 204
-0.993525, 229, 53, 260, 84
-0.993529, 289, 273, 320, 304
-0.993531, 153, 313, 184, 344
-0.993532, 233, 65, 264, 96
-0.993533, 273, 265, 304, 296
-0.993538, 273, 145, 304, 176
-0.993541, 13, 237, 44, 268
-0.993546, 89, 301, 120, 332
-0.993548, 257, 165, 288, 196
-0.993548, 197, 337, 228, 368
-0.993548, 133, 145, 164, 272
-0.993573, 97, 217, 352, 280
-0.993589, 97, 313, 352, 375
-0.993666, 433, 97, 496, 224
-0.993669, 57, 41, 120, 104
-0.993672, 249, 1, 312, 375
-0.993677, 169, 193, 200, 320
-0.993678, 289, 57, 416, 120
-0.993696, 245, 289, 276, 352
-0.993719, 433, 105, 496, 168
-0.993721, 289, 1, 352, 375
-0.993731, 257, 89, 500, 152
-0.993751, 97, 289, 352, 352
-0.993763, 369, 249, 496, 312
-0.993772, 233, 1, 296, 256
-0.99379, 193, 225, 256, 288
-0.993797, 45, 97, 76, 160
-0.993873, 9, 233, 40, 296
-0.993899, 145, 1, 208, 375
-0.993901, 145, 265, 176, 328
-0.993915, 113, 129, 240, 192
-0.993918, 245, 65, 276, 128
-0.993923, 305, 97, 336, 160
-0.993943, 113, 209, 144, 272
-0.994005, 1, 9, 128, 72
-0.99408, 209, 81, 272, 144
-0.99408, 353, 25, 480, 88
-0.99408, 337, 81, 368, 144
-0.994083, 361, 49, 424, 176
-0.994087, 241, 241, 272, 368
-0.994124, 141, 177, 172, 240
-0.99413, 249, 161, 280, 288
-0.994155, 1, 289, 256, 352
-0.994204, 93, 297, 124, 360
-0.994275, 393, 233, 424, 296
-0.994312, 81, 145, 144, 272
-0.994335, 57, 81, 88, 144
-0.994361, 273, 121, 304, 184
-0.994426, 9, 121, 24, 184
-0.994427, 197, 193, 228, 320
-0.994478, 1, 217, 256, 280
-0.994488, 1, 105, 16, 168
-0.994517, 153, 169, 184, 232
-0.994588, 257, 169, 500, 232
-0.99461, 1, 185, 256, 248
-0.994627, 29, 9, 60, 72
-0.994629, 193, 33, 320, 96
-0.994642, 57, 1, 120, 375
-0.994658, 201, 153, 264, 216
-0.994668, 9, 145, 24, 208
-0.994672, 289, 209, 320, 272
-0.994672, 53, 289, 84, 352
-0.994673, 225, 249, 352, 312
-0.994682, 257, 217, 500, 280
-0.994713, 21, 169, 36, 232
-0.994722, 13, 273, 44, 336
-0.994737, 97, 145, 352, 208
-0.994743, 153, 209, 184, 336
-0.994795, 1, 233, 500, 296
-0.994801, 129, 265, 256, 328
-0.994842, 45, 313, 76, 375
-0.994847, 145, 113, 208, 176
-0.994856, 129, 233, 256, 296
-0.994865, 47, 145, 62, 208
-0.994876, 5, 177, 36, 304
-0.99489, 17, 9, 48, 72
-0.994914, 69, 177, 100, 240
-0.994939, 113, 105, 240, 168
-0.994942, 81, 89, 112, 152
-0.994965, 225, 273, 480, 336
-0.994992, 241, 217, 368, 280
-0.994999, 209, 241, 240, 368
-0.995073, 345, 65, 376, 192
-0.995081, 357, 113, 388, 176
-0.995101, 39, 121, 54, 184
-0.995128, 433, 145, 496, 272
-0.995136, 297, 73, 328, 136
-0.995157, 233, 57, 264, 120
-0.995168, 69, 145, 100, 272
-0.995175, 401, 65, 464, 128
-0.995181, 257, 249, 500, 312
-0.995191, 97, 265, 352, 328
-0.995213, 125, 249, 156, 312
-0.995217, 177, 209, 208, 272
-0.995246, 297, 241, 328, 304
-0.995258, 353, 73, 416, 136
-0.995258, 77, 81, 108, 208
-0.995261, 337, 161, 400, 224
-0.99531, 1, 105, 256, 168
-0.995325, 193, 49, 224, 176
-0.995326, 249, 49, 312, 112
-0.995353, 161, 313, 224, 375
-0.995354, 369, 129, 432, 192
-0.995357, 409, 33, 472, 96
-0.995362, 61, 105, 92, 168
-0.995362, 369, 1, 496, 64
-0.995377, 97, 193, 352, 256
-0.995387, 1, 297, 32, 360
-0.99539, 15, 145, 30, 208
-0.995393, 369, 129, 400, 256
-0.995401, 161, 81, 416, 144
-0.995401, 249, 17, 312, 144
-0.995407, 433, 1, 496, 64
-0.995407, 177, 1, 304, 128
-0.995431, 57, 25, 88, 88
-0.995455, 41, 161, 56, 224
-0.995475, 333, 65, 364, 192
-0.995489, 385, 97, 448, 352
-0.99549, 217, 225, 280, 288
-0.995496, 425, 1, 488, 375
-0.995499, 13, 1, 44, 256
-0.995527, 1, 289, 500, 352
-0.995537, 9, 97, 24, 160
-0.995559, 137, 145, 168, 208
-0.995565, 35, 169, 50, 232
-0.995598, 1, 225, 128, 256
-0.995606, 297, 241, 328, 368
-0.995622, 1, 257, 256, 320
-0.995626, 53, 17, 84, 144
-0.995637, 377, 97, 440, 224
-0.995657, 401, 121, 464, 184
-0.995657, 409, 241, 472, 304
-0.995712, 305, 57, 368, 120
-0.995725, 15, 121, 30, 184
-0.995737, 65, 289, 96, 352
-0.995742, 101, 193, 132, 256
-0.995777, 1, 129, 16, 192
-0.995843, 361, 225, 424, 288
-0.995848, 1, 137, 256, 200
-0.995858, 269, 177, 300, 304
-0.995881, 107, 225, 122, 288
-0.995894, 65, 137, 128, 200
-0.995898, 25, 129, 40, 192
-0.995899, 453, 1, 484, 64
-0.995905, 177, 81, 208, 208
-0.995928, 1, 201, 32, 264
-0.995931, 109, 249, 124, 312
-0.995932, 237, 33, 268, 160
-0.995935, 45, 185, 60, 248
-0.995974, 257, 273, 288, 336
-0.995975, 433, 81, 496, 144
-0.995988, 117, 273, 148, 336
-0.996019, 169, 57, 232, 120
-0.996034, 1, 169, 128, 200
-0.996067, 11, 169, 26, 232
-0.996083, 23, 97, 38, 160
-0.996094, 1, 181, 128, 212
-0.996101, 193, 177, 320, 208
-0.99611, 129, 113, 384, 176
-0.99616, 257, 85, 384, 116
-0.99616, 173, 113, 204, 176
-0.996179, 1, 157, 128, 188
-0.996189, 65, 97, 192, 160
-0.996204, 409, 161, 472, 288
-0.996206, 181, 73, 212, 136
-0.996206, 109, 313, 140, 375
-0.996216, 33, 121, 48, 184
-0.996218, 45, 121, 60, 184
-0.996225, 433, 49, 496, 176
-0.99623, 133, 313, 164, 375
-0.996232, 5, 169, 20, 232
-0.996272, 35, 145, 50, 208
-0.996274, 353, 345, 480, 375
-0.996277, 1, 1, 32, 256
-0.996297, 313, 313, 376, 375
-0.996315, 129, 241, 160, 368
-0.996332, 193, 297, 448, 360
-0.996337, 225, 33, 288, 96
-0.996347, 425, 193, 488, 256
-0.996355, 273, 125, 400, 156
-0.996357, 41, 1, 72, 128
-0.996368, 433, 137, 496, 200
-0.996376, 3, 81, 18, 144
-0.996394, 53, 145, 68, 208
-0.9964, 305, 289, 432, 352
-0.996436, 1, 313, 500, 375
-0.996436, 29, 97, 60, 352
-0.996454, 99, 257, 114, 320
-0.996458, 83, 265, 98, 328
-0.996465, 217, 265, 248, 328
-0.996469, 49, 33, 176, 96
-0.996485, 1, 141, 128, 172
-0.996512, 97, 217, 224, 248
-0.996515, 113, 333, 240, 364
-0.996526, 273, 337, 400, 368
-0.996537, 291, 153, 306, 216
-0.996538, 145, 345, 272, 375
-0.996551, 193, 325, 320, 356
-0.996572, 149, 225, 180, 288
-0.996577, 273, 185, 304, 248
-0.996583, 97, 241, 224, 272
-0.996586, 337, 1, 400, 375
-0.996599, 1, 185, 500, 248
-0.996624, 91, 257, 106, 320
-0.996626, 401, 49, 464, 176
-0.996658, 101, 225, 116, 288
-0.996672, 13, 97, 44, 352
-0.996678, 257, 65, 500, 128
-0.996684, 25, 281, 56, 344
-0.99669, 169, 233, 232, 296
-0.99669, 245, 81, 276, 208
-0.996695, 299, 193, 314, 256
-0.996696, 161, 313, 288, 344
-0.996706, 1, 193, 128, 224
-0.996706, 73, 257, 88, 320
-0.996718, 425, 217, 488, 280
-0.996733, 105, 113, 168, 240
-0.996775, 33, 241, 160, 272
-0.996777, 313, 1, 376, 375
-0.996782, 353, 257, 416, 320
-0.996786, 433, 161, 496, 224
-0.996786, 53, 225, 68, 288
-0.996805, 1, 293, 128, 324
-0.996821, 133, 209, 164, 272
-0.996828, 191, 193, 206, 256
-0.996829, 17, 261, 144, 292
-0.996844, 273, 109, 400, 140
-0.996844, 285, 153, 300, 216
-0.996874, 1, 81, 500, 144
-0.996878, 1, 209, 128, 240
-0.99688, 185, 209, 216, 336
-0.996889, 1, 133, 16, 164
-0.996892, 1, 209, 500, 272
-0.996897, 369, 97, 432, 160
-0.996898, 145, 289, 176, 352
-0.996904, 193, 189, 320, 220
-0.996905, 129, 57, 256, 120
-0.996936, 273, 97, 400, 128
-0.996942, 1, 101, 128, 132
-0.996945, 153, 137, 184, 200
-0.996946, 1, 313, 256, 375
-0.996951, 273, 137, 400, 168
-0.996964, 185, 265, 216, 328
-0.996971, 15, 97, 30, 160
-0.996974, 65, 81, 96, 208
-0.997002, 71, 161, 86, 224
-0.997005, 59, 145, 74, 208
-0.997011, 1, 145, 16, 176
-0.997022, 15, 201, 30, 264
-0.997035, 183, 185, 198, 248
-0.997036, 225, 185, 288, 248
-0.997039, 81, 253, 208, 284
-0.997056, 29, 97, 44, 160
-0.997066, 65, 285, 192, 316
-0.997068, 51, 185, 66, 248
-0.99707, 7, 121, 22, 152
-0.997072, 3, 57, 18, 120
-0.997082, 433, 1, 496, 256
-0.997085, 145, 297, 272, 328
-0.997085, 7, 137, 22, 168
-0.997092, 221, 161, 252, 288
-0.997094, 189, 113, 220, 240
-0.9971, 5, 33, 20, 96
-0.997109, 209, 117, 336, 148
-0.997137, 51, 121, 66, 184
-0.997142, 239, 313, 254, 375
-0.997152, 267, 313, 282, 375
-0.997167, 273, 189, 400, 220
-0.997183, 65, 153, 80, 216
-0.997203, 29, 161, 44, 224
-0.997203, 59, 185, 74, 248
-0.997209, 97, 229, 224, 260
-0.997225, 275, 297, 290, 360
-0.997228, 65, 173, 192, 204
-0.99723, 117, 209, 148, 336
-0.997232, 177, 285, 304, 316
-0.997234, 1, 97, 32, 352
-0.99724, 145, 201, 176, 264
-0.997252, 1, 265, 32, 328
-0.997252, 321, 257, 448, 320
-0.997253, 89, 145, 120, 272
-0.997254, 289, 201, 416, 232
-0.997262, 59, 233, 74, 296
-0.997283, 177, 137, 240, 200
-0.99729, 305, 217, 336, 280
-0.997293, 71, 225, 86, 288
-0.997304, 189, 169, 204, 232
-0.997306, 293, 265, 308, 328
-0.997308, 273, 149, 400, 180
-0.997308, 37, 97, 52, 160
-0.997312, 209, 81, 336, 112
-0.997319, 31, 193, 46, 256
-0.997327, 225, 337, 352, 368
-0.997329, 157, 113, 188, 240
-0.997337, 209, 217, 336, 248
-0.997341, 353, 133, 480, 164
-0.997342, 361, 129, 424, 375
-0.997345, 5, 161, 20, 192
-0.997345, 257, 57, 288, 120
-0.997346, 291, 185, 306, 248
-0.997347, 49, 341, 176, 372
-0.997351, 145, 65, 208, 192
-0.997368, 65, 225, 80, 288
-0.997374, 141, 233, 156, 296
-0.99738, 225, 33, 256, 160
-0.997392, 11, 25, 26, 88
-0.997394, 281, 97, 312, 352
-0.997399, 79, 289, 94, 352
-0.997405, 353, 113, 480, 144
-0.997412, 401, 241, 432, 368
-0.99742, 81, 1, 144, 375
-0.997425, 201, 201, 264, 264
-0.997429, 193, 261, 320, 292
-0.997433, 33, 81, 288, 144
-0.997438, 151, 233, 166, 296
-0.997454, 209, 97, 336, 128
-0.997459, 1, 117, 16, 148
-0.99746, 129, 57, 384, 120
-0.997466, 7, 101, 22, 132
-0.99747, 299, 113, 314, 176
-0.99747, 25, 193, 40, 256
-0.997472, 249, 169, 280, 232
-0.997486, 125, 153, 156, 216
-0.997495, 289, 217, 416, 248
-0.997496, 401, 97, 464, 160
-0.997497, 209, 201, 336, 232
-0.997498, 327, 73, 342, 136
-0.997507, 463, 1, 478, 64
-0.997509, 9, 225, 24, 288
-0.997511, 81, 205, 208, 236
-0.997513, 29, 65, 60, 128
-0.997517, 273, 177, 400, 208
-0.997517, 231, 297, 246, 360
-0.997518, 37, 133, 52, 164
-0.99752, 17, 133, 32, 164
-0.997528, 373, 177, 404, 304
-0.997532, 277, 97, 308, 160
-0.997532, 193, 141, 320, 172
-0.997535, 199, 177, 214, 240
-0.997545, 241, 313, 368, 344
-0.997563, 279, 153, 294, 216
-0.997568, 261, 49, 292, 176
-0.997573, 205, 49, 236, 176
-0.997582, 65, 325, 192, 356
-0.997586, 11, 173, 26, 204
-0.99759, 77, 33, 108, 160
-0.997611, 145, 213, 272, 244
-0.997613, 257, 33, 384, 96
-0.997624, 117, 209, 132, 272
-0.997629, 45, 17, 76, 80
-0.997636, 63, 257, 78, 320
-0.997637, 353, 157, 480, 188
-0.997644, 1, 257, 500, 320
-0.997656, 1, 333, 128, 364
-0.997662, 401, 97, 464, 224
-0.997671, 241, 325, 368, 356
-0.997685, 353, 145, 480, 176
-0.99769, 45, 137, 60, 168
-0.99769, 151, 177, 166, 240
-0.997697, 147, 265, 162, 328
-0.997713, 79, 313, 94, 375
-0.997716, 55, 257, 70, 320
-0.997719, 91, 65, 106, 128
-0.997728, 217, 105, 280, 168
-0.997739, 353, 169, 480, 200
-0.99774, 193, 165, 320, 196
-0.997741, 57, 113, 72, 176
-0.997746, 9, 73, 24, 136
-0.997748, 353, 101, 480, 132
-0.997749, 25, 1, 56, 256
-0.997751, 17, 25, 32, 88
-0.997752, 257, 65, 272, 128
-0.997756, 49, 313, 176, 344
-0.997761, 265, 73, 280, 136
-0.99777, 113, 173, 240, 204
-0.997771, 1, 129, 128, 160
-0.997771, 209, 233, 336, 264
-0.997773, 353, 181, 480, 212
-0.997777, 65, 185, 80, 248
-0.997779, 257, 277, 384, 308
-0.997783, 311, 113, 326, 176
-0.997786, 285, 33, 316, 160
-0.997792, 285, 177, 300, 240
-0.997793, 393, 177, 424, 304
-0.9978, 393, 281, 456, 344
-0.997802, 13, 157, 28, 188
-0.997802, 209, 245, 336, 276
-0.997811, 49, 225, 176, 256
-0.997813, 49, 9, 176, 72
-0.997813, 299, 249, 314, 312
-0.997814, 205, 113, 236, 240
-0.997814, 1, 105, 16, 136
-0.997816, 45, 249, 60, 312
-0.99782, 287, 281, 302, 344
-0.997821, 433, 57, 496, 120
-0.997827, 1, 73, 128, 104
-0.997827, 249, 33, 280, 160
-0.997839, 337, 77, 464, 108
-0.997841, 13, 121, 28, 152
-0.997844, 25, 133, 40, 164
-0.99785, 69, 81, 84, 144
-0.99785, 229, 225, 260, 352
-0.997857, 17, 173, 32, 204
-0.997858, 185, 73, 200, 136
-0.99786, 305, 129, 320, 192
-0.997864, 73, 305, 88, 368
-0.997866, 41, 97, 72, 352
-0.997868, 33, 57, 288, 120
-0.997869, 245, 313, 260, 375
-0.997872, 47, 217, 62, 280
-0.997874, 47, 97, 62, 160
-0.997876, 49, 157, 176, 188
-0.997879, 205, 177, 220, 240
-0.997882, 3, 89, 18, 120
-0.997885, 177, 61, 304, 92
-0.997892, 145, 81, 208, 144
-0.997894, 37, 193, 52, 256
-0.997894, 189, 289, 204, 352
-0.997898, 369, 273, 496, 336
-0.997899, 107, 281, 122, 344
-0.997905, 369, 113, 384, 176
-0.997906, 1, 25, 128, 56
-0.997913, 57, 97, 88, 352
-0.997913, 1, 57, 128, 88
-0.99792, 93, 217, 108, 280
-0.997929, 1, 117, 128, 148
-0.997942, 115, 233, 130, 296
-0.997945, 183, 161, 198, 224
-0.997953, 37, 241, 52, 304
-0.997953, 281, 289, 296, 352
-0.997954, 273, 229, 400, 260
-0.997954, 337, 89, 464, 120
-0.997958, 225, 301, 352, 332
-0.997964, 163, 169, 178, 232
-0.997965, 369, 209, 496, 240
-0.997967, 255, 305, 270, 368
-0.99797, 149, 209, 164, 272
-0.997973, 85, 305, 100, 368
-0.997974, 7, 149, 22, 180
-0.997979, 101, 185, 116, 248
-0.997983, 97, 185, 224, 216
-0.99799, 83, 81, 98, 144
-0.99799, 91, 289, 106, 352
-0.997991, 49, 185, 176, 216
-0.998006, 13, 105, 28, 136
-0.998007, 139, 257, 154, 320
-0.998013, 81, 217, 96, 280
-0.998017, 1, 281, 128, 312
-0.998031, 287, 249, 302, 312
-0.998031, 175, 185, 190, 248
-0.998034, 305, 161, 336, 288
-0.998035, 353, 197, 480, 228
-0.998043, 245, 49, 260, 112
-0.998048, 273, 165, 400, 196
-0.998049, 9, 201, 24, 264
-0.99805, 317, 97, 332, 160
-0.998051, 5, 173, 20, 204
-0.998057, 361, 97, 376, 160
-0.998062, 41, 305, 56, 368
-0.998065, 193, 129, 320, 160
-0.998071, 321, 73, 336, 136
-0.998076, 23, 17, 38, 80
-0.99808, 203, 297, 218, 360
-0.998096, 249, 25, 312, 88
-0.9981, 145, 161, 272, 192
-0.99811, 43, 161, 58, 192
-0.998113, 23, 73, 38, 136
-0.998118, 31, 133, 46, 164
-0.99812, 145, 225, 272, 256
-0.998126, 47, 313, 62, 375
-0.998127, 19, 121, 34, 152
-0.998132, 45, 185, 60, 216
-0.998146, 71, 185, 86, 248
-0.998149, 169, 241, 200, 368
-0.998149, 79, 241, 94, 304
-0.998152, 193, 273, 320, 304
-0.998152, 53, 149, 68, 180
-0.998153, 19, 145, 34, 176
-0.998162, 1, 25, 500, 88
-0.99817, 321, 1, 384, 256
-0.99817, 293, 225, 308, 288
-0.998173, 225, 69, 352, 100
-0.998176, 171, 281, 186, 344
-0.998178, 37, 1, 68, 256
-0.998185, 145, 185, 272, 216
-0.998185, 257, 41, 500, 104
-0.998192, 1, 89, 128, 120
-0.99822, 369, 333, 496, 364
-0.998235, 21, 185, 36, 216
-0.998242, 297, 97, 328, 352
-0.998247, 1, 313, 128, 344
-0.998247, 31, 121, 46, 152
-0.998253, 49, 297, 176, 328
-0.998255, 39, 145, 54, 176
-0.99826, 267, 317, 282, 348
-0.998263, 169, 97, 200, 352
-0.998275, 273, 253, 400, 284
-0.998279, 257, 289, 384, 320
-0.998281, 1, 49, 500, 112
-0.998282, 37, 177, 52, 208
-0.998282, 289, 129, 320, 144
-0.998282, 13, 199, 44, 214
-0.998283, 45, 259, 76, 274
-0.998283, 9, 65, 40, 80
-0.998283, 65, 107, 96, 122
-0.998284, 53, 221, 84, 236
-0.998285, 57, 229, 88, 244
-0.998286, 25, 19, 56, 34
-0.998286, 289, 223, 320, 238
-0.998288, 145, 225, 176, 240
-0.998288, 273, 241, 400, 272
-0.998288, 249, 69, 280, 84
-0.998288, 265, 321, 296, 336
-0.99829, 109, 255, 140, 270
-0.99829, 277, 163, 308, 178
-0.99829, 245, 77, 276, 92
-0.998291, 453, 361, 484, 375
-0.998291, 193, 339, 224, 354
-0.998292, 13, 153, 44, 168
-0.998292, 285, 207, 316, 222
-0.998292, 157, 221, 188, 236
-0.998292, 237, 71, 268, 86
-0.998292, 285, 247, 316, 262
-0.998293, 249, 313, 280, 328
-0.998294, 185, 183, 216, 198
-0.998294, 265, 169, 296, 184
-0.998296, 249, 97, 280, 112
-0.998296, 209, 339, 240, 354
-0.998296, 165, 175, 196, 190
-0.998297, 5, 49, 36, 64
-0.998298, 169, 221, 200, 236
-0.998298, 137, 277, 168, 292
-0.998298, 249, 89, 280, 104
-0.998299, 13, 97, 44, 112
-0.9983, 197, 185, 228, 200
-0.9983, 105, 347, 136, 362
-0.998301, 161, 349, 192, 364
-0.998301, 197, 241, 228, 368
-0.998301, 73, 315, 104, 330
-0.998302, 105, 281, 136, 296
-0.998302, 281, 197, 312, 212
-0.998303, 9, 211, 40, 226
-0.998303, 37, 159, 68, 174
-0.998303, 297, 107, 328, 122
-0.998303, 181, 191, 212, 206
-0.998304, 177, 205, 208, 220
-0.998304, 333, 85, 364, 100
-0.998305, 277, 263, 308, 278
-0.998305, 285, 229, 316, 244
-0.998305, 97, 229, 128, 244
-0.998306, 107, 229, 122, 260
-0.998307, 89, 287, 120, 302
-0.998308, 145, 233, 176, 248
-0.998309, 121, 275, 152, 290
-0.998309, 69, 323, 100, 338
-0.99831, 41, 135, 72, 150
-0.99831, 149, 313, 180, 328
-0.998311, 177, 295, 208, 310
-0.998311, 57, 317, 88, 332
-0.998312, 109, 225, 140, 240
-0.998313, 61, 181, 92, 196
-0.998314, 45, 179, 76, 194
-0.998315, 145, 261, 176, 276
-0.998315, 137, 287, 168, 302
-0.998316, 269, 97, 300, 112
-0.998318, 197, 191, 228, 206
-0.998319, 189, 203, 220, 218
-0.99832, 269, 91, 300, 106
-0.998321, 161, 77, 288, 108
-0.998321, 21, 159, 52, 174
-0.998321, 185, 189, 200, 220
-0.998323, 97, 259, 128, 274
-0.998324, 281, 191, 312, 206
-0.998324, 413, 239, 444, 254
-0.998325, 73, 267, 104, 282
-0.998325, 249, 325, 280, 340
-0.998327, 125, 285, 156, 300
-0.998327, 165, 205, 196, 220
-0.998328, 41, 195, 72, 210
-0.998329, 177, 215, 208, 230
-0.998329, 21, 169, 52, 184
-0.998331, 5, 41, 36, 56
-0.998332, 137, 255, 168, 270
-0.998333, 209, 297, 240, 312
-0.998335, 57, 263, 88, 278
-0.998335, 29, 193, 60, 208
-0.998335, 161, 291, 192, 306
-0.998339, 269, 183, 300, 198
-0.99834, 453, 355, 484, 370
-0.99834, 41, 165, 72, 180
-0.998342, 165, 215, 196, 230
-0.998344, 241, 333, 272, 348
-0.998345, 21, 121, 52, 136
-0.998347, 245, 319, 276, 334
-0.99835, 269, 177, 300, 192
-0.998352, 33, 197, 48, 228
-0.998353, 1, 167, 32, 182
-0.998355, 13, 113, 44, 128
-0.998358, 29, 199, 60, 214
-0.998359, 441, 361, 472, 375
-0.998362, 25, 121, 40, 152
-0.998363, 105, 291, 136, 306
-0.998365, 129, 293, 160, 308
-0.998365, 1, 95, 32, 110
-0.998367, 47, 149, 62, 180
-0.998367, 465, 351, 496, 366
-0.998369, 13, 103, 44, 118
-0.998379, 1, 139, 32, 154
-0.998386, 181, 197, 212, 212
-0.998388, 13, 193, 44, 208
-0.998388, 53, 153, 84, 168
-0.998391, 321, 81, 352, 96
-0.998393, 91, 261, 106, 292
-0.998393, 17, 147, 48, 162
-0.998398, 9, 187, 40, 202
-0.998401, 1, 109, 32, 124
-0.998402, 269, 97, 300, 352
-0.998402, 85, 263, 116, 278
-0.998406, 13, 93, 28, 124
-0.998407, 13, 175, 44, 190
-0.99841, 33, 149, 64, 164
-0.998411, 177, 205, 192, 236
-0.998413, 161, 101, 288, 132
-0.998414, 81, 219, 112, 234
-0.998415, 49, 159, 80, 174
-0.998417, 25, 179, 56, 194
-0.998423, 39, 121, 54, 152
-0.998426, 369, 225, 496, 256
-0.998427, 381, 241, 412, 368
-0.998427, 29, 129, 60, 144
-0.998447, 1, 37, 128, 68
-0.998457, 45, 189, 76, 204
-0.998457, 145, 197, 272, 228
-0.998459, 29, 135, 60, 150
-0.998459, 33, 143, 64, 158
-0.998465, 1, 159, 32, 174
-0.998466, 151, 233, 166, 264
-0.998466, 191, 189, 206, 220
-0.998484, 289, 157, 304, 188
-0.998487, 13, 127, 44, 142
-0.998493, 21, 141, 52, 156
-0.998493, 9, 149, 72, 164
-0.998495, 193, 153, 320, 184
-0.998498, 1, 133, 32, 148
-0.998498, 261, 89, 276, 120
-0.998499, 1, 103, 32, 118
-0.998502, 1, 115, 32, 130
-0.998502, 113, 145, 240, 176
-0.998503, 1, 173, 32, 188
-0.998508, 13, 145, 28, 176
-0.998509, 25, 185, 56, 200
-0.998515, 1, 183, 64, 198
-0.998522, 279, 173, 294, 204
-0.998524, 257, 265, 384, 296
-0.998524, 291, 185, 306, 216
-0.998526, 5, 181, 36, 196
-0.998527, 49, 1, 80, 256
-0.998529, 327, 77, 342, 108
-0.998537, 1, 135, 64, 150
-0.998537, 299, 205, 314, 236
-0.998538, 99, 261, 114, 292
-0.998539, 13, 133, 44, 148
-0.99854, 17, 189, 80, 204
-0.998542, 97, 345, 224, 375
-0.998546, 1, 145, 32, 160
-0.998552, 81, 97, 144, 352
-0.998553, 1, 129, 64, 144
-0.998554, 9, 143, 72, 158
-0.998558, 19, 161, 34, 192
-0.998559, 9, 155, 72, 170
-0.998559, 157, 229, 172, 260
-0.99856, 1, 125, 32, 140
-0.998567, 1, 151, 32, 166
-0.998574, 65, 273, 192, 304
-0.998575, 113, 321, 240, 352
-0.99858, 7, 41, 22, 72
-0.998585, 39, 193, 54, 224
-0.998588, 1, 177, 64, 192
-0.99859, 65, 225, 128, 240
-0.998591, 151, 221, 166, 252
-0.998596, 33, 183, 96, 198
-0.998596, 183, 201, 198, 232
-0.998599, 187, 177, 202, 208
-0.998599, 49, 145, 176, 176
-0.998599, 143, 241, 158, 272
-0.998604, 105, 253, 120, 284
-0.998606, 33, 163, 96, 178
-0.998612, 9, 161, 72, 176
-0.998612, 33, 169, 96, 184
-0.998613, 33, 175, 96, 190
-0.998613, 313, 87, 376, 102
-0.99862, 209, 335, 272, 350
-0.99862, 183, 105, 198, 136
-0.998626, 105, 253, 168, 268
-0.998626, 313, 95, 376, 110
-0.998628, 41, 189, 104, 204
-0.998632, 105, 227, 168, 242
-0.998632, 137, 293, 200, 308
-0.998632, 281, 293, 296, 324
-0.998633, 97, 293, 160, 308
-0.998635, 199, 181, 214, 212
-0.998636, 1, 109, 64, 124
-0.998636, 369, 241, 496, 272
-0.998637, 17, 195, 80, 210
-0.998639, 321, 237, 448, 268
-0.998639, 77, 97, 108, 352
-0.998641, 1, 123, 64, 138
-0.998643, 1, 217, 64, 232
-0.998644, 19, 105, 34, 136
-0.998647, 1, 117, 64, 132
-0.998648, 9, 225, 72, 240
-0.998649, 105, 237, 168, 252
-0.99865, 73, 261, 136, 276
-0.998652, 161, 217, 176, 248
-0.998652, 113, 285, 176, 300
-0.998652, 41, 217, 104, 232
-0.998653, 239, 313, 254, 344
-0.998655, 249, 185, 312, 200
-0.998659, 1, 169, 64, 184
-0.99866, 97, 221, 160, 236
-0.99866, 385, 241, 448, 256
-0.998661, 33, 261, 96, 276
-0.998661, 17, 201, 80, 216
-0.998661, 1, 33, 256, 96
-0.998661, 225, 307, 288, 322
-0.998662, 1, 211, 64, 226
-0.998662, 105, 247, 168, 262
-0.998664, 241, 175, 304, 190
-0.998664, 273, 91, 336, 106
-0.998665, 257, 221, 320, 236
-0.998665, 145, 227, 208, 242
-0.998666, 185, 299, 248, 314
-0.998666, 313, 101, 376, 116
-0.998667, 217, 329, 280, 344
-0.998668, 75, 265, 90, 296
-0.998668, 33, 157, 96, 172
-0.998669, 257, 201, 320, 216
-0.998669, 105, 277, 168, 292
-0.99867, 57, 181, 120, 196
-0.99867, 41, 315, 104, 330
-0.99867, 225, 317, 288, 332
-0.99867, 177, 185, 240, 200
-0.99867, 259, 313, 274, 344
-0.99867, 89, 285, 152, 300
-0.998672, 65, 219, 128, 234
-0.998672, 265, 111, 328, 126
-0.998673, 265, 101, 328, 116
-0.998673, 249, 191, 312, 206
-0.998676, 111, 249, 126, 280
-0.998676, 385, 251, 448, 266
-0.998677, 73, 299, 136, 314
-0.998677, 97, 259, 160, 274
-0.998677, 7, 225, 22, 256
-0.998678, 49, 323, 112, 338
-0.998679, 265, 123, 328, 138
-0.99868, 233, 301, 296, 316
-0.99868, 257, 229, 320, 244
-0.998681, 13, 209, 28, 240
-0.998681, 65, 181, 80, 212
-0.998681, 241, 169, 304, 184
-0.998681, 113, 353, 176, 368
-0.998682, 273, 85, 336, 100
-0.998682, 273, 305, 288, 336
-0.998682, 433, 361, 496, 375
-0.998682, 53, 257, 68, 288
-0.998683, 305, 333, 368, 348
-0.998683, 281, 161, 296, 192
-0.998683, 185, 191, 248, 206
-0.998683, 97, 347, 160, 362
-0.998684, 55, 137, 70, 168
-0.998685, 145, 219, 208, 234
-0.998685, 249, 343, 312, 358
-0.998686, 153, 199, 216, 214
-0.998687, 249, 335, 312, 350
-0.998687, 385, 205, 448, 220
-0.998687, 217, 323, 280, 338
-0.998687, 73, 343, 136, 358
-0.998689, 149, 245, 164, 276
-0.998689, 1, 103, 64, 118
-0.998689, 137, 287, 200, 302
-0.99869, 177, 113, 240, 128
-0.99869, 177, 339, 240, 354
-0.998691, 249, 95, 312, 110
-0.998691, 265, 117, 328, 132
-0.998694, 257, 207, 320, 222
-0.998694, 1, 41, 64, 56
-0.998695, 257, 235, 320, 250
-0.998695, 241, 89, 304, 104
-0.998695, 131, 337, 146, 368
-0.998696, 241, 283, 304, 298
-0.998697, 145, 299, 208, 314
-0.998698, 281, 79, 344, 94
-0.998699, 249, 265, 312, 280
-0.998699, 73, 291, 136, 306
-0.998699, 17, 21, 80, 36
-0.9987, 385, 235, 448, 250
-0.9987, 257, 133, 320, 148
-0.998701, 153, 351, 216, 366
-0.998702, 89, 335, 152, 350
-0.998702, 225, 73, 288, 88
-0.998702, 257, 215, 320, 230
-0.998702, 179, 217, 194, 248
-0.998702, 27, 197, 42, 228
-0.998703, 41, 223, 104, 238
-0.998703, 49, 335, 112, 350
-0.998703, 257, 329, 320, 344
-0.998703, 63, 261, 78, 292
-0.998703, 193, 361, 256, 375
-0.998704, 1, 309, 64, 324
-0.998704, 137, 331, 200, 346
-0.998704, 385, 361, 448, 375
-0.998705, 9, 231, 72, 246
-0.998706, 257, 259, 320, 274
-0.998706, 25, 119, 88, 134
-0.998707, 153, 177, 216, 192
-0.998707, 401, 355, 464, 370
-0.998707, 241, 351, 304, 366
-0.998708, 145, 209, 208, 224
-0.998708, 65, 255, 128, 270
-0.998709, 25, 135, 88, 150
-0.998709, 261, 325, 276, 356
-0.998709, 257, 247, 320, 262
-0.998711, 145, 225, 160, 256
-0.998711, 65, 231, 128, 246
-0.998711, 209, 341, 272, 356
-0.998711, 185, 305, 248, 320
-0.998712, 161, 293, 224, 308
-0.998713, 161, 193, 224, 208
-0.998713, 153, 361, 216, 375
-0.998713, 57, 267, 120, 282
-0.998713, 73, 187, 136, 202
-0.998714, 249, 277, 312, 292
-0.998714, 305, 81, 368, 96
-0.998718, 73, 165, 88, 196
-0.998721, 113, 285, 240, 316
-0.998721, 485, 345, 500, 375
-0.998735, 15, 185, 30, 216
-0.998738, 99, 333, 114, 364
-0.998746, 269, 93, 284, 124
-0.998747, 305, 325, 432, 356
-0.998751, 181, 65, 212, 320
-0.998752, 291, 277, 306, 308
-0.99876, 11, 81, 26, 112
-0.998762, 155, 313, 170, 344
-0.998765, 13, 29, 28, 60
-0.998766, 85, 265, 100, 296
-0.998768, 145, 33, 272, 96
-0.998772, 29, 181, 44, 212
-0.998783, 303, 137, 318, 168
-0.998788, 245, 301, 260, 332
-0.998791, 195, 337, 210, 368
-0.998792, 225, 49, 352, 80
-0.998793, 255, 89, 270, 120
-0.998796, 369, 257, 496, 288
-0.998797, 297, 193, 312, 224
-0.9988, 69, 261, 84, 292
-0.998803, 1, 77, 16, 108
-0.998805, 349, 85, 364, 116
-0.998805, 139, 277, 154, 308
-0.998806, 363, 105, 378, 136
-0.99881, 289, 141, 304, 172
-0.998814, 25, 145, 40, 176
-0.998814, 97, 297, 224, 328
-0.998814, 235, 61, 250, 92
-0.998823, 205, 181, 220, 212
-0.998823, 79, 97, 94, 128
-0.998824, 179, 185, 194, 216
-0.998824, 65, 157, 80, 188
-0.998826, 143, 253, 158, 284
-0.998827, 45, 125, 60, 156
-0.998827, 59, 149, 74, 180
-0.998828, 263, 101, 278, 132
-0.998828, 115, 285, 130, 316
-0.998828, 209, 337, 224, 368
-0.998831, 1, 105, 500, 168
-0.998834, 475, 345, 490, 375
-0.998837, 37, 165, 52, 196
-0.998839, 155, 293, 170, 324
-0.998841, 259, 77, 274, 108
-0.998843, 285, 73, 300, 104
-0.998843, 307, 105, 322, 136
-0.998846, 99, 285, 114, 316
-0.998847, 3, 53, 18, 84
-0.998847, 19, 145, 34, 272
-0.998849, 49, 161, 64, 192
-0.99885, 83, 289, 98, 320
-0.998852, 51, 189, 66, 220
-0.998853, 145, 237, 272, 268
-0.998853, 193, 201, 208, 232
-0.998854, 1, 97, 16, 224
-0.998855, 233, 305, 248, 336
-0.998857, 297, 145, 312, 176
-0.998859, 229, 81, 260, 208
-0.998884, 81, 93, 208, 124
-0.998885, 257, 17, 500, 80
-0.998917, 81, 105, 208, 136
-0.998931, 9, 97, 24, 224
-0.998935, 161, 89, 288, 120
-0.998953, 209, 161, 240, 288
-0.998955, 257, 65, 288, 320
-0.998964, 285, 1, 316, 256
-0.998966, 29, 113, 44, 240
-0.998981, 369, 33, 496, 64
-0.998985, 65, 1, 96, 256
-0.998993, 353, 17, 480, 48
-0.999015, 21, 97, 36, 224
-0.999022, 1, 49, 16, 176
-0.999027, 177, 49, 304, 80
-0.999043, 161, 117, 288, 148
-0.999049, 309, 65, 340, 320
-0.999081, 47, 161, 62, 288
-0.999102, 27, 177, 42, 304
-0.999129, 41, 161, 56, 288
-0.99913, 145, 133, 272, 164
-0.999135, 289, 73, 416, 104
-0.99915, 57, 177, 72, 304
-0.999156, 33, 177, 48, 304
-0.999159, 295, 177, 310, 304
-0.999164, 103, 193, 118, 320
-0.999164, 53, 241, 68, 368
-0.999167, 449, 49, 480, 176
-0.999168, 15, 97, 30, 224
-0.999168, 91, 193, 106, 320
-0.999176, 297, 129, 312, 256
-0.999177, 35, 129, 50, 256
-0.999182, 437, 145, 468, 272
-0.999184, 109, 225, 124, 352
-0.999186, 63, 177, 78, 304
-0.999187, 65, 241, 80, 368
-0.999189, 75, 241, 90, 368
-0.999197, 71, 161, 86, 288
-0.999205, 89, 241, 104, 368
-0.999207, 1, 161, 500, 224
-0.99921, 7, 49, 22, 176
-0.999215, 59, 241, 74, 368
-0.999219, 369, 1, 496, 32
-0.999221, 89, 97, 120, 352
-0.999245, 81, 209, 96, 336
-0.999255, 53, 129, 68, 256
-0.999259, 41, 97, 56, 224
-0.99926, 321, 249, 448, 280
-0.999264, 13, 33, 28, 160
-0.999268, 99, 241, 114, 368
-0.999269, 273, 1, 304, 256
-0.999269, 81, 81, 208, 112
-0.999271, 97, 161, 224, 192
-0.999274, 27, 65, 42, 192
-0.999282, 47, 241, 62, 368
-0.999289, 39, 225, 54, 352
-0.999316, 289, 177, 304, 304
-0.99932, 97, 193, 112, 320
-0.99932, 193, 37, 320, 68
-0.99932, 11, 161, 26, 288
-0.999329, 365, 97, 396, 352
-0.999345, 289, 97, 304, 224
-0.999347, 21, 49, 36, 176
-0.999358, 5, 145, 20, 272
-0.999361, 59, 129, 74, 256
-0.999363, 197, 97, 228, 352
-0.999375, 283, 97, 298, 224
-0.999385, 47, 97, 62, 224
-0.999397, 15, 225, 30, 352
-0.9994, 129, 1, 256, 128
-0.999403, 31, 1, 46, 128
-0.999404, 77, 161, 92, 288
-0.99941, 297, 241, 312, 368
-0.999417, 221, 33, 252, 288
-0.999423, 21, 209, 36, 336
-0.999424, 29, 225, 44, 352
-0.999426, 25, 1, 40, 128
-0.999436, 9, 225, 24, 352
-0.999443, 157, 129, 188, 375
-0.999444, 147, 225, 162, 352
-0.999446, 145, 113, 176, 240
-0.99945, 189, 161, 204, 288
-0.999457, 303, 113, 318, 240
-0.999479, 289, 49, 304, 176
-0.999484, 461, 1, 476, 128
-0.999484, 115, 177, 130, 304
-0.99949, 273, 241, 288, 368
-0.999492, 19, 1, 34, 128
-0.999495, 209, 33, 240, 288
-0.999505, 301, 193, 316, 320
-0.999506, 109, 253, 124, 268
-0.999506, 109, 285, 124, 300
-0.999506, 201, 201, 216, 216
-0.999506, 249, 73, 264, 88
-0.999506, 235, 313, 250, 328
-0.999507, 299, 229, 314, 244
-0.999507, 73, 321, 88, 336
-0.999508, 189, 201, 204, 216
-0.999508, 147, 235, 162, 250
-0.999509, 145, 229, 160, 244
-0.999509, 225, 301, 240, 316
-0.999509, 201, 187, 216, 202
-0.999509, 433, 97, 496, 352
-0.99951, 291, 145, 306, 160
-0.999511, 149, 255, 164, 270
-0.999511, 191, 257, 206, 272
-0.999511, 243, 81, 258, 96
-0.999512, 67, 229, 82, 244
-0.999512, 85, 265, 100, 280
-0.999512, 143, 241, 158, 256
-0.999513, 29, 189, 44, 204
-0.999513, 43, 167, 58, 182
-0.999514, 1, 171, 16, 186
-0.999514, 347, 87, 362, 102
-0.999515, 265, 101, 280, 116
-0.999515, 173, 195, 188, 210
-0.999515, 79, 317, 94, 332
-0.999515, 109, 177, 124, 304
-0.999515, 177, 203, 192, 218
-0.999516, 239, 67, 254, 82
-0.999517, 165, 349, 180, 364
-0.999518, 73, 265, 88, 280
-0.999518, 209, 339, 224, 354
-0.999518, 65, 263, 80, 278
-0.999519, 17, 109, 32, 124
-0.999519, 241, 303, 256, 318
-0.999519, 139, 269, 154, 284
-0.99952, 481, 349, 496, 364
-0.999521, 139, 283, 154, 298
-0.999521, 7, 187, 22, 202
-0.999521, 231, 71, 246, 86
-0.999522, 1, 87, 16, 102
-0.999523, 181, 215, 196, 230
-0.999523, 143, 247, 158, 262
-0.999524, 143, 253, 158, 268
-0.999524, 473, 351, 488, 366
-0.999524, 109, 233, 124, 248
-0.999525, 115, 291, 130, 306
-0.999526, 281, 145, 296, 272
-0.999526, 263, 89, 278, 104
-0.999526, 35, 81, 50, 208
-0.999528, 119, 285, 134, 300
-0.999529, 269, 319, 284, 334
-0.999529, 291, 187, 306, 202
-0.99953, 279, 175, 294, 190
-0.999531, 11, 95, 26, 110
-0.999532, 259, 319, 274, 334
-0.999532, 151, 177, 166, 304
-0.999533, 195, 187, 210, 202
-0.999533, 139, 277, 154, 292
-0.999533, 157, 231, 172, 246
-0.999534, 197, 193, 212, 208
-0.999536, 263, 241, 278, 368
-0.999537, 463, 355, 478, 370
-0.999538, 27, 145, 42, 160
-0.999539, 283, 225, 298, 352
-0.99954, 181, 129, 196, 256
-0.99954, 183, 203, 198, 218
-0.999541, 101, 261, 116, 276
-0.999546, 345, 65, 376, 320
-0.999546, 151, 229, 166, 244
-0.999546, 13, 183, 28, 198
-0.999546, 253, 89, 268, 104
-0.999549, 457, 359, 472, 374
-0.99955, 45, 1, 60, 128
-0.999551, 91, 217, 106, 232
-0.999555, 45, 161, 60, 176
-0.999556, 1, 93, 16, 108
-0.999557, 41, 183, 56, 198
-0.999558, 175, 113, 190, 240
-0.999558, 45, 135, 60, 150
-0.999559, 185, 187, 200, 202
-0.99956, 41, 193, 56, 208
-0.99956, 29, 127, 44, 142
-0.999561, 183, 193, 198, 208
-0.999561, 33, 133, 48, 148
-0.999562, 451, 361, 466, 375
-0.999562, 17, 103, 32, 118
-0.999564, 11, 107, 26, 122
-0.999565, 327, 79, 342, 94
-0.999568, 23, 177, 38, 192
-0.99957, 1, 165, 16, 180
-0.999571, 263, 95, 278, 110
-0.999572, 39, 129, 54, 144
-0.999574, 181, 209, 196, 224
-0.999578, 141, 145, 156, 272
-0.999582, 55, 151, 70, 166
-0.999582, 37, 1, 52, 128
-0.999584, 205, 161, 220, 288
-0.999589, 283, 49, 298, 176
-0.999591, 321, 65, 336, 192
-0.999592, 19, 183, 34, 198
-0.999594, 19, 121, 34, 136
-0.999597, 275, 161, 290, 288
-0.999597, 21, 129, 36, 144
-0.999598, 273, 81, 288, 208
-0.999598, 449, 1, 480, 256
-0.9996, 307, 49, 322, 176
-0.999601, 377, 129, 392, 256
-0.999601, 27, 133, 42, 148
-0.999602, 455, 1, 470, 128
-0.999602, 65, 129, 80, 256
-0.999603, 19, 149, 34, 164
-0.999603, 33, 199, 48, 214
-0.999604, 47, 189, 62, 204
-0.999606, 51, 157, 66, 172
-0.999607, 115, 225, 130, 352
-0.999608, 191, 195, 206, 210
-0.999608, 9, 119, 24, 134
-0.999608, 91, 263, 106, 278
-0.999609, 87, 49, 102, 176
-0.99961, 1, 177, 16, 192
-0.999611, 291, 241, 306, 368
-0.999612, 73, 17, 88, 144
-0.999612, 11, 101, 26, 116
-0.999614, 15, 155, 30, 170
-0.999618, 223, 241, 238, 368
-0.999618, 295, 81, 310, 208
-0.999618, 167, 129, 182, 256
-0.999619, 357, 81, 372, 208
-0.999621, 19, 141, 34, 156
-0.999622, 157, 145, 172, 272
-0.999623, 365, 97, 380, 224
-0.999624, 47, 147, 62, 162
-0.999626, 183, 193, 198, 320
-0.999629, 49, 141, 64, 156
-0.99963, 81, 33, 96, 160
-0.999631, 89, 65, 120, 192
-0.999632, 155, 225, 170, 352
-0.999633, 437, 65, 468, 320
-0.999636, 195, 161, 210, 288
-0.999638, 7, 163, 22, 178
-0.999638, 309, 97, 324, 224
-0.999638, 37, 143, 52, 158
-0.99964, 301, 65, 316, 192
-0.999641, 141, 129, 172, 375
-0.999644, 209, 129, 240, 375
-0.999645, 55, 81, 70, 208
-0.999647, 347, 65, 362, 192
-0.999648, 387, 193, 402, 320
-0.999648, 7, 181, 22, 196
-0.999649, 193, 113, 208, 240
-0.999649, 189, 49, 204, 176
-0.999649, 3, 99, 18, 114
-0.999649, 11, 113, 26, 128
-0.999652, 29, 139, 44, 154
-0.999654, 43, 141, 58, 156
-0.999655, 7, 139, 22, 154
-0.999656, 451, 49, 466, 176
-0.999656, 371, 113, 386, 240
-0.999656, 245, 129, 276, 375
-0.999657, 69, 81, 84, 208
-0.999663, 297, 1, 328, 256
-0.999664, 151, 129, 166, 256
-0.999664, 17, 135, 32, 150
-0.999672, 15, 127, 30, 142
-0.999673, 1, 159, 16, 174
-0.999673, 5, 105, 20, 120
-0.999675, 327, 65, 342, 192
-0.999675, 141, 209, 156, 336
-0.999676, 313, 49, 328, 176
-0.999678, 17, 171, 32, 186
-0.999679, 243, 33, 258, 160
-0.999682, 177, 193, 192, 320
-0.999682, 249, 49, 264, 176
-0.999685, 315, 97, 330, 224
-0.999685, 3, 151, 18, 166
-0.99969, 321, 65, 352, 320
-0.999695, 13, 143, 28, 158
-0.999696, 261, 81, 276, 208
-0.999696, 1, 141, 16, 156
-0.999697, 181, 81, 196, 208
-0.999701, 13, 161, 28, 176
-0.999702, 67, 17, 82, 144
-0.999703, 385, 113, 416, 240
-0.999706, 1, 115, 16, 130
-0.999708, 7, 1, 22, 128
-0.999711, 7, 171, 22, 186
-0.999713, 229, 241, 244, 368
-0.999714, 135, 145, 150, 272
-0.999715, 257, 161, 272, 288
-0.99972, 129, 193, 160, 320
-0.999721, 83, 161, 98, 288
-0.999726, 1, 121, 16, 136
-0.999726, 93, 65, 108, 192
-0.999728, 3, 241, 18, 368
-0.999728, 17, 177, 32, 192
-0.999729, 199, 225, 214, 352
-0.999731, 267, 113, 282, 240
-0.999734, 1, 131, 16, 146
-0.999737, 13, 149, 28, 164
-0.999737, 9, 155, 24, 170
-0.999737, 169, 209, 184, 336
-0.999738, 209, 33, 224, 160
-0.99974, 49, 49, 64, 176
-0.999742, 237, 33, 252, 160
-0.999743, 7, 145, 22, 160
-0.999748, 441, 145, 456, 272
-0.999749, 203, 33, 218, 160
-0.99975, 39, 135, 54, 150
-0.999758, 9, 133, 24, 148
-0.999764, 65, 121, 192, 184
-0.999771, 9, 127, 24, 142
-0.999795, 245, 1, 276, 256
-0.999825, 425, 177, 456, 304
-0.999833, 233, 1, 264, 256
-0.999858, 377, 129, 408, 375
-0.999865, 197, 1, 228, 256
-0.999866, 1, 9, 256, 72
-0.999885, 217, 113, 248, 240
-0.999905, 97, 33, 224, 96
-0.999914, 105, 1, 168, 375
-0.999923, 273, 33, 304, 160
-0.999941, 109, 129, 140, 375
-1.00004, 77, 1, 108, 256
-1.00006, 445, 97, 476, 224
-1.00009, 321, 17, 352, 144
-1.0001, 333, 65, 364, 320
-1.00013, 121, 129, 152, 375
-1.00013, 397, 129, 428, 375
-1.00021, 425, 129, 456, 375
-1.00021, 221, 129, 252, 375
-1.00022, 1, 137, 500, 200
-1.0003, 433, 1, 464, 128
-1.00031, 181, 33, 212, 160
-1.00041, 1, 1, 500, 64
-1.00048, 361, 1, 392, 256
-1.00048, 129, 33, 384, 96
-1.00052, 169, 1, 200, 256
-1.00056, 233, 129, 264, 375
-1.00058, 237, 177, 268, 304
-1.0006, 385, 33, 416, 288
-1.00065, 321, 1, 448, 64
-1.00066, 225, 9, 352, 72
-1.00068, 157, 1, 188, 256
-1.00068, 305, 33, 432, 96
-1.00077, 413, 129, 444, 375
-1.00078, 93, 1, 124, 256
-1.00079, 273, 9, 400, 72
-1.0009, 449, 97, 480, 352
-1.00099, 361, 1, 424, 375
-1.001, 425, 1, 456, 256
-1.00101, 161, 9, 288, 72
-1.00102, 417, 225, 448, 352
-1.00103, 141, 33, 172, 288
-1.00108, 409, 1, 472, 256
-1.00109, 373, 1, 404, 256
-1.0011, 437, 193, 468, 320
-1.00118, 73, 1, 136, 256
-1.00126, 161, 1, 224, 256
-1.00133, 461, 1, 492, 256
-1.00136, 417, 209, 480, 336
-1.00136, 109, 33, 140, 288
-1.00139, 413, 33, 444, 288
-1.00141, 125, 33, 156, 288
-1.00142, 333, 17, 364, 144
-1.00148, 81, 17, 144, 144
-1.00156, 237, 129, 268, 256
-1.00157, 113, 9, 240, 72
-1.00169, 397, 33, 428, 288
-1.0017, 377, 65, 408, 192
-1.00174, 461, 97, 492, 352
-1.00177, 369, 1, 432, 256
-1.00178, 161, 1, 416, 64
-1.0018, 345, 17, 376, 144
-1.00187, 137, 1, 200, 256
-1.0021, 261, 1, 292, 128
-1.00219, 117, 113, 148, 240
-1.00223, 81, 65, 208, 192
-1.00237, 433, 97, 464, 224
-1.00241, 209, 1, 240, 128
-1.00245, 413, 161, 444, 288
-1.00253, 437, 49, 468, 176
-1.00269, 357, 49, 388, 176
-1.00282, 89, 17, 120, 144
-1.00292, 297, 1, 328, 128
-1.00301, 421, 113, 452, 240
-1.0031, 345, 1, 408, 128
-1.0031, 133, 97, 164, 224
-1.00312, 309, 113, 340, 240
-1.00346, 309, 17, 340, 144
-1.00358, 409, 97, 472, 352
-1.00368, 193, 1, 224, 128
-1.00378, 313, 241, 376, 368
-1.0039, 329, 241, 360, 368
-1.00396, 153, 65, 184, 192
-1.00402, 101, 113, 132, 240
-1.00503, 345, 1, 408, 256
-1.00508, 177, 1, 240, 128
-1.00527, 337, 241, 400, 368
-1.00528, 337, 193, 400, 320
-1.00555, 97, 1, 160, 256
-1.0056, 337, 49, 400, 176
-1.0061, 137, 17, 200, 144
-1.00628, 121, 65, 184, 192
-1.00995, 305, 113, 368, 240
-1.01148, 97, 65, 160, 192
-1.01221, 377, 1, 440, 128
-1.01396, 105, 17, 168, 144
