1954
-0.304721, 1, 1, 500, 375
-0.37865, 1, 65, 500, 320
-0.399186, 97, 1, 352, 375
-0.399868, 1, 1, 256, 375
-0.508718, 257, 1, 500, 375
-0.587073, 1, 65, 256, 320
-0.606352, 97, 65, 352, 320
-0.692374, 257, 65, 500, 320
-0.834145, 33, 1, 160, 375
-0.838638, 33, 97, 160, 352
-0.860202, 289, 1, 416, 375
-0.860249, 369, 1, 496, 375
-0.86158, 305, 65, 432, 320
-0.868682, 49, 1, 176, 256
-0.876164, 225, 1, 352, 375
-0.88162, 257, 33, 384, 288
-0.88192, 113, 1, 240, 256
-0.882617, 1, 1, 128, 256
-0.884924, 353, 65, 480, 320
-0.887211, 1, 161, 500, 288
-0.888163, 1, 113, 500, 240
-0.890152, 1, 241, 500, 368
-0.891974, 113, 1, 240, 375
-0.902092, 257, 129, 384, 375
-0.90238, 1, 33, 500, 160
-0.906102, 209, 65, 336, 320
-0.908285, 177, 1, 304, 375
-0.910451, 1, 1, 256, 128
-0.915318, 257, 161, 500, 288
-0.916832, 1, 177, 256, 304
-0.920703, 161, 1, 288, 256
-0.921631, 33, 49, 288, 176
-0.922414, 81, 97, 208, 352
-0.922683, 97, 97, 352, 224
-0.928211, 1, 129, 256, 256
-0.930546, 33, 225, 288, 352
-0.93072, 129, 97, 256, 352
-0.931129, 49, 161, 176, 288
-0.935363, 33, 1, 160, 128
-0.937889, 129, 177, 384, 304
-0.941758, 49, 161, 112, 288
-0.942792, 113, 33, 240, 160
-0.943344, 225, 97, 480, 224
-0.943355, 33, 49, 160, 176
-0.943421, 33, 1, 96, 128
-0.943582, 33, 113, 160, 240
-0.944251, 41, 81, 104, 208
-0.944328, 337, 161, 464, 288
-0.944897, 145, 1, 208, 128
-0.945501, 65, 241, 192, 368
-0.947004, 321, 33, 384, 160
-0.947718, 257, 33, 500, 160
-0.948867, 97, 1, 352, 128
-0.949367, 321, 97, 384, 224
-0.950122, 305, 97, 432, 224
-0.950281, 417, 33, 480, 160
-0.951515, 129, 49, 384, 176
-0.951795, 369, 113, 496, 240
-0.952836, 257, 33, 384, 160
-0.952952, 129, 225, 384, 352
-0.953981, 9, 49, 72, 176
-0.954084, 225, 97, 352, 224
-0.954172, 417, 97, 480, 224
-0.954765, 33, 225, 96, 352
-0.954786, 81, 49, 144, 176
-0.954985, 273, 161, 400, 288
-0.955857, 65, 1, 128, 128
-0.957142, 385, 161, 448, 288
-0.957314, 305, 33, 432, 160
-0.958452, 1, 177, 128, 304
-0.95863, 169, 1, 232, 128
-0.958736, 1, 225, 128, 352
-0.95918, 225, 209, 480, 336
-0.95944, 345, 113, 408, 240
-0.959777, 161, 17, 288, 144
-0.960632, 81, 241, 144, 368
-0.960667, 289, 145, 352, 272
-0.961537, 9, 1, 72, 128
-0.962252, 113, 209, 240, 336
-0.962419, 385, 169, 448, 232
-0.963398, 161, 9, 224, 72
-0.963573, 353, 65, 480, 192
-0.963672, 25, 241, 88, 304
-0.963727, 233, 49, 296, 176
-0.96424, 17, 97, 80, 224
-0.964401, 105, 17, 168, 144
-0.964492, 393, 97, 456, 224
-0.964772, 17, 49, 80, 112
-0.964836, 41, 73, 104, 136
-0.965064, 361, 161, 424, 288
-0.965118, 313, 137, 376, 200
-0.965574, 369, 209, 496, 336
-0.965597, 41, 153, 104, 216
-0.965862, 81, 97, 208, 224
-0.96589, 17, 177, 80, 304
-0.966207, 297, 97, 360, 224
-0.966606, 161, 49, 224, 176
-0.966621, 49, 129, 112, 375
-0.966775, 49, 177, 112, 240
-0.9668, 345, 153, 408, 216
-0.966834, 281, 49, 344, 176
-0.967232, 49, 105, 112, 168
-0.967422, 409, 161, 472, 288
-0.967775, 81, 97, 144, 224
-0.96788, 121, 209, 184, 336
-0.967905, 193, 1, 256, 128
-0.969492, 321, 73, 384, 136
-0.969592, 289, 161, 352, 224
-0.96972, 321, 145, 384, 272
-0.969746, 137, 17, 200, 80
-0.969825, 137, 49, 200, 176
-0.969886, 409, 209, 472, 336
-0.970021, 225, 177, 352, 304
-0.970024, 321, 161, 384, 224
-0.970949, 25, 25, 88, 88
-0.970999, 313, 33, 376, 288
-0.971487, 193, 41, 256, 104
-0.971577, 137, 41, 200, 104
-0.971844, 209, 33, 336, 160
-0.971959, 41, 49, 104, 112
-0.971967, 249, 97, 312, 224
-0.972016, 73, 265, 136, 328
-0.972317, 433, 41, 496, 104
-0.972544, 321, 97, 384, 160
-0.972768, 81, 1, 144, 256
-0.972781, 65, 57, 128, 120
-0.972791, 385, 145, 448, 208
-0.972922, 425, 65, 488, 320
-0.973, 129, 161, 256, 288
-0.973462, 1, 25, 64, 88
-0.973503, 137, 241, 200, 304
-0.973581, 25, 1, 88, 256
-0.974019, 233, 41, 296, 104
-0.974078, 73, 193, 136, 320
-0.974443, 49, 177, 80, 304
-0.974495, 265, 145, 328, 272
-0.974671, 433, 289, 496, 352
-0.974962, 353, 17, 480, 144
-0.975454, 169, 33, 232, 96
-0.975465, 321, 169, 448, 232
-0.975645, 433, 161, 496, 288
-0.975669, 33, 185, 160, 248
-0.975708, 173, 1, 204, 128
-0.975729, 105, 65, 168, 128
-0.976037, 321, 49, 384, 112
-0.976058, 57, 241, 120, 368
-0.976158, 49, 129, 112, 192
-0.976363, 41, 1, 72, 128
-0.976408, 41, 201, 104, 264
-0.976425, 177, 209, 304, 336
-0.976485, 33, 73, 160, 136
-0.976606, 433, 209, 496, 336
-0.976816, 337, 65, 400, 320
-0.976824, 185, 1, 216, 128
-0.976908, 353, 129, 416, 192
-0.97705, 65, 257, 192, 320
-0.977208, 209, 49, 272, 176
-0.977304, 105, 65, 168, 192
-0.977525, 113, 25, 240, 88
-0.977602, 393, 297, 456, 360
-0.977781, 17, 89, 80, 152
-0.977807, 129, 81, 256, 208
-0.977816, 49, 241, 80, 304
-0.977864, 321, 81, 352, 208
-0.97801, 33, 265, 96, 328
-0.978111, 49, 225, 176, 288
-0.978143, 305, 145, 432, 208
-0.978174, 401, 65, 464, 320
-0.978267, 105, 41, 168, 104
-0.978275, 417, 65, 480, 128
-0.978339, 9, 225, 72, 352
-0.978491, 393, 49, 456, 176
-0.978495, 33, 105, 160, 168
-0.978499, 177, 97, 304, 224
-0.978507, 1, 201, 64, 264
-0.978525, 65, 33, 128, 96
-0.978713, 113, 257, 176, 320
-0.978734, 17, 17, 144, 80
-0.978736, 193, 17, 256, 80
-0.978789, 161, 33, 288, 96
-0.97882, 61, 57, 92, 120
-0.978971, 409, 273, 472, 336
-0.979051, 345, 65, 408, 192
-0.979064, 49, 161, 176, 224
-0.979105, 69, 177, 100, 304
-0.979183, 377, 129, 440, 375
-0.979188, 113, 225, 176, 288
-0.979206, 73, 97, 136, 352
-0.979218, 49, 9, 112, 72
-0.97926, 53, 225, 84, 352
-0.979275, 185, 49, 248, 176
-0.979345, 97, 193, 160, 320
-0.979434, 181, 25, 212, 88
-0.979451, 61, 81, 92, 208
-0.979532, 353, 81, 384, 208
-0.979567, 65, 129, 192, 192
-0.979665, 29, 17, 60, 144
-0.979871, 65, 241, 128, 304
-0.979911, 417, 153, 480, 216
-0.979913, 413, 169, 444, 232
-0.979966, 41, 49, 72, 176
-0.98013, 393, 153, 424, 216
-0.980136, 49, 1, 112, 256
-0.980156, 41, 1, 104, 375
-0.980303, 89, 17, 152, 80
-0.980328, 425, 177, 488, 240
-0.980474, 81, 89, 144, 152
-0.980537, 105, 1, 168, 256
-0.980586, 41, 49, 72, 112
-0.980698, 65, 33, 192, 96
-0.980864, 17, 97, 80, 352
-0.980869, 1, 241, 128, 304
-0.980924, 137, 161, 200, 288
-0.980925, 81, 121, 144, 184
-0.980983, 333, 81, 364, 208
-0.981064, 329, 33, 360, 160
-0.981117, 241, 65, 304, 128
-0.981218, 297, 129, 360, 375
-0.981277, 137, 217, 200, 280
-0.981284, 17, 113, 80, 176
-0.981352, 369, 153, 496, 216
-0.981366, 1, 129, 128, 192
-0.98137, 53, 1, 84, 128
-0.981382, 237, 49, 268, 176
-0.981614, 69, 153, 100, 216
-0.981617, 145, 209, 208, 336
-0.981629, 125, 33, 156, 160
-0.981742, 273, 129, 336, 375
-0.981785, 113, 241, 240, 304
-0.981986, 273, 97, 336, 224
-0.982013, 81, 145, 144, 208
-0.982071, 65, 1, 96, 128
-0.982188, 29, 25, 60, 88
-0.982333, 273, 169, 400, 232
-0.982336, 361, 177, 424, 240
-0.982358, 145, 1, 208, 256
-0.982409, 281, 81, 344, 144
-0.982434, 53, 129, 84, 256
-0.982458, 89, 49, 120, 176
-0.98257, 9, 177, 72, 240
-0.982608, 369, 113, 432, 240
-0.982612, 393, 145, 424, 272
-0.982613, 425, 1, 488, 375
-0.98262, 337, 81, 464, 144
-0.982695, 425, 33, 456, 160
-0.982789, 97, 1, 160, 375
-0.982792, 321, 1, 384, 375
-0.982795, 1, 153, 128, 216
-0.98283, 145, 65, 208, 128
-0.98283, 425, 201, 488, 264
-0.982851, 25, 49, 56, 112
-0.982853, 105, 113, 168, 240
-0.982856, 417, 161, 448, 288
-0.982982, 225, 225, 352, 352
-0.983043, 41, 97, 72, 224
-0.983136, 169, 241, 232, 304
-0.983137, 349, 145, 380, 208
-0.983145, 257, 193, 320, 320
-0.983262, 1, 49, 128, 112
-0.983278, 257, 57, 384, 120
-0.983429, 113, 49, 240, 112
-0.983576, 337, 137, 368, 200
-0.983653, 449, 33, 480, 160
-0.98369, 225, 233, 288, 296
-0.983783, 413, 113, 444, 240
-0.983805, 361, 33, 424, 288
-0.983894, 397, 177, 428, 240
-0.98393, 1, 225, 64, 288
-0.98395, 169, 57, 232, 120
-0.984063, 345, 33, 376, 160
-0.984131, 257, 81, 384, 144
-0.984136, 125, 33, 156, 96
-0.98418, 289, 241, 416, 368
-0.984206, 49, 185, 80, 248
-0.984219, 257, 145, 384, 208
-0.984249, 369, 177, 496, 240
-0.984294, 361, 145, 392, 208
-0.984313, 97, 1, 128, 128
-0.984317, 81, 241, 112, 368
-0.984324, 69, 129, 100, 256
-0.984442, 385, 209, 448, 336
-0.984444, 265, 161, 328, 224
-0.98445, 309, 145, 340, 272
-0.984455, 61, 81, 92, 144
-0.984475, 417, 97, 480, 160
-0.984529, 41, 73, 72, 136
-0.984533, 233, 89, 296, 152
-0.984533, 329, 161, 360, 224
-0.984589, 361, 17, 424, 144
-0.9846, 161, 1, 192, 128
-0.984612, 233, 209, 296, 336
-0.984658, 97, 1, 224, 64
-0.984681, 289, 137, 352, 200
-0.984681, 81, 1, 112, 128
-0.984706, 377, 153, 408, 216
-0.984817, 249, 65, 312, 320
-0.984846, 177, 49, 208, 176
-0.984847, 161, 9, 288, 72
-0.984917, 69, 129, 100, 192
-0.984933, 337, 65, 368, 128
-0.984945, 257, 105, 384, 168
-0.985027, 281, 57, 344, 120
-0.985062, 289, 33, 352, 288
-0.985108, 73, 57, 104, 120
-0.985138, 25, 1, 88, 64
-0.985149, 89, 49, 120, 112
-0.985159, 73, 49, 104, 176
-0.985168, 169, 1, 232, 256
-0.985177, 257, 49, 320, 176
-0.985294, 345, 1, 408, 375
-0.985309, 65, 241, 96, 368
-0.985343, 433, 257, 496, 320
-0.985373, 429, 81, 460, 208
-0.985375, 105, 105, 168, 168
-0.985408, 17, 145, 80, 208
-0.98542, 433, 121, 496, 184
-0.985426, 49, 209, 80, 272
-0.985459, 305, 57, 432, 120
-0.985538, 449, 41, 480, 104
-0.985574, 193, 49, 224, 112
-0.985676, 449, 81, 480, 208
-0.985689, 65, 1, 128, 375
-0.985692, 321, 105, 448, 168
-0.985706, 53, 153, 84, 216
-0.985711, 73, 145, 136, 272
-0.985754, 393, 1, 456, 375
-0.985828, 321, 57, 352, 120
-0.985844, 177, 209, 240, 336
-0.985894, 209, 41, 336, 104
-0.985897, 345, 57, 408, 120
-0.985903, 109, 1, 140, 128
-0.985912, 281, 1, 344, 128
-0.98595, 365, 129, 396, 256
-0.985968, 9, 1, 72, 375
-0.986014, 405, 161, 436, 288
-0.98602, 161, 241, 288, 304
-0.986066, 465, 161, 496, 288
-0.986075, 405, 145, 436, 208
-0.986101, 273, 185, 336, 248
-0.98611, 349, 129, 380, 256
-0.986151, 345, 97, 376, 160
-0.986156, 317, 145, 348, 208
-0.986345, 321, 81, 352, 144
-0.986516, 129, 217, 256, 280
-0.986543, 173, 49, 204, 112
-0.986584, 237, 41, 268, 104
-0.986624, 61, 265, 92, 328
-0.986709, 353, 241, 416, 368
-0.986719, 289, 105, 352, 168
-0.986773, 41, 225, 72, 352
-0.986802, 305, 153, 336, 216
-0.986826, 209, 233, 336, 296
-0.986851, 345, 105, 408, 168
-0.986863, 353, 57, 480, 120
-0.986864, 353, 57, 384, 120
-0.986871, 81, 169, 144, 232
-0.986904, 409, 41, 472, 104
-0.986907, 297, 145, 328, 272
-0.986935, 333, 129, 364, 256
-0.986989, 197, 1, 228, 128
-0.986989, 381, 161, 412, 288
-0.98701, 201, 209, 264, 336
-0.987048, 309, 97, 340, 224
-0.987076, 297, 193, 360, 320
-0.987077, 1, 1, 64, 256
-0.987078, 105, 129, 168, 192
-0.987106, 17, 265, 144, 328
-0.98714, 105, 97, 168, 352
-0.987146, 249, 233, 312, 296
-0.98717, 161, 57, 288, 120
-0.987209, 17, 33, 48, 160
-0.987226, 445, 209, 476, 336
-0.987258, 209, 73, 336, 136
-0.987335, 125, 113, 156, 240
-0.987364, 81, 265, 112, 328
-0.987413, 289, 1, 352, 375
-0.98751, 145, 1, 208, 375
-0.987511, 249, 209, 312, 272
-0.987514, 269, 49, 300, 176
-0.987621, 161, 9, 192, 72
-0.987631, 401, 193, 464, 256
-0.98765, 201, 233, 264, 296
-0.987651, 469, 65, 500, 192
-0.987707, 249, 49, 280, 176
-0.987726, 369, 313, 496, 375
-0.98779, 189, 49, 220, 176
-0.987812, 1, 1, 64, 64
-0.98784, 465, 257, 496, 320
-0.987919, 81, 105, 208, 168
-0.987974, 137, 129, 200, 192
-0.988089, 377, 273, 440, 336
-0.988139, 261, 41, 292, 104
-0.988279, 37, 177, 68, 304
-0.988309, 101, 241, 132, 368
-0.988321, 73, 289, 136, 352
-0.988356, 65, 33, 96, 96
-0.988396, 125, 57, 156, 120
-0.988412, 125, 241, 156, 368
-0.988414, 369, 129, 496, 192
-0.98847, 233, 1, 296, 375
-0.988491, 441, 89, 472, 152
-0.988524, 449, 289, 480, 352
-0.988587, 81, 129, 112, 256
-0.988606, 249, 65, 280, 128
-0.988611, 441, 65, 472, 128
-0.988666, 421, 57, 452, 120
-0.988725, 417, 313, 480, 375
-0.988744, 437, 33, 468, 160
-0.988746, 41, 17, 72, 80
-0.988794, 257, 193, 384, 256
-0.988805, 429, 161, 460, 288
-0.98887, 333, 89, 364, 152
-0.988899, 113, 49, 144, 176
-0.988901, 173, 1, 204, 64
-0.988945, 41, 289, 104, 352
-0.988951, 225, 113, 288, 240
-0.988953, 193, 25, 224, 88
-0.988969, 357, 33, 388, 160
-0.988974, 429, 89, 460, 152
-0.988997, 113, 1, 176, 64
-0.98901, 37, 241, 68, 304
-0.989015, 41, 97, 72, 160
-0.98907, 321, 129, 352, 256
-0.989258, 1, 297, 128, 360
-0.98929, 257, 1, 320, 375
-0.989321, 209, 97, 336, 160
-0.989333, 113, 241, 144, 368
-0.989341, 249, 41, 280, 104
-0.989344, 365, 81, 396, 208
-0.989373, 225, 33, 288, 288
-0.989381, 369, 265, 496, 328
-0.989421, 257, 121, 320, 184
-0.989442, 33, 57, 96, 88
-0.989451, 233, 1, 296, 128
-0.989463, 1, 17, 256, 80
-0.989499, 369, 209, 496, 272
-0.989539, 129, 97, 192, 224
-0.989568, 273, 97, 304, 224
-0.989572, 137, 129, 200, 375
-0.989582, 341, 169, 372, 232
-0.989647, 445, 129, 476, 256
-0.98967, 337, 193, 400, 320
-0.989737, 321, 161, 384, 192
-0.989777, 225, 49, 256, 176
-0.989792, 29, 65, 60, 192
-0.989796, 425, 49, 488, 80
-0.989842, 377, 81, 440, 144
-0.989889, 377, 157, 440, 188
-0.989898, 129, 81, 256, 144
-0.989905, 345, 161, 408, 192
-0.989925, 321, 33, 448, 96
-0.989937, 113, 49, 144, 112
-0.989949, 177, 145, 304, 272
-0.99003, 369, 1, 432, 375
-0.990035, 469, 17, 500, 144
-0.990099, 269, 65, 300, 128
-0.990117, 65, 281, 192, 344
-0.990136, 313, 141, 376, 172
-0.990169, 385, 169, 448, 200
-0.990262, 113, 25, 144, 88
-0.990283, 429, 209, 460, 336
-0.990304, 237, 65, 268, 128
-0.990306, 317, 121, 348, 184
-0.990306, 321, 109, 384, 140
-0.990307, 1, 217, 256, 280
-0.990325, 161, 29, 224, 60
-0.990413, 61, 105, 92, 168
-0.990416, 41, 145, 72, 208
-0.990425, 137, 45, 200, 76
-0.990469, 25, 249, 88, 280
-0.990485, 353, 81, 416, 144
-0.990514, 49, 185, 112, 216
-0.99053, 233, 113, 296, 144
-0.990556, 129, 97, 192, 160
-0.990587, 385, 181, 448, 212
-0.990627, 353, 273, 416, 336
-0.99073, 285, 145, 316, 272
-0.99074, 125, 257, 156, 320
-0.99075, 145, 1, 176, 128
-0.990752, 37, 217, 68, 280
-0.990755, 309, 49, 340, 176
-0.990758, 297, 157, 360, 188
-0.990772, 121, 1, 184, 375
-0.990781, 129, 121, 160, 184
-0.990789, 437, 41, 468, 104
-0.9908, 41, 77, 104, 108
-0.990822, 469, 57, 500, 120
-0.990824, 17, 25, 48, 88
-0.990841, 49, 117, 112, 148
-0.990845, 73, 177, 104, 240
-0.990889, 89, 153, 120, 216
-0.990903, 293, 161, 324, 224
-0.990905, 209, 65, 272, 128
-0.990924, 321, 53, 384, 84
-0.990925, 77, 33, 108, 96
-0.990949, 41, 121, 72, 184
-0.990957, 417, 145, 448, 208
-0.990983, 337, 149, 400, 180
-0.990988, 417, 109, 480, 140
-0.991005, 257, 33, 384, 96
-0.991016, 369, 65, 432, 192
-0.991026, 49, 153, 112, 184
-0.991035, 417, 225, 480, 288
-0.991059, 29, 81, 60, 144
-0.99106, 145, 249, 208, 280
-0.991075, 1, 25, 64, 56
-0.991087, 65, 269, 128, 300
-0.991114, 193, 49, 256, 80
-0.991124, 469, 33, 500, 96
-0.991131, 321, 97, 384, 128
-0.991161, 49, 133, 112, 164
-0.991166, 145, 241, 176, 304
-0.991177, 425, 61, 488, 92
-0.991186, 81, 53, 144, 84
-0.991233, 173, 241, 204, 304
-0.991239, 25, 45, 88, 76
-0.99126, 73, 65, 136, 96
-0.991271, 281, 105, 344, 136
-0.991271, 9, 57, 72, 88
-0.991272, 49, 105, 112, 136
-0.991275, 241, 49, 304, 80
-0.991332, 73, 241, 104, 304
-0.991333, 1, 237, 64, 268
-0.991344, 289, 169, 352, 200
-0.991345, 385, 177, 416, 240
-0.99135, 161, 17, 224, 48
-0.991359, 53, 33, 84, 96
-0.991369, 49, 173, 112, 204
-0.991373, 81, 73, 208, 136
-0.991383, 353, 121, 384, 184
-0.991387, 169, 41, 232, 72
-0.99139, 321, 85, 384, 116
-0.991394, 105, 65, 168, 96
-0.991394, 129, 21, 192, 52
-0.991401, 129, 33, 192, 64
-0.991404, 113, 193, 240, 256
-0.991408, 33, 241, 288, 304
-0.991421, 137, 193, 200, 256
-0.991431, 105, 185, 168, 248
-0.991449, 345, 173, 408, 204
-0.991461, 257, 217, 384, 280
-0.99148, 105, 153, 168, 216
-0.991502, 369, 105, 496, 168
-0.991526, 1, 45, 64, 76
-0.991535, 1, 57, 256, 120
-0.991558, 105, 53, 168, 84
-0.991562, 145, 209, 176, 336
-0.991566, 25, 33, 88, 64
-0.991568, 145, 17, 176, 80
-0.991586, 233, 101, 296, 132
-0.991586, 121, 257, 184, 288
-0.991596, 41, 229, 104, 260
-0.991608, 113, 129, 240, 192
-0.991617, 345, 137, 408, 168
-0.991619, 257, 169, 500, 232
-0.991621, 417, 161, 480, 192
-0.991622, 425, 177, 488, 208
-0.991622, 65, 305, 192, 368
-0.991632, 321, 65, 384, 96
-0.991659, 209, 1, 272, 375
-0.991684, 33, 261, 96, 292
-0.991685, 17, 105, 80, 136
-0.991734, 65, 253, 128, 284
-0.991772, 161, 41, 192, 104
-0.991773, 33, 17, 96, 48
-0.991788, 129, 105, 256, 168
-0.991797, 9, 193, 72, 224
-0.991803, 125, 193, 156, 320
-0.991813, 465, 289, 496, 352
-0.991815, 425, 169, 456, 232
-0.991825, 409, 249, 472, 312
-0.991837, 41, 93, 104, 124
-0.991842, 61, 241, 92, 304
-0.991843, 241, 61, 304, 92
-0.991887, 433, 289, 496, 320
-0.991891, 161, 53, 224, 84
-0.9919, 81, 141, 144, 172
-0.991909, 137, 57, 200, 88
-0.991913, 385, 57, 448, 120
-0.991913, 81, 177, 112, 304
-0.991923, 261, 89, 292, 152
-0.991928, 273, 33, 336, 96
-0.991934, 193, 37, 256, 68
-0.991945, 9, 209, 72, 240
-0.991958, 409, 221, 472, 252
-0.991964, 437, 273, 468, 336
-0.991978, 65, 77, 128, 108
-0.991999, 433, 213, 496, 244
-0.992006, 257, 113, 320, 144
-0.992006, 381, 113, 412, 240
-0.992012, 89, 121, 152, 152
-0.992013, 401, 53, 464, 84
-0.992031, 321, 273, 448, 336
-0.992038, 41, 197, 104, 228
-0.992054, 353, 169, 384, 232
-0.992062, 81, 105, 144, 136
-0.992075, 17, 81, 80, 112
-0.992083, 425, 189, 488, 220
-0.992091, 433, 97, 496, 128
-0.992091, 105, 77, 168, 108
-0.992094, 17, 117, 80, 148
-0.992099, 1, 225, 64, 256
-0.992128, 225, 241, 288, 272
-0.992133, 81, 169, 144, 200
-0.992145, 417, 193, 448, 256
-0.992145, 169, 1, 232, 375
-0.992155, 393, 317, 456, 348
-0.992173, 297, 193, 360, 256
-0.992186, 281, 181, 344, 212
-0.992202, 161, 5, 224, 36
-0.992204, 393, 297, 456, 328
-0.992211, 5, 1, 36, 128
-0.992229, 17, 93, 80, 124
-0.992229, 469, 81, 500, 144
-0.992243, 97, 265, 160, 296
-0.992244, 409, 277, 472, 308
-0.992244, 1, 257, 64, 320
-0.992256, 1, 161, 500, 224
-0.992269, 57, 49, 120, 80
-0.992279, 9, 177, 72, 208
-0.992307, 401, 97, 432, 224
-0.992309, 417, 209, 448, 336
-0.992312, 185, 61, 248, 92
-0.992316, 53, 9, 84, 72
-0.992322, 97, 37, 160, 68
-0.992325, 421, 297, 452, 360
-0.992342, 305, 121, 368, 152
-0.992343, 41, 213, 104, 244
-0.992344, 105, 89, 168, 120
-0.992344, 113, 245, 176, 276
-0.992356, 425, 73, 488, 104
-0.992356, 33, 81, 288, 144
-0.992358, 417, 121, 480, 152
-0.99237, 409, 209, 472, 240
-0.992373, 313, 173, 376, 204
-0.992374, 281, 53, 344, 84
-0.992381, 233, 89, 296, 120
-0.992381, 185, 245, 248, 276
-0.992385, 365, 57, 396, 120
-0.992387, 113, 257, 144, 320
-0.992392, 137, 233, 200, 264
-0.992412, 129, 233, 384, 296
-0.992413, 101, 17, 132, 80
-0.992471, 281, 93, 344, 124
-0.992473, 33, 177, 64, 240
-0.992484, 57, 13, 120, 44
-0.992487, 137, 137, 200, 168
-0.992495, 357, 81, 388, 144
-0.992497, 33, 273, 96, 304
-0.992528, 1, 13, 64, 44
-0.992545, 105, 137, 168, 168
-0.992546, 345, 101, 408, 132
-0.992546, 425, 301, 488, 332
-0.992551, 81, 153, 144, 184
-0.992561, 49, 37, 112, 68
-0.992564, 393, 157, 424, 188
-0.992587, 137, 153, 200, 216
-0.992587, 289, 81, 352, 112
-0.992588, 345, 53, 408, 84
-0.992594, 121, 125, 184, 156
-0.992599, 273, 157, 336, 188
-0.992599, 49, 245, 80, 276
-0.992601, 393, 105, 456, 136
-0.992602, 249, 237, 312, 268
-0.992636, 129, 225, 160, 288
-0.992644, 209, 113, 272, 144
-0.992645, 33, 105, 288, 168
-0.992648, 405, 289, 436, 352
-0.992648, 105, 109, 168, 140
-0.992656, 193, 33, 256, 288
-0.992685, 365, 153, 396, 184
-0.992687, 97, 41, 352, 104
-0.992689, 217, 53, 280, 84
-0.992695, 353, 137, 384, 168
-0.992707, 385, 201, 448, 232
-0.992714, 437, 105, 468, 136
-0.992719, 17, 129, 80, 160
-0.992723, 65, 57, 96, 88
-0.992726, 349, 157, 380, 188
-0.992729, 33, 285, 96, 316
-0.99274, 129, 9, 192, 40
-0.992748, 369, 297, 432, 360
-0.99275, 369, 289, 496, 352
-0.992758, 469, 161, 500, 224
-0.992763, 325, 165, 356, 196
-0.992766, 329, 105, 360, 136
-0.99277, 89, 129, 120, 192
-0.992784, 209, 209, 336, 272
-0.992801, 337, 149, 368, 180
-0.992801, 1, 177, 256, 240
-0.992803, 289, 97, 320, 224
-0.99281, 345, 105, 376, 136
-0.99281, 113, 153, 240, 216
-0.992827, 433, 49, 464, 80
-0.992844, 373, 165, 404, 196
-0.99286, 29, 129, 60, 256
-0.992872, 29, 57, 60, 88
-0.992873, 341, 137, 372, 168
-0.992879, 413, 169, 444, 200
-0.992881, 249, 105, 280, 136
-0.992912, 313, 157, 344, 188
-0.992918, 265, 113, 296, 144
-0.992953, 425, 105, 456, 136
-0.992967, 237, 105, 268, 136
-0.992978, 49, 185, 80, 216
-0.992985, 449, 49, 480, 80
-0.99299, 45, 233, 76, 264
-0.993004, 449, 101, 480, 132
-0.993006, 29, 25, 60, 56
-0.993008, 57, 81, 88, 112
-0.993009, 353, 53, 384, 84
-0.993014, 329, 85, 360, 116
-0.993028, 325, 153, 356, 184
-0.993031, 437, 61, 468, 92
-0.993035, 209, 121, 336, 184
-0.993038, 393, 177, 424, 208
-0.99304, 309, 177, 340, 240
-0.99304, 253, 233, 284, 296
-0.993046, 209, 169, 336, 232
-0.993047, 341, 93, 372, 124
-0.993056, 421, 53, 452, 84
-0.993067, 301, 157, 332, 188
-0.993067, 125, 41, 156, 72
-0.993073, 241, 97, 272, 160
-0.993075, 41, 101, 72, 132
-0.993078, 237, 49, 268, 80
-0.99308, 409, 157, 440, 188
-0.993087, 145, 253, 176, 284
-0.993088, 321, 157, 448, 188
-0.993088, 113, 53, 144, 84
-0.99309, 1, 129, 256, 192
-0.993092, 281, 49, 312, 176
-0.993094, 69, 153, 100, 184
-0.993099, 361, 165, 392, 196
-0.993102, 29, 45, 60, 76
-0.993104, 461, 285, 492, 316
-0.993108, 97, 193, 352, 256
-0.993109, 337, 161, 368, 192
-0.99311, 41, 57, 72, 88
-0.993111, 41, 81, 72, 112
-0.993112, 101, 49, 132, 112
-0.993119, 69, 77, 100, 108
-0.99312, 329, 61, 360, 92
-0.993124, 37, 245, 68, 276
-0.993127, 161, 249, 192, 280
-0.993131, 77, 269, 108, 300
-0.993133, 185, 241, 216, 304
-0.993136, 185, 57, 216, 88
-0.993138, 233, 93, 264, 124
-0.993141, 73, 313, 136, 375
-0.993141, 89, 57, 120, 88
-0.993145, 125, 57, 156, 88
-0.99315, 181, 29, 212, 60
-0.993152, 313, 169, 344, 200
-0.993159, 125, 121, 156, 152
-0.993161, 413, 181, 444, 212
-0.993162, 321, 73, 352, 104
-0.993171, 137, 49, 168, 176
-0.993176, 53, 257, 84, 288
-0.993184, 345, 69, 376, 100
-0.993184, 269, 57, 300, 88
-0.993189, 113, 65, 144, 96
-0.993195, 249, 45, 280, 76
-0.993196, 429, 93, 460, 124
-0.993197, 161, 241, 192, 304
-0.993198, 13, 45, 44, 76
-0.993201, 241, 117, 272, 148
-0.993202, 165, 45, 196, 76
-0.993204, 313, 241, 376, 368
-0.993207, 317, 97, 348, 128
-0.993209, 165, 49, 196, 176
-0.993214, 61, 269, 92, 300
-0.993215, 53, 57, 84, 88
-0.993216, 449, 89, 480, 120
-0.993217, 241, 61, 272, 92
-0.993217, 253, 117, 284, 148
-0.99322, 441, 117, 472, 148
-0.993222, 73, 165, 104, 196
-0.993236, 341, 53, 372, 84
-0.99324, 41, 17, 72, 48
-0.993241, 449, 61, 480, 92
-0.993242, 433, 221, 464, 252
-0.993249, 45, 45, 76, 76
-0.993251, 125, 69, 156, 100
-0.993254, 269, 45, 300, 76
-0.993262, 425, 117, 456, 148
-0.993264, 321, 177, 352, 304
-0.993265, 173, 57, 204, 88
-0.993266, 261, 101, 292, 132
-0.993268, 449, 289, 480, 320
-0.99327, 61, 113, 92, 144
-0.993276, 417, 197, 448, 228
-0.993276, 81, 69, 112, 100
-0.993281, 89, 165, 120, 196
-0.993282, 101, 49, 132, 176
-0.993283, 29, 233, 60, 264
-0.993286, 109, 193, 140, 320
-0.99329, 69, 253, 100, 284
-0.993292, 349, 169, 380, 200
-0.993294, 445, 221, 476, 252
-0.993294, 349, 81, 380, 112
-0.993299, 329, 49, 360, 80
-0.9933, 33, 193, 64, 224
-0.9933, 49, 197, 80, 228
-0.993301, 353, 93, 384, 124
-0.993302, 249, 93, 280, 124
-0.993303, 73, 177, 104, 208
-0.993307, 165, 13, 196, 44
-0.993307, 17, 57, 48, 88
-0.993309, 241, 77, 272, 108
-0.993318, 257, 57, 288, 88
-0.993318, 357, 65, 388, 96
-0.993319, 469, 69, 500, 100
-0.99332, 469, 57, 500, 88
-0.993323, 41, 121, 72, 152
-0.993325, 333, 73, 364, 104
-0.993326, 69, 141, 100, 172
-0.993331, 281, 53, 312, 84
-0.993331, 49, 221, 80, 252
-0.993334, 469, 81, 500, 112
-0.993336, 189, 45, 220, 76
-0.993343, 337, 125, 368, 156
-0.993346, 417, 317, 448, 348
-0.993351, 277, 117, 308, 148
-0.993354, 33, 205, 64, 236
-0.99336, 65, 45, 96, 76
-0.993367, 329, 137, 360, 168
-0.993369, 145, 217, 176, 280
-0.993369, 437, 77, 468, 108
-0.993371, 469, 169, 500, 200
-0.993375, 261, 77, 292, 108
-0.993378, 377, 153, 408, 184
-0.993382, 273, 177, 304, 304
-0.993383, 421, 65, 452, 96
-0.993421, 113, 265, 240, 328
-0.993424, 409, 129, 472, 192
-0.993435, 89, 105, 120, 168
-0.993452, 145, 161, 176, 288
-0.993471, 321, 193, 448, 256
-0.993491, 413, 33, 444, 160
-0.993499, 33, 153, 288, 216
-0.993567, 33, 265, 288, 328
-0.993594, 329, 113, 360, 176
-0.993626, 289, 241, 352, 368
-0.993638, 453, 81, 484, 144
-0.993646, 1, 209, 128, 272
-0.993652, 237, 97, 268, 224
-0.993656, 185, 1, 216, 64
-0.993697, 41, 313, 104, 375
-0.993745, 385, 121, 448, 184
-0.993746, 61, 177, 92, 240
-0.99376, 5, 9, 36, 72
-0.993829, 101, 265, 132, 328
-0.993841, 129, 113, 384, 176
-0.993842, 449, 217, 480, 280
-0.993858, 241, 233, 272, 296
-0.993861, 225, 121, 288, 184
-0.99387, 409, 17, 472, 80
-0.99391, 241, 257, 368, 320
-0.99392, 137, 41, 168, 104
-0.993937, 281, 57, 312, 120
-0.99399, 13, 49, 44, 112
-0.994014, 209, 17, 336, 80
-0.994118, 153, 265, 216, 328
-0.994123, 361, 33, 424, 96
-0.994126, 369, 241, 496, 304
-0.994144, 73, 9, 104, 72
-0.994154, 1, 257, 500, 320
-0.994165, 257, 145, 500, 208
-0.994179, 385, 1, 448, 128
-0.994198, 273, 233, 336, 296
-0.994254, 461, 209, 492, 336
-0.994255, 1, 185, 500, 248
-0.994262, 257, 193, 500, 256
-0.994364, 337, 105, 464, 136
-0.994385, 365, 169, 396, 232
-0.994426, 309, 73, 340, 136
-0.99443, 257, 89, 320, 152
-0.994461, 73, 81, 104, 144
-0.99458, 373, 129, 404, 192
-0.994617, 129, 145, 160, 208
-0.994631, 225, 57, 480, 120
-0.994662, 33, 181, 160, 212
-0.994681, 129, 145, 384, 208
-0.994703, 1, 137, 500, 200
-0.994705, 273, 209, 336, 272
-0.994771, 33, 101, 160, 132
-0.994792, 49, 249, 176, 280
-0.994803, 113, 37, 240, 68
-0.994834, 327, 57, 342, 120
-0.994882, 257, 105, 384, 136
-0.994884, 289, 249, 416, 312
-0.994899, 369, 161, 496, 192
-0.994908, 349, 177, 380, 304
-0.994917, 397, 153, 412, 216
-0.994923, 1, 57, 128, 88
-0.994948, 97, 17, 352, 80
-0.994976, 321, 297, 448, 360
-0.995055, 321, 169, 448, 200
-0.995085, 1, 233, 500, 296
-0.995102, 65, 261, 192, 292
-0.995104, 273, 257, 336, 320
-0.995122, 129, 245, 256, 276
-0.995162, 361, 177, 392, 304
-0.995188, 33, 121, 160, 152
-0.995204, 273, 157, 400, 188
-0.995222, 193, 89, 256, 152
-0.995283, 61, 57, 76, 120
-0.995288, 385, 241, 416, 368
-0.995339, 421, 169, 436, 232
-0.995344, 161, 45, 288, 76
-0.995356, 83, 145, 98, 208
-0.995359, 205, 209, 236, 336
-0.995373, 327, 81, 342, 144
-0.995415, 89, 233, 152, 296
-0.995421, 177, 209, 208, 336
-0.995481, 461, 41, 476, 104
-0.995488, 1, 97, 500, 160
-0.99549, 51, 57, 66, 120
-0.995495, 93, 97, 124, 224
-0.995516, 33, 81, 160, 112
-0.995522, 257, 217, 500, 280
-0.995543, 63, 241, 78, 304
-0.995562, 53, 97, 84, 352
-0.995597, 367, 65, 382, 128
-0.995613, 193, 209, 224, 336
-0.995634, 403, 153, 418, 216
-0.995645, 129, 89, 384, 152
-0.995661, 365, 137, 380, 200
-0.995666, 465, 113, 496, 240
-0.995692, 225, 81, 480, 144
-0.995693, 351, 145, 366, 208
-0.995709, 217, 209, 248, 336
-0.995717, 321, 145, 448, 176
-0.995725, 369, 33, 496, 96
-0.995727, 411, 153, 426, 216
-0.995742, 65, 165, 192, 196
-0.995747, 297, 265, 360, 328
-0.995772, 265, 241, 328, 368
-0.995789, 49, 69, 176, 100
-0.995797, 37, 49, 52, 112
-0.995798, 357, 153, 372, 216
-0.995805, 1, 281, 500, 344
-0.995812, 77, 57, 92, 120
-0.995837, 237, 1, 268, 128
-0.995859, 49, 137, 176, 168
-0.995861, 33, 201, 160, 232
-0.995868, 81, 49, 208, 80
-0.995907, 69, 97, 100, 352
-0.995925, 53, 185, 68, 248
-0.995932, 193, 57, 208, 120
-0.995939, 161, 33, 288, 64
-0.995939, 65, 153, 192, 184
-0.995973, 201, 97, 264, 224
-0.99598, 137, 33, 152, 96
-0.995988, 1, 249, 128, 280
-0.995995, 33, 25, 48, 88
-0.996012, 407, 177, 422, 240
-0.996024, 241, 49, 368, 80
-0.996038, 353, 49, 480, 80
-0.996038, 181, 49, 196, 112
-0.996038, 1, 153, 128, 184
-0.99604, 169, 217, 232, 280
-0.996064, 51, 209, 66, 272
-0.996078, 65, 237, 192, 268
-0.996081, 391, 153, 406, 216
-0.996093, 97, 25, 224, 56
-0.996118, 321, 257, 384, 320
-0.996126, 75, 265, 90, 328
-0.996134, 209, 145, 336, 208
-0.996141, 189, 25, 204, 88
-0.996149, 239, 49, 254, 112
-0.996159, 257, 117, 384, 148
-0.996181, 1, 209, 500, 272
-0.996182, 41, 17, 56, 80
-0.996185, 225, 161, 288, 288
-0.996226, 427, 169, 442, 232
-0.996227, 1, 133, 128, 164
-0.996241, 49, 233, 64, 296
-0.996245, 17, 17, 144, 48
-0.996249, 33, 225, 160, 256
-0.996262, 461, 65, 476, 128
-0.996267, 59, 145, 74, 208
-0.99628, 261, 129, 292, 256
-0.996281, 285, 57, 300, 120
-0.996299, 315, 153, 330, 216
-0.996299, 433, 17, 496, 80
-0.9963, 129, 65, 384, 128
-0.996302, 69, 257, 84, 320
-0.996316, 273, 169, 400, 200
-0.996323, 33, 213, 160, 244
-0.99634, 217, 209, 280, 272
-0.996352, 187, 57, 202, 120
-0.996357, 71, 57, 86, 120
-0.996367, 57, 241, 72, 304
-0.996386, 425, 57, 440, 120
-0.996392, 137, 57, 152, 120
-0.996404, 83, 121, 98, 184
-0.996407, 173, 9, 188, 72
-0.996452, 357, 129, 372, 192
-0.996459, 45, 49, 60, 112
-0.996489, 229, 209, 260, 336
-0.99649, 1, 165, 128, 196
-0.99649, 417, 145, 432, 208
-0.996491, 233, 17, 296, 80
-0.996503, 257, 93, 384, 124
-0.996504, 17, 33, 144, 64
-0.996517, 87, 57, 102, 120
-0.996518, 245, 57, 260, 120
-0.996528, 89, 1, 120, 256
-0.996544, 51, 81, 66, 144
-0.996545, 65, 37, 192, 68
-0.99655, 321, 65, 352, 320
-0.996566, 209, 1, 240, 128
-0.99657, 197, 25, 212, 88
-0.996605, 363, 89, 378, 152
-0.996609, 337, 93, 464, 124
-0.996615, 31, 49, 46, 112
-0.996616, 17, 45, 144, 76
-0.99663, 369, 173, 496, 204
-0.996643, 239, 81, 254, 144
-0.996648, 325, 145, 340, 208
-0.996663, 455, 57, 470, 120
-0.996668, 321, 169, 336, 232
-0.996675, 335, 161, 350, 224
-0.996679, 129, 169, 384, 232
-0.996682, 285, 81, 300, 144
-0.996684, 257, 209, 288, 336
-0.996687, 1, 57, 500, 120
-0.99669, 397, 177, 412, 240
-0.996693, 327, 105, 342, 168
-0.9967, 131, 33, 146, 96
-0.996709, 43, 81, 58, 144
-0.996714, 241, 153, 304, 216
-0.996729, 345, 129, 360, 192
-0.996732, 425, 145, 440, 208
-0.996736, 425, 81, 440, 144
-0.996736, 337, 65, 352, 128
-0.996754, 385, 145, 400, 208
-0.99676, 113, 257, 240, 288
-0.996763, 369, 217, 496, 248
-0.996764, 289, 57, 416, 88
-0.996766, 435, 57, 450, 120
-0.996771, 357, 57, 372, 120
-0.99679, 125, 1, 156, 256
-0.996792, 459, 89, 474, 152
-0.9968, 181, 25, 196, 88
-0.996801, 357, 105, 372, 168
-0.996807, 81, 81, 96, 144
-0.996814, 455, 33, 470, 96
-0.996825, 225, 113, 480, 176
-0.996841, 209, 109, 336, 140
-0.996867, 161, 225, 192, 352
-0.996885, 465, 89, 480, 152
-0.996911, 209, 89, 336, 120
-0.996916, 65, 153, 80, 216
-0.996916, 81, 265, 96, 328
-0.996922, 77, 153, 92, 216
-0.996932, 273, 141, 400, 172
-0.996956, 177, 241, 304, 272
-0.996961, 25, 177, 56, 304
-0.996969, 385, 169, 400, 232
-0.996978, 129, 257, 384, 320
-0.996983, 199, 49, 214, 112
-0.996989, 71, 153, 86, 216
-0.996991, 309, 65, 340, 320
-0.996998, 17, 81, 48, 208
-0.997011, 415, 177, 430, 240
-0.997011, 47, 17, 62, 80
-0.997016, 467, 49, 482, 112
-0.997027, 61, 1, 92, 256
-0.997052, 129, 233, 256, 264
-0.997053, 369, 17, 400, 144
-0.997077, 139, 81, 154, 144
-0.99709, 461, 281, 476, 344
-0.997104, 139, 105, 154, 168
-0.997105, 371, 145, 386, 208
-0.997109, 129, 57, 256, 88
-0.997109, 5, 49, 36, 176
-0.997109, 333, 33, 364, 288
-0.99712, 81, 125, 208, 156
-0.99713, 69, 33, 84, 96
-0.997131, 17, 265, 144, 296
-0.997156, 203, 25, 218, 88
-0.997165, 321, 49, 336, 112
-0.997166, 85, 169, 100, 232
-0.997171, 43, 233, 58, 296
-0.997173, 365, 113, 380, 176
-0.997183, 337, 177, 368, 304
-0.997186, 349, 65, 380, 320
-0.997188, 81, 129, 112, 375
-0.997193, 225, 97, 256, 224
-0.997196, 275, 65, 290, 128
-0.997212, 61, 81, 76, 144
-0.997212, 53, 145, 68, 208
-0.997215, 393, 129, 424, 375
-0.997217, 245, 81, 260, 144
-0.997224, 337, 61, 464, 92
-0.997235, 251, 41, 266, 104
-0.997238, 273, 281, 400, 344
-0.997245, 249, 1, 280, 128
-0.997264, 225, 25, 480, 88
-0.997275, 175, 41, 190, 104
-0.99728, 345, 97, 360, 160
-0.997286, 241, 209, 272, 336
-0.997293, 209, 65, 336, 96
-0.997297, 405, 209, 436, 336
-0.997299, 97, 193, 128, 320
-0.9973, 81, 13, 208, 44
-0.997301, 133, 81, 148, 144
-0.997308, 251, 65, 266, 128
-0.99731, 81, 33, 96, 96
-0.997322, 433, 161, 448, 224
-0.997335, 329, 169, 344, 232
-0.997339, 3, 33, 18, 96
-0.99734, 339, 129, 354, 192
-0.99735, 439, 81, 454, 144
-0.997353, 349, 65, 364, 128
-0.997358, 367, 41, 382, 104
-0.997362, 273, 73, 400, 104
-0.99737, 53, 105, 68, 168
-0.997381, 33, 289, 288, 352
-0.997383, 455, 273, 470, 336
-0.997384, 359, 137, 374, 168
-0.997384, 87, 265, 102, 328
-0.997399, 275, 41, 290, 104
-0.9974, 13, 209, 44, 336
-0.9974, 75, 33, 90, 96
-0.997407, 351, 169, 366, 232
-0.997414, 263, 41, 278, 104
-0.997425, 185, 241, 200, 304
-0.997431, 297, 129, 328, 375
-0.997431, 87, 33, 102, 96
-0.997446, 63, 33, 78, 96
-0.997453, 369, 197, 496, 228
-0.997458, 245, 33, 260, 96
-0.997469, 257, 273, 500, 336
-0.99747, 177, 241, 192, 304
-0.99749, 37, 81, 52, 144
-0.997506, 425, 33, 456, 288
-0.997517, 335, 97, 350, 160
-0.997523, 351, 97, 366, 160
-0.997533, 41, 1, 72, 256
-0.997541, 233, 49, 248, 112
-0.997542, 469, 257, 484, 320
-0.997544, 93, 145, 108, 208
-0.997558, 291, 81, 306, 144
-0.997607, 449, 33, 480, 288
-0.99761, 81, 113, 208, 144
-0.997619, 129, 105, 256, 136
-0.997625, 365, 153, 380, 184
-0.997633, 305, 117, 432, 148
-0.997635, 337, 77, 464, 108
-0.997639, 257, 313, 500, 375
-0.997646, 355, 157, 370, 188
-0.99766, 437, 33, 468, 288
-0.997668, 49, 233, 64, 264
-0.997684, 465, 129, 496, 375
-0.997715, 405, 129, 436, 375
-0.997722, 369, 117, 496, 148
-0.997729, 209, 77, 336, 108
-0.997729, 225, 233, 352, 264
-0.997729, 353, 9, 480, 72
-0.997744, 325, 161, 340, 192
-0.99775, 1, 69, 128, 100
-0.997775, 327, 105, 342, 136
-0.99778, 327, 61, 342, 92
-0.997781, 367, 57, 382, 88
-0.99779, 125, 97, 156, 352
-0.99783, 455, 105, 470, 136
-0.997834, 369, 149, 496, 180
-0.997835, 369, 185, 496, 216
-0.997844, 29, 225, 60, 352
-0.997856, 327, 93, 342, 124
-0.997858, 349, 137, 364, 168
-0.997867, 105, 1, 136, 256
-0.997871, 245, 105, 260, 136
-0.997872, 361, 97, 392, 352
-0.997872, 461, 49, 476, 80
-0.997875, 33, 313, 288, 375
-0.997886, 79, 57, 94, 88
-0.997893, 145, 21, 272, 52
-0.997902, 225, 129, 288, 375
-0.997906, 381, 129, 412, 375
-0.997913, 41, 97, 72, 352
-0.997916, 349, 149, 364, 180
-0.997935, 385, 165, 400, 196
-0.997942, 47, 245, 62, 276
-0.997949, 393, 157, 408, 188
-0.997951, 221, 1, 252, 128
-0.997955, 63, 245, 78, 276
-0.997955, 29, 1, 60, 256
-0.997957, 375, 161, 390, 192
-0.997958, 181, 1, 212, 256
-0.997971, 363, 105, 378, 136
-0.997978, 161, 265, 288, 328
-0.997991, 427, 105, 442, 136
-0.997993, 425, 53, 440, 84
-0.997999, 445, 105, 460, 136
-0.998, 33, 57, 48, 88
-0.998002, 335, 169, 350, 200
-0.998004, 369, 329, 496, 360
-0.998006, 287, 53, 302, 84
-0.998008, 327, 77, 342, 108
-0.998033, 369, 289, 496, 320
-0.998033, 277, 65, 308, 320
-0.998037, 369, 309, 496, 340
-0.998043, 347, 105, 362, 136
-0.998056, 53, 245, 68, 276
-0.998062, 193, 121, 320, 152
-0.998069, 439, 105, 454, 136
-0.998075, 225, 161, 352, 192
-0.998096, 283, 105, 298, 136
-0.998098, 417, 169, 432, 200
-0.998103, 251, 105, 266, 136
-0.998103, 357, 105, 372, 136
-0.998105, 277, 105, 292, 136
-0.998107, 333, 105, 348, 136
-0.998113, 423, 157, 438, 188
-0.998114, 257, 201, 384, 232
-0.998119, 257, 249, 500, 312
-0.998125, 83, 153, 98, 184
-0.998132, 335, 157, 350, 188
-0.998134, 137, 57, 152, 88
-0.998144, 269, 113, 284, 144
-0.998147, 73, 1, 104, 256
-0.998155, 367, 69, 382, 100
-0.998159, 61, 81, 76, 112
-0.998174, 49, 285, 176, 316
-0.998179, 367, 93, 382, 124
-0.998181, 81, 177, 208, 208
-0.998181, 459, 89, 474, 120
-0.998183, 53, 185, 68, 216
-0.998186, 469, 1, 500, 256
-0.998193, 413, 33, 444, 288
-0.998194, 129, 221, 256, 252
-0.998195, 433, 105, 448, 136
-0.998196, 139, 105, 154, 136
-0.998199, 333, 129, 364, 375
-0.998203, 65, 273, 192, 304
-0.99821, 457, 61, 472, 92
-0.998217, 33, 45, 48, 76
-0.99822, 381, 153, 396, 184
-0.998222, 343, 157, 358, 188
-0.998224, 245, 93, 260, 124
-0.998237, 285, 93, 300, 124
-0.998237, 81, 1, 208, 32
-0.998241, 1, 313, 128, 344
-0.998246, 239, 53, 254, 84
-0.998248, 39, 25, 54, 56
-0.998249, 357, 65, 372, 96
-0.998253, 363, 165, 378, 196
-0.998265, 315, 157, 330, 188
-0.998266, 189, 61, 204, 92
-0.998268, 455, 49, 470, 80
-0.998285, 133, 109, 148, 140
-0.998286, 75, 269, 90, 300
-0.998289, 341, 105, 356, 136
-0.998294, 259, 113, 274, 144
-0.998298, 1, 301, 128, 332
-0.998303, 411, 169, 426, 200
-0.998315, 415, 157, 430, 188
-0.998315, 239, 105, 254, 136
-0.998321, 139, 117, 154, 148
-0.998321, 257, 181, 384, 212
-0.998321, 245, 49, 260, 80
-0.998323, 241, 83, 272, 98
-0.998323, 69, 261, 100, 276
-0.998323, 437, 47, 468, 62
-0.998324, 341, 53, 372, 68
-0.998324, 89, 57, 120, 72
-0.998325, 33, 195, 64, 210
-0.998325, 45, 235, 76, 250
-0.998325, 429, 95, 460, 110
-0.998325, 281, 53, 296, 84
-0.998326, 57, 271, 88, 286
-0.998327, 329, 65, 360, 80
-0.998327, 129, 115, 160, 130
-0.998327, 233, 99, 264, 114
-0.998328, 245, 55, 276, 70
-0.998328, 423, 93, 438, 124
-0.99833, 89, 71, 120, 86
-0.99833, 261, 91, 292, 106
-0.99833, 273, 111, 304, 126
-0.99833, 345, 79, 376, 94
-0.99833, 321, 201, 448, 232
-0.99833, 357, 67, 388, 82
-0.99833, 165, 21, 196, 36
-0.998332, 45, 51, 76, 66
-0.998332, 125, 63, 156, 78
-0.998332, 53, 255, 84, 270
-0.998332, 17, 59, 48, 74
-0.998333, 81, 101, 208, 132
-0.998333, 241, 91, 272, 106
-0.998333, 317, 109, 348, 124
-0.998333, 49, 195, 80, 210
-0.998333, 345, 95, 376, 110
-0.998335, 53, 105, 68, 136
-0.998335, 37, 91, 68, 106
-0.998336, 89, 171, 120, 186
-0.998336, 125, 77, 156, 92
-0.998337, 41, 57, 56, 88
-0.998337, 345, 89, 376, 104
-0.998338, 253, 49, 284, 64
-0.998338, 41, 103, 72, 118
-0.998339, 301, 161, 332, 176
-0.998342, 25, 243, 56, 258
-0.998342, 161, 251, 192, 266
-0.998343, 53, 59, 84, 74
-0.998343, 461, 73, 476, 104
-0.998343, 435, 57, 450, 88
-0.998344, 85, 63, 116, 78
-0.998344, 185, 59, 216, 74
-0.998344, 449, 95, 480, 110
-0.998345, 125, 123, 156, 138
-0.998347, 429, 101, 460, 116
-0.998347, 41, 109, 72, 124
-0.998348, 233, 105, 264, 120
-0.998349, 145, 257, 176, 272
-0.998349, 321, 81, 352, 96
-0.998349, 125, 69, 156, 84
-0.99835, 41, 59, 72, 74
-0.998352, 349, 171, 380, 186
-0.998352, 381, 173, 412, 188
-0.998352, 329, 149, 344, 180
-0.998353, 333, 95, 364, 110
-0.998353, 413, 199, 444, 214
-0.998354, 257, 55, 288, 70
-0.998355, 337, 147, 368, 162
-0.998355, 367, 81, 382, 112
-0.998355, 323, 177, 338, 208
-0.998356, 357, 169, 372, 200
-0.998357, 73, 155, 104, 170
-0.998357, 53, 265, 84, 280
-0.998357, 113, 53, 144, 68
-0.998358, 69, 79, 100, 94
-0.998359, 369, 157, 400, 172
-0.998359, 345, 101, 376, 116
-0.998359, 83, 141, 98, 172
-0.998362, 161, 73, 288, 104
-0.998362, 241, 61, 272, 76
-0.998363, 449, 61, 480, 76
-0.998364, 125, 49, 156, 64
-0.998367, 109, 97, 140, 224
-0.998368, 413, 159, 444, 174
-0.998368, 409, 179, 440, 194
-0.998369, 233, 65, 264, 320
-0.998369, 441, 49, 456, 80
-0.998369, 69, 265, 84, 296
-0.99837, 449, 291, 480, 306
-0.99837, 413, 169, 444, 184
-0.998371, 73, 271, 104, 286
-0.998371, 257, 117, 288, 132
-0.998371, 437, 63, 468, 78
-0.998371, 233, 55, 264, 70
-0.998372, 41, 83, 72, 98
-0.998373, 109, 59, 140, 74
-0.998373, 109, 65, 140, 80
-0.998373, 37, 247, 68, 262
-0.998373, 329, 87, 360, 102
-0.998374, 13, 53, 44, 68
-0.998375, 333, 105, 364, 120
-0.998376, 461, 105, 476, 136
-0.998377, 355, 125, 370, 156
-0.998378, 393, 171, 424, 186
-0.998378, 321, 95, 352, 110
-0.99838, 425, 65, 440, 96
-0.998381, 233, 111, 264, 126
-0.998382, 249, 111, 280, 126
-0.998382, 309, 167, 340, 182
-0.998382, 341, 59, 372, 74
-0.998382, 369, 341, 496, 372
-0.998384, 449, 101, 480, 116
-0.998384, 337, 117, 368, 132
-0.998385, 261, 111, 292, 126
-0.998385, 337, 153, 368, 168
-0.998385, 329, 59, 360, 74
-0.998386, 125, 57, 156, 72
-0.998386, 313, 157, 344, 172
-0.998387, 57, 81, 88, 96
-0.998387, 41, 245, 56, 276
-0.998388, 369, 163, 400, 178
-0.998388, 441, 111, 472, 126
-0.998391, 163, 249, 178, 280
-0.998392, 425, 129, 456, 375
-0.998393, 33, 27, 64, 42
-0.998394, 425, 111, 456, 126
-0.998394, 391, 169, 406, 200
-0.998394, 81, 77, 96, 108
-0.998396, 447, 49, 462, 80
-0.998396, 397, 177, 412, 208
-0.998396, 193, 21, 320, 52
-0.998398, 269, 51, 300, 66
-0.998398, 349, 145, 380, 160
-0.998402, 371, 149, 386, 180
-0.998403, 409, 157, 424, 188
-0.998405, 195, 57, 210, 88
-0.998406, 441, 117, 472, 132
-0.998407, 59, 57, 74, 88
-0.998408, 225, 149, 352, 180
-0.998409, 237, 117, 268, 132
-0.998411, 345, 109, 376, 124
-0.998413, 425, 117, 456, 132
-0.998413, 285, 73, 300, 104
-0.998414, 321, 101, 352, 116
-0.998417, 341, 161, 372, 176
-0.998419, 357, 163, 388, 178
-0.998419, 393, 177, 424, 192
-0.99842, 403, 169, 418, 200
-0.998423, 435, 45, 450, 76
-0.998423, 113, 205, 240, 236
-0.998423, 49, 189, 80, 204
-0.998424, 45, 241, 76, 256
-0.998425, 29, 51, 60, 66
-0.998426, 133, 69, 148, 100
-0.998428, 329, 53, 360, 68
-0.998428, 353, 57, 384, 72
-0.99843, 241, 49, 272, 64
-0.99843, 83, 165, 98, 196
-0.998431, 113, 69, 240, 100
-0.998432, 357, 153, 388, 168
-0.998434, 421, 55, 452, 70
-0.998435, 333, 169, 364, 184
-0.998435, 333, 141, 364, 156
-0.998436, 29, 59, 60, 74
-0.998436, 201, 49, 232, 176
-0.998438, 269, 117, 300, 132
-0.998438, 67, 57, 82, 88
-0.998439, 329, 111, 360, 126
-0.998439, 51, 57, 66, 88
-0.99844, 349, 117, 380, 132
-0.998441, 257, 9, 384, 72
-0.998444, 65, 59, 96, 74
-0.998445, 485, 281, 500, 312
-0.998445, 369, 169, 400, 184
-0.998446, 357, 53, 372, 84
-0.998447, 137, 97, 168, 224
-0.998448, 43, 233, 58, 264
-0.998448, 353, 277, 480, 308
-0.998451, 325, 117, 356, 132
-0.998452, 249, 33, 280, 288
-0.998454, 461, 289, 492, 304
-0.998457, 369, 165, 384, 196
-0.998457, 321, 169, 352, 184
-0.99846, 321, 185, 448, 216
-0.998461, 331, 49, 346, 80
-0.998463, 275, 53, 290, 84
-0.998464, 113, 141, 240, 172
-0.998469, 33, 25, 48, 56
-0.998471, 365, 141, 380, 172
-0.998471, 17, 237, 144, 268
-0.998475, 337, 93, 352, 124
-0.99848, 321, 161, 384, 176
-0.998481, 73, 57, 88, 88
-0.998484, 349, 139, 380, 154
-0.998488, 425, 51, 488, 66
-0.998491, 321, 163, 352, 178
-0.998494, 47, 81, 62, 112
-0.998494, 181, 57, 196, 88
-0.998495, 399, 157, 414, 188
-0.998495, 449, 51, 480, 66
-0.998498, 347, 169, 362, 200
-0.998499, 135, 37, 150, 68
-0.998499, 433, 53, 464, 68
-0.998502, 423, 169, 438, 200
-0.998505, 429, 161, 444, 192
-0.998506, 123, 57, 138, 88
-0.998508, 257, 221, 384, 252
-0.998509, 265, 33, 296, 288
-0.99851, 411, 181, 426, 212
-0.998513, 321, 117, 384, 132
-0.998515, 49, 249, 80, 264
-0.998518, 321, 111, 384, 126
-0.99852, 239, 73, 254, 104
-0.99852, 477, 285, 492, 316
-0.998523, 455, 117, 470, 148
-0.998526, 459, 289, 474, 320
-0.998529, 313, 169, 376, 184
-0.998531, 321, 55, 384, 70
-0.998532, 281, 117, 296, 148
-0.998533, 465, 85, 480, 116
-0.998535, 241, 51, 304, 66
-0.998536, 233, 117, 296, 132
-0.998536, 239, 85, 254, 116
-0.998541, 337, 171, 400, 186
-0.998543, 33, 59, 96, 74
-0.998545, 289, 167, 352, 182
-0.998548, 25, 249, 88, 264
-0.998554, 453, 129, 484, 375
-0.998558, 345, 165, 408, 180
-0.998559, 377, 159, 440, 174
-0.99856, 65, 297, 192, 328
-0.998561, 161, 35, 224, 50
-0.998564, 425, 57, 488, 72
-0.998567, 33, 81, 96, 96
-0.99857, 241, 111, 304, 126
-0.998571, 25, 51, 88, 66
-0.998572, 41, 189, 104, 204
-0.998572, 417, 119, 480, 134
-0.998574, 1, 305, 500, 368
-0.998581, 377, 171, 440, 186
-0.998582, 425, 63, 488, 78
-0.998583, 1, 241, 64, 256
-0.998585, 137, 45, 200, 60
-0.998586, 321, 141, 384, 156
-0.998586, 169, 47, 232, 62
-0.998589, 345, 153, 408, 168
-0.998589, 201, 49, 264, 64
-0.998589, 49, 143, 112, 158
-0.998596, 9, 59, 72, 74
-0.998596, 49, 121, 112, 136
-0.998597, 193, 1, 224, 256
-0.998597, 81, 57, 144, 72
-0.998598, 417, 111, 480, 126
-0.998598, 137, 51, 200, 66
-0.998599, 1, 29, 64, 44
-0.9986, 49, 151, 112, 166
-0.998603, 145, 251, 208, 266
-0.998604, 1, 51, 64, 66
-0.998605, 65, 269, 128, 284
-0.998607, 1, 285, 128, 316
-0.998607, 49, 157, 112, 172
-0.998608, 169, 41, 232, 56
-0.998608, 297, 161, 360, 176
-0.998608, 49, 113, 112, 128
-0.998609, 49, 137, 112, 152
-0.99861, 105, 65, 168, 80
-0.99861, 369, 165, 432, 180
-0.998613, 385, 183, 448, 198
-0.998614, 329, 101, 392, 116
-0.998617, 161, 21, 224, 36
-0.998618, 49, 127, 112, 142
-0.998621, 73, 73, 136, 88
-0.998623, 401, 55, 464, 70
-0.998623, 81, 63, 144, 78
-0.998623, 105, 55, 168, 70
-0.998624, 129, 39, 192, 54
-0.998624, 281, 115, 344, 130
-0.998624, 121, 263, 184, 278
-0.998627, 385, 177, 448, 192
-0.998627, 321, 77, 384, 92
-0.998628, 161, 29, 224, 44
-0.998631, 25, 263, 88, 278
-0.998632, 137, 57, 200, 72
-0.998633, 49, 103, 112, 118
-0.998634, 425, 187, 488, 202
-0.998634, 57, 81, 120, 96
-0.998634, 321, 83, 384, 98
-0.998635, 29, 97, 60, 352
-0.998637, 41, 179, 104, 194
-0.998638, 65, 263, 128, 278
-0.998638, 41, 237, 104, 252
-0.99864, 281, 173, 344, 188
-0.998642, 241, 57, 304, 72
-0.998643, 49, 163, 112, 178
-0.998643, 41, 195, 104, 210
-0.998643, 193, 43, 256, 58
-0.998645, 169, 53, 232, 68
-0.998646, 49, 97, 112, 112
-0.998646, 433, 297, 496, 312
-0.998647, 129, 27, 192, 42
-0.998647, 321, 147, 384, 162
-0.998647, 33, 269, 96, 284
-0.998648, 425, 69, 488, 84
-0.998648, 345, 139, 408, 154
-0.998649, 25, 29, 88, 44
-0.998649, 9, 223, 72, 238
-0.99865, 257, 37, 384, 68
-0.998651, 321, 89, 384, 104
-0.998652, 17, 107, 80, 122
-0.998654, 393, 321, 456, 336
-0.998654, 105, 71, 168, 86
-0.998654, 281, 49, 344, 64
-0.998654, 193, 55, 256, 70
-0.998655, 9, 193, 72, 208
-0.998655, 281, 107, 344, 122
-0.998656, 9, 205, 72, 220
-0.998658, 301, 193, 332, 320
-0.998659, 321, 95, 384, 110
-0.998661, 49, 173, 112, 188
-0.998661, 9, 215, 72, 230
-0.998661, 313, 155, 376, 170
-0.998662, 9, 199, 72, 214
-0.998663, 33, 75, 96, 90
-0.998663, 41, 201, 104, 216
-0.998664, 17, 121, 80, 136
-0.998664, 41, 231, 104, 246
-0.998664, 137, 257, 200, 272
-0.998664, 97, 85, 224, 116
-0.998665, 129, 33, 192, 48
-0.998665, 105, 77, 168, 92
-0.998666, 17, 89, 80, 104
-0.998666, 249, 97, 280, 224
-0.998668, 289, 101, 352, 116
-0.998668, 81, 115, 144, 130
-0.998668, 1, 231, 64, 246
-0.998668, 425, 193, 488, 208
-0.998669, 361, 177, 424, 192
-0.998669, 105, 119, 168, 134
-0.998669, 25, 257, 88, 272
-0.99867, 409, 213, 472, 228
-0.99867, 313, 65, 376, 80
-0.99867, 425, 181, 488, 196
-0.998671, 105, 83, 168, 98
-0.998672, 393, 299, 456, 314
-0.998673, 113, 257, 176, 272
-0.998673, 97, 267, 160, 282
-0.998673, 81, 141, 144, 156
-0.998673, 81, 169, 144, 184
-0.998673, 137, 243, 200, 258
-0.998674, 161, 59, 224, 74
-0.998674, 41, 223, 104, 238
-0.998675, 17, 113, 80, 128
-0.998675, 337, 133, 464, 164
-0.998675, 105, 89, 168, 104
-0.998675, 65, 51, 128, 66
-0.998676, 41, 211, 104, 226
-0.998687, 113, 153, 240, 184
-0.998693, 193, 253, 320, 284
-0.998693, 65, 321, 192, 352
-0.998693, 189, 1, 204, 128
-0.998695, 17, 5, 144, 36
-0.998718, 305, 241, 336, 368
-0.998738, 17, 1, 48, 256
-0.99874, 145, 9, 272, 40
-0.998745, 209, 281, 336, 344
-0.998754, 113, 165, 240, 196
-0.998761, 337, 37, 464, 68
-0.998771, 113, 129, 144, 375
-0.998784, 55, 177, 70, 304
-0.998789, 373, 33, 404, 288
-0.998791, 161, 93, 288, 124
-0.998793, 129, 117, 256, 148
-0.998795, 65, 309, 192, 340
-0.998799, 169, 1, 200, 256
-0.998805, 113, 189, 240, 220
-0.998809, 161, 161, 224, 288
-0.99881, 327, 81, 342, 208
-0.998814, 201, 161, 264, 288
-0.998814, 1, 329, 128, 360
-0.998821, 195, 1, 210, 128
-0.998823, 1, 1, 32, 256
-0.99884, 209, 185, 336, 216
-0.998847, 179, 1, 194, 128
-0.998854, 261, 1, 292, 128
-0.998856, 361, 1, 392, 256
-0.99886, 49, 1, 64, 128
-0.998885, 321, 225, 448, 288
-0.998892, 401, 33, 432, 288
-0.998893, 133, 17, 148, 144
-0.998909, 81, 97, 96, 224
-0.998912, 177, 229, 304, 260
-0.998914, 161, 193, 288, 256
-0.998926, 65, 333, 192, 364
-0.998929, 321, 313, 448, 344
-0.998939, 289, 33, 320, 288
-0.998943, 43, 1, 58, 128
-0.998945, 129, 129, 256, 160
-0.998948, 63, 177, 78, 304
-0.998976, 367, 97, 382, 224
-0.998977, 209, 197, 336, 228
-0.998988, 327, 33, 342, 160
-0.998992, 61, 1, 76, 128
-0.999018, 239, 49, 254, 176
-0.999019, 51, 49, 66, 176
-0.999027, 459, 33, 474, 160
-0.999027, 241, 129, 368, 160
-0.999031, 33, 17, 48, 144
-0.999041, 427, 33, 442, 160
-0.999053, 145, 97, 176, 352
-0.99906, 209, 213, 336, 244
-0.999072, 423, 81, 438, 208
-0.999073, 61, 225, 76, 352
-0.999076, 361, 97, 376, 224
-0.999078, 321, 301, 448, 332
-0.999078, 91, 49, 106, 176
-0.999083, 69, 177, 84, 304
-0.999084, 55, 1, 70, 128
-0.999105, 465, 49, 480, 176
-0.999111, 451, 49, 466, 176
-0.999115, 333, 33, 348, 160
-0.999116, 69, 241, 84, 368
-0.999117, 193, 1, 448, 64
-0.999119, 389, 33, 420, 288
-0.999119, 285, 33, 300, 160
-0.999121, 437, 129, 468, 375
-0.99913, 407, 161, 422, 288
-0.999131, 357, 33, 372, 160
-0.999133, 209, 37, 336, 68
-0.999136, 69, 1, 84, 128
-0.999139, 129, 177, 256, 208
-0.999139, 65, 345, 192, 375
-0.999144, 221, 65, 252, 320
-0.999145, 61, 97, 76, 224
-0.999147, 201, 1, 216, 128
-0.999148, 369, 265, 496, 296
-0.999148, 289, 265, 416, 296
-0.99915, 173, 1, 188, 128
-0.999152, 77, 1, 92, 128
-0.999158, 49, 177, 64, 304
-0.999161, 321, 81, 336, 208
-0.999162, 251, 49, 266, 176
-0.999164, 337, 81, 352, 208
-0.999171, 369, 233, 496, 264
-0.999171, 55, 129, 70, 256
-0.999172, 113, 1, 128, 128
-0.999172, 355, 113, 370, 240
-0.999173, 81, 49, 96, 176
-0.999176, 63, 49, 78, 176
-0.99918, 75, 177, 90, 304
-0.999183, 87, 1, 102, 128
-0.999192, 313, 145, 328, 272
-0.999192, 245, 49, 260, 176
-0.999192, 133, 65, 148, 192
-0.999195, 139, 33, 154, 160
-0.999196, 191, 49, 206, 176
-0.999197, 55, 225, 70, 352
-0.999198, 185, 49, 200, 176
-0.999204, 349, 97, 364, 224
-0.999209, 137, 1, 168, 256
-0.999215, 429, 97, 444, 224
-0.999224, 127, 17, 142, 144
-0.999225, 43, 49, 58, 176
-0.999227, 421, 161, 436, 288
-0.99923, 459, 97, 474, 224
-0.999231, 287, 97, 302, 224
-0.999233, 397, 129, 412, 256
-0.99924, 321, 213, 448, 244
-0.999251, 367, 33, 382, 160
-0.999256, 161, 281, 416, 344
-0.999259, 325, 161, 340, 288
-0.999261, 277, 49, 292, 176
-0.999264, 429, 145, 444, 272
-0.999266, 49, 225, 64, 352
-0.999267, 373, 81, 388, 208
-0.999267, 391, 161, 406, 288
-0.999277, 345, 33, 360, 160
-0.99928, 13, 97, 44, 352
-0.99929, 81, 241, 96, 368
-0.999298, 343, 81, 358, 208
-0.999299, 1, 33, 500, 96
-0.9993, 433, 33, 448, 160
-0.999301, 385, 129, 400, 256
-0.999303, 97, 1, 112, 128
-0.999316, 467, 177, 482, 304
-0.999317, 81, 177, 96, 304
-0.999318, 87, 241, 102, 368
-0.999323, 75, 65, 90, 192
-0.999329, 27, 49, 42, 176
-0.999334, 139, 81, 154, 208
-0.999335, 103, 1, 118, 128
-0.999338, 319, 145, 334, 272
-0.999339, 335, 129, 350, 256
-0.99934, 445, 49, 460, 176
-0.999343, 417, 113, 432, 240
-0.999346, 375, 129, 390, 256
-0.999352, 367, 145, 382, 272
-0.999355, 87, 113, 102, 240
-0.999359, 69, 129, 84, 256
-0.999363, 339, 33, 354, 160
-0.999364, 233, 33, 248, 160
-0.99937, 57, 49, 72, 176
-0.99937, 197, 49, 212, 176
-0.999375, 351, 161, 366, 288
-0.999375, 439, 81, 454, 208
-0.999375, 123, 241, 138, 368
-0.999381, 109, 241, 124, 368
-0.999382, 179, 49, 194, 176
-0.999386, 459, 209, 474, 336
-0.999387, 69, 65, 84, 192
-0.999388, 413, 161, 428, 288
-0.99939, 115, 241, 130, 368
-0.999391, 75, 241, 90, 368
-0.999392, 435, 161, 450, 288
-0.999404, 141, 241, 156, 368
-0.999405, 75, 129, 90, 256
-0.999419, 351, 33, 366, 160
-0.999423, 127, 65, 142, 192
-0.999426, 291, 49, 306, 176
-0.999428, 103, 241, 118, 368
-0.999431, 281, 97, 296, 224
-0.999432, 129, 241, 144, 368
-0.999437, 47, 97, 62, 224
-0.99944, 439, 33, 454, 160
-0.999442, 135, 241, 150, 368
-0.999452, 21, 1, 36, 128
-0.999453, 271, 49, 286, 176
-0.999455, 243, 97, 258, 224
-0.999458, 361, 145, 376, 272
-0.999463, 421, 33, 436, 160
-0.999463, 121, 17, 136, 144
-0.999463, 475, 145, 490, 272
-0.999467, 127, 113, 142, 240
-0.99947, 403, 113, 418, 240
-0.99947, 341, 129, 356, 256
-0.99947, 307, 145, 322, 272
-0.99947, 101, 97, 132, 352
-0.999472, 207, 1, 222, 128
-0.999476, 95, 241, 110, 368
-0.999485, 483, 145, 498, 272
-0.999551, 347, 55, 362, 70
-0.999551, 391, 161, 406, 176
-0.999551, 53, 105, 68, 120
-0.999552, 433, 63, 448, 78
-0.999552, 461, 89, 476, 104
-0.999553, 475, 287, 490, 302
-0.999554, 251, 117, 266, 132
-0.999555, 269, 117, 284, 132
-0.999556, 461, 83, 476, 98
-0.999556, 331, 169, 346, 184
-0.999557, 275, 111, 290, 126
-0.999559, 285, 95, 300, 110
-0.999559, 359, 153, 374, 168
-0.999559, 243, 95, 258, 110
-0.999561, 137, 121, 152, 136
-0.999561, 431, 57, 446, 72
-0.999562, 51, 83, 66, 98
-0.999562, 83, 149, 98, 164
-0.999562, 287, 65, 302, 80
-0.999562, 263, 117, 278, 132
-0.999562, 337, 53, 352, 68
-0.999563, 451, 55, 466, 70
-0.999563, 285, 101, 300, 116
-0.999564, 153, 1, 184, 256
-0.999564, 239, 117, 254, 132
-0.999565, 463, 57, 478, 72
-0.999565, 61, 81, 76, 96
-0.999566, 287, 89, 302, 104
-0.999566, 425, 65, 440, 80
-0.999566, 287, 77, 302, 92
-0.999567, 287, 51, 302, 66
-0.999567, 427, 109, 442, 124
-0.999567, 133, 71, 148, 86
-0.999567, 449, 101, 464, 116
-0.999568, 325, 107, 340, 122
-0.999568, 325, 171, 340, 186
-0.999569, 351, 111, 366, 126
-0.999569, 275, 117, 290, 132
-0.999569, 417, 179, 432, 194
-0.99957, 31, 51, 46, 66
-0.99957, 353, 55, 368, 70
-0.99957, 189, 61, 204, 76
-0.999571, 327, 65, 342, 80
-0.999572, 245, 117, 260, 132
-0.999573, 423, 101, 438, 116
-0.999574, 287, 71, 302, 86
-0.999575, 335, 117, 350, 132
-0.999575, 461, 77, 476, 92
-0.999575, 459, 107, 474, 122
-0.999575, 367, 67, 382, 82
-0.999575, 127, 61, 142, 76
-0.999577, 451, 61, 466, 76
-0.999578, 53, 247, 68, 262
-0.999578, 453, 109, 468, 124
-0.999578, 459, 95, 474, 110
-0.999578, 139, 109, 154, 124
-0.999579, 351, 117, 366, 132
-0.999579, 139, 59, 154, 74
-0.999579, 345, 111, 360, 126
-0.99958, 367, 167, 382, 182
-0.99958, 337, 111, 352, 126
-0.99958, 239, 49, 254, 64
-0.999581, 333, 59, 348, 74
-0.999582, 427, 117, 442, 132
-0.999582, 367, 85, 382, 100
-0.999583, 367, 95, 382, 110
-0.999584, 341, 117, 356, 132
-0.999584, 349, 151, 364, 166
-0.999585, 457, 117, 472, 132
-0.999586, 41, 83, 56, 98
-0.999586, 359, 145, 374, 160
-0.999587, 407, 177, 422, 192
-0.999587, 79, 59, 94, 74
-0.999587, 461, 69, 476, 84
-0.999587, 461, 289, 476, 304
-0.999588, 287, 57, 302, 72
-0.999589, 83, 155, 98, 170
-0.999589, 483, 285, 498, 300
-0.99959, 133, 65, 148, 80
-0.999591, 245, 109, 260, 124
-0.999593, 345, 141, 360, 156
-0.999593, 285, 109, 300, 124
-0.999594, 367, 79, 382, 94
-0.999594, 139, 115, 154, 130
-0.999597, 45, 249, 60, 264
-0.999597, 357, 111, 372, 126
-0.999597, 435, 51, 450, 66
-0.999597, 367, 101, 382, 116
-0.999598, 373, 163, 388, 178
-0.999598, 367, 61, 382, 76
-0.999598, 367, 73, 382, 88
-0.999601, 337, 169, 352, 184
-0.999602, 445, 53, 460, 68
-0.999602, 39, 27, 54, 42
-0.999602, 355, 161, 370, 176
-0.999602, 461, 63, 476, 78
-0.999603, 281, 51, 296, 66
-0.999603, 365, 107, 380, 122
-0.999603, 13, 267, 28, 282
-0.999604, 327, 71, 342, 86
-0.999604, 459, 101, 474, 116
-0.999604, 429, 51, 444, 66
-0.999605, 59, 247, 74, 262
-0.999609, 331, 53, 346, 68
-0.99961, 327, 77, 342, 92
-0.999611, 33, 59, 48, 74
-0.999612, 53, 189, 68, 204
-0.999613, 361, 117, 376, 132
-0.999613, 335, 163, 350, 178
-0.999613, 327, 59, 342, 74
-0.999614, 327, 87, 342, 102
-0.999615, 245, 53, 260, 68
-0.999617, 327, 95, 342, 110
-0.999618, 281, 117, 296, 132
-0.999619, 365, 153, 380, 168
-0.99962, 133, 115, 148, 130
-0.99962, 363, 55, 378, 70
-0.999621, 1, 97, 32, 352
-0.999623, 455, 49, 470, 64
-0.999624, 383, 165, 398, 180
-0.999628, 331, 109, 346, 124
-0.99963, 327, 117, 342, 132
-0.999631, 47, 241, 62, 256
-0.999633, 385, 171, 400, 186
-0.999636, 133, 59, 148, 74
-0.999638, 425, 57, 440, 72
-0.999642, 361, 163, 376, 178
-0.999642, 327, 101, 342, 116
-0.999642, 457, 55, 472, 70
-0.999649, 461, 49, 476, 64
-0.99967, 325, 165, 340, 180
-0.999689, 355, 139, 370, 154
-0.999724, 1, 9, 500, 72
-0.999816, 265, 129, 296, 375
-1.0001, 205, 33, 236, 288
-1.00011, 253, 129, 284, 375
-1.00014, 145, 313, 272, 375
-1.00025, 157, 129, 188, 375
-1.00054, 273, 313, 400, 375
-1.00064, 169, 129, 200, 375
-1.00071, 113, 289, 240, 352
-1.00071, 201, 129, 232, 375
-1.00073, 305, 9, 432, 72
-1.0008, 209, 305, 336, 368
-1.0009, 181, 97, 212, 352
-1.00094, 161, 169, 288, 232
-1.00102, 161, 305, 416, 368
-1.00125, 161, 97, 224, 352
-1.00133, 161, 129, 288, 192
-1.00144, 257, 1, 320, 128
-1.00161, 161, 289, 288, 352
-1.0027, 201, 129, 264, 375
-1.00739, 153, 97, 216, 224
-1.00773, 177, 97, 240, 224
