1968
-0.497667, 1, 1, 500, 375
-0.511822, 1, 33, 500, 288
-0.656251, 257, 1, 500, 375
-0.659236, 1, 129, 500, 375
-0.700843, 161, 1, 416, 375
-0.719303, 65, 1, 320, 375
-0.85039, 97, 1, 352, 256
-0.863617, 257, 33, 500, 288
-0.898493, 1, 33, 256, 288
-0.91131, 321, 1, 448, 375
-0.922949, 273, 1, 400, 375
-0.926377, 225, 1, 352, 375
-0.928919, 369, 1, 496, 375
-0.929623, 177, 1, 304, 375
-0.930548, 337, 33, 464, 288
-0.932218, 257, 129, 500, 375
-0.938945, 1, 65, 500, 192
-0.94166, 241, 1, 368, 256
-0.941784, 81, 1, 208, 375
-0.945109, 33, 65, 160, 320
-0.946781, 113, 1, 240, 256
-0.947085, 161, 1, 288, 256
-0.947782, 337, 129, 464, 375
-0.949325, 1, 17, 500, 144
-0.950296, 129, 1, 256, 375
-0.951567, 1, 113, 500, 240
-0.952702, 33, 1, 160, 375
-0.952961, 289, 33, 416, 288
-0.956086, 1, 209, 500, 336
-0.962136, 1, 161, 500, 288
-0.967295, 97, 17, 352, 144
-0.97009, 257, 145, 500, 272
-0.972599, 241, 129, 368, 375
-0.977028, 177, 97, 304, 352
-0.977752, 289, 129, 416, 375
-0.978931, 225, 209, 480, 336
-0.979532, 193, 33, 448, 160
-0.980595, 33, 65, 288, 192
-0.980945, 97, 129, 224, 375
-0.980972, 225, 97, 480, 224
-0.982339, 1, 113, 256, 240
-0.983244, 369, 161, 496, 288
-0.983924, 409, 161, 472, 288
-0.983993, 241, 33, 368, 160
-0.984741, 1, 113, 128, 240
-0.985686, 321, 113, 448, 240
-0.985726, 129, 1, 256, 128
-0.987481, 337, 65, 464, 192
-0.987721, 65, 225, 320, 352
-0.987817, 409, 177, 472, 240
-0.988072, 1, 129, 64, 256
-0.988886, 289, 33, 416, 160
-0.989045, 337, 153, 464, 216
-0.989292, 409, 217, 472, 280
-0.989927, 1, 177, 256, 304
-0.990103, 193, 17, 320, 144
-0.99016, 321, 193, 448, 320
-0.990514, 433, 161, 496, 288
-0.990766, 433, 177, 496, 240
-0.990813, 433, 201, 496, 264
-0.990952, 33, 65, 160, 192
-0.991233, 305, 33, 368, 160
-0.991302, 353, 17, 480, 144
-0.991412, 25, 161, 88, 224
-0.99165, 25, 113, 88, 240
-0.99175, 345, 49, 408, 176
-0.991914, 1, 161, 128, 224
-0.992284, 1, 1, 256, 128
-0.992291, 437, 177, 468, 240
-0.992429, 241, 17, 304, 144
-0.99248, 177, 241, 304, 368
-0.992626, 321, 129, 448, 192
-0.992788, 409, 245, 472, 276
-0.992912, 393, 241, 456, 368
-0.992941, 401, 261, 464, 292
-0.992975, 81, 49, 208, 176
-0.993008, 385, 129, 448, 256
-0.993188, 337, 1, 400, 375
-0.993193, 377, 261, 440, 292
-0.993234, 409, 113, 472, 240
-0.993234, 433, 209, 496, 240
-0.993263, 241, 209, 368, 336
-0.993305, 421, 249, 452, 280
-0.993312, 313, 1, 376, 375
-0.99335, 273, 1, 336, 375
-0.993351, 9, 169, 72, 200
-0.993354, 377, 245, 440, 276
-0.993394, 97, 241, 224, 368
-0.99343, 1, 209, 128, 336
-0.993445, 409, 245, 440, 276
-0.993452, 9, 157, 72, 188
-0.993468, 401, 185, 464, 216
-0.993495, 417, 149, 448, 180
-0.993511, 33, 169, 96, 200
-0.993522, 353, 193, 480, 256
-0.993541, 433, 189, 496, 220
-0.993547, 405, 257, 436, 288
-0.993551, 437, 189, 468, 220
-0.993599, 401, 205, 464, 236
-0.99361, 393, 145, 456, 176
-0.993613, 421, 237, 452, 268
-0.993621, 425, 169, 456, 200
-0.993661, 417, 233, 480, 264
-0.993661, 429, 225, 460, 256
-0.993671, 417, 261, 448, 292
-0.993688, 1, 245, 64, 276
-0.993692, 425, 221, 488, 252
-0.993692, 461, 197, 492, 228
-0.993696, 57, 169, 120, 200
-0.993698, 9, 181, 72, 212
-0.9937, 385, 225, 448, 256
-0.993702, 421, 209, 452, 240
-0.993709, 41, 169, 72, 200
-0.993739, 13, 169, 44, 200
-0.993751, 1, 169, 32, 200
-0.993751, 433, 241, 464, 272
-0.993752, 61, 169, 92, 200
-0.993755, 321, 321, 384, 352
-0.993758, 437, 201, 468, 232
-0.993763, 129, 17, 256, 80
-0.993765, 33, 149, 96, 180
-0.993768, 421, 137, 452, 168
-0.99377, 1, 141, 64, 172
-0.99377, 1, 181, 32, 212
-0.993784, 437, 177, 468, 208
-0.993784, 405, 269, 436, 300
-0.993785, 21, 181, 52, 212
-0.993786, 193, 261, 256, 292
-0.993813, 437, 165, 468, 196
-0.993823, 33, 157, 64, 188
-0.993831, 433, 145, 464, 176
-0.993836, 13, 237, 44, 268
-0.993841, 377, 133, 440, 164
-0.993844, 33, 137, 96, 168
-0.993851, 25, 169, 56, 200
-0.993853, 421, 197, 452, 228
-0.993853, 73, 173, 104, 204
-0.993857, 177, 257, 304, 320
-0.993862, 417, 145, 480, 176
-0.993863, 25, 237, 56, 268
-0.993864, 85, 169, 116, 200
-0.993867, 417, 225, 448, 256
-0.99387, 405, 141, 436, 172
-0.993876, 1, 161, 64, 224
-0.993879, 421, 185, 452, 216
-0.993882, 393, 257, 424, 288
-0.993898, 189, 265, 220, 296
-0.993903, 453, 209, 484, 240
-0.993905, 45, 181, 76, 212
-0.993907, 5, 193, 36, 224
-0.99391, 45, 149, 76, 180
-0.993911, 321, 241, 448, 368
-0.993911, 1, 157, 32, 188
-0.993913, 41, 137, 72, 168
-0.993914, 25, 237, 88, 268
-0.993922, 1, 237, 32, 268
-0.993926, 69, 205, 100, 236
-0.993931, 33, 181, 64, 212
-0.993933, 157, 273, 188, 304
-0.993934, 209, 257, 240, 288
-0.993936, 61, 181, 92, 212
-0.993937, 61, 157, 92, 188
-0.993937, 389, 245, 420, 276
-0.993938, 37, 237, 68, 268
-0.993941, 29, 137, 60, 168
-0.993944, 13, 157, 44, 188
-0.993944, 329, 317, 360, 348
-0.993945, 41, 181, 104, 212
-0.993948, 261, 245, 292, 276
-0.993948, 333, 129, 364, 160
-0.993951, 433, 133, 464, 164
-0.993952, 433, 213, 464, 244
-0.993955, 241, 85, 272, 116
-0.993956, 169, 269, 232, 300
-0.993959, 405, 233, 436, 264
-0.993962, 453, 185, 484, 216
-0.993963, 53, 201, 84, 232
-0.993963, 169, 273, 200, 304
-0.993971, 17, 249, 48, 280
-0.993975, 245, 249, 276, 280
-0.993976, 441, 225, 472, 256
-0.993976, 145, 277, 176, 308
-0.99398, 33, 337, 64, 368
-0.993981, 297, 317, 360, 348
-0.993986, 257, 229, 288, 260
-0.993987, 109, 261, 140, 292
-0.99399, 25, 225, 56, 256
-0.993993, 321, 129, 352, 160
-0.993994, 129, 177, 384, 304
-0.994003, 41, 125, 72, 156
-0.994003, 173, 289, 204, 320
-0.994004, 393, 337, 424, 368
-0.994004, 37, 205, 68, 236
-0.994006, 17, 201, 48, 232
-0.994007, 49, 233, 80, 264
-0.994008, 221, 257, 252, 288
-0.994009, 249, 261, 280, 292
-0.994012, 401, 129, 432, 160
-0.994012, 409, 189, 440, 220
-0.994012, 61, 253, 92, 284
-0.994018, 253, 73, 284, 104
-0.994019, 73, 161, 104, 192
-0.994022, 133, 265, 164, 296
-0.994025, 345, 125, 376, 156
-0.994027, 309, 93, 340, 124
-0.994028, 13, 225, 44, 256
-0.994029, 341, 321, 372, 352
-0.99403, 317, 313, 348, 344
-0.99403, 29, 249, 60, 280
-0.994031, 393, 169, 456, 200
-0.994032, 193, 293, 224, 324
-0.994033, 33, 193, 64, 224
-0.994036, 413, 161, 444, 192
-0.994036, 53, 137, 84, 168
-0.994036, 85, 321, 116, 352
-0.994037, 93, 337, 124, 368
-0.994039, 17, 341, 48, 372
-0.994042, 413, 341, 444, 372
-0.994042, 337, 345, 368, 375
-0.994043, 93, 301, 124, 332
-0.994043, 361, 73, 392, 104
-0.994046, 205, 25, 236, 56
-0.994046, 117, 65, 148, 96
-0.994046, 97, 169, 128, 200
-0.994052, 53, 213, 84, 244
-0.994053, 161, 285, 192, 316
-0.994053, 309, 325, 340, 356
-0.994053, 181, 337, 212, 368
-0.994054, 101, 317, 132, 348
-0.994054, 373, 337, 404, 368
-0.994054, 369, 337, 432, 368
-0.994055, 201, 269, 232, 300
-0.994056, 465, 209, 496, 240
-0.994057, 41, 205, 104, 236
-0.994059, 265, 69, 296, 100
-0.994059, 5, 249, 36, 280
-0.994062, 249, 73, 312, 104
-0.994063, 449, 169, 480, 200
-0.994066, 465, 109, 496, 140
-0.994067, 209, 249, 272, 280
-0.994068, 69, 217, 100, 248
-0.994068, 413, 173, 444, 204
-0.994069, 333, 117, 364, 148
-0.99407, 33, 125, 96, 156
-0.99407, 297, 329, 328, 360
-0.994072, 237, 261, 268, 292
-0.994072, 1, 297, 32, 328
-0.994072, 285, 329, 316, 360
-0.994073, 1, 225, 32, 256
-0.994074, 33, 321, 64, 352
-0.994075, 193, 21, 224, 52
-0.994075, 65, 137, 96, 168
-0.994076, 153, 17, 184, 48
-0.994085, 361, 1, 424, 375
-0.994088, 249, 245, 312, 276
-0.994089, 161, 293, 224, 324
-0.994099, 57, 253, 120, 284
-0.994112, 369, 209, 496, 336
-0.994128, 233, 85, 296, 116
-0.994153, 17, 205, 80, 236
-0.994156, 49, 317, 112, 348
-0.994169, 105, 261, 168, 292
-0.994172, 145, 17, 208, 48
-0.994174, 145, 273, 208, 304
-0.994174, 1, 193, 64, 224
-0.994181, 1, 233, 64, 264
-0.994192, 345, 329, 408, 360
-0.9942, 233, 261, 296, 292
-0.994211, 321, 121, 384, 152
-0.994216, 65, 281, 128, 312
-0.994216, 105, 325, 168, 356
-0.994219, 281, 93, 344, 124
-0.994226, 345, 93, 408, 124
-0.994229, 249, 1, 312, 375
-0.994237, 113, 65, 176, 96
-0.994242, 129, 45, 192, 76
-0.994242, 305, 93, 368, 124
-0.994247, 81, 85, 144, 116
-0.99425, 289, 333, 352, 364
-0.994255, 313, 345, 376, 375
-0.994265, 81, 173, 144, 204
-0.994273, 169, 29, 232, 60
-0.994273, 25, 193, 88, 224
-0.994273, 393, 341, 456, 372
-0.994286, 89, 73, 152, 104
-0.994291, 425, 257, 488, 288
-0.994296, 297, 109, 360, 140
-0.994302, 249, 173, 312, 204
-0.994302, 249, 225, 312, 256
-0.994319, 209, 17, 272, 144
-0.99432, 305, 81, 368, 112
-0.99432, 41, 221, 104, 252
-0.99432, 41, 301, 104, 332
-0.994323, 441, 161, 472, 288
-0.994331, 17, 257, 80, 288
-0.994336, 321, 133, 384, 164
-0.994343, 345, 113, 408, 144
-0.994349, 233, 33, 296, 64
-0.994349, 425, 133, 488, 164
-0.994349, 393, 157, 456, 188
-0.994349, 33, 333, 96, 364
-0.994357, 281, 121, 344, 152
-0.994364, 345, 81, 408, 112
-0.994364, 425, 341, 488, 372
-0.994367, 433, 245, 496, 276
-0.994367, 65, 265, 128, 296
-0.994375, 73, 321, 136, 352
-0.994377, 337, 305, 400, 336
-0.994377, 321, 333, 384, 364
-0.99438, 257, 285, 320, 316
-0.994385, 105, 49, 168, 80
-0.994395, 137, 29, 200, 60
-0.994398, 65, 337, 128, 368
-0.994403, 17, 221, 80, 252
-0.994406, 65, 209, 128, 240
-0.994409, 9, 341, 72, 372
-0.994409, 137, 341, 200, 372
-0.994419, 297, 133, 360, 164
-0.994419, 105, 293, 168, 324
-0.994426, 377, 209, 440, 240
-0.994427, 193, 285, 256, 316
-0.994427, 1, 301, 64, 332
-0.99443, 249, 117, 312, 148
-0.994432, 1, 129, 64, 160
-0.994432, 169, 17, 232, 48
-0.994437, 57, 157, 120, 188
-0.99444, 33, 269, 96, 300
-0.994442, 81, 305, 144, 336
-0.994448, 353, 249, 416, 280
-0.994448, 209, 273, 272, 304
-0.99445, 169, 281, 232, 312
-0.99446, 305, 69, 368, 100
-0.994463, 201, 33, 264, 64
-0.994466, 25, 321, 88, 352
-0.994471, 145, 257, 208, 288
-0.994471, 217, 285, 280, 316
-0.994471, 273, 321, 336, 352
-0.994473, 105, 273, 168, 304
-0.994476, 209, 209, 272, 240
-0.994479, 273, 81, 336, 112
-0.994479, 49, 233, 112, 264
-0.994484, 105, 29, 168, 60
-0.994484, 321, 109, 384, 140
-0.994489, 369, 145, 432, 176
-0.994492, 137, 285, 200, 316
-0.994494, 249, 213, 312, 244
-0.994513, 345, 125, 408, 156
-0.994515, 233, 273, 296, 304
-0.994518, 353, 61, 416, 92
-0.994523, 281, 305, 344, 336
-0.994523, 273, 49, 336, 80
-0.994526, 209, 85, 272, 116
-0.994531, 233, 97, 296, 128
-0.994671, 377, 49, 440, 176
-0.994689, 353, 241, 480, 304
-0.99482, 225, 1, 288, 375
-0.994923, 417, 233, 448, 296
-0.995154, 1, 145, 32, 272
-0.995204, 401, 1, 464, 375
-0.995265, 241, 1, 304, 256
-0.995385, 265, 33, 328, 160
-0.995392, 329, 33, 392, 288
-0.995421, 49, 241, 176, 368
-0.995493, 289, 313, 416, 375
-0.99552, 193, 33, 320, 96
-0.995534, 241, 281, 368, 344
-0.995536, 1, 193, 64, 256
-0.995559, 257, 49, 384, 112
-0.995644, 1, 161, 128, 288
-0.995652, 201, 1, 264, 375
-0.995704, 393, 153, 456, 216
-0.995772, 417, 209, 480, 336
-0.99578, 177, 193, 304, 320
-0.995811, 273, 81, 400, 208
-0.995868, 377, 193, 440, 320
-0.995877, 25, 193, 88, 320
-0.99589, 1, 201, 128, 264
-0.995913, 1, 129, 128, 192
-0.995956, 97, 265, 224, 328
-0.996108, 137, 1, 200, 128
-0.996173, 185, 17, 248, 144
-0.996193, 225, 81, 352, 144
-0.996246, 337, 57, 464, 120
-0.996258, 337, 297, 464, 360
-0.996275, 193, 65, 320, 192
-0.996285, 321, 105, 448, 168
-0.996296, 369, 113, 496, 240
-0.996315, 281, 1, 344, 256
-0.996358, 193, 1, 256, 256
-0.99639, 33, 129, 96, 192
-0.996393, 1, 273, 128, 336
-0.996402, 81, 1, 208, 128
-0.996402, 49, 113, 176, 240
-0.996408, 1, 137, 64, 200
-0.99644, 433, 209, 464, 272
-0.996444, 97, 41, 224, 104
-0.996444, 49, 257, 176, 320
-0.996459, 17, 81, 144, 144
-0.996469, 421, 153, 452, 216
-0.996469, 17, 313, 144, 375
-0.996482, 409, 241, 472, 304
-0.996575, 305, 313, 368, 375
-0.996638, 361, 33, 424, 288
-0.996655, 321, 217, 448, 280
-0.996669, 241, 249, 368, 312
-0.996788, 17, 225, 144, 288
-0.996887, 257, 177, 500, 240
-0.996907, 241, 217, 368, 280
-0.996919, 369, 89, 496, 152
-0.997002, 21, 145, 52, 272
-0.997011, 329, 313, 392, 375
-0.997051, 17, 97, 80, 352
-0.997065, 113, 1, 176, 375
-0.997068, 257, 257, 500, 320
-0.997089, 369, 113, 496, 176
-0.997093, 273, 129, 400, 192
-0.997114, 225, 225, 480, 288
-0.99713, 1, 249, 128, 312
-0.997135, 177, 25, 240, 88
-0.997139, 401, 33, 464, 160
-0.997179, 161, 1, 224, 128
-0.997226, 421, 241, 436, 304
-0.997236, 289, 265, 416, 328
-0.997275, 305, 33, 432, 96
-0.997317, 345, 81, 408, 144
-0.99733, 369, 217, 496, 280
-0.99733, 97, 289, 224, 352
-0.997341, 441, 169, 456, 232
-0.997356, 33, 105, 160, 168
-0.997361, 49, 169, 112, 232
-0.997364, 385, 257, 448, 320
-0.997385, 145, 17, 208, 80
-0.997393, 273, 89, 400, 152
-0.997407, 313, 49, 376, 112
-0.997408, 305, 241, 432, 304
-0.997431, 201, 241, 264, 368
-0.99747, 105, 33, 168, 160
-0.997487, 241, 313, 368, 375
-0.997517, 425, 1, 488, 375
-0.997543, 65, 65, 192, 128
-0.997567, 437, 209, 452, 272
-0.997568, 353, 297, 416, 360
-0.997592, 177, 1, 240, 375
-0.997593, 241, 249, 304, 312
-0.997633, 49, 169, 176, 232
-0.997649, 97, 33, 352, 96
-0.997686, 225, 105, 352, 168
-0.997692, 217, 1, 280, 256
-0.997736, 17, 17, 144, 144
-0.997778, 241, 73, 304, 136
-0.997778, 217, 257, 280, 320
-0.99779, 161, 225, 288, 288
-0.997808, 81, 1, 144, 375
-0.997813, 431, 137, 446, 200
-0.99783, 451, 169, 466, 232
-0.997833, 409, 257, 440, 320
-0.997868, 305, 185, 432, 248
-0.997871, 161, 265, 224, 328
-0.997871, 185, 265, 248, 328
-0.997911, 49, 289, 176, 352
-0.997921, 65, 313, 192, 375
-0.997953, 73, 65, 136, 192
-0.997978, 369, 33, 496, 96
-0.998034, 421, 145, 452, 272
-0.998053, 257, 41, 320, 104
-0.998079, 1, 177, 64, 304
-0.998087, 413, 257, 428, 320
-0.998095, 241, 161, 368, 288
-0.998115, 305, 1, 368, 256
-0.998132, 241, 85, 272, 100
-0.998133, 113, 295, 144, 310
-0.998133, 33, 347, 64, 362
-0.998134, 413, 209, 444, 224
-0.998134, 197, 261, 228, 276
-0.998134, 469, 209, 500, 224
-0.998134, 29, 167, 60, 182
-0.998134, 257, 229, 288, 244
-0.998134, 13, 169, 44, 184
-0.998135, 13, 203, 44, 218
-0.998135, 41, 207, 72, 222
-0.998135, 21, 237, 52, 252
-0.998136, 45, 167, 76, 182
-0.998136, 401, 239, 432, 254
-0.998136, 405, 137, 436, 152
-0.998137, 421, 229, 452, 244
-0.998137, 1, 233, 32, 248
-0.998138, 433, 137, 464, 152
-0.998138, 261, 261, 292, 276
-0.998138, 253, 79, 284, 94
-0.998138, 249, 261, 280, 276
-0.998138, 445, 163, 476, 178
-0.998138, 61, 213, 92, 228
-0.998139, 5, 239, 36, 254
-0.998139, 409, 197, 440, 212
-0.99814, 389, 255, 420, 270
-0.99814, 425, 251, 456, 266
-0.99814, 341, 127, 372, 142
-0.998141, 409, 203, 440, 218
-0.998141, 45, 157, 76, 172
-0.998141, 409, 167, 440, 182
-0.998141, 437, 237, 468, 252
-0.998141, 41, 1, 104, 375
-0.998143, 5, 195, 36, 210
-0.998144, 33, 243, 64, 258
-0.998144, 221, 259, 252, 274
-0.998145, 193, 291, 224, 306
-0.998145, 257, 239, 288, 254
-0.998146, 57, 149, 88, 164
-0.998146, 413, 235, 444, 250
-0.998146, 1, 167, 32, 182
-0.998146, 69, 169, 100, 184
-0.998147, 41, 139, 72, 154
-0.998147, 97, 175, 128, 190
-0.998147, 25, 205, 56, 220
-0.998148, 321, 317, 352, 332
-0.998148, 453, 197, 484, 212
-0.998148, 173, 293, 204, 308
-0.99815, 309, 93, 340, 108
-0.998152, 421, 215, 452, 230
-0.998152, 81, 181, 112, 196
-0.998154, 37, 249, 68, 264
-0.998154, 465, 197, 496, 212
-0.998154, 153, 281, 184, 296
-0.998155, 33, 155, 64, 170
-0.998155, 245, 255, 276, 270
-0.998155, 333, 321, 364, 336
-0.998155, 433, 159, 464, 174
-0.998155, 405, 151, 436, 166
-0.998156, 257, 245, 288, 260
-0.998156, 449, 215, 480, 230
-0.998157, 109, 263, 140, 278
-0.998157, 1, 249, 32, 264
-0.998157, 201, 267, 232, 282
-0.998157, 25, 251, 56, 266
-0.998157, 321, 133, 352, 148
-0.99816, 357, 359, 388, 374
-0.998161, 401, 245, 432, 260
-0.998161, 449, 225, 480, 240
-0.998161, 157, 275, 188, 290
-0.998164, 389, 261, 420, 276
-0.998165, 73, 209, 104, 224
-0.998165, 437, 171, 468, 186
-0.998165, 421, 183, 452, 198
-0.998167, 53, 207, 84, 222
-0.998167, 169, 273, 200, 288
-0.998167, 437, 217, 468, 232
-0.998168, 393, 267, 424, 282
-0.998169, 33, 147, 64, 162
-0.99817, 421, 197, 452, 212
-0.998173, 209, 259, 240, 274
-0.998175, 421, 159, 452, 174
-0.998175, 21, 243, 52, 258
-0.998177, 65, 181, 96, 196
-0.998177, 449, 187, 480, 202
-0.998178, 17, 183, 48, 198
-0.99818, 33, 181, 64, 196
-0.998181, 333, 133, 364, 148
-0.998181, 45, 151, 76, 166
-0.998182, 13, 175, 44, 190
-0.998184, 189, 269, 220, 284
-0.998185, 13, 249, 44, 264
-0.998186, 441, 197, 472, 212
-0.998187, 241, 193, 368, 256
-0.99819, 45, 179, 76, 194
-0.998191, 85, 175, 116, 190
-0.998193, 433, 147, 464, 162
-0.998193, 425, 237, 456, 252
-0.998193, 425, 257, 456, 272
-0.998194, 41, 97, 104, 352
-0.998195, 1, 175, 32, 190
-0.998197, 445, 181, 476, 196
-0.998197, 37, 173, 68, 188
-0.998198, 5, 181, 36, 196
-0.998198, 401, 255, 432, 270
-0.998203, 25, 175, 56, 190
-0.998206, 405, 145, 436, 160
-0.998207, 425, 209, 456, 224
-0.998208, 425, 223, 456, 238
-0.998208, 433, 229, 464, 244
-0.998211, 385, 185, 448, 248
-0.998211, 433, 189, 464, 204
-0.998212, 417, 149, 448, 164
-0.998213, 421, 265, 452, 280
-0.998213, 457, 209, 488, 224
-0.998216, 425, 173, 456, 188
-0.99822, 469, 203, 500, 218
-0.998223, 53, 173, 84, 188
-0.998223, 413, 249, 444, 264
-0.998228, 81, 17, 208, 80
-0.998229, 437, 223, 468, 238
-0.99823, 177, 297, 304, 360
-0.998236, 425, 243, 456, 258
-0.998236, 433, 181, 464, 196
-0.99824, 405, 267, 436, 282
-0.998241, 257, 153, 500, 216
-0.998244, 433, 165, 464, 180
-0.998246, 421, 203, 452, 218
-0.998246, 437, 209, 468, 224
-0.998247, 65, 175, 96, 190
-0.998252, 421, 143, 452, 158
-0.998256, 413, 241, 444, 256
-0.998262, 421, 165, 452, 180
-0.998263, 33, 145, 64, 272
-0.998277, 321, 149, 448, 180
-0.998287, 413, 259, 444, 274
-0.99829, 457, 203, 488, 218
-0.998291, 353, 49, 384, 176
-0.998305, 445, 193, 460, 256
-0.998309, 401, 261, 432, 276
-0.998311, 409, 1, 472, 256
-0.99832, 209, 57, 336, 120
-0.998331, 441, 203, 472, 218
-0.998367, 433, 145, 448, 176
-0.998375, 193, 137, 320, 200
-0.998383, 257, 25, 384, 88
-0.998389, 423, 245, 438, 276
-0.998398, 193, 9, 320, 72
-0.998406, 49, 65, 112, 192
-0.998408, 427, 241, 442, 304
-0.998422, 435, 161, 450, 224
-0.998436, 413, 257, 428, 288
-0.998484, 431, 201, 446, 264
-0.998497, 433, 113, 496, 240
-0.998502, 443, 189, 458, 220
-0.998506, 97, 233, 224, 296
-0.998543, 337, 273, 464, 336
-0.998557, 225, 25, 288, 88
-0.998585, 137, 1, 200, 375
-0.998586, 241, 169, 368, 232
-0.998588, 419, 257, 434, 288
-0.998602, 49, 113, 112, 240
-0.998607, 281, 49, 344, 112
-0.998609, 451, 193, 466, 256
-0.99862, 1, 161, 32, 224
-0.99862, 425, 141, 440, 172
-0.998641, 333, 33, 364, 160
-0.998649, 33, 33, 160, 96
-0.998661, 169, 1, 232, 256
-0.998667, 1, 121, 256, 184
-0.998681, 431, 237, 446, 268
-0.998684, 423, 137, 438, 200
-0.998688, 439, 201, 454, 232
-0.998703, 401, 261, 464, 276
-0.998723, 433, 201, 496, 216
-0.998725, 377, 263, 440, 278
-0.998735, 437, 113, 468, 240
-0.998735, 369, 245, 496, 276
-0.998739, 385, 1, 448, 256
-0.998739, 401, 205, 464, 220
-0.998739, 385, 217, 448, 280
-0.998747, 409, 185, 472, 200
-0.998751, 401, 253, 464, 268
-0.998751, 65, 57, 320, 120
-0.998753, 1, 137, 500, 200
-0.998759, 393, 157, 456, 172
-0.998763, 377, 145, 440, 160
-0.998765, 433, 185, 496, 200
-0.998765, 425, 227, 488, 242
-0.998766, 417, 147, 480, 162
-0.998767, 33, 201, 96, 264
-0.998768, 425, 209, 488, 224
-0.998771, 393, 179, 456, 194
-0.998775, 401, 167, 464, 182
-0.998775, 361, 257, 424, 272
-0.998776, 1, 181, 128, 212
-0.998778, 49, 193, 176, 320
-0.998778, 9, 175, 72, 190
-0.998778, 1, 183, 64, 198
-0.99878, 57, 173, 120, 188
-0.99878, 385, 243, 448, 258
-0.998782, 33, 175, 96, 190
-0.998783, 401, 223, 464, 238
-0.998787, 425, 219, 488, 234
-0.998787, 437, 217, 452, 248
-0.998789, 401, 267, 464, 282
-0.998789, 401, 195, 464, 210
-0.998791, 33, 155, 96, 170
-0.998792, 409, 245, 472, 260
-0.998792, 377, 151, 440, 166
-0.998795, 33, 149, 96, 164
-0.998797, 185, 269, 248, 284
-0.998798, 1, 251, 64, 266
-0.998799, 25, 181, 88, 196
-0.9988, 41, 209, 104, 224
-0.9988, 249, 247, 312, 262
-0.998801, 201, 261, 264, 276
-0.998802, 425, 257, 488, 272
-0.998803, 353, 357, 416, 372
-0.998803, 33, 137, 96, 152
-0.998803, 401, 217, 464, 232
-0.998804, 9, 165, 72, 180
-0.998805, 321, 81, 448, 144
-0.998806, 9, 147, 72, 162
-0.998806, 217, 255, 280, 270
-0.998807, 9, 157, 72, 172
-0.998807, 97, 263, 160, 278
-0.998807, 161, 273, 224, 288
-0.998808, 313, 323, 376, 338
-0.998808, 401, 229, 464, 244
-0.998809, 401, 211, 464, 226
-0.998809, 25, 249, 88, 264
-0.99881, 377, 237, 440, 252
-0.99881, 161, 295, 224, 310
-0.998811, 433, 179, 496, 194
-0.998812, 377, 251, 440, 266
-0.998812, 425, 165, 488, 180
-0.998813, 65, 289, 128, 304
-0.998814, 321, 133, 384, 148
-0.998814, 305, 93, 368, 108
-0.998815, 17, 203, 80, 218
-0.998815, 49, 319, 112, 334
-0.998816, 281, 93, 344, 108
-0.998816, 305, 99, 368, 114
-0.998816, 49, 181, 112, 196
-0.998817, 249, 239, 312, 254
-0.998817, 1, 141, 64, 156
-0.998817, 417, 153, 480, 168
-0.998818, 57, 267, 120, 282
-0.998818, 377, 139, 440, 154
-0.998818, 297, 317, 360, 332
-0.99882, 233, 87, 296, 102
-0.99882, 1, 243, 64, 258
-0.99882, 161, 267, 224, 282
-0.99882, 249, 77, 312, 92
-0.99882, 33, 169, 96, 184
-0.998821, 25, 243, 88, 258
-0.998821, 345, 93, 408, 108
-0.998822, 105, 71, 168, 86
-0.998822, 185, 275, 248, 290
-0.998822, 321, 329, 384, 344
-0.998822, 41, 203, 104, 218
-0.998823, 233, 93, 296, 108
-0.998823, 161, 301, 224, 316
-0.998824, 385, 347, 448, 362
-0.998824, 249, 229, 312, 244
-0.998825, 249, 259, 312, 274
-0.998825, 129, 51, 192, 66
-0.998825, 33, 143, 96, 158
-0.998826, 41, 233, 104, 248
-0.998826, 337, 115, 400, 130
-0.998826, 105, 295, 168, 310
-0.998827, 17, 233, 80, 248
-0.998827, 337, 125, 400, 140
-0.998827, 105, 273, 168, 288
-0.998827, 345, 99, 408, 114
-0.998827, 81, 83, 144, 98
-0.998827, 233, 267, 296, 282
-0.998828, 33, 131, 96, 146
-0.998828, 1, 257, 64, 272
-0.998828, 65, 359, 128, 374
-0.998828, 233, 99, 296, 114
-0.998829, 81, 175, 144, 190
-0.998829, 305, 105, 368, 120
-0.998829, 1, 1, 64, 375
-0.998829, 81, 89, 144, 104
-0.998829, 417, 239, 480, 254
-0.998829, 377, 163, 440, 178
-0.99883, 433, 159, 496, 174
-0.99883, 345, 107, 408, 122
-0.99883, 209, 249, 272, 264
-0.998831, 41, 255, 104, 270
-0.998831, 129, 45, 192, 60
-0.998831, 281, 331, 344, 346
-0.998831, 257, 175, 320, 190
-0.998831, 57, 217, 120, 232
-0.998831, 49, 227, 112, 242
-0.998831, 353, 335, 416, 350
-0.998831, 313, 87, 376, 102
-0.998831, 73, 353, 136, 368
-0.998831, 249, 253, 312, 268
-0.998832, 81, 77, 144, 92
-0.998832, 249, 223, 312, 238
-0.998832, 145, 25, 208, 40
-0.998832, 1, 197, 64, 212
-0.998832, 225, 261, 288, 276
-0.998833, 97, 331, 160, 346
-0.998833, 409, 347, 472, 362
-0.998833, 145, 279, 208, 294
-0.998833, 289, 337, 352, 352
-0.998833, 65, 283, 128, 298
-0.998833, 361, 351, 424, 366
-0.998834, 25, 351, 88, 366
-0.998834, 97, 61, 160, 76
-0.998834, 337, 323, 400, 338
-0.99884, 445, 217, 460, 280
-0.998848, 257, 201, 500, 264
-0.998855, 15, 161, 30, 224
-0.998861, 439, 161, 454, 192
-0.998866, 429, 249, 444, 280
-0.99887, 433, 233, 448, 296
-0.998876, 193, 185, 320, 248
-0.998887, 1, 169, 128, 200
-0.998898, 443, 177, 458, 208
-0.998901, 129, 129, 384, 256
-0.998906, 81, 65, 144, 128
-0.998931, 201, 33, 264, 96
-0.998932, 433, 165, 448, 196
-0.998946, 1, 169, 256, 232
-0.998957, 413, 241, 444, 368
-0.998978, 65, 265, 320, 328
-0.99898, 321, 133, 448, 164
-0.99899, 433, 201, 448, 232
-0.998991, 7, 153, 22, 216
-0.998992, 409, 233, 424, 296
-0.998999, 225, 313, 480, 375
-0.999009, 337, 197, 464, 228
-0.999015, 337, 161, 464, 192
-0.999016, 289, 289, 416, 352
-0.999016, 439, 229, 454, 260
-0.999021, 113, 65, 240, 128
-0.999027, 419, 217, 434, 280
-0.999033, 417, 245, 432, 276
-0.999036, 193, 81, 448, 144
-0.999042, 423, 153, 438, 184
-0.999067, 453, 185, 468, 216
-0.999069, 431, 225, 446, 256
-0.999071, 457, 201, 472, 264
-0.999072, 97, 9, 352, 72
-0.999072, 225, 57, 480, 120
-0.999075, 321, 241, 448, 272
-0.999087, 49, 201, 176, 264
-0.999089, 1, 153, 16, 216
-0.99909, 441, 137, 456, 200
-0.999104, 63, 161, 78, 224
-0.999106, 21, 153, 36, 216
-0.999109, 445, 221, 460, 252
-0.99911, 45, 161, 60, 224
-0.999114, 1, 225, 256, 288
-0.999115, 1, 33, 500, 96
-0.999116, 53, 169, 68, 232
-0.999118, 45, 113, 76, 240
-0.99912, 169, 241, 232, 368
-0.999152, 129, 25, 256, 56
-0.999165, 49, 129, 176, 192
-0.999167, 425, 229, 440, 260
-0.999177, 17, 57, 144, 120
-0.999191, 473, 197, 488, 228
-0.999202, 455, 201, 470, 232
-0.999203, 369, 145, 496, 176
-0.999203, 321, 333, 448, 364
-0.999206, 377, 57, 440, 120
-0.999213, 1, 113, 500, 176
-0.999214, 13, 181, 28, 212
-0.999216, 69, 161, 84, 224
-0.99922, 23, 177, 38, 240
-0.99923, 289, 153, 416, 216
-0.999232, 7, 173, 22, 204
-0.999232, 59, 173, 74, 204
-0.999232, 425, 217, 440, 280
-0.999238, 411, 245, 426, 276
-0.999243, 413, 269, 428, 300
-0.999251, 433, 189, 448, 220
-0.999262, 29, 169, 44, 232
-0.999264, 441, 149, 456, 180
-0.999264, 321, 229, 448, 260
-0.999267, 225, 105, 480, 168
-0.999269, 47, 169, 62, 200
-0.999275, 461, 201, 476, 232
-0.999276, 433, 133, 448, 164
-0.999279, 177, 261, 304, 292
-0.999282, 407, 257, 422, 288
-0.999303, 65, 169, 80, 200
-0.99931, 35, 161, 50, 224
-0.999312, 29, 161, 60, 224
-0.999318, 1, 209, 500, 272
-0.999318, 481, 197, 496, 228
-0.999327, 253, 17, 284, 144
-0.999327, 23, 177, 38, 208
-0.999329, 75, 161, 90, 224
-0.999332, 449, 209, 464, 240
-0.999333, 193, 249, 320, 280
-0.999334, 369, 345, 496, 375
-0.999336, 17, 149, 144, 180
-0.999343, 419, 141, 434, 172
-0.999346, 1, 57, 500, 120
-0.999347, 7, 161, 22, 192
-0.999349, 419, 269, 434, 300
-0.99935, 1, 169, 16, 200
-0.99936, 37, 169, 52, 200
-0.999363, 53, 169, 68, 200
-0.999364, 71, 169, 86, 200
-0.999367, 423, 129, 438, 160
-0.999372, 65, 81, 320, 144
-0.999373, 1, 265, 500, 328
-0.99938, 83, 169, 98, 200
-0.99938, 453, 175, 468, 190
-0.99938, 67, 207, 82, 222
-0.999381, 77, 181, 92, 196
-0.999381, 437, 243, 452, 258
-0.999381, 109, 175, 124, 190
-0.999381, 445, 209, 460, 224
-0.999382, 451, 223, 466, 238
-0.999382, 439, 177, 454, 192
-0.999382, 473, 211, 488, 226
-0.999383, 1, 171, 16, 186
-0.999383, 421, 233, 436, 248
-0.999384, 25, 237, 40, 268
-0.999384, 17, 171, 32, 186
-0.999385, 41, 205, 56, 220
-0.999385, 37, 245, 52, 260
-0.999385, 191, 271, 206, 286
-0.999385, 57, 169, 72, 184
-0.999385, 401, 257, 416, 272
-0.999386, 163, 277, 178, 292
-0.999386, 161, 249, 416, 312
-0.999387, 59, 149, 74, 164
-0.999387, 103, 175, 118, 190
-0.999387, 257, 255, 272, 270
-0.999389, 353, 57, 416, 120
-0.999389, 3, 249, 18, 264
-0.99939, 211, 261, 226, 276
-0.99939, 77, 207, 92, 222
-0.999391, 273, 317, 400, 348
-0.999391, 3, 183, 18, 198
-0.999393, 31, 243, 46, 258
-0.999393, 45, 155, 60, 170
-0.999393, 419, 265, 434, 328
-0.999394, 173, 273, 188, 288
-0.999394, 437, 237, 452, 252
-0.999396, 85, 181, 100, 196
-0.999396, 39, 147, 54, 162
-0.999396, 71, 181, 86, 196
-0.999397, 25, 243, 40, 258
-0.999398, 39, 183, 54, 198
-0.999398, 425, 163, 440, 178
-0.999399, 407, 253, 422, 268
-0.999401, 65, 181, 80, 196
-0.999402, 17, 183, 32, 198
-0.999402, 17, 249, 32, 264
-0.999402, 337, 313, 352, 375
-0.999402, 27, 249, 42, 264
-0.999403, 45, 149, 60, 164
-0.999403, 157, 277, 172, 292
-0.999403, 415, 241, 430, 256
-0.999404, 45, 181, 60, 196
-0.999404, 481, 197, 496, 212
-0.999405, 51, 149, 66, 164
-0.999405, 59, 181, 74, 196
-0.999405, 93, 175, 108, 190
-0.999405, 435, 183, 450, 198
-0.999405, 429, 251, 444, 266
-0.999406, 335, 131, 350, 146
-0.999406, 479, 209, 494, 224
-0.999407, 433, 139, 448, 154
-0.999407, 433, 215, 448, 230
-0.999407, 429, 157, 444, 172
-0.999407, 203, 267, 218, 282
-0.999407, 423, 157, 438, 172
-0.999407, 423, 267, 438, 282
-0.999411, 369, 209, 496, 240
-0.999411, 465, 197, 480, 212
-0.999412, 13, 169, 28, 200
-0.999413, 449, 193, 464, 208
-0.999413, 85, 173, 100, 188
-0.999413, 51, 181, 66, 196
-0.999414, 463, 209, 478, 224
-0.999414, 441, 159, 456, 174
-0.999415, 23, 181, 38, 196
-0.999415, 35, 175, 50, 190
-0.999416, 445, 217, 460, 232
-0.999417, 77, 169, 92, 200
-0.999418, 29, 181, 44, 212
-0.99942, 23, 175, 38, 190
-0.999422, 425, 257, 440, 272
-0.999422, 51, 173, 66, 188
-0.999424, 29, 177, 44, 192
-0.999425, 447, 229, 462, 244
-0.999427, 15, 177, 30, 192
-0.999427, 1, 177, 500, 240
-0.999427, 451, 181, 466, 196
-0.999427, 9, 181, 24, 196
-0.999428, 77, 175, 92, 190
-0.999428, 45, 175, 60, 190
-0.999429, 45, 129, 60, 192
-0.99943, 19, 161, 34, 192
-0.99943, 427, 203, 442, 218
-0.999431, 69, 173, 84, 188
-0.999431, 433, 173, 448, 188
-0.999431, 417, 145, 432, 160
-0.999432, 321, 121, 448, 152
-0.999433, 7, 175, 22, 190
-0.999434, 161, 289, 416, 352
-0.999434, 465, 189, 480, 220
-0.999435, 455, 197, 470, 212
-0.999435, 45, 181, 60, 212
-0.999442, 241, 241, 304, 368
-0.999442, 1, 177, 16, 192
-0.999443, 57, 175, 72, 190
-0.999444, 451, 209, 466, 224
-0.999447, 441, 229, 456, 244
-0.999448, 457, 209, 472, 224
-0.999449, 433, 223, 448, 238
-0.999452, 471, 205, 486, 220
-0.999452, 435, 147, 450, 162
-0.999453, 63, 175, 78, 190
-0.999455, 241, 17, 272, 144
-0.999456, 425, 139, 440, 154
-0.999456, 433, 197, 448, 212
-0.999459, 431, 239, 446, 254
-0.99946, 17, 193, 32, 256
-0.99946, 45, 153, 60, 184
-0.99946, 443, 193, 458, 208
-0.999464, 1, 181, 16, 212
-0.999465, 435, 229, 450, 244
-0.999466, 445, 203, 460, 218
-0.999469, 439, 171, 454, 186
-0.999471, 31, 241, 46, 272
-0.999472, 439, 201, 454, 216
-0.999474, 465, 203, 480, 218
-0.999477, 421, 151, 436, 166
-0.999477, 39, 181, 54, 212
-0.999481, 481, 203, 496, 218
-0.999481, 65, 313, 128, 375
-0.999481, 113, 313, 240, 375
-0.999482, 31, 169, 46, 200
-0.999482, 337, 185, 464, 216
-0.999482, 423, 251, 438, 266
-0.999484, 463, 169, 478, 232
-0.999484, 439, 217, 454, 232
-0.999485, 249, 169, 312, 232
-0.999485, 333, 129, 348, 160
-0.999488, 427, 205, 442, 236
-0.999489, 1, 233, 128, 264
-0.99949, 429, 209, 444, 224
-0.999491, 15, 237, 30, 268
-0.999493, 409, 267, 424, 282
-0.999493, 1, 205, 128, 236
-0.999494, 43, 137, 58, 168
-0.999494, 451, 187, 466, 202
-0.999495, 441, 187, 456, 202
-0.999496, 453, 173, 468, 204
-0.999497, 413, 255, 428, 270
-0.999501, 475, 199, 490, 214
-0.999504, 431, 167, 446, 182
-0.999505, 421, 245, 436, 260
-0.999507, 193, 33, 448, 96
-0.999509, 441, 165, 456, 180
-0.999513, 397, 241, 428, 304
-0.999514, 257, 281, 500, 344
-0.999515, 445, 223, 460, 238
-0.999519, 475, 209, 490, 240
-0.999521, 429, 151, 444, 166
-0.999522, 439, 207, 454, 222
-0.999522, 429, 161, 444, 224
-0.999522, 431, 245, 446, 260
-0.999524, 197, 265, 212, 328
-0.999528, 369, 153, 432, 216
-0.999528, 297, 281, 360, 344
-0.99953, 407, 261, 422, 276
-0.999531, 455, 203, 470, 218
-0.999536, 191, 265, 206, 328
-0.999537, 417, 267, 432, 282
-0.99954, 39, 237, 54, 268
-0.999542, 429, 145, 444, 160
-0.999546, 437, 245, 452, 276
-0.999546, 241, 65, 304, 192
-0.999548, 39, 153, 54, 184
-0.999549, 439, 223, 454, 238
-0.999551, 45, 201, 60, 264
-0.999552, 93, 169, 108, 200
-0.999553, 249, 225, 312, 288
-0.999553, 105, 257, 168, 320
-0.999553, 357, 33, 388, 288
-0.999555, 51, 137, 66, 168
-0.999555, 7, 185, 22, 216
-0.999556, 33, 257, 160, 288
-0.999557, 39, 201, 54, 264
-0.999558, 63, 157, 78, 188
-0.999559, 81, 277, 208, 308
-0.999563, 49, 173, 176, 204
-0.999563, 419, 261, 434, 276
-0.999564, 53, 181, 68, 212
-0.999565, 425, 239, 440, 254
-0.999566, 435, 161, 450, 176
-0.999569, 225, 81, 352, 112
-0.999571, 57, 157, 72, 188
-0.999572, 433, 203, 448, 218
-0.999574, 11, 185, 26, 248
-0.999575, 445, 181, 460, 196
-0.999577, 423, 145, 438, 160
-0.999578, 257, 1, 288, 256
-0.999578, 205, 261, 220, 292
-0.999581, 19, 193, 34, 224
-0.999582, 161, 273, 288, 304
-0.999585, 1, 289, 128, 320
-0.999588, 17, 337, 144, 368
-0.99959, 81, 105, 208, 168
-0.999593, 51, 129, 66, 192
-0.999597, 17, 133, 144, 164
-0.999602, 105, 241, 168, 368
-0.999603, 25, 161, 40, 192
-0.999605, 1, 157, 16, 188
-0.999605, 449, 197, 464, 228
-0.999607, 361, 1, 424, 128
-0.999609, 67, 181, 82, 212
-0.99961, 97, 57, 224, 88
-0.99961, 37, 137, 52, 168
-0.99961, 427, 165, 442, 196
-0.999613, 369, 221, 496, 252
-0.999616, 161, 81, 288, 144
-0.999621, 343, 313, 358, 375
-0.999621, 257, 249, 272, 280
-0.999623, 31, 229, 46, 260
-0.999624, 3, 233, 18, 264
-0.999627, 445, 145, 460, 272
-0.999629, 81, 289, 208, 320
-0.99963, 425, 265, 440, 296
-0.999634, 9, 233, 24, 264
-0.999634, 5, 245, 20, 276
-0.999636, 337, 261, 464, 292
-0.999638, 1, 313, 256, 375
-0.999641, 159, 277, 174, 308
-0.999642, 331, 313, 346, 375
-0.999642, 225, 129, 480, 192
-0.999643, 413, 261, 428, 276
-0.999648, 199, 265, 214, 296
-0.999648, 419, 233, 434, 264
-0.999648, 205, 257, 220, 320
-0.999649, 175, 269, 190, 300
-0.999651, 363, 49, 378, 112
-0.999653, 405, 245, 420, 276
-0.999653, 439, 145, 454, 272
-0.999653, 77, 205, 92, 236
-0.999655, 211, 257, 226, 288
-0.999655, 161, 57, 288, 120
-0.999655, 51, 153, 66, 184
-0.999658, 321, 109, 448, 140
-0.99966, 85, 181, 100, 212
-0.99966, 365, 33, 396, 160
-0.999661, 13, 193, 28, 224
-0.999662, 433, 113, 448, 176
-0.999662, 69, 157, 84, 188
-0.999666, 339, 129, 354, 160
-0.999666, 57, 145, 72, 208
-0.999667, 25, 225, 88, 288
-0.999671, 129, 37, 256, 68
-0.999671, 337, 173, 464, 204
-0.999672, 67, 185, 82, 248
-0.999676, 13, 157, 28, 188
-0.999678, 165, 273, 180, 304
-0.999679, 181, 273, 196, 304
-0.99968, 191, 269, 206, 300
-0.99968, 479, 105, 494, 136
-0.999683, 153, 277, 168, 308
-0.999685, 445, 161, 460, 192
-0.999688, 43, 205, 58, 236
-0.999691, 339, 317, 354, 348
-0.999691, 37, 333, 52, 364
-0.999691, 33, 157, 48, 188
-0.999693, 43, 193, 58, 224
-0.999696, 31, 193, 46, 256
-0.999697, 457, 177, 472, 240
-0.999699, 37, 137, 52, 200
-0.9997, 477, 97, 492, 160
-0.999701, 37, 201, 52, 232
-0.999702, 15, 145, 30, 272
-0.999703, 451, 161, 466, 288
-0.999706, 3, 145, 18, 272
-0.999706, 21, 249, 36, 280
-0.999707, 257, 9, 500, 72
-0.999708, 433, 145, 448, 272
-0.999709, 23, 225, 38, 256
-0.99971, 67, 205, 82, 236
-0.999712, 331, 317, 346, 348
-0.999712, 17, 121, 144, 152
-0.999712, 129, 261, 256, 292
-0.999712, 9, 145, 24, 272
-0.999714, 23, 145, 38, 272
-0.999714, 333, 1, 364, 256
-0.999715, 77, 157, 92, 188
-0.999717, 73, 181, 88, 212
-0.999717, 377, 121, 440, 184
-0.999718, 373, 49, 388, 112
-0.999719, 241, 117, 368, 148
-0.999721, 313, 89, 328, 120
-0.999722, 337, 309, 464, 340
-0.999722, 61, 205, 76, 236
-0.999722, 261, 73, 276, 104
-0.999725, 83, 205, 98, 236
-0.999728, 369, 97, 496, 128
-0.999732, 261, 217, 276, 248
-0.999734, 321, 89, 336, 120
-0.999737, 53, 205, 68, 236
-0.999738, 103, 169, 118, 200
-0.999738, 243, 265, 258, 296
-0.999738, 433, 233, 496, 296
-0.999739, 301, 329, 316, 360
-0.999742, 335, 281, 350, 344
-0.999743, 345, 121, 360, 152
-0.999743, 269, 1, 300, 256
-0.999743, 33, 233, 48, 296
-0.999744, 451, 113, 466, 240
-0.999748, 61, 185, 76, 248
-0.999751, 1, 301, 128, 332
-0.999751, 275, 33, 290, 96
-0.999751, 85, 169, 100, 232
-0.999751, 439, 233, 454, 296
-0.999752, 183, 265, 198, 328
-0.999755, 211, 257, 226, 320
-0.99976, 241, 257, 368, 288
-0.99976, 417, 137, 432, 200
-0.999761, 477, 201, 492, 264
-0.999762, 435, 193, 450, 320
-0.999766, 443, 193, 458, 320
-0.999766, 17, 245, 144, 276
-0.999766, 423, 113, 438, 176
-0.999767, 33, 81, 160, 112
-0.999774, 369, 33, 400, 288
-0.999775, 37, 145, 52, 272
-0.999776, 175, 265, 190, 328
-0.999779, 249, 17, 264, 144
-0.999779, 1, 217, 128, 248
-0.99978, 33, 201, 288, 264
-0.999781, 57, 249, 120, 312
-0.999782, 251, 73, 266, 136
-0.999784, 5, 185, 20, 248
-0.999786, 241, 285, 368, 316
-0.999788, 67, 129, 82, 192
-0.999789, 265, 33, 296, 160
-0.99979, 29, 145, 44, 272
-0.999791, 357, 49, 372, 112
-0.999791, 207, 25, 222, 88
-0.999792, 97, 69, 224, 100
-0.999794, 357, 33, 372, 160
-0.999794, 283, 41, 298, 104
-0.999806, 41, 297, 104, 360
-0.999807, 257, 17, 272, 144
-0.999808, 225, 93, 352, 124
-0.999809, 269, 33, 284, 96
-0.999811, 347, 33, 362, 160
-0.999814, 413, 209, 428, 272
-0.999818, 351, 49, 366, 112
-0.999818, 357, 81, 372, 144
-0.999819, 345, 33, 376, 288
-0.999821, 289, 33, 304, 96
-0.999821, 53, 201, 68, 264
-0.999821, 67, 249, 82, 312
-0.999822, 47, 113, 62, 240
-0.999822, 371, 33, 386, 160
-0.999822, 365, 49, 380, 176
-0.999824, 241, 305, 368, 336
-0.999825, 257, 73, 272, 136
-0.999826, 81, 261, 208, 292
-0.999827, 273, 137, 400, 168
-0.999827, 413, 241, 428, 368
-0.999831, 243, 81, 258, 144
-0.999831, 113, 41, 176, 104
-0.999833, 369, 109, 496, 140
-0.999833, 419, 241, 434, 368
-0.999837, 53, 113, 68, 240
-0.999843, 17, 225, 32, 288
-0.999844, 243, 17, 258, 144
-0.999845, 39, 313, 54, 375
-0.999846, 1, 225, 16, 288
-0.999846, 429, 193, 444, 320
-0.999847, 379, 49, 394, 176
-0.999848, 457, 177, 472, 304
-0.999852, 263, 17, 278, 144
-0.999854, 145, 1, 208, 256
-0.999855, 13, 161, 44, 224
-0.999855, 483, 97, 498, 160
-0.999857, 461, 113, 476, 240
-0.999859, 269, 17, 284, 144
-0.999859, 65, 289, 320, 352
-0.999862, 43, 193, 58, 320
-0.999863, 421, 193, 436, 320
-0.999865, 241, 245, 368, 276
-0.999866, 425, 193, 440, 256
-0.999867, 117, 65, 132, 128
-0.999867, 169, 265, 184, 328
-0.999868, 177, 285, 304, 316
-0.99987, 113, 1, 176, 256
-0.999871, 9, 97, 24, 224
-0.999873, 341, 33, 356, 160
-0.999874, 275, 17, 290, 144
-0.999876, 381, 49, 396, 112
-0.999877, 285, 17, 300, 144
-0.999878, 337, 77, 464, 108
-0.999882, 59, 113, 74, 240
-0.999882, 317, 49, 332, 112
-0.999883, 43, 233, 58, 296
-0.999883, 425, 241, 440, 368
-0.999888, 215, 25, 230, 88
-0.999891, 17, 93, 144, 124
-0.999891, 77, 185, 92, 248
-0.999891, 407, 193, 422, 320
-0.999893, 221, 1, 252, 256
-0.999893, 321, 345, 448, 375
-0.999894, 293, 33, 308, 160
-0.999895, 335, 33, 350, 160
-0.999897, 25, 225, 40, 288
-0.999898, 401, 241, 432, 368
-0.999898, 37, 97, 68, 352
-0.999899, 65, 65, 128, 320
-0.999899, 427, 145, 442, 272
-0.9999, 1, 129, 16, 192
-0.999902, 323, 33, 338, 160
-0.999902, 337, 121, 400, 184
-0.999902, 313, 33, 328, 160
-0.999904, 389, 49, 404, 176
-0.999906, 299, 33, 314, 160
-0.999907, 177, 105, 304, 168
-0.999909, 321, 321, 448, 352
-0.999909, 1, 97, 16, 224
-0.999909, 295, 41, 310, 104
-0.999909, 25, 201, 40, 264
-0.99991, 201, 25, 216, 88
-0.999914, 431, 97, 446, 224
-0.999916, 307, 33, 322, 160
-0.999917, 235, 17, 250, 144
-0.999919, 241, 229, 368, 260
-0.999919, 255, 241, 270, 304
-0.999919, 41, 97, 56, 224
-0.99992, 257, 281, 320, 344
-0.999921, 13, 137, 28, 200
-0.999921, 249, 241, 264, 368
-0.999921, 329, 33, 344, 160
-0.999922, 379, 297, 394, 360
-0.999922, 197, 1, 212, 128
-0.999925, 19, 97, 34, 224
-0.999925, 49, 213, 176, 244
-0.999925, 33, 321, 160, 352
-0.999926, 185, 1, 200, 128
-0.999928, 191, 289, 206, 352
-0.999928, 107, 297, 122, 360
-0.999928, 325, 313, 340, 375
-0.999928, 1, 277, 128, 308
-0.999929, 35, 193, 50, 320
-0.999931, 303, 49, 318, 112
-0.999931, 445, 97, 460, 224
-0.999932, 273, 329, 400, 360
-0.999933, 407, 241, 422, 368
-0.999934, 69, 97, 84, 224
-0.999935, 97, 13, 224, 44
-0.999935, 193, 29, 320, 60
-0.999935, 257, 65, 272, 192
-0.999937, 477, 193, 492, 320
-0.999937, 421, 145, 436, 272
-0.999938, 33, 69, 160, 100
-0.99994, 49, 161, 64, 288
-0.999941, 65, 345, 192, 375
-0.999943, 363, 1, 378, 128
-0.999944, 179, 1, 194, 128
-0.999944, 379, 1, 394, 128
-0.999944, 61, 65, 76, 192
-0.999944, 451, 145, 466, 208
-0.999945, 243, 241, 258, 368
-0.999946, 265, 65, 280, 128
-0.999948, 191, 1, 206, 128
-0.999948, 313, 1, 344, 256
-0.999948, 259, 33, 274, 96
-0.99995, 203, 1, 218, 128
-0.999951, 289, 93, 416, 124
-0.999951, 91, 65, 106, 192
-0.999951, 241, 1, 272, 256
-0.999952, 387, 305, 402, 368
-0.999954, 199, 241, 214, 368
-0.999954, 49, 97, 80, 352
-0.999955, 311, 49, 326, 112
-0.999955, 61, 265, 76, 328
-0.999955, 11, 225, 26, 288
-0.999958, 229, 17, 244, 144
-0.999958, 29, 193, 44, 320
-0.99996, 79, 65, 94, 192
-0.99996, 401, 193, 416, 320
-0.99996, 1, 193, 128, 224
-0.999961, 329, 281, 344, 344
-0.999961, 25, 97, 40, 224
-0.999961, 221, 25, 236, 88
-0.999961, 451, 217, 466, 280
-0.999961, 249, 257, 264, 320
-0.999961, 349, 297, 364, 360
-0.999963, 57, 121, 72, 184
-0.999963, 395, 49, 410, 176
-0.999964, 323, 49, 338, 112
-0.999965, 431, 241, 446, 368
-0.999965, 65, 145, 80, 272
-0.999966, 207, 241, 222, 368
-0.999966, 369, 233, 496, 264
-0.999966, 219, 17, 234, 144
-0.999967, 209, 17, 224, 144
-0.999967, 353, 81, 368, 208
-0.999967, 341, 281, 356, 344
-0.999968, 35, 97, 50, 224
-0.999968, 121, 49, 136, 176
-0.999969, 113, 49, 128, 176
-0.999969, 97, 65, 112, 192
-0.99997, 81, 45, 208, 76
-0.99997, 353, 9, 480, 72
-0.999971, 475, 113, 490, 240
-0.999972, 385, 1, 400, 128
-0.999973, 227, 25, 242, 88
-0.999974, 425, 17, 440, 144
-0.999976, 415, 193, 430, 320
-0.999976, 51, 65, 66, 192
-0.999976, 191, 17, 206, 80
-0.999978, 29, 145, 44, 208
-0.999978, 485, 113, 500, 240
-0.999979, 395, 241, 410, 368
-0.999979, 437, 33, 452, 160
-0.999979, 251, 65, 266, 192
-0.999979, 93, 161, 108, 224
-0.999979, 55, 233, 70, 296
-0.99998, 193, 137, 320, 168
-0.99998, 401, 17, 416, 144
-0.999981, 1, 313, 500, 375
-0.999982, 369, 333, 496, 364
-0.999982, 387, 41, 402, 104
-0.999983, 241, 213, 368, 244
-0.999983, 103, 65, 118, 192
-0.999984, 411, 33, 426, 160
-0.999985, 173, 1, 188, 128
-0.999985, 471, 193, 486, 320
-0.99999, 393, 1, 408, 128
-0.999992, 441, 241, 456, 368
-0.999993, 77, 113, 92, 240
-0.999994, 331, 49, 346, 112
-0.999996, 431, 17, 446, 144
-0.999996, 85, 81, 100, 208
-0.999997, 323, 225, 338, 352
-0.999997, 257, 225, 272, 352
-0.999998, 363, 73, 378, 136
-0.999998, 401, 241, 416, 368
-0.999998, 1, 105, 128, 136
-0.999999, 17, 193, 32, 320
-0.999999, 23, 193, 38, 320
-0.999999, 413, 33, 444, 288
-1, 75, 137, 90, 200
-1, 115, 241, 130, 368
-1, 163, 1, 178, 128
-1, 449, 33, 464, 160
-1, 71, 145, 86, 272
-1.00001, 127, 49, 142, 176
-1.00001, 161, 237, 288, 268
-1.00001, 49, 209, 64, 336
-1.00001, 411, 145, 426, 272
-1.00001, 331, 209, 346, 336
-1.00001, 245, 65, 260, 192
-1.00001, 271, 241, 286, 368
-1.00001, 157, 1, 172, 128
-1.00001, 263, 65, 278, 192
-1.00001, 389, 241, 404, 368
-1.00001, 57, 161, 72, 288
-1.00001, 1, 193, 16, 320
-1.00001, 191, 241, 206, 368
-1.00001, 161, 241, 176, 368
-1.00002, 205, 1, 236, 256
-1.00002, 33, 9, 160, 72
-1.00002, 65, 333, 192, 364
-1.00003, 193, 41, 320, 72
-1.00003, 257, 341, 384, 372
-1.00003, 421, 209, 452, 272
-1.00004, 289, 77, 416, 108
-1.00004, 425, 185, 456, 248
-1.00004, 45, 161, 76, 224
-1.00004, 113, 249, 240, 280
-1.00005, 281, 1, 312, 256
-1.00005, 457, 113, 488, 240
-1.00005, 273, 105, 400, 136
-1.00006, 1, 233, 64, 296
-1.00007, 305, 297, 432, 328
-1.00007, 257, 65, 384, 96
-1.00007, 193, 1, 224, 256
-1.00008, 49, 29, 176, 60
-1.00008, 273, 49, 400, 80
-1.00008, 33, 53, 160, 84
-1.00009, 25, 97, 56, 352
-1.00009, 429, 233, 460, 296
-1.0001, 225, 269, 352, 300
-1.0001, 113, 341, 240, 372
-1.0001, 289, 281, 416, 312
-1.0001, 177, 297, 304, 328
-1.00011, 361, 241, 424, 304
-1.00011, 97, 297, 160, 360
-1.00011, 161, 209, 288, 240
-1.00011, 381, 1, 412, 256
-1.00012, 241, 201, 368, 232
-1.00012, 437, 1, 468, 256
-1.00013, 25, 265, 88, 328
-1.00013, 369, 125, 496, 156
-1.00014, 1, 9, 256, 72
-1.00014, 273, 185, 400, 216
-1.00014, 369, 321, 496, 352
-1.00014, 177, 17, 304, 48
-1.00015, 369, 293, 496, 324
-1.00015, 369, 241, 432, 368
-1.00015, 81, 321, 208, 352
-1.00016, 33, 145, 288, 208
-1.00016, 321, 209, 448, 240
-1.00016, 193, 181, 320, 212
-1.00017, 421, 129, 452, 375
-1.00017, 293, 1, 324, 256
-1.00017, 81, 305, 208, 336
-1.00017, 1, 289, 500, 352
-1.00017, 129, 225, 384, 288
-1.00018, 1, 89, 500, 152
-1.00018, 225, 53, 352, 84
-1.00019, 25, 65, 88, 192
-1.00019, 49, 109, 176, 140
-1.00019, 33, 41, 160, 72
-1.0002, 49, 273, 112, 336
-1.0002, 257, 37, 384, 68
-1.0002, 437, 97, 468, 352
-1.00021, 5, 97, 36, 352
-1.00022, 393, 33, 424, 288
-1.00022, 129, 193, 384, 256
-1.00022, 65, 161, 192, 192
-1.00022, 81, 81, 208, 112
-1.00022, 193, 225, 320, 256
-1.00024, 461, 97, 492, 352
-1.00025, 145, 201, 272, 264
-1.00025, 209, 69, 336, 100
-1.00025, 337, 57, 464, 88
-1.00026, 193, 197, 320, 228
-1.00026, 241, 169, 368, 200
-1.00026, 281, 25, 344, 88
-1.00027, 61, 97, 92, 352
-1.00028, 145, 89, 272, 120
-1.00028, 193, 109, 320, 140
-1.00028, 49, 185, 176, 216
-1.00028, 421, 193, 452, 320
-1.00031, 49, 225, 176, 256
-1.00032, 329, 1, 392, 128
-1.00032, 353, 45, 480, 76
-1.00032, 129, 285, 256, 316
-1.00032, 369, 281, 496, 312
-1.00032, 1, 241, 500, 304
-1.00032, 177, 1, 208, 256
-1.00033, 49, 201, 176, 232
-1.00033, 193, 125, 320, 156
-1.00033, 41, 105, 104, 168
-1.00036, 49, 17, 176, 48
-1.00036, 97, 101, 224, 132
-1.00036, 289, 253, 416, 284
-1.00036, 129, 313, 384, 375
-1.00038, 209, 325, 336, 356
-1.00038, 193, 169, 320, 200
-1.0004, 329, 289, 392, 352
-1.0004, 289, 197, 416, 228
-1.00042, 77, 65, 108, 320
-1.00043, 229, 17, 260, 144
-1.00044, 453, 1, 484, 256
-1.00046, 1, 33, 256, 96
-1.00046, 377, 49, 408, 176
-1.00047, 425, 1, 456, 256
-1.00049, 141, 1, 172, 256
-1.00051, 129, 137, 384, 200
-1.00055, 105, 33, 136, 288
-1.00057, 1, 81, 64, 208
-1.00058, 165, 1, 196, 256
-1.00059, 393, 193, 424, 320
-1.00059, 61, 1, 92, 256
-1.00062, 305, 9, 432, 72
-1.00063, 117, 1, 148, 256
-1.00063, 129, 1, 160, 256
-1.00063, 153, 1, 184, 256
-1.00064, 417, 265, 480, 328
-1.00065, 333, 97, 364, 352
-1.00065, 193, 129, 320, 256
-1.00066, 93, 65, 124, 320
-1.00067, 49, 1, 80, 256
-1.00068, 33, 1, 64, 256
-1.00071, 1, 9, 500, 72
-1.00071, 17, 1, 48, 256
-1.00072, 65, 161, 96, 224
-1.00075, 193, 161, 320, 224
-1.00079, 405, 129, 436, 375
-1.00079, 469, 1, 500, 256
-1.0008, 9, 297, 72, 360
-1.00082, 321, 81, 384, 144
-1.00082, 377, 305, 440, 368
-1.00083, 313, 33, 344, 160
-1.00084, 409, 97, 472, 352
-1.00086, 285, 33, 316, 160
-1.00087, 5, 1, 36, 256
-1.00087, 417, 33, 480, 96
-1.00087, 97, 193, 224, 320
-1.00088, 189, 265, 220, 328
-1.00088, 97, 105, 352, 168
-1.00089, 453, 177, 484, 304
-1.0009, 321, 97, 352, 352
-1.00093, 21, 97, 52, 224
-1.00094, 449, 129, 480, 375
-1.00095, 129, 81, 384, 208
-1.00095, 333, 313, 364, 375
-1.00097, 425, 33, 488, 160
-1.00098, 5, 193, 36, 256
-1.00099, 113, 153, 240, 216
-1.00102, 301, 33, 332, 160
-1.00102, 161, 169, 416, 232
-1.00103, 361, 33, 424, 96
-1.00103, 257, 1, 384, 64
-1.00103, 393, 129, 424, 375
-1.00104, 449, 185, 480, 248
-1.00104, 417, 137, 480, 200
-1.00105, 37, 193, 68, 320
-1.00107, 33, 97, 64, 224
-1.00114, 253, 129, 284, 375
-1.00116, 241, 97, 272, 352
-1.00117, 5, 97, 36, 224
-1.00119, 381, 97, 412, 352
-1.00121, 89, 33, 152, 288
-1.00121, 345, 129, 376, 375
-1.00121, 41, 129, 72, 192
-1.00122, 269, 97, 300, 352
-1.00125, 309, 97, 340, 352
-1.00131, 21, 185, 52, 248
-1.00131, 113, 129, 144, 375
-1.00132, 193, 241, 256, 304
-1.00133, 65, 121, 128, 184
-1.00134, 297, 97, 328, 352
-1.00135, 217, 129, 248, 375
-1.00136, 297, 241, 360, 368
-1.00136, 281, 129, 312, 375
-1.00137, 357, 129, 388, 375
-1.00137, 57, 81, 120, 144
-1.00138, 105, 65, 168, 128
-1.00141, 57, 113, 88, 240
-1.00142, 229, 97, 260, 352
-1.00143, 113, 177, 240, 240
-1.00144, 273, 73, 336, 136
-1.00144, 297, 97, 360, 160
-1.00144, 265, 257, 328, 320
-1.00145, 193, 129, 224, 375
-1.00147, 337, 33, 400, 96
-1.00147, 441, 153, 472, 216
-1.0015, 125, 129, 156, 375
-1.00151, 173, 265, 204, 328
-1.00151, 145, 289, 208, 352
-1.00151, 185, 1, 216, 128
-1.00152, 129, 265, 192, 328
-1.00153, 217, 17, 248, 144
-1.00156, 265, 225, 328, 352
-1.00156, 281, 313, 344, 375
-1.00157, 205, 97, 236, 352
-1.00159, 369, 129, 400, 375
-1.00162, 137, 129, 168, 375
-1.00163, 165, 129, 196, 375
-1.00169, 97, 209, 224, 272
-1.00169, 145, 129, 272, 192
-1.00169, 153, 129, 184, 375
-1.00169, 181, 129, 212, 375
-1.00169, 377, 281, 440, 344
-1.0017, 249, 65, 280, 192
-1.00172, 249, 161, 312, 288
-1.00179, 433, 1, 496, 256
-1.0018, 237, 241, 268, 368
-1.00183, 173, 1, 204, 128
-1.00184, 185, 297, 248, 360
-1.00188, 61, 65, 92, 192
-1.00193, 197, 1, 228, 128
-1.00193, 69, 113, 100, 240
-1.00193, 169, 1, 232, 64
-1.00197, 233, 49, 296, 112
-1.00198, 321, 81, 384, 208
-1.00199, 1, 113, 64, 176
-1.002, 409, 137, 440, 200
-1.002, 197, 241, 228, 368
-1.00204, 217, 217, 280, 280
-1.00207, 289, 249, 352, 312
-1.00209, 129, 105, 256, 168
-1.00213, 361, 65, 392, 128
-1.00213, 257, 17, 320, 80
-1.00215, 49, 65, 80, 192
-1.00217, 21, 193, 52, 320
-1.00221, 233, 297, 296, 360
-1.00221, 389, 33, 420, 160
-1.00221, 217, 81, 280, 208
-1.00224, 81, 65, 112, 192
-1.00225, 321, 313, 352, 375
-1.00225, 209, 105, 272, 168
-1.00226, 337, 241, 400, 368
-1.00226, 29, 137, 60, 200
-1.00227, 397, 217, 428, 280
-1.00228, 81, 89, 144, 152
-1.00229, 105, 49, 136, 176
-1.00232, 73, 169, 136, 232
-1.00232, 169, 233, 232, 296
-1.00232, 121, 297, 184, 360
-1.00234, 33, 1, 96, 256
-1.00236, 145, 241, 208, 368
-1.00237, 117, 49, 148, 176
-1.00241, 241, 81, 272, 144
-1.00241, 321, 265, 384, 328
-1.00242, 445, 217, 476, 280
-1.00244, 417, 81, 480, 144
-1.00244, 313, 121, 376, 184
-1.00245, 49, 193, 80, 320
-1.00245, 405, 193, 436, 320
-1.00248, 209, 305, 272, 368
-1.00249, 97, 129, 224, 192
-1.00251, 201, 1, 264, 64
-1.00251, 145, 241, 208, 304
-1.00251, 261, 33, 292, 96
-1.00253, 361, 113, 424, 240
-1.00253, 409, 313, 472, 375
-1.00255, 405, 33, 436, 160
-1.00255, 209, 185, 272, 248
-1.00257, 73, 289, 136, 352
-1.00259, 53, 185, 84, 248
-1.0026, 157, 1, 188, 128
-1.00261, 253, 65, 284, 128
-1.00261, 425, 33, 456, 160
-1.00261, 409, 145, 440, 272
-1.00264, 249, 249, 280, 312
-1.00265, 433, 97, 496, 352
-1.00267, 209, 257, 240, 320
-1.00267, 137, 41, 200, 104
-1.00269, 201, 57, 264, 120
-1.0027, 77, 169, 108, 232
-1.00276, 57, 193, 120, 256
-1.00276, 81, 257, 144, 320
-1.00276, 257, 217, 288, 280
-1.00279, 53, 129, 84, 192
-1.0028, 145, 49, 272, 176
-1.00282, 337, 177, 400, 304
-1.00282, 65, 241, 128, 368
-1.00282, 421, 129, 452, 192
-1.00284, 161, 265, 192, 328
-1.00285, 353, 1, 384, 128
-1.00285, 249, 193, 312, 256
-1.00286, 249, 225, 280, 352
-1.00287, 249, 97, 312, 160
-1.00291, 93, 49, 124, 176
-1.00292, 33, 201, 64, 264
-1.00292, 389, 241, 420, 368
-1.00294, 49, 225, 112, 288
-1.00294, 345, 145, 408, 208
-1.00296, 281, 41, 312, 104
-1.00299, 49, 161, 112, 288
-1.00301, 193, 25, 224, 88
-1.00302, 9, 137, 40, 200
-1.00303, 237, 65, 268, 192
-1.00303, 113, 17, 176, 80
-1.00303, 57, 145, 120, 208
-1.00305, 409, 201, 440, 264
-1.00305, 25, 241, 88, 368
-1.00306, 341, 81, 372, 208
-1.00307, 425, 241, 456, 368
-1.00307, 249, 25, 280, 88
-1.00308, 209, 81, 272, 144
-1.00311, 437, 225, 468, 352
-1.00311, 1, 1, 64, 256
-1.00313, 417, 105, 480, 168
-1.00313, 153, 313, 216, 375
-1.00314, 437, 33, 468, 160
-1.00315, 177, 241, 208, 368
-1.00315, 81, 41, 144, 104
-1.00315, 205, 25, 236, 88
-1.0032, 333, 65, 364, 128
-1.0032, 353, 185, 416, 248
-1.0032, 325, 225, 356, 352
-1.00321, 209, 241, 240, 368
-1.00322, 385, 33, 448, 96
-1.00322, 369, 97, 432, 160
-1.00322, 9, 193, 40, 320
-1.00323, 41, 233, 72, 296
-1.00326, 305, 25, 368, 88
-1.00327, 93, 297, 124, 360
-1.00328, 73, 113, 136, 240
-1.00329, 237, 257, 268, 320
-1.00329, 321, 281, 352, 344
-1.00329, 361, 209, 424, 272
-1.00329, 257, 313, 320, 375
-1.0033, 145, 1, 176, 128
-1.00331, 129, 33, 160, 160
-1.00333, 209, 281, 272, 344
-1.00335, 261, 241, 292, 304
-1.00337, 109, 257, 140, 320
-1.00339, 421, 257, 452, 320
-1.00339, 377, 297, 408, 360
-1.00341, 353, 41, 384, 104
-1.00346, 353, 89, 384, 152
-1.00346, 361, 129, 424, 375
-1.00347, 273, 209, 336, 272
-1.00349, 49, 265, 80, 328
-1.00349, 109, 241, 140, 368
-1.0035, 137, 241, 168, 368
-1.0035, 465, 193, 496, 320
-1.00351, 345, 313, 376, 375
-1.00352, 297, 73, 360, 136
-1.00358, 305, 97, 368, 352
-1.00358, 37, 313, 68, 375
-1.00358, 181, 17, 212, 80
-1.00363, 461, 169, 492, 232
-1.00363, 1, 225, 32, 288
-1.00363, 21, 233, 52, 296
-1.00363, 377, 1, 408, 128
-1.00365, 125, 241, 156, 368
-1.00366, 269, 241, 300, 368
-1.00368, 249, 137, 312, 200
-1.0037, 329, 217, 392, 280
-1.0037, 301, 49, 332, 112
-1.00372, 401, 289, 464, 352
-1.00373, 369, 33, 400, 96
-1.00375, 465, 97, 496, 160
-1.00376, 65, 137, 96, 200
-1.0038, 233, 33, 264, 96
-1.0038, 65, 185, 96, 248
-1.0038, 225, 129, 288, 192
-1.00383, 377, 241, 408, 368
-1.00386, 217, 25, 248, 88
-1.00386, 373, 57, 404, 120
-1.00386, 201, 177, 264, 304
-1.00389, 345, 265, 408, 328
-1.00389, 397, 265, 428, 328
-1.0039, 313, 225, 344, 352
-1.00391, 421, 41, 452, 104
-1.00391, 281, 121, 344, 184
-1.00391, 421, 97, 452, 224
-1.00392, 365, 305, 396, 368
-1.00394, 153, 9, 184, 72
-1.00395, 81, 113, 112, 240
-1.00396, 257, 161, 288, 288
-1.00397, 145, 145, 272, 272
-1.004, 329, 193, 392, 256
-1.00401, 165, 241, 196, 368
-1.00401, 337, 289, 368, 352
-1.00401, 61, 249, 92, 312
-1.00401, 173, 289, 204, 352
-1.00403, 1, 273, 64, 336
-1.00406, 105, 65, 136, 128
-1.00406, 393, 145, 424, 272
-1.00409, 61, 177, 92, 304
-1.0041, 433, 9, 496, 72
-1.0041, 341, 41, 372, 104
-1.00411, 469, 97, 500, 224
-1.00411, 405, 169, 436, 232
-1.00412, 449, 241, 480, 368
-1.00415, 225, 241, 256, 368
-1.00417, 105, 297, 136, 360
-1.00421, 165, 1, 196, 64
-1.00423, 385, 49, 416, 112
-1.00424, 433, 129, 464, 192
-1.00426, 89, 161, 120, 224
-1.00426, 137, 25, 168, 88
-1.00428, 149, 273, 180, 336
-1.00428, 153, 241, 184, 368
-1.00428, 353, 97, 384, 224
-1.00429, 313, 49, 344, 112
-1.00429, 265, 65, 296, 128
-1.00429, 117, 65, 148, 128
-1.00429, 333, 129, 364, 192
-1.00431, 441, 249, 472, 312
-1.00433, 337, 225, 368, 352
-1.00435, 185, 241, 216, 304
-1.00435, 49, 297, 80, 360
-1.00437, 309, 305, 340, 368
-1.00437, 241, 105, 272, 168
-1.00438, 365, 81, 396, 208
-1.00438, 289, 81, 352, 208
-1.0044, 453, 33, 484, 160
-1.0044, 397, 129, 428, 192
-1.00451, 241, 225, 272, 288
-1.00455, 277, 241, 308, 304
-1.0046, 409, 49, 440, 112
-1.0046, 1, 289, 32, 352
-1.00465, 381, 193, 412, 320
-1.00467, 25, 241, 56, 368
-1.00469, 397, 305, 428, 368
-1.0047, 73, 17, 136, 144
-1.0047, 249, 113, 312, 240
-1.00472, 309, 281, 340, 344
-1.00472, 281, 281, 312, 344
-1.00473, 385, 97, 448, 352
-1.00474, 77, 121, 108, 184
-1.00474, 289, 241, 320, 368
-1.00474, 357, 241, 388, 368
-1.00476, 181, 313, 212, 375
-1.00477, 329, 89, 360, 152
-1.00477, 125, 41, 156, 104
-1.00479, 397, 33, 428, 96
-1.00479, 385, 233, 416, 296
-1.0048, 85, 81, 116, 144
-1.00482, 221, 249, 252, 312
-1.00486, 93, 97, 124, 224
-1.00486, 45, 209, 76, 272
-1.00487, 273, 177, 336, 304
-1.00489, 269, 281, 300, 344
-1.0049, 341, 105, 372, 168
-1.00494, 277, 193, 308, 320
-1.00495, 329, 113, 360, 240
-1.00495, 121, 313, 152, 375
-1.00496, 65, 273, 96, 336
-1.00498, 33, 129, 288, 375
-1.00499, 289, 65, 320, 128
-1.005, 241, 57, 272, 120
-1.005, 381, 145, 412, 272
-1.005, 453, 97, 484, 160
-1.00502, 293, 25, 324, 88
-1.00503, 117, 289, 148, 352
-1.00503, 465, 49, 496, 176
-1.00505, 325, 41, 356, 104
-1.00505, 297, 281, 328, 344
-1.00505, 73, 313, 104, 375
-1.00505, 225, 273, 256, 336
-1.00508, 21, 209, 52, 272
-1.00508, 409, 313, 440, 375
-1.00508, 361, 177, 392, 304
-1.00509, 97, 97, 224, 224
-1.0051, 53, 241, 84, 368
-1.0051, 97, 81, 160, 208
-1.00513, 1, 225, 64, 352
-1.00519, 225, 193, 288, 320
-1.00521, 237, 177, 268, 304
-1.00528, 301, 241, 332, 368
-1.00529, 253, 113, 284, 240
-1.00531, 269, 113, 300, 240
-1.00534, 249, 129, 312, 375
-1.0054, 97, 241, 128, 368
-1.00542, 193, 193, 224, 320
-1.00546, 113, 1, 144, 128
-1.00549, 305, 129, 368, 256
-1.0055, 341, 129, 372, 256
-1.00552, 209, 97, 272, 352
-1.00552, 465, 241, 496, 368
-1.00553, 389, 97, 420, 224
-1.00556, 377, 97, 408, 224
-1.00556, 73, 209, 104, 336
-1.00559, 105, 97, 136, 224
-1.00571, 37, 49, 68, 176
-1.00581, 313, 193, 376, 320
-1.00588, 37, 241, 68, 368
-1.0059, 365, 129, 396, 256
-1.00591, 209, 129, 272, 256
-1.00593, 313, 81, 344, 208
-1.00594, 289, 193, 320, 320
-1.00595, 281, 97, 344, 352
-1.00605, 73, 161, 104, 288
-1.00615, 97, 1, 128, 128
-1.00615, 465, 1, 496, 128
-1.00615, 337, 177, 368, 304
-1.00626, 349, 177, 380, 304
-1.00627, 321, 177, 352, 304
-1.00629, 281, 97, 312, 224
-1.00635, 409, 97, 440, 224
-1.00637, 217, 177, 248, 304
-1.0065, 241, 129, 272, 256
-1.00659, 181, 193, 212, 320
-1.00661, 301, 193, 332, 320
-1.00662, 25, 49, 56, 176
-1.00664, 317, 129, 348, 256
-1.00695, 329, 129, 392, 256
-1.00703, 329, 129, 392, 375
-1.00721, 145, 97, 272, 224
-1.00727, 105, 129, 168, 375
-1.00773, 185, 129, 248, 375
-1.00776, 97, 145, 224, 272
-1.00811, 169, 193, 232, 320
-1.00847, 281, 129, 344, 256
-1.00847, 161, 129, 224, 375
-1.00857, 73, 193, 136, 320
-1.0087, 145, 193, 208, 320
-1.00886, 105, 193, 168, 320
-1.0094, 129, 129, 192, 375
-1.00948, 129, 49, 192, 176
-1.0097, 49, 17, 112, 144
-1.01042, 177, 129, 240, 256
-1.01065, 153, 49, 216, 176
-1.01078, 25, 1, 88, 128
-1.01159, 193, 65, 256, 192
-1.01214, 1, 1, 64, 128
-1.01377, 97, 129, 160, 256
-1.01393, 129, 145, 192, 272
-1.01416, 121, 97, 184, 224
-1.01416, 153, 97, 216, 224
-1.01529, 153, 145, 216, 272
-1.02392, 161, 97, 416, 352
