1876
-0.37513, 1, 65, 500, 320
-0.385709, 1, 1, 256, 334
-0.437291, 1, 1, 500, 334
-0.478729, 1, 33, 256, 288
-0.494559, 257, 1, 500, 334
-0.508806, 129, 1, 384, 334
-0.550083, 129, 65, 384, 320
-0.57082, 257, 65, 500, 320
-0.846397, 193, 65, 320, 320
-0.854198, 49, 1, 176, 334
-0.855347, 49, 33, 176, 288
-0.860635, 273, 1, 400, 334
-0.871307, 1, 193, 500, 320
-0.872771, 273, 65, 400, 320
-0.873296, 113, 65, 240, 320
-0.874073, 1, 33, 128, 288
-0.878748, 353, 65, 480, 320
-0.881855, 1, 1, 128, 334
-0.882614, 97, 1, 224, 334
-0.882771, 209, 1, 336, 334
-0.882775, 321, 1, 448, 334
-0.884684, 1, 129, 500, 256
-0.892014, 161, 161, 416, 288
-0.893706, 1, 145, 256, 272
-0.894822, 1, 81, 256, 208
-0.896777, 97, 113, 352, 240
-0.897516, 369, 1, 496, 334
-0.897639, 145, 1, 272, 334
-0.899219, 1, 81, 500, 208
-0.900139, 257, 113, 500, 240
-0.900203, 1, 193, 256, 320
-0.91243, 177, 129, 304, 256
-0.915685, 1, 17, 500, 144
-0.921037, 129, 209, 384, 334
-0.925273, 1, 193, 128, 320
-0.92628, 225, 129, 352, 256
-0.926446, 225, 193, 352, 320
-0.927332, 257, 161, 500, 288
-0.927942, 257, 65, 500, 192
-0.928522, 1, 193, 64, 320
-0.928638, 193, 113, 256, 240
-0.930173, 97, 65, 352, 192
-0.931032, 241, 113, 304, 240
-0.931923, 1, 33, 256, 160
-0.933094, 273, 177, 400, 304
-0.933186, 49, 113, 176, 240
-0.934084, 97, 145, 224, 272
-0.934443, 177, 193, 304, 320
-0.935046, 113, 193, 240, 320
-0.935898, 33, 17, 96, 144
-0.936062, 49, 177, 176, 304
-0.937167, 57, 193, 120, 320
-0.937349, 25, 193, 88, 320
-0.937516, 17, 33, 144, 160
-0.937971, 273, 193, 336, 320
-0.938802, 177, 177, 240, 304
-0.939578, 321, 129, 448, 256
-0.939964, 33, 113, 96, 240
-0.940743, 217, 113, 280, 240
-0.942105, 265, 129, 328, 256
-0.942785, 273, 113, 400, 240
-0.9435, 209, 209, 272, 334
-0.94423, 225, 209, 480, 334
-0.945394, 153, 209, 216, 334
-0.945894, 9, 193, 72, 256
-0.945966, 289, 145, 352, 272
-0.946341, 49, 65, 112, 192
-0.946759, 249, 193, 312, 320
-0.947421, 185, 129, 248, 192
-0.948414, 273, 193, 336, 256
-0.949768, 113, 209, 176, 334
-0.950186, 97, 97, 224, 224
-0.950302, 177, 185, 240, 248
-0.950375, 97, 17, 352, 144
-0.950986, 9, 65, 72, 192
-0.951725, 417, 129, 480, 256
-0.951731, 1, 145, 128, 272
-0.952039, 257, 161, 320, 224
-0.952801, 297, 193, 360, 320
-0.953001, 233, 129, 296, 192
-0.953771, 73, 65, 136, 192
-0.953802, 169, 129, 232, 256
-0.954, 369, 129, 496, 256
-0.954116, 385, 129, 448, 256
-0.954494, 297, 161, 360, 224
-0.955182, 417, 153, 480, 216
-0.955258, 25, 73, 88, 136
-0.955852, 209, 161, 272, 288
-0.956058, 209, 177, 272, 240
-0.956247, 257, 137, 320, 200
-0.956267, 25, 105, 88, 168
-0.956333, 177, 209, 240, 272
-0.95726, 225, 81, 352, 208
-0.957359, 89, 193, 152, 320
-0.957557, 297, 97, 360, 224
-0.957668, 353, 193, 480, 320
-0.958145, 65, 145, 128, 272
-0.958161, 65, 17, 192, 144
-0.958288, 289, 49, 416, 176
-0.958598, 9, 145, 72, 272
-0.959044, 185, 161, 248, 224
-0.959125, 313, 145, 376, 272
-0.959186, 369, 65, 496, 192
-0.95946, 49, 65, 112, 128
-0.959493, 249, 201, 312, 264
-0.959606, 97, 241, 160, 304
-0.959688, 193, 1, 448, 128
-0.959904, 153, 177, 216, 240
-0.960282, 65, 97, 128, 160
-0.960903, 121, 209, 184, 272
-0.961057, 49, 33, 112, 96
-0.961185, 1, 97, 128, 224
-0.96126, 177, 81, 304, 208
-0.961395, 281, 137, 344, 200
-0.96281, 433, 129, 496, 192
-0.96306, 345, 113, 408, 240
-0.96376, 297, 185, 360, 248
-0.963872, 273, 217, 336, 280
-0.964023, 33, 201, 96, 264
-0.964038, 217, 209, 280, 272
-0.964084, 25, 49, 88, 112
-0.964205, 145, 217, 208, 280
-0.964255, 305, 1, 432, 128
-0.964696, 25, 33, 88, 288
-0.964962, 393, 137, 456, 200
-0.965155, 401, 81, 464, 208
-0.965342, 337, 193, 400, 320
-0.965541, 33, 161, 96, 224
-0.965707, 177, 129, 304, 192
-0.96578, 433, 177, 496, 304
-0.965832, 33, 89, 64, 152
-0.965894, 289, 177, 320, 240
-0.965986, 9, 217, 72, 280
-0.966066, 129, 49, 256, 176
-0.966332, 197, 113, 228, 240
-0.966429, 145, 145, 208, 272
-0.966444, 305, 209, 368, 272
-0.96654, 33, 241, 96, 304
-0.966781, 73, 17, 136, 144
-0.967081, 65, 257, 128, 320
-0.967101, 25, 25, 88, 88
-0.967544, 105, 89, 168, 152
-0.967569, 57, 193, 120, 256
-0.967614, 33, 57, 64, 120
-0.967628, 37, 49, 68, 176
-0.967814, 113, 161, 176, 288
-0.967831, 273, 81, 336, 208
-0.968122, 209, 121, 272, 184
-0.96818, 193, 161, 320, 224
-0.968218, 9, 17, 72, 144
-0.968246, 49, 1, 112, 256
-0.96841, 113, 113, 176, 176
-0.968578, 9, 249, 72, 312
-0.968775, 305, 233, 368, 296
-0.968981, 97, 81, 160, 208
-0.96899, 377, 81, 440, 208
-0.969257, 185, 233, 248, 296
-0.969506, 433, 81, 496, 208
-0.969524, 197, 177, 228, 240
-0.969726, 81, 209, 144, 272
-0.969737, 61, 193, 92, 320
-0.9699, 201, 65, 264, 320
-0.970011, 73, 121, 136, 184
-0.970037, 89, 129, 152, 256
-0.970095, 337, 137, 464, 200
-0.970179, 45, 73, 76, 136
-0.970324, 425, 177, 488, 240
-0.970345, 1, 89, 64, 152
-0.97045, 65, 169, 128, 232
-0.970575, 241, 169, 368, 232
-0.970905, 217, 113, 248, 240
-0.970913, 41, 209, 72, 334
-0.970969, 265, 113, 296, 240
-0.971058, 237, 113, 268, 240
-0.971087, 285, 145, 316, 208
-0.971174, 225, 201, 352, 264
-0.971195, 145, 121, 208, 184
-0.971229, 233, 153, 296, 216
-0.971284, 17, 73, 144, 136
-0.971323, 129, 257, 192, 320
-0.971337, 49, 105, 176, 168
-0.971425, 301, 145, 332, 272
-0.971456, 209, 233, 272, 296
-0.971502, 25, 193, 56, 320
-0.971644, 169, 257, 232, 320
-0.971696, 269, 129, 300, 192
-0.971795, 289, 129, 416, 192
-0.971842, 337, 137, 400, 200
-0.971906, 45, 113, 76, 176
-0.971928, 49, 201, 176, 264
-0.972107, 257, 65, 320, 320
-0.972156, 49, 49, 80, 176
-0.972309, 189, 193, 220, 320
-0.972519, 17, 185, 48, 248
-0.972537, 185, 177, 216, 240
-0.972667, 97, 169, 224, 232
-0.972685, 145, 153, 208, 216
-0.972819, 233, 241, 296, 304
-0.972844, 285, 193, 316, 320
-0.972859, 49, 129, 112, 192
-0.972899, 73, 233, 136, 296
-0.973062, 41, 129, 72, 256
-0.973104, 241, 137, 368, 200
-0.973121, 209, 153, 272, 216
-0.973174, 321, 169, 384, 232
-0.973196, 205, 209, 236, 272
-0.97321, 129, 193, 256, 256
-0.973304, 197, 121, 228, 184
-0.973325, 177, 201, 304, 264
-0.973437, 17, 129, 80, 192
-0.973469, 361, 145, 424, 208
-0.973477, 49, 9, 112, 72
-0.973538, 289, 177, 416, 240
-0.973758, 53, 49, 84, 112
-0.973833, 225, 65, 288, 192
-0.973836, 361, 121, 424, 184
-0.973906, 13, 177, 44, 304
-0.974044, 249, 113, 280, 240
-0.97405, 17, 81, 48, 144
-0.97413, 337, 241, 400, 304
-0.974264, 145, 81, 208, 208
-0.974312, 233, 177, 296, 240
-0.974352, 177, 65, 240, 320
-0.974412, 281, 129, 312, 256
-0.974434, 1, 185, 128, 248
-0.974605, 345, 217, 408, 280
-0.974634, 225, 65, 288, 320
-0.974641, 309, 193, 340, 320
-0.974662, 273, 241, 336, 304
-0.974744, 237, 121, 268, 184
-0.974962, 433, 241, 496, 304
-0.975018, 53, 25, 84, 88
-0.97503, 301, 153, 332, 216
-0.975138, 57, 97, 88, 224
-0.975169, 1, 193, 32, 320
-0.975184, 213, 193, 244, 320
-0.975275, 57, 1, 88, 128
-0.975391, 73, 73, 136, 136
-0.975421, 49, 129, 176, 192
-0.975424, 305, 137, 368, 200
-0.975495, 25, 49, 56, 176
-0.975499, 129, 217, 256, 280
-0.975599, 1, 49, 128, 112
-0.975602, 269, 161, 300, 224
-0.975608, 277, 193, 308, 256
-0.975681, 297, 113, 360, 176
-0.975749, 41, 209, 72, 272
-0.975753, 229, 161, 260, 288
-0.9758, 77, 193, 108, 320
-0.975906, 113, 145, 240, 208
-0.975982, 49, 169, 176, 232
-0.976052, 297, 65, 360, 320
-0.976228, 393, 193, 456, 320
-0.976252, 261, 201, 292, 264
-0.976259, 453, 137, 484, 200
-0.976426, 121, 233, 184, 296
-0.976455, 185, 129, 216, 256
-0.976571, 469, 129, 500, 256
-0.976578, 193, 201, 224, 264
-0.976697, 301, 193, 332, 256
-0.976731, 289, 201, 320, 264
-0.976785, 209, 241, 336, 304
-0.976798, 313, 177, 344, 240
-0.976865, 433, 217, 496, 280
-0.976955, 113, 185, 176, 248
-0.976959, 201, 177, 232, 304
-0.977032, 253, 193, 284, 320
-0.977059, 417, 129, 448, 256
-0.977159, 429, 137, 460, 200
-0.977197, 153, 97, 216, 160
-0.977606, 133, 217, 164, 280
-0.977618, 369, 113, 496, 176
-0.977626, 73, 33, 136, 96
-0.977647, 121, 81, 184, 208
-0.977661, 49, 33, 176, 96
-0.977772, 385, 113, 448, 176
-0.977829, 453, 129, 484, 256
-0.977853, 109, 241, 140, 304
-0.977896, 97, 121, 224, 184
-0.977904, 161, 241, 288, 304
-0.977963, 441, 129, 472, 192
-0.977971, 157, 209, 188, 334
-0.97802, 9, 169, 72, 232
-0.978023, 173, 185, 204, 248
-0.97809, 1, 49, 64, 112
-0.978114, 217, 217, 248, 280
-0.97814, 1, 33, 64, 288
-0.978141, 289, 201, 416, 264
-0.978179, 93, 193, 124, 320
-0.978236, 469, 177, 500, 240
-0.978341, 313, 257, 376, 320
-0.978404, 241, 193, 272, 320
-0.978417, 177, 177, 208, 304
-0.978622, 325, 177, 356, 304
-0.978644, 417, 137, 448, 200
-0.978646, 21, 49, 52, 112
-0.978735, 65, 145, 96, 272
-0.978761, 257, 241, 384, 304
-0.978816, 73, 33, 136, 288
-0.978893, 257, 129, 288, 192
-0.978921, 217, 161, 248, 224
-0.979123, 97, 265, 160, 328
-0.979134, 37, 33, 68, 96
-0.979219, 213, 241, 244, 304
-0.979286, 121, 217, 152, 280
-0.979365, 65, 113, 96, 176
-0.979398, 297, 193, 328, 320
-0.979398, 25, 209, 56, 272
-0.979463, 213, 129, 244, 192
-0.97954, 449, 241, 480, 304
-0.979609, 321, 97, 384, 224
-0.979672, 441, 161, 472, 288
-0.979688, 153, 217, 184, 280
-0.979694, 401, 129, 432, 256
-0.97974, 273, 193, 304, 320
-0.97991, 353, 65, 416, 192
-0.979983, 45, 233, 76, 296
-0.980003, 385, 65, 448, 320
-0.980034, 289, 153, 416, 216
-0.980114, 105, 193, 136, 320
-0.980115, 273, 105, 400, 168
-0.980167, 1, 249, 128, 312
-0.98018, 113, 17, 176, 144
-0.980204, 425, 105, 488, 168
-0.980205, 145, 169, 272, 232
-0.980235, 337, 193, 400, 256
-0.980344, 337, 217, 464, 280
-0.980432, 241, 33, 368, 160
-0.980434, 393, 233, 456, 296
-0.98044, 69, 65, 100, 192
-0.980622, 105, 65, 168, 320
-0.980654, 305, 249, 432, 312
-0.98078, 185, 65, 248, 192
-0.980792, 197, 145, 228, 208
-0.980795, 41, 1, 104, 334
-0.980806, 61, 193, 92, 256
-0.98082, 237, 209, 268, 272
-0.980832, 469, 137, 500, 200
-0.980868, 29, 97, 60, 224
-0.980921, 173, 217, 204, 280
-0.980987, 49, 249, 176, 312
-0.981049, 249, 265, 312, 328
-0.981161, 81, 113, 112, 240
-0.981276, 229, 209, 260, 334
-0.981284, 73, 41, 104, 104
-0.981291, 89, 257, 120, 320
-0.981348, 1, 209, 128, 272
-0.981439, 425, 65, 488, 320
-0.981602, 429, 145, 460, 272
-0.981682, 113, 97, 144, 160
-0.981743, 361, 193, 424, 320
-0.981779, 305, 217, 336, 280
-0.981841, 145, 209, 176, 334
-0.981849, 185, 105, 248, 168
-0.981885, 449, 161, 480, 224
-0.982043, 237, 177, 268, 240
-0.982207, 145, 65, 208, 320
-0.982245, 377, 177, 440, 240
-0.98226, 113, 97, 240, 160
-0.982268, 113, 257, 240, 320
-0.982289, 1, 97, 128, 160
-0.982289, 181, 153, 212, 216
-0.982304, 53, 145, 84, 272
-0.982316, 209, 185, 240, 248
-0.982491, 369, 161, 496, 224
-0.982552, 353, 1, 480, 128
-0.982634, 9, 1, 72, 64
-0.982709, 105, 209, 136, 272
-0.982739, 17, 1, 80, 334
-0.98277, 337, 113, 400, 176
-0.982794, 457, 193, 488, 320
-0.982837, 49, 225, 176, 288
-0.982838, 249, 201, 280, 264
-0.982979, 177, 265, 304, 328
-0.983034, 193, 257, 256, 320
-0.983038, 73, 137, 104, 200
-0.98311, 337, 193, 368, 320
-0.98314, 257, 113, 320, 176
-0.983282, 257, 265, 384, 328
-0.983381, 349, 193, 380, 320
-0.983392, 349, 241, 380, 304
-0.983405, 1, 161, 128, 224
-0.983524, 13, 217, 44, 280
-0.98357, 65, 161, 96, 224
-0.983572, 325, 169, 356, 232
-0.983759, 1, 121, 128, 184
-0.983793, 41, 177, 72, 240
-0.983806, 89, 161, 152, 224
-0.984244, 45, 1, 76, 128
-0.984283, 97, 137, 160, 200
-0.984295, 281, 233, 312, 296
-0.984309, 1, 209, 32, 272
-0.984338, 353, 241, 480, 304
-0.98435, 57, 81, 88, 144
-0.984354, 41, 265, 104, 328
-0.984388, 225, 113, 352, 176
-0.984408, 321, 105, 448, 168
-0.984447, 401, 257, 464, 320
-0.984453, 65, 9, 192, 72
-0.984455, 297, 241, 328, 304
-0.984499, 121, 209, 152, 334
-0.984512, 273, 265, 336, 328
-0.984548, 377, 201, 440, 264
-0.984595, 409, 209, 472, 272
-0.984611, 425, 265, 488, 328
-0.984612, 241, 241, 272, 304
-0.984722, 57, 249, 88, 312
-0.984766, 65, 81, 192, 144
-0.984794, 337, 241, 368, 304
-0.98484, 73, 73, 104, 136
-0.984914, 337, 265, 400, 328
-0.984957, 393, 145, 424, 208
-0.984962, 73, 9, 136, 72
-0.984965, 33, 1, 64, 128
-0.984967, 29, 249, 60, 312
-0.985008, 85, 97, 116, 160
-0.985034, 29, 185, 60, 248
-0.985065, 261, 241, 292, 304
-0.985242, 125, 105, 156, 168
-0.985252, 405, 137, 436, 200
-0.985259, 305, 49, 368, 176
-0.9853, 469, 217, 500, 280
-0.985325, 69, 257, 100, 320
-0.985355, 465, 113, 496, 176
-0.985386, 345, 169, 408, 232
-0.985458, 17, 273, 80, 334
-0.98546, 289, 57, 416, 120
-0.985464, 21, 105, 52, 168
-0.985476, 61, 137, 92, 200
-0.985508, 121, 81, 152, 208
-0.98553, 225, 129, 256, 192
-0.985565, 9, 241, 40, 304
-0.985713, 361, 97, 424, 160
-0.985721, 425, 233, 456, 296
-0.985827, 93, 113, 124, 240
-0.985827, 337, 145, 368, 272
-0.985845, 69, 17, 100, 144
-0.985845, 101, 105, 132, 168
-0.985859, 93, 73, 124, 136
-0.985892, 65, 57, 192, 120
-0.985905, 297, 1, 360, 128
-0.985914, 305, 1, 368, 334
-0.985958, 25, 145, 56, 272
-0.98596, 1, 25, 128, 88
-0.986059, 429, 81, 460, 208
-0.98617, 141, 113, 172, 176
-0.986251, 89, 185, 152, 248
-0.986352, 389, 129, 420, 256
-0.986463, 133, 209, 164, 334
-0.986479, 249, 177, 280, 240
-0.986498, 153, 257, 184, 320
-0.986517, 433, 257, 464, 320
-0.986543, 437, 161, 468, 224
-0.986582, 81, 17, 112, 144
-0.986607, 193, 225, 224, 288
-0.986642, 25, 25, 56, 88
-0.986671, 361, 65, 424, 320
-0.986699, 193, 249, 224, 312
-0.986726, 381, 137, 412, 200
-0.98675, 225, 265, 288, 328
-0.98678, 105, 49, 168, 112
-0.986857, 369, 121, 400, 184
-0.986924, 225, 241, 256, 304
-0.986953, 289, 33, 416, 96
-0.987001, 305, 81, 432, 144
-0.987056, 81, 65, 112, 192
-0.987111, 457, 193, 488, 256
-0.987132, 181, 257, 212, 320
-0.987139, 249, 65, 312, 192
-0.987158, 453, 113, 484, 176
-0.987188, 33, 113, 64, 176
-0.987196, 1, 273, 128, 334
-0.987204, 217, 97, 280, 160
-0.987219, 309, 241, 340, 304
-0.987251, 353, 265, 480, 328
-0.987274, 313, 145, 344, 208
-0.987336, 221, 185, 252, 248
-0.987348, 321, 65, 384, 320
-0.987376, 5, 185, 36, 248
-0.987423, 1, 25, 64, 88
-0.987424, 441, 113, 472, 240
-0.987435, 401, 81, 432, 208
-0.987517, 129, 1, 192, 334
-0.98752, 305, 9, 432, 72
-0.987546, 121, 249, 152, 312
-0.987571, 245, 153, 276, 216
-0.987587, 401, 1, 464, 334
-0.987637, 305, 97, 336, 224
-0.987727, 469, 193, 500, 320
-0.987783, 281, 121, 312, 184
-0.987801, 401, 177, 464, 240
-0.987805, 273, 1, 336, 334
-0.98781, 129, 89, 192, 152
-0.987817, 161, 161, 416, 224
-0.987826, 261, 273, 292, 334
-0.987883, 285, 81, 316, 208
-0.987929, 349, 217, 380, 280
-0.987945, 121, 193, 152, 256
-0.987957, 369, 89, 496, 152
-0.987996, 9, 197, 72, 228
-0.988014, 257, 153, 288, 216
-0.988322, 357, 113, 388, 240
-0.988329, 129, 65, 192, 128
-0.988371, 225, 89, 352, 152
-0.988377, 457, 81, 488, 208
-0.988379, 317, 129, 348, 256
-0.988403, 273, 197, 336, 228
-0.988427, 321, 241, 352, 304
-0.988443, 113, 1, 240, 128
-0.988445, 97, 137, 352, 200
-0.988459, 445, 217, 476, 280
-0.988469, 373, 129, 404, 256
-0.988489, 337, 161, 368, 224
-0.9885, 177, 105, 304, 168
-0.988503, 65, 1, 128, 334
-0.988544, 9, 81, 72, 112
-0.988556, 1, 209, 256, 272
-0.988574, 109, 65, 140, 192
-0.988657, 369, 225, 432, 288
-0.988705, 425, 1, 488, 334
-0.988707, 229, 153, 260, 216
-0.988715, 17, 1, 48, 128
-0.988717, 129, 73, 256, 136
-0.988785, 433, 137, 496, 168
-0.988796, 457, 217, 488, 280
-0.988837, 193, 1, 256, 334
-0.988841, 281, 157, 344, 188
-0.988848, 273, 89, 336, 152
-0.988896, 369, 257, 432, 320
-0.988909, 1, 169, 256, 232
-0.988922, 121, 129, 152, 256
-0.98893, 1, 145, 256, 208
-0.988972, 169, 249, 200, 312
-0.988972, 97, 193, 352, 256
-0.988979, 369, 185, 496, 248
-0.989042, 89, 33, 120, 96
-0.989058, 377, 1, 440, 334
-0.989159, 217, 65, 248, 192
-0.989201, 169, 221, 232, 252
-0.989208, 149, 193, 180, 256
-0.989242, 249, 165, 312, 196
-0.989264, 353, 137, 384, 200
-0.989272, 33, 65, 96, 96
-0.989276, 177, 173, 240, 204
-0.989294, 137, 33, 200, 160
-0.989302, 237, 65, 268, 192
-0.989305, 89, 233, 120, 296
-0.989326, 73, 185, 104, 248
-0.989365, 9, 209, 72, 240
-0.989411, 273, 33, 336, 160
-0.98942, 33, 201, 96, 232
-0.989431, 185, 145, 248, 176
-0.989508, 257, 137, 500, 200
-0.989511, 97, 253, 160, 284
-0.989535, 33, 77, 96, 108
-0.989543, 185, 133, 248, 164
-0.989557, 61, 1, 92, 64
-0.989573, 353, 1, 416, 334
-0.989576, 385, 145, 448, 176
-0.989586, 49, 33, 112, 64
-0.989587, 73, 257, 136, 288
-0.989605, 249, 205, 312, 236
-0.989632, 389, 81, 420, 208
-0.989645, 97, 105, 160, 136
-0.989672, 145, 217, 208, 248
-0.989674, 25, 113, 88, 144
-0.989679, 25, 93, 88, 124
-0.989708, 177, 205, 240, 236
-0.98971, 225, 1, 288, 334
-0.989716, 265, 217, 328, 248
-0.989729, 17, 237, 80, 268
-0.989729, 113, 161, 176, 224
-0.989782, 433, 125, 496, 156
-0.989787, 173, 129, 204, 256
-0.989799, 57, 201, 120, 232
-0.98982, 33, 45, 96, 76
-0.989823, 225, 129, 288, 160
-0.989862, 185, 161, 248, 192
-0.989875, 297, 185, 360, 216
-0.989875, 257, 153, 320, 184
-0.989895, 17, 1, 144, 64
-0.989905, 9, 45, 72, 76
-0.989929, 25, 253, 88, 284
-0.989937, 209, 173, 272, 204
-0.990011, 297, 145, 360, 176
-0.990046, 425, 149, 488, 180
-0.990066, 65, 101, 128, 132
-0.990081, 305, 249, 368, 280
-0.99009, 273, 169, 336, 200
-0.990116, 209, 217, 272, 248
-0.990117, 297, 33, 360, 96
-0.990131, 153, 201, 216, 232
-0.990178, 9, 221, 72, 252
-0.99019, 113, 121, 176, 152
-0.990239, 249, 1, 312, 334
-0.99026, 1, 113, 256, 176
-0.990269, 105, 269, 168, 300
-0.990307, 193, 185, 256, 216
-0.990312, 137, 261, 200, 292
-0.990327, 49, 121, 112, 152
-0.990334, 217, 161, 280, 192
-0.990349, 297, 173, 360, 204
-0.99036, 13, 49, 44, 176
-0.990377, 273, 233, 336, 264
-0.99042, 9, 33, 72, 64
-0.990444, 409, 137, 472, 168
-0.990444, 385, 1, 448, 128
-0.990463, 25, 125, 88, 156
-0.990495, 185, 233, 248, 264
-0.990532, 113, 229, 176, 260
-0.990556, 249, 133, 312, 164
-0.99061, 33, 181, 96, 212
-0.990631, 121, 213, 184, 244
-0.99065, 273, 185, 336, 216
-0.990662, 57, 77, 120, 108
-0.990673, 65, 89, 128, 120
-0.990715, 225, 113, 480, 176
-0.990726, 417, 173, 480, 204
-0.990731, 153, 181, 216, 212
-0.990736, 33, 213, 96, 244
-0.990738, 201, 121, 264, 152
-0.99075, 345, 133, 408, 164
-0.990751, 1, 261, 64, 292
-0.990751, 169, 265, 232, 296
-0.990756, 49, 253, 112, 284
-0.990773, 65, 269, 128, 300
-0.990778, 17, 97, 48, 224
-0.99078, 193, 185, 448, 248
-0.990783, 89, 1, 152, 334
-0.990852, 297, 237, 360, 268
-0.990858, 1, 249, 64, 280
-0.990892, 89, 93, 152, 124
-0.990897, 49, 21, 112, 52
-0.990898, 9, 61, 72, 92
-0.990918, 329, 49, 392, 176
-0.990925, 413, 81, 444, 208
-0.990925, 305, 197, 368, 228
-0.990945, 121, 137, 184, 200
-0.990994, 433, 161, 496, 192
-0.990995, 1, 49, 256, 112
-0.990995, 73, 125, 136, 156
-0.991018, 73, 233, 136, 264
-0.991018, 129, 241, 384, 304
-0.99103, 297, 133, 360, 164
-0.991044, 93, 49, 124, 176
-0.991046, 145, 149, 208, 180
-0.991048, 105, 241, 168, 272
-0.991067, 65, 137, 128, 168
-0.991068, 433, 253, 496, 284
-0.991115, 145, 125, 208, 156
-0.991128, 153, 165, 216, 196
-0.991177, 369, 129, 432, 160
-0.991194, 233, 241, 296, 272
-0.9912, 41, 241, 104, 272
-0.991214, 297, 217, 360, 248
-0.991217, 257, 161, 500, 224
-0.99122, 249, 193, 312, 224
-0.991239, 273, 249, 336, 280
-0.991246, 329, 165, 392, 196
-0.991253, 425, 185, 488, 216
-0.991274, 217, 205, 280, 236
-0.991277, 193, 257, 256, 288
-0.991287, 65, 189, 128, 220
-0.991301, 1, 93, 64, 124
-0.991304, 209, 233, 272, 264
-0.991306, 57, 45, 120, 76
-0.991306, 153, 1, 216, 334
-0.991329, 273, 141, 336, 172
-0.991362, 89, 81, 152, 112
-0.991401, 1, 89, 256, 152
-0.991417, 145, 273, 208, 304
-0.991422, 249, 177, 312, 208
-0.991427, 113, 93, 176, 124
-0.991434, 97, 213, 160, 244
-0.991434, 345, 257, 408, 288
-0.991476, 225, 265, 288, 296
-0.991489, 305, 273, 432, 334
-0.991493, 321, 237, 384, 268
-0.991503, 393, 157, 456, 188
-0.991505, 261, 65, 292, 192
-0.991518, 25, 21, 88, 52
-0.991544, 353, 209, 416, 240
-0.991561, 9, 185, 72, 216
-0.991569, 161, 233, 224, 264
-0.991572, 97, 217, 352, 280
-0.991573, 113, 201, 176, 232
-0.991576, 337, 1, 400, 128
-0.991601, 345, 145, 408, 176
-0.99161, 201, 245, 264, 276
-0.99161, 409, 125, 472, 156
-0.991627, 241, 217, 304, 248
-0.991644, 1, 209, 500, 272
-0.991644, 233, 229, 296, 260
-0.991658, 393, 241, 456, 272
-0.991669, 393, 253, 456, 284
-0.991672, 433, 241, 496, 272
-0.991673, 73, 245, 136, 276
-0.991681, 161, 161, 192, 288
-0.991708, 33, 137, 96, 168
-0.991709, 345, 245, 408, 276
-0.99171, 1, 109, 64, 140
-0.991715, 81, 201, 144, 232
-0.991809, 249, 65, 280, 192
-0.991897, 405, 209, 436, 334
-0.991909, 33, 77, 64, 108
-0.991925, 313, 89, 376, 152
-0.991933, 289, 197, 320, 228
-0.991963, 297, 1, 360, 64
-0.991983, 193, 209, 448, 272
-0.992048, 205, 65, 236, 192
-0.992054, 185, 173, 216, 204
-0.992077, 305, 57, 368, 120
-0.992083, 461, 141, 492, 172
-0.992092, 37, 113, 68, 144
-0.992117, 37, 65, 68, 96
-0.992134, 201, 129, 232, 160
-0.992144, 21, 85, 52, 116
-0.992201, 289, 157, 320, 188
-0.992236, 469, 81, 500, 208
-0.992244, 17, 189, 48, 220
-0.992278, 449, 137, 480, 168
-0.992292, 105, 145, 136, 272
-0.992306, 385, 65, 448, 128
-0.992319, 257, 249, 500, 312
-0.99234, 437, 137, 468, 168
-0.992346, 41, 81, 56, 144
-0.992358, 265, 201, 296, 232
-0.992364, 193, 213, 224, 244
-0.992368, 197, 185, 228, 216
-0.992378, 213, 209, 244, 240
-0.992384, 145, 161, 176, 288
-0.992394, 57, 201, 88, 232
-0.992398, 53, 49, 84, 80
-0.992412, 417, 141, 448, 172
-0.992417, 93, 257, 124, 288
-0.992437, 33, 93, 64, 124
-0.99244, 417, 193, 448, 320
-0.992448, 437, 149, 468, 180
-0.992454, 329, 1, 392, 334
-0.992463, 289, 181, 320, 212
-0.992464, 469, 125, 500, 156
-0.992466, 57, 25, 88, 56
-0.992478, 45, 125, 76, 156
-0.992493, 299, 177, 314, 240
-0.992503, 45, 97, 76, 128
-0.992522, 313, 185, 344, 216
-0.992524, 25, 213, 56, 244
-0.992531, 41, 217, 72, 248
-0.992539, 49, 77, 80, 108
-0.992541, 37, 45, 68, 76
-0.992542, 197, 201, 228, 232
-0.992553, 181, 185, 212, 216
-0.99256, 41, 233, 72, 264
-0.992565, 301, 165, 332, 196
-0.992573, 209, 205, 336, 236
-0.992586, 49, 37, 80, 68
-0.992591, 57, 65, 88, 96
-0.992594, 113, 97, 144, 128
-0.992623, 285, 145, 316, 176
-0.992624, 181, 217, 212, 248
-0.992627, 77, 257, 108, 288
-0.992633, 193, 141, 224, 172
-0.992644, 65, 149, 96, 180
-0.992645, 113, 253, 144, 284
-0.992647, 269, 161, 300, 192
-0.99265, 41, 201, 72, 232
-0.992651, 49, 113, 80, 144
-0.992654, 237, 157, 268, 188
-0.992657, 65, 117, 96, 148
-0.992662, 177, 161, 304, 192
-0.992679, 17, 201, 144, 232
-0.992683, 169, 217, 200, 248
-0.992692, 361, 193, 392, 320
-0.992693, 13, 201, 44, 232
-0.9927, 21, 65, 52, 96
-0.992702, 369, 49, 496, 112
-0.992703, 221, 169, 252, 200
-0.992709, 445, 209, 476, 334
-0.992714, 141, 121, 172, 152
-0.99272, 301, 237, 332, 268
-0.992722, 277, 197, 308, 228
-0.992724, 17, 97, 48, 128
-0.992728, 65, 257, 96, 288
-0.992729, 237, 125, 268, 156
-0.992738, 453, 125, 484, 156
-0.992739, 449, 149, 480, 180
-0.992746, 1, 233, 500, 296
-0.99275, 33, 33, 64, 64
-0.992753, 153, 217, 184, 248
-0.992759, 197, 169, 228, 200
-0.992763, 273, 133, 304, 164
-0.992766, 281, 217, 312, 248
-0.992776, 449, 161, 480, 192
-0.992778, 29, 249, 60, 280
-0.992788, 253, 205, 284, 236
-0.992789, 65, 37, 96, 68
-0.992791, 337, 33, 400, 96
-0.992797, 181, 201, 212, 232
-0.992806, 291, 137, 306, 200
-0.99281, 337, 253, 368, 284
-0.99281, 301, 197, 332, 228
-0.992817, 217, 233, 248, 264
-0.992827, 41, 249, 72, 280
-0.992835, 81, 129, 112, 160
-0.992843, 129, 117, 160, 148
-0.992843, 9, 257, 40, 288
-0.992844, 125, 105, 156, 136
-0.992849, 249, 129, 280, 160
-0.992849, 217, 133, 248, 164
-0.992853, 9, 245, 40, 276
-0.992858, 453, 245, 484, 276
-0.992869, 117, 241, 148, 272
-0.992875, 317, 245, 348, 276
-0.992875, 469, 181, 500, 212
-0.992879, 429, 161, 460, 192
-0.992879, 25, 121, 56, 152
-0.992881, 269, 213, 300, 244
-0.992881, 25, 225, 56, 256
-0.992884, 221, 265, 252, 296
-0.992885, 1, 169, 500, 232
-0.992888, 393, 145, 424, 176
-0.992888, 5, 213, 36, 244
-0.99289, 321, 173, 352, 204
-0.992891, 77, 33, 108, 64
-0.992893, 313, 197, 344, 228
-0.992903, 69, 101, 100, 132
-0.992906, 301, 249, 332, 280
-0.992909, 349, 257, 380, 288
-0.992911, 301, 213, 332, 244
-0.992913, 285, 169, 316, 200
-0.992914, 241, 213, 272, 244
-0.992922, 249, 265, 280, 296
-0.992925, 97, 33, 224, 96
-0.992927, 9, 85, 40, 116
-0.992928, 333, 169, 364, 200
-0.99293, 213, 221, 244, 252
-0.992936, 441, 125, 472, 156
-0.992946, 101, 81, 132, 112
-0.992948, 457, 185, 488, 216
-0.992949, 217, 249, 248, 280
-0.992952, 361, 125, 392, 156
-0.992954, 185, 161, 216, 192
-0.99296, 461, 153, 492, 184
-0.99296, 173, 157, 204, 188
-0.99296, 73, 81, 104, 112
-0.99296, 301, 185, 332, 216
-0.992961, 113, 85, 144, 116
-0.992961, 197, 157, 228, 188
-0.992964, 225, 57, 352, 120
-0.992967, 25, 201, 56, 232
-0.992973, 69, 137, 100, 168
-0.992974, 433, 173, 464, 204
-0.992976, 281, 233, 312, 264
-0.992979, 25, 49, 56, 80
-0.992987, 21, 37, 52, 68
-0.992988, 61, 77, 92, 108
-0.992989, 53, 253, 84, 284
-0.992989, 69, 197, 100, 228
-0.992993, 45, 21, 76, 52
-0.992995, 261, 257, 292, 288
-0.993064, 177, 133, 304, 164
-0.993119, 97, 97, 352, 160
-0.993139, 47, 57, 62, 120
-0.993141, 189, 177, 204, 240
-0.993153, 353, 145, 480, 176
-0.993212, 33, 241, 288, 304
-0.993289, 241, 33, 368, 96
-0.993304, 361, 1, 424, 128
-0.993307, 1, 121, 500, 184
-0.993405, 353, 17, 480, 80
-0.99342, 241, 1, 368, 64
-0.993432, 51, 97, 66, 160
-0.99347, 257, 165, 384, 196
-0.993478, 307, 185, 322, 248
-0.993511, 113, 209, 240, 240
-0.993515, 297, 153, 312, 216
-0.99352, 441, 65, 472, 192
-0.993521, 217, 177, 232, 240
-0.993523, 373, 81, 404, 208
-0.993565, 31, 81, 46, 144
-0.993576, 113, 17, 176, 80
-0.993627, 59, 25, 74, 88
-0.993679, 133, 81, 164, 208
-0.99368, 97, 149, 224, 180
-0.993681, 291, 177, 306, 240
-0.993696, 389, 193, 420, 320
-0.99371, 285, 153, 300, 216
-0.993712, 33, 97, 160, 128
-0.993798, 353, 73, 416, 136
-0.9938, 329, 97, 360, 224
-0.993827, 329, 1, 392, 64
-0.993851, 199, 185, 214, 248
-0.9939, 39, 57, 54, 120
-0.993911, 33, 85, 160, 116
-0.99392, 257, 201, 384, 232
-0.993921, 1, 25, 256, 88
-0.993953, 241, 149, 368, 180
-0.993959, 281, 129, 296, 192
-0.993973, 217, 201, 232, 264
-0.993984, 65, 273, 192, 334
-0.993997, 129, 73, 384, 136
-0.994009, 309, 161, 324, 224
-0.994031, 469, 177, 484, 240
-0.994037, 369, 1, 432, 64
-0.994071, 49, 141, 176, 172
-0.994073, 257, 245, 384, 276
-0.994107, 177, 173, 304, 204
-0.994118, 1, 73, 128, 104
-0.994119, 313, 193, 328, 256
-0.994188, 161, 209, 288, 240
-0.99419, 377, 209, 408, 334
-0.994194, 209, 217, 336, 248
-0.994206, 49, 117, 176, 148
-0.994226, 273, 129, 400, 160
-0.994252, 55, 73, 70, 136
-0.994286, 1, 189, 128, 220
-0.994312, 177, 193, 304, 224
-0.994323, 183, 185, 198, 248
-0.994331, 121, 33, 152, 160
-0.994344, 447, 129, 462, 192
-0.994348, 19, 185, 34, 248
-0.994354, 303, 153, 318, 216
-0.9944, 193, 137, 208, 200
-0.994402, 273, 189, 400, 220
-0.994424, 479, 121, 494, 184
-0.994441, 113, 197, 240, 228
-0.99446, 195, 209, 210, 272
-0.994475, 129, 221, 256, 252
-0.994494, 41, 105, 56, 168
-0.994498, 225, 129, 240, 192
-0.994505, 209, 245, 336, 276
-0.994544, 467, 153, 482, 216
-0.994554, 1, 145, 500, 208
-0.994586, 265, 129, 280, 192
-0.994611, 223, 169, 238, 232
-0.994617, 33, 213, 160, 244
-0.994627, 237, 121, 252, 184
-0.994628, 35, 185, 50, 248
-0.99467, 289, 141, 416, 172
-0.994673, 257, 213, 384, 244
-0.994679, 275, 129, 290, 192
-0.994701, 257, 257, 384, 288
-0.994757, 49, 129, 176, 160
-0.994759, 67, 113, 82, 176
-0.994767, 453, 129, 468, 192
-0.994773, 49, 41, 176, 72
-0.99478, 257, 89, 500, 152
-0.994783, 211, 177, 226, 240
-0.994797, 1, 257, 500, 320
-0.994817, 113, 1, 240, 64
-0.994824, 457, 161, 472, 224
-0.994838, 45, 1, 76, 256
-0.994859, 97, 161, 224, 192
-0.99486, 225, 177, 352, 208
-0.994872, 177, 149, 304, 180
-0.994883, 57, 209, 72, 272
-0.99489, 401, 41, 464, 104
-0.994906, 97, 121, 224, 152
-0.994928, 33, 57, 48, 120
-0.994941, 473, 129, 488, 192
-0.994963, 97, 185, 224, 216
-0.994969, 17, 57, 144, 88
-0.994987, 103, 249, 118, 312
-0.995017, 285, 193, 300, 256
-0.995019, 49, 157, 176, 188
-0.995026, 117, 241, 132, 304
-0.99505, 203, 121, 218, 184
-0.995065, 65, 257, 192, 288
-0.99507, 1, 73, 500, 136
-0.995081, 209, 233, 336, 264
-0.995082, 45, 33, 60, 96
-0.995089, 139, 217, 154, 280
-0.99509, 231, 129, 246, 192
-0.995094, 1, 49, 500, 112
-0.995107, 419, 137, 434, 200
-0.995114, 129, 133, 256, 164
-0.995147, 319, 185, 334, 248
-0.99518, 57, 121, 72, 184
-0.99519, 273, 65, 304, 192
-0.995209, 273, 177, 400, 208
-0.995211, 17, 257, 144, 288
-0.995231, 429, 193, 460, 320
-0.995236, 187, 145, 202, 208
-0.995247, 129, 41, 384, 104
-0.995251, 193, 257, 320, 288
-0.995253, 431, 137, 446, 200
-0.995279, 257, 233, 384, 264
-0.995283, 361, 33, 424, 96
-0.995289, 279, 201, 294, 264
-0.995295, 49, 121, 64, 184
-0.995301, 251, 121, 266, 184
-0.995304, 289, 153, 416, 184
-0.995325, 209, 209, 224, 272
-0.995331, 215, 129, 230, 192
-0.995337, 259, 129, 274, 192
-0.995348, 129, 9, 384, 72
-0.99536, 145, 269, 272, 300
-0.995392, 123, 225, 138, 288
-0.995408, 65, 197, 192, 228
-0.995411, 223, 209, 238, 272
-0.995418, 73, 1, 104, 256
-0.995422, 53, 41, 68, 104
-0.99543, 157, 209, 172, 272
-0.995454, 257, 33, 500, 96
-0.995469, 307, 217, 322, 280
-0.995477, 1, 1, 256, 64
-0.995483, 315, 161, 330, 224
-0.995488, 161, 33, 224, 160
-0.9955, 225, 137, 352, 168
-0.9955, 293, 201, 308, 264
-0.995514, 187, 217, 202, 280
-0.995526, 263, 201, 278, 264
-0.99555, 369, 125, 496, 156
-0.9956, 73, 137, 88, 200
-0.995602, 1, 113, 128, 144
-0.995618, 113, 173, 240, 204
-0.995621, 1, 37, 128, 68
-0.995627, 273, 269, 400, 300
-0.995633, 409, 145, 424, 208
-0.995639, 473, 153, 488, 216
-0.995644, 443, 249, 458, 312
-0.99565, 205, 177, 220, 240
-0.995661, 447, 161, 462, 224
-0.995667, 37, 33, 52, 96
-0.9957, 195, 161, 210, 224
-0.995701, 439, 137, 454, 200
-0.995712, 61, 33, 92, 288
-0.995719, 65, 49, 80, 112
-0.995743, 25, 185, 40, 248
-0.995749, 1, 265, 256, 328
-0.995752, 57, 233, 72, 296
-0.995765, 177, 217, 192, 280
-0.99577, 453, 233, 468, 296
-0.995798, 1, 245, 128, 276
-0.995799, 141, 33, 172, 160
-0.995802, 209, 269, 336, 300
-0.995805, 47, 209, 62, 272
-0.995806, 245, 121, 260, 184
-0.995812, 75, 33, 90, 96
-0.99582, 321, 253, 448, 284
-0.995827, 369, 157, 496, 188
-0.995828, 279, 161, 294, 224
-0.995834, 49, 169, 176, 200
-0.995844, 461, 185, 476, 248
-0.99585, 89, 249, 104, 312
-0.995898, 63, 193, 78, 256
-0.995898, 299, 201, 314, 264
-0.995917, 225, 189, 352, 220
-0.99592, 81, 129, 96, 192
-0.995927, 113, 97, 128, 160
-0.995927, 475, 185, 490, 248
-0.995943, 57, 97, 72, 160
-0.995947, 167, 217, 182, 280
-0.995951, 49, 225, 176, 256
-0.995961, 305, 201, 432, 232
-0.995962, 21, 33, 52, 288
-0.995982, 485, 121, 500, 184
-0.996001, 49, 181, 176, 212
-0.996003, 1, 97, 500, 160
-0.996005, 113, 201, 128, 264
-0.996007, 325, 177, 340, 240
-0.996017, 145, 217, 160, 280
-0.996018, 75, 161, 90, 224
-0.996018, 215, 241, 230, 304
-0.996023, 177, 249, 192, 312
-0.996024, 251, 209, 266, 272
-0.996025, 353, 265, 480, 296
-0.996029, 133, 129, 164, 256
-0.99603, 177, 185, 192, 248
-0.996035, 459, 129, 474, 192
-0.996037, 321, 129, 448, 160
-0.996038, 65, 57, 192, 88
-0.996039, 257, 201, 272, 264
-0.996053, 23, 73, 38, 136
-0.996056, 201, 65, 232, 320
-0.996065, 145, 253, 272, 284
-0.996082, 397, 137, 412, 200
-0.996087, 17, 209, 32, 272
-0.996089, 241, 209, 256, 272
-0.996114, 257, 57, 500, 120
-0.996116, 71, 89, 86, 152
-0.996123, 297, 129, 312, 192
-0.99614, 281, 241, 296, 304
-0.996143, 481, 225, 496, 288
-0.996144, 263, 161, 278, 224
-0.996146, 97, 269, 224, 300
-0.996149, 15, 241, 30, 304
-0.996156, 97, 249, 112, 312
-0.996164, 47, 241, 62, 304
-0.996171, 167, 257, 182, 320
-0.996174, 339, 241, 354, 304
-0.996203, 161, 237, 288, 268
-0.99621, 479, 153, 494, 216
-0.996223, 111, 249, 126, 312
-0.99623, 225, 65, 256, 320
-0.996239, 265, 65, 296, 320
-0.996246, 91, 33, 106, 96
-0.996249, 425, 137, 440, 200
-0.996255, 33, 65, 64, 320
-0.996262, 9, 209, 24, 272
-0.996269, 145, 33, 272, 96
-0.996273, 67, 249, 82, 312
-0.996274, 39, 209, 54, 272
-0.996284, 61, 73, 76, 136
-0.99629, 193, 121, 320, 152
-0.996307, 213, 65, 244, 320
-0.996315, 65, 73, 192, 104
-0.996359, 81, 101, 208, 132
-0.996421, 241, 117, 368, 148
-0.996457, 97, 265, 352, 328
-0.996467, 65, 29, 192, 60
-0.996502, 281, 65, 312, 320
-0.996512, 245, 65, 276, 320
-0.996548, 97, 241, 224, 272
-0.996584, 317, 81, 348, 208
-0.996589, 161, 285, 288, 316
-0.99659, 49, 237, 176, 268
-0.996614, 353, 181, 480, 212
-0.996623, 189, 65, 220, 192
-0.996661, 321, 169, 448, 200
-0.996668, 1, 125, 128, 156
-0.996696, 345, 97, 376, 224
-0.996713, 225, 285, 352, 316
-0.996713, 43, 73, 58, 104
-0.996725, 49, 5, 176, 36
-0.996728, 305, 109, 432, 140
-0.996752, 337, 237, 464, 268
-0.996756, 129, 109, 256, 140
-0.996762, 49, 17, 176, 48
-0.996786, 303, 157, 318, 188
-0.996788, 189, 65, 220, 320
-0.996798, 53, 65, 68, 96
-0.99686, 257, 9, 500, 72
-0.996893, 177, 81, 208, 208
-0.9969, 195, 177, 210, 208
-0.99691, 195, 209, 210, 240
-0.996913, 305, 97, 432, 128
-0.996944, 215, 209, 230, 240
-0.996956, 337, 225, 464, 256
-0.996975, 369, 249, 496, 280
-0.99698, 447, 149, 462, 180
-0.996992, 467, 141, 482, 172
-0.997004, 409, 1, 472, 128
-0.997027, 1, 233, 128, 264
-0.997029, 49, 113, 64, 144
-0.997031, 1, 137, 128, 168
-0.997034, 47, 85, 62, 116
-0.997049, 477, 125, 492, 156
-0.997056, 305, 1, 432, 32
-0.997076, 305, 81, 432, 112
-0.99708, 299, 181, 314, 212
-0.997106, 293, 161, 308, 192
-0.997113, 321, 277, 448, 308
-0.997125, 369, 193, 496, 224
-0.997137, 35, 65, 50, 96
-0.997146, 297, 65, 328, 320
-0.997162, 59, 33, 74, 64
-0.997166, 447, 137, 462, 168
-0.997167, 45, 53, 60, 84
-0.997168, 1, 9, 500, 72
-0.997174, 305, 17, 432, 48
-0.997175, 81, 85, 208, 116
-0.997177, 33, 81, 48, 112
-0.997203, 281, 201, 296, 232
-0.997213, 477, 145, 492, 176
-0.997216, 457, 145, 472, 176
-0.997228, 305, 213, 432, 244
-0.997233, 469, 185, 484, 216
-0.997254, 305, 185, 320, 216
-0.997268, 193, 145, 208, 176
-0.997274, 1, 161, 128, 192
-0.997297, 105, 257, 120, 288
-0.997304, 41, 93, 56, 124
-0.99734, 189, 189, 204, 220
-0.997343, 369, 113, 496, 144
-0.997353, 203, 129, 218, 160
-0.997355, 193, 161, 208, 192
-0.997364, 353, 209, 480, 240
-0.997369, 1, 25, 128, 56
-0.99737, 39, 105, 54, 136
-0.997377, 307, 197, 322, 228
-0.99738, 291, 197, 306, 228
-0.997381, 33, 269, 160, 300
-0.997382, 469, 65, 500, 320
-0.997383, 17, 89, 32, 120
-0.997384, 1, 177, 128, 208
-0.997428, 53, 53, 68, 84
-0.997437, 55, 97, 70, 128
-0.997438, 289, 57, 416, 88
-0.997452, 149, 121, 164, 152
-0.99747, 35, 193, 50, 224
-0.99747, 201, 201, 216, 232
-0.99747, 289, 69, 416, 100
-0.997472, 19, 193, 34, 224
-0.997475, 61, 201, 76, 232
-0.997481, 145, 121, 272, 152
-0.997503, 437, 141, 452, 172
-0.997511, 25, 81, 40, 112
-0.997516, 59, 21, 74, 52
-0.99752, 483, 125, 498, 156
-0.997523, 89, 33, 120, 288
-0.997525, 241, 121, 256, 152
-0.997526, 453, 125, 468, 156
-0.99753, 193, 1, 320, 128
-0.997548, 187, 177, 202, 208
-0.997551, 185, 217, 200, 248
-0.997554, 241, 157, 256, 188
-0.997565, 305, 29, 432, 60
-0.99757, 301, 145, 316, 176
-0.99757, 97, 257, 112, 288
-0.997574, 31, 93, 46, 124
-0.997584, 27, 185, 42, 216
-0.99759, 429, 141, 444, 172
-0.99759, 471, 129, 486, 160
-0.99759, 265, 201, 280, 232
-0.997592, 233, 161, 248, 192
-0.997595, 209, 213, 224, 244
-0.997604, 293, 177, 308, 208
-0.997609, 295, 145, 310, 176
-0.99761, 115, 253, 130, 284
-0.997614, 1, 145, 32, 272
-0.997617, 69, 149, 84, 180
-0.997617, 43, 41, 58, 72
-0.997625, 53, 81, 68, 112
-0.99763, 49, 125, 64, 156
-0.99763, 447, 161, 462, 192
-0.997631, 463, 185, 478, 216
-0.997635, 421, 65, 452, 320
-0.997648, 257, 273, 500, 334
-0.997666, 79, 257, 94, 288
-0.997669, 59, 45, 74, 76
-0.997673, 123, 229, 138, 260
-0.997674, 299, 197, 314, 228
-0.997684, 39, 117, 54, 148
-0.997689, 65, 113, 80, 144
-0.997704, 101, 65, 132, 320
-0.997706, 289, 45, 416, 76
-0.997706, 167, 217, 182, 248
-0.997707, 187, 157, 202, 188
-0.997723, 441, 65, 472, 320
-0.997729, 89, 257, 104, 288
-0.997737, 77, 141, 92, 172
-0.997744, 421, 141, 436, 172
-0.997746, 393, 65, 424, 320
-0.997747, 69, 45, 84, 76
-0.997753, 285, 133, 300, 164
-0.997757, 47, 97, 62, 128
-0.997762, 315, 197, 330, 228
-0.99777, 309, 161, 324, 192
-0.997772, 1, 149, 128, 180
-0.997776, 9, 1, 40, 256
-0.997779, 127, 97, 142, 128
-0.997793, 221, 213, 236, 244
-0.997799, 217, 233, 232, 264
-0.997805, 201, 213, 216, 244
-0.997806, 215, 129, 230, 160
-0.997811, 117, 101, 132, 132
-0.997811, 275, 201, 290, 232
-0.997815, 55, 109, 70, 140
-0.997816, 53, 217, 68, 248
-0.997816, 157, 213, 172, 244
-0.997823, 173, 217, 188, 248
-0.997825, 179, 217, 194, 248
-0.997826, 129, 97, 256, 128
-0.997827, 259, 205, 274, 236
-0.997833, 49, 41, 64, 72
-0.997833, 73, 257, 88, 288
-0.997835, 121, 85, 136, 116
-0.997838, 267, 129, 282, 160
-0.997843, 453, 161, 468, 192
-0.997844, 439, 157, 454, 188
-0.997849, 201, 189, 216, 220
-0.997852, 5, 1, 36, 128
-0.997864, 369, 169, 496, 200
-0.997866, 29, 69, 44, 100
-0.99787, 459, 233, 474, 264
-0.997872, 313, 241, 328, 272
-0.997874, 227, 161, 242, 192
-0.997875, 55, 237, 70, 268
-0.997876, 475, 189, 490, 220
-0.997883, 211, 185, 226, 216
-0.997885, 37, 37, 52, 68
-0.997888, 337, 249, 352, 280
-0.997889, 325, 177, 340, 208
-0.997889, 347, 249, 362, 280
-0.997892, 307, 217, 322, 248
-0.997897, 219, 173, 234, 204
-0.9979, 121, 245, 136, 276
-0.997908, 111, 277, 126, 308
-0.997913, 59, 121, 74, 152
-0.997914, 79, 37, 94, 68
-0.997914, 209, 129, 224, 160
-0.997923, 459, 129, 474, 160
-0.997925, 195, 189, 210, 220
-0.997925, 145, 81, 176, 208
-0.997926, 115, 265, 130, 296
-0.99794, 249, 121, 264, 152
-0.997945, 45, 249, 60, 280
-0.997951, 459, 161, 474, 192
-0.997951, 45, 217, 60, 248
-0.997953, 47, 233, 62, 264
-0.997958, 307, 145, 322, 176
-0.997974, 369, 277, 496, 308
-0.998005, 113, 65, 144, 320
-0.998008, 1, 281, 128, 312
-0.998025, 409, 65, 440, 320
-0.998092, 101, 1, 132, 128
-0.998117, 457, 65, 488, 320
-0.998127, 161, 301, 288, 332
-0.998178, 309, 65, 340, 320
-0.998261, 273, 289, 400, 320
-0.998306, 309, 1, 340, 128
-0.998336, 113, 281, 240, 312
-0.998355, 177, 65, 208, 320
-0.998382, 281, 165, 344, 180
-0.998406, 225, 127, 288, 142
-0.998414, 177, 183, 240, 198
-0.998422, 129, 85, 256, 116
-0.998429, 25, 83, 88, 98
-0.998429, 265, 205, 328, 220
-0.998431, 217, 133, 248, 148
-0.998431, 113, 111, 144, 126
-0.998432, 201, 177, 232, 192
-0.998433, 433, 145, 496, 160
-0.998433, 13, 215, 44, 230
-0.998434, 81, 133, 112, 148
-0.998434, 289, 203, 320, 218
-0.998434, 9, 213, 72, 228
-0.998435, 65, 145, 96, 160
-0.998436, 329, 175, 360, 190
-0.998436, 309, 243, 340, 258
-0.998436, 57, 209, 88, 224
-0.998437, 273, 199, 336, 214
-0.998438, 57, 27, 88, 42
-0.998439, 285, 209, 316, 224
-0.99844, 65, 45, 96, 60
-0.998441, 141, 127, 172, 142
-0.998441, 433, 173, 464, 188
-0.998442, 429, 155, 460, 170
-0.998444, 29, 131, 60, 146
-0.998446, 141, 263, 172, 278
-0.998446, 9, 45, 40, 60
-0.998446, 425, 151, 488, 166
-0.998447, 9, 197, 72, 212
-0.998448, 13, 197, 44, 212
-0.99845, 429, 161, 460, 176
-0.99845, 257, 211, 288, 226
-0.99845, 201, 189, 232, 204
-0.99845, 313, 165, 344, 180
-0.998452, 433, 139, 496, 154
-0.998453, 469, 187, 500, 202
-0.998454, 409, 143, 472, 158
-0.998454, 269, 171, 300, 186
-0.998455, 33, 47, 96, 62
-0.998455, 193, 163, 224, 178
-0.998457, 193, 131, 256, 146
-0.998458, 465, 131, 496, 146
-0.998459, 105, 105, 136, 120
-0.998461, 17, 99, 48, 114
-0.998463, 441, 167, 472, 182
-0.998464, 21, 35, 52, 50
-0.998464, 33, 65, 96, 80
-0.998466, 53, 75, 84, 90
-0.998466, 237, 161, 268, 176
-0.998466, 285, 151, 316, 166
-0.998467, 189, 149, 220, 164
-0.998468, 65, 285, 192, 316
-0.998469, 305, 177, 336, 192
-0.998469, 269, 211, 300, 226
-0.998469, 177, 177, 240, 192
-0.998469, 185, 167, 248, 182
-0.99847, 13, 87, 44, 102
-0.998471, 21, 77, 52, 92
-0.998471, 25, 113, 88, 128
-0.998471, 441, 161, 472, 176
-0.998473, 9, 43, 72, 58
-0.998474, 173, 183, 204, 198
-0.998474, 41, 203, 72, 218
-0.998475, 39, 33, 54, 160
-0.998475, 9, 207, 72, 222
-0.998476, 197, 201, 228, 216
-0.998477, 257, 163, 320, 178
-0.998478, 49, 45, 80, 60
-0.998478, 421, 149, 452, 164
-0.998478, 321, 181, 352, 196
-0.998479, 169, 263, 200, 278
-0.99848, 57, 161, 88, 176
-0.99848, 113, 123, 176, 138
-0.99848, 221, 165, 252, 180
-0.99848, 301, 147, 332, 162
-0.99848, 21, 51, 52, 66
-0.99848, 129, 119, 160, 134
-0.998481, 9, 91, 72, 106
-0.998482, 53, 113, 84, 128
-0.998482, 33, 205, 96, 220
-0.998482, 25, 69, 56, 84
-0.998483, 49, 39, 112, 54
-0.998483, 9, 51, 72, 66
-0.998486, 33, 57, 64, 72
-0.998486, 25, 213, 56, 228
-0.998486, 33, 73, 96, 88
-0.998486, 145, 65, 176, 320
-0.998487, 25, 41, 56, 56
-0.998487, 113, 253, 144, 268
-0.998487, 469, 213, 500, 228
-0.998487, 193, 143, 224, 158
-0.998488, 393, 145, 424, 160
-0.998489, 249, 131, 280, 146
-0.998489, 73, 259, 104, 274
-0.998489, 77, 39, 108, 54
-0.99849, 317, 187, 348, 202
-0.998491, 37, 33, 68, 48
-0.998492, 457, 185, 488, 200
-0.998493, 297, 149, 360, 164
-0.998494, 25, 119, 88, 134
-0.998496, 425, 1, 456, 128
-0.998496, 53, 65, 84, 80
-0.998498, 241, 209, 304, 224
-0.998498, 33, 195, 96, 210
-0.998499, 233, 165, 296, 180
-0.9985, 453, 149, 484, 164
-0.9985, 457, 159, 488, 174
-0.998501, 333, 65, 364, 320
-0.998502, 53, 53, 84, 68
-0.998502, 293, 157, 324, 172
-0.998503, 273, 211, 336, 226
-0.998503, 33, 123, 64, 138
-0.998503, 465, 125, 496, 140
-0.998504, 93, 257, 124, 272
-0.998505, 33, 51, 64, 66
-0.998505, 45, 233, 76, 248
-0.998506, 469, 181, 500, 196
-0.998506, 297, 177, 360, 192
-0.998507, 65, 121, 96, 136
-0.998507, 297, 189, 360, 204
-0.998508, 41, 217, 72, 232
-0.998508, 57, 203, 88, 218
-0.998508, 265, 163, 296, 178
-0.998511, 65, 151, 96, 166
-0.998512, 17, 237, 80, 252
-0.998512, 185, 217, 248, 232
-0.998513, 297, 159, 360, 174
-0.998513, 33, 103, 96, 118
-0.998514, 189, 217, 220, 232
-0.998515, 33, 91, 96, 106
-0.998516, 153, 191, 216, 206
-0.998517, 273, 183, 336, 198
-0.998518, 53, 97, 84, 112
-0.99852, 9, 77, 72, 92
-0.998521, 273, 135, 304, 150
-0.998521, 241, 171, 304, 186
-0.998522, 441, 145, 472, 160
-0.998522, 289, 171, 352, 186
-0.998523, 161, 219, 224, 234
-0.998524, 97, 253, 160, 268
-0.998524, 9, 191, 72, 206
-0.998525, 57, 33, 88, 48
-0.998525, 137, 263, 200, 278
-0.998526, 191, 129, 206, 256
-0.998526, 185, 147, 248, 162
-0.998526, 257, 157, 320, 172
-0.998528, 57, 201, 120, 216
-0.998529, 65, 257, 128, 272
-0.99853, 433, 125, 496, 140
-0.99853, 9, 37, 72, 52
-0.99853, 469, 151, 500, 166
-0.998531, 141, 121, 172, 136
-0.998531, 113, 99, 144, 114
-0.998531, 425, 187, 488, 202
-0.998531, 49, 79, 112, 94
-0.998533, 33, 211, 96, 226
-0.998534, 33, 57, 96, 72
-0.998535, 37, 63, 68, 78
-0.998535, 209, 215, 240, 230
-0.998536, 53, 119, 84, 134
-0.998537, 177, 209, 240, 224
-0.998537, 1, 85, 64, 100
-0.998537, 453, 131, 484, 146
-0.998537, 301, 191, 332, 206
-0.998538, 209, 165, 272, 180
-0.998538, 33, 49, 48, 176
-0.998538, 57, 73, 120, 88
-0.998538, 33, 189, 96, 204
-0.99854, 9, 93, 40, 108
-0.998541, 33, 109, 64, 124
-0.998542, 241, 135, 304, 150
-0.998542, 65, 99, 128, 114
-0.998544, 185, 153, 248, 168
-0.998544, 257, 205, 288, 220
-0.998545, 217, 211, 280, 226
-0.998545, 203, 113, 218, 240
-0.998546, 45, 127, 76, 142
-0.998547, 105, 117, 168, 132
-0.998548, 385, 145, 448, 160
-0.998549, 1, 259, 64, 274
-0.998549, 145, 157, 208, 172
-0.99855, 9, 219, 72, 234
-0.99855, 209, 175, 272, 190
-0.998551, 305, 235, 368, 250
-0.998552, 185, 161, 248, 176
-0.998553, 89, 259, 152, 274
-0.998553, 241, 203, 304, 218
-0.998553, 41, 257, 104, 272
-0.998553, 49, 121, 112, 136
-0.998554, 265, 217, 328, 232
-0.998554, 49, 85, 112, 100
-0.998555, 201, 125, 264, 140
-0.998555, 59, 17, 74, 144
-0.998555, 41, 209, 72, 224
-0.998555, 89, 95, 152, 110
-0.998556, 37, 45, 68, 60
-0.998556, 413, 143, 444, 158
-0.998556, 53, 39, 84, 54
-0.998556, 161, 263, 224, 278
-0.998558, 81, 87, 144, 102
-0.998558, 177, 189, 240, 204
-0.998558, 33, 97, 96, 112
-0.998559, 169, 229, 232, 244
-0.998559, 33, 31, 96, 46
-0.99856, 57, 111, 120, 126
-0.99856, 217, 159, 280, 174
-0.99856, 25, 127, 88, 142
-0.998561, 41, 99, 72, 114
-0.998561, 285, 181, 316, 196
-0.998561, 97, 103, 160, 118
-0.998562, 169, 269, 232, 284
-0.998563, 81, 113, 144, 128
-0.998566, 121, 129, 184, 144
-0.998569, 185, 177, 216, 192
-0.998569, 9, 231, 72, 246
-0.998569, 409, 137, 472, 152
-0.99857, 153, 125, 216, 140
-0.99857, 153, 183, 216, 198
-0.99857, 305, 247, 368, 262
-0.99857, 57, 105, 120, 120
-0.99857, 297, 183, 360, 198
-0.998571, 305, 253, 368, 268
-0.998571, 201, 233, 264, 248
-0.998572, 65, 139, 128, 154
-0.998572, 153, 175, 216, 190
-0.998573, 193, 211, 224, 226
-0.998575, 433, 159, 496, 174
-0.998575, 269, 203, 300, 218
-0.998576, 25, 251, 88, 266
-0.998576, 113, 263, 176, 278
-0.998576, 17, 177, 32, 304
-0.998577, 433, 131, 496, 146
-0.998578, 209, 181, 272, 196
-0.998579, 361, 139, 424, 154
-0.998579, 305, 197, 368, 212
-0.998579, 233, 241, 296, 256
-0.99858, 153, 133, 216, 148
-0.99858, 209, 217, 272, 232
-0.998583, 41, 83, 72, 98
-0.998583, 113, 245, 176, 260
-0.998584, 37, 117, 68, 132
-0.998584, 273, 193, 336, 208
-0.998584, 441, 139, 472, 154
-0.998584, 265, 235, 328, 250
-0.998585, 409, 157, 472, 172
-0.998586, 185, 141, 248, 156
-0.998586, 297, 211, 360, 226
-0.998589, 313, 259, 376, 274
-0.99859, 233, 113, 248, 240
-0.998592, 9, 61, 72, 76
-0.998592, 9, 71, 72, 86
-0.998593, 201, 183, 232, 198
-0.998594, 41, 133, 104, 148
-0.998594, 81, 129, 144, 144
-0.998595, 289, 143, 352, 158
-0.998597, 237, 127, 268, 142
-0.998602, 21, 93, 52, 108
-0.998603, 289, 165, 320, 180
-0.998604, 33, 75, 64, 90
-0.998609, 441, 151, 472, 166
-0.998612, 425, 141, 456, 156
-0.998616, 51, 65, 66, 192
-0.998622, 461, 141, 492, 156
-0.998626, 21, 191, 52, 206
-0.998627, 37, 69, 68, 84
-0.99863, 197, 193, 212, 320
-0.998631, 185, 183, 216, 198
-0.998635, 205, 209, 236, 224
-0.998638, 25, 83, 56, 98
-0.998639, 239, 113, 254, 240
-0.99864, 225, 105, 352, 136
-0.998644, 185, 189, 216, 204
-0.998646, 201, 129, 232, 144
-0.998648, 281, 113, 296, 240
-0.998648, 369, 77, 496, 108
-0.998651, 37, 93, 68, 108
-0.998655, 353, 97, 480, 128
-0.998659, 45, 49, 60, 176
-0.998662, 289, 197, 320, 212
-0.998679, 35, 177, 50, 304
-0.998682, 65, 193, 80, 320
-0.998686, 267, 113, 282, 240
-0.998691, 249, 113, 264, 240
-0.9987, 241, 1, 368, 32
-0.998702, 165, 65, 196, 320
-0.998713, 241, 17, 368, 48
-0.998713, 223, 113, 238, 240
-0.998729, 295, 129, 310, 256
-0.998732, 225, 77, 352, 108
-0.998733, 53, 209, 68, 334
-0.998738, 305, 145, 320, 272
-0.998766, 217, 113, 232, 240
-0.998772, 113, 73, 240, 104
-0.998779, 241, 37, 368, 68
-0.998782, 47, 209, 62, 334
-0.998788, 1, 1, 128, 32
-0.998791, 241, 301, 368, 332
-0.998797, 39, 129, 54, 256
-0.99881, 59, 193, 74, 320
-0.998811, 317, 177, 332, 304
-0.998812, 11, 209, 26, 334
-0.998812, 361, 65, 392, 192
-0.998816, 29, 177, 44, 304
-0.998821, 459, 129, 474, 256
-0.998828, 217, 193, 232, 320
-0.998831, 301, 193, 316, 320
-0.998833, 211, 113, 226, 240
-0.99884, 421, 129, 436, 256
-0.99884, 113, 193, 128, 320
-0.99885, 57, 113, 72, 240
-0.998856, 275, 129, 290, 256
-0.99886, 99, 193, 114, 320
-0.998864, 321, 65, 352, 320
-0.998864, 373, 65, 404, 320
-0.998872, 107, 193, 122, 320
-0.998873, 257, 113, 272, 240
-0.998875, 311, 193, 326, 320
-0.99888, 483, 113, 498, 240
-0.998888, 191, 193, 206, 320
-0.998892, 185, 209, 200, 334
-0.998892, 289, 177, 304, 304
-0.998893, 89, 193, 104, 320
-0.998894, 39, 81, 54, 208
-0.998897, 475, 145, 490, 272
-0.998899, 3, 209, 18, 334
-0.9989, 65, 97, 80, 224
-0.998914, 23, 177, 38, 304
-0.998926, 241, 161, 256, 288
-0.998927, 469, 129, 484, 256
-0.998932, 229, 161, 244, 288
-0.998933, 75, 129, 90, 256
-0.998936, 203, 177, 218, 304
-0.998942, 45, 97, 60, 224
-0.998951, 83, 177, 98, 304
-0.998953, 287, 113, 302, 240
-0.998957, 223, 193, 238, 320
-0.998959, 179, 209, 194, 334
-0.998964, 211, 209, 226, 334
-0.998973, 267, 193, 282, 320
-0.998974, 247, 209, 262, 334
-0.998975, 41, 193, 56, 320
-0.99898, 171, 209, 186, 334
-0.99898, 405, 129, 420, 256
-0.998982, 295, 193, 310, 320
-0.998983, 281, 193, 296, 320
-0.998987, 75, 65, 90, 192
-0.998988, 453, 129, 468, 256
-0.998991, 193, 33, 320, 96
-0.998998, 197, 129, 212, 256
-0.999005, 75, 193, 90, 320
-0.999011, 53, 17, 68, 144
-0.999028, 85, 113, 100, 240
-0.999036, 241, 209, 256, 334
-0.999036, 53, 161, 68, 288
-0.999041, 435, 129, 450, 256
-0.999047, 69, 33, 84, 160
-0.999047, 323, 177, 338, 304
-0.999053, 57, 65, 72, 192
-0.999055, 247, 161, 262, 288
-0.999067, 235, 209, 250, 334
-0.999069, 275, 193, 290, 320
-0.99907, 443, 145, 458, 272
-0.999073, 235, 161, 250, 288
-0.999077, 253, 193, 268, 320
-0.999078, 33, 113, 48, 240
-0.999081, 163, 209, 178, 334
-0.999089, 69, 145, 84, 272
-0.9991, 427, 129, 442, 256
-0.9991, 259, 193, 274, 320
-0.999115, 335, 193, 350, 320
-0.99912, 329, 177, 344, 304
-0.999125, 483, 209, 498, 334
-0.999156, 341, 193, 356, 320
-0.999159, 133, 65, 164, 320
-0.999168, 137, 209, 152, 334
-0.999169, 413, 129, 428, 256
-0.999173, 467, 193, 482, 320
-0.999174, 119, 209, 134, 334
-0.999188, 349, 193, 364, 320
-0.999191, 181, 161, 196, 288
-0.999204, 345, 65, 376, 320
-0.999205, 153, 209, 168, 334
-0.999208, 399, 129, 414, 256
-0.999217, 45, 145, 60, 272
-0.999217, 361, 193, 376, 320
-0.999217, 51, 113, 66, 240
-0.999219, 27, 49, 42, 176
-0.999225, 131, 81, 146, 208
-0.99923, 229, 209, 244, 334
-0.999232, 311, 145, 326, 272
-0.999234, 115, 65, 130, 192
-0.999239, 143, 209, 158, 334
-0.999241, 317, 129, 332, 256
-0.999247, 125, 193, 140, 320
-0.999263, 475, 97, 490, 224
-0.999268, 109, 113, 124, 240
-0.999278, 31, 1, 46, 128
-0.99931, 123, 81, 138, 208
-0.99931, 369, 177, 384, 304
-0.999326, 81, 65, 96, 192
-0.999331, 439, 81, 454, 208
-0.999331, 361, 65, 392, 320
-0.999333, 91, 113, 106, 240
-0.999338, 27, 97, 42, 224
-0.999346, 351, 145, 366, 272
-0.999346, 359, 129, 374, 256
-0.999348, 211, 161, 226, 288
-0.99935, 115, 145, 130, 272
-0.999352, 461, 177, 476, 304
-0.999355, 275, 81, 290, 208
-0.999355, 449, 81, 464, 208
-0.999363, 45, 1, 60, 128
-0.999453, 397, 1, 428, 128
-0.999553, 301, 49, 332, 176
-0.999628, 321, 1, 352, 128
-0.999642, 457, 241, 472, 256
-0.999643, 287, 209, 302, 224
-0.999643, 467, 179, 482, 194
-0.999643, 39, 119, 54, 134
-0.999645, 473, 137, 488, 152
-0.999645, 177, 273, 192, 288
-0.999645, 473, 161, 488, 176
-0.999646, 67, 127, 82, 142
-0.999647, 201, 209, 216, 224
-0.999647, 461, 139, 476, 154
-0.999647, 463, 195, 478, 210
-0.999647, 121, 243, 136, 258
-0.999648, 241, 163, 256, 178
-0.999649, 299, 195, 314, 210
-0.99965, 23, 91, 38, 106
-0.99965, 33, 51, 48, 66
-0.99965, 43, 79, 58, 94
-0.99965, 61, 203, 76, 218
-0.99965, 239, 155, 254, 170
-0.999651, 477, 149, 492, 164
-0.999651, 143, 119, 158, 134
-0.999652, 55, 233, 70, 248
-0.999652, 465, 149, 480, 164
-0.999652, 113, 253, 128, 268
-0.999653, 41, 57, 56, 72
-0.999654, 211, 211, 226, 226
-0.999654, 43, 101, 58, 116
-0.999654, 239, 129, 254, 144
-0.999656, 443, 257, 458, 272
-0.999657, 191, 147, 206, 162
-0.999657, 59, 47, 74, 62
-0.999658, 65, 115, 80, 130
-0.999658, 195, 217, 210, 232
-0.999658, 437, 155, 452, 170
-0.999659, 329, 263, 344, 278
-0.999659, 39, 113, 54, 128
-0.999659, 457, 129, 472, 144
-0.999659, 193, 165, 208, 180
-0.999659, 121, 105, 136, 120
-0.99966, 285, 173, 300, 188
-0.999663, 47, 235, 62, 250
-0.999664, 307, 189, 322, 204
-0.999664, 457, 151, 472, 166
-0.999666, 107, 257, 122, 272
-0.999667, 221, 179, 236, 194
-0.999667, 303, 149, 318, 164
-0.999667, 27, 85, 42, 100
-0.999668, 207, 185, 222, 200
-0.999668, 187, 191, 202, 206
-0.99967, 301, 157, 316, 172
-0.99967, 197, 181, 212, 196
-0.99967, 197, 143, 212, 158
-0.999671, 59, 37, 74, 52
-0.999671, 471, 155, 486, 170
-0.999672, 203, 215, 218, 230
-0.999673, 61, 23, 76, 38
-0.999674, 267, 131, 282, 146
-0.999675, 127, 99, 142, 114
-0.999675, 447, 167, 462, 182
-0.999676, 41, 107, 56, 122
-0.999677, 41, 129, 56, 144
-0.999677, 43, 65, 58, 80
-0.999677, 415, 143, 430, 158
-0.999677, 101, 257, 116, 272
-0.999678, 33, 81, 48, 96
-0.999678, 57, 123, 72, 138
-0.999681, 33, 37, 48, 52
-0.999681, 299, 179, 314, 194
-0.999681, 19, 191, 34, 206
-0.999682, 473, 193, 488, 208
-0.999682, 67, 121, 82, 136
-0.999683, 203, 129, 218, 144
-0.999684, 49, 39, 64, 54
-0.999687, 475, 259, 490, 274
-0.999688, 233, 163, 248, 178
-0.999692, 441, 173, 456, 188
-0.999693, 53, 69, 68, 84
-0.999693, 149, 121, 164, 136
-0.999694, 443, 161, 458, 176
-0.999695, 55, 97, 70, 112
-0.999695, 49, 115, 64, 130
-0.999695, 295, 145, 310, 160
-0.999699, 263, 203, 278, 218
-0.999703, 33, 191, 48, 206
-0.999703, 193, 171, 208, 186
-0.999706, 447, 149, 462, 164
-0.999706, 283, 133, 298, 148
-0.999707, 55, 117, 70, 132
-0.999707, 49, 77, 64, 92
-0.999709, 43, 71, 58, 86
-0.99971, 59, 31, 74, 46
-0.99971, 25, 189, 40, 204
-0.999712, 443, 139, 458, 154
-0.999713, 227, 163, 242, 178
-0.999714, 69, 153, 84, 168
-0.999715, 177, 73, 304, 136
-0.999715, 471, 149, 486, 164
-0.999717, 455, 141, 470, 156
-0.999717, 307, 159, 322, 174
-0.999718, 477, 123, 492, 138
-0.999719, 47, 59, 62, 74
-0.999722, 191, 177, 206, 192
-0.999726, 311, 195, 326, 210
-0.999727, 453, 135, 468, 150
-0.999727, 49, 121, 64, 136
-0.999731, 291, 163, 306, 178
-0.999733, 43, 45, 58, 60
-0.999733, 437, 149, 452, 164
-0.999735, 37, 67, 52, 82
-0.999735, 187, 183, 202, 198
-0.999736, 181, 185, 196, 200
-0.999738, 241, 123, 256, 138
-0.999738, 155, 123, 170, 138
-0.999744, 477, 143, 492, 158
-0.999746, 421, 145, 436, 160
-0.999748, 249, 125, 264, 140
-0.99975, 433, 141, 448, 156
-0.999752, 467, 139, 482, 154
-0.999755, 281, 203, 296, 218
-0.999755, 47, 95, 62, 110
-0.999759, 217, 207, 232, 222
-0.999759, 49, 49, 64, 64
-0.999759, 35, 93, 50, 108
-0.999764, 195, 187, 210, 202
-0.999769, 51, 85, 66, 100
-0.999773, 41, 85, 56, 100
-0.999775, 37, 75, 52, 90
-0.999784, 471, 185, 486, 200
-0.999796, 195, 209, 210, 224
-0.999801, 17, 91, 32, 106
-0.999816, 465, 187, 480, 202
-1.00066, 373, 33, 404, 160
-1.00103, 161, 9, 288, 72
-1.00118, 441, 1, 472, 128
-1.0012, 329, 49, 360, 176
-1.00134, 341, 49, 372, 176
-1.002, 1, 49, 32, 176
-1.00216, 409, 1, 440, 128
-1.00228, 153, 1, 184, 128
-1.0024, 333, 1, 364, 128
-1.0025, 157, 81, 188, 208
-1.00258, 385, 1, 416, 128
-1.00496, 433, 33, 496, 160
-1.00753, 185, 17, 248, 144
-1.00814, 241, 1, 304, 128
-1.01229, 209, 17, 272, 144
