1960
-0.302037, 1, 1, 500, 375
-0.415233, 1, 1, 500, 256
-0.444656, 1, 97, 500, 352
-0.502459, 225, 1, 480, 375
-0.513647, 65, 1, 320, 375
-0.614807, 97, 1, 352, 256
-0.648578, 33, 129, 288, 375
-0.685264, 225, 1, 480, 256
-0.718156, 1, 1, 256, 256
-0.791462, 257, 97, 500, 352
-0.802191, 129, 97, 384, 352
-0.841748, 97, 1, 224, 375
-0.84952, 113, 1, 240, 256
-0.857081, 49, 97, 176, 352
-0.858526, 49, 1, 176, 375
-0.864178, 49, 1, 176, 256
-0.871333, 1, 129, 128, 375
-0.877352, 1, 1, 128, 375
-0.880019, 97, 97, 224, 352
-0.88345, 369, 1, 496, 375
-0.888344, 1, 1, 500, 128
-0.889194, 321, 33, 448, 288
-0.890353, 241, 1, 368, 375
-0.891461, 145, 1, 272, 375
-0.893658, 369, 33, 496, 288
-0.895212, 321, 1, 448, 375
-0.896177, 1, 161, 500, 288
-0.902533, 1, 81, 500, 208
-0.903781, 225, 1, 352, 256
-0.91001, 161, 1, 288, 256
-0.911412, 369, 129, 496, 375
-0.914941, 1, 177, 256, 304
-0.916234, 145, 97, 272, 352
-0.916495, 97, 1, 352, 128
-0.917754, 1, 209, 500, 336
-0.918325, 273, 65, 400, 320
-0.918921, 1, 33, 128, 288
-0.919076, 49, 161, 112, 288
-0.921255, 1, 177, 128, 304
-0.923449, 257, 1, 500, 128
-0.924341, 193, 1, 320, 375
-0.927384, 65, 129, 320, 256
-0.927711, 257, 81, 500, 208
-0.928004, 129, 1, 192, 128
-0.929735, 25, 177, 88, 304
-0.929742, 49, 145, 176, 272
-0.930373, 113, 17, 240, 144
-0.931461, 193, 97, 320, 352
-0.933869, 97, 49, 352, 176
-0.936577, 97, 113, 160, 240
-0.937605, 1, 177, 64, 304
-0.937848, 49, 177, 112, 240
-0.940414, 113, 177, 176, 304
-0.941697, 73, 161, 136, 288
-0.942318, 97, 161, 224, 288
-0.944163, 1, 1, 256, 128
-0.945677, 49, 97, 176, 224
-0.946631, 321, 129, 448, 375
-0.946803, 129, 129, 192, 256
-0.947422, 337, 81, 464, 208
-0.947931, 57, 201, 120, 264
-0.948013, 49, 193, 176, 320
-0.948571, 425, 49, 488, 176
-0.950805, 337, 17, 464, 144
-0.950979, 49, 209, 112, 336
-0.952029, 113, 65, 240, 192
-0.952206, 25, 185, 88, 248
-0.952322, 129, 49, 192, 176
-0.952327, 25, 217, 88, 280
-0.952437, 129, 113, 256, 240
-0.953556, 161, 97, 416, 224
-0.954273, 169, 1, 232, 128
-0.954438, 193, 1, 320, 128
-0.954595, 401, 1, 464, 128
-0.954716, 81, 185, 144, 248
-0.955493, 145, 1, 208, 64
-0.955888, 1, 185, 64, 248
-0.956517, 113, 177, 176, 240
-0.956999, 81, 209, 144, 272
-0.958199, 1, 225, 128, 352
-0.9586, 97, 177, 352, 304
-0.959458, 65, 17, 192, 144
-0.959545, 73, 209, 136, 336
-0.959548, 113, 201, 176, 264
-0.960466, 377, 65, 440, 192
-0.961331, 137, 177, 200, 240
-0.961516, 17, 225, 80, 352
-0.962339, 289, 81, 416, 208
-0.962442, 97, 33, 160, 160
-0.963151, 17, 185, 144, 248
-0.963342, 1, 209, 64, 272
-0.963836, 89, 161, 152, 224
-0.963847, 97, 65, 160, 320
-0.963905, 81, 185, 112, 248
-0.964114, 137, 177, 200, 304
-0.964197, 1, 129, 128, 256
-0.964232, 49, 225, 112, 288
-0.965037, 129, 25, 192, 88
-0.965138, 385, 113, 448, 240
-0.965232, 97, 113, 160, 176
-0.966088, 25, 129, 88, 256
-0.966406, 57, 161, 88, 288
-0.966629, 337, 129, 464, 256
-0.967013, 77, 161, 108, 288
-0.967059, 1, 225, 256, 352
-0.967173, 137, 169, 168, 232
-0.967768, 73, 113, 136, 240
-0.968447, 81, 185, 208, 248
-0.968696, 1, 217, 128, 280
-0.968825, 169, 1, 232, 64
-0.968843, 113, 153, 176, 216
-0.968863, 433, 57, 496, 120
-0.969102, 1, 1, 128, 128
-0.969292, 57, 185, 88, 248
-0.969597, 137, 137, 200, 200
-0.969699, 345, 81, 408, 208
-0.969762, 137, 1, 200, 256
-0.969878, 133, 129, 164, 256
-0.970092, 377, 105, 440, 168
-0.970126, 249, 1, 312, 128
-0.970134, 225, 49, 352, 176
-0.97014, 49, 113, 112, 240
-0.970196, 425, 33, 488, 288
-0.97045, 153, 113, 216, 240
-0.970565, 401, 49, 464, 176
-0.970856, 1, 241, 64, 304
-0.971048, 401, 81, 464, 144
-0.971459, 401, 33, 464, 96
-0.971625, 1, 81, 256, 208
-0.971656, 129, 81, 192, 144
-0.97181, 69, 201, 100, 264
-0.971848, 129, 49, 192, 112
-0.972454, 409, 97, 472, 224
-0.97283, 257, 129, 500, 256
-0.972841, 305, 81, 368, 208
-0.972907, 193, 1, 256, 128
-0.973042, 281, 49, 344, 176
-0.973192, 129, 113, 192, 176
-0.97323, 313, 97, 376, 160
-0.973498, 49, 209, 176, 272
-0.973634, 121, 113, 152, 240
-0.973636, 81, 209, 112, 272
-0.973663, 97, 89, 160, 152
-0.973789, 273, 33, 400, 160
-0.973791, 25, 129, 88, 375
-0.974304, 173, 1, 204, 64
-0.974353, 49, 129, 112, 375
-0.974746, 89, 177, 120, 304
-0.974814, 177, 145, 304, 272
-0.974979, 9, 177, 40, 304
-0.975026, 97, 1, 160, 64
-0.975086, 93, 193, 124, 256
-0.975146, 1, 129, 64, 256
-0.975571, 433, 1, 496, 128
-0.975627, 153, 1, 184, 128
-0.975884, 49, 161, 176, 224
-0.975893, 385, 129, 448, 192
-0.976005, 377, 81, 440, 144
-0.976116, 33, 185, 64, 248
-0.976183, 129, 97, 192, 352
-0.97619, 113, 49, 240, 112
-0.976209, 161, 65, 288, 192
-0.976242, 137, 177, 168, 304
-0.976294, 25, 241, 88, 304
-0.976432, 113, 1, 240, 64
-0.97649, 57, 209, 88, 336
-0.976674, 241, 113, 368, 240
-0.976733, 89, 49, 152, 112
-0.976742, 337, 97, 464, 160
-0.976864, 141, 1, 172, 128
-0.976918, 89, 25, 152, 88
-0.977027, 69, 177, 100, 240
-0.977028, 33, 161, 64, 288
-0.977234, 265, 113, 328, 240
-0.977261, 385, 57, 448, 120
-0.977457, 73, 129, 136, 375
-0.977463, 377, 17, 440, 144
-0.977639, 53, 209, 84, 272
-0.977697, 121, 113, 152, 176
-0.977815, 353, 97, 416, 160
-0.978024, 45, 177, 76, 304
-0.978076, 161, 1, 288, 64
-0.978139, 281, 73, 344, 136
-0.97826, 425, 81, 488, 144
-0.978297, 113, 25, 240, 88
-0.978456, 401, 105, 464, 168
-0.978552, 161, 49, 224, 176
-0.978641, 241, 1, 304, 64
-0.978724, 169, 41, 232, 104
-0.979161, 153, 145, 184, 272
-0.979329, 153, 9, 184, 72
-0.979362, 97, 209, 224, 336
-0.979398, 125, 185, 156, 248
-0.979457, 305, 33, 368, 160
-0.979513, 289, 105, 352, 168
-0.979528, 113, 81, 240, 144
-0.97953, 177, 1, 240, 256
-0.979581, 9, 1, 72, 128
-0.979604, 13, 249, 44, 312
-0.979719, 97, 1, 160, 375
-0.979751, 425, 81, 456, 208
-0.979784, 161, 161, 224, 288
-0.979841, 49, 153, 112, 216
-0.979922, 101, 145, 132, 272
-0.980007, 225, 209, 480, 336
-0.980093, 1, 241, 32, 368
-0.980128, 401, 65, 464, 320
-0.980264, 377, 1, 440, 256
-0.980317, 129, 169, 256, 232
-0.980319, 1, 249, 32, 312
-0.98039, 337, 121, 464, 184
-0.980537, 65, 1, 128, 128
-0.980681, 69, 209, 100, 336
-0.980877, 273, 89, 400, 152
-0.98089, 121, 193, 152, 320
-0.980965, 13, 241, 44, 368
-0.981029, 201, 65, 264, 192
-0.981079, 17, 161, 80, 224
-0.981084, 113, 105, 240, 168
-0.981123, 129, 145, 256, 208
-0.981193, 121, 65, 152, 192
-0.981207, 65, 25, 192, 88
-0.981257, 257, 209, 384, 336
-0.981259, 265, 113, 328, 176
-0.981267, 141, 193, 172, 256
-0.981303, 1, 129, 64, 375
-0.981336, 153, 185, 184, 248
-0.981521, 185, 1, 216, 64
-0.981604, 89, 137, 152, 200
-0.981695, 145, 201, 208, 264
-0.981728, 97, 217, 128, 280
-0.981755, 441, 57, 472, 120
-0.98193, 1, 265, 64, 328
-0.981957, 441, 49, 472, 176
-0.981979, 353, 73, 480, 136
-0.982022, 13, 225, 44, 288
-0.982025, 177, 97, 240, 224
-0.982044, 241, 145, 304, 272
-0.982169, 141, 17, 172, 80
-0.982196, 273, 1, 336, 256
-0.982255, 69, 225, 100, 288
-0.982326, 241, 153, 304, 216
-0.98239, 97, 209, 224, 272
-0.982597, 369, 177, 496, 304
-0.982606, 165, 1, 196, 128
-0.982623, 177, 209, 304, 336
-0.982628, 101, 169, 132, 232
-0.98277, 129, 17, 160, 144
-0.98278, 193, 1, 256, 64
-0.982844, 45, 185, 76, 248
-0.982849, 425, 1, 488, 375
-0.982995, 73, 1, 136, 375
-0.983008, 49, 105, 176, 168
-0.983034, 273, 49, 336, 112
-0.983067, 101, 193, 132, 320
-0.983119, 137, 1, 200, 375
-0.983151, 97, 225, 352, 352
-0.983164, 461, 49, 492, 112
-0.983199, 73, 33, 136, 288
-0.983216, 49, 137, 176, 200
-0.983234, 401, 9, 464, 72
-0.983266, 169, 89, 232, 152
-0.983436, 369, 17, 496, 80
-0.983518, 273, 1, 336, 128
-0.983548, 469, 1, 500, 128
-0.98369, 1, 161, 128, 224
-0.983754, 73, 233, 136, 296
-0.983777, 337, 145, 464, 208
-0.983783, 145, 137, 176, 200
-0.983864, 413, 73, 444, 136
-0.984063, 433, 9, 496, 72
-0.98411, 117, 89, 148, 152
-0.984141, 217, 129, 280, 256
-0.984159, 305, 73, 368, 136
-0.984249, 105, 193, 136, 256
-0.984262, 21, 193, 52, 320
-0.984324, 1, 217, 32, 280
-0.984337, 241, 65, 304, 192
-0.984363, 433, 33, 496, 96
-0.984366, 409, 57, 472, 120
-0.984458, 1, 241, 128, 304
-0.984539, 157, 161, 188, 224
-0.984575, 49, 1, 176, 64
-0.984635, 417, 33, 448, 160
-0.9847, 337, 49, 464, 112
-0.984723, 405, 65, 436, 192
-0.984804, 89, 129, 120, 256
-0.984904, 9, 17, 72, 80
-0.985004, 225, 161, 352, 288
-0.985019, 265, 137, 328, 200
-0.98512, 13, 185, 44, 248
-0.985154, 113, 17, 144, 144
-0.985259, 249, 1, 312, 256
-0.985273, 269, 1, 300, 128
-0.985295, 129, 137, 160, 200
-0.985472, 153, 97, 216, 352
-0.985479, 177, 1, 208, 128
-0.985575, 9, 1, 72, 375
-0.985597, 169, 113, 232, 176
-0.985625, 217, 1, 280, 64
-0.985646, 65, 65, 192, 128
-0.985675, 461, 49, 492, 176
-0.985725, 417, 97, 448, 160
-0.985768, 17, 49, 144, 176
-0.985826, 313, 121, 376, 184
-0.985847, 273, 113, 400, 176
-0.985871, 225, 81, 352, 144
-0.985958, 417, 129, 480, 192
-0.98596, 33, 209, 64, 272
-0.98619, 1, 1, 128, 64
-0.986195, 121, 1, 184, 64
-0.986197, 361, 25, 424, 88
-0.986197, 273, 1, 336, 375
-0.986198, 413, 113, 444, 240
-0.986309, 161, 169, 224, 232
-0.986314, 169, 201, 232, 264
-0.98635, 353, 81, 384, 208
-0.986508, 73, 89, 136, 152
-0.986588, 321, 129, 384, 256
-0.986643, 457, 1, 488, 128
-0.986807, 129, 41, 160, 104
-0.986815, 65, 17, 128, 80
-0.986843, 249, 89, 312, 152
-0.986881, 349, 89, 380, 152
-0.98689, 409, 129, 440, 192
-0.98691, 25, 233, 56, 296
-0.987072, 209, 1, 336, 64
-0.987144, 113, 25, 144, 88
-0.987325, 225, 105, 352, 168
-0.987374, 1, 185, 32, 248
-0.987404, 257, 1, 288, 64
-0.987405, 161, 33, 288, 96
-0.987428, 57, 233, 88, 296
-0.987454, 73, 49, 136, 176
-0.987533, 425, 161, 488, 288
-0.987552, 161, 73, 288, 136
-0.987653, 33, 265, 96, 328
-0.987683, 401, 1, 464, 375
-0.987704, 201, 1, 232, 128
-0.987733, 209, 57, 336, 120
-0.987876, 181, 25, 212, 88
-0.987961, 321, 1, 448, 64
-0.987983, 49, 33, 112, 288
-0.98813, 49, 197, 112, 228
-0.988131, 161, 105, 288, 168
-0.988177, 297, 129, 360, 256
-0.988188, 49, 233, 176, 296
-0.988217, 49, 209, 112, 240
-0.988239, 125, 161, 156, 224
-0.988277, 49, 181, 112, 212
-0.988332, 41, 1, 104, 375
-0.988339, 369, 241, 496, 368
-0.988421, 125, 209, 156, 272
-0.98845, 289, 33, 320, 160
-0.988465, 57, 161, 88, 224
-0.988475, 241, 129, 304, 192
-0.988491, 145, 97, 176, 224
-0.988496, 369, 1, 432, 375
-0.9885, 217, 153, 280, 216
-0.988536, 25, 201, 88, 232
-0.988571, 201, 121, 264, 184
-0.988615, 113, 185, 176, 216
-0.988623, 169, 1, 232, 375
-0.988638, 89, 193, 152, 224
-0.988667, 25, 221, 88, 252
-0.988669, 57, 113, 88, 240
-0.98868, 45, 129, 76, 256
-0.988707, 461, 25, 492, 88
-0.988848, 309, 73, 340, 136
-0.988858, 125, 9, 156, 72
-0.988888, 81, 161, 112, 224
-0.98891, 429, 97, 460, 160
-0.988926, 193, 145, 256, 272
-0.988967, 297, 65, 360, 320
-0.988988, 337, 121, 400, 184
-0.989047, 129, 197, 192, 228
-0.989121, 189, 1, 220, 128
-0.989121, 73, 213, 136, 244
-0.989124, 425, 105, 488, 168
-0.98913, 17, 25, 144, 88
-0.989135, 345, 65, 408, 320
-0.989138, 305, 25, 432, 88
-0.989177, 273, 65, 400, 128
-0.989189, 201, 73, 264, 136
-0.989224, 405, 97, 436, 160
-0.989229, 305, 49, 368, 112
-0.98931, 321, 97, 352, 160
-0.989318, 161, 1, 224, 32
-0.989346, 265, 9, 328, 72
-0.989351, 117, 57, 148, 120
-0.98938, 1, 189, 64, 220
-0.98953, 69, 113, 100, 240
-0.989542, 289, 129, 352, 192
-0.989548, 25, 185, 88, 216
-0.989602, 425, 121, 456, 184
-0.989622, 65, 225, 128, 256
-0.989656, 145, 13, 208, 44
-0.989702, 105, 205, 168, 236
-0.989702, 1, 241, 64, 272
-0.98973, 257, 209, 320, 336
-0.989739, 25, 233, 88, 264
-0.989832, 225, 105, 288, 168
-0.989849, 97, 129, 160, 160
-0.989882, 297, 49, 328, 112
-0.9899, 25, 257, 56, 320
-0.98991, 41, 1, 104, 64
-0.989977, 293, 105, 324, 168
-0.989996, 177, 177, 304, 240
-0.990017, 341, 81, 372, 208
-0.990021, 361, 1, 424, 64
-0.990036, 1, 209, 64, 240
-0.990057, 33, 209, 64, 336
-0.990147, 361, 57, 424, 120
-0.990154, 385, 109, 448, 140
-0.99016, 209, 33, 336, 96
-0.990234, 249, 145, 280, 208
-0.990254, 309, 65, 340, 192
-0.990279, 97, 217, 160, 248
-0.990329, 81, 225, 112, 352
-0.990406, 429, 73, 460, 136
-0.990413, 1, 229, 64, 260
-0.990414, 137, 29, 200, 60
-0.990431, 225, 1, 288, 32
-0.990435, 197, 1, 228, 64
-0.990443, 89, 181, 152, 212
-0.990451, 137, 141, 200, 172
-0.990474, 137, 181, 200, 212
-0.990509, 297, 17, 360, 80
-0.990509, 193, 97, 256, 160
-0.990531, 101, 81, 132, 208
-0.990584, 269, 9, 300, 72
-0.990584, 81, 233, 112, 296
-0.990607, 377, 97, 440, 352
-0.990625, 401, 53, 464, 84
-0.990656, 445, 1, 476, 128
-0.990659, 1, 33, 64, 288
-0.990673, 257, 257, 320, 320
-0.990746, 113, 173, 176, 204
-0.990762, 1, 253, 64, 284
-0.990777, 369, 169, 496, 232
-0.990791, 129, 113, 192, 144
-0.990801, 281, 177, 344, 304
-0.990816, 257, 137, 384, 200
-0.990832, 97, 117, 160, 148
-0.990844, 69, 153, 100, 216
-0.990852, 385, 121, 448, 152
-0.990877, 129, 93, 192, 124
-0.990882, 297, 1, 360, 375
-0.990884, 133, 113, 164, 176
-0.990905, 409, 9, 440, 72
-0.990922, 97, 1, 352, 64
-0.990938, 329, 101, 392, 132
-0.990939, 161, 65, 224, 128
-0.990947, 129, 41, 192, 72
-0.990952, 393, 17, 424, 144
-0.990983, 321, 65, 384, 320
-0.990987, 401, 97, 464, 128
-0.990995, 257, 177, 320, 240
-0.991056, 101, 105, 132, 168
-0.991057, 433, 57, 496, 88
-0.991057, 89, 105, 152, 136
-0.991072, 1, 193, 256, 256
-0.991086, 393, 81, 456, 112
-0.991087, 165, 145, 196, 272
-0.99109, 149, 193, 180, 320
-0.991103, 257, 81, 500, 144
-0.991127, 153, 193, 216, 224
-0.991142, 105, 141, 168, 172
-0.991158, 105, 153, 168, 184
-0.991163, 137, 129, 200, 160
-0.991172, 129, 53, 192, 84
-0.991184, 401, 69, 464, 100
-0.991192, 169, 145, 232, 208
-0.9912, 353, 33, 416, 160
-0.991203, 417, 49, 448, 112
-0.991272, 449, 33, 480, 96
-0.991303, 33, 197, 160, 228
-0.991307, 177, 193, 208, 256
-0.991389, 145, 169, 208, 200
-0.991395, 25, 245, 88, 276
-0.991412, 385, 153, 448, 216
-0.99144, 89, 169, 152, 200
-0.991442, 129, 81, 192, 112
-0.991497, 201, 33, 264, 288
-0.9915, 113, 21, 176, 52
-0.991507, 133, 81, 164, 208
-0.99153, 377, 97, 440, 128
-0.991541, 289, 109, 352, 140
-0.991549, 361, 113, 424, 144
-0.991553, 209, 137, 336, 200
-0.991555, 425, 177, 488, 240
-0.99158, 225, 1, 288, 128
-0.991598, 425, 73, 488, 104
-0.991601, 105, 33, 168, 64
-0.99161, 105, 9, 168, 40
-0.991611, 89, 93, 152, 124
-0.991611, 45, 225, 76, 352
-0.99163, 185, 1, 248, 32
-0.991639, 417, 109, 480, 140
-0.991672, 257, 41, 500, 104
-0.991682, 17, 81, 144, 144
-0.991705, 365, 81, 396, 208
-0.991729, 93, 185, 108, 248
-0.991755, 425, 93, 488, 124
-0.991757, 273, 85, 336, 116
-0.991769, 109, 217, 140, 280
-0.991776, 129, 65, 192, 96
-0.991777, 73, 113, 136, 176
-0.991804, 89, 81, 152, 112
-0.99183, 305, 97, 368, 128
-0.991835, 417, 121, 480, 152
-0.991857, 177, 225, 304, 288
-0.991867, 205, 65, 236, 192
-0.991885, 133, 73, 164, 136
-0.991886, 385, 133, 448, 164
-0.991893, 49, 241, 176, 368
-0.991903, 281, 97, 344, 128
-0.991906, 313, 117, 376, 148
-0.991916, 89, 53, 152, 84
-0.991967, 113, 169, 144, 232
-0.992016, 137, 153, 200, 184
-0.992025, 273, 1, 336, 32
-0.992041, 137, 181, 168, 212
-0.992045, 225, 161, 352, 224
-0.992048, 241, 13, 304, 44
-0.992048, 249, 1, 312, 375
-0.992063, 77, 209, 108, 240
-0.992071, 169, 41, 232, 72
-0.992087, 433, 37, 496, 68
-0.992101, 89, 69, 152, 100
-0.99213, 281, 201, 344, 264
-0.992132, 49, 185, 176, 216
-0.992138, 217, 177, 280, 304
-0.992173, 129, 209, 192, 240
-0.992205, 49, 169, 112, 200
-0.992212, 257, 145, 320, 176
-0.99222, 145, 113, 176, 176
-0.992268, 393, 5, 456, 36
-0.992272, 401, 41, 464, 72
-0.992284, 265, 117, 328, 148
-0.992286, 89, 209, 120, 240
-0.992298, 53, 201, 84, 232
-0.992306, 105, 225, 168, 288
-0.992317, 57, 213, 88, 244
-0.992323, 273, 57, 336, 88
-0.992328, 89, 229, 152, 260
-0.992332, 85, 197, 116, 228
-0.992338, 401, 29, 464, 60
-0.99234, 265, 133, 328, 164
-0.992343, 169, 209, 232, 336
-0.992352, 193, 177, 256, 240
-0.992364, 169, 105, 232, 136
-0.992368, 137, 1, 200, 32
-0.992369, 345, 129, 408, 256
-0.992374, 193, 105, 448, 168
-0.992387, 177, 201, 304, 264
-0.992388, 393, 17, 456, 48
-0.992423, 245, 145, 276, 272
-0.992439, 147, 169, 162, 232
-0.992452, 273, 73, 336, 104
-0.992453, 225, 161, 288, 192
-0.992455, 81, 181, 112, 212
-0.992457, 1, 177, 64, 208
-0.992469, 13, 253, 44, 284
-0.992469, 1, 209, 128, 240
-0.992471, 169, 89, 232, 120
-0.992485, 217, 129, 280, 375
-0.992496, 57, 229, 88, 260
-0.992513, 417, 133, 480, 164
-0.992523, 333, 97, 364, 160
-0.992524, 73, 197, 104, 228
-0.99253, 305, 81, 368, 112
-0.992535, 133, 205, 164, 236
-0.992538, 9, 265, 72, 296
-0.992541, 153, 205, 216, 236
-0.992544, 1, 1, 256, 64
-0.992549, 257, 97, 320, 352
-0.99255, 321, 177, 448, 304
-0.992553, 177, 177, 208, 304
-0.992565, 73, 225, 104, 256
-0.992574, 33, 185, 64, 216
-0.992578, 49, 241, 112, 272
-0.992578, 409, 153, 440, 216
-0.992619, 177, 29, 240, 60
-0.992624, 53, 181, 84, 212
-0.992628, 101, 221, 132, 252
-0.992653, 73, 129, 136, 160
-0.992653, 33, 257, 96, 288
-0.992662, 145, 197, 176, 228
-0.992676, 1, 217, 256, 280
-0.992679, 257, 249, 384, 312
-0.992679, 69, 185, 100, 216
-0.992686, 121, 209, 152, 240
-0.992688, 161, 181, 224, 212
-0.992689, 157, 193, 188, 224
-0.992692, 97, 33, 128, 160
-0.992702, 101, 201, 132, 232
-0.992703, 305, 129, 368, 160
-0.992708, 321, 193, 384, 256
-0.992717, 349, 121, 380, 184
-0.992719, 17, 277, 80, 308
-0.99272, 89, 221, 120, 252
-0.992722, 125, 125, 156, 156
-0.992726, 321, 81, 352, 208
-0.992739, 125, 193, 156, 224
-0.992746, 149, 17, 180, 48
-0.992765, 73, 141, 136, 172
-0.992768, 105, 81, 136, 144
-0.992768, 265, 13, 328, 44
-0.992779, 1, 185, 128, 216
-0.99278, 457, 57, 488, 88
-0.9928, 137, 169, 168, 200
-0.992801, 369, 85, 432, 116
-0.992803, 225, 133, 288, 164
-0.992804, 185, 17, 248, 48
-0.992804, 157, 97, 188, 224
-0.992812, 73, 25, 136, 56
-0.99283, 73, 241, 136, 272
-0.992836, 169, 117, 232, 148
-0.992836, 377, 145, 440, 176
-0.992836, 117, 113, 148, 144
-0.992841, 369, 49, 432, 80
-0.992844, 361, 1, 424, 32
-0.992847, 353, 101, 416, 132
-0.992851, 177, 5, 208, 36
-0.992852, 329, 73, 392, 136
-0.992853, 233, 149, 296, 180
-0.992854, 145, 141, 176, 172
-0.992872, 129, 221, 192, 252
-0.992876, 1, 249, 32, 280
-0.992876, 1, 169, 256, 232
-0.992884, 161, 9, 192, 40
-0.992885, 33, 205, 64, 236
-0.992899, 1, 289, 64, 352
-0.992908, 361, 25, 424, 56
-0.992911, 417, 93, 448, 124
-0.992927, 361, 13, 424, 44
-0.992927, 161, 69, 224, 100
-0.992937, 361, 37, 424, 68
-0.992945, 193, 1, 224, 32
-0.992945, 249, 1, 312, 32
-0.992957, 25, 173, 88, 204
-0.992959, 81, 185, 96, 248
-0.992961, 389, 1, 420, 64
-0.992973, 417, 105, 448, 136
-0.992976, 157, 181, 188, 212
-0.992979, 1, 293, 64, 324
-0.99298, 97, 41, 352, 104
-0.992992, 1, 237, 32, 268
-0.992993, 33, 217, 64, 248
-0.992998, 445, 65, 476, 96
-0.993006, 25, 265, 56, 296
-0.993007, 305, 69, 368, 100
-0.99302, 257, 1, 288, 32
-0.993021, 1, 1, 500, 64
-0.993024, 13, 189, 44, 220
-0.993042, 25, 249, 56, 280
-0.993043, 17, 225, 144, 256
-0.993045, 121, 233, 184, 264
-0.99305, 429, 41, 460, 104
-0.993052, 257, 261, 320, 292
-0.993059, 433, 21, 496, 52
-0.993065, 141, 29, 172, 60
-0.993065, 461, 45, 492, 76
-0.993067, 13, 237, 44, 268
-0.993075, 117, 101, 148, 132
-0.993078, 393, 165, 456, 196
-0.993081, 417, 117, 448, 148
-0.993085, 405, 125, 436, 156
-0.993094, 129, 157, 160, 188
-0.993095, 101, 189, 132, 220
-0.993108, 45, 229, 76, 260
-0.993114, 413, 77, 444, 108
-0.993139, 437, 81, 468, 112
-0.99314, 125, 21, 156, 52
-0.993142, 253, 145, 284, 176
-0.993143, 273, 121, 304, 184
-0.993144, 233, 1, 264, 32
-0.993163, 113, 69, 144, 100
-0.993163, 417, 129, 448, 160
-0.993169, 13, 213, 44, 244
-0.993172, 429, 113, 460, 144
-0.993174, 321, 101, 352, 132
-0.993175, 45, 217, 76, 248
-0.99318, 101, 177, 132, 208
-0.99318, 177, 257, 304, 320
-0.993181, 245, 1, 276, 32
-0.993192, 97, 145, 128, 208
-0.993194, 33, 229, 64, 260
-0.993209, 125, 181, 156, 212
-0.993215, 1, 177, 500, 240
-0.993216, 469, 57, 500, 88
-0.993217, 13, 201, 44, 232
-0.993219, 405, 145, 436, 176
-0.993219, 113, 197, 144, 228
-0.993223, 65, 41, 128, 104
-0.993228, 117, 33, 148, 64
-0.99323, 137, 41, 168, 72
-0.993233, 125, 137, 156, 168
-0.993239, 153, 169, 184, 200
-0.99324, 433, 97, 464, 128
-0.993241, 177, 37, 208, 68
-0.993244, 269, 13, 300, 44
-0.993245, 117, 53, 148, 84
-0.993246, 353, 97, 384, 128
-0.99326, 1, 189, 32, 220
-0.993266, 1, 221, 32, 252
-0.993267, 213, 1, 244, 128
-0.993269, 401, 113, 432, 240
-0.993272, 249, 157, 280, 188
-0.993289, 309, 97, 340, 128
-0.99329, 265, 141, 296, 172
-0.993293, 405, 9, 436, 40
-0.993293, 405, 113, 436, 144
-0.993293, 13, 225, 44, 256
-0.993295, 161, 1, 288, 32
-0.993297, 53, 241, 84, 272
-0.993301, 169, 41, 200, 104
-0.993301, 297, 177, 360, 240
-0.99331, 97, 81, 352, 144
-0.993317, 141, 129, 172, 160
-0.993318, 117, 89, 148, 120
-0.993325, 417, 141, 448, 172
-0.993329, 69, 173, 100, 204
-0.993329, 297, 113, 328, 144
-0.993344, 101, 129, 132, 160
-0.993344, 165, 185, 196, 248
-0.993345, 301, 77, 332, 108
-0.993353, 17, 1, 48, 128
-0.993359, 409, 21, 440, 52
-0.993364, 189, 25, 220, 56
-0.993367, 417, 157, 448, 188
-0.993367, 297, 57, 328, 88
-0.99337, 145, 209, 176, 240
-0.99337, 1, 261, 32, 292
-0.993379, 169, 193, 200, 224
-0.993388, 333, 101, 364, 132
-0.99339, 37, 261, 68, 292
-0.993396, 141, 1, 172, 32
-0.993399, 137, 17, 168, 48
-0.99341, 133, 101, 164, 132
-0.99341, 177, 205, 208, 236
-0.993422, 257, 281, 320, 344
-0.993424, 205, 1, 236, 32
-0.993427, 433, 69, 464, 100
-0.993428, 141, 117, 172, 148
-0.993433, 277, 141, 308, 172
-0.993436, 13, 269, 44, 300
-0.993437, 217, 185, 280, 248
-0.993439, 77, 237, 108, 268
-0.993442, 59, 185, 74, 248
-0.993443, 121, 169, 152, 200
-0.993444, 105, 93, 136, 124
-0.99345, 389, 1, 420, 32
-0.993451, 141, 157, 172, 188
-0.99346, 1, 205, 32, 236
-0.993461, 397, 101, 428, 132
-0.993462, 297, 73, 328, 136
-0.993462, 257, 233, 320, 296
-0.993466, 133, 53, 164, 84
-0.993468, 409, 33, 440, 64
-0.993479, 433, 49, 464, 80
-0.993484, 273, 129, 304, 160
-0.993491, 53, 169, 84, 200
-0.993492, 113, 221, 144, 252
-0.993493, 101, 105, 132, 136
-0.993495, 129, 73, 160, 104
-0.993495, 321, 113, 352, 144
-0.993534, 37, 161, 68, 224
-0.993562, 97, 25, 128, 88
-0.993622, 361, 105, 392, 168
-0.993633, 337, 1, 400, 375
-0.993643, 289, 129, 416, 256
-0.993662, 17, 49, 144, 112
-0.993692, 81, 197, 208, 228
-0.993701, 33, 289, 96, 352
-0.993727, 49, 209, 176, 240
-0.993729, 87, 185, 102, 248
-0.993752, 33, 1, 96, 128
-0.993755, 99, 193, 114, 256
-0.993815, 433, 1, 464, 128
-0.993828, 65, 129, 320, 192
-0.993851, 25, 33, 88, 288
-0.993866, 193, 1, 256, 375
-0.993878, 91, 209, 106, 272
-0.993892, 257, 225, 384, 288
-0.993901, 257, 201, 320, 264
-0.993935, 73, 201, 88, 264
-0.993935, 261, 145, 292, 208
-0.99399, 257, 17, 500, 80
-0.994007, 257, 1, 384, 64
-0.994105, 269, 257, 300, 320
-0.994162, 397, 73, 428, 136
-0.994211, 241, 201, 368, 264
-0.994247, 1, 25, 256, 88
-0.994273, 257, 129, 288, 256
-0.994291, 17, 265, 144, 328
-0.994317, 141, 161, 156, 224
-0.994341, 83, 209, 98, 272
-0.994364, 65, 173, 192, 204
-0.994405, 153, 177, 168, 240
-0.994415, 57, 257, 120, 320
-0.994431, 273, 113, 304, 240
-0.994449, 401, 161, 464, 288
-0.994491, 393, 65, 424, 192
-0.994524, 175, 1, 190, 64
-0.99453, 65, 185, 80, 248
-0.994575, 305, 193, 368, 320
-0.994622, 257, 273, 384, 336
-0.99464, 217, 241, 280, 304
-0.994677, 249, 65, 312, 128
-0.994751, 393, 25, 424, 88
-0.994751, 45, 233, 76, 296
-0.994775, 97, 177, 352, 240
-0.994792, 137, 121, 152, 184
-0.994795, 139, 185, 154, 248
-0.994852, 1, 217, 500, 280
-0.994856, 1, 73, 500, 136
-0.994892, 313, 121, 344, 184
-0.994908, 129, 17, 256, 48
-0.994915, 233, 265, 296, 328
-0.994917, 97, 105, 352, 168
-0.994923, 265, 177, 296, 304
-0.994942, 1, 25, 500, 88
-0.994956, 1, 17, 32, 80
-0.994964, 305, 97, 336, 160
-0.99498, 369, 257, 496, 320
-0.995013, 337, 117, 464, 148
-0.995021, 425, 145, 456, 208
-0.995033, 281, 17, 312, 80
-0.995045, 397, 121, 428, 184
-0.995072, 105, 57, 136, 120
-0.995076, 193, 25, 224, 88
-0.995094, 65, 65, 128, 128
-0.995134, 353, 313, 480, 375
-0.995134, 97, 185, 224, 216
-0.995162, 369, 217, 496, 280
-0.995185, 65, 221, 192, 252
-0.995187, 193, 25, 256, 88
-0.995189, 281, 241, 344, 368
-0.995207, 97, 209, 224, 240
-0.995208, 225, 73, 288, 136
-0.995211, 217, 1, 280, 375
-0.995217, 67, 217, 82, 280
-0.995224, 183, 1, 198, 64
-0.995224, 129, 97, 160, 352
-0.995258, 137, 1, 168, 256
-0.995259, 225, 225, 288, 352
-0.995263, 305, 129, 336, 256
-0.995267, 1, 97, 500, 160
-0.995283, 33, 289, 160, 352
-0.99529, 15, 249, 30, 312
-0.9953, 73, 177, 88, 240
-0.995306, 373, 97, 404, 160
-0.99533, 301, 17, 332, 144
-0.995346, 59, 225, 74, 288
-0.995347, 305, 101, 432, 132
-0.995371, 201, 89, 232, 152
-0.995374, 337, 129, 368, 256
-0.995396, 97, 201, 352, 264
-0.995458, 113, 173, 240, 204
-0.995483, 85, 17, 116, 144
-0.995495, 25, 1, 56, 64
-0.995495, 249, 81, 280, 208
-0.995498, 191, 1, 206, 64
-0.995504, 73, 225, 88, 288
-0.99551, 113, 85, 240, 116
-0.995513, 27, 249, 42, 312
-0.995527, 81, 13, 208, 44
-0.995542, 1, 237, 128, 268
-0.995565, 9, 41, 72, 104
-0.995569, 193, 129, 256, 375
-0.995583, 147, 137, 162, 200
-0.995583, 321, 161, 384, 224
-0.9956, 113, 233, 240, 296
-0.995601, 141, 41, 172, 104
-0.995629, 147, 201, 162, 264
-0.995651, 9, 273, 40, 336
-0.995651, 145, 225, 208, 288
-0.995651, 97, 225, 160, 352
-0.995654, 455, 57, 470, 120
-0.99567, 113, 29, 240, 60
-0.995685, 113, 65, 240, 96
-0.995699, 337, 129, 464, 160
-0.995717, 439, 73, 454, 136
-0.995729, 129, 113, 256, 144
-0.995738, 133, 201, 148, 264
-0.995753, 129, 125, 256, 156
-0.995764, 337, 89, 464, 120
-0.995776, 1, 121, 500, 184
-0.995777, 113, 41, 240, 72
-0.99578, 147, 17, 162, 80
-0.995787, 9, 313, 72, 375
-0.995789, 99, 217, 114, 280
-0.995796, 225, 1, 288, 256
-0.9958, 305, 217, 368, 280
-0.995807, 1, 113, 128, 176
-0.995812, 377, 161, 440, 288
-0.995818, 81, 257, 144, 320
-0.995827, 257, 129, 500, 192
-0.99583, 105, 209, 120, 272
-0.995834, 5, 249, 20, 312
-0.995836, 193, 145, 256, 208
-0.995864, 409, 153, 472, 216
-0.995888, 369, 281, 496, 344
-0.995894, 113, 101, 240, 132
-0.995919, 209, 281, 336, 344
-0.995938, 155, 9, 170, 72
-0.995963, 469, 49, 484, 112
-0.995963, 91, 161, 106, 224
-0.99599, 49, 121, 112, 184
-0.996012, 169, 1, 184, 64
-0.996017, 393, 49, 424, 112
-0.996019, 273, 161, 400, 224
-0.996026, 193, 129, 224, 256
-0.996026, 337, 141, 464, 172
-0.996027, 129, 153, 384, 216
-0.996063, 149, 1, 180, 256
-0.996064, 445, 65, 460, 128
-0.996072, 1, 145, 500, 208
-0.996072, 141, 33, 156, 96
-0.996087, 233, 65, 264, 192
-0.996096, 197, 1, 212, 64
-0.996115, 353, 145, 416, 208
-0.996116, 1, 49, 500, 112
-0.996145, 157, 137, 188, 200
-0.996177, 13, 9, 44, 72
-0.996191, 121, 1, 152, 256
-0.996194, 337, 137, 368, 200
-0.996198, 5, 217, 20, 280
-0.996203, 153, 201, 168, 264
-0.996218, 285, 113, 316, 240
-0.996222, 189, 201, 220, 264
-0.996222, 189, 193, 220, 320
-0.996232, 53, 193, 68, 256
-0.996234, 475, 49, 490, 112
-0.996239, 193, 209, 256, 336
-0.996246, 25, 225, 40, 288
-0.996253, 21, 249, 36, 312
-0.996266, 41, 257, 72, 320
-0.996268, 135, 41, 150, 104
-0.996271, 33, 233, 48, 296
-0.99631, 1, 313, 128, 375
-0.996331, 145, 185, 272, 216
-0.996332, 133, 177, 148, 240
-0.996341, 5, 185, 20, 248
-0.996344, 427, 129, 442, 192
-0.996347, 193, 217, 256, 280
-0.996347, 65, 1, 192, 32
-0.996348, 353, 105, 480, 136
-0.996348, 163, 9, 178, 72
-0.996354, 49, 121, 176, 152
-0.99641, 49, 109, 176, 140
-0.996411, 193, 13, 320, 44
-0.996412, 105, 185, 120, 248
-0.996421, 113, 1, 240, 32
-0.996429, 113, 53, 240, 84
-0.996442, 65, 29, 192, 60
-0.996463, 49, 133, 176, 164
-0.996487, 425, 129, 456, 256
-0.996493, 131, 105, 146, 168
-0.996506, 473, 25, 488, 88
-0.996518, 85, 137, 116, 200
-0.996522, 159, 169, 174, 232
-0.996524, 433, 89, 448, 152
-0.99653, 369, 41, 496, 72
-0.996546, 77, 129, 108, 375
-0.996552, 419, 145, 434, 208
-0.996555, 481, 33, 496, 96
-0.99657, 129, 141, 256, 172
-0.996572, 257, 121, 288, 184
-0.996578, 129, 161, 256, 192
-0.996601, 337, 69, 464, 100
-0.99661, 281, 89, 312, 152
-0.996614, 49, 161, 176, 192
-0.99662, 273, 153, 304, 216
-0.996622, 161, 193, 192, 320
-0.996628, 321, 33, 352, 160
-0.996629, 337, 153, 464, 184
-0.996662, 1, 249, 128, 280
-0.996668, 57, 281, 120, 344
-0.99667, 141, 129, 172, 375
-0.99668, 249, 41, 312, 104
-0.99668, 257, 25, 384, 88
-0.996684, 463, 49, 478, 112
-0.996692, 419, 105, 434, 168
-0.996693, 99, 169, 114, 232
-0.996693, 269, 1, 284, 64
-0.996699, 69, 1, 100, 128
-0.996709, 127, 201, 142, 264
-0.996711, 53, 225, 68, 288
-0.996714, 65, 129, 96, 375
-0.996722, 1, 173, 128, 204
-0.996722, 321, 193, 448, 256
-0.996727, 47, 185, 62, 248
-0.996733, 23, 185, 38, 248
-0.996742, 337, 57, 464, 88
-0.996757, 169, 161, 200, 224
-0.996787, 121, 225, 184, 352
-0.996791, 95, 209, 110, 240
-0.996794, 437, 1, 468, 256
-0.9968, 65, 241, 320, 304
-0.996831, 65, 257, 192, 320
-0.99685, 321, 169, 448, 232
-0.996888, 101, 65, 132, 320
-0.996893, 297, 153, 360, 216
-0.996894, 65, 73, 192, 104
-0.996902, 81, 161, 96, 224
-0.996903, 417, 313, 480, 375
-0.996905, 113, 1, 144, 64
-0.996906, 125, 89, 140, 152
-0.996907, 159, 193, 174, 256
-0.99691, 329, 73, 360, 136
-0.996913, 129, 197, 256, 228
-0.996917, 209, 113, 240, 176
-0.996923, 49, 41, 176, 72
-0.996944, 273, 313, 400, 375
-0.996971, 25, 81, 88, 208
-0.996973, 65, 161, 80, 224
-0.996983, 65, 89, 192, 120
-0.996983, 209, 73, 336, 104
-0.996992, 447, 41, 462, 104
-0.997015, 269, 225, 300, 352
-0.997019, 1, 137, 128, 200
-0.997031, 19, 225, 34, 288
-0.997039, 321, 217, 448, 280
-0.997042, 121, 209, 136, 272
-0.997066, 457, 161, 488, 288
-0.997074, 11, 225, 26, 288
-0.997074, 209, 9, 240, 72
-0.997082, 49, 149, 176, 180
-0.997101, 89, 209, 104, 240
-0.997106, 337, 165, 464, 196
-0.997123, 5, 129, 36, 375
-0.997124, 177, 49, 208, 176
-0.997137, 241, 85, 368, 116
-0.997141, 277, 65, 308, 192
-0.997143, 249, 193, 280, 320
-0.997149, 127, 177, 142, 240
-0.997149, 97, 197, 112, 228
-0.997154, 191, 25, 206, 88
-0.997156, 9, 161, 40, 224
-0.997181, 273, 117, 400, 148
-0.997183, 425, 65, 456, 320
-0.997189, 161, 129, 416, 192
-0.99719, 453, 33, 484, 288
-0.99719, 457, 33, 472, 96
-0.997198, 465, 25, 480, 88
-0.997203, 209, 1, 336, 32
-0.997207, 369, 29, 496, 60
-0.997225, 113, 57, 128, 120
-0.997226, 115, 209, 130, 272
-0.997243, 177, 113, 208, 240
-0.997247, 79, 209, 94, 240
-0.997256, 119, 185, 134, 248
-0.997264, 353, 89, 368, 152
-0.997264, 1, 97, 256, 160
-0.997291, 141, 9, 156, 72
-0.997292, 93, 181, 108, 212
-0.997294, 35, 209, 50, 272
-0.997296, 193, 101, 320, 132
-0.997299, 377, 81, 408, 208
-0.997304, 257, 1, 288, 128
-0.997304, 25, 25, 56, 88
-0.997307, 1, 13, 128, 44
-0.997315, 257, 153, 500, 216
-0.997318, 161, 81, 288, 112
-0.997326, 329, 33, 392, 160
-0.997363, 225, 117, 352, 148
-0.997374, 135, 9, 150, 72
-0.997385, 349, 129, 380, 256
-0.997401, 57, 161, 72, 224
-0.997414, 321, 9, 448, 40
-0.997416, 65, 53, 192, 84
-0.997422, 101, 213, 116, 244
-0.997423, 125, 33, 140, 96
-0.997428, 1, 49, 256, 112
-0.997434, 153, 137, 168, 200
-0.997439, 147, 169, 162, 200
-0.997442, 89, 193, 104, 224
-0.997445, 275, 1, 290, 64
-0.997455, 285, 49, 316, 112
-0.997462, 315, 73, 330, 136
-0.997464, 421, 169, 452, 232
-0.99747, 63, 229, 78, 260
-0.997477, 203, 1, 218, 64
-0.997479, 217, 65, 248, 192
-0.997492, 461, 1, 492, 64
-0.9975, 117, 97, 148, 352
-0.997507, 73, 213, 88, 244
-0.997509, 245, 1, 276, 64
-0.99752, 115, 81, 130, 144
-0.997526, 149, 181, 164, 212
-0.99753, 105, 161, 120, 224
-0.997532, 35, 185, 50, 248
-0.997539, 185, 25, 200, 88
-0.997543, 281, 225, 312, 352
-0.997545, 17, 185, 32, 248
-0.997549, 53, 129, 84, 375
-0.997551, 147, 113, 162, 176
-0.997553, 349, 33, 380, 160
-0.997565, 209, 61, 336, 92
-0.997575, 113, 137, 144, 200
-0.997578, 89, 129, 120, 375
-0.997582, 71, 225, 86, 256
-0.997585, 273, 145, 288, 208
-0.997588, 17, 25, 144, 56
-0.997589, 1, 129, 32, 256
-0.997596, 125, 65, 140, 128
-0.997599, 59, 209, 74, 240
-0.997605, 427, 105, 442, 168
-0.997628, 185, 1, 216, 256
-0.99763, 323, 89, 338, 152
-0.997644, 263, 1, 278, 64
-0.997651, 113, 185, 128, 248
-0.997655, 137, 205, 152, 236
-0.997656, 133, 65, 148, 128
-0.99768, 289, 69, 416, 100
-0.99769, 75, 193, 90, 224
-0.997695, 401, 33, 432, 288
-0.997698, 151, 201, 166, 232
-0.997703, 99, 145, 114, 208
-0.997713, 305, 49, 320, 112
-0.997713, 413, 121, 428, 184
-0.997717, 363, 89, 378, 152
-0.997718, 29, 1, 60, 128
-0.997719, 465, 33, 496, 288
-0.997721, 145, 137, 160, 168
-0.997731, 79, 229, 94, 260
-0.997744, 159, 13, 174, 44
-0.997747, 49, 161, 64, 224
-0.997751, 369, 17, 496, 48
-0.997751, 29, 113, 60, 240
-0.997768, 157, 197, 172, 228
-0.99778, 137, 97, 152, 160
-0.997782, 113, 257, 240, 320
-0.997792, 483, 9, 498, 72
-0.9978, 29, 193, 44, 256
-0.997802, 165, 177, 180, 240
-0.997803, 145, 205, 160, 236
-0.997809, 369, 97, 384, 160
-0.997813, 37, 129, 68, 375
-0.997814, 141, 209, 156, 272
-0.99782, 19, 253, 34, 284
-0.997821, 273, 129, 400, 160
-0.997824, 137, 125, 152, 156
-0.997828, 57, 229, 72, 260
-0.997835, 369, 1, 496, 32
-0.99784, 89, 225, 104, 256
-0.997843, 73, 153, 88, 216
-0.997847, 309, 105, 324, 168
-0.997853, 65, 233, 192, 264
-0.997855, 413, 9, 428, 72
-0.997855, 33, 257, 48, 320
-0.997855, 137, 189, 152, 220
-0.997868, 129, 209, 144, 240
-0.997868, 27, 253, 42, 284
-0.997873, 59, 181, 74, 212
-0.997882, 59, 197, 74, 228
-0.997882, 115, 25, 130, 88
-0.997883, 421, 81, 436, 144
-0.997898, 95, 225, 110, 256
-0.997912, 453, 61, 468, 92
-0.997922, 83, 197, 98, 228
-0.997923, 321, 65, 336, 128
-0.99793, 107, 209, 122, 240
-0.997941, 319, 113, 334, 176
-0.997949, 153, 17, 168, 48
-0.997951, 297, 81, 328, 208
-0.997954, 75, 181, 90, 212
-0.997955, 441, 77, 456, 108
-0.997958, 321, 21, 448, 52
-0.997961, 441, 41, 456, 104
-0.997964, 321, 249, 448, 312
-0.997968, 197, 25, 212, 88
-0.99798, 335, 97, 350, 160
-0.99798, 463, 57, 478, 88
-0.997993, 129, 9, 144, 72
-0.997993, 65, 197, 80, 228
-0.997994, 409, 89, 424, 152
-0.997998, 107, 81, 122, 144
-0.997998, 281, 9, 296, 72
-0.998001, 81, 181, 96, 212
-0.998004, 5, 1, 36, 128
-0.998005, 169, 9, 184, 40
-0.998015, 141, 33, 156, 64
-0.998029, 107, 221, 122, 252
-0.998038, 161, 41, 288, 72
-0.99804, 369, 193, 496, 256
-0.99804, 141, 165, 156, 196
-0.998049, 413, 97, 444, 352
-0.998051, 421, 141, 436, 172
-0.998063, 447, 65, 462, 96
-0.998065, 13, 253, 28, 284
-0.99807, 225, 217, 480, 280
-0.998073, 119, 213, 134, 244
-0.998079, 473, 45, 488, 76
-0.998089, 1, 249, 16, 280
-0.998091, 87, 181, 102, 212
-0.998103, 289, 57, 416, 88
-0.998111, 421, 121, 436, 152
-0.998126, 405, 1, 436, 128
-0.998131, 67, 209, 82, 240
-0.998133, 177, 5, 192, 36
-0.998141, 147, 25, 162, 56
-0.998142, 155, 185, 170, 216
-0.998143, 285, 1, 316, 256
-0.998149, 469, 57, 484, 88
-0.998158, 69, 181, 84, 212
-0.998159, 101, 225, 116, 256
-0.998178, 157, 97, 188, 352
-0.998186, 103, 193, 118, 224
-0.998197, 143, 193, 158, 224
-0.998202, 177, 153, 304, 184
-0.998214, 203, 1, 218, 32
-0.998222, 197, 1, 228, 256
-0.998226, 5, 237, 20, 268
-0.998235, 161, 181, 176, 212
-0.998243, 475, 57, 490, 88
-0.998248, 133, 113, 148, 144
-0.99825, 321, 45, 448, 76
-0.998253, 131, 193, 146, 224
-0.998256, 217, 113, 248, 240
-0.998266, 427, 133, 442, 164
-0.998266, 113, 217, 128, 248
-0.998268, 161, 173, 288, 204
-0.998274, 17, 129, 48, 375
-0.998288, 177, 25, 304, 56
-0.998292, 49, 189, 64, 220
-0.998296, 225, 257, 480, 320
-0.998303, 257, 105, 384, 136
-0.998303, 139, 153, 154, 184
-0.998315, 177, 201, 304, 232
-0.998319, 265, 1, 280, 32
-0.998327, 13, 201, 44, 216
-0.998327, 65, 265, 320, 328
-0.998327, 69, 235, 100, 250
-0.998327, 125, 37, 156, 52
-0.998328, 121, 65, 152, 80
-0.998328, 257, 151, 288, 166
-0.998329, 173, 1, 204, 16
-0.99833, 121, 187, 152, 202
-0.99833, 149, 165, 180, 180
-0.998331, 129, 21, 160, 36
-0.998333, 1, 237, 32, 252
-0.998335, 13, 241, 44, 256
-0.998336, 405, 153, 436, 168
-0.998336, 425, 125, 456, 140
-0.998337, 431, 113, 446, 144
-0.998337, 117, 181, 148, 196
-0.998338, 1, 193, 32, 208
-0.998338, 13, 221, 44, 236
-0.998338, 141, 39, 172, 54
-0.998338, 13, 209, 44, 224
-0.998338, 137, 121, 168, 136
-0.998339, 145, 157, 176, 172
-0.998341, 7, 253, 22, 284
-0.998341, 49, 195, 112, 210
-0.998343, 249, 1, 280, 16
-0.998344, 201, 1, 232, 16
-0.998345, 141, 149, 172, 164
-0.998345, 109, 73, 140, 88
-0.998347, 433, 93, 464, 108
-0.998347, 33, 243, 64, 258
-0.998348, 121, 193, 152, 208
-0.99835, 145, 27, 176, 42
-0.99835, 429, 111, 460, 126
-0.998351, 421, 109, 436, 140
-0.998353, 29, 261, 60, 276
-0.998353, 197, 1, 212, 32
-0.998353, 141, 19, 172, 34
-0.998353, 417, 139, 448, 154
-0.998356, 425, 131, 456, 146
-0.998356, 429, 117, 460, 132
-0.998357, 13, 247, 44, 262
-0.998357, 125, 27, 156, 42
-0.998357, 445, 69, 476, 84
-0.998358, 153, 175, 184, 190
-0.998359, 161, 69, 288, 100
-0.998361, 433, 103, 464, 118
-0.998361, 13, 215, 44, 230
-0.998362, 257, 1, 384, 32
-0.998362, 225, 133, 352, 164
-0.998362, 125, 153, 156, 168
-0.998363, 145, 33, 176, 48
-0.998364, 25, 269, 56, 284
-0.998365, 17, 1, 144, 32
-0.998365, 185, 3, 216, 18
-0.998366, 31, 265, 46, 296
-0.998367, 129, 165, 160, 180
-0.998367, 117, 101, 148, 116
-0.998367, 1, 73, 256, 136
-0.998367, 417, 81, 448, 96
-0.998368, 441, 77, 472, 92
-0.998368, 437, 85, 468, 100
-0.998368, 261, 11, 292, 26
-0.99837, 483, 37, 498, 68
-0.998372, 125, 159, 156, 174
-0.998373, 45, 229, 76, 244
-0.998374, 29, 249, 60, 264
-0.998375, 13, 263, 44, 278
-0.998378, 409, 121, 440, 136
-0.998378, 61, 241, 92, 256
-0.998379, 469, 53, 500, 68
-0.998383, 225, 1, 256, 16
-0.998385, 153, 203, 184, 218
-0.998386, 17, 73, 144, 104
-0.998387, 113, 221, 240, 252
-0.998388, 449, 61, 480, 76
-0.998389, 121, 199, 152, 214
-0.998389, 157, 187, 188, 202
-0.998392, 109, 223, 140, 238
-0.998393, 117, 107, 148, 122
-0.998393, 33, 215, 64, 230
-0.998394, 97, 185, 128, 200
-0.998395, 1, 247, 32, 262
-0.998395, 409, 133, 440, 148
-0.998395, 133, 171, 164, 186
-0.998397, 109, 217, 140, 232
-0.998398, 225, 161, 352, 192
-0.998399, 467, 45, 482, 76
-0.9984, 33, 249, 48, 280
-0.998401, 49, 189, 112, 204
-0.998402, 13, 191, 44, 206
-0.998402, 417, 87, 448, 102
-0.998405, 435, 101, 450, 132
-0.998405, 33, 227, 64, 242
-0.998405, 419, 153, 434, 184
-0.998406, 25, 223, 88, 238
-0.998409, 413, 115, 444, 130
-0.998411, 141, 143, 172, 158
-0.998412, 101, 197, 132, 212
-0.998412, 33, 209, 64, 224
-0.998413, 157, 181, 188, 196
-0.998416, 143, 181, 158, 212
-0.998417, 329, 101, 344, 132
-0.998417, 125, 137, 156, 152
-0.998419, 321, 33, 448, 64
-0.99842, 25, 191, 88, 206
-0.99842, 117, 115, 148, 130
-0.998421, 409, 127, 440, 142
-0.998421, 69, 185, 100, 200
-0.998423, 121, 213, 152, 228
-0.998427, 125, 131, 156, 146
-0.998428, 145, 145, 160, 272
-0.998428, 89, 33, 120, 288
-0.99843, 271, 5, 286, 36
-0.998431, 113, 191, 176, 206
-0.998432, 241, 1, 256, 32
-0.998432, 153, 17, 184, 32
-0.998432, 49, 221, 112, 236
-0.998434, 25, 201, 88, 216
-0.998436, 33, 221, 64, 236
-0.998437, 417, 99, 448, 114
-0.998438, 437, 89, 452, 120
-0.998439, 69, 215, 100, 230
-0.998439, 97, 199, 160, 214
-0.998441, 101, 191, 132, 206
-0.998442, 37, 193, 68, 208
-0.998446, 25, 229, 88, 244
-0.998446, 173, 7, 204, 22
-0.99845, 49, 183, 112, 198
-0.998451, 205, 145, 236, 272
-0.998451, 33, 187, 64, 202
-0.998453, 129, 207, 160, 222
-0.998453, 141, 199, 172, 214
-0.998455, 33, 201, 64, 216
-0.998455, 49, 201, 112, 216
-0.99846, 89, 191, 152, 206
-0.99846, 65, 215, 128, 230
-0.99846, 413, 109, 444, 124
-0.998461, 59, 161, 74, 288
-0.998461, 49, 209, 112, 224
-0.998461, 333, 33, 364, 160
-0.998464, 417, 93, 448, 108
-0.998464, 137, 177, 168, 192
-0.998465, 65, 227, 128, 242
-0.998466, 25, 189, 40, 220
-0.998466, 25, 215, 88, 230
-0.998467, 85, 221, 116, 236
-0.998468, 51, 225, 66, 256
-0.99847, 89, 229, 120, 244
-0.998475, 129, 185, 192, 200
-0.998477, 69, 203, 100, 218
-0.998478, 1, 193, 64, 208
-0.998478, 121, 125, 152, 140
-0.998481, 229, 1, 260, 128
-0.998482, 25, 207, 88, 222
-0.998484, 265, 145, 280, 176
-0.998484, 53, 183, 84, 198
-0.998486, 73, 221, 136, 236
-0.998488, 161, 11, 192, 26
-0.998489, 25, 233, 40, 264
-0.99849, 461, 59, 492, 74
-0.998492, 17, 265, 144, 296
-0.998495, 101, 207, 132, 222
-0.998495, 25, 265, 40, 296
-0.998496, 241, 265, 368, 296
-0.998497, 157, 197, 188, 212
-0.998499, 177, 261, 304, 292
-0.998499, 139, 21, 154, 52
-0.9985, 81, 183, 112, 198
-0.998501, 137, 45, 152, 76
-0.998503, 145, 197, 208, 212
-0.998503, 141, 205, 172, 220
-0.998504, 1, 253, 32, 268
-0.998504, 125, 197, 140, 228
-0.998505, 97, 217, 160, 232
-0.998506, 65, 197, 96, 212
-0.998507, 53, 207, 84, 222
-0.998509, 89, 185, 152, 200
-0.998511, 91, 161, 106, 288
-0.998512, 427, 153, 442, 184
-0.998513, 73, 223, 104, 238
-0.998515, 73, 209, 136, 224
-0.998516, 1, 251, 64, 266
-0.998516, 71, 161, 86, 288
-0.998516, 35, 185, 50, 216
-0.998516, 49, 201, 64, 232
-0.998516, 13, 253, 44, 268
-0.998516, 481, 49, 496, 80
-0.998518, 97, 213, 128, 228
-0.998519, 385, 109, 448, 124
-0.99852, 97, 223, 128, 238
-0.998522, 259, 1, 274, 32
-0.998522, 65, 245, 192, 276
-0.998524, 169, 5, 232, 20
-0.998526, 1, 221, 64, 236
-0.998528, 129, 205, 192, 220
-0.998529, 137, 113, 152, 240
-0.998531, 247, 1, 262, 32
-0.998534, 73, 197, 136, 212
-0.998536, 97, 131, 160, 146
-0.998537, 193, 1, 256, 16
-0.998538, 113, 205, 128, 236
-0.998539, 1, 211, 64, 226
-0.99854, 137, 189, 168, 204
-0.998541, 1, 203, 64, 218
-0.998542, 57, 231, 88, 246
-0.998542, 385, 119, 448, 134
-0.998542, 53, 213, 84, 228
-0.998542, 25, 235, 88, 250
-0.998543, 323, 97, 338, 128
-0.998545, 1, 243, 64, 258
-0.998547, 79, 161, 94, 288
-0.998547, 137, 33, 200, 48
-0.998548, 65, 177, 80, 304
-0.998548, 137, 143, 200, 158
-0.998549, 153, 11, 216, 26
-0.998549, 73, 209, 104, 224
-0.99855, 113, 179, 176, 194
-0.99855, 401, 71, 464, 86
-0.998552, 97, 137, 160, 152
-0.998553, 85, 161, 100, 288
-0.998554, 127, 105, 142, 136
-0.998555, 97, 125, 160, 140
-0.998557, 289, 85, 416, 116
-0.998558, 129, 121, 192, 136
-0.998558, 53, 201, 84, 216
-0.998559, 385, 125, 448, 140
-0.998559, 145, 17, 208, 32
-0.998559, 113, 73, 128, 104
-0.998559, 97, 205, 160, 220
-0.99856, 121, 197, 184, 212
-0.99856, 209, 173, 336, 204
-0.99856, 73, 203, 136, 218
-0.998562, 1, 227, 64, 242
-0.998563, 277, 9, 292, 40
-0.998567, 137, 179, 200, 194
-0.998567, 413, 1, 444, 256
-0.998568, 103, 181, 118, 212
-0.99857, 401, 59, 464, 74
-0.998571, 89, 179, 152, 194
-0.998571, 85, 215, 116, 230
-0.998572, 5, 189, 20, 220
-0.998572, 129, 127, 192, 142
-0.998573, 25, 243, 88, 258
-0.998574, 393, 89, 456, 104
-0.998574, 129, 113, 192, 128
-0.998575, 69, 191, 100, 206
-0.998577, 97, 211, 160, 226
-0.998577, 25, 185, 88, 200
-0.998579, 209, 1, 224, 32
-0.998581, 89, 105, 152, 120
-0.998582, 401, 65, 464, 80
-0.998582, 385, 103, 448, 118
-0.998583, 183, 5, 198, 36
-0.998584, 69, 229, 100, 244
-0.998585, 105, 23, 168, 38
-0.998586, 137, 133, 200, 148
-0.998587, 145, 191, 208, 206
-0.998587, 393, 83, 456, 98
-0.998587, 209, 49, 336, 80
-0.998587, 161, 49, 192, 176
-0.998588, 137, 39, 200, 54
-0.998588, 25, 249, 88, 264
-0.998588, 53, 221, 84, 236
-0.998591, 113, 173, 176, 188
-0.998591, 97, 153, 160, 168
-0.998592, 129, 107, 192, 122
-0.998593, 1, 237, 64, 252
-0.998594, 97, 223, 160, 238
-0.998595, 385, 131, 448, 146
-0.998597, 401, 77, 464, 92
-0.998601, 129, 95, 192, 110
-0.998603, 385, 97, 448, 112
-0.998603, 225, 5, 288, 20
-0.998603, 105, 163, 168, 178
-0.998604, 257, 13, 384, 44
-0.998605, 57, 191, 88, 206
-0.998605, 121, 211, 184, 226
-0.998606, 129, 49, 192, 64
-0.998606, 129, 101, 192, 116
-0.998607, 97, 117, 160, 132
-0.998609, 145, 25, 208, 40
-0.998609, 113, 143, 176, 158
-0.998611, 129, 55, 192, 70
-0.998612, 1, 187, 64, 202
-0.998617, 137, 183, 168, 198
-0.998619, 85, 207, 116, 222
-0.998619, 333, 65, 364, 320
-0.998621, 137, 149, 200, 164
-0.998622, 49, 233, 112, 248
-0.998625, 133, 25, 148, 56
-0.998628, 89, 111, 152, 126
-0.998629, 417, 123, 480, 138
-0.998629, 173, 1, 204, 256
-0.998629, 89, 97, 152, 112
-0.99863, 129, 89, 192, 104
-0.998631, 321, 99, 384, 114
-0.998632, 409, 53, 472, 68
-0.998634, 85, 197, 116, 212
-0.998634, 137, 1, 200, 16
-0.998634, 1, 273, 500, 336
-0.998635, 433, 75, 496, 90
-0.998636, 361, 117, 424, 132
-0.998636, 461, 45, 476, 76
-0.998636, 271, 137, 286, 168
-0.998637, 97, 31, 160, 46
-0.998637, 417, 117, 480, 132
-0.998637, 129, 73, 192, 88
-0.998637, 425, 81, 488, 96
-0.998638, 425, 87, 488, 102
-0.998641, 425, 101, 488, 116
-0.998642, 417, 111, 480, 126
-0.998642, 289, 111, 352, 126
-0.998642, 81, 191, 112, 206
-0.998642, 157, 169, 172, 200
-0.998643, 417, 129, 480, 144
-0.998647, 191, 1, 206, 32
-0.99865, 129, 81, 192, 96
-0.998651, 129, 61, 192, 76
-0.998651, 433, 61, 496, 76
-0.998652, 409, 95, 472, 110
-0.998653, 433, 67, 496, 82
-0.998653, 137, 155, 200, 170
-0.998655, 225, 145, 352, 176
-0.998655, 129, 67, 192, 82
-0.998655, 313, 121, 376, 136
-0.998655, 153, 185, 216, 200
-0.998656, 137, 161, 200, 176
-0.998656, 145, 173, 208, 188
-0.998656, 153, 203, 216, 218
-0.998658, 121, 17, 184, 32
-0.998658, 1, 257, 64, 272
-0.99866, 233, 11, 296, 26
-0.998661, 273, 13, 336, 28
-0.998666, 89, 85, 152, 100
-0.998666, 89, 73, 152, 88
-0.998666, 265, 7, 328, 22
-0.998668, 97, 39, 160, 54
-0.998668, 385, 137, 448, 152
-0.998669, 361, 111, 424, 126
-0.998672, 411, 13, 426, 44
-0.998673, 57, 33, 88, 288
-0.998676, 121, 81, 136, 112
-0.998677, 161, 1, 176, 32
-0.998678, 123, 93, 138, 124
-0.998682, 305, 1, 336, 256
-0.998699, 97, 161, 112, 288
-0.998705, 161, 53, 288, 84
-0.998705, 49, 213, 64, 244
-0.998711, 119, 201, 134, 232
-0.998714, 147, 149, 162, 180
-0.998717, 273, 1, 304, 256
-0.998721, 277, 141, 292, 172
-0.998723, 163, 193, 178, 224
-0.998727, 5, 221, 20, 252
-0.998733, 321, 33, 352, 288
-0.998749, 177, 113, 304, 144
-0.998758, 151, 161, 166, 288
-0.998759, 423, 165, 438, 196
-0.99876, 13, 129, 44, 256
-0.998768, 161, 1, 192, 256
-0.998771, 145, 13, 160, 44
-0.998773, 19, 241, 34, 272
-0.998774, 185, 37, 200, 68
-0.998777, 11, 241, 26, 272
-0.998788, 353, 65, 384, 320
-0.998813, 305, 225, 432, 352
-0.998832, 77, 33, 108, 288
-0.998834, 17, 61, 144, 92
-0.998841, 23, 177, 38, 304
-0.998862, 1, 313, 256, 375
-0.998864, 17, 89, 144, 120
-0.998869, 135, 33, 150, 160
-0.998891, 209, 241, 336, 272
-0.998913, 257, 277, 384, 308
-0.998914, 49, 49, 112, 176
-0.998918, 177, 125, 304, 156
-0.998925, 209, 37, 336, 68
-0.998927, 177, 141, 304, 172
-0.998928, 75, 209, 90, 336
-0.998941, 429, 97, 444, 224
-0.998948, 193, 189, 320, 220
-0.998952, 81, 81, 112, 208
-0.998954, 1, 241, 500, 304
-0.998956, 5, 177, 20, 304
-0.998978, 153, 1, 168, 128
-0.999003, 151, 113, 166, 240
-0.999004, 53, 177, 68, 304
-0.999004, 139, 161, 154, 288
-0.999006, 167, 1, 182, 128
-0.999006, 143, 17, 158, 144
-0.999007, 233, 145, 264, 272
-0.999008, 241, 253, 368, 284
-0.999022, 173, 1, 188, 128
-0.999036, 361, 33, 392, 160
-0.999038, 257, 233, 384, 264
-0.999043, 437, 65, 452, 192
-0.999044, 65, 129, 80, 256
-0.999046, 161, 237, 288, 268
-0.999049, 273, 141, 400, 172
-0.99905, 177, 221, 304, 252
-0.999062, 1, 277, 128, 308
-0.999066, 161, 1, 176, 128
-0.999077, 193, 177, 448, 240
-0.999079, 13, 241, 28, 368
-0.999083, 293, 193, 324, 320
-0.99909, 59, 209, 74, 336
-0.999097, 483, 1, 498, 128
-0.999097, 81, 209, 96, 336
-0.999097, 157, 145, 172, 272
-0.999099, 321, 289, 448, 352
-0.999108, 131, 113, 146, 240
-0.999108, 477, 1, 492, 128
-0.999124, 421, 65, 436, 192
-0.999126, 25, 225, 40, 352
-0.999126, 1, 37, 128, 68
-0.999126, 273, 345, 400, 375
-0.999129, 103, 177, 118, 304
-0.999135, 449, 49, 464, 176
-0.999139, 33, 289, 160, 320
-0.99914, 225, 305, 352, 368
-0.999147, 15, 177, 30, 304
-0.999152, 209, 277, 336, 308
-0.999153, 5, 241, 20, 368
-0.999155, 241, 205, 368, 236
-0.99916, 145, 193, 160, 320
-0.999162, 87, 209, 102, 336
-0.999164, 131, 193, 146, 320
-0.999179, 471, 1, 486, 128
-0.999193, 353, 337, 480, 368
-0.999195, 31, 225, 46, 352
-0.999196, 113, 237, 240, 268
-0.999203, 179, 1, 194, 128
-0.999206, 389, 1, 420, 256
-0.999207, 143, 97, 158, 224
-0.999209, 273, 41, 400, 72
-0.999209, 217, 65, 248, 320
-0.999215, 123, 193, 138, 320
-0.999218, 369, 177, 496, 208
-0.99922, 455, 49, 470, 176
-0.999221, 471, 49, 486, 176
-0.999227, 95, 209, 110, 336
-0.999238, 461, 49, 476, 176
-0.999238, 19, 241, 34, 368
-0.99924, 123, 17, 138, 144
-0.999244, 269, 129, 300, 375
-0.999245, 365, 65, 396, 320
-0.99925, 241, 221, 368, 252
-0.99925, 369, 321, 496, 352
-0.999251, 273, 25, 400, 56
-0.999292, 279, 1, 294, 128
-0.999296, 355, 81, 370, 208
-0.999303, 443, 49, 458, 176
-0.999304, 129, 33, 144, 160
-0.999304, 145, 49, 176, 176
-0.999305, 273, 157, 400, 188
-0.999309, 29, 177, 44, 304
-0.999312, 413, 161, 444, 288
-0.999313, 1, 149, 128, 180
-0.999319, 103, 129, 118, 256
-0.999324, 463, 1, 478, 128
-0.999324, 47, 161, 62, 288
-0.999324, 369, 257, 496, 288
-0.999325, 193, 289, 448, 352
-0.99933, 421, 129, 436, 256
-0.999342, 445, 161, 476, 288
-0.999344, 241, 1, 272, 128
-0.99935, 59, 113, 74, 240
-0.999352, 361, 81, 376, 208
-0.999356, 163, 145, 178, 272
-0.999357, 95, 113, 110, 240
-0.999359, 477, 49, 492, 176
-0.999367, 117, 193, 132, 320
-0.999367, 369, 229, 496, 260
-0.999371, 185, 1, 200, 128
-0.999373, 203, 1, 218, 128
-0.999378, 441, 1, 456, 128
-0.999381, 257, 289, 384, 320
-0.999381, 35, 177, 50, 304
-0.999383, 411, 65, 426, 192
-0.999384, 285, 1, 300, 128
-0.999392, 109, 161, 124, 288
-0.999396, 113, 33, 128, 160
-0.9994, 209, 1, 224, 128
-0.999403, 407, 17, 422, 144
-0.999405, 53, 129, 68, 256
-0.999406, 201, 193, 232, 320
-0.999412, 447, 1, 462, 128
-0.999418, 425, 129, 488, 375
-0.99943, 169, 145, 184, 272
-0.999434, 309, 49, 324, 176
-0.999436, 435, 17, 450, 144
-0.999438, 37, 33, 68, 288
-0.999439, 453, 1, 468, 128
-0.999441, 67, 225, 82, 352
-0.999443, 1, 289, 256, 352
-0.999446, 337, 177, 400, 304
-0.999446, 377, 241, 440, 368
-0.999447, 119, 145, 134, 272
-0.999465, 273, 1, 288, 128
-0.999466, 415, 113, 430, 240
-0.999466, 125, 145, 140, 272
-0.999466, 415, 1, 430, 128
-0.999467, 409, 225, 472, 352
-0.999468, 71, 113, 86, 240
-0.999473, 297, 129, 328, 375
-0.999476, 107, 17, 122, 144
-0.999494, 349, 81, 364, 208
-0.999498, 79, 113, 94, 240
-0.9995, 367, 81, 382, 208
-0.999507, 169, 97, 200, 352
-0.999509, 215, 1, 230, 128
-0.999519, 89, 113, 104, 240
-0.999526, 157, 193, 172, 320
-0.999528, 265, 65, 296, 192
-0.999533, 315, 65, 330, 192
-0.999535, 197, 1, 212, 128
-0.999539, 23, 189, 38, 204
-0.99954, 269, 7, 284, 22
-0.999544, 159, 185, 174, 200
-0.999545, 111, 213, 126, 228
-0.999545, 161, 191, 176, 206
-0.999546, 51, 183, 66, 198
-0.999548, 93, 215, 108, 230
-0.999548, 327, 101, 342, 116
-0.999548, 419, 161, 434, 176
-0.999548, 437, 99, 452, 114
-0.999548, 229, 1, 244, 16
-0.999549, 49, 195, 64, 210
-0.999549, 65, 223, 80, 238
-0.999549, 1, 257, 16, 272
-0.99955, 245, 97, 276, 352
-0.99955, 29, 261, 44, 276
-0.999551, 321, 81, 336, 208
-0.999551, 143, 39, 158, 54
-0.999551, 53, 209, 68, 224
-0.999551, 123, 65, 138, 192
-0.999552, 291, 17, 306, 144
-0.999553, 103, 191, 118, 206
-0.999553, 101, 197, 116, 212
-0.999553, 435, 105, 450, 120
-0.999556, 151, 27, 166, 42
-0.999556, 301, 33, 316, 160
-0.999557, 483, 53, 498, 68
-0.999558, 115, 219, 130, 234
-0.999558, 145, 147, 160, 162
-0.999559, 153, 195, 168, 210
-0.999559, 103, 227, 118, 242
-0.99956, 229, 33, 260, 288
-0.99956, 433, 113, 448, 128
-0.99956, 95, 203, 110, 218
-0.99956, 431, 123, 446, 138
-0.999562, 105, 211, 120, 226
-0.999564, 439, 89, 454, 104
-0.999564, 29, 269, 44, 284
-0.999568, 147, 33, 162, 48
-0.999568, 139, 161, 154, 176
-0.99957, 111, 209, 126, 336
-0.99957, 441, 81, 456, 96
-0.999571, 181, 7, 196, 22
-0.999572, 103, 81, 118, 208
-0.999572, 151, 189, 166, 204
-0.999573, 141, 199, 156, 214
-0.999573, 89, 223, 104, 238
-0.999574, 419, 149, 434, 164
-0.999575, 143, 23, 158, 38
-0.999575, 147, 197, 162, 212
-0.999577, 89, 203, 104, 218
-0.999577, 419, 155, 434, 170
-0.999578, 421, 119, 436, 134
-0.999579, 235, 1, 250, 16
-0.999579, 157, 179, 172, 194
-0.99958, 57, 183, 72, 198
-0.99958, 85, 185, 100, 200
-0.99958, 373, 81, 388, 208
-0.99958, 175, 145, 190, 272
-0.999583, 445, 75, 460, 90
-0.999583, 421, 137, 436, 152
-0.999583, 97, 185, 112, 200
-0.999583, 137, 129, 152, 144
-0.999584, 319, 1, 334, 128
-0.999584, 81, 197, 96, 212
-0.999584, 141, 167, 156, 182
-0.999585, 75, 207, 90, 222
-0.999586, 69, 197, 84, 212
-0.999587, 141, 183, 156, 198
-0.999587, 427, 141, 442, 156
-0.999589, 139, 135, 154, 150
-0.999589, 19, 1, 34, 128
-0.999589, 121, 213, 136, 228
-0.999589, 79, 183, 94, 198
-0.999592, 473, 51, 488, 66
-0.999593, 193, 97, 224, 352
-0.999595, 147, 183, 162, 198
-0.999595, 7, 257, 22, 272
-0.999596, 53, 203, 68, 218
-0.999596, 475, 57, 490, 72
-0.999597, 99, 17, 114, 144
-0.999597, 49, 189, 64, 204
-0.999599, 147, 141, 162, 156
-0.999599, 83, 223, 98, 238
-0.9996, 59, 215, 74, 230
-0.999601, 191, 17, 206, 144
-0.999601, 127, 211, 142, 226
-0.999602, 259, 129, 274, 256
-0.999603, 421, 143, 436, 158
-0.999604, 87, 215, 102, 230
-0.999605, 483, 49, 498, 176
-0.999607, 421, 125, 436, 140
-0.999608, 91, 183, 106, 198
-0.999609, 157, 17, 172, 32
-0.999609, 113, 81, 128, 208
-0.999611, 63, 183, 78, 198
-0.999611, 59, 223, 74, 238
-0.999611, 401, 129, 432, 375
-0.999611, 429, 17, 444, 144
-0.999612, 449, 67, 464, 82
-0.999612, 87, 197, 102, 212
-0.999614, 147, 171, 162, 186
-0.999615, 99, 221, 114, 236
-0.999615, 65, 203, 80, 218
-0.999618, 41, 177, 56, 304
-0.999619, 469, 57, 484, 72
-0.999621, 163, 15, 178, 30
-0.999621, 101, 205, 116, 220
-0.999624, 185, 177, 200, 304
-0.999624, 175, 9, 190, 24
-0.999625, 157, 97, 172, 224
-0.999625, 23, 253, 38, 268
-0.999625, 83, 229, 98, 244
-0.999627, 73, 183, 88, 198
-0.999628, 77, 229, 92, 244
-0.999629, 89, 229, 104, 244
-0.99963, 105, 217, 120, 232
-0.999631, 321, 193, 352, 320
-0.999631, 149, 65, 164, 192
-0.999632, 75, 197, 90, 212
-0.999632, 217, 65, 232, 192
-0.999633, 59, 231, 74, 246
-0.999633, 141, 205, 156, 220
-0.999634, 97, 227, 112, 242
-0.999635, 71, 223, 86, 238
-0.999635, 109, 223, 124, 238
-0.999636, 455, 63, 470, 78
-0.999637, 147, 205, 162, 220
-0.999639, 343, 81, 358, 208
-0.99964, 421, 131, 436, 146
-0.999641, 169, 11, 184, 26
-0.999641, 463, 59, 478, 74
-0.999643, 13, 253, 28, 268
-0.999644, 377, 65, 408, 320
-0.999645, 53, 225, 68, 352
-0.999649, 95, 197, 110, 212
-0.99965, 135, 207, 150, 222
-0.999652, 209, 65, 224, 192
-0.999653, 153, 201, 168, 216
-0.999653, 77, 223, 92, 238
-0.999654, 81, 213, 96, 228
-0.999654, 65, 209, 80, 224
-0.999656, 65, 231, 80, 246
-0.999656, 257, 129, 288, 375
-0.999658, 159, 197, 174, 212
-0.999661, 99, 215, 114, 230
-0.999664, 427, 145, 442, 272
-0.999669, 223, 65, 238, 192
-0.999671, 67, 191, 82, 206
-0.999676, 59, 209, 74, 224
-0.999677, 221, 1, 236, 128
-0.999683, 5, 33, 36, 288
-0.999683, 59, 189, 74, 204
-0.999684, 85, 191, 100, 206
-0.999688, 13, 1, 28, 128
-0.999689, 81, 207, 96, 222
-0.99969, 193, 49, 224, 176
-0.999692, 401, 1, 416, 128
-0.999692, 271, 129, 286, 256
-0.999693, 59, 199, 74, 214
-0.999694, 325, 33, 340, 160
-0.999697, 79, 191, 94, 206
-0.9997, 93, 191, 108, 206
-0.999704, 71, 229, 86, 244
-0.999706, 3, 251, 18, 266
-0.999718, 147, 177, 162, 192
-0.99972, 261, 1, 292, 256
-0.999725, 89, 209, 104, 224
-0.999725, 73, 189, 88, 204
-0.999737, 75, 213, 90, 228
-0.999741, 95, 209, 110, 224
-0.999771, 309, 97, 340, 352
-0.99985, 25, 1, 56, 256
-0.999867, 205, 129, 236, 375
-0.999902, 469, 161, 500, 288
-0.999913, 181, 97, 212, 352
-0.999915, 257, 313, 500, 375
-0.999936, 317, 145, 348, 272
-0.999958, 49, 313, 176, 375
-0.999958, 249, 1, 280, 256
-1.00004, 281, 97, 312, 352
-1.00005, 469, 129, 500, 375
-1.00014, 469, 209, 500, 336
-1.00021, 389, 129, 420, 375
-1.00027, 97, 289, 352, 352
-1.00029, 81, 281, 208, 344
-1.00031, 449, 129, 480, 375
-1.00032, 233, 129, 264, 375
-1.00038, 321, 129, 352, 375
-1.0005, 161, 281, 288, 344
-1.0005, 437, 97, 468, 352
-1.00062, 257, 241, 288, 368
-1.00071, 365, 129, 396, 256
-1.00079, 373, 33, 404, 160
-1.00086, 129, 313, 384, 375
-1.0009, 97, 305, 224, 368
-1.00097, 281, 161, 312, 288
-1.00109, 385, 145, 416, 272
-1.00122, 401, 161, 432, 288
-1.00132, 177, 305, 304, 368
-1.00133, 433, 209, 496, 336
-1.00136, 305, 177, 336, 304
-1.0017, 1, 305, 500, 368
-1.00179, 145, 225, 208, 352
-1.00193, 353, 177, 384, 304
-1.00194, 457, 225, 488, 352
-1.00269, 1, 49, 64, 176
-1.00584, 337, 225, 400, 352
-1.00596, 433, 97, 496, 224
-1.00606, 305, 241, 368, 368
