1963
-0.414778, 129, 1, 384, 375
-0.432336, 1, 1, 500, 375
-0.442795, 1, 129, 500, 375
-0.449915, 1, 33, 500, 288
-0.482882, 33, 1, 288, 375
-0.560547, 225, 1, 480, 375
-0.674631, 129, 97, 384, 352
-0.677978, 33, 1, 288, 256
-0.679708, 129, 1, 384, 256
-0.71428, 225, 33, 480, 288
-0.720285, 1, 97, 256, 352
-0.750758, 257, 129, 500, 375
-0.85573, 177, 1, 304, 375
-0.86778, 289, 1, 416, 375
-0.87176, 113, 1, 240, 375
-0.875507, 225, 1, 352, 375
-0.877794, 337, 1, 464, 375
-0.880921, 65, 1, 192, 375
-0.88158, 81, 97, 208, 352
-0.882648, 1, 1, 128, 375
-0.882956, 129, 33, 256, 288
-0.887681, 1, 97, 128, 352
-0.888404, 225, 1, 352, 256
-0.889145, 177, 1, 304, 256
-0.894355, 1, 1, 128, 256
-0.895021, 321, 65, 448, 320
-0.896397, 241, 97, 368, 352
-0.899088, 177, 97, 304, 352
-0.903746, 369, 97, 496, 352
-0.90615, 65, 1, 192, 256
-0.907072, 129, 129, 256, 375
-0.908109, 273, 1, 400, 256
-0.913837, 1, 33, 500, 160
-0.916914, 1, 113, 500, 240
-0.922749, 369, 1, 496, 256
-0.926731, 1, 33, 256, 160
-0.929964, 97, 113, 352, 240
-0.933441, 1, 241, 500, 368
-0.934745, 225, 65, 480, 192
-0.935293, 97, 49, 352, 176
-0.942556, 1, 177, 500, 304
-0.943476, 193, 113, 448, 240
-0.948494, 97, 97, 224, 224
-0.951016, 321, 113, 448, 240
-0.951431, 145, 97, 272, 224
-0.952526, 1, 81, 256, 208
-0.953108, 369, 65, 496, 192
-0.953193, 41, 33, 104, 160
-0.954651, 289, 1, 352, 128
-0.955061, 9, 65, 72, 192
-0.955217, 121, 113, 184, 240
-0.955883, 321, 65, 448, 192
-0.955885, 97, 161, 352, 288
-0.956092, 225, 97, 352, 224
-0.956613, 49, 65, 176, 192
-0.956749, 1, 49, 128, 176
-0.956758, 177, 49, 304, 176
-0.957816, 145, 113, 208, 240
-0.958766, 97, 145, 224, 272
-0.959109, 273, 113, 400, 240
-0.959448, 17, 81, 80, 144
-0.959531, 289, 65, 352, 192
-0.959696, 81, 33, 144, 160
-0.960279, 169, 97, 232, 224
-0.960627, 433, 65, 496, 192
-0.960727, 113, 33, 240, 160
-0.960746, 97, 1, 352, 128
-0.961713, 145, 145, 272, 272
-0.961864, 41, 73, 104, 136
-0.962313, 81, 225, 208, 352
-0.96267, 257, 17, 500, 144
-0.962688, 225, 49, 352, 176
-0.962922, 313, 113, 376, 240
-0.9633, 361, 113, 424, 240
-0.963347, 265, 17, 328, 144
-0.963369, 257, 225, 500, 352
-0.963495, 273, 65, 400, 192
-0.963638, 1, 97, 128, 224
-0.964175, 97, 97, 160, 224
-0.964366, 289, 113, 352, 240
-0.964684, 321, 49, 384, 176
-0.965554, 73, 89, 136, 152
-0.965766, 1, 17, 64, 144
-0.96605, 49, 113, 176, 240
-0.96606, 233, 113, 296, 240
-0.9661, 401, 65, 464, 192
-0.966625, 265, 97, 328, 224
-0.966908, 369, 113, 496, 240
-0.966939, 65, 241, 320, 368
-0.966965, 193, 97, 256, 224
-0.967113, 369, 241, 496, 368
-0.967402, 1, 129, 256, 256
-0.967609, 433, 113, 496, 240
-0.96788, 225, 49, 288, 176
-0.968257, 17, 225, 144, 352
-0.968349, 129, 33, 192, 160
-0.968398, 225, 177, 480, 304
-0.968815, 73, 81, 136, 208
-0.969121, 393, 113, 456, 240
-0.96966, 113, 113, 176, 176
-0.969664, 313, 1, 376, 128
-0.969723, 321, 1, 448, 128
-0.969815, 1, 49, 64, 112
-0.969951, 113, 161, 176, 288
-0.970565, 353, 49, 416, 176
-0.970734, 369, 1, 496, 128
-0.970924, 281, 113, 344, 176
-0.971187, 337, 113, 400, 240
-0.971195, 33, 105, 96, 168
-0.971325, 161, 241, 416, 368
-0.971386, 257, 177, 384, 304
-0.971429, 369, 193, 496, 320
-0.971666, 425, 1, 488, 128
-0.971841, 297, 177, 360, 304
-0.972231, 169, 113, 232, 176
-0.972285, 121, 97, 184, 352
-0.972323, 41, 97, 104, 224
-0.97245, 273, 1, 336, 256
-0.972685, 89, 177, 152, 304
-0.972967, 273, 177, 336, 304
-0.972977, 417, 297, 480, 360
-0.973137, 201, 49, 264, 176
-0.973294, 377, 49, 440, 176
-0.973477, 145, 113, 208, 176
-0.973485, 105, 33, 168, 160
-0.973645, 177, 193, 304, 320
-0.973777, 121, 1, 184, 256
-0.973823, 265, 1, 328, 64
-0.97384, 57, 113, 120, 176
-0.973882, 417, 225, 480, 352
-0.974144, 1, 177, 256, 304
-0.974433, 81, 41, 144, 104
-0.974687, 49, 177, 176, 304
-0.974957, 81, 225, 144, 352
-0.975244, 241, 1, 304, 128
-0.975264, 145, 97, 208, 352
-0.975286, 145, 153, 208, 216
-0.97529, 321, 177, 448, 304
-0.975498, 41, 41, 104, 104
-0.975565, 9, 105, 72, 168
-0.975601, 145, 1, 208, 256
-0.975621, 297, 1, 360, 256
-0.975669, 165, 97, 196, 224
-0.975765, 297, 185, 360, 248
-0.975837, 337, 1, 400, 128
-0.97596, 249, 1, 312, 256
-0.9762, 321, 225, 448, 352
-0.976498, 265, 97, 328, 352
-0.976507, 289, 25, 352, 88
-0.976512, 209, 1, 272, 256
-0.976539, 113, 169, 176, 232
-0.9767, 241, 1, 368, 128
-0.976763, 305, 97, 368, 352
-0.977225, 329, 121, 392, 184
-0.977317, 177, 1, 304, 128
-0.977332, 297, 1, 360, 64
-0.977661, 17, 113, 80, 240
-0.977686, 169, 145, 232, 272
-0.977794, 73, 33, 136, 288
-0.977892, 33, 1, 96, 256
-0.977948, 361, 1, 424, 128
-0.978025, 361, 121, 424, 184
-0.978046, 169, 33, 232, 160
-0.978147, 1, 1, 128, 128
-0.978201, 433, 121, 496, 184
-0.978283, 17, 33, 48, 160
-0.978288, 73, 137, 136, 200
-0.978368, 129, 225, 256, 352
-0.978473, 97, 33, 160, 288
-0.978514, 385, 121, 448, 184
-0.978678, 469, 81, 500, 208
-0.978762, 145, 225, 208, 352
-0.978839, 89, 113, 152, 176
-0.978862, 37, 81, 68, 144
-0.979009, 369, 241, 432, 368
-0.979028, 97, 113, 224, 176
-0.979151, 273, 241, 400, 368
-0.979497, 393, 241, 456, 368
-0.979553, 249, 25, 312, 88
-0.979652, 169, 97, 232, 352
-0.979728, 137, 161, 200, 288
-0.979877, 217, 121, 280, 184
-0.979882, 73, 65, 136, 128
-0.979927, 1, 1, 64, 256
-0.98019, 329, 33, 392, 288
-0.980226, 161, 121, 192, 184
-0.980362, 33, 81, 160, 144
-0.980514, 369, 289, 432, 352
-0.980548, 257, 121, 320, 184
-0.980653, 241, 1, 304, 64
-0.980742, 65, 129, 128, 256
-0.980934, 1, 1, 32, 128
-0.980999, 313, 289, 376, 352
-0.981, 49, 17, 176, 144
-0.981027, 289, 313, 352, 375
-0.981138, 209, 145, 336, 272
-0.981185, 169, 145, 232, 208
-0.981195, 249, 97, 312, 160
-0.981206, 305, 121, 368, 184
-0.981264, 1, 65, 32, 192
-0.981278, 225, 97, 288, 352
-0.981398, 377, 313, 440, 375
-0.981439, 181, 97, 212, 224
-0.981512, 105, 225, 168, 352
-0.981553, 193, 121, 256, 184
-0.981632, 145, 113, 272, 176
-0.981643, 257, 225, 320, 352
-0.98166, 417, 273, 480, 336
-0.981806, 297, 161, 360, 224
-0.981849, 169, 1, 232, 256
-0.98191, 433, 81, 496, 144
-0.981945, 321, 1, 384, 64
-0.981974, 173, 113, 204, 176
-0.982016, 273, 193, 336, 256
-0.982067, 401, 129, 464, 375
-0.982131, 369, 97, 432, 352
-0.982149, 89, 201, 152, 264
-0.982199, 25, 17, 88, 80
-0.982305, 425, 97, 488, 352
-0.982312, 49, 129, 176, 192
-0.982587, 217, 1, 280, 128
-0.982663, 73, 177, 136, 240
-0.982664, 425, 1, 488, 256
-0.982851, 73, 249, 136, 312
-0.98288, 169, 145, 200, 208
-0.982962, 273, 1, 336, 375
-0.982975, 297, 241, 360, 368
-0.983059, 353, 313, 416, 375
-0.983071, 329, 1, 392, 375
-0.983079, 465, 105, 496, 168
-0.98308, 217, 1, 280, 375
-0.983129, 1, 177, 128, 304
-0.983165, 225, 225, 352, 352
-0.983191, 25, 81, 56, 144
-0.983194, 97, 1, 160, 375
-0.983281, 321, 25, 384, 88
-0.983315, 409, 1, 472, 64
-0.983451, 369, 1, 432, 256
-0.983452, 37, 65, 68, 192
-0.983491, 1, 113, 128, 176
-0.983559, 49, 97, 112, 352
-0.983659, 193, 97, 256, 352
-0.983662, 121, 1, 184, 375
-0.983677, 17, 49, 48, 112
-0.98372, 265, 257, 328, 320
-0.983728, 57, 1, 120, 375
-0.983773, 193, 121, 320, 184
-0.983849, 97, 73, 160, 136
-0.983905, 153, 97, 184, 224
-0.983958, 297, 225, 360, 288
-0.984045, 337, 225, 400, 352
-0.984098, 353, 305, 480, 368
-0.984227, 409, 121, 472, 184
-0.984251, 1, 73, 32, 136
-0.984252, 105, 241, 168, 304
-0.984274, 273, 113, 400, 176
-0.984311, 133, 113, 164, 240
-0.984369, 241, 313, 304, 375
-0.984433, 401, 161, 464, 288
-0.984507, 209, 145, 272, 272
-0.984562, 9, 1, 72, 375
-0.984644, 129, 241, 192, 304
-0.984648, 257, 233, 320, 296
-0.984692, 145, 1, 208, 375
-0.984763, 249, 1, 312, 375
-0.984816, 113, 153, 240, 216
-0.984851, 257, 161, 320, 224
-0.984867, 329, 129, 392, 375
-0.985025, 393, 1, 456, 128
-0.985025, 49, 193, 112, 320
-0.985036, 189, 121, 220, 184
-0.985041, 81, 129, 144, 375
-0.98513, 265, 305, 328, 368
-0.985202, 165, 145, 196, 272
-0.985259, 433, 9, 496, 72
-0.985266, 393, 289, 456, 352
-0.985333, 249, 161, 312, 288
-0.985345, 369, 113, 400, 240
-0.985464, 401, 33, 464, 288
-0.985464, 161, 33, 288, 96
-0.985464, 321, 129, 448, 192
-0.985506, 453, 65, 484, 192
-0.985541, 57, 1, 120, 64
-0.985547, 297, 249, 360, 312
-0.9856, 329, 49, 360, 176
-0.985601, 113, 49, 240, 112
-0.985649, 313, 65, 344, 192
-0.985708, 321, 313, 384, 375
-0.985801, 345, 185, 408, 248
-0.985819, 281, 281, 344, 344
-0.985844, 425, 41, 488, 104
-0.985859, 65, 241, 192, 304
-0.985905, 337, 113, 368, 240
-0.985934, 305, 1, 368, 375
-0.985974, 17, 97, 80, 352
-0.98598, 417, 1, 480, 375
-0.985982, 49, 105, 176, 168
-0.986021, 369, 281, 496, 344
-0.986033, 97, 137, 160, 200
-0.986076, 177, 145, 208, 272
-0.986123, 193, 97, 224, 224
-0.986132, 381, 113, 412, 240
-0.986165, 177, 1, 240, 375
-0.986206, 121, 97, 152, 224
-0.986238, 369, 121, 496, 184
-0.986309, 149, 145, 180, 208
-0.986387, 301, 97, 332, 224
-0.986404, 401, 41, 464, 104
-0.986463, 297, 49, 328, 176
-0.986503, 217, 41, 280, 104
-0.986504, 433, 161, 496, 288
-0.986546, 393, 121, 424, 184
-0.986587, 217, 97, 248, 224
-0.986679, 241, 297, 368, 360
-0.986686, 469, 33, 500, 160
-0.986779, 17, 81, 48, 208
-0.98679, 57, 217, 120, 280
-0.986799, 321, 113, 352, 240
-0.986804, 453, 289, 484, 352
-0.986848, 49, 81, 80, 144
-0.986882, 393, 1, 456, 375
-0.986895, 85, 81, 116, 144
-0.986901, 217, 209, 280, 336
-0.986951, 145, 113, 176, 176
-0.986977, 337, 121, 368, 184
-0.98698, 289, 305, 416, 368
-0.987029, 177, 9, 304, 72
-0.987031, 109, 97, 140, 224
-0.987041, 81, 113, 112, 176
-0.987069, 261, 33, 292, 160
-0.987083, 349, 113, 380, 240
-0.987085, 409, 113, 440, 240
-0.987117, 81, 65, 112, 192
-0.987128, 57, 105, 88, 168
-0.98713, 121, 145, 184, 208
-0.987139, 361, 1, 424, 375
-0.987165, 121, 169, 152, 232
-0.987204, 321, 153, 384, 216
-0.987211, 353, 161, 416, 224
-0.987297, 393, 145, 456, 208
-0.987318, 201, 313, 264, 375
-0.987324, 149, 145, 180, 272
-0.987337, 253, 113, 284, 240
-0.987386, 369, 25, 432, 88
-0.987499, 393, 113, 424, 240
-0.987528, 33, 1, 96, 375
-0.98753, 73, 89, 104, 152
-0.987548, 437, 1, 468, 64
-0.987582, 329, 225, 392, 288
-0.987582, 225, 233, 288, 296
-0.987602, 81, 217, 208, 280
-0.987625, 285, 49, 316, 176
-0.987625, 289, 113, 320, 240
-0.987639, 97, 105, 128, 168
-0.987686, 105, 33, 168, 96
-0.987704, 177, 241, 304, 368
-0.987711, 433, 249, 496, 312
-0.987718, 153, 249, 216, 312
-0.987729, 137, 89, 200, 152
-0.987733, 181, 145, 212, 208
-0.987778, 317, 113, 348, 176
-0.987817, 345, 41, 408, 104
-0.987818, 257, 49, 384, 112
-0.987862, 121, 113, 152, 176
-0.987914, 429, 65, 460, 192
-0.98795, 37, 17, 68, 144
-0.987974, 453, 1, 484, 128
-0.987978, 257, 49, 320, 112
-0.987978, 421, 113, 452, 240
-0.987993, 361, 1, 424, 64
-0.988049, 169, 169, 232, 232
-0.988136, 465, 73, 496, 136
-0.988144, 461, 241, 492, 368
-0.9882, 41, 281, 104, 344
-0.988245, 37, 105, 68, 168
-0.988277, 241, 49, 272, 176
-0.988285, 305, 281, 432, 344
-0.988401, 341, 49, 372, 176
-0.988506, 413, 65, 444, 192
-0.988517, 257, 1, 384, 64
-0.988521, 281, 137, 344, 200
-0.988544, 113, 25, 240, 88
-0.988575, 97, 89, 224, 152
-0.988608, 401, 49, 432, 176
-0.988609, 369, 305, 400, 368
-0.988632, 81, 177, 208, 240
-0.988639, 257, 281, 320, 344
-0.988642, 265, 113, 296, 240
-0.98867, 309, 1, 340, 128
-0.988672, 217, 9, 280, 72
-0.988689, 393, 177, 456, 240
-0.98869, 169, 241, 232, 368
-0.988725, 101, 137, 132, 200
-0.988765, 393, 265, 456, 328
-0.988781, 241, 225, 368, 288
-0.9888, 289, 49, 352, 112
-0.988832, 69, 97, 100, 224
-0.988873, 65, 49, 192, 112
-0.988877, 289, 1, 320, 128
-0.98901, 137, 17, 200, 80
-0.989078, 41, 193, 104, 256
-0.989108, 457, 113, 488, 240
-0.989133, 65, 153, 192, 216
-0.989139, 337, 41, 464, 104
-0.989142, 405, 121, 436, 184
-0.989167, 337, 289, 400, 352
-0.989168, 329, 177, 392, 304
-0.98917, 229, 113, 260, 240
-0.989278, 1, 9, 64, 72
-0.989289, 1, 17, 32, 80
-0.989324, 9, 65, 72, 96
-0.989339, 297, 113, 328, 176
-0.989394, 377, 161, 440, 288
-0.989399, 1, 265, 64, 328
-0.989422, 205, 97, 236, 224
-0.989424, 385, 1, 448, 64
-0.989425, 105, 73, 136, 136
-0.989429, 441, 65, 472, 192
-0.989477, 161, 145, 288, 208
-0.989481, 209, 201, 336, 264
-0.98951, 249, 193, 312, 256
-0.989533, 277, 1, 308, 128
-0.989535, 113, 193, 176, 256
-0.989559, 17, 233, 144, 296
-0.989583, 369, 1, 496, 64
-0.989596, 281, 121, 312, 184
-0.989626, 241, 249, 368, 312
-0.989631, 137, 177, 200, 240
-0.989635, 161, 273, 224, 336
-0.989684, 17, 33, 144, 96
-0.989694, 301, 177, 332, 304
-0.989716, 41, 77, 104, 108
-0.989724, 209, 153, 272, 216
-0.989728, 25, 105, 56, 168
-0.989756, 313, 49, 376, 112
-0.989764, 369, 257, 496, 320
-0.989786, 209, 113, 240, 176
-0.989795, 217, 97, 280, 160
-0.989856, 469, 9, 500, 72
-0.989856, 221, 49, 252, 176
-0.989859, 469, 129, 500, 256
-0.98986, 241, 25, 368, 88
-0.989861, 225, 177, 352, 240
-0.989869, 53, 49, 84, 176
-0.98987, 169, 25, 232, 88
-0.989877, 73, 113, 136, 144
-0.989885, 17, 177, 80, 240
-0.989886, 277, 97, 308, 160
-0.9899, 409, 1, 440, 64
-0.989918, 49, 97, 80, 224
-0.989918, 437, 113, 468, 240
-0.989925, 433, 225, 496, 288
-0.989937, 469, 273, 500, 336
-0.989966, 321, 193, 448, 256
-0.989985, 41, 121, 104, 152
-0.989989, 69, 113, 100, 176
-0.990012, 365, 49, 396, 176
-0.990014, 441, 225, 472, 352
-0.990022, 177, 33, 208, 160
-0.990037, 205, 33, 236, 160
-0.990076, 109, 161, 140, 288
-0.99008, 9, 97, 40, 160
-0.990097, 449, 1, 480, 64
-0.990099, 137, 49, 200, 112
-0.990099, 369, 49, 432, 112
-0.990138, 17, 153, 144, 216
-0.990139, 321, 1, 448, 64
-0.990214, 73, 69, 136, 100
-0.990316, 273, 49, 304, 176
-0.990343, 105, 17, 136, 144
-0.990375, 229, 113, 260, 176
-0.990379, 97, 265, 224, 328
-0.990413, 13, 73, 44, 136
-0.990417, 33, 129, 96, 192
-0.990432, 49, 241, 112, 304
-0.990439, 369, 121, 400, 184
-0.990439, 17, 85, 80, 116
-0.990468, 381, 65, 412, 192
-0.990468, 133, 161, 164, 224
-0.990471, 97, 81, 128, 208
-0.990481, 177, 249, 304, 312
-0.990497, 349, 121, 380, 184
-0.9905, 1, 241, 64, 368
-0.990508, 109, 225, 140, 352
-0.99054, 65, 125, 128, 156
-0.990561, 309, 185, 340, 248
-0.990569, 1, 201, 128, 264
-0.990587, 241, 113, 272, 240
-0.990614, 225, 97, 352, 160
-0.990626, 381, 121, 412, 184
-0.990653, 161, 217, 288, 280
-0.990655, 161, 289, 288, 352
-0.990683, 421, 1, 452, 64
-0.990732, 17, 313, 80, 375
-0.99076, 177, 89, 240, 152
-0.990761, 353, 177, 416, 304
-0.990763, 65, 281, 128, 344
-0.990789, 441, 305, 472, 368
-0.990809, 353, 49, 384, 176
-0.990828, 425, 193, 488, 256
-0.990852, 329, 97, 392, 160
-0.990877, 177, 297, 240, 360
-0.990887, 277, 1, 308, 64
-0.990895, 17, 57, 144, 120
-0.990947, 353, 65, 480, 128
-0.990949, 393, 201, 456, 264
-0.99095, 25, 109, 88, 140
-0.990976, 49, 65, 112, 96
-0.991002, 1, 53, 64, 84
-0.991021, 161, 193, 288, 256
-0.991028, 281, 89, 344, 152
-0.991045, 121, 121, 184, 152
-0.991048, 193, 49, 256, 112
-0.991053, 441, 1, 472, 128
-0.991063, 69, 49, 100, 176
-0.991065, 145, 153, 208, 184
-0.991109, 401, 65, 464, 128
-0.991119, 97, 117, 160, 148
-0.991129, 161, 169, 288, 232
-0.991146, 353, 153, 480, 216
-0.991149, 321, 201, 384, 264
-0.991174, 321, 1, 352, 128
-0.991175, 169, 153, 232, 184
-0.991181, 409, 1, 440, 128
-0.991183, 357, 1, 388, 64
-0.991195, 273, 185, 400, 248
-0.991195, 305, 97, 368, 160
-0.991212, 417, 121, 448, 184
-0.991221, 121, 161, 152, 288
-0.991224, 289, 193, 320, 320
-0.99123, 369, 185, 432, 248
-0.991232, 161, 89, 288, 152
-0.991267, 129, 281, 192, 344
-0.991314, 369, 225, 496, 288
-0.991326, 433, 121, 496, 152
-0.991335, 289, 117, 352, 148
-0.991358, 321, 217, 448, 280
-0.991367, 89, 81, 152, 112
-0.991381, 129, 241, 256, 304
-0.991384, 17, 41, 80, 72
-0.9914, 89, 129, 152, 160
-0.991408, 349, 305, 380, 368
-0.991427, 49, 105, 112, 136
-0.99143, 265, 25, 296, 88
-0.991438, 145, 121, 208, 152
-0.991465, 425, 73, 488, 104
-0.99154, 41, 89, 104, 120
-0.991551, 257, 137, 384, 200
-0.991552, 313, 129, 376, 160
-0.991554, 433, 341, 496, 372
-0.991559, 385, 301, 448, 332
-0.991578, 281, 41, 344, 72
-0.991591, 457, 265, 488, 328
-0.991594, 81, 225, 112, 352
-0.991612, 469, 129, 500, 192
-0.991638, 89, 145, 120, 272
-0.991667, 457, 313, 488, 375
-0.991686, 33, 177, 160, 240
-0.991703, 73, 241, 136, 272
-0.99171, 153, 49, 184, 176
-0.991712, 169, 169, 200, 232
-0.99172, 277, 113, 308, 240
-0.991734, 65, 85, 128, 116
-0.991749, 1, 105, 64, 136
-0.991754, 377, 241, 408, 368
-0.99176, 369, 201, 496, 264
-0.991773, 337, 129, 400, 160
-0.991773, 297, 221, 360, 252
-0.991788, 273, 53, 336, 84
-0.991822, 289, 25, 352, 56
-0.991835, 145, 165, 208, 196
-0.99184, 169, 125, 232, 156
-0.991845, 289, 9, 352, 40
-0.991851, 369, 125, 432, 156
-0.991852, 85, 41, 116, 104
-0.991856, 169, 109, 232, 140
-0.991857, 177, 141, 240, 172
-0.991858, 445, 33, 476, 96
-0.991872, 249, 125, 312, 156
-0.991899, 161, 225, 192, 352
-0.99191, 109, 113, 140, 176
-0.991921, 209, 145, 336, 208
-0.991945, 429, 25, 460, 88
-0.991947, 113, 169, 176, 200
-0.991966, 209, 49, 336, 112
-0.991967, 17, 25, 80, 56
-0.991969, 469, 33, 500, 96
-0.991989, 257, 41, 320, 72
-0.99199, 41, 49, 104, 80
-0.99199, 1, 41, 32, 104
-0.991994, 353, 325, 416, 356
-0.992001, 277, 25, 308, 88
-0.992005, 353, 313, 416, 344
-0.992008, 409, 129, 472, 160
-0.99202, 401, 313, 464, 344
-0.992033, 305, 297, 336, 360
-0.992033, 145, 109, 208, 140
-0.992045, 265, 5, 328, 36
-0.992045, 289, 201, 352, 232
-0.992064, 409, 33, 440, 96
-0.992067, 409, 289, 472, 320
-0.992072, 73, 177, 136, 208
-0.99208, 49, 237, 112, 268
-0.992093, 289, 25, 416, 88
-0.992134, 73, 45, 136, 76
-0.992146, 209, 125, 272, 156
-0.992149, 337, 1, 368, 128
-0.992158, 193, 313, 320, 375
-0.992171, 313, 197, 376, 228
-0.992186, 305, 185, 368, 216
-0.99219, 265, 265, 328, 296
-0.992192, 105, 181, 168, 212
-0.992194, 433, 325, 496, 356
-0.992198, 397, 1, 428, 64
-0.992199, 209, 273, 336, 336
-0.992204, 433, 305, 496, 336
-0.992215, 265, 17, 328, 48
-0.992231, 289, 129, 352, 160
-0.992231, 253, 121, 284, 184
-0.992232, 337, 337, 400, 368
-0.992254, 313, 21, 376, 52
-0.99226, 133, 113, 164, 176
-0.992267, 145, 141, 208, 172
-0.992279, 97, 249, 160, 280
-0.99228, 329, 65, 392, 96
-0.992281, 101, 249, 132, 312
-0.99229, 121, 109, 184, 140
-0.992296, 81, 193, 144, 224
-0.992299, 225, 49, 288, 80
-0.99231, 321, 9, 384, 40
-0.992311, 433, 293, 496, 324
-0.992346, 129, 241, 192, 272
-0.992346, 65, 25, 192, 88
-0.992353, 321, 105, 448, 168
-0.992368, 261, 1, 292, 64
-0.992369, 313, 117, 376, 148
-0.992369, 433, 249, 496, 280
-0.99237, 369, 69, 432, 100
-0.992371, 425, 273, 488, 304
-0.992377, 105, 193, 168, 224
-0.992389, 313, 325, 376, 356
-0.992393, 73, 113, 104, 144
-0.992394, 433, 137, 496, 168
-0.992418, 257, 253, 320, 284
-0.992418, 265, 29, 328, 60
-0.992432, 337, 209, 400, 240
-0.992434, 425, 61, 488, 92
-0.992435, 129, 49, 192, 80
-0.992437, 225, 325, 288, 356
-0.992451, 437, 129, 468, 192
-0.992453, 321, 297, 352, 360
-0.992458, 89, 141, 152, 172
-0.992462, 289, 257, 352, 288
-0.992463, 193, 145, 224, 208
-0.992466, 241, 1, 304, 32
-0.992468, 313, 209, 376, 240
-0.992471, 97, 49, 160, 80
-0.992479, 409, 169, 472, 200
-0.99248, 333, 201, 364, 264
-0.992483, 97, 237, 160, 268
-0.992484, 249, 109, 312, 140
-0.992492, 313, 341, 376, 372
-0.992497, 73, 253, 136, 284
-0.992499, 409, 301, 472, 332
-0.9925, 37, 49, 68, 112
-0.992502, 305, 165, 368, 196
-0.992503, 297, 233, 360, 264
-0.992512, 281, 245, 344, 276
-0.992521, 41, 133, 104, 164
-0.992525, 361, 301, 424, 332
-0.99253, 401, 1, 464, 32
-0.992532, 201, 53, 264, 84
-0.992539, 17, 53, 48, 84
-0.992564, 393, 325, 456, 356
-0.992564, 385, 137, 448, 168
-0.992566, 321, 49, 384, 80
-0.992567, 145, 229, 208, 260
-0.992567, 305, 161, 432, 224
-0.992573, 169, 153, 200, 184
-0.992575, 169, 45, 232, 76
-0.992576, 65, 137, 128, 168
-0.992586, 41, 29, 104, 60
-0.992613, 37, 65, 68, 96
-0.992616, 321, 221, 384, 252
-0.992622, 329, 313, 392, 344
-0.992627, 137, 265, 200, 296
-0.99263, 249, 1, 280, 128
-0.99264, 361, 57, 424, 88
-0.992643, 249, 345, 312, 375
-0.992651, 433, 237, 496, 268
-0.992656, 61, 113, 92, 144
-0.992661, 113, 153, 176, 184
-0.992664, 233, 237, 296, 268
-0.992664, 289, 201, 320, 264
-0.992675, 89, 225, 152, 256
-0.992676, 249, 317, 312, 348
-0.992688, 1, 45, 32, 76
-0.992696, 109, 177, 140, 240
-0.9927, 137, 65, 168, 192
-0.9927, 469, 117, 500, 148
-0.992703, 153, 277, 216, 308
-0.992703, 25, 341, 88, 372
-0.992707, 393, 157, 456, 188
-0.992709, 257, 241, 320, 272
-0.992711, 369, 1, 400, 128
-0.992712, 93, 169, 124, 232
-0.992712, 433, 261, 496, 292
-0.992714, 17, 41, 48, 72
-0.992716, 129, 285, 192, 316
-0.99276, 81, 125, 112, 156
-0.992764, 85, 69, 116, 100
-0.992782, 313, 209, 344, 272
-0.992786, 97, 193, 128, 320
-0.992787, 241, 113, 272, 176
-0.992837, 269, 121, 300, 184
-0.992847, 85, 113, 116, 144
-0.992861, 305, 17, 336, 80
-0.992906, 169, 113, 200, 144
-0.992912, 313, 177, 344, 304
-0.992914, 93, 125, 124, 156
-0.992918, 57, 77, 88, 108
-0.992923, 381, 297, 412, 360
-0.992925, 25, 89, 56, 120
-0.99293, 37, 85, 68, 116
-0.99294, 105, 41, 136, 104
-0.992954, 61, 81, 92, 144
-0.992994, 101, 77, 132, 108
-0.993, 49, 113, 80, 144
-0.993005, 69, 125, 100, 156
-0.993006, 117, 33, 148, 160
-0.993006, 297, 233, 328, 296
-0.993015, 5, 57, 36, 88
-0.993037, 97, 113, 128, 144
-0.993037, 301, 117, 332, 148
-0.993038, 317, 25, 348, 88
-0.993038, 121, 249, 152, 312
-0.993044, 465, 89, 496, 120
-0.993044, 1, 85, 32, 116
-0.993052, 77, 233, 108, 296
-0.993055, 65, 113, 320, 176
-0.993068, 17, 69, 48, 100
-0.993089, 73, 65, 104, 96
-0.993097, 441, 305, 472, 336
-0.9931, 333, 233, 364, 296
-0.9931, 181, 157, 212, 188
-0.99311, 381, 317, 412, 348
-0.99311, 161, 141, 192, 172
-0.993111, 369, 177, 496, 240
-0.993114, 81, 237, 112, 268
-0.993118, 401, 125, 432, 156
-0.993129, 81, 137, 112, 200
-0.993131, 61, 101, 92, 132
-0.993144, 333, 125, 364, 156
-0.993144, 469, 69, 500, 100
-0.993145, 69, 81, 100, 112
-0.993151, 377, 129, 408, 160
-0.993161, 453, 305, 484, 336
-0.993164, 469, 129, 500, 160
-0.993165, 469, 273, 500, 304
-0.993174, 149, 121, 180, 152
-0.993181, 345, 325, 376, 356
-0.993185, 105, 125, 136, 156
-0.993186, 89, 85, 120, 116
-0.99319, 425, 1, 456, 128
-0.99319, 173, 225, 204, 352
-0.993205, 117, 181, 148, 212
-0.993206, 401, 305, 432, 336
-0.993206, 117, 117, 148, 148
-0.993208, 1, 73, 32, 104
-0.993211, 193, 33, 224, 160
-0.993218, 201, 125, 232, 156
-0.993218, 365, 325, 396, 356
-0.993222, 181, 109, 212, 140
-0.993222, 289, 121, 320, 152
-0.993222, 97, 241, 128, 272
-0.993225, 125, 169, 156, 200
-0.993229, 89, 137, 120, 168
-0.993234, 193, 1, 256, 128
-0.993238, 437, 5, 468, 36
-0.99324, 317, 129, 348, 160
-0.99324, 101, 65, 132, 96
-0.993244, 449, 293, 480, 324
-0.993251, 429, 125, 460, 156
-0.993251, 401, 289, 432, 352
-0.993253, 297, 257, 328, 288
-0.993253, 469, 105, 500, 136
-0.993254, 345, 129, 376, 160
-0.993254, 469, 249, 500, 280
-0.993269, 357, 125, 388, 156
-0.993269, 365, 313, 396, 344
-0.99328, 1, 33, 32, 64
-0.993281, 465, 289, 496, 320
-0.993281, 181, 121, 212, 152
-0.993285, 49, 101, 80, 132
-0.993288, 29, 45, 60, 76
-0.993291, 37, 97, 68, 128
-0.993293, 193, 145, 224, 176
-0.993294, 121, 249, 152, 280
-0.993295, 469, 313, 500, 344
-0.993299, 69, 217, 100, 248
-0.993304, 345, 337, 376, 368
-0.993304, 9, 193, 72, 320
-0.993307, 149, 149, 180, 180
-0.993314, 61, 65, 92, 96
-0.993317, 317, 221, 348, 252
-0.993317, 413, 129, 444, 160
-0.993318, 309, 189, 340, 220
-0.993322, 129, 121, 160, 152
-0.993328, 153, 45, 184, 76
-0.993329, 57, 125, 88, 156
-0.993331, 53, 89, 84, 120
-0.993334, 281, 105, 312, 136
-0.993342, 213, 125, 244, 156
-0.993342, 321, 117, 352, 148
-0.993345, 113, 193, 144, 224
-0.993351, 149, 161, 180, 192
-0.993351, 457, 1, 488, 32
-0.993352, 393, 317, 424, 348
-0.993353, 389, 301, 420, 332
-0.993356, 421, 1, 452, 32
-0.993356, 81, 49, 112, 80
-0.993356, 453, 281, 484, 312
-0.993361, 13, 105, 44, 136
-0.993363, 449, 13, 480, 44
-0.993363, 389, 129, 420, 160
-0.993366, 125, 157, 156, 188
-0.993369, 165, 165, 196, 196
-0.993373, 225, 125, 256, 156
-0.993375, 461, 261, 492, 292
-0.993382, 213, 53, 244, 84
-0.993384, 1, 9, 32, 40
-0.993385, 365, 337, 396, 368
-0.993386, 105, 137, 136, 168
-0.993386, 277, 125, 308, 156
-0.993389, 409, 5, 440, 36
-0.99339, 101, 153, 132, 184
-0.993393, 73, 93, 104, 124
-0.993394, 93, 225, 124, 256
-0.993397, 469, 141, 500, 172
-0.9934, 149, 109, 180, 140
-0.993401, 181, 145, 212, 176
-0.993403, 293, 293, 324, 324
-0.993406, 417, 301, 448, 332
-0.993407, 37, 109, 68, 140
-0.993411, 17, 29, 48, 60
-0.993412, 1, 97, 32, 128
-0.993413, 77, 137, 108, 168
-0.993416, 181, 169, 212, 200
-0.993419, 269, 57, 300, 88
-0.99342, 109, 165, 140, 196
-0.99342, 385, 329, 416, 360
-0.993422, 353, 313, 384, 344
-0.993424, 457, 117, 488, 148
-0.993426, 69, 229, 100, 260
-0.993427, 305, 201, 336, 232
-0.993452, 69, 193, 100, 256
-0.993468, 301, 273, 332, 336
-0.993516, 341, 33, 372, 96
-0.993523, 381, 1, 412, 128
-0.993538, 133, 225, 164, 352
-0.993544, 193, 121, 448, 184
-0.993545, 289, 257, 416, 320
-0.993545, 345, 1, 376, 64
-0.993557, 385, 1, 416, 64
-0.993586, 57, 57, 88, 120
-0.993687, 1, 41, 256, 104
-0.993743, 401, 225, 432, 352
-0.993752, 453, 73, 484, 136
-0.993756, 301, 241, 332, 368
-0.9938, 49, 273, 176, 336
-0.993837, 345, 241, 376, 368
-0.993837, 457, 49, 488, 112
-0.993869, 289, 241, 320, 368
-0.993893, 469, 305, 500, 368
-0.993933, 85, 209, 116, 272
-0.993933, 421, 281, 452, 344
-0.993935, 433, 49, 464, 112
-0.993954, 181, 169, 212, 232
-0.993984, 125, 137, 156, 200
-0.993987, 357, 1, 388, 128
-0.993988, 185, 193, 248, 320
-0.993997, 277, 177, 308, 304
-0.994011, 369, 1, 400, 64
-0.994013, 161, 57, 288, 120
-0.994042, 453, 177, 484, 304
-0.994079, 41, 241, 104, 368
-0.994091, 305, 65, 432, 128
-0.994098, 433, 281, 464, 344
-0.9941, 445, 225, 476, 288
-0.994147, 29, 113, 60, 240
-0.99416, 121, 241, 152, 368
-0.994165, 81, 1, 208, 64
-0.994187, 325, 241, 356, 368
-0.994238, 113, 289, 240, 352
-0.994289, 49, 305, 176, 368
-0.994305, 1, 81, 256, 144
-0.994311, 277, 241, 308, 368
-0.994314, 1, 281, 128, 344
-0.994322, 161, 241, 192, 304
-0.994335, 449, 121, 480, 184
-0.994347, 253, 25, 284, 88
-0.994438, 117, 73, 148, 136
-0.994449, 397, 1, 428, 128
-0.994471, 329, 1, 360, 64
-0.994483, 137, 137, 168, 200
-0.994484, 1, 305, 128, 368
-0.994484, 81, 17, 112, 144
-0.994505, 317, 233, 348, 296
-0.994512, 469, 249, 500, 312
-0.994531, 245, 313, 276, 375
-0.994536, 321, 161, 352, 224
-0.994538, 329, 33, 360, 96
-0.994589, 193, 145, 224, 272
-0.994598, 269, 241, 300, 304
-0.994641, 249, 1, 280, 64
-0.99468, 73, 65, 104, 128
-0.994722, 81, 169, 112, 232
-0.994734, 65, 117, 192, 148
-0.994776, 17, 1, 144, 64
-0.994794, 457, 241, 488, 304
-0.994794, 337, 193, 368, 320
-0.994839, 129, 1, 256, 64
-0.994894, 165, 49, 196, 176
-0.994985, 145, 313, 272, 375
-0.994987, 265, 177, 296, 304
-0.995022, 273, 89, 400, 152
-0.995125, 93, 33, 124, 160
-0.995155, 97, 161, 352, 224
-0.995221, 481, 97, 496, 160
-0.995243, 69, 209, 100, 336
-0.995271, 313, 241, 344, 368
-0.995301, 51, 73, 66, 136
-0.995318, 1, 257, 128, 320
-0.995399, 41, 81, 56, 144
-0.995435, 1, 113, 128, 144
-0.99551, 1, 85, 128, 116
-0.995532, 249, 177, 280, 304
-0.995534, 145, 225, 176, 352
-0.995537, 193, 241, 256, 368
-0.995562, 429, 225, 460, 352
-0.99557, 257, 305, 500, 368
-0.995575, 97, 49, 352, 112
-0.995665, 173, 113, 188, 176
-0.995673, 365, 241, 396, 368
-0.995717, 1, 125, 128, 156
-0.995734, 181, 145, 196, 208
-0.995752, 325, 193, 356, 320
-0.995861, 179, 105, 194, 168
-0.99588, 97, 241, 128, 368
-0.996034, 225, 153, 480, 216
-0.996041, 289, 129, 416, 160
-0.996047, 35, 89, 50, 152
-0.996137, 1, 241, 256, 304
-0.996162, 113, 121, 240, 152
-0.996164, 1, 121, 500, 184
-0.996171, 369, 97, 496, 160
-0.996203, 81, 249, 208, 280
-0.996216, 49, 129, 176, 160
-0.996216, 189, 121, 204, 184
-0.996216, 341, 121, 356, 184
-0.996266, 319, 1, 334, 64
-0.996316, 257, 281, 500, 344
-0.996317, 485, 121, 500, 184
-0.99632, 161, 305, 416, 368
-0.996322, 257, 73, 500, 136
-0.996323, 485, 49, 500, 112
-0.996368, 369, 125, 496, 156
-0.996382, 165, 113, 180, 176
-0.996408, 161, 25, 416, 88
-0.996418, 65, 137, 320, 200
-0.996421, 265, 225, 296, 352
-0.996443, 225, 125, 352, 156
-0.99645, 137, 161, 168, 288
-0.996498, 159, 113, 174, 176
-0.996511, 337, 325, 464, 356
-0.996545, 189, 153, 204, 216
-0.996547, 47, 97, 62, 160
-0.996553, 1, 45, 128, 76
-0.996567, 103, 113, 118, 176
-0.996575, 369, 305, 496, 336
-0.996588, 347, 121, 362, 184
-0.996607, 177, 53, 304, 84
-0.99661, 161, 97, 192, 352
-0.996618, 65, 105, 192, 136
-0.996624, 87, 73, 102, 136
-0.996649, 17, 69, 144, 100
-0.996676, 83, 105, 98, 168
-0.996678, 225, 193, 480, 256
-0.996682, 477, 73, 492, 136
-0.996692, 71, 97, 86, 160
-0.996705, 59, 81, 74, 144
-0.996708, 459, 289, 474, 352
-0.996728, 1, 41, 500, 104
-0.996734, 61, 1, 92, 128
-0.99675, 161, 41, 288, 72
-0.996752, 277, 25, 292, 88
-0.99677, 407, 121, 422, 184
-0.996775, 293, 1, 308, 64
-0.996776, 475, 105, 490, 168
-0.9968, 397, 121, 412, 184
-0.996802, 65, 185, 320, 248
-0.996803, 137, 97, 168, 352
-0.996807, 153, 1, 184, 256
-0.996824, 133, 17, 164, 144
-0.996824, 7, 65, 22, 128
-0.996833, 1, 9, 256, 72
-0.996837, 283, 97, 298, 160
-0.996841, 161, 153, 176, 216
-0.996841, 369, 69, 496, 100
-0.996853, 257, 217, 500, 280
-0.996858, 123, 169, 138, 232
-0.996861, 97, 217, 352, 280
-0.996863, 221, 113, 236, 176
-0.99687, 213, 113, 228, 176
-0.996872, 449, 1, 464, 64
-0.996873, 129, 105, 144, 168
-0.996886, 129, 53, 256, 84
-0.996894, 17, 233, 144, 264
-0.996902, 185, 193, 216, 320
-0.996913, 97, 89, 352, 152
-0.996922, 209, 73, 336, 136
-0.996932, 95, 113, 110, 176
-0.996951, 99, 73, 114, 136
-0.996961, 113, 113, 128, 176
-0.996962, 5, 1, 20, 64
-0.996995, 233, 113, 248, 176
-0.997, 467, 1, 482, 64
-0.997009, 415, 121, 430, 184
-0.997014, 1, 1, 32, 256
-0.997014, 205, 1, 236, 256
-0.997024, 257, 1, 500, 64
-0.997025, 333, 121, 348, 184
-0.997027, 337, 337, 464, 368
-0.997028, 123, 113, 138, 176
-0.997029, 135, 113, 150, 176
-0.99704, 485, 73, 500, 136
-0.997051, 457, 1, 472, 64
-0.997053, 161, 1, 192, 128
-0.997054, 273, 117, 400, 148
-0.997055, 287, 17, 302, 80
-0.997066, 81, 237, 208, 268
-0.997069, 161, 149, 288, 180
-0.997072, 81, 141, 208, 172
-0.997075, 361, 177, 392, 304
-0.997079, 371, 121, 386, 184
-0.997095, 113, 153, 240, 184
-0.997096, 59, 113, 74, 176
-0.997104, 389, 225, 420, 352
-0.99711, 421, 121, 436, 184
-0.997116, 21, 1, 52, 256
-0.99712, 241, 325, 368, 356
-0.997125, 23, 97, 38, 160
-0.997129, 289, 97, 304, 160
-0.997134, 97, 273, 352, 336
-0.997143, 1, 81, 16, 144
-0.997156, 213, 145, 244, 272
-0.997163, 225, 57, 352, 88
-0.99718, 279, 1, 294, 64
-0.997183, 367, 305, 382, 368
-0.997193, 377, 305, 392, 368
-0.9972, 467, 313, 482, 375
-0.997201, 137, 145, 152, 208
-0.997205, 385, 121, 400, 184
-0.99721, 1, 97, 500, 160
-0.997232, 305, 1, 336, 256
-0.997235, 13, 73, 28, 136
-0.997238, 465, 289, 480, 352
-0.997246, 175, 137, 190, 200
-0.997247, 227, 113, 242, 176
-0.997247, 303, 113, 318, 176
-0.997253, 313, 113, 328, 176
-0.997255, 257, 1, 288, 256
-0.997264, 177, 113, 304, 144
-0.997274, 307, 25, 322, 88
-0.997288, 39, 57, 54, 120
-0.997293, 87, 225, 102, 288
-0.997296, 257, 49, 500, 112
-0.997308, 53, 105, 68, 168
-0.997313, 303, 1, 318, 64
-0.997316, 461, 313, 476, 375
-0.997317, 391, 305, 406, 368
-0.997318, 483, 9, 498, 72
-0.997327, 129, 165, 256, 196
-0.997335, 365, 121, 380, 184
-0.99734, 151, 113, 166, 176
-0.997341, 125, 97, 156, 352
-0.997345, 257, 257, 500, 320
-0.997348, 7, 41, 22, 104
-0.997349, 149, 97, 180, 352
-0.99735, 93, 97, 124, 352
-0.997354, 269, 1, 300, 256
-0.997359, 131, 169, 146, 232
-0.997361, 105, 73, 120, 136
-0.997365, 439, 1, 454, 64
-0.997365, 301, 25, 316, 88
-0.997377, 253, 113, 268, 176
-0.997379, 89, 113, 104, 176
-0.99738, 189, 1, 220, 256
-0.99738, 93, 73, 108, 136
-0.997384, 169, 1, 200, 256
-0.997387, 17, 97, 32, 160
-0.997392, 161, 249, 416, 312
-0.997396, 105, 137, 120, 200
-0.997401, 75, 113, 90, 144
-0.997402, 65, 105, 80, 168
-0.997408, 81, 49, 208, 80
-0.99741, 77, 89, 92, 152
-0.997411, 257, 45, 384, 76
-0.997411, 173, 97, 204, 352
-0.997414, 359, 305, 374, 368
-0.997417, 321, 185, 336, 248
-0.997417, 391, 121, 406, 184
-0.997428, 1, 57, 128, 88
-0.99743, 237, 33, 268, 288
-0.997432, 195, 121, 210, 184
-0.997438, 267, 1, 282, 64
-0.997439, 113, 137, 128, 200
-0.997439, 1, 281, 256, 344
-0.997441, 183, 149, 198, 180
-0.997442, 329, 1, 344, 64
-0.997456, 19, 41, 34, 104
-0.997463, 309, 97, 340, 352
-0.997472, 215, 17, 230, 80
-0.997484, 69, 109, 84, 140
-0.997492, 315, 33, 330, 96
-0.997492, 457, 265, 472, 328
-0.997493, 379, 121, 394, 184
-0.997494, 221, 1, 252, 256
-0.997495, 471, 73, 486, 136
-0.997496, 119, 89, 134, 152
-0.997496, 29, 105, 44, 168
-0.997499, 145, 129, 160, 192
-0.997507, 1, 193, 500, 256
-0.997508, 339, 193, 354, 256
-0.99751, 17, 245, 144, 276
-0.997511, 257, 97, 500, 160
-0.997513, 173, 1, 188, 64
-0.997514, 1, 97, 128, 128
-0.997514, 431, 1, 446, 64
-0.997517, 137, 17, 152, 80
-0.997519, 289, 61, 416, 92
-0.99752, 207, 113, 222, 176
-0.99752, 309, 233, 324, 296
-0.997521, 77, 113, 92, 176
-0.997527, 29, 73, 44, 136
-0.997529, 353, 121, 368, 184
-0.997533, 129, 109, 256, 140
-0.997533, 369, 285, 496, 316
-0.997536, 281, 1, 312, 256
-0.997537, 337, 33, 368, 288
-0.997545, 293, 1, 324, 256
-0.997553, 469, 249, 484, 312
-0.997554, 297, 113, 312, 176
-0.997556, 401, 289, 416, 352
-0.997562, 449, 281, 464, 344
-0.997566, 41, 105, 56, 168
-0.99757, 145, 105, 160, 168
-0.997572, 295, 25, 310, 88
-0.997578, 427, 121, 442, 184
-0.997578, 277, 97, 308, 352
-0.997581, 261, 1, 276, 64
-0.997582, 185, 97, 216, 352
-0.997583, 199, 9, 214, 72
-0.99759, 1, 161, 256, 224
-0.997591, 65, 153, 192, 184
-0.997594, 337, 53, 464, 84
-0.997605, 461, 33, 476, 96
-0.997608, 201, 113, 216, 176
-0.997612, 287, 121, 302, 184
-0.997612, 321, 313, 448, 344
-0.997617, 321, 25, 336, 88
-0.997619, 273, 313, 400, 344
-0.997623, 241, 113, 256, 176
-0.997636, 19, 45, 34, 76
-0.997642, 65, 65, 192, 96
-0.997656, 129, 1, 384, 64
-0.997665, 1, 217, 500, 280
-0.997676, 317, 1, 348, 256
-0.997682, 321, 97, 352, 352
-0.997696, 97, 313, 224, 375
-0.997702, 289, 97, 320, 352
-0.997704, 133, 1, 164, 256
-0.997704, 97, 125, 112, 156
-0.997708, 261, 97, 292, 352
-0.997716, 369, 137, 496, 168
-0.997733, 65, 97, 96, 352
-0.997734, 177, 29, 304, 60
-0.997738, 81, 113, 96, 144
-0.997741, 225, 113, 352, 144
-0.997749, 321, 301, 448, 332
-0.997751, 65, 213, 192, 244
-0.997755, 113, 97, 144, 352
-0.997757, 305, 145, 432, 176
-0.99779, 479, 117, 494, 148
-0.997792, 305, 193, 432, 224
-0.997792, 97, 265, 224, 296
-0.997808, 49, 81, 176, 112
-0.997808, 197, 97, 228, 352
-0.997814, 177, 125, 304, 156
-0.997817, 161, 253, 288, 284
-0.997823, 65, 165, 192, 196
-0.997833, 257, 189, 384, 220
-0.997834, 89, 113, 104, 144
-0.997844, 41, 85, 56, 116
-0.997852, 65, 189, 192, 220
-0.997852, 305, 173, 432, 204
-0.997857, 353, 33, 384, 288
-0.997858, 33, 1, 64, 256
-0.997859, 273, 213, 400, 244
-0.997884, 225, 177, 352, 208
-0.997899, 19, 57, 34, 88
-0.9979, 209, 97, 240, 352
-0.997903, 409, 97, 440, 352
-0.997911, 425, 33, 456, 288
-0.997924, 81, 225, 208, 256
-0.997926, 113, 281, 240, 312
-0.997926, 25, 37, 40, 68
-0.997928, 441, 33, 472, 288
-0.997942, 121, 1, 152, 256
-0.997958, 479, 81, 494, 112
-0.997967, 51, 77, 66, 108
-0.997968, 91, 125, 106, 156
-0.99799, 113, 37, 240, 68
-0.997997, 341, 129, 372, 375
-0.997999, 393, 1, 424, 256
-0.998001, 225, 309, 352, 340
-0.998002, 381, 33, 412, 288
-0.998008, 273, 337, 400, 368
-0.99802, 249, 97, 280, 352
-0.998025, 39, 65, 54, 96
-0.998025, 449, 129, 480, 375
-0.998034, 305, 157, 432, 188
-0.998041, 241, 225, 368, 256
-0.998041, 109, 1, 140, 256
-0.998055, 405, 1, 436, 256
-0.998058, 369, 273, 496, 304
-0.998069, 17, 209, 144, 240
-0.998072, 85, 125, 100, 156
-0.998073, 1, 161, 500, 224
-0.998083, 177, 149, 192, 180
-0.998087, 105, 117, 120, 148
-0.998093, 1, 33, 128, 64
-0.998098, 85, 233, 100, 264
-0.998098, 241, 257, 368, 288
-0.998101, 209, 1, 336, 32
-0.998103, 95, 113, 110, 144
-0.998109, 393, 129, 408, 160
-0.998111, 97, 201, 224, 232
-0.998117, 209, 205, 336, 236
-0.998118, 465, 97, 496, 352
-0.99813, 49, 97, 80, 352
-0.998133, 321, 1, 448, 32
-0.998134, 63, 105, 78, 136
-0.998139, 17, 193, 144, 224
-0.998145, 45, 1, 76, 256
-0.998148, 57, 77, 72, 108
-0.998157, 481, 105, 496, 136
-0.998171, 35, 89, 50, 120
-0.998181, 81, 65, 112, 320
-0.998182, 225, 97, 256, 352
-0.998192, 257, 25, 500, 88
-0.998205, 485, 121, 500, 152
-0.998205, 113, 177, 240, 208
-0.998206, 321, 205, 448, 236
-0.998206, 1, 137, 128, 168
-0.998218, 49, 65, 64, 96
-0.998228, 63, 117, 78, 148
-0.998231, 129, 137, 256, 168
-0.998235, 175, 113, 190, 144
-0.998237, 209, 41, 336, 72
-0.998244, 129, 241, 256, 272
-0.99825, 97, 69, 112, 100
-0.998255, 13, 45, 28, 76
-0.998266, 289, 289, 416, 320
-0.998267, 75, 65, 90, 96
-0.998269, 183, 109, 198, 140
-0.998269, 241, 161, 368, 192
-0.998271, 397, 97, 428, 352
-0.998271, 349, 125, 364, 156
-0.998273, 485, 37, 500, 68
-0.998275, 79, 125, 94, 156
-0.998276, 429, 129, 460, 375
-0.998276, 241, 137, 368, 168
-0.998279, 1, 65, 500, 128
-0.998289, 47, 89, 62, 120
-0.998304, 189, 157, 204, 188
-0.998306, 91, 233, 106, 264
-0.998307, 433, 1, 464, 16
-0.998307, 229, 127, 260, 142
-0.998308, 161, 53, 192, 68
-0.998308, 409, 127, 440, 142
-0.998308, 289, 119, 320, 134
-0.998308, 289, 325, 416, 356
-0.998309, 397, 301, 428, 316
-0.998309, 149, 163, 180, 178
-0.998309, 189, 125, 220, 140
-0.99831, 153, 245, 184, 260
-0.998311, 161, 159, 192, 174
-0.998311, 457, 121, 488, 136
-0.998311, 413, 73, 444, 88
-0.998311, 113, 81, 144, 96
-0.998311, 409, 133, 440, 148
-0.998312, 181, 147, 212, 162
-0.998313, 453, 281, 484, 296
-0.998313, 429, 131, 460, 146
-0.998313, 321, 221, 352, 236
-0.998313, 469, 319, 500, 334
-0.998314, 173, 53, 204, 68
-0.998316, 317, 227, 348, 242
-0.998316, 253, 59, 284, 74
-0.998316, 261, 239, 292, 254
-0.998316, 369, 323, 400, 338
-0.998317, 105, 75, 136, 90
-0.998317, 181, 111, 212, 126
-0.998317, 269, 61, 300, 76
-0.998317, 105, 127, 136, 142
-0.998318, 397, 321, 428, 336
-0.998319, 121, 179, 152, 194
-0.99832, 469, 135, 500, 150
-0.998321, 113, 191, 144, 206
-0.998321, 161, 115, 192, 130
-0.998322, 101, 121, 132, 136
-0.998322, 101, 247, 132, 262
-0.998323, 349, 67, 380, 82
-0.998323, 449, 1, 480, 16
-0.998323, 465, 287, 496, 302
-0.998324, 213, 57, 244, 72
-0.998324, 53, 87, 84, 102
-0.998324, 117, 131, 148, 146
-0.998326, 49, 107, 80, 122
-0.998326, 1, 181, 128, 212
-0.998326, 85, 249, 116, 264
-0.998327, 393, 71, 424, 86
-0.998328, 73, 87, 104, 102
-0.998328, 321, 129, 352, 144
-0.99833, 37, 93, 68, 108
-0.99833, 177, 269, 304, 300
-0.99833, 177, 169, 208, 184
-0.998332, 453, 33, 484, 288
-0.998332, 313, 117, 344, 132
-0.998333, 441, 305, 472, 320
-0.998333, 5, 75, 36, 90
-0.998333, 1, 67, 32, 82
-0.998334, 121, 253, 152, 268
-0.998334, 365, 97, 396, 352
-0.998334, 113, 199, 144, 214
-0.998335, 17, 93, 48, 108
-0.998336, 17, 71, 48, 86
-0.998336, 453, 287, 484, 302
-0.998336, 161, 121, 192, 136
-0.998336, 149, 123, 180, 138
-0.998338, 61, 63, 92, 78
-0.998338, 89, 233, 120, 248
-0.998339, 303, 117, 318, 148
-0.998339, 193, 281, 320, 312
-0.998339, 349, 339, 380, 354
-0.99834, 49, 123, 80, 138
-0.99834, 73, 129, 88, 160
-0.998341, 13, 51, 44, 66
-0.998341, 61, 109, 92, 124
-0.998341, 397, 125, 428, 140
-0.998341, 349, 129, 380, 144
-0.998342, 189, 159, 220, 174
-0.998342, 101, 87, 132, 102
-0.998343, 369, 341, 400, 356
-0.998345, 297, 263, 328, 278
-0.998345, 465, 299, 496, 314
-0.998347, 133, 197, 164, 212
-0.998347, 149, 155, 180, 170
-0.998347, 301, 125, 332, 140
-0.998348, 365, 131, 396, 146
-0.998348, 389, 131, 420, 146
-0.998349, 85, 77, 116, 92
-0.99835, 277, 127, 308, 142
-0.99835, 73, 111, 104, 126
-0.998351, 61, 129, 92, 144
-0.998351, 125, 173, 156, 188
-0.998351, 321, 123, 352, 138
-0.998352, 85, 119, 116, 134
-0.998352, 469, 91, 500, 106
-0.998356, 5, 61, 36, 76
-0.998356, 453, 307, 484, 322
-0.998356, 209, 241, 336, 272
-0.998356, 469, 277, 500, 292
-0.998362, 73, 117, 104, 132
-0.998362, 103, 77, 118, 108
-0.998362, 337, 131, 368, 146
-0.998363, 113, 293, 240, 324
-0.998363, 133, 123, 164, 138
-0.998364, 81, 137, 112, 152
-0.998364, 105, 133, 136, 148
-0.998367, 469, 81, 500, 96
-0.998369, 117, 121, 148, 136
-0.998369, 85, 69, 116, 84
-0.998371, 49, 113, 80, 128
-0.998372, 329, 129, 344, 160
-0.998373, 29, 97, 60, 352
-0.998375, 81, 59, 112, 74
-0.998375, 283, 1, 298, 32
-0.998377, 33, 69, 64, 84
-0.998377, 335, 125, 350, 156
-0.998379, 17, 43, 48, 58
-0.998379, 177, 153, 208, 168
-0.998379, 1, 87, 32, 102
-0.99838, 1, 43, 32, 58
-0.99838, 93, 81, 108, 112
-0.998381, 73, 235, 104, 250
-0.998381, 289, 125, 320, 140
-0.998382, 161, 147, 192, 162
-0.998383, 85, 239, 116, 254
-0.998386, 69, 81, 100, 96
-0.998386, 385, 317, 416, 332
-0.998388, 193, 137, 320, 168
-0.998389, 369, 245, 496, 276
-0.99839, 17, 61, 48, 76
-0.998391, 81, 61, 96, 92
-0.998392, 1, 217, 256, 280
-0.998393, 9, 65, 24, 96
-0.998394, 81, 129, 112, 144
-0.998397, 17, 81, 48, 96
-0.998397, 57, 79, 88, 94
-0.998399, 61, 121, 92, 136
-0.998401, 173, 117, 204, 132
-0.998403, 65, 177, 192, 208
-0.998405, 355, 325, 370, 356
-0.998405, 111, 125, 126, 156
-0.998406, 101, 137, 116, 168
-0.998414, 1, 51, 32, 66
-0.998415, 29, 49, 44, 80
-0.998419, 37, 81, 68, 96
-0.998424, 287, 105, 302, 136
-0.998427, 125, 117, 140, 148
-0.998428, 381, 129, 396, 160
-0.998428, 65, 77, 80, 108
-0.998429, 115, 113, 130, 144
-0.998429, 73, 65, 104, 80
-0.998438, 41, 83, 104, 98
-0.998441, 449, 1, 464, 32
-0.998444, 209, 193, 336, 224
-0.998444, 193, 321, 320, 352
-0.998445, 123, 165, 138, 196
-0.998446, 301, 119, 332, 134
-0.998446, 129, 169, 144, 200
-0.998446, 413, 125, 428, 156
-0.998446, 173, 159, 204, 174
-0.99845, 369, 233, 496, 264
-0.998451, 25, 87, 56, 102
-0.998453, 469, 125, 500, 140
-0.998454, 33, 273, 160, 304
-0.998456, 61, 115, 92, 130
-0.998459, 471, 265, 486, 296
-0.99846, 321, 117, 448, 148
-0.998462, 161, 45, 176, 76
-0.998464, 481, 69, 496, 100
-0.99847, 485, 57, 500, 88
-0.998477, 55, 109, 70, 140
-0.99848, 87, 69, 102, 100
-0.99848, 9, 5, 24, 36
-0.998482, 471, 89, 486, 120
-0.998484, 101, 81, 132, 96
-0.998486, 481, 93, 496, 124
-0.998486, 403, 297, 418, 328
-0.99849, 321, 241, 448, 272
-0.99849, 469, 119, 500, 134
-0.998492, 329, 117, 344, 148
-0.998492, 369, 13, 496, 44
-0.998495, 73, 123, 104, 138
-0.998496, 7, 49, 22, 80
-0.998498, 93, 129, 124, 144
-0.998503, 361, 325, 376, 356
-0.998504, 475, 105, 490, 136
-0.99851, 65, 93, 192, 124
-0.99851, 33, 305, 288, 368
-0.998512, 165, 153, 196, 168
-0.998518, 257, 201, 384, 232
-0.998518, 321, 217, 448, 248
-0.998519, 9, 77, 24, 108
-0.998519, 429, 125, 444, 156
-0.998519, 1, 221, 128, 252
-0.998524, 73, 83, 136, 98
-0.998524, 37, 87, 68, 102
-0.998527, 107, 137, 122, 168
-0.998527, 65, 125, 128, 140
-0.998528, 83, 81, 98, 112
-0.99853, 115, 77, 130, 108
-0.998535, 293, 125, 308, 156
-0.998535, 463, 301, 478, 332
-0.998538, 85, 83, 116, 98
-0.998544, 9, 87, 72, 102
-0.998544, 41, 65, 104, 80
-0.998545, 99, 241, 114, 272
-0.998546, 69, 1, 100, 256
-0.998546, 1, 79, 64, 94
-0.998546, 19, 33, 34, 64
-0.998546, 161, 121, 176, 152
-0.998547, 17, 333, 144, 364
-0.998549, 477, 277, 492, 308
-0.998552, 369, 1, 496, 32
-0.998553, 135, 165, 150, 196
-0.998553, 467, 1, 482, 32
-0.998555, 97, 1, 128, 256
-0.998557, 457, 5, 472, 36
-0.998557, 183, 161, 198, 192
-0.998559, 57, 119, 120, 134
-0.998562, 9, 71, 72, 86
-0.998564, 33, 89, 96, 104
-0.998566, 257, 1, 384, 32
-0.998571, 231, 117, 246, 148
-0.998571, 475, 69, 490, 100
-0.998573, 321, 73, 448, 104
-0.998574, 167, 45, 182, 76
-0.998575, 203, 125, 218, 156
-0.998588, 383, 313, 398, 344
-0.99859, 297, 1, 312, 32
-0.99859, 17, 97, 48, 352
-0.99859, 1, 313, 500, 375
-0.998594, 221, 125, 236, 156
-0.998595, 145, 153, 208, 168
-0.998598, 155, 45, 170, 76
-0.998598, 41, 77, 104, 92
-0.998598, 289, 121, 352, 136
-0.9986, 471, 249, 486, 280
-0.9986, 423, 125, 438, 156
-0.998601, 33, 121, 96, 136
-0.998602, 89, 119, 152, 134
-0.998602, 353, 337, 368, 368
-0.998602, 359, 337, 374, 368
-0.998603, 403, 309, 418, 340
-0.998603, 169, 121, 184, 152
-0.998604, 33, 115, 96, 130
-0.998607, 21, 105, 36, 136
-0.998607, 177, 17, 304, 48
-0.998608, 81, 131, 144, 146
-0.998608, 1, 249, 500, 312
-0.99861, 121, 123, 184, 138
-0.99861, 145, 197, 272, 228
-0.998612, 249, 127, 312, 142
-0.998613, 41, 127, 104, 142
-0.998614, 425, 75, 488, 90
-0.998614, 403, 121, 418, 152
-0.998615, 169, 159, 232, 174
-0.998616, 443, 309, 458, 340
-0.998616, 469, 309, 484, 340
-0.998617, 485, 133, 500, 164
-0.998619, 97, 83, 160, 98
-0.998619, 193, 293, 320, 324
-0.99862, 161, 337, 288, 368
-0.998621, 359, 125, 374, 156
-0.998621, 1, 89, 16, 120
-0.998622, 73, 251, 136, 266
-0.998622, 409, 297, 472, 312
-0.998623, 73, 77, 88, 108
-0.998625, 145, 163, 208, 178
-0.998625, 145, 121, 208, 136
-0.998625, 369, 209, 496, 240
-0.998625, 353, 129, 384, 375
-0.998625, 9, 93, 72, 108
-0.998626, 433, 127, 496, 142
-0.998626, 17, 43, 80, 58
-0.998626, 433, 133, 496, 148
-0.998627, 237, 129, 268, 375
-0.998628, 57, 89, 120, 104
-0.998628, 391, 313, 406, 344
-0.998628, 323, 117, 338, 148
-0.998629, 17, 153, 144, 184
-0.998629, 275, 45, 290, 76
-0.99863, 323, 5, 338, 36
-0.998635, 171, 141, 186, 172
-0.998636, 73, 77, 136, 92
-0.998638, 129, 115, 192, 130
-0.998639, 73, 67, 136, 82
-0.998639, 289, 127, 352, 142
-0.99864, 189, 145, 204, 176
-0.998641, 329, 67, 392, 82
-0.998644, 297, 203, 360, 218
-0.998645, 57, 133, 120, 148
-0.998646, 425, 81, 488, 96
-0.998646, 49, 109, 112, 124
-0.998647, 177, 55, 240, 70
-0.998647, 201, 57, 264, 72
-0.998647, 113, 173, 176, 188
-0.998648, 145, 169, 208, 184
-0.998648, 385, 125, 448, 140
-0.998648, 433, 315, 496, 330
-0.998649, 377, 73, 440, 88
-0.99865, 353, 131, 416, 146
-0.998651, 369, 33, 496, 64
-0.998652, 257, 61, 320, 76
-0.998652, 329, 217, 344, 248
-0.998652, 125, 181, 140, 212
-0.998653, 113, 129, 176, 144
-0.998653, 97, 251, 160, 266
-0.998653, 281, 7, 344, 22
-0.998653, 369, 257, 496, 288
-0.998654, 137, 193, 152, 224
-0.998654, 369, 125, 384, 156
-0.998655, 129, 59, 192, 74
-0.998655, 9, 61, 72, 76
-0.998655, 281, 17, 296, 48
-0.998655, 419, 185, 434, 216
-0.998655, 73, 195, 136, 210
-0.998655, 185, 127, 248, 142
-0.998656, 289, 17, 352, 32
-0.998656, 57, 239, 120, 254
-0.998656, 131, 117, 146, 148
-0.998657, 9, 109, 72, 124
-0.998657, 73, 113, 136, 128
-0.998657, 397, 309, 412, 340
-0.998658, 473, 117, 488, 148
-0.998658, 393, 303, 456, 318
-0.998658, 433, 299, 496, 314
-0.998658, 169, 153, 232, 168
-0.998658, 433, 121, 496, 136
-0.998659, 9, 51, 72, 66
-0.998659, 73, 181, 136, 196
-0.99866, 329, 129, 392, 144
-0.99866, 401, 73, 464, 88
-0.99866, 353, 315, 416, 330
-0.998662, 353, 71, 416, 86
-0.998663, 433, 351, 496, 366
-0.998664, 169, 165, 232, 180
-0.998664, 289, 25, 352, 40
-0.998664, 213, 49, 228, 80
-0.998664, 289, 315, 352, 330
-0.998665, 393, 319, 456, 334
-0.998665, 89, 61, 152, 76
-0.998665, 213, 125, 228, 156
-0.998665, 121, 81, 136, 112
-0.998666, 225, 59, 288, 74
-0.998667, 273, 201, 336, 216
-0.998668, 281, 37, 344, 52
-0.998668, 297, 221, 360, 236
-0.998668, 153, 115, 216, 130
-0.998668, 281, 63, 344, 78
-0.998668, 249, 325, 312, 340
-0.998669, 129, 147, 192, 162
-0.998671, 97, 243, 160, 258
-0.998671, 281, 265, 344, 280
-0.998672, 265, 257, 328, 272
-0.998673, 257, 267, 320, 282
-0.998673, 289, 31, 352, 46
-0.998674, 81, 137, 144, 152
-0.998674, 321, 73, 384, 88
-0.998674, 113, 65, 240, 96
-0.998675, 345, 339, 408, 354
-0.998675, 297, 71, 360, 86
-0.998675, 305, 65, 368, 80
-0.998675, 313, 213, 376, 228
-0.998676, 297, 227, 360, 242
-0.998677, 89, 169, 152, 184
-0.998677, 257, 121, 320, 136
-0.998677, 161, 127, 224, 142
-0.998677, 281, 271, 344, 286
-0.998677, 105, 187, 168, 202
-0.998678, 209, 123, 272, 138
-0.998678, 273, 43, 336, 58
-0.998678, 161, 61, 224, 76
-0.998679, 81, 89, 144, 104
-0.99868, 17, 37, 80, 52
-0.99868, 249, 245, 312, 260
-0.998681, 377, 131, 440, 146
-0.998681, 137, 249, 200, 264
-0.998681, 129, 195, 192, 210
-0.998682, 417, 307, 480, 322
-0.998683, 313, 341, 376, 356
-0.998684, 145, 1, 272, 32
-0.998684, 369, 303, 432, 318
-0.998684, 9, 115, 72, 130
-0.998684, 361, 321, 424, 336
-0.998684, 97, 257, 160, 272
-0.998685, 329, 21, 392, 36
-0.998685, 273, 301, 400, 332
-0.998685, 105, 135, 168, 150
-0.998685, 145, 53, 208, 68
-0.998687, 257, 237, 320, 252
-0.998687, 289, 325, 352, 340
-0.998687, 113, 159, 176, 174
-0.998688, 305, 11, 368, 26
-0.998688, 41, 59, 104, 74
-0.998688, 105, 199, 168, 214
-0.998688, 393, 325, 456, 340
-0.998688, 321, 123, 384, 138
-0.998689, 217, 65, 280, 80
-0.99869, 233, 239, 296, 254
-0.99869, 337, 333, 400, 348
-0.998695, 17, 165, 144, 196
-0.998697, 365, 1, 396, 256
-0.998699, 33, 257, 160, 288
-0.998716, 289, 257, 416, 288
-0.998724, 65, 29, 192, 60
-0.998728, 353, 169, 480, 200
-0.998744, 241, 269, 368, 300
-0.99875, 225, 149, 352, 180
-0.998753, 465, 1, 496, 256
-0.998753, 353, 193, 480, 224
-0.998761, 97, 81, 224, 112
-0.998767, 57, 1, 88, 256
-0.99877, 289, 229, 416, 260
-0.998804, 173, 97, 188, 224
-0.998826, 1, 1, 500, 64
-0.998931, 381, 129, 412, 375
-0.998946, 7, 1, 22, 128
-0.999002, 481, 65, 496, 192
-0.999002, 179, 97, 194, 224
-0.999014, 325, 17, 340, 144
-0.999039, 423, 113, 438, 240
-0.999059, 27, 33, 42, 160
-0.999098, 167, 113, 182, 240
-0.999099, 39, 33, 54, 160
-0.9991, 131, 97, 146, 224
-0.999131, 485, 113, 500, 240
-0.999148, 1, 65, 16, 192
-0.999154, 193, 97, 208, 224
-0.999155, 185, 97, 200, 224
-0.999163, 125, 97, 140, 224
-0.999167, 329, 97, 344, 224
-0.99917, 157, 97, 172, 224
-0.999175, 21, 33, 36, 160
-0.999182, 289, 1, 304, 128
-0.999182, 181, 145, 196, 272
-0.999193, 385, 113, 400, 240
-0.999203, 347, 113, 362, 240
-0.999206, 315, 17, 330, 144
-0.999215, 199, 113, 214, 240
-0.999218, 33, 49, 48, 176
-0.999224, 469, 65, 484, 192
-0.999224, 335, 65, 350, 192
-0.999224, 225, 97, 240, 224
-0.999227, 409, 113, 424, 240
-0.999228, 337, 113, 352, 240
-0.999228, 147, 113, 162, 240
-0.999229, 279, 33, 294, 160
-0.999233, 293, 49, 308, 176
-0.999233, 415, 113, 430, 240
-0.999239, 231, 97, 246, 224
-0.999244, 1, 281, 500, 344
-0.999247, 47, 33, 62, 160
-0.999263, 137, 113, 152, 240
-0.99927, 319, 97, 334, 224
-0.999275, 1, 97, 32, 352
-0.999277, 475, 81, 490, 208
-0.999278, 391, 113, 406, 240
-0.99928, 307, 49, 322, 176
-0.99928, 217, 97, 232, 224
-0.999284, 343, 49, 358, 176
-0.999284, 57, 33, 72, 160
-0.999284, 403, 113, 418, 240
-0.999293, 463, 1, 478, 128
-0.999295, 161, 145, 176, 272
-0.999296, 89, 49, 104, 176
-0.999297, 373, 113, 388, 240
-0.999301, 305, 97, 320, 224
-0.999301, 251, 49, 266, 176
-0.999304, 117, 97, 132, 224
-0.999314, 255, 113, 270, 240
-0.999314, 19, 97, 34, 224
-0.999316, 353, 113, 368, 240
-0.999317, 237, 49, 252, 176
-0.99932, 287, 49, 302, 176
-0.999321, 241, 113, 256, 240
-0.999322, 15, 49, 30, 176
-0.999324, 301, 1, 316, 128
-0.99933, 425, 65, 440, 192
-0.999333, 263, 113, 278, 240
-0.999335, 331, 1, 346, 128
-0.999336, 267, 49, 282, 176
-0.999336, 257, 49, 272, 176
-0.99934, 227, 49, 242, 176
-0.999344, 211, 97, 226, 224
-0.999345, 301, 49, 316, 176
-0.999351, 295, 113, 310, 240
-0.999352, 313, 97, 328, 224
-0.999352, 123, 161, 138, 288
-0.999355, 273, 113, 288, 240
-0.99936, 243, 49, 258, 176
-0.999362, 467, 241, 482, 368
-0.999368, 295, 1, 310, 128
-0.999368, 205, 113, 220, 240
-0.999372, 439, 65, 454, 192
-0.999373, 415, 65, 430, 192
-0.999376, 179, 33, 194, 160
-0.999377, 221, 33, 236, 160
-0.999377, 429, 113, 444, 240
-0.99938, 287, 97, 302, 224
-0.999382, 309, 1, 324, 128
-0.999383, 365, 1, 380, 128
-0.999384, 457, 65, 472, 192
-0.999385, 379, 49, 394, 176
-0.999385, 463, 65, 478, 192
-0.999386, 83, 65, 98, 192
-0.999387, 431, 65, 446, 192
-0.999388, 321, 177, 336, 304
-0.999388, 361, 113, 376, 240
-0.999393, 395, 49, 410, 176
-0.999394, 61, 97, 76, 224
-0.999394, 29, 97, 44, 224
-0.999396, 379, 113, 394, 240
-0.999396, 397, 113, 412, 240
-0.999396, 7, 49, 22, 176
-0.999403, 389, 49, 404, 176
-0.999406, 247, 97, 262, 224
-0.999407, 359, 1, 374, 128
-0.999411, 367, 113, 382, 240
-0.999412, 469, 113, 484, 240
-0.999415, 359, 49, 374, 176
-0.999417, 165, 65, 180, 192
-0.999419, 89, 1, 104, 128
-0.999422, 189, 145, 204, 272
-0.999424, 273, 49, 288, 176
-0.999429, 215, 33, 230, 160
-0.999429, 107, 17, 122, 144
-0.99943, 475, 33, 490, 160
-0.999431, 117, 161, 132, 288
-0.999433, 175, 145, 190, 272
-0.999436, 69, 113, 84, 240
-0.999436, 455, 1, 470, 128
-0.999439, 49, 81, 64, 208
-0.999441, 71, 33, 86, 160
-0.999444, 209, 33, 224, 160
-0.999447, 201, 33, 216, 160
-0.99945, 483, 17, 498, 144
-0.999452, 95, 65, 110, 192
-0.999455, 449, 65, 464, 192
-0.999457, 131, 161, 146, 288
-0.999458, 371, 1, 386, 128
-0.999461, 127, 49, 142, 176
-0.999461, 173, 225, 188, 352
-0.999462, 353, 1, 368, 128
-0.999463, 373, 49, 388, 176
-0.999464, 83, 17, 98, 144
-0.999465, 457, 225, 472, 352
-0.999468, 365, 49, 380, 176
-0.999526, 483, 77, 498, 92
-0.999526, 139, 167, 154, 182
-0.999526, 389, 129, 404, 144
-0.999527, 121, 77, 136, 92
-0.999527, 231, 127, 246, 142
-0.999527, 345, 335, 360, 350
-0.999527, 477, 275, 492, 290
-0.999527, 79, 233, 94, 248
-0.999527, 161, 159, 176, 174
-0.999528, 473, 91, 488, 106
-0.999528, 115, 129, 130, 144
-0.999528, 71, 79, 86, 94
-0.999528, 185, 113, 200, 128
-0.999529, 473, 79, 488, 94
-0.999529, 323, 123, 338, 138
-0.999529, 307, 193, 322, 208
-0.999529, 117, 177, 132, 192
-0.99953, 335, 207, 350, 222
-0.99953, 361, 343, 376, 358
-0.999531, 425, 133, 440, 148
-0.999531, 55, 111, 70, 126
-0.999531, 111, 135, 126, 150
-0.999531, 165, 123, 180, 138
-0.999532, 293, 1, 308, 16
-0.999532, 9, 45, 24, 60
-0.999532, 185, 169, 200, 184
-0.999533, 7, 55, 22, 70
-0.999533, 313, 201, 328, 216
-0.999533, 381, 131, 396, 146
-0.999534, 15, 1, 30, 16
-0.999534, 225, 121, 240, 136
-0.999535, 353, 339, 368, 354
-0.999535, 285, 127, 300, 142
-0.999536, 323, 129, 338, 144
-0.999536, 143, 123, 158, 138
-0.999537, 83, 135, 98, 150
-0.999537, 59, 79, 74, 94
-0.999538, 325, 117, 340, 132
-0.999538, 99, 241, 114, 256
-0.999538, 27, 51, 42, 66
-0.99954, 471, 275, 486, 290
-0.999541, 473, 119, 488, 134
-0.999541, 371, 129, 386, 144
-0.999542, 409, 125, 424, 140
-0.999542, 159, 153, 174, 168
-0.999542, 147, 153, 162, 168
-0.999543, 287, 105, 302, 120
-0.999543, 283, 9, 298, 24
-0.999543, 463, 303, 478, 318
-0.999544, 123, 167, 138, 182
-0.999544, 191, 167, 206, 182
-0.999544, 1, 49, 16, 64
-0.999546, 95, 79, 110, 94
-0.999547, 469, 311, 484, 326
-0.999548, 471, 267, 486, 282
-0.999549, 5, 9, 20, 24
-0.999549, 313, 119, 328, 134
-0.999551, 73, 129, 88, 144
-0.999551, 115, 81, 130, 96
-0.999553, 131, 173, 146, 188
-0.999553, 481, 93, 496, 108
-0.999553, 137, 195, 152, 210
-0.999554, 77, 81, 92, 96
-0.999554, 9, 81, 24, 96
-0.999555, 131, 121, 146, 136
-0.999556, 283, 3, 298, 18
-0.999556, 87, 243, 102, 258
-0.999556, 19, 59, 34, 74
-0.999556, 61, 121, 76, 136
-0.999557, 91, 119, 106, 134
-0.999557, 179, 113, 194, 128
-0.999558, 45, 69, 60, 84
-0.999558, 77, 115, 92, 130
-0.999558, 121, 131, 136, 146
-0.999558, 85, 117, 100, 132
-0.99956, 395, 131, 410, 146
-0.999561, 479, 109, 494, 124
-0.999562, 479, 125, 494, 140
-0.999564, 63, 111, 78, 126
-0.999565, 95, 67, 110, 82
-0.999565, 329, 123, 344, 138
-0.999566, 291, 127, 306, 142
-0.999567, 185, 119, 200, 134
-0.999567, 89, 67, 104, 82
-0.999567, 7, 65, 22, 80
-0.999568, 109, 81, 124, 96
-0.999568, 177, 151, 192, 166
-0.999568, 9, 73, 24, 88
-0.999568, 299, 123, 314, 138
-0.999569, 349, 129, 364, 144
-0.99957, 47, 87, 62, 102
-0.99957, 89, 79, 104, 94
-0.999571, 35, 87, 50, 102
-0.999572, 19, 43, 34, 58
-0.999573, 39, 67, 54, 82
-0.999575, 305, 119, 320, 134
-0.999575, 185, 163, 200, 178
-0.999577, 481, 99, 496, 114
-0.999577, 137, 123, 152, 138
-0.999577, 9, 1, 24, 16
-0.99958, 67, 125, 82, 140
-0.999582, 19, 51, 34, 66
-0.999583, 485, 117, 500, 132
-0.999584, 69, 111, 84, 126
-0.999585, 479, 119, 494, 134
-0.999587, 95, 129, 110, 144
-0.999588, 83, 65, 98, 80
-0.999594, 177, 119, 192, 134
-0.999595, 45, 81, 60, 96
-0.999596, 481, 133, 496, 148
-0.999596, 93, 239, 108, 254
-0.999597, 87, 127, 102, 142
-0.9996, 101, 129, 116, 144
-0.999601, 485, 125, 500, 140
-0.999601, 39, 81, 54, 96
-0.999604, 83, 83, 98, 98
-0.999605, 75, 123, 90, 138
-0.999606, 109, 129, 124, 144
-0.999609, 481, 83, 496, 98
-0.999613, 81, 125, 96, 140
-0.999615, 85, 233, 100, 248
-0.999617, 103, 81, 118, 96
-0.999622, 51, 81, 66, 96
-0.999632, 185, 157, 200, 172
-0.999637, 95, 85, 110, 100
-0.999641, 71, 117, 86, 132
-0.999646, 77, 63, 92, 78
-0.999678, 89, 85, 104, 100
-0.99968, 183, 151, 198, 166
-0.999764, 41, 87, 56, 102
-1.00099, 41, 145, 104, 272
