1977
-0.475104, 1, 129, 500, 375
-0.580459, 1, 33, 500, 288
-0.591146, 1, 1, 500, 375
-0.63795, 65, 1, 320, 375
-0.708203, 161, 1, 416, 375
-0.720765, 257, 129, 500, 375
-0.722555, 257, 1, 500, 375
-0.740909, 129, 129, 384, 375
-0.7542, 1, 129, 256, 375
-0.847188, 65, 33, 320, 288
-0.864691, 193, 33, 448, 288
-0.897451, 305, 129, 432, 375
-0.899353, 97, 129, 224, 375
-0.899533, 209, 129, 336, 375
-0.899714, 1, 129, 128, 375
-0.905714, 1, 161, 500, 288
-0.90709, 353, 129, 480, 375
-0.911567, 145, 129, 272, 375
-0.912365, 257, 129, 384, 375
-0.914119, 161, 1, 288, 375
-0.914824, 81, 1, 208, 375
-0.916843, 33, 1, 160, 375
-0.918838, 369, 1, 496, 375
-0.919666, 49, 129, 176, 375
-0.92149, 289, 1, 416, 375
-0.923327, 209, 1, 336, 375
-0.93281, 1, 113, 500, 240
-0.932868, 225, 33, 352, 288
-0.933592, 289, 33, 416, 288
-0.934293, 97, 33, 224, 288
-0.934884, 17, 33, 144, 288
-0.935255, 369, 33, 496, 288
-0.938351, 145, 33, 272, 288
-0.950356, 33, 145, 288, 272
-0.950667, 1, 225, 500, 352
-0.951956, 129, 129, 384, 256
-0.954941, 257, 145, 500, 272
-0.958724, 17, 145, 144, 272
-0.959814, 225, 97, 480, 224
-0.96293, 97, 145, 224, 272
-0.963663, 225, 225, 480, 352
-0.966104, 65, 145, 128, 272
-0.967066, 209, 113, 336, 240
-0.967539, 49, 153, 112, 216
-0.967652, 1, 65, 500, 192
-0.967663, 33, 145, 96, 272
-0.967945, 1, 97, 256, 224
-0.968241, 89, 177, 152, 304
-0.968385, 17, 153, 80, 216
-0.968404, 129, 177, 384, 304
-0.968874, 305, 97, 432, 224
-0.968905, 225, 161, 352, 288
-0.969193, 273, 145, 400, 272
-0.970308, 265, 145, 328, 272
-0.970741, 73, 177, 136, 240
-0.970795, 145, 129, 272, 256
-0.971303, 1, 193, 256, 320
-0.971309, 305, 145, 368, 272
-0.971649, 113, 145, 176, 272
-0.972323, 201, 129, 264, 256
-0.972433, 153, 145, 216, 272
-0.97275, 9, 145, 72, 272
-0.972801, 49, 193, 176, 320
-0.972878, 369, 145, 496, 272
-0.973369, 321, 145, 448, 272
-0.973459, 89, 129, 152, 256
-0.973464, 297, 225, 360, 352
-0.973519, 353, 97, 480, 224
-0.973697, 17, 177, 80, 240
-0.973737, 105, 153, 168, 216
-0.974409, 225, 161, 288, 288
-0.974861, 329, 161, 392, 288
-0.97489, 73, 153, 136, 216
-0.97541, 225, 113, 288, 240
-0.976174, 257, 97, 384, 224
-0.976325, 273, 153, 336, 216
-0.97665, 361, 153, 424, 216
-0.976686, 361, 97, 424, 224
-0.976693, 313, 153, 376, 216
-0.976994, 401, 145, 464, 272
-0.9771, 17, 153, 144, 216
-0.977169, 65, 193, 128, 320
-0.977395, 177, 145, 240, 272
-0.977564, 129, 241, 384, 368
-0.9777, 249, 153, 312, 216
-0.977808, 369, 145, 432, 272
-0.977987, 1, 193, 128, 320
-0.978085, 217, 177, 280, 240
-0.979485, 417, 97, 480, 224
-0.979532, 305, 97, 368, 224
-0.979576, 257, 225, 384, 352
-0.979763, 17, 97, 144, 224
-0.979877, 1, 193, 64, 320
-0.979917, 177, 153, 240, 216
-0.979939, 129, 153, 192, 216
-0.980298, 153, 161, 216, 224
-0.980451, 97, 97, 224, 224
-0.980479, 305, 129, 368, 375
-0.980591, 305, 225, 432, 352
-0.980718, 273, 97, 336, 352
-0.980824, 433, 145, 496, 272
-0.98112, 41, 177, 104, 240
-0.981145, 177, 305, 240, 368
-0.981191, 337, 153, 400, 216
-0.98121, 97, 177, 160, 240
-0.981346, 265, 97, 328, 224
-0.981423, 17, 177, 144, 240
-0.981427, 305, 225, 368, 288
-0.981501, 209, 241, 336, 368
-0.981507, 329, 113, 392, 240
-0.981587, 393, 97, 456, 224
-0.981609, 409, 153, 472, 216
-0.981705, 297, 313, 360, 375
-0.981864, 329, 225, 392, 352
-0.98259, 329, 97, 392, 352
-0.982731, 217, 153, 280, 216
-0.982759, 177, 177, 304, 304
-0.982797, 65, 177, 192, 240
-0.982818, 41, 193, 104, 320
-0.982837, 37, 153, 68, 216
-0.982876, 273, 313, 336, 375
-0.983031, 65, 129, 128, 375
-0.983083, 33, 129, 96, 375
-0.983123, 97, 153, 224, 216
-0.983139, 97, 65, 352, 192
-0.983145, 33, 241, 288, 368
-0.983175, 425, 225, 488, 352
-0.983319, 193, 177, 256, 240
-0.983323, 273, 153, 400, 216
-0.983536, 225, 153, 352, 216
-0.983575, 185, 129, 248, 375
-0.983652, 121, 129, 184, 375
-0.984039, 209, 129, 272, 375
-0.984185, 369, 225, 496, 352
-0.984268, 85, 153, 116, 216
-0.984283, 241, 177, 304, 240
-0.984287, 1, 17, 500, 144
-0.984304, 21, 177, 52, 240
-0.984543, 109, 153, 140, 216
-0.984594, 409, 129, 472, 375
-0.984668, 393, 241, 456, 368
-0.984725, 409, 289, 472, 352
-0.984767, 161, 241, 288, 368
-0.984776, 97, 193, 224, 320
-0.984869, 145, 153, 272, 216
-0.984908, 385, 153, 448, 216
-0.984948, 93, 145, 124, 272
-0.98499, 313, 161, 344, 288
-0.985093, 121, 185, 184, 248
-0.985165, 57, 153, 88, 216
-0.985232, 161, 129, 224, 375
-0.985251, 417, 313, 480, 375
-0.985364, 97, 161, 128, 224
-0.985519, 353, 97, 416, 352
-0.985548, 1, 153, 32, 216
-0.985664, 49, 97, 112, 224
-0.985692, 25, 153, 56, 216
-0.985739, 249, 129, 312, 375
-0.985848, 97, 241, 224, 368
-0.985851, 433, 97, 496, 352
-0.98612, 73, 153, 104, 216
-0.986187, 193, 305, 320, 368
-0.986253, 9, 129, 72, 375
-0.986308, 209, 297, 272, 360
-0.986308, 113, 97, 176, 224
-0.986319, 13, 153, 44, 216
-0.986342, 89, 129, 152, 375
-0.986452, 313, 225, 344, 288
-0.986513, 161, 97, 224, 224
-0.986562, 97, 185, 128, 248
-0.986639, 209, 241, 272, 368
-0.986786, 81, 177, 112, 240
-0.986826, 41, 129, 72, 256
-0.98684, 273, 193, 336, 320
-0.986845, 369, 225, 432, 352
-0.986996, 169, 241, 232, 368
-0.987047, 81, 201, 144, 264
-0.987053, 45, 177, 76, 240
-0.987072, 25, 145, 56, 272
-0.987272, 113, 193, 176, 320
-0.987334, 377, 97, 440, 352
-0.98745, 81, 145, 112, 272
-0.987471, 49, 209, 112, 272
-0.987473, 337, 153, 464, 216
-0.987491, 145, 177, 272, 240
-0.987535, 1, 97, 64, 224
-0.987589, 137, 97, 200, 224
-0.987644, 69, 185, 100, 248
-0.98781, 9, 201, 72, 264
-0.987822, 61, 145, 92, 272
-0.987882, 281, 225, 344, 288
-0.988027, 353, 153, 384, 216
-0.988138, 329, 217, 392, 280
-0.988162, 33, 201, 160, 264
-0.988258, 105, 129, 136, 256
-0.988297, 61, 209, 92, 272
-0.988485, 145, 185, 208, 248
-0.988574, 317, 209, 348, 336
-0.988583, 313, 177, 376, 240
-0.988585, 185, 81, 248, 208
-0.988586, 233, 129, 296, 192
-0.988639, 433, 153, 496, 216
-0.988839, 9, 145, 40, 272
-0.988864, 365, 153, 396, 216
-0.988867, 245, 177, 276, 240
-0.988879, 301, 153, 332, 216
-0.988912, 293, 145, 324, 272
-0.988921, 233, 241, 296, 368
-0.98896, 337, 177, 400, 240
-0.988965, 1, 177, 32, 240
-0.989064, 145, 81, 272, 208
-0.98916, 105, 193, 136, 320
-0.989189, 273, 177, 336, 240
-0.989294, 337, 145, 368, 272
-0.989341, 205, 305, 236, 368
-0.989348, 145, 305, 272, 368
-0.989384, 121, 153, 152, 216
-0.989536, 325, 161, 356, 288
-0.989602, 225, 161, 256, 224
-0.989623, 57, 185, 88, 248
-0.989709, 161, 153, 192, 216
-0.989927, 333, 153, 364, 216
-0.989935, 257, 289, 320, 352
-0.989953, 121, 145, 152, 272
-0.990064, 37, 177, 68, 304
-0.990101, 193, 177, 320, 240
-0.990108, 25, 97, 88, 224
-0.990111, 301, 313, 332, 375
-0.990143, 109, 177, 140, 240
-0.99017, 273, 313, 400, 375
-0.990248, 17, 193, 48, 320
-0.990286, 221, 145, 252, 272
-0.990303, 209, 65, 336, 192
-0.990315, 305, 33, 368, 288
-0.99032, 177, 145, 208, 272
-0.990329, 257, 177, 384, 240
-0.990547, 173, 153, 204, 216
-0.990547, 257, 161, 288, 224
-0.990692, 153, 313, 216, 375
-0.990725, 433, 281, 496, 344
-0.990741, 377, 177, 440, 240
-0.990774, 133, 153, 164, 216
-0.99087, 285, 153, 316, 216
-0.990901, 469, 145, 500, 272
-0.990917, 209, 129, 336, 192
-0.990923, 261, 161, 292, 288
-0.990944, 161, 145, 192, 272
-0.99097, 313, 153, 344, 216
-0.991013, 377, 153, 408, 216
-0.991021, 241, 153, 272, 216
-0.991023, 193, 177, 256, 208
-0.991053, 77, 193, 108, 320
-0.991115, 305, 229, 368, 260
-0.991119, 337, 297, 464, 360
-0.991128, 401, 193, 464, 320
-0.991142, 49, 129, 112, 192
-0.991149, 257, 233, 384, 296
-0.991183, 65, 177, 128, 208
-0.99119, 97, 173, 160, 204
-0.991239, 273, 121, 336, 184
-0.99126, 149, 145, 180, 272
-0.991273, 241, 113, 272, 240
-0.991274, 445, 313, 476, 375
-0.991301, 81, 33, 144, 288
-0.991305, 233, 185, 296, 216
-0.99131, 337, 113, 400, 176
-0.991389, 353, 97, 384, 224
-0.991394, 193, 153, 224, 216
-0.991442, 249, 173, 312, 204
-0.99145, 201, 145, 232, 272
-0.991465, 25, 153, 88, 184
-0.991469, 417, 321, 480, 352
-0.991515, 373, 145, 404, 272
-0.991529, 153, 137, 216, 200
-0.991553, 121, 185, 184, 216
-0.991557, 9, 1, 72, 375
-0.991564, 161, 177, 224, 208
-0.991604, 9, 205, 72, 236
-0.991646, 273, 241, 336, 368
-0.991647, 41, 173, 104, 204
-0.991666, 149, 161, 180, 224
-0.991671, 361, 161, 424, 192
-0.991676, 97, 161, 160, 192
-0.991685, 121, 173, 184, 204
-0.991696, 17, 241, 144, 368
-0.99175, 33, 1, 96, 375
-0.991818, 133, 145, 164, 272
-0.991819, 153, 1, 216, 375
-0.991836, 9, 177, 72, 208
-0.991846, 457, 145, 488, 272
-0.991908, 65, 189, 128, 220
-0.991909, 89, 185, 152, 216
-0.991918, 309, 113, 340, 240
-0.991925, 305, 317, 368, 348
-0.991949, 369, 1, 432, 375
-0.991951, 305, 177, 432, 240
-0.991957, 217, 169, 280, 200
-0.991961, 177, 1, 240, 375
-0.991981, 209, 273, 272, 336
-0.991984, 409, 161, 472, 192
-0.991986, 65, 157, 128, 188
-0.991989, 417, 145, 448, 272
-0.991991, 33, 193, 96, 224
-0.991996, 9, 189, 72, 220
-0.992014, 177, 161, 240, 192
-0.99204, 209, 153, 240, 216
-0.992049, 409, 241, 472, 304
-0.992049, 397, 153, 428, 216
-0.992053, 137, 161, 200, 192
-0.992077, 1, 157, 64, 188
-0.992089, 465, 97, 496, 224
-0.992089, 189, 145, 220, 272
-0.992122, 365, 97, 396, 224
-0.992148, 97, 313, 224, 375
-0.992153, 33, 177, 64, 240
-0.992171, 241, 177, 272, 304
-0.992174, 57, 1, 120, 375
-0.992213, 321, 161, 384, 192
-0.992237, 289, 161, 352, 192
-0.992241, 169, 185, 232, 248
-0.992264, 209, 193, 272, 224
-0.992277, 121, 177, 152, 240
-0.992289, 297, 241, 360, 272
-0.992309, 257, 113, 288, 240
-0.99231, 273, 173, 336, 204
-0.992317, 33, 209, 96, 240
-0.992333, 201, 305, 264, 336
-0.992341, 185, 325, 248, 356
-0.992344, 281, 145, 312, 272
-0.992423, 269, 113, 300, 240
-0.992429, 241, 1, 304, 375
-0.992431, 281, 317, 344, 348
-0.992438, 217, 1, 280, 375
-0.992444, 281, 229, 344, 260
-0.992447, 209, 281, 336, 344
-0.992452, 177, 313, 240, 344
-0.992461, 273, 129, 400, 192
-0.992464, 313, 177, 376, 208
-0.99247, 305, 225, 336, 352
-0.992474, 369, 177, 432, 208
-0.992499, 417, 153, 448, 216
-0.992503, 209, 129, 272, 192
-0.992506, 305, 241, 432, 304
-0.992518, 161, 329, 224, 360
-0.992526, 129, 1, 192, 375
-0.992577, 313, 129, 376, 192
-0.992606, 65, 201, 128, 232
-0.992621, 325, 225, 356, 288
-0.992622, 393, 325, 456, 356
-0.992622, 313, 225, 344, 256
-0.99264, 257, 185, 320, 216
-0.992662, 273, 153, 304, 216
-0.992664, 73, 209, 104, 272
-0.992673, 257, 161, 320, 192
-0.992676, 305, 209, 432, 272
-0.992678, 385, 161, 448, 192
-0.992684, 409, 173, 472, 204
-0.992688, 337, 177, 400, 208
-0.99269, 325, 97, 356, 224
-0.992693, 57, 213, 120, 244
-0.992751, 245, 185, 276, 216
-0.992771, 429, 145, 460, 272
-0.992778, 65, 129, 192, 192
-0.992787, 217, 157, 280, 188
-0.992788, 433, 241, 496, 304
-0.992789, 233, 297, 296, 328
-0.992795, 57, 1, 120, 256
-0.992801, 313, 1, 376, 375
-0.992805, 465, 153, 496, 216
-0.992807, 433, 161, 496, 192
-0.992807, 273, 241, 336, 272
-0.992813, 385, 241, 448, 304
-0.992818, 397, 145, 428, 272
-0.992867, 417, 309, 480, 340
-0.992877, 305, 289, 368, 352
-0.992888, 249, 33, 312, 288
-0.992917, 1, 153, 256, 216
-0.992921, 281, 305, 344, 336
-0.992934, 209, 317, 272, 348
-0.992939, 177, 301, 240, 332
-0.992944, 261, 173, 292, 204
-0.992944, 437, 317, 468, 348
-0.992947, 465, 289, 496, 352
-0.992963, 225, 177, 256, 208
-0.992977, 57, 233, 120, 296
-0.992982, 233, 197, 296, 228
-0.993022, 89, 1, 152, 375
-0.993024, 17, 201, 48, 232
-0.99303, 257, 313, 320, 344
-0.993031, 289, 185, 352, 216
-0.993036, 329, 233, 392, 264
-0.993054, 65, 205, 96, 236
-0.993069, 37, 177, 68, 208
-0.993071, 17, 189, 48, 220
-0.993074, 193, 297, 224, 360
-0.993077, 449, 317, 480, 348
-0.993081, 201, 341, 264, 372
-0.993082, 209, 293, 272, 324
-0.993085, 305, 305, 368, 336
-0.993094, 85, 177, 116, 208
-0.993103, 97, 185, 128, 216
-0.993113, 369, 241, 496, 304
-0.993114, 29, 201, 60, 232
-0.993128, 417, 97, 448, 224
-0.993135, 377, 309, 440, 340
-0.993166, 57, 177, 88, 208
-0.993168, 73, 173, 104, 204
-0.99317, 77, 189, 108, 220
-0.993171, 97, 173, 128, 204
-0.993175, 153, 173, 184, 204
-0.993177, 437, 97, 468, 224
-0.993178, 37, 153, 68, 184
-0.993189, 241, 173, 272, 204
-0.993194, 29, 189, 60, 220
-0.993198, 445, 145, 476, 272
-0.993201, 17, 173, 48, 204
-0.993203, 193, 177, 224, 208
-0.993204, 45, 189, 76, 220
-0.993206, 257, 185, 288, 216
-0.993208, 385, 289, 448, 352
-0.993211, 417, 285, 480, 316
-0.993217, 321, 237, 352, 268
-0.993223, 57, 145, 120, 176
-0.993224, 121, 185, 152, 216
-0.993227, 233, 289, 296, 352
-0.993229, 173, 173, 204, 204
-0.99323, 109, 173, 140, 204
-0.993234, 133, 185, 164, 216
-0.993236, 5, 189, 36, 220
-0.993237, 49, 241, 112, 272
-0.993241, 73, 157, 104, 188
-0.993246, 329, 309, 392, 340
-0.993252, 209, 169, 240, 200
-0.993255, 61, 157, 92, 188
-0.993257, 133, 173, 164, 204
-0.993263, 89, 201, 152, 232
-0.993263, 309, 241, 340, 272
-0.993271, 81, 201, 112, 232
-0.993279, 313, 317, 344, 348
-0.993283, 193, 161, 224, 192
-0.993285, 93, 157, 124, 188
-0.993293, 153, 185, 184, 216
-0.993297, 17, 157, 48, 188
-0.993297, 213, 181, 244, 212
-0.9933, 329, 245, 392, 276
-0.993306, 209, 325, 240, 356
-0.993313, 317, 185, 348, 216
-0.993313, 181, 161, 212, 192
-0.993318, 301, 321, 332, 352
-0.993319, 273, 181, 304, 212
-0.993325, 465, 161, 496, 192
-0.993329, 233, 189, 264, 220
-0.993341, 209, 329, 272, 360
-0.993343, 153, 161, 184, 192
-0.993347, 365, 161, 396, 192
-0.993348, 1, 173, 32, 204
-0.993348, 461, 317, 492, 348
-0.993362, 297, 329, 360, 360
-0.993363, 361, 145, 392, 272
-0.993365, 449, 225, 480, 352
-0.993366, 325, 313, 356, 344
-0.993368, 61, 189, 92, 220
-0.993371, 89, 149, 152, 180
-0.993372, 297, 173, 328, 204
-0.993378, 425, 317, 456, 348
-0.993378, 233, 161, 264, 192
-0.993381, 281, 161, 312, 192
-0.993384, 253, 161, 284, 192
-0.993384, 153, 317, 216, 348
-0.993384, 345, 161, 376, 192
-0.993385, 109, 185, 140, 216
-0.99339, 41, 201, 72, 232
-0.993393, 1, 241, 128, 304
-0.993395, 333, 233, 364, 264
-0.993398, 169, 161, 200, 192
-0.9934, 377, 97, 408, 224
-0.9934, 205, 309, 236, 340
-0.993401, 1, 157, 32, 188
-0.993402, 133, 161, 164, 192
-0.993403, 433, 173, 496, 204
-0.993405, 169, 341, 232, 372
-0.993407, 105, 161, 136, 192
-0.993407, 5, 201, 36, 232
-0.99341, 161, 149, 224, 180
-0.993414, 121, 173, 152, 204
-0.993415, 309, 165, 340, 196
-0.993419, 61, 217, 92, 248
-0.99342, 293, 161, 324, 192
-0.993424, 225, 313, 256, 344
-0.993426, 49, 157, 80, 188
-0.993427, 273, 337, 336, 368
-0.993429, 361, 241, 424, 272
-0.993437, 441, 289, 472, 352
-0.993438, 353, 333, 416, 364
-0.99344, 185, 197, 248, 228
-0.99344, 313, 189, 376, 220
-0.993443, 165, 185, 196, 216
-0.993444, 449, 329, 480, 360
-0.993445, 325, 173, 356, 204
-0.993453, 53, 205, 84, 236
-0.993454, 437, 161, 468, 192
-0.993457, 361, 177, 392, 208
-0.99346, 225, 33, 288, 288
-0.99346, 417, 161, 448, 192
-0.993463, 397, 161, 428, 192
-0.993464, 389, 97, 420, 224
-0.993469, 301, 229, 332, 260
-0.993471, 377, 189, 440, 220
-0.993473, 121, 149, 184, 180
-0.993474, 121, 161, 152, 192
-0.993476, 305, 185, 336, 216
-0.99348, 385, 161, 416, 192
-0.993482, 417, 237, 480, 268
-0.993488, 453, 161, 484, 192
-0.993489, 137, 329, 200, 360
-0.993492, 401, 185, 464, 216
-0.993492, 177, 333, 208, 364
-0.993496, 37, 165, 68, 196
-0.993501, 245, 197, 276, 228
-0.993512, 385, 233, 448, 264
-0.99352, 221, 301, 252, 332
-0.993521, 185, 321, 216, 352
-0.993533, 197, 333, 228, 364
-0.993534, 361, 109, 424, 140
-0.993536, 217, 157, 248, 188
-0.993537, 345, 177, 376, 208
-0.993543, 205, 157, 236, 188
-0.993544, 285, 173, 316, 204
-0.993546, 81, 237, 144, 268
-0.993551, 73, 217, 104, 248
-0.993551, 233, 297, 264, 328
-0.993552, 433, 149, 496, 180
-0.993552, 445, 305, 476, 336
-0.993559, 369, 149, 432, 180
-0.993561, 81, 201, 208, 264
-0.993563, 241, 257, 304, 288
-0.993563, 301, 309, 332, 340
-0.993566, 185, 289, 248, 320
-0.993569, 313, 305, 344, 336
-0.99357, 265, 217, 328, 248
-0.993571, 329, 161, 360, 192
-0.993572, 429, 329, 460, 360
-0.993576, 145, 189, 208, 220
-0.99358, 401, 177, 464, 240
-0.993582, 329, 221, 392, 252
-0.993582, 409, 149, 472, 180
-0.993584, 101, 197, 132, 228
-0.993585, 265, 161, 296, 192
-0.99359, 1, 273, 64, 304
-0.993591, 445, 173, 476, 204
-0.993594, 297, 241, 328, 272
-0.993599, 9, 213, 40, 244
-0.993599, 321, 329, 384, 360
-0.993604, 457, 173, 488, 204
-0.993605, 193, 301, 224, 332
-0.993612, 273, 1, 336, 375
-0.993619, 225, 341, 288, 372
-0.993621, 217, 337, 248, 368
-0.993627, 329, 225, 360, 352
-0.99363, 289, 309, 320, 340
-0.993634, 281, 149, 344, 180
-0.993637, 185, 145, 248, 176
-0.99364, 1, 265, 32, 296
-0.99364, 73, 253, 136, 284
-0.993644, 61, 237, 92, 268
-0.993646, 289, 253, 352, 284
-0.993646, 337, 313, 368, 344
-0.993648, 105, 237, 168, 268
-0.993652, 449, 285, 480, 316
-0.993654, 205, 297, 236, 328
-0.993655, 177, 345, 208, 375
-0.993656, 413, 321, 444, 352
-0.993659, 9, 129, 72, 192
-0.993661, 293, 185, 324, 216
-0.993665, 49, 145, 80, 176
-0.993665, 165, 333, 196, 364
-0.993666, 461, 305, 492, 336
-0.993674, 373, 177, 404, 208
-0.993674, 205, 193, 236, 224
-0.993675, 73, 237, 104, 268
-0.993676, 233, 309, 296, 340
-0.993681, 257, 301, 320, 332
-0.993684, 437, 225, 468, 352
-0.993685, 393, 249, 456, 280
-0.993688, 177, 177, 208, 240
-0.993697, 17, 253, 80, 284
-0.993707, 393, 1, 456, 375
-0.993713, 93, 193, 124, 320
-0.993719, 313, 341, 376, 372
-0.99374, 113, 197, 176, 228
-0.993746, 1, 145, 64, 176
-0.993757, 257, 325, 320, 356
-0.99376, 265, 253, 328, 284
-0.993765, 33, 329, 96, 360
-0.993774, 337, 117, 400, 148
-0.993775, 153, 305, 216, 336
-0.993775, 33, 141, 96, 172
-0.993778, 161, 265, 224, 296
-0.993786, 185, 261, 248, 292
-0.993786, 113, 265, 240, 328
-0.993786, 353, 189, 416, 220
-0.99379, 305, 217, 368, 248
-0.993791, 81, 213, 144, 244
-0.993794, 337, 297, 400, 328
-0.993796, 289, 289, 416, 352
-0.993805, 161, 205, 224, 236
-0.993807, 217, 257, 280, 288
-0.993809, 393, 297, 456, 328
-0.99382, 249, 337, 312, 368
-0.99382, 137, 177, 168, 240
-0.993839, 349, 145, 380, 272
-0.99386, 345, 1, 408, 375
-0.99386, 301, 233, 332, 296
-0.993876, 161, 129, 288, 192
-0.99389, 105, 33, 168, 288
-0.993891, 213, 177, 244, 240
-0.993893, 401, 97, 432, 224
-0.993916, 273, 1, 336, 256
-0.993918, 165, 177, 196, 240
-0.993921, 285, 97, 316, 224
-0.993927, 17, 129, 144, 192
-0.99394, 401, 33, 464, 288
-0.993959, 161, 33, 224, 288
-0.994007, 5, 193, 36, 320
-0.994017, 385, 145, 416, 272
-0.994019, 61, 193, 92, 320
-0.99405, 33, 33, 96, 288
-0.994078, 209, 201, 336, 264
-0.994128, 177, 257, 304, 320
-0.994148, 161, 265, 224, 328
-0.994152, 321, 113, 448, 176
-0.994167, 233, 185, 264, 248
-0.994179, 97, 289, 224, 352
-0.994184, 257, 185, 288, 248
-0.99419, 1, 177, 256, 240
-0.994271, 433, 1, 496, 375
-0.994282, 9, 33, 72, 288
-0.994335, 201, 177, 264, 304
-0.994346, 49, 241, 176, 304
-0.994351, 197, 177, 228, 240
-0.994423, 185, 33, 248, 288
-0.994426, 137, 33, 200, 288
-0.994435, 257, 153, 500, 216
-0.994436, 129, 153, 384, 216
-0.994449, 117, 193, 148, 320
-0.994451, 265, 201, 328, 264
-0.994491, 185, 281, 248, 344
-0.994515, 449, 97, 480, 224
-0.994523, 425, 225, 456, 352
-0.994594, 273, 249, 336, 312
-0.994605, 73, 129, 136, 192
-0.994757, 57, 241, 120, 368
-0.99478, 221, 297, 252, 360
-0.994784, 105, 129, 168, 192
-0.994797, 305, 201, 368, 264
-0.994823, 145, 241, 208, 368
-0.994826, 81, 241, 144, 304
-0.994829, 361, 305, 424, 368
-0.994832, 457, 313, 488, 375
-0.994833, 113, 233, 240, 296
-0.994876, 337, 97, 368, 224
-0.994882, 1, 169, 500, 232
-0.994886, 353, 177, 480, 240
-0.994967, 45, 201, 76, 264
-0.994976, 433, 129, 496, 192
-0.995048, 17, 201, 48, 264
-0.995076, 81, 97, 112, 224
-0.995091, 377, 129, 440, 192
-0.995104, 353, 241, 416, 304
-0.995145, 297, 97, 328, 224
-0.995157, 25, 97, 56, 224
-0.995197, 329, 241, 392, 304
-0.995275, 409, 225, 440, 352
-0.995314, 313, 185, 344, 248
-0.995342, 369, 129, 496, 192
-0.995361, 461, 225, 492, 352
-0.995369, 249, 313, 312, 375
-0.995404, 145, 177, 272, 208
-0.995409, 153, 289, 216, 352
-0.995418, 329, 1, 392, 256
-0.995431, 113, 129, 240, 192
-0.995433, 357, 177, 388, 240
-0.99544, 369, 217, 496, 280
-0.995474, 229, 97, 260, 224
-0.995574, 429, 153, 460, 216
-0.995632, 289, 305, 320, 368
-0.995657, 305, 249, 368, 312
-0.995658, 353, 273, 480, 336
-0.995688, 49, 177, 80, 304
-0.99571, 449, 153, 480, 216
-0.995765, 233, 257, 296, 320
-0.995798, 105, 161, 120, 224
-0.9958, 97, 153, 112, 216
-0.99585, 169, 97, 200, 224
-0.995851, 129, 129, 192, 192
-0.995858, 1, 257, 64, 320
-0.995866, 153, 185, 184, 248
-0.995895, 161, 281, 288, 344
-0.995903, 89, 225, 152, 352
-0.995905, 17, 177, 144, 208
-0.995937, 177, 129, 240, 192
-0.995975, 33, 233, 96, 296
-0.995987, 53, 97, 84, 224
-0.995994, 185, 257, 248, 320
-0.996008, 181, 97, 212, 224
-0.996017, 301, 289, 332, 352
-0.996035, 63, 153, 78, 216
-0.996072, 425, 217, 488, 280
-0.996104, 7, 153, 22, 216
-0.996114, 43, 153, 58, 216
-0.996129, 313, 313, 344, 375
-0.996131, 77, 153, 92, 216
-0.996141, 17, 177, 32, 240
-0.996143, 337, 305, 400, 368
-0.996163, 69, 193, 84, 256
-0.996166, 189, 241, 220, 368
-0.996189, 1, 153, 16, 216
-0.996238, 209, 177, 336, 208
-0.99624, 353, 1, 416, 256
-0.996251, 121, 305, 184, 368
-0.996251, 393, 313, 456, 375
-0.996254, 377, 217, 440, 280
-0.996254, 105, 241, 168, 304
-0.996264, 181, 305, 212, 368
-0.996267, 97, 169, 224, 200
-0.996285, 209, 233, 336, 296
-0.996295, 149, 97, 180, 224
-0.996296, 17, 157, 144, 188
-0.996325, 21, 153, 36, 216
-0.996326, 353, 89, 480, 152
-0.996353, 33, 153, 48, 216
-0.996361, 429, 289, 460, 352
-0.996367, 319, 217, 334, 280
-0.996379, 433, 1, 496, 256
-0.996383, 69, 153, 84, 216
-0.996389, 193, 313, 448, 375
-0.996428, 241, 257, 368, 320
-0.99644, 49, 145, 64, 208
-0.996463, 13, 153, 28, 216
-0.996473, 401, 129, 464, 192
-0.996479, 97, 185, 224, 216
-0.996487, 221, 137, 252, 200
-0.996502, 453, 289, 484, 352
-0.996505, 93, 177, 108, 240
-0.996508, 377, 1, 440, 256
-0.996534, 341, 241, 372, 368
-0.996534, 91, 153, 106, 216
-0.996553, 115, 153, 130, 216
-0.996581, 193, 97, 224, 224
-0.996617, 11, 177, 26, 240
-0.996621, 101, 185, 116, 248
-0.996623, 221, 241, 252, 368
-0.996641, 233, 305, 264, 368
-0.99668, 473, 153, 488, 216
-0.996716, 55, 153, 70, 216
-0.996732, 337, 217, 368, 280
-0.996737, 257, 49, 500, 176
-0.996748, 359, 153, 374, 216
-0.99675, 209, 161, 336, 192
-0.996754, 27, 153, 42, 216
-0.99676, 365, 153, 380, 216
-0.996767, 331, 225, 346, 288
-0.996772, 273, 49, 400, 176
-0.996779, 223, 153, 238, 216
-0.996788, 49, 265, 176, 328
-0.99679, 77, 177, 92, 240
-0.996831, 27, 177, 42, 240
-0.996836, 83, 153, 98, 216
-0.996865, 369, 105, 432, 168
-0.996894, 213, 153, 228, 216
-0.996895, 249, 161, 264, 224
-0.996899, 213, 97, 244, 224
-0.996925, 13, 97, 44, 224
-0.996928, 97, 137, 128, 200
-0.996934, 33, 177, 48, 240
-0.996938, 313, 129, 344, 375
-0.99694, 281, 153, 296, 216
-0.99696, 1, 189, 128, 220
-0.996966, 161, 177, 416, 240
-0.996969, 459, 305, 474, 368
-0.996986, 83, 185, 98, 248
-0.996991, 57, 129, 88, 192
-0.996997, 161, 217, 288, 280
-0.997043, 207, 297, 222, 360
-0.997053, 313, 305, 328, 368
-0.997072, 209, 241, 240, 368
-0.997075, 305, 265, 432, 328
-0.997088, 121, 153, 136, 216
-0.997129, 307, 305, 322, 368
-0.997133, 97, 129, 352, 192
-0.997136, 159, 161, 174, 224
-0.99716, 215, 177, 230, 240
-0.99717, 33, 313, 160, 375
-0.997174, 127, 161, 142, 224
-0.997178, 337, 309, 464, 340
-0.997185, 273, 169, 400, 200
-0.997186, 177, 153, 192, 216
-0.997196, 93, 97, 124, 224
-0.997202, 325, 217, 340, 280
-0.997213, 29, 201, 60, 264
-0.997226, 375, 153, 390, 216
-0.997233, 5, 185, 20, 248
-0.997235, 117, 177, 132, 240
-0.997266, 369, 325, 496, 356
-0.99729, 483, 153, 498, 216
-0.997293, 243, 169, 258, 232
-0.997301, 263, 153, 278, 216
-0.997301, 171, 153, 186, 216
-0.997308, 255, 185, 270, 248
-0.997329, 301, 177, 332, 240
-0.997332, 141, 153, 156, 216
-0.99734, 151, 153, 166, 216
-0.997346, 397, 225, 428, 352
-0.99735, 315, 153, 330, 216
-0.997356, 257, 89, 384, 152
-0.997357, 411, 153, 426, 216
-0.997357, 17, 305, 80, 368
-0.997361, 401, 217, 464, 280
-0.997363, 271, 161, 286, 224
-0.997366, 195, 161, 210, 224
-0.997371, 185, 153, 200, 216
-0.997374, 59, 177, 74, 240
-0.99738, 43, 177, 58, 240
-0.997388, 1, 97, 32, 224
-0.997402, 381, 153, 396, 216
-0.997408, 33, 289, 160, 352
-0.997408, 257, 225, 500, 288
-0.997408, 111, 177, 126, 240
-0.99741, 209, 313, 336, 344
-0.997414, 49, 197, 176, 228
-0.997416, 213, 297, 228, 360
-0.997427, 209, 189, 336, 220
-0.99743, 313, 225, 328, 288
-0.997438, 347, 153, 362, 216
-0.997439, 63, 209, 78, 272
-0.997452, 17, 241, 80, 368
-0.997459, 237, 161, 252, 224
-0.997466, 387, 153, 402, 216
-0.997484, 257, 209, 384, 272
-0.997488, 345, 177, 376, 240
-0.997504, 255, 153, 270, 216
-0.997506, 303, 153, 318, 216
-0.997506, 325, 153, 340, 216
-0.997521, 125, 185, 140, 248
-0.997526, 249, 193, 312, 320
-0.997527, 221, 177, 236, 240
-0.997535, 295, 153, 310, 216
-0.997535, 201, 305, 216, 368
-0.997536, 77, 209, 92, 272
-0.997542, 161, 165, 288, 196
-0.997556, 133, 153, 148, 216
-0.997559, 353, 153, 368, 216
-0.997561, 97, 157, 224, 188
-0.997564, 121, 97, 152, 224
-0.997581, 17, 201, 32, 264
-0.997591, 33, 313, 288, 375
-0.997594, 321, 161, 448, 192
-0.997618, 289, 317, 416, 348
-0.997622, 353, 49, 480, 176
-0.997624, 309, 153, 324, 216
-0.99763, 337, 153, 352, 216
-0.997631, 225, 129, 480, 192
-0.997636, 65, 313, 128, 375
-0.997649, 329, 177, 360, 240
-0.997656, 85, 201, 116, 264
-0.99766, 287, 153, 302, 216
-0.997669, 293, 97, 324, 352
-0.997671, 453, 305, 468, 368
-0.997673, 421, 153, 436, 216
-0.997681, 337, 97, 368, 352
-0.997682, 261, 177, 276, 240
-0.997684, 293, 193, 324, 320
-0.997695, 1, 145, 500, 208
-0.997697, 161, 329, 288, 360
-0.997704, 71, 217, 86, 280
-0.99771, 1, 201, 128, 232
-0.997725, 9, 233, 72, 296
-0.997725, 165, 161, 180, 224
-0.997727, 1, 297, 500, 360
-0.997746, 207, 161, 222, 224
-0.997752, 395, 153, 410, 216
-0.997755, 337, 233, 352, 296
-0.997756, 69, 97, 100, 224
-0.997763, 257, 177, 500, 240
-0.997764, 233, 65, 296, 192
-0.997782, 161, 313, 288, 344
-0.997785, 109, 201, 140, 264
-0.997812, 217, 129, 248, 375
-0.997827, 219, 313, 234, 375
-0.997832, 273, 157, 400, 188
-0.997834, 465, 313, 480, 375
-0.997839, 121, 241, 184, 368
-0.99784, 97, 129, 128, 375
-0.99784, 241, 129, 272, 192
-0.997843, 225, 201, 288, 264
-0.997845, 71, 205, 86, 236
-0.997857, 201, 153, 216, 216
-0.997861, 49, 169, 64, 232
-0.997879, 469, 289, 484, 352
-0.997897, 331, 153, 346, 216
-0.997901, 341, 193, 372, 320
-0.997903, 315, 225, 330, 256
-0.99792, 249, 181, 264, 212
-0.997922, 45, 129, 76, 375
-0.99796, 425, 177, 488, 240
-0.997984, 331, 229, 346, 260
-0.997985, 137, 97, 168, 224
-0.997987, 249, 193, 264, 256
-0.997992, 321, 225, 336, 256
-0.997998, 5, 201, 36, 264
-0.998002, 145, 137, 176, 200
-0.998003, 325, 97, 356, 352
-0.998004, 223, 177, 238, 208
-0.998008, 361, 113, 392, 176
-0.998011, 25, 201, 40, 264
-0.998015, 1, 265, 128, 328
-0.998018, 161, 225, 416, 288
-0.998019, 319, 313, 334, 375
-0.998031, 189, 177, 204, 240
-0.998049, 209, 301, 336, 332
-0.998057, 257, 237, 384, 268
-0.998072, 459, 281, 474, 344
-0.998082, 273, 181, 400, 212
-0.998083, 451, 317, 466, 348
-0.998094, 429, 249, 460, 312
-0.998094, 81, 129, 112, 375
-0.9981, 97, 177, 112, 208
-0.998113, 151, 177, 166, 240
-0.998114, 95, 201, 110, 264
-0.998118, 321, 233, 448, 264
-0.99812, 441, 317, 456, 348
-0.998131, 377, 97, 408, 352
-0.998133, 45, 129, 76, 192
-0.998133, 449, 129, 480, 375
-0.998138, 457, 317, 472, 348
-0.998141, 175, 177, 190, 240
-0.99815, 131, 185, 146, 248
-0.998156, 401, 153, 416, 216
-0.998158, 21, 201, 36, 232
-0.998171, 301, 305, 316, 368
-0.998172, 353, 173, 480, 204
-0.998183, 319, 241, 334, 304
-0.998185, 465, 129, 496, 375
-0.99819, 61, 129, 92, 375
-0.998191, 17, 25, 144, 88
-0.998196, 255, 185, 270, 216
-0.9982, 33, 189, 48, 220
-0.998203, 161, 301, 288, 332
-0.998205, 369, 161, 496, 192
-0.998211, 257, 225, 320, 288
-0.998213, 125, 129, 156, 375
-0.998214, 139, 185, 154, 248
-0.998233, 189, 129, 220, 375
-0.998234, 365, 177, 380, 240
-0.998235, 365, 97, 396, 352
-0.998245, 353, 97, 384, 352
-0.998247, 277, 177, 308, 240
-0.998248, 205, 129, 236, 375
-0.998251, 211, 181, 226, 212
-0.998256, 465, 191, 496, 206
-0.998256, 457, 327, 488, 342
-0.998256, 121, 199, 152, 214
-0.998257, 337, 65, 400, 192
-0.998258, 13, 189, 44, 204
-0.998259, 313, 223, 344, 238
-0.998259, 1, 241, 32, 368
-0.998259, 205, 315, 236, 330
-0.99826, 1, 1, 256, 128
-0.998261, 465, 183, 496, 198
-0.998261, 25, 193, 56, 208
-0.998262, 285, 321, 316, 336
-0.998262, 89, 159, 120, 174
-0.998262, 405, 177, 436, 192
-0.998263, 301, 171, 332, 186
-0.998263, 209, 333, 336, 364
-0.998263, 233, 303, 264, 318
-0.998263, 209, 333, 240, 348
-0.998265, 105, 183, 136, 198
-0.998265, 165, 341, 196, 356
-0.998265, 177, 333, 208, 348
-0.998265, 17, 179, 48, 194
-0.998266, 341, 237, 372, 252
-0.998266, 217, 303, 248, 318
-0.998267, 25, 157, 56, 172
-0.998267, 165, 175, 196, 190
-0.998268, 281, 161, 312, 176
-0.998269, 313, 161, 344, 176
-0.998269, 17, 129, 48, 375
-0.998269, 5, 167, 36, 182
-0.998269, 349, 161, 380, 176
-0.998271, 1, 173, 32, 188
-0.998275, 245, 171, 276, 186
-0.998276, 293, 233, 324, 248
-0.998277, 43, 177, 58, 208
-0.998278, 1, 257, 32, 320
-0.998278, 217, 317, 248, 332
-0.998279, 221, 311, 252, 326
-0.998279, 225, 173, 256, 188
-0.99828, 329, 183, 360, 198
-0.99828, 273, 171, 304, 186
-0.998281, 197, 321, 228, 336
-0.998281, 77, 171, 108, 186
-0.998281, 209, 339, 240, 354
-0.998282, 1, 129, 32, 375
-0.998282, 221, 341, 252, 356
-0.998283, 445, 315, 476, 330
-0.998284, 293, 183, 324, 198
-0.998284, 305, 243, 336, 258
-0.998285, 57, 189, 88, 204
-0.998285, 317, 189, 348, 204
-0.998286, 361, 179, 392, 194
-0.998286, 105, 201, 136, 216
-0.998286, 205, 307, 236, 322
-0.998287, 329, 245, 360, 260
-0.998287, 447, 305, 462, 368
-0.998288, 465, 163, 496, 178
-0.998288, 121, 187, 152, 202
-0.998288, 261, 173, 292, 188
-0.998289, 349, 179, 380, 194
-0.998292, 25, 211, 56, 226
-0.998292, 89, 177, 120, 192
-0.998293, 61, 171, 92, 186
-0.998293, 149, 185, 180, 200
-0.998293, 101, 173, 132, 188
-0.998293, 313, 177, 344, 192
-0.998294, 397, 97, 428, 352
-0.998294, 103, 181, 118, 212
-0.998295, 197, 339, 228, 354
-0.998296, 33, 181, 64, 196
-0.9983, 77, 209, 108, 224
-0.9983, 33, 201, 288, 264
-0.9983, 333, 313, 364, 328
-0.998301, 57, 179, 88, 194
-0.998301, 429, 329, 460, 344
-0.998301, 341, 245, 372, 260
-0.998303, 177, 339, 208, 354
-0.998303, 45, 211, 76, 226
-0.998303, 89, 173, 104, 204
-0.998304, 45, 201, 76, 216
-0.998304, 325, 177, 356, 192
-0.998304, 467, 153, 482, 216
-0.998306, 37, 169, 68, 184
-0.998308, 93, 183, 124, 198
-0.998309, 189, 333, 220, 348
-0.99831, 281, 177, 312, 192
-0.99831, 429, 317, 460, 332
-0.99831, 325, 233, 356, 248
-0.998311, 183, 177, 198, 240
-0.998311, 281, 97, 312, 352
-0.998312, 161, 189, 288, 220
-0.998313, 13, 199, 44, 214
-0.998313, 241, 193, 272, 208
-0.998313, 197, 181, 228, 196
-0.998313, 225, 189, 256, 204
-0.998316, 49, 157, 80, 172
-0.998316, 309, 313, 340, 328
-0.998319, 177, 175, 208, 190
-0.998319, 297, 325, 328, 340
-0.99832, 29, 199, 60, 214
-0.998322, 273, 185, 304, 200
-0.998324, 23, 189, 38, 220
-0.998324, 301, 177, 332, 192
-0.998325, 109, 189, 140, 204
-0.998327, 177, 183, 208, 198
-0.99833, 97, 189, 128, 204
-0.99833, 309, 325, 340, 340
-0.99833, 17, 173, 48, 188
-0.99833, 1, 205, 32, 220
-0.998332, 229, 153, 244, 216
-0.998332, 25, 187, 56, 202
-0.998332, 261, 185, 292, 200
-0.998333, 213, 179, 244, 194
-0.998334, 77, 189, 108, 204
-0.998334, 77, 179, 108, 194
-0.998335, 161, 185, 192, 200
-0.998335, 445, 327, 476, 342
-0.998338, 209, 327, 240, 342
-0.998338, 97, 195, 128, 210
-0.99834, 193, 175, 224, 190
-0.998341, 77, 215, 108, 230
-0.998344, 37, 187, 68, 202
-0.998344, 89, 171, 120, 186
-0.998344, 329, 239, 360, 254
-0.998344, 325, 241, 340, 304
-0.998348, 241, 177, 272, 192
-0.998348, 243, 193, 258, 256
-0.998349, 45, 179, 76, 194
-0.998353, 235, 177, 250, 208
-0.998353, 13, 211, 44, 226
-0.998355, 1, 49, 256, 176
-0.998356, 457, 321, 488, 336
-0.998356, 313, 235, 344, 250
-0.99836, 37, 155, 68, 170
-0.998363, 457, 153, 472, 216
-0.998363, 421, 323, 452, 338
-0.998364, 463, 317, 478, 348
-0.998367, 161, 185, 176, 216
-0.998368, 103, 137, 118, 200
-0.998369, 305, 187, 336, 202
-0.998371, 137, 225, 200, 288
-0.998373, 317, 183, 348, 198
-0.998374, 317, 241, 348, 256
-0.998377, 109, 173, 124, 204
-0.998378, 137, 129, 168, 375
-0.998384, 157, 185, 172, 248
-0.998384, 71, 177, 86, 208
-0.998386, 191, 297, 206, 360
-0.998387, 427, 153, 442, 216
-0.998387, 443, 153, 458, 216
-0.998393, 213, 173, 244, 188
-0.998393, 61, 215, 92, 230
-0.998393, 417, 129, 448, 375
-0.998395, 157, 129, 188, 375
-0.998397, 337, 233, 352, 264
-0.998398, 177, 129, 208, 375
-0.998401, 133, 187, 164, 202
-0.998401, 215, 169, 230, 200
-0.998401, 1, 129, 256, 192
-0.998418, 261, 179, 292, 194
-0.998419, 33, 129, 64, 375
-0.998423, 145, 341, 272, 372
-0.998424, 29, 205, 60, 220
-0.998427, 433, 153, 448, 216
-0.998427, 157, 173, 172, 204
-0.998429, 313, 319, 344, 334
-0.99843, 225, 179, 256, 194
-0.998434, 301, 319, 332, 334
-0.998436, 139, 173, 154, 204
-0.998437, 65, 205, 80, 236
-0.99844, 437, 129, 468, 375
-0.998442, 265, 129, 296, 375
-0.998443, 161, 153, 288, 184
-0.998445, 201, 177, 216, 240
-0.998445, 77, 177, 92, 208
-0.998446, 151, 173, 166, 204
-0.998447, 31, 205, 46, 236
-0.998448, 129, 185, 144, 216
-0.998451, 151, 185, 166, 216
-0.998453, 315, 241, 330, 272
-0.998456, 345, 129, 376, 192
-0.998456, 61, 209, 92, 224
-0.998461, 243, 185, 258, 216
-0.998462, 145, 173, 160, 204
-0.998464, 325, 319, 356, 334
-0.99847, 17, 189, 32, 220
-0.998473, 433, 323, 464, 338
-0.998474, 33, 25, 96, 88
-0.998476, 209, 169, 224, 200
-0.99848, 245, 187, 276, 202
-0.998483, 17, 205, 48, 220
-0.998483, 15, 209, 30, 240
-0.998488, 217, 181, 232, 212
-0.99849, 359, 177, 374, 240
-0.998494, 117, 185, 132, 216
-0.998501, 49, 177, 64, 208
-0.998502, 481, 161, 496, 192
-0.998503, 99, 157, 114, 188
-0.998505, 319, 313, 334, 344
-0.998506, 225, 249, 480, 312
-0.998507, 11, 189, 26, 220
-0.998508, 67, 189, 82, 220
-0.998508, 71, 157, 86, 188
-0.998509, 305, 245, 432, 276
-0.99851, 129, 201, 384, 264
-0.998511, 263, 177, 278, 208
-0.998511, 445, 321, 476, 336
-0.998515, 475, 177, 490, 240
-0.998518, 63, 177, 78, 208
-0.998519, 425, 323, 488, 338
-0.998519, 145, 177, 160, 240
-0.99852, 293, 121, 324, 184
-0.998525, 37, 177, 52, 208
-0.998528, 85, 157, 100, 188
-0.99853, 325, 185, 340, 248
-0.998535, 233, 129, 264, 375
-0.998536, 127, 173, 142, 204
-0.998537, 313, 229, 344, 244
-0.998538, 179, 173, 194, 204
-0.998539, 185, 173, 200, 204
-0.99854, 129, 289, 384, 352
-0.99854, 109, 129, 140, 375
-0.998545, 83, 173, 98, 204
-0.99855, 165, 173, 180, 204
-0.99855, 77, 205, 92, 236
-0.998551, 323, 237, 338, 268
-0.998552, 201, 173, 216, 204
-0.998555, 319, 181, 334, 212
-0.998556, 475, 173, 490, 204
-0.998557, 1, 241, 256, 304
-0.998558, 471, 161, 486, 192
-0.998558, 195, 181, 210, 212
-0.998558, 245, 197, 260, 228
-0.998559, 297, 319, 360, 334
-0.99856, 353, 241, 384, 368
-0.99856, 81, 265, 144, 328
-0.99856, 121, 265, 184, 328
-0.998562, 367, 161, 382, 192
-0.998563, 193, 179, 256, 194
-0.998563, 331, 241, 346, 272
-0.998564, 245, 129, 276, 375
-0.998566, 97, 333, 224, 364
-0.998573, 411, 161, 426, 192
-0.998577, 93, 189, 108, 220
-0.998581, 173, 173, 188, 204
-0.998584, 57, 177, 72, 208
-0.998584, 137, 185, 152, 216
-0.998584, 233, 187, 296, 202
-0.998587, 297, 231, 360, 246
-0.998591, 81, 189, 96, 220
-0.998592, 255, 173, 270, 204
-0.998592, 43, 153, 58, 184
-0.998598, 217, 177, 280, 192
-0.998607, 9, 205, 72, 220
-0.99861, 191, 161, 206, 192
-0.998614, 77, 157, 92, 188
-0.998614, 73, 189, 88, 220
-0.998616, 33, 211, 96, 226
-0.998617, 81, 321, 208, 352
-0.998617, 123, 185, 138, 216
-0.998626, 297, 241, 360, 256
-0.998627, 249, 177, 312, 192
-0.998628, 57, 257, 120, 320
-0.998635, 435, 317, 450, 348
-0.998635, 161, 161, 176, 192
-0.998636, 401, 323, 464, 338
-0.998638, 105, 187, 168, 202
-0.998639, 65, 179, 128, 194
-0.998639, 313, 313, 328, 344
-0.99864, 33, 157, 96, 172
-0.99864, 417, 329, 480, 344
-0.998641, 273, 181, 336, 196
-0.998642, 273, 321, 336, 336
-0.998643, 185, 173, 248, 188
-0.998644, 321, 317, 384, 332
-0.998645, 289, 187, 352, 202
-0.998645, 97, 197, 224, 228
-0.998647, 161, 183, 224, 198
-0.998647, 321, 221, 448, 252
-0.99865, 133, 173, 148, 204
-0.998653, 161, 341, 224, 356
-0.998653, 353, 217, 416, 280
-0.998656, 313, 177, 376, 192
-0.998656, 41, 179, 104, 194
-0.998656, 1, 17, 128, 144
-0.998656, 273, 313, 336, 328
-0.998656, 1, 211, 64, 226
-0.998657, 185, 337, 248, 352
-0.998657, 313, 183, 376, 198
-0.998657, 185, 161, 200, 192
-0.998657, 57, 171, 120, 186
-0.998658, 43, 189, 58, 220
-0.998658, 129, 187, 192, 202
-0.99866, 57, 211, 120, 226
-0.998663, 65, 217, 128, 232
-0.998663, 433, 313, 464, 375
-0.998665, 17, 253, 144, 284
-0.998666, 257, 187, 320, 202
-0.998666, 211, 305, 226, 336
-0.998671, 41, 217, 104, 232
-0.998672, 209, 185, 272, 200
-0.998676, 9, 155, 72, 170
-0.998676, 169, 327, 232, 342
-0.998677, 161, 175, 224, 190
-0.998677, 13, 177, 28, 208
-0.998678, 81, 189, 144, 204
-0.99868, 217, 171, 280, 186
-0.99868, 33, 169, 96, 184
-0.99868, 177, 307, 240, 322
-0.99868, 1, 173, 64, 188
-0.998681, 33, 205, 96, 220
-0.998683, 97, 173, 160, 188
-0.998688, 177, 317, 240, 332
-0.99869, 297, 313, 360, 328
-0.99869, 89, 181, 152, 196
-0.998691, 185, 345, 248, 360
-0.998691, 241, 225, 368, 256
-0.998691, 31, 173, 46, 204
-0.998692, 253, 129, 284, 192
-0.998693, 37, 153, 52, 184
-0.998694, 289, 173, 352, 188
-0.998695, 321, 245, 384, 260
-0.998696, 279, 161, 294, 192
-0.998697, 361, 173, 424, 188
-0.998697, 161, 335, 224, 350
-0.998697, 417, 317, 480, 332
-0.998699, 257, 289, 500, 352
-0.9987, 265, 231, 328, 246
-0.998703, 465, 161, 480, 192
-0.998703, 65, 159, 128, 174
-0.998703, 401, 177, 464, 192
-0.998704, 49, 187, 112, 202
-0.998704, 313, 171, 376, 186
-0.998704, 25, 129, 56, 192
-0.998706, 209, 193, 272, 208
-0.998707, 377, 179, 440, 194
-0.998708, 329, 235, 392, 250
-0.998708, 249, 171, 312, 186
-0.998708, 209, 311, 272, 326
-0.998709, 209, 317, 272, 332
-0.99871, 73, 201, 136, 216
-0.99871, 345, 179, 408, 194
-0.998712, 1, 189, 64, 204
-0.998713, 201, 327, 264, 342
-0.998714, 197, 161, 212, 192
-0.998715, 305, 225, 368, 240
-0.998716, 17, 199, 80, 214
-0.998716, 209, 303, 272, 318
-0.998716, 103, 169, 118, 200
-0.998718, 113, 309, 240, 340
-0.998718, 377, 161, 440, 176
-0.99872, 233, 193, 296, 208
-0.99872, 297, 325, 360, 340
-0.998721, 265, 121, 296, 184
-0.998722, 297, 247, 360, 262
-0.998723, 111, 185, 126, 216
-0.998724, 409, 171, 472, 186
-0.998724, 279, 181, 294, 212
-0.998725, 273, 173, 288, 204
-0.998725, 337, 161, 400, 176
-0.998725, 25, 187, 88, 202
-0.998726, 377, 185, 440, 200
-0.998727, 417, 289, 480, 304
-0.998728, 161, 169, 224, 184
-0.998728, 305, 161, 368, 176
-0.998728, 17, 179, 80, 194
-0.998729, 137, 175, 200, 190
-0.99873, 309, 161, 324, 192
-0.99873, 9, 201, 24, 232
-0.998731, 129, 333, 192, 348
-0.998732, 361, 177, 376, 208
-0.998732, 289, 307, 352, 322
-0.998732, 345, 243, 408, 258
-0.998732, 57, 247, 120, 262
-0.998733, 57, 165, 120, 180
-0.998733, 161, 347, 224, 362
-0.998733, 249, 317, 312, 332
-0.998733, 137, 181, 200, 196
-0.998733, 97, 163, 160, 178
-0.998735, 361, 161, 376, 192
-0.998735, 289, 193, 352, 208
-0.998735, 73, 129, 104, 192
-0.998736, 217, 199, 280, 214
-0.998736, 121, 163, 184, 178
-0.998737, 65, 195, 128, 210
-0.998738, 429, 317, 444, 348
-0.998739, 313, 191, 376, 206
-0.998739, 113, 197, 176, 212
-0.998741, 209, 343, 272, 358
-0.998741, 401, 163, 464, 178
-0.998743, 385, 191, 448, 206
-0.998745, 337, 167, 400, 182
-0.998745, 325, 185, 340, 216
-0.998745, 265, 237, 328, 252
-0.998745, 145, 325, 208, 340
-0.998746, 393, 317, 456, 332
-0.998746, 25, 163, 88, 178
-0.998747, 145, 185, 160, 216
-0.998747, 337, 173, 400, 188
-0.998747, 81, 211, 144, 226
-0.998748, 227, 161, 242, 192
-0.998748, 209, 297, 272, 312
-0.998748, 273, 243, 336, 258
-0.998748, 193, 199, 256, 214
-0.998749, 185, 193, 248, 208
-0.99875, 1, 167, 64, 182
-0.998751, 309, 237, 324, 268
-0.998751, 377, 167, 440, 182
-0.998752, 401, 183, 464, 198
-0.998752, 49, 223, 112, 238
-0.998752, 185, 301, 248, 316
-0.998752, 361, 113, 424, 128
-0.998753, 281, 163, 344, 178
-0.998753, 233, 307, 296, 322
-0.998754, 329, 311, 392, 326
-0.998754, 329, 225, 392, 240
-0.998754, 169, 185, 184, 216
-0.998754, 161, 161, 224, 176
-0.998755, 273, 327, 336, 342
-0.998755, 265, 223, 328, 238
-0.998756, 153, 189, 216, 204
-0.998756, 59, 189, 74, 220
-0.998756, 393, 329, 456, 344
-0.998757, 53, 153, 68, 184
-0.998757, 185, 167, 248, 182
-0.998759, 147, 161, 162, 192
-0.99876, 273, 329, 400, 360
-0.998764, 217, 273, 248, 336
-0.998765, 65, 157, 80, 188
-0.998769, 169, 161, 184, 192
-0.998769, 5, 157, 20, 188
-0.998771, 71, 217, 86, 248
-0.998772, 65, 145, 192, 176
-0.998775, 317, 165, 332, 196
-0.998776, 177, 161, 192, 192
-0.998778, 203, 161, 218, 192
-0.998787, 457, 161, 472, 192
-0.99879, 379, 161, 394, 192
-0.998796, 11, 157, 26, 188
-0.998796, 353, 109, 480, 140
-0.998798, 155, 161, 170, 192
-0.998799, 121, 173, 136, 204
-0.998802, 59, 157, 74, 188
-0.998803, 21, 173, 36, 204
-0.998804, 201, 317, 216, 348
-0.998807, 273, 185, 288, 216
-0.99881, 65, 33, 192, 96
-0.998811, 137, 161, 152, 192
-0.998812, 421, 161, 436, 192
-0.998813, 211, 317, 226, 348
-0.998816, 229, 173, 244, 204
-0.998817, 311, 173, 326, 204
-0.998829, 257, 241, 288, 368
-0.998836, 369, 149, 496, 180
-0.998854, 209, 149, 336, 180
-0.998857, 41, 313, 104, 375
-0.998862, 369, 177, 400, 240
-0.998914, 61, 241, 92, 304
-0.998916, 49, 209, 176, 240
-0.998927, 305, 81, 432, 144
-0.998931, 289, 301, 416, 332
-0.998955, 321, 289, 352, 352
-0.998973, 129, 249, 384, 312
-0.998989, 17, 145, 144, 176
-0.998995, 65, 249, 192, 280
-0.999029, 313, 33, 344, 288
-0.999032, 449, 241, 480, 304
-0.99904, 33, 289, 288, 352
-0.999079, 33, 237, 160, 268
-0.999082, 417, 249, 448, 312
-0.999088, 1, 273, 128, 304
-0.999089, 1, 213, 128, 244
-0.999092, 257, 193, 384, 224
-0.999094, 1, 225, 500, 288
-0.999108, 273, 117, 400, 148
-0.999138, 193, 201, 256, 264
-0.999145, 1, 265, 256, 328
-0.999146, 273, 345, 400, 375
-0.999154, 113, 297, 240, 328
-0.999159, 417, 289, 448, 352
-0.999165, 353, 249, 480, 280
-0.999168, 465, 33, 496, 288
-0.999175, 321, 185, 448, 216
-0.999179, 103, 145, 118, 272
-0.999179, 85, 241, 116, 368
-0.999184, 177, 201, 304, 232
-0.999186, 161, 141, 288, 172
-0.999197, 369, 237, 496, 268
-0.999201, 445, 33, 476, 288
-0.999201, 337, 297, 464, 328
-0.999213, 193, 253, 320, 284
-0.999223, 161, 289, 288, 320
-0.999232, 323, 161, 338, 288
-0.999238, 241, 249, 368, 280
-0.999241, 117, 177, 132, 304
-0.999244, 33, 145, 48, 272
-0.999253, 113, 245, 240, 276
-0.999266, 281, 129, 312, 192
-0.99927, 321, 333, 448, 364
-0.999281, 91, 129, 106, 256
-0.999289, 315, 193, 330, 320
-0.999305, 433, 33, 464, 288
-0.999308, 329, 161, 344, 288
-0.999308, 43, 145, 58, 272
-0.999318, 97, 145, 112, 272
-0.999321, 225, 105, 480, 168
-0.999327, 277, 193, 308, 320
-0.999329, 23, 145, 38, 272
-0.999335, 315, 145, 330, 272
-0.999336, 353, 285, 480, 316
-0.999342, 161, 233, 224, 296
-0.999343, 485, 145, 500, 272
-0.999344, 161, 33, 192, 288
-0.999352, 237, 241, 268, 368
-0.999354, 57, 33, 88, 288
-0.999355, 209, 345, 336, 375
-0.999356, 261, 33, 292, 288
-0.999357, 273, 145, 400, 176
-0.999368, 105, 33, 136, 288
-0.999373, 75, 145, 90, 272
-0.999374, 15, 145, 30, 272
-0.999378, 17, 321, 144, 352
-0.999382, 49, 129, 64, 256
-0.999386, 333, 241, 348, 368
-0.999387, 73, 33, 104, 288
-0.999392, 45, 33, 76, 288
-0.999394, 409, 33, 440, 288
-0.999396, 1, 249, 500, 312
-0.999396, 65, 145, 80, 272
-0.999402, 9, 145, 24, 272
-0.999404, 111, 129, 126, 256
-0.999405, 263, 145, 278, 272
-0.999407, 225, 125, 352, 156
-0.999412, 17, 33, 48, 288
-0.999413, 97, 313, 160, 375
-0.999415, 305, 121, 336, 184
-0.999416, 269, 113, 284, 240
-0.999417, 257, 201, 500, 264
-0.999419, 97, 345, 224, 375
-0.999419, 123, 145, 138, 272
-0.99942, 117, 129, 132, 256
-0.999423, 173, 33, 204, 288
-0.999432, 113, 265, 240, 296
-0.999437, 309, 145, 324, 272
-0.99944, 1, 145, 16, 272
-0.999445, 85, 33, 116, 288
-0.999447, 55, 145, 70, 272
-0.999448, 473, 145, 488, 272
-0.999451, 113, 145, 240, 176
-0.999451, 177, 145, 192, 272
-0.999453, 225, 145, 240, 272
-0.999453, 149, 33, 180, 288
-0.999453, 81, 81, 144, 208
-0.999455, 91, 177, 106, 304
-0.999455, 281, 129, 296, 256
-0.999456, 479, 145, 494, 272
-0.999457, 41, 281, 104, 344
-0.999457, 301, 1, 332, 256
-0.999457, 211, 129, 226, 256
-0.999457, 49, 333, 176, 364
-0.999459, 85, 145, 100, 272
-0.99946, 21, 193, 36, 320
-0.999465, 463, 145, 478, 272
-0.999466, 253, 129, 268, 256
-0.999467, 161, 145, 176, 272
-0.999467, 153, 193, 216, 320
-0.999467, 317, 249, 348, 312
-0.999467, 109, 177, 124, 304
-0.999471, 271, 161, 286, 288
-0.999472, 187, 145, 202, 272
-0.999473, 281, 1, 312, 256
-0.999476, 219, 145, 234, 272
-0.999477, 303, 145, 318, 272
-0.999491, 171, 145, 186, 272
-0.999491, 201, 145, 216, 272
-0.999494, 255, 177, 270, 304
-0.999495, 241, 289, 368, 320
-0.999495, 435, 317, 450, 332
-0.999495, 217, 327, 232, 342
-0.999496, 103, 171, 118, 186
-0.999496, 131, 187, 146, 202
-0.999496, 185, 33, 216, 288
-0.999496, 405, 241, 436, 304
-0.999497, 29, 171, 44, 186
-0.999497, 129, 145, 144, 272
-0.999498, 329, 313, 344, 328
-0.999498, 243, 177, 258, 192
-0.999498, 37, 173, 52, 188
-0.999498, 481, 173, 496, 188
-0.999498, 255, 191, 270, 206
-0.999498, 459, 315, 474, 330
-0.999498, 117, 233, 148, 296
-0.999499, 247, 113, 262, 240
-0.999499, 219, 185, 234, 200
-0.999499, 195, 145, 210, 272
-0.999501, 341, 315, 356, 330
-0.999501, 453, 329, 468, 344
-0.999501, 187, 175, 202, 190
-0.999502, 69, 179, 84, 194
-0.999503, 327, 241, 342, 368
-0.999503, 25, 257, 88, 320
-0.999503, 233, 33, 264, 288
-0.999503, 213, 185, 228, 200
-0.999504, 237, 173, 252, 188
-0.999504, 349, 185, 364, 200
-0.999504, 29, 201, 44, 216
-0.999505, 11, 213, 26, 228
-0.999505, 381, 145, 396, 272
-0.999505, 119, 189, 134, 204
-0.999505, 199, 181, 214, 196
-0.999506, 105, 183, 120, 198
-0.999506, 57, 157, 72, 172
-0.999507, 419, 145, 434, 272
-0.999507, 123, 201, 138, 216
-0.999507, 105, 195, 120, 210
-0.999507, 57, 179, 72, 194
-0.999508, 75, 179, 90, 194
-0.999509, 219, 191, 234, 206
-0.999509, 277, 179, 292, 194
-0.999509, 61, 211, 76, 226
-0.99951, 237, 193, 252, 208
-0.99951, 317, 325, 332, 340
-0.99951, 475, 183, 490, 198
-0.99951, 457, 145, 472, 272
-0.999511, 235, 129, 250, 256
-0.999511, 343, 243, 358, 258
-0.999511, 179, 183, 194, 198
-0.999511, 409, 145, 424, 272
-0.999512, 243, 193, 258, 208
-0.999512, 83, 179, 98, 194
-0.999513, 423, 97, 438, 224
-0.999513, 343, 181, 358, 196
-0.999513, 323, 189, 338, 204
-0.999513, 307, 315, 322, 330
-0.999514, 459, 327, 474, 342
-0.999514, 273, 185, 288, 200
-0.999515, 475, 97, 490, 224
-0.999515, 113, 189, 128, 204
-0.999516, 193, 175, 208, 190
-0.999516, 331, 181, 346, 196
-0.999516, 365, 97, 380, 224
-0.999517, 467, 325, 482, 340
-0.999518, 313, 233, 328, 248
-0.999518, 339, 241, 354, 368
-0.999519, 443, 329, 458, 344
-0.999521, 339, 161, 354, 288
-0.999522, 189, 183, 204, 198
-0.999523, 335, 245, 350, 260
-0.999523, 199, 175, 214, 190
-0.999523, 443, 317, 458, 332
-0.999524, 103, 177, 118, 192
-0.999524, 251, 177, 266, 192
-0.999524, 323, 323, 338, 338
-0.999525, 137, 187, 152, 202
-0.999525, 105, 189, 120, 204
-0.999525, 321, 227, 336, 242
-0.999525, 37, 187, 52, 202
-0.999526, 27, 193, 42, 320
-0.999528, 141, 145, 156, 272
-0.999528, 65, 217, 80, 232
-0.999528, 391, 145, 406, 272
-0.999529, 413, 97, 428, 224
-0.999529, 151, 181, 166, 196
-0.999529, 205, 33, 236, 288
-0.99953, 47, 189, 62, 204
-0.99953, 329, 1, 360, 256
-0.999531, 315, 243, 330, 258
-0.999531, 205, 175, 220, 190
-0.999531, 171, 185, 186, 200
-0.999532, 377, 241, 408, 304
-0.999532, 351, 179, 366, 194
-0.999533, 371, 145, 386, 272
-0.999533, 311, 187, 326, 202
-0.999534, 155, 145, 170, 272
-0.999534, 91, 179, 106, 194
-0.999534, 361, 179, 376, 194
-0.999535, 97, 171, 112, 186
-0.999535, 315, 177, 330, 192
-0.999535, 395, 97, 410, 224
-0.999536, 229, 179, 244, 194
-0.999536, 421, 33, 452, 288
-0.999537, 375, 97, 390, 224
-0.999538, 279, 185, 294, 200
-0.999539, 427, 323, 442, 338
-0.999539, 365, 145, 380, 272
-0.999539, 347, 145, 362, 272
-0.99954, 321, 209, 336, 336
-0.999541, 247, 177, 262, 304
-0.999541, 257, 179, 272, 194
-0.999541, 321, 177, 336, 192
-0.999542, 389, 97, 404, 224
-0.999542, 289, 145, 304, 272
-0.999542, 249, 193, 264, 208
-0.999542, 49, 155, 64, 170
-0.999544, 485, 97, 500, 224
-0.999544, 335, 317, 350, 332
-0.999544, 337, 239, 352, 254
-0.999544, 303, 321, 318, 336
-0.999545, 11, 207, 26, 222
-0.999545, 359, 97, 374, 224
-0.999545, 37, 181, 52, 196
-0.999545, 149, 129, 164, 256
-0.999546, 323, 241, 338, 256
-0.999546, 97, 179, 112, 194
-0.999547, 433, 145, 448, 272
-0.999547, 43, 179, 58, 194
-0.999548, 469, 97, 484, 224
-0.999549, 43, 155, 58, 170
-0.999549, 327, 229, 342, 244
-0.99955, 81, 217, 96, 232
-0.99955, 323, 113, 338, 240
-0.999551, 241, 113, 256, 240
-0.999552, 297, 113, 312, 240
-0.999553, 261, 187, 276, 202
-0.999553, 35, 203, 50, 218
-0.999554, 231, 173, 246, 188
-0.999554, 329, 129, 360, 192
-0.999554, 269, 177, 284, 192
-0.999555, 135, 145, 150, 272
-0.999556, 321, 317, 336, 332
-0.999556, 309, 177, 324, 192
-0.999557, 125, 33, 156, 288
-0.999557, 157, 185, 172, 200
-0.999558, 213, 179, 228, 194
-0.999558, 241, 281, 272, 344
-0.999558, 313, 97, 328, 224
-0.99956, 399, 145, 414, 272
-0.999561, 237, 179, 252, 194
-0.999562, 329, 243, 344, 258
-0.999563, 263, 179, 278, 194
-0.999564, 97, 193, 112, 320
-0.999566, 357, 145, 372, 272
-0.999568, 443, 145, 458, 272
-0.999568, 99, 185, 114, 200
-0.999568, 381, 97, 396, 224
-0.99957, 309, 321, 324, 336
-0.999572, 71, 217, 86, 232
-0.999572, 33, 33, 64, 288
-0.999572, 305, 285, 432, 316
-0.999574, 117, 199, 132, 214
-0.999574, 309, 193, 324, 320
-0.999574, 435, 97, 450, 224
-0.999575, 293, 201, 324, 264
-0.999575, 105, 241, 136, 304
-0.999576, 215, 173, 230, 188
-0.999576, 123, 193, 138, 320
-0.999577, 317, 189, 332, 204
-0.999578, 455, 225, 470, 352
-0.999578, 73, 209, 88, 224
-0.999581, 449, 145, 464, 272
-0.999581, 97, 233, 224, 264
-0.999581, 337, 113, 352, 240
-0.999583, 67, 207, 82, 222
-0.999585, 407, 97, 422, 224
-0.999585, 333, 233, 348, 248
-0.999586, 147, 187, 162, 202
-0.999586, 29, 207, 44, 222
-0.999586, 21, 211, 36, 226
-0.999588, 247, 187, 262, 202
-0.999589, 223, 179, 238, 194
-0.999589, 425, 145, 440, 272
-0.99959, 263, 97, 278, 224
-0.999592, 433, 323, 448, 338
-0.999592, 459, 97, 474, 224
-0.999596, 429, 97, 444, 224
-0.999596, 353, 193, 384, 320
-0.999596, 7, 193, 22, 320
-0.999597, 221, 33, 252, 288
-0.999598, 401, 97, 416, 224
-0.999598, 325, 183, 340, 198
-0.999598, 447, 97, 462, 224
-0.999599, 225, 173, 240, 188
-0.999602, 349, 97, 364, 224
-0.999605, 253, 185, 268, 200
-0.999605, 449, 225, 464, 352
-0.999607, 315, 227, 330, 242
-0.999608, 461, 225, 476, 352
-0.999609, 329, 113, 344, 240
-0.999609, 329, 319, 344, 334
-0.999609, 441, 97, 456, 224
-0.99961, 315, 319, 330, 334
-0.999611, 291, 97, 306, 224
-0.999613, 13, 193, 28, 320
-0.999615, 453, 97, 468, 224
-0.999615, 5, 33, 36, 288
-0.999619, 83, 193, 98, 320
-0.999619, 275, 113, 290, 240
-0.99962, 161, 265, 288, 296
-0.99962, 35, 193, 50, 320
-0.99962, 315, 241, 330, 368
-0.999621, 465, 241, 496, 304
-0.999622, 425, 225, 440, 352
-0.999622, 461, 321, 476, 336
-0.999623, 65, 265, 192, 296
-0.999623, 445, 323, 460, 338
-0.999625, 317, 183, 332, 198
-0.999633, 353, 1, 384, 256
-0.999633, 101, 97, 116, 224
-0.999634, 439, 225, 454, 352
-0.999637, 23, 203, 38, 218
-0.99964, 43, 97, 58, 224
-0.999641, 305, 97, 320, 224
-0.999641, 17, 205, 32, 220
-0.999642, 67, 193, 82, 320
-0.999642, 439, 323, 454, 338
-0.999644, 241, 161, 256, 288
-0.999647, 431, 225, 446, 352
-0.999647, 419, 241, 434, 368
-0.999647, 185, 97, 200, 224
-0.999648, 249, 33, 280, 288
-0.999649, 455, 321, 470, 336
-0.999649, 417, 129, 448, 192
-0.999651, 97, 285, 224, 316
-0.999652, 37, 97, 52, 224
-0.99966, 61, 193, 76, 320
-0.99966, 1, 193, 16, 320
-0.999664, 219, 97, 234, 224
-0.999666, 321, 149, 448, 180
-0.999667, 281, 281, 344, 344
-0.999667, 179, 97, 194, 224
-0.999679, 137, 33, 168, 288
-0.999689, 361, 49, 424, 176
-0.999695, 209, 237, 336, 268
-0.999696, 1, 285, 128, 316
-0.999697, 169, 313, 200, 375
-0.999705, 49, 225, 176, 256
-0.999707, 1, 193, 500, 256
-0.999709, 209, 213, 336, 244
-0.99971, 377, 73, 440, 136
-0.999725, 209, 105, 336, 168
-0.99973, 209, 137, 336, 168
-0.999732, 373, 1, 404, 256
-0.999743, 369, 225, 496, 256
-0.999755, 85, 129, 116, 192
-0.999763, 17, 33, 144, 64
-0.999775, 389, 1, 420, 256
-0.999776, 273, 105, 400, 136
-0.999782, 369, 273, 496, 304
-0.999828, 233, 233, 296, 296
-0.999829, 161, 277, 288, 308
-0.99984, 321, 345, 448, 375
-0.999841, 1, 49, 128, 112
-0.999843, 425, 105, 488, 168
-0.999846, 1, 341, 128, 372
-0.999864, 341, 1, 372, 256
-0.999871, 369, 189, 496, 220
-0.999883, 289, 209, 416, 240
-0.999885, 133, 193, 164, 320
-0.99989, 241, 277, 368, 308
-0.999894, 145, 57, 272, 120
-0.999899, 129, 105, 256, 168
-0.999922, 161, 241, 288, 272
-0.999934, 333, 249, 364, 312
-0.99995, 309, 65, 340, 192
-0.999958, 193, 265, 224, 328
-0.999994, 157, 305, 188, 368
-1.00001, 49, 277, 176, 308
-1.00001, 89, 233, 120, 296
-1.00001, 65, 241, 96, 368
-1.00002, 17, 1, 144, 64
-1.00003, 369, 97, 496, 128
-1.00003, 97, 209, 224, 240
-1.00005, 1, 301, 128, 332
-1.00005, 321, 121, 448, 152
-1.00005, 277, 297, 308, 360
-1.00006, 205, 129, 236, 192
-1.00007, 193, 225, 320, 256
-1.00008, 113, 217, 176, 280
-1.00009, 373, 129, 404, 192
-1.00012, 1, 121, 500, 184
-1.00014, 321, 273, 448, 304
-1.00014, 145, 221, 272, 252
-1.00015, 337, 261, 464, 292
-1.00016, 401, 105, 464, 168
-1.00018, 241, 261, 368, 292
-1.00018, 369, 225, 400, 352
-1.00019, 397, 177, 428, 240
-1.00021, 369, 337, 496, 368
-1.00022, 1, 225, 128, 256
-1.00022, 73, 233, 104, 296
-1.00023, 33, 21, 160, 52
-1.00026, 49, 305, 176, 336
-1.00026, 1, 281, 64, 344
-1.0003, 129, 125, 256, 156
-1.00031, 369, 201, 496, 232
-1.00032, 49, 105, 176, 168
-1.00032, 321, 197, 448, 228
-1.00032, 289, 93, 416, 124
-1.00033, 209, 105, 336, 136
-1.00033, 97, 221, 224, 252
-1.00033, 49, 53, 176, 84
-1.00033, 1, 45, 128, 76
-1.00036, 169, 241, 200, 368
-1.00036, 329, 89, 392, 152
-1.00037, 129, 61, 256, 92
-1.00037, 49, 289, 176, 320
-1.00039, 289, 261, 416, 292
-1.0004, 1, 25, 256, 88
-1.00041, 177, 85, 304, 116
-1.00043, 89, 289, 152, 352
-1.00044, 65, 41, 192, 72
-1.00044, 161, 81, 416, 144
-1.00044, 161, 113, 288, 144
-1.00048, 81, 57, 208, 120
-1.0005, 177, 69, 304, 100
-1.00051, 49, 345, 176, 375
-1.00052, 65, 289, 128, 352
-1.00057, 193, 57, 320, 120
-1.00058, 385, 265, 448, 328
-1.00072, 177, 81, 304, 144
-1.00074, 1, 49, 256, 112
-1.00078, 269, 65, 300, 192
-1.0008, 305, 97, 368, 160
-1.00084, 65, 89, 320, 152
-1.00086, 369, 65, 496, 128
-1.00089, 289, 241, 320, 368
-1.00089, 257, 81, 500, 144
-1.001, 97, 57, 352, 120
-1.00101, 57, 25, 120, 88
-1.00105, 65, 9, 192, 72
-1.00107, 81, 81, 208, 144
-1.00108, 17, 241, 48, 368
-1.0011, 177, 193, 240, 320
-1.00111, 129, 17, 384, 144
-1.00111, 1, 1, 256, 64
-1.00112, 257, 89, 320, 152
-1.00116, 277, 241, 308, 368
-1.0012, 1, 73, 128, 136
-1.00122, 201, 193, 232, 320
-1.00124, 353, 81, 416, 144
-1.00125, 145, 33, 272, 96
-1.0013, 345, 265, 408, 328
-1.00136, 385, 225, 416, 352
-1.0014, 49, 1, 176, 128
-1.0015, 97, 33, 352, 96
-1.00153, 153, 193, 184, 320
-1.00154, 401, 81, 464, 144
-1.00156, 1, 89, 500, 152
-1.00165, 97, 241, 128, 368
-1.00166, 193, 41, 448, 104
-1.00172, 97, 9, 352, 72
-1.00174, 193, 33, 320, 96
-1.00177, 209, 249, 272, 312
-1.00178, 1, 273, 500, 336
-1.00179, 241, 65, 368, 128
-1.00184, 129, 81, 256, 144
-1.00186, 105, 81, 136, 208
-1.00192, 161, 209, 224, 272
-1.00193, 257, 1, 500, 64
-1.00201, 369, 41, 496, 104
-1.00201, 369, 1, 496, 64
-1.00203, 153, 241, 184, 368
-1.00203, 213, 193, 244, 320
-1.00207, 305, 57, 432, 120
-1.00219, 65, 49, 192, 176
-1.00222, 241, 33, 368, 96
-1.00232, 113, 241, 144, 368
-1.00232, 385, 49, 448, 176
-1.00244, 1, 65, 500, 128
-1.00244, 37, 65, 68, 192
-1.00246, 41, 241, 72, 368
-1.0025, 113, 9, 240, 72
-1.0025, 229, 193, 260, 320
-1.0025, 1, 97, 128, 160
-1.00252, 257, 65, 288, 192
-1.00255, 289, 33, 416, 96
-1.00263, 25, 1, 88, 128
-1.00267, 185, 193, 216, 320
-1.00274, 273, 1, 400, 64
-1.00274, 321, 1, 448, 64
-1.00276, 1, 25, 500, 88
-1.00282, 173, 193, 204, 320
-1.00285, 225, 9, 352, 72
-1.00286, 209, 65, 272, 192
-1.00295, 177, 9, 304, 72
-1.00295, 393, 49, 424, 176
-1.00295, 49, 1, 112, 128
-1.00312, 29, 241, 60, 368
-1.00313, 1, 1, 500, 64
-1.00319, 61, 1, 92, 128
-1.00336, 49, 1, 80, 128
-1.00342, 417, 49, 480, 176
-1.00343, 241, 65, 272, 192
-1.00345, 53, 241, 84, 368
-1.00354, 381, 49, 412, 176
-1.00358, 133, 241, 164, 368
-1.00389, 369, 49, 400, 176
-1.00404, 313, 49, 376, 176
-1.00416, 53, 49, 84, 176
-1.00429, 421, 49, 452, 176
-1.00431, 457, 49, 488, 176
-1.00433, 41, 49, 104, 176
-1.00469, 257, 49, 320, 176
-1.00508, 225, 1, 480, 128
-1.0055, 281, 49, 344, 176
-1.00572, 153, 49, 216, 176
-1.00619, 145, 33, 272, 160
-1.00639, 97, 1, 224, 128
-1.00714, 193, 17, 320, 144
-1.00738, 17, 49, 80, 176
-1.0077, 129, 49, 192, 176
-1.0085, 1, 1, 64, 128
-1.00879, 337, 17, 400, 144
-1.00902, 73, 17, 136, 144
-1.00917, 273, 1, 400, 128
-1.01004, 369, 1, 496, 128
-1.01078, 161, 1, 224, 128
-1.01086, 321, 1, 448, 128
-1.01097, 97, 17, 160, 144
-1.01185, 121, 1, 184, 128
-1.0122, 193, 17, 256, 144
-1.0123, 217, 1, 280, 128
-1.01236, 433, 1, 496, 128
-1.01246, 393, 1, 456, 128
-1.01324, 257, 1, 320, 128
-1.01341, 281, 1, 344, 128
-1.01586, 361, 1, 424, 128
-1.01671, 313, 1, 376, 128
